<?xml version="1.0" encoding="UTF-8" standalone="yes"?>
                 <!DOCTYPE svg PUBLIC "-//W3C//DTD SVG 1.0//EN" "http://www.w3.org/TR/2001/REC-SVG-20010904/DTD/svg10.dtd">
                 <svg height="500" width="780" xmlns="http://www.w3.org/2000/svg" xmlns:xlink="http://www.w3.org/1999/xlink">
                 <line x1="85" y1="450" x2="747" y2="450" style="stroke:rgb(99,99,99);stroke-width:2" />
<rect height="7.000000" width="2.000000" x="85.000000" y="450.000000" fill="rgb(0, 0, 0)" style="fill-opacity:1.00" />
<text x="107.000000" y="470">
1
</text>
<rect height="7.000000" width="2.000000" x="145.000000" y="450.000000" fill="rgb(0, 0, 0)" style="fill-opacity:1.00" />
<text x="167.000000" y="470">
2
</text>
<rect height="7.000000" width="2.000000" x="205.000000" y="450.000000" fill="rgb(0, 0, 0)" style="fill-opacity:1.00" />
<text x="227.000000" y="470">
3
</text>
<rect height="7.000000" width="2.000000" x="265.000000" y="450.000000" fill="rgb(0, 0, 0)" style="fill-opacity:1.00" />
<text x="287.000000" y="470">
4
</text>
<rect height="7.000000" width="2.000000" x="325.000000" y="450.000000" fill="rgb(0, 0, 0)" style="fill-opacity:1.00" />
<text x="347.000000" y="470">
5
</text>
<rect height="7.000000" width="2.000000" x="385.000000" y="450.000000" fill="rgb(0, 0, 0)" style="fill-opacity:1.00" />
<text x="407.000000" y="470">
6
</text>
<rect height="7.000000" width="2.000000" x="445.000000" y="450.000000" fill="rgb(0, 0, 0)" style="fill-opacity:1.00" />
<text x="467.000000" y="470">
7
</text>
<rect height="7.000000" width="2.000000" x="505.000000" y="450.000000" fill="rgb(0, 0, 0)" style="fill-opacity:1.00" />
<text x="527.000000" y="470">
8
</text>
<rect height="7.000000" width="2.000000" x="565.000000" y="450.000000" fill="rgb(0, 0, 0)" style="fill-opacity:1.00" />
<text x="587.000000" y="470">
9
</text>
<rect height="7.000000" width="2.000000" x="625.000000" y="450.000000" fill="rgb(0, 0, 0)" style="fill-opacity:1.00" />
<text x="647.000000" y="470">
10
</text>
<rect height="7.000000" width="2.000000" x="685.000000" y="450.000000" fill="rgb(0, 0, 0)" style="fill-opacity:1.00" />
<text x="707.000000" y="470">
11
</text>
<rect height="7.000000" width="2.000000" x="745.000000" y="450.000000" fill="rgb(0, 0, 0)" style="fill-opacity:1.00" />
<!-- Begin 'A' -->
<polygon points=" 10.000000, 110.000000, 35.200000, 10.000000, 44.800000, 10.000000, 70.000000, 110.000000, 61.000000, 110.000000, 53.500000, 85.000000, 26.500000, 85.000000, 19.000000, 110.000000" fill="rgb(178, 34, 34)" style="fill-opacity:1.00" />
<polygon points=" 40.000000, 30.000000, 30.400000, 69.000000, 48.400000, 69.000000" fill="rgb(255, 255, 255)" style="fill-opacity:1.00" />
<!-- End 'A' -->
<!-- Begin 'C' -->
<ellipse cx="40.000000" cy="170.000000" rx="30.000000" ry="50.000000" fill="rgb(0, 0, 128)" style="fill-opacity:1.00" />
<ellipse cx="40.000000" cy="170.000000" rx="20.000000" ry="33.333333" fill="rgb(255, 255, 255)" style="fill-opacity:1.00" />
<rect height="50.000000" width="30.000000" x="40.000000" y="145.000000" fill="rgb(255, 255, 255)" style="fill-opacity:1.00" />
<!-- End 'C' -->
<!-- Begin 'G' -->
<ellipse cx="40.000000" cy="280.000000" rx="30.000000" ry="50.000000" fill="rgb(255, 165, 0)" style="fill-opacity:1.00" />
<ellipse cx="40.000000" cy="280.000000" rx="20.000000" ry="33.333333" fill="rgb(255, 255, 255)" style="fill-opacity:1.00" />
<rect height="50.000000" width="30.000000" x="40.000000" y="255.000000" fill="rgb(255, 255, 255)" style="fill-opacity:1.00" />
<rect height="12.500000" width="30.000000" x="40.000000" y="292.500000" fill="rgb(255, 165, 0)" style="fill-opacity:1.00" />
<rect height="37.500000" width="7.500000" x="62.500000" y="292.500000" fill="rgb(255, 165, 0)" style="fill-opacity:1.00" />
<!-- End 'G' -->
<!-- Begin 'T' -->
<rect height="16.000000" width="60.000000" x="10.000000" y="340.000000" fill="rgb(0, 100, 0)" style="fill-opacity:1.00" />
<rect height="100.000000" width="12.000000" x="34.000000" y="340.000000" fill="rgb(0, 100, 0)" style="fill-opacity:1.00" />
<!-- End 'T' -->
<!-- Begin 'A' -->
<polygon points=" 90.000000, 46.641231, 111.000000, 10.000000, 119.000000, 10.000000, 140.000000, 46.641231, 132.500000, 46.641231, 126.250000, 37.480923, 103.750000, 37.480923, 97.500000, 46.641231" fill="rgb(178, 34, 34)" style="fill-opacity:0.31" />
<polygon points=" 115.000000, 17.328246, 107.000000, 30.984739, 122.000000, 30.984739" fill="rgb(255, 255, 255)" style="fill-opacity:1.00" />
<!-- End 'A' -->
<!-- Begin 'T' -->
<rect height="5.611232" width="50.000000" x="90.000000" y="46.641231" fill="rgb(0, 100, 0)" style="fill-opacity:0.31" />
<rect height="35.070198" width="10.000000" x="110.000000" y="46.641231" fill="rgb(0, 100, 0)" style="fill-opacity:0.31" />
<!-- End 'T' -->
<!-- Begin 'G' -->
<ellipse cx="115.000000" cy="89.201900" rx="25.000000" ry="7.490471" fill="rgb(255, 165, 0)" style="fill-opacity:0.31" />
<ellipse cx="115.000000" cy="89.201900" rx="16.666667" ry="4.993647" fill="rgb(255, 255, 255)" style="fill-opacity:1.00" />
<rect height="7.490471" width="25.000000" x="115.000000" y="85.456664" fill="rgb(255, 255, 255)" style="fill-opacity:1.00" />
<rect height="1.872618" width="25.000000" x="115.000000" y="91.074517" fill="rgb(255, 165, 0)" style="fill-opacity:0.31" />
<rect height="5.617853" width="6.250000" x="133.750000" y="91.074517" fill="rgb(255, 165, 0)" style="fill-opacity:0.31" />
<!-- End 'G' -->
<!-- Begin 'C' -->
<ellipse cx="115.000000" cy="103.346185" rx="25.000000" ry="6.653815" fill="rgb(0, 0, 128)" style="fill-opacity:0.31" />
<ellipse cx="115.000000" cy="103.346185" rx="16.666667" ry="4.435877" fill="rgb(255, 255, 255)" style="fill-opacity:1.00" />
<rect height="6.653815" width="25.000000" x="115.000000" y="100.019278" fill="rgb(255, 255, 255)" style="fill-opacity:1.00" />
<!-- End 'C' -->
<!-- Begin 'T' -->
<rect height="5.773990" width="50.000000" x="90.000000" y="120.000000" fill="rgb(0, 100, 0)" style="fill-opacity:0.19" />
<rect height="36.087439" width="10.000000" x="110.000000" y="120.000000" fill="rgb(0, 100, 0)" style="fill-opacity:0.19" />
<!-- End 'T' -->
<!-- Begin 'A' -->
<polygon points=" 90.000000, 187.496472, 111.000000, 156.087439, 119.000000, 156.087439, 140.000000, 187.496472, 132.500000, 187.496472, 126.250000, 179.644214, 103.750000, 179.644214, 97.500000, 187.496472" fill="rgb(178, 34, 34)" style="fill-opacity:0.19" />
<polygon points=" 115.000000, 162.369246, 107.000000, 173.932859, 122.000000, 173.932859" fill="rgb(255, 255, 255)" style="fill-opacity:1.00" />
<!-- End 'A' -->
<!-- Begin 'G' -->
<ellipse cx="115.000000" cy="198.484637" rx="25.000000" ry="10.988165" fill="rgb(255, 165, 0)" style="fill-opacity:0.19" />
<ellipse cx="115.000000" cy="198.484637" rx="16.666667" ry="7.325443" fill="rgb(255, 255, 255)" style="fill-opacity:1.00" />
<rect height="10.988165" width="25.000000" x="115.000000" y="192.990555" fill="rgb(255, 255, 255)" style="fill-opacity:1.00" />
<rect height="2.747041" width="25.000000" x="115.000000" y="201.231678" fill="rgb(255, 165, 0)" style="fill-opacity:0.19" />
<rect height="8.241123" width="6.250000" x="133.750000" y="201.231678" fill="rgb(255, 165, 0)" style="fill-opacity:0.19" />
<!-- End 'G' -->
<!-- Begin 'C' -->
<ellipse cx="115.000000" cy="214.736401" rx="25.000000" ry="5.263599" fill="rgb(0, 0, 128)" style="fill-opacity:0.19" />
<ellipse cx="115.000000" cy="214.736401" rx="16.666667" ry="3.509066" fill="rgb(255, 255, 255)" style="fill-opacity:1.00" />
<rect height="5.263599" width="25.000000" x="115.000000" y="212.104601" fill="rgb(255, 255, 255)" style="fill-opacity:1.00" />
<!-- End 'C' -->
<!-- Begin 'T' -->
<rect height="7.637205" width="50.000000" x="90.000000" y="230.000000" fill="rgb(0, 100, 0)" style="fill-opacity:0.19" />
<rect height="47.732530" width="10.000000" x="110.000000" y="230.000000" fill="rgb(0, 100, 0)" style="fill-opacity:0.19" />
<!-- End 'T' -->
<!-- Begin 'A' -->
<polygon points=" 90.000000, 307.362738, 111.000000, 277.732530, 119.000000, 277.732530, 140.000000, 307.362738, 132.500000, 307.362738, 126.250000, 299.955186, 103.750000, 299.955186, 97.500000, 307.362738" fill="rgb(178, 34, 34)" style="fill-opacity:0.19" />
<polygon points=" 115.000000, 283.658572, 107.000000, 294.510655, 122.000000, 294.510655" fill="rgb(255, 255, 255)" style="fill-opacity:1.00" />
<!-- End 'A' -->
<!-- Begin 'G' -->
<ellipse cx="115.000000" cy="313.738862" rx="25.000000" ry="6.376125" fill="rgb(255, 165, 0)" style="fill-opacity:0.19" />
<ellipse cx="115.000000" cy="313.738862" rx="16.666667" ry="4.250750" fill="rgb(255, 255, 255)" style="fill-opacity:1.00" />
<rect height="6.376125" width="25.000000" x="115.000000" y="310.550800" fill="rgb(255, 255, 255)" style="fill-opacity:1.00" />
<rect height="1.594031" width="25.000000" x="115.000000" y="315.332894" fill="rgb(255, 165, 0)" style="fill-opacity:0.19" />
<rect height="4.782094" width="6.250000" x="133.750000" y="315.332894" fill="rgb(255, 165, 0)" style="fill-opacity:0.19" />
<!-- End 'G' -->
<!-- Begin 'C' -->
<ellipse cx="115.000000" cy="325.057494" rx="25.000000" ry="4.942506" fill="rgb(0, 0, 128)" style="fill-opacity:0.19" />
<ellipse cx="115.000000" cy="325.057494" rx="16.666667" ry="3.295004" fill="rgb(255, 255, 255)" style="fill-opacity:1.00" />
<rect height="4.942506" width="25.000000" x="115.000000" y="322.586240" fill="rgb(255, 255, 255)" style="fill-opacity:1.00" />
<!-- End 'C' -->
<!-- Begin 'T' -->
<rect height="7.460921" width="50.000000" x="90.000000" y="340.000000" fill="rgb(0, 100, 0)" style="fill-opacity:0.31" />
<rect height="46.630753" width="10.000000" x="110.000000" y="340.000000" fill="rgb(0, 100, 0)" style="fill-opacity:0.31" />
<!-- End 'T' -->
<!-- Begin 'A' -->
<polygon points=" 90.000000, 413.702375, 111.000000, 386.630753, 119.000000, 386.630753, 140.000000, 413.702375, 132.500000, 413.702375, 126.250000, 406.934470, 103.750000, 406.934470, 97.500000, 413.702375" fill="rgb(178, 34, 34)" style="fill-opacity:0.31" />
<polygon points=" 115.000000, 392.045078, 107.000000, 401.873726, 122.000000, 401.873726" fill="rgb(255, 255, 255)" style="fill-opacity:1.00" />
<!-- End 'A' -->
<!-- Begin 'G' -->
<ellipse cx="115.000000" cy="421.307836" rx="25.000000" ry="7.605461" fill="rgb(255, 165, 0)" style="fill-opacity:0.31" />
<ellipse cx="115.000000" cy="421.307836" rx="16.666667" ry="5.070308" fill="rgb(255, 255, 255)" style="fill-opacity:1.00" />
<rect height="7.605461" width="25.000000" x="115.000000" y="417.505106" fill="rgb(255, 255, 255)" style="fill-opacity:1.00" />
<rect height="1.901365" width="25.000000" x="115.000000" y="423.209202" fill="rgb(255, 165, 0)" style="fill-opacity:0.31" />
<rect height="5.704096" width="6.250000" x="133.750000" y="423.209202" fill="rgb(255, 165, 0)" style="fill-opacity:0.31" />
<!-- End 'G' -->
<!-- Begin 'C' -->
<ellipse cx="115.000000" cy="434.456649" rx="25.000000" ry="5.543351" fill="rgb(0, 0, 128)" style="fill-opacity:0.31" />
<ellipse cx="115.000000" cy="434.456649" rx="16.666667" ry="3.695567" fill="rgb(255, 255, 255)" style="fill-opacity:1.00" />
<rect height="5.543351" width="25.000000" x="115.000000" y="431.684973" fill="rgb(255, 255, 255)" style="fill-opacity:1.00" />
<!-- End 'C' -->
<!-- Begin 'C' -->
<ellipse cx="175.000000" cy="26.671027" rx="25.000000" ry="16.671027" fill="rgb(0, 0, 128)" style="fill-opacity:0.32" />
<ellipse cx="175.000000" cy="26.671027" rx="16.666667" ry="11.114018" fill="rgb(255, 255, 255)" style="fill-opacity:1.00" />
<rect height="16.671027" width="25.000000" x="175.000000" y="18.335513" fill="rgb(255, 255, 255)" style="fill-opacity:1.00" />
<!-- End 'C' -->
<!-- Begin 'T' -->
<rect height="4.846907" width="50.000000" x="150.000000" y="43.342053" fill="rgb(0, 100, 0)" style="fill-opacity:0.32" />
<rect height="30.293168" width="10.000000" x="170.000000" y="43.342053" fill="rgb(0, 100, 0)" style="fill-opacity:0.32" />
<!-- End 'T' -->
<!-- Begin 'A' -->
<polygon points=" 150.000000, 99.459354, 171.000000, 73.635221, 179.000000, 73.635221, 200.000000, 99.459354, 192.500000, 99.459354, 186.250000, 93.003321, 163.750000, 93.003321, 157.500000, 99.459354" fill="rgb(178, 34, 34)" style="fill-opacity:0.32" />
<polygon points=" 175.000000, 78.800048, 167.000000, 88.129701, 182.000000, 88.129701" fill="rgb(255, 255, 255)" style="fill-opacity:1.00" />
<!-- End 'A' -->
<!-- Begin 'G' -->
<ellipse cx="175.000000" cy="104.729677" rx="25.000000" ry="5.270323" fill="rgb(255, 165, 0)" style="fill-opacity:0.32" />
<ellipse cx="175.000000" cy="104.729677" rx="16.666667" ry="3.513549" fill="rgb(255, 255, 255)" style="fill-opacity:1.00" />
<rect height="5.270323" width="25.000000" x="175.000000" y="102.094516" fill="rgb(255, 255, 255)" style="fill-opacity:1.00" />
<rect height="1.317581" width="25.000000" x="175.000000" y="106.047258" fill="rgb(255, 165, 0)" style="fill-opacity:0.32" />
<rect height="3.952742" width="6.250000" x="193.750000" y="106.047258" fill="rgb(255, 165, 0)" style="fill-opacity:0.32" />
<!-- End 'G' -->
<!-- Begin 'A' -->
<polygon points=" 150.000000, 160.936990, 171.000000, 120.000000, 179.000000, 120.000000, 200.000000, 160.936990, 192.500000, 160.936990, 186.250000, 150.702742, 163.750000, 150.702742, 157.500000, 160.936990" fill="rgb(178, 34, 34)" style="fill-opacity:0.12" />
<polygon points=" 175.000000, 128.187398, 167.000000, 143.562194, 182.000000, 143.562194" fill="rgb(255, 255, 255)" style="fill-opacity:1.00" />
<!-- End 'A' -->
<!-- Begin 'T' -->
<rect height="4.687245" width="50.000000" x="150.000000" y="160.936990" fill="rgb(0, 100, 0)" style="fill-opacity:0.12" />
<rect height="29.295280" width="10.000000" x="170.000000" y="160.936990" fill="rgb(0, 100, 0)" style="fill-opacity:0.12" />
<!-- End 'T' -->
<!-- Begin 'C' -->
<ellipse cx="175.000000" cy="197.860565" rx="25.000000" ry="7.628296" fill="rgb(0, 0, 128)" style="fill-opacity:0.12" />
<ellipse cx="175.000000" cy="197.860565" rx="16.666667" ry="5.085530" fill="rgb(255, 255, 255)" style="fill-opacity:1.00" />
<rect height="7.628296" width="25.000000" x="175.000000" y="194.046418" fill="rgb(255, 255, 255)" style="fill-opacity:1.00" />
<!-- End 'C' -->
<!-- Begin 'G' -->
<ellipse cx="175.000000" cy="212.744431" rx="25.000000" ry="7.255569" fill="rgb(255, 165, 0)" style="fill-opacity:0.12" />
<ellipse cx="175.000000" cy="212.744431" rx="16.666667" ry="4.837046" fill="rgb(255, 255, 255)" style="fill-opacity:1.00" />
<rect height="7.255569" width="25.000000" x="175.000000" y="209.116646" fill="rgb(255, 255, 255)" style="fill-opacity:1.00" />
<rect height="1.813892" width="25.000000" x="175.000000" y="214.558323" fill="rgb(255, 165, 0)" style="fill-opacity:0.12" />
<rect height="5.441677" width="6.250000" x="193.750000" y="214.558323" fill="rgb(255, 165, 0)" style="fill-opacity:0.12" />
<!-- End 'G' -->
<!-- Begin 'C' -->
<ellipse cx="175.000000" cy="247.621087" rx="25.000000" ry="17.621087" fill="rgb(0, 0, 128)" style="fill-opacity:0.16" />
<ellipse cx="175.000000" cy="247.621087" rx="16.666667" ry="11.747391" fill="rgb(255, 255, 255)" style="fill-opacity:1.00" />
<rect height="17.621087" width="25.000000" x="175.000000" y="238.810543" fill="rgb(255, 255, 255)" style="fill-opacity:1.00" />
<!-- End 'C' -->
<!-- Begin 'T' -->
<rect height="5.346871" width="50.000000" x="150.000000" y="265.242173" fill="rgb(0, 100, 0)" style="fill-opacity:0.16" />
<rect height="33.417944" width="10.000000" x="170.000000" y="265.242173" fill="rgb(0, 100, 0)" style="fill-opacity:0.16" />
<!-- End 'T' -->
<!-- Begin 'A' -->
<polygon points=" 150.000000, 319.933996, 171.000000, 298.660117, 179.000000, 298.660117, 200.000000, 319.933996, 192.500000, 319.933996, 186.250000, 314.615527, 163.750000, 314.615527, 157.500000, 319.933996" fill="rgb(178, 34, 34)" style="fill-opacity:0.16" />
<polygon points=" 175.000000, 302.914893, 167.000000, 310.424445, 182.000000, 310.424445" fill="rgb(255, 255, 255)" style="fill-opacity:1.00" />
<!-- End 'A' -->
<!-- Begin 'G' -->
<ellipse cx="175.000000" cy="324.966998" rx="25.000000" ry="5.033002" fill="rgb(255, 165, 0)" style="fill-opacity:0.16" />
<ellipse cx="175.000000" cy="324.966998" rx="16.666667" ry="3.355335" fill="rgb(255, 255, 255)" style="fill-opacity:1.00" />
<rect height="5.033002" width="25.000000" x="175.000000" y="322.450497" fill="rgb(255, 255, 255)" style="fill-opacity:1.00" />
<rect height="1.258250" width="25.000000" x="175.000000" y="326.225249" fill="rgb(255, 165, 0)" style="fill-opacity:0.16" />
<rect height="3.774751" width="6.250000" x="193.750000" y="326.225249" fill="rgb(255, 165, 0)" style="fill-opacity:0.16" />
<!-- End 'G' -->
<!-- Begin 'C' -->
<ellipse cx="175.000000" cy="367.269703" rx="25.000000" ry="27.269703" fill="rgb(0, 0, 128)" style="fill-opacity:0.41" />
<ellipse cx="175.000000" cy="367.269703" rx="16.666667" ry="18.179802" fill="rgb(255, 255, 255)" style="fill-opacity:1.00" />
<rect height="27.269703" width="25.000000" x="175.000000" y="353.634852" fill="rgb(255, 255, 255)" style="fill-opacity:1.00" />
<!-- End 'C' -->
<!-- Begin 'T' -->
<rect height="3.340128" width="50.000000" x="150.000000" y="394.539406" fill="rgb(0, 100, 0)" style="fill-opacity:0.41" />
<rect height="20.875800" width="10.000000" x="170.000000" y="394.539406" fill="rgb(0, 100, 0)" style="fill-opacity:0.41" />
<!-- End 'T' -->
<!-- Begin 'A' -->
<polygon points=" 150.000000, 433.867091, 171.000000, 415.415206, 179.000000, 415.415206, 200.000000, 433.867091, 192.500000, 433.867091, 186.250000, 429.254120, 163.750000, 429.254120, 157.500000, 433.867091" fill="rgb(178, 34, 34)" style="fill-opacity:0.41" />
<polygon points=" 175.000000, 419.105583, 167.000000, 425.486337, 182.000000, 425.486337" fill="rgb(255, 255, 255)" style="fill-opacity:1.00" />
<!-- End 'A' -->
<!-- Begin 'G' -->
<ellipse cx="175.000000" cy="436.933546" rx="25.000000" ry="3.066454" fill="rgb(255, 165, 0)" style="fill-opacity:0.41" />
<ellipse cx="175.000000" cy="436.933546" rx="16.666667" ry="2.044303" fill="rgb(255, 255, 255)" style="fill-opacity:1.00" />
<rect height="3.066454" width="25.000000" x="175.000000" y="435.400318" fill="rgb(255, 255, 255)" style="fill-opacity:1.00" />
<rect height="0.766614" width="25.000000" x="175.000000" y="437.700159" fill="rgb(255, 165, 0)" style="fill-opacity:0.41" />
<rect height="2.299841" width="6.250000" x="193.750000" y="437.700159" fill="rgb(255, 165, 0)" style="fill-opacity:0.41" />
<!-- End 'G' -->
<!-- Begin 'T' -->
<rect height="5.425856" width="50.000000" x="210.000000" y="10.000000" fill="rgb(0, 100, 0)" style="fill-opacity:0.24" />
<rect height="33.911603" width="10.000000" x="230.000000" y="10.000000" fill="rgb(0, 100, 0)" style="fill-opacity:0.24" />
<!-- End 'T' -->
<!-- Begin 'C' -->
<ellipse cx="235.000000" cy="58.375218" rx="25.000000" ry="14.463615" fill="rgb(0, 0, 128)" style="fill-opacity:0.24" />
<ellipse cx="235.000000" cy="58.375218" rx="16.666667" ry="9.642410" fill="rgb(255, 255, 255)" style="fill-opacity:1.00" />
<rect height="14.463615" width="25.000000" x="235.000000" y="51.143410" fill="rgb(255, 255, 255)" style="fill-opacity:1.00" />
<!-- End 'C' -->
<!-- Begin 'A' -->
<polygon points=" 210.000000, 99.718607, 231.000000, 72.838833, 239.000000, 72.838833, 260.000000, 99.718607, 252.500000, 99.718607, 246.250000, 92.998663, 223.750000, 92.998663, 217.500000, 99.718607" fill="rgb(178, 34, 34)" style="fill-opacity:0.24" />
<polygon points=" 235.000000, 78.214788, 227.000000, 87.966697, 242.000000, 87.966697" fill="rgb(255, 255, 255)" style="fill-opacity:1.00" />
<!-- End 'A' -->
<!-- Begin 'G' -->
<ellipse cx="235.000000" cy="104.859303" rx="25.000000" ry="5.140697" fill="rgb(255, 165, 0)" style="fill-opacity:0.24" />
<ellipse cx="235.000000" cy="104.859303" rx="16.666667" ry="3.427131" fill="rgb(255, 255, 255)" style="fill-opacity:1.00" />
<rect height="5.140697" width="25.000000" x="235.000000" y="102.288955" fill="rgb(255, 255, 255)" style="fill-opacity:1.00" />
<rect height="1.285174" width="25.000000" x="235.000000" y="106.144477" fill="rgb(255, 165, 0)" style="fill-opacity:0.24" />
<rect height="3.855523" width="6.250000" x="253.750000" y="106.144477" fill="rgb(255, 165, 0)" style="fill-opacity:0.24" />
<!-- End 'G' -->
<!-- Begin 'C' -->
<ellipse cx="235.000000" cy="159.090310" rx="25.000000" ry="39.090310" fill="rgb(0, 0, 128)" style="fill-opacity:0.40" />
<ellipse cx="235.000000" cy="159.090310" rx="16.666667" ry="26.060207" fill="rgb(255, 255, 255)" style="fill-opacity:1.00" />
<rect height="39.090310" width="25.000000" x="235.000000" y="139.545155" fill="rgb(255, 255, 255)" style="fill-opacity:1.00" />
<!-- End 'C' -->
<!-- Begin 'T' -->
<rect height="1.702789" width="50.000000" x="210.000000" y="198.180620" fill="rgb(0, 100, 0)" style="fill-opacity:0.40" />
<rect height="10.642433" width="10.000000" x="230.000000" y="198.180620" fill="rgb(0, 100, 0)" style="fill-opacity:0.40" />
<!-- End 'T' -->
<!-- Begin 'G' -->
<ellipse cx="235.000000" cy="211.933198" rx="25.000000" ry="3.110145" fill="rgb(255, 165, 0)" style="fill-opacity:0.40" />
<ellipse cx="235.000000" cy="211.933198" rx="16.666667" ry="2.073430" fill="rgb(255, 255, 255)" style="fill-opacity:1.00" />
<rect height="3.110145" width="25.000000" x="235.000000" y="210.378125" fill="rgb(255, 255, 255)" style="fill-opacity:1.00" />
<rect height="0.777536" width="25.000000" x="235.000000" y="212.710734" fill="rgb(255, 165, 0)" style="fill-opacity:0.40" />
<rect height="2.332609" width="6.250000" x="253.750000" y="212.710734" fill="rgb(255, 165, 0)" style="fill-opacity:0.40" />
<!-- End 'G' -->
<!-- Begin 'A' -->
<polygon points=" 210.000000, 220.000000, 231.000000, 215.043343, 239.000000, 215.043343, 260.000000, 220.000000, 252.500000, 220.000000, 246.250000, 218.760836, 223.750000, 218.760836, 217.500000, 220.000000" fill="rgb(178, 34, 34)" style="fill-opacity:0.40" />
<!-- End 'A' -->
<!-- Begin 'T' -->
<rect height="10.240874" width="50.000000" x="210.000000" y="230.000000" fill="rgb(0, 100, 0)" style="fill-opacity:0.09" />
<rect height="64.005462" width="10.000000" x="230.000000" y="230.000000" fill="rgb(0, 100, 0)" style="fill-opacity:0.09" />
<!-- End 'T' -->
<!-- Begin 'A' -->
<polygon points=" 210.000000, 314.356850, 231.000000, 294.005462, 239.000000, 294.005462, 260.000000, 314.356850, 252.500000, 314.356850, 246.250000, 309.269003, 223.750000, 309.269003, 217.500000, 314.356850" fill="rgb(178, 34, 34)" style="fill-opacity:0.09" />
<polygon points=" 235.000000, 298.075740, 227.000000, 305.216295, 242.000000, 305.216295" fill="rgb(255, 255, 255)" style="fill-opacity:1.00" />
<!-- End 'A' -->
<!-- Begin 'C' -->
<ellipse cx="235.000000" cy="320.175000" rx="25.000000" ry="5.818150" fill="rgb(0, 0, 128)" style="fill-opacity:0.09" />
<ellipse cx="235.000000" cy="320.175000" rx="16.666667" ry="3.878767" fill="rgb(255, 255, 255)" style="fill-opacity:1.00" />
<rect height="5.818150" width="25.000000" x="235.000000" y="317.265925" fill="rgb(255, 255, 255)" style="fill-opacity:1.00" />
<!-- End 'C' -->
<!-- Begin 'G' -->
<ellipse cx="235.000000" cy="327.996575" rx="25.000000" ry="2.003425" fill="rgb(255, 165, 0)" style="fill-opacity:0.09" />
<ellipse cx="235.000000" cy="327.996575" rx="16.666667" ry="1.335617" fill="rgb(255, 255, 255)" style="fill-opacity:1.00" />
<rect height="2.003425" width="25.000000" x="235.000000" y="326.994863" fill="rgb(255, 255, 255)" style="fill-opacity:1.00" />
<rect height="0.500856" width="25.000000" x="235.000000" y="328.497431" fill="rgb(255, 165, 0)" style="fill-opacity:0.09" />
<rect height="1.502569" width="6.250000" x="253.750000" y="328.497431" fill="rgb(255, 165, 0)" style="fill-opacity:0.09" />
<!-- End 'G' -->
<!-- Begin 'T' -->
<rect height="6.953921" width="50.000000" x="210.000000" y="340.000000" fill="rgb(0, 100, 0)" style="fill-opacity:0.27" />
<rect height="43.462005" width="10.000000" x="230.000000" y="340.000000" fill="rgb(0, 100, 0)" style="fill-opacity:0.27" />
<!-- End 'T' -->
<!-- Begin 'C' -->
<ellipse cx="235.000000" cy="397.890478" rx="25.000000" ry="14.428473" fill="rgb(0, 0, 128)" style="fill-opacity:0.27" />
<ellipse cx="235.000000" cy="397.890478" rx="16.666667" ry="9.618982" fill="rgb(255, 255, 255)" style="fill-opacity:1.00" />
<rect height="14.428473" width="25.000000" x="235.000000" y="390.676242" fill="rgb(255, 255, 255)" style="fill-opacity:1.00" />
<!-- End 'C' -->
<!-- Begin 'G' -->
<ellipse cx="235.000000" cy="420.341901" rx="25.000000" ry="8.022949" fill="rgb(255, 165, 0)" style="fill-opacity:0.27" />
<ellipse cx="235.000000" cy="420.341901" rx="16.666667" ry="5.348633" fill="rgb(255, 255, 255)" style="fill-opacity:1.00" />
<rect height="8.022949" width="25.000000" x="235.000000" y="416.330426" fill="rgb(255, 255, 255)" style="fill-opacity:1.00" />
<rect height="2.005737" width="25.000000" x="235.000000" y="422.347638" fill="rgb(255, 165, 0)" style="fill-opacity:0.27" />
<rect height="6.017212" width="6.250000" x="253.750000" y="422.347638" fill="rgb(255, 165, 0)" style="fill-opacity:0.27" />
<!-- End 'G' -->
<!-- Begin 'A' -->
<polygon points=" 210.000000, 440.000000, 231.000000, 428.364850, 239.000000, 428.364850, 260.000000, 440.000000, 252.500000, 440.000000, 246.250000, 437.091213, 223.750000, 437.091213, 217.500000, 440.000000" fill="rgb(178, 34, 34)" style="fill-opacity:0.27" />
<polygon points=" 235.000000, 430.691880, 227.000000, 434.345940, 242.000000, 434.345940" fill="rgb(255, 255, 255)" style="fill-opacity:1.00" />
<!-- End 'A' -->
<!-- Begin 'G' -->
<ellipse cx="295.000000" cy="59.994178" rx="25.000000" ry="49.994178" fill="rgb(255, 165, 0)" style="fill-opacity:0.13" />
<ellipse cx="295.000000" cy="59.994178" rx="16.666667" ry="33.329452" fill="rgb(255, 255, 255)" style="fill-opacity:1.00" />
<rect height="49.994178" width="25.000000" x="295.000000" y="34.997089" fill="rgb(255, 255, 255)" style="fill-opacity:1.00" />
<rect height="12.498545" width="25.000000" x="295.000000" y="72.492723" fill="rgb(255, 165, 0)" style="fill-opacity:0.13" />
<rect height="37.495634" width="6.250000" x="313.750000" y="72.492723" fill="rgb(255, 165, 0)" style="fill-opacity:0.13" />
<!-- End 'G' -->
<!-- Begin 'A' -->
<polygon points=" 270.000000, 109.995938, 291.000000, 109.988357, 299.000000, 109.988357, 320.000000, 109.995938, 312.500000, 109.995938, 306.250000, 109.994042, 283.750000, 109.994042, 277.500000, 109.995938" fill="rgb(178, 34, 34)" style="fill-opacity:0.13" />
<!-- End 'A' -->
<!-- Begin 'C' -->
<ellipse cx="295.000000" cy="109.997813" rx="25.000000" ry="0.001875" fill="rgb(0, 0, 128)" style="fill-opacity:0.13" />
<ellipse cx="295.000000" cy="109.997813" rx="16.666667" ry="0.001250" fill="rgb(255, 255, 255)" style="fill-opacity:1.00" />
<rect height="0.001875" width="25.000000" x="295.000000" y="109.996875" fill="rgb(255, 255, 255)" style="fill-opacity:1.00" />
<!-- End 'C' -->
<!-- Begin 'T' -->
<rect height="0.000050" width="50.000000" x="270.000000" y="109.999688" fill="rgb(0, 100, 0)" style="fill-opacity:0.13" />
<rect height="0.000312" width="10.000000" x="290.000000" y="109.999688" fill="rgb(0, 100, 0)" style="fill-opacity:0.13" />
<!-- End 'T' -->
<!-- Begin 'G' -->
<ellipse cx="295.000000" cy="169.194133" rx="25.000000" ry="49.194133" fill="rgb(255, 165, 0)" style="fill-opacity:0.47" />
<ellipse cx="295.000000" cy="169.194133" rx="16.666667" ry="32.796089" fill="rgb(255, 255, 255)" style="fill-opacity:1.00" />
<rect height="49.194133" width="25.000000" x="295.000000" y="144.597066" fill="rgb(255, 255, 255)" style="fill-opacity:1.00" />
<rect height="12.298533" width="25.000000" x="295.000000" y="181.492666" fill="rgb(255, 165, 0)" style="fill-opacity:0.47" />
<rect height="36.895600" width="6.250000" x="313.750000" y="181.492666" fill="rgb(255, 165, 0)" style="fill-opacity:0.47" />
<!-- End 'G' -->
<!-- Begin 'A' -->
<polygon points=" 270.000000, 219.409570, 291.000000, 218.388266, 299.000000, 218.388266, 320.000000, 219.409570, 312.500000, 219.409570, 306.250000, 219.154244, 283.750000, 219.154244, 277.500000, 219.409570" fill="rgb(178, 34, 34)" style="fill-opacity:0.47" />
<!-- End 'A' -->
<!-- Begin 'C' -->
<ellipse cx="295.000000" cy="219.623546" rx="25.000000" ry="0.213976" fill="rgb(0, 0, 128)" style="fill-opacity:0.47" />
<ellipse cx="295.000000" cy="219.623546" rx="16.666667" ry="0.142651" fill="rgb(255, 255, 255)" style="fill-opacity:1.00" />
<rect height="0.213976" width="25.000000" x="295.000000" y="219.516558" fill="rgb(255, 255, 255)" style="fill-opacity:1.00" />
<!-- End 'C' -->
<!-- Begin 'T' -->
<rect height="0.025997" width="50.000000" x="270.000000" y="219.837522" fill="rgb(0, 100, 0)" style="fill-opacity:0.47" />
<rect height="0.162478" width="10.000000" x="290.000000" y="219.837522" fill="rgb(0, 100, 0)" style="fill-opacity:0.47" />
<!-- End 'T' -->
<!-- Begin 'G' -->
<ellipse cx="295.000000" cy="279.984017" rx="25.000000" ry="49.984017" fill="rgb(255, 165, 0)" style="fill-opacity:0.10" />
<ellipse cx="295.000000" cy="279.984017" rx="16.666667" ry="33.322678" fill="rgb(255, 255, 255)" style="fill-opacity:1.00" />
<rect height="49.984017" width="25.000000" x="295.000000" y="254.992008" fill="rgb(255, 255, 255)" style="fill-opacity:1.00" />
<rect height="12.496004" width="25.000000" x="295.000000" y="292.480021" fill="rgb(255, 165, 0)" style="fill-opacity:0.10" />
<rect height="37.488012" width="6.250000" x="313.750000" y="292.480021" fill="rgb(255, 165, 0)" style="fill-opacity:0.10" />
<!-- End 'G' -->
<!-- Begin 'A' -->
<polygon points=" 270.000000, 329.999557, 291.000000, 329.968033, 299.000000, 329.968033, 320.000000, 329.999557, 312.500000, 329.999557, 306.250000, 329.991676, 283.750000, 329.991676, 277.500000, 329.999557" fill="rgb(178, 34, 34)" style="fill-opacity:0.10" />
<!-- End 'A' -->
<!-- Begin 'T' -->
<rect height="0.000065" width="50.000000" x="270.000000" y="329.999557" fill="rgb(0, 100, 0)" style="fill-opacity:0.10" />
<rect height="0.000404" width="10.000000" x="290.000000" y="329.999557" fill="rgb(0, 100, 0)" style="fill-opacity:0.10" />
<!-- End 'T' -->
<!-- Begin 'C' -->
<ellipse cx="295.000000" cy="329.999981" rx="25.000000" ry="0.000019" fill="rgb(0, 0, 128)" style="fill-opacity:0.10" />
<ellipse cx="295.000000" cy="329.999981" rx="16.666667" ry="0.000013" fill="rgb(255, 255, 255)" style="fill-opacity:1.00" />
<rect height="0.000019" width="25.000000" x="295.000000" y="329.999971" fill="rgb(255, 255, 255)" style="fill-opacity:1.00" />
<!-- End 'C' -->
<!-- Begin 'G' -->
<ellipse cx="295.000000" cy="389.876705" rx="25.000000" ry="49.876705" fill="rgb(255, 165, 0)" style="fill-opacity:0.30" />
<ellipse cx="295.000000" cy="389.876705" rx="16.666667" ry="33.251137" fill="rgb(255, 255, 255)" style="fill-opacity:1.00" />
<rect height="49.876705" width="25.000000" x="295.000000" y="364.938353" fill="rgb(255, 255, 255)" style="fill-opacity:1.00" />
<rect height="12.469176" width="25.000000" x="295.000000" y="402.345881" fill="rgb(255, 165, 0)" style="fill-opacity:0.30" />
<rect height="37.407529" width="6.250000" x="313.750000" y="402.345881" fill="rgb(255, 165, 0)" style="fill-opacity:0.30" />
<!-- End 'G' -->
<!-- Begin 'A' -->
<polygon points=" 270.000000, 439.974676, 291.000000, 439.753410, 299.000000, 439.753410, 320.000000, 439.974676, 312.500000, 439.974676, 306.250000, 439.919359, 283.750000, 439.919359, 277.500000, 439.974676" fill="rgb(178, 34, 34)" style="fill-opacity:0.30" />
<!-- End 'A' -->
<!-- Begin 'C' -->
<ellipse cx="295.000000" cy="439.987211" rx="25.000000" ry="0.012535" fill="rgb(0, 0, 128)" style="fill-opacity:0.30" />
<ellipse cx="295.000000" cy="439.987211" rx="16.666667" ry="0.008357" fill="rgb(255, 255, 255)" style="fill-opacity:1.00" />
<rect height="0.012535" width="25.000000" x="295.000000" y="439.980943" fill="rgb(255, 255, 255)" style="fill-opacity:1.00" />
<!-- End 'C' -->
<!-- Begin 'T' -->
<rect height="0.000041" width="50.000000" x="270.000000" y="439.999746" fill="rgb(0, 100, 0)" style="fill-opacity:0.30" />
<rect height="0.000254" width="10.000000" x="290.000000" y="439.999746" fill="rgb(0, 100, 0)" style="fill-opacity:0.30" />
<!-- End 'T' -->
<!-- Begin 'T' -->
<rect height="15.987448" width="50.000000" x="330.000000" y="10.000000" fill="rgb(0, 100, 0)" style="fill-opacity:0.01" />
<rect height="99.921553" width="10.000000" x="350.000000" y="10.000000" fill="rgb(0, 100, 0)" style="fill-opacity:0.01" />
<!-- End 'T' -->
<!-- Begin 'A' -->
<polygon points=" 330.000000, 109.974832, 351.000000, 109.921553, 359.000000, 109.921553, 380.000000, 109.974832, 372.500000, 109.974832, 366.250000, 109.961512, 343.750000, 109.961512, 337.500000, 109.974832" fill="rgb(178, 34, 34)" style="fill-opacity:0.01" />
<!-- End 'A' -->
<!-- Begin 'G' -->
<ellipse cx="355.000000" cy="109.984898" rx="25.000000" ry="0.010066" fill="rgb(255, 165, 0)" style="fill-opacity:0.01" />
<ellipse cx="355.000000" cy="109.984898" rx="16.666667" ry="0.006711" fill="rgb(255, 255, 255)" style="fill-opacity:1.00" />
<rect height="0.010066" width="25.000000" x="355.000000" y="109.979865" fill="rgb(255, 255, 255)" style="fill-opacity:1.00" />
<rect height="0.002516" width="25.000000" x="355.000000" y="109.987415" fill="rgb(255, 165, 0)" style="fill-opacity:0.01" />
<rect height="0.007549" width="6.250000" x="373.750000" y="109.987415" fill="rgb(255, 165, 0)" style="fill-opacity:0.01" />
<!-- End 'G' -->
<!-- Begin 'C' -->
<ellipse cx="355.000000" cy="109.997482" rx="25.000000" ry="0.002518" fill="rgb(0, 0, 128)" style="fill-opacity:0.01" />
<ellipse cx="355.000000" cy="109.997482" rx="16.666667" ry="0.001679" fill="rgb(255, 255, 255)" style="fill-opacity:1.00" />
<rect height="0.002518" width="25.000000" x="355.000000" y="109.996223" fill="rgb(255, 255, 255)" style="fill-opacity:1.00" />
<!-- End 'C' -->
<!-- Begin 'T' -->
<rect height="15.984876" width="50.000000" x="330.000000" y="120.000000" fill="rgb(0, 100, 0)" style="fill-opacity:0.00" />
<rect height="99.905476" width="10.000000" x="350.000000" y="120.000000" fill="rgb(0, 100, 0)" style="fill-opacity:0.00" />
<!-- End 'T' -->
<!-- Begin 'C' -->
<ellipse cx="355.000000" cy="219.929828" rx="25.000000" ry="0.024352" fill="rgb(0, 0, 128)" style="fill-opacity:0.00" />
<ellipse cx="355.000000" cy="219.929828" rx="16.666667" ry="0.016234" fill="rgb(255, 255, 255)" style="fill-opacity:1.00" />
<rect height="0.024352" width="25.000000" x="355.000000" y="219.917652" fill="rgb(255, 255, 255)" style="fill-opacity:1.00" />
<!-- End 'C' -->
<!-- Begin 'A' -->
<polygon points=" 330.000000, 219.995986, 351.000000, 219.954180, 359.000000, 219.954180, 380.000000, 219.995986, 372.500000, 219.995986, 366.250000, 219.985535, 343.750000, 219.985535, 337.500000, 219.995986" fill="rgb(178, 34, 34)" style="fill-opacity:0.00" />
<!-- End 'A' -->
<!-- Begin 'G' -->
<ellipse cx="355.000000" cy="219.997993" rx="25.000000" ry="0.002007" fill="rgb(255, 165, 0)" style="fill-opacity:0.00" />
<ellipse cx="355.000000" cy="219.997993" rx="16.666667" ry="0.001338" fill="rgb(255, 255, 255)" style="fill-opacity:1.00" />
<rect height="0.002007" width="25.000000" x="355.000000" y="219.996990" fill="rgb(255, 255, 255)" style="fill-opacity:1.00" />
<rect height="0.000502" width="25.000000" x="355.000000" y="219.998495" fill="rgb(255, 165, 0)" style="fill-opacity:0.00" />
<rect height="0.001505" width="6.250000" x="373.750000" y="219.998495" fill="rgb(255, 165, 0)" style="fill-opacity:0.00" />
<!-- End 'G' -->
<!-- Begin 'T' -->
<rect height="15.861790" width="50.000000" x="330.000000" y="230.000000" fill="rgb(0, 100, 0)" style="fill-opacity:0.99" />
<rect height="99.136186" width="10.000000" x="350.000000" y="230.000000" fill="rgb(0, 100, 0)" style="fill-opacity:0.99" />
<!-- End 'T' -->
<!-- Begin 'G' -->
<ellipse cx="355.000000" cy="329.469477" rx="25.000000" ry="0.333292" fill="rgb(255, 165, 0)" style="fill-opacity:0.99" />
<ellipse cx="355.000000" cy="329.469477" rx="16.666667" ry="0.222194" fill="rgb(255, 255, 255)" style="fill-opacity:1.00" />
<rect height="0.333292" width="25.000000" x="355.000000" y="329.302832" fill="rgb(255, 255, 255)" style="fill-opacity:1.00" />
<rect height="0.083323" width="25.000000" x="355.000000" y="329.552800" fill="rgb(255, 165, 0)" style="fill-opacity:0.99" />
<rect height="0.249969" width="6.250000" x="373.750000" y="329.552800" fill="rgb(255, 165, 0)" style="fill-opacity:0.99" />
<!-- End 'G' -->
<!-- Begin 'C' -->
<ellipse cx="355.000000" cy="329.886969" rx="25.000000" ry="0.084200" fill="rgb(0, 0, 128)" style="fill-opacity:0.99" />
<ellipse cx="355.000000" cy="329.886969" rx="16.666667" ry="0.056133" fill="rgb(255, 255, 255)" style="fill-opacity:1.00" />
<rect height="0.084200" width="25.000000" x="355.000000" y="329.844869" fill="rgb(255, 255, 255)" style="fill-opacity:1.00" />
<!-- End 'C' -->
<!-- Begin 'A' -->
<polygon points=" 330.000000, 330.000000, 351.000000, 329.971169, 359.000000, 329.971169, 380.000000, 330.000000, 372.500000, 330.000000, 366.250000, 329.992792, 343.750000, 329.992792, 337.500000, 330.000000" fill="rgb(178, 34, 34)" style="fill-opacity:0.99" />
<!-- End 'A' -->
<!-- Begin 'T' -->
<rect height="15.933551" width="50.000000" x="330.000000" y="340.000000" fill="rgb(0, 100, 0)" style="fill-opacity:0.00" />
<rect height="99.584694" width="10.000000" x="350.000000" y="340.000000" fill="rgb(0, 100, 0)" style="fill-opacity:0.00" />
<!-- End 'T' -->
<!-- Begin 'C' -->
<ellipse cx="355.000000" cy="439.770002" rx="25.000000" ry="0.185308" fill="rgb(0, 0, 128)" style="fill-opacity:0.00" />
<ellipse cx="355.000000" cy="439.770002" rx="16.666667" ry="0.123539" fill="rgb(255, 255, 255)" style="fill-opacity:1.00" />
<rect height="0.185308" width="25.000000" x="355.000000" y="439.677348" fill="rgb(255, 255, 255)" style="fill-opacity:1.00" />
<!-- End 'C' -->
<!-- Begin 'A' -->
<polygon points=" 330.000000, 439.980359, 351.000000, 439.955310, 359.000000, 439.955310, 380.000000, 439.980359, 372.500000, 439.980359, 366.250000, 439.974097, 343.750000, 439.974097, 337.500000, 439.980359" fill="rgb(178, 34, 34)" style="fill-opacity:0.00" />
<!-- End 'A' -->
<!-- Begin 'G' -->
<ellipse cx="355.000000" cy="439.990179" rx="25.000000" ry="0.009821" fill="rgb(255, 165, 0)" style="fill-opacity:0.00" />
<ellipse cx="355.000000" cy="439.990179" rx="16.666667" ry="0.006547" fill="rgb(255, 255, 255)" style="fill-opacity:1.00" />
<rect height="0.009821" width="25.000000" x="355.000000" y="439.985269" fill="rgb(255, 255, 255)" style="fill-opacity:1.00" />
<rect height="0.002455" width="25.000000" x="355.000000" y="439.992635" fill="rgb(255, 165, 0)" style="fill-opacity:0.00" />
<rect height="0.007365" width="6.250000" x="373.750000" y="439.992635" fill="rgb(255, 165, 0)" style="fill-opacity:0.00" />
<!-- End 'G' -->
<!-- Begin 'A' -->
<polygon points=" 390.000000, 102.505291, 411.000000, 10.000000, 419.000000, 10.000000, 440.000000, 102.505291, 432.500000, 102.505291, 426.250000, 79.378968, 403.750000, 79.378968, 397.500000, 102.505291" fill="rgb(178, 34, 34)" style="fill-opacity:0.00" />
<polygon points=" 415.000000, 28.501058, 407.000000, 64.503175, 422.000000, 64.503175" fill="rgb(255, 255, 255)" style="fill-opacity:1.00" />
<!-- End 'A' -->
<!-- Begin 'T' -->
<rect height="0.658665" width="50.000000" x="390.000000" y="102.505291" fill="rgb(0, 100, 0)" style="fill-opacity:0.00" />
<rect height="4.116656" width="10.000000" x="410.000000" y="102.505291" fill="rgb(0, 100, 0)" style="fill-opacity:0.00" />
<!-- End 'T' -->
<!-- Begin 'C' -->
<ellipse cx="415.000000" cy="108.310271" rx="25.000000" ry="1.688324" fill="rgb(0, 0, 128)" style="fill-opacity:0.00" />
<ellipse cx="415.000000" cy="108.310271" rx="16.666667" ry="1.125550" fill="rgb(255, 255, 255)" style="fill-opacity:1.00" />
<rect height="1.688324" width="25.000000" x="415.000000" y="107.466109" fill="rgb(255, 255, 255)" style="fill-opacity:1.00" />
<!-- End 'C' -->
<!-- Begin 'G' -->
<ellipse cx="415.000000" cy="109.999298" rx="25.000000" ry="0.000702" fill="rgb(255, 165, 0)" style="fill-opacity:0.00" />
<ellipse cx="415.000000" cy="109.999298" rx="16.666667" ry="0.000468" fill="rgb(255, 255, 255)" style="fill-opacity:1.00" />
<rect height="0.000702" width="25.000000" x="415.000000" y="109.998947" fill="rgb(255, 255, 255)" style="fill-opacity:1.00" />
<rect height="0.000176" width="25.000000" x="415.000000" y="109.999473" fill="rgb(255, 165, 0)" style="fill-opacity:0.00" />
<rect height="0.000527" width="6.250000" x="433.750000" y="109.999473" fill="rgb(255, 165, 0)" style="fill-opacity:0.00" />
<!-- End 'G' -->
<!-- Begin 'A' -->
<polygon points=" 390.000000, 219.989712, 411.000000, 120.000000, 419.000000, 120.000000, 440.000000, 219.989712, 432.500000, 219.989712, 426.250000, 194.992284, 403.750000, 194.992284, 397.500000, 219.989712" fill="rgb(178, 34, 34)" style="fill-opacity:0.00" />
<polygon points=" 415.000000, 139.997942, 407.000000, 178.993827, 422.000000, 178.993827" fill="rgb(255, 255, 255)" style="fill-opacity:1.00" />
<!-- End 'A' -->
<!-- Begin 'T' -->
<rect height="0.001494" width="50.000000" x="390.000000" y="219.989712" fill="rgb(0, 100, 0)" style="fill-opacity:0.00" />
<rect height="0.009337" width="10.000000" x="410.000000" y="219.989712" fill="rgb(0, 100, 0)" style="fill-opacity:0.00" />
<!-- End 'T' -->
<!-- Begin 'G' -->
<ellipse cx="415.000000" cy="219.999523" rx="25.000000" ry="0.000475" fill="rgb(255, 165, 0)" style="fill-opacity:0.00" />
<ellipse cx="415.000000" cy="219.999523" rx="16.666667" ry="0.000316" fill="rgb(255, 255, 255)" style="fill-opacity:1.00" />
<rect height="0.000475" width="25.000000" x="415.000000" y="219.999286" fill="rgb(255, 255, 255)" style="fill-opacity:1.00" />
<rect height="0.000119" width="25.000000" x="415.000000" y="219.999642" fill="rgb(255, 165, 0)" style="fill-opacity:0.00" />
<rect height="0.000356" width="6.250000" x="433.750000" y="219.999642" fill="rgb(255, 165, 0)" style="fill-opacity:0.00" />
<!-- End 'G' -->
<!-- Begin 'C' -->
<ellipse cx="415.000000" cy="219.999999" rx="25.000000" ry="0.000001" fill="rgb(0, 0, 128)" style="fill-opacity:0.00" />
<ellipse cx="415.000000" cy="219.999999" rx="16.666667" ry="0.000001" fill="rgb(255, 255, 255)" style="fill-opacity:1.00" />
<rect height="0.000001" width="25.000000" x="415.000000" y="219.999998" fill="rgb(255, 255, 255)" style="fill-opacity:1.00" />
<!-- End 'C' -->
<!-- Begin 'A' -->
<polygon points=" 390.000000, 329.975940, 411.000000, 230.000000, 419.000000, 230.000000, 440.000000, 329.975940, 432.500000, 329.975940, 426.250000, 304.981955, 403.750000, 304.981955, 397.500000, 329.975940" fill="rgb(178, 34, 34)" style="fill-opacity:0.01" />
<polygon points=" 415.000000, 249.995188, 407.000000, 288.985564, 422.000000, 288.985564" fill="rgb(255, 255, 255)" style="fill-opacity:1.00" />
<!-- End 'A' -->
<!-- Begin 'T' -->
<rect height="0.001988" width="50.000000" x="390.000000" y="329.975940" fill="rgb(0, 100, 0)" style="fill-opacity:0.01" />
<rect height="0.012425" width="10.000000" x="410.000000" y="329.975940" fill="rgb(0, 100, 0)" style="fill-opacity:0.01" />
<!-- End 'T' -->
<!-- Begin 'C' -->
<ellipse cx="415.000000" cy="329.994136" rx="25.000000" ry="0.005771" fill="rgb(0, 0, 128)" style="fill-opacity:0.01" />
<ellipse cx="415.000000" cy="329.994136" rx="16.666667" ry="0.003847" fill="rgb(255, 255, 255)" style="fill-opacity:1.00" />
<rect height="0.005771" width="25.000000" x="415.000000" y="329.991250" fill="rgb(255, 255, 255)" style="fill-opacity:1.00" />
<!-- End 'C' -->
<!-- Begin 'G' -->
<ellipse cx="415.000000" cy="329.999953" rx="25.000000" ry="0.000047" fill="rgb(255, 165, 0)" style="fill-opacity:0.01" />
<ellipse cx="415.000000" cy="329.999953" rx="16.666667" ry="0.000031" fill="rgb(255, 255, 255)" style="fill-opacity:1.00" />
<rect height="0.000047" width="25.000000" x="415.000000" y="329.999930" fill="rgb(255, 255, 255)" style="fill-opacity:1.00" />
<rect height="0.000012" width="25.000000" x="415.000000" y="329.999965" fill="rgb(255, 165, 0)" style="fill-opacity:0.01" />
<rect height="0.000035" width="6.250000" x="433.750000" y="329.999965" fill="rgb(255, 165, 0)" style="fill-opacity:0.01" />
<!-- End 'G' -->
<!-- Begin 'A' -->
<polygon points=" 390.000000, 439.542240, 411.000000, 340.000000, 419.000000, 340.000000, 440.000000, 439.542240, 432.500000, 439.542240, 426.250000, 414.656680, 403.750000, 414.656680, 397.500000, 439.542240" fill="rgb(178, 34, 34)" style="fill-opacity:0.99" />
<polygon points=" 415.000000, 359.908448, 407.000000, 398.725344, 422.000000, 398.725344" fill="rgb(255, 255, 255)" style="fill-opacity:1.00" />
<!-- End 'A' -->
<!-- Begin 'C' -->
<ellipse cx="415.000000" cy="439.744701" rx="25.000000" ry="0.202461" fill="rgb(0, 0, 128)" style="fill-opacity:0.99" />
<ellipse cx="415.000000" cy="439.744701" rx="16.666667" ry="0.134974" fill="rgb(255, 255, 255)" style="fill-opacity:1.00" />
<rect height="0.202461" width="25.000000" x="415.000000" y="439.643470" fill="rgb(255, 255, 255)" style="fill-opacity:1.00" />
<!-- End 'C' -->
<!-- Begin 'G' -->
<ellipse cx="415.000000" cy="439.972257" rx="25.000000" ry="0.025095" fill="rgb(255, 165, 0)" style="fill-opacity:0.99" />
<ellipse cx="415.000000" cy="439.972257" rx="16.666667" ry="0.016730" fill="rgb(255, 255, 255)" style="fill-opacity:1.00" />
<rect height="0.025095" width="25.000000" x="415.000000" y="439.959710" fill="rgb(255, 255, 255)" style="fill-opacity:1.00" />
<rect height="0.006274" width="25.000000" x="415.000000" y="439.978531" fill="rgb(255, 165, 0)" style="fill-opacity:0.99" />
<rect height="0.018822" width="6.250000" x="433.750000" y="439.978531" fill="rgb(255, 165, 0)" style="fill-opacity:0.99" />
<!-- End 'G' -->
<!-- Begin 'T' -->
<rect height="0.000424" width="50.000000" x="390.000000" y="439.997353" fill="rgb(0, 100, 0)" style="fill-opacity:0.99" />
<rect height="0.002647" width="10.000000" x="410.000000" y="439.997353" fill="rgb(0, 100, 0)" style="fill-opacity:0.99" />
<!-- End 'T' -->
<!-- Begin 'C' -->
<ellipse cx="475.000000" cy="58.051151" rx="25.000000" ry="48.051151" fill="rgb(0, 0, 128)" style="fill-opacity:1.00" />
<ellipse cx="475.000000" cy="58.051151" rx="16.666667" ry="32.034101" fill="rgb(255, 255, 255)" style="fill-opacity:1.00" />
<rect height="48.051151" width="25.000000" x="475.000000" y="34.025576" fill="rgb(255, 255, 255)" style="fill-opacity:1.00" />
<!-- End 'C' -->
<!-- Begin 'T' -->
<rect height="0.519090" width="50.000000" x="450.000000" y="106.102303" fill="rgb(0, 100, 0)" style="fill-opacity:1.00" />
<rect height="3.244314" width="10.000000" x="470.000000" y="106.102303" fill="rgb(0, 100, 0)" style="fill-opacity:1.00" />
<!-- End 'T' -->
<!-- Begin 'G' -->
<ellipse cx="475.000000" cy="109.557646" rx="25.000000" ry="0.211030" fill="rgb(255, 165, 0)" style="fill-opacity:1.00" />
<ellipse cx="475.000000" cy="109.557646" rx="16.666667" ry="0.140686" fill="rgb(255, 255, 255)" style="fill-opacity:1.00" />
<rect height="0.211030" width="25.000000" x="475.000000" y="109.452131" fill="rgb(255, 255, 255)" style="fill-opacity:1.00" />
<rect height="0.052757" width="25.000000" x="475.000000" y="109.610404" fill="rgb(255, 165, 0)" style="fill-opacity:1.00" />
<rect height="0.158272" width="6.250000" x="493.750000" y="109.610404" fill="rgb(255, 165, 0)" style="fill-opacity:1.00" />
<!-- End 'G' -->
<!-- Begin 'A' -->
<polygon points=" 450.000000, 110.000000, 471.000000, 109.768676, 479.000000, 109.768676, 500.000000, 110.000000, 492.500000, 110.000000, 486.250000, 109.942169, 463.750000, 109.942169, 457.500000, 110.000000" fill="rgb(178, 34, 34)" style="fill-opacity:1.00" />
<!-- End 'A' -->
<!-- Begin 'C' -->
<ellipse cx="475.000000" cy="169.820786" rx="25.000000" ry="49.820786" fill="rgb(0, 0, 128)" style="fill-opacity:0.00" />
<ellipse cx="475.000000" cy="169.820786" rx="16.666667" ry="33.213858" fill="rgb(255, 255, 255)" style="fill-opacity:1.00" />
<rect height="49.820786" width="25.000000" x="475.000000" y="144.910393" fill="rgb(255, 255, 255)" style="fill-opacity:1.00" />
<!-- End 'C' -->
<!-- Begin 'T' -->
<rect height="0.025632" width="50.000000" x="450.000000" y="219.641573" fill="rgb(0, 100, 0)" style="fill-opacity:0.00" />
<rect height="0.160202" width="10.000000" x="470.000000" y="219.641573" fill="rgb(0, 100, 0)" style="fill-opacity:0.00" />
<!-- End 'T' -->
<!-- Begin 'G' -->
<ellipse cx="475.000000" cy="219.870192" rx="25.000000" ry="0.068418" fill="rgb(255, 165, 0)" style="fill-opacity:0.00" />
<ellipse cx="475.000000" cy="219.870192" rx="16.666667" ry="0.045612" fill="rgb(255, 255, 255)" style="fill-opacity:1.00" />
<rect height="0.068418" width="25.000000" x="475.000000" y="219.835984" fill="rgb(255, 255, 255)" style="fill-opacity:1.00" />
<rect height="0.017104" width="25.000000" x="475.000000" y="219.887297" fill="rgb(255, 165, 0)" style="fill-opacity:0.00" />
<rect height="0.051313" width="6.250000" x="493.750000" y="219.887297" fill="rgb(255, 165, 0)" style="fill-opacity:0.00" />
<!-- End 'G' -->
<!-- Begin 'A' -->
<polygon points=" 450.000000, 220.000000, 471.000000, 219.938610, 479.000000, 219.938610, 500.000000, 220.000000, 492.500000, 220.000000, 486.250000, 219.984652, 463.750000, 219.984652, 457.500000, 220.000000" fill="rgb(178, 34, 34)" style="fill-opacity:0.00" />
<!-- End 'A' -->
<!-- Begin 'C' -->
<ellipse cx="475.000000" cy="279.464368" rx="25.000000" ry="49.464368" fill="rgb(0, 0, 128)" style="fill-opacity:0.00" />
<ellipse cx="475.000000" cy="279.464368" rx="16.666667" ry="32.976246" fill="rgb(255, 255, 255)" style="fill-opacity:1.00" />
<rect height="49.464368" width="25.000000" x="475.000000" y="254.732184" fill="rgb(255, 255, 255)" style="fill-opacity:1.00" />
<!-- End 'C' -->
<!-- Begin 'A' -->
<polygon points=" 450.000000, 329.718227, 471.000000, 328.928737, 479.000000, 328.928737, 500.000000, 329.718227, 492.500000, 329.718227, 486.250000, 329.520855, 463.750000, 329.520855, 457.500000, 329.718227" fill="rgb(178, 34, 34)" style="fill-opacity:0.00" />
<!-- End 'A' -->
<!-- Begin 'T' -->
<rect height="0.036027" width="50.000000" x="450.000000" y="329.718227" fill="rgb(0, 100, 0)" style="fill-opacity:0.00" />
<rect height="0.225169" width="10.000000" x="470.000000" y="329.718227" fill="rgb(0, 100, 0)" style="fill-opacity:0.00" />
<!-- End 'T' -->
<!-- Begin 'G' -->
<ellipse cx="475.000000" cy="329.971698" rx="25.000000" ry="0.028302" fill="rgb(255, 165, 0)" style="fill-opacity:0.00" />
<ellipse cx="475.000000" cy="329.971698" rx="16.666667" ry="0.018868" fill="rgb(255, 255, 255)" style="fill-opacity:1.00" />
<rect height="0.028302" width="25.000000" x="475.000000" y="329.957547" fill="rgb(255, 255, 255)" style="fill-opacity:1.00" />
<rect height="0.007075" width="25.000000" x="475.000000" y="329.978774" fill="rgb(255, 165, 0)" style="fill-opacity:0.00" />
<rect height="0.021226" width="6.250000" x="493.750000" y="329.978774" fill="rgb(255, 165, 0)" style="fill-opacity:0.00" />
<!-- End 'G' -->
<!-- Begin 'C' -->
<ellipse cx="475.000000" cy="375.882575" rx="25.000000" ry="35.882575" fill="rgb(0, 0, 128)" style="fill-opacity:0.00" />
<ellipse cx="475.000000" cy="375.882575" rx="16.666667" ry="23.921717" fill="rgb(255, 255, 255)" style="fill-opacity:1.00" />
<rect height="35.882575" width="25.000000" x="475.000000" y="357.941288" fill="rgb(255, 255, 255)" style="fill-opacity:1.00" />
<!-- End 'C' -->
<!-- Begin 'G' -->
<ellipse cx="475.000000" cy="421.989972" rx="25.000000" ry="10.224822" fill="rgb(255, 165, 0)" style="fill-opacity:0.00" />
<ellipse cx="475.000000" cy="421.989972" rx="16.666667" ry="6.816548" fill="rgb(255, 255, 255)" style="fill-opacity:1.00" />
<rect height="10.224822" width="25.000000" x="475.000000" y="416.877561" fill="rgb(255, 255, 255)" style="fill-opacity:1.00" />
<rect height="2.556205" width="25.000000" x="475.000000" y="424.546177" fill="rgb(255, 165, 0)" style="fill-opacity:0.00" />
<rect height="7.668616" width="6.250000" x="493.750000" y="424.546177" fill="rgb(255, 165, 0)" style="fill-opacity:0.00" />
<!-- End 'G' -->
<!-- Begin 'T' -->
<rect height="0.873640" width="50.000000" x="450.000000" y="432.214794" fill="rgb(0, 100, 0)" style="fill-opacity:0.00" />
<rect height="5.460249" width="10.000000" x="470.000000" y="432.214794" fill="rgb(0, 100, 0)" style="fill-opacity:0.00" />
<!-- End 'T' -->
<!-- Begin 'A' -->
<polygon points=" 450.000000, 440.000000, 471.000000, 437.675042, 479.000000, 437.675042, 500.000000, 440.000000, 492.500000, 440.000000, 486.250000, 439.418761, 463.750000, 439.418761, 457.500000, 440.000000" fill="rgb(178, 34, 34)" style="fill-opacity:0.00" />
<!-- End 'A' -->
<!-- Begin 'T' -->
<rect height="12.594293" width="50.000000" x="510.000000" y="10.000000" fill="rgb(0, 100, 0)" style="fill-opacity:0.00" />
<rect height="78.714330" width="10.000000" x="530.000000" y="10.000000" fill="rgb(0, 100, 0)" style="fill-opacity:0.00" />
<!-- End 'T' -->
<!-- Begin 'C' -->
<ellipse cx="535.000000" cy="96.484032" rx="25.000000" ry="7.769702" fill="rgb(0, 0, 128)" style="fill-opacity:0.00" />
<ellipse cx="535.000000" cy="96.484032" rx="16.666667" ry="5.179801" fill="rgb(255, 255, 255)" style="fill-opacity:1.00" />
<rect height="7.769702" width="25.000000" x="535.000000" y="92.599181" fill="rgb(255, 255, 255)" style="fill-opacity:1.00" />
<!-- End 'C' -->
<!-- Begin 'A' -->
<polygon points=" 510.000000, 109.845355, 531.000000, 104.253733, 539.000000, 104.253733, 560.000000, 109.845355, 552.500000, 109.845355, 546.250000, 108.447450, 523.750000, 108.447450, 517.500000, 109.845355" fill="rgb(178, 34, 34)" style="fill-opacity:0.00" />
<!-- End 'A' -->
<!-- Begin 'G' -->
<ellipse cx="535.000000" cy="109.922678" rx="25.000000" ry="0.077322" fill="rgb(255, 165, 0)" style="fill-opacity:0.00" />
<ellipse cx="535.000000" cy="109.922678" rx="16.666667" ry="0.051548" fill="rgb(255, 255, 255)" style="fill-opacity:1.00" />
<rect height="0.077322" width="25.000000" x="535.000000" y="109.884016" fill="rgb(255, 255, 255)" style="fill-opacity:1.00" />
<rect height="0.019331" width="25.000000" x="535.000000" y="109.942008" fill="rgb(255, 165, 0)" style="fill-opacity:0.00" />
<rect height="0.057992" width="6.250000" x="553.750000" y="109.942008" fill="rgb(255, 165, 0)" style="fill-opacity:0.00" />
<!-- End 'G' -->
<!-- Begin 'G' -->
<ellipse cx="535.000000" cy="144.971160" rx="25.000000" ry="24.971160" fill="rgb(255, 165, 0)" style="fill-opacity:0.96" />
<ellipse cx="535.000000" cy="144.971160" rx="16.666667" ry="16.647440" fill="rgb(255, 255, 255)" style="fill-opacity:1.00" />
<rect height="24.971160" width="25.000000" x="535.000000" y="132.485580" fill="rgb(255, 255, 255)" style="fill-opacity:1.00" />
<rect height="6.242790" width="25.000000" x="535.000000" y="151.213950" fill="rgb(255, 165, 0)" style="fill-opacity:0.96" />
<rect height="18.728370" width="6.250000" x="553.750000" y="151.213950" fill="rgb(255, 165, 0)" style="fill-opacity:0.96" />
<!-- End 'G' -->
<!-- Begin 'A' -->
<polygon points=" 510.000000, 199.655134, 531.000000, 169.942320, 539.000000, 169.942320, 560.000000, 199.655134, 552.500000, 199.655134, 546.250000, 192.226931, 523.750000, 192.226931, 517.500000, 199.655134" fill="rgb(178, 34, 34)" style="fill-opacity:0.96" />
<polygon points=" 535.000000, 175.884883, 527.000000, 186.770009, 542.000000, 186.770009" fill="rgb(255, 255, 255)" style="fill-opacity:1.00" />
<!-- End 'A' -->
<!-- Begin 'T' -->
<rect height="1.935451" width="50.000000" x="510.000000" y="199.655134" fill="rgb(0, 100, 0)" style="fill-opacity:0.96" />
<rect height="12.096572" width="10.000000" x="530.000000" y="199.655134" fill="rgb(0, 100, 0)" style="fill-opacity:0.96" />
<!-- End 'T' -->
<!-- Begin 'C' -->
<ellipse cx="535.000000" cy="215.875853" rx="25.000000" ry="4.124147" fill="rgb(0, 0, 128)" style="fill-opacity:0.96" />
<ellipse cx="535.000000" cy="215.875853" rx="16.666667" ry="2.749431" fill="rgb(255, 255, 255)" style="fill-opacity:1.00" />
<rect height="4.124147" width="25.000000" x="535.000000" y="213.813780" fill="rgb(255, 255, 255)" style="fill-opacity:1.00" />
<!-- End 'C' -->
<!-- Begin 'C' -->
<ellipse cx="535.000000" cy="270.925844" rx="25.000000" ry="40.925844" fill="rgb(0, 0, 128)" style="fill-opacity:0.00" />
<ellipse cx="535.000000" cy="270.925844" rx="16.666667" ry="27.283896" fill="rgb(255, 255, 255)" style="fill-opacity:1.00" />
<rect height="40.925844" width="25.000000" x="535.000000" y="250.462922" fill="rgb(255, 255, 255)" style="fill-opacity:1.00" />
<!-- End 'C' -->
<!-- Begin 'A' -->
<polygon points=" 510.000000, 327.275855, 531.000000, 311.851689, 539.000000, 311.851689, 560.000000, 327.275855, 552.500000, 327.275855, 546.250000, 323.419813, 523.750000, 323.419813, 517.500000, 327.275855" fill="rgb(178, 34, 34)" style="fill-opacity:0.00" />
<polygon points=" 535.000000, 314.936522, 527.000000, 320.106188, 542.000000, 320.106188" fill="rgb(255, 255, 255)" style="fill-opacity:1.00" />
<!-- End 'A' -->
<!-- Begin 'T' -->
<rect height="0.327211" width="50.000000" x="510.000000" y="327.275855" fill="rgb(0, 100, 0)" style="fill-opacity:0.00" />
<rect height="2.045069" width="10.000000" x="530.000000" y="327.275855" fill="rgb(0, 100, 0)" style="fill-opacity:0.00" />
<!-- End 'T' -->
<!-- Begin 'G' -->
<ellipse cx="535.000000" cy="329.660462" rx="25.000000" ry="0.339538" fill="rgb(255, 165, 0)" style="fill-opacity:0.00" />
<ellipse cx="535.000000" cy="329.660462" rx="16.666667" ry="0.226359" fill="rgb(255, 255, 255)" style="fill-opacity:1.00" />
<rect height="0.339538" width="25.000000" x="535.000000" y="329.490693" fill="rgb(255, 255, 255)" style="fill-opacity:1.00" />
<rect height="0.084884" width="25.000000" x="535.000000" y="329.745347" fill="rgb(255, 165, 0)" style="fill-opacity:0.00" />
<rect height="0.254653" width="6.250000" x="553.750000" y="329.745347" fill="rgb(255, 165, 0)" style="fill-opacity:0.00" />
<!-- End 'G' -->
<!-- Begin 'A' -->
<polygon points=" 510.000000, 386.024098, 531.000000, 340.000000, 539.000000, 340.000000, 560.000000, 386.024098, 552.500000, 386.024098, 546.250000, 374.518073, 523.750000, 374.518073, 517.500000, 386.024098" fill="rgb(178, 34, 34)" style="fill-opacity:0.03" />
<polygon points=" 535.000000, 349.204820, 527.000000, 366.614459, 542.000000, 366.614459" fill="rgb(255, 255, 255)" style="fill-opacity:1.00" />
<!-- End 'A' -->
<!-- Begin 'C' -->
<ellipse cx="535.000000" cy="399.419437" rx="25.000000" ry="13.395340" fill="rgb(0, 0, 128)" style="fill-opacity:0.03" />
<ellipse cx="535.000000" cy="399.419437" rx="16.666667" ry="8.930226" fill="rgb(255, 255, 255)" style="fill-opacity:1.00" />
<rect height="13.395340" width="25.000000" x="535.000000" y="392.721768" fill="rgb(255, 255, 255)" style="fill-opacity:1.00" />
<!-- End 'C' -->
<!-- Begin 'T' -->
<rect height="3.341147" width="50.000000" x="510.000000" y="412.814777" fill="rgb(0, 100, 0)" style="fill-opacity:0.03" />
<rect height="20.882168" width="10.000000" x="530.000000" y="412.814777" fill="rgb(0, 100, 0)" style="fill-opacity:0.03" />
<!-- End 'T' -->
<!-- Begin 'G' -->
<ellipse cx="535.000000" cy="436.848472" rx="25.000000" ry="3.151528" fill="rgb(255, 165, 0)" style="fill-opacity:0.03" />
<ellipse cx="535.000000" cy="436.848472" rx="16.666667" ry="2.101018" fill="rgb(255, 255, 255)" style="fill-opacity:1.00" />
<rect height="3.151528" width="25.000000" x="535.000000" y="435.272708" fill="rgb(255, 255, 255)" style="fill-opacity:1.00" />
<rect height="0.787882" width="25.000000" x="535.000000" y="437.636354" fill="rgb(255, 165, 0)" style="fill-opacity:0.03" />
<rect height="2.363646" width="6.250000" x="553.750000" y="437.636354" fill="rgb(255, 165, 0)" style="fill-opacity:0.03" />
<!-- End 'G' -->
<!-- Begin 'A' -->
<polygon points=" 570.000000, 46.691423, 591.000000, 10.000000, 599.000000, 10.000000, 620.000000, 46.691423, 612.500000, 46.691423, 606.250000, 37.518567, 583.750000, 37.518567, 577.500000, 46.691423" fill="rgb(178, 34, 34)" style="fill-opacity:0.30" />
<polygon points=" 595.000000, 17.338285, 587.000000, 31.014854, 602.000000, 31.014854" fill="rgb(255, 255, 255)" style="fill-opacity:1.00" />
<!-- End 'A' -->
<!-- Begin 'T' -->
<rect height="4.902791" width="50.000000" x="570.000000" y="46.691423" fill="rgb(0, 100, 0)" style="fill-opacity:0.30" />
<rect height="30.642441" width="10.000000" x="590.000000" y="46.691423" fill="rgb(0, 100, 0)" style="fill-opacity:0.30" />
<!-- End 'T' -->
<!-- Begin 'C' -->
<ellipse cx="595.000000" cy="86.434613" rx="25.000000" ry="9.100750" fill="rgb(0, 0, 128)" style="fill-opacity:0.30" />
<ellipse cx="595.000000" cy="86.434613" rx="16.666667" ry="6.067166" fill="rgb(255, 255, 255)" style="fill-opacity:1.00" />
<rect height="9.100750" width="25.000000" x="595.000000" y="81.884238" fill="rgb(255, 255, 255)" style="fill-opacity:1.00" />
<!-- End 'C' -->
<!-- Begin 'G' -->
<ellipse cx="595.000000" cy="102.767681" rx="25.000000" ry="7.232319" fill="rgb(255, 165, 0)" style="fill-opacity:0.30" />
<ellipse cx="595.000000" cy="102.767681" rx="16.666667" ry="4.821546" fill="rgb(255, 255, 255)" style="fill-opacity:1.00" />
<rect height="7.232319" width="25.000000" x="595.000000" y="99.151522" fill="rgb(255, 255, 255)" style="fill-opacity:1.00" />
<rect height="1.808080" width="25.000000" x="595.000000" y="104.575761" fill="rgb(255, 165, 0)" style="fill-opacity:0.30" />
<rect height="5.424239" width="6.250000" x="613.750000" y="104.575761" fill="rgb(255, 165, 0)" style="fill-opacity:0.30" />
<!-- End 'G' -->
<!-- Begin 'A' -->
<polygon points=" 570.000000, 169.843346, 591.000000, 120.000000, 599.000000, 120.000000, 620.000000, 169.843346, 612.500000, 169.843346, 606.250000, 157.382510, 583.750000, 157.382510, 577.500000, 169.843346" fill="rgb(178, 34, 34)" style="fill-opacity:0.09" />
<polygon points=" 595.000000, 129.968669, 587.000000, 148.906008, 602.000000, 148.906008" fill="rgb(255, 255, 255)" style="fill-opacity:1.00" />
<!-- End 'A' -->
<!-- Begin 'T' -->
<rect height="4.130941" width="50.000000" x="570.000000" y="169.843346" fill="rgb(0, 100, 0)" style="fill-opacity:0.09" />
<rect height="25.818380" width="10.000000" x="590.000000" y="169.843346" fill="rgb(0, 100, 0)" style="fill-opacity:0.09" />
<!-- End 'T' -->
<!-- Begin 'G' -->
<ellipse cx="595.000000" cy="203.219339" rx="25.000000" ry="7.557612" fill="rgb(255, 165, 0)" style="fill-opacity:0.09" />
<ellipse cx="595.000000" cy="203.219339" rx="16.666667" ry="5.038408" fill="rgb(255, 255, 255)" style="fill-opacity:1.00" />
<rect height="7.557612" width="25.000000" x="595.000000" y="199.440532" fill="rgb(255, 255, 255)" style="fill-opacity:1.00" />
<rect height="1.889403" width="25.000000" x="595.000000" y="205.108742" fill="rgb(255, 165, 0)" style="fill-opacity:0.09" />
<rect height="5.668209" width="6.250000" x="613.750000" y="205.108742" fill="rgb(255, 165, 0)" style="fill-opacity:0.09" />
<!-- End 'G' -->
<!-- Begin 'C' -->
<ellipse cx="595.000000" cy="215.388475" rx="25.000000" ry="4.611525" fill="rgb(0, 0, 128)" style="fill-opacity:0.09" />
<ellipse cx="595.000000" cy="215.388475" rx="16.666667" ry="3.074350" fill="rgb(255, 255, 255)" style="fill-opacity:1.00" />
<rect height="4.611525" width="25.000000" x="595.000000" y="213.082713" fill="rgb(255, 255, 255)" style="fill-opacity:1.00" />
<!-- End 'C' -->
<!-- Begin 'G' -->
<ellipse cx="595.000000" cy="263.970720" rx="25.000000" ry="33.970720" fill="rgb(255, 165, 0)" style="fill-opacity:0.48" />
<ellipse cx="595.000000" cy="263.970720" rx="16.666667" ry="22.647147" fill="rgb(255, 255, 255)" style="fill-opacity:1.00" />
<rect height="33.970720" width="25.000000" x="595.000000" y="246.985360" fill="rgb(255, 255, 255)" style="fill-opacity:1.00" />
<rect height="8.492680" width="25.000000" x="595.000000" y="272.463400" fill="rgb(255, 165, 0)" style="fill-opacity:0.48" />
<rect height="25.478040" width="6.250000" x="613.750000" y="272.463400" fill="rgb(255, 165, 0)" style="fill-opacity:0.48" />
<!-- End 'G' -->
<!-- Begin 'A' -->
<polygon points=" 570.000000, 313.561799, 591.000000, 297.941440, 599.000000, 297.941440, 620.000000, 313.561799, 612.500000, 313.561799, 606.250000, 309.656709, 583.750000, 309.656709, 577.500000, 313.561799" fill="rgb(178, 34, 34)" style="fill-opacity:0.48" />
<polygon points=" 595.000000, 301.065512, 587.000000, 306.313655, 602.000000, 306.313655" fill="rgb(255, 255, 255)" style="fill-opacity:1.00" />
<!-- End 'A' -->
<!-- Begin 'T' -->
<rect height="2.314508" width="50.000000" x="570.000000" y="313.561799" fill="rgb(0, 100, 0)" style="fill-opacity:0.48" />
<rect height="14.465678" width="10.000000" x="590.000000" y="313.561799" fill="rgb(0, 100, 0)" style="fill-opacity:0.48" />
<!-- End 'T' -->
<!-- Begin 'C' -->
<ellipse cx="595.000000" cy="329.013738" rx="25.000000" ry="0.986262" fill="rgb(0, 0, 128)" style="fill-opacity:0.48" />
<ellipse cx="595.000000" cy="329.013738" rx="16.666667" ry="0.657508" fill="rgb(255, 255, 255)" style="fill-opacity:1.00" />
<rect height="0.986262" width="25.000000" x="595.000000" y="328.520607" fill="rgb(255, 255, 255)" style="fill-opacity:1.00" />
<!-- End 'C' -->
<!-- Begin 'T' -->
<rect height="6.615819" width="50.000000" x="570.000000" y="340.000000" fill="rgb(0, 100, 0)" style="fill-opacity:0.12" />
<rect height="41.348869" width="10.000000" x="590.000000" y="340.000000" fill="rgb(0, 100, 0)" style="fill-opacity:0.12" />
<!-- End 'T' -->
<!-- Begin 'A' -->
<polygon points=" 570.000000, 406.945650, 591.000000, 381.348869, 599.000000, 381.348869, 620.000000, 406.945650, 612.500000, 406.945650, 606.250000, 400.546455, 583.750000, 400.546455, 577.500000, 406.945650" fill="rgb(178, 34, 34)" style="fill-opacity:0.12" />
<polygon points=" 595.000000, 386.468225, 587.000000, 395.706938, 602.000000, 395.706938" fill="rgb(255, 255, 255)" style="fill-opacity:1.00" />
<!-- End 'A' -->
<!-- Begin 'G' -->
<ellipse cx="595.000000" cy="416.483862" rx="25.000000" ry="9.538212" fill="rgb(255, 165, 0)" style="fill-opacity:0.12" />
<ellipse cx="595.000000" cy="416.483862" rx="16.666667" ry="6.358808" fill="rgb(255, 255, 255)" style="fill-opacity:1.00" />
<rect height="9.538212" width="25.000000" x="595.000000" y="411.714756" fill="rgb(255, 255, 255)" style="fill-opacity:1.00" />
<rect height="2.384553" width="25.000000" x="595.000000" y="418.868415" fill="rgb(255, 165, 0)" style="fill-opacity:0.12" />
<rect height="7.153659" width="6.250000" x="613.750000" y="418.868415" fill="rgb(255, 165, 0)" style="fill-opacity:0.12" />
<!-- End 'G' -->
<!-- Begin 'C' -->
<ellipse cx="595.000000" cy="433.011037" rx="25.000000" ry="6.988963" fill="rgb(0, 0, 128)" style="fill-opacity:0.12" />
<ellipse cx="595.000000" cy="433.011037" rx="16.666667" ry="4.659309" fill="rgb(255, 255, 255)" style="fill-opacity:1.00" />
<rect height="6.988963" width="25.000000" x="595.000000" y="429.516556" fill="rgb(255, 255, 255)" style="fill-opacity:1.00" />
<!-- End 'C' -->
<!-- Begin 'A' -->
<polygon points=" 630.000000, 44.333019, 651.000000, 10.000000, 659.000000, 10.000000, 680.000000, 44.333019, 672.500000, 44.333019, 666.250000, 35.749764, 643.750000, 35.749764, 637.500000, 44.333019" fill="rgb(178, 34, 34)" style="fill-opacity:0.26" />
<polygon points=" 655.000000, 16.866604, 647.000000, 29.599811, 662.000000, 29.599811" fill="rgb(255, 255, 255)" style="fill-opacity:1.00" />
<!-- End 'A' -->
<!-- Begin 'T' -->
<rect height="5.103303" width="50.000000" x="630.000000" y="44.333019" fill="rgb(0, 100, 0)" style="fill-opacity:0.26" />
<rect height="31.895642" width="10.000000" x="650.000000" y="44.333019" fill="rgb(0, 100, 0)" style="fill-opacity:0.26" />
<!-- End 'T' -->
<!-- Begin 'C' -->
<ellipse cx="655.000000" cy="86.889877" rx="25.000000" ry="10.661217" fill="rgb(0, 0, 128)" style="fill-opacity:0.26" />
<ellipse cx="655.000000" cy="86.889877" rx="16.666667" ry="7.107478" fill="rgb(255, 255, 255)" style="fill-opacity:1.00" />
<rect height="10.661217" width="25.000000" x="655.000000" y="81.559269" fill="rgb(255, 255, 255)" style="fill-opacity:1.00" />
<!-- End 'C' -->
<!-- Begin 'G' -->
<ellipse cx="655.000000" cy="103.775547" rx="25.000000" ry="6.224453" fill="rgb(255, 165, 0)" style="fill-opacity:0.26" />
<ellipse cx="655.000000" cy="103.775547" rx="16.666667" ry="4.149635" fill="rgb(255, 255, 255)" style="fill-opacity:1.00" />
<rect height="6.224453" width="25.000000" x="655.000000" y="100.663321" fill="rgb(255, 255, 255)" style="fill-opacity:1.00" />
<rect height="1.556113" width="25.000000" x="655.000000" y="105.331660" fill="rgb(255, 165, 0)" style="fill-opacity:0.26" />
<rect height="4.668340" width="6.250000" x="673.750000" y="105.331660" fill="rgb(255, 165, 0)" style="fill-opacity:0.26" />
<!-- End 'G' -->
<!-- Begin 'A' -->
<polygon points=" 630.000000, 157.661696, 651.000000, 120.000000, 659.000000, 120.000000, 680.000000, 157.661696, 672.500000, 157.661696, 666.250000, 148.246272, 643.750000, 148.246272, 637.500000, 157.661696" fill="rgb(178, 34, 34)" style="fill-opacity:0.09" />
<polygon points=" 655.000000, 127.532339, 647.000000, 141.597018, 662.000000, 141.597018" fill="rgb(255, 255, 255)" style="fill-opacity:1.00" />
<!-- End 'A' -->
<!-- Begin 'T' -->
<rect height="4.786770" width="50.000000" x="630.000000" y="157.661696" fill="rgb(0, 100, 0)" style="fill-opacity:0.09" />
<rect height="29.917313" width="10.000000" x="650.000000" y="157.661696" fill="rgb(0, 100, 0)" style="fill-opacity:0.09" />
<!-- End 'T' -->
<!-- Begin 'G' -->
<ellipse cx="655.000000" cy="195.719175" rx="25.000000" ry="8.140166" fill="rgb(255, 165, 0)" style="fill-opacity:0.09" />
<ellipse cx="655.000000" cy="195.719175" rx="16.666667" ry="5.426778" fill="rgb(255, 255, 255)" style="fill-opacity:1.00" />
<rect height="8.140166" width="25.000000" x="655.000000" y="191.649092" fill="rgb(255, 255, 255)" style="fill-opacity:1.00" />
<rect height="2.035042" width="25.000000" x="655.000000" y="197.754217" fill="rgb(255, 165, 0)" style="fill-opacity:0.09" />
<rect height="6.105125" width="6.250000" x="673.750000" y="197.754217" fill="rgb(255, 165, 0)" style="fill-opacity:0.09" />
<!-- End 'G' -->
<!-- Begin 'C' -->
<ellipse cx="655.000000" cy="211.929671" rx="25.000000" ry="8.070329" fill="rgb(0, 0, 128)" style="fill-opacity:0.09" />
<ellipse cx="655.000000" cy="211.929671" rx="16.666667" ry="5.380219" fill="rgb(255, 255, 255)" style="fill-opacity:1.00" />
<rect height="8.070329" width="25.000000" x="655.000000" y="207.894506" fill="rgb(255, 255, 255)" style="fill-opacity:1.00" />
<!-- End 'C' -->
<!-- Begin 'A' -->
<polygon points=" 630.000000, 288.141433, 651.000000, 230.000000, 659.000000, 230.000000, 680.000000, 288.141433, 672.500000, 288.141433, 666.250000, 273.606075, 643.750000, 273.606075, 637.500000, 288.141433" fill="rgb(178, 34, 34)" style="fill-opacity:0.41" />
<polygon points=" 655.000000, 241.628287, 647.000000, 263.884860, 662.000000, 263.884860" fill="rgb(255, 255, 255)" style="fill-opacity:1.00" />
<!-- End 'A' -->
<!-- Begin 'T' -->
<rect height="4.469069" width="50.000000" x="630.000000" y="288.141433" fill="rgb(0, 100, 0)" style="fill-opacity:0.41" />
<rect height="27.931683" width="10.000000" x="650.000000" y="288.141433" fill="rgb(0, 100, 0)" style="fill-opacity:0.41" />
<!-- End 'T' -->
<!-- Begin 'C' -->
<ellipse cx="655.000000" cy="321.503090" rx="25.000000" ry="5.429974" fill="rgb(0, 0, 128)" style="fill-opacity:0.41" />
<ellipse cx="655.000000" cy="321.503090" rx="16.666667" ry="3.619983" fill="rgb(255, 255, 255)" style="fill-opacity:1.00" />
<rect height="5.429974" width="25.000000" x="655.000000" y="318.788103" fill="rgb(255, 255, 255)" style="fill-opacity:1.00" />
<!-- End 'C' -->
<!-- Begin 'G' -->
<ellipse cx="655.000000" cy="328.466532" rx="25.000000" ry="1.533468" fill="rgb(255, 165, 0)" style="fill-opacity:0.41" />
<ellipse cx="655.000000" cy="328.466532" rx="16.666667" ry="1.022312" fill="rgb(255, 255, 255)" style="fill-opacity:1.00" />
<rect height="1.533468" width="25.000000" x="655.000000" y="327.699798" fill="rgb(255, 255, 255)" style="fill-opacity:1.00" />
<rect height="0.383367" width="25.000000" x="655.000000" y="328.849899" fill="rgb(255, 165, 0)" style="fill-opacity:0.41" />
<rect height="1.150101" width="6.250000" x="673.750000" y="328.849899" fill="rgb(255, 165, 0)" style="fill-opacity:0.41" />
<!-- End 'G' -->
<!-- Begin 'T' -->
<rect height="5.464128" width="50.000000" x="630.000000" y="340.000000" fill="rgb(0, 100, 0)" style="fill-opacity:0.24" />
<rect height="34.150801" width="10.000000" x="650.000000" y="340.000000" fill="rgb(0, 100, 0)" style="fill-opacity:0.24" />
<!-- End 'T' -->
<!-- Begin 'A' -->
<polygon points=" 630.000000, 405.289356, 651.000000, 374.150801, 659.000000, 374.150801, 680.000000, 405.289356, 672.500000, 405.289356, 666.250000, 397.504717, 643.750000, 397.504717, 637.500000, 405.289356" fill="rgb(178, 34, 34)" style="fill-opacity:0.24" />
<polygon points=" 655.000000, 380.378512, 647.000000, 391.833934, 662.000000, 391.833934" fill="rgb(255, 255, 255)" style="fill-opacity:1.00" />
<!-- End 'A' -->
<!-- Begin 'G' -->
<ellipse cx="655.000000" cy="416.051743" rx="25.000000" ry="10.762387" fill="rgb(255, 165, 0)" style="fill-opacity:0.24" />
<ellipse cx="655.000000" cy="416.051743" rx="16.666667" ry="7.174925" fill="rgb(255, 255, 255)" style="fill-opacity:1.00" />
<rect height="10.762387" width="25.000000" x="655.000000" y="410.670549" fill="rgb(255, 255, 255)" style="fill-opacity:1.00" />
<rect height="2.690597" width="25.000000" x="655.000000" y="418.742340" fill="rgb(255, 165, 0)" style="fill-opacity:0.24" />
<rect height="8.071790" width="6.250000" x="673.750000" y="418.742340" fill="rgb(255, 165, 0)" style="fill-opacity:0.24" />
<!-- End 'G' -->
<!-- Begin 'C' -->
<ellipse cx="655.000000" cy="433.407065" rx="25.000000" ry="6.592935" fill="rgb(0, 0, 128)" style="fill-opacity:0.24" />
<ellipse cx="655.000000" cy="433.407065" rx="16.666667" ry="4.395290" fill="rgb(255, 255, 255)" style="fill-opacity:1.00" />
<rect height="6.592935" width="25.000000" x="655.000000" y="430.110597" fill="rgb(255, 255, 255)" style="fill-opacity:1.00" />
<!-- End 'C' -->
<!-- Begin 'A' -->
<polygon points=" 690.000000, 44.185815, 711.000000, 10.000000, 719.000000, 10.000000, 740.000000, 44.185815, 732.500000, 44.185815, 726.250000, 35.639361, 703.750000, 35.639361, 697.500000, 44.185815" fill="rgb(178, 34, 34)" style="fill-opacity:0.44" />
<polygon points=" 715.000000, 16.837163, 707.000000, 29.511489, 722.000000, 29.511489" fill="rgb(255, 255, 255)" style="fill-opacity:1.00" />
<!-- End 'A' -->
<!-- Begin 'T' -->
<rect height="5.086216" width="50.000000" x="690.000000" y="44.185815" fill="rgb(0, 100, 0)" style="fill-opacity:0.44" />
<rect height="31.788850" width="10.000000" x="710.000000" y="44.185815" fill="rgb(0, 100, 0)" style="fill-opacity:0.44" />
<!-- End 'T' -->
<!-- Begin 'C' -->
<ellipse cx="715.000000" cy="87.824928" rx="25.000000" ry="11.850263" fill="rgb(0, 0, 128)" style="fill-opacity:0.44" />
<ellipse cx="715.000000" cy="87.824928" rx="16.666667" ry="7.900175" fill="rgb(255, 255, 255)" style="fill-opacity:1.00" />
<rect height="11.850263" width="25.000000" x="715.000000" y="81.899796" fill="rgb(255, 255, 255)" style="fill-opacity:1.00" />
<!-- End 'C' -->
<!-- Begin 'G' -->
<ellipse cx="715.000000" cy="104.837595" rx="25.000000" ry="5.162405" fill="rgb(255, 165, 0)" style="fill-opacity:0.44" />
<ellipse cx="715.000000" cy="104.837595" rx="16.666667" ry="3.441603" fill="rgb(255, 255, 255)" style="fill-opacity:1.00" />
<rect height="5.162405" width="25.000000" x="715.000000" y="102.256393" fill="rgb(255, 255, 255)" style="fill-opacity:1.00" />
<rect height="1.290601" width="25.000000" x="715.000000" y="106.128196" fill="rgb(255, 165, 0)" style="fill-opacity:0.44" />
<rect height="3.871804" width="6.250000" x="733.750000" y="106.128196" fill="rgb(255, 165, 0)" style="fill-opacity:0.44" />
<!-- End 'G' -->
<!-- Begin 'T' -->
<rect height="5.198188" width="50.000000" x="690.000000" y="120.000000" fill="rgb(0, 100, 0)" style="fill-opacity:0.15" />
<rect height="32.488678" width="10.000000" x="710.000000" y="120.000000" fill="rgb(0, 100, 0)" style="fill-opacity:0.15" />
<!-- End 'T' -->
<!-- Begin 'A' -->
<polygon points=" 690.000000, 182.225021, 711.000000, 152.488678, 719.000000, 152.488678, 740.000000, 182.225021, 732.500000, 182.225021, 726.250000, 174.790935, 703.750000, 174.790935, 697.500000, 182.225021" fill="rgb(178, 34, 34)" style="fill-opacity:0.15" />
<polygon points=" 715.000000, 158.435946, 707.000000, 169.330483, 722.000000, 169.330483" fill="rgb(255, 255, 255)" style="fill-opacity:1.00" />
<!-- End 'A' -->
<!-- Begin 'G' -->
<ellipse cx="715.000000" cy="192.649604" rx="25.000000" ry="10.424583" fill="rgb(255, 165, 0)" style="fill-opacity:0.15" />
<ellipse cx="715.000000" cy="192.649604" rx="16.666667" ry="6.949722" fill="rgb(255, 255, 255)" style="fill-opacity:1.00" />
<rect height="10.424583" width="25.000000" x="715.000000" y="187.437312" fill="rgb(255, 255, 255)" style="fill-opacity:1.00" />
<rect height="2.606146" width="25.000000" x="715.000000" y="195.255749" fill="rgb(255, 165, 0)" style="fill-opacity:0.15" />
<rect height="7.818437" width="6.250000" x="733.750000" y="195.255749" fill="rgb(255, 165, 0)" style="fill-opacity:0.15" />
<!-- End 'G' -->
<!-- Begin 'C' -->
<ellipse cx="715.000000" cy="211.537093" rx="25.000000" ry="8.462907" fill="rgb(0, 0, 128)" style="fill-opacity:0.15" />
<ellipse cx="715.000000" cy="211.537093" rx="16.666667" ry="5.641938" fill="rgb(255, 255, 255)" style="fill-opacity:1.00" />
<rect height="8.462907" width="25.000000" x="715.000000" y="207.305640" fill="rgb(255, 255, 255)" style="fill-opacity:1.00" />
<!-- End 'C' -->
<!-- Begin 'T' -->
<rect height="7.273348" width="50.000000" x="690.000000" y="230.000000" fill="rgb(0, 100, 0)" style="fill-opacity:0.11" />
<rect height="45.458424" width="10.000000" x="710.000000" y="230.000000" fill="rgb(0, 100, 0)" style="fill-opacity:0.11" />
<!-- End 'T' -->
<!-- Begin 'A' -->
<polygon points=" 690.000000, 299.028348, 711.000000, 275.458424, 719.000000, 275.458424, 740.000000, 299.028348, 732.500000, 299.028348, 726.250000, 293.135867, 703.750000, 293.135867, 697.500000, 299.028348" fill="rgb(178, 34, 34)" style="fill-opacity:0.11" />
<polygon points=" 715.000000, 280.172409, 707.000000, 288.600378, 722.000000, 288.600378" fill="rgb(255, 255, 255)" style="fill-opacity:1.00" />
<!-- End 'A' -->
<!-- Begin 'C' -->
<ellipse cx="715.000000" cy="307.231795" rx="25.000000" ry="8.203448" fill="rgb(0, 0, 128)" style="fill-opacity:0.11" />
<ellipse cx="715.000000" cy="307.231795" rx="16.666667" ry="5.468965" fill="rgb(255, 255, 255)" style="fill-opacity:1.00" />
<rect height="8.203448" width="25.000000" x="715.000000" y="303.130071" fill="rgb(255, 255, 255)" style="fill-opacity:1.00" />
<!-- End 'C' -->
<!-- Begin 'G' -->
<ellipse cx="715.000000" cy="322.717622" rx="25.000000" ry="7.282378" fill="rgb(255, 165, 0)" style="fill-opacity:0.11" />
<ellipse cx="715.000000" cy="322.717622" rx="16.666667" ry="4.854919" fill="rgb(255, 255, 255)" style="fill-opacity:1.00" />
<rect height="7.282378" width="25.000000" x="715.000000" y="319.076432" fill="rgb(255, 255, 255)" style="fill-opacity:1.00" />
<rect height="1.820595" width="25.000000" x="715.000000" y="324.538216" fill="rgb(255, 165, 0)" style="fill-opacity:0.11" />
<rect height="5.461784" width="6.250000" x="733.750000" y="324.538216" fill="rgb(255, 165, 0)" style="fill-opacity:0.11" />
<!-- End 'G' -->
<!-- Begin 'T' -->
<rect height="4.972351" width="50.000000" x="690.000000" y="340.000000" fill="rgb(0, 100, 0)" style="fill-opacity:0.31" />
<rect height="31.077193" width="10.000000" x="710.000000" y="340.000000" fill="rgb(0, 100, 0)" style="fill-opacity:0.31" />
<!-- End 'T' -->
<!-- Begin 'A' -->
<polygon points=" 690.000000, 400.540408, 711.000000, 371.077193, 719.000000, 371.077193, 740.000000, 400.540408, 732.500000, 400.540408, 726.250000, 393.174604, 703.750000, 393.174604, 697.500000, 400.540408" fill="rgb(178, 34, 34)" style="fill-opacity:0.31" />
<polygon points=" 715.000000, 376.969836, 707.000000, 387.755122, 722.000000, 387.755122" fill="rgb(255, 255, 255)" style="fill-opacity:1.00" />
<!-- End 'A' -->
<!-- Begin 'C' -->
<ellipse cx="715.000000" cy="411.314352" rx="25.000000" ry="10.773945" fill="rgb(0, 0, 128)" style="fill-opacity:0.31" />
<ellipse cx="715.000000" cy="411.314352" rx="16.666667" ry="7.182630" fill="rgb(255, 255, 255)" style="fill-opacity:1.00" />
<rect height="10.773945" width="25.000000" x="715.000000" y="405.927380" fill="rgb(255, 255, 255)" style="fill-opacity:1.00" />
<!-- End 'C' -->
<!-- Begin 'G' -->
<ellipse cx="715.000000" cy="431.044148" rx="25.000000" ry="8.955852" fill="rgb(255, 165, 0)" style="fill-opacity:0.31" />
<ellipse cx="715.000000" cy="431.044148" rx="16.666667" ry="5.970568" fill="rgb(255, 255, 255)" style="fill-opacity:1.00" />
<rect height="8.955852" width="25.000000" x="715.000000" y="426.566223" fill="rgb(255, 255, 255)" style="fill-opacity:1.00" />
<rect height="2.238963" width="25.000000" x="715.000000" y="433.283111" fill="rgb(255, 165, 0)" style="fill-opacity:0.31" />
<rect height="6.716889" width="6.250000" x="733.750000" y="433.283111" fill="rgb(255, 165, 0)" style="fill-opacity:0.31" />
<!-- End 'G' -->
<text x="400.000000" y="495">
IC = 8.81
</text>

</svg>
