<?xml version="1.0" encoding="UTF-8" standalone="yes"?>
                 <!DOCTYPE svg PUBLIC "-//W3C//DTD SVG 1.0//EN" "http://www.w3.org/TR/2001/REC-SVG-20010904/DTD/svg10.dtd">
                 <svg height="170" width="780" xmlns="http://www.w3.org/2000/svg" xmlns:xlink="http://www.w3.org/1999/xlink">
                 <line x1="85" y1="120" x2="747" y2="120" style="stroke:rgb(99,99,99);stroke-width:2" />
<rect height="7.000000" width="2.000000" x="85.000000" y="120.000000" fill="rgb(0, 0, 0)" style="fill-opacity:1.00" />
<text x="107.000000" y="140">
1
</text>
<rect height="7.000000" width="2.000000" x="145.000000" y="120.000000" fill="rgb(0, 0, 0)" style="fill-opacity:1.00" />
<text x="167.000000" y="140">
2
</text>
<rect height="7.000000" width="2.000000" x="205.000000" y="120.000000" fill="rgb(0, 0, 0)" style="fill-opacity:1.00" />
<text x="227.000000" y="140">
3
</text>
<rect height="7.000000" width="2.000000" x="265.000000" y="120.000000" fill="rgb(0, 0, 0)" style="fill-opacity:1.00" />
<text x="287.000000" y="140">
4
</text>
<rect height="7.000000" width="2.000000" x="325.000000" y="120.000000" fill="rgb(0, 0, 0)" style="fill-opacity:1.00" />
<text x="347.000000" y="140">
5
</text>
<rect height="7.000000" width="2.000000" x="385.000000" y="120.000000" fill="rgb(0, 0, 0)" style="fill-opacity:1.00" />
<text x="407.000000" y="140">
6
</text>
<rect height="7.000000" width="2.000000" x="445.000000" y="120.000000" fill="rgb(0, 0, 0)" style="fill-opacity:1.00" />
<text x="467.000000" y="140">
7
</text>
<rect height="7.000000" width="2.000000" x="505.000000" y="120.000000" fill="rgb(0, 0, 0)" style="fill-opacity:1.00" />
<text x="527.000000" y="140">
8
</text>
<rect height="7.000000" width="2.000000" x="565.000000" y="120.000000" fill="rgb(0, 0, 0)" style="fill-opacity:1.00" />
<text x="587.000000" y="140">
9
</text>
<rect height="7.000000" width="2.000000" x="625.000000" y="120.000000" fill="rgb(0, 0, 0)" style="fill-opacity:1.00" />
<text x="647.000000" y="140">
10
</text>
<rect height="7.000000" width="2.000000" x="685.000000" y="120.000000" fill="rgb(0, 0, 0)" style="fill-opacity:1.00" />
<text x="707.000000" y="140">
11
</text>
<rect height="7.000000" width="2.000000" x="745.000000" y="120.000000" fill="rgb(0, 0, 0)" style="fill-opacity:1.00" />
<line x1="80" y1="112" x2="80" y2="10" style="stroke:rgb(99,99,99);stroke-width:2" />
<rect height="2.000000" width="7.000000" x="73.000000" y="110.000000" fill="rgb(0, 0, 0)" style="fill-opacity:1.00" />
<text x="63" y="115">
0
</text>
<rect height="2.000000" width="7.000000" x="73.000000" y="60.000000" fill="rgb(0, 0, 0)" style="fill-opacity:1.00" />
<text x="63" y="65">
1
</text>
<rect height="2.000000" width="7.000000" x="73.000000" y="10.000000" fill="rgb(0, 0, 0)" style="fill-opacity:1.00" />
<text x="63" y="15">
2
</text>
<text x="50" y="65"
transform="rotate(-90, 50, 70)">
bits
</text>
<!-- Begin 'A' -->
<polygon points=" 90.000000, 106.709080, 111.000000, 104.388113, 119.000000, 104.388113, 140.000000, 106.709080, 132.500000, 106.709080, 126.250000, 106.128838, 103.750000, 106.128838, 97.500000, 106.709080" fill="rgb(178, 34, 34)" style="fill-opacity:1.00" />
<!-- End 'A' -->
<!-- Begin 'T' -->
<rect height="0.206325" width="50.000000" x="90.000000" y="106.709080" fill="rgb(0, 100, 0)" style="fill-opacity:1.00" />
<rect height="1.289531" width="10.000000" x="110.000000" y="106.709080" fill="rgb(0, 100, 0)" style="fill-opacity:1.00" />
<!-- End 'T' -->
<!-- Begin 'G' -->
<ellipse cx="115.000000" cy="108.613839" rx="25.000000" ry="0.615228" fill="rgb(255, 165, 0)" style="fill-opacity:1.00" />
<ellipse cx="115.000000" cy="108.613839" rx="16.666667" ry="0.410152" fill="rgb(255, 255, 255)" style="fill-opacity:1.00" />
<rect height="0.615228" width="25.000000" x="115.000000" y="108.306225" fill="rgb(255, 255, 255)" style="fill-opacity:1.00" />
<rect height="0.153807" width="25.000000" x="115.000000" y="108.767646" fill="rgb(255, 165, 0)" style="fill-opacity:1.00" />
<rect height="0.461421" width="6.250000" x="133.750000" y="108.767646" fill="rgb(255, 165, 0)" style="fill-opacity:1.00" />
<!-- End 'G' -->
<!-- Begin 'C' -->
<ellipse cx="115.000000" cy="109.614533" rx="25.000000" ry="0.385467" fill="rgb(0, 0, 128)" style="fill-opacity:1.00" />
<ellipse cx="115.000000" cy="109.614533" rx="16.666667" ry="0.256978" fill="rgb(255, 255, 255)" style="fill-opacity:1.00" />
<rect height="0.385467" width="25.000000" x="115.000000" y="109.421800" fill="rgb(255, 255, 255)" style="fill-opacity:1.00" />
<!-- End 'C' -->
<!-- Begin 'G' -->
<ellipse cx="175.000000" cy="77.940080" rx="25.000000" ry="22.017506" fill="rgb(255, 165, 0)" style="fill-opacity:1.00" />
<ellipse cx="175.000000" cy="77.940080" rx="16.666667" ry="14.678337" fill="rgb(255, 255, 255)" style="fill-opacity:1.00" />
<rect height="22.017506" width="25.000000" x="175.000000" y="66.931327" fill="rgb(255, 255, 255)" style="fill-opacity:1.00" />
<rect height="5.504377" width="25.000000" x="175.000000" y="83.444457" fill="rgb(255, 165, 0)" style="fill-opacity:1.00" />
<rect height="16.513130" width="6.250000" x="193.750000" y="83.444457" fill="rgb(255, 165, 0)" style="fill-opacity:1.00" />
<!-- End 'G' -->
<!-- Begin 'A' -->
<polygon points=" 150.000000, 106.798738, 171.000000, 99.957586, 179.000000, 99.957586, 200.000000, 106.798738, 192.500000, 106.798738, 186.250000, 105.088450, 163.750000, 105.088450, 157.500000, 106.798738" fill="rgb(178, 34, 34)" style="fill-opacity:1.00" />
<!-- End 'A' -->
<!-- Begin 'T' -->
<rect height="0.292039" width="50.000000" x="150.000000" y="106.798738" fill="rgb(0, 100, 0)" style="fill-opacity:1.00" />
<rect height="1.825244" width="10.000000" x="170.000000" y="106.798738" fill="rgb(0, 100, 0)" style="fill-opacity:1.00" />
<!-- End 'T' -->
<!-- Begin 'C' -->
<ellipse cx="175.000000" cy="109.311991" rx="25.000000" ry="0.688009" fill="rgb(0, 0, 128)" style="fill-opacity:1.00" />
<ellipse cx="175.000000" cy="109.311991" rx="16.666667" ry="0.458673" fill="rgb(255, 255, 255)" style="fill-opacity:1.00" />
<rect height="0.688009" width="25.000000" x="175.000000" y="108.967987" fill="rgb(255, 255, 255)" style="fill-opacity:1.00" />
<!-- End 'C' -->
<!-- Begin 'A' -->
<polygon points=" 210.000000, 99.908400, 231.000000, 79.027319, 239.000000, 79.027319, 260.000000, 99.908400, 252.500000, 99.908400, 246.250000, 94.688130, 223.750000, 94.688130, 217.500000, 99.908400" fill="rgb(178, 34, 34)" style="fill-opacity:1.00" />
<polygon points=" 235.000000, 83.203535, 227.000000, 90.555968, 242.000000, 90.555968" fill="rgb(255, 255, 255)" style="fill-opacity:1.00" />
<!-- End 'A' -->
<!-- Begin 'T' -->
<rect height="0.847890" width="50.000000" x="210.000000" y="99.908400" fill="rgb(0, 100, 0)" style="fill-opacity:1.00" />
<rect height="5.299310" width="10.000000" x="230.000000" y="99.908400" fill="rgb(0, 100, 0)" style="fill-opacity:1.00" />
<!-- End 'T' -->
<!-- Begin 'G' -->
<ellipse cx="235.000000" cy="106.761875" rx="25.000000" ry="1.554165" fill="rgb(255, 165, 0)" style="fill-opacity:1.00" />
<ellipse cx="235.000000" cy="106.761875" rx="16.666667" ry="1.036110" fill="rgb(255, 255, 255)" style="fill-opacity:1.00" />
<rect height="1.554165" width="25.000000" x="235.000000" y="105.984793" fill="rgb(255, 255, 255)" style="fill-opacity:1.00" />
<rect height="0.388541" width="25.000000" x="235.000000" y="107.150417" fill="rgb(255, 165, 0)" style="fill-opacity:1.00" />
<rect height="1.165624" width="6.250000" x="253.750000" y="107.150417" fill="rgb(255, 165, 0)" style="fill-opacity:1.00" />
<!-- End 'G' -->
<!-- Begin 'C' -->
<ellipse cx="235.000000" cy="109.158020" rx="25.000000" ry="0.841980" fill="rgb(0, 0, 128)" style="fill-opacity:1.00" />
<ellipse cx="235.000000" cy="109.158020" rx="16.666667" ry="0.561320" fill="rgb(255, 255, 255)" style="fill-opacity:1.00" />
<rect height="0.841980" width="25.000000" x="235.000000" y="108.737030" fill="rgb(255, 255, 255)" style="fill-opacity:1.00" />
<!-- End 'C' -->
<!-- Begin 'A' -->
<polygon points=" 270.000000, 106.362614, 291.000000, 22.788235, 299.000000, 22.788235, 320.000000, 106.362614, 312.500000, 106.362614, 306.250000, 85.469019, 283.750000, 85.469019, 277.500000, 106.362614" fill="rgb(178, 34, 34)" style="fill-opacity:1.00" />
<polygon points=" 295.000000, 39.503111, 287.000000, 71.932863, 302.000000, 71.932863" fill="rgb(255, 255, 255)" style="fill-opacity:1.00" />
<!-- End 'A' -->
<!-- Begin 'T' -->
<rect height="0.571347" width="50.000000" x="270.000000" y="106.362614" fill="rgb(0, 100, 0)" style="fill-opacity:1.00" />
<rect height="3.570918" width="10.000000" x="290.000000" y="106.362614" fill="rgb(0, 100, 0)" style="fill-opacity:1.00" />
<!-- End 'T' -->
<!-- Begin 'G' -->
<ellipse cx="295.000000" cy="109.965213" rx="25.000000" ry="0.031682" fill="rgb(255, 165, 0)" style="fill-opacity:1.00" />
<ellipse cx="295.000000" cy="109.965213" rx="16.666667" ry="0.021121" fill="rgb(255, 255, 255)" style="fill-opacity:1.00" />
<rect height="0.031682" width="25.000000" x="295.000000" y="109.949372" fill="rgb(255, 255, 255)" style="fill-opacity:1.00" />
<rect height="0.007920" width="25.000000" x="295.000000" y="109.973134" fill="rgb(255, 165, 0)" style="fill-opacity:1.00" />
<rect height="0.023761" width="6.250000" x="313.750000" y="109.973134" fill="rgb(255, 165, 0)" style="fill-opacity:1.00" />
<!-- End 'G' -->
<!-- Begin 'C' -->
<ellipse cx="295.000000" cy="109.998448" rx="25.000000" ry="0.001552" fill="rgb(0, 0, 128)" style="fill-opacity:1.00" />
<ellipse cx="295.000000" cy="109.998448" rx="16.666667" ry="0.001035" fill="rgb(255, 255, 255)" style="fill-opacity:1.00" />
<rect height="0.001552" width="25.000000" x="295.000000" y="109.997671" fill="rgb(255, 255, 255)" style="fill-opacity:1.00" />
<!-- End 'C' -->
<!-- Begin 'T' -->
<rect height="8.827579" width="50.000000" x="330.000000" y="44.108151" fill="rgb(0, 100, 0)" style="fill-opacity:1.00" />
<rect height="55.172366" width="10.000000" x="350.000000" y="44.108151" fill="rgb(0, 100, 0)" style="fill-opacity:1.00" />
<!-- End 'T' -->
<!-- Begin 'G' -->
<ellipse cx="355.000000" cy="104.429463" rx="25.000000" ry="5.148946" fill="rgb(255, 165, 0)" style="fill-opacity:1.00" />
<ellipse cx="355.000000" cy="104.429463" rx="16.666667" ry="3.432631" fill="rgb(255, 255, 255)" style="fill-opacity:1.00" />
<rect height="5.148946" width="25.000000" x="355.000000" y="101.854990" fill="rgb(255, 255, 255)" style="fill-opacity:1.00" />
<rect height="1.287237" width="25.000000" x="355.000000" y="105.716699" fill="rgb(255, 165, 0)" style="fill-opacity:1.00" />
<rect height="3.861710" width="6.250000" x="373.750000" y="105.716699" fill="rgb(255, 165, 0)" style="fill-opacity:1.00" />
<!-- End 'G' -->
<!-- Begin 'C' -->
<ellipse cx="355.000000" cy="109.772482" rx="25.000000" ry="0.194073" fill="rgb(0, 0, 128)" style="fill-opacity:1.00" />
<ellipse cx="355.000000" cy="109.772482" rx="16.666667" ry="0.129382" fill="rgb(255, 255, 255)" style="fill-opacity:1.00" />
<rect height="0.194073" width="25.000000" x="355.000000" y="109.675446" fill="rgb(255, 255, 255)" style="fill-opacity:1.00" />
<!-- End 'C' -->
<!-- Begin 'A' -->
<polygon points=" 330.000000, 110.000000, 351.000000, 109.966555, 359.000000, 109.966555, 380.000000, 110.000000, 372.500000, 110.000000, 366.250000, 109.991639, 343.750000, 109.991639, 337.500000, 110.000000" fill="rgb(178, 34, 34)" style="fill-opacity:1.00" />
<!-- End 'A' -->
<!-- Begin 'A' -->
<polygon points=" 390.000000, 93.384429, 411.000000, 56.835566, 419.000000, 56.835566, 440.000000, 93.384429, 432.500000, 93.384429, 426.250000, 84.247213, 403.750000, 84.247213, 397.500000, 93.384429" fill="rgb(178, 34, 34)" style="fill-opacity:1.00" />
<polygon points=" 415.000000, 64.145339, 407.000000, 77.764884, 422.000000, 77.764884" fill="rgb(255, 255, 255)" style="fill-opacity:1.00" />
<!-- End 'A' -->
<!-- Begin 'C' -->
<ellipse cx="415.000000" cy="101.548785" rx="25.000000" ry="8.164355" fill="rgb(0, 0, 128)" style="fill-opacity:1.00" />
<ellipse cx="415.000000" cy="101.548785" rx="16.666667" ry="5.442904" fill="rgb(255, 255, 255)" style="fill-opacity:1.00" />
<rect height="8.164355" width="25.000000" x="415.000000" y="97.466607" fill="rgb(255, 255, 255)" style="fill-opacity:1.00" />
<!-- End 'C' -->
<!-- Begin 'G' -->
<ellipse cx="415.000000" cy="109.850743" rx="25.000000" ry="0.137603" fill="rgb(255, 165, 0)" style="fill-opacity:1.00" />
<ellipse cx="415.000000" cy="109.850743" rx="16.666667" ry="0.091736" fill="rgb(255, 255, 255)" style="fill-opacity:1.00" />
<rect height="0.137603" width="25.000000" x="415.000000" y="109.781942" fill="rgb(255, 255, 255)" style="fill-opacity:1.00" />
<rect height="0.034401" width="25.000000" x="415.000000" y="109.885144" fill="rgb(255, 165, 0)" style="fill-opacity:1.00" />
<rect height="0.103202" width="6.250000" x="433.750000" y="109.885144" fill="rgb(255, 165, 0)" style="fill-opacity:1.00" />
<!-- End 'G' -->
<!-- Begin 'T' -->
<rect height="0.001865" width="50.000000" x="390.000000" y="109.988347" fill="rgb(0, 100, 0)" style="fill-opacity:1.00" />
<rect height="0.011653" width="10.000000" x="410.000000" y="109.988347" fill="rgb(0, 100, 0)" style="fill-opacity:1.00" />
<!-- End 'T' -->
<!-- Begin 'T' -->
<rect height="11.100852" width="50.000000" x="450.000000" y="34.622967" fill="rgb(0, 100, 0)" style="fill-opacity:1.00" />
<rect height="69.380328" width="10.000000" x="470.000000" y="34.622967" fill="rgb(0, 100, 0)" style="fill-opacity:1.00" />
<!-- End 'T' -->
<!-- Begin 'A' -->
<polygon points=" 450.000000, 107.346112, 471.000000, 104.003294, 479.000000, 104.003294, 500.000000, 107.346112, 492.500000, 107.346112, 486.250000, 106.510408, 463.750000, 106.510408, 457.500000, 107.346112" fill="rgb(178, 34, 34)" style="fill-opacity:1.00" />
<!-- End 'A' -->
<!-- Begin 'C' -->
<ellipse cx="475.000000" cy="108.578492" rx="25.000000" ry="1.232380" fill="rgb(0, 0, 128)" style="fill-opacity:1.00" />
<ellipse cx="475.000000" cy="108.578492" rx="16.666667" ry="0.821587" fill="rgb(255, 255, 255)" style="fill-opacity:1.00" />
<rect height="1.232380" width="25.000000" x="475.000000" y="107.962302" fill="rgb(255, 255, 255)" style="fill-opacity:1.00" />
<!-- End 'C' -->
<!-- Begin 'G' -->
<ellipse cx="475.000000" cy="109.905436" rx="25.000000" ry="0.094564" fill="rgb(255, 165, 0)" style="fill-opacity:1.00" />
<ellipse cx="475.000000" cy="109.905436" rx="16.666667" ry="0.063043" fill="rgb(255, 255, 255)" style="fill-opacity:1.00" />
<rect height="0.094564" width="25.000000" x="475.000000" y="109.858154" fill="rgb(255, 255, 255)" style="fill-opacity:1.00" />
<rect height="0.023641" width="25.000000" x="475.000000" y="109.929077" fill="rgb(255, 165, 0)" style="fill-opacity:1.00" />
<rect height="0.070923" width="6.250000" x="493.750000" y="109.929077" fill="rgb(255, 165, 0)" style="fill-opacity:1.00" />
<!-- End 'G' -->
<!-- Begin 'T' -->
<rect height="1.424618" width="50.000000" x="510.000000" y="93.807694" fill="rgb(0, 100, 0)" style="fill-opacity:1.00" />
<rect height="8.903865" width="10.000000" x="530.000000" y="93.807694" fill="rgb(0, 100, 0)" style="fill-opacity:1.00" />
<!-- End 'T' -->
<!-- Begin 'A' -->
<polygon points=" 510.000000, 106.212653, 531.000000, 102.711558, 539.000000, 102.711558, 560.000000, 106.212653, 552.500000, 106.212653, 546.250000, 105.337379, 523.750000, 105.337379, 517.500000, 106.212653" fill="rgb(178, 34, 34)" style="fill-opacity:1.00" />
<!-- End 'A' -->
<!-- Begin 'G' -->
<ellipse cx="535.000000" cy="107.189465" rx="25.000000" ry="0.976813" fill="rgb(255, 165, 0)" style="fill-opacity:1.00" />
<ellipse cx="535.000000" cy="107.189465" rx="16.666667" ry="0.651208" fill="rgb(255, 255, 255)" style="fill-opacity:1.00" />
<rect height="0.976813" width="25.000000" x="535.000000" y="106.701059" fill="rgb(255, 255, 255)" style="fill-opacity:1.00" />
<rect height="0.244203" width="25.000000" x="535.000000" y="107.433668" fill="rgb(255, 165, 0)" style="fill-opacity:1.00" />
<rect height="0.732610" width="6.250000" x="553.750000" y="107.433668" fill="rgb(255, 165, 0)" style="fill-opacity:1.00" />
<!-- End 'G' -->
<!-- Begin 'C' -->
<ellipse cx="535.000000" cy="109.083139" rx="25.000000" ry="0.916861" fill="rgb(0, 0, 128)" style="fill-opacity:1.00" />
<ellipse cx="535.000000" cy="109.083139" rx="16.666667" ry="0.611241" fill="rgb(255, 255, 255)" style="fill-opacity:1.00" />
<rect height="0.916861" width="25.000000" x="535.000000" y="108.624709" fill="rgb(255, 255, 255)" style="fill-opacity:1.00" />
<!-- End 'C' -->
<!-- Begin 'C' -->
<ellipse cx="595.000000" cy="90.611374" rx="25.000000" ry="9.666508" fill="rgb(0, 0, 128)" style="fill-opacity:1.00" />
<ellipse cx="595.000000" cy="90.611374" rx="16.666667" ry="6.444339" fill="rgb(255, 255, 255)" style="fill-opacity:1.00" />
<rect height="9.666508" width="25.000000" x="595.000000" y="85.778120" fill="rgb(255, 255, 255)" style="fill-opacity:1.00" />
<!-- End 'C' -->
<!-- Begin 'T' -->
<rect height="0.737658" width="50.000000" x="570.000000" y="100.277882" fill="rgb(0, 100, 0)" style="fill-opacity:1.00" />
<rect height="4.610366" width="10.000000" x="590.000000" y="100.277882" fill="rgb(0, 100, 0)" style="fill-opacity:1.00" />
<!-- End 'T' -->
<!-- Begin 'A' -->
<polygon points=" 570.000000, 108.176545, 591.000000, 104.888247, 599.000000, 104.888247, 620.000000, 108.176545, 612.500000, 108.176545, 606.250000, 107.354470, 583.750000, 107.354470, 577.500000, 108.176545" fill="rgb(178, 34, 34)" style="fill-opacity:1.00" />
<!-- End 'A' -->
<!-- Begin 'G' -->
<ellipse cx="595.000000" cy="109.088272" rx="25.000000" ry="0.911728" fill="rgb(255, 165, 0)" style="fill-opacity:1.00" />
<ellipse cx="595.000000" cy="109.088272" rx="16.666667" ry="0.607818" fill="rgb(255, 255, 255)" style="fill-opacity:1.00" />
<rect height="0.911728" width="25.000000" x="595.000000" y="108.632408" fill="rgb(255, 255, 255)" style="fill-opacity:1.00" />
<rect height="0.227932" width="25.000000" x="595.000000" y="109.316204" fill="rgb(255, 165, 0)" style="fill-opacity:1.00" />
<rect height="0.683796" width="6.250000" x="613.750000" y="109.316204" fill="rgb(255, 165, 0)" style="fill-opacity:1.00" />
<!-- End 'G' -->
<!-- Begin 'T' -->
<rect height="0.222568" width="50.000000" x="630.000000" y="106.222115" fill="rgb(0, 100, 0)" style="fill-opacity:1.00" />
<rect height="1.391050" width="10.000000" x="650.000000" y="106.222115" fill="rgb(0, 100, 0)" style="fill-opacity:1.00" />
<!-- End 'T' -->
<!-- Begin 'A' -->
<polygon points=" 630.000000, 108.655978, 651.000000, 107.613165, 659.000000, 107.613165, 680.000000, 108.655978, 672.500000, 108.655978, 666.250000, 108.395274, 643.750000, 108.395274, 637.500000, 108.655978" fill="rgb(178, 34, 34)" style="fill-opacity:1.00" />
<!-- End 'A' -->
<!-- Begin 'C' -->
<ellipse cx="655.000000" cy="109.039360" rx="25.000000" ry="0.383382" fill="rgb(0, 0, 128)" style="fill-opacity:1.00" />
<ellipse cx="655.000000" cy="109.039360" rx="16.666667" ry="0.255588" fill="rgb(255, 255, 255)" style="fill-opacity:1.00" />
<rect height="0.383382" width="25.000000" x="655.000000" y="108.847669" fill="rgb(255, 255, 255)" style="fill-opacity:1.00" />
<!-- End 'C' -->
<!-- Begin 'G' -->
<ellipse cx="655.000000" cy="109.711371" rx="25.000000" ry="0.288629" fill="rgb(255, 165, 0)" style="fill-opacity:1.00" />
<ellipse cx="655.000000" cy="109.711371" rx="16.666667" ry="0.192419" fill="rgb(255, 255, 255)" style="fill-opacity:1.00" />
<rect height="0.288629" width="25.000000" x="655.000000" y="109.567057" fill="rgb(255, 255, 255)" style="fill-opacity:1.00" />
<rect height="0.072157" width="25.000000" x="655.000000" y="109.783528" fill="rgb(255, 165, 0)" style="fill-opacity:1.00" />
<rect height="0.216472" width="6.250000" x="673.750000" y="109.783528" fill="rgb(255, 165, 0)" style="fill-opacity:1.00" />
<!-- End 'G' -->
<!-- Begin 'T' -->
<rect height="0.145812" width="50.000000" x="690.000000" y="107.154568" fill="rgb(0, 100, 0)" style="fill-opacity:1.00" />
<rect height="0.911326" width="10.000000" x="710.000000" y="107.154568" fill="rgb(0, 100, 0)" style="fill-opacity:1.00" />
<!-- End 'T' -->
<!-- Begin 'A' -->
<polygon points=" 690.000000, 108.972017, 711.000000, 108.065893, 719.000000, 108.065893, 740.000000, 108.972017, 732.500000, 108.972017, 726.250000, 108.745486, 703.750000, 108.745486, 697.500000, 108.972017" fill="rgb(178, 34, 34)" style="fill-opacity:1.00" />
<!-- End 'A' -->
<!-- Begin 'G' -->
<ellipse cx="715.000000" cy="109.241759" rx="25.000000" ry="0.269742" fill="rgb(255, 165, 0)" style="fill-opacity:1.00" />
<ellipse cx="715.000000" cy="109.241759" rx="16.666667" ry="0.179828" fill="rgb(255, 255, 255)" style="fill-opacity:1.00" />
<rect height="0.269742" width="25.000000" x="715.000000" y="109.106888" fill="rgb(255, 255, 255)" style="fill-opacity:1.00" />
<rect height="0.067435" width="25.000000" x="715.000000" y="109.309194" fill="rgb(255, 165, 0)" style="fill-opacity:1.00" />
<rect height="0.202306" width="6.250000" x="733.750000" y="109.309194" fill="rgb(255, 165, 0)" style="fill-opacity:1.00" />
<!-- End 'G' -->
<!-- Begin 'C' -->
<ellipse cx="715.000000" cy="109.755750" rx="25.000000" ry="0.244250" fill="rgb(0, 0, 128)" style="fill-opacity:1.00" />
<ellipse cx="715.000000" cy="109.755750" rx="16.666667" ry="0.162833" fill="rgb(255, 255, 255)" style="fill-opacity:1.00" />
<rect height="0.244250" width="25.000000" x="715.000000" y="109.633625" fill="rgb(255, 255, 255)" style="fill-opacity:1.00" />
<!-- End 'C' -->
<text x="400.000000" y="165">
IC = 8.48
</text>

</svg>
