<?xml version="1.0" encoding="UTF-8" standalone="yes"?>
                 <!DOCTYPE svg PUBLIC "-//W3C//DTD SVG 1.0//EN" "http://www.w3.org/TR/2001/REC-SVG-20010904/DTD/svg10.dtd">
                 <svg height="500" width="900" xmlns="http://www.w3.org/2000/svg" xmlns:xlink="http://www.w3.org/1999/xlink">
                 <line x1="85" y1="450" x2="867" y2="450" style="stroke:rgb(99,99,99);stroke-width:2" />
<rect height="7.000000" width="2.000000" x="85.000000" y="450.000000" fill="rgb(0, 0, 0)" style="fill-opacity:1.00" />
<text x="107.000000" y="470">
1
</text>
<rect height="7.000000" width="2.000000" x="145.000000" y="450.000000" fill="rgb(0, 0, 0)" style="fill-opacity:1.00" />
<text x="167.000000" y="470">
2
</text>
<rect height="7.000000" width="2.000000" x="205.000000" y="450.000000" fill="rgb(0, 0, 0)" style="fill-opacity:1.00" />
<text x="227.000000" y="470">
3
</text>
<rect height="7.000000" width="2.000000" x="265.000000" y="450.000000" fill="rgb(0, 0, 0)" style="fill-opacity:1.00" />
<text x="287.000000" y="470">
4
</text>
<rect height="7.000000" width="2.000000" x="325.000000" y="450.000000" fill="rgb(0, 0, 0)" style="fill-opacity:1.00" />
<text x="347.000000" y="470">
5
</text>
<rect height="7.000000" width="2.000000" x="385.000000" y="450.000000" fill="rgb(0, 0, 0)" style="fill-opacity:1.00" />
<text x="407.000000" y="470">
6
</text>
<rect height="7.000000" width="2.000000" x="445.000000" y="450.000000" fill="rgb(0, 0, 0)" style="fill-opacity:1.00" />
<text x="467.000000" y="470">
7
</text>
<rect height="7.000000" width="2.000000" x="505.000000" y="450.000000" fill="rgb(0, 0, 0)" style="fill-opacity:1.00" />
<text x="527.000000" y="470">
8
</text>
<rect height="7.000000" width="2.000000" x="565.000000" y="450.000000" fill="rgb(0, 0, 0)" style="fill-opacity:1.00" />
<text x="587.000000" y="470">
9
</text>
<rect height="7.000000" width="2.000000" x="625.000000" y="450.000000" fill="rgb(0, 0, 0)" style="fill-opacity:1.00" />
<text x="647.000000" y="470">
10
</text>
<rect height="7.000000" width="2.000000" x="685.000000" y="450.000000" fill="rgb(0, 0, 0)" style="fill-opacity:1.00" />
<text x="707.000000" y="470">
11
</text>
<rect height="7.000000" width="2.000000" x="745.000000" y="450.000000" fill="rgb(0, 0, 0)" style="fill-opacity:1.00" />
<text x="767.000000" y="470">
12
</text>
<rect height="7.000000" width="2.000000" x="805.000000" y="450.000000" fill="rgb(0, 0, 0)" style="fill-opacity:1.00" />
<text x="827.000000" y="470">
13
</text>
<rect height="7.000000" width="2.000000" x="865.000000" y="450.000000" fill="rgb(0, 0, 0)" style="fill-opacity:1.00" />
<!-- Begin 'A' -->
<polygon points=" 10.000000, 110.000000, 35.200000, 10.000000, 44.800000, 10.000000, 70.000000, 110.000000, 61.000000, 110.000000, 53.500000, 85.000000, 26.500000, 85.000000, 19.000000, 110.000000" fill="rgb(178, 34, 34)" style="fill-opacity:1.00" />
<polygon points=" 40.000000, 30.000000, 30.400000, 69.000000, 48.400000, 69.000000" fill="rgb(255, 255, 255)" style="fill-opacity:1.00" />
<!-- End 'A' -->
<!-- Begin 'C' -->
<ellipse cx="40.000000" cy="170.000000" rx="30.000000" ry="50.000000" fill="rgb(0, 0, 128)" style="fill-opacity:1.00" />
<ellipse cx="40.000000" cy="170.000000" rx="20.000000" ry="33.333333" fill="rgb(255, 255, 255)" style="fill-opacity:1.00" />
<rect height="50.000000" width="30.000000" x="40.000000" y="145.000000" fill="rgb(255, 255, 255)" style="fill-opacity:1.00" />
<!-- End 'C' -->
<!-- Begin 'G' -->
<ellipse cx="40.000000" cy="280.000000" rx="30.000000" ry="50.000000" fill="rgb(255, 165, 0)" style="fill-opacity:1.00" />
<ellipse cx="40.000000" cy="280.000000" rx="20.000000" ry="33.333333" fill="rgb(255, 255, 255)" style="fill-opacity:1.00" />
<rect height="50.000000" width="30.000000" x="40.000000" y="255.000000" fill="rgb(255, 255, 255)" style="fill-opacity:1.00" />
<rect height="12.500000" width="30.000000" x="40.000000" y="292.500000" fill="rgb(255, 165, 0)" style="fill-opacity:1.00" />
<rect height="37.500000" width="7.500000" x="62.500000" y="292.500000" fill="rgb(255, 165, 0)" style="fill-opacity:1.00" />
<!-- End 'G' -->
<!-- Begin 'T' -->
<rect height="16.000000" width="60.000000" x="10.000000" y="340.000000" fill="rgb(0, 100, 0)" style="fill-opacity:1.00" />
<rect height="100.000000" width="12.000000" x="34.000000" y="340.000000" fill="rgb(0, 100, 0)" style="fill-opacity:1.00" />
<!-- End 'T' -->
<!-- Begin 'G' -->
<ellipse cx="115.000000" cy="27.772180" rx="25.000000" ry="17.772180" fill="rgb(255, 165, 0)" style="fill-opacity:0.28" />
<ellipse cx="115.000000" cy="27.772180" rx="16.666667" ry="11.848120" fill="rgb(255, 255, 255)" style="fill-opacity:1.00" />
<rect height="17.772180" width="25.000000" x="115.000000" y="18.886090" fill="rgb(255, 255, 255)" style="fill-opacity:1.00" />
<rect height="4.443045" width="25.000000" x="115.000000" y="32.215225" fill="rgb(255, 165, 0)" style="fill-opacity:0.28" />
<rect height="13.329135" width="6.250000" x="133.750000" y="32.215225" fill="rgb(255, 165, 0)" style="fill-opacity:0.28" />
<!-- End 'G' -->
<!-- Begin 'C' -->
<ellipse cx="115.000000" cy="57.930544" rx="25.000000" ry="12.386185" fill="rgb(0, 0, 128)" style="fill-opacity:0.28" />
<ellipse cx="115.000000" cy="57.930544" rx="16.666667" ry="8.257456" fill="rgb(255, 255, 255)" style="fill-opacity:1.00" />
<rect height="12.386185" width="25.000000" x="115.000000" y="51.737452" fill="rgb(255, 255, 255)" style="fill-opacity:1.00" />
<!-- End 'C' -->
<!-- Begin 'T' -->
<rect height="3.559838" width="50.000000" x="90.000000" y="70.316729" fill="rgb(0, 100, 0)" style="fill-opacity:0.28" />
<rect height="22.248989" width="10.000000" x="110.000000" y="70.316729" fill="rgb(0, 100, 0)" style="fill-opacity:0.28" />
<!-- End 'T' -->
<!-- Begin 'A' -->
<polygon points=" 90.000000, 110.000000, 111.000000, 92.565718, 119.000000, 92.565718, 140.000000, 110.000000, 132.500000, 110.000000, 126.250000, 105.641429, 103.750000, 105.641429, 97.500000, 110.000000" fill="rgb(178, 34, 34)" style="fill-opacity:0.28" />
<polygon points=" 115.000000, 96.052574, 107.000000, 102.026287, 122.000000, 102.026287" fill="rgb(255, 255, 255)" style="fill-opacity:1.00" />
<!-- End 'A' -->
<!-- Begin 'T' -->
<rect height="6.060368" width="50.000000" x="90.000000" y="120.000000" fill="rgb(0, 100, 0)" style="fill-opacity:0.23" />
<rect height="37.877302" width="10.000000" x="110.000000" y="120.000000" fill="rgb(0, 100, 0)" style="fill-opacity:0.23" />
<!-- End 'T' -->
<!-- Begin 'A' -->
<polygon points=" 90.000000, 185.457055, 111.000000, 157.877302, 119.000000, 157.877302, 140.000000, 185.457055, 132.500000, 185.457055, 126.250000, 178.562117, 103.750000, 178.562117, 97.500000, 185.457055" fill="rgb(178, 34, 34)" style="fill-opacity:0.23" />
<polygon points=" 115.000000, 163.393253, 107.000000, 173.425154, 122.000000, 173.425154" fill="rgb(255, 255, 255)" style="fill-opacity:1.00" />
<!-- End 'A' -->
<!-- Begin 'C' -->
<ellipse cx="115.000000" cy="199.159137" rx="25.000000" ry="13.702082" fill="rgb(0, 0, 128)" style="fill-opacity:0.23" />
<ellipse cx="115.000000" cy="199.159137" rx="16.666667" ry="9.134721" fill="rgb(255, 255, 255)" style="fill-opacity:1.00" />
<rect height="13.702082" width="25.000000" x="115.000000" y="192.308096" fill="rgb(255, 255, 255)" style="fill-opacity:1.00" />
<!-- End 'C' -->
<!-- Begin 'G' -->
<ellipse cx="115.000000" cy="216.430609" rx="25.000000" ry="3.569391" fill="rgb(255, 165, 0)" style="fill-opacity:0.23" />
<ellipse cx="115.000000" cy="216.430609" rx="16.666667" ry="2.379594" fill="rgb(255, 255, 255)" style="fill-opacity:1.00" />
<rect height="3.569391" width="25.000000" x="115.000000" y="214.645914" fill="rgb(255, 255, 255)" style="fill-opacity:1.00" />
<rect height="0.892348" width="25.000000" x="115.000000" y="217.322957" fill="rgb(255, 165, 0)" style="fill-opacity:0.23" />
<rect height="2.677043" width="6.250000" x="133.750000" y="217.322957" fill="rgb(255, 165, 0)" style="fill-opacity:0.23" />
<!-- End 'G' -->
<!-- Begin 'G' -->
<ellipse cx="115.000000" cy="245.030789" rx="25.000000" ry="15.030789" fill="rgb(255, 165, 0)" style="fill-opacity:0.22" />
<ellipse cx="115.000000" cy="245.030789" rx="16.666667" ry="10.020526" fill="rgb(255, 255, 255)" style="fill-opacity:1.00" />
<rect height="15.030789" width="25.000000" x="115.000000" y="237.515394" fill="rgb(255, 255, 255)" style="fill-opacity:1.00" />
<rect height="3.757697" width="25.000000" x="115.000000" y="248.788486" fill="rgb(255, 165, 0)" style="fill-opacity:0.22" />
<rect height="11.273091" width="6.250000" x="133.750000" y="248.788486" fill="rgb(255, 165, 0)" style="fill-opacity:0.22" />
<!-- End 'G' -->
<!-- Begin 'T' -->
<rect height="4.155692" width="50.000000" x="90.000000" y="260.061577" fill="rgb(0, 100, 0)" style="fill-opacity:0.22" />
<rect height="25.973076" width="10.000000" x="110.000000" y="260.061577" fill="rgb(0, 100, 0)" style="fill-opacity:0.22" />
<!-- End 'T' -->
<!-- Begin 'C' -->
<ellipse cx="115.000000" cy="297.592343" rx="25.000000" ry="11.557690" fill="rgb(0, 0, 128)" style="fill-opacity:0.22" />
<ellipse cx="115.000000" cy="297.592343" rx="16.666667" ry="7.705127" fill="rgb(255, 255, 255)" style="fill-opacity:1.00" />
<rect height="11.557690" width="25.000000" x="115.000000" y="291.813498" fill="rgb(255, 255, 255)" style="fill-opacity:1.00" />
<!-- End 'C' -->
<!-- Begin 'A' -->
<polygon points=" 90.000000, 330.000000, 111.000000, 309.150033, 119.000000, 309.150033, 140.000000, 330.000000, 132.500000, 330.000000, 126.250000, 324.787508, 103.750000, 324.787508, 97.500000, 330.000000" fill="rgb(178, 34, 34)" style="fill-opacity:0.22" />
<polygon points=" 115.000000, 313.320027, 107.000000, 320.660013, 122.000000, 320.660013" fill="rgb(255, 255, 255)" style="fill-opacity:1.00" />
<!-- End 'A' -->
<!-- Begin 'G' -->
<ellipse cx="115.000000" cy="359.673151" rx="25.000000" ry="19.673151" fill="rgb(255, 165, 0)" style="fill-opacity:0.27" />
<ellipse cx="115.000000" cy="359.673151" rx="16.666667" ry="13.115434" fill="rgb(255, 255, 255)" style="fill-opacity:1.00" />
<rect height="19.673151" width="25.000000" x="115.000000" y="349.836576" fill="rgb(255, 255, 255)" style="fill-opacity:1.00" />
<rect height="4.918288" width="25.000000" x="115.000000" y="364.591439" fill="rgb(255, 165, 0)" style="fill-opacity:0.27" />
<rect height="14.754863" width="6.250000" x="133.750000" y="364.591439" fill="rgb(255, 165, 0)" style="fill-opacity:0.27" />
<!-- End 'G' -->
<!-- Begin 'C' -->
<ellipse cx="115.000000" cy="392.567784" rx="25.000000" ry="13.221482" fill="rgb(0, 0, 128)" style="fill-opacity:0.27" />
<ellipse cx="115.000000" cy="392.567784" rx="16.666667" ry="8.814321" fill="rgb(255, 255, 255)" style="fill-opacity:1.00" />
<rect height="13.221482" width="25.000000" x="115.000000" y="385.957043" fill="rgb(255, 255, 255)" style="fill-opacity:1.00" />
<!-- End 'C' -->
<!-- Begin 'T' -->
<rect height="3.377745" width="50.000000" x="90.000000" y="405.789266" fill="rgb(0, 100, 0)" style="fill-opacity:0.27" />
<rect height="21.110908" width="10.000000" x="110.000000" y="405.789266" fill="rgb(0, 100, 0)" style="fill-opacity:0.27" />
<!-- End 'T' -->
<!-- Begin 'A' -->
<polygon points=" 90.000000, 440.000000, 111.000000, 426.900173, 119.000000, 426.900173, 140.000000, 440.000000, 132.500000, 440.000000, 126.250000, 436.725043, 103.750000, 436.725043, 97.500000, 440.000000" fill="rgb(178, 34, 34)" style="fill-opacity:0.27" />
<polygon points=" 115.000000, 429.520139, 107.000000, 433.760069, 122.000000, 433.760069" fill="rgb(255, 255, 255)" style="fill-opacity:1.00" />
<!-- End 'A' -->
<!-- Begin 'G' -->
<ellipse cx="175.000000" cy="35.382002" rx="25.000000" ry="25.382002" fill="rgb(255, 165, 0)" style="fill-opacity:0.20" />
<ellipse cx="175.000000" cy="35.382002" rx="16.666667" ry="16.921334" fill="rgb(255, 255, 255)" style="fill-opacity:1.00" />
<rect height="25.382002" width="25.000000" x="175.000000" y="22.691001" fill="rgb(255, 255, 255)" style="fill-opacity:1.00" />
<rect height="6.345500" width="25.000000" x="175.000000" y="41.727502" fill="rgb(255, 165, 0)" style="fill-opacity:0.20" />
<rect height="19.036501" width="6.250000" x="193.750000" y="41.727502" fill="rgb(255, 165, 0)" style="fill-opacity:0.20" />
<!-- End 'G' -->
<!-- Begin 'A' -->
<polygon points=" 150.000000, 87.516499, 171.000000, 60.764003, 179.000000, 60.764003, 200.000000, 87.516499, 192.500000, 87.516499, 186.250000, 80.828375, 163.750000, 80.828375, 157.500000, 87.516499" fill="rgb(178, 34, 34)" style="fill-opacity:0.20" />
<polygon points=" 175.000000, 66.114503, 167.000000, 75.815501, 182.000000, 75.815501" fill="rgb(255, 255, 255)" style="fill-opacity:1.00" />
<!-- End 'A' -->
<!-- Begin 'C' -->
<ellipse cx="175.000000" cy="94.595044" rx="25.000000" ry="7.078545" fill="rgb(0, 0, 128)" style="fill-opacity:0.20" />
<ellipse cx="175.000000" cy="94.595044" rx="16.666667" ry="4.719030" fill="rgb(255, 255, 255)" style="fill-opacity:1.00" />
<rect height="7.078545" width="25.000000" x="175.000000" y="91.055772" fill="rgb(255, 255, 255)" style="fill-opacity:1.00" />
<!-- End 'C' -->
<!-- Begin 'T' -->
<rect height="1.332226" width="50.000000" x="150.000000" y="101.673589" fill="rgb(0, 100, 0)" style="fill-opacity:0.20" />
<rect height="8.326411" width="10.000000" x="170.000000" y="101.673589" fill="rgb(0, 100, 0)" style="fill-opacity:0.20" />
<!-- End 'T' -->
<!-- Begin 'A' -->
<polygon points=" 150.000000, 171.245755, 171.000000, 120.000000, 179.000000, 120.000000, 200.000000, 171.245755, 192.500000, 171.245755, 186.250000, 158.434316, 163.750000, 158.434316, 157.500000, 171.245755" fill="rgb(178, 34, 34)" style="fill-opacity:0.25" />
<polygon points=" 175.000000, 130.249151, 167.000000, 149.747453, 182.000000, 149.747453" fill="rgb(255, 255, 255)" style="fill-opacity:1.00" />
<!-- End 'A' -->
<!-- Begin 'T' -->
<rect height="3.174133" width="50.000000" x="150.000000" y="171.245755" fill="rgb(0, 100, 0)" style="fill-opacity:0.25" />
<rect height="19.838331" width="10.000000" x="170.000000" y="171.245755" fill="rgb(0, 100, 0)" style="fill-opacity:0.25" />
<!-- End 'T' -->
<!-- Begin 'C' -->
<ellipse cx="175.000000" cy="199.375248" rx="25.000000" ry="8.291162" fill="rgb(0, 0, 128)" style="fill-opacity:0.25" />
<ellipse cx="175.000000" cy="199.375248" rx="16.666667" ry="5.527441" fill="rgb(255, 255, 255)" style="fill-opacity:1.00" />
<rect height="8.291162" width="25.000000" x="175.000000" y="195.229667" fill="rgb(255, 255, 255)" style="fill-opacity:1.00" />
<!-- End 'C' -->
<!-- Begin 'G' -->
<ellipse cx="175.000000" cy="213.833205" rx="25.000000" ry="6.166795" fill="rgb(255, 165, 0)" style="fill-opacity:0.25" />
<ellipse cx="175.000000" cy="213.833205" rx="16.666667" ry="4.111197" fill="rgb(255, 255, 255)" style="fill-opacity:1.00" />
<rect height="6.166795" width="25.000000" x="175.000000" y="210.749807" fill="rgb(255, 255, 255)" style="fill-opacity:1.00" />
<rect height="1.541699" width="25.000000" x="175.000000" y="215.374904" fill="rgb(255, 165, 0)" style="fill-opacity:0.25" />
<rect height="4.625096" width="6.250000" x="193.750000" y="215.374904" fill="rgb(255, 165, 0)" style="fill-opacity:0.25" />
<!-- End 'G' -->
<!-- Begin 'G' -->
<ellipse cx="175.000000" cy="248.153348" rx="25.000000" ry="18.153348" fill="rgb(255, 165, 0)" style="fill-opacity:0.28" />
<ellipse cx="175.000000" cy="248.153348" rx="16.666667" ry="12.102232" fill="rgb(255, 255, 255)" style="fill-opacity:1.00" />
<rect height="18.153348" width="25.000000" x="175.000000" y="239.076674" fill="rgb(255, 255, 255)" style="fill-opacity:1.00" />
<rect height="4.538337" width="25.000000" x="175.000000" y="252.691685" fill="rgb(255, 165, 0)" style="fill-opacity:0.28" />
<rect height="13.615011" width="6.250000" x="193.750000" y="252.691685" fill="rgb(255, 165, 0)" style="fill-opacity:0.28" />
<!-- End 'G' -->
<!-- Begin 'A' -->
<polygon points=" 150.000000, 300.261423, 171.000000, 266.306697, 179.000000, 266.306697, 200.000000, 300.261423, 192.500000, 300.261423, 186.250000, 291.772741, 163.750000, 291.772741, 157.500000, 300.261423" fill="rgb(178, 34, 34)" style="fill-opacity:0.28" />
<polygon points=" 175.000000, 273.097642, 167.000000, 285.679532, 182.000000, 285.679532" fill="rgb(255, 255, 255)" style="fill-opacity:1.00" />
<!-- End 'A' -->
<!-- Begin 'C' -->
<ellipse cx="175.000000" cy="310.145030" rx="25.000000" ry="9.883608" fill="rgb(0, 0, 128)" style="fill-opacity:0.28" />
<ellipse cx="175.000000" cy="310.145030" rx="16.666667" ry="6.589072" fill="rgb(255, 255, 255)" style="fill-opacity:1.00" />
<rect height="9.883608" width="25.000000" x="175.000000" y="305.203226" fill="rgb(255, 255, 255)" style="fill-opacity:1.00" />
<!-- End 'C' -->
<!-- Begin 'T' -->
<rect height="1.595418" width="50.000000" x="150.000000" y="320.028638" fill="rgb(0, 100, 0)" style="fill-opacity:0.28" />
<rect height="9.971362" width="10.000000" x="170.000000" y="320.028638" fill="rgb(0, 100, 0)" style="fill-opacity:0.28" />
<!-- End 'T' -->
<!-- Begin 'G' -->
<ellipse cx="175.000000" cy="369.691929" rx="25.000000" ry="29.691929" fill="rgb(255, 165, 0)" style="fill-opacity:0.27" />
<ellipse cx="175.000000" cy="369.691929" rx="16.666667" ry="19.794619" fill="rgb(255, 255, 255)" style="fill-opacity:1.00" />
<rect height="29.691929" width="25.000000" x="175.000000" y="354.845964" fill="rgb(255, 255, 255)" style="fill-opacity:1.00" />
<rect height="7.422982" width="25.000000" x="175.000000" y="377.114911" fill="rgb(255, 165, 0)" style="fill-opacity:0.27" />
<rect height="22.268947" width="6.250000" x="193.750000" y="377.114911" fill="rgb(255, 165, 0)" style="fill-opacity:0.27" />
<!-- End 'G' -->
<!-- Begin 'A' -->
<polygon points=" 150.000000, 418.016407, 171.000000, 399.383857, 179.000000, 399.383857, 200.000000, 418.016407, 192.500000, 418.016407, 186.250000, 413.358270, 163.750000, 413.358270, 157.500000, 418.016407" fill="rgb(178, 34, 34)" style="fill-opacity:0.27" />
<polygon points=" 175.000000, 403.110367, 167.000000, 409.563387, 182.000000, 409.563387" fill="rgb(255, 255, 255)" style="fill-opacity:1.00" />
<!-- End 'A' -->
<!-- Begin 'C' -->
<ellipse cx="175.000000" cy="424.584418" rx="25.000000" ry="6.568011" fill="rgb(0, 0, 128)" style="fill-opacity:0.27" />
<ellipse cx="175.000000" cy="424.584418" rx="16.666667" ry="4.378674" fill="rgb(255, 255, 255)" style="fill-opacity:1.00" />
<rect height="6.568011" width="25.000000" x="175.000000" y="421.300413" fill="rgb(255, 255, 255)" style="fill-opacity:1.00" />
<!-- End 'C' -->
<!-- Begin 'T' -->
<rect height="1.415611" width="50.000000" x="150.000000" y="431.152429" fill="rgb(0, 100, 0)" style="fill-opacity:0.27" />
<rect height="8.847571" width="10.000000" x="170.000000" y="431.152429" fill="rgb(0, 100, 0)" style="fill-opacity:0.27" />
<!-- End 'T' -->
<!-- Begin 'G' -->
<ellipse cx="235.000000" cy="28.762851" rx="25.000000" ry="18.762851" fill="rgb(255, 165, 0)" style="fill-opacity:0.33" />
<ellipse cx="235.000000" cy="28.762851" rx="16.666667" ry="12.508567" fill="rgb(255, 255, 255)" style="fill-opacity:1.00" />
<rect height="18.762851" width="25.000000" x="235.000000" y="19.381426" fill="rgb(255, 255, 255)" style="fill-opacity:1.00" />
<rect height="4.690713" width="25.000000" x="235.000000" y="33.453564" fill="rgb(255, 165, 0)" style="fill-opacity:0.33" />
<rect height="14.072138" width="6.250000" x="253.750000" y="33.453564" fill="rgb(255, 165, 0)" style="fill-opacity:0.33" />
<!-- End 'G' -->
<!-- Begin 'C' -->
<ellipse cx="235.000000" cy="64.008204" rx="25.000000" ry="16.482502" fill="rgb(0, 0, 128)" style="fill-opacity:0.33" />
<ellipse cx="235.000000" cy="64.008204" rx="16.666667" ry="10.988335" fill="rgb(255, 255, 255)" style="fill-opacity:1.00" />
<rect height="16.482502" width="25.000000" x="235.000000" y="55.766953" fill="rgb(255, 255, 255)" style="fill-opacity:1.00" />
<!-- End 'C' -->
<!-- Begin 'A' -->
<polygon points=" 210.000000, 109.292451, 231.000000, 80.490707, 239.000000, 80.490707, 260.000000, 109.292451, 252.500000, 109.292451, 246.250000, 102.092015, 223.750000, 102.092015, 217.500000, 109.292451" fill="rgb(178, 34, 34)" style="fill-opacity:0.33" />
<polygon points=" 235.000000, 86.251056, 227.000000, 96.771753, 242.000000, 96.771753" fill="rgb(255, 255, 255)" style="fill-opacity:1.00" />
<!-- End 'A' -->
<!-- Begin 'T' -->
<rect height="0.113208" width="50.000000" x="210.000000" y="109.292451" fill="rgb(0, 100, 0)" style="fill-opacity:0.33" />
<rect height="0.707549" width="10.000000" x="230.000000" y="109.292451" fill="rgb(0, 100, 0)" style="fill-opacity:0.33" />
<!-- End 'T' -->
<!-- Begin 'C' -->
<ellipse cx="235.000000" cy="146.554122" rx="25.000000" ry="26.554122" fill="rgb(0, 0, 128)" style="fill-opacity:0.16" />
<ellipse cx="235.000000" cy="146.554122" rx="16.666667" ry="17.702748" fill="rgb(255, 255, 255)" style="fill-opacity:1.00" />
<rect height="26.554122" width="25.000000" x="235.000000" y="133.277061" fill="rgb(255, 255, 255)" style="fill-opacity:1.00" />
<!-- End 'C' -->
<!-- Begin 'A' -->
<polygon points=" 210.000000, 210.135831, 231.000000, 173.108244, 239.000000, 173.108244, 260.000000, 210.135831, 252.500000, 210.135831, 246.250000, 200.878934, 223.750000, 200.878934, 217.500000, 210.135831" fill="rgb(178, 34, 34)" style="fill-opacity:0.16" />
<polygon points=" 235.000000, 180.513762, 227.000000, 194.324796, 242.000000, 194.324796" fill="rgb(255, 255, 255)" style="fill-opacity:1.00" />
<!-- End 'A' -->
<!-- Begin 'G' -->
<ellipse cx="235.000000" cy="212.928199" rx="25.000000" ry="2.792368" fill="rgb(255, 165, 0)" style="fill-opacity:0.16" />
<ellipse cx="235.000000" cy="212.928199" rx="16.666667" ry="1.861578" fill="rgb(255, 255, 255)" style="fill-opacity:1.00" />
<rect height="2.792368" width="25.000000" x="235.000000" y="211.532015" fill="rgb(255, 255, 255)" style="fill-opacity:1.00" />
<rect height="0.698092" width="25.000000" x="235.000000" y="213.626290" fill="rgb(255, 165, 0)" style="fill-opacity:0.16" />
<rect height="2.094276" width="6.250000" x="253.750000" y="213.626290" fill="rgb(255, 165, 0)" style="fill-opacity:0.16" />
<!-- End 'G' -->
<!-- Begin 'T' -->
<rect height="0.684709" width="50.000000" x="210.000000" y="215.720566" fill="rgb(0, 100, 0)" style="fill-opacity:0.16" />
<rect height="4.279434" width="10.000000" x="230.000000" y="215.720566" fill="rgb(0, 100, 0)" style="fill-opacity:0.16" />
<!-- End 'T' -->
<!-- Begin 'C' -->
<ellipse cx="235.000000" cy="250.597615" rx="25.000000" ry="20.597615" fill="rgb(0, 0, 128)" style="fill-opacity:0.39" />
<ellipse cx="235.000000" cy="250.597615" rx="16.666667" ry="13.731744" fill="rgb(255, 255, 255)" style="fill-opacity:1.00" />
<rect height="20.597615" width="25.000000" x="235.000000" y="240.298808" fill="rgb(255, 255, 255)" style="fill-opacity:1.00" />
<!-- End 'C' -->
<!-- Begin 'A' -->
<polygon points=" 210.000000, 300.963975, 231.000000, 271.195231, 239.000000, 271.195231, 260.000000, 300.963975, 252.500000, 300.963975, 246.250000, 293.521789, 223.750000, 293.521789, 217.500000, 300.963975" fill="rgb(178, 34, 34)" style="fill-opacity:0.39" />
<polygon points=" 235.000000, 277.148979, 227.000000, 288.056477, 242.000000, 288.056477" fill="rgb(255, 255, 255)" style="fill-opacity:1.00" />
<!-- End 'A' -->
<!-- Begin 'G' -->
<ellipse cx="235.000000" cy="315.161731" rx="25.000000" ry="14.197756" fill="rgb(255, 165, 0)" style="fill-opacity:0.39" />
<ellipse cx="235.000000" cy="315.161731" rx="16.666667" ry="9.465171" fill="rgb(255, 255, 255)" style="fill-opacity:1.00" />
<rect height="14.197756" width="25.000000" x="235.000000" y="308.062853" fill="rgb(255, 255, 255)" style="fill-opacity:1.00" />
<rect height="3.549439" width="25.000000" x="235.000000" y="318.711170" fill="rgb(255, 165, 0)" style="fill-opacity:0.39" />
<rect height="10.648317" width="6.250000" x="253.750000" y="318.711170" fill="rgb(255, 165, 0)" style="fill-opacity:0.39" />
<!-- End 'G' -->
<!-- Begin 'T' -->
<rect height="0.102482" width="50.000000" x="210.000000" y="329.359487" fill="rgb(0, 100, 0)" style="fill-opacity:0.39" />
<rect height="0.640513" width="10.000000" x="230.000000" y="329.359487" fill="rgb(0, 100, 0)" style="fill-opacity:0.39" />
<!-- End 'T' -->
<!-- Begin 'C' -->
<ellipse cx="235.000000" cy="372.650329" rx="25.000000" ry="32.650329" fill="rgb(0, 0, 128)" style="fill-opacity:0.12" />
<ellipse cx="235.000000" cy="372.650329" rx="16.666667" ry="21.766886" fill="rgb(255, 255, 255)" style="fill-opacity:1.00" />
<rect height="32.650329" width="25.000000" x="235.000000" y="356.325164" fill="rgb(255, 255, 255)" style="fill-opacity:1.00" />
<!-- End 'C' -->
<!-- Begin 'G' -->
<ellipse cx="235.000000" cy="414.776893" rx="25.000000" ry="9.476236" fill="rgb(255, 165, 0)" style="fill-opacity:0.12" />
<ellipse cx="235.000000" cy="414.776893" rx="16.666667" ry="6.317491" fill="rgb(255, 255, 255)" style="fill-opacity:1.00" />
<rect height="9.476236" width="25.000000" x="235.000000" y="410.038775" fill="rgb(255, 255, 255)" style="fill-opacity:1.00" />
<rect height="2.369059" width="25.000000" x="235.000000" y="417.145952" fill="rgb(255, 165, 0)" style="fill-opacity:0.12" />
<rect height="7.107177" width="6.250000" x="253.750000" y="417.145952" fill="rgb(255, 165, 0)" style="fill-opacity:0.12" />
<!-- End 'G' -->
<!-- Begin 'A' -->
<polygon points=" 210.000000, 438.869930, 231.000000, 424.253130, 239.000000, 424.253130, 260.000000, 438.869930, 252.500000, 438.869930, 246.250000, 435.215730, 223.750000, 435.215730, 217.500000, 438.869930" fill="rgb(178, 34, 34)" style="fill-opacity:0.12" />
<polygon points=" 235.000000, 427.176490, 227.000000, 432.023210, 242.000000, 432.023210" fill="rgb(255, 255, 255)" style="fill-opacity:1.00" />
<!-- End 'A' -->
<!-- Begin 'T' -->
<rect height="0.180811" width="50.000000" x="210.000000" y="438.869930" fill="rgb(0, 100, 0)" style="fill-opacity:0.12" />
<rect height="1.130070" width="10.000000" x="230.000000" y="438.869930" fill="rgb(0, 100, 0)" style="fill-opacity:0.12" />
<!-- End 'T' -->
<!-- Begin 'C' -->
<ellipse cx="295.000000" cy="58.087263" rx="25.000000" ry="48.087263" fill="rgb(0, 0, 128)" style="fill-opacity:0.29" />
<ellipse cx="295.000000" cy="58.087263" rx="16.666667" ry="32.058175" fill="rgb(255, 255, 255)" style="fill-opacity:1.00" />
<rect height="48.087263" width="25.000000" x="295.000000" y="34.043632" fill="rgb(255, 255, 255)" style="fill-opacity:1.00" />
<!-- End 'C' -->
<!-- Begin 'G' -->
<ellipse cx="295.000000" cy="107.458189" rx="25.000000" ry="1.283663" fill="rgb(255, 165, 0)" style="fill-opacity:0.29" />
<ellipse cx="295.000000" cy="107.458189" rx="16.666667" ry="0.855775" fill="rgb(255, 255, 255)" style="fill-opacity:1.00" />
<rect height="1.283663" width="25.000000" x="295.000000" y="106.816358" fill="rgb(255, 255, 255)" style="fill-opacity:1.00" />
<rect height="0.320916" width="25.000000" x="295.000000" y="107.779105" fill="rgb(255, 165, 0)" style="fill-opacity:0.29" />
<rect height="0.962747" width="6.250000" x="313.750000" y="107.779105" fill="rgb(255, 165, 0)" style="fill-opacity:0.29" />
<!-- End 'G' -->
<!-- Begin 'A' -->
<polygon points=" 270.000000, 109.897440, 291.000000, 108.741852, 299.000000, 108.741852, 320.000000, 109.897440, 312.500000, 109.897440, 306.250000, 109.608543, 283.750000, 109.608543, 277.500000, 109.897440" fill="rgb(178, 34, 34)" style="fill-opacity:0.29" />
<!-- End 'A' -->
<!-- Begin 'T' -->
<rect height="0.016410" width="50.000000" x="270.000000" y="109.897440" fill="rgb(0, 100, 0)" style="fill-opacity:0.29" />
<rect height="0.102560" width="10.000000" x="290.000000" y="109.897440" fill="rgb(0, 100, 0)" style="fill-opacity:0.29" />
<!-- End 'T' -->
<!-- Begin 'C' -->
<ellipse cx="295.000000" cy="168.982925" rx="25.000000" ry="48.982925" fill="rgb(0, 0, 128)" style="fill-opacity:0.43" />
<ellipse cx="295.000000" cy="168.982925" rx="16.666667" ry="32.655283" fill="rgb(255, 255, 255)" style="fill-opacity:1.00" />
<rect height="48.982925" width="25.000000" x="295.000000" y="144.491463" fill="rgb(255, 255, 255)" style="fill-opacity:1.00" />
<!-- End 'C' -->
<!-- Begin 'A' -->
<polygon points=" 270.000000, 219.763203, 291.000000, 217.965850, 299.000000, 217.965850, 320.000000, 219.763203, 312.500000, 219.763203, 306.250000, 219.313865, 283.750000, 219.313865, 277.500000, 219.763203" fill="rgb(178, 34, 34)" style="fill-opacity:0.43" />
<!-- End 'A' -->
<!-- Begin 'G' -->
<ellipse cx="295.000000" cy="219.873285" rx="25.000000" ry="0.110083" fill="rgb(255, 165, 0)" style="fill-opacity:0.43" />
<ellipse cx="295.000000" cy="219.873285" rx="16.666667" ry="0.073389" fill="rgb(255, 255, 255)" style="fill-opacity:1.00" />
<rect height="0.110083" width="25.000000" x="295.000000" y="219.818244" fill="rgb(255, 255, 255)" style="fill-opacity:1.00" />
<rect height="0.027521" width="25.000000" x="295.000000" y="219.900806" fill="rgb(255, 165, 0)" style="fill-opacity:0.43" />
<rect height="0.082562" width="6.250000" x="313.750000" y="219.900806" fill="rgb(255, 165, 0)" style="fill-opacity:0.43" />
<!-- End 'G' -->
<!-- Begin 'T' -->
<rect height="0.002661" width="50.000000" x="270.000000" y="219.983368" fill="rgb(0, 100, 0)" style="fill-opacity:0.43" />
<rect height="0.016632" width="10.000000" x="290.000000" y="219.983368" fill="rgb(0, 100, 0)" style="fill-opacity:0.43" />
<!-- End 'T' -->
<!-- Begin 'C' -->
<ellipse cx="295.000000" cy="278.879610" rx="25.000000" ry="48.879610" fill="rgb(0, 0, 128)" style="fill-opacity:0.27" />
<ellipse cx="295.000000" cy="278.879610" rx="16.666667" ry="32.586407" fill="rgb(255, 255, 255)" style="fill-opacity:1.00" />
<rect height="48.879610" width="25.000000" x="295.000000" y="254.439805" fill="rgb(255, 255, 255)" style="fill-opacity:1.00" />
<!-- End 'C' -->
<!-- Begin 'G' -->
<ellipse cx="295.000000" cy="328.335255" rx="25.000000" ry="0.576035" fill="rgb(255, 165, 0)" style="fill-opacity:0.27" />
<ellipse cx="295.000000" cy="328.335255" rx="16.666667" ry="0.384023" fill="rgb(255, 255, 255)" style="fill-opacity:1.00" />
<rect height="0.576035" width="25.000000" x="295.000000" y="328.047238" fill="rgb(255, 255, 255)" style="fill-opacity:1.00" />
<rect height="0.144009" width="25.000000" x="295.000000" y="328.479264" fill="rgb(255, 165, 0)" style="fill-opacity:0.27" />
<rect height="0.432026" width="6.250000" x="313.750000" y="328.479264" fill="rgb(255, 165, 0)" style="fill-opacity:0.27" />
<!-- End 'G' -->
<!-- Begin 'A' -->
<polygon points=" 270.000000, 329.923693, 291.000000, 328.911290, 299.000000, 328.911290, 320.000000, 329.923693, 312.500000, 329.923693, 306.250000, 329.670592, 283.750000, 329.670592, 277.500000, 329.923693" fill="rgb(178, 34, 34)" style="fill-opacity:0.27" />
<!-- End 'A' -->
<!-- Begin 'T' -->
<rect height="0.012209" width="50.000000" x="270.000000" y="329.923693" fill="rgb(0, 100, 0)" style="fill-opacity:0.27" />
<rect height="0.076307" width="10.000000" x="290.000000" y="329.923693" fill="rgb(0, 100, 0)" style="fill-opacity:0.27" />
<!-- End 'T' -->
<!-- Begin 'C' -->
<ellipse cx="295.000000" cy="388.877529" rx="25.000000" ry="48.877529" fill="rgb(0, 0, 128)" style="fill-opacity:0.01" />
<ellipse cx="295.000000" cy="388.877529" rx="16.666667" ry="32.585019" fill="rgb(255, 255, 255)" style="fill-opacity:1.00" />
<rect height="48.877529" width="25.000000" x="295.000000" y="364.438764" fill="rgb(255, 255, 255)" style="fill-opacity:1.00" />
<!-- End 'C' -->
<!-- Begin 'G' -->
<ellipse cx="295.000000" cy="438.837595" rx="25.000000" ry="1.082538" fill="rgb(255, 165, 0)" style="fill-opacity:0.01" />
<ellipse cx="295.000000" cy="438.837595" rx="16.666667" ry="0.721692" fill="rgb(255, 255, 255)" style="fill-opacity:1.00" />
<rect height="1.082538" width="25.000000" x="295.000000" y="438.296327" fill="rgb(255, 255, 255)" style="fill-opacity:1.00" />
<rect height="0.270634" width="25.000000" x="295.000000" y="439.108230" fill="rgb(255, 165, 0)" style="fill-opacity:0.01" />
<rect height="0.811903" width="6.250000" x="313.750000" y="439.108230" fill="rgb(255, 165, 0)" style="fill-opacity:0.01" />
<!-- End 'G' -->
<!-- Begin 'T' -->
<rect height="0.009704" width="50.000000" x="270.000000" y="439.920133" fill="rgb(0, 100, 0)" style="fill-opacity:0.01" />
<rect height="0.060653" width="10.000000" x="290.000000" y="439.920133" fill="rgb(0, 100, 0)" style="fill-opacity:0.01" />
<!-- End 'T' -->
<!-- Begin 'A' -->
<polygon points=" 270.000000, 440.000000, 291.000000, 439.980786, 299.000000, 439.980786, 320.000000, 440.000000, 312.500000, 440.000000, 306.250000, 439.995197, 283.750000, 439.995197, 277.500000, 440.000000" fill="rgb(178, 34, 34)" style="fill-opacity:0.01" />
<!-- End 'A' -->
<!-- Begin 'A' -->
<polygon points=" 330.000000, 106.407228, 351.000000, 10.000000, 359.000000, 10.000000, 380.000000, 106.407228, 372.500000, 106.407228, 366.250000, 82.305421, 343.750000, 82.305421, 337.500000, 106.407228" fill="rgb(178, 34, 34)" style="fill-opacity:0.01" />
<polygon points=" 355.000000, 29.281446, 347.000000, 66.844337, 362.000000, 66.844337" fill="rgb(255, 255, 255)" style="fill-opacity:1.00" />
<!-- End 'A' -->
<!-- Begin 'G' -->
<ellipse cx="355.000000" cy="108.008840" rx="25.000000" ry="1.601612" fill="rgb(255, 165, 0)" style="fill-opacity:0.01" />
<ellipse cx="355.000000" cy="108.008840" rx="16.666667" ry="1.067741" fill="rgb(255, 255, 255)" style="fill-opacity:1.00" />
<rect height="1.601612" width="25.000000" x="355.000000" y="107.208034" fill="rgb(255, 255, 255)" style="fill-opacity:1.00" />
<rect height="0.400403" width="25.000000" x="355.000000" y="108.409243" fill="rgb(255, 165, 0)" style="fill-opacity:0.01" />
<rect height="1.201209" width="6.250000" x="373.750000" y="108.409243" fill="rgb(255, 165, 0)" style="fill-opacity:0.01" />
<!-- End 'G' -->
<!-- Begin 'T' -->
<rect height="0.049924" width="50.000000" x="330.000000" y="109.610452" fill="rgb(0, 100, 0)" style="fill-opacity:0.01" />
<rect height="0.312023" width="10.000000" x="350.000000" y="109.610452" fill="rgb(0, 100, 0)" style="fill-opacity:0.01" />
<!-- End 'T' -->
<!-- Begin 'C' -->
<ellipse cx="355.000000" cy="109.961238" rx="25.000000" ry="0.038762" fill="rgb(0, 0, 128)" style="fill-opacity:0.01" />
<ellipse cx="355.000000" cy="109.961238" rx="16.666667" ry="0.025842" fill="rgb(255, 255, 255)" style="fill-opacity:1.00" />
<rect height="0.038762" width="25.000000" x="355.000000" y="109.941856" fill="rgb(255, 255, 255)" style="fill-opacity:1.00" />
<!-- End 'C' -->
<!-- Begin 'A' -->
<polygon points=" 330.000000, 214.784288, 351.000000, 120.000000, 359.000000, 120.000000, 380.000000, 214.784288, 372.500000, 214.784288, 366.250000, 191.088216, 343.750000, 191.088216, 337.500000, 214.784288" fill="rgb(178, 34, 34)" style="fill-opacity:0.97" />
<polygon points=" 355.000000, 138.956858, 347.000000, 175.870573, 362.000000, 175.870573" fill="rgb(255, 255, 255)" style="fill-opacity:1.00" />
<!-- End 'A' -->
<!-- Begin 'T' -->
<rect height="0.543058" width="50.000000" x="330.000000" y="214.784288" fill="rgb(0, 100, 0)" style="fill-opacity:0.97" />
<rect height="3.394114" width="10.000000" x="350.000000" y="214.784288" fill="rgb(0, 100, 0)" style="fill-opacity:0.97" />
<!-- End 'T' -->
<!-- Begin 'G' -->
<ellipse cx="355.000000" cy="219.028489" rx="25.000000" ry="0.850087" fill="rgb(255, 165, 0)" style="fill-opacity:0.97" />
<ellipse cx="355.000000" cy="219.028489" rx="16.666667" ry="0.566725" fill="rgb(255, 255, 255)" style="fill-opacity:1.00" />
<rect height="0.850087" width="25.000000" x="355.000000" y="218.603446" fill="rgb(255, 255, 255)" style="fill-opacity:1.00" />
<rect height="0.212522" width="25.000000" x="355.000000" y="219.241011" fill="rgb(255, 165, 0)" style="fill-opacity:0.97" />
<rect height="0.637565" width="6.250000" x="373.750000" y="219.241011" fill="rgb(255, 165, 0)" style="fill-opacity:0.97" />
<!-- End 'G' -->
<!-- Begin 'C' -->
<ellipse cx="355.000000" cy="219.939288" rx="25.000000" ry="0.060712" fill="rgb(0, 0, 128)" style="fill-opacity:0.97" />
<ellipse cx="355.000000" cy="219.939288" rx="16.666667" ry="0.040475" fill="rgb(255, 255, 255)" style="fill-opacity:1.00" />
<rect height="0.060712" width="25.000000" x="355.000000" y="219.908932" fill="rgb(255, 255, 255)" style="fill-opacity:1.00" />
<!-- End 'C' -->
<!-- Begin 'A' -->
<polygon points=" 330.000000, 311.299339, 351.000000, 230.000000, 359.000000, 230.000000, 380.000000, 311.299339, 372.500000, 311.299339, 366.250000, 290.974504, 343.750000, 290.974504, 337.500000, 311.299339" fill="rgb(178, 34, 34)" style="fill-opacity:0.01" />
<polygon points=" 355.000000, 246.259868, 347.000000, 277.779603, 362.000000, 277.779603" fill="rgb(255, 255, 255)" style="fill-opacity:1.00" />
<!-- End 'A' -->
<!-- Begin 'G' -->
<ellipse cx="355.000000" cy="318.997353" rx="25.000000" ry="7.698014" fill="rgb(255, 165, 0)" style="fill-opacity:0.01" />
<ellipse cx="355.000000" cy="318.997353" rx="16.666667" ry="5.132010" fill="rgb(255, 255, 255)" style="fill-opacity:1.00" />
<rect height="7.698014" width="25.000000" x="355.000000" y="315.148346" fill="rgb(255, 255, 255)" style="fill-opacity:1.00" />
<rect height="1.924504" width="25.000000" x="355.000000" y="320.921857" fill="rgb(255, 165, 0)" style="fill-opacity:0.01" />
<rect height="5.773511" width="6.250000" x="373.750000" y="320.921857" fill="rgb(255, 165, 0)" style="fill-opacity:0.01" />
<!-- End 'G' -->
<!-- Begin 'C' -->
<ellipse cx="355.000000" cy="327.721012" rx="25.000000" ry="1.025644" fill="rgb(0, 0, 128)" style="fill-opacity:0.01" />
<ellipse cx="355.000000" cy="327.721012" rx="16.666667" ry="0.683763" fill="rgb(255, 255, 255)" style="fill-opacity:1.00" />
<rect height="1.025644" width="25.000000" x="355.000000" y="327.208190" fill="rgb(255, 255, 255)" style="fill-opacity:1.00" />
<!-- End 'C' -->
<!-- Begin 'T' -->
<rect height="0.200535" width="50.000000" x="330.000000" y="328.746656" fill="rgb(0, 100, 0)" style="fill-opacity:0.01" />
<rect height="1.253344" width="10.000000" x="350.000000" y="328.746656" fill="rgb(0, 100, 0)" style="fill-opacity:0.01" />
<!-- End 'T' -->
<!-- Begin 'G' -->
<ellipse cx="355.000000" cy="372.676100" rx="25.000000" ry="32.676100" fill="rgb(255, 165, 0)" style="fill-opacity:0.00" />
<ellipse cx="355.000000" cy="372.676100" rx="16.666667" ry="21.784067" fill="rgb(255, 255, 255)" style="fill-opacity:1.00" />
<rect height="32.676100" width="25.000000" x="355.000000" y="356.338050" fill="rgb(255, 255, 255)" style="fill-opacity:1.00" />
<rect height="8.169025" width="25.000000" x="355.000000" y="380.845125" fill="rgb(255, 165, 0)" style="fill-opacity:0.00" />
<rect height="24.507075" width="6.250000" x="373.750000" y="380.845125" fill="rgb(255, 165, 0)" style="fill-opacity:0.00" />
<!-- End 'G' -->
<!-- Begin 'A' -->
<polygon points=" 330.000000, 438.146303, 351.000000, 405.352201, 359.000000, 405.352201, 380.000000, 438.146303, 372.500000, 438.146303, 366.250000, 429.947777, 343.750000, 429.947777, 337.500000, 438.146303" fill="rgb(178, 34, 34)" style="fill-opacity:0.00" />
<polygon points=" 355.000000, 411.911021, 347.000000, 424.028662, 362.000000, 424.028662" fill="rgb(255, 255, 255)" style="fill-opacity:1.00" />
<!-- End 'A' -->
<!-- Begin 'T' -->
<rect height="0.238357" width="50.000000" x="330.000000" y="438.146303" fill="rgb(0, 100, 0)" style="fill-opacity:0.00" />
<rect height="1.489732" width="10.000000" x="350.000000" y="438.146303" fill="rgb(0, 100, 0)" style="fill-opacity:0.00" />
<!-- End 'T' -->
<!-- Begin 'C' -->
<ellipse cx="355.000000" cy="439.818018" rx="25.000000" ry="0.181982" fill="rgb(0, 0, 128)" style="fill-opacity:0.00" />
<ellipse cx="355.000000" cy="439.818018" rx="16.666667" ry="0.121322" fill="rgb(255, 255, 255)" style="fill-opacity:1.00" />
<rect height="0.181982" width="25.000000" x="355.000000" y="439.727026" fill="rgb(255, 255, 255)" style="fill-opacity:1.00" />
<!-- End 'C' -->
<!-- Begin 'G' -->
<ellipse cx="415.000000" cy="41.659734" rx="25.000000" ry="31.659734" fill="rgb(255, 165, 0)" style="fill-opacity:0.95" />
<ellipse cx="415.000000" cy="41.659734" rx="16.666667" ry="21.106489" fill="rgb(255, 255, 255)" style="fill-opacity:1.00" />
<rect height="31.659734" width="25.000000" x="415.000000" y="25.829867" fill="rgb(255, 255, 255)" style="fill-opacity:1.00" />
<rect height="7.914933" width="25.000000" x="415.000000" y="49.574667" fill="rgb(255, 165, 0)" style="fill-opacity:0.95" />
<rect height="23.744800" width="6.250000" x="433.750000" y="49.574667" fill="rgb(255, 165, 0)" style="fill-opacity:0.95" />
<!-- End 'G' -->
<!-- Begin 'T' -->
<rect height="4.858217" width="50.000000" x="390.000000" y="73.319467" fill="rgb(0, 100, 0)" style="fill-opacity:0.95" />
<rect height="30.363859" width="10.000000" x="410.000000" y="73.319467" fill="rgb(0, 100, 0)" style="fill-opacity:0.95" />
<!-- End 'T' -->
<!-- Begin 'C' -->
<ellipse cx="415.000000" cy="106.760021" rx="25.000000" ry="3.076695" fill="rgb(0, 0, 128)" style="fill-opacity:0.95" />
<ellipse cx="415.000000" cy="106.760021" rx="16.666667" ry="2.051130" fill="rgb(255, 255, 255)" style="fill-opacity:1.00" />
<rect height="3.076695" width="25.000000" x="415.000000" y="105.221674" fill="rgb(255, 255, 255)" style="fill-opacity:1.00" />
<!-- End 'C' -->
<!-- Begin 'A' -->
<polygon points=" 390.000000, 110.000000, 411.000000, 109.836716, 419.000000, 109.836716, 440.000000, 110.000000, 432.500000, 110.000000, 426.250000, 109.959179, 403.750000, 109.959179, 397.500000, 110.000000" fill="rgb(178, 34, 34)" style="fill-opacity:0.95" />
<!-- End 'A' -->
<!-- Begin 'G' -->
<ellipse cx="415.000000" cy="161.584167" rx="25.000000" ry="41.584167" fill="rgb(255, 165, 0)" style="fill-opacity:0.00" />
<ellipse cx="415.000000" cy="161.584167" rx="16.666667" ry="27.722778" fill="rgb(255, 255, 255)" style="fill-opacity:1.00" />
<rect height="41.584167" width="25.000000" x="415.000000" y="140.792083" fill="rgb(255, 255, 255)" style="fill-opacity:1.00" />
<rect height="10.396042" width="25.000000" x="415.000000" y="171.980208" fill="rgb(255, 165, 0)" style="fill-opacity:0.00" />
<rect height="31.188125" width="6.250000" x="433.750000" y="171.980208" fill="rgb(255, 165, 0)" style="fill-opacity:0.00" />
<!-- End 'G' -->
<!-- Begin 'T' -->
<rect height="1.511359" width="50.000000" x="390.000000" y="203.168333" fill="rgb(0, 100, 0)" style="fill-opacity:0.00" />
<rect height="9.445994" width="10.000000" x="410.000000" y="203.168333" fill="rgb(0, 100, 0)" style="fill-opacity:0.00" />
<!-- End 'T' -->
<!-- Begin 'C' -->
<ellipse cx="415.000000" cy="216.277790" rx="25.000000" ry="3.663463" fill="rgb(0, 0, 128)" style="fill-opacity:0.00" />
<ellipse cx="415.000000" cy="216.277790" rx="16.666667" ry="2.442308" fill="rgb(255, 255, 255)" style="fill-opacity:1.00" />
<rect height="3.663463" width="25.000000" x="415.000000" y="214.446058" fill="rgb(255, 255, 255)" style="fill-opacity:1.00" />
<!-- End 'C' -->
<!-- Begin 'A' -->
<polygon points=" 390.000000, 220.000000, 411.000000, 219.941252, 419.000000, 219.941252, 440.000000, 220.000000, 432.500000, 220.000000, 426.250000, 219.985313, 403.750000, 219.985313, 397.500000, 220.000000" fill="rgb(178, 34, 34)" style="fill-opacity:0.00" />
<!-- End 'A' -->
<!-- Begin 'T' -->
<rect height="6.637259" width="50.000000" x="390.000000" y="230.000000" fill="rgb(0, 100, 0)" style="fill-opacity:0.02" />
<rect height="41.482866" width="10.000000" x="410.000000" y="230.000000" fill="rgb(0, 100, 0)" style="fill-opacity:0.02" />
<!-- End 'T' -->
<!-- Begin 'G' -->
<ellipse cx="415.000000" cy="291.852418" rx="25.000000" ry="20.369552" fill="rgb(255, 165, 0)" style="fill-opacity:0.02" />
<ellipse cx="415.000000" cy="291.852418" rx="16.666667" ry="13.579701" fill="rgb(255, 255, 255)" style="fill-opacity:1.00" />
<rect height="20.369552" width="25.000000" x="415.000000" y="281.667642" fill="rgb(255, 255, 255)" style="fill-opacity:1.00" />
<rect height="5.092388" width="25.000000" x="415.000000" y="296.944806" fill="rgb(255, 165, 0)" style="fill-opacity:0.02" />
<rect height="15.277164" width="6.250000" x="433.750000" y="296.944806" fill="rgb(255, 165, 0)" style="fill-opacity:0.02" />
<!-- End 'G' -->
<!-- Begin 'C' -->
<ellipse cx="415.000000" cy="321.094641" rx="25.000000" ry="8.872671" fill="rgb(0, 0, 128)" style="fill-opacity:0.02" />
<ellipse cx="415.000000" cy="321.094641" rx="16.666667" ry="5.915114" fill="rgb(255, 255, 255)" style="fill-opacity:1.00" />
<rect height="8.872671" width="25.000000" x="415.000000" y="316.658305" fill="rgb(255, 255, 255)" style="fill-opacity:1.00" />
<!-- End 'C' -->
<!-- Begin 'A' -->
<polygon points=" 390.000000, 330.000000, 411.000000, 329.967312, 419.000000, 329.967312, 440.000000, 330.000000, 432.500000, 330.000000, 426.250000, 329.991828, 403.750000, 329.991828, 397.500000, 330.000000" fill="rgb(178, 34, 34)" style="fill-opacity:0.02" />
<!-- End 'A' -->
<!-- Begin 'G' -->
<ellipse cx="415.000000" cy="380.419338" rx="25.000000" ry="40.419338" fill="rgb(255, 165, 0)" style="fill-opacity:0.03" />
<ellipse cx="415.000000" cy="380.419338" rx="16.666667" ry="26.946225" fill="rgb(255, 255, 255)" style="fill-opacity:1.00" />
<rect height="40.419338" width="25.000000" x="415.000000" y="360.209669" fill="rgb(255, 255, 255)" style="fill-opacity:1.00" />
<rect height="10.104835" width="25.000000" x="415.000000" y="390.524173" fill="rgb(255, 165, 0)" style="fill-opacity:0.03" />
<rect height="30.314504" width="6.250000" x="433.750000" y="390.524173" fill="rgb(255, 165, 0)" style="fill-opacity:0.03" />
<!-- End 'G' -->
<!-- Begin 'T' -->
<rect height="2.693726" width="50.000000" x="390.000000" y="420.838676" fill="rgb(0, 100, 0)" style="fill-opacity:0.03" />
<rect height="16.835785" width="10.000000" x="410.000000" y="420.838676" fill="rgb(0, 100, 0)" style="fill-opacity:0.03" />
<!-- End 'T' -->
<!-- Begin 'C' -->
<ellipse cx="415.000000" cy="438.834682" rx="25.000000" ry="1.160220" fill="rgb(0, 0, 128)" style="fill-opacity:0.03" />
<ellipse cx="415.000000" cy="438.834682" rx="16.666667" ry="0.773480" fill="rgb(255, 255, 255)" style="fill-opacity:1.00" />
<rect height="1.160220" width="25.000000" x="415.000000" y="438.254572" fill="rgb(255, 255, 255)" style="fill-opacity:1.00" />
<!-- End 'C' -->
<!-- Begin 'A' -->
<polygon points=" 390.000000, 440.000000, 411.000000, 439.994902, 419.000000, 439.994902, 440.000000, 440.000000, 432.500000, 440.000000, 426.250000, 439.998726, 403.750000, 439.998726, 397.500000, 440.000000" fill="rgb(178, 34, 34)" style="fill-opacity:0.03" />
<!-- End 'A' -->
<!-- Begin 'G' -->
<ellipse cx="475.000000" cy="33.657600" rx="25.000000" ry="23.657600" fill="rgb(255, 165, 0)" style="fill-opacity:0.00" />
<ellipse cx="475.000000" cy="33.657600" rx="16.666667" ry="15.771734" fill="rgb(255, 255, 255)" style="fill-opacity:1.00" />
<rect height="23.657600" width="25.000000" x="475.000000" y="21.828800" fill="rgb(255, 255, 255)" style="fill-opacity:1.00" />
<rect height="5.914400" width="25.000000" x="475.000000" y="39.572000" fill="rgb(255, 165, 0)" style="fill-opacity:0.00" />
<rect height="17.743200" width="6.250000" x="493.750000" y="39.572000" fill="rgb(255, 165, 0)" style="fill-opacity:0.00" />
<!-- End 'G' -->
<!-- Begin 'A' -->
<polygon points=" 450.000000, 101.109951, 471.000000, 57.315201, 479.000000, 57.315201, 500.000000, 101.109951, 492.500000, 101.109951, 486.250000, 90.161264, 463.750000, 90.161264, 457.500000, 101.109951" fill="rgb(178, 34, 34)" style="fill-opacity:0.00" />
<polygon points=" 475.000000, 66.074151, 467.000000, 82.592051, 482.000000, 82.592051" fill="rgb(255, 255, 255)" style="fill-opacity:1.00" />
<!-- End 'A' -->
<!-- Begin 'C' -->
<ellipse cx="475.000000" cy="105.538936" rx="25.000000" ry="4.428984" fill="rgb(0, 0, 128)" style="fill-opacity:0.00" />
<ellipse cx="475.000000" cy="105.538936" rx="16.666667" ry="2.952656" fill="rgb(255, 255, 255)" style="fill-opacity:1.00" />
<rect height="4.428984" width="25.000000" x="475.000000" y="103.324444" fill="rgb(255, 255, 255)" style="fill-opacity:1.00" />
<!-- End 'C' -->
<!-- Begin 'T' -->
<rect height="0.005133" width="50.000000" x="450.000000" y="109.967920" fill="rgb(0, 100, 0)" style="fill-opacity:0.00" />
<rect height="0.032080" width="10.000000" x="470.000000" y="109.967920" fill="rgb(0, 100, 0)" style="fill-opacity:0.00" />
<!-- End 'T' -->
<!-- Begin 'C' -->
<ellipse cx="475.000000" cy="156.279532" rx="25.000000" ry="36.279532" fill="rgb(0, 0, 128)" style="fill-opacity:0.06" />
<ellipse cx="475.000000" cy="156.279532" rx="16.666667" ry="24.186355" fill="rgb(255, 255, 255)" style="fill-opacity:1.00" />
<rect height="36.279532" width="25.000000" x="475.000000" y="138.139766" fill="rgb(255, 255, 255)" style="fill-opacity:1.00" />
<!-- End 'C' -->
<!-- Begin 'A' -->
<polygon points=" 450.000000, 206.208089, 471.000000, 192.559065, 479.000000, 192.559065, 500.000000, 206.208089, 492.500000, 206.208089, 486.250000, 202.795833, 463.750000, 202.795833, 457.500000, 206.208089" fill="rgb(178, 34, 34)" style="fill-opacity:0.06" />
<polygon points=" 475.000000, 195.288870, 467.000000, 199.748480, 482.000000, 199.748480" fill="rgb(255, 255, 255)" style="fill-opacity:1.00" />
<!-- End 'A' -->
<!-- Begin 'G' -->
<ellipse cx="475.000000" cy="212.733635" rx="25.000000" ry="6.525546" fill="rgb(255, 165, 0)" style="fill-opacity:0.06" />
<ellipse cx="475.000000" cy="212.733635" rx="16.666667" ry="4.350364" fill="rgb(255, 255, 255)" style="fill-opacity:1.00" />
<rect height="6.525546" width="25.000000" x="475.000000" y="209.470862" fill="rgb(255, 255, 255)" style="fill-opacity:1.00" />
<rect height="1.631386" width="25.000000" x="475.000000" y="214.365021" fill="rgb(255, 165, 0)" style="fill-opacity:0.06" />
<rect height="4.894159" width="6.250000" x="493.750000" y="214.365021" fill="rgb(255, 165, 0)" style="fill-opacity:0.06" />
<!-- End 'G' -->
<!-- Begin 'T' -->
<rect height="0.118531" width="50.000000" x="450.000000" y="219.259181" fill="rgb(0, 100, 0)" style="fill-opacity:0.06" />
<rect height="0.740819" width="10.000000" x="470.000000" y="219.259181" fill="rgb(0, 100, 0)" style="fill-opacity:0.06" />
<!-- End 'T' -->
<!-- Begin 'C' -->
<ellipse cx="475.000000" cy="254.318808" rx="25.000000" ry="24.318808" fill="rgb(0, 0, 128)" style="fill-opacity:0.63" />
<ellipse cx="475.000000" cy="254.318808" rx="16.666667" ry="16.212539" fill="rgb(255, 255, 255)" style="fill-opacity:1.00" />
<rect height="24.318808" width="25.000000" x="475.000000" y="242.159404" fill="rgb(255, 255, 255)" style="fill-opacity:1.00" />
<!-- End 'C' -->
<!-- Begin 'A' -->
<polygon points=" 450.000000, 320.670491, 471.000000, 278.637616, 479.000000, 278.637616, 500.000000, 320.670491, 492.500000, 320.670491, 486.250000, 310.162272, 463.750000, 310.162272, 457.500000, 320.670491" fill="rgb(178, 34, 34)" style="fill-opacity:0.63" />
<polygon points=" 475.000000, 287.044191, 467.000000, 302.857341, 482.000000, 302.857341" fill="rgb(255, 255, 255)" style="fill-opacity:1.00" />
<!-- End 'A' -->
<!-- Begin 'G' -->
<ellipse cx="475.000000" cy="325.208927" rx="25.000000" ry="4.538436" fill="rgb(255, 165, 0)" style="fill-opacity:0.63" />
<ellipse cx="475.000000" cy="325.208927" rx="16.666667" ry="3.025624" fill="rgb(255, 255, 255)" style="fill-opacity:1.00" />
<rect height="4.538436" width="25.000000" x="475.000000" y="322.939709" fill="rgb(255, 255, 255)" style="fill-opacity:1.00" />
<rect height="1.134609" width="25.000000" x="475.000000" y="326.343536" fill="rgb(255, 165, 0)" style="fill-opacity:0.63" />
<rect height="3.403827" width="6.250000" x="493.750000" y="326.343536" fill="rgb(255, 165, 0)" style="fill-opacity:0.63" />
<!-- End 'G' -->
<!-- Begin 'T' -->
<rect height="0.040422" width="50.000000" x="450.000000" y="329.747363" fill="rgb(0, 100, 0)" style="fill-opacity:0.63" />
<rect height="0.252637" width="10.000000" x="470.000000" y="329.747363" fill="rgb(0, 100, 0)" style="fill-opacity:0.63" />
<!-- End 'T' -->
<!-- Begin 'C' -->
<ellipse cx="475.000000" cy="379.419956" rx="25.000000" ry="39.419956" fill="rgb(0, 0, 128)" style="fill-opacity:0.30" />
<ellipse cx="475.000000" cy="379.419956" rx="16.666667" ry="26.279970" fill="rgb(255, 255, 255)" style="fill-opacity:1.00" />
<rect height="39.419956" width="25.000000" x="475.000000" y="359.709978" fill="rgb(255, 255, 255)" style="fill-opacity:1.00" />
<!-- End 'C' -->
<!-- Begin 'A' -->
<polygon points=" 450.000000, 438.754878, 471.000000, 418.839911, 479.000000, 418.839911, 500.000000, 438.754878, 492.500000, 438.754878, 486.250000, 433.776136, 463.750000, 433.776136, 457.500000, 438.754878" fill="rgb(178, 34, 34)" style="fill-opacity:0.30" />
<polygon points=" 475.000000, 422.822904, 467.000000, 429.788891, 482.000000, 429.788891" fill="rgb(255, 255, 255)" style="fill-opacity:1.00" />
<!-- End 'A' -->
<!-- Begin 'G' -->
<ellipse cx="475.000000" cy="439.375442" rx="25.000000" ry="0.620565" fill="rgb(255, 165, 0)" style="fill-opacity:0.30" />
<ellipse cx="475.000000" cy="439.375442" rx="16.666667" ry="0.413710" fill="rgb(255, 255, 255)" style="fill-opacity:1.00" />
<rect height="0.620565" width="25.000000" x="475.000000" y="439.065160" fill="rgb(255, 255, 255)" style="fill-opacity:1.00" />
<rect height="0.155141" width="25.000000" x="475.000000" y="439.530583" fill="rgb(255, 165, 0)" style="fill-opacity:0.30" />
<rect height="0.465423" width="6.250000" x="493.750000" y="439.530583" fill="rgb(255, 165, 0)" style="fill-opacity:0.30" />
<!-- End 'G' -->
<!-- Begin 'T' -->
<rect height="0.000639" width="50.000000" x="450.000000" y="439.996007" fill="rgb(0, 100, 0)" style="fill-opacity:0.30" />
<rect height="0.003993" width="10.000000" x="470.000000" y="439.996007" fill="rgb(0, 100, 0)" style="fill-opacity:0.30" />
<!-- End 'T' -->
<!-- Begin 'T' -->
<rect height="14.038155" width="50.000000" x="510.000000" y="10.000000" fill="rgb(0, 100, 0)" style="fill-opacity:0.34" />
<rect height="87.738467" width="10.000000" x="530.000000" y="10.000000" fill="rgb(0, 100, 0)" style="fill-opacity:0.34" />
<!-- End 'T' -->
<!-- Begin 'A' -->
<polygon points=" 510.000000, 103.813834, 531.000000, 97.738467, 539.000000, 97.738467, 560.000000, 103.813834, 552.500000, 103.813834, 546.250000, 102.294992, 523.750000, 102.294992, 517.500000, 103.813834" fill="rgb(178, 34, 34)" style="fill-opacity:0.34" />
<!-- End 'A' -->
<!-- Begin 'C' -->
<ellipse cx="535.000000" cy="105.535974" rx="25.000000" ry="1.722140" fill="rgb(0, 0, 128)" style="fill-opacity:0.34" />
<ellipse cx="535.000000" cy="105.535974" rx="16.666667" ry="1.148093" fill="rgb(255, 255, 255)" style="fill-opacity:1.00" />
<rect height="1.722140" width="25.000000" x="535.000000" y="104.674904" fill="rgb(255, 255, 255)" style="fill-opacity:1.00" />
<!-- End 'C' -->
<!-- Begin 'G' -->
<ellipse cx="535.000000" cy="108.629057" rx="25.000000" ry="1.370943" fill="rgb(255, 165, 0)" style="fill-opacity:0.34" />
<ellipse cx="535.000000" cy="108.629057" rx="16.666667" ry="0.913962" fill="rgb(255, 255, 255)" style="fill-opacity:1.00" />
<rect height="1.370943" width="25.000000" x="535.000000" y="107.943585" fill="rgb(255, 255, 255)" style="fill-opacity:1.00" />
<rect height="0.342736" width="25.000000" x="535.000000" y="108.971793" fill="rgb(255, 165, 0)" style="fill-opacity:0.34" />
<rect height="1.028207" width="6.250000" x="553.750000" y="108.971793" fill="rgb(255, 165, 0)" style="fill-opacity:0.34" />
<!-- End 'G' -->
<!-- Begin 'T' -->
<rect height="14.930150" width="50.000000" x="510.000000" y="120.000000" fill="rgb(0, 100, 0)" style="fill-opacity:0.59" />
<rect height="93.313436" width="10.000000" x="530.000000" y="120.000000" fill="rgb(0, 100, 0)" style="fill-opacity:0.59" />
<!-- End 'T' -->
<!-- Begin 'A' -->
<polygon points=" 510.000000, 217.617586, 531.000000, 213.313436, 539.000000, 213.313436, 560.000000, 217.617586, 552.500000, 217.617586, 546.250000, 216.541548, 523.750000, 216.541548, 517.500000, 217.617586" fill="rgb(178, 34, 34)" style="fill-opacity:0.59" />
<!-- End 'A' -->
<!-- Begin 'C' -->
<ellipse cx="535.000000" cy="218.782010" rx="25.000000" ry="1.164424" fill="rgb(0, 0, 128)" style="fill-opacity:0.59" />
<ellipse cx="535.000000" cy="218.782010" rx="16.666667" ry="0.776283" fill="rgb(255, 255, 255)" style="fill-opacity:1.00" />
<rect height="1.164424" width="25.000000" x="535.000000" y="218.199798" fill="rgb(255, 255, 255)" style="fill-opacity:1.00" />
<!-- End 'C' -->
<!-- Begin 'G' -->
<ellipse cx="535.000000" cy="219.973217" rx="25.000000" ry="0.026783" fill="rgb(255, 165, 0)" style="fill-opacity:0.59" />
<ellipse cx="535.000000" cy="219.973217" rx="16.666667" ry="0.017855" fill="rgb(255, 255, 255)" style="fill-opacity:1.00" />
<rect height="0.026783" width="25.000000" x="535.000000" y="219.959826" fill="rgb(255, 255, 255)" style="fill-opacity:1.00" />
<rect height="0.006696" width="25.000000" x="535.000000" y="219.979913" fill="rgb(255, 165, 0)" style="fill-opacity:0.59" />
<rect height="0.020087" width="6.250000" x="553.750000" y="219.979913" fill="rgb(255, 165, 0)" style="fill-opacity:0.59" />
<!-- End 'G' -->
<!-- Begin 'T' -->
<rect height="9.625386" width="50.000000" x="510.000000" y="230.000000" fill="rgb(0, 100, 0)" style="fill-opacity:0.07" />
<rect height="60.158664" width="10.000000" x="530.000000" y="230.000000" fill="rgb(0, 100, 0)" style="fill-opacity:0.07" />
<!-- End 'T' -->
<!-- Begin 'A' -->
<polygon points=" 510.000000, 309.584355, 531.000000, 290.158664, 539.000000, 290.158664, 560.000000, 309.584355, 552.500000, 309.584355, 546.250000, 304.727932, 523.750000, 304.727932, 517.500000, 309.584355" fill="rgb(178, 34, 34)" style="fill-opacity:0.07" />
<polygon points=" 535.000000, 294.043802, 527.000000, 300.814079, 542.000000, 300.814079" fill="rgb(255, 255, 255)" style="fill-opacity:1.00" />
<!-- End 'A' -->
<!-- Begin 'C' -->
<ellipse cx="535.000000" cy="319.057590" rx="25.000000" ry="9.473235" fill="rgb(0, 0, 128)" style="fill-opacity:0.07" />
<ellipse cx="535.000000" cy="319.057590" rx="16.666667" ry="6.315490" fill="rgb(255, 255, 255)" style="fill-opacity:1.00" />
<rect height="9.473235" width="25.000000" x="535.000000" y="314.320973" fill="rgb(255, 255, 255)" style="fill-opacity:1.00" />
<!-- End 'C' -->
<!-- Begin 'G' -->
<ellipse cx="535.000000" cy="329.265413" rx="25.000000" ry="0.734587" fill="rgb(255, 165, 0)" style="fill-opacity:0.07" />
<ellipse cx="535.000000" cy="329.265413" rx="16.666667" ry="0.489725" fill="rgb(255, 255, 255)" style="fill-opacity:1.00" />
<rect height="0.734587" width="25.000000" x="535.000000" y="328.898119" fill="rgb(255, 255, 255)" style="fill-opacity:1.00" />
<rect height="0.183647" width="25.000000" x="535.000000" y="329.449060" fill="rgb(255, 165, 0)" style="fill-opacity:0.07" />
<rect height="0.550940" width="6.250000" x="553.750000" y="329.449060" fill="rgb(255, 165, 0)" style="fill-opacity:0.07" />
<!-- End 'G' -->
<!-- Begin 'T' -->
<rect height="14.929333" width="50.000000" x="510.000000" y="340.000000" fill="rgb(0, 100, 0)" style="fill-opacity:0.00" />
<rect height="93.308332" width="10.000000" x="530.000000" y="340.000000" fill="rgb(0, 100, 0)" style="fill-opacity:0.00" />
<!-- End 'T' -->
<!-- Begin 'G' -->
<ellipse cx="535.000000" cy="435.790707" rx="25.000000" ry="2.482375" fill="rgb(255, 165, 0)" style="fill-opacity:0.00" />
<ellipse cx="535.000000" cy="435.790707" rx="16.666667" ry="1.654917" fill="rgb(255, 255, 255)" style="fill-opacity:1.00" />
<rect height="2.482375" width="25.000000" x="535.000000" y="434.549519" fill="rgb(255, 255, 255)" style="fill-opacity:1.00" />
<rect height="0.620594" width="25.000000" x="535.000000" y="436.411300" fill="rgb(255, 165, 0)" style="fill-opacity:0.00" />
<rect height="1.861781" width="6.250000" x="553.750000" y="436.411300" fill="rgb(255, 165, 0)" style="fill-opacity:0.00" />
<!-- End 'G' -->
<!-- Begin 'C' -->
<ellipse cx="535.000000" cy="439.113022" rx="25.000000" ry="0.839940" fill="rgb(0, 0, 128)" style="fill-opacity:0.00" />
<ellipse cx="535.000000" cy="439.113022" rx="16.666667" ry="0.559960" fill="rgb(255, 255, 255)" style="fill-opacity:1.00" />
<rect height="0.839940" width="25.000000" x="535.000000" y="438.693052" fill="rgb(255, 255, 255)" style="fill-opacity:1.00" />
<!-- End 'C' -->
<!-- Begin 'A' -->
<polygon points=" 510.000000, 440.000000, 531.000000, 439.952962, 539.000000, 439.952962, 560.000000, 440.000000, 552.500000, 440.000000, 546.250000, 439.988241, 523.750000, 439.988241, 517.500000, 440.000000" fill="rgb(178, 34, 34)" style="fill-opacity:0.00" />
<!-- End 'A' -->
<!-- Begin 'G' -->
<ellipse cx="595.000000" cy="58.743443" rx="25.000000" ry="48.743443" fill="rgb(255, 165, 0)" style="fill-opacity:0.06" />
<ellipse cx="595.000000" cy="58.743443" rx="16.666667" ry="32.495629" fill="rgb(255, 255, 255)" style="fill-opacity:1.00" />
<rect height="48.743443" width="25.000000" x="595.000000" y="34.371722" fill="rgb(255, 255, 255)" style="fill-opacity:1.00" />
<rect height="12.185861" width="25.000000" x="595.000000" y="70.929304" fill="rgb(255, 165, 0)" style="fill-opacity:0.06" />
<rect height="36.557582" width="6.250000" x="613.750000" y="70.929304" fill="rgb(255, 165, 0)" style="fill-opacity:0.06" />
<!-- End 'G' -->
<!-- Begin 'T' -->
<rect height="0.335809" width="50.000000" x="570.000000" y="107.486887" fill="rgb(0, 100, 0)" style="fill-opacity:0.06" />
<rect height="2.098805" width="10.000000" x="590.000000" y="107.486887" fill="rgb(0, 100, 0)" style="fill-opacity:0.06" />
<!-- End 'T' -->
<!-- Begin 'A' -->
<polygon points=" 570.000000, 109.848076, 591.000000, 109.585691, 599.000000, 109.585691, 620.000000, 109.848076, 612.500000, 109.848076, 606.250000, 109.782480, 583.750000, 109.782480, 577.500000, 109.848076" fill="rgb(178, 34, 34)" style="fill-opacity:0.06" />
<!-- End 'A' -->
<!-- Begin 'C' -->
<ellipse cx="595.000000" cy="109.924038" rx="25.000000" ry="0.075962" fill="rgb(0, 0, 128)" style="fill-opacity:0.06" />
<ellipse cx="595.000000" cy="109.924038" rx="16.666667" ry="0.050641" fill="rgb(255, 255, 255)" style="fill-opacity:1.00" />
<rect height="0.075962" width="25.000000" x="595.000000" y="109.886057" fill="rgb(255, 255, 255)" style="fill-opacity:1.00" />
<!-- End 'C' -->
<!-- Begin 'G' -->
<ellipse cx="595.000000" cy="150.182026" rx="25.000000" ry="30.182026" fill="rgb(255, 165, 0)" style="fill-opacity:0.04" />
<ellipse cx="595.000000" cy="150.182026" rx="16.666667" ry="20.121351" fill="rgb(255, 255, 255)" style="fill-opacity:1.00" />
<rect height="30.182026" width="25.000000" x="595.000000" y="135.091013" fill="rgb(255, 255, 255)" style="fill-opacity:1.00" />
<rect height="7.545507" width="25.000000" x="595.000000" y="157.727533" fill="rgb(255, 165, 0)" style="fill-opacity:0.04" />
<rect height="22.636520" width="6.250000" x="613.750000" y="157.727533" fill="rgb(255, 165, 0)" style="fill-opacity:0.04" />
<!-- End 'G' -->
<!-- Begin 'T' -->
<rect height="3.806229" width="50.000000" x="570.000000" y="180.364053" fill="rgb(0, 100, 0)" style="fill-opacity:0.04" />
<rect height="23.788932" width="10.000000" x="590.000000" y="180.364053" fill="rgb(0, 100, 0)" style="fill-opacity:0.04" />
<!-- End 'T' -->
<!-- Begin 'A' -->
<polygon points=" 570.000000, 214.854852, 591.000000, 204.152985, 599.000000, 204.152985, 620.000000, 214.854852, 612.500000, 214.854852, 606.250000, 212.179385, 583.750000, 212.179385, 577.500000, 214.854852" fill="rgb(178, 34, 34)" style="fill-opacity:0.04" />
<polygon points=" 595.000000, 206.293358, 587.000000, 209.574105, 602.000000, 209.574105" fill="rgb(255, 255, 255)" style="fill-opacity:1.00" />
<!-- End 'A' -->
<!-- Begin 'C' -->
<ellipse cx="595.000000" cy="217.427426" rx="25.000000" ry="2.572574" fill="rgb(0, 0, 128)" style="fill-opacity:0.04" />
<ellipse cx="595.000000" cy="217.427426" rx="16.666667" ry="1.715049" fill="rgb(255, 255, 255)" style="fill-opacity:1.00" />
<rect height="2.572574" width="25.000000" x="595.000000" y="216.141139" fill="rgb(255, 255, 255)" style="fill-opacity:1.00" />
<!-- End 'C' -->
<!-- Begin 'G' -->
<ellipse cx="595.000000" cy="273.652815" rx="25.000000" ry="43.652815" fill="rgb(255, 165, 0)" style="fill-opacity:0.01" />
<ellipse cx="595.000000" cy="273.652815" rx="16.666667" ry="29.101876" fill="rgb(255, 255, 255)" style="fill-opacity:1.00" />
<rect height="43.652815" width="25.000000" x="595.000000" y="251.826407" fill="rgb(255, 255, 255)" style="fill-opacity:1.00" />
<rect height="10.913204" width="25.000000" x="595.000000" y="284.566018" fill="rgb(255, 165, 0)" style="fill-opacity:0.01" />
<rect height="32.739611" width="6.250000" x="613.750000" y="284.566018" fill="rgb(255, 165, 0)" style="fill-opacity:0.01" />
<!-- End 'G' -->
<!-- Begin 'A' -->
<polygon points=" 570.000000, 324.408515, 591.000000, 317.305629, 599.000000, 317.305629, 620.000000, 324.408515, 612.500000, 324.408515, 606.250000, 322.632794, 583.750000, 322.632794, 577.500000, 324.408515" fill="rgb(178, 34, 34)" style="fill-opacity:0.01" />
<!-- End 'A' -->
<!-- Begin 'T' -->
<rect height="0.727203" width="50.000000" x="570.000000" y="324.408515" fill="rgb(0, 100, 0)" style="fill-opacity:0.01" />
<rect height="4.545020" width="10.000000" x="590.000000" y="324.408515" fill="rgb(0, 100, 0)" style="fill-opacity:0.01" />
<!-- End 'T' -->
<!-- Begin 'C' -->
<ellipse cx="595.000000" cy="329.476768" rx="25.000000" ry="0.523232" fill="rgb(0, 0, 128)" style="fill-opacity:0.01" />
<ellipse cx="595.000000" cy="329.476768" rx="16.666667" ry="0.348822" fill="rgb(255, 255, 255)" style="fill-opacity:1.00" />
<rect height="0.523232" width="25.000000" x="595.000000" y="329.215151" fill="rgb(255, 255, 255)" style="fill-opacity:1.00" />
<!-- End 'C' -->
<!-- Begin 'G' -->
<ellipse cx="595.000000" cy="388.957319" rx="25.000000" ry="48.957319" fill="rgb(255, 165, 0)" style="fill-opacity:0.89" />
<ellipse cx="595.000000" cy="388.957319" rx="16.666667" ry="32.638212" fill="rgb(255, 255, 255)" style="fill-opacity:1.00" />
<rect height="48.957319" width="25.000000" x="595.000000" y="364.478659" fill="rgb(255, 255, 255)" style="fill-opacity:1.00" />
<rect height="12.239330" width="25.000000" x="595.000000" y="401.196648" fill="rgb(255, 165, 0)" style="fill-opacity:0.89" />
<rect height="36.717989" width="6.250000" x="613.750000" y="401.196648" fill="rgb(255, 165, 0)" style="fill-opacity:0.89" />
<!-- End 'G' -->
<!-- Begin 'T' -->
<rect height="0.316918" width="50.000000" x="570.000000" y="437.914637" fill="rgb(0, 100, 0)" style="fill-opacity:0.89" />
<rect height="1.980735" width="10.000000" x="590.000000" y="437.914637" fill="rgb(0, 100, 0)" style="fill-opacity:0.89" />
<!-- End 'T' -->
<!-- Begin 'C' -->
<ellipse cx="595.000000" cy="439.935540" rx="25.000000" ry="0.040168" fill="rgb(0, 0, 128)" style="fill-opacity:0.89" />
<ellipse cx="595.000000" cy="439.935540" rx="16.666667" ry="0.026779" fill="rgb(255, 255, 255)" style="fill-opacity:1.00" />
<rect height="0.040168" width="25.000000" x="595.000000" y="439.915456" fill="rgb(255, 255, 255)" style="fill-opacity:1.00" />
<!-- End 'C' -->
<!-- Begin 'A' -->
<polygon points=" 570.000000, 440.000000, 591.000000, 439.975708, 599.000000, 439.975708, 620.000000, 440.000000, 612.500000, 440.000000, 606.250000, 439.993927, 583.750000, 439.993927, 577.500000, 440.000000" fill="rgb(178, 34, 34)" style="fill-opacity:0.89" />
<!-- End 'A' -->
<!-- Begin 'G' -->
<ellipse cx="655.000000" cy="51.946808" rx="25.000000" ry="41.946808" fill="rgb(255, 165, 0)" style="fill-opacity:0.01" />
<ellipse cx="655.000000" cy="51.946808" rx="16.666667" ry="27.964539" fill="rgb(255, 255, 255)" style="fill-opacity:1.00" />
<rect height="41.946808" width="25.000000" x="655.000000" y="30.973404" fill="rgb(255, 255, 255)" style="fill-opacity:1.00" />
<rect height="10.486702" width="25.000000" x="655.000000" y="62.433510" fill="rgb(255, 165, 0)" style="fill-opacity:0.01" />
<rect height="31.460106" width="6.250000" x="673.750000" y="62.433510" fill="rgb(255, 165, 0)" style="fill-opacity:0.01" />
<!-- End 'G' -->
<!-- Begin 'C' -->
<ellipse cx="655.000000" cy="100.068092" rx="25.000000" ry="6.174476" fill="rgb(0, 0, 128)" style="fill-opacity:0.01" />
<ellipse cx="655.000000" cy="100.068092" rx="16.666667" ry="4.116317" fill="rgb(255, 255, 255)" style="fill-opacity:1.00" />
<rect height="6.174476" width="25.000000" x="655.000000" y="96.980854" fill="rgb(255, 255, 255)" style="fill-opacity:1.00" />
<!-- End 'C' -->
<!-- Begin 'A' -->
<polygon points=" 630.000000, 108.486195, 651.000000, 106.242568, 659.000000, 106.242568, 680.000000, 108.486195, 672.500000, 108.486195, 666.250000, 107.925288, 643.750000, 107.925288, 637.500000, 108.486195" fill="rgb(178, 34, 34)" style="fill-opacity:0.01" />
<!-- End 'A' -->
<!-- Begin 'T' -->
<rect height="0.242209" width="50.000000" x="630.000000" y="108.486195" fill="rgb(0, 100, 0)" style="fill-opacity:0.01" />
<rect height="1.513805" width="10.000000" x="650.000000" y="108.486195" fill="rgb(0, 100, 0)" style="fill-opacity:0.01" />
<!-- End 'T' -->
<!-- Begin 'G' -->
<ellipse cx="655.000000" cy="142.147344" rx="25.000000" ry="22.147344" fill="rgb(255, 165, 0)" style="fill-opacity:0.00" />
<ellipse cx="655.000000" cy="142.147344" rx="16.666667" ry="14.764896" fill="rgb(255, 255, 255)" style="fill-opacity:1.00" />
<rect height="22.147344" width="25.000000" x="655.000000" y="131.073672" fill="rgb(255, 255, 255)" style="fill-opacity:1.00" />
<rect height="5.536836" width="25.000000" x="655.000000" y="147.684179" fill="rgb(255, 165, 0)" style="fill-opacity:0.00" />
<rect height="16.610508" width="6.250000" x="673.750000" y="147.684179" fill="rgb(255, 165, 0)" style="fill-opacity:0.00" />
<!-- End 'G' -->
<!-- Begin 'C' -->
<ellipse cx="655.000000" cy="180.618711" rx="25.000000" ry="16.324024" fill="rgb(0, 0, 128)" style="fill-opacity:0.00" />
<ellipse cx="655.000000" cy="180.618711" rx="16.666667" ry="10.882682" fill="rgb(255, 255, 255)" style="fill-opacity:1.00" />
<rect height="16.324024" width="25.000000" x="655.000000" y="172.456699" fill="rgb(255, 255, 255)" style="fill-opacity:1.00" />
<!-- End 'C' -->
<!-- Begin 'T' -->
<rect height="3.477798" width="50.000000" x="630.000000" y="196.942734" fill="rgb(0, 100, 0)" style="fill-opacity:0.00" />
<rect height="21.736236" width="10.000000" x="650.000000" y="196.942734" fill="rgb(0, 100, 0)" style="fill-opacity:0.00" />
<!-- End 'T' -->
<!-- Begin 'A' -->
<polygon points=" 630.000000, 220.000000, 651.000000, 218.678970, 659.000000, 218.678970, 680.000000, 220.000000, 672.500000, 220.000000, 666.250000, 219.669742, 643.750000, 219.669742, 637.500000, 220.000000" fill="rgb(178, 34, 34)" style="fill-opacity:0.00" />
<!-- End 'A' -->
<!-- Begin 'G' -->
<ellipse cx="655.000000" cy="252.663044" rx="25.000000" ry="22.663044" fill="rgb(255, 165, 0)" style="fill-opacity:0.96" />
<ellipse cx="655.000000" cy="252.663044" rx="16.666667" ry="15.108696" fill="rgb(255, 255, 255)" style="fill-opacity:1.00" />
<rect height="22.663044" width="25.000000" x="655.000000" y="241.331522" fill="rgb(255, 255, 255)" style="fill-opacity:1.00" />
<rect height="5.665761" width="25.000000" x="655.000000" y="258.328805" fill="rgb(255, 165, 0)" style="fill-opacity:0.96" />
<rect height="16.997283" width="6.250000" x="673.750000" y="258.328805" fill="rgb(255, 165, 0)" style="fill-opacity:0.96" />
<!-- End 'G' -->
<!-- Begin 'T' -->
<rect height="4.425086" width="50.000000" x="630.000000" y="275.326088" fill="rgb(0, 100, 0)" style="fill-opacity:0.96" />
<rect height="27.656786" width="10.000000" x="650.000000" y="275.326088" fill="rgb(0, 100, 0)" style="fill-opacity:0.96" />
<!-- End 'T' -->
<!-- Begin 'C' -->
<ellipse cx="655.000000" cy="315.409991" rx="25.000000" ry="12.427118" fill="rgb(0, 0, 128)" style="fill-opacity:0.96" />
<ellipse cx="655.000000" cy="315.409991" rx="16.666667" ry="8.284745" fill="rgb(255, 255, 255)" style="fill-opacity:1.00" />
<rect height="12.427118" width="25.000000" x="655.000000" y="309.196433" fill="rgb(255, 255, 255)" style="fill-opacity:1.00" />
<!-- End 'C' -->
<!-- Begin 'A' -->
<polygon points=" 630.000000, 330.000000, 651.000000, 327.837109, 659.000000, 327.837109, 680.000000, 330.000000, 672.500000, 330.000000, 666.250000, 329.459277, 643.750000, 329.459277, 637.500000, 330.000000" fill="rgb(178, 34, 34)" style="fill-opacity:0.96" />
<!-- End 'A' -->
<!-- Begin 'G' -->
<ellipse cx="655.000000" cy="383.985449" rx="25.000000" ry="43.985449" fill="rgb(255, 165, 0)" style="fill-opacity:0.03" />
<ellipse cx="655.000000" cy="383.985449" rx="16.666667" ry="29.323632" fill="rgb(255, 255, 255)" style="fill-opacity:1.00" />
<rect height="43.985449" width="25.000000" x="655.000000" y="361.992724" fill="rgb(255, 255, 255)" style="fill-opacity:1.00" />
<rect height="10.996362" width="25.000000" x="655.000000" y="394.981811" fill="rgb(255, 165, 0)" style="fill-opacity:0.03" />
<rect height="32.989086" width="6.250000" x="673.750000" y="394.981811" fill="rgb(255, 165, 0)" style="fill-opacity:0.03" />
<!-- End 'G' -->
<!-- Begin 'C' -->
<ellipse cx="655.000000" cy="432.237309" rx="25.000000" ry="4.266411" fill="rgb(0, 0, 128)" style="fill-opacity:0.03" />
<ellipse cx="655.000000" cy="432.237309" rx="16.666667" ry="2.844274" fill="rgb(255, 255, 255)" style="fill-opacity:1.00" />
<rect height="4.266411" width="25.000000" x="655.000000" y="430.104103" fill="rgb(255, 255, 255)" style="fill-opacity:1.00" />
<!-- End 'C' -->
<!-- Begin 'A' -->
<polygon points=" 630.000000, 438.464577, 651.000000, 436.503720, 659.000000, 436.503720, 680.000000, 438.464577, 672.500000, 438.464577, 666.250000, 437.974363, 643.750000, 437.974363, 637.500000, 438.464577" fill="rgb(178, 34, 34)" style="fill-opacity:0.03" />
<!-- End 'A' -->
<!-- Begin 'T' -->
<rect height="0.245668" width="50.000000" x="630.000000" y="438.464577" fill="rgb(0, 100, 0)" style="fill-opacity:0.03" />
<rect height="1.535423" width="10.000000" x="650.000000" y="438.464577" fill="rgb(0, 100, 0)" style="fill-opacity:0.03" />
<!-- End 'T' -->
<!-- Begin 'C' -->
<ellipse cx="715.000000" cy="24.828861" rx="25.000000" ry="14.828861" fill="rgb(0, 0, 128)" style="fill-opacity:0.02" />
<ellipse cx="715.000000" cy="24.828861" rx="16.666667" ry="9.885907" fill="rgb(255, 255, 255)" style="fill-opacity:1.00" />
<rect height="14.828861" width="25.000000" x="715.000000" y="17.414430" fill="rgb(255, 255, 255)" style="fill-opacity:1.00" />
<!-- End 'C' -->
<!-- Begin 'G' -->
<ellipse cx="715.000000" cy="53.532216" rx="25.000000" ry="13.874494" fill="rgb(255, 165, 0)" style="fill-opacity:0.02" />
<ellipse cx="715.000000" cy="53.532216" rx="16.666667" ry="9.249663" fill="rgb(255, 255, 255)" style="fill-opacity:1.00" />
<rect height="13.874494" width="25.000000" x="715.000000" y="46.594969" fill="rgb(255, 255, 255)" style="fill-opacity:1.00" />
<rect height="3.468624" width="25.000000" x="715.000000" y="57.000840" fill="rgb(255, 165, 0)" style="fill-opacity:0.02" />
<rect height="10.405871" width="6.250000" x="733.750000" y="57.000840" fill="rgb(255, 165, 0)" style="fill-opacity:0.02" />
<!-- End 'G' -->
<!-- Begin 'T' -->
<rect height="3.684397" width="50.000000" x="690.000000" y="67.406710" fill="rgb(0, 100, 0)" style="fill-opacity:0.02" />
<rect height="23.027479" width="10.000000" x="710.000000" y="67.406710" fill="rgb(0, 100, 0)" style="fill-opacity:0.02" />
<!-- End 'T' -->
<!-- Begin 'A' -->
<polygon points=" 690.000000, 110.000000, 711.000000, 90.434190, 719.000000, 90.434190, 740.000000, 110.000000, 732.500000, 110.000000, 726.250000, 105.108547, 703.750000, 105.108547, 697.500000, 110.000000" fill="rgb(178, 34, 34)" style="fill-opacity:0.02" />
<polygon points=" 715.000000, 94.347352, 707.000000, 101.173676, 722.000000, 101.173676" fill="rgb(255, 255, 255)" style="fill-opacity:1.00" />
<!-- End 'A' -->
<!-- Begin 'T' -->
<rect height="7.254323" width="50.000000" x="690.000000" y="120.000000" fill="rgb(0, 100, 0)" style="fill-opacity:0.24" />
<rect height="45.339521" width="10.000000" x="710.000000" y="120.000000" fill="rgb(0, 100, 0)" style="fill-opacity:0.24" />
<!-- End 'T' -->
<!-- Begin 'C' -->
<ellipse cx="715.000000" cy="185.462957" rx="25.000000" ry="20.123436" fill="rgb(0, 0, 128)" style="fill-opacity:0.24" />
<ellipse cx="715.000000" cy="185.462957" rx="16.666667" ry="13.415624" fill="rgb(255, 255, 255)" style="fill-opacity:1.00" />
<rect height="20.123436" width="25.000000" x="715.000000" y="175.401239" fill="rgb(255, 255, 255)" style="fill-opacity:1.00" />
<!-- End 'C' -->
<!-- Begin 'A' -->
<polygon points=" 690.000000, 216.707828, 711.000000, 205.586393, 719.000000, 205.586393, 740.000000, 216.707828, 732.500000, 216.707828, 726.250000, 213.927469, 703.750000, 213.927469, 697.500000, 216.707828" fill="rgb(178, 34, 34)" style="fill-opacity:0.24" />
<polygon points=" 715.000000, 207.810680, 707.000000, 211.259254, 722.000000, 211.259254" fill="rgb(255, 255, 255)" style="fill-opacity:1.00" />
<!-- End 'A' -->
<!-- Begin 'G' -->
<ellipse cx="715.000000" cy="218.353914" rx="25.000000" ry="1.646086" fill="rgb(255, 165, 0)" style="fill-opacity:0.24" />
<ellipse cx="715.000000" cy="218.353914" rx="16.666667" ry="1.097391" fill="rgb(255, 255, 255)" style="fill-opacity:1.00" />
<rect height="1.646086" width="25.000000" x="715.000000" y="217.530871" fill="rgb(255, 255, 255)" style="fill-opacity:1.00" />
<rect height="0.411521" width="25.000000" x="715.000000" y="218.765436" fill="rgb(255, 165, 0)" style="fill-opacity:0.24" />
<rect height="1.234564" width="6.250000" x="733.750000" y="218.765436" fill="rgb(255, 165, 0)" style="fill-opacity:0.24" />
<!-- End 'G' -->
<!-- Begin 'C' -->
<ellipse cx="715.000000" cy="247.179048" rx="25.000000" ry="17.179048" fill="rgb(0, 0, 128)" style="fill-opacity:0.47" />
<ellipse cx="715.000000" cy="247.179048" rx="16.666667" ry="11.452699" fill="rgb(255, 255, 255)" style="fill-opacity:1.00" />
<rect height="17.179048" width="25.000000" x="715.000000" y="238.589524" fill="rgb(255, 255, 255)" style="fill-opacity:1.00" />
<!-- End 'C' -->
<!-- Begin 'T' -->
<rect height="4.216610" width="50.000000" x="690.000000" y="264.358097" fill="rgb(0, 100, 0)" style="fill-opacity:0.47" />
<rect height="26.353813" width="10.000000" x="710.000000" y="264.358097" fill="rgb(0, 100, 0)" style="fill-opacity:0.47" />
<!-- End 'T' -->
<!-- Begin 'G' -->
<ellipse cx="715.000000" cy="301.508633" rx="25.000000" ry="10.796723" fill="rgb(255, 165, 0)" style="fill-opacity:0.47" />
<ellipse cx="715.000000" cy="301.508633" rx="16.666667" ry="7.197816" fill="rgb(255, 255, 255)" style="fill-opacity:1.00" />
<rect height="10.796723" width="25.000000" x="715.000000" y="296.110272" fill="rgb(255, 255, 255)" style="fill-opacity:1.00" />
<rect height="2.699181" width="25.000000" x="715.000000" y="304.207814" fill="rgb(255, 165, 0)" style="fill-opacity:0.47" />
<rect height="8.097543" width="6.250000" x="733.750000" y="304.207814" fill="rgb(255, 165, 0)" style="fill-opacity:0.47" />
<!-- End 'G' -->
<!-- Begin 'A' -->
<polygon points=" 690.000000, 330.000000, 711.000000, 312.305357, 719.000000, 312.305357, 740.000000, 330.000000, 732.500000, 330.000000, 726.250000, 325.576339, 703.750000, 325.576339, 697.500000, 330.000000" fill="rgb(178, 34, 34)" style="fill-opacity:0.47" />
<polygon points=" 715.000000, 315.844285, 707.000000, 321.922143, 722.000000, 321.922143" fill="rgb(255, 255, 255)" style="fill-opacity:1.00" />
<!-- End 'A' -->
<!-- Begin 'C' -->
<ellipse cx="715.000000" cy="360.596053" rx="25.000000" ry="20.596053" fill="rgb(0, 0, 128)" style="fill-opacity:0.27" />
<ellipse cx="715.000000" cy="360.596053" rx="16.666667" ry="13.730702" fill="rgb(255, 255, 255)" style="fill-opacity:1.00" />
<rect height="20.596053" width="25.000000" x="715.000000" y="350.298026" fill="rgb(255, 255, 255)" style="fill-opacity:1.00" />
<!-- End 'C' -->
<!-- Begin 'T' -->
<rect height="5.351010" width="50.000000" x="690.000000" y="381.192106" fill="rgb(0, 100, 0)" style="fill-opacity:0.27" />
<rect height="33.443813" width="10.000000" x="710.000000" y="381.192106" fill="rgb(0, 100, 0)" style="fill-opacity:0.27" />
<!-- End 'T' -->
<!-- Begin 'G' -->
<ellipse cx="715.000000" cy="425.005016" rx="25.000000" ry="10.369097" fill="rgb(255, 165, 0)" style="fill-opacity:0.27" />
<ellipse cx="715.000000" cy="425.005016" rx="16.666667" ry="6.912731" fill="rgb(255, 255, 255)" style="fill-opacity:1.00" />
<rect height="10.369097" width="25.000000" x="715.000000" y="419.820467" fill="rgb(255, 255, 255)" style="fill-opacity:1.00" />
<rect height="2.592274" width="25.000000" x="715.000000" y="427.597290" fill="rgb(255, 165, 0)" style="fill-opacity:0.27" />
<rect height="7.776822" width="6.250000" x="733.750000" y="427.597290" fill="rgb(255, 165, 0)" style="fill-opacity:0.27" />
<!-- End 'G' -->
<!-- Begin 'A' -->
<polygon points=" 690.000000, 440.000000, 711.000000, 435.374112, 719.000000, 435.374112, 740.000000, 440.000000, 732.500000, 440.000000, 726.250000, 438.843528, 703.750000, 438.843528, 697.500000, 440.000000" fill="rgb(178, 34, 34)" style="fill-opacity:0.27" />
<!-- End 'A' -->
<!-- Begin 'G' -->
<ellipse cx="775.000000" cy="29.921669" rx="25.000000" ry="19.921669" fill="rgb(255, 165, 0)" style="fill-opacity:0.13" />
<ellipse cx="775.000000" cy="29.921669" rx="16.666667" ry="13.281113" fill="rgb(255, 255, 255)" style="fill-opacity:1.00" />
<rect height="19.921669" width="25.000000" x="775.000000" y="19.960835" fill="rgb(255, 255, 255)" style="fill-opacity:1.00" />
<rect height="4.980417" width="25.000000" x="775.000000" y="34.902087" fill="rgb(255, 165, 0)" style="fill-opacity:0.13" />
<rect height="14.941252" width="6.250000" x="793.750000" y="34.902087" fill="rgb(255, 165, 0)" style="fill-opacity:0.13" />
<!-- End 'G' -->
<!-- Begin 'C' -->
<ellipse cx="775.000000" cy="62.260581" rx="25.000000" ry="12.417242" fill="rgb(0, 0, 128)" style="fill-opacity:0.13" />
<ellipse cx="775.000000" cy="62.260581" rx="16.666667" ry="8.278161" fill="rgb(255, 255, 255)" style="fill-opacity:1.00" />
<rect height="12.417242" width="25.000000" x="775.000000" y="56.051960" fill="rgb(255, 255, 255)" style="fill-opacity:1.00" />
<!-- End 'C' -->
<!-- Begin 'A' -->
<polygon points=" 750.000000, 92.527828, 771.000000, 74.677823, 779.000000, 74.677823, 800.000000, 92.527828, 792.500000, 92.527828, 786.250000, 88.065327, 763.750000, 88.065327, 757.500000, 92.527828" fill="rgb(178, 34, 34)" style="fill-opacity:0.13" />
<polygon points=" 775.000000, 78.247824, 767.000000, 84.387826, 782.000000, 84.387826" fill="rgb(255, 255, 255)" style="fill-opacity:1.00" />
<!-- End 'A' -->
<!-- Begin 'T' -->
<rect height="2.795547" width="50.000000" x="750.000000" y="92.527828" fill="rgb(0, 100, 0)" style="fill-opacity:0.13" />
<rect height="17.472172" width="10.000000" x="770.000000" y="92.527828" fill="rgb(0, 100, 0)" style="fill-opacity:0.13" />
<!-- End 'T' -->
<!-- Begin 'A' -->
<polygon points=" 750.000000, 160.729749, 771.000000, 120.000000, 779.000000, 120.000000, 800.000000, 160.729749, 792.500000, 160.729749, 786.250000, 150.547312, 763.750000, 150.547312, 757.500000, 160.729749" fill="rgb(178, 34, 34)" style="fill-opacity:0.38" />
<polygon points=" 775.000000, 128.145950, 767.000000, 143.437849, 782.000000, 143.437849" fill="rgb(255, 255, 255)" style="fill-opacity:1.00" />
<!-- End 'A' -->
<!-- Begin 'T' -->
<rect height="4.541760" width="50.000000" x="750.000000" y="160.729749" fill="rgb(0, 100, 0)" style="fill-opacity:0.38" />
<rect height="28.386001" width="10.000000" x="770.000000" y="160.729749" fill="rgb(0, 100, 0)" style="fill-opacity:0.38" />
<!-- End 'T' -->
<!-- Begin 'C' -->
<ellipse cx="775.000000" cy="200.699934" rx="25.000000" ry="11.584184" fill="rgb(0, 0, 128)" style="fill-opacity:0.38" />
<ellipse cx="775.000000" cy="200.699934" rx="16.666667" ry="7.722790" fill="rgb(255, 255, 255)" style="fill-opacity:1.00" />
<rect height="11.584184" width="25.000000" x="775.000000" y="194.907842" fill="rgb(255, 255, 255)" style="fill-opacity:1.00" />
<!-- End 'C' -->
<!-- Begin 'G' -->
<ellipse cx="775.000000" cy="216.142059" rx="25.000000" ry="3.857941" fill="rgb(255, 165, 0)" style="fill-opacity:0.38" />
<ellipse cx="775.000000" cy="216.142059" rx="16.666667" ry="2.571960" fill="rgb(255, 255, 255)" style="fill-opacity:1.00" />
<rect height="3.857941" width="25.000000" x="775.000000" y="214.213089" fill="rgb(255, 255, 255)" style="fill-opacity:1.00" />
<rect height="0.964485" width="25.000000" x="775.000000" y="217.106544" fill="rgb(255, 165, 0)" style="fill-opacity:0.38" />
<rect height="2.893456" width="6.250000" x="793.750000" y="217.106544" fill="rgb(255, 165, 0)" style="fill-opacity:0.38" />
<!-- End 'G' -->
<!-- Begin 'C' -->
<ellipse cx="775.000000" cy="245.813116" rx="25.000000" ry="15.813116" fill="rgb(0, 0, 128)" style="fill-opacity:0.17" />
<ellipse cx="775.000000" cy="245.813116" rx="16.666667" ry="10.542078" fill="rgb(255, 255, 255)" style="fill-opacity:1.00" />
<rect height="15.813116" width="25.000000" x="775.000000" y="237.906558" fill="rgb(255, 255, 255)" style="fill-opacity:1.00" />
<!-- End 'C' -->
<!-- Begin 'A' -->
<polygon points=" 750.000000, 289.621629, 771.000000, 261.626233, 779.000000, 261.626233, 800.000000, 289.621629, 792.500000, 289.621629, 786.250000, 282.622780, 763.750000, 282.622780, 757.500000, 289.621629" fill="rgb(178, 34, 34)" style="fill-opacity:0.17" />
<polygon points=" 775.000000, 267.225312, 767.000000, 277.423470, 782.000000, 277.423470" fill="rgb(255, 255, 255)" style="fill-opacity:1.00" />
<!-- End 'A' -->
<!-- Begin 'G' -->
<ellipse cx="775.000000" cy="302.013911" rx="25.000000" ry="12.392283" fill="rgb(255, 165, 0)" style="fill-opacity:0.17" />
<ellipse cx="775.000000" cy="302.013911" rx="16.666667" ry="8.261522" fill="rgb(255, 255, 255)" style="fill-opacity:1.00" />
<rect height="12.392283" width="25.000000" x="775.000000" y="295.817770" fill="rgb(255, 255, 255)" style="fill-opacity:1.00" />
<rect height="3.098071" width="25.000000" x="775.000000" y="305.111982" fill="rgb(255, 165, 0)" style="fill-opacity:0.17" />
<rect height="9.294212" width="6.250000" x="793.750000" y="305.111982" fill="rgb(255, 165, 0)" style="fill-opacity:0.17" />
<!-- End 'G' -->
<!-- Begin 'T' -->
<rect height="2.495009" width="50.000000" x="750.000000" y="314.406194" fill="rgb(0, 100, 0)" style="fill-opacity:0.17" />
<rect height="15.593806" width="10.000000" x="770.000000" y="314.406194" fill="rgb(0, 100, 0)" style="fill-opacity:0.17" />
<!-- End 'T' -->
<!-- Begin 'G' -->
<ellipse cx="775.000000" cy="359.358598" rx="25.000000" ry="19.358598" fill="rgb(255, 165, 0)" style="fill-opacity:0.33" />
<ellipse cx="775.000000" cy="359.358598" rx="16.666667" ry="12.905732" fill="rgb(255, 255, 255)" style="fill-opacity:1.00" />
<rect height="19.358598" width="25.000000" x="775.000000" y="349.679299" fill="rgb(255, 255, 255)" style="fill-opacity:1.00" />
<rect height="4.839650" width="25.000000" x="775.000000" y="364.198248" fill="rgb(255, 165, 0)" style="fill-opacity:0.33" />
<rect height="14.518949" width="6.250000" x="793.750000" y="364.198248" fill="rgb(255, 165, 0)" style="fill-opacity:0.33" />
<!-- End 'G' -->
<!-- Begin 'C' -->
<ellipse cx="775.000000" cy="393.317737" rx="25.000000" ry="14.600541" fill="rgb(0, 0, 128)" style="fill-opacity:0.33" />
<ellipse cx="775.000000" cy="393.317737" rx="16.666667" ry="9.733694" fill="rgb(255, 255, 255)" style="fill-opacity:1.00" />
<rect height="14.600541" width="25.000000" x="775.000000" y="386.017466" fill="rgb(255, 255, 255)" style="fill-opacity:1.00" />
<!-- End 'C' -->
<!-- Begin 'T' -->
<rect height="2.675383" width="50.000000" x="750.000000" y="407.918277" fill="rgb(0, 100, 0)" style="fill-opacity:0.33" />
<rect height="16.721144" width="10.000000" x="770.000000" y="407.918277" fill="rgb(0, 100, 0)" style="fill-opacity:0.33" />
<!-- End 'T' -->
<!-- Begin 'A' -->
<polygon points=" 750.000000, 440.000000, 771.000000, 424.639421, 779.000000, 424.639421, 800.000000, 440.000000, 792.500000, 440.000000, 786.250000, 436.159855, 763.750000, 436.159855, 757.500000, 440.000000" fill="rgb(178, 34, 34)" style="fill-opacity:0.33" />
<polygon points=" 775.000000, 427.711537, 767.000000, 432.855768, 782.000000, 432.855768" fill="rgb(255, 255, 255)" style="fill-opacity:1.00" />
<!-- End 'A' -->
<!-- Begin 'G' -->
<ellipse cx="835.000000" cy="28.551644" rx="25.000000" ry="18.551644" fill="rgb(255, 165, 0)" style="fill-opacity:0.27" />
<ellipse cx="835.000000" cy="28.551644" rx="16.666667" ry="12.367762" fill="rgb(255, 255, 255)" style="fill-opacity:1.00" />
<rect height="18.551644" width="25.000000" x="835.000000" y="19.275822" fill="rgb(255, 255, 255)" style="fill-opacity:1.00" />
<rect height="4.637911" width="25.000000" x="835.000000" y="33.189554" fill="rgb(255, 165, 0)" style="fill-opacity:0.27" />
<rect height="13.913733" width="6.250000" x="853.750000" y="33.189554" fill="rgb(255, 165, 0)" style="fill-opacity:0.27" />
<!-- End 'G' -->
<!-- Begin 'C' -->
<ellipse cx="835.000000" cy="61.018978" rx="25.000000" ry="13.915691" fill="rgb(0, 0, 128)" style="fill-opacity:0.27" />
<ellipse cx="835.000000" cy="61.018978" rx="16.666667" ry="9.277127" fill="rgb(255, 255, 255)" style="fill-opacity:1.00" />
<rect height="13.915691" width="25.000000" x="835.000000" y="54.061133" fill="rgb(255, 255, 255)" style="fill-opacity:1.00" />
<!-- End 'C' -->
<!-- Begin 'T' -->
<rect height="2.951050" width="50.000000" x="810.000000" y="74.934669" fill="rgb(0, 100, 0)" style="fill-opacity:0.27" />
<rect height="18.444062" width="10.000000" x="830.000000" y="74.934669" fill="rgb(0, 100, 0)" style="fill-opacity:0.27" />
<!-- End 'T' -->
<!-- Begin 'A' -->
<polygon points=" 810.000000, 110.000000, 831.000000, 93.378731, 839.000000, 93.378731, 860.000000, 110.000000, 852.500000, 110.000000, 846.250000, 105.844683, 823.750000, 105.844683, 817.500000, 110.000000" fill="rgb(178, 34, 34)" style="fill-opacity:0.27" />
<polygon points=" 835.000000, 96.702985, 827.000000, 102.351492, 842.000000, 102.351492" fill="rgb(255, 255, 255)" style="fill-opacity:1.00" />
<!-- End 'A' -->
<!-- Begin 'C' -->
<ellipse cx="835.000000" cy="136.811892" rx="25.000000" ry="16.811892" fill="rgb(0, 0, 128)" style="fill-opacity:0.27" />
<ellipse cx="835.000000" cy="136.811892" rx="16.666667" ry="11.207928" fill="rgb(255, 255, 255)" style="fill-opacity:1.00" />
<rect height="16.811892" width="25.000000" x="835.000000" y="128.405946" fill="rgb(255, 255, 255)" style="fill-opacity:1.00" />
<!-- End 'C' -->
<!-- Begin 'A' -->
<polygon points=" 810.000000, 184.682142, 831.000000, 153.623783, 839.000000, 153.623783, 860.000000, 184.682142, 852.500000, 184.682142, 846.250000, 176.917553, 823.750000, 176.917553, 817.500000, 184.682142" fill="rgb(178, 34, 34)" style="fill-opacity:0.27" />
<polygon points=" 835.000000, 159.835455, 827.000000, 171.258799, 842.000000, 171.258799" fill="rgb(255, 255, 255)" style="fill-opacity:1.00" />
<!-- End 'A' -->
<!-- Begin 'T' -->
<rect height="4.644660" width="50.000000" x="810.000000" y="184.682142" fill="rgb(0, 100, 0)" style="fill-opacity:0.27" />
<rect height="29.029126" width="10.000000" x="830.000000" y="184.682142" fill="rgb(0, 100, 0)" style="fill-opacity:0.27" />
<!-- End 'T' -->
<!-- Begin 'G' -->
<ellipse cx="835.000000" cy="216.855634" rx="25.000000" ry="3.144366" fill="rgb(255, 165, 0)" style="fill-opacity:0.27" />
<ellipse cx="835.000000" cy="216.855634" rx="16.666667" ry="2.096244" fill="rgb(255, 255, 255)" style="fill-opacity:1.00" />
<rect height="3.144366" width="25.000000" x="835.000000" y="215.283451" fill="rgb(255, 255, 255)" style="fill-opacity:1.00" />
<rect height="0.786092" width="25.000000" x="835.000000" y="217.641725" fill="rgb(255, 165, 0)" style="fill-opacity:0.27" />
<rect height="2.358275" width="6.250000" x="853.750000" y="217.641725" fill="rgb(255, 165, 0)" style="fill-opacity:0.27" />
<!-- End 'G' -->
<!-- Begin 'C' -->
<ellipse cx="835.000000" cy="246.033185" rx="25.000000" ry="16.033185" fill="rgb(0, 0, 128)" style="fill-opacity:0.25" />
<ellipse cx="835.000000" cy="246.033185" rx="16.666667" ry="10.688790" fill="rgb(255, 255, 255)" style="fill-opacity:1.00" />
<rect height="16.033185" width="25.000000" x="835.000000" y="238.016593" fill="rgb(255, 255, 255)" style="fill-opacity:1.00" />
<!-- End 'C' -->
<!-- Begin 'G' -->
<ellipse cx="835.000000" cy="275.728236" rx="25.000000" ry="13.661866" fill="rgb(255, 165, 0)" style="fill-opacity:0.25" />
<ellipse cx="835.000000" cy="275.728236" rx="16.666667" ry="9.107911" fill="rgb(255, 255, 255)" style="fill-opacity:1.00" />
<rect height="13.661866" width="25.000000" x="835.000000" y="268.897303" fill="rgb(255, 255, 255)" style="fill-opacity:1.00" />
<rect height="3.415467" width="25.000000" x="835.000000" y="279.143703" fill="rgb(255, 165, 0)" style="fill-opacity:0.25" />
<rect height="10.246400" width="6.250000" x="853.750000" y="279.143703" fill="rgb(255, 165, 0)" style="fill-opacity:0.25" />
<!-- End 'G' -->
<!-- Begin 'T' -->
<rect height="3.526440" width="50.000000" x="810.000000" y="289.390103" fill="rgb(0, 100, 0)" style="fill-opacity:0.25" />
<rect height="22.040252" width="10.000000" x="830.000000" y="289.390103" fill="rgb(0, 100, 0)" style="fill-opacity:0.25" />
<!-- End 'T' -->
<!-- Begin 'A' -->
<polygon points=" 810.000000, 330.000000, 831.000000, 311.430354, 839.000000, 311.430354, 860.000000, 330.000000, 852.500000, 330.000000, 846.250000, 325.357589, 823.750000, 325.357589, 817.500000, 330.000000" fill="rgb(178, 34, 34)" style="fill-opacity:0.25" />
<polygon points=" 835.000000, 315.144284, 827.000000, 321.572142, 842.000000, 321.572142" fill="rgb(255, 255, 255)" style="fill-opacity:1.00" />
<!-- End 'A' -->
<!-- Begin 'G' -->
<ellipse cx="835.000000" cy="358.188328" rx="25.000000" ry="18.188328" fill="rgb(255, 165, 0)" style="fill-opacity:0.21" />
<ellipse cx="835.000000" cy="358.188328" rx="16.666667" ry="12.125552" fill="rgb(255, 255, 255)" style="fill-opacity:1.00" />
<rect height="18.188328" width="25.000000" x="835.000000" y="349.094164" fill="rgb(255, 255, 255)" style="fill-opacity:1.00" />
<rect height="4.547082" width="25.000000" x="835.000000" y="362.735410" fill="rgb(255, 165, 0)" style="fill-opacity:0.21" />
<rect height="13.641246" width="6.250000" x="853.750000" y="362.735410" fill="rgb(255, 165, 0)" style="fill-opacity:0.21" />
<!-- End 'G' -->
<!-- Begin 'C' -->
<ellipse cx="835.000000" cy="390.815338" rx="25.000000" ry="14.438681" fill="rgb(0, 0, 128)" style="fill-opacity:0.21" />
<ellipse cx="835.000000" cy="390.815338" rx="16.666667" ry="9.625787" fill="rgb(255, 255, 255)" style="fill-opacity:1.00" />
<rect height="14.438681" width="25.000000" x="835.000000" y="383.595997" fill="rgb(255, 255, 255)" style="fill-opacity:1.00" />
<!-- End 'C' -->
<!-- Begin 'T' -->
<rect height="3.324080" width="50.000000" x="810.000000" y="405.254019" fill="rgb(0, 100, 0)" style="fill-opacity:0.21" />
<rect height="20.775500" width="10.000000" x="830.000000" y="405.254019" fill="rgb(0, 100, 0)" style="fill-opacity:0.21" />
<!-- End 'T' -->
<!-- Begin 'A' -->
<polygon points=" 810.000000, 440.000000, 831.000000, 426.029519, 839.000000, 426.029519, 860.000000, 440.000000, 852.500000, 440.000000, 846.250000, 436.507380, 823.750000, 436.507380, 817.500000, 440.000000" fill="rgb(178, 34, 34)" style="fill-opacity:0.21" />
<polygon points=" 835.000000, 428.823615, 827.000000, 433.411808, 842.000000, 433.411808" fill="rgb(255, 255, 255)" style="fill-opacity:1.00" />
<!-- End 'A' -->
<text x="460.000000" y="495">
IC = 9.12
</text>

</svg>
