<?xml version="1.0" encoding="UTF-8" standalone="yes"?>
                 <!DOCTYPE svg PUBLIC "-//W3C//DTD SVG 1.0//EN" "http://www.w3.org/TR/2001/REC-SVG-20010904/DTD/svg10.dtd">
                 <svg height="500" width="900" xmlns="http://www.w3.org/2000/svg" xmlns:xlink="http://www.w3.org/1999/xlink">
                 <line x1="85" y1="450" x2="867" y2="450" style="stroke:rgb(99,99,99);stroke-width:2" />
<rect height="7.000000" width="2.000000" x="85.000000" y="450.000000" fill="rgb(0, 0, 0)" style="fill-opacity:1.00" />
<text x="107.000000" y="470">
1
</text>
<rect height="7.000000" width="2.000000" x="145.000000" y="450.000000" fill="rgb(0, 0, 0)" style="fill-opacity:1.00" />
<text x="167.000000" y="470">
2
</text>
<rect height="7.000000" width="2.000000" x="205.000000" y="450.000000" fill="rgb(0, 0, 0)" style="fill-opacity:1.00" />
<text x="227.000000" y="470">
3
</text>
<rect height="7.000000" width="2.000000" x="265.000000" y="450.000000" fill="rgb(0, 0, 0)" style="fill-opacity:1.00" />
<text x="287.000000" y="470">
4
</text>
<rect height="7.000000" width="2.000000" x="325.000000" y="450.000000" fill="rgb(0, 0, 0)" style="fill-opacity:1.00" />
<text x="347.000000" y="470">
5
</text>
<rect height="7.000000" width="2.000000" x="385.000000" y="450.000000" fill="rgb(0, 0, 0)" style="fill-opacity:1.00" />
<text x="407.000000" y="470">
6
</text>
<rect height="7.000000" width="2.000000" x="445.000000" y="450.000000" fill="rgb(0, 0, 0)" style="fill-opacity:1.00" />
<text x="467.000000" y="470">
7
</text>
<rect height="7.000000" width="2.000000" x="505.000000" y="450.000000" fill="rgb(0, 0, 0)" style="fill-opacity:1.00" />
<text x="527.000000" y="470">
8
</text>
<rect height="7.000000" width="2.000000" x="565.000000" y="450.000000" fill="rgb(0, 0, 0)" style="fill-opacity:1.00" />
<text x="587.000000" y="470">
9
</text>
<rect height="7.000000" width="2.000000" x="625.000000" y="450.000000" fill="rgb(0, 0, 0)" style="fill-opacity:1.00" />
<text x="647.000000" y="470">
10
</text>
<rect height="7.000000" width="2.000000" x="685.000000" y="450.000000" fill="rgb(0, 0, 0)" style="fill-opacity:1.00" />
<text x="707.000000" y="470">
11
</text>
<rect height="7.000000" width="2.000000" x="745.000000" y="450.000000" fill="rgb(0, 0, 0)" style="fill-opacity:1.00" />
<text x="767.000000" y="470">
12
</text>
<rect height="7.000000" width="2.000000" x="805.000000" y="450.000000" fill="rgb(0, 0, 0)" style="fill-opacity:1.00" />
<text x="827.000000" y="470">
13
</text>
<rect height="7.000000" width="2.000000" x="865.000000" y="450.000000" fill="rgb(0, 0, 0)" style="fill-opacity:1.00" />
<!-- Begin 'A' -->
<polygon points=" 10.000000, 110.000000, 35.200000, 10.000000, 44.800000, 10.000000, 70.000000, 110.000000, 61.000000, 110.000000, 53.500000, 85.000000, 26.500000, 85.000000, 19.000000, 110.000000" fill="rgb(178, 34, 34)" style="fill-opacity:1.00" />
<polygon points=" 40.000000, 30.000000, 30.400000, 69.000000, 48.400000, 69.000000" fill="rgb(255, 255, 255)" style="fill-opacity:1.00" />
<!-- End 'A' -->
<!-- Begin 'C' -->
<ellipse cx="40.000000" cy="170.000000" rx="30.000000" ry="50.000000" fill="rgb(0, 0, 128)" style="fill-opacity:1.00" />
<ellipse cx="40.000000" cy="170.000000" rx="20.000000" ry="33.333333" fill="rgb(255, 255, 255)" style="fill-opacity:1.00" />
<rect height="50.000000" width="30.000000" x="40.000000" y="145.000000" fill="rgb(255, 255, 255)" style="fill-opacity:1.00" />
<!-- End 'C' -->
<!-- Begin 'G' -->
<ellipse cx="40.000000" cy="280.000000" rx="30.000000" ry="50.000000" fill="rgb(255, 165, 0)" style="fill-opacity:1.00" />
<ellipse cx="40.000000" cy="280.000000" rx="20.000000" ry="33.333333" fill="rgb(255, 255, 255)" style="fill-opacity:1.00" />
<rect height="50.000000" width="30.000000" x="40.000000" y="255.000000" fill="rgb(255, 255, 255)" style="fill-opacity:1.00" />
<rect height="12.500000" width="30.000000" x="40.000000" y="292.500000" fill="rgb(255, 165, 0)" style="fill-opacity:1.00" />
<rect height="37.500000" width="7.500000" x="62.500000" y="292.500000" fill="rgb(255, 165, 0)" style="fill-opacity:1.00" />
<!-- End 'G' -->
<!-- Begin 'T' -->
<rect height="16.000000" width="60.000000" x="10.000000" y="340.000000" fill="rgb(0, 100, 0)" style="fill-opacity:1.00" />
<rect height="100.000000" width="12.000000" x="34.000000" y="340.000000" fill="rgb(0, 100, 0)" style="fill-opacity:1.00" />
<!-- End 'T' -->
<!-- Begin 'A' -->
<polygon points=" 90.000000, 54.605292, 111.000000, 10.000000, 119.000000, 10.000000, 140.000000, 54.605292, 132.500000, 54.605292, 126.250000, 43.453969, 103.750000, 43.453969, 97.500000, 54.605292" fill="rgb(178, 34, 34)" style="fill-opacity:0.33" />
<polygon points=" 115.000000, 18.921058, 107.000000, 35.763175, 122.000000, 35.763175" fill="rgb(255, 255, 255)" style="fill-opacity:1.00" />
<!-- End 'A' -->
<!-- Begin 'T' -->
<rect height="3.978759" width="50.000000" x="90.000000" y="54.605292" fill="rgb(0, 100, 0)" style="fill-opacity:0.33" />
<rect height="24.867243" width="10.000000" x="110.000000" y="54.605292" fill="rgb(0, 100, 0)" style="fill-opacity:0.33" />
<!-- End 'T' -->
<!-- Begin 'C' -->
<ellipse cx="115.000000" cy="87.504265" rx="25.000000" ry="8.031730" fill="rgb(0, 0, 128)" style="fill-opacity:0.33" />
<ellipse cx="115.000000" cy="87.504265" rx="16.666667" ry="5.354487" fill="rgb(255, 255, 255)" style="fill-opacity:1.00" />
<rect height="8.031730" width="25.000000" x="115.000000" y="83.488400" fill="rgb(255, 255, 255)" style="fill-opacity:1.00" />
<!-- End 'C' -->
<!-- Begin 'G' -->
<ellipse cx="115.000000" cy="102.767997" rx="25.000000" ry="7.232003" fill="rgb(255, 165, 0)" style="fill-opacity:0.33" />
<ellipse cx="115.000000" cy="102.767997" rx="16.666667" ry="4.821335" fill="rgb(255, 255, 255)" style="fill-opacity:1.00" />
<rect height="7.232003" width="25.000000" x="115.000000" y="99.151996" fill="rgb(255, 255, 255)" style="fill-opacity:1.00" />
<rect height="1.808001" width="25.000000" x="115.000000" y="104.575998" fill="rgb(255, 165, 0)" style="fill-opacity:0.33" />
<rect height="5.424002" width="6.250000" x="133.750000" y="104.575998" fill="rgb(255, 165, 0)" style="fill-opacity:0.33" />
<!-- End 'G' -->
<!-- Begin 'A' -->
<polygon points=" 90.000000, 164.362347, 111.000000, 120.000000, 119.000000, 120.000000, 140.000000, 164.362347, 132.500000, 164.362347, 126.250000, 153.271760, 103.750000, 153.271760, 97.500000, 164.362347" fill="rgb(178, 34, 34)" style="fill-opacity:0.18" />
<polygon points=" 115.000000, 128.872469, 107.000000, 145.617408, 122.000000, 145.617408" fill="rgb(255, 255, 255)" style="fill-opacity:1.00" />
<!-- End 'A' -->
<!-- Begin 'T' -->
<rect height="4.377134" width="50.000000" x="90.000000" y="164.362347" fill="rgb(0, 100, 0)" style="fill-opacity:0.18" />
<rect height="27.357090" width="10.000000" x="110.000000" y="164.362347" fill="rgb(0, 100, 0)" style="fill-opacity:0.18" />
<!-- End 'T' -->
<!-- Begin 'C' -->
<ellipse cx="115.000000" cy="201.128059" rx="25.000000" ry="9.408623" fill="rgb(0, 0, 128)" style="fill-opacity:0.18" />
<ellipse cx="115.000000" cy="201.128059" rx="16.666667" ry="6.272415" fill="rgb(255, 255, 255)" style="fill-opacity:1.00" />
<rect height="9.408623" width="25.000000" x="115.000000" y="196.423748" fill="rgb(255, 255, 255)" style="fill-opacity:1.00" />
<!-- End 'C' -->
<!-- Begin 'G' -->
<ellipse cx="115.000000" cy="215.268341" rx="25.000000" ry="4.731659" fill="rgb(255, 165, 0)" style="fill-opacity:0.18" />
<ellipse cx="115.000000" cy="215.268341" rx="16.666667" ry="3.154439" fill="rgb(255, 255, 255)" style="fill-opacity:1.00" />
<rect height="4.731659" width="25.000000" x="115.000000" y="212.902511" fill="rgb(255, 255, 255)" style="fill-opacity:1.00" />
<rect height="1.182915" width="25.000000" x="115.000000" y="216.451256" fill="rgb(255, 165, 0)" style="fill-opacity:0.18" />
<rect height="3.548744" width="6.250000" x="133.750000" y="216.451256" fill="rgb(255, 165, 0)" style="fill-opacity:0.18" />
<!-- End 'G' -->
<!-- Begin 'A' -->
<polygon points=" 90.000000, 269.390772, 111.000000, 230.000000, 119.000000, 230.000000, 140.000000, 269.390772, 132.500000, 269.390772, 126.250000, 259.543079, 103.750000, 259.543079, 97.500000, 269.390772" fill="rgb(178, 34, 34)" style="fill-opacity:0.17" />
<polygon points=" 115.000000, 237.878154, 107.000000, 252.634463, 122.000000, 252.634463" fill="rgb(255, 255, 255)" style="fill-opacity:1.00" />
<!-- End 'A' -->
<!-- Begin 'T' -->
<rect height="4.635597" width="50.000000" x="90.000000" y="269.390772" fill="rgb(0, 100, 0)" style="fill-opacity:0.17" />
<rect height="28.972480" width="10.000000" x="110.000000" y="269.390772" fill="rgb(0, 100, 0)" style="fill-opacity:0.17" />
<!-- End 'T' -->
<!-- Begin 'C' -->
<ellipse cx="115.000000" cy="307.020478" rx="25.000000" ry="8.657226" fill="rgb(0, 0, 128)" style="fill-opacity:0.17" />
<ellipse cx="115.000000" cy="307.020478" rx="16.666667" ry="5.771484" fill="rgb(255, 255, 255)" style="fill-opacity:1.00" />
<rect height="8.657226" width="25.000000" x="115.000000" y="302.691865" fill="rgb(255, 255, 255)" style="fill-opacity:1.00" />
<!-- End 'C' -->
<!-- Begin 'G' -->
<ellipse cx="115.000000" cy="322.838852" rx="25.000000" ry="7.161148" fill="rgb(255, 165, 0)" style="fill-opacity:0.17" />
<ellipse cx="115.000000" cy="322.838852" rx="16.666667" ry="4.774099" fill="rgb(255, 255, 255)" style="fill-opacity:1.00" />
<rect height="7.161148" width="25.000000" x="115.000000" y="319.258278" fill="rgb(255, 255, 255)" style="fill-opacity:1.00" />
<rect height="1.790287" width="25.000000" x="115.000000" y="324.629139" fill="rgb(255, 165, 0)" style="fill-opacity:0.17" />
<rect height="5.370861" width="6.250000" x="133.750000" y="324.629139" fill="rgb(255, 165, 0)" style="fill-opacity:0.17" />
<!-- End 'G' -->
<!-- Begin 'T' -->
<rect height="5.518904" width="50.000000" x="90.000000" y="340.000000" fill="rgb(0, 100, 0)" style="fill-opacity:0.32" />
<rect height="34.493152" width="10.000000" x="110.000000" y="340.000000" fill="rgb(0, 100, 0)" style="fill-opacity:0.32" />
<!-- End 'T' -->
<!-- Begin 'A' -->
<polygon points=" 90.000000, 400.897176, 111.000000, 374.493152, 119.000000, 374.493152, 140.000000, 400.897176, 132.500000, 400.897176, 126.250000, 394.296170, 103.750000, 394.296170, 97.500000, 400.897176" fill="rgb(178, 34, 34)" style="fill-opacity:0.32" />
<polygon points=" 115.000000, 379.773957, 107.000000, 389.335566, 122.000000, 389.335566" fill="rgb(255, 255, 255)" style="fill-opacity:1.00" />
<!-- End 'A' -->
<!-- Begin 'C' -->
<ellipse cx="115.000000" cy="411.984702" rx="25.000000" ry="11.087526" fill="rgb(0, 0, 128)" style="fill-opacity:0.32" />
<ellipse cx="115.000000" cy="411.984702" rx="16.666667" ry="7.391684" fill="rgb(255, 255, 255)" style="fill-opacity:1.00" />
<rect height="11.087526" width="25.000000" x="115.000000" y="406.440939" fill="rgb(255, 255, 255)" style="fill-opacity:1.00" />
<!-- End 'C' -->
<!-- Begin 'G' -->
<ellipse cx="115.000000" cy="431.536114" rx="25.000000" ry="8.463886" fill="rgb(255, 165, 0)" style="fill-opacity:0.32" />
<ellipse cx="115.000000" cy="431.536114" rx="16.666667" ry="5.642591" fill="rgb(255, 255, 255)" style="fill-opacity:1.00" />
<rect height="8.463886" width="25.000000" x="115.000000" y="427.304171" fill="rgb(255, 255, 255)" style="fill-opacity:1.00" />
<rect height="2.115971" width="25.000000" x="115.000000" y="433.652086" fill="rgb(255, 165, 0)" style="fill-opacity:0.32" />
<rect height="6.347914" width="6.250000" x="133.750000" y="433.652086" fill="rgb(255, 165, 0)" style="fill-opacity:0.32" />
<!-- End 'G' -->
<!-- Begin 'A' -->
<polygon points=" 150.000000, 62.276819, 171.000000, 10.000000, 179.000000, 10.000000, 200.000000, 62.276819, 192.500000, 62.276819, 186.250000, 49.207614, 163.750000, 49.207614, 157.500000, 62.276819" fill="rgb(178, 34, 34)" style="fill-opacity:0.38" />
<polygon points=" 175.000000, 20.455364, 167.000000, 40.366092, 182.000000, 40.366092" fill="rgb(255, 255, 255)" style="fill-opacity:1.00" />
<!-- End 'A' -->
<!-- Begin 'T' -->
<rect height="3.360714" width="50.000000" x="150.000000" y="62.276819" fill="rgb(0, 100, 0)" style="fill-opacity:0.38" />
<rect height="21.004460" width="10.000000" x="170.000000" y="62.276819" fill="rgb(0, 100, 0)" style="fill-opacity:0.38" />
<!-- End 'T' -->
<!-- Begin 'G' -->
<ellipse cx="175.000000" cy="91.157956" rx="25.000000" ry="7.876677" fill="rgb(255, 165, 0)" style="fill-opacity:0.38" />
<ellipse cx="175.000000" cy="91.157956" rx="16.666667" ry="5.251118" fill="rgb(255, 255, 255)" style="fill-opacity:1.00" />
<rect height="7.876677" width="25.000000" x="175.000000" y="87.219618" fill="rgb(255, 255, 255)" style="fill-opacity:1.00" />
<rect height="1.969169" width="25.000000" x="175.000000" y="93.127126" fill="rgb(255, 165, 0)" style="fill-opacity:0.38" />
<rect height="5.907508" width="6.250000" x="193.750000" y="93.127126" fill="rgb(255, 165, 0)" style="fill-opacity:0.38" />
<!-- End 'G' -->
<!-- Begin 'C' -->
<ellipse cx="175.000000" cy="104.517317" rx="25.000000" ry="5.482683" fill="rgb(0, 0, 128)" style="fill-opacity:0.38" />
<ellipse cx="175.000000" cy="104.517317" rx="16.666667" ry="3.655122" fill="rgb(255, 255, 255)" style="fill-opacity:1.00" />
<rect height="5.482683" width="25.000000" x="175.000000" y="101.775975" fill="rgb(255, 255, 255)" style="fill-opacity:1.00" />
<!-- End 'C' -->
<!-- Begin 'A' -->
<polygon points=" 150.000000, 172.085770, 171.000000, 120.000000, 179.000000, 120.000000, 200.000000, 172.085770, 192.500000, 172.085770, 186.250000, 159.064328, 163.750000, 159.064328, 157.500000, 172.085770" fill="rgb(178, 34, 34)" style="fill-opacity:0.19" />
<polygon points=" 175.000000, 130.417154, 167.000000, 150.251462, 182.000000, 150.251462" fill="rgb(255, 255, 255)" style="fill-opacity:1.00" />
<!-- End 'A' -->
<!-- Begin 'T' -->
<rect height="3.804206" width="50.000000" x="150.000000" y="172.085770" fill="rgb(0, 100, 0)" style="fill-opacity:0.19" />
<rect height="23.776287" width="10.000000" x="170.000000" y="172.085770" fill="rgb(0, 100, 0)" style="fill-opacity:0.19" />
<!-- End 'T' -->
<!-- Begin 'G' -->
<ellipse cx="175.000000" cy="202.411458" rx="25.000000" ry="6.549400" fill="rgb(255, 165, 0)" style="fill-opacity:0.19" />
<ellipse cx="175.000000" cy="202.411458" rx="16.666667" ry="4.366267" fill="rgb(255, 255, 255)" style="fill-opacity:1.00" />
<rect height="6.549400" width="25.000000" x="175.000000" y="199.136757" fill="rgb(255, 255, 255)" style="fill-opacity:1.00" />
<rect height="1.637350" width="25.000000" x="175.000000" y="204.048808" fill="rgb(255, 165, 0)" style="fill-opacity:0.19" />
<rect height="4.912050" width="6.250000" x="193.750000" y="204.048808" fill="rgb(255, 165, 0)" style="fill-opacity:0.19" />
<!-- End 'G' -->
<!-- Begin 'C' -->
<ellipse cx="175.000000" cy="214.480429" rx="25.000000" ry="5.519571" fill="rgb(0, 0, 128)" style="fill-opacity:0.19" />
<ellipse cx="175.000000" cy="214.480429" rx="16.666667" ry="3.679714" fill="rgb(255, 255, 255)" style="fill-opacity:1.00" />
<rect height="5.519571" width="25.000000" x="175.000000" y="211.720644" fill="rgb(255, 255, 255)" style="fill-opacity:1.00" />
<!-- End 'C' -->
<!-- Begin 'A' -->
<polygon points=" 150.000000, 281.880872, 171.000000, 230.000000, 179.000000, 230.000000, 200.000000, 281.880872, 192.500000, 281.880872, 186.250000, 268.910654, 163.750000, 268.910654, 157.500000, 281.880872" fill="rgb(178, 34, 34)" style="fill-opacity:0.14" />
<polygon points=" 175.000000, 240.376174, 167.000000, 260.128523, 182.000000, 260.128523" fill="rgb(255, 255, 255)" style="fill-opacity:1.00" />
<!-- End 'A' -->
<!-- Begin 'T' -->
<rect height="3.924990" width="50.000000" x="150.000000" y="281.880872" fill="rgb(0, 100, 0)" style="fill-opacity:0.14" />
<rect height="24.531190" width="10.000000" x="170.000000" y="281.880872" fill="rgb(0, 100, 0)" style="fill-opacity:0.14" />
<!-- End 'T' -->
<!-- Begin 'G' -->
<ellipse cx="175.000000" cy="313.620595" rx="25.000000" ry="7.208533" fill="rgb(255, 165, 0)" style="fill-opacity:0.14" />
<ellipse cx="175.000000" cy="313.620595" rx="16.666667" ry="4.805689" fill="rgb(255, 255, 255)" style="fill-opacity:1.00" />
<rect height="7.208533" width="25.000000" x="175.000000" y="310.016329" fill="rgb(255, 255, 255)" style="fill-opacity:1.00" />
<rect height="1.802133" width="25.000000" x="175.000000" y="315.422728" fill="rgb(255, 165, 0)" style="fill-opacity:0.14" />
<rect height="5.406400" width="6.250000" x="193.750000" y="315.422728" fill="rgb(255, 165, 0)" style="fill-opacity:0.14" />
<!-- End 'G' -->
<!-- Begin 'C' -->
<ellipse cx="175.000000" cy="325.414564" rx="25.000000" ry="4.585436" fill="rgb(0, 0, 128)" style="fill-opacity:0.14" />
<ellipse cx="175.000000" cy="325.414564" rx="16.666667" ry="3.056957" fill="rgb(255, 255, 255)" style="fill-opacity:1.00" />
<rect height="4.585436" width="25.000000" x="175.000000" y="323.121846" fill="rgb(255, 255, 255)" style="fill-opacity:1.00" />
<!-- End 'C' -->
<!-- Begin 'T' -->
<rect height="5.671466" width="50.000000" x="150.000000" y="340.000000" fill="rgb(0, 100, 0)" style="fill-opacity:0.29" />
<rect height="35.446662" width="10.000000" x="170.000000" y="340.000000" fill="rgb(0, 100, 0)" style="fill-opacity:0.29" />
<!-- End 'T' -->
<!-- Begin 'A' -->
<polygon points=" 150.000000, 408.299852, 171.000000, 375.446662, 179.000000, 375.446662, 200.000000, 408.299852, 192.500000, 408.299852, 186.250000, 400.086555, 163.750000, 400.086555, 157.500000, 408.299852" fill="rgb(178, 34, 34)" style="fill-opacity:0.29" />
<polygon points=" 175.000000, 382.017300, 167.000000, 394.158576, 182.000000, 394.158576" fill="rgb(255, 255, 255)" style="fill-opacity:1.00" />
<!-- End 'A' -->
<!-- Begin 'G' -->
<ellipse cx="175.000000" cy="417.872720" rx="25.000000" ry="9.572867" fill="rgb(255, 165, 0)" style="fill-opacity:0.29" />
<ellipse cx="175.000000" cy="417.872720" rx="16.666667" ry="6.381912" fill="rgb(255, 255, 255)" style="fill-opacity:1.00" />
<rect height="9.572867" width="25.000000" x="175.000000" y="413.086286" fill="rgb(255, 255, 255)" style="fill-opacity:1.00" />
<rect height="2.393217" width="25.000000" x="175.000000" y="420.265936" fill="rgb(255, 165, 0)" style="fill-opacity:0.29" />
<rect height="7.179651" width="6.250000" x="193.750000" y="420.265936" fill="rgb(255, 165, 0)" style="fill-opacity:0.29" />
<!-- End 'G' -->
<!-- Begin 'C' -->
<ellipse cx="175.000000" cy="433.722794" rx="25.000000" ry="6.277206" fill="rgb(0, 0, 128)" style="fill-opacity:0.29" />
<ellipse cx="175.000000" cy="433.722794" rx="16.666667" ry="4.184804" fill="rgb(255, 255, 255)" style="fill-opacity:1.00" />
<rect height="6.277206" width="25.000000" x="175.000000" y="430.584190" fill="rgb(255, 255, 255)" style="fill-opacity:1.00" />
<!-- End 'C' -->
<!-- Begin 'A' -->
<polygon points=" 210.000000, 65.778411, 231.000000, 10.000000, 239.000000, 10.000000, 260.000000, 65.778411, 252.500000, 65.778411, 246.250000, 51.833809, 223.750000, 51.833809, 217.500000, 65.778411" fill="rgb(178, 34, 34)" style="fill-opacity:0.47" />
<polygon points=" 235.000000, 21.155682, 227.000000, 42.467047, 242.000000, 42.467047" fill="rgb(255, 255, 255)" style="fill-opacity:1.00" />
<!-- End 'A' -->
<!-- Begin 'T' -->
<rect height="3.389005" width="50.000000" x="210.000000" y="65.778411" fill="rgb(0, 100, 0)" style="fill-opacity:0.47" />
<rect height="21.181279" width="10.000000" x="230.000000" y="65.778411" fill="rgb(0, 100, 0)" style="fill-opacity:0.47" />
<!-- End 'T' -->
<!-- Begin 'G' -->
<ellipse cx="235.000000" cy="94.280700" rx="25.000000" ry="7.321010" fill="rgb(255, 165, 0)" style="fill-opacity:0.47" />
<ellipse cx="235.000000" cy="94.280700" rx="16.666667" ry="4.880673" fill="rgb(255, 255, 255)" style="fill-opacity:1.00" />
<rect height="7.321010" width="25.000000" x="235.000000" y="90.620195" fill="rgb(255, 255, 255)" style="fill-opacity:1.00" />
<rect height="1.830253" width="25.000000" x="235.000000" y="96.110953" fill="rgb(255, 165, 0)" style="fill-opacity:0.47" />
<rect height="5.490758" width="6.250000" x="253.750000" y="96.110953" fill="rgb(255, 165, 0)" style="fill-opacity:0.47" />
<!-- End 'G' -->
<!-- Begin 'C' -->
<ellipse cx="235.000000" cy="105.800855" rx="25.000000" ry="4.199145" fill="rgb(0, 0, 128)" style="fill-opacity:0.47" />
<ellipse cx="235.000000" cy="105.800855" rx="16.666667" ry="2.799430" fill="rgb(255, 255, 255)" style="fill-opacity:1.00" />
<rect height="4.199145" width="25.000000" x="235.000000" y="103.701283" fill="rgb(255, 255, 255)" style="fill-opacity:1.00" />
<!-- End 'C' -->
<!-- Begin 'A' -->
<polygon points=" 210.000000, 160.855660, 231.000000, 120.000000, 239.000000, 120.000000, 260.000000, 160.855660, 252.500000, 160.855660, 246.250000, 150.641745, 223.750000, 150.641745, 217.500000, 160.855660" fill="rgb(178, 34, 34)" style="fill-opacity:0.11" />
<polygon points=" 235.000000, 128.171132, 227.000000, 143.513396, 242.000000, 143.513396" fill="rgb(255, 255, 255)" style="fill-opacity:1.00" />
<!-- End 'A' -->
<!-- Begin 'T' -->
<rect height="4.925535" width="50.000000" x="210.000000" y="160.855660" fill="rgb(0, 100, 0)" style="fill-opacity:0.11" />
<rect height="30.784595" width="10.000000" x="230.000000" y="160.855660" fill="rgb(0, 100, 0)" style="fill-opacity:0.11" />
<!-- End 'T' -->
<!-- Begin 'G' -->
<ellipse cx="235.000000" cy="199.055312" rx="25.000000" ry="7.415057" fill="rgb(255, 165, 0)" style="fill-opacity:0.11" />
<ellipse cx="235.000000" cy="199.055312" rx="16.666667" ry="4.943372" fill="rgb(255, 255, 255)" style="fill-opacity:1.00" />
<rect height="7.415057" width="25.000000" x="235.000000" y="195.347784" fill="rgb(255, 255, 255)" style="fill-opacity:1.00" />
<rect height="1.853764" width="25.000000" x="235.000000" y="200.909077" fill="rgb(255, 165, 0)" style="fill-opacity:0.11" />
<rect height="5.561293" width="6.250000" x="253.750000" y="200.909077" fill="rgb(255, 165, 0)" style="fill-opacity:0.11" />
<!-- End 'G' -->
<!-- Begin 'C' -->
<ellipse cx="235.000000" cy="213.235185" rx="25.000000" ry="6.764815" fill="rgb(0, 0, 128)" style="fill-opacity:0.11" />
<ellipse cx="235.000000" cy="213.235185" rx="16.666667" ry="4.509877" fill="rgb(255, 255, 255)" style="fill-opacity:1.00" />
<rect height="6.764815" width="25.000000" x="235.000000" y="209.852777" fill="rgb(255, 255, 255)" style="fill-opacity:1.00" />
<!-- End 'C' -->
<!-- Begin 'A' -->
<polygon points=" 210.000000, 273.121529, 231.000000, 230.000000, 239.000000, 230.000000, 260.000000, 273.121529, 252.500000, 273.121529, 246.250000, 262.341147, 223.750000, 262.341147, 217.500000, 273.121529" fill="rgb(178, 34, 34)" style="fill-opacity:0.16" />
<polygon points=" 235.000000, 238.624306, 227.000000, 254.872918, 242.000000, 254.872918" fill="rgb(255, 255, 255)" style="fill-opacity:1.00" />
<!-- End 'A' -->
<!-- Begin 'T' -->
<rect height="4.342349" width="50.000000" x="210.000000" y="273.121529" fill="rgb(0, 100, 0)" style="fill-opacity:0.16" />
<rect height="27.139683" width="10.000000" x="230.000000" y="273.121529" fill="rgb(0, 100, 0)" style="fill-opacity:0.16" />
<!-- End 'T' -->
<!-- Begin 'G' -->
<ellipse cx="235.000000" cy="309.718075" rx="25.000000" ry="9.456863" fill="rgb(255, 165, 0)" style="fill-opacity:0.16" />
<ellipse cx="235.000000" cy="309.718075" rx="16.666667" ry="6.304575" fill="rgb(255, 255, 255)" style="fill-opacity:1.00" />
<rect height="9.456863" width="25.000000" x="235.000000" y="304.989644" fill="rgb(255, 255, 255)" style="fill-opacity:1.00" />
<rect height="2.364216" width="25.000000" x="235.000000" y="312.082291" fill="rgb(255, 165, 0)" style="fill-opacity:0.16" />
<rect height="7.092647" width="6.250000" x="253.750000" y="312.082291" fill="rgb(255, 165, 0)" style="fill-opacity:0.16" />
<!-- End 'G' -->
<!-- Begin 'C' -->
<ellipse cx="235.000000" cy="324.587469" rx="25.000000" ry="5.412531" fill="rgb(0, 0, 128)" style="fill-opacity:0.16" />
<ellipse cx="235.000000" cy="324.587469" rx="16.666667" ry="3.608354" fill="rgb(255, 255, 255)" style="fill-opacity:1.00" />
<rect height="5.412531" width="25.000000" x="235.000000" y="321.881204" fill="rgb(255, 255, 255)" style="fill-opacity:1.00" />
<!-- End 'C' -->
<!-- Begin 'T' -->
<rect height="6.902455" width="50.000000" x="210.000000" y="340.000000" fill="rgb(0, 100, 0)" style="fill-opacity:0.26" />
<rect height="43.140342" width="10.000000" x="230.000000" y="340.000000" fill="rgb(0, 100, 0)" style="fill-opacity:0.26" />
<!-- End 'T' -->
<!-- Begin 'A' -->
<polygon points=" 210.000000, 409.763041, 231.000000, 383.140342, 239.000000, 383.140342, 260.000000, 409.763041, 252.500000, 409.763041, 246.250000, 403.107366, 223.750000, 403.107366, 217.500000, 409.763041" fill="rgb(178, 34, 34)" style="fill-opacity:0.26" />
<polygon points=" 235.000000, 388.464882, 227.000000, 398.113961, 242.000000, 398.113961" fill="rgb(255, 255, 255)" style="fill-opacity:1.00" />
<!-- End 'A' -->
<!-- Begin 'G' -->
<ellipse cx="235.000000" cy="418.262612" rx="25.000000" ry="8.499571" fill="rgb(255, 165, 0)" style="fill-opacity:0.26" />
<ellipse cx="235.000000" cy="418.262612" rx="16.666667" ry="5.666381" fill="rgb(255, 255, 255)" style="fill-opacity:1.00" />
<rect height="8.499571" width="25.000000" x="235.000000" y="414.012826" fill="rgb(255, 255, 255)" style="fill-opacity:1.00" />
<rect height="2.124893" width="25.000000" x="235.000000" y="420.387505" fill="rgb(255, 165, 0)" style="fill-opacity:0.26" />
<rect height="6.374679" width="6.250000" x="253.750000" y="420.387505" fill="rgb(255, 165, 0)" style="fill-opacity:0.26" />
<!-- End 'G' -->
<!-- Begin 'C' -->
<ellipse cx="235.000000" cy="433.381092" rx="25.000000" ry="6.618908" fill="rgb(0, 0, 128)" style="fill-opacity:0.26" />
<ellipse cx="235.000000" cy="433.381092" rx="16.666667" ry="4.412606" fill="rgb(255, 255, 255)" style="fill-opacity:1.00" />
<rect height="6.618908" width="25.000000" x="235.000000" y="430.071638" fill="rgb(255, 255, 255)" style="fill-opacity:1.00" />
<!-- End 'C' -->
<!-- Begin 'A' -->
<polygon points=" 270.000000, 74.919191, 291.000000, 10.000000, 299.000000, 10.000000, 320.000000, 74.919191, 312.500000, 74.919191, 306.250000, 58.689393, 283.750000, 58.689393, 277.500000, 74.919191" fill="rgb(178, 34, 34)" style="fill-opacity:0.44" />
<polygon points=" 295.000000, 22.983838, 287.000000, 47.951514, 302.000000, 47.951514" fill="rgb(255, 255, 255)" style="fill-opacity:1.00" />
<!-- End 'A' -->
<!-- Begin 'T' -->
<rect height="2.071808" width="50.000000" x="270.000000" y="74.919191" fill="rgb(0, 100, 0)" style="fill-opacity:0.44" />
<rect height="12.948800" width="10.000000" x="290.000000" y="74.919191" fill="rgb(0, 100, 0)" style="fill-opacity:0.44" />
<!-- End 'T' -->
<!-- Begin 'G' -->
<ellipse cx="295.000000" cy="94.188624" rx="25.000000" ry="6.320633" fill="rgb(255, 165, 0)" style="fill-opacity:0.44" />
<ellipse cx="295.000000" cy="94.188624" rx="16.666667" ry="4.213756" fill="rgb(255, 255, 255)" style="fill-opacity:1.00" />
<rect height="6.320633" width="25.000000" x="295.000000" y="91.028307" fill="rgb(255, 255, 255)" style="fill-opacity:1.00" />
<rect height="1.580158" width="25.000000" x="295.000000" y="95.768783" fill="rgb(255, 165, 0)" style="fill-opacity:0.44" />
<rect height="4.740475" width="6.250000" x="313.750000" y="95.768783" fill="rgb(255, 165, 0)" style="fill-opacity:0.44" />
<!-- End 'G' -->
<!-- Begin 'C' -->
<ellipse cx="295.000000" cy="105.254629" rx="25.000000" ry="4.745371" fill="rgb(0, 0, 128)" style="fill-opacity:0.44" />
<ellipse cx="295.000000" cy="105.254629" rx="16.666667" ry="3.163581" fill="rgb(255, 255, 255)" style="fill-opacity:1.00" />
<rect height="4.745371" width="25.000000" x="295.000000" y="102.881943" fill="rgb(255, 255, 255)" style="fill-opacity:1.00" />
<!-- End 'C' -->
<!-- Begin 'C' -->
<ellipse cx="295.000000" cy="139.169421" rx="25.000000" ry="19.169421" fill="rgb(0, 0, 128)" style="fill-opacity:0.11" />
<ellipse cx="295.000000" cy="139.169421" rx="16.666667" ry="12.779614" fill="rgb(255, 255, 255)" style="fill-opacity:1.00" />
<rect height="19.169421" width="25.000000" x="295.000000" y="129.584710" fill="rgb(255, 255, 255)" style="fill-opacity:1.00" />
<!-- End 'C' -->
<!-- Begin 'A' -->
<polygon points=" 270.000000, 186.435168, 291.000000, 158.338841, 299.000000, 158.338841, 320.000000, 186.435168, 312.500000, 186.435168, 306.250000, 179.411087, 283.750000, 179.411087, 277.500000, 186.435168" fill="rgb(178, 34, 34)" style="fill-opacity:0.11" />
<polygon points=" 295.000000, 163.958107, 287.000000, 174.196637, 302.000000, 174.196637" fill="rgb(255, 255, 255)" style="fill-opacity:1.00" />
<!-- End 'A' -->
<!-- Begin 'T' -->
<rect height="2.738184" width="50.000000" x="270.000000" y="186.435168" fill="rgb(0, 100, 0)" style="fill-opacity:0.11" />
<rect height="17.113652" width="10.000000" x="290.000000" y="186.435168" fill="rgb(0, 100, 0)" style="fill-opacity:0.11" />
<!-- End 'T' -->
<!-- Begin 'G' -->
<ellipse cx="295.000000" cy="211.774410" rx="25.000000" ry="8.225590" fill="rgb(255, 165, 0)" style="fill-opacity:0.11" />
<ellipse cx="295.000000" cy="211.774410" rx="16.666667" ry="5.483727" fill="rgb(255, 255, 255)" style="fill-opacity:1.00" />
<rect height="8.225590" width="25.000000" x="295.000000" y="207.661615" fill="rgb(255, 255, 255)" style="fill-opacity:1.00" />
<rect height="2.056398" width="25.000000" x="295.000000" y="213.830807" fill="rgb(255, 165, 0)" style="fill-opacity:0.11" />
<rect height="6.169193" width="6.250000" x="313.750000" y="213.830807" fill="rgb(255, 165, 0)" style="fill-opacity:0.11" />
<!-- End 'G' -->
<!-- Begin 'A' -->
<polygon points=" 270.000000, 269.634283, 291.000000, 230.000000, 299.000000, 230.000000, 320.000000, 269.634283, 312.500000, 269.634283, 306.250000, 259.725713, 283.750000, 259.725713, 277.500000, 269.634283" fill="rgb(178, 34, 34)" style="fill-opacity:0.16" />
<polygon points=" 295.000000, 237.926857, 287.000000, 252.780570, 302.000000, 252.780570" fill="rgb(255, 255, 255)" style="fill-opacity:1.00" />
<!-- End 'A' -->
<!-- Begin 'T' -->
<rect height="3.244698" width="50.000000" x="270.000000" y="269.634283" fill="rgb(0, 100, 0)" style="fill-opacity:0.16" />
<rect height="20.279362" width="10.000000" x="290.000000" y="269.634283" fill="rgb(0, 100, 0)" style="fill-opacity:0.16" />
<!-- End 'T' -->
<!-- Begin 'G' -->
<ellipse cx="295.000000" cy="300.007553" rx="25.000000" ry="10.093907" fill="rgb(255, 165, 0)" style="fill-opacity:0.16" />
<ellipse cx="295.000000" cy="300.007553" rx="16.666667" ry="6.729271" fill="rgb(255, 255, 255)" style="fill-opacity:1.00" />
<rect height="10.093907" width="25.000000" x="295.000000" y="294.960599" fill="rgb(255, 255, 255)" style="fill-opacity:1.00" />
<rect height="2.523477" width="25.000000" x="295.000000" y="302.531029" fill="rgb(255, 165, 0)" style="fill-opacity:0.16" />
<rect height="7.570430" width="6.250000" x="313.750000" y="302.531029" fill="rgb(255, 165, 0)" style="fill-opacity:0.16" />
<!-- End 'G' -->
<!-- Begin 'C' -->
<ellipse cx="295.000000" cy="320.050730" rx="25.000000" ry="9.949270" fill="rgb(0, 0, 128)" style="fill-opacity:0.16" />
<ellipse cx="295.000000" cy="320.050730" rx="16.666667" ry="6.632847" fill="rgb(255, 255, 255)" style="fill-opacity:1.00" />
<rect height="9.949270" width="25.000000" x="295.000000" y="315.076095" fill="rgb(255, 255, 255)" style="fill-opacity:1.00" />
<!-- End 'C' -->
<!-- Begin 'A' -->
<polygon points=" 270.000000, 371.777409, 291.000000, 340.000000, 299.000000, 340.000000, 320.000000, 371.777409, 312.500000, 371.777409, 306.250000, 363.833057, 283.750000, 363.833057, 277.500000, 371.777409" fill="rgb(178, 34, 34)" style="fill-opacity:0.29" />
<polygon points=" 295.000000, 346.355482, 287.000000, 358.066445, 302.000000, 358.066445" fill="rgb(255, 255, 255)" style="fill-opacity:1.00" />
<!-- End 'A' -->
<!-- Begin 'G' -->
<ellipse cx="295.000000" cy="384.930965" rx="25.000000" ry="13.153555" fill="rgb(255, 165, 0)" style="fill-opacity:0.29" />
<ellipse cx="295.000000" cy="384.930965" rx="16.666667" ry="8.769037" fill="rgb(255, 255, 255)" style="fill-opacity:1.00" />
<rect height="13.153555" width="25.000000" x="295.000000" y="378.354187" fill="rgb(255, 255, 255)" style="fill-opacity:1.00" />
<rect height="3.288389" width="25.000000" x="295.000000" y="388.219353" fill="rgb(255, 165, 0)" style="fill-opacity:0.29" />
<rect height="9.865167" width="6.250000" x="313.750000" y="388.219353" fill="rgb(255, 165, 0)" style="fill-opacity:0.29" />
<!-- End 'G' -->
<!-- Begin 'C' -->
<ellipse cx="295.000000" cy="408.975761" rx="25.000000" ry="10.891241" fill="rgb(0, 0, 128)" style="fill-opacity:0.29" />
<ellipse cx="295.000000" cy="408.975761" rx="16.666667" ry="7.260827" fill="rgb(255, 255, 255)" style="fill-opacity:1.00" />
<rect height="10.891241" width="25.000000" x="295.000000" y="403.530140" fill="rgb(255, 255, 255)" style="fill-opacity:1.00" />
<!-- End 'C' -->
<!-- Begin 'T' -->
<rect height="3.221280" width="50.000000" x="270.000000" y="419.867002" fill="rgb(0, 100, 0)" style="fill-opacity:0.29" />
<rect height="20.132998" width="10.000000" x="290.000000" y="419.867002" fill="rgb(0, 100, 0)" style="fill-opacity:0.29" />
<!-- End 'T' -->
<!-- Begin 'G' -->
<ellipse cx="355.000000" cy="53.769873" rx="25.000000" ry="43.769873" fill="rgb(255, 165, 0)" style="fill-opacity:0.47" />
<ellipse cx="355.000000" cy="53.769873" rx="16.666667" ry="29.179915" fill="rgb(255, 255, 255)" style="fill-opacity:1.00" />
<rect height="43.769873" width="25.000000" x="355.000000" y="31.884936" fill="rgb(255, 255, 255)" style="fill-opacity:1.00" />
<rect height="10.942468" width="25.000000" x="355.000000" y="64.712341" fill="rgb(255, 165, 0)" style="fill-opacity:0.47" />
<rect height="32.827405" width="6.250000" x="373.750000" y="64.712341" fill="rgb(255, 165, 0)" style="fill-opacity:0.47" />
<!-- End 'G' -->
<!-- Begin 'T' -->
<rect height="1.479193" width="50.000000" x="330.000000" y="97.539746" fill="rgb(0, 100, 0)" style="fill-opacity:0.47" />
<rect height="9.244955" width="10.000000" x="350.000000" y="97.539746" fill="rgb(0, 100, 0)" style="fill-opacity:0.47" />
<!-- End 'T' -->
<!-- Begin 'A' -->
<polygon points=" 330.000000, 109.850215, 351.000000, 106.784701, 359.000000, 106.784701, 380.000000, 109.850215, 372.500000, 109.850215, 366.250000, 109.083836, 343.750000, 109.083836, 337.500000, 109.850215" fill="rgb(178, 34, 34)" style="fill-opacity:0.47" />
<!-- End 'A' -->
<!-- Begin 'C' -->
<ellipse cx="355.000000" cy="109.925108" rx="25.000000" ry="0.074892" fill="rgb(0, 0, 128)" style="fill-opacity:0.47" />
<ellipse cx="355.000000" cy="109.925108" rx="16.666667" ry="0.049928" fill="rgb(255, 255, 255)" style="fill-opacity:1.00" />
<rect height="0.074892" width="25.000000" x="355.000000" y="109.887661" fill="rgb(255, 255, 255)" style="fill-opacity:1.00" />
<!-- End 'C' -->
<!-- Begin 'G' -->
<ellipse cx="355.000000" cy="145.152395" rx="25.000000" ry="25.152395" fill="rgb(255, 165, 0)" style="fill-opacity:0.18" />
<ellipse cx="355.000000" cy="145.152395" rx="16.666667" ry="16.768264" fill="rgb(255, 255, 255)" style="fill-opacity:1.00" />
<rect height="25.152395" width="25.000000" x="355.000000" y="132.576198" fill="rgb(255, 255, 255)" style="fill-opacity:1.00" />
<rect height="6.288099" width="25.000000" x="355.000000" y="151.440494" fill="rgb(255, 165, 0)" style="fill-opacity:0.18" />
<rect height="18.864297" width="6.250000" x="373.750000" y="151.440494" fill="rgb(255, 165, 0)" style="fill-opacity:0.18" />
<!-- End 'G' -->
<!-- Begin 'T' -->
<rect height="4.354321" width="50.000000" x="330.000000" y="170.304791" fill="rgb(0, 100, 0)" style="fill-opacity:0.18" />
<rect height="27.214504" width="10.000000" x="350.000000" y="170.304791" fill="rgb(0, 100, 0)" style="fill-opacity:0.18" />
<!-- End 'T' -->
<!-- Begin 'A' -->
<polygon points=" 330.000000, 219.958548, 351.000000, 197.519295, 359.000000, 197.519295, 380.000000, 219.958548, 372.500000, 219.958548, 366.250000, 214.348734, 343.750000, 214.348734, 337.500000, 219.958548" fill="rgb(178, 34, 34)" style="fill-opacity:0.18" />
<polygon points=" 355.000000, 202.007145, 347.000000, 209.982846, 362.000000, 209.982846" fill="rgb(255, 255, 255)" style="fill-opacity:1.00" />
<!-- End 'A' -->
<!-- Begin 'C' -->
<ellipse cx="355.000000" cy="219.979274" rx="25.000000" ry="0.020726" fill="rgb(0, 0, 128)" style="fill-opacity:0.18" />
<ellipse cx="355.000000" cy="219.979274" rx="16.666667" ry="0.013817" fill="rgb(255, 255, 255)" style="fill-opacity:1.00" />
<rect height="0.020726" width="25.000000" x="355.000000" y="219.968911" fill="rgb(255, 255, 255)" style="fill-opacity:1.00" />
<!-- End 'C' -->
<!-- Begin 'G' -->
<ellipse cx="355.000000" cy="264.271861" rx="25.000000" ry="34.271861" fill="rgb(255, 165, 0)" style="fill-opacity:0.18" />
<ellipse cx="355.000000" cy="264.271861" rx="16.666667" ry="22.847908" fill="rgb(255, 255, 255)" style="fill-opacity:1.00" />
<rect height="34.271861" width="25.000000" x="355.000000" y="247.135931" fill="rgb(255, 255, 255)" style="fill-opacity:1.00" />
<rect height="8.567965" width="25.000000" x="355.000000" y="272.839827" fill="rgb(255, 165, 0)" style="fill-opacity:0.18" />
<rect height="25.703896" width="6.250000" x="373.750000" y="272.839827" fill="rgb(255, 165, 0)" style="fill-opacity:0.18" />
<!-- End 'G' -->
<!-- Begin 'T' -->
<rect height="4.735664" width="50.000000" x="330.000000" y="298.543723" fill="rgb(0, 100, 0)" style="fill-opacity:0.18" />
<rect height="29.597902" width="10.000000" x="350.000000" y="298.543723" fill="rgb(0, 100, 0)" style="fill-opacity:0.18" />
<!-- End 'T' -->
<!-- Begin 'A' -->
<polygon points=" 330.000000, 329.866235, 351.000000, 328.141625, 359.000000, 328.141625, 380.000000, 329.866235, 372.500000, 329.866235, 366.250000, 329.435083, 343.750000, 329.435083, 337.500000, 329.866235" fill="rgb(178, 34, 34)" style="fill-opacity:0.18" />
<!-- End 'A' -->
<!-- Begin 'C' -->
<ellipse cx="355.000000" cy="329.933118" rx="25.000000" ry="0.066882" fill="rgb(0, 0, 128)" style="fill-opacity:0.18" />
<ellipse cx="355.000000" cy="329.933118" rx="16.666667" ry="0.044588" fill="rgb(255, 255, 255)" style="fill-opacity:1.00" />
<rect height="0.066882" width="25.000000" x="355.000000" y="329.899676" fill="rgb(255, 255, 255)" style="fill-opacity:1.00" />
<!-- End 'C' -->
<!-- Begin 'G' -->
<ellipse cx="355.000000" cy="368.790570" rx="25.000000" ry="28.790570" fill="rgb(255, 165, 0)" style="fill-opacity:0.17" />
<ellipse cx="355.000000" cy="368.790570" rx="16.666667" ry="19.193713" fill="rgb(255, 255, 255)" style="fill-opacity:1.00" />
<rect height="28.790570" width="25.000000" x="355.000000" y="354.395285" fill="rgb(255, 255, 255)" style="fill-opacity:1.00" />
<rect height="7.197643" width="25.000000" x="355.000000" y="375.988213" fill="rgb(255, 165, 0)" style="fill-opacity:0.17" />
<rect height="21.592928" width="6.250000" x="373.750000" y="375.988213" fill="rgb(255, 165, 0)" style="fill-opacity:0.17" />
<!-- End 'G' -->
<!-- Begin 'T' -->
<rect height="5.177234" width="50.000000" x="330.000000" y="397.581140" fill="rgb(0, 100, 0)" style="fill-opacity:0.17" />
<rect height="32.357712" width="10.000000" x="350.000000" y="397.581140" fill="rgb(0, 100, 0)" style="fill-opacity:0.17" />
<!-- End 'T' -->
<!-- Begin 'A' -->
<polygon points=" 330.000000, 439.598696, 351.000000, 429.938852, 359.000000, 429.938852, 380.000000, 439.598696, 372.500000, 439.598696, 366.250000, 437.183735, 343.750000, 437.183735, 337.500000, 439.598696" fill="rgb(178, 34, 34)" style="fill-opacity:0.17" />
<polygon points=" 355.000000, 431.870821, 347.000000, 434.734759, 362.000000, 434.734759" fill="rgb(255, 255, 255)" style="fill-opacity:1.00" />
<!-- End 'A' -->
<!-- Begin 'C' -->
<ellipse cx="355.000000" cy="439.799348" rx="25.000000" ry="0.200652" fill="rgb(0, 0, 128)" style="fill-opacity:0.17" />
<ellipse cx="355.000000" cy="439.799348" rx="16.666667" ry="0.133768" fill="rgb(255, 255, 255)" style="fill-opacity:1.00" />
<rect height="0.200652" width="25.000000" x="355.000000" y="439.699022" fill="rgb(255, 255, 255)" style="fill-opacity:1.00" />
<!-- End 'C' -->
<!-- Begin 'T' -->
<rect height="15.514179" width="50.000000" x="390.000000" y="10.000000" fill="rgb(0, 100, 0)" style="fill-opacity:0.07" />
<rect height="96.963616" width="10.000000" x="410.000000" y="10.000000" fill="rgb(0, 100, 0)" style="fill-opacity:0.07" />
<!-- End 'T' -->
<!-- Begin 'A' -->
<polygon points=" 390.000000, 109.281483, 411.000000, 106.963616, 419.000000, 106.963616, 440.000000, 109.281483, 432.500000, 109.281483, 426.250000, 108.702017, 403.750000, 108.702017, 397.500000, 109.281483" fill="rgb(178, 34, 34)" style="fill-opacity:0.07" />
<!-- End 'A' -->
<!-- Begin 'C' -->
<ellipse cx="415.000000" cy="109.557322" rx="25.000000" ry="0.275839" fill="rgb(0, 0, 128)" style="fill-opacity:0.07" />
<ellipse cx="415.000000" cy="109.557322" rx="16.666667" ry="0.183892" fill="rgb(255, 255, 255)" style="fill-opacity:1.00" />
<rect height="0.275839" width="25.000000" x="415.000000" y="109.419403" fill="rgb(255, 255, 255)" style="fill-opacity:1.00" />
<!-- End 'C' -->
<!-- Begin 'G' -->
<ellipse cx="415.000000" cy="109.916580" rx="25.000000" ry="0.083420" fill="rgb(255, 165, 0)" style="fill-opacity:0.07" />
<ellipse cx="415.000000" cy="109.916580" rx="16.666667" ry="0.055613" fill="rgb(255, 255, 255)" style="fill-opacity:1.00" />
<rect height="0.083420" width="25.000000" x="415.000000" y="109.874871" fill="rgb(255, 255, 255)" style="fill-opacity:1.00" />
<rect height="0.020855" width="25.000000" x="415.000000" y="109.937435" fill="rgb(255, 165, 0)" style="fill-opacity:0.07" />
<rect height="0.062565" width="6.250000" x="433.750000" y="109.937435" fill="rgb(255, 165, 0)" style="fill-opacity:0.07" />
<!-- End 'G' -->
<!-- Begin 'T' -->
<rect height="13.178396" width="50.000000" x="390.000000" y="120.000000" fill="rgb(0, 100, 0)" style="fill-opacity:0.00" />
<rect height="82.364978" width="10.000000" x="410.000000" y="120.000000" fill="rgb(0, 100, 0)" style="fill-opacity:0.00" />
<!-- End 'T' -->
<!-- Begin 'C' -->
<ellipse cx="415.000000" cy="207.448381" rx="25.000000" ry="5.083403" fill="rgb(0, 0, 128)" style="fill-opacity:0.00" />
<ellipse cx="415.000000" cy="207.448381" rx="16.666667" ry="3.388936" fill="rgb(255, 255, 255)" style="fill-opacity:1.00" />
<rect height="5.083403" width="25.000000" x="415.000000" y="204.906679" fill="rgb(255, 255, 255)" style="fill-opacity:1.00" />
<!-- End 'C' -->
<!-- Begin 'A' -->
<polygon points=" 390.000000, 219.986734, 411.000000, 212.531784, 419.000000, 212.531784, 440.000000, 219.986734, 432.500000, 219.986734, 426.250000, 218.122997, 403.750000, 218.122997, 397.500000, 219.986734" fill="rgb(178, 34, 34)" style="fill-opacity:0.00" />
<!-- End 'A' -->
<!-- Begin 'G' -->
<ellipse cx="415.000000" cy="219.993367" rx="25.000000" ry="0.006633" fill="rgb(255, 165, 0)" style="fill-opacity:0.00" />
<ellipse cx="415.000000" cy="219.993367" rx="16.666667" ry="0.004422" fill="rgb(255, 255, 255)" style="fill-opacity:1.00" />
<rect height="0.006633" width="25.000000" x="415.000000" y="219.990051" fill="rgb(255, 255, 255)" style="fill-opacity:1.00" />
<rect height="0.001658" width="25.000000" x="415.000000" y="219.995025" fill="rgb(255, 165, 0)" style="fill-opacity:0.00" />
<rect height="0.004975" width="6.250000" x="433.750000" y="219.995025" fill="rgb(255, 165, 0)" style="fill-opacity:0.00" />
<!-- End 'G' -->
<!-- Begin 'T' -->
<rect height="15.631991" width="50.000000" x="390.000000" y="230.000000" fill="rgb(0, 100, 0)" style="fill-opacity:0.72" />
<rect height="97.699946" width="10.000000" x="410.000000" y="230.000000" fill="rgb(0, 100, 0)" style="fill-opacity:0.72" />
<!-- End 'T' -->
<!-- Begin 'C' -->
<ellipse cx="415.000000" cy="328.593606" rx="25.000000" ry="0.893660" fill="rgb(0, 0, 128)" style="fill-opacity:0.72" />
<ellipse cx="415.000000" cy="328.593606" rx="16.666667" ry="0.595774" fill="rgb(255, 255, 255)" style="fill-opacity:1.00" />
<rect height="0.893660" width="25.000000" x="415.000000" y="328.146776" fill="rgb(255, 255, 255)" style="fill-opacity:1.00" />
<!-- End 'C' -->
<!-- Begin 'A' -->
<polygon points=" 390.000000, 329.971327, 411.000000, 329.487267, 419.000000, 329.487267, 440.000000, 329.971327, 432.500000, 329.971327, 426.250000, 329.850312, 403.750000, 329.850312, 397.500000, 329.971327" fill="rgb(178, 34, 34)" style="fill-opacity:0.72" />
<!-- End 'A' -->
<!-- Begin 'G' -->
<ellipse cx="415.000000" cy="329.985663" rx="25.000000" ry="0.014337" fill="rgb(255, 165, 0)" style="fill-opacity:0.72" />
<ellipse cx="415.000000" cy="329.985663" rx="16.666667" ry="0.009558" fill="rgb(255, 255, 255)" style="fill-opacity:1.00" />
<rect height="0.014337" width="25.000000" x="415.000000" y="329.978495" fill="rgb(255, 255, 255)" style="fill-opacity:1.00" />
<rect height="0.003584" width="25.000000" x="415.000000" y="329.989248" fill="rgb(255, 165, 0)" style="fill-opacity:0.72" />
<rect height="0.010752" width="6.250000" x="433.750000" y="329.989248" fill="rgb(255, 165, 0)" style="fill-opacity:0.72" />
<!-- End 'G' -->
<!-- Begin 'T' -->
<rect height="15.741316" width="50.000000" x="390.000000" y="340.000000" fill="rgb(0, 100, 0)" style="fill-opacity:0.20" />
<rect height="98.383224" width="10.000000" x="410.000000" y="340.000000" fill="rgb(0, 100, 0)" style="fill-opacity:0.20" />
<!-- End 'T' -->
<!-- Begin 'C' -->
<ellipse cx="415.000000" cy="439.188246" rx="25.000000" ry="0.805022" fill="rgb(0, 0, 128)" style="fill-opacity:0.20" />
<ellipse cx="415.000000" cy="439.188246" rx="16.666667" ry="0.536681" fill="rgb(255, 255, 255)" style="fill-opacity:1.00" />
<rect height="0.805022" width="25.000000" x="415.000000" y="438.785735" fill="rgb(255, 255, 255)" style="fill-opacity:1.00" />
<!-- End 'C' -->
<!-- Begin 'A' -->
<polygon points=" 390.000000, 439.999568, 411.000000, 439.993268, 419.000000, 439.993268, 440.000000, 439.999568, 432.500000, 439.999568, 426.250000, 439.997993, 403.750000, 439.997993, 397.500000, 439.999568" fill="rgb(178, 34, 34)" style="fill-opacity:0.20" />
<!-- End 'A' -->
<!-- Begin 'G' -->
<ellipse cx="415.000000" cy="439.999784" rx="25.000000" ry="0.000216" fill="rgb(255, 165, 0)" style="fill-opacity:0.20" />
<ellipse cx="415.000000" cy="439.999784" rx="16.666667" ry="0.000144" fill="rgb(255, 255, 255)" style="fill-opacity:1.00" />
<rect height="0.000216" width="25.000000" x="415.000000" y="439.999676" fill="rgb(255, 255, 255)" style="fill-opacity:1.00" />
<rect height="0.000054" width="25.000000" x="415.000000" y="439.999838" fill="rgb(255, 165, 0)" style="fill-opacity:0.20" />
<rect height="0.000162" width="6.250000" x="433.750000" y="439.999838" fill="rgb(255, 165, 0)" style="fill-opacity:0.20" />
<!-- End 'G' -->
<!-- Begin 'A' -->
<polygon points=" 450.000000, 77.606277, 471.000000, 10.000000, 479.000000, 10.000000, 500.000000, 77.606277, 492.500000, 77.606277, 486.250000, 60.704708, 463.750000, 60.704708, 457.500000, 77.606277" fill="rgb(178, 34, 34)" style="fill-opacity:0.01" />
<polygon points=" 475.000000, 23.521255, 467.000000, 49.563766, 482.000000, 49.563766" fill="rgb(255, 255, 255)" style="fill-opacity:1.00" />
<!-- End 'A' -->
<!-- Begin 'C' -->
<ellipse cx="475.000000" cy="93.227557" rx="25.000000" ry="15.621280" fill="rgb(0, 0, 128)" style="fill-opacity:0.01" />
<ellipse cx="475.000000" cy="93.227557" rx="16.666667" ry="10.414187" fill="rgb(255, 255, 255)" style="fill-opacity:1.00" />
<rect height="15.621280" width="25.000000" x="475.000000" y="85.416917" fill="rgb(255, 255, 255)" style="fill-opacity:1.00" />
<!-- End 'C' -->
<!-- Begin 'G' -->
<ellipse cx="475.000000" cy="109.356965" rx="25.000000" ry="0.508128" fill="rgb(255, 165, 0)" style="fill-opacity:0.01" />
<ellipse cx="475.000000" cy="109.356965" rx="16.666667" ry="0.338752" fill="rgb(255, 255, 255)" style="fill-opacity:1.00" />
<rect height="0.508128" width="25.000000" x="475.000000" y="109.102901" fill="rgb(255, 255, 255)" style="fill-opacity:1.00" />
<rect height="0.127032" width="25.000000" x="475.000000" y="109.483997" fill="rgb(255, 165, 0)" style="fill-opacity:0.01" />
<rect height="0.381096" width="6.250000" x="493.750000" y="109.483997" fill="rgb(255, 165, 0)" style="fill-opacity:0.01" />
<!-- End 'G' -->
<!-- Begin 'T' -->
<rect height="0.021585" width="50.000000" x="450.000000" y="109.865093" fill="rgb(0, 100, 0)" style="fill-opacity:0.01" />
<rect height="0.134907" width="10.000000" x="470.000000" y="109.865093" fill="rgb(0, 100, 0)" style="fill-opacity:0.01" />
<!-- End 'T' -->
<!-- Begin 'T' -->
<rect height="12.776844" width="50.000000" x="450.000000" y="120.000000" fill="rgb(0, 100, 0)" style="fill-opacity:0.02" />
<rect height="79.855275" width="10.000000" x="470.000000" y="120.000000" fill="rgb(0, 100, 0)" style="fill-opacity:0.02" />
<!-- End 'T' -->
<!-- Begin 'C' -->
<ellipse cx="475.000000" cy="208.775175" rx="25.000000" ry="8.919900" fill="rgb(0, 0, 128)" style="fill-opacity:0.02" />
<ellipse cx="475.000000" cy="208.775175" rx="16.666667" ry="5.946600" fill="rgb(255, 255, 255)" style="fill-opacity:1.00" />
<rect height="8.919900" width="25.000000" x="475.000000" y="204.315225" fill="rgb(255, 255, 255)" style="fill-opacity:1.00" />
<!-- End 'C' -->
<!-- Begin 'A' -->
<polygon points=" 450.000000, 219.999940, 471.000000, 217.695074, 479.000000, 217.695074, 500.000000, 219.999940, 492.500000, 219.999940, 486.250000, 219.423724, 463.750000, 219.423724, 457.500000, 219.999940" fill="rgb(178, 34, 34)" style="fill-opacity:0.02" />
<!-- End 'A' -->
<!-- Begin 'G' -->
<ellipse cx="475.000000" cy="219.999970" rx="25.000000" ry="0.000030" fill="rgb(255, 165, 0)" style="fill-opacity:0.02" />
<ellipse cx="475.000000" cy="219.999970" rx="16.666667" ry="0.000020" fill="rgb(255, 255, 255)" style="fill-opacity:1.00" />
<rect height="0.000030" width="25.000000" x="475.000000" y="219.999955" fill="rgb(255, 255, 255)" style="fill-opacity:1.00" />
<rect height="0.000007" width="25.000000" x="475.000000" y="219.999978" fill="rgb(255, 165, 0)" style="fill-opacity:0.02" />
<rect height="0.000022" width="6.250000" x="493.750000" y="219.999978" fill="rgb(255, 165, 0)" style="fill-opacity:0.02" />
<!-- End 'G' -->
<!-- Begin 'C' -->
<ellipse cx="475.000000" cy="260.118533" rx="25.000000" ry="30.118533" fill="rgb(0, 0, 128)" style="fill-opacity:0.00" />
<ellipse cx="475.000000" cy="260.118533" rx="16.666667" ry="20.079022" fill="rgb(255, 255, 255)" style="fill-opacity:1.00" />
<rect height="30.118533" width="25.000000" x="475.000000" y="245.059267" fill="rgb(255, 255, 255)" style="fill-opacity:1.00" />
<!-- End 'C' -->
<!-- Begin 'A' -->
<polygon points=" 450.000000, 329.269879, 471.000000, 290.237067, 479.000000, 290.237067, 500.000000, 329.269879, 492.500000, 329.269879, 486.250000, 319.511676, 463.750000, 319.511676, 457.500000, 329.269879" fill="rgb(178, 34, 34)" style="fill-opacity:0.00" />
<polygon points=" 475.000000, 298.043629, 467.000000, 312.656754, 482.000000, 312.656754" fill="rgb(255, 255, 255)" style="fill-opacity:1.00" />
<!-- End 'A' -->
<!-- Begin 'T' -->
<rect height="0.114412" width="50.000000" x="450.000000" y="329.269879" fill="rgb(0, 100, 0)" style="fill-opacity:0.00" />
<rect height="0.715075" width="10.000000" x="470.000000" y="329.269879" fill="rgb(0, 100, 0)" style="fill-opacity:0.00" />
<!-- End 'T' -->
<!-- Begin 'G' -->
<ellipse cx="475.000000" cy="329.992477" rx="25.000000" ry="0.007523" fill="rgb(255, 165, 0)" style="fill-opacity:0.00" />
<ellipse cx="475.000000" cy="329.992477" rx="16.666667" ry="0.005015" fill="rgb(255, 255, 255)" style="fill-opacity:1.00" />
<rect height="0.007523" width="25.000000" x="475.000000" y="329.988716" fill="rgb(255, 255, 255)" style="fill-opacity:1.00" />
<rect height="0.001881" width="25.000000" x="475.000000" y="329.994358" fill="rgb(255, 165, 0)" style="fill-opacity:0.00" />
<rect height="0.005642" width="6.250000" x="493.750000" y="329.994358" fill="rgb(255, 165, 0)" style="fill-opacity:0.00" />
<!-- End 'G' -->
<!-- Begin 'C' -->
<ellipse cx="475.000000" cy="366.933595" rx="25.000000" ry="26.933595" fill="rgb(0, 0, 128)" style="fill-opacity:0.98" />
<ellipse cx="475.000000" cy="366.933595" rx="16.666667" ry="17.955730" fill="rgb(255, 255, 255)" style="fill-opacity:1.00" />
<rect height="26.933595" width="25.000000" x="475.000000" y="353.466798" fill="rgb(255, 255, 255)" style="fill-opacity:1.00" />
<!-- End 'C' -->
<!-- Begin 'T' -->
<rect height="7.238398" width="50.000000" x="450.000000" y="393.867191" fill="rgb(0, 100, 0)" style="fill-opacity:0.98" />
<rect height="45.239987" width="10.000000" x="470.000000" y="393.867191" fill="rgb(0, 100, 0)" style="fill-opacity:0.98" />
<!-- End 'T' -->
<!-- Begin 'A' -->
<polygon points=" 450.000000, 439.921351, 471.000000, 439.107178, 479.000000, 439.107178, 500.000000, 439.921351, 492.500000, 439.921351, 486.250000, 439.717808, 463.750000, 439.717808, 457.500000, 439.921351" fill="rgb(178, 34, 34)" style="fill-opacity:0.98" />
<!-- End 'A' -->
<!-- Begin 'G' -->
<ellipse cx="475.000000" cy="439.960676" rx="25.000000" ry="0.039324" fill="rgb(255, 165, 0)" style="fill-opacity:0.98" />
<ellipse cx="475.000000" cy="439.960676" rx="16.666667" ry="0.026216" fill="rgb(255, 255, 255)" style="fill-opacity:1.00" />
<rect height="0.039324" width="25.000000" x="475.000000" y="439.941014" fill="rgb(255, 255, 255)" style="fill-opacity:1.00" />
<rect height="0.009831" width="25.000000" x="475.000000" y="439.970507" fill="rgb(255, 165, 0)" style="fill-opacity:0.98" />
<rect height="0.029493" width="6.250000" x="493.750000" y="439.970507" fill="rgb(255, 165, 0)" style="fill-opacity:0.98" />
<!-- End 'G' -->
<!-- Begin 'A' -->
<polygon points=" 510.000000, 103.188406, 531.000000, 10.000000, 539.000000, 10.000000, 560.000000, 103.188406, 552.500000, 103.188406, 546.250000, 79.891305, 523.750000, 79.891305, 517.500000, 103.188406" fill="rgb(178, 34, 34)" style="fill-opacity:0.01" />
<polygon points=" 535.000000, 28.637681, 527.000000, 64.913044, 542.000000, 64.913044" fill="rgb(255, 255, 255)" style="fill-opacity:1.00" />
<!-- End 'A' -->
<!-- Begin 'G' -->
<ellipse cx="535.000000" cy="106.582046" rx="25.000000" ry="3.393640" fill="rgb(255, 165, 0)" style="fill-opacity:0.01" />
<ellipse cx="535.000000" cy="106.582046" rx="16.666667" ry="2.262427" fill="rgb(255, 255, 255)" style="fill-opacity:1.00" />
<rect height="3.393640" width="25.000000" x="535.000000" y="104.885226" fill="rgb(255, 255, 255)" style="fill-opacity:1.00" />
<rect height="0.848410" width="25.000000" x="535.000000" y="107.430456" fill="rgb(255, 165, 0)" style="fill-opacity:0.01" />
<rect height="2.545230" width="6.250000" x="553.750000" y="107.430456" fill="rgb(255, 165, 0)" style="fill-opacity:0.01" />
<!-- End 'G' -->
<!-- Begin 'T' -->
<rect height="0.003792" width="50.000000" x="510.000000" y="109.975686" fill="rgb(0, 100, 0)" style="fill-opacity:0.01" />
<rect height="0.023700" width="10.000000" x="530.000000" y="109.975686" fill="rgb(0, 100, 0)" style="fill-opacity:0.01" />
<!-- End 'T' -->
<!-- Begin 'C' -->
<ellipse cx="535.000000" cy="109.999693" rx="25.000000" ry="0.000307" fill="rgb(0, 0, 128)" style="fill-opacity:0.01" />
<ellipse cx="535.000000" cy="109.999693" rx="16.666667" ry="0.000205" fill="rgb(255, 255, 255)" style="fill-opacity:1.00" />
<rect height="0.000307" width="25.000000" x="535.000000" y="109.999540" fill="rgb(255, 255, 255)" style="fill-opacity:1.00" />
<!-- End 'C' -->
<!-- Begin 'A' -->
<polygon points=" 510.000000, 213.365217, 531.000000, 120.000000, 539.000000, 120.000000, 560.000000, 213.365217, 552.500000, 213.365217, 546.250000, 190.023913, 523.750000, 190.023913, 517.500000, 213.365217" fill="rgb(178, 34, 34)" style="fill-opacity:0.53" />
<polygon points=" 535.000000, 138.673043, 527.000000, 175.019130, 542.000000, 175.019130" fill="rgb(255, 255, 255)" style="fill-opacity:1.00" />
<!-- End 'A' -->
<!-- Begin 'T' -->
<rect height="0.731968" width="50.000000" x="510.000000" y="213.365217" fill="rgb(0, 100, 0)" style="fill-opacity:0.53" />
<rect height="4.574799" width="10.000000" x="530.000000" y="213.365217" fill="rgb(0, 100, 0)" style="fill-opacity:0.53" />
<!-- End 'T' -->
<!-- Begin 'C' -->
<ellipse cx="535.000000" cy="218.894159" rx="25.000000" ry="0.954143" fill="rgb(0, 0, 128)" style="fill-opacity:0.53" />
<ellipse cx="535.000000" cy="218.894159" rx="16.666667" ry="0.636095" fill="rgb(255, 255, 255)" style="fill-opacity:1.00" />
<rect height="0.954143" width="25.000000" x="535.000000" y="218.417088" fill="rgb(255, 255, 255)" style="fill-opacity:1.00" />
<!-- End 'C' -->
<!-- Begin 'G' -->
<ellipse cx="535.000000" cy="219.924151" rx="25.000000" ry="0.075849" fill="rgb(255, 165, 0)" style="fill-opacity:0.53" />
<ellipse cx="535.000000" cy="219.924151" rx="16.666667" ry="0.050566" fill="rgb(255, 255, 255)" style="fill-opacity:1.00" />
<rect height="0.075849" width="25.000000" x="535.000000" y="219.886226" fill="rgb(255, 255, 255)" style="fill-opacity:1.00" />
<rect height="0.018962" width="25.000000" x="535.000000" y="219.943113" fill="rgb(255, 165, 0)" style="fill-opacity:0.53" />
<rect height="0.056887" width="6.250000" x="553.750000" y="219.943113" fill="rgb(255, 165, 0)" style="fill-opacity:0.53" />
<!-- End 'G' -->
<!-- Begin 'G' -->
<ellipse cx="535.000000" cy="279.074270" rx="25.000000" ry="49.074270" fill="rgb(255, 165, 0)" style="fill-opacity:0.00" />
<ellipse cx="535.000000" cy="279.074270" rx="16.666667" ry="32.716180" fill="rgb(255, 255, 255)" style="fill-opacity:1.00" />
<rect height="49.074270" width="25.000000" x="535.000000" y="254.537135" fill="rgb(255, 255, 255)" style="fill-opacity:1.00" />
<rect height="12.268567" width="25.000000" x="535.000000" y="291.342837" fill="rgb(255, 165, 0)" style="fill-opacity:0.00" />
<rect height="36.805702" width="6.250000" x="553.750000" y="291.342837" fill="rgb(255, 165, 0)" style="fill-opacity:0.00" />
<!-- End 'G' -->
<!-- Begin 'A' -->
<polygon points=" 510.000000, 329.991117, 531.000000, 328.148540, 539.000000, 328.148540, 560.000000, 329.991117, 552.500000, 329.991117, 546.250000, 329.530473, 523.750000, 329.530473, 517.500000, 329.991117" fill="rgb(178, 34, 34)" style="fill-opacity:0.00" />
<!-- End 'A' -->
<!-- Begin 'T' -->
<rect height="0.001392" width="50.000000" x="510.000000" y="329.991117" fill="rgb(0, 100, 0)" style="fill-opacity:0.00" />
<rect height="0.008702" width="10.000000" x="530.000000" y="329.991117" fill="rgb(0, 100, 0)" style="fill-opacity:0.00" />
<!-- End 'T' -->
<!-- Begin 'C' -->
<ellipse cx="535.000000" cy="329.999910" rx="25.000000" ry="0.000090" fill="rgb(0, 0, 128)" style="fill-opacity:0.00" />
<ellipse cx="535.000000" cy="329.999910" rx="16.666667" ry="0.000060" fill="rgb(255, 255, 255)" style="fill-opacity:1.00" />
<rect height="0.000090" width="25.000000" x="535.000000" y="329.999865" fill="rgb(255, 255, 255)" style="fill-opacity:1.00" />
<!-- End 'C' -->
<!-- Begin 'G' -->
<ellipse cx="535.000000" cy="389.996661" rx="25.000000" ry="49.996661" fill="rgb(255, 165, 0)" style="fill-opacity:0.46" />
<ellipse cx="535.000000" cy="389.996661" rx="16.666667" ry="33.331108" fill="rgb(255, 255, 255)" style="fill-opacity:1.00" />
<rect height="49.996661" width="25.000000" x="535.000000" y="364.998331" fill="rgb(255, 255, 255)" style="fill-opacity:1.00" />
<rect height="12.499165" width="25.000000" x="535.000000" y="402.495827" fill="rgb(255, 165, 0)" style="fill-opacity:0.46" />
<rect height="37.497496" width="6.250000" x="553.750000" y="402.495827" fill="rgb(255, 165, 0)" style="fill-opacity:0.46" />
<!-- End 'G' -->
<!-- Begin 'A' -->
<polygon points=" 510.000000, 439.998580, 531.000000, 439.993323, 539.000000, 439.993323, 560.000000, 439.998580, 552.500000, 439.998580, 546.250000, 439.997265, 523.750000, 439.997265, 517.500000, 439.998580" fill="rgb(178, 34, 34)" style="fill-opacity:0.46" />
<!-- End 'A' -->
<!-- Begin 'T' -->
<rect height="0.000224" width="50.000000" x="510.000000" y="439.998580" fill="rgb(0, 100, 0)" style="fill-opacity:0.46" />
<rect height="0.001401" width="10.000000" x="530.000000" y="439.998580" fill="rgb(0, 100, 0)" style="fill-opacity:0.46" />
<!-- End 'T' -->
<!-- Begin 'C' -->
<ellipse cx="535.000000" cy="439.999990" rx="25.000000" ry="0.000010" fill="rgb(0, 0, 128)" style="fill-opacity:0.46" />
<ellipse cx="535.000000" cy="439.999990" rx="16.666667" ry="0.000007" fill="rgb(255, 255, 255)" style="fill-opacity:1.00" />
<rect height="0.000010" width="25.000000" x="535.000000" y="439.999985" fill="rgb(255, 255, 255)" style="fill-opacity:1.00" />
<!-- End 'C' -->
<!-- Begin 'A' -->
<polygon points=" 570.000000, 103.089759, 591.000000, 10.000000, 599.000000, 10.000000, 620.000000, 103.089759, 612.500000, 103.089759, 606.250000, 79.817319, 583.750000, 79.817319, 577.500000, 103.089759" fill="rgb(178, 34, 34)" style="fill-opacity:0.51" />
<polygon points=" 595.000000, 28.617952, 587.000000, 64.853855, 602.000000, 64.853855" fill="rgb(255, 255, 255)" style="fill-opacity:1.00" />
<!-- End 'A' -->
<!-- Begin 'G' -->
<ellipse cx="595.000000" cy="105.794316" rx="25.000000" ry="2.704557" fill="rgb(255, 165, 0)" style="fill-opacity:0.51" />
<ellipse cx="595.000000" cy="105.794316" rx="16.666667" ry="1.803038" fill="rgb(255, 255, 255)" style="fill-opacity:1.00" />
<rect height="2.704557" width="25.000000" x="595.000000" y="104.442038" fill="rgb(255, 255, 255)" style="fill-opacity:1.00" />
<rect height="0.676139" width="25.000000" x="595.000000" y="106.470456" fill="rgb(255, 165, 0)" style="fill-opacity:0.51" />
<rect height="2.028418" width="6.250000" x="613.750000" y="106.470456" fill="rgb(255, 165, 0)" style="fill-opacity:0.51" />
<!-- End 'G' -->
<!-- Begin 'T' -->
<rect height="0.187749" width="50.000000" x="570.000000" y="108.498874" fill="rgb(0, 100, 0)" style="fill-opacity:0.51" />
<rect height="1.173432" width="10.000000" x="590.000000" y="108.498874" fill="rgb(0, 100, 0)" style="fill-opacity:0.51" />
<!-- End 'T' -->
<!-- Begin 'C' -->
<ellipse cx="595.000000" cy="109.836153" rx="25.000000" ry="0.163847" fill="rgb(0, 0, 128)" style="fill-opacity:0.51" />
<ellipse cx="595.000000" cy="109.836153" rx="16.666667" ry="0.109232" fill="rgb(255, 255, 255)" style="fill-opacity:1.00" />
<rect height="0.163847" width="25.000000" x="595.000000" y="109.754229" fill="rgb(255, 255, 255)" style="fill-opacity:1.00" />
<!-- End 'C' -->
<!-- Begin 'A' -->
<polygon points=" 570.000000, 219.998514, 591.000000, 120.000000, 599.000000, 120.000000, 620.000000, 219.998514, 612.500000, 219.998514, 606.250000, 194.998886, 583.750000, 194.998886, 577.500000, 219.998514" fill="rgb(178, 34, 34)" style="fill-opacity:0.01" />
<polygon points=" 595.000000, 139.999703, 587.000000, 178.999108, 602.000000, 178.999108" fill="rgb(255, 255, 255)" style="fill-opacity:1.00" />
<!-- End 'A' -->
<!-- Begin 'T' -->
<rect height="0.000116" width="50.000000" x="570.000000" y="219.998514" fill="rgb(0, 100, 0)" style="fill-opacity:0.01" />
<rect height="0.000727" width="10.000000" x="590.000000" y="219.998514" fill="rgb(0, 100, 0)" style="fill-opacity:0.01" />
<!-- End 'T' -->
<!-- Begin 'G' -->
<ellipse cx="595.000000" cy="219.999495" rx="25.000000" ry="0.000253" fill="rgb(255, 165, 0)" style="fill-opacity:0.01" />
<ellipse cx="595.000000" cy="219.999495" rx="16.666667" ry="0.000169" fill="rgb(255, 255, 255)" style="fill-opacity:1.00" />
<rect height="0.000253" width="25.000000" x="595.000000" y="219.999368" fill="rgb(255, 255, 255)" style="fill-opacity:1.00" />
<rect height="0.000063" width="25.000000" x="595.000000" y="219.999558" fill="rgb(255, 165, 0)" style="fill-opacity:0.01" />
<rect height="0.000190" width="6.250000" x="613.750000" y="219.999558" fill="rgb(255, 165, 0)" style="fill-opacity:0.01" />
<!-- End 'G' -->
<!-- Begin 'C' -->
<ellipse cx="595.000000" cy="219.999874" rx="25.000000" ry="0.000126" fill="rgb(0, 0, 128)" style="fill-opacity:0.01" />
<ellipse cx="595.000000" cy="219.999874" rx="16.666667" ry="0.000084" fill="rgb(255, 255, 255)" style="fill-opacity:1.00" />
<rect height="0.000126" width="25.000000" x="595.000000" y="219.999811" fill="rgb(255, 255, 255)" style="fill-opacity:1.00" />
<!-- End 'C' -->
<!-- Begin 'A' -->
<polygon points=" 570.000000, 329.966169, 591.000000, 230.000000, 599.000000, 230.000000, 620.000000, 329.966169, 612.500000, 329.966169, 606.250000, 304.974627, 583.750000, 304.974627, 577.500000, 329.966169" fill="rgb(178, 34, 34)" style="fill-opacity:0.46" />
<polygon points=" 595.000000, 249.993234, 587.000000, 288.979702, 602.000000, 288.979702" fill="rgb(255, 255, 255)" style="fill-opacity:1.00" />
<!-- End 'A' -->
<!-- Begin 'T' -->
<rect height="0.004998" width="50.000000" x="570.000000" y="329.966169" fill="rgb(0, 100, 0)" style="fill-opacity:0.46" />
<rect height="0.031239" width="10.000000" x="590.000000" y="329.966169" fill="rgb(0, 100, 0)" style="fill-opacity:0.46" />
<!-- End 'T' -->
<!-- Begin 'G' -->
<ellipse cx="595.000000" cy="329.998185" rx="25.000000" ry="0.000777" fill="rgb(255, 165, 0)" style="fill-opacity:0.46" />
<ellipse cx="595.000000" cy="329.998185" rx="16.666667" ry="0.000518" fill="rgb(255, 255, 255)" style="fill-opacity:1.00" />
<rect height="0.000777" width="25.000000" x="595.000000" y="329.997797" fill="rgb(255, 255, 255)" style="fill-opacity:1.00" />
<rect height="0.000194" width="25.000000" x="595.000000" y="329.998380" fill="rgb(255, 165, 0)" style="fill-opacity:0.46" />
<rect height="0.000583" width="6.250000" x="613.750000" y="329.998380" fill="rgb(255, 165, 0)" style="fill-opacity:0.46" />
<!-- End 'G' -->
<!-- Begin 'C' -->
<ellipse cx="595.000000" cy="329.999481" rx="25.000000" ry="0.000519" fill="rgb(0, 0, 128)" style="fill-opacity:0.46" />
<ellipse cx="595.000000" cy="329.999481" rx="16.666667" ry="0.000346" fill="rgb(255, 255, 255)" style="fill-opacity:1.00" />
<rect height="0.000519" width="25.000000" x="595.000000" y="329.999222" fill="rgb(255, 255, 255)" style="fill-opacity:1.00" />
<!-- End 'C' -->
<!-- Begin 'T' -->
<rect height="10.184078" width="50.000000" x="570.000000" y="340.000000" fill="rgb(0, 100, 0)" style="fill-opacity:0.02" />
<rect height="63.650487" width="10.000000" x="590.000000" y="340.000000" fill="rgb(0, 100, 0)" style="fill-opacity:0.02" />
<!-- End 'T' -->
<!-- Begin 'C' -->
<ellipse cx="595.000000" cy="412.821383" rx="25.000000" ry="9.170896" fill="rgb(0, 0, 128)" style="fill-opacity:0.02" />
<ellipse cx="595.000000" cy="412.821383" rx="16.666667" ry="6.113931" fill="rgb(255, 255, 255)" style="fill-opacity:1.00" />
<rect height="9.170896" width="25.000000" x="595.000000" y="408.235935" fill="rgb(255, 255, 255)" style="fill-opacity:1.00" />
<!-- End 'C' -->
<!-- Begin 'A' -->
<polygon points=" 570.000000, 439.999646, 591.000000, 421.992279, 599.000000, 421.992279, 620.000000, 439.999646, 612.500000, 439.999646, 606.250000, 435.497804, 583.750000, 435.497804, 577.500000, 439.999646" fill="rgb(178, 34, 34)" style="fill-opacity:0.02" />
<polygon points=" 595.000000, 425.593752, 587.000000, 431.796699, 602.000000, 431.796699" fill="rgb(255, 255, 255)" style="fill-opacity:1.00" />
<!-- End 'A' -->
<!-- Begin 'G' -->
<ellipse cx="595.000000" cy="439.999823" rx="25.000000" ry="0.000177" fill="rgb(255, 165, 0)" style="fill-opacity:0.02" />
<ellipse cx="595.000000" cy="439.999823" rx="16.666667" ry="0.000118" fill="rgb(255, 255, 255)" style="fill-opacity:1.00" />
<rect height="0.000177" width="25.000000" x="595.000000" y="439.999735" fill="rgb(255, 255, 255)" style="fill-opacity:1.00" />
<rect height="0.000044" width="25.000000" x="595.000000" y="439.999867" fill="rgb(255, 165, 0)" style="fill-opacity:0.02" />
<rect height="0.000133" width="6.250000" x="613.750000" y="439.999867" fill="rgb(255, 165, 0)" style="fill-opacity:0.02" />
<!-- End 'G' -->
<!-- Begin 'C' -->
<ellipse cx="655.000000" cy="45.645180" rx="25.000000" ry="35.645180" fill="rgb(0, 0, 128)" style="fill-opacity:0.94" />
<ellipse cx="655.000000" cy="45.645180" rx="16.666667" ry="23.763453" fill="rgb(255, 255, 255)" style="fill-opacity:1.00" />
<rect height="35.645180" width="25.000000" x="655.000000" y="27.822590" fill="rgb(255, 255, 255)" style="fill-opacity:1.00" />
<!-- End 'C' -->
<!-- Begin 'A' -->
<polygon points=" 630.000000, 101.728844, 651.000000, 81.290360, 659.000000, 81.290360, 680.000000, 101.728844, 672.500000, 101.728844, 666.250000, 96.619223, 643.750000, 96.619223, 637.500000, 101.728844" fill="rgb(178, 34, 34)" style="fill-opacity:0.94" />
<polygon points=" 655.000000, 85.378057, 647.000000, 92.553450, 662.000000, 92.553450" fill="rgb(255, 255, 255)" style="fill-opacity:1.00" />
<!-- End 'A' -->
<!-- Begin 'T' -->
<rect height="1.129773" width="50.000000" x="630.000000" y="101.728844" fill="rgb(0, 100, 0)" style="fill-opacity:0.94" />
<rect height="7.061079" width="10.000000" x="650.000000" y="101.728844" fill="rgb(0, 100, 0)" style="fill-opacity:0.94" />
<!-- End 'T' -->
<!-- Begin 'G' -->
<ellipse cx="655.000000" cy="109.394961" rx="25.000000" ry="0.605039" fill="rgb(255, 165, 0)" style="fill-opacity:0.94" />
<ellipse cx="655.000000" cy="109.394961" rx="16.666667" ry="0.403359" fill="rgb(255, 255, 255)" style="fill-opacity:1.00" />
<rect height="0.605039" width="25.000000" x="655.000000" y="109.092442" fill="rgb(255, 255, 255)" style="fill-opacity:1.00" />
<rect height="0.151260" width="25.000000" x="655.000000" y="109.546221" fill="rgb(255, 165, 0)" style="fill-opacity:0.94" />
<rect height="0.453779" width="6.250000" x="673.750000" y="109.546221" fill="rgb(255, 165, 0)" style="fill-opacity:0.94" />
<!-- End 'G' -->
<!-- Begin 'C' -->
<ellipse cx="655.000000" cy="158.151048" rx="25.000000" ry="38.151048" fill="rgb(0, 0, 128)" style="fill-opacity:0.01" />
<ellipse cx="655.000000" cy="158.151048" rx="16.666667" ry="25.434032" fill="rgb(255, 255, 255)" style="fill-opacity:1.00" />
<rect height="38.151048" width="25.000000" x="655.000000" y="139.075524" fill="rgb(255, 255, 255)" style="fill-opacity:1.00" />
<!-- End 'C' -->
<!-- Begin 'A' -->
<polygon points=" 630.000000, 213.635704, 651.000000, 196.302096, 659.000000, 196.302096, 680.000000, 213.635704, 672.500000, 213.635704, 666.250000, 209.302302, 643.750000, 209.302302, 637.500000, 213.635704" fill="rgb(178, 34, 34)" style="fill-opacity:0.01" />
<polygon points=" 655.000000, 199.768817, 647.000000, 205.702260, 662.000000, 205.702260" fill="rgb(255, 255, 255)" style="fill-opacity:1.00" />
<!-- End 'A' -->
<!-- Begin 'T' -->
<rect height="0.789957" width="50.000000" x="630.000000" y="213.635704" fill="rgb(0, 100, 0)" style="fill-opacity:0.01" />
<rect height="4.937234" width="10.000000" x="650.000000" y="213.635704" fill="rgb(0, 100, 0)" style="fill-opacity:0.01" />
<!-- End 'T' -->
<!-- Begin 'G' -->
<ellipse cx="655.000000" cy="219.286469" rx="25.000000" ry="0.713531" fill="rgb(255, 165, 0)" style="fill-opacity:0.01" />
<ellipse cx="655.000000" cy="219.286469" rx="16.666667" ry="0.475687" fill="rgb(255, 255, 255)" style="fill-opacity:1.00" />
<rect height="0.713531" width="25.000000" x="655.000000" y="218.929703" fill="rgb(255, 255, 255)" style="fill-opacity:1.00" />
<rect height="0.178383" width="25.000000" x="655.000000" y="219.464852" fill="rgb(255, 165, 0)" style="fill-opacity:0.01" />
<rect height="0.535148" width="6.250000" x="673.750000" y="219.464852" fill="rgb(255, 165, 0)" style="fill-opacity:0.01" />
<!-- End 'G' -->
<!-- Begin 'A' -->
<polygon points=" 630.000000, 288.014941, 651.000000, 230.000000, 659.000000, 230.000000, 680.000000, 288.014941, 672.500000, 288.014941, 666.250000, 273.511206, 643.750000, 273.511206, 637.500000, 288.014941" fill="rgb(178, 34, 34)" style="fill-opacity:0.03" />
<polygon points=" 655.000000, 241.602988, 647.000000, 263.808965, 662.000000, 263.808965" fill="rgb(255, 255, 255)" style="fill-opacity:1.00" />
<!-- End 'A' -->
<!-- Begin 'C' -->
<ellipse cx="655.000000" cy="308.908350" rx="25.000000" ry="20.893408" fill="rgb(0, 0, 128)" style="fill-opacity:0.03" />
<ellipse cx="655.000000" cy="308.908350" rx="16.666667" ry="13.928939" fill="rgb(255, 255, 255)" style="fill-opacity:1.00" />
<rect height="20.893408" width="25.000000" x="655.000000" y="298.461645" fill="rgb(255, 255, 255)" style="fill-opacity:1.00" />
<!-- End 'C' -->
<!-- Begin 'T' -->
<rect height="0.031689" width="50.000000" x="630.000000" y="329.801758" fill="rgb(0, 100, 0)" style="fill-opacity:0.03" />
<rect height="0.198058" width="10.000000" x="650.000000" y="329.801758" fill="rgb(0, 100, 0)" style="fill-opacity:0.03" />
<!-- End 'T' -->
<!-- Begin 'G' -->
<ellipse cx="655.000000" cy="329.999908" rx="25.000000" ry="0.000092" fill="rgb(255, 165, 0)" style="fill-opacity:0.03" />
<ellipse cx="655.000000" cy="329.999908" rx="16.666667" ry="0.000061" fill="rgb(255, 255, 255)" style="fill-opacity:1.00" />
<rect height="0.000092" width="25.000000" x="655.000000" y="329.999862" fill="rgb(255, 255, 255)" style="fill-opacity:1.00" />
<rect height="0.000023" width="25.000000" x="655.000000" y="329.999931" fill="rgb(255, 165, 0)" style="fill-opacity:0.03" />
<rect height="0.000069" width="6.250000" x="673.750000" y="329.999931" fill="rgb(255, 165, 0)" style="fill-opacity:0.03" />
<!-- End 'G' -->
<!-- Begin 'C' -->
<ellipse cx="655.000000" cy="377.975292" rx="25.000000" ry="37.975292" fill="rgb(0, 0, 128)" style="fill-opacity:0.02" />
<ellipse cx="655.000000" cy="377.975292" rx="16.666667" ry="25.316861" fill="rgb(255, 255, 255)" style="fill-opacity:1.00" />
<rect height="37.975292" width="25.000000" x="655.000000" y="358.987646" fill="rgb(255, 255, 255)" style="fill-opacity:1.00" />
<!-- End 'C' -->
<!-- Begin 'A' -->
<polygon points=" 630.000000, 437.959093, 651.000000, 415.950583, 659.000000, 415.950583, 680.000000, 437.959093, 672.500000, 437.959093, 666.250000, 432.456965, 643.750000, 432.456965, 637.500000, 437.959093" fill="rgb(178, 34, 34)" style="fill-opacity:0.02" />
<polygon points=" 655.000000, 420.352285, 647.000000, 428.155689, 662.000000, 428.155689" fill="rgb(255, 255, 255)" style="fill-opacity:1.00" />
<!-- End 'A' -->
<!-- Begin 'T' -->
<rect height="0.297250" width="50.000000" x="630.000000" y="437.959093" fill="rgb(0, 100, 0)" style="fill-opacity:0.02" />
<rect height="1.857811" width="10.000000" x="650.000000" y="437.959093" fill="rgb(0, 100, 0)" style="fill-opacity:0.02" />
<!-- End 'T' -->
<!-- Begin 'G' -->
<ellipse cx="655.000000" cy="439.908452" rx="25.000000" ry="0.091548" fill="rgb(255, 165, 0)" style="fill-opacity:0.02" />
<ellipse cx="655.000000" cy="439.908452" rx="16.666667" ry="0.061032" fill="rgb(255, 255, 255)" style="fill-opacity:1.00" />
<rect height="0.091548" width="25.000000" x="655.000000" y="439.862678" fill="rgb(255, 255, 255)" style="fill-opacity:1.00" />
<rect height="0.022887" width="25.000000" x="655.000000" y="439.931339" fill="rgb(255, 165, 0)" style="fill-opacity:0.02" />
<rect height="0.068661" width="6.250000" x="673.750000" y="439.931339" fill="rgb(255, 165, 0)" style="fill-opacity:0.02" />
<!-- End 'G' -->
<!-- Begin 'A' -->
<polygon points=" 690.000000, 38.340336, 711.000000, 10.000000, 719.000000, 10.000000, 740.000000, 38.340336, 732.500000, 38.340336, 726.250000, 31.255252, 703.750000, 31.255252, 697.500000, 38.340336" fill="rgb(178, 34, 34)" style="fill-opacity:0.21" />
<polygon points=" 715.000000, 15.668067, 707.000000, 26.004201, 722.000000, 26.004201" fill="rgb(255, 255, 255)" style="fill-opacity:1.00" />
<!-- End 'A' -->
<!-- Begin 'C' -->
<ellipse cx="715.000000" cy="51.058277" rx="25.000000" ry="12.717941" fill="rgb(0, 0, 128)" style="fill-opacity:0.21" />
<ellipse cx="715.000000" cy="51.058277" rx="16.666667" ry="8.478628" fill="rgb(255, 255, 255)" style="fill-opacity:1.00" />
<rect height="12.717941" width="25.000000" x="715.000000" y="44.699306" fill="rgb(255, 255, 255)" style="fill-opacity:1.00" />
<!-- End 'C' -->
<!-- Begin 'T' -->
<rect height="3.790589" width="50.000000" x="690.000000" y="63.776218" fill="rgb(0, 100, 0)" style="fill-opacity:0.21" />
<rect height="23.691183" width="10.000000" x="710.000000" y="63.776218" fill="rgb(0, 100, 0)" style="fill-opacity:0.21" />
<!-- End 'T' -->
<!-- Begin 'G' -->
<ellipse cx="715.000000" cy="98.733701" rx="25.000000" ry="11.266299" fill="rgb(255, 165, 0)" style="fill-opacity:0.21" />
<ellipse cx="715.000000" cy="98.733701" rx="16.666667" ry="7.510866" fill="rgb(255, 255, 255)" style="fill-opacity:1.00" />
<rect height="11.266299" width="25.000000" x="715.000000" y="93.100551" fill="rgb(255, 255, 255)" style="fill-opacity:1.00" />
<rect height="2.816575" width="25.000000" x="715.000000" y="101.550275" fill="rgb(255, 165, 0)" style="fill-opacity:0.21" />
<rect height="8.449725" width="6.250000" x="733.750000" y="101.550275" fill="rgb(255, 165, 0)" style="fill-opacity:0.21" />
<!-- End 'G' -->
<!-- Begin 'T' -->
<rect height="9.067826" width="50.000000" x="690.000000" y="120.000000" fill="rgb(0, 100, 0)" style="fill-opacity:0.71" />
<rect height="56.673912" width="10.000000" x="710.000000" y="120.000000" fill="rgb(0, 100, 0)" style="fill-opacity:0.71" />
<!-- End 'T' -->
<!-- Begin 'C' -->
<ellipse cx="715.000000" cy="185.069229" rx="25.000000" ry="8.395318" fill="rgb(0, 0, 128)" style="fill-opacity:0.71" />
<ellipse cx="715.000000" cy="185.069229" rx="16.666667" ry="5.596878" fill="rgb(255, 255, 255)" style="fill-opacity:1.00" />
<rect height="8.395318" width="25.000000" x="715.000000" y="180.871571" fill="rgb(255, 255, 255)" style="fill-opacity:1.00" />
<!-- End 'C' -->
<!-- Begin 'G' -->
<ellipse cx="715.000000" cy="200.166850" rx="25.000000" ry="6.702303" fill="rgb(255, 165, 0)" style="fill-opacity:0.71" />
<ellipse cx="715.000000" cy="200.166850" rx="16.666667" ry="4.468202" fill="rgb(255, 255, 255)" style="fill-opacity:1.00" />
<rect height="6.702303" width="25.000000" x="715.000000" y="196.815699" fill="rgb(255, 255, 255)" style="fill-opacity:1.00" />
<rect height="1.675576" width="25.000000" x="715.000000" y="201.842426" fill="rgb(255, 165, 0)" style="fill-opacity:0.71" />
<rect height="5.026728" width="6.250000" x="733.750000" y="201.842426" fill="rgb(255, 165, 0)" style="fill-opacity:0.71" />
<!-- End 'G' -->
<!-- Begin 'A' -->
<polygon points=" 690.000000, 220.000000, 711.000000, 206.869154, 719.000000, 206.869154, 740.000000, 220.000000, 732.500000, 220.000000, 726.250000, 216.717288, 703.750000, 216.717288, 697.500000, 220.000000" fill="rgb(178, 34, 34)" style="fill-opacity:0.71" />
<polygon points=" 715.000000, 209.495323, 707.000000, 213.747662, 722.000000, 213.747662" fill="rgb(255, 255, 255)" style="fill-opacity:1.00" />
<!-- End 'A' -->
<!-- Begin 'A' -->
<polygon points=" 690.000000, 275.634449, 711.000000, 230.000000, 719.000000, 230.000000, 740.000000, 275.634449, 732.500000, 275.634449, 726.250000, 264.225837, 703.750000, 264.225837, 697.500000, 275.634449" fill="rgb(178, 34, 34)" style="fill-opacity:0.01" />
<polygon points=" 715.000000, 239.126890, 707.000000, 256.380670, 722.000000, 256.380670" fill="rgb(255, 255, 255)" style="fill-opacity:1.00" />
<!-- End 'A' -->
<!-- Begin 'G' -->
<ellipse cx="715.000000" cy="286.555750" rx="25.000000" ry="10.921301" fill="rgb(255, 165, 0)" style="fill-opacity:0.01" />
<ellipse cx="715.000000" cy="286.555750" rx="16.666667" ry="7.280867" fill="rgb(255, 255, 255)" style="fill-opacity:1.00" />
<rect height="10.921301" width="25.000000" x="715.000000" y="281.095100" fill="rgb(255, 255, 255)" style="fill-opacity:1.00" />
<rect height="2.730325" width="25.000000" x="715.000000" y="289.286075" fill="rgb(255, 165, 0)" style="fill-opacity:0.01" />
<rect height="8.190976" width="6.250000" x="733.750000" y="289.286075" fill="rgb(255, 165, 0)" style="fill-opacity:0.01" />
<!-- End 'G' -->
<!-- Begin 'C' -->
<ellipse cx="715.000000" cy="306.072573" rx="25.000000" ry="8.595522" fill="rgb(0, 0, 128)" style="fill-opacity:0.01" />
<ellipse cx="715.000000" cy="306.072573" rx="16.666667" ry="5.730348" fill="rgb(255, 255, 255)" style="fill-opacity:1.00" />
<rect height="8.595522" width="25.000000" x="715.000000" y="301.774812" fill="rgb(255, 255, 255)" style="fill-opacity:1.00" />
<!-- End 'C' -->
<!-- Begin 'T' -->
<rect height="2.453105" width="50.000000" x="690.000000" y="314.668096" fill="rgb(0, 100, 0)" style="fill-opacity:0.01" />
<rect height="15.331904" width="10.000000" x="710.000000" y="314.668096" fill="rgb(0, 100, 0)" style="fill-opacity:0.01" />
<!-- End 'T' -->
<!-- Begin 'G' -->
<ellipse cx="715.000000" cy="364.242305" rx="25.000000" ry="24.242305" fill="rgb(255, 165, 0)" style="fill-opacity:0.07" />
<ellipse cx="715.000000" cy="364.242305" rx="16.666667" ry="16.161537" fill="rgb(255, 255, 255)" style="fill-opacity:1.00" />
<rect height="24.242305" width="25.000000" x="715.000000" y="352.121153" fill="rgb(255, 255, 255)" style="fill-opacity:1.00" />
<rect height="6.060576" width="25.000000" x="715.000000" y="370.302882" fill="rgb(255, 165, 0)" style="fill-opacity:0.07" />
<rect height="18.181729" width="6.250000" x="733.750000" y="370.302882" fill="rgb(255, 165, 0)" style="fill-opacity:0.07" />
<!-- End 'G' -->
<!-- Begin 'A' -->
<polygon points=" 690.000000, 411.139588, 711.000000, 388.484611, 719.000000, 388.484611, 740.000000, 411.139588, 732.500000, 411.139588, 726.250000, 405.475844, 703.750000, 405.475844, 697.500000, 411.139588" fill="rgb(178, 34, 34)" style="fill-opacity:0.07" />
<polygon points=" 715.000000, 393.015606, 707.000000, 401.077597, 722.000000, 401.077597" fill="rgb(255, 255, 255)" style="fill-opacity:1.00" />
<!-- End 'A' -->
<!-- Begin 'T' -->
<rect height="3.206383" width="50.000000" x="690.000000" y="411.139588" fill="rgb(0, 100, 0)" style="fill-opacity:0.07" />
<rect height="20.039895" width="10.000000" x="710.000000" y="411.139588" fill="rgb(0, 100, 0)" style="fill-opacity:0.07" />
<!-- End 'T' -->
<!-- Begin 'C' -->
<ellipse cx="715.000000" cy="435.589742" rx="25.000000" ry="4.410258" fill="rgb(0, 0, 128)" style="fill-opacity:0.07" />
<ellipse cx="715.000000" cy="435.589742" rx="16.666667" ry="2.940172" fill="rgb(255, 255, 255)" style="fill-opacity:1.00" />
<rect height="4.410258" width="25.000000" x="715.000000" y="433.384612" fill="rgb(255, 255, 255)" style="fill-opacity:1.00" />
<!-- End 'C' -->
<!-- Begin 'T' -->
<rect height="5.476934" width="50.000000" x="750.000000" y="10.000000" fill="rgb(0, 100, 0)" style="fill-opacity:0.17" />
<rect height="34.230840" width="10.000000" x="770.000000" y="10.000000" fill="rgb(0, 100, 0)" style="fill-opacity:0.17" />
<!-- End 'T' -->
<!-- Begin 'A' -->
<polygon points=" 750.000000, 76.356357, 771.000000, 44.230840, 779.000000, 44.230840, 800.000000, 76.356357, 792.500000, 76.356357, 786.250000, 68.324978, 763.750000, 68.324978, 757.500000, 76.356357" fill="rgb(178, 34, 34)" style="fill-opacity:0.17" />
<polygon points=" 775.000000, 50.655943, 767.000000, 62.506150, 782.000000, 62.506150" fill="rgb(255, 255, 255)" style="fill-opacity:1.00" />
<!-- End 'A' -->
<!-- Begin 'C' -->
<ellipse cx="775.000000" cy="86.218654" rx="25.000000" ry="9.862297" fill="rgb(0, 0, 128)" style="fill-opacity:0.17" />
<ellipse cx="775.000000" cy="86.218654" rx="16.666667" ry="6.574865" fill="rgb(255, 255, 255)" style="fill-opacity:1.00" />
<rect height="9.862297" width="25.000000" x="775.000000" y="81.287506" fill="rgb(255, 255, 255)" style="fill-opacity:1.00" />
<!-- End 'C' -->
<!-- Begin 'G' -->
<ellipse cx="775.000000" cy="103.040476" rx="25.000000" ry="6.959524" fill="rgb(255, 165, 0)" style="fill-opacity:0.17" />
<ellipse cx="775.000000" cy="103.040476" rx="16.666667" ry="4.639683" fill="rgb(255, 255, 255)" style="fill-opacity:1.00" />
<rect height="6.959524" width="25.000000" x="775.000000" y="99.560714" fill="rgb(255, 255, 255)" style="fill-opacity:1.00" />
<rect height="1.739881" width="25.000000" x="775.000000" y="104.780357" fill="rgb(255, 165, 0)" style="fill-opacity:0.17" />
<rect height="5.219643" width="6.250000" x="793.750000" y="104.780357" fill="rgb(255, 165, 0)" style="fill-opacity:0.17" />
<!-- End 'G' -->
<!-- Begin 'A' -->
<polygon points=" 750.000000, 162.359127, 771.000000, 120.000000, 779.000000, 120.000000, 800.000000, 162.359127, 792.500000, 162.359127, 786.250000, 151.769345, 763.750000, 151.769345, 757.500000, 162.359127" fill="rgb(178, 34, 34)" style="fill-opacity:0.18" />
<polygon points=" 775.000000, 128.471825, 767.000000, 144.415476, 782.000000, 144.415476" fill="rgb(255, 255, 255)" style="fill-opacity:1.00" />
<!-- End 'A' -->
<!-- Begin 'T' -->
<rect height="4.803804" width="50.000000" x="750.000000" y="162.359127" fill="rgb(0, 100, 0)" style="fill-opacity:0.18" />
<rect height="30.023776" width="10.000000" x="770.000000" y="162.359127" fill="rgb(0, 100, 0)" style="fill-opacity:0.18" />
<!-- End 'T' -->
<!-- Begin 'C' -->
<ellipse cx="775.000000" cy="201.822075" rx="25.000000" ry="9.439171" fill="rgb(0, 0, 128)" style="fill-opacity:0.18" />
<ellipse cx="775.000000" cy="201.822075" rx="16.666667" ry="6.292781" fill="rgb(255, 255, 255)" style="fill-opacity:1.00" />
<rect height="9.439171" width="25.000000" x="775.000000" y="197.102489" fill="rgb(255, 255, 255)" style="fill-opacity:1.00" />
<!-- End 'C' -->
<!-- Begin 'G' -->
<ellipse cx="775.000000" cy="215.630623" rx="25.000000" ry="4.369377" fill="rgb(255, 165, 0)" style="fill-opacity:0.18" />
<ellipse cx="775.000000" cy="215.630623" rx="16.666667" ry="2.912918" fill="rgb(255, 255, 255)" style="fill-opacity:1.00" />
<rect height="4.369377" width="25.000000" x="775.000000" y="213.445935" fill="rgb(255, 255, 255)" style="fill-opacity:1.00" />
<rect height="1.092344" width="25.000000" x="775.000000" y="216.722967" fill="rgb(255, 165, 0)" style="fill-opacity:0.18" />
<rect height="3.277033" width="6.250000" x="793.750000" y="216.722967" fill="rgb(255, 165, 0)" style="fill-opacity:0.18" />
<!-- End 'G' -->
<!-- Begin 'A' -->
<polygon points=" 750.000000, 265.490307, 771.000000, 230.000000, 779.000000, 230.000000, 800.000000, 265.490307, 792.500000, 265.490307, 786.250000, 256.617730, 763.750000, 256.617730, 757.500000, 265.490307" fill="rgb(178, 34, 34)" style="fill-opacity:0.18" />
<polygon points=" 775.000000, 237.098061, 767.000000, 250.294184, 782.000000, 250.294184" fill="rgb(255, 255, 255)" style="fill-opacity:1.00" />
<!-- End 'A' -->
<!-- Begin 'T' -->
<rect height="3.727738" width="50.000000" x="750.000000" y="265.490307" fill="rgb(0, 100, 0)" style="fill-opacity:0.18" />
<rect height="23.298360" width="10.000000" x="770.000000" y="265.490307" fill="rgb(0, 100, 0)" style="fill-opacity:0.18" />
<!-- End 'T' -->
<!-- Begin 'G' -->
<ellipse cx="775.000000" cy="299.557422" rx="25.000000" ry="10.768755" fill="rgb(255, 165, 0)" style="fill-opacity:0.18" />
<ellipse cx="775.000000" cy="299.557422" rx="16.666667" ry="7.179170" fill="rgb(255, 255, 255)" style="fill-opacity:1.00" />
<rect height="10.768755" width="25.000000" x="775.000000" y="294.173044" fill="rgb(255, 255, 255)" style="fill-opacity:1.00" />
<rect height="2.692189" width="25.000000" x="775.000000" y="302.249611" fill="rgb(255, 165, 0)" style="fill-opacity:0.18" />
<rect height="8.076566" width="6.250000" x="793.750000" y="302.249611" fill="rgb(255, 165, 0)" style="fill-opacity:0.18" />
<!-- End 'G' -->
<!-- Begin 'C' -->
<ellipse cx="775.000000" cy="320.163089" rx="25.000000" ry="9.836911" fill="rgb(0, 0, 128)" style="fill-opacity:0.18" />
<ellipse cx="775.000000" cy="320.163089" rx="16.666667" ry="6.557941" fill="rgb(255, 255, 255)" style="fill-opacity:1.00" />
<rect height="9.836911" width="25.000000" x="775.000000" y="315.244633" fill="rgb(255, 255, 255)" style="fill-opacity:1.00" />
<!-- End 'C' -->
<!-- Begin 'T' -->
<rect height="9.451131" width="50.000000" x="750.000000" y="340.000000" fill="rgb(0, 100, 0)" style="fill-opacity:0.47" />
<rect height="59.069570" width="10.000000" x="770.000000" y="340.000000" fill="rgb(0, 100, 0)" style="fill-opacity:0.47" />
<!-- End 'T' -->
<!-- Begin 'A' -->
<polygon points=" 750.000000, 419.380563, 771.000000, 399.069570, 779.000000, 399.069570, 800.000000, 419.380563, 792.500000, 419.380563, 786.250000, 414.302814, 763.750000, 414.302814, 757.500000, 419.380563" fill="rgb(178, 34, 34)" style="fill-opacity:0.47" />
<polygon points=" 775.000000, 403.131768, 767.000000, 410.256166, 782.000000, 410.256166" fill="rgb(255, 255, 255)" style="fill-opacity:1.00" />
<!-- End 'A' -->
<!-- Begin 'C' -->
<ellipse cx="775.000000" cy="426.511331" rx="25.000000" ry="7.130768" fill="rgb(0, 0, 128)" style="fill-opacity:0.47" />
<ellipse cx="775.000000" cy="426.511331" rx="16.666667" ry="4.753845" fill="rgb(255, 255, 255)" style="fill-opacity:1.00" />
<rect height="7.130768" width="25.000000" x="775.000000" y="422.945947" fill="rgb(255, 255, 255)" style="fill-opacity:1.00" />
<!-- End 'C' -->
<!-- Begin 'G' -->
<ellipse cx="775.000000" cy="436.821049" rx="25.000000" ry="3.178951" fill="rgb(255, 165, 0)" style="fill-opacity:0.47" />
<ellipse cx="775.000000" cy="436.821049" rx="16.666667" ry="2.119300" fill="rgb(255, 255, 255)" style="fill-opacity:1.00" />
<rect height="3.178951" width="25.000000" x="775.000000" y="435.231574" fill="rgb(255, 255, 255)" style="fill-opacity:1.00" />
<rect height="0.794738" width="25.000000" x="775.000000" y="437.615787" fill="rgb(255, 165, 0)" style="fill-opacity:0.47" />
<rect height="2.384213" width="6.250000" x="793.750000" y="437.615787" fill="rgb(255, 165, 0)" style="fill-opacity:0.47" />
<!-- End 'G' -->
<!-- Begin 'A' -->
<polygon points=" 810.000000, 48.886218, 831.000000, 10.000000, 839.000000, 10.000000, 860.000000, 48.886218, 852.500000, 48.886218, 846.250000, 39.164663, 823.750000, 39.164663, 817.500000, 48.886218" fill="rgb(178, 34, 34)" style="fill-opacity:0.29" />
<polygon points=" 835.000000, 17.777244, 827.000000, 32.331731, 842.000000, 32.331731" fill="rgb(255, 255, 255)" style="fill-opacity:1.00" />
<!-- End 'A' -->
<!-- Begin 'T' -->
<rect height="5.286841" width="50.000000" x="810.000000" y="48.886218" fill="rgb(0, 100, 0)" style="fill-opacity:0.29" />
<rect height="33.042753" width="10.000000" x="830.000000" y="48.886218" fill="rgb(0, 100, 0)" style="fill-opacity:0.29" />
<!-- End 'T' -->
<!-- Begin 'C' -->
<ellipse cx="835.000000" cy="89.653126" rx="25.000000" ry="7.724155" fill="rgb(0, 0, 128)" style="fill-opacity:0.29" />
<ellipse cx="835.000000" cy="89.653126" rx="16.666667" ry="5.149437" fill="rgb(255, 255, 255)" style="fill-opacity:1.00" />
<rect height="7.724155" width="25.000000" x="835.000000" y="85.791049" fill="rgb(255, 255, 255)" style="fill-opacity:1.00" />
<!-- End 'C' -->
<!-- Begin 'G' -->
<ellipse cx="835.000000" cy="103.688641" rx="25.000000" ry="6.311359" fill="rgb(255, 165, 0)" style="fill-opacity:0.29" />
<ellipse cx="835.000000" cy="103.688641" rx="16.666667" ry="4.207573" fill="rgb(255, 255, 255)" style="fill-opacity:1.00" />
<rect height="6.311359" width="25.000000" x="835.000000" y="100.532961" fill="rgb(255, 255, 255)" style="fill-opacity:1.00" />
<rect height="1.577840" width="25.000000" x="835.000000" y="105.266480" fill="rgb(255, 165, 0)" style="fill-opacity:0.29" />
<rect height="4.733520" width="6.250000" x="853.750000" y="105.266480" fill="rgb(255, 165, 0)" style="fill-opacity:0.29" />
<!-- End 'G' -->
<!-- Begin 'T' -->
<rect height="6.688721" width="50.000000" x="810.000000" y="120.000000" fill="rgb(0, 100, 0)" style="fill-opacity:0.17" />
<rect height="41.804506" width="10.000000" x="830.000000" y="120.000000" fill="rgb(0, 100, 0)" style="fill-opacity:0.17" />
<!-- End 'T' -->
<!-- Begin 'A' -->
<polygon points=" 810.000000, 190.814647, 831.000000, 161.804506, 839.000000, 161.804506, 860.000000, 190.814647, 852.500000, 190.814647, 846.250000, 183.562111, 823.750000, 183.562111, 817.500000, 190.814647" fill="rgb(178, 34, 34)" style="fill-opacity:0.17" />
<polygon points=" 835.000000, 167.606534, 827.000000, 178.210590, 842.000000, 178.210590" fill="rgb(255, 255, 255)" style="fill-opacity:1.00" />
<!-- End 'A' -->
<!-- Begin 'C' -->
<ellipse cx="835.000000" cy="200.390603" rx="25.000000" ry="9.575956" fill="rgb(0, 0, 128)" style="fill-opacity:0.17" />
<ellipse cx="835.000000" cy="200.390603" rx="16.666667" ry="6.383971" fill="rgb(255, 255, 255)" style="fill-opacity:1.00" />
<rect height="9.575956" width="25.000000" x="835.000000" y="195.602625" fill="rgb(255, 255, 255)" style="fill-opacity:1.00" />
<!-- End 'C' -->
<!-- Begin 'G' -->
<ellipse cx="835.000000" cy="214.983280" rx="25.000000" ry="5.016720" fill="rgb(255, 165, 0)" style="fill-opacity:0.17" />
<ellipse cx="835.000000" cy="214.983280" rx="16.666667" ry="3.344480" fill="rgb(255, 255, 255)" style="fill-opacity:1.00" />
<rect height="5.016720" width="25.000000" x="835.000000" y="212.474920" fill="rgb(255, 255, 255)" style="fill-opacity:1.00" />
<rect height="1.254180" width="25.000000" x="835.000000" y="216.237460" fill="rgb(255, 165, 0)" style="fill-opacity:0.17" />
<rect height="3.762540" width="6.250000" x="853.750000" y="216.237460" fill="rgb(255, 165, 0)" style="fill-opacity:0.17" />
<!-- End 'G' -->
<!-- Begin 'T' -->
<rect height="5.661869" width="50.000000" x="810.000000" y="230.000000" fill="rgb(0, 100, 0)" style="fill-opacity:0.11" />
<rect height="35.386679" width="10.000000" x="830.000000" y="230.000000" fill="rgb(0, 100, 0)" style="fill-opacity:0.11" />
<!-- End 'T' -->
<!-- Begin 'A' -->
<polygon points=" 810.000000, 296.740428, 831.000000, 265.386679, 839.000000, 265.386679, 860.000000, 296.740428, 852.500000, 296.740428, 846.250000, 288.901990, 823.750000, 288.901990, 817.500000, 296.740428" fill="rgb(178, 34, 34)" style="fill-opacity:0.11" />
<polygon points=" 835.000000, 271.657429, 827.000000, 283.198928, 842.000000, 283.198928" fill="rgb(255, 255, 255)" style="fill-opacity:1.00" />
<!-- End 'A' -->
<!-- Begin 'C' -->
<ellipse cx="835.000000" cy="306.120517" rx="25.000000" ry="9.380090" fill="rgb(0, 0, 128)" style="fill-opacity:0.11" />
<ellipse cx="835.000000" cy="306.120517" rx="16.666667" ry="6.253393" fill="rgb(255, 255, 255)" style="fill-opacity:1.00" />
<rect height="9.380090" width="25.000000" x="835.000000" y="301.430472" fill="rgb(255, 255, 255)" style="fill-opacity:1.00" />
<!-- End 'C' -->
<!-- Begin 'G' -->
<ellipse cx="835.000000" cy="322.750303" rx="25.000000" ry="7.249697" fill="rgb(255, 165, 0)" style="fill-opacity:0.11" />
<ellipse cx="835.000000" cy="322.750303" rx="16.666667" ry="4.833131" fill="rgb(255, 255, 255)" style="fill-opacity:1.00" />
<rect height="7.249697" width="25.000000" x="835.000000" y="319.125455" fill="rgb(255, 255, 255)" style="fill-opacity:1.00" />
<rect height="1.812424" width="25.000000" x="835.000000" y="324.562728" fill="rgb(255, 165, 0)" style="fill-opacity:0.11" />
<rect height="5.437272" width="6.250000" x="853.750000" y="324.562728" fill="rgb(255, 165, 0)" style="fill-opacity:0.11" />
<!-- End 'G' -->
<!-- Begin 'T' -->
<rect height="9.066390" width="50.000000" x="810.000000" y="340.000000" fill="rgb(0, 100, 0)" style="fill-opacity:0.43" />
<rect height="56.664935" width="10.000000" x="830.000000" y="340.000000" fill="rgb(0, 100, 0)" style="fill-opacity:0.43" />
<!-- End 'T' -->
<!-- Begin 'C' -->
<ellipse cx="835.000000" cy="405.127403" rx="25.000000" ry="8.462468" fill="rgb(0, 0, 128)" style="fill-opacity:0.43" />
<ellipse cx="835.000000" cy="405.127403" rx="16.666667" ry="5.641645" fill="rgb(255, 255, 255)" style="fill-opacity:1.00" />
<rect height="8.462468" width="25.000000" x="835.000000" y="400.896169" fill="rgb(255, 255, 255)" style="fill-opacity:1.00" />
<!-- End 'C' -->
<!-- Begin 'A' -->
<polygon points=" 810.000000, 429.204910, 831.000000, 413.589871, 839.000000, 413.589871, 860.000000, 429.204910, 852.500000, 429.204910, 846.250000, 425.301150, 823.750000, 425.301150, 817.500000, 429.204910" fill="rgb(178, 34, 34)" style="fill-opacity:0.43" />
<polygon points=" 835.000000, 416.712879, 827.000000, 421.958895, 842.000000, 421.958895" fill="rgb(255, 255, 255)" style="fill-opacity:1.00" />
<!-- End 'A' -->
<!-- Begin 'G' -->
<ellipse cx="835.000000" cy="434.602455" rx="25.000000" ry="5.397545" fill="rgb(255, 165, 0)" style="fill-opacity:0.43" />
<ellipse cx="835.000000" cy="434.602455" rx="16.666667" ry="3.598363" fill="rgb(255, 255, 255)" style="fill-opacity:1.00" />
<rect height="5.397545" width="25.000000" x="835.000000" y="431.903683" fill="rgb(255, 255, 255)" style="fill-opacity:1.00" />
<rect height="1.349386" width="25.000000" x="835.000000" y="435.951841" fill="rgb(255, 165, 0)" style="fill-opacity:0.43" />
<rect height="4.048159" width="6.250000" x="853.750000" y="435.951841" fill="rgb(255, 165, 0)" style="fill-opacity:0.43" />
<!-- End 'G' -->
<text x="460.000000" y="495">
IC = 8.06
</text>

</svg>
