<?xml version="1.0" encoding="UTF-8" standalone="yes"?>
                 <!DOCTYPE svg PUBLIC "-//W3C//DTD SVG 1.0//EN" "http://www.w3.org/TR/2001/REC-SVG-20010904/DTD/svg10.dtd">
                 <svg height="500" width="840" xmlns="http://www.w3.org/2000/svg" xmlns:xlink="http://www.w3.org/1999/xlink">
                 <line x1="85" y1="450" x2="807" y2="450" style="stroke:rgb(99,99,99);stroke-width:2" />
<rect height="7.000000" width="2.000000" x="85.000000" y="450.000000" fill="rgb(0, 0, 0)" style="fill-opacity:1.00" />
<text x="107.000000" y="470">
1
</text>
<rect height="7.000000" width="2.000000" x="145.000000" y="450.000000" fill="rgb(0, 0, 0)" style="fill-opacity:1.00" />
<text x="167.000000" y="470">
2
</text>
<rect height="7.000000" width="2.000000" x="205.000000" y="450.000000" fill="rgb(0, 0, 0)" style="fill-opacity:1.00" />
<text x="227.000000" y="470">
3
</text>
<rect height="7.000000" width="2.000000" x="265.000000" y="450.000000" fill="rgb(0, 0, 0)" style="fill-opacity:1.00" />
<text x="287.000000" y="470">
4
</text>
<rect height="7.000000" width="2.000000" x="325.000000" y="450.000000" fill="rgb(0, 0, 0)" style="fill-opacity:1.00" />
<text x="347.000000" y="470">
5
</text>
<rect height="7.000000" width="2.000000" x="385.000000" y="450.000000" fill="rgb(0, 0, 0)" style="fill-opacity:1.00" />
<text x="407.000000" y="470">
6
</text>
<rect height="7.000000" width="2.000000" x="445.000000" y="450.000000" fill="rgb(0, 0, 0)" style="fill-opacity:1.00" />
<text x="467.000000" y="470">
7
</text>
<rect height="7.000000" width="2.000000" x="505.000000" y="450.000000" fill="rgb(0, 0, 0)" style="fill-opacity:1.00" />
<text x="527.000000" y="470">
8
</text>
<rect height="7.000000" width="2.000000" x="565.000000" y="450.000000" fill="rgb(0, 0, 0)" style="fill-opacity:1.00" />
<text x="587.000000" y="470">
9
</text>
<rect height="7.000000" width="2.000000" x="625.000000" y="450.000000" fill="rgb(0, 0, 0)" style="fill-opacity:1.00" />
<text x="647.000000" y="470">
10
</text>
<rect height="7.000000" width="2.000000" x="685.000000" y="450.000000" fill="rgb(0, 0, 0)" style="fill-opacity:1.00" />
<text x="707.000000" y="470">
11
</text>
<rect height="7.000000" width="2.000000" x="745.000000" y="450.000000" fill="rgb(0, 0, 0)" style="fill-opacity:1.00" />
<text x="767.000000" y="470">
12
</text>
<rect height="7.000000" width="2.000000" x="805.000000" y="450.000000" fill="rgb(0, 0, 0)" style="fill-opacity:1.00" />
<!-- Begin 'A' -->
<polygon points=" 10.000000, 110.000000, 35.200000, 10.000000, 44.800000, 10.000000, 70.000000, 110.000000, 61.000000, 110.000000, 53.500000, 85.000000, 26.500000, 85.000000, 19.000000, 110.000000" fill="rgb(178, 34, 34)" style="fill-opacity:1.00" />
<polygon points=" 40.000000, 30.000000, 30.400000, 69.000000, 48.400000, 69.000000" fill="rgb(255, 255, 255)" style="fill-opacity:1.00" />
<!-- End 'A' -->
<!-- Begin 'C' -->
<ellipse cx="40.000000" cy="170.000000" rx="30.000000" ry="50.000000" fill="rgb(0, 0, 128)" style="fill-opacity:1.00" />
<ellipse cx="40.000000" cy="170.000000" rx="20.000000" ry="33.333333" fill="rgb(255, 255, 255)" style="fill-opacity:1.00" />
<rect height="50.000000" width="30.000000" x="40.000000" y="145.000000" fill="rgb(255, 255, 255)" style="fill-opacity:1.00" />
<!-- End 'C' -->
<!-- Begin 'G' -->
<ellipse cx="40.000000" cy="280.000000" rx="30.000000" ry="50.000000" fill="rgb(255, 165, 0)" style="fill-opacity:1.00" />
<ellipse cx="40.000000" cy="280.000000" rx="20.000000" ry="33.333333" fill="rgb(255, 255, 255)" style="fill-opacity:1.00" />
<rect height="50.000000" width="30.000000" x="40.000000" y="255.000000" fill="rgb(255, 255, 255)" style="fill-opacity:1.00" />
<rect height="12.500000" width="30.000000" x="40.000000" y="292.500000" fill="rgb(255, 165, 0)" style="fill-opacity:1.00" />
<rect height="37.500000" width="7.500000" x="62.500000" y="292.500000" fill="rgb(255, 165, 0)" style="fill-opacity:1.00" />
<!-- End 'G' -->
<!-- Begin 'T' -->
<rect height="16.000000" width="60.000000" x="10.000000" y="340.000000" fill="rgb(0, 100, 0)" style="fill-opacity:1.00" />
<rect height="100.000000" width="12.000000" x="34.000000" y="340.000000" fill="rgb(0, 100, 0)" style="fill-opacity:1.00" />
<!-- End 'T' -->
<!-- Begin 'G' -->
<ellipse cx="115.000000" cy="28.606975" rx="25.000000" ry="18.606975" fill="rgb(255, 165, 0)" style="fill-opacity:0.23" />
<ellipse cx="115.000000" cy="28.606975" rx="16.666667" ry="12.404650" fill="rgb(255, 255, 255)" style="fill-opacity:1.00" />
<rect height="18.606975" width="25.000000" x="115.000000" y="19.303488" fill="rgb(255, 255, 255)" style="fill-opacity:1.00" />
<rect height="4.651744" width="25.000000" x="115.000000" y="33.258719" fill="rgb(255, 165, 0)" style="fill-opacity:0.23" />
<rect height="13.955232" width="6.250000" x="133.750000" y="33.258719" fill="rgb(255, 165, 0)" style="fill-opacity:0.23" />
<!-- End 'G' -->
<!-- Begin 'T' -->
<rect height="3.996582" width="50.000000" x="90.000000" y="47.213951" fill="rgb(0, 100, 0)" style="fill-opacity:0.23" />
<rect height="24.978640" width="10.000000" x="110.000000" y="47.213951" fill="rgb(0, 100, 0)" style="fill-opacity:0.23" />
<!-- End 'T' -->
<!-- Begin 'C' -->
<ellipse cx="115.000000" cy="83.267405" rx="25.000000" ry="11.074814" fill="rgb(0, 0, 128)" style="fill-opacity:0.23" />
<ellipse cx="115.000000" cy="83.267405" rx="16.666667" ry="7.383209" fill="rgb(255, 255, 255)" style="fill-opacity:1.00" />
<rect height="11.074814" width="25.000000" x="115.000000" y="77.729998" fill="rgb(255, 255, 255)" style="fill-opacity:1.00" />
<!-- End 'C' -->
<!-- Begin 'A' -->
<polygon points=" 90.000000, 110.000000, 111.000000, 94.342219, 119.000000, 94.342219, 140.000000, 110.000000, 132.500000, 110.000000, 126.250000, 106.085555, 103.750000, 106.085555, 97.500000, 110.000000" fill="rgb(178, 34, 34)" style="fill-opacity:0.23" />
<polygon points=" 115.000000, 97.473775, 107.000000, 102.736888, 122.000000, 102.736888" fill="rgb(255, 255, 255)" style="fill-opacity:1.00" />
<!-- End 'A' -->
<!-- Begin 'C' -->
<ellipse cx="115.000000" cy="136.178877" rx="25.000000" ry="16.178877" fill="rgb(0, 0, 128)" style="fill-opacity:0.27" />
<ellipse cx="115.000000" cy="136.178877" rx="16.666667" ry="10.785918" fill="rgb(255, 255, 255)" style="fill-opacity:1.00" />
<rect height="16.178877" width="25.000000" x="115.000000" y="128.089438" fill="rgb(255, 255, 255)" style="fill-opacity:1.00" />
<!-- End 'C' -->
<!-- Begin 'T' -->
<rect height="4.453382" width="50.000000" x="90.000000" y="152.357753" fill="rgb(0, 100, 0)" style="fill-opacity:0.27" />
<rect height="27.833640" width="10.000000" x="110.000000" y="152.357753" fill="rgb(0, 100, 0)" style="fill-opacity:0.27" />
<!-- End 'T' -->
<!-- Begin 'G' -->
<ellipse cx="115.000000" cy="190.869314" rx="25.000000" ry="10.677920" fill="rgb(255, 165, 0)" style="fill-opacity:0.27" />
<ellipse cx="115.000000" cy="190.869314" rx="16.666667" ry="7.118613" fill="rgb(255, 255, 255)" style="fill-opacity:1.00" />
<rect height="10.677920" width="25.000000" x="115.000000" y="185.530353" fill="rgb(255, 255, 255)" style="fill-opacity:1.00" />
<rect height="2.669480" width="25.000000" x="115.000000" y="193.538794" fill="rgb(255, 165, 0)" style="fill-opacity:0.27" />
<rect height="8.008440" width="6.250000" x="133.750000" y="193.538794" fill="rgb(255, 165, 0)" style="fill-opacity:0.27" />
<!-- End 'G' -->
<!-- Begin 'A' -->
<polygon points=" 90.000000, 220.000000, 111.000000, 201.547234, 119.000000, 201.547234, 140.000000, 220.000000, 132.500000, 220.000000, 126.250000, 215.386808, 103.750000, 215.386808, 97.500000, 220.000000" fill="rgb(178, 34, 34)" style="fill-opacity:0.27" />
<polygon points=" 115.000000, 205.237787, 107.000000, 211.618894, 122.000000, 211.618894" fill="rgb(255, 255, 255)" style="fill-opacity:1.00" />
<!-- End 'A' -->
<!-- Begin 'C' -->
<ellipse cx="115.000000" cy="246.787157" rx="25.000000" ry="16.787157" fill="rgb(0, 0, 128)" style="fill-opacity:0.27" />
<ellipse cx="115.000000" cy="246.787157" rx="16.666667" ry="11.191438" fill="rgb(255, 255, 255)" style="fill-opacity:1.00" />
<rect height="16.787157" width="25.000000" x="115.000000" y="238.393578" fill="rgb(255, 255, 255)" style="fill-opacity:1.00" />
<!-- End 'C' -->
<!-- Begin 'G' -->
<ellipse cx="115.000000" cy="276.608124" rx="25.000000" ry="13.033810" fill="rgb(255, 165, 0)" style="fill-opacity:0.27" />
<ellipse cx="115.000000" cy="276.608124" rx="16.666667" ry="8.689207" fill="rgb(255, 255, 255)" style="fill-opacity:1.00" />
<rect height="13.033810" width="25.000000" x="115.000000" y="270.091218" fill="rgb(255, 255, 255)" style="fill-opacity:1.00" />
<rect height="3.258453" width="25.000000" x="115.000000" y="279.866576" fill="rgb(255, 165, 0)" style="fill-opacity:0.27" />
<rect height="9.775358" width="6.250000" x="133.750000" y="279.866576" fill="rgb(255, 165, 0)" style="fill-opacity:0.27" />
<!-- End 'G' -->
<!-- Begin 'T' -->
<rect height="3.648215" width="50.000000" x="90.000000" y="289.641934" fill="rgb(0, 100, 0)" style="fill-opacity:0.27" />
<rect height="22.801342" width="10.000000" x="110.000000" y="289.641934" fill="rgb(0, 100, 0)" style="fill-opacity:0.27" />
<!-- End 'T' -->
<!-- Begin 'A' -->
<polygon points=" 90.000000, 330.000000, 111.000000, 312.443276, 119.000000, 312.443276, 140.000000, 330.000000, 132.500000, 330.000000, 126.250000, 325.610819, 103.750000, 325.610819, 97.500000, 330.000000" fill="rgb(178, 34, 34)" style="fill-opacity:0.27" />
<polygon points=" 115.000000, 315.954621, 107.000000, 321.977310, 122.000000, 321.977310" fill="rgb(255, 255, 255)" style="fill-opacity:1.00" />
<!-- End 'A' -->
<!-- Begin 'G' -->
<ellipse cx="115.000000" cy="359.390159" rx="25.000000" ry="19.390159" fill="rgb(255, 165, 0)" style="fill-opacity:0.23" />
<ellipse cx="115.000000" cy="359.390159" rx="16.666667" ry="12.926772" fill="rgb(255, 255, 255)" style="fill-opacity:1.00" />
<rect height="19.390159" width="25.000000" x="115.000000" y="349.695079" fill="rgb(255, 255, 255)" style="fill-opacity:1.00" />
<rect height="4.847540" width="25.000000" x="115.000000" y="364.237698" fill="rgb(255, 165, 0)" style="fill-opacity:0.23" />
<rect height="14.542619" width="6.250000" x="133.750000" y="364.237698" fill="rgb(255, 165, 0)" style="fill-opacity:0.23" />
<!-- End 'G' -->
<!-- Begin 'T' -->
<rect height="4.469691" width="50.000000" x="90.000000" y="378.780317" fill="rgb(0, 100, 0)" style="fill-opacity:0.23" />
<rect height="27.935569" width="10.000000" x="110.000000" y="378.780317" fill="rgb(0, 100, 0)" style="fill-opacity:0.23" />
<!-- End 'T' -->
<!-- Begin 'C' -->
<ellipse cx="115.000000" cy="417.220395" rx="25.000000" ry="10.504509" fill="rgb(0, 0, 128)" style="fill-opacity:0.23" />
<ellipse cx="115.000000" cy="417.220395" rx="16.666667" ry="7.003006" fill="rgb(255, 255, 255)" style="fill-opacity:1.00" />
<rect height="10.504509" width="25.000000" x="115.000000" y="411.968140" fill="rgb(255, 255, 255)" style="fill-opacity:1.00" />
<!-- End 'C' -->
<!-- Begin 'A' -->
<polygon points=" 90.000000, 440.000000, 111.000000, 427.724904, 119.000000, 427.724904, 140.000000, 440.000000, 132.500000, 440.000000, 126.250000, 436.931226, 103.750000, 436.931226, 97.500000, 440.000000" fill="rgb(178, 34, 34)" style="fill-opacity:0.23" />
<polygon points=" 115.000000, 430.179923, 107.000000, 434.089962, 122.000000, 434.089962" fill="rgb(255, 255, 255)" style="fill-opacity:1.00" />
<!-- End 'A' -->
<!-- Begin 'G' -->
<ellipse cx="175.000000" cy="46.365304" rx="25.000000" ry="36.365304" fill="rgb(255, 165, 0)" style="fill-opacity:0.16" />
<ellipse cx="175.000000" cy="46.365304" rx="16.666667" ry="24.243536" fill="rgb(255, 255, 255)" style="fill-opacity:1.00" />
<rect height="36.365304" width="25.000000" x="175.000000" y="28.182652" fill="rgb(255, 255, 255)" style="fill-opacity:1.00" />
<rect height="9.091326" width="25.000000" x="175.000000" y="55.456630" fill="rgb(255, 165, 0)" style="fill-opacity:0.16" />
<rect height="27.273978" width="6.250000" x="193.750000" y="55.456630" fill="rgb(255, 165, 0)" style="fill-opacity:0.16" />
<!-- End 'G' -->
<!-- Begin 'C' -->
<ellipse cx="175.000000" cy="91.982830" rx="25.000000" ry="9.252222" fill="rgb(0, 0, 128)" style="fill-opacity:0.16" />
<ellipse cx="175.000000" cy="91.982830" rx="16.666667" ry="6.168148" fill="rgb(255, 255, 255)" style="fill-opacity:1.00" />
<rect height="9.252222" width="25.000000" x="175.000000" y="87.356719" fill="rgb(255, 255, 255)" style="fill-opacity:1.00" />
<!-- End 'C' -->
<!-- Begin 'A' -->
<polygon points=" 150.000000, 106.335636, 171.000000, 101.235052, 179.000000, 101.235052, 200.000000, 106.335636, 192.500000, 106.335636, 186.250000, 105.060490, 163.750000, 105.060490, 157.500000, 106.335636" fill="rgb(178, 34, 34)" style="fill-opacity:0.16" />
<!-- End 'A' -->
<!-- Begin 'T' -->
<rect height="0.586298" width="50.000000" x="150.000000" y="106.335636" fill="rgb(0, 100, 0)" style="fill-opacity:0.16" />
<rect height="3.664364" width="10.000000" x="170.000000" y="106.335636" fill="rgb(0, 100, 0)" style="fill-opacity:0.16" />
<!-- End 'T' -->
<!-- Begin 'G' -->
<ellipse cx="175.000000" cy="141.936290" rx="25.000000" ry="21.936290" fill="rgb(255, 165, 0)" style="fill-opacity:0.28" />
<ellipse cx="175.000000" cy="141.936290" rx="16.666667" ry="14.624193" fill="rgb(255, 255, 255)" style="fill-opacity:1.00" />
<rect height="21.936290" width="25.000000" x="175.000000" y="130.968145" fill="rgb(255, 255, 255)" style="fill-opacity:1.00" />
<rect height="5.484073" width="25.000000" x="175.000000" y="147.420363" fill="rgb(255, 165, 0)" style="fill-opacity:0.28" />
<rect height="16.452218" width="6.250000" x="193.750000" y="147.420363" fill="rgb(255, 165, 0)" style="fill-opacity:0.28" />
<!-- End 'G' -->
<!-- Begin 'A' -->
<polygon points=" 150.000000, 187.163031, 171.000000, 163.872580, 179.000000, 163.872580, 200.000000, 187.163031, 192.500000, 187.163031, 186.250000, 181.340418, 163.750000, 181.340418, 157.500000, 187.163031" fill="rgb(178, 34, 34)" style="fill-opacity:0.28" />
<polygon points=" 175.000000, 168.530670, 167.000000, 176.846851, 182.000000, 176.846851" fill="rgb(255, 255, 255)" style="fill-opacity:1.00" />
<!-- End 'A' -->
<!-- Begin 'T' -->
<rect height="2.896703" width="50.000000" x="150.000000" y="187.163031" fill="rgb(0, 100, 0)" style="fill-opacity:0.28" />
<rect height="18.104393" width="10.000000" x="170.000000" y="187.163031" fill="rgb(0, 100, 0)" style="fill-opacity:0.28" />
<!-- End 'T' -->
<!-- Begin 'C' -->
<ellipse cx="175.000000" cy="212.633712" rx="25.000000" ry="7.366288" fill="rgb(0, 0, 128)" style="fill-opacity:0.28" />
<ellipse cx="175.000000" cy="212.633712" rx="16.666667" ry="4.910859" fill="rgb(255, 255, 255)" style="fill-opacity:1.00" />
<rect height="7.366288" width="25.000000" x="175.000000" y="208.950568" fill="rgb(255, 255, 255)" style="fill-opacity:1.00" />
<!-- End 'C' -->
<!-- Begin 'G' -->
<ellipse cx="175.000000" cy="250.696223" rx="25.000000" ry="20.696223" fill="rgb(255, 165, 0)" style="fill-opacity:0.30" />
<ellipse cx="175.000000" cy="250.696223" rx="16.666667" ry="13.797482" fill="rgb(255, 255, 255)" style="fill-opacity:1.00" />
<rect height="20.696223" width="25.000000" x="175.000000" y="240.348111" fill="rgb(255, 255, 255)" style="fill-opacity:1.00" />
<rect height="5.174056" width="25.000000" x="175.000000" y="255.870279" fill="rgb(255, 165, 0)" style="fill-opacity:0.30" />
<rect height="15.522167" width="6.250000" x="193.750000" y="255.870279" fill="rgb(255, 165, 0)" style="fill-opacity:0.30" />
<!-- End 'G' -->
<!-- Begin 'C' -->
<ellipse cx="175.000000" cy="291.608284" rx="25.000000" ry="20.215838" fill="rgb(0, 0, 128)" style="fill-opacity:0.30" />
<ellipse cx="175.000000" cy="291.608284" rx="16.666667" ry="13.477225" fill="rgb(255, 255, 255)" style="fill-opacity:1.00" />
<rect height="20.215838" width="25.000000" x="175.000000" y="281.500365" fill="rgb(255, 255, 255)" style="fill-opacity:1.00" />
<!-- End 'C' -->
<!-- Begin 'A' -->
<polygon points=" 150.000000, 321.566634, 171.000000, 311.824121, 179.000000, 311.824121, 200.000000, 321.566634, 192.500000, 321.566634, 186.250000, 319.131006, 163.750000, 319.131006, 157.500000, 321.566634" fill="rgb(178, 34, 34)" style="fill-opacity:0.30" />
<polygon points=" 175.000000, 313.772624, 167.000000, 316.669629, 182.000000, 316.669629" fill="rgb(255, 255, 255)" style="fill-opacity:1.00" />
<!-- End 'A' -->
<!-- Begin 'T' -->
<rect height="1.349339" width="50.000000" x="150.000000" y="321.566634" fill="rgb(0, 100, 0)" style="fill-opacity:0.30" />
<rect height="8.433366" width="10.000000" x="170.000000" y="321.566634" fill="rgb(0, 100, 0)" style="fill-opacity:0.30" />
<!-- End 'T' -->
<!-- Begin 'G' -->
<ellipse cx="175.000000" cy="370.891585" rx="25.000000" ry="30.891585" fill="rgb(255, 165, 0)" style="fill-opacity:0.26" />
<ellipse cx="175.000000" cy="370.891585" rx="16.666667" ry="20.594390" fill="rgb(255, 255, 255)" style="fill-opacity:1.00" />
<rect height="30.891585" width="25.000000" x="175.000000" y="355.445793" fill="rgb(255, 255, 255)" style="fill-opacity:1.00" />
<rect height="7.722896" width="25.000000" x="175.000000" y="378.614482" fill="rgb(255, 165, 0)" style="fill-opacity:0.26" />
<rect height="23.168689" width="6.250000" x="193.750000" y="378.614482" fill="rgb(255, 165, 0)" style="fill-opacity:0.26" />
<!-- End 'G' -->
<!-- Begin 'C' -->
<ellipse cx="175.000000" cy="411.255782" rx="25.000000" ry="9.472611" fill="rgb(0, 0, 128)" style="fill-opacity:0.26" />
<ellipse cx="175.000000" cy="411.255782" rx="16.666667" ry="6.315074" fill="rgb(255, 255, 255)" style="fill-opacity:1.00" />
<rect height="9.472611" width="25.000000" x="175.000000" y="406.519477" fill="rgb(255, 255, 255)" style="fill-opacity:1.00" />
<!-- End 'C' -->
<!-- Begin 'T' -->
<rect height="1.820729" width="50.000000" x="150.000000" y="420.728394" fill="rgb(0, 100, 0)" style="fill-opacity:0.26" />
<rect height="11.379556" width="10.000000" x="170.000000" y="420.728394" fill="rgb(0, 100, 0)" style="fill-opacity:0.26" />
<!-- End 'T' -->
<!-- Begin 'A' -->
<polygon points=" 150.000000, 440.000000, 171.000000, 432.107950, 179.000000, 432.107950, 200.000000, 440.000000, 192.500000, 440.000000, 186.250000, 438.026987, 163.750000, 438.026987, 157.500000, 440.000000" fill="rgb(178, 34, 34)" style="fill-opacity:0.26" />
<!-- End 'A' -->
<!-- Begin 'G' -->
<ellipse cx="235.000000" cy="39.124360" rx="25.000000" ry="29.124360" fill="rgb(255, 165, 0)" style="fill-opacity:0.12" />
<ellipse cx="235.000000" cy="39.124360" rx="16.666667" ry="19.416240" fill="rgb(255, 255, 255)" style="fill-opacity:1.00" />
<rect height="29.124360" width="25.000000" x="235.000000" y="24.562180" fill="rgb(255, 255, 255)" style="fill-opacity:1.00" />
<rect height="7.281090" width="25.000000" x="235.000000" y="46.405451" fill="rgb(255, 165, 0)" style="fill-opacity:0.12" />
<rect height="21.843270" width="6.250000" x="253.750000" y="46.405451" fill="rgb(255, 165, 0)" style="fill-opacity:0.12" />
<!-- End 'G' -->
<!-- Begin 'C' -->
<ellipse cx="235.000000" cy="88.691331" rx="25.000000" ry="20.442610" fill="rgb(0, 0, 128)" style="fill-opacity:0.12" />
<ellipse cx="235.000000" cy="88.691331" rx="16.666667" ry="13.628407" fill="rgb(255, 255, 255)" style="fill-opacity:1.00" />
<rect height="20.442610" width="25.000000" x="235.000000" y="78.470026" fill="rgb(255, 255, 255)" style="fill-opacity:1.00" />
<!-- End 'C' -->
<!-- Begin 'T' -->
<rect height="0.080498" width="50.000000" x="210.000000" y="109.133941" fill="rgb(0, 100, 0)" style="fill-opacity:0.12" />
<rect height="0.503112" width="10.000000" x="230.000000" y="109.133941" fill="rgb(0, 100, 0)" style="fill-opacity:0.12" />
<!-- End 'T' -->
<!-- Begin 'A' -->
<polygon points=" 210.000000, 110.000000, 231.000000, 109.637053, 239.000000, 109.637053, 260.000000, 110.000000, 252.500000, 110.000000, 246.250000, 109.909263, 223.750000, 109.909263, 217.500000, 110.000000" fill="rgb(178, 34, 34)" style="fill-opacity:0.12" />
<!-- End 'A' -->
<!-- Begin 'C' -->
<ellipse cx="235.000000" cy="150.271802" rx="25.000000" ry="30.271802" fill="rgb(0, 0, 128)" style="fill-opacity:0.24" />
<ellipse cx="235.000000" cy="150.271802" rx="16.666667" ry="20.181202" fill="rgb(255, 255, 255)" style="fill-opacity:1.00" />
<rect height="30.271802" width="25.000000" x="235.000000" y="135.135901" fill="rgb(255, 255, 255)" style="fill-opacity:1.00" />
<!-- End 'C' -->
<!-- Begin 'G' -->
<ellipse cx="235.000000" cy="197.164148" rx="25.000000" ry="16.620543" fill="rgb(255, 165, 0)" style="fill-opacity:0.24" />
<ellipse cx="235.000000" cy="197.164148" rx="16.666667" ry="11.080362" fill="rgb(255, 255, 255)" style="fill-opacity:1.00" />
<rect height="16.620543" width="25.000000" x="235.000000" y="188.853876" fill="rgb(255, 255, 255)" style="fill-opacity:1.00" />
<rect height="4.155136" width="25.000000" x="235.000000" y="201.319284" fill="rgb(255, 165, 0)" style="fill-opacity:0.24" />
<rect height="12.465407" width="6.250000" x="253.750000" y="201.319284" fill="rgb(255, 165, 0)" style="fill-opacity:0.24" />
<!-- End 'G' -->
<!-- Begin 'T' -->
<rect height="0.565277" width="50.000000" x="210.000000" y="213.784691" fill="rgb(0, 100, 0)" style="fill-opacity:0.24" />
<rect height="3.532984" width="10.000000" x="230.000000" y="213.784691" fill="rgb(0, 100, 0)" style="fill-opacity:0.24" />
<!-- End 'T' -->
<!-- Begin 'A' -->
<polygon points=" 210.000000, 220.000000, 231.000000, 217.317675, 239.000000, 217.317675, 260.000000, 220.000000, 252.500000, 220.000000, 246.250000, 219.329419, 223.750000, 219.329419, 217.500000, 220.000000" fill="rgb(178, 34, 34)" style="fill-opacity:0.24" />
<!-- End 'A' -->
<!-- Begin 'C' -->
<ellipse cx="235.000000" cy="265.469554" rx="25.000000" ry="35.469554" fill="rgb(0, 0, 128)" style="fill-opacity:0.52" />
<ellipse cx="235.000000" cy="265.469554" rx="16.666667" ry="23.646369" fill="rgb(255, 255, 255)" style="fill-opacity:1.00" />
<rect height="35.469554" width="25.000000" x="235.000000" y="247.734777" fill="rgb(255, 255, 255)" style="fill-opacity:1.00" />
<!-- End 'C' -->
<!-- Begin 'G' -->
<ellipse cx="235.000000" cy="312.919838" rx="25.000000" ry="11.980730" fill="rgb(255, 165, 0)" style="fill-opacity:0.52" />
<ellipse cx="235.000000" cy="312.919838" rx="16.666667" ry="7.987153" fill="rgb(255, 255, 255)" style="fill-opacity:1.00" />
<rect height="11.980730" width="25.000000" x="235.000000" y="306.929473" fill="rgb(255, 255, 255)" style="fill-opacity:1.00" />
<rect height="2.995183" width="25.000000" x="235.000000" y="315.915021" fill="rgb(255, 165, 0)" style="fill-opacity:0.52" />
<rect height="8.985548" width="6.250000" x="253.750000" y="315.915021" fill="rgb(255, 165, 0)" style="fill-opacity:0.52" />
<!-- End 'G' -->
<!-- Begin 'A' -->
<polygon points=" 210.000000, 327.525204, 231.000000, 324.900568, 239.000000, 324.900568, 260.000000, 327.525204, 252.500000, 327.525204, 246.250000, 326.869045, 223.750000, 326.869045, 217.500000, 327.525204" fill="rgb(178, 34, 34)" style="fill-opacity:0.52" />
<!-- End 'A' -->
<!-- Begin 'T' -->
<rect height="0.395967" width="50.000000" x="210.000000" y="327.525204" fill="rgb(0, 100, 0)" style="fill-opacity:0.52" />
<rect height="2.474796" width="10.000000" x="230.000000" y="327.525204" fill="rgb(0, 100, 0)" style="fill-opacity:0.52" />
<!-- End 'T' -->
<!-- Begin 'C' -->
<ellipse cx="235.000000" cy="371.372471" rx="25.000000" ry="31.372471" fill="rgb(0, 0, 128)" style="fill-opacity:0.11" />
<ellipse cx="235.000000" cy="371.372471" rx="16.666667" ry="20.914981" fill="rgb(255, 255, 255)" style="fill-opacity:1.00" />
<rect height="31.372471" width="25.000000" x="235.000000" y="355.686235" fill="rgb(255, 255, 255)" style="fill-opacity:1.00" />
<!-- End 'C' -->
<!-- Begin 'G' -->
<ellipse cx="235.000000" cy="420.614067" rx="25.000000" ry="17.869125" fill="rgb(255, 165, 0)" style="fill-opacity:0.11" />
<ellipse cx="235.000000" cy="420.614067" rx="16.666667" ry="11.912750" fill="rgb(255, 255, 255)" style="fill-opacity:1.00" />
<rect height="17.869125" width="25.000000" x="235.000000" y="411.679504" fill="rgb(255, 255, 255)" style="fill-opacity:1.00" />
<rect height="4.467281" width="25.000000" x="235.000000" y="425.081348" fill="rgb(255, 165, 0)" style="fill-opacity:0.11" />
<rect height="13.401844" width="6.250000" x="253.750000" y="425.081348" fill="rgb(255, 165, 0)" style="fill-opacity:0.11" />
<!-- End 'G' -->
<!-- Begin 'T' -->
<rect height="0.233342" width="50.000000" x="210.000000" y="438.483192" fill="rgb(0, 100, 0)" style="fill-opacity:0.11" />
<rect height="1.458387" width="10.000000" x="230.000000" y="438.483192" fill="rgb(0, 100, 0)" style="fill-opacity:0.11" />
<!-- End 'T' -->
<!-- Begin 'A' -->
<polygon points=" 210.000000, 440.000000, 231.000000, 439.941579, 239.000000, 439.941579, 260.000000, 440.000000, 252.500000, 440.000000, 246.250000, 439.985395, 223.750000, 439.985395, 217.500000, 440.000000" fill="rgb(178, 34, 34)" style="fill-opacity:0.11" />
<!-- End 'A' -->
<!-- Begin 'C' -->
<ellipse cx="295.000000" cy="59.603372" rx="25.000000" ry="49.603372" fill="rgb(0, 0, 128)" style="fill-opacity:0.02" />
<ellipse cx="295.000000" cy="59.603372" rx="16.666667" ry="33.068915" fill="rgb(255, 255, 255)" style="fill-opacity:1.00" />
<rect height="49.603372" width="25.000000" x="295.000000" y="34.801686" fill="rgb(255, 255, 255)" style="fill-opacity:1.00" />
<!-- End 'C' -->
<!-- Begin 'G' -->
<ellipse cx="295.000000" cy="109.559386" rx="25.000000" ry="0.352642" fill="rgb(255, 165, 0)" style="fill-opacity:0.02" />
<ellipse cx="295.000000" cy="109.559386" rx="16.666667" ry="0.235094" fill="rgb(255, 255, 255)" style="fill-opacity:1.00" />
<rect height="0.352642" width="25.000000" x="295.000000" y="109.383065" fill="rgb(255, 255, 255)" style="fill-opacity:1.00" />
<rect height="0.088160" width="25.000000" x="295.000000" y="109.647546" fill="rgb(255, 165, 0)" style="fill-opacity:0.02" />
<rect height="0.264481" width="6.250000" x="313.750000" y="109.647546" fill="rgb(255, 165, 0)" style="fill-opacity:0.02" />
<!-- End 'G' -->
<!-- Begin 'T' -->
<rect height="0.012081" width="50.000000" x="270.000000" y="109.912027" fill="rgb(0, 100, 0)" style="fill-opacity:0.02" />
<rect height="0.075505" width="10.000000" x="290.000000" y="109.912027" fill="rgb(0, 100, 0)" style="fill-opacity:0.02" />
<!-- End 'T' -->
<!-- Begin 'A' -->
<polygon points=" 270.000000, 110.000000, 291.000000, 109.987532, 299.000000, 109.987532, 320.000000, 110.000000, 312.500000, 110.000000, 306.250000, 109.996883, 283.750000, 109.996883, 277.500000, 110.000000" fill="rgb(178, 34, 34)" style="fill-opacity:0.02" />
<!-- End 'A' -->
<!-- Begin 'C' -->
<ellipse cx="295.000000" cy="165.398231" rx="25.000000" ry="45.398231" fill="rgb(0, 0, 128)" style="fill-opacity:0.64" />
<ellipse cx="295.000000" cy="165.398231" rx="16.666667" ry="30.265487" fill="rgb(255, 255, 255)" style="fill-opacity:1.00" />
<rect height="45.398231" width="25.000000" x="295.000000" y="142.699115" fill="rgb(255, 255, 255)" style="fill-opacity:1.00" />
<!-- End 'C' -->
<!-- Begin 'T' -->
<rect height="0.914627" width="50.000000" x="270.000000" y="210.796461" fill="rgb(0, 100, 0)" style="fill-opacity:0.64" />
<rect height="5.716416" width="10.000000" x="290.000000" y="210.796461" fill="rgb(0, 100, 0)" style="fill-opacity:0.64" />
<!-- End 'T' -->
<!-- Begin 'G' -->
<ellipse cx="295.000000" cy="218.048776" rx="25.000000" ry="1.535899" fill="rgb(255, 165, 0)" style="fill-opacity:0.64" />
<ellipse cx="295.000000" cy="218.048776" rx="16.666667" ry="1.023932" fill="rgb(255, 255, 255)" style="fill-opacity:1.00" />
<rect height="1.535899" width="25.000000" x="295.000000" y="217.280827" fill="rgb(255, 255, 255)" style="fill-opacity:1.00" />
<rect height="0.383975" width="25.000000" x="295.000000" y="218.432751" fill="rgb(255, 165, 0)" style="fill-opacity:0.64" />
<rect height="1.151924" width="6.250000" x="313.750000" y="218.432751" fill="rgb(255, 165, 0)" style="fill-opacity:0.64" />
<!-- End 'G' -->
<!-- Begin 'A' -->
<polygon points=" 270.000000, 220.000000, 291.000000, 219.584675, 299.000000, 219.584675, 320.000000, 220.000000, 312.500000, 220.000000, 306.250000, 219.896169, 283.750000, 219.896169, 277.500000, 220.000000" fill="rgb(178, 34, 34)" style="fill-opacity:0.64" />
<!-- End 'A' -->
<!-- Begin 'C' -->
<ellipse cx="295.000000" cy="276.098924" rx="25.000000" ry="46.098924" fill="rgb(0, 0, 128)" style="fill-opacity:0.32" />
<ellipse cx="295.000000" cy="276.098924" rx="16.666667" ry="30.732616" fill="rgb(255, 255, 255)" style="fill-opacity:1.00" />
<rect height="46.098924" width="25.000000" x="295.000000" y="253.049462" fill="rgb(255, 255, 255)" style="fill-opacity:1.00" />
<!-- End 'C' -->
<!-- Begin 'G' -->
<ellipse cx="295.000000" cy="325.335194" rx="25.000000" ry="3.137347" fill="rgb(255, 165, 0)" style="fill-opacity:0.32" />
<ellipse cx="295.000000" cy="325.335194" rx="16.666667" ry="2.091565" fill="rgb(255, 255, 255)" style="fill-opacity:1.00" />
<rect height="3.137347" width="25.000000" x="295.000000" y="323.766521" fill="rgb(255, 255, 255)" style="fill-opacity:1.00" />
<rect height="0.784337" width="25.000000" x="295.000000" y="326.119531" fill="rgb(255, 165, 0)" style="fill-opacity:0.32" />
<rect height="2.353010" width="6.250000" x="313.750000" y="326.119531" fill="rgb(255, 165, 0)" style="fill-opacity:0.32" />
<!-- End 'G' -->
<!-- Begin 'T' -->
<rect height="0.175286" width="50.000000" x="270.000000" y="328.472541" fill="rgb(0, 100, 0)" style="fill-opacity:0.32" />
<rect height="1.095538" width="10.000000" x="290.000000" y="328.472541" fill="rgb(0, 100, 0)" style="fill-opacity:0.32" />
<!-- End 'T' -->
<!-- Begin 'A' -->
<polygon points=" 270.000000, 330.000000, 291.000000, 329.568079, 299.000000, 329.568079, 320.000000, 330.000000, 312.500000, 330.000000, 306.250000, 329.892020, 283.750000, 329.892020, 277.500000, 330.000000" fill="rgb(178, 34, 34)" style="fill-opacity:0.32" />
<!-- End 'A' -->
<!-- Begin 'C' -->
<ellipse cx="295.000000" cy="389.811179" rx="25.000000" ry="49.811179" fill="rgb(0, 0, 128)" style="fill-opacity:0.02" />
<ellipse cx="295.000000" cy="389.811179" rx="16.666667" ry="33.207453" fill="rgb(255, 255, 255)" style="fill-opacity:1.00" />
<rect height="49.811179" width="25.000000" x="295.000000" y="364.905590" fill="rgb(255, 255, 255)" style="fill-opacity:1.00" />
<!-- End 'C' -->
<!-- Begin 'T' -->
<rect height="0.040401" width="50.000000" x="270.000000" y="439.622358" fill="rgb(0, 100, 0)" style="fill-opacity:0.02" />
<rect height="0.252505" width="10.000000" x="290.000000" y="439.622358" fill="rgb(0, 100, 0)" style="fill-opacity:0.02" />
<!-- End 'T' -->
<!-- Begin 'G' -->
<ellipse cx="295.000000" cy="439.936783" rx="25.000000" ry="0.061920" fill="rgb(255, 165, 0)" style="fill-opacity:0.02" />
<ellipse cx="295.000000" cy="439.936783" rx="16.666667" ry="0.041280" fill="rgb(255, 255, 255)" style="fill-opacity:1.00" />
<rect height="0.061920" width="25.000000" x="295.000000" y="439.905823" fill="rgb(255, 255, 255)" style="fill-opacity:1.00" />
<rect height="0.015480" width="25.000000" x="295.000000" y="439.952263" fill="rgb(255, 165, 0)" style="fill-opacity:0.02" />
<rect height="0.046440" width="6.250000" x="313.750000" y="439.952263" fill="rgb(255, 165, 0)" style="fill-opacity:0.02" />
<!-- End 'G' -->
<!-- Begin 'A' -->
<polygon points=" 270.000000, 440.000000, 291.000000, 439.998704, 299.000000, 439.998704, 320.000000, 440.000000, 312.500000, 440.000000, 306.250000, 439.999676, 283.750000, 439.999676, 277.500000, 440.000000" fill="rgb(178, 34, 34)" style="fill-opacity:0.02" />
<!-- End 'A' -->
<!-- Begin 'G' -->
<ellipse cx="355.000000" cy="43.236608" rx="25.000000" ry="33.236608" fill="rgb(255, 165, 0)" style="fill-opacity:0.00" />
<ellipse cx="355.000000" cy="43.236608" rx="16.666667" ry="22.157739" fill="rgb(255, 255, 255)" style="fill-opacity:1.00" />
<rect height="33.236608" width="25.000000" x="355.000000" y="26.618304" fill="rgb(255, 255, 255)" style="fill-opacity:1.00" />
<rect height="8.309152" width="25.000000" x="355.000000" y="51.545760" fill="rgb(255, 165, 0)" style="fill-opacity:0.00" />
<rect height="24.927456" width="6.250000" x="373.750000" y="51.545760" fill="rgb(255, 165, 0)" style="fill-opacity:0.00" />
<!-- End 'G' -->
<!-- Begin 'C' -->
<ellipse cx="355.000000" cy="93.149744" rx="25.000000" ry="16.676528" fill="rgb(0, 0, 128)" style="fill-opacity:0.00" />
<ellipse cx="355.000000" cy="93.149744" rx="16.666667" ry="11.117686" fill="rgb(255, 255, 255)" style="fill-opacity:1.00" />
<rect height="16.676528" width="25.000000" x="355.000000" y="84.811480" fill="rgb(255, 255, 255)" style="fill-opacity:1.00" />
<!-- End 'C' -->
<!-- Begin 'T' -->
<rect height="0.027153" width="50.000000" x="330.000000" y="109.826273" fill="rgb(0, 100, 0)" style="fill-opacity:0.00" />
<rect height="0.169708" width="10.000000" x="350.000000" y="109.826273" fill="rgb(0, 100, 0)" style="fill-opacity:0.00" />
<!-- End 'T' -->
<!-- Begin 'A' -->
<polygon points=" 330.000000, 110.000000, 351.000000, 109.995981, 359.000000, 109.995981, 380.000000, 110.000000, 372.500000, 110.000000, 366.250000, 109.998995, 343.750000, 109.998995, 337.500000, 110.000000" fill="rgb(178, 34, 34)" style="fill-opacity:0.00" />
<!-- End 'A' -->
<!-- Begin 'C' -->
<ellipse cx="355.000000" cy="145.478577" rx="25.000000" ry="25.478577" fill="rgb(0, 0, 128)" style="fill-opacity:0.92" />
<ellipse cx="355.000000" cy="145.478577" rx="16.666667" ry="16.985718" fill="rgb(255, 255, 255)" style="fill-opacity:1.00" />
<rect height="25.478577" width="25.000000" x="355.000000" y="132.739288" fill="rgb(255, 255, 255)" style="fill-opacity:1.00" />
<!-- End 'C' -->
<!-- Begin 'T' -->
<rect height="4.682209" width="50.000000" x="330.000000" y="170.957153" fill="rgb(0, 100, 0)" style="fill-opacity:0.92" />
<rect height="29.263805" width="10.000000" x="350.000000" y="170.957153" fill="rgb(0, 100, 0)" style="fill-opacity:0.92" />
<!-- End 'T' -->
<!-- Begin 'G' -->
<ellipse cx="355.000000" cy="208.108605" rx="25.000000" ry="7.887647" fill="rgb(255, 165, 0)" style="fill-opacity:0.92" />
<ellipse cx="355.000000" cy="208.108605" rx="16.666667" ry="5.258431" fill="rgb(255, 255, 255)" style="fill-opacity:1.00" />
<rect height="7.887647" width="25.000000" x="355.000000" y="204.164782" fill="rgb(255, 255, 255)" style="fill-opacity:1.00" />
<rect height="1.971912" width="25.000000" x="355.000000" y="210.080517" fill="rgb(255, 165, 0)" style="fill-opacity:0.92" />
<rect height="5.915735" width="6.250000" x="373.750000" y="210.080517" fill="rgb(255, 165, 0)" style="fill-opacity:0.92" />
<!-- End 'G' -->
<!-- Begin 'A' -->
<polygon points=" 330.000000, 220.000000, 351.000000, 215.996252, 359.000000, 215.996252, 380.000000, 220.000000, 372.500000, 220.000000, 366.250000, 218.999063, 343.750000, 218.999063, 337.500000, 220.000000" fill="rgb(178, 34, 34)" style="fill-opacity:0.92" />
<!-- End 'A' -->
<!-- Begin 'G' -->
<ellipse cx="355.000000" cy="260.256845" rx="25.000000" ry="30.256845" fill="rgb(255, 165, 0)" style="fill-opacity:0.04" />
<ellipse cx="355.000000" cy="260.256845" rx="16.666667" ry="20.171230" fill="rgb(255, 255, 255)" style="fill-opacity:1.00" />
<rect height="30.256845" width="25.000000" x="355.000000" y="245.128423" fill="rgb(255, 255, 255)" style="fill-opacity:1.00" />
<rect height="7.564211" width="25.000000" x="355.000000" y="267.821057" fill="rgb(255, 165, 0)" style="fill-opacity:0.04" />
<rect height="22.692634" width="6.250000" x="373.750000" y="267.821057" fill="rgb(255, 165, 0)" style="fill-opacity:0.04" />
<!-- End 'G' -->
<!-- Begin 'C' -->
<ellipse cx="355.000000" cy="307.291782" rx="25.000000" ry="16.778091" fill="rgb(0, 0, 128)" style="fill-opacity:0.04" />
<ellipse cx="355.000000" cy="307.291782" rx="16.666667" ry="11.185394" fill="rgb(255, 255, 255)" style="fill-opacity:1.00" />
<rect height="16.778091" width="25.000000" x="355.000000" y="298.902736" fill="rgb(255, 255, 255)" style="fill-opacity:1.00" />
<!-- End 'C' -->
<!-- Begin 'T' -->
<rect height="0.937339" width="50.000000" x="330.000000" y="324.069873" fill="rgb(0, 100, 0)" style="fill-opacity:0.04" />
<rect height="5.858367" width="10.000000" x="350.000000" y="324.069873" fill="rgb(0, 100, 0)" style="fill-opacity:0.04" />
<!-- End 'T' -->
<!-- Begin 'A' -->
<polygon points=" 330.000000, 330.000000, 351.000000, 329.928239, 359.000000, 329.928239, 380.000000, 330.000000, 372.500000, 330.000000, 366.250000, 329.982060, 343.750000, 329.982060, 337.500000, 330.000000" fill="rgb(178, 34, 34)" style="fill-opacity:0.04" />
<!-- End 'A' -->
<!-- Begin 'C' -->
<ellipse cx="355.000000" cy="364.305640" rx="25.000000" ry="24.305640" fill="rgb(0, 0, 128)" style="fill-opacity:0.04" />
<ellipse cx="355.000000" cy="364.305640" rx="16.666667" ry="16.203760" fill="rgb(255, 255, 255)" style="fill-opacity:1.00" />
<rect height="24.305640" width="25.000000" x="355.000000" y="352.152820" fill="rgb(255, 255, 255)" style="fill-opacity:1.00" />
<!-- End 'C' -->
<!-- Begin 'G' -->
<ellipse cx="355.000000" cy="409.265393" rx="25.000000" ry="20.654113" fill="rgb(255, 165, 0)" style="fill-opacity:0.04" />
<ellipse cx="355.000000" cy="409.265393" rx="16.666667" ry="13.769409" fill="rgb(255, 255, 255)" style="fill-opacity:1.00" />
<rect height="20.654113" width="25.000000" x="355.000000" y="398.938336" fill="rgb(255, 255, 255)" style="fill-opacity:1.00" />
<rect height="5.163528" width="25.000000" x="355.000000" y="414.428921" fill="rgb(255, 165, 0)" style="fill-opacity:0.04" />
<rect height="15.490585" width="6.250000" x="373.750000" y="414.428921" fill="rgb(255, 165, 0)" style="fill-opacity:0.04" />
<!-- End 'G' -->
<!-- Begin 'T' -->
<rect height="1.609463" width="50.000000" x="330.000000" y="429.919506" fill="rgb(0, 100, 0)" style="fill-opacity:0.04" />
<rect height="10.059142" width="10.000000" x="350.000000" y="429.919506" fill="rgb(0, 100, 0)" style="fill-opacity:0.04" />
<!-- End 'T' -->
<!-- Begin 'A' -->
<polygon points=" 330.000000, 440.000000, 351.000000, 439.978648, 359.000000, 439.978648, 380.000000, 440.000000, 372.500000, 440.000000, 366.250000, 439.994662, 343.750000, 439.994662, 337.500000, 440.000000" fill="rgb(178, 34, 34)" style="fill-opacity:0.04" />
<!-- End 'A' -->
<!-- Begin 'G' -->
<ellipse cx="415.000000" cy="44.770254" rx="25.000000" ry="34.770254" fill="rgb(255, 165, 0)" style="fill-opacity:0.04" />
<ellipse cx="415.000000" cy="44.770254" rx="16.666667" ry="23.180170" fill="rgb(255, 255, 255)" style="fill-opacity:1.00" />
<rect height="34.770254" width="25.000000" x="415.000000" y="27.385127" fill="rgb(255, 255, 255)" style="fill-opacity:1.00" />
<rect height="8.692564" width="25.000000" x="415.000000" y="53.462818" fill="rgb(255, 165, 0)" style="fill-opacity:0.04" />
<rect height="26.077691" width="6.250000" x="433.750000" y="53.462818" fill="rgb(255, 165, 0)" style="fill-opacity:0.04" />
<!-- End 'G' -->
<!-- Begin 'C' -->
<ellipse cx="415.000000" cy="94.580702" rx="25.000000" ry="15.040193" fill="rgb(0, 0, 128)" style="fill-opacity:0.04" />
<ellipse cx="415.000000" cy="94.580702" rx="16.666667" ry="10.026795" fill="rgb(255, 255, 255)" style="fill-opacity:1.00" />
<rect height="15.040193" width="25.000000" x="415.000000" y="87.060605" fill="rgb(255, 255, 255)" style="fill-opacity:1.00" />
<!-- End 'C' -->
<!-- Begin 'A' -->
<polygon points=" 390.000000, 109.833606, 411.000000, 109.620894, 419.000000, 109.620894, 440.000000, 109.833606, 432.500000, 109.833606, 426.250000, 109.780428, 403.750000, 109.780428, 397.500000, 109.833606" fill="rgb(178, 34, 34)" style="fill-opacity:0.04" />
<!-- End 'A' -->
<!-- Begin 'T' -->
<rect height="0.026623" width="50.000000" x="390.000000" y="109.833606" fill="rgb(0, 100, 0)" style="fill-opacity:0.04" />
<rect height="0.166394" width="10.000000" x="410.000000" y="109.833606" fill="rgb(0, 100, 0)" style="fill-opacity:0.04" />
<!-- End 'T' -->
<!-- Begin 'T' -->
<rect height="6.068967" width="50.000000" x="390.000000" y="120.000000" fill="rgb(0, 100, 0)" style="fill-opacity:0.50" />
<rect height="37.931041" width="10.000000" x="410.000000" y="120.000000" fill="rgb(0, 100, 0)" style="fill-opacity:0.50" />
<!-- End 'T' -->
<!-- Begin 'C' -->
<ellipse cx="415.000000" cy="175.272160" rx="25.000000" ry="17.341119" fill="rgb(0, 0, 128)" style="fill-opacity:0.50" />
<ellipse cx="415.000000" cy="175.272160" rx="16.666667" ry="11.560746" fill="rgb(255, 255, 255)" style="fill-opacity:1.00" />
<rect height="17.341119" width="25.000000" x="415.000000" y="166.601600" fill="rgb(255, 255, 255)" style="fill-opacity:1.00" />
<!-- End 'C' -->
<!-- Begin 'G' -->
<ellipse cx="415.000000" cy="202.446047" rx="25.000000" ry="9.832769" fill="rgb(255, 165, 0)" style="fill-opacity:0.50" />
<ellipse cx="415.000000" cy="202.446047" rx="16.666667" ry="6.555179" fill="rgb(255, 255, 255)" style="fill-opacity:1.00" />
<rect height="9.832769" width="25.000000" x="415.000000" y="197.529663" fill="rgb(255, 255, 255)" style="fill-opacity:1.00" />
<rect height="2.458192" width="25.000000" x="415.000000" y="204.904239" fill="rgb(255, 165, 0)" style="fill-opacity:0.50" />
<rect height="7.374577" width="6.250000" x="433.750000" y="204.904239" fill="rgb(255, 165, 0)" style="fill-opacity:0.50" />
<!-- End 'G' -->
<!-- Begin 'A' -->
<polygon points=" 390.000000, 220.000000, 411.000000, 212.278816, 419.000000, 212.278816, 440.000000, 220.000000, 432.500000, 220.000000, 426.250000, 218.069704, 403.750000, 218.069704, 397.500000, 220.000000" fill="rgb(178, 34, 34)" style="fill-opacity:0.50" />
<!-- End 'A' -->
<!-- Begin 'C' -->
<ellipse cx="415.000000" cy="256.139262" rx="25.000000" ry="26.139262" fill="rgb(0, 0, 128)" style="fill-opacity:0.19" />
<ellipse cx="415.000000" cy="256.139262" rx="16.666667" ry="17.426175" fill="rgb(255, 255, 255)" style="fill-opacity:1.00" />
<rect height="26.139262" width="25.000000" x="415.000000" y="243.069631" fill="rgb(255, 255, 255)" style="fill-opacity:1.00" />
<!-- End 'C' -->
<!-- Begin 'G' -->
<ellipse cx="415.000000" cy="301.967949" rx="25.000000" ry="19.689424" fill="rgb(255, 165, 0)" style="fill-opacity:0.19" />
<ellipse cx="415.000000" cy="301.967949" rx="16.666667" ry="13.126283" fill="rgb(255, 255, 255)" style="fill-opacity:1.00" />
<rect height="19.689424" width="25.000000" x="415.000000" y="292.123237" fill="rgb(255, 255, 255)" style="fill-opacity:1.00" />
<rect height="4.922356" width="25.000000" x="415.000000" y="306.890306" fill="rgb(255, 165, 0)" style="fill-opacity:0.19" />
<rect height="14.767068" width="6.250000" x="433.750000" y="306.890306" fill="rgb(255, 165, 0)" style="fill-opacity:0.19" />
<!-- End 'G' -->
<!-- Begin 'T' -->
<rect height="1.135396" width="50.000000" x="390.000000" y="321.657374" fill="rgb(0, 100, 0)" style="fill-opacity:0.19" />
<rect height="7.096227" width="10.000000" x="410.000000" y="321.657374" fill="rgb(0, 100, 0)" style="fill-opacity:0.19" />
<!-- End 'T' -->
<!-- Begin 'A' -->
<polygon points=" 390.000000, 330.000000, 411.000000, 328.753601, 419.000000, 328.753601, 440.000000, 330.000000, 432.500000, 330.000000, 426.250000, 329.688400, 403.750000, 329.688400, 397.500000, 330.000000" fill="rgb(178, 34, 34)" style="fill-opacity:0.19" />
<!-- End 'A' -->
<!-- Begin 'G' -->
<ellipse cx="415.000000" cy="362.365627" rx="25.000000" ry="22.365627" fill="rgb(255, 165, 0)" style="fill-opacity:0.27" />
<ellipse cx="415.000000" cy="362.365627" rx="16.666667" ry="14.910418" fill="rgb(255, 255, 255)" style="fill-opacity:1.00" />
<rect height="22.365627" width="25.000000" x="415.000000" y="351.182813" fill="rgb(255, 255, 255)" style="fill-opacity:1.00" />
<rect height="5.591407" width="25.000000" x="415.000000" y="367.957033" fill="rgb(255, 165, 0)" style="fill-opacity:0.27" />
<rect height="16.774220" width="6.250000" x="433.750000" y="367.957033" fill="rgb(255, 165, 0)" style="fill-opacity:0.27" />
<!-- End 'G' -->
<!-- Begin 'C' -->
<ellipse cx="415.000000" cy="406.714154" rx="25.000000" ry="21.982901" fill="rgb(0, 0, 128)" style="fill-opacity:0.27" />
<ellipse cx="415.000000" cy="406.714154" rx="16.666667" ry="14.655267" fill="rgb(255, 255, 255)" style="fill-opacity:1.00" />
<rect height="21.982901" width="25.000000" x="415.000000" y="395.722703" fill="rgb(255, 255, 255)" style="fill-opacity:1.00" />
<!-- End 'C' -->
<!-- Begin 'T' -->
<rect height="1.331489" width="50.000000" x="390.000000" y="428.697054" fill="rgb(0, 100, 0)" style="fill-opacity:0.27" />
<rect height="8.321809" width="10.000000" x="410.000000" y="428.697054" fill="rgb(0, 100, 0)" style="fill-opacity:0.27" />
<!-- End 'T' -->
<!-- Begin 'A' -->
<polygon points=" 390.000000, 440.000000, 411.000000, 437.018863, 419.000000, 437.018863, 440.000000, 440.000000, 432.500000, 440.000000, 426.250000, 439.254716, 403.750000, 439.254716, 397.500000, 440.000000" fill="rgb(178, 34, 34)" style="fill-opacity:0.27" />
<!-- End 'A' -->
<!-- Begin 'G' -->
<ellipse cx="475.000000" cy="35.043812" rx="25.000000" ry="25.043812" fill="rgb(255, 165, 0)" style="fill-opacity:0.05" />
<ellipse cx="475.000000" cy="35.043812" rx="16.666667" ry="16.695875" fill="rgb(255, 255, 255)" style="fill-opacity:1.00" />
<rect height="25.043812" width="25.000000" x="475.000000" y="22.521906" fill="rgb(255, 255, 255)" style="fill-opacity:1.00" />
<rect height="6.260953" width="25.000000" x="475.000000" y="41.304765" fill="rgb(255, 165, 0)" style="fill-opacity:0.05" />
<rect height="18.782859" width="6.250000" x="493.750000" y="41.304765" fill="rgb(255, 165, 0)" style="fill-opacity:0.05" />
<!-- End 'G' -->
<!-- Begin 'C' -->
<ellipse cx="475.000000" cy="72.917775" rx="25.000000" ry="12.830152" fill="rgb(0, 0, 128)" style="fill-opacity:0.05" />
<ellipse cx="475.000000" cy="72.917775" rx="16.666667" ry="8.553434" fill="rgb(255, 255, 255)" style="fill-opacity:1.00" />
<rect height="12.830152" width="25.000000" x="475.000000" y="66.502700" fill="rgb(255, 255, 255)" style="fill-opacity:1.00" />
<!-- End 'C' -->
<!-- Begin 'A' -->
<polygon points=" 450.000000, 109.814684, 471.000000, 85.747927, 479.000000, 85.747927, 500.000000, 109.814684, 492.500000, 109.814684, 486.250000, 103.797995, 463.750000, 103.797995, 457.500000, 109.814684" fill="rgb(178, 34, 34)" style="fill-opacity:0.05" />
<polygon points=" 475.000000, 90.561278, 467.000000, 99.187981, 482.000000, 99.187981" fill="rgb(255, 255, 255)" style="fill-opacity:1.00" />
<!-- End 'A' -->
<!-- Begin 'T' -->
<rect height="0.029651" width="50.000000" x="450.000000" y="109.814684" fill="rgb(0, 100, 0)" style="fill-opacity:0.05" />
<rect height="0.185316" width="10.000000" x="470.000000" y="109.814684" fill="rgb(0, 100, 0)" style="fill-opacity:0.05" />
<!-- End 'T' -->
<!-- Begin 'G' -->
<ellipse cx="475.000000" cy="136.344574" rx="25.000000" ry="16.344574" fill="rgb(255, 165, 0)" style="fill-opacity:0.40" />
<ellipse cx="475.000000" cy="136.344574" rx="16.666667" ry="10.896383" fill="rgb(255, 255, 255)" style="fill-opacity:1.00" />
<rect height="16.344574" width="25.000000" x="475.000000" y="128.172287" fill="rgb(255, 255, 255)" style="fill-opacity:1.00" />
<rect height="4.086143" width="25.000000" x="475.000000" y="140.430717" fill="rgb(255, 165, 0)" style="fill-opacity:0.40" />
<rect height="12.258430" width="6.250000" x="493.750000" y="140.430717" fill="rgb(255, 165, 0)" style="fill-opacity:0.40" />
<!-- End 'G' -->
<!-- Begin 'A' -->
<polygon points=" 450.000000, 183.478550, 471.000000, 152.689148, 479.000000, 152.689148, 500.000000, 183.478550, 492.500000, 183.478550, 486.250000, 175.781200, 463.750000, 175.781200, 457.500000, 183.478550" fill="rgb(178, 34, 34)" style="fill-opacity:0.40" />
<polygon points=" 475.000000, 158.847028, 467.000000, 170.162789, 482.000000, 170.162789" fill="rgb(255, 255, 255)" style="fill-opacity:1.00" />
<!-- End 'A' -->
<!-- Begin 'C' -->
<ellipse cx="475.000000" cy="198.334581" rx="25.000000" ry="14.856031" fill="rgb(0, 0, 128)" style="fill-opacity:0.40" />
<ellipse cx="475.000000" cy="198.334581" rx="16.666667" ry="9.904020" fill="rgb(255, 255, 255)" style="fill-opacity:1.00" />
<rect height="14.856031" width="25.000000" x="475.000000" y="190.906565" fill="rgb(255, 255, 255)" style="fill-opacity:1.00" />
<!-- End 'C' -->
<!-- Begin 'T' -->
<rect height="1.089502" width="50.000000" x="450.000000" y="213.190611" fill="rgb(0, 100, 0)" style="fill-opacity:0.40" />
<rect height="6.809389" width="10.000000" x="470.000000" y="213.190611" fill="rgb(0, 100, 0)" style="fill-opacity:0.40" />
<!-- End 'T' -->
<!-- Begin 'G' -->
<ellipse cx="475.000000" cy="248.428210" rx="25.000000" ry="18.428210" fill="rgb(255, 165, 0)" style="fill-opacity:0.32" />
<ellipse cx="475.000000" cy="248.428210" rx="16.666667" ry="12.285474" fill="rgb(255, 255, 255)" style="fill-opacity:1.00" />
<rect height="18.428210" width="25.000000" x="475.000000" y="239.214105" fill="rgb(255, 255, 255)" style="fill-opacity:1.00" />
<rect height="4.607053" width="25.000000" x="475.000000" y="253.035263" fill="rgb(255, 165, 0)" style="fill-opacity:0.32" />
<rect height="13.821158" width="6.250000" x="493.750000" y="253.035263" fill="rgb(255, 165, 0)" style="fill-opacity:0.32" />
<!-- End 'G' -->
<!-- Begin 'C' -->
<ellipse cx="475.000000" cy="285.016321" rx="25.000000" ry="18.159901" fill="rgb(0, 0, 128)" style="fill-opacity:0.32" />
<ellipse cx="475.000000" cy="285.016321" rx="16.666667" ry="12.106600" fill="rgb(255, 255, 255)" style="fill-opacity:1.00" />
<rect height="18.159901" width="25.000000" x="475.000000" y="275.936371" fill="rgb(255, 255, 255)" style="fill-opacity:1.00" />
<!-- End 'C' -->
<!-- Begin 'A' -->
<polygon points=" 450.000000, 326.196614, 471.000000, 303.176222, 479.000000, 303.176222, 500.000000, 326.196614, 492.500000, 326.196614, 486.250000, 320.441516, 463.750000, 320.441516, 457.500000, 326.196614" fill="rgb(178, 34, 34)" style="fill-opacity:0.32" />
<polygon points=" 475.000000, 307.780300, 467.000000, 315.988457, 482.000000, 315.988457" fill="rgb(255, 255, 255)" style="fill-opacity:1.00" />
<!-- End 'A' -->
<!-- Begin 'T' -->
<rect height="0.608542" width="50.000000" x="450.000000" y="326.196614" fill="rgb(0, 100, 0)" style="fill-opacity:0.32" />
<rect height="3.803386" width="10.000000" x="470.000000" y="326.196614" fill="rgb(0, 100, 0)" style="fill-opacity:0.32" />
<!-- End 'T' -->
<!-- Begin 'G' -->
<ellipse cx="475.000000" cy="367.302739" rx="25.000000" ry="27.302739" fill="rgb(255, 165, 0)" style="fill-opacity:0.23" />
<ellipse cx="475.000000" cy="367.302739" rx="16.666667" ry="18.201826" fill="rgb(255, 255, 255)" style="fill-opacity:1.00" />
<rect height="27.302739" width="25.000000" x="475.000000" y="353.651369" fill="rgb(255, 255, 255)" style="fill-opacity:1.00" />
<rect height="6.825685" width="25.000000" x="475.000000" y="374.128424" fill="rgb(255, 165, 0)" style="fill-opacity:0.23" />
<rect height="20.477054" width="6.250000" x="493.750000" y="374.128424" fill="rgb(255, 165, 0)" style="fill-opacity:0.23" />
<!-- End 'G' -->
<!-- Begin 'C' -->
<ellipse cx="475.000000" cy="410.478183" rx="25.000000" ry="15.872705" fill="rgb(0, 0, 128)" style="fill-opacity:0.23" />
<ellipse cx="475.000000" cy="410.478183" rx="16.666667" ry="10.581803" fill="rgb(255, 255, 255)" style="fill-opacity:1.00" />
<rect height="15.872705" width="25.000000" x="475.000000" y="402.541830" fill="rgb(255, 255, 255)" style="fill-opacity:1.00" />
<!-- End 'C' -->
<!-- Begin 'A' -->
<polygon points=" 450.000000, 433.704511, 471.000000, 426.350888, 479.000000, 426.350888, 500.000000, 433.704511, 492.500000, 433.704511, 486.250000, 431.866105, 463.750000, 431.866105, 457.500000, 433.704511" fill="rgb(178, 34, 34)" style="fill-opacity:0.23" />
<!-- End 'A' -->
<!-- Begin 'T' -->
<rect height="1.007278" width="50.000000" x="450.000000" y="433.704511" fill="rgb(0, 100, 0)" style="fill-opacity:0.23" />
<rect height="6.295489" width="10.000000" x="470.000000" y="433.704511" fill="rgb(0, 100, 0)" style="fill-opacity:0.23" />
<!-- End 'T' -->
<!-- Begin 'G' -->
<ellipse cx="535.000000" cy="52.657827" rx="25.000000" ry="42.657827" fill="rgb(255, 165, 0)" style="fill-opacity:0.23" />
<ellipse cx="535.000000" cy="52.657827" rx="16.666667" ry="28.438551" fill="rgb(255, 255, 255)" style="fill-opacity:1.00" />
<rect height="42.657827" width="25.000000" x="535.000000" y="31.328914" fill="rgb(255, 255, 255)" style="fill-opacity:1.00" />
<rect height="10.664457" width="25.000000" x="535.000000" y="63.322284" fill="rgb(255, 165, 0)" style="fill-opacity:0.23" />
<rect height="31.993370" width="6.250000" x="553.750000" y="63.322284" fill="rgb(255, 165, 0)" style="fill-opacity:0.23" />
<!-- End 'G' -->
<!-- Begin 'A' -->
<polygon points=" 510.000000, 104.379748, 531.000000, 95.315654, 539.000000, 95.315654, 560.000000, 104.379748, 552.500000, 104.379748, 546.250000, 102.113724, 523.750000, 102.113724, 517.500000, 104.379748" fill="rgb(178, 34, 34)" style="fill-opacity:0.23" />
<polygon points=" 535.000000, 97.128473, 527.000000, 99.754110, 542.000000, 99.754110" fill="rgb(255, 255, 255)" style="fill-opacity:1.00" />
<!-- End 'A' -->
<!-- Begin 'C' -->
<ellipse cx="535.000000" cy="107.185107" rx="25.000000" ry="2.805360" fill="rgb(0, 0, 128)" style="fill-opacity:0.23" />
<ellipse cx="535.000000" cy="107.185107" rx="16.666667" ry="1.870240" fill="rgb(255, 255, 255)" style="fill-opacity:1.00" />
<rect height="2.805360" width="25.000000" x="535.000000" y="105.782427" fill="rgb(255, 255, 255)" style="fill-opacity:1.00" />
<!-- End 'C' -->
<!-- Begin 'T' -->
<rect height="0.001525" width="50.000000" x="510.000000" y="109.990467" fill="rgb(0, 100, 0)" style="fill-opacity:0.23" />
<rect height="0.009533" width="10.000000" x="530.000000" y="109.990467" fill="rgb(0, 100, 0)" style="fill-opacity:0.23" />
<!-- End 'T' -->
<!-- Begin 'A' -->
<polygon points=" 510.000000, 158.430130, 531.000000, 120.000000, 539.000000, 120.000000, 560.000000, 158.430130, 552.500000, 158.430130, 546.250000, 148.822598, 523.750000, 148.822598, 517.500000, 158.430130" fill="rgb(178, 34, 34)" style="fill-opacity:0.32" />
<polygon points=" 535.000000, 127.686026, 527.000000, 142.058078, 542.000000, 142.058078" fill="rgb(255, 255, 255)" style="fill-opacity:1.00" />
<!-- End 'A' -->
<!-- Begin 'G' -->
<ellipse cx="535.000000" cy="175.914530" rx="25.000000" ry="17.484400" fill="rgb(255, 165, 0)" style="fill-opacity:0.32" />
<ellipse cx="535.000000" cy="175.914530" rx="16.666667" ry="11.656267" fill="rgb(255, 255, 255)" style="fill-opacity:1.00" />
<rect height="17.484400" width="25.000000" x="535.000000" y="167.172330" fill="rgb(255, 255, 255)" style="fill-opacity:1.00" />
<rect height="4.371100" width="25.000000" x="535.000000" y="180.285630" fill="rgb(255, 165, 0)" style="fill-opacity:0.32" />
<rect height="13.113300" width="6.250000" x="553.750000" y="180.285630" fill="rgb(255, 165, 0)" style="fill-opacity:0.32" />
<!-- End 'G' -->
<!-- Begin 'C' -->
<ellipse cx="535.000000" cy="203.780935" rx="25.000000" ry="10.382005" fill="rgb(0, 0, 128)" style="fill-opacity:0.32" />
<ellipse cx="535.000000" cy="203.780935" rx="16.666667" ry="6.921336" fill="rgb(255, 255, 255)" style="fill-opacity:1.00" />
<rect height="10.382005" width="25.000000" x="535.000000" y="198.589933" fill="rgb(255, 255, 255)" style="fill-opacity:1.00" />
<!-- End 'C' -->
<!-- Begin 'T' -->
<rect height="0.933930" width="50.000000" x="510.000000" y="214.162940" fill="rgb(0, 100, 0)" style="fill-opacity:0.32" />
<rect height="5.837060" width="10.000000" x="530.000000" y="214.162940" fill="rgb(0, 100, 0)" style="fill-opacity:0.32" />
<!-- End 'T' -->
<!-- Begin 'G' -->
<ellipse cx="535.000000" cy="252.680014" rx="25.000000" ry="22.680014" fill="rgb(255, 165, 0)" style="fill-opacity:0.40" />
<ellipse cx="535.000000" cy="252.680014" rx="16.666667" ry="15.120009" fill="rgb(255, 255, 255)" style="fill-opacity:1.00" />
<rect height="22.680014" width="25.000000" x="535.000000" y="241.340007" fill="rgb(255, 255, 255)" style="fill-opacity:1.00" />
<rect height="5.670003" width="25.000000" x="535.000000" y="258.350017" fill="rgb(255, 165, 0)" style="fill-opacity:0.40" />
<rect height="17.010010" width="6.250000" x="553.750000" y="258.350017" fill="rgb(255, 165, 0)" style="fill-opacity:0.40" />
<!-- End 'G' -->
<!-- Begin 'A' -->
<polygon points=" 510.000000, 303.389983, 531.000000, 275.360027, 539.000000, 275.360027, 560.000000, 303.389983, 552.500000, 303.389983, 546.250000, 296.382494, 523.750000, 296.382494, 517.500000, 303.389983" fill="rgb(178, 34, 34)" style="fill-opacity:0.40" />
<polygon points=" 535.000000, 280.966018, 527.000000, 291.178001, 542.000000, 291.178001" fill="rgb(255, 255, 255)" style="fill-opacity:1.00" />
<!-- End 'A' -->
<!-- Begin 'C' -->
<ellipse cx="535.000000" cy="316.298354" rx="25.000000" ry="12.908371" fill="rgb(0, 0, 128)" style="fill-opacity:0.40" />
<ellipse cx="535.000000" cy="316.298354" rx="16.666667" ry="8.605581" fill="rgb(255, 255, 255)" style="fill-opacity:1.00" />
<rect height="12.908371" width="25.000000" x="535.000000" y="309.844168" fill="rgb(255, 255, 255)" style="fill-opacity:1.00" />
<!-- End 'C' -->
<!-- Begin 'T' -->
<rect height="0.126924" width="50.000000" x="510.000000" y="329.206725" fill="rgb(0, 100, 0)" style="fill-opacity:0.40" />
<rect height="0.793275" width="10.000000" x="530.000000" y="329.206725" fill="rgb(0, 100, 0)" style="fill-opacity:0.40" />
<!-- End 'T' -->
<!-- Begin 'G' -->
<ellipse cx="535.000000" cy="375.696191" rx="25.000000" ry="35.696191" fill="rgb(255, 165, 0)" style="fill-opacity:0.05" />
<ellipse cx="535.000000" cy="375.696191" rx="16.666667" ry="23.797461" fill="rgb(255, 255, 255)" style="fill-opacity:1.00" />
<rect height="35.696191" width="25.000000" x="535.000000" y="357.848096" fill="rgb(255, 255, 255)" style="fill-opacity:1.00" />
<rect height="8.924048" width="25.000000" x="535.000000" y="384.620239" fill="rgb(255, 165, 0)" style="fill-opacity:0.05" />
<rect height="26.772143" width="6.250000" x="553.750000" y="384.620239" fill="rgb(255, 165, 0)" style="fill-opacity:0.05" />
<!-- End 'G' -->
<!-- Begin 'A' -->
<polygon points=" 510.000000, 431.422064, 531.000000, 411.392383, 539.000000, 411.392383, 560.000000, 431.422064, 552.500000, 431.422064, 546.250000, 426.414643, 523.750000, 426.414643, 517.500000, 431.422064" fill="rgb(178, 34, 34)" style="fill-opacity:0.05" />
<polygon points=" 535.000000, 415.398319, 527.000000, 422.410191, 542.000000, 422.410191" fill="rgb(255, 255, 255)" style="fill-opacity:1.00" />
<!-- End 'A' -->
<!-- Begin 'C' -->
<ellipse cx="535.000000" cy="435.694738" rx="25.000000" ry="4.272674" fill="rgb(0, 0, 128)" style="fill-opacity:0.05" />
<ellipse cx="535.000000" cy="435.694738" rx="16.666667" ry="2.848450" fill="rgb(255, 255, 255)" style="fill-opacity:1.00" />
<rect height="4.272674" width="25.000000" x="535.000000" y="433.558401" fill="rgb(255, 255, 255)" style="fill-opacity:1.00" />
<!-- End 'C' -->
<!-- Begin 'T' -->
<rect height="0.005214" width="50.000000" x="510.000000" y="439.967412" fill="rgb(0, 100, 0)" style="fill-opacity:0.05" />
<rect height="0.032588" width="10.000000" x="530.000000" y="439.967412" fill="rgb(0, 100, 0)" style="fill-opacity:0.05" />
<!-- End 'T' -->
<!-- Begin 'G' -->
<ellipse cx="595.000000" cy="57.312818" rx="25.000000" ry="47.312818" fill="rgb(255, 165, 0)" style="fill-opacity:0.27" />
<ellipse cx="595.000000" cy="57.312818" rx="16.666667" ry="31.541878" fill="rgb(255, 255, 255)" style="fill-opacity:1.00" />
<rect height="47.312818" width="25.000000" x="595.000000" y="33.656409" fill="rgb(255, 255, 255)" style="fill-opacity:1.00" />
<rect height="11.828204" width="25.000000" x="595.000000" y="69.141022" fill="rgb(255, 165, 0)" style="fill-opacity:0.27" />
<rect height="35.484613" width="6.250000" x="613.750000" y="69.141022" fill="rgb(255, 165, 0)" style="fill-opacity:0.27" />
<!-- End 'G' -->
<!-- Begin 'C' -->
<ellipse cx="595.000000" cy="106.390964" rx="25.000000" ry="1.765329" fill="rgb(0, 0, 128)" style="fill-opacity:0.27" />
<ellipse cx="595.000000" cy="106.390964" rx="16.666667" ry="1.176886" fill="rgb(255, 255, 255)" style="fill-opacity:1.00" />
<rect height="1.765329" width="25.000000" x="595.000000" y="105.508300" fill="rgb(255, 255, 255)" style="fill-opacity:1.00" />
<!-- End 'C' -->
<!-- Begin 'A' -->
<polygon points=" 570.000000, 109.997635, 591.000000, 108.156293, 599.000000, 108.156293, 620.000000, 109.997635, 612.500000, 109.997635, 606.250000, 109.537300, 583.750000, 109.537300, 577.500000, 109.997635" fill="rgb(178, 34, 34)" style="fill-opacity:0.27" />
<!-- End 'A' -->
<!-- Begin 'T' -->
<rect height="0.000378" width="50.000000" x="570.000000" y="109.997635" fill="rgb(0, 100, 0)" style="fill-opacity:0.27" />
<rect height="0.002365" width="10.000000" x="590.000000" y="109.997635" fill="rgb(0, 100, 0)" style="fill-opacity:0.27" />
<!-- End 'T' -->
<!-- Begin 'G' -->
<ellipse cx="595.000000" cy="147.344521" rx="25.000000" ry="27.344521" fill="rgb(255, 165, 0)" style="fill-opacity:0.19" />
<ellipse cx="595.000000" cy="147.344521" rx="16.666667" ry="18.229680" fill="rgb(255, 255, 255)" style="fill-opacity:1.00" />
<rect height="27.344521" width="25.000000" x="595.000000" y="133.672260" fill="rgb(255, 255, 255)" style="fill-opacity:1.00" />
<rect height="6.836130" width="25.000000" x="595.000000" y="154.180651" fill="rgb(255, 165, 0)" style="fill-opacity:0.19" />
<rect height="20.508390" width="6.250000" x="613.750000" y="154.180651" fill="rgb(255, 165, 0)" style="fill-opacity:0.19" />
<!-- End 'G' -->
<!-- Begin 'C' -->
<ellipse cx="595.000000" cy="192.258888" rx="25.000000" ry="17.569847" fill="rgb(0, 0, 128)" style="fill-opacity:0.19" />
<ellipse cx="595.000000" cy="192.258888" rx="16.666667" ry="11.713231" fill="rgb(255, 255, 255)" style="fill-opacity:1.00" />
<rect height="17.569847" width="25.000000" x="595.000000" y="183.473965" fill="rgb(255, 255, 255)" style="fill-opacity:1.00" />
<!-- End 'C' -->
<!-- Begin 'A' -->
<polygon points=" 570.000000, 218.916563, 591.000000, 209.828735, 599.000000, 209.828735, 620.000000, 218.916563, 612.500000, 218.916563, 606.250000, 216.644606, 583.750000, 216.644606, 577.500000, 218.916563" fill="rgb(178, 34, 34)" style="fill-opacity:0.19" />
<polygon points=" 595.000000, 211.646301, 587.000000, 214.281432, 602.000000, 214.281432" fill="rgb(255, 255, 255)" style="fill-opacity:1.00" />
<!-- End 'A' -->
<!-- Begin 'T' -->
<rect height="0.173350" width="50.000000" x="570.000000" y="218.916563" fill="rgb(0, 100, 0)" style="fill-opacity:0.19" />
<rect height="1.083437" width="10.000000" x="590.000000" y="218.916563" fill="rgb(0, 100, 0)" style="fill-opacity:0.19" />
<!-- End 'T' -->
<!-- Begin 'G' -->
<ellipse cx="595.000000" cy="271.367350" rx="25.000000" ry="41.367350" fill="rgb(255, 165, 0)" style="fill-opacity:0.52" />
<ellipse cx="595.000000" cy="271.367350" rx="16.666667" ry="27.578233" fill="rgb(255, 255, 255)" style="fill-opacity:1.00" />
<rect height="41.367350" width="25.000000" x="595.000000" y="250.683675" fill="rgb(255, 255, 255)" style="fill-opacity:1.00" />
<rect height="10.341837" width="25.000000" x="595.000000" y="281.709187" fill="rgb(255, 165, 0)" style="fill-opacity:0.52" />
<rect height="31.025512" width="6.250000" x="613.750000" y="281.709187" fill="rgb(255, 165, 0)" style="fill-opacity:0.52" />
<!-- End 'G' -->
<!-- Begin 'C' -->
<ellipse cx="595.000000" cy="318.927493" rx="25.000000" ry="6.192793" fill="rgb(0, 0, 128)" style="fill-opacity:0.52" />
<ellipse cx="595.000000" cy="318.927493" rx="16.666667" ry="4.128529" fill="rgb(255, 255, 255)" style="fill-opacity:1.00" />
<rect height="6.192793" width="25.000000" x="595.000000" y="315.831096" fill="rgb(255, 255, 255)" style="fill-opacity:1.00" />
<!-- End 'C' -->
<!-- Begin 'A' -->
<polygon points=" 570.000000, 329.712853, 591.000000, 325.120286, 599.000000, 325.120286, 620.000000, 329.712853, 612.500000, 329.712853, 606.250000, 328.564712, 583.750000, 328.564712, 577.500000, 329.712853" fill="rgb(178, 34, 34)" style="fill-opacity:0.52" />
<!-- End 'A' -->
<!-- Begin 'T' -->
<rect height="0.045943" width="50.000000" x="570.000000" y="329.712853" fill="rgb(0, 100, 0)" style="fill-opacity:0.52" />
<rect height="0.287147" width="10.000000" x="590.000000" y="329.712853" fill="rgb(0, 100, 0)" style="fill-opacity:0.52" />
<!-- End 'T' -->
<!-- Begin 'G' -->
<ellipse cx="595.000000" cy="389.298610" rx="25.000000" ry="49.298610" fill="rgb(255, 165, 0)" style="fill-opacity:0.02" />
<ellipse cx="595.000000" cy="389.298610" rx="16.666667" ry="32.865740" fill="rgb(255, 255, 255)" style="fill-opacity:1.00" />
<rect height="49.298610" width="25.000000" x="595.000000" y="364.649305" fill="rgb(255, 255, 255)" style="fill-opacity:1.00" />
<rect height="12.324653" width="25.000000" x="595.000000" y="401.623263" fill="rgb(255, 165, 0)" style="fill-opacity:0.02" />
<rect height="36.973958" width="6.250000" x="613.750000" y="401.623263" fill="rgb(255, 165, 0)" style="fill-opacity:0.02" />
<!-- End 'G' -->
<!-- Begin 'C' -->
<ellipse cx="595.000000" cy="439.292948" rx="25.000000" ry="0.695728" fill="rgb(0, 0, 128)" style="fill-opacity:0.02" />
<ellipse cx="595.000000" cy="439.292948" rx="16.666667" ry="0.463818" fill="rgb(255, 255, 255)" style="fill-opacity:1.00" />
<rect height="0.695728" width="25.000000" x="595.000000" y="438.945085" fill="rgb(255, 255, 255)" style="fill-opacity:1.00" />
<!-- End 'C' -->
<!-- Begin 'A' -->
<polygon points=" 570.000000, 439.999914, 591.000000, 439.988676, 599.000000, 439.988676, 620.000000, 439.999914, 612.500000, 439.999914, 606.250000, 439.997105, 583.750000, 439.997105, 577.500000, 439.999914" fill="rgb(178, 34, 34)" style="fill-opacity:0.02" />
<!-- End 'A' -->
<!-- Begin 'T' -->
<rect height="0.000014" width="50.000000" x="570.000000" y="439.999914" fill="rgb(0, 100, 0)" style="fill-opacity:0.02" />
<rect height="0.000086" width="10.000000" x="590.000000" y="439.999914" fill="rgb(0, 100, 0)" style="fill-opacity:0.02" />
<!-- End 'T' -->
<!-- Begin 'G' -->
<ellipse cx="655.000000" cy="52.413351" rx="25.000000" ry="42.413351" fill="rgb(255, 165, 0)" style="fill-opacity:0.05" />
<ellipse cx="655.000000" cy="52.413351" rx="16.666667" ry="28.275567" fill="rgb(255, 255, 255)" style="fill-opacity:1.00" />
<rect height="42.413351" width="25.000000" x="655.000000" y="31.206675" fill="rgb(255, 255, 255)" style="fill-opacity:1.00" />
<rect height="10.603338" width="25.000000" x="655.000000" y="63.016688" fill="rgb(255, 165, 0)" style="fill-opacity:0.05" />
<rect height="31.810013" width="6.250000" x="673.750000" y="63.016688" fill="rgb(255, 165, 0)" style="fill-opacity:0.05" />
<!-- End 'G' -->
<!-- Begin 'C' -->
<ellipse cx="655.000000" cy="102.264826" rx="25.000000" ry="7.438125" fill="rgb(0, 0, 128)" style="fill-opacity:0.05" />
<ellipse cx="655.000000" cy="102.264826" rx="16.666667" ry="4.958750" fill="rgb(255, 255, 255)" style="fill-opacity:1.00" />
<rect height="7.438125" width="25.000000" x="655.000000" y="98.545764" fill="rgb(255, 255, 255)" style="fill-opacity:1.00" />
<!-- End 'C' -->
<!-- Begin 'A' -->
<polygon points=" 630.000000, 109.937675, 651.000000, 109.702951, 659.000000, 109.702951, 680.000000, 109.937675, 672.500000, 109.937675, 666.250000, 109.878994, 643.750000, 109.878994, 637.500000, 109.937675" fill="rgb(178, 34, 34)" style="fill-opacity:0.05" />
<!-- End 'A' -->
<!-- Begin 'T' -->
<rect height="0.009972" width="50.000000" x="630.000000" y="109.937675" fill="rgb(0, 100, 0)" style="fill-opacity:0.05" />
<rect height="0.062325" width="10.000000" x="650.000000" y="109.937675" fill="rgb(0, 100, 0)" style="fill-opacity:0.05" />
<!-- End 'T' -->
<!-- Begin 'C' -->
<ellipse cx="655.000000" cy="154.079569" rx="25.000000" ry="34.079569" fill="rgb(0, 0, 128)" style="fill-opacity:0.14" />
<ellipse cx="655.000000" cy="154.079569" rx="16.666667" ry="22.719713" fill="rgb(255, 255, 255)" style="fill-opacity:1.00" />
<rect height="34.079569" width="25.000000" x="655.000000" y="137.039785" fill="rgb(255, 255, 255)" style="fill-opacity:1.00" />
<!-- End 'C' -->
<!-- Begin 'G' -->
<ellipse cx="655.000000" cy="203.620927" rx="25.000000" ry="15.461789" fill="rgb(255, 165, 0)" style="fill-opacity:0.14" />
<ellipse cx="655.000000" cy="203.620927" rx="16.666667" ry="10.307859" fill="rgb(255, 255, 255)" style="fill-opacity:1.00" />
<rect height="15.461789" width="25.000000" x="655.000000" y="195.890033" fill="rgb(255, 255, 255)" style="fill-opacity:1.00" />
<rect height="3.865447" width="25.000000" x="655.000000" y="207.486374" fill="rgb(255, 165, 0)" style="fill-opacity:0.14" />
<rect height="11.596342" width="6.250000" x="673.750000" y="207.486374" fill="rgb(255, 165, 0)" style="fill-opacity:0.14" />
<!-- End 'G' -->
<!-- Begin 'T' -->
<rect height="0.097370" width="50.000000" x="630.000000" y="219.082716" fill="rgb(0, 100, 0)" style="fill-opacity:0.14" />
<rect height="0.608562" width="10.000000" x="650.000000" y="219.082716" fill="rgb(0, 100, 0)" style="fill-opacity:0.14" />
<!-- End 'T' -->
<!-- Begin 'A' -->
<polygon points=" 630.000000, 220.000000, 651.000000, 219.691278, 659.000000, 219.691278, 680.000000, 220.000000, 672.500000, 220.000000, 666.250000, 219.922820, 643.750000, 219.922820, 637.500000, 220.000000" fill="rgb(178, 34, 34)" style="fill-opacity:0.14" />
<!-- End 'A' -->
<!-- Begin 'G' -->
<ellipse cx="655.000000" cy="262.657047" rx="25.000000" ry="32.657047" fill="rgb(255, 165, 0)" style="fill-opacity:0.81" />
<ellipse cx="655.000000" cy="262.657047" rx="16.666667" ry="21.771365" fill="rgb(255, 255, 255)" style="fill-opacity:1.00" />
<rect height="32.657047" width="25.000000" x="655.000000" y="246.328524" fill="rgb(255, 255, 255)" style="fill-opacity:1.00" />
<rect height="8.164262" width="25.000000" x="655.000000" y="270.821309" fill="rgb(255, 165, 0)" style="fill-opacity:0.81" />
<rect height="24.492785" width="6.250000" x="673.750000" y="270.821309" fill="rgb(255, 165, 0)" style="fill-opacity:0.81" />
<!-- End 'G' -->
<!-- Begin 'C' -->
<ellipse cx="655.000000" cy="310.169980" rx="25.000000" ry="14.855886" fill="rgb(0, 0, 128)" style="fill-opacity:0.81" />
<ellipse cx="655.000000" cy="310.169980" rx="16.666667" ry="9.903924" fill="rgb(255, 255, 255)" style="fill-opacity:1.00" />
<rect height="14.855886" width="25.000000" x="655.000000" y="302.742037" fill="rgb(255, 255, 255)" style="fill-opacity:1.00" />
<!-- End 'C' -->
<!-- Begin 'T' -->
<rect height="0.407662" width="50.000000" x="630.000000" y="325.025866" fill="rgb(0, 100, 0)" style="fill-opacity:0.81" />
<rect height="2.547887" width="10.000000" x="650.000000" y="325.025866" fill="rgb(0, 100, 0)" style="fill-opacity:0.81" />
<!-- End 'T' -->
<!-- Begin 'A' -->
<polygon points=" 630.000000, 330.000000, 651.000000, 327.573753, 659.000000, 327.573753, 680.000000, 330.000000, 672.500000, 330.000000, 666.250000, 329.393438, 643.750000, 329.393438, 637.500000, 330.000000" fill="rgb(178, 34, 34)" style="fill-opacity:0.81" />
<!-- End 'A' -->
<!-- Begin 'G' -->
<ellipse cx="655.000000" cy="375.221050" rx="25.000000" ry="35.221050" fill="rgb(255, 165, 0)" style="fill-opacity:0.00" />
<ellipse cx="655.000000" cy="375.221050" rx="16.666667" ry="23.480700" fill="rgb(255, 255, 255)" style="fill-opacity:1.00" />
<rect height="35.221050" width="25.000000" x="655.000000" y="357.610525" fill="rgb(255, 255, 255)" style="fill-opacity:1.00" />
<rect height="8.805262" width="25.000000" x="655.000000" y="384.026312" fill="rgb(255, 165, 0)" style="fill-opacity:0.00" />
<rect height="26.415787" width="6.250000" x="673.750000" y="384.026312" fill="rgb(255, 165, 0)" style="fill-opacity:0.00" />
<!-- End 'G' -->
<!-- Begin 'C' -->
<ellipse cx="655.000000" cy="425.186377" rx="25.000000" ry="14.744278" fill="rgb(0, 0, 128)" style="fill-opacity:0.00" />
<ellipse cx="655.000000" cy="425.186377" rx="16.666667" ry="9.829518" fill="rgb(255, 255, 255)" style="fill-opacity:1.00" />
<rect height="14.744278" width="25.000000" x="655.000000" y="417.814239" fill="rgb(255, 255, 255)" style="fill-opacity:1.00" />
<!-- End 'C' -->
<!-- Begin 'T' -->
<rect height="0.007283" width="50.000000" x="630.000000" y="439.930655" fill="rgb(0, 100, 0)" style="fill-opacity:0.00" />
<rect height="0.045521" width="10.000000" x="650.000000" y="439.930655" fill="rgb(0, 100, 0)" style="fill-opacity:0.00" />
<!-- End 'T' -->
<!-- Begin 'A' -->
<polygon points=" 630.000000, 440.000000, 651.000000, 439.976176, 659.000000, 439.976176, 680.000000, 440.000000, 672.500000, 440.000000, 666.250000, 439.994044, 643.750000, 439.994044, 637.500000, 440.000000" fill="rgb(178, 34, 34)" style="fill-opacity:0.00" />
<!-- End 'A' -->
<!-- Begin 'C' -->
<ellipse cx="715.000000" cy="38.962263" rx="25.000000" ry="28.962263" fill="rgb(0, 0, 128)" style="fill-opacity:0.02" />
<ellipse cx="715.000000" cy="38.962263" rx="16.666667" ry="19.308176" fill="rgb(255, 255, 255)" style="fill-opacity:1.00" />
<rect height="28.962263" width="25.000000" x="715.000000" y="24.481132" fill="rgb(255, 255, 255)" style="fill-opacity:1.00" />
<!-- End 'C' -->
<!-- Begin 'G' -->
<ellipse cx="715.000000" cy="82.878989" rx="25.000000" ry="14.954463" fill="rgb(255, 165, 0)" style="fill-opacity:0.02" />
<ellipse cx="715.000000" cy="82.878989" rx="16.666667" ry="9.969642" fill="rgb(255, 255, 255)" style="fill-opacity:1.00" />
<rect height="14.954463" width="25.000000" x="715.000000" y="75.401758" fill="rgb(255, 255, 255)" style="fill-opacity:1.00" />
<rect height="3.738616" width="25.000000" x="715.000000" y="86.617605" fill="rgb(255, 165, 0)" style="fill-opacity:0.02" />
<rect height="11.215847" width="6.250000" x="733.750000" y="86.617605" fill="rgb(255, 165, 0)" style="fill-opacity:0.02" />
<!-- End 'G' -->
<!-- Begin 'A' -->
<polygon points=" 690.000000, 106.591493, 711.000000, 97.833452, 719.000000, 97.833452, 740.000000, 106.591493, 732.500000, 106.591493, 726.250000, 104.401983, 703.750000, 104.401983, 697.500000, 106.591493" fill="rgb(178, 34, 34)" style="fill-opacity:0.02" />
<polygon points=" 715.000000, 99.585060, 707.000000, 102.088277, 722.000000, 102.088277" fill="rgb(255, 255, 255)" style="fill-opacity:1.00" />
<!-- End 'A' -->
<!-- Begin 'T' -->
<rect height="0.545361" width="50.000000" x="690.000000" y="106.591493" fill="rgb(0, 100, 0)" style="fill-opacity:0.02" />
<rect height="3.408507" width="10.000000" x="710.000000" y="106.591493" fill="rgb(0, 100, 0)" style="fill-opacity:0.02" />
<!-- End 'T' -->
<!-- Begin 'C' -->
<ellipse cx="715.000000" cy="138.090261" rx="25.000000" ry="18.090261" fill="rgb(0, 0, 128)" style="fill-opacity:0.34" />
<ellipse cx="715.000000" cy="138.090261" rx="16.666667" ry="12.060174" fill="rgb(255, 255, 255)" style="fill-opacity:1.00" />
<rect height="18.090261" width="25.000000" x="715.000000" y="129.045131" fill="rgb(255, 255, 255)" style="fill-opacity:1.00" />
<!-- End 'C' -->
<!-- Begin 'T' -->
<rect height="4.104452" width="50.000000" x="690.000000" y="156.180522" fill="rgb(0, 100, 0)" style="fill-opacity:0.34" />
<rect height="25.652827" width="10.000000" x="710.000000" y="156.180522" fill="rgb(0, 100, 0)" style="fill-opacity:0.34" />
<!-- End 'T' -->
<!-- Begin 'G' -->
<ellipse cx="715.000000" cy="194.527867" rx="25.000000" ry="12.694518" fill="rgb(255, 165, 0)" style="fill-opacity:0.34" />
<ellipse cx="715.000000" cy="194.527867" rx="16.666667" ry="8.463012" fill="rgb(255, 255, 255)" style="fill-opacity:1.00" />
<rect height="12.694518" width="25.000000" x="715.000000" y="188.180608" fill="rgb(255, 255, 255)" style="fill-opacity:1.00" />
<rect height="3.173630" width="25.000000" x="715.000000" y="197.701497" fill="rgb(255, 165, 0)" style="fill-opacity:0.34" />
<rect height="9.520889" width="6.250000" x="733.750000" y="197.701497" fill="rgb(255, 165, 0)" style="fill-opacity:0.34" />
<!-- End 'G' -->
<!-- Begin 'A' -->
<polygon points=" 690.000000, 220.000000, 711.000000, 207.222386, 719.000000, 207.222386, 740.000000, 220.000000, 732.500000, 220.000000, 726.250000, 216.805596, 703.750000, 216.805596, 697.500000, 220.000000" fill="rgb(178, 34, 34)" style="fill-opacity:0.34" />
<polygon points=" 715.000000, 209.777909, 707.000000, 213.888954, 722.000000, 213.888954" fill="rgb(255, 255, 255)" style="fill-opacity:1.00" />
<!-- End 'A' -->
<!-- Begin 'C' -->
<ellipse cx="715.000000" cy="259.787704" rx="25.000000" ry="29.787704" fill="rgb(0, 0, 128)" style="fill-opacity:0.61" />
<ellipse cx="715.000000" cy="259.787704" rx="16.666667" ry="19.858470" fill="rgb(255, 255, 255)" style="fill-opacity:1.00" />
<rect height="29.787704" width="25.000000" x="715.000000" y="244.893852" fill="rgb(255, 255, 255)" style="fill-opacity:1.00" />
<!-- End 'C' -->
<!-- Begin 'G' -->
<ellipse cx="715.000000" cy="301.007859" rx="25.000000" ry="11.432451" fill="rgb(255, 165, 0)" style="fill-opacity:0.61" />
<ellipse cx="715.000000" cy="301.007859" rx="16.666667" ry="7.621634" fill="rgb(255, 255, 255)" style="fill-opacity:1.00" />
<rect height="11.432451" width="25.000000" x="715.000000" y="295.291634" fill="rgb(255, 255, 255)" style="fill-opacity:1.00" />
<rect height="2.858113" width="25.000000" x="715.000000" y="303.865972" fill="rgb(255, 165, 0)" style="fill-opacity:0.61" />
<rect height="8.574338" width="6.250000" x="733.750000" y="303.865972" fill="rgb(255, 165, 0)" style="fill-opacity:0.61" />
<!-- End 'G' -->
<!-- Begin 'A' -->
<polygon points=" 690.000000, 322.874007, 711.000000, 312.440310, 719.000000, 312.440310, 740.000000, 322.874007, 732.500000, 322.874007, 726.250000, 320.265583, 703.750000, 320.265583, 697.500000, 322.874007" fill="rgb(178, 34, 34)" style="fill-opacity:0.61" />
<polygon points=" 715.000000, 314.527049, 707.000000, 317.700528, 722.000000, 317.700528" fill="rgb(255, 255, 255)" style="fill-opacity:1.00" />
<!-- End 'A' -->
<!-- Begin 'T' -->
<rect height="1.140159" width="50.000000" x="690.000000" y="322.874007" fill="rgb(0, 100, 0)" style="fill-opacity:0.61" />
<rect height="7.125993" width="10.000000" x="710.000000" y="322.874007" fill="rgb(0, 100, 0)" style="fill-opacity:0.61" />
<!-- End 'T' -->
<!-- Begin 'C' -->
<ellipse cx="715.000000" cy="373.514404" rx="25.000000" ry="33.514404" fill="rgb(0, 0, 128)" style="fill-opacity:0.02" />
<ellipse cx="715.000000" cy="373.514404" rx="16.666667" ry="22.342936" fill="rgb(255, 255, 255)" style="fill-opacity:1.00" />
<rect height="33.514404" width="25.000000" x="715.000000" y="356.757202" fill="rgb(255, 255, 255)" style="fill-opacity:1.00" />
<!-- End 'C' -->
<!-- Begin 'G' -->
<ellipse cx="715.000000" cy="422.879896" rx="25.000000" ry="15.851089" fill="rgb(255, 165, 0)" style="fill-opacity:0.02" />
<ellipse cx="715.000000" cy="422.879896" rx="16.666667" ry="10.567393" fill="rgb(255, 255, 255)" style="fill-opacity:1.00" />
<rect height="15.851089" width="25.000000" x="715.000000" y="414.954352" fill="rgb(255, 255, 255)" style="fill-opacity:1.00" />
<rect height="3.962772" width="25.000000" x="715.000000" y="426.842669" fill="rgb(255, 165, 0)" style="fill-opacity:0.02" />
<rect height="11.888317" width="6.250000" x="733.750000" y="426.842669" fill="rgb(255, 165, 0)" style="fill-opacity:0.02" />
<!-- End 'G' -->
<!-- Begin 'T' -->
<rect height="0.195707" width="50.000000" x="690.000000" y="438.730985" fill="rgb(0, 100, 0)" style="fill-opacity:0.02" />
<rect height="1.223167" width="10.000000" x="710.000000" y="438.730985" fill="rgb(0, 100, 0)" style="fill-opacity:0.02" />
<!-- End 'T' -->
<!-- Begin 'A' -->
<polygon points=" 690.000000, 440.000000, 711.000000, 439.954152, 719.000000, 439.954152, 740.000000, 440.000000, 732.500000, 440.000000, 726.250000, 439.988538, 703.750000, 439.988538, 697.500000, 440.000000" fill="rgb(178, 34, 34)" style="fill-opacity:0.02" />
<!-- End 'A' -->
<!-- Begin 'G' -->
<ellipse cx="775.000000" cy="31.073189" rx="25.000000" ry="21.073189" fill="rgb(255, 165, 0)" style="fill-opacity:0.11" />
<ellipse cx="775.000000" cy="31.073189" rx="16.666667" ry="14.048793" fill="rgb(255, 255, 255)" style="fill-opacity:1.00" />
<rect height="21.073189" width="25.000000" x="775.000000" y="20.536594" fill="rgb(255, 255, 255)" style="fill-opacity:1.00" />
<rect height="5.268297" width="25.000000" x="775.000000" y="36.341486" fill="rgb(255, 165, 0)" style="fill-opacity:0.11" />
<rect height="15.804892" width="6.250000" x="793.750000" y="36.341486" fill="rgb(255, 165, 0)" style="fill-opacity:0.11" />
<!-- End 'G' -->
<!-- Begin 'A' -->
<polygon points=" 750.000000, 78.748332, 771.000000, 52.146378, 779.000000, 52.146378, 800.000000, 78.748332, 792.500000, 78.748332, 786.250000, 72.097843, 763.750000, 72.097843, 757.500000, 78.748332" fill="rgb(178, 34, 34)" style="fill-opacity:0.11" />
<polygon points=" 775.000000, 57.466768, 767.000000, 67.107550, 782.000000, 67.107550" fill="rgb(255, 255, 255)" style="fill-opacity:1.00" />
<!-- End 'A' -->
<!-- Begin 'C' -->
<ellipse cx="775.000000" cy="91.225602" rx="25.000000" ry="12.477270" fill="rgb(0, 0, 128)" style="fill-opacity:0.11" />
<ellipse cx="775.000000" cy="91.225602" rx="16.666667" ry="8.318180" fill="rgb(255, 255, 255)" style="fill-opacity:1.00" />
<rect height="12.477270" width="25.000000" x="775.000000" y="84.986967" fill="rgb(255, 255, 255)" style="fill-opacity:1.00" />
<!-- End 'C' -->
<!-- Begin 'T' -->
<rect height="1.007540" width="50.000000" x="750.000000" y="103.702872" fill="rgb(0, 100, 0)" style="fill-opacity:0.11" />
<rect height="6.297128" width="10.000000" x="770.000000" y="103.702872" fill="rgb(0, 100, 0)" style="fill-opacity:0.11" />
<!-- End 'T' -->
<!-- Begin 'A' -->
<polygon points=" 750.000000, 153.388227, 771.000000, 120.000000, 779.000000, 120.000000, 800.000000, 153.388227, 792.500000, 153.388227, 786.250000, 145.041171, 763.750000, 145.041171, 757.500000, 153.388227" fill="rgb(178, 34, 34)" style="fill-opacity:0.52" />
<polygon points=" 775.000000, 126.677645, 767.000000, 139.032936, 782.000000, 139.032936" fill="rgb(255, 255, 255)" style="fill-opacity:1.00" />
<!-- End 'A' -->
<!-- Begin 'G' -->
<ellipse cx="775.000000" cy="165.387514" rx="25.000000" ry="11.999286" fill="rgb(255, 165, 0)" style="fill-opacity:0.52" />
<ellipse cx="775.000000" cy="165.387514" rx="16.666667" ry="7.999524" fill="rgb(255, 255, 255)" style="fill-opacity:1.00" />
<rect height="11.999286" width="25.000000" x="775.000000" y="159.387871" fill="rgb(255, 255, 255)" style="fill-opacity:1.00" />
<rect height="2.999822" width="25.000000" x="775.000000" y="168.387335" fill="rgb(255, 165, 0)" style="fill-opacity:0.52" />
<rect height="8.999465" width="6.250000" x="793.750000" y="168.387335" fill="rgb(255, 165, 0)" style="fill-opacity:0.52" />
<!-- End 'G' -->
<!-- Begin 'T' -->
<rect height="3.519022" width="50.000000" x="750.000000" y="177.386800" fill="rgb(0, 100, 0)" style="fill-opacity:0.52" />
<rect height="21.993888" width="10.000000" x="770.000000" y="177.386800" fill="rgb(0, 100, 0)" style="fill-opacity:0.52" />
<!-- End 'T' -->
<!-- Begin 'C' -->
<ellipse cx="775.000000" cy="209.690344" rx="25.000000" ry="10.309656" fill="rgb(0, 0, 128)" style="fill-opacity:0.52" />
<ellipse cx="775.000000" cy="209.690344" rx="16.666667" ry="6.873104" fill="rgb(255, 255, 255)" style="fill-opacity:1.00" />
<rect height="10.309656" width="25.000000" x="775.000000" y="204.535516" fill="rgb(255, 255, 255)" style="fill-opacity:1.00" />
<!-- End 'C' -->
<!-- Begin 'C' -->
<ellipse cx="775.000000" cy="253.614564" rx="25.000000" ry="23.614564" fill="rgb(0, 0, 128)" style="fill-opacity:0.24" />
<ellipse cx="775.000000" cy="253.614564" rx="16.666667" ry="15.743043" fill="rgb(255, 255, 255)" style="fill-opacity:1.00" />
<rect height="23.614564" width="25.000000" x="775.000000" y="241.807282" fill="rgb(255, 255, 255)" style="fill-opacity:1.00" />
<!-- End 'C' -->
<!-- Begin 'A' -->
<polygon points=" 750.000000, 296.614020, 771.000000, 277.229128, 779.000000, 277.229128, 800.000000, 296.614020, 792.500000, 296.614020, 786.250000, 291.767797, 763.750000, 291.767797, 757.500000, 296.614020" fill="rgb(178, 34, 34)" style="fill-opacity:0.24" />
<polygon points=" 775.000000, 281.106106, 767.000000, 287.860063, 782.000000, 287.860063" fill="rgb(255, 255, 255)" style="fill-opacity:1.00" />
<!-- End 'A' -->
<!-- Begin 'G' -->
<ellipse cx="775.000000" cy="306.106076" rx="25.000000" ry="9.492056" fill="rgb(255, 165, 0)" style="fill-opacity:0.24" />
<ellipse cx="775.000000" cy="306.106076" rx="16.666667" ry="6.328037" fill="rgb(255, 255, 255)" style="fill-opacity:1.00" />
<rect height="9.492056" width="25.000000" x="775.000000" y="301.360048" fill="rgb(255, 255, 255)" style="fill-opacity:1.00" />
<rect height="2.373014" width="25.000000" x="775.000000" y="308.479090" fill="rgb(255, 165, 0)" style="fill-opacity:0.24" />
<rect height="7.119042" width="6.250000" x="793.750000" y="308.479090" fill="rgb(255, 165, 0)" style="fill-opacity:0.24" />
<!-- End 'G' -->
<!-- Begin 'T' -->
<rect height="2.304299" width="50.000000" x="750.000000" y="315.598132" fill="rgb(0, 100, 0)" style="fill-opacity:0.24" />
<rect height="14.401868" width="10.000000" x="770.000000" y="315.598132" fill="rgb(0, 100, 0)" style="fill-opacity:0.24" />
<!-- End 'T' -->
<!-- Begin 'G' -->
<ellipse cx="775.000000" cy="365.006400" rx="25.000000" ry="25.006400" fill="rgb(255, 165, 0)" style="fill-opacity:0.13" />
<ellipse cx="775.000000" cy="365.006400" rx="16.666667" ry="16.670933" fill="rgb(255, 255, 255)" style="fill-opacity:1.00" />
<rect height="25.006400" width="25.000000" x="775.000000" y="352.503200" fill="rgb(255, 255, 255)" style="fill-opacity:1.00" />
<rect height="6.251600" width="25.000000" x="775.000000" y="371.258000" fill="rgb(255, 165, 0)" style="fill-opacity:0.13" />
<rect height="18.754800" width="6.250000" x="793.750000" y="371.258000" fill="rgb(255, 165, 0)" style="fill-opacity:0.13" />
<!-- End 'G' -->
<!-- Begin 'C' -->
<ellipse cx="775.000000" cy="404.445591" rx="25.000000" ry="14.432791" fill="rgb(0, 0, 128)" style="fill-opacity:0.13" />
<ellipse cx="775.000000" cy="404.445591" rx="16.666667" ry="9.621861" fill="rgb(255, 255, 255)" style="fill-opacity:1.00" />
<rect height="14.432791" width="25.000000" x="775.000000" y="397.229195" fill="rgb(255, 255, 255)" style="fill-opacity:1.00" />
<!-- End 'C' -->
<!-- Begin 'A' -->
<polygon points=" 750.000000, 434.925751, 771.000000, 418.878382, 779.000000, 418.878382, 800.000000, 434.925751, 792.500000, 434.925751, 786.250000, 430.913908, 763.750000, 430.913908, 757.500000, 434.925751" fill="rgb(178, 34, 34)" style="fill-opacity:0.13" />
<polygon points=" 775.000000, 422.087855, 767.000000, 427.506803, 782.000000, 427.506803" fill="rgb(255, 255, 255)" style="fill-opacity:1.00" />
<!-- End 'A' -->
<!-- Begin 'T' -->
<rect height="0.811880" width="50.000000" x="750.000000" y="434.925751" fill="rgb(0, 100, 0)" style="fill-opacity:0.13" />
<rect height="5.074249" width="10.000000" x="770.000000" y="434.925751" fill="rgb(0, 100, 0)" style="fill-opacity:0.13" />
<!-- End 'T' -->
<text x="430.000000" y="495">
IC = 6.13
</text>

</svg>
