<?xml version="1.0" encoding="UTF-8" standalone="yes"?>
                 <!DOCTYPE svg PUBLIC "-//W3C//DTD SVG 1.0//EN" "http://www.w3.org/TR/2001/REC-SVG-20010904/DTD/svg10.dtd">
                 <svg height="500" width="900" xmlns="http://www.w3.org/2000/svg" xmlns:xlink="http://www.w3.org/1999/xlink">
                 <line x1="85" y1="450" x2="867" y2="450" style="stroke:rgb(99,99,99);stroke-width:2" />
<rect height="7.000000" width="2.000000" x="85.000000" y="450.000000" fill="rgb(0, 0, 0)" style="fill-opacity:1.00" />
<text x="107.000000" y="470">
1
</text>
<rect height="7.000000" width="2.000000" x="145.000000" y="450.000000" fill="rgb(0, 0, 0)" style="fill-opacity:1.00" />
<text x="167.000000" y="470">
2
</text>
<rect height="7.000000" width="2.000000" x="205.000000" y="450.000000" fill="rgb(0, 0, 0)" style="fill-opacity:1.00" />
<text x="227.000000" y="470">
3
</text>
<rect height="7.000000" width="2.000000" x="265.000000" y="450.000000" fill="rgb(0, 0, 0)" style="fill-opacity:1.00" />
<text x="287.000000" y="470">
4
</text>
<rect height="7.000000" width="2.000000" x="325.000000" y="450.000000" fill="rgb(0, 0, 0)" style="fill-opacity:1.00" />
<text x="347.000000" y="470">
5
</text>
<rect height="7.000000" width="2.000000" x="385.000000" y="450.000000" fill="rgb(0, 0, 0)" style="fill-opacity:1.00" />
<text x="407.000000" y="470">
6
</text>
<rect height="7.000000" width="2.000000" x="445.000000" y="450.000000" fill="rgb(0, 0, 0)" style="fill-opacity:1.00" />
<text x="467.000000" y="470">
7
</text>
<rect height="7.000000" width="2.000000" x="505.000000" y="450.000000" fill="rgb(0, 0, 0)" style="fill-opacity:1.00" />
<text x="527.000000" y="470">
8
</text>
<rect height="7.000000" width="2.000000" x="565.000000" y="450.000000" fill="rgb(0, 0, 0)" style="fill-opacity:1.00" />
<text x="587.000000" y="470">
9
</text>
<rect height="7.000000" width="2.000000" x="625.000000" y="450.000000" fill="rgb(0, 0, 0)" style="fill-opacity:1.00" />
<text x="647.000000" y="470">
10
</text>
<rect height="7.000000" width="2.000000" x="685.000000" y="450.000000" fill="rgb(0, 0, 0)" style="fill-opacity:1.00" />
<text x="707.000000" y="470">
11
</text>
<rect height="7.000000" width="2.000000" x="745.000000" y="450.000000" fill="rgb(0, 0, 0)" style="fill-opacity:1.00" />
<text x="767.000000" y="470">
12
</text>
<rect height="7.000000" width="2.000000" x="805.000000" y="450.000000" fill="rgb(0, 0, 0)" style="fill-opacity:1.00" />
<text x="827.000000" y="470">
13
</text>
<rect height="7.000000" width="2.000000" x="865.000000" y="450.000000" fill="rgb(0, 0, 0)" style="fill-opacity:1.00" />
<!-- Begin 'A' -->
<polygon points=" 10.000000, 110.000000, 35.200000, 10.000000, 44.800000, 10.000000, 70.000000, 110.000000, 61.000000, 110.000000, 53.500000, 85.000000, 26.500000, 85.000000, 19.000000, 110.000000" fill="rgb(178, 34, 34)" style="fill-opacity:1.00" />
<polygon points=" 40.000000, 30.000000, 30.400000, 69.000000, 48.400000, 69.000000" fill="rgb(255, 255, 255)" style="fill-opacity:1.00" />
<!-- End 'A' -->
<!-- Begin 'C' -->
<ellipse cx="40.000000" cy="170.000000" rx="30.000000" ry="50.000000" fill="rgb(0, 0, 128)" style="fill-opacity:1.00" />
<ellipse cx="40.000000" cy="170.000000" rx="20.000000" ry="33.333333" fill="rgb(255, 255, 255)" style="fill-opacity:1.00" />
<rect height="50.000000" width="30.000000" x="40.000000" y="145.000000" fill="rgb(255, 255, 255)" style="fill-opacity:1.00" />
<!-- End 'C' -->
<!-- Begin 'G' -->
<ellipse cx="40.000000" cy="280.000000" rx="30.000000" ry="50.000000" fill="rgb(255, 165, 0)" style="fill-opacity:1.00" />
<ellipse cx="40.000000" cy="280.000000" rx="20.000000" ry="33.333333" fill="rgb(255, 255, 255)" style="fill-opacity:1.00" />
<rect height="50.000000" width="30.000000" x="40.000000" y="255.000000" fill="rgb(255, 255, 255)" style="fill-opacity:1.00" />
<rect height="12.500000" width="30.000000" x="40.000000" y="292.500000" fill="rgb(255, 165, 0)" style="fill-opacity:1.00" />
<rect height="37.500000" width="7.500000" x="62.500000" y="292.500000" fill="rgb(255, 165, 0)" style="fill-opacity:1.00" />
<!-- End 'G' -->
<!-- Begin 'T' -->
<rect height="16.000000" width="60.000000" x="10.000000" y="340.000000" fill="rgb(0, 100, 0)" style="fill-opacity:1.00" />
<rect height="100.000000" width="12.000000" x="34.000000" y="340.000000" fill="rgb(0, 100, 0)" style="fill-opacity:1.00" />
<!-- End 'T' -->
<!-- Begin 'A' -->
<polygon points=" 90.000000, 43.541133, 111.000000, 10.000000, 119.000000, 10.000000, 140.000000, 43.541133, 132.500000, 43.541133, 126.250000, 35.155850, 103.750000, 35.155850, 97.500000, 43.541133" fill="rgb(178, 34, 34)" style="fill-opacity:0.26" />
<polygon points=" 115.000000, 16.708227, 107.000000, 29.124680, 122.000000, 29.124680" fill="rgb(255, 255, 255)" style="fill-opacity:1.00" />
<!-- End 'A' -->
<!-- Begin 'G' -->
<ellipse cx="115.000000" cy="60.047809" rx="25.000000" ry="16.506676" fill="rgb(255, 165, 0)" style="fill-opacity:0.26" />
<ellipse cx="115.000000" cy="60.047809" rx="16.666667" ry="11.004451" fill="rgb(255, 255, 255)" style="fill-opacity:1.00" />
<rect height="16.506676" width="25.000000" x="115.000000" y="51.794471" fill="rgb(255, 255, 255)" style="fill-opacity:1.00" />
<rect height="4.126669" width="25.000000" x="115.000000" y="64.174478" fill="rgb(255, 165, 0)" style="fill-opacity:0.26" />
<rect height="12.380007" width="6.250000" x="133.750000" y="64.174478" fill="rgb(255, 165, 0)" style="fill-opacity:0.26" />
<!-- End 'G' -->
<!-- Begin 'T' -->
<rect height="2.921633" width="50.000000" x="90.000000" y="76.554485" fill="rgb(0, 100, 0)" style="fill-opacity:0.26" />
<rect height="18.260204" width="10.000000" x="110.000000" y="76.554485" fill="rgb(0, 100, 0)" style="fill-opacity:0.26" />
<!-- End 'T' -->
<!-- Begin 'C' -->
<ellipse cx="115.000000" cy="102.407345" rx="25.000000" ry="7.592655" fill="rgb(0, 0, 128)" style="fill-opacity:0.26" />
<ellipse cx="115.000000" cy="102.407345" rx="16.666667" ry="5.061770" fill="rgb(255, 255, 255)" style="fill-opacity:1.00" />
<rect height="7.592655" width="25.000000" x="115.000000" y="98.611017" fill="rgb(255, 255, 255)" style="fill-opacity:1.00" />
<!-- End 'C' -->
<!-- Begin 'A' -->
<polygon points=" 90.000000, 155.621087, 111.000000, 120.000000, 119.000000, 120.000000, 140.000000, 155.621087, 132.500000, 155.621087, 126.250000, 146.715815, 103.750000, 146.715815, 97.500000, 155.621087" fill="rgb(178, 34, 34)" style="fill-opacity:0.25" />
<polygon points=" 115.000000, 127.124217, 107.000000, 140.372652, 122.000000, 140.372652" fill="rgb(255, 255, 255)" style="fill-opacity:1.00" />
<!-- End 'A' -->
<!-- Begin 'C' -->
<ellipse cx="115.000000" cy="173.163114" rx="25.000000" ry="17.542027" fill="rgb(0, 0, 128)" style="fill-opacity:0.25" />
<ellipse cx="115.000000" cy="173.163114" rx="16.666667" ry="11.694685" fill="rgb(255, 255, 255)" style="fill-opacity:1.00" />
<rect height="17.542027" width="25.000000" x="115.000000" y="164.392101" fill="rgb(255, 255, 255)" style="fill-opacity:1.00" />
<!-- End 'C' -->
<!-- Begin 'T' -->
<rect height="4.019669" width="50.000000" x="90.000000" y="190.705142" fill="rgb(0, 100, 0)" style="fill-opacity:0.25" />
<rect height="25.122934" width="10.000000" x="110.000000" y="190.705142" fill="rgb(0, 100, 0)" style="fill-opacity:0.25" />
<!-- End 'T' -->
<!-- Begin 'G' -->
<ellipse cx="115.000000" cy="217.914038" rx="25.000000" ry="2.085962" fill="rgb(255, 165, 0)" style="fill-opacity:0.25" />
<ellipse cx="115.000000" cy="217.914038" rx="16.666667" ry="1.390641" fill="rgb(255, 255, 255)" style="fill-opacity:1.00" />
<rect height="2.085962" width="25.000000" x="115.000000" y="216.871057" fill="rgb(255, 255, 255)" style="fill-opacity:1.00" />
<rect height="0.521491" width="25.000000" x="115.000000" y="218.435528" fill="rgb(255, 165, 0)" style="fill-opacity:0.25" />
<rect height="1.564472" width="6.250000" x="133.750000" y="218.435528" fill="rgb(255, 165, 0)" style="fill-opacity:0.25" />
<!-- End 'G' -->
<!-- Begin 'A' -->
<polygon points=" 90.000000, 260.716962, 111.000000, 230.000000, 119.000000, 230.000000, 140.000000, 260.716962, 132.500000, 260.716962, 126.250000, 253.037721, 103.750000, 253.037721, 97.500000, 260.716962" fill="rgb(178, 34, 34)" style="fill-opacity:0.21" />
<polygon points=" 115.000000, 236.143392, 107.000000, 247.430177, 122.000000, 247.430177" fill="rgb(255, 255, 255)" style="fill-opacity:1.00" />
<!-- End 'A' -->
<!-- Begin 'G' -->
<ellipse cx="115.000000" cy="275.702444" rx="25.000000" ry="14.985482" fill="rgb(255, 165, 0)" style="fill-opacity:0.21" />
<ellipse cx="115.000000" cy="275.702444" rx="16.666667" ry="9.990321" fill="rgb(255, 255, 255)" style="fill-opacity:1.00" />
<rect height="14.985482" width="25.000000" x="115.000000" y="268.209703" fill="rgb(255, 255, 255)" style="fill-opacity:1.00" />
<rect height="3.746371" width="25.000000" x="115.000000" y="279.448814" fill="rgb(255, 165, 0)" style="fill-opacity:0.21" />
<rect height="11.239112" width="6.250000" x="133.750000" y="279.448814" fill="rgb(255, 165, 0)" style="fill-opacity:0.21" />
<!-- End 'G' -->
<!-- Begin 'T' -->
<rect height="3.354997" width="50.000000" x="90.000000" y="290.687926" fill="rgb(0, 100, 0)" style="fill-opacity:0.21" />
<rect height="20.968734" width="10.000000" x="110.000000" y="290.687926" fill="rgb(0, 100, 0)" style="fill-opacity:0.21" />
<!-- End 'T' -->
<!-- Begin 'C' -->
<ellipse cx="115.000000" cy="320.828330" rx="25.000000" ry="9.171670" fill="rgb(0, 0, 128)" style="fill-opacity:0.21" />
<ellipse cx="115.000000" cy="320.828330" rx="16.666667" ry="6.114447" fill="rgb(255, 255, 255)" style="fill-opacity:1.00" />
<rect height="9.171670" width="25.000000" x="115.000000" y="316.242495" fill="rgb(255, 255, 255)" style="fill-opacity:1.00" />
<!-- End 'C' -->
<!-- Begin 'G' -->
<ellipse cx="115.000000" cy="357.302976" rx="25.000000" ry="17.302976" fill="rgb(255, 165, 0)" style="fill-opacity:0.28" />
<ellipse cx="115.000000" cy="357.302976" rx="16.666667" ry="11.535317" fill="rgb(255, 255, 255)" style="fill-opacity:1.00" />
<rect height="17.302976" width="25.000000" x="115.000000" y="348.651488" fill="rgb(255, 255, 255)" style="fill-opacity:1.00" />
<rect height="4.325744" width="25.000000" x="115.000000" y="361.628720" fill="rgb(255, 165, 0)" style="fill-opacity:0.28" />
<rect height="12.977232" width="6.250000" x="133.750000" y="361.628720" fill="rgb(255, 165, 0)" style="fill-opacity:0.28" />
<!-- End 'G' -->
<!-- Begin 'T' -->
<rect height="4.324802" width="50.000000" x="90.000000" y="374.605952" fill="rgb(0, 100, 0)" style="fill-opacity:0.28" />
<rect height="27.030012" width="10.000000" x="110.000000" y="374.605952" fill="rgb(0, 100, 0)" style="fill-opacity:0.28" />
<!-- End 'T' -->
<!-- Begin 'A' -->
<polygon points=" 90.000000, 423.814876, 111.000000, 401.635964, 119.000000, 401.635964, 140.000000, 423.814876, 132.500000, 423.814876, 126.250000, 418.270148, 103.750000, 418.270148, 97.500000, 423.814876" fill="rgb(178, 34, 34)" style="fill-opacity:0.28" />
<polygon points=" 115.000000, 406.071747, 107.000000, 413.943311, 122.000000, 413.943311" fill="rgb(255, 255, 255)" style="fill-opacity:1.00" />
<!-- End 'A' -->
<!-- Begin 'C' -->
<ellipse cx="115.000000" cy="431.907438" rx="25.000000" ry="8.092562" fill="rgb(0, 0, 128)" style="fill-opacity:0.28" />
<ellipse cx="115.000000" cy="431.907438" rx="16.666667" ry="5.395041" fill="rgb(255, 255, 255)" style="fill-opacity:1.00" />
<rect height="8.092562" width="25.000000" x="115.000000" y="427.861157" fill="rgb(255, 255, 255)" style="fill-opacity:1.00" />
<!-- End 'C' -->
<!-- Begin 'A' -->
<polygon points=" 150.000000, 47.182882, 171.000000, 10.000000, 179.000000, 10.000000, 200.000000, 47.182882, 192.500000, 47.182882, 186.250000, 37.887161, 163.750000, 37.887161, 157.500000, 47.182882" fill="rgb(178, 34, 34)" style="fill-opacity:0.30" />
<polygon points=" 175.000000, 17.436576, 167.000000, 31.309729, 182.000000, 31.309729" fill="rgb(255, 255, 255)" style="fill-opacity:1.00" />
<!-- End 'A' -->
<!-- Begin 'G' -->
<ellipse cx="175.000000" cy="60.346310" rx="25.000000" ry="13.163428" fill="rgb(255, 165, 0)" style="fill-opacity:0.30" />
<ellipse cx="175.000000" cy="60.346310" rx="16.666667" ry="8.775619" fill="rgb(255, 255, 255)" style="fill-opacity:1.00" />
<rect height="13.163428" width="25.000000" x="175.000000" y="53.764596" fill="rgb(255, 255, 255)" style="fill-opacity:1.00" />
<rect height="3.290857" width="25.000000" x="175.000000" y="63.637167" fill="rgb(255, 165, 0)" style="fill-opacity:0.30" />
<rect height="9.872571" width="6.250000" x="193.750000" y="63.637167" fill="rgb(255, 165, 0)" style="fill-opacity:0.30" />
<!-- End 'G' -->
<!-- Begin 'C' -->
<ellipse cx="175.000000" cy="83.133785" rx="25.000000" ry="9.624047" fill="rgb(0, 0, 128)" style="fill-opacity:0.30" />
<ellipse cx="175.000000" cy="83.133785" rx="16.666667" ry="6.416031" fill="rgb(255, 255, 255)" style="fill-opacity:1.00" />
<rect height="9.624047" width="25.000000" x="175.000000" y="78.321762" fill="rgb(255, 255, 255)" style="fill-opacity:1.00" />
<!-- End 'C' -->
<!-- Begin 'T' -->
<rect height="2.758747" width="50.000000" x="150.000000" y="92.757832" fill="rgb(0, 100, 0)" style="fill-opacity:0.30" />
<rect height="17.242168" width="10.000000" x="170.000000" y="92.757832" fill="rgb(0, 100, 0)" style="fill-opacity:0.30" />
<!-- End 'T' -->
<!-- Begin 'A' -->
<polygon points=" 150.000000, 162.279750, 171.000000, 120.000000, 179.000000, 120.000000, 200.000000, 162.279750, 192.500000, 162.279750, 186.250000, 151.709812, 163.750000, 151.709812, 157.500000, 162.279750" fill="rgb(178, 34, 34)" style="fill-opacity:0.21" />
<polygon points=" 175.000000, 128.455950, 167.000000, 144.367850, 182.000000, 144.367850" fill="rgb(255, 255, 255)" style="fill-opacity:1.00" />
<!-- End 'A' -->
<!-- Begin 'T' -->
<rect height="5.752814" width="50.000000" x="150.000000" y="162.279750" fill="rgb(0, 100, 0)" style="fill-opacity:0.21" />
<rect height="35.955086" width="10.000000" x="170.000000" y="162.279750" fill="rgb(0, 100, 0)" style="fill-opacity:0.21" />
<!-- End 'T' -->
<!-- Begin 'C' -->
<ellipse cx="175.000000" cy="207.201489" rx="25.000000" ry="8.966654" fill="rgb(0, 0, 128)" style="fill-opacity:0.21" />
<ellipse cx="175.000000" cy="207.201489" rx="16.666667" ry="5.977769" fill="rgb(255, 255, 255)" style="fill-opacity:1.00" />
<rect height="8.966654" width="25.000000" x="175.000000" y="202.718163" fill="rgb(255, 255, 255)" style="fill-opacity:1.00" />
<!-- End 'C' -->
<!-- Begin 'G' -->
<ellipse cx="175.000000" cy="218.084071" rx="25.000000" ry="1.915929" fill="rgb(255, 165, 0)" style="fill-opacity:0.21" />
<ellipse cx="175.000000" cy="218.084071" rx="16.666667" ry="1.277286" fill="rgb(255, 255, 255)" style="fill-opacity:1.00" />
<rect height="1.915929" width="25.000000" x="175.000000" y="217.126107" fill="rgb(255, 255, 255)" style="fill-opacity:1.00" />
<rect height="0.478982" width="25.000000" x="175.000000" y="218.563054" fill="rgb(255, 165, 0)" style="fill-opacity:0.21" />
<rect height="1.436946" width="6.250000" x="193.750000" y="218.563054" fill="rgb(255, 165, 0)" style="fill-opacity:0.21" />
<!-- End 'G' -->
<!-- Begin 'A' -->
<polygon points=" 150.000000, 271.693270, 171.000000, 230.000000, 179.000000, 230.000000, 200.000000, 271.693270, 192.500000, 271.693270, 186.250000, 261.269953, 163.750000, 261.269953, 157.500000, 271.693270" fill="rgb(178, 34, 34)" style="fill-opacity:0.26" />
<polygon points=" 175.000000, 238.338654, 167.000000, 254.015962, 182.000000, 254.015962" fill="rgb(255, 255, 255)" style="fill-opacity:1.00" />
<!-- End 'A' -->
<!-- Begin 'G' -->
<ellipse cx="175.000000" cy="283.345839" rx="25.000000" ry="11.652569" fill="rgb(255, 165, 0)" style="fill-opacity:0.26" />
<ellipse cx="175.000000" cy="283.345839" rx="16.666667" ry="7.768379" fill="rgb(255, 255, 255)" style="fill-opacity:1.00" />
<rect height="11.652569" width="25.000000" x="175.000000" y="277.519555" fill="rgb(255, 255, 255)" style="fill-opacity:1.00" />
<rect height="2.913142" width="25.000000" x="175.000000" y="286.258981" fill="rgb(255, 165, 0)" style="fill-opacity:0.26" />
<rect height="8.739426" width="6.250000" x="193.750000" y="286.258981" fill="rgb(255, 165, 0)" style="fill-opacity:0.26" />
<!-- End 'G' -->
<!-- Begin 'C' -->
<ellipse cx="175.000000" cy="304.122317" rx="25.000000" ry="9.123909" fill="rgb(0, 0, 128)" style="fill-opacity:0.26" />
<ellipse cx="175.000000" cy="304.122317" rx="16.666667" ry="6.082606" fill="rgb(255, 255, 255)" style="fill-opacity:1.00" />
<rect height="9.123909" width="25.000000" x="175.000000" y="299.560362" fill="rgb(255, 255, 255)" style="fill-opacity:1.00" />
<!-- End 'C' -->
<!-- Begin 'T' -->
<rect height="2.680604" width="50.000000" x="150.000000" y="313.246226" fill="rgb(0, 100, 0)" style="fill-opacity:0.26" />
<rect height="16.753774" width="10.000000" x="170.000000" y="313.246226" fill="rgb(0, 100, 0)" style="fill-opacity:0.26" />
<!-- End 'T' -->
<!-- Begin 'G' -->
<ellipse cx="175.000000" cy="356.307359" rx="25.000000" ry="16.307359" fill="rgb(255, 165, 0)" style="fill-opacity:0.23" />
<ellipse cx="175.000000" cy="356.307359" rx="16.666667" ry="10.871573" fill="rgb(255, 255, 255)" style="fill-opacity:1.00" />
<rect height="16.307359" width="25.000000" x="175.000000" y="348.153680" fill="rgb(255, 255, 255)" style="fill-opacity:1.00" />
<rect height="4.076840" width="25.000000" x="175.000000" y="360.384199" fill="rgb(255, 165, 0)" style="fill-opacity:0.23" />
<rect height="12.230519" width="6.250000" x="193.750000" y="360.384199" fill="rgb(255, 165, 0)" style="fill-opacity:0.23" />
<!-- End 'G' -->
<!-- Begin 'A' -->
<polygon points=" 150.000000, 402.784539, 171.000000, 372.614718, 179.000000, 372.614718, 200.000000, 402.784539, 192.500000, 402.784539, 186.250000, 395.242084, 163.750000, 395.242084, 157.500000, 402.784539" fill="rgb(178, 34, 34)" style="fill-opacity:0.23" />
<polygon points=" 175.000000, 378.648682, 167.000000, 389.716611, 182.000000, 389.716611" fill="rgb(255, 255, 255)" style="fill-opacity:1.00" />
<!-- End 'A' -->
<!-- Begin 'C' -->
<ellipse cx="175.000000" cy="412.834543" rx="25.000000" ry="10.050004" fill="rgb(0, 0, 128)" style="fill-opacity:0.23" />
<ellipse cx="175.000000" cy="412.834543" rx="16.666667" ry="6.700003" fill="rgb(255, 255, 255)" style="fill-opacity:1.00" />
<rect height="10.050004" width="25.000000" x="175.000000" y="407.809541" fill="rgb(255, 255, 255)" style="fill-opacity:1.00" />
<!-- End 'C' -->
<!-- Begin 'T' -->
<rect height="2.738473" width="50.000000" x="150.000000" y="422.884546" fill="rgb(0, 100, 0)" style="fill-opacity:0.23" />
<rect height="17.115454" width="10.000000" x="170.000000" y="422.884546" fill="rgb(0, 100, 0)" style="fill-opacity:0.23" />
<!-- End 'T' -->
<!-- Begin 'G' -->
<ellipse cx="235.000000" cy="32.980779" rx="25.000000" ry="22.980779" fill="rgb(255, 165, 0)" style="fill-opacity:0.38" />
<ellipse cx="235.000000" cy="32.980779" rx="16.666667" ry="15.320519" fill="rgb(255, 255, 255)" style="fill-opacity:1.00" />
<rect height="22.980779" width="25.000000" x="235.000000" y="21.490390" fill="rgb(255, 255, 255)" style="fill-opacity:1.00" />
<rect height="5.745195" width="25.000000" x="235.000000" y="38.725974" fill="rgb(255, 165, 0)" style="fill-opacity:0.38" />
<rect height="17.235584" width="6.250000" x="253.750000" y="38.725974" fill="rgb(255, 165, 0)" style="fill-opacity:0.38" />
<!-- End 'G' -->
<!-- Begin 'A' -->
<polygon points=" 210.000000, 80.774337, 231.000000, 55.961558, 239.000000, 55.961558, 260.000000, 80.774337, 252.500000, 80.774337, 246.250000, 74.571142, 223.750000, 74.571142, 217.500000, 80.774337" fill="rgb(178, 34, 34)" style="fill-opacity:0.38" />
<polygon points=" 235.000000, 60.924114, 227.000000, 69.849225, 242.000000, 69.849225" fill="rgb(255, 255, 255)" style="fill-opacity:1.00" />
<!-- End 'A' -->
<!-- Begin 'T' -->
<rect height="3.334418" width="50.000000" x="210.000000" y="80.774337" fill="rgb(0, 100, 0)" style="fill-opacity:0.38" />
<rect height="20.840113" width="10.000000" x="230.000000" y="80.774337" fill="rgb(0, 100, 0)" style="fill-opacity:0.38" />
<!-- End 'T' -->
<!-- Begin 'C' -->
<ellipse cx="235.000000" cy="105.807225" rx="25.000000" ry="4.192775" fill="rgb(0, 0, 128)" style="fill-opacity:0.38" />
<ellipse cx="235.000000" cy="105.807225" rx="16.666667" ry="2.795183" fill="rgb(255, 255, 255)" style="fill-opacity:1.00" />
<rect height="4.192775" width="25.000000" x="235.000000" y="103.710837" fill="rgb(255, 255, 255)" style="fill-opacity:1.00" />
<!-- End 'C' -->
<!-- Begin 'A' -->
<polygon points=" 210.000000, 165.629594, 231.000000, 120.000000, 239.000000, 120.000000, 260.000000, 165.629594, 252.500000, 165.629594, 246.250000, 154.222196, 223.750000, 154.222196, 217.500000, 165.629594" fill="rgb(178, 34, 34)" style="fill-opacity:0.19" />
<polygon points=" 235.000000, 129.125919, 227.000000, 146.377757, 242.000000, 146.377757" fill="rgb(255, 255, 255)" style="fill-opacity:1.00" />
<!-- End 'A' -->
<!-- Begin 'T' -->
<rect height="5.493846" width="50.000000" x="210.000000" y="165.629594" fill="rgb(0, 100, 0)" style="fill-opacity:0.19" />
<rect height="34.336538" width="10.000000" x="230.000000" y="165.629594" fill="rgb(0, 100, 0)" style="fill-opacity:0.19" />
<!-- End 'T' -->
<!-- Begin 'C' -->
<ellipse cx="235.000000" cy="207.102268" rx="25.000000" ry="7.136135" fill="rgb(0, 0, 128)" style="fill-opacity:0.19" />
<ellipse cx="235.000000" cy="207.102268" rx="16.666667" ry="4.757423" fill="rgb(255, 255, 255)" style="fill-opacity:1.00" />
<rect height="7.136135" width="25.000000" x="235.000000" y="203.534200" fill="rgb(255, 255, 255)" style="fill-opacity:1.00" />
<!-- End 'C' -->
<!-- Begin 'G' -->
<ellipse cx="235.000000" cy="217.119201" rx="25.000000" ry="2.880799" fill="rgb(255, 165, 0)" style="fill-opacity:0.19" />
<ellipse cx="235.000000" cy="217.119201" rx="16.666667" ry="1.920532" fill="rgb(255, 255, 255)" style="fill-opacity:1.00" />
<rect height="2.880799" width="25.000000" x="235.000000" y="215.678802" fill="rgb(255, 255, 255)" style="fill-opacity:1.00" />
<rect height="0.720200" width="25.000000" x="235.000000" y="217.839401" fill="rgb(255, 165, 0)" style="fill-opacity:0.19" />
<rect height="2.160599" width="6.250000" x="253.750000" y="217.839401" fill="rgb(255, 165, 0)" style="fill-opacity:0.19" />
<!-- End 'G' -->
<!-- Begin 'G' -->
<ellipse cx="235.000000" cy="250.221372" rx="25.000000" ry="20.221372" fill="rgb(255, 165, 0)" style="fill-opacity:0.22" />
<ellipse cx="235.000000" cy="250.221372" rx="16.666667" ry="13.480914" fill="rgb(255, 255, 255)" style="fill-opacity:1.00" />
<rect height="20.221372" width="25.000000" x="235.000000" y="240.110686" fill="rgb(255, 255, 255)" style="fill-opacity:1.00" />
<rect height="5.055343" width="25.000000" x="235.000000" y="255.276715" fill="rgb(255, 165, 0)" style="fill-opacity:0.22" />
<rect height="15.166029" width="6.250000" x="253.750000" y="255.276715" fill="rgb(255, 165, 0)" style="fill-opacity:0.22" />
<!-- End 'G' -->
<!-- Begin 'A' -->
<polygon points=" 210.000000, 297.942186, 231.000000, 270.442743, 239.000000, 270.442743, 260.000000, 297.942186, 252.500000, 297.942186, 246.250000, 291.067326, 223.750000, 291.067326, 217.500000, 297.942186" fill="rgb(178, 34, 34)" style="fill-opacity:0.22" />
<polygon points=" 235.000000, 275.942632, 227.000000, 285.942409, 242.000000, 285.942409" fill="rgb(255, 255, 255)" style="fill-opacity:1.00" />
<!-- End 'A' -->
<!-- Begin 'T' -->
<rect height="3.373161" width="50.000000" x="210.000000" y="297.942186" fill="rgb(0, 100, 0)" style="fill-opacity:0.22" />
<rect height="21.082257" width="10.000000" x="230.000000" y="297.942186" fill="rgb(0, 100, 0)" style="fill-opacity:0.22" />
<!-- End 'T' -->
<!-- Begin 'C' -->
<ellipse cx="235.000000" cy="324.512222" rx="25.000000" ry="5.487778" fill="rgb(0, 0, 128)" style="fill-opacity:0.22" />
<ellipse cx="235.000000" cy="324.512222" rx="16.666667" ry="3.658519" fill="rgb(255, 255, 255)" style="fill-opacity:1.00" />
<rect height="5.487778" width="25.000000" x="235.000000" y="321.768332" fill="rgb(255, 255, 255)" style="fill-opacity:1.00" />
<!-- End 'C' -->
<!-- Begin 'G' -->
<ellipse cx="235.000000" cy="368.303985" rx="25.000000" ry="28.303985" fill="rgb(255, 165, 0)" style="fill-opacity:0.21" />
<ellipse cx="235.000000" cy="368.303985" rx="16.666667" ry="18.869323" fill="rgb(255, 255, 255)" style="fill-opacity:1.00" />
<rect height="28.303985" width="25.000000" x="235.000000" y="354.151993" fill="rgb(255, 255, 255)" style="fill-opacity:1.00" />
<rect height="7.075996" width="25.000000" x="235.000000" y="375.379981" fill="rgb(255, 165, 0)" style="fill-opacity:0.21" />
<rect height="21.227989" width="6.250000" x="253.750000" y="375.379981" fill="rgb(255, 165, 0)" style="fill-opacity:0.21" />
<!-- End 'G' -->
<!-- Begin 'A' -->
<polygon points=" 210.000000, 414.225467, 231.000000, 396.607970, 239.000000, 396.607970, 260.000000, 414.225467, 252.500000, 414.225467, 246.250000, 409.821093, 223.750000, 409.821093, 217.500000, 414.225467" fill="rgb(178, 34, 34)" style="fill-opacity:0.21" />
<polygon points=" 235.000000, 400.131469, 227.000000, 406.178468, 242.000000, 406.178468" fill="rgb(255, 255, 255)" style="fill-opacity:1.00" />
<!-- End 'A' -->
<!-- Begin 'T' -->
<rect height="2.378340" width="50.000000" x="210.000000" y="414.225467" fill="rgb(0, 100, 0)" style="fill-opacity:0.21" />
<rect height="14.864622" width="10.000000" x="230.000000" y="414.225467" fill="rgb(0, 100, 0)" style="fill-opacity:0.21" />
<!-- End 'T' -->
<!-- Begin 'C' -->
<ellipse cx="235.000000" cy="434.545044" rx="25.000000" ry="5.454956" fill="rgb(0, 0, 128)" style="fill-opacity:0.21" />
<ellipse cx="235.000000" cy="434.545044" rx="16.666667" ry="3.636637" fill="rgb(255, 255, 255)" style="fill-opacity:1.00" />
<rect height="5.454956" width="25.000000" x="235.000000" y="431.817567" fill="rgb(255, 255, 255)" style="fill-opacity:1.00" />
<!-- End 'C' -->
<!-- Begin 'G' -->
<ellipse cx="295.000000" cy="35.160538" rx="25.000000" ry="25.160538" fill="rgb(255, 165, 0)" style="fill-opacity:0.28" />
<ellipse cx="295.000000" cy="35.160538" rx="16.666667" ry="16.773692" fill="rgb(255, 255, 255)" style="fill-opacity:1.00" />
<rect height="25.160538" width="25.000000" x="295.000000" y="22.580269" fill="rgb(255, 255, 255)" style="fill-opacity:1.00" />
<rect height="6.290135" width="25.000000" x="295.000000" y="41.450673" fill="rgb(255, 165, 0)" style="fill-opacity:0.28" />
<rect height="18.870404" width="6.250000" x="313.750000" y="41.450673" fill="rgb(255, 165, 0)" style="fill-opacity:0.28" />
<!-- End 'G' -->
<!-- Begin 'A' -->
<polygon points=" 270.000000, 82.849472, 291.000000, 60.321076, 299.000000, 60.321076, 320.000000, 82.849472, 312.500000, 82.849472, 306.250000, 77.217373, 283.750000, 77.217373, 277.500000, 82.849472" fill="rgb(178, 34, 34)" style="fill-opacity:0.28" />
<polygon points=" 295.000000, 64.826756, 287.000000, 72.838114, 302.000000, 72.838114" fill="rgb(255, 255, 255)" style="fill-opacity:1.00" />
<!-- End 'A' -->
<!-- Begin 'C' -->
<ellipse cx="295.000000" cy="94.085286" rx="25.000000" ry="11.235813" fill="rgb(0, 0, 128)" style="fill-opacity:0.28" />
<ellipse cx="295.000000" cy="94.085286" rx="16.666667" ry="7.490542" fill="rgb(255, 255, 255)" style="fill-opacity:1.00" />
<rect height="11.235813" width="25.000000" x="295.000000" y="88.467379" fill="rgb(255, 255, 255)" style="fill-opacity:1.00" />
<!-- End 'C' -->
<!-- Begin 'T' -->
<rect height="0.748624" width="50.000000" x="270.000000" y="105.321099" fill="rgb(0, 100, 0)" style="fill-opacity:0.28" />
<rect height="4.678901" width="10.000000" x="290.000000" y="105.321099" fill="rgb(0, 100, 0)" style="fill-opacity:0.28" />
<!-- End 'T' -->
<!-- Begin 'C' -->
<ellipse cx="295.000000" cy="145.989461" rx="25.000000" ry="25.989461" fill="rgb(0, 0, 128)" style="fill-opacity:0.11" />
<ellipse cx="295.000000" cy="145.989461" rx="16.666667" ry="17.326308" fill="rgb(255, 255, 255)" style="fill-opacity:1.00" />
<rect height="25.989461" width="25.000000" x="295.000000" y="132.994731" fill="rgb(255, 255, 255)" style="fill-opacity:1.00" />
<!-- End 'C' -->
<!-- Begin 'A' -->
<polygon points=" 270.000000, 191.463702, 291.000000, 171.978923, 299.000000, 171.978923, 320.000000, 191.463702, 312.500000, 191.463702, 306.250000, 186.592507, 283.750000, 186.592507, 277.500000, 191.463702" fill="rgb(178, 34, 34)" style="fill-opacity:0.11" />
<polygon points=" 295.000000, 175.875878, 287.000000, 182.669790, 302.000000, 182.669790" fill="rgb(255, 255, 255)" style="fill-opacity:1.00" />
<!-- End 'A' -->
<!-- Begin 'G' -->
<ellipse cx="295.000000" cy="199.282357" rx="25.000000" ry="7.818655" fill="rgb(255, 165, 0)" style="fill-opacity:0.11" />
<ellipse cx="295.000000" cy="199.282357" rx="16.666667" ry="5.212437" fill="rgb(255, 255, 255)" style="fill-opacity:1.00" />
<rect height="7.818655" width="25.000000" x="295.000000" y="195.373029" fill="rgb(255, 255, 255)" style="fill-opacity:1.00" />
<rect height="1.954664" width="25.000000" x="295.000000" y="201.237021" fill="rgb(255, 165, 0)" style="fill-opacity:0.11" />
<rect height="5.863992" width="6.250000" x="313.750000" y="201.237021" fill="rgb(255, 165, 0)" style="fill-opacity:0.11" />
<!-- End 'G' -->
<!-- Begin 'T' -->
<rect height="2.063838" width="50.000000" x="270.000000" y="207.101012" fill="rgb(0, 100, 0)" style="fill-opacity:0.11" />
<rect height="12.898988" width="10.000000" x="290.000000" y="207.101012" fill="rgb(0, 100, 0)" style="fill-opacity:0.11" />
<!-- End 'T' -->
<!-- Begin 'G' -->
<ellipse cx="295.000000" cy="256.491860" rx="25.000000" ry="26.491860" fill="rgb(255, 165, 0)" style="fill-opacity:0.39" />
<ellipse cx="295.000000" cy="256.491860" rx="16.666667" ry="17.661240" fill="rgb(255, 255, 255)" style="fill-opacity:1.00" />
<rect height="26.491860" width="25.000000" x="295.000000" y="243.245930" fill="rgb(255, 255, 255)" style="fill-opacity:1.00" />
<rect height="6.622965" width="25.000000" x="295.000000" y="263.114825" fill="rgb(255, 165, 0)" style="fill-opacity:0.39" />
<rect height="19.868895" width="6.250000" x="313.750000" y="263.114825" fill="rgb(255, 165, 0)" style="fill-opacity:0.39" />
<!-- End 'G' -->
<!-- Begin 'C' -->
<ellipse cx="295.000000" cy="297.992585" rx="25.000000" ry="15.008866" fill="rgb(0, 0, 128)" style="fill-opacity:0.39" />
<ellipse cx="295.000000" cy="297.992585" rx="16.666667" ry="10.005910" fill="rgb(255, 255, 255)" style="fill-opacity:1.00" />
<rect height="15.008866" width="25.000000" x="295.000000" y="290.488153" fill="rgb(255, 255, 255)" style="fill-opacity:1.00" />
<!-- End 'C' -->
<!-- Begin 'A' -->
<polygon points=" 270.000000, 322.890132, 291.000000, 313.001451, 299.000000, 313.001451, 320.000000, 322.890132, 312.500000, 322.890132, 306.250000, 320.417962, 283.750000, 320.417962, 277.500000, 322.890132" fill="rgb(178, 34, 34)" style="fill-opacity:0.39" />
<polygon points=" 295.000000, 314.979187, 287.000000, 317.934660, 302.000000, 317.934660" fill="rgb(255, 255, 255)" style="fill-opacity:1.00" />
<!-- End 'A' -->
<!-- Begin 'T' -->
<rect height="1.137579" width="50.000000" x="270.000000" y="322.890132" fill="rgb(0, 100, 0)" style="fill-opacity:0.39" />
<rect height="7.109868" width="10.000000" x="290.000000" y="322.890132" fill="rgb(0, 100, 0)" style="fill-opacity:0.39" />
<!-- End 'T' -->
<!-- Begin 'G' -->
<ellipse cx="295.000000" cy="368.123884" rx="25.000000" ry="28.123884" fill="rgb(255, 165, 0)" style="fill-opacity:0.22" />
<ellipse cx="295.000000" cy="368.123884" rx="16.666667" ry="18.749256" fill="rgb(255, 255, 255)" style="fill-opacity:1.00" />
<rect height="28.123884" width="25.000000" x="295.000000" y="354.061942" fill="rgb(255, 255, 255)" style="fill-opacity:1.00" />
<rect height="7.030971" width="25.000000" x="295.000000" y="375.154855" fill="rgb(255, 165, 0)" style="fill-opacity:0.22" />
<rect height="21.092913" width="6.250000" x="313.750000" y="375.154855" fill="rgb(255, 165, 0)" style="fill-opacity:0.22" />
<!-- End 'G' -->
<!-- Begin 'C' -->
<ellipse cx="295.000000" cy="406.420610" rx="25.000000" ry="10.172842" fill="rgb(0, 0, 128)" style="fill-opacity:0.22" />
<ellipse cx="295.000000" cy="406.420610" rx="16.666667" ry="6.781894" fill="rgb(255, 255, 255)" style="fill-opacity:1.00" />
<rect height="10.172842" width="25.000000" x="295.000000" y="401.334189" fill="rgb(255, 255, 255)" style="fill-opacity:1.00" />
<!-- End 'C' -->
<!-- Begin 'T' -->
<rect height="1.985167" width="50.000000" x="270.000000" y="416.593451" fill="rgb(0, 100, 0)" style="fill-opacity:0.22" />
<rect height="12.407294" width="10.000000" x="290.000000" y="416.593451" fill="rgb(0, 100, 0)" style="fill-opacity:0.22" />
<!-- End 'T' -->
<!-- Begin 'A' -->
<polygon points=" 270.000000, 440.000000, 291.000000, 429.000745, 299.000000, 429.000745, 320.000000, 440.000000, 312.500000, 440.000000, 306.250000, 437.250186, 283.750000, 437.250186, 277.500000, 440.000000" fill="rgb(178, 34, 34)" style="fill-opacity:0.22" />
<polygon points=" 295.000000, 431.200596, 287.000000, 434.600298, 302.000000, 434.600298" fill="rgb(255, 255, 255)" style="fill-opacity:1.00" />
<!-- End 'A' -->
<!-- Begin 'A' -->
<polygon points=" 330.000000, 62.644293, 351.000000, 10.000000, 359.000000, 10.000000, 380.000000, 62.644293, 372.500000, 62.644293, 366.250000, 49.483220, 343.750000, 49.483220, 337.500000, 62.644293" fill="rgb(178, 34, 34)" style="fill-opacity:0.15" />
<polygon points=" 355.000000, 20.528859, 347.000000, 40.586576, 362.000000, 40.586576" fill="rgb(255, 255, 255)" style="fill-opacity:1.00" />
<!-- End 'A' -->
<!-- Begin 'T' -->
<rect height="6.222198" width="50.000000" x="330.000000" y="62.644293" fill="rgb(0, 100, 0)" style="fill-opacity:0.15" />
<rect height="38.888738" width="10.000000" x="350.000000" y="62.644293" fill="rgb(0, 100, 0)" style="fill-opacity:0.15" />
<!-- End 'T' -->
<!-- Begin 'G' -->
<ellipse cx="355.000000" cy="104.881131" rx="25.000000" ry="3.348099" fill="rgb(255, 165, 0)" style="fill-opacity:0.15" />
<ellipse cx="355.000000" cy="104.881131" rx="16.666667" ry="2.232066" fill="rgb(255, 255, 255)" style="fill-opacity:1.00" />
<rect height="3.348099" width="25.000000" x="355.000000" y="103.207081" fill="rgb(255, 255, 255)" style="fill-opacity:1.00" />
<rect height="0.837025" width="25.000000" x="355.000000" y="105.718155" fill="rgb(255, 165, 0)" style="fill-opacity:0.15" />
<rect height="2.511074" width="6.250000" x="373.750000" y="105.718155" fill="rgb(255, 165, 0)" style="fill-opacity:0.15" />
<!-- End 'G' -->
<!-- Begin 'C' -->
<ellipse cx="355.000000" cy="109.114615" rx="25.000000" ry="0.885385" fill="rgb(0, 0, 128)" style="fill-opacity:0.15" />
<ellipse cx="355.000000" cy="109.114615" rx="16.666667" ry="0.590257" fill="rgb(255, 255, 255)" style="fill-opacity:1.00" />
<rect height="0.885385" width="25.000000" x="355.000000" y="108.671922" fill="rgb(255, 255, 255)" style="fill-opacity:1.00" />
<!-- End 'C' -->
<!-- Begin 'T' -->
<rect height="10.735840" width="50.000000" x="330.000000" y="120.000000" fill="rgb(0, 100, 0)" style="fill-opacity:0.28" />
<rect height="67.099001" width="10.000000" x="350.000000" y="120.000000" fill="rgb(0, 100, 0)" style="fill-opacity:0.28" />
<!-- End 'T' -->
<!-- Begin 'A' -->
<polygon points=" 330.000000, 218.039649, 351.000000, 187.099001, 359.000000, 187.099001, 380.000000, 218.039649, 372.500000, 218.039649, 366.250000, 210.304487, 343.750000, 210.304487, 337.500000, 218.039649" fill="rgb(178, 34, 34)" style="fill-opacity:0.28" />
<polygon points=" 355.000000, 193.287131, 347.000000, 204.663390, 362.000000, 204.663390" fill="rgb(255, 255, 255)" style="fill-opacity:1.00" />
<!-- End 'A' -->
<!-- Begin 'C' -->
<ellipse cx="355.000000" cy="218.997028" rx="25.000000" ry="0.957378" fill="rgb(0, 0, 128)" style="fill-opacity:0.28" />
<ellipse cx="355.000000" cy="218.997028" rx="16.666667" ry="0.638252" fill="rgb(255, 255, 255)" style="fill-opacity:1.00" />
<rect height="0.957378" width="25.000000" x="355.000000" y="218.518339" fill="rgb(255, 255, 255)" style="fill-opacity:1.00" />
<!-- End 'C' -->
<!-- Begin 'G' -->
<ellipse cx="355.000000" cy="219.977203" rx="25.000000" ry="0.022797" fill="rgb(255, 165, 0)" style="fill-opacity:0.28" />
<ellipse cx="355.000000" cy="219.977203" rx="16.666667" ry="0.015198" fill="rgb(255, 255, 255)" style="fill-opacity:1.00" />
<rect height="0.022797" width="25.000000" x="355.000000" y="219.965805" fill="rgb(255, 255, 255)" style="fill-opacity:1.00" />
<rect height="0.005699" width="25.000000" x="355.000000" y="219.982902" fill="rgb(255, 165, 0)" style="fill-opacity:0.28" />
<rect height="0.017098" width="6.250000" x="373.750000" y="219.982902" fill="rgb(255, 165, 0)" style="fill-opacity:0.28" />
<!-- End 'G' -->
<!-- Begin 'T' -->
<rect height="9.296722" width="50.000000" x="330.000000" y="230.000000" fill="rgb(0, 100, 0)" style="fill-opacity:0.49" />
<rect height="58.104511" width="10.000000" x="350.000000" y="230.000000" fill="rgb(0, 100, 0)" style="fill-opacity:0.49" />
<!-- End 'T' -->
<!-- Begin 'A' -->
<polygon points=" 330.000000, 314.259880, 351.000000, 288.104511, 359.000000, 288.104511, 380.000000, 314.259880, 372.500000, 314.259880, 366.250000, 307.721038, 343.750000, 307.721038, 337.500000, 314.259880" fill="rgb(178, 34, 34)" style="fill-opacity:0.49" />
<polygon points=" 355.000000, 293.335585, 347.000000, 302.797733, 362.000000, 302.797733" fill="rgb(255, 255, 255)" style="fill-opacity:1.00" />
<!-- End 'A' -->
<!-- Begin 'G' -->
<ellipse cx="355.000000" cy="320.212705" rx="25.000000" ry="5.952824" fill="rgb(255, 165, 0)" style="fill-opacity:0.49" />
<ellipse cx="355.000000" cy="320.212705" rx="16.666667" ry="3.968550" fill="rgb(255, 255, 255)" style="fill-opacity:1.00" />
<rect height="5.952824" width="25.000000" x="355.000000" y="317.236292" fill="rgb(255, 255, 255)" style="fill-opacity:1.00" />
<rect height="1.488206" width="25.000000" x="355.000000" y="321.700911" fill="rgb(255, 165, 0)" style="fill-opacity:0.49" />
<rect height="4.464618" width="6.250000" x="373.750000" y="321.700911" fill="rgb(255, 165, 0)" style="fill-opacity:0.49" />
<!-- End 'G' -->
<!-- Begin 'C' -->
<ellipse cx="355.000000" cy="328.082765" rx="25.000000" ry="1.917235" fill="rgb(0, 0, 128)" style="fill-opacity:0.49" />
<ellipse cx="355.000000" cy="328.082765" rx="16.666667" ry="1.278157" fill="rgb(255, 255, 255)" style="fill-opacity:1.00" />
<rect height="1.917235" width="25.000000" x="355.000000" y="327.124147" fill="rgb(255, 255, 255)" style="fill-opacity:1.00" />
<!-- End 'C' -->
<!-- Begin 'T' -->
<rect height="10.904914" width="50.000000" x="330.000000" y="340.000000" fill="rgb(0, 100, 0)" style="fill-opacity:0.08" />
<rect height="68.155712" width="10.000000" x="350.000000" y="340.000000" fill="rgb(0, 100, 0)" style="fill-opacity:0.08" />
<!-- End 'T' -->
<!-- Begin 'A' -->
<polygon points=" 330.000000, 438.459682, 351.000000, 408.155712, 359.000000, 408.155712, 380.000000, 438.459682, 372.500000, 438.459682, 366.250000, 430.883690, 343.750000, 430.883690, 337.500000, 438.459682" fill="rgb(178, 34, 34)" style="fill-opacity:0.08" />
<polygon points=" 355.000000, 414.216506, 347.000000, 425.338094, 362.000000, 425.338094" fill="rgb(255, 255, 255)" style="fill-opacity:1.00" />
<!-- End 'A' -->
<!-- Begin 'G' -->
<ellipse cx="355.000000" cy="439.185318" rx="25.000000" ry="0.725636" fill="rgb(255, 165, 0)" style="fill-opacity:0.08" />
<ellipse cx="355.000000" cy="439.185318" rx="16.666667" ry="0.483757" fill="rgb(255, 255, 255)" style="fill-opacity:1.00" />
<rect height="0.725636" width="25.000000" x="355.000000" y="438.822500" fill="rgb(255, 255, 255)" style="fill-opacity:1.00" />
<rect height="0.181409" width="25.000000" x="355.000000" y="439.366727" fill="rgb(255, 165, 0)" style="fill-opacity:0.08" />
<rect height="0.544227" width="6.250000" x="373.750000" y="439.366727" fill="rgb(255, 165, 0)" style="fill-opacity:0.08" />
<!-- End 'G' -->
<!-- Begin 'C' -->
<ellipse cx="355.000000" cy="439.955477" rx="25.000000" ry="0.044523" fill="rgb(0, 0, 128)" style="fill-opacity:0.08" />
<ellipse cx="355.000000" cy="439.955477" rx="16.666667" ry="0.029682" fill="rgb(255, 255, 255)" style="fill-opacity:1.00" />
<rect height="0.044523" width="25.000000" x="355.000000" y="439.933215" fill="rgb(255, 255, 255)" style="fill-opacity:1.00" />
<!-- End 'C' -->
<!-- Begin 'G' -->
<ellipse cx="415.000000" cy="59.621693" rx="25.000000" ry="49.621693" fill="rgb(255, 165, 0)" style="fill-opacity:0.32" />
<ellipse cx="415.000000" cy="59.621693" rx="16.666667" ry="33.081129" fill="rgb(255, 255, 255)" style="fill-opacity:1.00" />
<rect height="49.621693" width="25.000000" x="415.000000" y="34.810846" fill="rgb(255, 255, 255)" style="fill-opacity:1.00" />
<rect height="12.405423" width="25.000000" x="415.000000" y="72.027116" fill="rgb(255, 165, 0)" style="fill-opacity:0.32" />
<rect height="37.216270" width="6.250000" x="433.750000" y="72.027116" fill="rgb(255, 165, 0)" style="fill-opacity:0.32" />
<!-- End 'G' -->
<!-- Begin 'A' -->
<polygon points=" 390.000000, 109.984336, 411.000000, 109.243386, 419.000000, 109.243386, 440.000000, 109.984336, 432.500000, 109.984336, 426.250000, 109.799099, 403.750000, 109.799099, 397.500000, 109.984336" fill="rgb(178, 34, 34)" style="fill-opacity:0.32" />
<!-- End 'A' -->
<!-- Begin 'T' -->
<rect height="0.002278" width="50.000000" x="390.000000" y="109.984336" fill="rgb(0, 100, 0)" style="fill-opacity:0.32" />
<rect height="0.014235" width="10.000000" x="410.000000" y="109.984336" fill="rgb(0, 100, 0)" style="fill-opacity:0.32" />
<!-- End 'T' -->
<!-- Begin 'C' -->
<ellipse cx="415.000000" cy="109.999286" rx="25.000000" ry="0.000714" fill="rgb(0, 0, 128)" style="fill-opacity:0.32" />
<ellipse cx="415.000000" cy="109.999286" rx="16.666667" ry="0.000476" fill="rgb(255, 255, 255)" style="fill-opacity:1.00" />
<rect height="0.000714" width="25.000000" x="415.000000" y="109.998929" fill="rgb(255, 255, 255)" style="fill-opacity:1.00" />
<!-- End 'C' -->
<!-- Begin 'G' -->
<ellipse cx="415.000000" cy="168.994343" rx="25.000000" ry="48.994343" fill="rgb(255, 165, 0)" style="fill-opacity:0.03" />
<ellipse cx="415.000000" cy="168.994343" rx="16.666667" ry="32.662895" fill="rgb(255, 255, 255)" style="fill-opacity:1.00" />
<rect height="48.994343" width="25.000000" x="415.000000" y="144.497171" fill="rgb(255, 255, 255)" style="fill-opacity:1.00" />
<rect height="12.248586" width="25.000000" x="415.000000" y="181.242928" fill="rgb(255, 165, 0)" style="fill-opacity:0.03" />
<rect height="36.745757" width="6.250000" x="433.750000" y="181.242928" fill="rgb(255, 165, 0)" style="fill-opacity:0.03" />
<!-- End 'G' -->
<!-- Begin 'A' -->
<polygon points=" 390.000000, 218.943426, 411.000000, 217.988685, 419.000000, 217.988685, 440.000000, 218.943426, 432.500000, 218.943426, 426.250000, 218.704741, 403.750000, 218.704741, 397.500000, 218.943426" fill="rgb(178, 34, 34)" style="fill-opacity:0.03" />
<!-- End 'A' -->
<!-- Begin 'C' -->
<ellipse cx="415.000000" cy="219.410988" rx="25.000000" ry="0.467562" fill="rgb(0, 0, 128)" style="fill-opacity:0.03" />
<ellipse cx="415.000000" cy="219.410988" rx="16.666667" ry="0.311708" fill="rgb(255, 255, 255)" style="fill-opacity:1.00" />
<rect height="0.467562" width="25.000000" x="415.000000" y="219.177207" fill="rgb(255, 255, 255)" style="fill-opacity:1.00" />
<!-- End 'C' -->
<!-- Begin 'T' -->
<rect height="0.019432" width="50.000000" x="390.000000" y="219.878551" fill="rgb(0, 100, 0)" style="fill-opacity:0.03" />
<rect height="0.121449" width="10.000000" x="410.000000" y="219.878551" fill="rgb(0, 100, 0)" style="fill-opacity:0.03" />
<!-- End 'T' -->
<!-- Begin 'G' -->
<ellipse cx="415.000000" cy="259.651396" rx="25.000000" ry="29.651396" fill="rgb(255, 165, 0)" style="fill-opacity:0.07" />
<ellipse cx="415.000000" cy="259.651396" rx="16.666667" ry="19.767597" fill="rgb(255, 255, 255)" style="fill-opacity:1.00" />
<rect height="29.651396" width="25.000000" x="415.000000" y="244.825698" fill="rgb(255, 255, 255)" style="fill-opacity:1.00" />
<rect height="7.412849" width="25.000000" x="415.000000" y="267.064244" fill="rgb(255, 165, 0)" style="fill-opacity:0.07" />
<rect height="22.238547" width="6.250000" x="433.750000" y="267.064244" fill="rgb(255, 165, 0)" style="fill-opacity:0.07" />
<!-- End 'G' -->
<!-- Begin 'A' -->
<polygon points=" 390.000000, 329.460875, 411.000000, 289.302791, 419.000000, 289.302791, 440.000000, 329.460875, 432.500000, 329.460875, 426.250000, 319.421354, 403.750000, 319.421354, 397.500000, 329.460875" fill="rgb(178, 34, 34)" style="fill-opacity:0.07" />
<polygon points=" 415.000000, 297.334408, 407.000000, 312.397642, 422.000000, 312.397642" fill="rgb(255, 255, 255)" style="fill-opacity:1.00" />
<!-- End 'A' -->
<!-- Begin 'C' -->
<ellipse cx="415.000000" cy="329.729671" rx="25.000000" ry="0.268795" fill="rgb(0, 0, 128)" style="fill-opacity:0.07" />
<ellipse cx="415.000000" cy="329.729671" rx="16.666667" ry="0.179197" fill="rgb(255, 255, 255)" style="fill-opacity:1.00" />
<rect height="0.268795" width="25.000000" x="415.000000" y="329.595273" fill="rgb(255, 255, 255)" style="fill-opacity:1.00" />
<!-- End 'C' -->
<!-- Begin 'T' -->
<rect height="0.000245" width="50.000000" x="390.000000" y="329.998466" fill="rgb(0, 100, 0)" style="fill-opacity:0.07" />
<rect height="0.001534" width="10.000000" x="410.000000" y="329.998466" fill="rgb(0, 100, 0)" style="fill-opacity:0.07" />
<!-- End 'T' -->
<!-- Begin 'G' -->
<ellipse cx="415.000000" cy="389.539242" rx="25.000000" ry="49.539242" fill="rgb(255, 165, 0)" style="fill-opacity:0.59" />
<ellipse cx="415.000000" cy="389.539242" rx="16.666667" ry="33.026161" fill="rgb(255, 255, 255)" style="fill-opacity:1.00" />
<rect height="49.539242" width="25.000000" x="415.000000" y="364.769621" fill="rgb(255, 255, 255)" style="fill-opacity:1.00" />
<rect height="12.384811" width="25.000000" x="415.000000" y="401.924053" fill="rgb(255, 165, 0)" style="fill-opacity:0.59" />
<rect height="37.154432" width="6.250000" x="433.750000" y="401.924053" fill="rgb(255, 165, 0)" style="fill-opacity:0.59" />
<!-- End 'G' -->
<!-- Begin 'A' -->
<polygon points=" 390.000000, 439.571714, 411.000000, 439.078484, 419.000000, 439.078484, 440.000000, 439.571714, 432.500000, 439.571714, 426.250000, 439.448407, 403.750000, 439.448407, 397.500000, 439.571714" fill="rgb(178, 34, 34)" style="fill-opacity:0.59" />
<!-- End 'A' -->
<!-- Begin 'T' -->
<rect height="0.039576" width="50.000000" x="390.000000" y="439.571714" fill="rgb(0, 100, 0)" style="fill-opacity:0.59" />
<rect height="0.247349" width="10.000000" x="410.000000" y="439.571714" fill="rgb(0, 100, 0)" style="fill-opacity:0.59" />
<!-- End 'T' -->
<!-- Begin 'C' -->
<ellipse cx="415.000000" cy="439.909532" rx="25.000000" ry="0.090468" fill="rgb(0, 0, 128)" style="fill-opacity:0.59" />
<ellipse cx="415.000000" cy="439.909532" rx="16.666667" ry="0.060312" fill="rgb(255, 255, 255)" style="fill-opacity:1.00" />
<rect height="0.090468" width="25.000000" x="415.000000" y="439.864298" fill="rgb(255, 255, 255)" style="fill-opacity:1.00" />
<!-- End 'C' -->
<!-- Begin 'T' -->
<rect height="11.540848" width="50.000000" x="450.000000" y="10.000000" fill="rgb(0, 100, 0)" style="fill-opacity:0.03" />
<rect height="72.130301" width="10.000000" x="470.000000" y="10.000000" fill="rgb(0, 100, 0)" style="fill-opacity:0.03" />
<!-- End 'T' -->
<!-- Begin 'A' -->
<polygon points=" 450.000000, 101.097063, 471.000000, 82.130301, 479.000000, 82.130301, 500.000000, 101.097063, 492.500000, 101.097063, 486.250000, 96.355372, 463.750000, 96.355372, 457.500000, 101.097063" fill="rgb(178, 34, 34)" style="fill-opacity:0.03" />
<polygon points=" 475.000000, 85.923654, 467.000000, 92.510358, 482.000000, 92.510358" fill="rgb(255, 255, 255)" style="fill-opacity:1.00" />
<!-- End 'A' -->
<!-- Begin 'G' -->
<ellipse cx="475.000000" cy="105.545682" rx="25.000000" ry="4.448619" fill="rgb(255, 165, 0)" style="fill-opacity:0.03" />
<ellipse cx="475.000000" cy="105.545682" rx="16.666667" ry="2.965746" fill="rgb(255, 255, 255)" style="fill-opacity:1.00" />
<rect height="4.448619" width="25.000000" x="475.000000" y="103.321372" fill="rgb(255, 255, 255)" style="fill-opacity:1.00" />
<rect height="1.112155" width="25.000000" x="475.000000" y="106.657837" fill="rgb(255, 165, 0)" style="fill-opacity:0.03" />
<rect height="3.336465" width="6.250000" x="493.750000" y="106.657837" fill="rgb(255, 165, 0)" style="fill-opacity:0.03" />
<!-- End 'G' -->
<!-- Begin 'C' -->
<ellipse cx="475.000000" cy="109.997151" rx="25.000000" ry="0.002849" fill="rgb(0, 0, 128)" style="fill-opacity:0.03" />
<ellipse cx="475.000000" cy="109.997151" rx="16.666667" ry="0.001900" fill="rgb(255, 255, 255)" style="fill-opacity:1.00" />
<rect height="0.002849" width="25.000000" x="475.000000" y="109.995726" fill="rgb(255, 255, 255)" style="fill-opacity:1.00" />
<!-- End 'C' -->
<!-- Begin 'T' -->
<rect height="15.528881" width="50.000000" x="450.000000" y="120.000000" fill="rgb(0, 100, 0)" style="fill-opacity:0.00" />
<rect height="97.055504" width="10.000000" x="470.000000" y="120.000000" fill="rgb(0, 100, 0)" style="fill-opacity:0.00" />
<!-- End 'T' -->
<!-- Begin 'A' -->
<polygon points=" 450.000000, 219.615140, 471.000000, 217.055504, 479.000000, 217.055504, 500.000000, 219.615140, 492.500000, 219.615140, 486.250000, 218.975231, 463.750000, 218.975231, 457.500000, 219.615140" fill="rgb(178, 34, 34)" style="fill-opacity:0.00" />
<!-- End 'A' -->
<!-- Begin 'C' -->
<ellipse cx="475.000000" cy="219.796753" rx="25.000000" ry="0.181613" fill="rgb(0, 0, 128)" style="fill-opacity:0.00" />
<ellipse cx="475.000000" cy="219.796753" rx="16.666667" ry="0.121075" fill="rgb(255, 255, 255)" style="fill-opacity:1.00" />
<rect height="0.181613" width="25.000000" x="475.000000" y="219.705947" fill="rgb(255, 255, 255)" style="fill-opacity:1.00" />
<!-- End 'C' -->
<!-- Begin 'G' -->
<ellipse cx="475.000000" cy="219.989183" rx="25.000000" ry="0.010817" fill="rgb(255, 165, 0)" style="fill-opacity:0.00" />
<ellipse cx="475.000000" cy="219.989183" rx="16.666667" ry="0.007211" fill="rgb(255, 255, 255)" style="fill-opacity:1.00" />
<rect height="0.010817" width="25.000000" x="475.000000" y="219.983775" fill="rgb(255, 255, 255)" style="fill-opacity:1.00" />
<rect height="0.002704" width="25.000000" x="475.000000" y="219.991887" fill="rgb(255, 165, 0)" style="fill-opacity:0.00" />
<rect height="0.008113" width="6.250000" x="493.750000" y="219.991887" fill="rgb(255, 165, 0)" style="fill-opacity:0.00" />
<!-- End 'G' -->
<!-- Begin 'A' -->
<polygon points=" 450.000000, 272.187877, 471.000000, 230.000000, 479.000000, 230.000000, 500.000000, 272.187877, 492.500000, 272.187877, 486.250000, 261.640908, 463.750000, 261.640908, 457.500000, 272.187877" fill="rgb(178, 34, 34)" style="fill-opacity:0.96" />
<polygon points=" 475.000000, 238.437575, 467.000000, 254.312726, 482.000000, 254.312726" fill="rgb(255, 255, 255)" style="fill-opacity:1.00" />
<!-- End 'A' -->
<!-- Begin 'T' -->
<rect height="5.496621" width="50.000000" x="450.000000" y="272.187877" fill="rgb(0, 100, 0)" style="fill-opacity:0.96" />
<rect height="34.353880" width="10.000000" x="470.000000" y="272.187877" fill="rgb(0, 100, 0)" style="fill-opacity:0.96" />
<!-- End 'T' -->
<!-- Begin 'G' -->
<ellipse cx="475.000000" cy="313.907929" rx="25.000000" ry="7.366171" fill="rgb(255, 165, 0)" style="fill-opacity:0.96" />
<ellipse cx="475.000000" cy="313.907929" rx="16.666667" ry="4.910781" fill="rgb(255, 255, 255)" style="fill-opacity:1.00" />
<rect height="7.366171" width="25.000000" x="475.000000" y="310.224843" fill="rgb(255, 255, 255)" style="fill-opacity:1.00" />
<rect height="1.841543" width="25.000000" x="475.000000" y="315.749472" fill="rgb(255, 165, 0)" style="fill-opacity:0.96" />
<rect height="5.524629" width="6.250000" x="493.750000" y="315.749472" fill="rgb(255, 165, 0)" style="fill-opacity:0.96" />
<!-- End 'G' -->
<!-- Begin 'C' -->
<ellipse cx="475.000000" cy="325.637050" rx="25.000000" ry="4.362950" fill="rgb(0, 0, 128)" style="fill-opacity:0.96" />
<ellipse cx="475.000000" cy="325.637050" rx="16.666667" ry="2.908633" fill="rgb(255, 255, 255)" style="fill-opacity:1.00" />
<rect height="4.362950" width="25.000000" x="475.000000" y="323.455575" fill="rgb(255, 255, 255)" style="fill-opacity:1.00" />
<!-- End 'C' -->
<!-- Begin 'T' -->
<rect height="15.871158" width="50.000000" x="450.000000" y="340.000000" fill="rgb(0, 100, 0)" style="fill-opacity:0.00" />
<rect height="99.194737" width="10.000000" x="470.000000" y="340.000000" fill="rgb(0, 100, 0)" style="fill-opacity:0.00" />
<!-- End 'T' -->
<!-- Begin 'A' -->
<polygon points=" 450.000000, 439.918816, 471.000000, 439.194737, 479.000000, 439.194737, 500.000000, 439.918816, 492.500000, 439.918816, 486.250000, 439.737796, 463.750000, 439.737796, 457.500000, 439.918816" fill="rgb(178, 34, 34)" style="fill-opacity:0.00" />
<!-- End 'A' -->
<!-- Begin 'C' -->
<ellipse cx="475.000000" cy="439.939192" rx="25.000000" ry="0.020376" fill="rgb(0, 0, 128)" style="fill-opacity:0.00" />
<ellipse cx="475.000000" cy="439.939192" rx="16.666667" ry="0.013584" fill="rgb(255, 255, 255)" style="fill-opacity:1.00" />
<rect height="0.020376" width="25.000000" x="475.000000" y="439.929004" fill="rgb(255, 255, 255)" style="fill-opacity:1.00" />
<!-- End 'C' -->
<!-- Begin 'G' -->
<ellipse cx="475.000000" cy="439.979784" rx="25.000000" ry="0.020216" fill="rgb(255, 165, 0)" style="fill-opacity:0.00" />
<ellipse cx="475.000000" cy="439.979784" rx="16.666667" ry="0.013477" fill="rgb(255, 255, 255)" style="fill-opacity:1.00" />
<rect height="0.020216" width="25.000000" x="475.000000" y="439.969676" fill="rgb(255, 255, 255)" style="fill-opacity:1.00" />
<rect height="0.005054" width="25.000000" x="475.000000" y="439.984838" fill="rgb(255, 165, 0)" style="fill-opacity:0.00" />
<rect height="0.015162" width="6.250000" x="493.750000" y="439.984838" fill="rgb(255, 165, 0)" style="fill-opacity:0.00" />
<!-- End 'G' -->
<!-- Begin 'T' -->
<rect height="9.355602" width="50.000000" x="510.000000" y="10.000000" fill="rgb(0, 100, 0)" style="fill-opacity:0.41" />
<rect height="58.472511" width="10.000000" x="530.000000" y="10.000000" fill="rgb(0, 100, 0)" style="fill-opacity:0.41" />
<!-- End 'T' -->
<!-- Begin 'G' -->
<ellipse cx="535.000000" cy="80.752342" rx="25.000000" ry="12.279831" fill="rgb(255, 165, 0)" style="fill-opacity:0.41" />
<ellipse cx="535.000000" cy="80.752342" rx="16.666667" ry="8.186554" fill="rgb(255, 255, 255)" style="fill-opacity:1.00" />
<rect height="12.279831" width="25.000000" x="535.000000" y="74.612426" fill="rgb(255, 255, 255)" style="fill-opacity:1.00" />
<rect height="3.069958" width="25.000000" x="535.000000" y="83.822300" fill="rgb(255, 165, 0)" style="fill-opacity:0.41" />
<rect height="9.209873" width="6.250000" x="553.750000" y="83.822300" fill="rgb(255, 165, 0)" style="fill-opacity:0.41" />
<!-- End 'G' -->
<!-- Begin 'C' -->
<ellipse cx="535.000000" cy="97.925029" rx="25.000000" ry="4.892856" fill="rgb(0, 0, 128)" style="fill-opacity:0.41" />
<ellipse cx="535.000000" cy="97.925029" rx="16.666667" ry="3.261904" fill="rgb(255, 255, 255)" style="fill-opacity:1.00" />
<rect height="4.892856" width="25.000000" x="535.000000" y="95.478601" fill="rgb(255, 255, 255)" style="fill-opacity:1.00" />
<!-- End 'C' -->
<!-- Begin 'A' -->
<polygon points=" 510.000000, 110.000000, 531.000000, 102.817885, 539.000000, 102.817885, 560.000000, 110.000000, 552.500000, 110.000000, 546.250000, 108.204471, 523.750000, 108.204471, 517.500000, 110.000000" fill="rgb(178, 34, 34)" style="fill-opacity:0.41" />
<!-- End 'A' -->
<!-- Begin 'T' -->
<rect height="12.119783" width="50.000000" x="510.000000" y="120.000000" fill="rgb(0, 100, 0)" style="fill-opacity:0.08" />
<rect height="75.748643" width="10.000000" x="530.000000" y="120.000000" fill="rgb(0, 100, 0)" style="fill-opacity:0.08" />
<!-- End 'T' -->
<!-- Begin 'A' -->
<polygon points=" 510.000000, 207.570776, 531.000000, 195.748643, 539.000000, 195.748643, 560.000000, 207.570776, 552.500000, 207.570776, 546.250000, 204.615243, 523.750000, 204.615243, 517.500000, 207.570776" fill="rgb(178, 34, 34)" style="fill-opacity:0.08" />
<polygon points=" 535.000000, 198.113070, 527.000000, 201.841923, 542.000000, 201.841923" fill="rgb(255, 255, 255)" style="fill-opacity:1.00" />
<!-- End 'A' -->
<!-- Begin 'C' -->
<ellipse cx="535.000000" cy="210.849267" rx="25.000000" ry="3.278492" fill="rgb(0, 0, 128)" style="fill-opacity:0.08" />
<ellipse cx="535.000000" cy="210.849267" rx="16.666667" ry="2.185661" fill="rgb(255, 255, 255)" style="fill-opacity:1.00" />
<rect height="3.278492" width="25.000000" x="535.000000" y="209.210022" fill="rgb(255, 255, 255)" style="fill-opacity:1.00" />
<!-- End 'C' -->
<!-- Begin 'G' -->
<ellipse cx="535.000000" cy="217.063879" rx="25.000000" ry="2.936121" fill="rgb(255, 165, 0)" style="fill-opacity:0.08" />
<ellipse cx="535.000000" cy="217.063879" rx="16.666667" ry="1.957414" fill="rgb(255, 255, 255)" style="fill-opacity:1.00" />
<rect height="2.936121" width="25.000000" x="535.000000" y="215.595819" fill="rgb(255, 255, 255)" style="fill-opacity:1.00" />
<rect height="0.734030" width="25.000000" x="535.000000" y="217.797910" fill="rgb(255, 165, 0)" style="fill-opacity:0.08" />
<rect height="2.202090" width="6.250000" x="553.750000" y="217.797910" fill="rgb(255, 165, 0)" style="fill-opacity:0.08" />
<!-- End 'G' -->
<!-- Begin 'G' -->
<ellipse cx="535.000000" cy="260.908718" rx="25.000000" ry="30.908718" fill="rgb(255, 165, 0)" style="fill-opacity:0.14" />
<ellipse cx="535.000000" cy="260.908718" rx="16.666667" ry="20.605812" fill="rgb(255, 255, 255)" style="fill-opacity:1.00" />
<rect height="30.908718" width="25.000000" x="535.000000" y="245.454359" fill="rgb(255, 255, 255)" style="fill-opacity:1.00" />
<rect height="7.727179" width="25.000000" x="535.000000" y="268.635897" fill="rgb(255, 165, 0)" style="fill-opacity:0.14" />
<rect height="23.181538" width="6.250000" x="553.750000" y="268.635897" fill="rgb(255, 165, 0)" style="fill-opacity:0.14" />
<!-- End 'G' -->
<!-- Begin 'T' -->
<rect height="3.155557" width="50.000000" x="510.000000" y="291.817436" fill="rgb(0, 100, 0)" style="fill-opacity:0.14" />
<rect height="19.722230" width="10.000000" x="530.000000" y="291.817436" fill="rgb(0, 100, 0)" style="fill-opacity:0.14" />
<!-- End 'T' -->
<!-- Begin 'A' -->
<polygon points=" 510.000000, 323.665685, 531.000000, 311.539666, 539.000000, 311.539666, 560.000000, 323.665685, 552.500000, 323.665685, 546.250000, 320.634180, 523.750000, 320.634180, 517.500000, 323.665685" fill="rgb(178, 34, 34)" style="fill-opacity:0.14" />
<polygon points=" 535.000000, 313.964870, 527.000000, 317.815277, 542.000000, 317.815277" fill="rgb(255, 255, 255)" style="fill-opacity:1.00" />
<!-- End 'A' -->
<!-- Begin 'C' -->
<ellipse cx="535.000000" cy="326.832842" rx="25.000000" ry="3.167158" fill="rgb(0, 0, 128)" style="fill-opacity:0.14" />
<ellipse cx="535.000000" cy="326.832842" rx="16.666667" ry="2.111438" fill="rgb(255, 255, 255)" style="fill-opacity:1.00" />
<rect height="3.167158" width="25.000000" x="535.000000" y="325.249263" fill="rgb(255, 255, 255)" style="fill-opacity:1.00" />
<!-- End 'C' -->
<!-- Begin 'G' -->
<ellipse cx="535.000000" cy="361.196138" rx="25.000000" ry="21.196138" fill="rgb(255, 165, 0)" style="fill-opacity:0.36" />
<ellipse cx="535.000000" cy="361.196138" rx="16.666667" ry="14.130758" fill="rgb(255, 255, 255)" style="fill-opacity:1.00" />
<rect height="21.196138" width="25.000000" x="535.000000" y="350.598069" fill="rgb(255, 255, 255)" style="fill-opacity:1.00" />
<rect height="5.299034" width="25.000000" x="535.000000" y="366.495172" fill="rgb(255, 165, 0)" style="fill-opacity:0.36" />
<rect height="15.897103" width="6.250000" x="553.750000" y="366.495172" fill="rgb(255, 165, 0)" style="fill-opacity:0.36" />
<!-- End 'G' -->
<!-- Begin 'T' -->
<rect height="6.156705" width="50.000000" x="510.000000" y="382.392275" fill="rgb(0, 100, 0)" style="fill-opacity:0.36" />
<rect height="38.479407" width="10.000000" x="530.000000" y="382.392275" fill="rgb(0, 100, 0)" style="fill-opacity:0.36" />
<!-- End 'T' -->
<!-- Begin 'A' -->
<polygon points=" 510.000000, 431.879975, 531.000000, 420.871683, 539.000000, 420.871683, 560.000000, 431.879975, 552.500000, 431.879975, 546.250000, 429.127902, 523.750000, 429.127902, 517.500000, 431.879975" fill="rgb(178, 34, 34)" style="fill-opacity:0.36" />
<polygon points=" 535.000000, 423.073341, 527.000000, 426.476658, 542.000000, 426.476658" fill="rgb(255, 255, 255)" style="fill-opacity:1.00" />
<!-- End 'A' -->
<!-- Begin 'C' -->
<ellipse cx="535.000000" cy="435.939987" rx="25.000000" ry="4.060013" fill="rgb(0, 0, 128)" style="fill-opacity:0.36" />
<ellipse cx="535.000000" cy="435.939987" rx="16.666667" ry="2.706675" fill="rgb(255, 255, 255)" style="fill-opacity:1.00" />
<rect height="4.060013" width="25.000000" x="535.000000" y="433.909981" fill="rgb(255, 255, 255)" style="fill-opacity:1.00" />
<!-- End 'C' -->
<!-- Begin 'A' -->
<polygon points=" 570.000000, 106.568497, 591.000000, 10.000000, 599.000000, 10.000000, 620.000000, 106.568497, 612.500000, 106.568497, 606.250000, 82.426373, 583.750000, 82.426373, 577.500000, 106.568497" fill="rgb(178, 34, 34)" style="fill-opacity:0.10" />
<polygon points=" 595.000000, 29.313699, 587.000000, 66.941098, 602.000000, 66.941098" fill="rgb(255, 255, 255)" style="fill-opacity:1.00" />
<!-- End 'A' -->
<!-- Begin 'G' -->
<ellipse cx="595.000000" cy="108.274443" rx="25.000000" ry="1.705945" fill="rgb(255, 165, 0)" style="fill-opacity:0.10" />
<ellipse cx="595.000000" cy="108.274443" rx="16.666667" ry="1.137297" fill="rgb(255, 255, 255)" style="fill-opacity:1.00" />
<rect height="1.705945" width="25.000000" x="595.000000" y="107.421470" fill="rgb(255, 255, 255)" style="fill-opacity:1.00" />
<rect height="0.426486" width="25.000000" x="595.000000" y="108.700929" fill="rgb(255, 165, 0)" style="fill-opacity:0.10" />
<rect height="1.279459" width="6.250000" x="613.750000" y="108.700929" fill="rgb(255, 165, 0)" style="fill-opacity:0.10" />
<!-- End 'G' -->
<!-- Begin 'T' -->
<rect height="0.003136" width="50.000000" x="570.000000" y="109.980388" fill="rgb(0, 100, 0)" style="fill-opacity:0.10" />
<rect height="0.019600" width="10.000000" x="590.000000" y="109.980388" fill="rgb(0, 100, 0)" style="fill-opacity:0.10" />
<!-- End 'T' -->
<!-- Begin 'C' -->
<ellipse cx="595.000000" cy="109.999994" rx="25.000000" ry="0.000006" fill="rgb(0, 0, 128)" style="fill-opacity:0.10" />
<ellipse cx="595.000000" cy="109.999994" rx="16.666667" ry="0.000004" fill="rgb(255, 255, 255)" style="fill-opacity:1.00" />
<rect height="0.000006" width="25.000000" x="595.000000" y="109.999991" fill="rgb(255, 255, 255)" style="fill-opacity:1.00" />
<!-- End 'C' -->
<!-- Begin 'A' -->
<polygon points=" 570.000000, 209.925547, 591.000000, 120.000000, 599.000000, 120.000000, 620.000000, 209.925547, 612.500000, 209.925547, 606.250000, 187.444160, 583.750000, 187.444160, 577.500000, 209.925547" fill="rgb(178, 34, 34)" style="fill-opacity:0.08" />
<polygon points=" 595.000000, 137.985109, 587.000000, 172.955328, 602.000000, 172.955328" fill="rgb(255, 255, 255)" style="fill-opacity:1.00" />
<!-- End 'A' -->
<!-- Begin 'G' -->
<ellipse cx="595.000000" cy="212.879158" rx="25.000000" ry="2.953611" fill="rgb(255, 165, 0)" style="fill-opacity:0.08" />
<ellipse cx="595.000000" cy="212.879158" rx="16.666667" ry="1.969074" fill="rgb(255, 255, 255)" style="fill-opacity:1.00" />
<rect height="2.953611" width="25.000000" x="595.000000" y="211.402352" fill="rgb(255, 255, 255)" style="fill-opacity:1.00" />
<rect height="0.738403" width="25.000000" x="595.000000" y="213.617561" fill="rgb(255, 165, 0)" style="fill-opacity:0.08" />
<rect height="2.215209" width="6.250000" x="613.750000" y="213.617561" fill="rgb(255, 165, 0)" style="fill-opacity:0.08" />
<!-- End 'G' -->
<!-- Begin 'T' -->
<rect height="0.513346" width="50.000000" x="570.000000" y="215.832769" fill="rgb(0, 100, 0)" style="fill-opacity:0.08" />
<rect height="3.208415" width="10.000000" x="590.000000" y="215.832769" fill="rgb(0, 100, 0)" style="fill-opacity:0.08" />
<!-- End 'T' -->
<!-- Begin 'C' -->
<ellipse cx="595.000000" cy="219.520592" rx="25.000000" ry="0.479408" fill="rgb(0, 0, 128)" style="fill-opacity:0.08" />
<ellipse cx="595.000000" cy="219.520592" rx="16.666667" ry="0.319605" fill="rgb(255, 255, 255)" style="fill-opacity:1.00" />
<rect height="0.479408" width="25.000000" x="595.000000" y="219.280888" fill="rgb(255, 255, 255)" style="fill-opacity:1.00" />
<!-- End 'C' -->
<!-- Begin 'A' -->
<polygon points=" 570.000000, 295.416021, 591.000000, 230.000000, 599.000000, 230.000000, 620.000000, 295.416021, 612.500000, 295.416021, 606.250000, 279.062016, 583.750000, 279.062016, 577.500000, 295.416021" fill="rgb(178, 34, 34)" style="fill-opacity:0.35" />
<polygon points=" 595.000000, 243.083204, 587.000000, 268.249613, 602.000000, 268.249613" fill="rgb(255, 255, 255)" style="fill-opacity:1.00" />
<!-- End 'A' -->
<!-- Begin 'G' -->
<ellipse cx="595.000000" cy="308.316395" rx="25.000000" ry="12.900374" fill="rgb(255, 165, 0)" style="fill-opacity:0.35" />
<ellipse cx="595.000000" cy="308.316395" rx="16.666667" ry="8.600249" fill="rgb(255, 255, 255)" style="fill-opacity:1.00" />
<rect height="12.900374" width="25.000000" x="595.000000" y="301.866208" fill="rgb(255, 255, 255)" style="fill-opacity:1.00" />
<rect height="3.225094" width="25.000000" x="595.000000" y="311.541489" fill="rgb(255, 165, 0)" style="fill-opacity:0.35" />
<rect height="9.675281" width="6.250000" x="613.750000" y="311.541489" fill="rgb(255, 165, 0)" style="fill-opacity:0.35" />
<!-- End 'G' -->
<!-- Begin 'T' -->
<rect height="0.880669" width="50.000000" x="570.000000" y="321.216769" fill="rgb(0, 100, 0)" style="fill-opacity:0.35" />
<rect height="5.504180" width="10.000000" x="590.000000" y="321.216769" fill="rgb(0, 100, 0)" style="fill-opacity:0.35" />
<!-- End 'T' -->
<!-- Begin 'C' -->
<ellipse cx="595.000000" cy="328.360475" rx="25.000000" ry="1.639525" fill="rgb(0, 0, 128)" style="fill-opacity:0.35" />
<ellipse cx="595.000000" cy="328.360475" rx="16.666667" ry="1.093017" fill="rgb(255, 255, 255)" style="fill-opacity:1.00" />
<rect height="1.639525" width="25.000000" x="595.000000" y="327.540712" fill="rgb(255, 255, 255)" style="fill-opacity:1.00" />
<!-- End 'C' -->
<!-- Begin 'A' -->
<polygon points=" 570.000000, 407.494584, 591.000000, 340.000000, 599.000000, 340.000000, 620.000000, 407.494584, 612.500000, 407.494584, 606.250000, 390.620938, 583.750000, 390.620938, 577.500000, 407.494584" fill="rgb(178, 34, 34)" style="fill-opacity:0.47" />
<polygon points=" 595.000000, 353.498917, 587.000000, 379.496750, 602.000000, 379.496750" fill="rgb(255, 255, 255)" style="fill-opacity:1.00" />
<!-- End 'A' -->
<!-- Begin 'T' -->
<rect height="3.856229" width="50.000000" x="570.000000" y="407.494584" fill="rgb(0, 100, 0)" style="fill-opacity:0.47" />
<rect height="24.101429" width="10.000000" x="590.000000" y="407.494584" fill="rgb(0, 100, 0)" style="fill-opacity:0.47" />
<!-- End 'T' -->
<!-- Begin 'G' -->
<ellipse cx="595.000000" cy="435.725861" rx="25.000000" ry="4.129848" fill="rgb(255, 165, 0)" style="fill-opacity:0.47" />
<ellipse cx="595.000000" cy="435.725861" rx="16.666667" ry="2.753232" fill="rgb(255, 255, 255)" style="fill-opacity:1.00" />
<rect height="4.129848" width="25.000000" x="595.000000" y="433.660937" fill="rgb(255, 255, 255)" style="fill-opacity:1.00" />
<rect height="1.032462" width="25.000000" x="595.000000" y="436.758324" fill="rgb(255, 165, 0)" style="fill-opacity:0.47" />
<rect height="3.097386" width="6.250000" x="613.750000" y="436.758324" fill="rgb(255, 165, 0)" style="fill-opacity:0.47" />
<!-- End 'G' -->
<!-- Begin 'C' -->
<ellipse cx="595.000000" cy="439.927855" rx="25.000000" ry="0.072145" fill="rgb(0, 0, 128)" style="fill-opacity:0.47" />
<ellipse cx="595.000000" cy="439.927855" rx="16.666667" ry="0.048097" fill="rgb(255, 255, 255)" style="fill-opacity:1.00" />
<rect height="0.072145" width="25.000000" x="595.000000" y="439.891782" fill="rgb(255, 255, 255)" style="fill-opacity:1.00" />
<!-- End 'C' -->
<!-- Begin 'A' -->
<polygon points=" 630.000000, 68.682369, 651.000000, 10.000000, 659.000000, 10.000000, 680.000000, 68.682369, 672.500000, 68.682369, 666.250000, 54.011776, 643.750000, 54.011776, 637.500000, 68.682369" fill="rgb(178, 34, 34)" style="fill-opacity:0.71" />
<polygon points=" 655.000000, 21.736474, 647.000000, 44.209421, 662.000000, 44.209421" fill="rgb(255, 255, 255)" style="fill-opacity:1.00" />
<!-- End 'A' -->
<!-- Begin 'G' -->
<ellipse cx="655.000000" cy="79.210846" rx="25.000000" ry="10.528478" fill="rgb(255, 165, 0)" style="fill-opacity:0.71" />
<ellipse cx="655.000000" cy="79.210846" rx="16.666667" ry="7.018985" fill="rgb(255, 255, 255)" style="fill-opacity:1.00" />
<rect height="10.528478" width="25.000000" x="655.000000" y="73.946607" fill="rgb(255, 255, 255)" style="fill-opacity:1.00" />
<rect height="2.632119" width="25.000000" x="655.000000" y="81.842966" fill="rgb(255, 165, 0)" style="fill-opacity:0.71" />
<rect height="7.896358" width="6.250000" x="673.750000" y="81.842966" fill="rgb(255, 165, 0)" style="fill-opacity:0.71" />
<!-- End 'G' -->
<!-- Begin 'T' -->
<rect height="2.025546" width="50.000000" x="630.000000" y="89.739324" fill="rgb(0, 100, 0)" style="fill-opacity:0.71" />
<rect height="12.659661" width="10.000000" x="650.000000" y="89.739324" fill="rgb(0, 100, 0)" style="fill-opacity:0.71" />
<!-- End 'T' -->
<!-- Begin 'C' -->
<ellipse cx="655.000000" cy="106.199492" rx="25.000000" ry="3.800508" fill="rgb(0, 0, 128)" style="fill-opacity:0.71" />
<ellipse cx="655.000000" cy="106.199492" rx="16.666667" ry="2.533672" fill="rgb(255, 255, 255)" style="fill-opacity:1.00" />
<rect height="3.800508" width="25.000000" x="655.000000" y="104.299239" fill="rgb(255, 255, 255)" style="fill-opacity:1.00" />
<!-- End 'C' -->
<!-- Begin 'T' -->
<rect height="6.505018" width="50.000000" x="630.000000" y="120.000000" fill="rgb(0, 100, 0)" style="fill-opacity:0.01" />
<rect height="40.656363" width="10.000000" x="650.000000" y="120.000000" fill="rgb(0, 100, 0)" style="fill-opacity:0.01" />
<!-- End 'T' -->
<!-- Begin 'C' -->
<ellipse cx="655.000000" cy="179.348501" rx="25.000000" ry="18.692138" fill="rgb(0, 0, 128)" style="fill-opacity:0.01" />
<ellipse cx="655.000000" cy="179.348501" rx="16.666667" ry="12.461425" fill="rgb(255, 255, 255)" style="fill-opacity:1.00" />
<rect height="18.692138" width="25.000000" x="655.000000" y="170.002432" fill="rgb(255, 255, 255)" style="fill-opacity:1.00" />
<!-- End 'C' -->
<!-- Begin 'G' -->
<ellipse cx="655.000000" cy="207.122695" rx="25.000000" ry="9.082057" fill="rgb(255, 165, 0)" style="fill-opacity:0.01" />
<ellipse cx="655.000000" cy="207.122695" rx="16.666667" ry="6.054705" fill="rgb(255, 255, 255)" style="fill-opacity:1.00" />
<rect height="9.082057" width="25.000000" x="655.000000" y="202.581667" fill="rgb(255, 255, 255)" style="fill-opacity:1.00" />
<rect height="2.270514" width="25.000000" x="655.000000" y="209.393210" fill="rgb(255, 165, 0)" style="fill-opacity:0.01" />
<rect height="6.811543" width="6.250000" x="673.750000" y="209.393210" fill="rgb(255, 165, 0)" style="fill-opacity:0.01" />
<!-- End 'G' -->
<!-- Begin 'A' -->
<polygon points=" 630.000000, 220.000000, 651.000000, 216.204752, 659.000000, 216.204752, 680.000000, 220.000000, 672.500000, 220.000000, 666.250000, 219.051188, 643.750000, 219.051188, 637.500000, 220.000000" fill="rgb(178, 34, 34)" style="fill-opacity:0.01" />
<!-- End 'A' -->
<!-- Begin 'A' -->
<polygon points=" 630.000000, 275.254696, 651.000000, 230.000000, 659.000000, 230.000000, 680.000000, 275.254696, 672.500000, 275.254696, 666.250000, 263.941022, 643.750000, 263.941022, 637.500000, 275.254696" fill="rgb(178, 34, 34)" style="fill-opacity:0.14" />
<polygon points=" 655.000000, 239.050939, 647.000000, 256.152818, 662.000000, 256.152818" fill="rgb(255, 255, 255)" style="fill-opacity:1.00" />
<!-- End 'A' -->
<!-- Begin 'G' -->
<ellipse cx="655.000000" cy="287.328866" rx="25.000000" ry="12.074170" fill="rgb(255, 165, 0)" style="fill-opacity:0.14" />
<ellipse cx="655.000000" cy="287.328866" rx="16.666667" ry="8.049447" fill="rgb(255, 255, 255)" style="fill-opacity:1.00" />
<rect height="12.074170" width="25.000000" x="655.000000" y="281.291781" fill="rgb(255, 255, 255)" style="fill-opacity:1.00" />
<rect height="3.018543" width="25.000000" x="655.000000" y="290.347409" fill="rgb(255, 165, 0)" style="fill-opacity:0.14" />
<rect height="9.055628" width="6.250000" x="673.750000" y="290.347409" fill="rgb(255, 165, 0)" style="fill-opacity:0.14" />
<!-- End 'G' -->
<!-- Begin 'C' -->
<ellipse cx="655.000000" cy="307.934647" rx="25.000000" ry="8.531610" fill="rgb(0, 0, 128)" style="fill-opacity:0.14" />
<ellipse cx="655.000000" cy="307.934647" rx="16.666667" ry="5.687740" fill="rgb(255, 255, 255)" style="fill-opacity:1.00" />
<rect height="8.531610" width="25.000000" x="655.000000" y="303.668842" fill="rgb(255, 255, 255)" style="fill-opacity:1.00" />
<!-- End 'C' -->
<!-- Begin 'T' -->
<rect height="2.165399" width="50.000000" x="630.000000" y="316.466257" fill="rgb(0, 100, 0)" style="fill-opacity:0.14" />
<rect height="13.533743" width="10.000000" x="650.000000" y="316.466257" fill="rgb(0, 100, 0)" style="fill-opacity:0.14" />
<!-- End 'T' -->
<!-- Begin 'A' -->
<polygon points=" 630.000000, 401.781180, 651.000000, 340.000000, 659.000000, 340.000000, 680.000000, 401.781180, 672.500000, 401.781180, 666.250000, 386.335885, 643.750000, 386.335885, 637.500000, 401.781180" fill="rgb(178, 34, 34)" style="fill-opacity:0.14" />
<polygon points=" 655.000000, 352.356236, 647.000000, 376.068708, 662.000000, 376.068708" fill="rgb(255, 255, 255)" style="fill-opacity:1.00" />
<!-- End 'A' -->
<!-- Begin 'G' -->
<ellipse cx="655.000000" cy="411.155443" rx="25.000000" ry="9.374263" fill="rgb(255, 165, 0)" style="fill-opacity:0.14" />
<ellipse cx="655.000000" cy="411.155443" rx="16.666667" ry="6.249509" fill="rgb(255, 255, 255)" style="fill-opacity:1.00" />
<rect height="9.374263" width="25.000000" x="655.000000" y="406.468312" fill="rgb(255, 255, 255)" style="fill-opacity:1.00" />
<rect height="2.343566" width="25.000000" x="655.000000" y="413.499009" fill="rgb(255, 165, 0)" style="fill-opacity:0.14" />
<rect height="7.030697" width="6.250000" x="673.750000" y="413.499009" fill="rgb(255, 165, 0)" style="fill-opacity:0.14" />
<!-- End 'G' -->
<!-- Begin 'T' -->
<rect height="2.415612" width="50.000000" x="630.000000" y="420.529706" fill="rgb(0, 100, 0)" style="fill-opacity:0.14" />
<rect height="15.097577" width="10.000000" x="650.000000" y="420.529706" fill="rgb(0, 100, 0)" style="fill-opacity:0.14" />
<!-- End 'T' -->
<!-- Begin 'C' -->
<ellipse cx="655.000000" cy="437.813642" rx="25.000000" ry="2.186358" fill="rgb(0, 0, 128)" style="fill-opacity:0.14" />
<ellipse cx="655.000000" cy="437.813642" rx="16.666667" ry="1.457572" fill="rgb(255, 255, 255)" style="fill-opacity:1.00" />
<rect height="2.186358" width="25.000000" x="655.000000" y="436.720462" fill="rgb(255, 255, 255)" style="fill-opacity:1.00" />
<!-- End 'C' -->
<!-- Begin 'G' -->
<ellipse cx="715.000000" cy="24.917881" rx="25.000000" ry="14.917881" fill="rgb(255, 165, 0)" style="fill-opacity:0.57" />
<ellipse cx="715.000000" cy="24.917881" rx="16.666667" ry="9.945254" fill="rgb(255, 255, 255)" style="fill-opacity:1.00" />
<rect height="14.917881" width="25.000000" x="715.000000" y="17.458941" fill="rgb(255, 255, 255)" style="fill-opacity:1.00" />
<rect height="3.729470" width="25.000000" x="715.000000" y="28.647351" fill="rgb(255, 165, 0)" style="fill-opacity:0.57" />
<rect height="11.188411" width="6.250000" x="733.750000" y="28.647351" fill="rgb(255, 165, 0)" style="fill-opacity:0.57" />
<!-- End 'G' -->
<!-- Begin 'T' -->
<rect height="4.480228" width="50.000000" x="690.000000" y="39.835762" fill="rgb(0, 100, 0)" style="fill-opacity:0.57" />
<rect height="28.001427" width="10.000000" x="710.000000" y="39.835762" fill="rgb(0, 100, 0)" style="fill-opacity:0.57" />
<!-- End 'T' -->
<!-- Begin 'A' -->
<polygon points=" 690.000000, 93.371356, 711.000000, 67.837189, 719.000000, 67.837189, 740.000000, 93.371356, 732.500000, 93.371356, 726.250000, 86.987814, 703.750000, 86.987814, 697.500000, 93.371356" fill="rgb(178, 34, 34)" style="fill-opacity:0.57" />
<polygon points=" 715.000000, 72.944023, 707.000000, 82.157689, 722.000000, 82.157689" fill="rgb(255, 255, 255)" style="fill-opacity:1.00" />
<!-- End 'A' -->
<!-- Begin 'C' -->
<ellipse cx="715.000000" cy="101.685678" rx="25.000000" ry="8.314322" fill="rgb(0, 0, 128)" style="fill-opacity:0.57" />
<ellipse cx="715.000000" cy="101.685678" rx="16.666667" ry="5.542881" fill="rgb(255, 255, 255)" style="fill-opacity:1.00" />
<rect height="8.314322" width="25.000000" x="715.000000" y="97.528517" fill="rgb(255, 255, 255)" style="fill-opacity:1.00" />
<!-- End 'C' -->
<!-- Begin 'T' -->
<rect height="6.597964" width="50.000000" x="690.000000" y="120.000000" fill="rgb(0, 100, 0)" style="fill-opacity:0.09" />
<rect height="41.237278" width="10.000000" x="710.000000" y="120.000000" fill="rgb(0, 100, 0)" style="fill-opacity:0.09" />
<!-- End 'T' -->
<!-- Begin 'A' -->
<polygon points=" 690.000000, 190.008560, 711.000000, 161.237278, 719.000000, 161.237278, 740.000000, 190.008560, 732.500000, 190.008560, 726.250000, 182.815740, 703.750000, 182.815740, 697.500000, 190.008560" fill="rgb(178, 34, 34)" style="fill-opacity:0.09" />
<polygon points=" 715.000000, 166.991534, 707.000000, 177.500047, 722.000000, 177.500047" fill="rgb(255, 255, 255)" style="fill-opacity:1.00" />
<!-- End 'A' -->
<!-- Begin 'C' -->
<ellipse cx="715.000000" cy="202.581542" rx="25.000000" ry="12.572981" fill="rgb(0, 0, 128)" style="fill-opacity:0.09" />
<ellipse cx="715.000000" cy="202.581542" rx="16.666667" ry="8.381988" fill="rgb(255, 255, 255)" style="fill-opacity:1.00" />
<rect height="12.572981" width="25.000000" x="715.000000" y="196.295051" fill="rgb(255, 255, 255)" style="fill-opacity:1.00" />
<!-- End 'C' -->
<!-- Begin 'G' -->
<ellipse cx="715.000000" cy="217.577261" rx="25.000000" ry="2.422739" fill="rgb(255, 165, 0)" style="fill-opacity:0.09" />
<ellipse cx="715.000000" cy="217.577261" rx="16.666667" ry="1.615159" fill="rgb(255, 255, 255)" style="fill-opacity:1.00" />
<rect height="2.422739" width="25.000000" x="715.000000" y="216.365892" fill="rgb(255, 255, 255)" style="fill-opacity:1.00" />
<rect height="0.605685" width="25.000000" x="715.000000" y="218.182946" fill="rgb(255, 165, 0)" style="fill-opacity:0.09" />
<rect height="1.817054" width="6.250000" x="733.750000" y="218.182946" fill="rgb(255, 165, 0)" style="fill-opacity:0.09" />
<!-- End 'G' -->
<!-- Begin 'A' -->
<polygon points=" 690.000000, 260.566958, 711.000000, 230.000000, 719.000000, 230.000000, 740.000000, 260.566958, 732.500000, 260.566958, 726.250000, 252.925219, 703.750000, 252.925219, 697.500000, 260.566958" fill="rgb(178, 34, 34)" style="fill-opacity:0.21" />
<polygon points=" 715.000000, 236.113392, 707.000000, 247.340175, 722.000000, 247.340175" fill="rgb(255, 255, 255)" style="fill-opacity:1.00" />
<!-- End 'A' -->
<!-- Begin 'G' -->
<ellipse cx="715.000000" cy="274.793672" rx="25.000000" ry="14.226714" fill="rgb(255, 165, 0)" style="fill-opacity:0.21" />
<ellipse cx="715.000000" cy="274.793672" rx="16.666667" ry="9.484476" fill="rgb(255, 255, 255)" style="fill-opacity:1.00" />
<rect height="14.226714" width="25.000000" x="715.000000" y="267.680315" fill="rgb(255, 255, 255)" style="fill-opacity:1.00" />
<rect height="3.556679" width="25.000000" x="715.000000" y="278.350351" fill="rgb(255, 165, 0)" style="fill-opacity:0.21" />
<rect height="10.670036" width="6.250000" x="733.750000" y="278.350351" fill="rgb(255, 165, 0)" style="fill-opacity:0.21" />
<!-- End 'G' -->
<!-- Begin 'C' -->
<ellipse cx="715.000000" cy="299.495812" rx="25.000000" ry="10.475425" fill="rgb(0, 0, 128)" style="fill-opacity:0.21" />
<ellipse cx="715.000000" cy="299.495812" rx="16.666667" ry="6.983616" fill="rgb(255, 255, 255)" style="fill-opacity:1.00" />
<rect height="10.475425" width="25.000000" x="715.000000" y="294.258099" fill="rgb(255, 255, 255)" style="fill-opacity:1.00" />
<!-- End 'C' -->
<!-- Begin 'T' -->
<rect height="3.204602" width="50.000000" x="690.000000" y="309.971236" fill="rgb(0, 100, 0)" style="fill-opacity:0.21" />
<rect height="20.028764" width="10.000000" x="710.000000" y="309.971236" fill="rgb(0, 100, 0)" style="fill-opacity:0.21" />
<!-- End 'T' -->
<!-- Begin 'C' -->
<ellipse cx="715.000000" cy="361.089550" rx="25.000000" ry="21.089550" fill="rgb(0, 0, 128)" style="fill-opacity:0.13" />
<ellipse cx="715.000000" cy="361.089550" rx="16.666667" ry="14.059700" fill="rgb(255, 255, 255)" style="fill-opacity:1.00" />
<rect height="21.089550" width="25.000000" x="715.000000" y="350.544775" fill="rgb(255, 255, 255)" style="fill-opacity:1.00" />
<!-- End 'C' -->
<!-- Begin 'T' -->
<rect height="4.895318" width="50.000000" x="690.000000" y="382.179100" fill="rgb(0, 100, 0)" style="fill-opacity:0.13" />
<rect height="30.595735" width="10.000000" x="710.000000" y="382.179100" fill="rgb(0, 100, 0)" style="fill-opacity:0.13" />
<!-- End 'T' -->
<!-- Begin 'G' -->
<ellipse cx="715.000000" cy="422.674088" rx="25.000000" ry="9.899253" fill="rgb(255, 165, 0)" style="fill-opacity:0.13" />
<ellipse cx="715.000000" cy="422.674088" rx="16.666667" ry="6.599502" fill="rgb(255, 255, 255)" style="fill-opacity:1.00" />
<rect height="9.899253" width="25.000000" x="715.000000" y="417.724462" fill="rgb(255, 255, 255)" style="fill-opacity:1.00" />
<rect height="2.474813" width="25.000000" x="715.000000" y="425.148901" fill="rgb(255, 165, 0)" style="fill-opacity:0.13" />
<rect height="7.424439" width="6.250000" x="733.750000" y="425.148901" fill="rgb(255, 165, 0)" style="fill-opacity:0.13" />
<!-- End 'G' -->
<!-- Begin 'A' -->
<polygon points=" 690.000000, 440.000000, 711.000000, 432.573341, 719.000000, 432.573341, 740.000000, 440.000000, 732.500000, 440.000000, 726.250000, 438.143335, 703.750000, 438.143335, 697.500000, 440.000000" fill="rgb(178, 34, 34)" style="fill-opacity:0.13" />
<!-- End 'A' -->
<!-- Begin 'G' -->
<ellipse cx="775.000000" cy="26.080150" rx="25.000000" ry="16.080150" fill="rgb(255, 165, 0)" style="fill-opacity:0.24" />
<ellipse cx="775.000000" cy="26.080150" rx="16.666667" ry="10.720100" fill="rgb(255, 255, 255)" style="fill-opacity:1.00" />
<rect height="16.080150" width="25.000000" x="775.000000" y="18.040075" fill="rgb(255, 255, 255)" style="fill-opacity:1.00" />
<rect height="4.020037" width="25.000000" x="775.000000" y="30.100187" fill="rgb(255, 165, 0)" style="fill-opacity:0.24" />
<rect height="12.060112" width="6.250000" x="793.750000" y="30.100187" fill="rgb(255, 165, 0)" style="fill-opacity:0.24" />
<!-- End 'G' -->
<!-- Begin 'A' -->
<polygon points=" 750.000000, 68.729213, 771.000000, 42.160300, 779.000000, 42.160300, 800.000000, 68.729213, 792.500000, 68.729213, 786.250000, 62.086984, 763.750000, 62.086984, 757.500000, 68.729213" fill="rgb(178, 34, 34)" style="fill-opacity:0.24" />
<polygon points=" 775.000000, 47.474082, 767.000000, 57.101647, 782.000000, 57.101647" fill="rgb(255, 255, 255)" style="fill-opacity:1.00" />
<!-- End 'A' -->
<!-- Begin 'T' -->
<rect height="3.592499" width="50.000000" x="750.000000" y="68.729213" fill="rgb(0, 100, 0)" style="fill-opacity:0.24" />
<rect height="22.453120" width="10.000000" x="770.000000" y="68.729213" fill="rgb(0, 100, 0)" style="fill-opacity:0.24" />
<!-- End 'T' -->
<!-- Begin 'C' -->
<ellipse cx="775.000000" cy="100.591166" rx="25.000000" ry="9.408834" fill="rgb(0, 0, 128)" style="fill-opacity:0.24" />
<ellipse cx="775.000000" cy="100.591166" rx="16.666667" ry="6.272556" fill="rgb(255, 255, 255)" style="fill-opacity:1.00" />
<rect height="9.408834" width="25.000000" x="775.000000" y="95.886749" fill="rgb(255, 255, 255)" style="fill-opacity:1.00" />
<!-- End 'C' -->
<!-- Begin 'A' -->
<polygon points=" 750.000000, 168.124589, 771.000000, 120.000000, 779.000000, 120.000000, 800.000000, 168.124589, 792.500000, 168.124589, 786.250000, 156.093441, 763.750000, 156.093441, 757.500000, 168.124589" fill="rgb(178, 34, 34)" style="fill-opacity:0.22" />
<polygon points=" 775.000000, 129.624918, 767.000000, 147.874753, 782.000000, 147.874753" fill="rgb(255, 255, 255)" style="fill-opacity:1.00" />
<!-- End 'A' -->
<!-- Begin 'T' -->
<rect height="5.250155" width="50.000000" x="750.000000" y="168.124589" fill="rgb(0, 100, 0)" style="fill-opacity:0.22" />
<rect height="32.813469" width="10.000000" x="770.000000" y="168.124589" fill="rgb(0, 100, 0)" style="fill-opacity:0.22" />
<!-- End 'T' -->
<!-- Begin 'C' -->
<ellipse cx="775.000000" cy="207.561918" rx="25.000000" ry="6.623860" fill="rgb(0, 0, 128)" style="fill-opacity:0.22" />
<ellipse cx="775.000000" cy="207.561918" rx="16.666667" ry="4.415906" fill="rgb(255, 255, 255)" style="fill-opacity:1.00" />
<rect height="6.623860" width="25.000000" x="775.000000" y="204.249988" fill="rgb(255, 255, 255)" style="fill-opacity:1.00" />
<!-- End 'C' -->
<!-- Begin 'G' -->
<ellipse cx="775.000000" cy="217.092889" rx="25.000000" ry="2.907111" fill="rgb(255, 165, 0)" style="fill-opacity:0.22" />
<ellipse cx="775.000000" cy="217.092889" rx="16.666667" ry="1.938074" fill="rgb(255, 255, 255)" style="fill-opacity:1.00" />
<rect height="2.907111" width="25.000000" x="775.000000" y="215.639333" fill="rgb(255, 255, 255)" style="fill-opacity:1.00" />
<rect height="0.726778" width="25.000000" x="775.000000" y="217.819666" fill="rgb(255, 165, 0)" style="fill-opacity:0.22" />
<rect height="2.180334" width="6.250000" x="793.750000" y="217.819666" fill="rgb(255, 165, 0)" style="fill-opacity:0.22" />
<!-- End 'G' -->
<!-- Begin 'A' -->
<polygon points=" 750.000000, 266.559036, 771.000000, 230.000000, 779.000000, 230.000000, 800.000000, 266.559036, 792.500000, 266.559036, 786.250000, 257.419277, 763.750000, 257.419277, 757.500000, 266.559036" fill="rgb(178, 34, 34)" style="fill-opacity:0.26" />
<polygon points=" 775.000000, 237.311807, 767.000000, 250.935422, 782.000000, 250.935422" fill="rgb(255, 255, 255)" style="fill-opacity:1.00" />
<!-- End 'A' -->
<!-- Begin 'G' -->
<ellipse cx="775.000000" cy="279.191591" rx="25.000000" ry="12.632555" fill="rgb(255, 165, 0)" style="fill-opacity:0.26" />
<ellipse cx="775.000000" cy="279.191591" rx="16.666667" ry="8.421703" fill="rgb(255, 255, 255)" style="fill-opacity:1.00" />
<rect height="12.632555" width="25.000000" x="775.000000" y="272.875313" fill="rgb(255, 255, 255)" style="fill-opacity:1.00" />
<rect height="3.158139" width="25.000000" x="775.000000" y="282.349729" fill="rgb(255, 165, 0)" style="fill-opacity:0.26" />
<rect height="9.474416" width="6.250000" x="793.750000" y="282.349729" fill="rgb(255, 165, 0)" style="fill-opacity:0.26" />
<!-- End 'G' -->
<!-- Begin 'C' -->
<ellipse cx="775.000000" cy="301.380455" rx="25.000000" ry="9.556310" fill="rgb(0, 0, 128)" style="fill-opacity:0.26" />
<ellipse cx="775.000000" cy="301.380455" rx="16.666667" ry="6.370873" fill="rgb(255, 255, 255)" style="fill-opacity:1.00" />
<rect height="9.556310" width="25.000000" x="775.000000" y="296.602300" fill="rgb(255, 255, 255)" style="fill-opacity:1.00" />
<!-- End 'C' -->
<!-- Begin 'T' -->
<rect height="3.050118" width="50.000000" x="750.000000" y="310.936764" fill="rgb(0, 100, 0)" style="fill-opacity:0.26" />
<rect height="19.063236" width="10.000000" x="770.000000" y="310.936764" fill="rgb(0, 100, 0)" style="fill-opacity:0.26" />
<!-- End 'T' -->
<!-- Begin 'G' -->
<ellipse cx="775.000000" cy="355.741774" rx="25.000000" ry="15.741774" fill="rgb(255, 165, 0)" style="fill-opacity:0.28" />
<ellipse cx="775.000000" cy="355.741774" rx="16.666667" ry="10.494516" fill="rgb(255, 255, 255)" style="fill-opacity:1.00" />
<rect height="15.741774" width="25.000000" x="775.000000" y="347.870887" fill="rgb(255, 255, 255)" style="fill-opacity:1.00" />
<rect height="3.935443" width="25.000000" x="775.000000" y="359.677217" fill="rgb(255, 165, 0)" style="fill-opacity:0.28" />
<rect height="11.806330" width="6.250000" x="793.750000" y="359.677217" fill="rgb(255, 165, 0)" style="fill-opacity:0.28" />
<!-- End 'G' -->
<!-- Begin 'T' -->
<rect height="4.965608" width="50.000000" x="750.000000" y="371.483547" fill="rgb(0, 100, 0)" style="fill-opacity:0.28" />
<rect height="31.035049" width="10.000000" x="770.000000" y="371.483547" fill="rgb(0, 100, 0)" style="fill-opacity:0.28" />
<!-- End 'T' -->
<!-- Begin 'C' -->
<ellipse cx="775.000000" cy="412.733056" rx="25.000000" ry="10.214461" fill="rgb(0, 0, 128)" style="fill-opacity:0.28" />
<ellipse cx="775.000000" cy="412.733056" rx="16.666667" ry="6.809640" fill="rgb(255, 255, 255)" style="fill-opacity:1.00" />
<rect height="10.214461" width="25.000000" x="775.000000" y="407.625826" fill="rgb(255, 255, 255)" style="fill-opacity:1.00" />
<!-- End 'C' -->
<!-- Begin 'A' -->
<polygon points=" 750.000000, 440.000000, 771.000000, 422.947517, 779.000000, 422.947517, 800.000000, 440.000000, 792.500000, 440.000000, 786.250000, 435.736879, 763.750000, 435.736879, 757.500000, 440.000000" fill="rgb(178, 34, 34)" style="fill-opacity:0.28" />
<polygon points=" 775.000000, 426.358013, 767.000000, 432.179007, 782.000000, 432.179007" fill="rgb(255, 255, 255)" style="fill-opacity:1.00" />
<!-- End 'A' -->
<!-- Begin 'G' -->
<ellipse cx="835.000000" cy="24.646117" rx="25.000000" ry="14.646117" fill="rgb(255, 165, 0)" style="fill-opacity:0.31" />
<ellipse cx="835.000000" cy="24.646117" rx="16.666667" ry="9.764078" fill="rgb(255, 255, 255)" style="fill-opacity:1.00" />
<rect height="14.646117" width="25.000000" x="835.000000" y="17.323059" fill="rgb(255, 255, 255)" style="fill-opacity:1.00" />
<rect height="3.661529" width="25.000000" x="835.000000" y="28.307646" fill="rgb(255, 165, 0)" style="fill-opacity:0.31" />
<rect height="10.984588" width="6.250000" x="853.750000" y="28.307646" fill="rgb(255, 165, 0)" style="fill-opacity:0.31" />
<!-- End 'G' -->
<!-- Begin 'A' -->
<polygon points=" 810.000000, 67.328165, 831.000000, 39.292234, 839.000000, 39.292234, 860.000000, 67.328165, 852.500000, 67.328165, 846.250000, 60.319182, 823.750000, 60.319182, 817.500000, 67.328165" fill="rgb(178, 34, 34)" style="fill-opacity:0.31" />
<polygon points=" 835.000000, 44.899420, 827.000000, 55.113792, 842.000000, 55.113792" fill="rgb(255, 255, 255)" style="fill-opacity:1.00" />
<!-- End 'A' -->
<!-- Begin 'T' -->
<rect height="3.909568" width="50.000000" x="810.000000" y="67.328165" fill="rgb(0, 100, 0)" style="fill-opacity:0.31" />
<rect height="24.434798" width="10.000000" x="830.000000" y="67.328165" fill="rgb(0, 100, 0)" style="fill-opacity:0.31" />
<!-- End 'T' -->
<!-- Begin 'C' -->
<ellipse cx="835.000000" cy="100.881481" rx="25.000000" ry="9.118519" fill="rgb(0, 0, 128)" style="fill-opacity:0.31" />
<ellipse cx="835.000000" cy="100.881481" rx="16.666667" ry="6.079012" fill="rgb(255, 255, 255)" style="fill-opacity:1.00" />
<rect height="9.118519" width="25.000000" x="835.000000" y="96.322222" fill="rgb(255, 255, 255)" style="fill-opacity:1.00" />
<!-- End 'C' -->
<!-- Begin 'A' -->
<polygon points=" 810.000000, 162.126462, 831.000000, 120.000000, 839.000000, 120.000000, 860.000000, 162.126462, 852.500000, 162.126462, 846.250000, 151.594847, 823.750000, 151.594847, 817.500000, 162.126462" fill="rgb(178, 34, 34)" style="fill-opacity:0.18" />
<polygon points=" 835.000000, 128.425292, 827.000000, 144.275877, 842.000000, 144.275877" fill="rgb(255, 255, 255)" style="fill-opacity:1.00" />
<!-- End 'A' -->
<!-- Begin 'T' -->
<rect height="5.044493" width="50.000000" x="810.000000" y="162.126462" fill="rgb(0, 100, 0)" style="fill-opacity:0.18" />
<rect height="31.528080" width="10.000000" x="830.000000" y="162.126462" fill="rgb(0, 100, 0)" style="fill-opacity:0.18" />
<!-- End 'T' -->
<!-- Begin 'C' -->
<ellipse cx="835.000000" cy="204.509908" rx="25.000000" ry="10.855366" fill="rgb(0, 0, 128)" style="fill-opacity:0.18" />
<ellipse cx="835.000000" cy="204.509908" rx="16.666667" ry="7.236911" fill="rgb(255, 255, 255)" style="fill-opacity:1.00" />
<rect height="10.855366" width="25.000000" x="835.000000" y="199.082225" fill="rgb(255, 255, 255)" style="fill-opacity:1.00" />
<!-- End 'C' -->
<!-- Begin 'G' -->
<ellipse cx="835.000000" cy="217.682637" rx="25.000000" ry="2.317363" fill="rgb(255, 165, 0)" style="fill-opacity:0.18" />
<ellipse cx="835.000000" cy="217.682637" rx="16.666667" ry="1.544908" fill="rgb(255, 255, 255)" style="fill-opacity:1.00" />
<rect height="2.317363" width="25.000000" x="835.000000" y="216.523956" fill="rgb(255, 255, 255)" style="fill-opacity:1.00" />
<rect height="0.579341" width="25.000000" x="835.000000" y="218.261978" fill="rgb(255, 165, 0)" style="fill-opacity:0.18" />
<rect height="1.738022" width="6.250000" x="853.750000" y="218.261978" fill="rgb(255, 165, 0)" style="fill-opacity:0.18" />
<!-- End 'G' -->
<!-- Begin 'A' -->
<polygon points=" 810.000000, 267.105496, 831.000000, 230.000000, 839.000000, 230.000000, 860.000000, 267.105496, 852.500000, 267.105496, 846.250000, 257.829122, 823.750000, 257.829122, 817.500000, 267.105496" fill="rgb(178, 34, 34)" style="fill-opacity:0.24" />
<polygon points=" 835.000000, 237.421099, 827.000000, 251.263298, 842.000000, 251.263298" fill="rgb(255, 255, 255)" style="fill-opacity:1.00" />
<!-- End 'A' -->
<!-- Begin 'G' -->
<ellipse cx="835.000000" cy="279.671338" rx="25.000000" ry="12.565841" fill="rgb(255, 165, 0)" style="fill-opacity:0.24" />
<ellipse cx="835.000000" cy="279.671338" rx="16.666667" ry="8.377227" fill="rgb(255, 255, 255)" style="fill-opacity:1.00" />
<rect height="12.565841" width="25.000000" x="835.000000" y="273.388417" fill="rgb(255, 255, 255)" style="fill-opacity:1.00" />
<rect height="3.141460" width="25.000000" x="835.000000" y="282.812798" fill="rgb(255, 165, 0)" style="fill-opacity:0.24" />
<rect height="9.424381" width="6.250000" x="853.750000" y="282.812798" fill="rgb(255, 165, 0)" style="fill-opacity:0.24" />
<!-- End 'G' -->
<!-- Begin 'T' -->
<rect height="3.417890" width="50.000000" x="810.000000" y="292.237179" fill="rgb(0, 100, 0)" style="fill-opacity:0.24" />
<rect height="21.361812" width="10.000000" x="830.000000" y="292.237179" fill="rgb(0, 100, 0)" style="fill-opacity:0.24" />
<!-- End 'T' -->
<!-- Begin 'C' -->
<ellipse cx="835.000000" cy="321.799495" rx="25.000000" ry="8.200505" fill="rgb(0, 0, 128)" style="fill-opacity:0.24" />
<ellipse cx="835.000000" cy="321.799495" rx="16.666667" ry="5.467003" fill="rgb(255, 255, 255)" style="fill-opacity:1.00" />
<rect height="8.200505" width="25.000000" x="835.000000" y="317.699243" fill="rgb(255, 255, 255)" style="fill-opacity:1.00" />
<!-- End 'C' -->
<!-- Begin 'G' -->
<ellipse cx="835.000000" cy="355.422589" rx="25.000000" ry="15.422589" fill="rgb(255, 165, 0)" style="fill-opacity:0.26" />
<ellipse cx="835.000000" cy="355.422589" rx="16.666667" ry="10.281726" fill="rgb(255, 255, 255)" style="fill-opacity:1.00" />
<rect height="15.422589" width="25.000000" x="835.000000" y="347.711295" fill="rgb(255, 255, 255)" style="fill-opacity:1.00" />
<rect height="3.855647" width="25.000000" x="835.000000" y="359.278236" fill="rgb(255, 165, 0)" style="fill-opacity:0.26" />
<rect height="11.566942" width="6.250000" x="853.750000" y="359.278236" fill="rgb(255, 165, 0)" style="fill-opacity:0.26" />
<!-- End 'G' -->
<!-- Begin 'A' -->
<polygon points=" 810.000000, 398.897014, 831.000000, 370.845178, 839.000000, 370.845178, 860.000000, 398.897014, 852.500000, 398.897014, 846.250000, 391.884055, 823.750000, 391.884055, 817.500000, 398.897014" fill="rgb(178, 34, 34)" style="fill-opacity:0.26" />
<polygon points=" 835.000000, 376.455545, 827.000000, 386.676280, 842.000000, 386.676280" fill="rgb(255, 255, 255)" style="fill-opacity:1.00" />
<!-- End 'A' -->
<!-- Begin 'T' -->
<rect height="3.628017" width="50.000000" x="810.000000" y="398.897014" fill="rgb(0, 100, 0)" style="fill-opacity:0.26" />
<rect height="22.675108" width="10.000000" x="830.000000" y="398.897014" fill="rgb(0, 100, 0)" style="fill-opacity:0.26" />
<!-- End 'T' -->
<!-- Begin 'C' -->
<ellipse cx="835.000000" cy="430.786061" rx="25.000000" ry="9.213939" fill="rgb(0, 0, 128)" style="fill-opacity:0.26" />
<ellipse cx="835.000000" cy="430.786061" rx="16.666667" ry="6.142626" fill="rgb(255, 255, 255)" style="fill-opacity:1.00" />
<rect height="9.213939" width="25.000000" x="835.000000" y="426.179092" fill="rgb(255, 255, 255)" style="fill-opacity:1.00" />
<!-- End 'C' -->
<text x="460.000000" y="495">
IC = 4.64
</text>

</svg>
