<?xml version="1.0" encoding="UTF-8" standalone="yes"?>
                 <!DOCTYPE svg PUBLIC "-//W3C//DTD SVG 1.0//EN" "http://www.w3.org/TR/2001/REC-SVG-20010904/DTD/svg10.dtd">
                 <svg height="170" width="1380" xmlns="http://www.w3.org/2000/svg" xmlns:xlink="http://www.w3.org/1999/xlink">
                 <line x1="85" y1="120" x2="1347" y2="120" style="stroke:rgb(99,99,99);stroke-width:2" />
<rect height="7.000000" width="2.000000" x="85.000000" y="120.000000" fill="rgb(0, 0, 0)" style="fill-opacity:1.00" />
<text x="107.000000" y="140">
1
</text>
<rect height="7.000000" width="2.000000" x="145.000000" y="120.000000" fill="rgb(0, 0, 0)" style="fill-opacity:1.00" />
<text x="167.000000" y="140">
2
</text>
<rect height="7.000000" width="2.000000" x="205.000000" y="120.000000" fill="rgb(0, 0, 0)" style="fill-opacity:1.00" />
<text x="227.000000" y="140">
3
</text>
<rect height="7.000000" width="2.000000" x="265.000000" y="120.000000" fill="rgb(0, 0, 0)" style="fill-opacity:1.00" />
<text x="287.000000" y="140">
4
</text>
<rect height="7.000000" width="2.000000" x="325.000000" y="120.000000" fill="rgb(0, 0, 0)" style="fill-opacity:1.00" />
<text x="347.000000" y="140">
5
</text>
<rect height="7.000000" width="2.000000" x="385.000000" y="120.000000" fill="rgb(0, 0, 0)" style="fill-opacity:1.00" />
<text x="407.000000" y="140">
6
</text>
<rect height="7.000000" width="2.000000" x="445.000000" y="120.000000" fill="rgb(0, 0, 0)" style="fill-opacity:1.00" />
<text x="467.000000" y="140">
7
</text>
<rect height="7.000000" width="2.000000" x="505.000000" y="120.000000" fill="rgb(0, 0, 0)" style="fill-opacity:1.00" />
<text x="527.000000" y="140">
8
</text>
<rect height="7.000000" width="2.000000" x="565.000000" y="120.000000" fill="rgb(0, 0, 0)" style="fill-opacity:1.00" />
<text x="587.000000" y="140">
9
</text>
<rect height="7.000000" width="2.000000" x="625.000000" y="120.000000" fill="rgb(0, 0, 0)" style="fill-opacity:1.00" />
<text x="647.000000" y="140">
10
</text>
<rect height="7.000000" width="2.000000" x="685.000000" y="120.000000" fill="rgb(0, 0, 0)" style="fill-opacity:1.00" />
<text x="707.000000" y="140">
11
</text>
<rect height="7.000000" width="2.000000" x="745.000000" y="120.000000" fill="rgb(0, 0, 0)" style="fill-opacity:1.00" />
<text x="767.000000" y="140">
12
</text>
<rect height="7.000000" width="2.000000" x="805.000000" y="120.000000" fill="rgb(0, 0, 0)" style="fill-opacity:1.00" />
<text x="827.000000" y="140">
13
</text>
<rect height="7.000000" width="2.000000" x="865.000000" y="120.000000" fill="rgb(0, 0, 0)" style="fill-opacity:1.00" />
<text x="887.000000" y="140">
14
</text>
<rect height="7.000000" width="2.000000" x="925.000000" y="120.000000" fill="rgb(0, 0, 0)" style="fill-opacity:1.00" />
<text x="947.000000" y="140">
15
</text>
<rect height="7.000000" width="2.000000" x="985.000000" y="120.000000" fill="rgb(0, 0, 0)" style="fill-opacity:1.00" />
<text x="1007.000000" y="140">
16
</text>
<rect height="7.000000" width="2.000000" x="1045.000000" y="120.000000" fill="rgb(0, 0, 0)" style="fill-opacity:1.00" />
<text x="1067.000000" y="140">
17
</text>
<rect height="7.000000" width="2.000000" x="1105.000000" y="120.000000" fill="rgb(0, 0, 0)" style="fill-opacity:1.00" />
<text x="1127.000000" y="140">
18
</text>
<rect height="7.000000" width="2.000000" x="1165.000000" y="120.000000" fill="rgb(0, 0, 0)" style="fill-opacity:1.00" />
<text x="1187.000000" y="140">
19
</text>
<rect height="7.000000" width="2.000000" x="1225.000000" y="120.000000" fill="rgb(0, 0, 0)" style="fill-opacity:1.00" />
<text x="1247.000000" y="140">
20
</text>
<rect height="7.000000" width="2.000000" x="1285.000000" y="120.000000" fill="rgb(0, 0, 0)" style="fill-opacity:1.00" />
<text x="1307.000000" y="140">
21
</text>
<rect height="7.000000" width="2.000000" x="1345.000000" y="120.000000" fill="rgb(0, 0, 0)" style="fill-opacity:1.00" />
<line x1="80" y1="112" x2="80" y2="10" style="stroke:rgb(99,99,99);stroke-width:2" />
<rect height="2.000000" width="7.000000" x="73.000000" y="110.000000" fill="rgb(0, 0, 0)" style="fill-opacity:1.00" />
<text x="63" y="115">
0
</text>
<rect height="2.000000" width="7.000000" x="73.000000" y="60.000000" fill="rgb(0, 0, 0)" style="fill-opacity:1.00" />
<text x="63" y="65">
1
</text>
<rect height="2.000000" width="7.000000" x="73.000000" y="10.000000" fill="rgb(0, 0, 0)" style="fill-opacity:1.00" />
<text x="63" y="15">
2
</text>
<text x="50" y="65"
transform="rotate(-90, 50, 70)">
bits
</text>
<!-- Begin 'T' -->
<rect height="0.017973" width="50.000000" x="90.000000" y="109.590360" fill="rgb(0, 100, 0)" style="fill-opacity:1.00" />
<rect height="0.112330" width="10.000000" x="110.000000" y="109.590360" fill="rgb(0, 100, 0)" style="fill-opacity:1.00" />
<!-- End 'T' -->
<!-- Begin 'C' -->
<ellipse cx="115.000000" cy="109.756845" rx="25.000000" ry="0.054155" fill="rgb(0, 0, 128)" style="fill-opacity:1.00" />
<ellipse cx="115.000000" cy="109.756845" rx="16.666667" ry="0.036103" fill="rgb(255, 255, 255)" style="fill-opacity:1.00" />
<rect height="0.054155" width="25.000000" x="115.000000" y="109.729767" fill="rgb(255, 255, 255)" style="fill-opacity:1.00" />
<!-- End 'C' -->
<!-- Begin 'G' -->
<ellipse cx="115.000000" cy="109.863265" rx="25.000000" ry="0.052265" fill="rgb(255, 165, 0)" style="fill-opacity:1.00" />
<ellipse cx="115.000000" cy="109.863265" rx="16.666667" ry="0.034843" fill="rgb(255, 255, 255)" style="fill-opacity:1.00" />
<rect height="0.052265" width="25.000000" x="115.000000" y="109.837132" fill="rgb(255, 255, 255)" style="fill-opacity:1.00" />
<rect height="0.013066" width="25.000000" x="115.000000" y="109.876331" fill="rgb(255, 165, 0)" style="fill-opacity:1.00" />
<rect height="0.039199" width="6.250000" x="133.750000" y="109.876331" fill="rgb(255, 165, 0)" style="fill-opacity:1.00" />
<!-- End 'G' -->
<!-- Begin 'A' -->
<polygon points=" 90.000000, 110.000000, 111.000000, 109.915530, 119.000000, 109.915530, 140.000000, 110.000000, 132.500000, 110.000000, 126.250000, 109.978882, 103.750000, 109.978882, 97.500000, 110.000000" fill="rgb(178, 34, 34)" style="fill-opacity:1.00" />
<!-- End 'A' -->
<!-- Begin 'T' -->
<rect height="0.062152" width="50.000000" x="150.000000" y="108.730850" fill="rgb(0, 100, 0)" style="fill-opacity:1.00" />
<rect height="0.388453" width="10.000000" x="170.000000" y="108.730850" fill="rgb(0, 100, 0)" style="fill-opacity:1.00" />
<!-- End 'T' -->
<!-- Begin 'C' -->
<ellipse cx="175.000000" cy="109.295655" rx="25.000000" ry="0.176352" fill="rgb(0, 0, 128)" style="fill-opacity:1.00" />
<ellipse cx="175.000000" cy="109.295655" rx="16.666667" ry="0.117568" fill="rgb(255, 255, 255)" style="fill-opacity:1.00" />
<rect height="0.176352" width="25.000000" x="175.000000" y="109.207479" fill="rgb(255, 255, 255)" style="fill-opacity:1.00" />
<!-- End 'C' -->
<!-- Begin 'G' -->
<ellipse cx="175.000000" cy="109.619145" rx="25.000000" ry="0.147138" fill="rgb(255, 165, 0)" style="fill-opacity:1.00" />
<ellipse cx="175.000000" cy="109.619145" rx="16.666667" ry="0.098092" fill="rgb(255, 255, 255)" style="fill-opacity:1.00" />
<rect height="0.147138" width="25.000000" x="175.000000" y="109.545576" fill="rgb(255, 255, 255)" style="fill-opacity:1.00" />
<rect height="0.036784" width="25.000000" x="175.000000" y="109.655930" fill="rgb(255, 165, 0)" style="fill-opacity:1.00" />
<rect height="0.110353" width="6.250000" x="193.750000" y="109.655930" fill="rgb(255, 165, 0)" style="fill-opacity:1.00" />
<!-- End 'G' -->
<!-- Begin 'A' -->
<polygon points=" 150.000000, 110.000000, 171.000000, 109.766283, 179.000000, 109.766283, 200.000000, 110.000000, 192.500000, 110.000000, 186.250000, 109.941571, 163.750000, 109.941571, 157.500000, 110.000000" fill="rgb(178, 34, 34)" style="fill-opacity:1.00" />
<!-- End 'A' -->
<!-- Begin 'C' -->
<ellipse cx="235.000000" cy="106.854860" rx="25.000000" ry="0.781607" fill="rgb(0, 0, 128)" style="fill-opacity:1.00" />
<ellipse cx="235.000000" cy="106.854860" rx="16.666667" ry="0.521072" fill="rgb(255, 255, 255)" style="fill-opacity:1.00" />
<rect height="0.781607" width="25.000000" x="235.000000" y="106.464056" fill="rgb(255, 255, 255)" style="fill-opacity:1.00" />
<!-- End 'C' -->
<!-- Begin 'G' -->
<ellipse cx="235.000000" cy="108.051863" rx="25.000000" ry="0.415396" fill="rgb(255, 165, 0)" style="fill-opacity:1.00" />
<ellipse cx="235.000000" cy="108.051863" rx="16.666667" ry="0.276931" fill="rgb(255, 255, 255)" style="fill-opacity:1.00" />
<rect height="0.415396" width="25.000000" x="235.000000" y="107.844165" fill="rgb(255, 255, 255)" style="fill-opacity:1.00" />
<rect height="0.103849" width="25.000000" x="235.000000" y="108.155712" fill="rgb(255, 165, 0)" style="fill-opacity:1.00" />
<rect height="0.311547" width="6.250000" x="253.750000" y="108.155712" fill="rgb(255, 165, 0)" style="fill-opacity:1.00" />
<!-- End 'G' -->
<!-- Begin 'T' -->
<rect height="0.132194" width="50.000000" x="210.000000" y="108.467259" fill="rgb(0, 100, 0)" style="fill-opacity:1.00" />
<rect height="0.826213" width="10.000000" x="230.000000" y="108.467259" fill="rgb(0, 100, 0)" style="fill-opacity:1.00" />
<!-- End 'T' -->
<!-- Begin 'A' -->
<polygon points=" 210.000000, 110.000000, 231.000000, 109.293473, 239.000000, 109.293473, 260.000000, 110.000000, 252.500000, 110.000000, 246.250000, 109.823368, 223.750000, 109.823368, 217.500000, 110.000000" fill="rgb(178, 34, 34)" style="fill-opacity:1.00" />
<!-- End 'A' -->
<!-- Begin 'A' -->
<polygon points=" 270.000000, 108.483210, 291.000000, 107.637585, 299.000000, 107.637585, 320.000000, 108.483210, 312.500000, 108.483210, 306.250000, 108.271804, 283.750000, 108.271804, 277.500000, 108.483210" fill="rgb(178, 34, 34)" style="fill-opacity:1.00" />
<!-- End 'A' -->
<!-- Begin 'G' -->
<ellipse cx="295.000000" cy="108.762181" rx="25.000000" ry="0.278971" fill="rgb(255, 165, 0)" style="fill-opacity:1.00" />
<ellipse cx="295.000000" cy="108.762181" rx="16.666667" ry="0.185981" fill="rgb(255, 255, 255)" style="fill-opacity:1.00" />
<rect height="0.278971" width="25.000000" x="295.000000" y="108.622695" fill="rgb(255, 255, 255)" style="fill-opacity:1.00" />
<rect height="0.069743" width="25.000000" x="295.000000" y="108.831923" fill="rgb(255, 165, 0)" style="fill-opacity:1.00" />
<rect height="0.209228" width="6.250000" x="313.750000" y="108.831923" fill="rgb(255, 165, 0)" style="fill-opacity:1.00" />
<!-- End 'G' -->
<!-- Begin 'C' -->
<ellipse cx="295.000000" cy="109.306671" rx="25.000000" ry="0.265519" fill="rgb(0, 0, 128)" style="fill-opacity:1.00" />
<ellipse cx="295.000000" cy="109.306671" rx="16.666667" ry="0.177013" fill="rgb(255, 255, 255)" style="fill-opacity:1.00" />
<rect height="0.265519" width="25.000000" x="295.000000" y="109.173911" fill="rgb(255, 255, 255)" style="fill-opacity:1.00" />
<!-- End 'C' -->
<!-- Begin 'T' -->
<rect height="0.068450" width="50.000000" x="270.000000" y="109.572190" fill="rgb(0, 100, 0)" style="fill-opacity:1.00" />
<rect height="0.427810" width="10.000000" x="290.000000" y="109.572190" fill="rgb(0, 100, 0)" style="fill-opacity:1.00" />
<!-- End 'T' -->
<!-- Begin 'G' -->
<ellipse cx="355.000000" cy="105.501756" rx="25.000000" ry="1.227759" fill="rgb(255, 165, 0)" style="fill-opacity:1.00" />
<ellipse cx="355.000000" cy="105.501756" rx="16.666667" ry="0.818506" fill="rgb(255, 255, 255)" style="fill-opacity:1.00" />
<rect height="1.227759" width="25.000000" x="355.000000" y="104.887876" fill="rgb(255, 255, 255)" style="fill-opacity:1.00" />
<rect height="0.306940" width="25.000000" x="355.000000" y="105.808695" fill="rgb(255, 165, 0)" style="fill-opacity:1.00" />
<rect height="0.920819" width="6.250000" x="373.750000" y="105.808695" fill="rgb(255, 165, 0)" style="fill-opacity:1.00" />
<!-- End 'G' -->
<!-- Begin 'A' -->
<polygon points=" 330.000000, 107.990109, 351.000000, 106.729514, 359.000000, 106.729514, 380.000000, 107.990109, 372.500000, 107.990109, 366.250000, 107.674961, 343.750000, 107.674961, 337.500000, 107.990109" fill="rgb(178, 34, 34)" style="fill-opacity:1.00" />
<!-- End 'A' -->
<!-- Begin 'T' -->
<rect height="0.165454" width="50.000000" x="330.000000" y="107.990109" fill="rgb(0, 100, 0)" style="fill-opacity:1.00" />
<rect height="1.034088" width="10.000000" x="350.000000" y="107.990109" fill="rgb(0, 100, 0)" style="fill-opacity:1.00" />
<!-- End 'T' -->
<!-- Begin 'C' -->
<ellipse cx="355.000000" cy="109.512099" rx="25.000000" ry="0.487901" fill="rgb(0, 0, 128)" style="fill-opacity:1.00" />
<ellipse cx="355.000000" cy="109.512099" rx="16.666667" ry="0.325268" fill="rgb(255, 255, 255)" style="fill-opacity:1.00" />
<rect height="0.487901" width="25.000000" x="355.000000" y="109.268148" fill="rgb(255, 255, 255)" style="fill-opacity:1.00" />
<!-- End 'C' -->
<!-- Begin 'G' -->
<ellipse cx="415.000000" cy="103.586695" rx="25.000000" ry="1.963663" fill="rgb(255, 165, 0)" style="fill-opacity:1.00" />
<ellipse cx="415.000000" cy="103.586695" rx="16.666667" ry="1.309109" fill="rgb(255, 255, 255)" style="fill-opacity:1.00" />
<rect height="1.963663" width="25.000000" x="415.000000" y="102.604864" fill="rgb(255, 255, 255)" style="fill-opacity:1.00" />
<rect height="0.490916" width="25.000000" x="415.000000" y="104.077611" fill="rgb(255, 165, 0)" style="fill-opacity:1.00" />
<rect height="1.472748" width="6.250000" x="433.750000" y="104.077611" fill="rgb(255, 165, 0)" style="fill-opacity:1.00" />
<!-- End 'G' -->
<!-- Begin 'C' -->
<ellipse cx="415.000000" cy="106.420323" rx="25.000000" ry="0.869965" fill="rgb(0, 0, 128)" style="fill-opacity:1.00" />
<ellipse cx="415.000000" cy="106.420323" rx="16.666667" ry="0.579976" fill="rgb(255, 255, 255)" style="fill-opacity:1.00" />
<rect height="0.869965" width="25.000000" x="415.000000" y="105.985341" fill="rgb(255, 255, 255)" style="fill-opacity:1.00" />
<!-- End 'C' -->
<!-- Begin 'A' -->
<polygon points=" 390.000000, 108.735265, 411.000000, 107.290288, 419.000000, 107.290288, 440.000000, 108.735265, 432.500000, 108.735265, 426.250000, 108.374021, 403.750000, 108.374021, 397.500000, 108.735265" fill="rgb(178, 34, 34)" style="fill-opacity:1.00" />
<!-- End 'A' -->
<!-- Begin 'T' -->
<rect height="0.202358" width="50.000000" x="390.000000" y="108.735265" fill="rgb(0, 100, 0)" style="fill-opacity:1.00" />
<rect height="1.264735" width="10.000000" x="410.000000" y="108.735265" fill="rgb(0, 100, 0)" style="fill-opacity:1.00" />
<!-- End 'T' -->
<!-- Begin 'G' -->
<ellipse cx="475.000000" cy="104.194601" rx="25.000000" ry="1.309473" fill="rgb(255, 165, 0)" style="fill-opacity:1.00" />
<ellipse cx="475.000000" cy="104.194601" rx="16.666667" ry="0.872982" fill="rgb(255, 255, 255)" style="fill-opacity:1.00" />
<rect height="1.309473" width="25.000000" x="475.000000" y="103.539865" fill="rgb(255, 255, 255)" style="fill-opacity:1.00" />
<rect height="0.327368" width="25.000000" x="475.000000" y="104.521969" fill="rgb(255, 165, 0)" style="fill-opacity:1.00" />
<rect height="0.982105" width="6.250000" x="493.750000" y="104.521969" fill="rgb(255, 165, 0)" style="fill-opacity:1.00" />
<!-- End 'G' -->
<!-- Begin 'A' -->
<polygon points=" 450.000000, 107.922464, 471.000000, 105.504074, 479.000000, 105.504074, 500.000000, 107.922464, 492.500000, 107.922464, 486.250000, 107.317866, 463.750000, 107.317866, 457.500000, 107.922464" fill="rgb(178, 34, 34)" style="fill-opacity:1.00" />
<!-- End 'A' -->
<!-- Begin 'C' -->
<ellipse cx="475.000000" cy="108.569119" rx="25.000000" ry="0.646655" fill="rgb(0, 0, 128)" style="fill-opacity:1.00" />
<ellipse cx="475.000000" cy="108.569119" rx="16.666667" ry="0.431103" fill="rgb(255, 255, 255)" style="fill-opacity:1.00" />
<rect height="0.646655" width="25.000000" x="475.000000" y="108.245791" fill="rgb(255, 255, 255)" style="fill-opacity:1.00" />
<!-- End 'C' -->
<!-- Begin 'T' -->
<rect height="0.125476" width="50.000000" x="450.000000" y="109.215774" fill="rgb(0, 100, 0)" style="fill-opacity:1.00" />
<rect height="0.784226" width="10.000000" x="470.000000" y="109.215774" fill="rgb(0, 100, 0)" style="fill-opacity:1.00" />
<!-- End 'T' -->
<!-- Begin 'C' -->
<ellipse cx="535.000000" cy="100.154082" rx="25.000000" ry="3.255813" fill="rgb(0, 0, 128)" style="fill-opacity:1.00" />
<ellipse cx="535.000000" cy="100.154082" rx="16.666667" ry="2.170542" fill="rgb(255, 255, 255)" style="fill-opacity:1.00" />
<rect height="3.255813" width="25.000000" x="535.000000" y="98.526176" fill="rgb(255, 255, 255)" style="fill-opacity:1.00" />
<!-- End 'C' -->
<!-- Begin 'T' -->
<rect height="0.453309" width="50.000000" x="510.000000" y="103.409896" fill="rgb(0, 100, 0)" style="fill-opacity:1.00" />
<rect height="2.833178" width="10.000000" x="530.000000" y="103.409896" fill="rgb(0, 100, 0)" style="fill-opacity:1.00" />
<!-- End 'T' -->
<!-- Begin 'A' -->
<polygon points=" 510.000000, 108.977748, 531.000000, 106.243074, 539.000000, 106.243074, 560.000000, 108.977748, 552.500000, 108.977748, 546.250000, 108.294080, 523.750000, 108.294080, 517.500000, 108.977748" fill="rgb(178, 34, 34)" style="fill-opacity:1.00" />
<!-- End 'A' -->
<!-- Begin 'G' -->
<ellipse cx="535.000000" cy="109.488874" rx="25.000000" ry="0.511126" fill="rgb(255, 165, 0)" style="fill-opacity:1.00" />
<ellipse cx="535.000000" cy="109.488874" rx="16.666667" ry="0.340751" fill="rgb(255, 255, 255)" style="fill-opacity:1.00" />
<rect height="0.511126" width="25.000000" x="535.000000" y="109.233311" fill="rgb(255, 255, 255)" style="fill-opacity:1.00" />
<rect height="0.127781" width="25.000000" x="535.000000" y="109.616656" fill="rgb(255, 165, 0)" style="fill-opacity:1.00" />
<rect height="0.383344" width="6.250000" x="553.750000" y="109.616656" fill="rgb(255, 165, 0)" style="fill-opacity:1.00" />
<!-- End 'G' -->
<!-- Begin 'G' -->
<ellipse cx="595.000000" cy="102.433140" rx="25.000000" ry="1.973994" fill="rgb(255, 165, 0)" style="fill-opacity:1.00" />
<ellipse cx="595.000000" cy="102.433140" rx="16.666667" ry="1.315996" fill="rgb(255, 255, 255)" style="fill-opacity:1.00" />
<rect height="1.973994" width="25.000000" x="595.000000" y="101.446142" fill="rgb(255, 255, 255)" style="fill-opacity:1.00" />
<rect height="0.493499" width="25.000000" x="595.000000" y="102.926638" fill="rgb(255, 165, 0)" style="fill-opacity:1.00" />
<rect height="1.480496" width="6.250000" x="613.750000" y="102.926638" fill="rgb(255, 165, 0)" style="fill-opacity:1.00" />
<!-- End 'G' -->
<!-- Begin 'C' -->
<ellipse cx="595.000000" cy="105.998414" rx="25.000000" ry="1.591280" fill="rgb(0, 0, 128)" style="fill-opacity:1.00" />
<ellipse cx="595.000000" cy="105.998414" rx="16.666667" ry="1.060854" fill="rgb(255, 255, 255)" style="fill-opacity:1.00" />
<rect height="1.591280" width="25.000000" x="595.000000" y="105.202774" fill="rgb(255, 255, 255)" style="fill-opacity:1.00" />
<!-- End 'C' -->
<!-- Begin 'A' -->
<polygon points=" 570.000000, 108.804976, 591.000000, 107.589694, 599.000000, 107.589694, 620.000000, 108.804976, 612.500000, 108.804976, 606.250000, 108.501155, 583.750000, 108.501155, 577.500000, 108.804976" fill="rgb(178, 34, 34)" style="fill-opacity:1.00" />
<!-- End 'A' -->
<!-- Begin 'T' -->
<rect height="0.191204" width="50.000000" x="570.000000" y="108.804976" fill="rgb(0, 100, 0)" style="fill-opacity:1.00" />
<rect height="1.195024" width="10.000000" x="590.000000" y="108.804976" fill="rgb(0, 100, 0)" style="fill-opacity:1.00" />
<!-- End 'T' -->
<!-- Begin 'C' -->
<ellipse cx="655.000000" cy="96.358254" rx="25.000000" ry="5.668448" fill="rgb(0, 0, 128)" style="fill-opacity:1.00" />
<ellipse cx="655.000000" cy="96.358254" rx="16.666667" ry="3.778965" fill="rgb(255, 255, 255)" style="fill-opacity:1.00" />
<rect height="5.668448" width="25.000000" x="655.000000" y="93.524031" fill="rgb(255, 255, 255)" style="fill-opacity:1.00" />
<!-- End 'C' -->
<!-- Begin 'A' -->
<polygon points=" 630.000000, 105.393540, 651.000000, 102.026702, 659.000000, 102.026702, 680.000000, 105.393540, 672.500000, 105.393540, 666.250000, 104.551831, 643.750000, 104.551831, 637.500000, 105.393540" fill="rgb(178, 34, 34)" style="fill-opacity:1.00" />
<!-- End 'A' -->
<!-- Begin 'T' -->
<rect height="0.449764" width="50.000000" x="630.000000" y="105.393540" fill="rgb(0, 100, 0)" style="fill-opacity:1.00" />
<rect height="2.811023" width="10.000000" x="650.000000" y="105.393540" fill="rgb(0, 100, 0)" style="fill-opacity:1.00" />
<!-- End 'T' -->
<!-- Begin 'G' -->
<ellipse cx="655.000000" cy="109.102281" rx="25.000000" ry="0.897719" fill="rgb(255, 165, 0)" style="fill-opacity:1.00" />
<ellipse cx="655.000000" cy="109.102281" rx="16.666667" ry="0.598479" fill="rgb(255, 255, 255)" style="fill-opacity:1.00" />
<rect height="0.897719" width="25.000000" x="655.000000" y="108.653422" fill="rgb(255, 255, 255)" style="fill-opacity:1.00" />
<rect height="0.224430" width="25.000000" x="655.000000" y="109.326711" fill="rgb(255, 165, 0)" style="fill-opacity:1.00" />
<rect height="0.673289" width="6.250000" x="673.750000" y="109.326711" fill="rgb(255, 165, 0)" style="fill-opacity:1.00" />
<!-- End 'G' -->
<!-- Begin 'T' -->
<rect height="5.411655" width="50.000000" x="690.000000" y="66.332774" fill="rgb(0, 100, 0)" style="fill-opacity:1.00" />
<rect height="33.822845" width="10.000000" x="710.000000" y="66.332774" fill="rgb(0, 100, 0)" style="fill-opacity:1.00" />
<!-- End 'T' -->
<!-- Begin 'A' -->
<polygon points=" 690.000000, 103.702540, 711.000000, 100.155619, 719.000000, 100.155619, 740.000000, 103.702540, 732.500000, 103.702540, 726.250000, 102.815809, 703.750000, 102.815809, 697.500000, 103.702540" fill="rgb(178, 34, 34)" style="fill-opacity:1.00" />
<!-- End 'A' -->
<!-- Begin 'C' -->
<ellipse cx="715.000000" cy="105.328886" rx="25.000000" ry="1.626346" fill="rgb(0, 0, 128)" style="fill-opacity:1.00" />
<ellipse cx="715.000000" cy="105.328886" rx="16.666667" ry="1.084231" fill="rgb(255, 255, 255)" style="fill-opacity:1.00" />
<rect height="1.626346" width="25.000000" x="715.000000" y="104.515713" fill="rgb(255, 255, 255)" style="fill-opacity:1.00" />
<!-- End 'C' -->
<!-- Begin 'G' -->
<ellipse cx="715.000000" cy="108.477616" rx="25.000000" ry="1.522384" fill="rgb(255, 165, 0)" style="fill-opacity:1.00" />
<ellipse cx="715.000000" cy="108.477616" rx="16.666667" ry="1.014923" fill="rgb(255, 255, 255)" style="fill-opacity:1.00" />
<rect height="1.522384" width="25.000000" x="715.000000" y="107.716424" fill="rgb(255, 255, 255)" style="fill-opacity:1.00" />
<rect height="0.380596" width="25.000000" x="715.000000" y="108.858212" fill="rgb(255, 165, 0)" style="fill-opacity:1.00" />
<rect height="1.141788" width="6.250000" x="733.750000" y="108.858212" fill="rgb(255, 165, 0)" style="fill-opacity:1.00" />
<!-- End 'G' -->
<!-- Begin 'G' -->
<ellipse cx="775.000000" cy="72.316008" rx="25.000000" ry="30.129018" fill="rgb(255, 165, 0)" style="fill-opacity:1.00" />
<ellipse cx="775.000000" cy="72.316008" rx="16.666667" ry="20.086012" fill="rgb(255, 255, 255)" style="fill-opacity:1.00" />
<rect height="30.129018" width="25.000000" x="775.000000" y="57.251499" fill="rgb(255, 255, 255)" style="fill-opacity:1.00" />
<rect height="7.532255" width="25.000000" x="775.000000" y="79.848263" fill="rgb(255, 165, 0)" style="fill-opacity:1.00" />
<rect height="22.596764" width="6.250000" x="793.750000" y="79.848263" fill="rgb(255, 165, 0)" style="fill-opacity:1.00" />
<!-- End 'G' -->
<!-- Begin 'C' -->
<ellipse cx="775.000000" cy="104.747286" rx="25.000000" ry="2.302259" fill="rgb(0, 0, 128)" style="fill-opacity:1.00" />
<ellipse cx="775.000000" cy="104.747286" rx="16.666667" ry="1.534840" fill="rgb(255, 255, 255)" style="fill-opacity:1.00" />
<rect height="2.302259" width="25.000000" x="775.000000" y="103.596156" fill="rgb(255, 255, 255)" style="fill-opacity:1.00" />
<!-- End 'C' -->
<!-- Begin 'A' -->
<polygon points=" 750.000000, 109.387377, 771.000000, 107.049545, 779.000000, 107.049545, 800.000000, 109.387377, 792.500000, 109.387377, 786.250000, 108.802919, 763.750000, 108.802919, 757.500000, 109.387377" fill="rgb(178, 34, 34)" style="fill-opacity:1.00" />
<!-- End 'A' -->
<!-- Begin 'T' -->
<rect height="0.098020" width="50.000000" x="750.000000" y="109.387377" fill="rgb(0, 100, 0)" style="fill-opacity:1.00" />
<rect height="0.612623" width="10.000000" x="770.000000" y="109.387377" fill="rgb(0, 100, 0)" style="fill-opacity:1.00" />
<!-- End 'T' -->
<!-- Begin 'G' -->
<ellipse cx="835.000000" cy="83.405012" rx="25.000000" ry="10.189307" fill="rgb(255, 165, 0)" style="fill-opacity:1.00" />
<ellipse cx="835.000000" cy="83.405012" rx="16.666667" ry="6.792872" fill="rgb(255, 255, 255)" style="fill-opacity:1.00" />
<rect height="10.189307" width="25.000000" x="835.000000" y="78.310358" fill="rgb(255, 255, 255)" style="fill-opacity:1.00" />
<rect height="2.547327" width="25.000000" x="835.000000" y="85.952339" fill="rgb(255, 165, 0)" style="fill-opacity:1.00" />
<rect height="7.641981" width="6.250000" x="853.750000" y="85.952339" fill="rgb(255, 165, 0)" style="fill-opacity:1.00" />
<!-- End 'G' -->
<!-- Begin 'T' -->
<rect height="2.324621" width="50.000000" x="810.000000" y="93.594319" fill="rgb(0, 100, 0)" style="fill-opacity:1.00" />
<rect height="14.528880" width="10.000000" x="830.000000" y="93.594319" fill="rgb(0, 100, 0)" style="fill-opacity:1.00" />
<!-- End 'T' -->
<!-- Begin 'A' -->
<polygon points=" 810.000000, 109.466797, 831.000000, 108.123199, 839.000000, 108.123199, 860.000000, 109.466797, 852.500000, 109.466797, 846.250000, 109.130897, 823.750000, 109.130897, 817.500000, 109.466797" fill="rgb(178, 34, 34)" style="fill-opacity:1.00" />
<!-- End 'A' -->
<!-- Begin 'C' -->
<ellipse cx="835.000000" cy="109.733398" rx="25.000000" ry="0.266602" fill="rgb(0, 0, 128)" style="fill-opacity:1.00" />
<ellipse cx="835.000000" cy="109.733398" rx="16.666667" ry="0.177734" fill="rgb(255, 255, 255)" style="fill-opacity:1.00" />
<rect height="0.266602" width="25.000000" x="835.000000" y="109.600097" fill="rgb(255, 255, 255)" style="fill-opacity:1.00" />
<!-- End 'C' -->
<!-- Begin 'C' -->
<ellipse cx="895.000000" cy="83.465182" rx="25.000000" ry="8.210105" fill="rgb(0, 0, 128)" style="fill-opacity:1.00" />
<ellipse cx="895.000000" cy="83.465182" rx="16.666667" ry="5.473403" fill="rgb(255, 255, 255)" style="fill-opacity:1.00" />
<rect height="8.210105" width="25.000000" x="895.000000" y="79.360129" fill="rgb(255, 255, 255)" style="fill-opacity:1.00" />
<!-- End 'C' -->
<!-- Begin 'A' -->
<polygon points=" 870.000000, 108.069370, 891.000000, 91.675286, 899.000000, 91.675286, 920.000000, 108.069370, 912.500000, 108.069370, 906.250000, 103.970849, 883.750000, 103.970849, 877.500000, 108.069370" fill="rgb(178, 34, 34)" style="fill-opacity:1.00" />
<polygon points=" 895.000000, 94.954103, 887.000000, 100.511737, 902.000000, 100.511737" fill="rgb(255, 255, 255)" style="fill-opacity:1.00" />
<!-- End 'A' -->
<!-- Begin 'T' -->
<rect height="0.205618" width="50.000000" x="870.000000" y="108.069370" fill="rgb(0, 100, 0)" style="fill-opacity:1.00" />
<rect height="1.285114" width="10.000000" x="890.000000" y="108.069370" fill="rgb(0, 100, 0)" style="fill-opacity:1.00" />
<!-- End 'T' -->
<!-- Begin 'G' -->
<ellipse cx="895.000000" cy="109.677242" rx="25.000000" ry="0.322758" fill="rgb(255, 165, 0)" style="fill-opacity:1.00" />
<ellipse cx="895.000000" cy="109.677242" rx="16.666667" ry="0.215172" fill="rgb(255, 255, 255)" style="fill-opacity:1.00" />
<rect height="0.322758" width="25.000000" x="895.000000" y="109.515863" fill="rgb(255, 255, 255)" style="fill-opacity:1.00" />
<rect height="0.080689" width="25.000000" x="895.000000" y="109.757932" fill="rgb(255, 165, 0)" style="fill-opacity:1.00" />
<rect height="0.242068" width="6.250000" x="913.750000" y="109.757932" fill="rgb(255, 165, 0)" style="fill-opacity:1.00" />
<!-- End 'G' -->
<!-- Begin 'C' -->
<ellipse cx="955.000000" cy="74.731941" rx="25.000000" ry="26.603048" fill="rgb(0, 0, 128)" style="fill-opacity:1.00" />
<ellipse cx="955.000000" cy="74.731941" rx="16.666667" ry="17.735365" fill="rgb(255, 255, 255)" style="fill-opacity:1.00" />
<rect height="26.603048" width="25.000000" x="955.000000" y="61.430417" fill="rgb(255, 255, 255)" style="fill-opacity:1.00" />
<!-- End 'C' -->
<!-- Begin 'G' -->
<ellipse cx="955.000000" cy="104.129025" rx="25.000000" ry="2.794036" fill="rgb(255, 165, 0)" style="fill-opacity:1.00" />
<ellipse cx="955.000000" cy="104.129025" rx="16.666667" ry="1.862691" fill="rgb(255, 255, 255)" style="fill-opacity:1.00" />
<rect height="2.794036" width="25.000000" x="955.000000" y="102.732007" fill="rgb(255, 255, 255)" style="fill-opacity:1.00" />
<rect height="0.698509" width="25.000000" x="955.000000" y="104.827534" fill="rgb(255, 165, 0)" style="fill-opacity:1.00" />
<rect height="2.095527" width="6.250000" x="973.750000" y="104.827534" fill="rgb(255, 165, 0)" style="fill-opacity:1.00" />
<!-- End 'G' -->
<!-- Begin 'T' -->
<rect height="0.316415" width="50.000000" x="930.000000" y="106.923061" fill="rgb(0, 100, 0)" style="fill-opacity:1.00" />
<rect height="1.977596" width="10.000000" x="950.000000" y="106.923061" fill="rgb(0, 100, 0)" style="fill-opacity:1.00" />
<!-- End 'T' -->
<!-- Begin 'A' -->
<polygon points=" 930.000000, 110.000000, 951.000000, 108.900657, 959.000000, 108.900657, 980.000000, 110.000000, 972.500000, 110.000000, 966.250000, 109.725164, 943.750000, 109.725164, 937.500000, 110.000000" fill="rgb(178, 34, 34)" style="fill-opacity:1.00" />
<!-- End 'A' -->
<!-- Begin 'A' -->
<polygon points=" 990.000000, 100.661951, 1011.000000, 58.475234, 1019.000000, 58.475234, 1040.000000, 100.661951, 1032.500000, 100.661951, 1026.250000, 90.115272, 1003.750000, 90.115272, 997.500000, 100.661951" fill="rgb(178, 34, 34)" style="fill-opacity:1.00" />
<polygon points=" 1015.000000, 66.912577, 1007.000000, 82.787264, 1022.000000, 82.787264" fill="rgb(255, 255, 255)" style="fill-opacity:1.00" />
<!-- End 'A' -->
<!-- Begin 'G' -->
<ellipse cx="1015.000000" cy="102.357291" rx="25.000000" ry="1.695340" fill="rgb(255, 165, 0)" style="fill-opacity:1.00" />
<ellipse cx="1015.000000" cy="102.357291" rx="16.666667" ry="1.130227" fill="rgb(255, 255, 255)" style="fill-opacity:1.00" />
<rect height="1.695340" width="25.000000" x="1015.000000" y="101.509621" fill="rgb(255, 255, 255)" style="fill-opacity:1.00" />
<rect height="0.423835" width="25.000000" x="1015.000000" y="102.781126" fill="rgb(255, 165, 0)" style="fill-opacity:1.00" />
<rect height="1.271505" width="6.250000" x="1033.750000" y="102.781126" fill="rgb(255, 165, 0)" style="fill-opacity:1.00" />
<!-- End 'G' -->
<!-- Begin 'C' -->
<ellipse cx="1015.000000" cy="105.541492" rx="25.000000" ry="1.488861" fill="rgb(0, 0, 128)" style="fill-opacity:1.00" />
<ellipse cx="1015.000000" cy="105.541492" rx="16.666667" ry="0.992574" fill="rgb(255, 255, 255)" style="fill-opacity:1.00" />
<rect height="1.488861" width="25.000000" x="1015.000000" y="104.797061" fill="rgb(255, 255, 255)" style="fill-opacity:1.00" />
<!-- End 'C' -->
<!-- Begin 'T' -->
<rect height="0.475144" width="50.000000" x="990.000000" y="107.030353" fill="rgb(0, 100, 0)" style="fill-opacity:1.00" />
<rect height="2.969647" width="10.000000" x="1010.000000" y="107.030353" fill="rgb(0, 100, 0)" style="fill-opacity:1.00" />
<!-- End 'T' -->
<!-- Begin 'G' -->
<ellipse cx="1075.000000" cy="93.108349" rx="25.000000" ry="7.779308" fill="rgb(255, 165, 0)" style="fill-opacity:1.00" />
<ellipse cx="1075.000000" cy="93.108349" rx="16.666667" ry="5.186205" fill="rgb(255, 255, 255)" style="fill-opacity:1.00" />
<rect height="7.779308" width="25.000000" x="1075.000000" y="89.218695" fill="rgb(255, 255, 255)" style="fill-opacity:1.00" />
<rect height="1.944827" width="25.000000" x="1075.000000" y="95.053176" fill="rgb(255, 165, 0)" style="fill-opacity:1.00" />
<rect height="5.834481" width="6.250000" x="1093.750000" y="95.053176" fill="rgb(255, 165, 0)" style="fill-opacity:1.00" />
<!-- End 'G' -->
<!-- Begin 'T' -->
<rect height="0.637023" width="50.000000" x="1050.000000" y="100.887657" fill="rgb(0, 100, 0)" style="fill-opacity:1.00" />
<rect height="3.981394" width="10.000000" x="1070.000000" y="100.887657" fill="rgb(0, 100, 0)" style="fill-opacity:1.00" />
<!-- End 'T' -->
<!-- Begin 'A' -->
<polygon points=" 1050.000000, 108.281776, 1071.000000, 104.869051, 1079.000000, 104.869051, 1100.000000, 108.281776, 1092.500000, 108.281776, 1086.250000, 107.428595, 1063.750000, 107.428595, 1057.500000, 108.281776" fill="rgb(178, 34, 34)" style="fill-opacity:1.00" />
<!-- End 'A' -->
<!-- Begin 'C' -->
<ellipse cx="1075.000000" cy="109.140888" rx="25.000000" ry="0.859112" fill="rgb(0, 0, 128)" style="fill-opacity:1.00" />
<ellipse cx="1075.000000" cy="109.140888" rx="16.666667" ry="0.572741" fill="rgb(255, 255, 255)" style="fill-opacity:1.00" />
<rect height="0.859112" width="25.000000" x="1075.000000" y="108.711332" fill="rgb(255, 255, 255)" style="fill-opacity:1.00" />
<!-- End 'C' -->
<!-- Begin 'C' -->
<ellipse cx="1135.000000" cy="101.334374" rx="25.000000" ry="2.411275" fill="rgb(0, 0, 128)" style="fill-opacity:1.00" />
<ellipse cx="1135.000000" cy="101.334374" rx="16.666667" ry="1.607517" fill="rgb(255, 255, 255)" style="fill-opacity:1.00" />
<rect height="2.411275" width="25.000000" x="1135.000000" y="100.128737" fill="rgb(255, 255, 255)" style="fill-opacity:1.00" />
<!-- End 'C' -->
<!-- Begin 'G' -->
<ellipse cx="1135.000000" cy="105.561067" rx="25.000000" ry="1.815417" fill="rgb(255, 165, 0)" style="fill-opacity:1.00" />
<ellipse cx="1135.000000" cy="105.561067" rx="16.666667" ry="1.210278" fill="rgb(255, 255, 255)" style="fill-opacity:1.00" />
<rect height="1.815417" width="25.000000" x="1135.000000" y="104.653358" fill="rgb(255, 255, 255)" style="fill-opacity:1.00" />
<rect height="0.453854" width="25.000000" x="1135.000000" y="106.014921" fill="rgb(255, 165, 0)" style="fill-opacity:1.00" />
<rect height="1.361563" width="6.250000" x="1153.750000" y="106.014921" fill="rgb(255, 165, 0)" style="fill-opacity:1.00" />
<!-- End 'G' -->
<!-- Begin 'A' -->
<polygon points=" 1110.000000, 108.744663, 1131.000000, 107.376484, 1139.000000, 107.376484, 1160.000000, 108.744663, 1152.500000, 108.744663, 1146.250000, 108.402618, 1123.750000, 108.402618, 1117.500000, 108.744663" fill="rgb(178, 34, 34)" style="fill-opacity:1.00" />
<!-- End 'A' -->
<!-- Begin 'T' -->
<rect height="0.200854" width="50.000000" x="1110.000000" y="108.744663" fill="rgb(0, 100, 0)" style="fill-opacity:1.00" />
<rect height="1.255337" width="10.000000" x="1130.000000" y="108.744663" fill="rgb(0, 100, 0)" style="fill-opacity:1.00" />
<!-- End 'T' -->
<!-- Begin 'G' -->
<ellipse cx="1195.000000" cy="99.779608" rx="25.000000" ry="3.321043" fill="rgb(255, 165, 0)" style="fill-opacity:1.00" />
<ellipse cx="1195.000000" cy="99.779608" rx="16.666667" ry="2.214028" fill="rgb(255, 255, 255)" style="fill-opacity:1.00" />
<rect height="3.321043" width="25.000000" x="1195.000000" y="98.119087" fill="rgb(255, 255, 255)" style="fill-opacity:1.00" />
<rect height="0.830261" width="25.000000" x="1195.000000" y="100.609869" fill="rgb(255, 165, 0)" style="fill-opacity:1.00" />
<rect height="2.490782" width="6.250000" x="1213.750000" y="100.609869" fill="rgb(255, 165, 0)" style="fill-opacity:1.00" />
<!-- End 'G' -->
<!-- Begin 'T' -->
<rect height="0.481861" width="50.000000" x="1170.000000" y="103.100651" fill="rgb(0, 100, 0)" style="fill-opacity:1.00" />
<rect height="3.011634" width="10.000000" x="1190.000000" y="103.100651" fill="rgb(0, 100, 0)" style="fill-opacity:1.00" />
<!-- End 'T' -->
<!-- Begin 'A' -->
<polygon points=" 1170.000000, 109.086101, 1191.000000, 106.112285, 1199.000000, 106.112285, 1220.000000, 109.086101, 1212.500000, 109.086101, 1206.250000, 108.342647, 1183.750000, 108.342647, 1177.500000, 109.086101" fill="rgb(178, 34, 34)" style="fill-opacity:1.00" />
<!-- End 'A' -->
<!-- Begin 'C' -->
<ellipse cx="1195.000000" cy="109.543050" rx="25.000000" ry="0.456950" fill="rgb(0, 0, 128)" style="fill-opacity:1.00" />
<ellipse cx="1195.000000" cy="109.543050" rx="16.666667" ry="0.304633" fill="rgb(255, 255, 255)" style="fill-opacity:1.00" />
<rect height="0.456950" width="25.000000" x="1195.000000" y="109.314575" fill="rgb(255, 255, 255)" style="fill-opacity:1.00" />
<!-- End 'C' -->
<!-- Begin 'C' -->
<ellipse cx="1255.000000" cy="105.124742" rx="25.000000" ry="1.124108" fill="rgb(0, 0, 128)" style="fill-opacity:1.00" />
<ellipse cx="1255.000000" cy="105.124742" rx="16.666667" ry="0.749405" fill="rgb(255, 255, 255)" style="fill-opacity:1.00" />
<rect height="1.124108" width="25.000000" x="1255.000000" y="104.562688" fill="rgb(255, 255, 255)" style="fill-opacity:1.00" />
<!-- End 'C' -->
<!-- Begin 'T' -->
<rect height="0.298977" width="50.000000" x="1230.000000" y="106.248850" fill="rgb(0, 100, 0)" style="fill-opacity:1.00" />
<rect height="1.868606" width="10.000000" x="1250.000000" y="106.248850" fill="rgb(0, 100, 0)" style="fill-opacity:1.00" />
<!-- End 'T' -->
<!-- Begin 'G' -->
<ellipse cx="1255.000000" cy="108.701499" rx="25.000000" ry="0.584043" fill="rgb(255, 165, 0)" style="fill-opacity:1.00" />
<ellipse cx="1255.000000" cy="108.701499" rx="16.666667" ry="0.389362" fill="rgb(255, 255, 255)" style="fill-opacity:1.00" />
<rect height="0.584043" width="25.000000" x="1255.000000" y="108.409478" fill="rgb(255, 255, 255)" style="fill-opacity:1.00" />
<rect height="0.146011" width="25.000000" x="1255.000000" y="108.847510" fill="rgb(255, 165, 0)" style="fill-opacity:1.00" />
<rect height="0.438032" width="6.250000" x="1273.750000" y="108.847510" fill="rgb(255, 165, 0)" style="fill-opacity:1.00" />
<!-- End 'G' -->
<!-- Begin 'A' -->
<polygon points=" 1230.000000, 110.000000, 1251.000000, 109.285542, 1259.000000, 109.285542, 1280.000000, 110.000000, 1272.500000, 110.000000, 1266.250000, 109.821385, 1243.750000, 109.821385, 1237.500000, 110.000000" fill="rgb(178, 34, 34)" style="fill-opacity:1.00" />
<!-- End 'A' -->
<!-- Begin 'C' -->
<ellipse cx="1315.000000" cy="102.847820" rx="25.000000" ry="2.285868" fill="rgb(0, 0, 128)" style="fill-opacity:1.00" />
<ellipse cx="1315.000000" cy="102.847820" rx="16.666667" ry="1.523912" fill="rgb(255, 255, 255)" style="fill-opacity:1.00" />
<rect height="2.285868" width="25.000000" x="1315.000000" y="101.704886" fill="rgb(255, 255, 255)" style="fill-opacity:1.00" />
<!-- End 'C' -->
<!-- Begin 'G' -->
<ellipse cx="1315.000000" cy="106.040621" rx="25.000000" ry="0.906933" fill="rgb(255, 165, 0)" style="fill-opacity:1.00" />
<ellipse cx="1315.000000" cy="106.040621" rx="16.666667" ry="0.604622" fill="rgb(255, 255, 255)" style="fill-opacity:1.00" />
<rect height="0.906933" width="25.000000" x="1315.000000" y="105.587154" fill="rgb(255, 255, 255)" style="fill-opacity:1.00" />
<rect height="0.226733" width="25.000000" x="1315.000000" y="106.267354" fill="rgb(255, 165, 0)" style="fill-opacity:1.00" />
<rect height="0.680200" width="6.250000" x="1333.750000" y="106.267354" fill="rgb(255, 165, 0)" style="fill-opacity:1.00" />
<!-- End 'G' -->
<!-- Begin 'T' -->
<rect height="0.270547" width="50.000000" x="1290.000000" y="106.947554" fill="rgb(0, 100, 0)" style="fill-opacity:1.00" />
<rect height="1.690919" width="10.000000" x="1310.000000" y="106.947554" fill="rgb(0, 100, 0)" style="fill-opacity:1.00" />
<!-- End 'T' -->
<!-- Begin 'A' -->
<polygon points=" 1290.000000, 110.000000, 1311.000000, 108.638473, 1319.000000, 108.638473, 1340.000000, 110.000000, 1332.500000, 110.000000, 1326.250000, 109.659618, 1303.750000, 109.659618, 1297.500000, 110.000000" fill="rgb(178, 34, 34)" style="fill-opacity:1.00" />
<!-- End 'A' -->
<text x="700.000000" y="165">
IC = 8.65
</text>

</svg>
