<?xml version="1.0" encoding="UTF-8" standalone="yes"?>
                 <!DOCTYPE svg PUBLIC "-//W3C//DTD SVG 1.0//EN" "http://www.w3.org/TR/2001/REC-SVG-20010904/DTD/svg10.dtd">
                 <svg height="170" width="780" xmlns="http://www.w3.org/2000/svg" xmlns:xlink="http://www.w3.org/1999/xlink">
                 <line x1="85" y1="120" x2="747" y2="120" style="stroke:rgb(99,99,99);stroke-width:2" />
<rect height="7.000000" width="2.000000" x="85.000000" y="120.000000" fill="rgb(0, 0, 0)" style="fill-opacity:1.00" />
<text x="107.000000" y="140">
1
</text>
<rect height="7.000000" width="2.000000" x="145.000000" y="120.000000" fill="rgb(0, 0, 0)" style="fill-opacity:1.00" />
<text x="167.000000" y="140">
2
</text>
<rect height="7.000000" width="2.000000" x="205.000000" y="120.000000" fill="rgb(0, 0, 0)" style="fill-opacity:1.00" />
<text x="227.000000" y="140">
3
</text>
<rect height="7.000000" width="2.000000" x="265.000000" y="120.000000" fill="rgb(0, 0, 0)" style="fill-opacity:1.00" />
<text x="287.000000" y="140">
4
</text>
<rect height="7.000000" width="2.000000" x="325.000000" y="120.000000" fill="rgb(0, 0, 0)" style="fill-opacity:1.00" />
<text x="347.000000" y="140">
5
</text>
<rect height="7.000000" width="2.000000" x="385.000000" y="120.000000" fill="rgb(0, 0, 0)" style="fill-opacity:1.00" />
<text x="407.000000" y="140">
6
</text>
<rect height="7.000000" width="2.000000" x="445.000000" y="120.000000" fill="rgb(0, 0, 0)" style="fill-opacity:1.00" />
<text x="467.000000" y="140">
7
</text>
<rect height="7.000000" width="2.000000" x="505.000000" y="120.000000" fill="rgb(0, 0, 0)" style="fill-opacity:1.00" />
<text x="527.000000" y="140">
8
</text>
<rect height="7.000000" width="2.000000" x="565.000000" y="120.000000" fill="rgb(0, 0, 0)" style="fill-opacity:1.00" />
<text x="587.000000" y="140">
9
</text>
<rect height="7.000000" width="2.000000" x="625.000000" y="120.000000" fill="rgb(0, 0, 0)" style="fill-opacity:1.00" />
<text x="647.000000" y="140">
10
</text>
<rect height="7.000000" width="2.000000" x="685.000000" y="120.000000" fill="rgb(0, 0, 0)" style="fill-opacity:1.00" />
<text x="707.000000" y="140">
11
</text>
<rect height="7.000000" width="2.000000" x="745.000000" y="120.000000" fill="rgb(0, 0, 0)" style="fill-opacity:1.00" />
<line x1="80" y1="112" x2="80" y2="10" style="stroke:rgb(99,99,99);stroke-width:2" />
<rect height="2.000000" width="7.000000" x="73.000000" y="110.000000" fill="rgb(0, 0, 0)" style="fill-opacity:1.00" />
<text x="63" y="115">
0
</text>
<rect height="2.000000" width="7.000000" x="73.000000" y="60.000000" fill="rgb(0, 0, 0)" style="fill-opacity:1.00" />
<text x="63" y="65">
1
</text>
<rect height="2.000000" width="7.000000" x="73.000000" y="10.000000" fill="rgb(0, 0, 0)" style="fill-opacity:1.00" />
<text x="63" y="15">
2
</text>
<text x="50" y="65"
transform="rotate(-90, 50, 70)">
bits
</text>
<!-- Begin 'G' -->
<ellipse cx="115.000000" cy="103.564277" rx="25.000000" ry="1.916880" fill="rgb(255, 165, 0)" style="fill-opacity:1.00" />
<ellipse cx="115.000000" cy="103.564277" rx="16.666667" ry="1.277920" fill="rgb(255, 255, 255)" style="fill-opacity:1.00" />
<rect height="1.916880" width="25.000000" x="115.000000" y="102.605837" fill="rgb(255, 255, 255)" style="fill-opacity:1.00" />
<rect height="0.479220" width="25.000000" x="115.000000" y="104.043497" fill="rgb(255, 165, 0)" style="fill-opacity:1.00" />
<rect height="1.437660" width="6.250000" x="133.750000" y="104.043497" fill="rgb(255, 165, 0)" style="fill-opacity:1.00" />
<!-- End 'G' -->
<!-- Begin 'A' -->
<polygon points=" 90.000000, 107.474648, 111.000000, 105.481157, 119.000000, 105.481157, 140.000000, 107.474648, 132.500000, 107.474648, 126.250000, 106.976275, 103.750000, 106.976275, 97.500000, 107.474648" fill="rgb(178, 34, 34)" style="fill-opacity:1.00" />
<!-- End 'A' -->
<!-- Begin 'T' -->
<rect height="0.206929" width="50.000000" x="90.000000" y="107.474648" fill="rgb(0, 100, 0)" style="fill-opacity:1.00" />
<rect height="1.293307" width="10.000000" x="110.000000" y="107.474648" fill="rgb(0, 100, 0)" style="fill-opacity:1.00" />
<!-- End 'T' -->
<!-- Begin 'C' -->
<ellipse cx="115.000000" cy="109.383978" rx="25.000000" ry="0.616022" fill="rgb(0, 0, 128)" style="fill-opacity:1.00" />
<ellipse cx="115.000000" cy="109.383978" rx="16.666667" ry="0.410682" fill="rgb(255, 255, 255)" style="fill-opacity:1.00" />
<rect height="0.616022" width="25.000000" x="115.000000" y="109.075966" fill="rgb(255, 255, 255)" style="fill-opacity:1.00" />
<!-- End 'C' -->
<!-- Begin 'G' -->
<ellipse cx="175.000000" cy="97.528814" rx="25.000000" ry="4.518440" fill="rgb(255, 165, 0)" style="fill-opacity:1.00" />
<ellipse cx="175.000000" cy="97.528814" rx="16.666667" ry="3.012294" fill="rgb(255, 255, 255)" style="fill-opacity:1.00" />
<rect height="4.518440" width="25.000000" x="175.000000" y="95.269594" fill="rgb(255, 255, 255)" style="fill-opacity:1.00" />
<rect height="1.129610" width="25.000000" x="175.000000" y="98.658424" fill="rgb(255, 165, 0)" style="fill-opacity:1.00" />
<rect height="3.388830" width="6.250000" x="193.750000" y="98.658424" fill="rgb(255, 165, 0)" style="fill-opacity:1.00" />
<!-- End 'G' -->
<!-- Begin 'A' -->
<polygon points=" 150.000000, 106.565320, 171.000000, 102.047254, 179.000000, 102.047254, 200.000000, 106.565320, 192.500000, 106.565320, 186.250000, 105.435804, 163.750000, 105.435804, 157.500000, 106.565320" fill="rgb(178, 34, 34)" style="fill-opacity:1.00" />
<!-- End 'A' -->
<!-- Begin 'C' -->
<ellipse cx="175.000000" cy="107.488544" rx="25.000000" ry="0.923224" fill="rgb(0, 0, 128)" style="fill-opacity:1.00" />
<ellipse cx="175.000000" cy="107.488544" rx="16.666667" ry="0.615483" fill="rgb(255, 255, 255)" style="fill-opacity:1.00" />
<rect height="0.923224" width="25.000000" x="175.000000" y="107.026932" fill="rgb(255, 255, 255)" style="fill-opacity:1.00" />
<!-- End 'C' -->
<!-- Begin 'T' -->
<rect height="0.254117" width="50.000000" x="150.000000" y="108.411769" fill="rgb(0, 100, 0)" style="fill-opacity:1.00" />
<rect height="1.588231" width="10.000000" x="170.000000" y="108.411769" fill="rgb(0, 100, 0)" style="fill-opacity:1.00" />
<!-- End 'T' -->
<!-- Begin 'C' -->
<ellipse cx="235.000000" cy="91.050719" rx="25.000000" ry="9.131292" fill="rgb(0, 0, 128)" style="fill-opacity:1.00" />
<ellipse cx="235.000000" cy="91.050719" rx="16.666667" ry="6.087528" fill="rgb(255, 255, 255)" style="fill-opacity:1.00" />
<rect height="9.131292" width="25.000000" x="235.000000" y="86.485073" fill="rgb(255, 255, 255)" style="fill-opacity:1.00" />
<!-- End 'C' -->
<!-- Begin 'A' -->
<polygon points=" 210.000000, 105.564840, 231.000000, 100.182011, 239.000000, 100.182011, 260.000000, 105.564840, 252.500000, 105.564840, 246.250000, 104.219132, 223.750000, 104.219132, 217.500000, 105.564840" fill="rgb(178, 34, 34)" style="fill-opacity:1.00" />
<!-- End 'A' -->
<!-- Begin 'T' -->
<rect height="0.380146" width="50.000000" x="210.000000" y="105.564840" fill="rgb(0, 100, 0)" style="fill-opacity:1.00" />
<rect height="2.375915" width="10.000000" x="230.000000" y="105.564840" fill="rgb(0, 100, 0)" style="fill-opacity:1.00" />
<!-- End 'T' -->
<!-- Begin 'G' -->
<ellipse cx="235.000000" cy="108.970377" rx="25.000000" ry="1.029623" fill="rgb(255, 165, 0)" style="fill-opacity:1.00" />
<ellipse cx="235.000000" cy="108.970377" rx="16.666667" ry="0.686415" fill="rgb(255, 255, 255)" style="fill-opacity:1.00" />
<rect height="1.029623" width="25.000000" x="235.000000" y="108.455566" fill="rgb(255, 255, 255)" style="fill-opacity:1.00" />
<rect height="0.257406" width="25.000000" x="235.000000" y="109.227783" fill="rgb(255, 165, 0)" style="fill-opacity:1.00" />
<rect height="0.772217" width="6.250000" x="253.750000" y="109.227783" fill="rgb(255, 165, 0)" style="fill-opacity:1.00" />
<!-- End 'G' -->
<!-- Begin 'C' -->
<ellipse cx="295.000000" cy="81.296681" rx="25.000000" ry="18.046205" fill="rgb(0, 0, 128)" style="fill-opacity:1.00" />
<ellipse cx="295.000000" cy="81.296681" rx="16.666667" ry="12.030803" fill="rgb(255, 255, 255)" style="fill-opacity:1.00" />
<rect height="18.046205" width="25.000000" x="295.000000" y="72.273578" fill="rgb(255, 255, 255)" style="fill-opacity:1.00" />
<!-- End 'C' -->
<!-- Begin 'T' -->
<rect height="0.980082" width="50.000000" x="270.000000" y="99.342886" fill="rgb(0, 100, 0)" style="fill-opacity:1.00" />
<rect height="6.125513" width="10.000000" x="290.000000" y="99.342886" fill="rgb(0, 100, 0)" style="fill-opacity:1.00" />
<!-- End 'T' -->
<!-- Begin 'A' -->
<polygon points=" 270.000000, 109.176250, 291.000000, 105.468399, 299.000000, 105.468399, 320.000000, 109.176250, 312.500000, 109.176250, 306.250000, 108.249287, 283.750000, 108.249287, 277.500000, 109.176250" fill="rgb(178, 34, 34)" style="fill-opacity:1.00" />
<!-- End 'A' -->
<!-- Begin 'G' -->
<ellipse cx="295.000000" cy="109.588125" rx="25.000000" ry="0.411875" fill="rgb(255, 165, 0)" style="fill-opacity:1.00" />
<ellipse cx="295.000000" cy="109.588125" rx="16.666667" ry="0.274583" fill="rgb(255, 255, 255)" style="fill-opacity:1.00" />
<rect height="0.411875" width="25.000000" x="295.000000" y="109.382187" fill="rgb(255, 255, 255)" style="fill-opacity:1.00" />
<rect height="0.102969" width="25.000000" x="295.000000" y="109.691094" fill="rgb(255, 165, 0)" style="fill-opacity:1.00" />
<rect height="0.308906" width="6.250000" x="313.750000" y="109.691094" fill="rgb(255, 165, 0)" style="fill-opacity:1.00" />
<!-- End 'G' -->
<!-- Begin 'A' -->
<polygon points=" 330.000000, 94.682716, 351.000000, 56.583660, 359.000000, 56.583660, 380.000000, 94.682716, 372.500000, 94.682716, 366.250000, 85.157952, 343.750000, 85.157952, 337.500000, 94.682716" fill="rgb(178, 34, 34)" style="fill-opacity:1.00" />
<polygon points=" 355.000000, 64.203471, 347.000000, 78.443093, 362.000000, 78.443093" fill="rgb(255, 255, 255)" style="fill-opacity:1.00" />
<!-- End 'A' -->
<!-- Begin 'C' -->
<ellipse cx="355.000000" cy="102.096040" rx="25.000000" ry="7.413324" fill="rgb(0, 0, 128)" style="fill-opacity:1.00" />
<ellipse cx="355.000000" cy="102.096040" rx="16.666667" ry="4.942216" fill="rgb(255, 255, 255)" style="fill-opacity:1.00" />
<rect height="7.413324" width="25.000000" x="355.000000" y="98.389378" fill="rgb(255, 255, 255)" style="fill-opacity:1.00" />
<!-- End 'C' -->
<!-- Begin 'T' -->
<rect height="0.051319" width="50.000000" x="330.000000" y="109.509364" fill="rgb(0, 100, 0)" style="fill-opacity:1.00" />
<rect height="0.320746" width="10.000000" x="350.000000" y="109.509364" fill="rgb(0, 100, 0)" style="fill-opacity:1.00" />
<!-- End 'T' -->
<!-- Begin 'G' -->
<ellipse cx="355.000000" cy="109.915055" rx="25.000000" ry="0.084945" fill="rgb(255, 165, 0)" style="fill-opacity:1.00" />
<ellipse cx="355.000000" cy="109.915055" rx="16.666667" ry="0.056630" fill="rgb(255, 255, 255)" style="fill-opacity:1.00" />
<rect height="0.084945" width="25.000000" x="355.000000" y="109.872582" fill="rgb(255, 255, 255)" style="fill-opacity:1.00" />
<rect height="0.021236" width="25.000000" x="355.000000" y="109.936291" fill="rgb(255, 165, 0)" style="fill-opacity:1.00" />
<rect height="0.063709" width="6.250000" x="373.750000" y="109.936291" fill="rgb(255, 165, 0)" style="fill-opacity:1.00" />
<!-- End 'G' -->
<!-- Begin 'C' -->
<ellipse cx="415.000000" cy="62.671033" rx="25.000000" ry="45.799774" fill="rgb(0, 0, 128)" style="fill-opacity:1.00" />
<ellipse cx="415.000000" cy="62.671033" rx="16.666667" ry="30.533182" fill="rgb(255, 255, 255)" style="fill-opacity:1.00" />
<rect height="45.799774" width="25.000000" x="415.000000" y="39.771146" fill="rgb(255, 255, 255)" style="fill-opacity:1.00" />
<!-- End 'C' -->
<!-- Begin 'A' -->
<polygon points=" 390.000000, 109.643843, 411.000000, 108.470806, 419.000000, 108.470806, 440.000000, 109.643843, 432.500000, 109.643843, 426.250000, 109.350583, 403.750000, 109.350583, 397.500000, 109.643843" fill="rgb(178, 34, 34)" style="fill-opacity:1.00" />
<!-- End 'A' -->
<!-- Begin 'G' -->
<ellipse cx="415.000000" cy="109.749443" rx="25.000000" ry="0.105601" fill="rgb(255, 165, 0)" style="fill-opacity:1.00" />
<ellipse cx="415.000000" cy="109.749443" rx="16.666667" ry="0.070400" fill="rgb(255, 255, 255)" style="fill-opacity:1.00" />
<rect height="0.105601" width="25.000000" x="415.000000" y="109.696643" fill="rgb(255, 255, 255)" style="fill-opacity:1.00" />
<rect height="0.026400" width="25.000000" x="415.000000" y="109.775843" fill="rgb(255, 165, 0)" style="fill-opacity:1.00" />
<rect height="0.079200" width="6.250000" x="433.750000" y="109.775843" fill="rgb(255, 165, 0)" style="fill-opacity:1.00" />
<!-- End 'G' -->
<!-- Begin 'T' -->
<rect height="0.023193" width="50.000000" x="390.000000" y="109.855044" fill="rgb(0, 100, 0)" style="fill-opacity:1.00" />
<rect height="0.144956" width="10.000000" x="410.000000" y="109.855044" fill="rgb(0, 100, 0)" style="fill-opacity:1.00" />
<!-- End 'T' -->
<!-- Begin 'A' -->
<polygon points=" 450.000000, 96.727641, 471.000000, 64.572345, 479.000000, 64.572345, 500.000000, 96.727641, 492.500000, 96.727641, 486.250000, 88.688817, 463.750000, 88.688817, 457.500000, 96.727641" fill="rgb(178, 34, 34)" style="fill-opacity:1.00" />
<polygon points=" 475.000000, 71.003404, 467.000000, 82.865522, 482.000000, 82.865522" fill="rgb(255, 255, 255)" style="fill-opacity:1.00" />
<!-- End 'A' -->
<!-- Begin 'G' -->
<ellipse cx="475.000000" cy="102.051192" rx="25.000000" ry="5.323551" fill="rgb(255, 165, 0)" style="fill-opacity:1.00" />
<ellipse cx="475.000000" cy="102.051192" rx="16.666667" ry="3.549034" fill="rgb(255, 255, 255)" style="fill-opacity:1.00" />
<rect height="5.323551" width="25.000000" x="475.000000" y="99.389416" fill="rgb(255, 255, 255)" style="fill-opacity:1.00" />
<rect height="1.330888" width="25.000000" x="475.000000" y="103.382079" fill="rgb(255, 165, 0)" style="fill-opacity:1.00" />
<rect height="3.992663" width="6.250000" x="493.750000" y="103.382079" fill="rgb(255, 165, 0)" style="fill-opacity:1.00" />
<!-- End 'G' -->
<!-- Begin 'T' -->
<rect height="0.408749" width="50.000000" x="450.000000" y="107.374742" fill="rgb(0, 100, 0)" style="fill-opacity:1.00" />
<rect height="2.554681" width="10.000000" x="470.000000" y="107.374742" fill="rgb(0, 100, 0)" style="fill-opacity:1.00" />
<!-- End 'T' -->
<!-- Begin 'C' -->
<ellipse cx="475.000000" cy="109.964712" rx="25.000000" ry="0.035288" fill="rgb(0, 0, 128)" style="fill-opacity:1.00" />
<ellipse cx="475.000000" cy="109.964712" rx="16.666667" ry="0.023526" fill="rgb(255, 255, 255)" style="fill-opacity:1.00" />
<rect height="0.035288" width="25.000000" x="475.000000" y="109.947067" fill="rgb(255, 255, 255)" style="fill-opacity:1.00" />
<!-- End 'C' -->
<!-- Begin 'C' -->
<ellipse cx="535.000000" cy="63.012346" rx="25.000000" ry="45.389086" fill="rgb(0, 0, 128)" style="fill-opacity:1.00" />
<ellipse cx="535.000000" cy="63.012346" rx="16.666667" ry="30.259390" fill="rgb(255, 255, 255)" style="fill-opacity:1.00" />
<rect height="45.389086" width="25.000000" x="535.000000" y="40.317803" fill="rgb(255, 255, 255)" style="fill-opacity:1.00" />
<!-- End 'C' -->
<!-- Begin 'G' -->
<ellipse cx="535.000000" cy="108.776753" rx="25.000000" ry="0.375321" fill="rgb(255, 165, 0)" style="fill-opacity:1.00" />
<ellipse cx="535.000000" cy="108.776753" rx="16.666667" ry="0.250214" fill="rgb(255, 255, 255)" style="fill-opacity:1.00" />
<rect height="0.375321" width="25.000000" x="535.000000" y="108.589092" fill="rgb(255, 255, 255)" style="fill-opacity:1.00" />
<rect height="0.093830" width="25.000000" x="535.000000" y="108.870583" fill="rgb(255, 165, 0)" style="fill-opacity:1.00" />
<rect height="0.281491" width="6.250000" x="553.750000" y="108.870583" fill="rgb(255, 165, 0)" style="fill-opacity:1.00" />
<!-- End 'G' -->
<!-- Begin 'A' -->
<polygon points=" 510.000000, 109.580380, 531.000000, 109.152073, 539.000000, 109.152073, 560.000000, 109.580380, 552.500000, 109.580380, 546.250000, 109.473303, 523.750000, 109.473303, 517.500000, 109.580380" fill="rgb(178, 34, 34)" style="fill-opacity:1.00" />
<!-- End 'A' -->
<!-- Begin 'T' -->
<rect height="0.067139" width="50.000000" x="510.000000" y="109.580380" fill="rgb(0, 100, 0)" style="fill-opacity:1.00" />
<rect height="0.419620" width="10.000000" x="530.000000" y="109.580380" fill="rgb(0, 100, 0)" style="fill-opacity:1.00" />
<!-- End 'T' -->
<!-- Begin 'C' -->
<ellipse cx="595.000000" cy="66.186371" rx="25.000000" ry="39.868521" fill="rgb(0, 0, 128)" style="fill-opacity:1.00" />
<ellipse cx="595.000000" cy="66.186371" rx="16.666667" ry="26.579014" fill="rgb(255, 255, 255)" style="fill-opacity:1.00" />
<rect height="39.868521" width="25.000000" x="595.000000" y="46.252111" fill="rgb(255, 255, 255)" style="fill-opacity:1.00" />
<!-- End 'C' -->
<!-- Begin 'A' -->
<polygon points=" 570.000000, 108.802739, 591.000000, 106.054892, 599.000000, 106.054892, 620.000000, 108.802739, 612.500000, 108.802739, 606.250000, 108.115777, 583.750000, 108.115777, 577.500000, 108.802739" fill="rgb(178, 34, 34)" style="fill-opacity:1.00" />
<!-- End 'A' -->
<!-- Begin 'T' -->
<rect height="0.152277" width="50.000000" x="570.000000" y="108.802739" fill="rgb(0, 100, 0)" style="fill-opacity:1.00" />
<rect height="0.951734" width="10.000000" x="590.000000" y="108.802739" fill="rgb(0, 100, 0)" style="fill-opacity:1.00" />
<!-- End 'T' -->
<!-- Begin 'G' -->
<ellipse cx="595.000000" cy="109.877236" rx="25.000000" ry="0.122764" fill="rgb(255, 165, 0)" style="fill-opacity:1.00" />
<ellipse cx="595.000000" cy="109.877236" rx="16.666667" ry="0.081842" fill="rgb(255, 255, 255)" style="fill-opacity:1.00" />
<rect height="0.122764" width="25.000000" x="595.000000" y="109.815855" fill="rgb(255, 255, 255)" style="fill-opacity:1.00" />
<rect height="0.030691" width="25.000000" x="595.000000" y="109.907927" fill="rgb(255, 165, 0)" style="fill-opacity:1.00" />
<rect height="0.092073" width="6.250000" x="613.750000" y="109.907927" fill="rgb(255, 165, 0)" style="fill-opacity:1.00" />
<!-- End 'G' -->
<!-- Begin 'C' -->
<ellipse cx="655.000000" cy="69.467533" rx="25.000000" ry="32.392254" fill="rgb(0, 0, 128)" style="fill-opacity:1.00" />
<ellipse cx="655.000000" cy="69.467533" rx="16.666667" ry="21.594836" fill="rgb(255, 255, 255)" style="fill-opacity:1.00" />
<rect height="32.392254" width="25.000000" x="655.000000" y="53.271406" fill="rgb(255, 255, 255)" style="fill-opacity:1.00" />
<!-- End 'C' -->
<!-- Begin 'T' -->
<rect height="1.227166" width="50.000000" x="630.000000" y="101.859786" fill="rgb(0, 100, 0)" style="fill-opacity:1.00" />
<rect height="7.669787" width="10.000000" x="650.000000" y="101.859786" fill="rgb(0, 100, 0)" style="fill-opacity:1.00" />
<!-- End 'T' -->
<!-- Begin 'A' -->
<polygon points=" 630.000000, 109.987474, 651.000000, 109.529574, 659.000000, 109.529574, 680.000000, 109.987474, 672.500000, 109.987474, 666.250000, 109.872999, 643.750000, 109.872999, 637.500000, 109.987474" fill="rgb(178, 34, 34)" style="fill-opacity:1.00" />
<!-- End 'A' -->
<!-- Begin 'G' -->
<ellipse cx="655.000000" cy="109.993737" rx="25.000000" ry="0.006263" fill="rgb(255, 165, 0)" style="fill-opacity:1.00" />
<ellipse cx="655.000000" cy="109.993737" rx="16.666667" ry="0.004175" fill="rgb(255, 255, 255)" style="fill-opacity:1.00" />
<rect height="0.006263" width="25.000000" x="655.000000" y="109.990606" fill="rgb(255, 255, 255)" style="fill-opacity:1.00" />
<rect height="0.001566" width="25.000000" x="655.000000" y="109.995303" fill="rgb(255, 165, 0)" style="fill-opacity:1.00" />
<rect height="0.004697" width="6.250000" x="673.750000" y="109.995303" fill="rgb(255, 165, 0)" style="fill-opacity:1.00" />
<!-- End 'G' -->
<!-- Begin 'A' -->
<polygon points=" 690.000000, 97.550901, 711.000000, 84.251090, 719.000000, 84.251090, 740.000000, 97.550901, 732.500000, 97.550901, 726.250000, 94.225948, 703.750000, 94.225948, 697.500000, 97.550901" fill="rgb(178, 34, 34)" style="fill-opacity:1.00" />
<polygon points=" 715.000000, 86.911052, 707.000000, 91.230976, 722.000000, 91.230976" fill="rgb(255, 255, 255)" style="fill-opacity:1.00" />
<!-- End 'A' -->
<!-- Begin 'T' -->
<rect height="1.446726" width="50.000000" x="690.000000" y="97.550901" fill="rgb(0, 100, 0)" style="fill-opacity:1.00" />
<rect height="9.042038" width="10.000000" x="710.000000" y="97.550901" fill="rgb(0, 100, 0)" style="fill-opacity:1.00" />
<!-- End 'T' -->
<!-- Begin 'C' -->
<ellipse cx="715.000000" cy="108.062164" rx="25.000000" ry="1.469225" fill="rgb(0, 0, 128)" style="fill-opacity:1.00" />
<ellipse cx="715.000000" cy="108.062164" rx="16.666667" ry="0.979483" fill="rgb(255, 255, 255)" style="fill-opacity:1.00" />
<rect height="1.469225" width="25.000000" x="715.000000" y="107.327551" fill="rgb(255, 255, 255)" style="fill-opacity:1.00" />
<!-- End 'C' -->
<!-- Begin 'G' -->
<ellipse cx="715.000000" cy="109.765695" rx="25.000000" ry="0.234305" fill="rgb(255, 165, 0)" style="fill-opacity:1.00" />
<ellipse cx="715.000000" cy="109.765695" rx="16.666667" ry="0.156204" fill="rgb(255, 255, 255)" style="fill-opacity:1.00" />
<rect height="0.234305" width="25.000000" x="715.000000" y="109.648542" fill="rgb(255, 255, 255)" style="fill-opacity:1.00" />
<rect height="0.058576" width="25.000000" x="715.000000" y="109.824271" fill="rgb(255, 165, 0)" style="fill-opacity:1.00" />
<rect height="0.175729" width="6.250000" x="733.750000" y="109.824271" fill="rgb(255, 165, 0)" style="fill-opacity:1.00" />
<!-- End 'G' -->
<text x="400.000000" y="165">
IC = 11.34
</text>

</svg>
