<?xml version="1.0" encoding="UTF-8" standalone="yes"?>
                 <!DOCTYPE svg PUBLIC "-//W3C//DTD SVG 1.0//EN" "http://www.w3.org/TR/2001/REC-SVG-20010904/DTD/svg10.dtd">
                 <svg height="170" width="780" xmlns="http://www.w3.org/2000/svg" xmlns:xlink="http://www.w3.org/1999/xlink">
                 <line x1="85" y1="120" x2="747" y2="120" style="stroke:rgb(99,99,99);stroke-width:2" />
<rect height="7.000000" width="2.000000" x="85.000000" y="120.000000" fill="rgb(0, 0, 0)" style="fill-opacity:1.00" />
<text x="107.000000" y="140">
1
</text>
<rect height="7.000000" width="2.000000" x="145.000000" y="120.000000" fill="rgb(0, 0, 0)" style="fill-opacity:1.00" />
<text x="167.000000" y="140">
2
</text>
<rect height="7.000000" width="2.000000" x="205.000000" y="120.000000" fill="rgb(0, 0, 0)" style="fill-opacity:1.00" />
<text x="227.000000" y="140">
3
</text>
<rect height="7.000000" width="2.000000" x="265.000000" y="120.000000" fill="rgb(0, 0, 0)" style="fill-opacity:1.00" />
<text x="287.000000" y="140">
4
</text>
<rect height="7.000000" width="2.000000" x="325.000000" y="120.000000" fill="rgb(0, 0, 0)" style="fill-opacity:1.00" />
<text x="347.000000" y="140">
5
</text>
<rect height="7.000000" width="2.000000" x="385.000000" y="120.000000" fill="rgb(0, 0, 0)" style="fill-opacity:1.00" />
<text x="407.000000" y="140">
6
</text>
<rect height="7.000000" width="2.000000" x="445.000000" y="120.000000" fill="rgb(0, 0, 0)" style="fill-opacity:1.00" />
<text x="467.000000" y="140">
7
</text>
<rect height="7.000000" width="2.000000" x="505.000000" y="120.000000" fill="rgb(0, 0, 0)" style="fill-opacity:1.00" />
<text x="527.000000" y="140">
8
</text>
<rect height="7.000000" width="2.000000" x="565.000000" y="120.000000" fill="rgb(0, 0, 0)" style="fill-opacity:1.00" />
<text x="587.000000" y="140">
9
</text>
<rect height="7.000000" width="2.000000" x="625.000000" y="120.000000" fill="rgb(0, 0, 0)" style="fill-opacity:1.00" />
<text x="647.000000" y="140">
10
</text>
<rect height="7.000000" width="2.000000" x="685.000000" y="120.000000" fill="rgb(0, 0, 0)" style="fill-opacity:1.00" />
<text x="707.000000" y="140">
11
</text>
<rect height="7.000000" width="2.000000" x="745.000000" y="120.000000" fill="rgb(0, 0, 0)" style="fill-opacity:1.00" />
<line x1="80" y1="112" x2="80" y2="10" style="stroke:rgb(99,99,99);stroke-width:2" />
<rect height="2.000000" width="7.000000" x="73.000000" y="110.000000" fill="rgb(0, 0, 0)" style="fill-opacity:1.00" />
<text x="63" y="115">
0
</text>
<rect height="2.000000" width="7.000000" x="73.000000" y="60.000000" fill="rgb(0, 0, 0)" style="fill-opacity:1.00" />
<text x="63" y="65">
1
</text>
<rect height="2.000000" width="7.000000" x="73.000000" y="10.000000" fill="rgb(0, 0, 0)" style="fill-opacity:1.00" />
<text x="63" y="15">
2
</text>
<text x="50" y="65"
transform="rotate(-90, 50, 70)">
bits
</text>
<!-- Begin 'G' -->
<ellipse cx="115.000000" cy="105.282357" rx="25.000000" ry="1.299635" fill="rgb(255, 165, 0)" style="fill-opacity:1.00" />
<ellipse cx="115.000000" cy="105.282357" rx="16.666667" ry="0.866423" fill="rgb(255, 255, 255)" style="fill-opacity:1.00" />
<rect height="1.299635" width="25.000000" x="115.000000" y="104.632540" fill="rgb(255, 255, 255)" style="fill-opacity:1.00" />
<rect height="0.324909" width="25.000000" x="115.000000" y="105.607266" fill="rgb(255, 165, 0)" style="fill-opacity:1.00" />
<rect height="0.974726" width="6.250000" x="133.750000" y="105.607266" fill="rgb(255, 165, 0)" style="fill-opacity:1.00" />
<!-- End 'G' -->
<!-- Begin 'C' -->
<ellipse cx="115.000000" cy="107.235702" rx="25.000000" ry="0.653710" fill="rgb(0, 0, 128)" style="fill-opacity:1.00" />
<ellipse cx="115.000000" cy="107.235702" rx="16.666667" ry="0.435807" fill="rgb(255, 255, 255)" style="fill-opacity:1.00" />
<rect height="0.653710" width="25.000000" x="115.000000" y="106.908847" fill="rgb(255, 255, 255)" style="fill-opacity:1.00" />
<!-- End 'C' -->
<!-- Begin 'T' -->
<rect height="0.186902" width="50.000000" x="90.000000" y="107.889411" fill="rgb(0, 100, 0)" style="fill-opacity:1.00" />
<rect height="1.168138" width="10.000000" x="110.000000" y="107.889411" fill="rgb(0, 100, 0)" style="fill-opacity:1.00" />
<!-- End 'T' -->
<!-- Begin 'A' -->
<polygon points=" 90.000000, 110.000000, 111.000000, 109.057550, 119.000000, 109.057550, 140.000000, 110.000000, 132.500000, 110.000000, 126.250000, 109.764387, 103.750000, 109.764387, 97.500000, 110.000000" fill="rgb(178, 34, 34)" style="fill-opacity:1.00" />
<!-- End 'A' -->
<!-- Begin 'T' -->
<rect height="0.144465" width="50.000000" x="150.000000" y="107.197392" fill="rgb(0, 100, 0)" style="fill-opacity:1.00" />
<rect height="0.902905" width="10.000000" x="170.000000" y="107.197392" fill="rgb(0, 100, 0)" style="fill-opacity:1.00" />
<!-- End 'T' -->
<!-- Begin 'G' -->
<ellipse cx="175.000000" cy="108.537392" rx="25.000000" ry="0.437095" fill="rgb(255, 165, 0)" style="fill-opacity:1.00" />
<ellipse cx="175.000000" cy="108.537392" rx="16.666667" ry="0.291396" fill="rgb(255, 255, 255)" style="fill-opacity:1.00" />
<rect height="0.437095" width="25.000000" x="175.000000" y="108.318844" fill="rgb(255, 255, 255)" style="fill-opacity:1.00" />
<rect height="0.109274" width="25.000000" x="175.000000" y="108.646665" fill="rgb(255, 165, 0)" style="fill-opacity:1.00" />
<rect height="0.327821" width="6.250000" x="193.750000" y="108.646665" fill="rgb(255, 165, 0)" style="fill-opacity:1.00" />
<!-- End 'G' -->
<!-- Begin 'C' -->
<ellipse cx="175.000000" cy="109.259998" rx="25.000000" ry="0.285512" fill="rgb(0, 0, 128)" style="fill-opacity:1.00" />
<ellipse cx="175.000000" cy="109.259998" rx="16.666667" ry="0.190341" fill="rgb(255, 255, 255)" style="fill-opacity:1.00" />
<rect height="0.285512" width="25.000000" x="175.000000" y="109.117242" fill="rgb(255, 255, 255)" style="fill-opacity:1.00" />
<!-- End 'C' -->
<!-- Begin 'A' -->
<polygon points=" 150.000000, 110.000000, 171.000000, 109.545510, 179.000000, 109.545510, 200.000000, 110.000000, 192.500000, 110.000000, 186.250000, 109.886378, 163.750000, 109.886378, 157.500000, 110.000000" fill="rgb(178, 34, 34)" style="fill-opacity:1.00" />
<!-- End 'A' -->
<!-- Begin 'C' -->
<ellipse cx="235.000000" cy="107.219998" rx="25.000000" ry="0.671606" fill="rgb(0, 0, 128)" style="fill-opacity:1.00" />
<ellipse cx="235.000000" cy="107.219998" rx="16.666667" ry="0.447737" fill="rgb(255, 255, 255)" style="fill-opacity:1.00" />
<rect height="0.671606" width="25.000000" x="235.000000" y="106.884195" fill="rgb(255, 255, 255)" style="fill-opacity:1.00" />
<!-- End 'C' -->
<!-- Begin 'A' -->
<polygon points=" 210.000000, 108.651603, 231.000000, 107.891604, 239.000000, 107.891604, 260.000000, 108.651603, 252.500000, 108.651603, 246.250000, 108.461603, 223.750000, 108.461603, 217.500000, 108.651603" fill="rgb(178, 34, 34)" style="fill-opacity:1.00" />
<!-- End 'A' -->
<!-- Begin 'T' -->
<rect height="0.108496" width="50.000000" x="210.000000" y="108.651603" fill="rgb(0, 100, 0)" style="fill-opacity:1.00" />
<rect height="0.678098" width="10.000000" x="230.000000" y="108.651603" fill="rgb(0, 100, 0)" style="fill-opacity:1.00" />
<!-- End 'T' -->
<!-- Begin 'G' -->
<ellipse cx="235.000000" cy="109.664851" rx="25.000000" ry="0.335149" fill="rgb(255, 165, 0)" style="fill-opacity:1.00" />
<ellipse cx="235.000000" cy="109.664851" rx="16.666667" ry="0.223433" fill="rgb(255, 255, 255)" style="fill-opacity:1.00" />
<rect height="0.335149" width="25.000000" x="235.000000" y="109.497276" fill="rgb(255, 255, 255)" style="fill-opacity:1.00" />
<rect height="0.083787" width="25.000000" x="235.000000" y="109.748638" fill="rgb(255, 165, 0)" style="fill-opacity:1.00" />
<rect height="0.251362" width="6.250000" x="253.750000" y="109.748638" fill="rgb(255, 165, 0)" style="fill-opacity:1.00" />
<!-- End 'G' -->
<!-- Begin 'T' -->
<rect height="7.251748" width="50.000000" x="270.000000" y="54.451616" fill="rgb(0, 100, 0)" style="fill-opacity:1.00" />
<rect height="45.323426" width="10.000000" x="290.000000" y="54.451616" fill="rgb(0, 100, 0)" style="fill-opacity:1.00" />
<!-- End 'T' -->
<!-- Begin 'A' -->
<polygon points=" 270.000000, 107.295020, 291.000000, 99.775042, 299.000000, 99.775042, 320.000000, 107.295020, 312.500000, 107.295020, 306.250000, 105.415025, 283.750000, 105.415025, 277.500000, 107.295020" fill="rgb(178, 34, 34)" style="fill-opacity:1.00" />
<!-- End 'A' -->
<!-- Begin 'G' -->
<ellipse cx="295.000000" cy="108.131885" rx="25.000000" ry="0.836865" fill="rgb(255, 165, 0)" style="fill-opacity:1.00" />
<ellipse cx="295.000000" cy="108.131885" rx="16.666667" ry="0.557910" fill="rgb(255, 255, 255)" style="fill-opacity:1.00" />
<rect height="0.836865" width="25.000000" x="295.000000" y="107.713452" fill="rgb(255, 255, 255)" style="fill-opacity:1.00" />
<rect height="0.209216" width="25.000000" x="295.000000" y="108.341101" fill="rgb(255, 165, 0)" style="fill-opacity:1.00" />
<rect height="0.627649" width="6.250000" x="313.750000" y="108.341101" fill="rgb(255, 165, 0)" style="fill-opacity:1.00" />
<!-- End 'G' -->
<!-- Begin 'C' -->
<ellipse cx="295.000000" cy="109.484375" rx="25.000000" ry="0.515625" fill="rgb(0, 0, 128)" style="fill-opacity:1.00" />
<ellipse cx="295.000000" cy="109.484375" rx="16.666667" ry="0.343750" fill="rgb(255, 255, 255)" style="fill-opacity:1.00" />
<rect height="0.515625" width="25.000000" x="295.000000" y="109.226563" fill="rgb(255, 255, 255)" style="fill-opacity:1.00" />
<!-- End 'C' -->
<!-- Begin 'G' -->
<ellipse cx="355.000000" cy="68.034694" rx="25.000000" ry="36.616014" fill="rgb(255, 165, 0)" style="fill-opacity:1.00" />
<ellipse cx="355.000000" cy="68.034694" rx="16.666667" ry="24.410676" fill="rgb(255, 255, 255)" style="fill-opacity:1.00" />
<rect height="36.616014" width="25.000000" x="355.000000" y="49.726688" fill="rgb(255, 255, 255)" style="fill-opacity:1.00" />
<rect height="9.154003" width="25.000000" x="355.000000" y="77.188698" fill="rgb(255, 165, 0)" style="fill-opacity:1.00" />
<rect height="27.462010" width="6.250000" x="373.750000" y="77.188698" fill="rgb(255, 165, 0)" style="fill-opacity:1.00" />
<!-- End 'G' -->
<!-- Begin 'C' -->
<ellipse cx="355.000000" cy="106.625551" rx="25.000000" ry="1.974843" fill="rgb(0, 0, 128)" style="fill-opacity:1.00" />
<ellipse cx="355.000000" cy="106.625551" rx="16.666667" ry="1.316562" fill="rgb(255, 255, 255)" style="fill-opacity:1.00" />
<rect height="1.974843" width="25.000000" x="355.000000" y="105.638130" fill="rgb(255, 255, 255)" style="fill-opacity:1.00" />
<!-- End 'C' -->
<!-- Begin 'T' -->
<rect height="0.176729" width="50.000000" x="330.000000" y="108.600394" fill="rgb(0, 100, 0)" style="fill-opacity:1.00" />
<rect height="1.104558" width="10.000000" x="350.000000" y="108.600394" fill="rgb(0, 100, 0)" style="fill-opacity:1.00" />
<!-- End 'T' -->
<!-- Begin 'A' -->
<polygon points=" 330.000000, 110.000000, 351.000000, 109.704953, 359.000000, 109.704953, 380.000000, 110.000000, 372.500000, 110.000000, 366.250000, 109.926238, 343.750000, 109.926238, 337.500000, 110.000000" fill="rgb(178, 34, 34)" style="fill-opacity:1.00" />
<!-- End 'A' -->
<!-- Begin 'T' -->
<rect height="7.509268" width="50.000000" x="390.000000" y="53.727416" fill="rgb(0, 100, 0)" style="fill-opacity:1.00" />
<rect height="46.932924" width="10.000000" x="410.000000" y="53.727416" fill="rgb(0, 100, 0)" style="fill-opacity:1.00" />
<!-- End 'T' -->
<!-- Begin 'C' -->
<ellipse cx="415.000000" cy="103.280029" rx="25.000000" ry="2.619689" fill="rgb(0, 0, 128)" style="fill-opacity:1.00" />
<ellipse cx="415.000000" cy="103.280029" rx="16.666667" ry="1.746459" fill="rgb(255, 255, 255)" style="fill-opacity:1.00" />
<rect height="2.619689" width="25.000000" x="415.000000" y="101.970184" fill="rgb(255, 255, 255)" style="fill-opacity:1.00" />
<!-- End 'C' -->
<!-- Begin 'A' -->
<polygon points=" 390.000000, 108.867324, 411.000000, 105.899717, 419.000000, 105.899717, 440.000000, 108.867324, 432.500000, 108.867324, 426.250000, 108.125423, 403.750000, 108.125423, 397.500000, 108.867324" fill="rgb(178, 34, 34)" style="fill-opacity:1.00" />
<!-- End 'A' -->
<!-- Begin 'G' -->
<ellipse cx="415.000000" cy="109.433662" rx="25.000000" ry="0.566338" fill="rgb(255, 165, 0)" style="fill-opacity:1.00" />
<ellipse cx="415.000000" cy="109.433662" rx="16.666667" ry="0.377559" fill="rgb(255, 255, 255)" style="fill-opacity:1.00" />
<rect height="0.566338" width="25.000000" x="415.000000" y="109.150493" fill="rgb(255, 255, 255)" style="fill-opacity:1.00" />
<rect height="0.141584" width="25.000000" x="415.000000" y="109.575247" fill="rgb(255, 165, 0)" style="fill-opacity:1.00" />
<rect height="0.424753" width="6.250000" x="433.750000" y="109.575247" fill="rgb(255, 165, 0)" style="fill-opacity:1.00" />
<!-- End 'G' -->
<!-- Begin 'G' -->
<ellipse cx="475.000000" cy="65.821790" rx="25.000000" ry="39.951574" fill="rgb(255, 165, 0)" style="fill-opacity:1.00" />
<ellipse cx="475.000000" cy="65.821790" rx="16.666667" ry="26.634382" fill="rgb(255, 255, 255)" style="fill-opacity:1.00" />
<rect height="39.951574" width="25.000000" x="475.000000" y="45.846003" fill="rgb(255, 255, 255)" style="fill-opacity:1.00" />
<rect height="9.987893" width="25.000000" x="475.000000" y="75.809683" fill="rgb(255, 165, 0)" style="fill-opacity:1.00" />
<rect height="29.963680" width="6.250000" x="493.750000" y="75.809683" fill="rgb(255, 165, 0)" style="fill-opacity:1.00" />
<!-- End 'G' -->
<!-- Begin 'T' -->
<rect height="0.604042" width="50.000000" x="450.000000" y="105.773363" fill="rgb(0, 100, 0)" style="fill-opacity:1.00" />
<rect height="3.775261" width="10.000000" x="470.000000" y="105.773363" fill="rgb(0, 100, 0)" style="fill-opacity:1.00" />
<!-- End 'T' -->
<!-- Begin 'A' -->
<polygon points=" 450.000000, 109.774997, 471.000000, 109.548624, 479.000000, 109.548624, 500.000000, 109.774997, 492.500000, 109.774997, 486.250000, 109.718404, 463.750000, 109.718404, 457.500000, 109.774997" fill="rgb(178, 34, 34)" style="fill-opacity:1.00" />
<!-- End 'A' -->
<!-- Begin 'C' -->
<ellipse cx="475.000000" cy="109.887498" rx="25.000000" ry="0.112502" fill="rgb(0, 0, 128)" style="fill-opacity:1.00" />
<ellipse cx="475.000000" cy="109.887498" rx="16.666667" ry="0.075001" fill="rgb(255, 255, 255)" style="fill-opacity:1.00" />
<rect height="0.112502" width="25.000000" x="475.000000" y="109.831248" fill="rgb(255, 255, 255)" style="fill-opacity:1.00" />
<!-- End 'C' -->
<!-- Begin 'G' -->
<ellipse cx="535.000000" cy="85.292339" rx="25.000000" ry="12.482063" fill="rgb(255, 165, 0)" style="fill-opacity:1.00" />
<ellipse cx="535.000000" cy="85.292339" rx="16.666667" ry="8.321375" fill="rgb(255, 255, 255)" style="fill-opacity:1.00" />
<rect height="12.482063" width="25.000000" x="535.000000" y="79.051307" fill="rgb(255, 255, 255)" style="fill-opacity:1.00" />
<rect height="3.120516" width="25.000000" x="535.000000" y="88.412855" fill="rgb(255, 165, 0)" style="fill-opacity:1.00" />
<rect height="9.361547" width="6.250000" x="553.750000" y="88.412855" fill="rgb(255, 165, 0)" style="fill-opacity:1.00" />
<!-- End 'G' -->
<!-- Begin 'T' -->
<rect height="1.469775" width="50.000000" x="510.000000" y="97.774402" fill="rgb(0, 100, 0)" style="fill-opacity:1.00" />
<rect height="9.186097" width="10.000000" x="530.000000" y="97.774402" fill="rgb(0, 100, 0)" style="fill-opacity:1.00" />
<!-- End 'T' -->
<!-- Begin 'C' -->
<ellipse cx="535.000000" cy="107.942828" rx="25.000000" ry="0.982329" fill="rgb(0, 0, 128)" style="fill-opacity:1.00" />
<ellipse cx="535.000000" cy="107.942828" rx="16.666667" ry="0.654886" fill="rgb(255, 255, 255)" style="fill-opacity:1.00" />
<rect height="0.982329" width="25.000000" x="535.000000" y="107.451663" fill="rgb(255, 255, 255)" style="fill-opacity:1.00" />
<!-- End 'C' -->
<!-- Begin 'A' -->
<polygon points=" 510.000000, 110.000000, 531.000000, 108.925157, 539.000000, 108.925157, 560.000000, 110.000000, 552.500000, 110.000000, 546.250000, 109.731289, 523.750000, 109.731289, 517.500000, 110.000000" fill="rgb(178, 34, 34)" style="fill-opacity:1.00" />
<!-- End 'A' -->
<!-- Begin 'T' -->
<rect height="1.975750" width="50.000000" x="570.000000" y="86.986751" fill="rgb(0, 100, 0)" style="fill-opacity:1.00" />
<rect height="12.348437" width="10.000000" x="590.000000" y="86.986751" fill="rgb(0, 100, 0)" style="fill-opacity:1.00" />
<!-- End 'T' -->
<!-- Begin 'G' -->
<ellipse cx="595.000000" cy="102.215848" rx="25.000000" ry="2.880660" fill="rgb(255, 165, 0)" style="fill-opacity:1.00" />
<ellipse cx="595.000000" cy="102.215848" rx="16.666667" ry="1.920440" fill="rgb(255, 255, 255)" style="fill-opacity:1.00" />
<rect height="2.880660" width="25.000000" x="595.000000" y="100.775518" fill="rgb(255, 255, 255)" style="fill-opacity:1.00" />
<rect height="0.720165" width="25.000000" x="595.000000" y="102.936013" fill="rgb(255, 165, 0)" style="fill-opacity:1.00" />
<rect height="2.160495" width="6.250000" x="613.750000" y="102.936013" fill="rgb(255, 165, 0)" style="fill-opacity:1.00" />
<!-- End 'G' -->
<!-- Begin 'C' -->
<ellipse cx="595.000000" cy="107.362918" rx="25.000000" ry="2.266410" fill="rgb(0, 0, 128)" style="fill-opacity:1.00" />
<ellipse cx="595.000000" cy="107.362918" rx="16.666667" ry="1.510940" fill="rgb(255, 255, 255)" style="fill-opacity:1.00" />
<rect height="2.266410" width="25.000000" x="595.000000" y="106.229713" fill="rgb(255, 255, 255)" style="fill-opacity:1.00" />
<!-- End 'C' -->
<!-- Begin 'A' -->
<polygon points=" 570.000000, 110.000000, 591.000000, 109.629327, 599.000000, 109.629327, 620.000000, 110.000000, 612.500000, 110.000000, 606.250000, 109.907332, 583.750000, 109.907332, 577.500000, 110.000000" fill="rgb(178, 34, 34)" style="fill-opacity:1.00" />
<!-- End 'A' -->
<!-- Begin 'T' -->
<rect height="1.335105" width="50.000000" x="630.000000" y="94.663829" fill="rgb(0, 100, 0)" style="fill-opacity:1.00" />
<rect height="8.344405" width="10.000000" x="650.000000" y="94.663829" fill="rgb(0, 100, 0)" style="fill-opacity:1.00" />
<!-- End 'T' -->
<!-- Begin 'C' -->
<ellipse cx="655.000000" cy="104.626558" rx="25.000000" ry="1.618324" fill="rgb(0, 0, 128)" style="fill-opacity:1.00" />
<ellipse cx="655.000000" cy="104.626558" rx="16.666667" ry="1.078883" fill="rgb(255, 255, 255)" style="fill-opacity:1.00" />
<rect height="1.618324" width="25.000000" x="655.000000" y="103.817397" fill="rgb(255, 255, 255)" style="fill-opacity:1.00" />
<!-- End 'C' -->
<!-- Begin 'A' -->
<polygon points=" 630.000000, 108.153596, 651.000000, 106.244882, 659.000000, 106.244882, 680.000000, 108.153596, 672.500000, 108.153596, 666.250000, 107.676417, 643.750000, 107.676417, 637.500000, 108.153596" fill="rgb(178, 34, 34)" style="fill-opacity:1.00" />
<!-- End 'A' -->
<!-- Begin 'G' -->
<ellipse cx="655.000000" cy="109.076798" rx="25.000000" ry="0.923202" fill="rgb(255, 165, 0)" style="fill-opacity:1.00" />
<ellipse cx="655.000000" cy="109.076798" rx="16.666667" ry="0.615468" fill="rgb(255, 255, 255)" style="fill-opacity:1.00" />
<rect height="0.923202" width="25.000000" x="655.000000" y="108.615197" fill="rgb(255, 255, 255)" style="fill-opacity:1.00" />
<rect height="0.230801" width="25.000000" x="655.000000" y="109.307598" fill="rgb(255, 165, 0)" style="fill-opacity:1.00" />
<rect height="0.692402" width="6.250000" x="673.750000" y="109.307598" fill="rgb(255, 165, 0)" style="fill-opacity:1.00" />
<!-- End 'G' -->
<!-- Begin 'T' -->
<rect height="0.592108" width="50.000000" x="690.000000" y="100.104083" fill="rgb(0, 100, 0)" style="fill-opacity:1.00" />
<rect height="3.700673" width="10.000000" x="710.000000" y="100.104083" fill="rgb(0, 100, 0)" style="fill-opacity:1.00" />
<!-- End 'T' -->
<!-- Begin 'A' -->
<polygon points=" 690.000000, 107.017394, 711.000000, 103.804756, 719.000000, 103.804756, 740.000000, 107.017394, 732.500000, 107.017394, 726.250000, 106.214234, 703.750000, 106.214234, 697.500000, 107.017394" fill="rgb(178, 34, 34)" style="fill-opacity:1.00" />
<!-- End 'A' -->
<!-- Begin 'G' -->
<ellipse cx="715.000000" cy="108.196766" rx="25.000000" ry="1.179372" fill="rgb(255, 165, 0)" style="fill-opacity:1.00" />
<ellipse cx="715.000000" cy="108.196766" rx="16.666667" ry="0.786248" fill="rgb(255, 255, 255)" style="fill-opacity:1.00" />
<rect height="1.179372" width="25.000000" x="715.000000" y="107.607080" fill="rgb(255, 255, 255)" style="fill-opacity:1.00" />
<rect height="0.294843" width="25.000000" x="715.000000" y="108.491609" fill="rgb(255, 165, 0)" style="fill-opacity:1.00" />
<rect height="0.884529" width="6.250000" x="733.750000" y="108.491609" fill="rgb(255, 165, 0)" style="fill-opacity:1.00" />
<!-- End 'G' -->
<!-- Begin 'C' -->
<ellipse cx="715.000000" cy="109.688069" rx="25.000000" ry="0.311931" fill="rgb(0, 0, 128)" style="fill-opacity:1.00" />
<ellipse cx="715.000000" cy="109.688069" rx="16.666667" ry="0.207954" fill="rgb(255, 255, 255)" style="fill-opacity:1.00" />
<rect height="0.311931" width="25.000000" x="715.000000" y="109.532104" fill="rgb(255, 255, 255)" style="fill-opacity:1.00" />
<!-- End 'C' -->
<text x="400.000000" y="165">
IC = 7.44
</text>

</svg>
