<?xml version="1.0" encoding="UTF-8" standalone="yes"?>
                 <!DOCTYPE svg PUBLIC "-//W3C//DTD SVG 1.0//EN" "http://www.w3.org/TR/2001/REC-SVG-20010904/DTD/svg10.dtd">
                 <svg height="500" width="840" xmlns="http://www.w3.org/2000/svg" xmlns:xlink="http://www.w3.org/1999/xlink">
                 <line x1="85" y1="450" x2="807" y2="450" style="stroke:rgb(99,99,99);stroke-width:2" />
<rect height="7.000000" width="2.000000" x="85.000000" y="450.000000" fill="rgb(0, 0, 0)" style="fill-opacity:1.00" />
<text x="107.000000" y="470">
1
</text>
<rect height="7.000000" width="2.000000" x="145.000000" y="450.000000" fill="rgb(0, 0, 0)" style="fill-opacity:1.00" />
<text x="167.000000" y="470">
2
</text>
<rect height="7.000000" width="2.000000" x="205.000000" y="450.000000" fill="rgb(0, 0, 0)" style="fill-opacity:1.00" />
<text x="227.000000" y="470">
3
</text>
<rect height="7.000000" width="2.000000" x="265.000000" y="450.000000" fill="rgb(0, 0, 0)" style="fill-opacity:1.00" />
<text x="287.000000" y="470">
4
</text>
<rect height="7.000000" width="2.000000" x="325.000000" y="450.000000" fill="rgb(0, 0, 0)" style="fill-opacity:1.00" />
<text x="347.000000" y="470">
5
</text>
<rect height="7.000000" width="2.000000" x="385.000000" y="450.000000" fill="rgb(0, 0, 0)" style="fill-opacity:1.00" />
<text x="407.000000" y="470">
6
</text>
<rect height="7.000000" width="2.000000" x="445.000000" y="450.000000" fill="rgb(0, 0, 0)" style="fill-opacity:1.00" />
<text x="467.000000" y="470">
7
</text>
<rect height="7.000000" width="2.000000" x="505.000000" y="450.000000" fill="rgb(0, 0, 0)" style="fill-opacity:1.00" />
<text x="527.000000" y="470">
8
</text>
<rect height="7.000000" width="2.000000" x="565.000000" y="450.000000" fill="rgb(0, 0, 0)" style="fill-opacity:1.00" />
<text x="587.000000" y="470">
9
</text>
<rect height="7.000000" width="2.000000" x="625.000000" y="450.000000" fill="rgb(0, 0, 0)" style="fill-opacity:1.00" />
<text x="647.000000" y="470">
10
</text>
<rect height="7.000000" width="2.000000" x="685.000000" y="450.000000" fill="rgb(0, 0, 0)" style="fill-opacity:1.00" />
<text x="707.000000" y="470">
11
</text>
<rect height="7.000000" width="2.000000" x="745.000000" y="450.000000" fill="rgb(0, 0, 0)" style="fill-opacity:1.00" />
<text x="767.000000" y="470">
12
</text>
<rect height="7.000000" width="2.000000" x="805.000000" y="450.000000" fill="rgb(0, 0, 0)" style="fill-opacity:1.00" />
<!-- Begin 'A' -->
<polygon points=" 10.000000, 110.000000, 35.200000, 10.000000, 44.800000, 10.000000, 70.000000, 110.000000, 61.000000, 110.000000, 53.500000, 85.000000, 26.500000, 85.000000, 19.000000, 110.000000" fill="rgb(178, 34, 34)" style="fill-opacity:1.00" />
<polygon points=" 40.000000, 30.000000, 30.400000, 69.000000, 48.400000, 69.000000" fill="rgb(255, 255, 255)" style="fill-opacity:1.00" />
<!-- End 'A' -->
<!-- Begin 'C' -->
<ellipse cx="40.000000" cy="170.000000" rx="30.000000" ry="50.000000" fill="rgb(0, 0, 128)" style="fill-opacity:1.00" />
<ellipse cx="40.000000" cy="170.000000" rx="20.000000" ry="33.333333" fill="rgb(255, 255, 255)" style="fill-opacity:1.00" />
<rect height="50.000000" width="30.000000" x="40.000000" y="145.000000" fill="rgb(255, 255, 255)" style="fill-opacity:1.00" />
<!-- End 'C' -->
<!-- Begin 'G' -->
<ellipse cx="40.000000" cy="280.000000" rx="30.000000" ry="50.000000" fill="rgb(255, 165, 0)" style="fill-opacity:1.00" />
<ellipse cx="40.000000" cy="280.000000" rx="20.000000" ry="33.333333" fill="rgb(255, 255, 255)" style="fill-opacity:1.00" />
<rect height="50.000000" width="30.000000" x="40.000000" y="255.000000" fill="rgb(255, 255, 255)" style="fill-opacity:1.00" />
<rect height="12.500000" width="30.000000" x="40.000000" y="292.500000" fill="rgb(255, 165, 0)" style="fill-opacity:1.00" />
<rect height="37.500000" width="7.500000" x="62.500000" y="292.500000" fill="rgb(255, 165, 0)" style="fill-opacity:1.00" />
<!-- End 'G' -->
<!-- Begin 'T' -->
<rect height="16.000000" width="60.000000" x="10.000000" y="340.000000" fill="rgb(0, 100, 0)" style="fill-opacity:1.00" />
<rect height="100.000000" width="12.000000" x="34.000000" y="340.000000" fill="rgb(0, 100, 0)" style="fill-opacity:1.00" />
<!-- End 'T' -->
<!-- Begin 'C' -->
<ellipse cx="115.000000" cy="31.350114" rx="25.000000" ry="21.350114" fill="rgb(0, 0, 128)" style="fill-opacity:0.19" />
<ellipse cx="115.000000" cy="31.350114" rx="16.666667" ry="14.233409" fill="rgb(255, 255, 255)" style="fill-opacity:1.00" />
<rect height="21.350114" width="25.000000" x="115.000000" y="20.675057" fill="rgb(255, 255, 255)" style="fill-opacity:1.00" />
<!-- End 'C' -->
<!-- Begin 'G' -->
<ellipse cx="115.000000" cy="66.909370" rx="25.000000" ry="14.209141" fill="rgb(255, 165, 0)" style="fill-opacity:0.19" />
<ellipse cx="115.000000" cy="66.909370" rx="16.666667" ry="9.472761" fill="rgb(255, 255, 255)" style="fill-opacity:1.00" />
<rect height="14.209141" width="25.000000" x="115.000000" y="59.804799" fill="rgb(255, 255, 255)" style="fill-opacity:1.00" />
<rect height="3.552285" width="25.000000" x="115.000000" y="70.461655" fill="rgb(255, 165, 0)" style="fill-opacity:0.19" />
<rect height="10.656856" width="6.250000" x="133.750000" y="70.461655" fill="rgb(255, 165, 0)" style="fill-opacity:0.19" />
<!-- End 'G' -->
<!-- Begin 'A' -->
<polygon points=" 90.000000, 100.402561, 111.000000, 81.118511, 119.000000, 81.118511, 140.000000, 100.402561, 132.500000, 100.402561, 126.250000, 95.581549, 103.750000, 95.581549, 97.500000, 100.402561" fill="rgb(178, 34, 34)" style="fill-opacity:0.19" />
<polygon points=" 115.000000, 84.975321, 107.000000, 91.688941, 122.000000, 91.688941" fill="rgb(255, 255, 255)" style="fill-opacity:1.00" />
<!-- End 'A' -->
<!-- Begin 'T' -->
<rect height="1.535590" width="50.000000" x="90.000000" y="100.402561" fill="rgb(0, 100, 0)" style="fill-opacity:0.19" />
<rect height="9.597439" width="10.000000" x="110.000000" y="100.402561" fill="rgb(0, 100, 0)" style="fill-opacity:0.19" />
<!-- End 'T' -->
<!-- Begin 'C' -->
<ellipse cx="115.000000" cy="145.307317" rx="25.000000" ry="25.307317" fill="rgb(0, 0, 128)" style="fill-opacity:0.31" />
<ellipse cx="115.000000" cy="145.307317" rx="16.666667" ry="16.871545" fill="rgb(255, 255, 255)" style="fill-opacity:1.00" />
<rect height="25.307317" width="25.000000" x="115.000000" y="132.653658" fill="rgb(255, 255, 255)" style="fill-opacity:1.00" />
<!-- End 'C' -->
<!-- Begin 'A' -->
<polygon points=" 90.000000, 192.900753, 111.000000, 170.614634, 119.000000, 170.614634, 140.000000, 192.900753, 132.500000, 192.900753, 126.250000, 187.329223, 103.750000, 187.329223, 97.500000, 192.900753" fill="rgb(178, 34, 34)" style="fill-opacity:0.31" />
<polygon points=" 115.000000, 175.071858, 107.000000, 182.986305, 122.000000, 182.986305" fill="rgb(255, 255, 255)" style="fill-opacity:1.00" />
<!-- End 'A' -->
<!-- Begin 'T' -->
<rect height="3.014910" width="50.000000" x="90.000000" y="192.900753" fill="rgb(0, 100, 0)" style="fill-opacity:0.31" />
<rect height="18.843188" width="10.000000" x="110.000000" y="192.900753" fill="rgb(0, 100, 0)" style="fill-opacity:0.31" />
<!-- End 'T' -->
<!-- Begin 'G' -->
<ellipse cx="115.000000" cy="215.871971" rx="25.000000" ry="4.128029" fill="rgb(255, 165, 0)" style="fill-opacity:0.31" />
<ellipse cx="115.000000" cy="215.871971" rx="16.666667" ry="2.752020" fill="rgb(255, 255, 255)" style="fill-opacity:1.00" />
<rect height="4.128029" width="25.000000" x="115.000000" y="213.807956" fill="rgb(255, 255, 255)" style="fill-opacity:1.00" />
<rect height="1.032007" width="25.000000" x="115.000000" y="216.903978" fill="rgb(255, 165, 0)" style="fill-opacity:0.31" />
<rect height="3.096022" width="6.250000" x="133.750000" y="216.903978" fill="rgb(255, 165, 0)" style="fill-opacity:0.31" />
<!-- End 'G' -->
<!-- Begin 'G' -->
<ellipse cx="115.000000" cy="246.911210" rx="25.000000" ry="16.911210" fill="rgb(255, 165, 0)" style="fill-opacity:0.30" />
<ellipse cx="115.000000" cy="246.911210" rx="16.666667" ry="11.274140" fill="rgb(255, 255, 255)" style="fill-opacity:1.00" />
<rect height="16.911210" width="25.000000" x="115.000000" y="238.455605" fill="rgb(255, 255, 255)" style="fill-opacity:1.00" />
<rect height="4.227803" width="25.000000" x="115.000000" y="251.139013" fill="rgb(255, 165, 0)" style="fill-opacity:0.30" />
<rect height="12.683408" width="6.250000" x="133.750000" y="251.139013" fill="rgb(255, 165, 0)" style="fill-opacity:0.30" />
<!-- End 'G' -->
<!-- Begin 'C' -->
<ellipse cx="115.000000" cy="279.440510" rx="25.000000" ry="15.618090" fill="rgb(0, 0, 128)" style="fill-opacity:0.30" />
<ellipse cx="115.000000" cy="279.440510" rx="16.666667" ry="10.412060" fill="rgb(255, 255, 255)" style="fill-opacity:1.00" />
<rect height="15.618090" width="25.000000" x="115.000000" y="271.631465" fill="rgb(255, 255, 255)" style="fill-opacity:1.00" />
<!-- End 'C' -->
<!-- Begin 'A' -->
<polygon points=" 90.000000, 315.671474, 111.000000, 295.058600, 119.000000, 295.058600, 140.000000, 315.671474, 132.500000, 315.671474, 126.250000, 310.518255, 103.750000, 310.518255, 97.500000, 315.671474" fill="rgb(178, 34, 34)" style="fill-opacity:0.30" />
<polygon points=" 115.000000, 299.181175, 107.000000, 306.426324, 122.000000, 306.426324" fill="rgb(255, 255, 255)" style="fill-opacity:1.00" />
<!-- End 'A' -->
<!-- Begin 'T' -->
<rect height="2.292564" width="50.000000" x="90.000000" y="315.671474" fill="rgb(0, 100, 0)" style="fill-opacity:0.30" />
<rect height="14.328526" width="10.000000" x="110.000000" y="315.671474" fill="rgb(0, 100, 0)" style="fill-opacity:0.30" />
<!-- End 'T' -->
<!-- Begin 'C' -->
<ellipse cx="115.000000" cy="359.699603" rx="25.000000" ry="19.699603" fill="rgb(0, 0, 128)" style="fill-opacity:0.20" />
<ellipse cx="115.000000" cy="359.699603" rx="16.666667" ry="13.133069" fill="rgb(255, 255, 255)" style="fill-opacity:1.00" />
<rect height="19.699603" width="25.000000" x="115.000000" y="349.849802" fill="rgb(255, 255, 255)" style="fill-opacity:1.00" />
<!-- End 'C' -->
<!-- Begin 'G' -->
<ellipse cx="115.000000" cy="391.087270" rx="25.000000" ry="11.688063" fill="rgb(255, 165, 0)" style="fill-opacity:0.20" />
<ellipse cx="115.000000" cy="391.087270" rx="16.666667" ry="7.792042" fill="rgb(255, 255, 255)" style="fill-opacity:1.00" />
<rect height="11.688063" width="25.000000" x="115.000000" y="385.243238" fill="rgb(255, 255, 255)" style="fill-opacity:1.00" />
<rect height="2.922016" width="25.000000" x="115.000000" y="394.009285" fill="rgb(255, 165, 0)" style="fill-opacity:0.20" />
<rect height="8.766047" width="6.250000" x="133.750000" y="394.009285" fill="rgb(255, 165, 0)" style="fill-opacity:0.20" />
<!-- End 'G' -->
<!-- Begin 'T' -->
<rect height="3.090396" width="50.000000" x="90.000000" y="402.775332" fill="rgb(0, 100, 0)" style="fill-opacity:0.20" />
<rect height="19.314977" width="10.000000" x="110.000000" y="402.775332" fill="rgb(0, 100, 0)" style="fill-opacity:0.20" />
<!-- End 'T' -->
<!-- Begin 'A' -->
<polygon points=" 90.000000, 440.000000, 111.000000, 422.090310, 119.000000, 422.090310, 140.000000, 440.000000, 132.500000, 440.000000, 126.250000, 435.522577, 103.750000, 435.522577, 97.500000, 440.000000" fill="rgb(178, 34, 34)" style="fill-opacity:0.20" />
<polygon points=" 115.000000, 425.672248, 107.000000, 431.836124, 122.000000, 431.836124" fill="rgb(255, 255, 255)" style="fill-opacity:1.00" />
<!-- End 'A' -->
<!-- Begin 'A' -->
<polygon points=" 150.000000, 61.554554, 171.000000, 10.000000, 179.000000, 10.000000, 200.000000, 61.554554, 192.500000, 61.554554, 186.250000, 48.665915, 163.750000, 48.665915, 157.500000, 61.554554" fill="rgb(178, 34, 34)" style="fill-opacity:0.20" />
<polygon points=" 175.000000, 20.310911, 167.000000, 39.932732, 182.000000, 39.932732" fill="rgb(255, 255, 255)" style="fill-opacity:1.00" />
<!-- End 'A' -->
<!-- Begin 'G' -->
<ellipse cx="175.000000" cy="81.283901" rx="25.000000" ry="19.729348" fill="rgb(255, 165, 0)" style="fill-opacity:0.20" />
<ellipse cx="175.000000" cy="81.283901" rx="16.666667" ry="13.152898" fill="rgb(255, 255, 255)" style="fill-opacity:1.00" />
<rect height="19.729348" width="25.000000" x="175.000000" y="71.419227" fill="rgb(255, 255, 255)" style="fill-opacity:1.00" />
<rect height="4.932337" width="25.000000" x="175.000000" y="86.216238" fill="rgb(255, 165, 0)" style="fill-opacity:0.20" />
<rect height="14.797011" width="6.250000" x="193.750000" y="86.216238" fill="rgb(255, 165, 0)" style="fill-opacity:0.20" />
<!-- End 'G' -->
<!-- Begin 'C' -->
<ellipse cx="175.000000" cy="103.355932" rx="25.000000" ry="2.342683" fill="rgb(0, 0, 128)" style="fill-opacity:0.20" />
<ellipse cx="175.000000" cy="103.355932" rx="16.666667" ry="1.561789" fill="rgb(255, 255, 255)" style="fill-opacity:1.00" />
<rect height="2.342683" width="25.000000" x="175.000000" y="102.184590" fill="rgb(255, 255, 255)" style="fill-opacity:1.00" />
<!-- End 'C' -->
<!-- Begin 'T' -->
<rect height="0.688222" width="50.000000" x="150.000000" y="105.698615" fill="rgb(0, 100, 0)" style="fill-opacity:0.20" />
<rect height="4.301385" width="10.000000" x="170.000000" y="105.698615" fill="rgb(0, 100, 0)" style="fill-opacity:0.20" />
<!-- End 'T' -->
<!-- Begin 'A' -->
<polygon points=" 150.000000, 202.310505, 171.000000, 120.000000, 179.000000, 120.000000, 200.000000, 202.310505, 192.500000, 202.310505, 186.250000, 181.732879, 163.750000, 181.732879, 157.500000, 202.310505" fill="rgb(178, 34, 34)" style="fill-opacity:0.41" />
<polygon points=" 175.000000, 136.462101, 167.000000, 168.386303, 182.000000, 168.386303" fill="rgb(255, 255, 255)" style="fill-opacity:1.00" />
<!-- End 'A' -->
<!-- Begin 'G' -->
<ellipse cx="175.000000" cy="207.868826" rx="25.000000" ry="5.558321" fill="rgb(255, 165, 0)" style="fill-opacity:0.41" />
<ellipse cx="175.000000" cy="207.868826" rx="16.666667" ry="3.705547" fill="rgb(255, 255, 255)" style="fill-opacity:1.00" />
<rect height="5.558321" width="25.000000" x="175.000000" y="205.089666" fill="rgb(255, 255, 255)" style="fill-opacity:1.00" />
<rect height="1.389580" width="25.000000" x="175.000000" y="209.258407" fill="rgb(255, 165, 0)" style="fill-opacity:0.41" />
<rect height="4.168741" width="6.250000" x="193.750000" y="209.258407" fill="rgb(255, 165, 0)" style="fill-opacity:0.41" />
<!-- End 'G' -->
<!-- Begin 'T' -->
<rect height="0.721372" width="50.000000" x="150.000000" y="213.427147" fill="rgb(0, 100, 0)" style="fill-opacity:0.41" />
<rect height="4.508577" width="10.000000" x="170.000000" y="213.427147" fill="rgb(0, 100, 0)" style="fill-opacity:0.41" />
<!-- End 'T' -->
<!-- Begin 'C' -->
<ellipse cx="175.000000" cy="218.967862" rx="25.000000" ry="1.032138" fill="rgb(0, 0, 128)" style="fill-opacity:0.41" />
<ellipse cx="175.000000" cy="218.967862" rx="16.666667" ry="0.688092" fill="rgb(255, 255, 255)" style="fill-opacity:1.00" />
<rect height="1.032138" width="25.000000" x="175.000000" y="218.451793" fill="rgb(255, 255, 255)" style="fill-opacity:1.00" />
<!-- End 'C' -->
<!-- Begin 'A' -->
<polygon points=" 150.000000, 279.626070, 171.000000, 230.000000, 179.000000, 230.000000, 200.000000, 279.626070, 192.500000, 279.626070, 186.250000, 267.219552, 163.750000, 267.219552, 157.500000, 279.626070" fill="rgb(178, 34, 34)" style="fill-opacity:0.23" />
<polygon points=" 175.000000, 239.925214, 167.000000, 258.775642, 182.000000, 258.775642" fill="rgb(255, 255, 255)" style="fill-opacity:1.00" />
<!-- End 'A' -->
<!-- Begin 'G' -->
<ellipse cx="175.000000" cy="298.593888" rx="25.000000" ry="18.967818" fill="rgb(255, 165, 0)" style="fill-opacity:0.23" />
<ellipse cx="175.000000" cy="298.593888" rx="16.666667" ry="12.645212" fill="rgb(255, 255, 255)" style="fill-opacity:1.00" />
<rect height="18.967818" width="25.000000" x="175.000000" y="289.109979" fill="rgb(255, 255, 255)" style="fill-opacity:1.00" />
<rect height="4.741955" width="25.000000" x="175.000000" y="303.335843" fill="rgb(255, 165, 0)" style="fill-opacity:0.23" />
<rect height="14.225864" width="6.250000" x="193.750000" y="303.335843" fill="rgb(255, 165, 0)" style="fill-opacity:0.23" />
<!-- End 'G' -->
<!-- Begin 'C' -->
<ellipse cx="175.000000" cy="321.235044" rx="25.000000" ry="3.673337" fill="rgb(0, 0, 128)" style="fill-opacity:0.23" />
<ellipse cx="175.000000" cy="321.235044" rx="16.666667" ry="2.448891" fill="rgb(255, 255, 255)" style="fill-opacity:1.00" />
<rect height="3.673337" width="25.000000" x="175.000000" y="319.398375" fill="rgb(255, 255, 255)" style="fill-opacity:1.00" />
<!-- End 'C' -->
<!-- Begin 'T' -->
<rect height="0.814659" width="50.000000" x="150.000000" y="324.908381" fill="rgb(0, 100, 0)" style="fill-opacity:0.23" />
<rect height="5.091619" width="10.000000" x="170.000000" y="324.908381" fill="rgb(0, 100, 0)" style="fill-opacity:0.23" />
<!-- End 'T' -->
<!-- Begin 'G' -->
<ellipse cx="175.000000" cy="362.945340" rx="25.000000" ry="22.945340" fill="rgb(255, 165, 0)" style="fill-opacity:0.16" />
<ellipse cx="175.000000" cy="362.945340" rx="16.666667" ry="15.296893" fill="rgb(255, 255, 255)" style="fill-opacity:1.00" />
<rect height="22.945340" width="25.000000" x="175.000000" y="351.472670" fill="rgb(255, 255, 255)" style="fill-opacity:1.00" />
<rect height="5.736335" width="25.000000" x="175.000000" y="368.681675" fill="rgb(255, 165, 0)" style="fill-opacity:0.16" />
<rect height="17.209005" width="6.250000" x="193.750000" y="368.681675" fill="rgb(255, 165, 0)" style="fill-opacity:0.16" />
<!-- End 'G' -->
<!-- Begin 'A' -->
<polygon points=" 150.000000, 430.175263, 171.000000, 385.890680, 179.000000, 385.890680, 200.000000, 430.175263, 192.500000, 430.175263, 186.250000, 419.104117, 163.750000, 419.104117, 157.500000, 430.175263" fill="rgb(178, 34, 34)" style="fill-opacity:0.16" />
<polygon points=" 175.000000, 394.747596, 167.000000, 411.461429, 182.000000, 411.461429" fill="rgb(255, 255, 255)" style="fill-opacity:1.00" />
<!-- End 'A' -->
<!-- Begin 'T' -->
<rect height="1.167727" width="50.000000" x="150.000000" y="430.175263" fill="rgb(0, 100, 0)" style="fill-opacity:0.16" />
<rect height="7.298296" width="10.000000" x="170.000000" y="430.175263" fill="rgb(0, 100, 0)" style="fill-opacity:0.16" />
<!-- End 'T' -->
<!-- Begin 'C' -->
<ellipse cx="175.000000" cy="438.736779" rx="25.000000" ry="1.263221" fill="rgb(0, 0, 128)" style="fill-opacity:0.16" />
<ellipse cx="175.000000" cy="438.736779" rx="16.666667" ry="0.842147" fill="rgb(255, 255, 255)" style="fill-opacity:1.00" />
<rect height="1.263221" width="25.000000" x="175.000000" y="438.105169" fill="rgb(255, 255, 255)" style="fill-opacity:1.00" />
<!-- End 'C' -->
<!-- Begin 'A' -->
<polygon points=" 210.000000, 86.817105, 231.000000, 10.000000, 239.000000, 10.000000, 260.000000, 86.817105, 252.500000, 86.817105, 246.250000, 67.612829, 223.750000, 67.612829, 217.500000, 86.817105" fill="rgb(178, 34, 34)" style="fill-opacity:0.63" />
<polygon points=" 235.000000, 25.363421, 227.000000, 55.090263, 242.000000, 55.090263" fill="rgb(255, 255, 255)" style="fill-opacity:1.00" />
<!-- End 'A' -->
<!-- Begin 'T' -->
<rect height="1.479999" width="50.000000" x="210.000000" y="86.817105" fill="rgb(0, 100, 0)" style="fill-opacity:0.63" />
<rect height="9.249992" width="10.000000" x="230.000000" y="86.817105" fill="rgb(0, 100, 0)" style="fill-opacity:0.63" />
<!-- End 'T' -->
<!-- Begin 'G' -->
<ellipse cx="235.000000" cy="99.931119" rx="25.000000" ry="3.864021" fill="rgb(255, 165, 0)" style="fill-opacity:0.63" />
<ellipse cx="235.000000" cy="99.931119" rx="16.666667" ry="2.576014" fill="rgb(255, 255, 255)" style="fill-opacity:1.00" />
<rect height="3.864021" width="25.000000" x="235.000000" y="97.999108" fill="rgb(255, 255, 255)" style="fill-opacity:1.00" />
<rect height="0.966005" width="25.000000" x="235.000000" y="100.897124" fill="rgb(255, 165, 0)" style="fill-opacity:0.63" />
<rect height="2.898016" width="6.250000" x="253.750000" y="100.897124" fill="rgb(255, 165, 0)" style="fill-opacity:0.63" />
<!-- End 'G' -->
<!-- Begin 'C' -->
<ellipse cx="235.000000" cy="106.897570" rx="25.000000" ry="3.102430" fill="rgb(0, 0, 128)" style="fill-opacity:0.63" />
<ellipse cx="235.000000" cy="106.897570" rx="16.666667" ry="2.068287" fill="rgb(255, 255, 255)" style="fill-opacity:1.00" />
<rect height="3.102430" width="25.000000" x="235.000000" y="105.346355" fill="rgb(255, 255, 255)" style="fill-opacity:1.00" />
<!-- End 'C' -->
<!-- Begin 'A' -->
<polygon points=" 210.000000, 206.577288, 231.000000, 120.000000, 239.000000, 120.000000, 260.000000, 206.577288, 252.500000, 206.577288, 246.250000, 184.932966, 223.750000, 184.932966, 217.500000, 206.577288" fill="rgb(178, 34, 34)" style="fill-opacity:0.04" />
<polygon points=" 235.000000, 137.315458, 227.000000, 170.946373, 242.000000, 170.946373" fill="rgb(255, 255, 255)" style="fill-opacity:1.00" />
<!-- End 'A' -->
<!-- Begin 'T' -->
<rect height="1.671378" width="50.000000" x="210.000000" y="206.577288" fill="rgb(0, 100, 0)" style="fill-opacity:0.04" />
<rect height="10.446115" width="10.000000" x="230.000000" y="206.577288" fill="rgb(0, 100, 0)" style="fill-opacity:0.04" />
<!-- End 'T' -->
<!-- Begin 'C' -->
<ellipse cx="235.000000" cy="218.273252" rx="25.000000" ry="1.249849" fill="rgb(0, 0, 128)" style="fill-opacity:0.04" />
<ellipse cx="235.000000" cy="218.273252" rx="16.666667" ry="0.833233" fill="rgb(255, 255, 255)" style="fill-opacity:1.00" />
<rect height="1.249849" width="25.000000" x="235.000000" y="217.648328" fill="rgb(255, 255, 255)" style="fill-opacity:1.00" />
<!-- End 'C' -->
<!-- Begin 'G' -->
<ellipse cx="235.000000" cy="219.761551" rx="25.000000" ry="0.238449" fill="rgb(255, 165, 0)" style="fill-opacity:0.04" />
<ellipse cx="235.000000" cy="219.761551" rx="16.666667" ry="0.158966" fill="rgb(255, 255, 255)" style="fill-opacity:1.00" />
<rect height="0.238449" width="25.000000" x="235.000000" y="219.642326" fill="rgb(255, 255, 255)" style="fill-opacity:1.00" />
<rect height="0.059612" width="25.000000" x="235.000000" y="219.821163" fill="rgb(255, 165, 0)" style="fill-opacity:0.04" />
<rect height="0.178837" width="6.250000" x="253.750000" y="219.821163" fill="rgb(255, 165, 0)" style="fill-opacity:0.04" />
<!-- End 'G' -->
<!-- Begin 'C' -->
<ellipse cx="235.000000" cy="248.834632" rx="25.000000" ry="18.834632" fill="rgb(0, 0, 128)" style="fill-opacity:0.29" />
<ellipse cx="235.000000" cy="248.834632" rx="16.666667" ry="12.556422" fill="rgb(255, 255, 255)" style="fill-opacity:1.00" />
<rect height="18.834632" width="25.000000" x="235.000000" y="239.417316" fill="rgb(255, 255, 255)" style="fill-opacity:1.00" />
<!-- End 'C' -->
<!-- Begin 'A' -->
<polygon points=" 210.000000, 296.511459, 231.000000, 267.669265, 239.000000, 267.669265, 260.000000, 296.511459, 252.500000, 296.511459, 246.250000, 289.300910, 223.750000, 289.300910, 217.500000, 296.511459" fill="rgb(178, 34, 34)" style="fill-opacity:0.29" />
<polygon points=" 235.000000, 273.437704, 227.000000, 283.974581, 242.000000, 283.974581" fill="rgb(255, 255, 255)" style="fill-opacity:1.00" />
<!-- End 'A' -->
<!-- Begin 'T' -->
<rect height="3.950686" width="50.000000" x="210.000000" y="296.511459" fill="rgb(0, 100, 0)" style="fill-opacity:0.29" />
<rect height="24.691786" width="10.000000" x="230.000000" y="296.511459" fill="rgb(0, 100, 0)" style="fill-opacity:0.29" />
<!-- End 'T' -->
<!-- Begin 'G' -->
<ellipse cx="235.000000" cy="325.601622" rx="25.000000" ry="4.398378" fill="rgb(255, 165, 0)" style="fill-opacity:0.29" />
<ellipse cx="235.000000" cy="325.601622" rx="16.666667" ry="2.932252" fill="rgb(255, 255, 255)" style="fill-opacity:1.00" />
<rect height="4.398378" width="25.000000" x="235.000000" y="323.402434" fill="rgb(255, 255, 255)" style="fill-opacity:1.00" />
<rect height="1.099594" width="25.000000" x="235.000000" y="326.701217" fill="rgb(255, 165, 0)" style="fill-opacity:0.29" />
<rect height="3.298783" width="6.250000" x="253.750000" y="326.701217" fill="rgb(255, 165, 0)" style="fill-opacity:0.29" />
<!-- End 'G' -->
<!-- Begin 'C' -->
<ellipse cx="235.000000" cy="356.872544" rx="25.000000" ry="16.872544" fill="rgb(0, 0, 128)" style="fill-opacity:0.05" />
<ellipse cx="235.000000" cy="356.872544" rx="16.666667" ry="11.248363" fill="rgb(255, 255, 255)" style="fill-opacity:1.00" />
<rect height="16.872544" width="25.000000" x="235.000000" y="348.436272" fill="rgb(255, 255, 255)" style="fill-opacity:1.00" />
<!-- End 'C' -->
<!-- Begin 'A' -->
<polygon points=" 210.000000, 405.847790, 231.000000, 373.745089, 239.000000, 373.745089, 260.000000, 405.847790, 252.500000, 405.847790, 246.250000, 397.822115, 223.750000, 397.822115, 217.500000, 405.847790" fill="rgb(178, 34, 34)" style="fill-opacity:0.05" />
<polygon points=" 235.000000, 380.165629, 227.000000, 392.006709, 242.000000, 392.006709" fill="rgb(255, 255, 255)" style="fill-opacity:1.00" />
<!-- End 'A' -->
<!-- Begin 'T' -->
<rect height="4.054630" width="50.000000" x="210.000000" y="405.847790" fill="rgb(0, 100, 0)" style="fill-opacity:0.05" />
<rect height="25.341435" width="10.000000" x="230.000000" y="405.847790" fill="rgb(0, 100, 0)" style="fill-opacity:0.05" />
<!-- End 'T' -->
<!-- Begin 'G' -->
<ellipse cx="235.000000" cy="435.594612" rx="25.000000" ry="4.405388" fill="rgb(255, 165, 0)" style="fill-opacity:0.05" />
<ellipse cx="235.000000" cy="435.594612" rx="16.666667" ry="2.936925" fill="rgb(255, 255, 255)" style="fill-opacity:1.00" />
<rect height="4.405388" width="25.000000" x="235.000000" y="433.391919" fill="rgb(255, 255, 255)" style="fill-opacity:1.00" />
<rect height="1.101347" width="25.000000" x="235.000000" y="436.695959" fill="rgb(255, 165, 0)" style="fill-opacity:0.05" />
<rect height="3.304041" width="6.250000" x="253.750000" y="436.695959" fill="rgb(255, 165, 0)" style="fill-opacity:0.05" />
<!-- End 'G' -->
<!-- Begin 'G' -->
<ellipse cx="295.000000" cy="31.953054" rx="25.000000" ry="21.953054" fill="rgb(255, 165, 0)" style="fill-opacity:0.61" />
<ellipse cx="295.000000" cy="31.953054" rx="16.666667" ry="14.635369" fill="rgb(255, 255, 255)" style="fill-opacity:1.00" />
<rect height="21.953054" width="25.000000" x="295.000000" y="20.976527" fill="rgb(255, 255, 255)" style="fill-opacity:1.00" />
<rect height="5.488263" width="25.000000" x="295.000000" y="37.441317" fill="rgb(255, 165, 0)" style="fill-opacity:0.61" />
<rect height="16.464790" width="6.250000" x="313.750000" y="37.441317" fill="rgb(255, 165, 0)" style="fill-opacity:0.61" />
<!-- End 'G' -->
<!-- Begin 'A' -->
<polygon points=" 270.000000, 89.364529, 291.000000, 53.906107, 299.000000, 53.906107, 320.000000, 89.364529, 312.500000, 89.364529, 306.250000, 80.499924, 283.750000, 80.499924, 277.500000, 89.364529" fill="rgb(178, 34, 34)" style="fill-opacity:0.61" />
<polygon points=" 295.000000, 60.997792, 287.000000, 74.181161, 302.000000, 74.181161" fill="rgb(255, 255, 255)" style="fill-opacity:1.00" />
<!-- End 'A' -->
<!-- Begin 'C' -->
<ellipse cx="295.000000" cy="97.409107" rx="25.000000" ry="8.044577" fill="rgb(0, 0, 128)" style="fill-opacity:0.61" />
<ellipse cx="295.000000" cy="97.409107" rx="16.666667" ry="5.363052" fill="rgb(255, 255, 255)" style="fill-opacity:1.00" />
<rect height="8.044577" width="25.000000" x="295.000000" y="93.386818" fill="rgb(255, 255, 255)" style="fill-opacity:1.00" />
<!-- End 'C' -->
<!-- Begin 'T' -->
<rect height="0.727411" width="50.000000" x="270.000000" y="105.453684" fill="rgb(0, 100, 0)" style="fill-opacity:0.61" />
<rect height="4.546316" width="10.000000" x="290.000000" y="105.453684" fill="rgb(0, 100, 0)" style="fill-opacity:0.61" />
<!-- End 'T' -->
<!-- Begin 'C' -->
<ellipse cx="295.000000" cy="146.439044" rx="25.000000" ry="26.439044" fill="rgb(0, 0, 128)" style="fill-opacity:0.16" />
<ellipse cx="295.000000" cy="146.439044" rx="16.666667" ry="17.626029" fill="rgb(255, 255, 255)" style="fill-opacity:1.00" />
<rect height="26.439044" width="25.000000" x="295.000000" y="133.219522" fill="rgb(255, 255, 255)" style="fill-opacity:1.00" />
<!-- End 'C' -->
<!-- Begin 'A' -->
<polygon points=" 270.000000, 205.360089, 291.000000, 172.878088, 299.000000, 172.878088, 320.000000, 205.360089, 312.500000, 205.360089, 306.250000, 197.239589, 283.750000, 197.239589, 277.500000, 205.360089" fill="rgb(178, 34, 34)" style="fill-opacity:0.16" />
<polygon points=" 295.000000, 179.374488, 287.000000, 191.367289, 302.000000, 191.367289" fill="rgb(255, 255, 255)" style="fill-opacity:1.00" />
<!-- End 'A' -->
<!-- Begin 'G' -->
<ellipse cx="295.000000" cy="209.450872" rx="25.000000" ry="4.090783" fill="rgb(255, 165, 0)" style="fill-opacity:0.16" />
<ellipse cx="295.000000" cy="209.450872" rx="16.666667" ry="2.727189" fill="rgb(255, 255, 255)" style="fill-opacity:1.00" />
<rect height="4.090783" width="25.000000" x="295.000000" y="207.405481" fill="rgb(255, 255, 255)" style="fill-opacity:1.00" />
<rect height="1.022696" width="25.000000" x="295.000000" y="210.473568" fill="rgb(255, 165, 0)" style="fill-opacity:0.16" />
<rect height="3.068087" width="6.250000" x="313.750000" y="210.473568" fill="rgb(255, 165, 0)" style="fill-opacity:0.16" />
<!-- End 'G' -->
<!-- Begin 'T' -->
<rect height="1.033335" width="50.000000" x="270.000000" y="213.541655" fill="rgb(0, 100, 0)" style="fill-opacity:0.16" />
<rect height="6.458345" width="10.000000" x="290.000000" y="213.541655" fill="rgb(0, 100, 0)" style="fill-opacity:0.16" />
<!-- End 'T' -->
<!-- Begin 'C' -->
<ellipse cx="295.000000" cy="250.923839" rx="25.000000" ry="20.923839" fill="rgb(0, 0, 128)" style="fill-opacity:0.08" />
<ellipse cx="295.000000" cy="250.923839" rx="16.666667" ry="13.949226" fill="rgb(255, 255, 255)" style="fill-opacity:1.00" />
<rect height="20.923839" width="25.000000" x="295.000000" y="240.461919" fill="rgb(255, 255, 255)" style="fill-opacity:1.00" />
<!-- End 'C' -->
<!-- Begin 'A' -->
<polygon points=" 270.000000, 304.788666, 291.000000, 271.847677, 299.000000, 271.847677, 320.000000, 304.788666, 312.500000, 304.788666, 306.250000, 296.553419, 283.750000, 296.553419, 277.500000, 304.788666" fill="rgb(178, 34, 34)" style="fill-opacity:0.08" />
<polygon points=" 295.000000, 278.435875, 287.000000, 290.612270, 302.000000, 290.612270" fill="rgb(255, 255, 255)" style="fill-opacity:1.00" />
<!-- End 'A' -->
<!-- Begin 'G' -->
<ellipse cx="295.000000" cy="312.389093" rx="25.000000" ry="7.600427" fill="rgb(255, 165, 0)" style="fill-opacity:0.08" />
<ellipse cx="295.000000" cy="312.389093" rx="16.666667" ry="5.066952" fill="rgb(255, 255, 255)" style="fill-opacity:1.00" />
<rect height="7.600427" width="25.000000" x="295.000000" y="308.588879" fill="rgb(255, 255, 255)" style="fill-opacity:1.00" />
<rect height="1.900107" width="25.000000" x="295.000000" y="314.289200" fill="rgb(255, 165, 0)" style="fill-opacity:0.08" />
<rect height="5.700320" width="6.250000" x="313.750000" y="314.289200" fill="rgb(255, 165, 0)" style="fill-opacity:0.08" />
<!-- End 'G' -->
<!-- Begin 'T' -->
<rect height="1.601677" width="50.000000" x="270.000000" y="319.989520" fill="rgb(0, 100, 0)" style="fill-opacity:0.08" />
<rect height="10.010480" width="10.000000" x="290.000000" y="319.989520" fill="rgb(0, 100, 0)" style="fill-opacity:0.08" />
<!-- End 'T' -->
<!-- Begin 'C' -->
<ellipse cx="295.000000" cy="364.068539" rx="25.000000" ry="24.068539" fill="rgb(0, 0, 128)" style="fill-opacity:0.15" />
<ellipse cx="295.000000" cy="364.068539" rx="16.666667" ry="16.045693" fill="rgb(255, 255, 255)" style="fill-opacity:1.00" />
<rect height="24.068539" width="25.000000" x="295.000000" y="352.034270" fill="rgb(255, 255, 255)" style="fill-opacity:1.00" />
<!-- End 'C' -->
<!-- Begin 'A' -->
<polygon points=" 270.000000, 413.275960, 291.000000, 388.137078, 299.000000, 388.137078, 320.000000, 413.275960, 312.500000, 413.275960, 306.250000, 406.991239, 283.750000, 406.991239, 277.500000, 413.275960" fill="rgb(178, 34, 34)" style="fill-opacity:0.15" />
<polygon points=" 295.000000, 393.164854, 287.000000, 402.220407, 302.000000, 402.220407" fill="rgb(255, 255, 255)" style="fill-opacity:1.00" />
<!-- End 'A' -->
<!-- Begin 'G' -->
<ellipse cx="295.000000" cy="422.179706" rx="25.000000" ry="8.903746" fill="rgb(255, 165, 0)" style="fill-opacity:0.15" />
<ellipse cx="295.000000" cy="422.179706" rx="16.666667" ry="5.935831" fill="rgb(255, 255, 255)" style="fill-opacity:1.00" />
<rect height="8.903746" width="25.000000" x="295.000000" y="417.727833" fill="rgb(255, 255, 255)" style="fill-opacity:1.00" />
<rect height="2.225937" width="25.000000" x="295.000000" y="424.405643" fill="rgb(255, 165, 0)" style="fill-opacity:0.15" />
<rect height="6.677810" width="6.250000" x="313.750000" y="424.405643" fill="rgb(255, 165, 0)" style="fill-opacity:0.15" />
<!-- End 'G' -->
<!-- Begin 'T' -->
<rect height="1.426648" width="50.000000" x="270.000000" y="431.083453" fill="rgb(0, 100, 0)" style="fill-opacity:0.15" />
<rect height="8.916547" width="10.000000" x="290.000000" y="431.083453" fill="rgb(0, 100, 0)" style="fill-opacity:0.15" />
<!-- End 'T' -->
<!-- Begin 'A' -->
<polygon points=" 330.000000, 109.354171, 351.000000, 10.000000, 359.000000, 10.000000, 380.000000, 109.354171, 372.500000, 109.354171, 366.250000, 84.515628, 343.750000, 84.515628, 337.500000, 109.354171" fill="rgb(178, 34, 34)" style="fill-opacity:0.33" />
<polygon points=" 355.000000, 29.870834, 347.000000, 68.612503, 362.000000, 68.612503" fill="rgb(255, 255, 255)" style="fill-opacity:1.00" />
<!-- End 'A' -->
<!-- Begin 'G' -->
<ellipse cx="355.000000" cy="109.661721" rx="25.000000" ry="0.307550" fill="rgb(255, 165, 0)" style="fill-opacity:0.33" />
<ellipse cx="355.000000" cy="109.661721" rx="16.666667" ry="0.205034" fill="rgb(255, 255, 255)" style="fill-opacity:1.00" />
<rect height="0.307550" width="25.000000" x="355.000000" y="109.507946" fill="rgb(255, 255, 255)" style="fill-opacity:1.00" />
<rect height="0.076888" width="25.000000" x="355.000000" y="109.738609" fill="rgb(255, 165, 0)" style="fill-opacity:0.33" />
<rect height="0.230663" width="6.250000" x="373.750000" y="109.738609" fill="rgb(255, 165, 0)" style="fill-opacity:0.33" />
<!-- End 'G' -->
<!-- Begin 'C' -->
<ellipse cx="355.000000" cy="109.982495" rx="25.000000" ry="0.013224" fill="rgb(0, 0, 128)" style="fill-opacity:0.33" />
<ellipse cx="355.000000" cy="109.982495" rx="16.666667" ry="0.008816" fill="rgb(255, 255, 255)" style="fill-opacity:1.00" />
<rect height="0.013224" width="25.000000" x="355.000000" y="109.975883" fill="rgb(255, 255, 255)" style="fill-opacity:1.00" />
<!-- End 'C' -->
<!-- Begin 'T' -->
<rect height="0.000685" width="50.000000" x="330.000000" y="109.995719" fill="rgb(0, 100, 0)" style="fill-opacity:0.33" />
<rect height="0.004281" width="10.000000" x="350.000000" y="109.995719" fill="rgb(0, 100, 0)" style="fill-opacity:0.33" />
<!-- End 'T' -->
<!-- Begin 'A' -->
<polygon points=" 330.000000, 218.731012, 351.000000, 120.000000, 359.000000, 120.000000, 380.000000, 218.731012, 372.500000, 218.731012, 366.250000, 194.048259, 343.750000, 194.048259, 337.500000, 218.731012" fill="rgb(178, 34, 34)" style="fill-opacity:0.29" />
<polygon points=" 355.000000, 139.746202, 347.000000, 178.238607, 362.000000, 178.238607" fill="rgb(255, 255, 255)" style="fill-opacity:1.00" />
<!-- End 'A' -->
<!-- Begin 'T' -->
<rect height="0.144913" width="50.000000" x="330.000000" y="218.731012" fill="rgb(0, 100, 0)" style="fill-opacity:0.29" />
<rect height="0.905706" width="10.000000" x="350.000000" y="218.731012" fill="rgb(0, 100, 0)" style="fill-opacity:0.29" />
<!-- End 'T' -->
<!-- Begin 'G' -->
<ellipse cx="355.000000" cy="219.804912" rx="25.000000" ry="0.168194" fill="rgb(255, 165, 0)" style="fill-opacity:0.29" />
<ellipse cx="355.000000" cy="219.804912" rx="16.666667" ry="0.112129" fill="rgb(255, 255, 255)" style="fill-opacity:1.00" />
<rect height="0.168194" width="25.000000" x="355.000000" y="219.720815" fill="rgb(255, 255, 255)" style="fill-opacity:1.00" />
<rect height="0.042049" width="25.000000" x="355.000000" y="219.846960" fill="rgb(255, 165, 0)" style="fill-opacity:0.29" />
<rect height="0.126146" width="6.250000" x="373.750000" y="219.846960" fill="rgb(255, 165, 0)" style="fill-opacity:0.29" />
<!-- End 'G' -->
<!-- Begin 'C' -->
<ellipse cx="355.000000" cy="219.986553" rx="25.000000" ry="0.013447" fill="rgb(0, 0, 128)" style="fill-opacity:0.29" />
<ellipse cx="355.000000" cy="219.986553" rx="16.666667" ry="0.008965" fill="rgb(255, 255, 255)" style="fill-opacity:1.00" />
<rect height="0.013447" width="25.000000" x="355.000000" y="219.979829" fill="rgb(255, 255, 255)" style="fill-opacity:1.00" />
<!-- End 'C' -->
<!-- Begin 'A' -->
<polygon points=" 330.000000, 327.320349, 351.000000, 230.000000, 359.000000, 230.000000, 380.000000, 327.320349, 372.500000, 327.320349, 366.250000, 302.990262, 343.750000, 302.990262, 337.500000, 327.320349" fill="rgb(178, 34, 34)" style="fill-opacity:0.32" />
<polygon points=" 355.000000, 249.464070, 347.000000, 287.392210, 362.000000, 287.392210" fill="rgb(255, 255, 255)" style="fill-opacity:1.00" />
<!-- End 'A' -->
<!-- Begin 'G' -->
<ellipse cx="355.000000" cy="328.616672" rx="25.000000" ry="1.296323" fill="rgb(255, 165, 0)" style="fill-opacity:0.32" />
<ellipse cx="355.000000" cy="328.616672" rx="16.666667" ry="0.864215" fill="rgb(255, 255, 255)" style="fill-opacity:1.00" />
<rect height="1.296323" width="25.000000" x="355.000000" y="327.968511" fill="rgb(255, 255, 255)" style="fill-opacity:1.00" />
<rect height="0.324081" width="25.000000" x="355.000000" y="328.940753" fill="rgb(255, 165, 0)" style="fill-opacity:0.32" />
<rect height="0.972242" width="6.250000" x="373.750000" y="328.940753" fill="rgb(255, 165, 0)" style="fill-opacity:0.32" />
<!-- End 'G' -->
<!-- Begin 'C' -->
<ellipse cx="355.000000" cy="329.954385" rx="25.000000" ry="0.041390" fill="rgb(0, 0, 128)" style="fill-opacity:0.32" />
<ellipse cx="355.000000" cy="329.954385" rx="16.666667" ry="0.027594" fill="rgb(255, 255, 255)" style="fill-opacity:1.00" />
<rect height="0.041390" width="25.000000" x="355.000000" y="329.933690" fill="rgb(255, 255, 255)" style="fill-opacity:1.00" />
<!-- End 'C' -->
<!-- Begin 'T' -->
<rect height="0.000676" width="50.000000" x="330.000000" y="329.995776" fill="rgb(0, 100, 0)" style="fill-opacity:0.32" />
<rect height="0.004224" width="10.000000" x="350.000000" y="329.995776" fill="rgb(0, 100, 0)" style="fill-opacity:0.32" />
<!-- End 'T' -->
<!-- Begin 'A' -->
<polygon points=" 330.000000, 439.496967, 351.000000, 340.000000, 359.000000, 340.000000, 380.000000, 439.496967, 372.500000, 439.496967, 366.250000, 414.622725, 343.750000, 414.622725, 337.500000, 439.496967" fill="rgb(178, 34, 34)" style="fill-opacity:0.06" />
<polygon points=" 355.000000, 359.899393, 347.000000, 398.698180, 362.000000, 398.698180" fill="rgb(255, 255, 255)" style="fill-opacity:1.00" />
<!-- End 'A' -->
<!-- Begin 'G' -->
<ellipse cx="355.000000" cy="439.736703" rx="25.000000" ry="0.239736" fill="rgb(255, 165, 0)" style="fill-opacity:0.06" />
<ellipse cx="355.000000" cy="439.736703" rx="16.666667" ry="0.159824" fill="rgb(255, 255, 255)" style="fill-opacity:1.00" />
<rect height="0.239736" width="25.000000" x="355.000000" y="439.616835" fill="rgb(255, 255, 255)" style="fill-opacity:1.00" />
<rect height="0.059934" width="25.000000" x="355.000000" y="439.796637" fill="rgb(255, 165, 0)" style="fill-opacity:0.06" />
<rect height="0.179802" width="6.250000" x="373.750000" y="439.796637" fill="rgb(255, 165, 0)" style="fill-opacity:0.06" />
<!-- End 'G' -->
<!-- Begin 'T' -->
<rect height="0.003273" width="50.000000" x="330.000000" y="439.976439" fill="rgb(0, 100, 0)" style="fill-opacity:0.06" />
<rect height="0.020458" width="10.000000" x="350.000000" y="439.976439" fill="rgb(0, 100, 0)" style="fill-opacity:0.06" />
<!-- End 'T' -->
<!-- Begin 'C' -->
<ellipse cx="355.000000" cy="439.998449" rx="25.000000" ry="0.001551" fill="rgb(0, 0, 128)" style="fill-opacity:0.06" />
<ellipse cx="355.000000" cy="439.998449" rx="16.666667" ry="0.001034" fill="rgb(255, 255, 255)" style="fill-opacity:1.00" />
<rect height="0.001551" width="25.000000" x="355.000000" y="439.997673" fill="rgb(255, 255, 255)" style="fill-opacity:1.00" />
<!-- End 'C' -->
<!-- Begin 'T' -->
<rect height="15.888197" width="50.000000" x="390.000000" y="10.000000" fill="rgb(0, 100, 0)" style="fill-opacity:0.99" />
<rect height="99.301230" width="10.000000" x="410.000000" y="10.000000" fill="rgb(0, 100, 0)" style="fill-opacity:0.99" />
<!-- End 'T' -->
<!-- Begin 'G' -->
<ellipse cx="415.000000" cy="109.443205" rx="25.000000" ry="0.141976" fill="rgb(255, 165, 0)" style="fill-opacity:0.99" />
<ellipse cx="415.000000" cy="109.443205" rx="16.666667" ry="0.094650" fill="rgb(255, 255, 255)" style="fill-opacity:1.00" />
<rect height="0.141976" width="25.000000" x="415.000000" y="109.372218" fill="rgb(255, 255, 255)" style="fill-opacity:1.00" />
<rect height="0.035494" width="25.000000" x="415.000000" y="109.478699" fill="rgb(255, 165, 0)" style="fill-opacity:0.99" />
<rect height="0.106482" width="6.250000" x="433.750000" y="109.478699" fill="rgb(255, 165, 0)" style="fill-opacity:0.99" />
<!-- End 'G' -->
<!-- Begin 'A' -->
<polygon points=" 390.000000, 109.804258, 411.000000, 109.585181, 419.000000, 109.585181, 440.000000, 109.804258, 432.500000, 109.804258, 426.250000, 109.749489, 403.750000, 109.749489, 397.500000, 109.804258" fill="rgb(178, 34, 34)" style="fill-opacity:0.99" />
<!-- End 'A' -->
<!-- Begin 'C' -->
<ellipse cx="415.000000" cy="109.902129" rx="25.000000" ry="0.097871" fill="rgb(0, 0, 128)" style="fill-opacity:0.99" />
<ellipse cx="415.000000" cy="109.902129" rx="16.666667" ry="0.065247" fill="rgb(255, 255, 255)" style="fill-opacity:1.00" />
<rect height="0.097871" width="25.000000" x="415.000000" y="109.853193" fill="rgb(255, 255, 255)" style="fill-opacity:1.00" />
<!-- End 'C' -->
<!-- Begin 'T' -->
<rect height="15.943387" width="50.000000" x="390.000000" y="120.000000" fill="rgb(0, 100, 0)" style="fill-opacity:0.00" />
<rect height="99.646169" width="10.000000" x="410.000000" y="120.000000" fill="rgb(0, 100, 0)" style="fill-opacity:0.00" />
<!-- End 'T' -->
<!-- Begin 'C' -->
<ellipse cx="415.000000" cy="219.803299" rx="25.000000" ry="0.157131" fill="rgb(0, 0, 128)" style="fill-opacity:0.00" />
<ellipse cx="415.000000" cy="219.803299" rx="16.666667" ry="0.104754" fill="rgb(255, 255, 255)" style="fill-opacity:1.00" />
<rect height="0.157131" width="25.000000" x="415.000000" y="219.724734" fill="rgb(255, 255, 255)" style="fill-opacity:1.00" />
<!-- End 'C' -->
<!-- Begin 'A' -->
<polygon points=" 390.000000, 219.985701, 411.000000, 219.960430, 419.000000, 219.960430, 440.000000, 219.985701, 432.500000, 219.985701, 426.250000, 219.979383, 403.750000, 219.979383, 397.500000, 219.985701" fill="rgb(178, 34, 34)" style="fill-opacity:0.00" />
<!-- End 'A' -->
<!-- Begin 'G' -->
<ellipse cx="415.000000" cy="219.992851" rx="25.000000" ry="0.007149" fill="rgb(255, 165, 0)" style="fill-opacity:0.00" />
<ellipse cx="415.000000" cy="219.992851" rx="16.666667" ry="0.004766" fill="rgb(255, 255, 255)" style="fill-opacity:1.00" />
<rect height="0.007149" width="25.000000" x="415.000000" y="219.989276" fill="rgb(255, 255, 255)" style="fill-opacity:1.00" />
<rect height="0.001787" width="25.000000" x="415.000000" y="219.994638" fill="rgb(255, 165, 0)" style="fill-opacity:0.00" />
<rect height="0.005362" width="6.250000" x="433.750000" y="219.994638" fill="rgb(255, 165, 0)" style="fill-opacity:0.00" />
<!-- End 'G' -->
<!-- Begin 'T' -->
<rect height="15.640843" width="50.000000" x="390.000000" y="230.000000" fill="rgb(0, 100, 0)" style="fill-opacity:0.01" />
<rect height="97.755270" width="10.000000" x="410.000000" y="230.000000" fill="rgb(0, 100, 0)" style="fill-opacity:0.01" />
<!-- End 'T' -->
<!-- Begin 'C' -->
<ellipse cx="415.000000" cy="328.860596" rx="25.000000" ry="1.105326" fill="rgb(0, 0, 128)" style="fill-opacity:0.01" />
<ellipse cx="415.000000" cy="328.860596" rx="16.666667" ry="0.736884" fill="rgb(255, 255, 255)" style="fill-opacity:1.00" />
<rect height="1.105326" width="25.000000" x="415.000000" y="328.307933" fill="rgb(255, 255, 255)" style="fill-opacity:1.00" />
<!-- End 'C' -->
<!-- Begin 'A' -->
<polygon points=" 390.000000, 329.997720, 411.000000, 329.965923, 419.000000, 329.965923, 440.000000, 329.997720, 432.500000, 329.997720, 426.250000, 329.989771, 403.750000, 329.989771, 397.500000, 329.997720" fill="rgb(178, 34, 34)" style="fill-opacity:0.01" />
<!-- End 'A' -->
<!-- Begin 'G' -->
<ellipse cx="415.000000" cy="329.998860" rx="25.000000" ry="0.001140" fill="rgb(255, 165, 0)" style="fill-opacity:0.01" />
<ellipse cx="415.000000" cy="329.998860" rx="16.666667" ry="0.000760" fill="rgb(255, 255, 255)" style="fill-opacity:1.00" />
<rect height="0.001140" width="25.000000" x="415.000000" y="329.998290" fill="rgb(255, 255, 255)" style="fill-opacity:1.00" />
<rect height="0.000285" width="25.000000" x="415.000000" y="329.999145" fill="rgb(255, 165, 0)" style="fill-opacity:0.01" />
<rect height="0.000855" width="6.250000" x="433.750000" y="329.999145" fill="rgb(255, 165, 0)" style="fill-opacity:0.01" />
<!-- End 'G' -->
<!-- Begin 'T' -->
<rect height="15.992979" width="50.000000" x="390.000000" y="340.000000" fill="rgb(0, 100, 0)" style="fill-opacity:0.00" />
<rect height="99.956119" width="10.000000" x="410.000000" y="340.000000" fill="rgb(0, 100, 0)" style="fill-opacity:0.00" />
<!-- End 'T' -->
<!-- Begin 'C' -->
<ellipse cx="415.000000" cy="439.975541" rx="25.000000" ry="0.019422" fill="rgb(0, 0, 128)" style="fill-opacity:0.00" />
<ellipse cx="415.000000" cy="439.975541" rx="16.666667" ry="0.012948" fill="rgb(255, 255, 255)" style="fill-opacity:1.00" />
<rect height="0.019422" width="25.000000" x="415.000000" y="439.965830" fill="rgb(255, 255, 255)" style="fill-opacity:1.00" />
<!-- End 'C' -->
<!-- Begin 'G' -->
<ellipse cx="415.000000" cy="439.997411" rx="25.000000" ry="0.002447" fill="rgb(255, 165, 0)" style="fill-opacity:0.00" />
<ellipse cx="415.000000" cy="439.997411" rx="16.666667" ry="0.001632" fill="rgb(255, 255, 255)" style="fill-opacity:1.00" />
<rect height="0.002447" width="25.000000" x="415.000000" y="439.996187" fill="rgb(255, 255, 255)" style="fill-opacity:1.00" />
<rect height="0.000612" width="25.000000" x="415.000000" y="439.998023" fill="rgb(255, 165, 0)" style="fill-opacity:0.00" />
<rect height="0.001836" width="6.250000" x="433.750000" y="439.998023" fill="rgb(255, 165, 0)" style="fill-opacity:0.00" />
<!-- End 'G' -->
<!-- Begin 'A' -->
<polygon points=" 390.000000, 440.000000, 411.000000, 439.999859, 419.000000, 439.999859, 440.000000, 440.000000, 432.500000, 440.000000, 426.250000, 439.999965, 403.750000, 439.999965, 397.500000, 440.000000" fill="rgb(178, 34, 34)" style="fill-opacity:0.00" />
<!-- End 'A' -->
<!-- Begin 'G' -->
<ellipse cx="475.000000" cy="59.786734" rx="25.000000" ry="49.786734" fill="rgb(255, 165, 0)" style="fill-opacity:0.00" />
<ellipse cx="475.000000" cy="59.786734" rx="16.666667" ry="33.191156" fill="rgb(255, 255, 255)" style="fill-opacity:1.00" />
<rect height="49.786734" width="25.000000" x="475.000000" y="34.893367" fill="rgb(255, 255, 255)" style="fill-opacity:1.00" />
<rect height="12.446683" width="25.000000" x="475.000000" y="72.233417" fill="rgb(255, 165, 0)" style="fill-opacity:0.00" />
<rect height="37.340050" width="6.250000" x="493.750000" y="72.233417" fill="rgb(255, 165, 0)" style="fill-opacity:0.00" />
<!-- End 'G' -->
<!-- Begin 'A' -->
<polygon points=" 450.000000, 109.990323, 471.000000, 109.573468, 479.000000, 109.573468, 500.000000, 109.990323, 492.500000, 109.990323, 486.250000, 109.886109, 463.750000, 109.886109, 457.500000, 109.990323" fill="rgb(178, 34, 34)" style="fill-opacity:0.00" />
<!-- End 'A' -->
<!-- Begin 'T' -->
<rect height="0.001461" width="50.000000" x="450.000000" y="109.990323" fill="rgb(0, 100, 0)" style="fill-opacity:0.00" />
<rect height="0.009128" width="10.000000" x="470.000000" y="109.990323" fill="rgb(0, 100, 0)" style="fill-opacity:0.00" />
<!-- End 'T' -->
<!-- Begin 'C' -->
<ellipse cx="475.000000" cy="109.999726" rx="25.000000" ry="0.000274" fill="rgb(0, 0, 128)" style="fill-opacity:0.00" />
<ellipse cx="475.000000" cy="109.999726" rx="16.666667" ry="0.000183" fill="rgb(255, 255, 255)" style="fill-opacity:1.00" />
<rect height="0.000274" width="25.000000" x="475.000000" y="109.999589" fill="rgb(255, 255, 255)" style="fill-opacity:1.00" />
<!-- End 'C' -->
<!-- Begin 'G' -->
<ellipse cx="475.000000" cy="167.049744" rx="25.000000" ry="47.049744" fill="rgb(255, 165, 0)" style="fill-opacity:0.00" />
<ellipse cx="475.000000" cy="167.049744" rx="16.666667" ry="31.366496" fill="rgb(255, 255, 255)" style="fill-opacity:1.00" />
<rect height="47.049744" width="25.000000" x="475.000000" y="143.524872" fill="rgb(255, 255, 255)" style="fill-opacity:1.00" />
<rect height="11.762436" width="25.000000" x="475.000000" y="178.812180" fill="rgb(255, 165, 0)" style="fill-opacity:0.00" />
<rect height="35.287308" width="6.250000" x="493.750000" y="178.812180" fill="rgb(255, 165, 0)" style="fill-opacity:0.00" />
<!-- End 'G' -->
<!-- Begin 'A' -->
<polygon points=" 450.000000, 219.801778, 471.000000, 214.099489, 479.000000, 214.099489, 500.000000, 219.801778, 492.500000, 219.801778, 486.250000, 218.376206, 463.750000, 218.376206, 457.500000, 219.801778" fill="rgb(178, 34, 34)" style="fill-opacity:0.00" />
<!-- End 'A' -->
<!-- Begin 'T' -->
<rect height="0.022704" width="50.000000" x="450.000000" y="219.801778" fill="rgb(0, 100, 0)" style="fill-opacity:0.00" />
<rect height="0.141901" width="10.000000" x="470.000000" y="219.801778" fill="rgb(0, 100, 0)" style="fill-opacity:0.00" />
<!-- End 'T' -->
<!-- Begin 'C' -->
<ellipse cx="475.000000" cy="219.971840" rx="25.000000" ry="0.028160" fill="rgb(0, 0, 128)" style="fill-opacity:0.00" />
<ellipse cx="475.000000" cy="219.971840" rx="16.666667" ry="0.018774" fill="rgb(255, 255, 255)" style="fill-opacity:1.00" />
<rect height="0.028160" width="25.000000" x="475.000000" y="219.957760" fill="rgb(255, 255, 255)" style="fill-opacity:1.00" />
<!-- End 'C' -->
<!-- Begin 'G' -->
<ellipse cx="475.000000" cy="279.975418" rx="25.000000" ry="49.975418" fill="rgb(255, 165, 0)" style="fill-opacity:0.00" />
<ellipse cx="475.000000" cy="279.975418" rx="16.666667" ry="33.316945" fill="rgb(255, 255, 255)" style="fill-opacity:1.00" />
<rect height="49.975418" width="25.000000" x="475.000000" y="254.987709" fill="rgb(255, 255, 255)" style="fill-opacity:1.00" />
<rect height="12.493854" width="25.000000" x="475.000000" y="292.469272" fill="rgb(255, 165, 0)" style="fill-opacity:0.00" />
<rect height="37.481563" width="6.250000" x="493.750000" y="292.469272" fill="rgb(255, 165, 0)" style="fill-opacity:0.00" />
<!-- End 'G' -->
<!-- Begin 'A' -->
<polygon points=" 450.000000, 329.995777, 471.000000, 329.950835, 479.000000, 329.950835, 500.000000, 329.995777, 492.500000, 329.995777, 486.250000, 329.984541, 463.750000, 329.984541, 457.500000, 329.995777" fill="rgb(178, 34, 34)" style="fill-opacity:0.00" />
<!-- End 'A' -->
<!-- Begin 'C' -->
<ellipse cx="475.000000" cy="329.997589" rx="25.000000" ry="0.001812" fill="rgb(0, 0, 128)" style="fill-opacity:0.00" />
<ellipse cx="475.000000" cy="329.997589" rx="16.666667" ry="0.001208" fill="rgb(255, 255, 255)" style="fill-opacity:1.00" />
<rect height="0.001812" width="25.000000" x="475.000000" y="329.996683" fill="rgb(255, 255, 255)" style="fill-opacity:1.00" />
<!-- End 'C' -->
<!-- Begin 'T' -->
<rect height="0.000096" width="50.000000" x="450.000000" y="329.999401" fill="rgb(0, 100, 0)" style="fill-opacity:0.00" />
<rect height="0.000599" width="10.000000" x="470.000000" y="329.999401" fill="rgb(0, 100, 0)" style="fill-opacity:0.00" />
<!-- End 'T' -->
<!-- Begin 'G' -->
<ellipse cx="475.000000" cy="389.840139" rx="25.000000" ry="49.840139" fill="rgb(255, 165, 0)" style="fill-opacity:0.99" />
<ellipse cx="475.000000" cy="389.840139" rx="16.666667" ry="33.226759" fill="rgb(255, 255, 255)" style="fill-opacity:1.00" />
<rect height="49.840139" width="25.000000" x="475.000000" y="364.920070" fill="rgb(255, 255, 255)" style="fill-opacity:1.00" />
<rect height="12.460035" width="25.000000" x="475.000000" y="402.300174" fill="rgb(255, 165, 0)" style="fill-opacity:0.99" />
<rect height="37.380104" width="6.250000" x="493.750000" y="402.300174" fill="rgb(255, 165, 0)" style="fill-opacity:0.99" />
<!-- End 'G' -->
<!-- Begin 'A' -->
<polygon points=" 450.000000, 439.994486, 471.000000, 439.680278, 479.000000, 439.680278, 500.000000, 439.994486, 492.500000, 439.994486, 486.250000, 439.915934, 463.750000, 439.915934, 457.500000, 439.994486" fill="rgb(178, 34, 34)" style="fill-opacity:0.99" />
<!-- End 'A' -->
<!-- Begin 'C' -->
<ellipse cx="475.000000" cy="439.996329" rx="25.000000" ry="0.001843" fill="rgb(0, 0, 128)" style="fill-opacity:0.99" />
<ellipse cx="475.000000" cy="439.996329" rx="16.666667" ry="0.001229" fill="rgb(255, 255, 255)" style="fill-opacity:1.00" />
<rect height="0.001843" width="25.000000" x="475.000000" y="439.995407" fill="rgb(255, 255, 255)" style="fill-opacity:1.00" />
<!-- End 'C' -->
<!-- Begin 'T' -->
<rect height="0.000292" width="50.000000" x="450.000000" y="439.998172" fill="rgb(0, 100, 0)" style="fill-opacity:0.99" />
<rect height="0.001828" width="10.000000" x="470.000000" y="439.998172" fill="rgb(0, 100, 0)" style="fill-opacity:0.99" />
<!-- End 'T' -->
<!-- Begin 'G' -->
<ellipse cx="535.000000" cy="56.646954" rx="25.000000" ry="46.646954" fill="rgb(255, 165, 0)" style="fill-opacity:0.00" />
<ellipse cx="535.000000" cy="56.646954" rx="16.666667" ry="31.097969" fill="rgb(255, 255, 255)" style="fill-opacity:1.00" />
<rect height="46.646954" width="25.000000" x="535.000000" y="33.323477" fill="rgb(255, 255, 255)" style="fill-opacity:1.00" />
<rect height="11.661739" width="25.000000" x="535.000000" y="68.308693" fill="rgb(255, 165, 0)" style="fill-opacity:0.00" />
<rect height="34.985216" width="6.250000" x="553.750000" y="68.308693" fill="rgb(255, 165, 0)" style="fill-opacity:0.00" />
<!-- End 'G' -->
<!-- Begin 'A' -->
<polygon points=" 510.000000, 109.985866, 531.000000, 103.293908, 539.000000, 103.293908, 560.000000, 109.985866, 552.500000, 109.985866, 546.250000, 108.312876, 523.750000, 108.312876, 517.500000, 109.985866" fill="rgb(178, 34, 34)" style="fill-opacity:0.00" />
<!-- End 'A' -->
<!-- Begin 'C' -->
<ellipse cx="535.000000" cy="109.992088" rx="25.000000" ry="0.006222" fill="rgb(0, 0, 128)" style="fill-opacity:0.00" />
<ellipse cx="535.000000" cy="109.992088" rx="16.666667" ry="0.004148" fill="rgb(255, 255, 255)" style="fill-opacity:1.00" />
<rect height="0.006222" width="25.000000" x="535.000000" y="109.988977" fill="rgb(255, 255, 255)" style="fill-opacity:1.00" />
<!-- End 'C' -->
<!-- Begin 'T' -->
<rect height="0.000270" width="50.000000" x="510.000000" y="109.998310" fill="rgb(0, 100, 0)" style="fill-opacity:0.00" />
<rect height="0.001690" width="10.000000" x="530.000000" y="109.998310" fill="rgb(0, 100, 0)" style="fill-opacity:0.00" />
<!-- End 'T' -->
<!-- Begin 'G' -->
<ellipse cx="535.000000" cy="169.229993" rx="25.000000" ry="49.229993" fill="rgb(255, 165, 0)" style="fill-opacity:0.00" />
<ellipse cx="535.000000" cy="169.229993" rx="16.666667" ry="32.819995" fill="rgb(255, 255, 255)" style="fill-opacity:1.00" />
<rect height="49.229993" width="25.000000" x="535.000000" y="144.614996" fill="rgb(255, 255, 255)" style="fill-opacity:1.00" />
<rect height="12.307498" width="25.000000" x="535.000000" y="181.537491" fill="rgb(255, 165, 0)" style="fill-opacity:0.00" />
<rect height="36.922494" width="6.250000" x="553.750000" y="181.537491" fill="rgb(255, 165, 0)" style="fill-opacity:0.00" />
<!-- End 'G' -->
<!-- Begin 'A' -->
<polygon points=" 510.000000, 219.882940, 531.000000, 218.459985, 539.000000, 218.459985, 560.000000, 219.882940, 552.500000, 219.882940, 546.250000, 219.527201, 523.750000, 219.527201, 517.500000, 219.882940" fill="rgb(178, 34, 34)" style="fill-opacity:0.00" />
<!-- End 'A' -->
<!-- Begin 'T' -->
<rect height="0.013885" width="50.000000" x="510.000000" y="219.882940" fill="rgb(0, 100, 0)" style="fill-opacity:0.00" />
<rect height="0.086780" width="10.000000" x="530.000000" y="219.882940" fill="rgb(0, 100, 0)" style="fill-opacity:0.00" />
<!-- End 'T' -->
<!-- Begin 'C' -->
<ellipse cx="535.000000" cy="219.984860" rx="25.000000" ry="0.015140" fill="rgb(0, 0, 128)" style="fill-opacity:0.00" />
<ellipse cx="535.000000" cy="219.984860" rx="16.666667" ry="0.010093" fill="rgb(255, 255, 255)" style="fill-opacity:1.00" />
<rect height="0.015140" width="25.000000" x="535.000000" y="219.977290" fill="rgb(255, 255, 255)" style="fill-opacity:1.00" />
<!-- End 'C' -->
<!-- Begin 'G' -->
<ellipse cx="535.000000" cy="276.839640" rx="25.000000" ry="46.839640" fill="rgb(255, 165, 0)" style="fill-opacity:1.00" />
<ellipse cx="535.000000" cy="276.839640" rx="16.666667" ry="31.226427" fill="rgb(255, 255, 255)" style="fill-opacity:1.00" />
<rect height="46.839640" width="25.000000" x="535.000000" y="253.419820" fill="rgb(255, 255, 255)" style="fill-opacity:1.00" />
<rect height="11.709910" width="25.000000" x="535.000000" y="288.549550" fill="rgb(255, 165, 0)" style="fill-opacity:1.00" />
<rect height="35.129730" width="6.250000" x="553.750000" y="288.549550" fill="rgb(255, 165, 0)" style="fill-opacity:1.00" />
<!-- End 'G' -->
<!-- Begin 'T' -->
<rect height="0.505151" width="50.000000" x="510.000000" y="323.679280" fill="rgb(0, 100, 0)" style="fill-opacity:1.00" />
<rect height="3.157196" width="10.000000" x="530.000000" y="323.679280" fill="rgb(0, 100, 0)" style="fill-opacity:1.00" />
<!-- End 'T' -->
<!-- Begin 'A' -->
<polygon points=" 510.000000, 329.885077, 531.000000, 326.836477, 539.000000, 326.836477, 560.000000, 329.885077, 552.500000, 329.885077, 546.250000, 329.122927, 523.750000, 329.122927, 517.500000, 329.885077" fill="rgb(178, 34, 34)" style="fill-opacity:1.00" />
<!-- End 'A' -->
<!-- Begin 'C' -->
<ellipse cx="535.000000" cy="329.942539" rx="25.000000" ry="0.057461" fill="rgb(0, 0, 128)" style="fill-opacity:1.00" />
<ellipse cx="535.000000" cy="329.942539" rx="16.666667" ry="0.038308" fill="rgb(255, 255, 255)" style="fill-opacity:1.00" />
<rect height="0.057461" width="25.000000" x="535.000000" y="329.913808" fill="rgb(255, 255, 255)" style="fill-opacity:1.00" />
<!-- End 'C' -->
<!-- Begin 'G' -->
<ellipse cx="535.000000" cy="387.211684" rx="25.000000" ry="47.211684" fill="rgb(255, 165, 0)" style="fill-opacity:0.00" />
<ellipse cx="535.000000" cy="387.211684" rx="16.666667" ry="31.474456" fill="rgb(255, 255, 255)" style="fill-opacity:1.00" />
<rect height="47.211684" width="25.000000" x="535.000000" y="363.605842" fill="rgb(255, 255, 255)" style="fill-opacity:1.00" />
<rect height="11.802921" width="25.000000" x="535.000000" y="399.014605" fill="rgb(255, 165, 0)" style="fill-opacity:0.00" />
<rect height="35.408763" width="6.250000" x="553.750000" y="399.014605" fill="rgb(255, 165, 0)" style="fill-opacity:0.00" />
<!-- End 'G' -->
<!-- Begin 'A' -->
<polygon points=" 510.000000, 439.882276, 531.000000, 434.423368, 539.000000, 434.423368, 560.000000, 439.882276, 552.500000, 439.882276, 546.250000, 438.517549, 523.750000, 438.517549, 517.500000, 439.882276" fill="rgb(178, 34, 34)" style="fill-opacity:0.00" />
<!-- End 'A' -->
<!-- Begin 'C' -->
<ellipse cx="535.000000" cy="439.918004" rx="25.000000" ry="0.035728" fill="rgb(0, 0, 128)" style="fill-opacity:0.00" />
<ellipse cx="535.000000" cy="439.918004" rx="16.666667" ry="0.023819" fill="rgb(255, 255, 255)" style="fill-opacity:1.00" />
<rect height="0.035728" width="25.000000" x="535.000000" y="439.900140" fill="rgb(255, 255, 255)" style="fill-opacity:1.00" />
<!-- End 'C' -->
<!-- Begin 'T' -->
<rect height="0.007403" width="50.000000" x="510.000000" y="439.953731" fill="rgb(0, 100, 0)" style="fill-opacity:0.00" />
<rect height="0.046269" width="10.000000" x="530.000000" y="439.953731" fill="rgb(0, 100, 0)" style="fill-opacity:0.00" />
<!-- End 'T' -->
<!-- Begin 'C' -->
<ellipse cx="595.000000" cy="42.445468" rx="25.000000" ry="32.445468" fill="rgb(0, 0, 128)" style="fill-opacity:0.03" />
<ellipse cx="595.000000" cy="42.445468" rx="16.666667" ry="21.630312" fill="rgb(255, 255, 255)" style="fill-opacity:1.00" />
<rect height="32.445468" width="25.000000" x="595.000000" y="26.222734" fill="rgb(255, 255, 255)" style="fill-opacity:1.00" />
<!-- End 'C' -->
<!-- Begin 'A' -->
<polygon points=" 570.000000, 99.134595, 591.000000, 74.890936, 599.000000, 74.890936, 620.000000, 99.134595, 612.500000, 99.134595, 606.250000, 93.073680, 583.750000, 93.073680, 577.500000, 99.134595" fill="rgb(178, 34, 34)" style="fill-opacity:0.03" />
<polygon points=" 595.000000, 79.739668, 587.000000, 88.437131, 602.000000, 88.437131" fill="rgb(255, 255, 255)" style="fill-opacity:1.00" />
<!-- End 'A' -->
<!-- Begin 'T' -->
<rect height="1.049017" width="50.000000" x="570.000000" y="99.134595" fill="rgb(0, 100, 0)" style="fill-opacity:0.03" />
<rect height="6.556358" width="10.000000" x="590.000000" y="99.134595" fill="rgb(0, 100, 0)" style="fill-opacity:0.03" />
<!-- End 'T' -->
<!-- Begin 'G' -->
<ellipse cx="595.000000" cy="107.845476" rx="25.000000" ry="2.154524" fill="rgb(255, 165, 0)" style="fill-opacity:0.03" />
<ellipse cx="595.000000" cy="107.845476" rx="16.666667" ry="1.436349" fill="rgb(255, 255, 255)" style="fill-opacity:1.00" />
<rect height="2.154524" width="25.000000" x="595.000000" y="106.768214" fill="rgb(255, 255, 255)" style="fill-opacity:1.00" />
<rect height="0.538631" width="25.000000" x="595.000000" y="108.384107" fill="rgb(255, 165, 0)" style="fill-opacity:0.03" />
<rect height="1.615893" width="6.250000" x="613.750000" y="108.384107" fill="rgb(255, 165, 0)" style="fill-opacity:0.03" />
<!-- End 'G' -->
<!-- Begin 'C' -->
<ellipse cx="595.000000" cy="151.636062" rx="25.000000" ry="31.636062" fill="rgb(0, 0, 128)" style="fill-opacity:0.00" />
<ellipse cx="595.000000" cy="151.636062" rx="16.666667" ry="21.090708" fill="rgb(255, 255, 255)" style="fill-opacity:1.00" />
<rect height="31.636062" width="25.000000" x="595.000000" y="135.818031" fill="rgb(255, 255, 255)" style="fill-opacity:1.00" />
<!-- End 'C' -->
<!-- Begin 'T' -->
<rect height="4.682354" width="50.000000" x="570.000000" y="183.272123" fill="rgb(0, 100, 0)" style="fill-opacity:0.00" />
<rect height="29.264714" width="10.000000" x="590.000000" y="183.272123" fill="rgb(0, 100, 0)" style="fill-opacity:0.00" />
<!-- End 'T' -->
<!-- Begin 'A' -->
<polygon points=" 570.000000, 219.964635, 591.000000, 212.536837, 599.000000, 212.536837, 620.000000, 219.964635, 612.500000, 219.964635, 606.250000, 218.107686, 583.750000, 218.107686, 577.500000, 219.964635" fill="rgb(178, 34, 34)" style="fill-opacity:0.00" />
<!-- End 'A' -->
<!-- Begin 'G' -->
<ellipse cx="595.000000" cy="219.982318" rx="25.000000" ry="0.017682" fill="rgb(255, 165, 0)" style="fill-opacity:0.00" />
<ellipse cx="595.000000" cy="219.982318" rx="16.666667" ry="0.011788" fill="rgb(255, 255, 255)" style="fill-opacity:1.00" />
<rect height="0.017682" width="25.000000" x="595.000000" y="219.973477" fill="rgb(255, 255, 255)" style="fill-opacity:1.00" />
<rect height="0.004421" width="25.000000" x="595.000000" y="219.986738" fill="rgb(255, 165, 0)" style="fill-opacity:0.00" />
<rect height="0.013262" width="6.250000" x="613.750000" y="219.986738" fill="rgb(255, 165, 0)" style="fill-opacity:0.00" />
<!-- End 'G' -->
<!-- Begin 'C' -->
<ellipse cx="595.000000" cy="266.587800" rx="25.000000" ry="36.587800" fill="rgb(0, 0, 128)" style="fill-opacity:0.94" />
<ellipse cx="595.000000" cy="266.587800" rx="16.666667" ry="24.391867" fill="rgb(255, 255, 255)" style="fill-opacity:1.00" />
<rect height="36.587800" width="25.000000" x="595.000000" y="248.293900" fill="rgb(255, 255, 255)" style="fill-opacity:1.00" />
<!-- End 'C' -->
<!-- Begin 'A' -->
<polygon points=" 570.000000, 317.051437, 591.000000, 303.175600, 599.000000, 303.175600, 620.000000, 317.051437, 612.500000, 317.051437, 606.250000, 313.582478, 583.750000, 313.582478, 577.500000, 317.051437" fill="rgb(178, 34, 34)" style="fill-opacity:0.94" />
<polygon points=" 595.000000, 305.950768, 587.000000, 310.501103, 602.000000, 310.501103" fill="rgb(255, 255, 255)" style="fill-opacity:1.00" />
<!-- End 'A' -->
<!-- Begin 'T' -->
<rect height="1.659845" width="50.000000" x="570.000000" y="317.051437" fill="rgb(0, 100, 0)" style="fill-opacity:0.94" />
<rect height="10.374029" width="10.000000" x="590.000000" y="317.051437" fill="rgb(0, 100, 0)" style="fill-opacity:0.94" />
<!-- End 'T' -->
<!-- Begin 'G' -->
<ellipse cx="595.000000" cy="328.712733" rx="25.000000" ry="1.287267" fill="rgb(255, 165, 0)" style="fill-opacity:0.94" />
<ellipse cx="595.000000" cy="328.712733" rx="16.666667" ry="0.858178" fill="rgb(255, 255, 255)" style="fill-opacity:1.00" />
<rect height="1.287267" width="25.000000" x="595.000000" y="328.069100" fill="rgb(255, 255, 255)" style="fill-opacity:1.00" />
<rect height="0.321817" width="25.000000" x="595.000000" y="329.034550" fill="rgb(255, 165, 0)" style="fill-opacity:0.94" />
<rect height="0.965450" width="6.250000" x="613.750000" y="329.034550" fill="rgb(255, 165, 0)" style="fill-opacity:0.94" />
<!-- End 'G' -->
<!-- Begin 'C' -->
<ellipse cx="595.000000" cy="386.901078" rx="25.000000" ry="46.901078" fill="rgb(0, 0, 128)" style="fill-opacity:0.03" />
<ellipse cx="595.000000" cy="386.901078" rx="16.666667" ry="31.267385" fill="rgb(255, 255, 255)" style="fill-opacity:1.00" />
<rect height="46.901078" width="25.000000" x="595.000000" y="363.450539" fill="rgb(255, 255, 255)" style="fill-opacity:1.00" />
<!-- End 'C' -->
<!-- Begin 'A' -->
<polygon points=" 570.000000, 439.176744, 591.000000, 433.802156, 599.000000, 433.802156, 620.000000, 439.176744, 612.500000, 439.176744, 606.250000, 437.833097, 583.750000, 437.833097, 577.500000, 439.176744" fill="rgb(178, 34, 34)" style="fill-opacity:0.03" />
<!-- End 'A' -->
<!-- Begin 'T' -->
<rect height="0.108381" width="50.000000" x="570.000000" y="439.176744" fill="rgb(0, 100, 0)" style="fill-opacity:0.03" />
<rect height="0.677379" width="10.000000" x="590.000000" y="439.176744" fill="rgb(0, 100, 0)" style="fill-opacity:0.03" />
<!-- End 'T' -->
<!-- Begin 'G' -->
<ellipse cx="595.000000" cy="439.927061" rx="25.000000" ry="0.072939" fill="rgb(255, 165, 0)" style="fill-opacity:0.03" />
<ellipse cx="595.000000" cy="439.927061" rx="16.666667" ry="0.048626" fill="rgb(255, 255, 255)" style="fill-opacity:1.00" />
<rect height="0.072939" width="25.000000" x="595.000000" y="439.890592" fill="rgb(255, 255, 255)" style="fill-opacity:1.00" />
<rect height="0.018235" width="25.000000" x="595.000000" y="439.945296" fill="rgb(255, 165, 0)" style="fill-opacity:0.03" />
<rect height="0.054704" width="6.250000" x="613.750000" y="439.945296" fill="rgb(255, 165, 0)" style="fill-opacity:0.03" />
<!-- End 'G' -->
<!-- Begin 'G' -->
<ellipse cx="655.000000" cy="43.693132" rx="25.000000" ry="33.693132" fill="rgb(255, 165, 0)" style="fill-opacity:0.14" />
<ellipse cx="655.000000" cy="43.693132" rx="16.666667" ry="22.462088" fill="rgb(255, 255, 255)" style="fill-opacity:1.00" />
<rect height="33.693132" width="25.000000" x="655.000000" y="26.846566" fill="rgb(255, 255, 255)" style="fill-opacity:1.00" />
<rect height="8.423283" width="25.000000" x="655.000000" y="52.116415" fill="rgb(255, 165, 0)" style="fill-opacity:0.14" />
<rect height="25.269849" width="6.250000" x="673.750000" y="52.116415" fill="rgb(255, 165, 0)" style="fill-opacity:0.14" />
<!-- End 'G' -->
<!-- Begin 'A' -->
<polygon points=" 630.000000, 93.160207, 651.000000, 77.386264, 659.000000, 77.386264, 680.000000, 93.160207, 672.500000, 93.160207, 666.250000, 89.216721, 643.750000, 89.216721, 637.500000, 93.160207" fill="rgb(178, 34, 34)" style="fill-opacity:0.14" />
<polygon points=" 655.000000, 80.541053, 647.000000, 85.850630, 662.000000, 85.850630" fill="rgb(255, 255, 255)" style="fill-opacity:1.00" />
<!-- End 'A' -->
<!-- Begin 'C' -->
<ellipse cx="655.000000" cy="97.883674" rx="25.000000" ry="4.723467" fill="rgb(0, 0, 128)" style="fill-opacity:0.14" />
<ellipse cx="655.000000" cy="97.883674" rx="16.666667" ry="3.148978" fill="rgb(255, 255, 255)" style="fill-opacity:1.00" />
<rect height="4.723467" width="25.000000" x="655.000000" y="95.521941" fill="rgb(255, 255, 255)" style="fill-opacity:1.00" />
<!-- End 'C' -->
<!-- Begin 'T' -->
<rect height="1.182857" width="50.000000" x="630.000000" y="102.607141" fill="rgb(0, 100, 0)" style="fill-opacity:0.14" />
<rect height="7.392859" width="10.000000" x="650.000000" y="102.607141" fill="rgb(0, 100, 0)" style="fill-opacity:0.14" />
<!-- End 'T' -->
<!-- Begin 'G' -->
<ellipse cx="655.000000" cy="139.984388" rx="25.000000" ry="19.984388" fill="rgb(255, 165, 0)" style="fill-opacity:0.74" />
<ellipse cx="655.000000" cy="139.984388" rx="16.666667" ry="13.322925" fill="rgb(255, 255, 255)" style="fill-opacity:1.00" />
<rect height="19.984388" width="25.000000" x="655.000000" y="129.992194" fill="rgb(255, 255, 255)" style="fill-opacity:1.00" />
<rect height="4.996097" width="25.000000" x="655.000000" y="144.980485" fill="rgb(255, 165, 0)" style="fill-opacity:0.74" />
<rect height="14.988291" width="6.250000" x="673.750000" y="144.980485" fill="rgb(255, 165, 0)" style="fill-opacity:0.74" />
<!-- End 'G' -->
<!-- Begin 'T' -->
<rect height="4.314164" width="50.000000" x="630.000000" y="159.968776" fill="rgb(0, 100, 0)" style="fill-opacity:0.74" />
<rect height="26.963524" width="10.000000" x="650.000000" y="159.968776" fill="rgb(0, 100, 0)" style="fill-opacity:0.74" />
<!-- End 'T' -->
<!-- Begin 'C' -->
<ellipse cx="655.000000" cy="197.537980" rx="25.000000" ry="10.605680" fill="rgb(0, 0, 128)" style="fill-opacity:0.74" />
<ellipse cx="655.000000" cy="197.537980" rx="16.666667" ry="7.070453" fill="rgb(255, 255, 255)" style="fill-opacity:1.00" />
<rect height="10.605680" width="25.000000" x="655.000000" y="192.235140" fill="rgb(255, 255, 255)" style="fill-opacity:1.00" />
<!-- End 'C' -->
<!-- Begin 'A' -->
<polygon points=" 630.000000, 220.000000, 651.000000, 208.143660, 659.000000, 208.143660, 680.000000, 220.000000, 672.500000, 220.000000, 666.250000, 217.035915, 643.750000, 217.035915, 637.500000, 220.000000" fill="rgb(178, 34, 34)" style="fill-opacity:0.74" />
<polygon points=" 655.000000, 210.514928, 647.000000, 214.257464, 662.000000, 214.257464" fill="rgb(255, 255, 255)" style="fill-opacity:1.00" />
<!-- End 'A' -->
<!-- Begin 'G' -->
<ellipse cx="655.000000" cy="253.736142" rx="25.000000" ry="23.736142" fill="rgb(255, 165, 0)" style="fill-opacity:0.03" />
<ellipse cx="655.000000" cy="253.736142" rx="16.666667" ry="15.824095" fill="rgb(255, 255, 255)" style="fill-opacity:1.00" />
<rect height="23.736142" width="25.000000" x="655.000000" y="241.868071" fill="rgb(255, 255, 255)" style="fill-opacity:1.00" />
<rect height="5.934036" width="25.000000" x="655.000000" y="259.670178" fill="rgb(255, 165, 0)" style="fill-opacity:0.03" />
<rect height="17.802107" width="6.250000" x="673.750000" y="259.670178" fill="rgb(255, 165, 0)" style="fill-opacity:0.03" />
<!-- End 'G' -->
<!-- Begin 'A' -->
<polygon points=" 630.000000, 302.321835, 651.000000, 277.472285, 659.000000, 277.472285, 680.000000, 302.321835, 672.500000, 302.321835, 666.250000, 296.109447, 643.750000, 296.109447, 637.500000, 302.321835" fill="rgb(178, 34, 34)" style="fill-opacity:0.03" />
<polygon points=" 655.000000, 282.442195, 647.000000, 291.382015, 662.000000, 291.382015" fill="rgb(255, 255, 255)" style="fill-opacity:1.00" />
<!-- End 'A' -->
<!-- Begin 'C' -->
<ellipse cx="655.000000" cy="310.842954" rx="25.000000" ry="8.521119" fill="rgb(0, 0, 128)" style="fill-opacity:0.03" />
<ellipse cx="655.000000" cy="310.842954" rx="16.666667" ry="5.680746" fill="rgb(255, 255, 255)" style="fill-opacity:1.00" />
<rect height="8.521119" width="25.000000" x="655.000000" y="306.582394" fill="rgb(255, 255, 255)" style="fill-opacity:1.00" />
<!-- End 'C' -->
<!-- Begin 'T' -->
<rect height="1.701748" width="50.000000" x="630.000000" y="319.364073" fill="rgb(0, 100, 0)" style="fill-opacity:0.03" />
<rect height="10.635927" width="10.000000" x="650.000000" y="319.364073" fill="rgb(0, 100, 0)" style="fill-opacity:0.03" />
<!-- End 'T' -->
<!-- Begin 'G' -->
<ellipse cx="655.000000" cy="378.652476" rx="25.000000" ry="38.652476" fill="rgb(255, 165, 0)" style="fill-opacity:0.10" />
<ellipse cx="655.000000" cy="378.652476" rx="16.666667" ry="25.768318" fill="rgb(255, 255, 255)" style="fill-opacity:1.00" />
<rect height="38.652476" width="25.000000" x="655.000000" y="359.326238" fill="rgb(255, 255, 255)" style="fill-opacity:1.00" />
<rect height="9.663119" width="25.000000" x="655.000000" y="388.315596" fill="rgb(255, 165, 0)" style="fill-opacity:0.10" />
<rect height="28.989357" width="6.250000" x="673.750000" y="388.315596" fill="rgb(255, 165, 0)" style="fill-opacity:0.10" />
<!-- End 'G' -->
<!-- Begin 'T' -->
<rect height="1.621235" width="50.000000" x="630.000000" y="417.304953" fill="rgb(0, 100, 0)" style="fill-opacity:0.10" />
<rect height="10.132719" width="10.000000" x="650.000000" y="417.304953" fill="rgb(0, 100, 0)" style="fill-opacity:0.10" />
<!-- End 'T' -->
<!-- Begin 'C' -->
<ellipse cx="655.000000" cy="430.962223" rx="25.000000" ry="3.524551" fill="rgb(0, 0, 128)" style="fill-opacity:0.10" />
<ellipse cx="655.000000" cy="430.962223" rx="16.666667" ry="2.349700" fill="rgb(255, 255, 255)" style="fill-opacity:1.00" />
<rect height="3.524551" width="25.000000" x="655.000000" y="429.199947" fill="rgb(255, 255, 255)" style="fill-opacity:1.00" />
<!-- End 'C' -->
<!-- Begin 'A' -->
<polygon points=" 630.000000, 440.000000, 651.000000, 434.486773, 659.000000, 434.486773, 680.000000, 440.000000, 672.500000, 440.000000, 666.250000, 438.621693, 643.750000, 438.621693, 637.500000, 440.000000" fill="rgb(178, 34, 34)" style="fill-opacity:0.10" />
<!-- End 'A' -->
<!-- Begin 'G' -->
<ellipse cx="715.000000" cy="45.776765" rx="25.000000" ry="35.776765" fill="rgb(255, 165, 0)" style="fill-opacity:0.12" />
<ellipse cx="715.000000" cy="45.776765" rx="16.666667" ry="23.851176" fill="rgb(255, 255, 255)" style="fill-opacity:1.00" />
<rect height="35.776765" width="25.000000" x="715.000000" y="27.888382" fill="rgb(255, 255, 255)" style="fill-opacity:1.00" />
<rect height="8.944191" width="25.000000" x="715.000000" y="54.720956" fill="rgb(255, 165, 0)" style="fill-opacity:0.12" />
<rect height="26.832573" width="6.250000" x="733.750000" y="54.720956" fill="rgb(255, 165, 0)" style="fill-opacity:0.12" />
<!-- End 'G' -->
<!-- Begin 'A' -->
<polygon points=" 690.000000, 94.950545, 711.000000, 81.553529, 719.000000, 81.553529, 740.000000, 94.950545, 732.500000, 94.950545, 726.250000, 91.601291, 703.750000, 91.601291, 697.500000, 94.950545" fill="rgb(178, 34, 34)" style="fill-opacity:0.12" />
<polygon points=" 715.000000, 84.232932, 707.000000, 88.591738, 722.000000, 88.591738" fill="rgb(255, 255, 255)" style="fill-opacity:1.00" />
<!-- End 'A' -->
<!-- Begin 'C' -->
<ellipse cx="715.000000" cy="100.281688" rx="25.000000" ry="5.331143" fill="rgb(0, 0, 128)" style="fill-opacity:0.12" />
<ellipse cx="715.000000" cy="100.281688" rx="16.666667" ry="3.554095" fill="rgb(255, 255, 255)" style="fill-opacity:1.00" />
<rect height="5.331143" width="25.000000" x="715.000000" y="97.616116" fill="rgb(255, 255, 255)" style="fill-opacity:1.00" />
<!-- End 'C' -->
<!-- Begin 'T' -->
<rect height="0.701947" width="50.000000" x="690.000000" y="105.612831" fill="rgb(0, 100, 0)" style="fill-opacity:0.12" />
<rect height="4.387169" width="10.000000" x="710.000000" y="105.612831" fill="rgb(0, 100, 0)" style="fill-opacity:0.12" />
<!-- End 'T' -->
<!-- Begin 'G' -->
<ellipse cx="715.000000" cy="145.637933" rx="25.000000" ry="25.637933" fill="rgb(255, 165, 0)" style="fill-opacity:0.18" />
<ellipse cx="715.000000" cy="145.637933" rx="16.666667" ry="17.091955" fill="rgb(255, 255, 255)" style="fill-opacity:1.00" />
<rect height="25.637933" width="25.000000" x="715.000000" y="132.818967" fill="rgb(255, 255, 255)" style="fill-opacity:1.00" />
<rect height="6.409483" width="25.000000" x="715.000000" y="152.047416" fill="rgb(255, 165, 0)" style="fill-opacity:0.18" />
<rect height="19.228450" width="6.250000" x="733.750000" y="152.047416" fill="rgb(255, 165, 0)" style="fill-opacity:0.18" />
<!-- End 'G' -->
<!-- Begin 'A' -->
<polygon points=" 690.000000, 193.943204, 711.000000, 171.275866, 719.000000, 171.275866, 740.000000, 193.943204, 732.500000, 193.943204, 726.250000, 188.276369, 703.750000, 188.276369, 697.500000, 193.943204" fill="rgb(178, 34, 34)" style="fill-opacity:0.18" />
<polygon points=" 715.000000, 175.809334, 707.000000, 183.876269, 722.000000, 183.876269" fill="rgb(255, 255, 255)" style="fill-opacity:1.00" />
<!-- End 'A' -->
<!-- Begin 'T' -->
<rect height="2.636024" width="50.000000" x="690.000000" y="193.943204" fill="rgb(0, 100, 0)" style="fill-opacity:0.18" />
<rect height="16.475151" width="10.000000" x="710.000000" y="193.943204" fill="rgb(0, 100, 0)" style="fill-opacity:0.18" />
<!-- End 'T' -->
<!-- Begin 'C' -->
<ellipse cx="715.000000" cy="215.209177" rx="25.000000" ry="4.790823" fill="rgb(0, 0, 128)" style="fill-opacity:0.18" />
<ellipse cx="715.000000" cy="215.209177" rx="16.666667" ry="3.193882" fill="rgb(255, 255, 255)" style="fill-opacity:1.00" />
<rect height="4.790823" width="25.000000" x="715.000000" y="212.813766" fill="rgb(255, 255, 255)" style="fill-opacity:1.00" />
<!-- End 'C' -->
<!-- Begin 'G' -->
<ellipse cx="715.000000" cy="257.500069" rx="25.000000" ry="27.500069" fill="rgb(255, 165, 0)" style="fill-opacity:0.48" />
<ellipse cx="715.000000" cy="257.500069" rx="16.666667" ry="18.333379" fill="rgb(255, 255, 255)" style="fill-opacity:1.00" />
<rect height="27.500069" width="25.000000" x="715.000000" y="243.750035" fill="rgb(255, 255, 255)" style="fill-opacity:1.00" />
<rect height="6.875017" width="25.000000" x="715.000000" y="264.375086" fill="rgb(255, 165, 0)" style="fill-opacity:0.48" />
<rect height="20.625052" width="6.250000" x="733.750000" y="264.375086" fill="rgb(255, 165, 0)" style="fill-opacity:0.48" />
<!-- End 'G' -->
<!-- Begin 'C' -->
<ellipse cx="715.000000" cy="295.830453" rx="25.000000" ry="10.830315" fill="rgb(0, 0, 128)" style="fill-opacity:0.48" />
<ellipse cx="715.000000" cy="295.830453" rx="16.666667" ry="7.220210" fill="rgb(255, 255, 255)" style="fill-opacity:1.00" />
<rect height="10.830315" width="25.000000" x="715.000000" y="290.415296" fill="rgb(255, 255, 255)" style="fill-opacity:1.00" />
<!-- End 'C' -->
<!-- Begin 'T' -->
<rect height="1.867183" width="50.000000" x="690.000000" y="306.660768" fill="rgb(0, 100, 0)" style="fill-opacity:0.48" />
<rect height="11.669897" width="10.000000" x="710.000000" y="306.660768" fill="rgb(0, 100, 0)" style="fill-opacity:0.48" />
<!-- End 'T' -->
<!-- Begin 'A' -->
<polygon points=" 690.000000, 330.000000, 711.000000, 318.330664, 719.000000, 318.330664, 740.000000, 330.000000, 732.500000, 330.000000, 726.250000, 327.082666, 703.750000, 327.082666, 697.500000, 330.000000" fill="rgb(178, 34, 34)" style="fill-opacity:0.48" />
<polygon points=" 715.000000, 320.664531, 707.000000, 324.332266, 722.000000, 324.332266" fill="rgb(255, 255, 255)" style="fill-opacity:1.00" />
<!-- End 'A' -->
<!-- Begin 'G' -->
<ellipse cx="715.000000" cy="374.063378" rx="25.000000" ry="34.063378" fill="rgb(255, 165, 0)" style="fill-opacity:0.22" />
<ellipse cx="715.000000" cy="374.063378" rx="16.666667" ry="22.708918" fill="rgb(255, 255, 255)" style="fill-opacity:1.00" />
<rect height="34.063378" width="25.000000" x="715.000000" y="357.031689" fill="rgb(255, 255, 255)" style="fill-opacity:1.00" />
<rect height="8.515844" width="25.000000" x="715.000000" y="382.579222" fill="rgb(255, 165, 0)" style="fill-opacity:0.22" />
<rect height="25.547533" width="6.250000" x="733.750000" y="382.579222" fill="rgb(255, 165, 0)" style="fill-opacity:0.22" />
<!-- End 'G' -->
<!-- Begin 'C' -->
<ellipse cx="715.000000" cy="415.175277" rx="25.000000" ry="7.048522" fill="rgb(0, 0, 128)" style="fill-opacity:0.22" />
<ellipse cx="715.000000" cy="415.175277" rx="16.666667" ry="4.699015" fill="rgb(255, 255, 255)" style="fill-opacity:1.00" />
<rect height="7.048522" width="25.000000" x="715.000000" y="411.651016" fill="rgb(255, 255, 255)" style="fill-opacity:1.00" />
<!-- End 'C' -->
<!-- Begin 'T' -->
<rect height="1.869318" width="50.000000" x="690.000000" y="422.223799" fill="rgb(0, 100, 0)" style="fill-opacity:0.22" />
<rect height="11.683235" width="10.000000" x="710.000000" y="422.223799" fill="rgb(0, 100, 0)" style="fill-opacity:0.22" />
<!-- End 'T' -->
<!-- Begin 'A' -->
<polygon points=" 690.000000, 440.000000, 711.000000, 433.907034, 719.000000, 433.907034, 740.000000, 440.000000, 732.500000, 440.000000, 726.250000, 438.476759, 703.750000, 438.476759, 697.500000, 440.000000" fill="rgb(178, 34, 34)" style="fill-opacity:0.22" />
<!-- End 'A' -->
<!-- Begin 'C' -->
<ellipse cx="775.000000" cy="40.318778" rx="25.000000" ry="30.318778" fill="rgb(0, 0, 128)" style="fill-opacity:0.13" />
<ellipse cx="775.000000" cy="40.318778" rx="16.666667" ry="20.212519" fill="rgb(255, 255, 255)" style="fill-opacity:1.00" />
<rect height="30.318778" width="25.000000" x="775.000000" y="25.159389" fill="rgb(255, 255, 255)" style="fill-opacity:1.00" />
<!-- End 'C' -->
<!-- Begin 'A' -->
<polygon points=" 750.000000, 85.568419, 771.000000, 70.637556, 779.000000, 70.637556, 800.000000, 85.568419, 792.500000, 85.568419, 786.250000, 81.835703, 763.750000, 81.835703, 757.500000, 85.568419" fill="rgb(178, 34, 34)" style="fill-opacity:0.13" />
<polygon points=" 775.000000, 73.623728, 767.000000, 78.596074, 782.000000, 78.596074" fill="rgb(255, 255, 255)" style="fill-opacity:1.00" />
<!-- End 'A' -->
<!-- Begin 'T' -->
<rect height="2.332387" width="50.000000" x="750.000000" y="85.568419" fill="rgb(0, 100, 0)" style="fill-opacity:0.13" />
<rect height="14.577419" width="10.000000" x="770.000000" y="85.568419" fill="rgb(0, 100, 0)" style="fill-opacity:0.13" />
<!-- End 'T' -->
<!-- Begin 'G' -->
<ellipse cx="775.000000" cy="105.072919" rx="25.000000" ry="4.927081" fill="rgb(255, 165, 0)" style="fill-opacity:0.13" />
<ellipse cx="775.000000" cy="105.072919" rx="16.666667" ry="3.284721" fill="rgb(255, 255, 255)" style="fill-opacity:1.00" />
<rect height="4.927081" width="25.000000" x="775.000000" y="102.609378" fill="rgb(255, 255, 255)" style="fill-opacity:1.00" />
<rect height="1.231770" width="25.000000" x="775.000000" y="106.304689" fill="rgb(255, 165, 0)" style="fill-opacity:0.13" />
<rect height="3.695311" width="6.250000" x="793.750000" y="106.304689" fill="rgb(255, 165, 0)" style="fill-opacity:0.13" />
<!-- End 'G' -->
<!-- Begin 'C' -->
<ellipse cx="775.000000" cy="150.106499" rx="25.000000" ry="30.106499" fill="rgb(0, 0, 128)" style="fill-opacity:0.16" />
<ellipse cx="775.000000" cy="150.106499" rx="16.666667" ry="20.070999" fill="rgb(255, 255, 255)" style="fill-opacity:1.00" />
<rect height="30.106499" width="25.000000" x="775.000000" y="135.053249" fill="rgb(255, 255, 255)" style="fill-opacity:1.00" />
<!-- End 'C' -->
<!-- Begin 'T' -->
<rect height="3.875542" width="50.000000" x="750.000000" y="180.212997" fill="rgb(0, 100, 0)" style="fill-opacity:0.16" />
<rect height="24.222137" width="10.000000" x="770.000000" y="180.212997" fill="rgb(0, 100, 0)" style="fill-opacity:0.16" />
<!-- End 'T' -->
<!-- Begin 'A' -->
<polygon points=" 750.000000, 214.137825, 771.000000, 204.435134, 779.000000, 204.435134, 800.000000, 214.137825, 792.500000, 214.137825, 786.250000, 211.712152, 763.750000, 211.712152, 757.500000, 214.137825" fill="rgb(178, 34, 34)" style="fill-opacity:0.16" />
<polygon points=" 775.000000, 206.375672, 767.000000, 209.256749, 782.000000, 209.256749" fill="rgb(255, 255, 255)" style="fill-opacity:1.00" />
<!-- End 'A' -->
<!-- Begin 'G' -->
<ellipse cx="775.000000" cy="217.068912" rx="25.000000" ry="2.931088" fill="rgb(255, 165, 0)" style="fill-opacity:0.16" />
<ellipse cx="775.000000" cy="217.068912" rx="16.666667" ry="1.954058" fill="rgb(255, 255, 255)" style="fill-opacity:1.00" />
<rect height="2.931088" width="25.000000" x="775.000000" y="215.603369" fill="rgb(255, 255, 255)" style="fill-opacity:1.00" />
<rect height="0.732772" width="25.000000" x="775.000000" y="217.801684" fill="rgb(255, 165, 0)" style="fill-opacity:0.16" />
<rect height="2.198316" width="6.250000" x="793.750000" y="217.801684" fill="rgb(255, 165, 0)" style="fill-opacity:0.16" />
<!-- End 'G' -->
<!-- Begin 'C' -->
<ellipse cx="775.000000" cy="258.381461" rx="25.000000" ry="28.381461" fill="rgb(0, 0, 128)" style="fill-opacity:0.59" />
<ellipse cx="775.000000" cy="258.381461" rx="16.666667" ry="18.920974" fill="rgb(255, 255, 255)" style="fill-opacity:1.00" />
<rect height="28.381461" width="25.000000" x="775.000000" y="244.190730" fill="rgb(255, 255, 255)" style="fill-opacity:1.00" />
<!-- End 'C' -->
<!-- Begin 'A' -->
<polygon points=" 750.000000, 306.711710, 771.000000, 286.762921, 779.000000, 286.762921, 800.000000, 306.711710, 792.500000, 306.711710, 786.250000, 301.724513, 763.750000, 301.724513, 757.500000, 306.711710" fill="rgb(178, 34, 34)" style="fill-opacity:0.59" />
<polygon points=" 775.000000, 290.752679, 767.000000, 297.732195, 782.000000, 297.732195" fill="rgb(255, 255, 255)" style="fill-opacity:1.00" />
<!-- End 'A' -->
<!-- Begin 'T' -->
<rect height="2.058955" width="50.000000" x="750.000000" y="306.711710" fill="rgb(0, 100, 0)" style="fill-opacity:0.59" />
<rect height="12.868466" width="10.000000" x="770.000000" y="306.711710" fill="rgb(0, 100, 0)" style="fill-opacity:0.59" />
<!-- End 'T' -->
<!-- Begin 'G' -->
<ellipse cx="775.000000" cy="324.790088" rx="25.000000" ry="5.209912" fill="rgb(255, 165, 0)" style="fill-opacity:0.59" />
<ellipse cx="775.000000" cy="324.790088" rx="16.666667" ry="3.473275" fill="rgb(255, 255, 255)" style="fill-opacity:1.00" />
<rect height="5.209912" width="25.000000" x="775.000000" y="322.185132" fill="rgb(255, 255, 255)" style="fill-opacity:1.00" />
<rect height="1.302478" width="25.000000" x="775.000000" y="326.092566" fill="rgb(255, 165, 0)" style="fill-opacity:0.59" />
<rect height="3.907434" width="6.250000" x="793.750000" y="326.092566" fill="rgb(255, 165, 0)" style="fill-opacity:0.59" />
<!-- End 'G' -->
<!-- Begin 'C' -->
<ellipse cx="775.000000" cy="376.428313" rx="25.000000" ry="36.428313" fill="rgb(0, 0, 128)" style="fill-opacity:0.12" />
<ellipse cx="775.000000" cy="376.428313" rx="16.666667" ry="24.285542" fill="rgb(255, 255, 255)" style="fill-opacity:1.00" />
<rect height="36.428313" width="25.000000" x="775.000000" y="358.214156" fill="rgb(255, 255, 255)" style="fill-opacity:1.00" />
<!-- End 'C' -->
<!-- Begin 'T' -->
<rect height="1.910271" width="50.000000" x="750.000000" y="412.856625" fill="rgb(0, 100, 0)" style="fill-opacity:0.12" />
<rect height="11.939196" width="10.000000" x="770.000000" y="412.856625" fill="rgb(0, 100, 0)" style="fill-opacity:0.12" />
<!-- End 'T' -->
<!-- Begin 'G' -->
<ellipse cx="775.000000" cy="429.777093" rx="25.000000" ry="4.981271" fill="rgb(255, 165, 0)" style="fill-opacity:0.12" />
<ellipse cx="775.000000" cy="429.777093" rx="16.666667" ry="3.320848" fill="rgb(255, 255, 255)" style="fill-opacity:1.00" />
<rect height="4.981271" width="25.000000" x="775.000000" y="427.286457" fill="rgb(255, 255, 255)" style="fill-opacity:1.00" />
<rect height="1.245318" width="25.000000" x="775.000000" y="431.022411" fill="rgb(255, 165, 0)" style="fill-opacity:0.12" />
<rect height="3.735954" width="6.250000" x="793.750000" y="431.022411" fill="rgb(255, 165, 0)" style="fill-opacity:0.12" />
<!-- End 'G' -->
<!-- Begin 'A' -->
<polygon points=" 750.000000, 440.000000, 771.000000, 434.758364, 779.000000, 434.758364, 800.000000, 440.000000, 792.500000, 440.000000, 786.250000, 438.689591, 763.750000, 438.689591, 757.500000, 440.000000" fill="rgb(178, 34, 34)" style="fill-opacity:0.12" />
<!-- End 'A' -->
<text x="430.000000" y="495">
IC = 10.55
</text>

</svg>
