<?xml version="1.0" encoding="UTF-8" standalone="yes"?>
                 <!DOCTYPE svg PUBLIC "-//W3C//DTD SVG 1.0//EN" "http://www.w3.org/TR/2001/REC-SVG-20010904/DTD/svg10.dtd">
                 <svg height="170" width="1020" xmlns="http://www.w3.org/2000/svg" xmlns:xlink="http://www.w3.org/1999/xlink">
                 <line x1="85" y1="120" x2="987" y2="120" style="stroke:rgb(99,99,99);stroke-width:2" />
<rect height="7.000000" width="2.000000" x="85.000000" y="120.000000" fill="rgb(0, 0, 0)" style="fill-opacity:1.00" />
<text x="107.000000" y="140">
1
</text>
<rect height="7.000000" width="2.000000" x="145.000000" y="120.000000" fill="rgb(0, 0, 0)" style="fill-opacity:1.00" />
<text x="167.000000" y="140">
2
</text>
<rect height="7.000000" width="2.000000" x="205.000000" y="120.000000" fill="rgb(0, 0, 0)" style="fill-opacity:1.00" />
<text x="227.000000" y="140">
3
</text>
<rect height="7.000000" width="2.000000" x="265.000000" y="120.000000" fill="rgb(0, 0, 0)" style="fill-opacity:1.00" />
<text x="287.000000" y="140">
4
</text>
<rect height="7.000000" width="2.000000" x="325.000000" y="120.000000" fill="rgb(0, 0, 0)" style="fill-opacity:1.00" />
<text x="347.000000" y="140">
5
</text>
<rect height="7.000000" width="2.000000" x="385.000000" y="120.000000" fill="rgb(0, 0, 0)" style="fill-opacity:1.00" />
<text x="407.000000" y="140">
6
</text>
<rect height="7.000000" width="2.000000" x="445.000000" y="120.000000" fill="rgb(0, 0, 0)" style="fill-opacity:1.00" />
<text x="467.000000" y="140">
7
</text>
<rect height="7.000000" width="2.000000" x="505.000000" y="120.000000" fill="rgb(0, 0, 0)" style="fill-opacity:1.00" />
<text x="527.000000" y="140">
8
</text>
<rect height="7.000000" width="2.000000" x="565.000000" y="120.000000" fill="rgb(0, 0, 0)" style="fill-opacity:1.00" />
<text x="587.000000" y="140">
9
</text>
<rect height="7.000000" width="2.000000" x="625.000000" y="120.000000" fill="rgb(0, 0, 0)" style="fill-opacity:1.00" />
<text x="647.000000" y="140">
10
</text>
<rect height="7.000000" width="2.000000" x="685.000000" y="120.000000" fill="rgb(0, 0, 0)" style="fill-opacity:1.00" />
<text x="707.000000" y="140">
11
</text>
<rect height="7.000000" width="2.000000" x="745.000000" y="120.000000" fill="rgb(0, 0, 0)" style="fill-opacity:1.00" />
<text x="767.000000" y="140">
12
</text>
<rect height="7.000000" width="2.000000" x="805.000000" y="120.000000" fill="rgb(0, 0, 0)" style="fill-opacity:1.00" />
<text x="827.000000" y="140">
13
</text>
<rect height="7.000000" width="2.000000" x="865.000000" y="120.000000" fill="rgb(0, 0, 0)" style="fill-opacity:1.00" />
<text x="887.000000" y="140">
14
</text>
<rect height="7.000000" width="2.000000" x="925.000000" y="120.000000" fill="rgb(0, 0, 0)" style="fill-opacity:1.00" />
<text x="947.000000" y="140">
15
</text>
<rect height="7.000000" width="2.000000" x="985.000000" y="120.000000" fill="rgb(0, 0, 0)" style="fill-opacity:1.00" />
<line x1="80" y1="112" x2="80" y2="10" style="stroke:rgb(99,99,99);stroke-width:2" />
<rect height="2.000000" width="7.000000" x="73.000000" y="110.000000" fill="rgb(0, 0, 0)" style="fill-opacity:1.00" />
<text x="63" y="115">
0
</text>
<rect height="2.000000" width="7.000000" x="73.000000" y="60.000000" fill="rgb(0, 0, 0)" style="fill-opacity:1.00" />
<text x="63" y="65">
1
</text>
<rect height="2.000000" width="7.000000" x="73.000000" y="10.000000" fill="rgb(0, 0, 0)" style="fill-opacity:1.00" />
<text x="63" y="15">
2
</text>
<text x="50" y="65"
transform="rotate(-90, 50, 70)">
bits
</text>
<!-- Begin 'C' -->
<ellipse cx="115.000000" cy="106.350214" rx="25.000000" ry="0.876359" fill="rgb(0, 0, 128)" style="fill-opacity:1.00" />
<ellipse cx="115.000000" cy="106.350214" rx="16.666667" ry="0.584239" fill="rgb(255, 255, 255)" style="fill-opacity:1.00" />
<rect height="0.876359" width="25.000000" x="115.000000" y="105.912034" fill="rgb(255, 255, 255)" style="fill-opacity:1.00" />
<!-- End 'C' -->
<!-- Begin 'A' -->
<polygon points=" 90.000000, 108.320942, 111.000000, 107.226572, 119.000000, 107.226572, 140.000000, 108.320942, 132.500000, 108.320942, 126.250000, 108.047350, 103.750000, 108.047350, 97.500000, 108.320942" fill="rgb(178, 34, 34)" style="fill-opacity:1.00" />
<!-- End 'A' -->
<!-- Begin 'T' -->
<rect height="0.168441" width="50.000000" x="90.000000" y="108.320942" fill="rgb(0, 100, 0)" style="fill-opacity:1.00" />
<rect height="1.052757" width="10.000000" x="110.000000" y="108.320942" fill="rgb(0, 100, 0)" style="fill-opacity:1.00" />
<!-- End 'T' -->
<!-- Begin 'G' -->
<ellipse cx="115.000000" cy="109.686849" rx="25.000000" ry="0.313151" fill="rgb(255, 165, 0)" style="fill-opacity:1.00" />
<ellipse cx="115.000000" cy="109.686849" rx="16.666667" ry="0.208767" fill="rgb(255, 255, 255)" style="fill-opacity:1.00" />
<rect height="0.313151" width="25.000000" x="115.000000" y="109.530274" fill="rgb(255, 255, 255)" style="fill-opacity:1.00" />
<rect height="0.078288" width="25.000000" x="115.000000" y="109.765137" fill="rgb(255, 165, 0)" style="fill-opacity:1.00" />
<rect height="0.234863" width="6.250000" x="133.750000" y="109.765137" fill="rgb(255, 165, 0)" style="fill-opacity:1.00" />
<!-- End 'G' -->
<!-- Begin 'T' -->
<rect height="1.985349" width="50.000000" x="150.000000" y="89.505805" fill="rgb(0, 100, 0)" style="fill-opacity:1.00" />
<rect height="12.408429" width="10.000000" x="170.000000" y="89.505805" fill="rgb(0, 100, 0)" style="fill-opacity:1.00" />
<!-- End 'T' -->
<!-- Begin 'A' -->
<polygon points=" 150.000000, 104.808177, 171.000000, 101.914234, 179.000000, 101.914234, 200.000000, 104.808177, 192.500000, 104.808177, 186.250000, 104.084691, 163.750000, 104.084691, 157.500000, 104.808177" fill="rgb(178, 34, 34)" style="fill-opacity:1.00" />
<!-- End 'A' -->
<!-- Begin 'G' -->
<ellipse cx="175.000000" cy="106.245673" rx="25.000000" ry="1.437497" fill="rgb(255, 165, 0)" style="fill-opacity:1.00" />
<ellipse cx="175.000000" cy="106.245673" rx="16.666667" ry="0.958331" fill="rgb(255, 255, 255)" style="fill-opacity:1.00" />
<rect height="1.437497" width="25.000000" x="175.000000" y="105.526925" fill="rgb(255, 255, 255)" style="fill-opacity:1.00" />
<rect height="0.359374" width="25.000000" x="175.000000" y="106.605047" fill="rgb(255, 165, 0)" style="fill-opacity:1.00" />
<rect height="1.078122" width="6.250000" x="193.750000" y="106.605047" fill="rgb(255, 165, 0)" style="fill-opacity:1.00" />
<!-- End 'G' -->
<!-- Begin 'C' -->
<ellipse cx="175.000000" cy="108.841585" rx="25.000000" ry="1.158415" fill="rgb(0, 0, 128)" style="fill-opacity:1.00" />
<ellipse cx="175.000000" cy="108.841585" rx="16.666667" ry="0.772277" fill="rgb(255, 255, 255)" style="fill-opacity:1.00" />
<rect height="1.158415" width="25.000000" x="175.000000" y="108.262377" fill="rgb(255, 255, 255)" style="fill-opacity:1.00" />
<!-- End 'C' -->
<!-- Begin 'G' -->
<ellipse cx="235.000000" cy="101.401609" rx="25.000000" ry="2.802491" fill="rgb(255, 165, 0)" style="fill-opacity:1.00" />
<ellipse cx="235.000000" cy="101.401609" rx="16.666667" ry="1.868328" fill="rgb(255, 255, 255)" style="fill-opacity:1.00" />
<rect height="2.802491" width="25.000000" x="235.000000" y="100.000363" fill="rgb(255, 255, 255)" style="fill-opacity:1.00" />
<rect height="0.700623" width="25.000000" x="235.000000" y="102.102232" fill="rgb(255, 165, 0)" style="fill-opacity:1.00" />
<rect height="2.101868" width="6.250000" x="253.750000" y="102.102232" fill="rgb(255, 165, 0)" style="fill-opacity:1.00" />
<!-- End 'G' -->
<!-- Begin 'T' -->
<rect height="0.381889" width="50.000000" x="210.000000" y="104.204100" fill="rgb(0, 100, 0)" style="fill-opacity:1.00" />
<rect height="2.386803" width="10.000000" x="230.000000" y="104.204100" fill="rgb(0, 100, 0)" style="fill-opacity:1.00" />
<!-- End 'T' -->
<!-- Begin 'A' -->
<polygon points=" 210.000000, 108.855695, 231.000000, 106.590904, 239.000000, 106.590904, 260.000000, 108.855695, 252.500000, 108.855695, 246.250000, 108.289497, 223.750000, 108.289497, 217.500000, 108.855695" fill="rgb(178, 34, 34)" style="fill-opacity:1.00" />
<!-- End 'A' -->
<!-- Begin 'C' -->
<ellipse cx="235.000000" cy="109.427847" rx="25.000000" ry="0.572153" fill="rgb(0, 0, 128)" style="fill-opacity:1.00" />
<ellipse cx="235.000000" cy="109.427847" rx="16.666667" ry="0.381435" fill="rgb(255, 255, 255)" style="fill-opacity:1.00" />
<rect height="0.572153" width="25.000000" x="235.000000" y="109.141771" fill="rgb(255, 255, 255)" style="fill-opacity:1.00" />
<!-- End 'C' -->
<!-- Begin 'A' -->
<polygon points=" 270.000000, 100.485609, 291.000000, 86.147794, 299.000000, 86.147794, 320.000000, 100.485609, 312.500000, 100.485609, 306.250000, 96.901155, 283.750000, 96.901155, 277.500000, 100.485609" fill="rgb(178, 34, 34)" style="fill-opacity:1.00" />
<polygon points=" 295.000000, 89.015357, 287.000000, 93.750483, 302.000000, 93.750483" fill="rgb(255, 255, 255)" style="fill-opacity:1.00" />
<!-- End 'A' -->
<!-- Begin 'T' -->
<rect height="0.879725" width="50.000000" x="270.000000" y="100.485609" fill="rgb(0, 100, 0)" style="fill-opacity:1.00" />
<rect height="5.498279" width="10.000000" x="290.000000" y="100.485609" fill="rgb(0, 100, 0)" style="fill-opacity:1.00" />
<!-- End 'T' -->
<!-- Begin 'C' -->
<ellipse cx="295.000000" cy="107.237658" rx="25.000000" ry="1.253771" fill="rgb(0, 0, 128)" style="fill-opacity:1.00" />
<ellipse cx="295.000000" cy="107.237658" rx="16.666667" ry="0.835847" fill="rgb(255, 255, 255)" style="fill-opacity:1.00" />
<rect height="1.253771" width="25.000000" x="295.000000" y="106.610773" fill="rgb(255, 255, 255)" style="fill-opacity:1.00" />
<!-- End 'C' -->
<!-- Begin 'G' -->
<ellipse cx="295.000000" cy="109.245715" rx="25.000000" ry="0.754285" fill="rgb(255, 165, 0)" style="fill-opacity:1.00" />
<ellipse cx="295.000000" cy="109.245715" rx="16.666667" ry="0.502857" fill="rgb(255, 255, 255)" style="fill-opacity:1.00" />
<rect height="0.754285" width="25.000000" x="295.000000" y="108.868572" fill="rgb(255, 255, 255)" style="fill-opacity:1.00" />
<rect height="0.188571" width="25.000000" x="295.000000" y="109.434286" fill="rgb(255, 165, 0)" style="fill-opacity:1.00" />
<rect height="0.565714" width="6.250000" x="313.750000" y="109.434286" fill="rgb(255, 165, 0)" style="fill-opacity:1.00" />
<!-- End 'G' -->
<!-- Begin 'G' -->
<ellipse cx="355.000000" cy="104.339075" rx="25.000000" ry="1.246940" fill="rgb(255, 165, 0)" style="fill-opacity:1.00" />
<ellipse cx="355.000000" cy="104.339075" rx="16.666667" ry="0.831294" fill="rgb(255, 255, 255)" style="fill-opacity:1.00" />
<rect height="1.246940" width="25.000000" x="355.000000" y="103.715604" fill="rgb(255, 255, 255)" style="fill-opacity:1.00" />
<rect height="0.311735" width="25.000000" x="355.000000" y="104.650810" fill="rgb(255, 165, 0)" style="fill-opacity:1.00" />
<rect height="0.935205" width="6.250000" x="373.750000" y="104.650810" fill="rgb(255, 165, 0)" style="fill-opacity:1.00" />
<!-- End 'G' -->
<!-- Begin 'C' -->
<ellipse cx="355.000000" cy="106.794979" rx="25.000000" ry="1.208964" fill="rgb(0, 0, 128)" style="fill-opacity:1.00" />
<ellipse cx="355.000000" cy="106.794979" rx="16.666667" ry="0.805976" fill="rgb(255, 255, 255)" style="fill-opacity:1.00" />
<rect height="1.208964" width="25.000000" x="355.000000" y="106.190497" fill="rgb(255, 255, 255)" style="fill-opacity:1.00" />
<!-- End 'C' -->
<!-- Begin 'A' -->
<polygon points=" 330.000000, 109.162281, 351.000000, 108.003943, 359.000000, 108.003943, 380.000000, 109.162281, 372.500000, 109.162281, 366.250000, 108.872697, 343.750000, 108.872697, 337.500000, 109.162281" fill="rgb(178, 34, 34)" style="fill-opacity:1.00" />
<!-- End 'A' -->
<!-- Begin 'T' -->
<rect height="0.134035" width="50.000000" x="330.000000" y="109.162281" fill="rgb(0, 100, 0)" style="fill-opacity:1.00" />
<rect height="0.837719" width="10.000000" x="350.000000" y="109.162281" fill="rgb(0, 100, 0)" style="fill-opacity:1.00" />
<!-- End 'T' -->
<!-- Begin 'T' -->
<rect height="4.167703" width="50.000000" x="390.000000" y="73.637427" fill="rgb(0, 100, 0)" style="fill-opacity:1.00" />
<rect height="26.048143" width="10.000000" x="410.000000" y="73.637427" fill="rgb(0, 100, 0)" style="fill-opacity:1.00" />
<!-- End 'T' -->
<!-- Begin 'A' -->
<polygon points=" 390.000000, 105.266530, 411.000000, 99.685570, 419.000000, 99.685570, 440.000000, 105.266530, 432.500000, 105.266530, 426.250000, 103.871290, 403.750000, 103.871290, 397.500000, 105.266530" fill="rgb(178, 34, 34)" style="fill-opacity:1.00" />
<!-- End 'A' -->
<!-- Begin 'C' -->
<ellipse cx="415.000000" cy="106.484719" rx="25.000000" ry="1.218188" fill="rgb(0, 0, 128)" style="fill-opacity:1.00" />
<ellipse cx="415.000000" cy="106.484719" rx="16.666667" ry="0.812126" fill="rgb(255, 255, 255)" style="fill-opacity:1.00" />
<rect height="1.218188" width="25.000000" x="415.000000" y="105.875625" fill="rgb(255, 255, 255)" style="fill-opacity:1.00" />
<!-- End 'C' -->
<!-- Begin 'G' -->
<ellipse cx="415.000000" cy="108.851454" rx="25.000000" ry="1.148546" fill="rgb(255, 165, 0)" style="fill-opacity:1.00" />
<ellipse cx="415.000000" cy="108.851454" rx="16.666667" ry="0.765698" fill="rgb(255, 255, 255)" style="fill-opacity:1.00" />
<rect height="1.148546" width="25.000000" x="415.000000" y="108.277180" fill="rgb(255, 255, 255)" style="fill-opacity:1.00" />
<rect height="0.287137" width="25.000000" x="415.000000" y="109.138590" fill="rgb(255, 165, 0)" style="fill-opacity:1.00" />
<rect height="0.861410" width="6.250000" x="433.750000" y="109.138590" fill="rgb(255, 165, 0)" style="fill-opacity:1.00" />
<!-- End 'G' -->
<!-- Begin 'C' -->
<ellipse cx="475.000000" cy="96.782387" rx="25.000000" ry="5.328112" fill="rgb(0, 0, 128)" style="fill-opacity:1.00" />
<ellipse cx="475.000000" cy="96.782387" rx="16.666667" ry="3.552075" fill="rgb(255, 255, 255)" style="fill-opacity:1.00" />
<rect height="5.328112" width="25.000000" x="475.000000" y="94.118331" fill="rgb(255, 255, 255)" style="fill-opacity:1.00" />
<!-- End 'C' -->
<!-- Begin 'A' -->
<polygon points=" 450.000000, 105.702561, 471.000000, 102.110499, 479.000000, 102.110499, 500.000000, 105.702561, 492.500000, 105.702561, 486.250000, 104.804546, 463.750000, 104.804546, 457.500000, 105.702561" fill="rgb(178, 34, 34)" style="fill-opacity:1.00" />
<!-- End 'A' -->
<!-- Begin 'T' -->
<rect height="0.425252" width="50.000000" x="450.000000" y="105.702561" fill="rgb(0, 100, 0)" style="fill-opacity:1.00" />
<rect height="2.657823" width="10.000000" x="470.000000" y="105.702561" fill="rgb(0, 100, 0)" style="fill-opacity:1.00" />
<!-- End 'T' -->
<!-- Begin 'G' -->
<ellipse cx="475.000000" cy="109.180192" rx="25.000000" ry="0.819808" fill="rgb(255, 165, 0)" style="fill-opacity:1.00" />
<ellipse cx="475.000000" cy="109.180192" rx="16.666667" ry="0.546539" fill="rgb(255, 255, 255)" style="fill-opacity:1.00" />
<rect height="0.819808" width="25.000000" x="475.000000" y="108.770288" fill="rgb(255, 255, 255)" style="fill-opacity:1.00" />
<rect height="0.204952" width="25.000000" x="475.000000" y="109.385144" fill="rgb(255, 165, 0)" style="fill-opacity:1.00" />
<rect height="0.614856" width="6.250000" x="493.750000" y="109.385144" fill="rgb(255, 165, 0)" style="fill-opacity:1.00" />
<!-- End 'G' -->
<!-- Begin 'A' -->
<polygon points=" 510.000000, 99.758220, 531.000000, 78.243039, 539.000000, 78.243039, 560.000000, 99.758220, 552.500000, 99.758220, 546.250000, 94.379425, 523.750000, 94.379425, 517.500000, 99.758220" fill="rgb(178, 34, 34)" style="fill-opacity:1.00" />
<polygon points=" 535.000000, 82.546075, 527.000000, 90.152148, 542.000000, 90.152148" fill="rgb(255, 255, 255)" style="fill-opacity:1.00" />
<!-- End 'A' -->
<!-- Begin 'T' -->
<rect height="0.870540" width="50.000000" x="510.000000" y="99.758220" fill="rgb(0, 100, 0)" style="fill-opacity:1.00" />
<rect height="5.440873" width="10.000000" x="530.000000" y="99.758220" fill="rgb(0, 100, 0)" style="fill-opacity:1.00" />
<!-- End 'T' -->
<!-- Begin 'G' -->
<ellipse cx="535.000000" cy="106.839229" rx="25.000000" ry="1.640135" fill="rgb(255, 165, 0)" style="fill-opacity:1.00" />
<ellipse cx="535.000000" cy="106.839229" rx="16.666667" ry="1.093424" fill="rgb(255, 255, 255)" style="fill-opacity:1.00" />
<rect height="1.640135" width="25.000000" x="535.000000" y="106.019161" fill="rgb(255, 255, 255)" style="fill-opacity:1.00" />
<rect height="0.410034" width="25.000000" x="535.000000" y="107.249263" fill="rgb(255, 165, 0)" style="fill-opacity:1.00" />
<rect height="1.230102" width="6.250000" x="553.750000" y="107.249263" fill="rgb(255, 165, 0)" style="fill-opacity:1.00" />
<!-- End 'G' -->
<!-- Begin 'C' -->
<ellipse cx="535.000000" cy="109.239682" rx="25.000000" ry="0.760318" fill="rgb(0, 0, 128)" style="fill-opacity:1.00" />
<ellipse cx="535.000000" cy="109.239682" rx="16.666667" ry="0.506879" fill="rgb(255, 255, 255)" style="fill-opacity:1.00" />
<rect height="0.760318" width="25.000000" x="535.000000" y="108.859523" fill="rgb(255, 255, 255)" style="fill-opacity:1.00" />
<!-- End 'C' -->
<!-- Begin 'G' -->
<ellipse cx="595.000000" cy="100.539031" rx="25.000000" ry="3.120875" fill="rgb(255, 165, 0)" style="fill-opacity:1.00" />
<ellipse cx="595.000000" cy="100.539031" rx="16.666667" ry="2.080583" fill="rgb(255, 255, 255)" style="fill-opacity:1.00" />
<rect height="3.120875" width="25.000000" x="595.000000" y="98.978593" fill="rgb(255, 255, 255)" style="fill-opacity:1.00" />
<rect height="0.780219" width="25.000000" x="595.000000" y="101.319250" fill="rgb(255, 165, 0)" style="fill-opacity:1.00" />
<rect height="2.340656" width="6.250000" x="613.750000" y="101.319250" fill="rgb(255, 165, 0)" style="fill-opacity:1.00" />
<!-- End 'G' -->
<!-- Begin 'T' -->
<rect height="0.520889" width="50.000000" x="570.000000" y="103.659906" fill="rgb(0, 100, 0)" style="fill-opacity:1.00" />
<rect height="3.255557" width="10.000000" x="590.000000" y="103.659906" fill="rgb(0, 100, 0)" style="fill-opacity:1.00" />
<!-- End 'T' -->
<!-- Begin 'A' -->
<polygon points=" 570.000000, 108.530534, 591.000000, 106.915463, 599.000000, 106.915463, 620.000000, 108.530534, 612.500000, 108.530534, 606.250000, 108.126767, 583.750000, 108.126767, 577.500000, 108.530534" fill="rgb(178, 34, 34)" style="fill-opacity:1.00" />
<!-- End 'A' -->
<!-- Begin 'C' -->
<ellipse cx="595.000000" cy="109.265267" rx="25.000000" ry="0.734733" fill="rgb(0, 0, 128)" style="fill-opacity:1.00" />
<ellipse cx="595.000000" cy="109.265267" rx="16.666667" ry="0.489822" fill="rgb(255, 255, 255)" style="fill-opacity:1.00" />
<rect height="0.734733" width="25.000000" x="595.000000" y="108.897901" fill="rgb(255, 255, 255)" style="fill-opacity:1.00" />
<!-- End 'C' -->
<!-- Begin 'C' -->
<ellipse cx="655.000000" cy="101.893248" rx="25.000000" ry="2.724044" fill="rgb(0, 0, 128)" style="fill-opacity:1.00" />
<ellipse cx="655.000000" cy="101.893248" rx="16.666667" ry="1.816029" fill="rgb(255, 255, 255)" style="fill-opacity:1.00" />
<rect height="2.724044" width="25.000000" x="655.000000" y="100.531226" fill="rgb(255, 255, 255)" style="fill-opacity:1.00" />
<!-- End 'C' -->
<!-- Begin 'A' -->
<polygon points=" 630.000000, 106.666374, 651.000000, 104.617292, 659.000000, 104.617292, 680.000000, 106.666374, 672.500000, 106.666374, 666.250000, 106.154104, 643.750000, 106.154104, 637.500000, 106.666374" fill="rgb(178, 34, 34)" style="fill-opacity:1.00" />
<!-- End 'A' -->
<!-- Begin 'T' -->
<rect height="0.282165" width="50.000000" x="630.000000" y="106.666374" fill="rgb(0, 100, 0)" style="fill-opacity:1.00" />
<rect height="1.763529" width="10.000000" x="650.000000" y="106.666374" fill="rgb(0, 100, 0)" style="fill-opacity:1.00" />
<!-- End 'T' -->
<!-- Begin 'G' -->
<ellipse cx="655.000000" cy="109.214951" rx="25.000000" ry="0.785049" fill="rgb(255, 165, 0)" style="fill-opacity:1.00" />
<ellipse cx="655.000000" cy="109.214951" rx="16.666667" ry="0.523366" fill="rgb(255, 255, 255)" style="fill-opacity:1.00" />
<rect height="0.785049" width="25.000000" x="655.000000" y="108.822427" fill="rgb(255, 255, 255)" style="fill-opacity:1.00" />
<rect height="0.196262" width="25.000000" x="655.000000" y="109.411214" fill="rgb(255, 165, 0)" style="fill-opacity:1.00" />
<rect height="0.588786" width="6.250000" x="673.750000" y="109.411214" fill="rgb(255, 165, 0)" style="fill-opacity:1.00" />
<!-- End 'G' -->
<!-- Begin 'A' -->
<polygon points=" 690.000000, 104.712687, 711.000000, 99.567727, 719.000000, 99.567727, 740.000000, 104.712687, 732.500000, 104.712687, 726.250000, 103.426447, 703.750000, 103.426447, 697.500000, 104.712687" fill="rgb(178, 34, 34)" style="fill-opacity:1.00" />
<!-- End 'A' -->
<!-- Begin 'T' -->
<rect height="0.354768" width="50.000000" x="690.000000" y="104.712687" fill="rgb(0, 100, 0)" style="fill-opacity:1.00" />
<rect height="2.217297" width="10.000000" x="710.000000" y="104.712687" fill="rgb(0, 100, 0)" style="fill-opacity:1.00" />
<!-- End 'T' -->
<!-- Begin 'C' -->
<ellipse cx="715.000000" cy="107.710771" rx="25.000000" ry="0.780786" fill="rgb(0, 0, 128)" style="fill-opacity:1.00" />
<ellipse cx="715.000000" cy="107.710771" rx="16.666667" ry="0.520524" fill="rgb(255, 255, 255)" style="fill-opacity:1.00" />
<rect height="0.780786" width="25.000000" x="715.000000" y="107.320378" fill="rgb(255, 255, 255)" style="fill-opacity:1.00" />
<!-- End 'C' -->
<!-- Begin 'G' -->
<ellipse cx="715.000000" cy="109.245779" rx="25.000000" ry="0.754221" fill="rgb(255, 165, 0)" style="fill-opacity:1.00" />
<ellipse cx="715.000000" cy="109.245779" rx="16.666667" ry="0.502814" fill="rgb(255, 255, 255)" style="fill-opacity:1.00" />
<rect height="0.754221" width="25.000000" x="715.000000" y="108.868668" fill="rgb(255, 255, 255)" style="fill-opacity:1.00" />
<rect height="0.188555" width="25.000000" x="715.000000" y="109.434334" fill="rgb(255, 165, 0)" style="fill-opacity:1.00" />
<rect height="0.565666" width="6.250000" x="733.750000" y="109.434334" fill="rgb(255, 165, 0)" style="fill-opacity:1.00" />
<!-- End 'G' -->
<!-- Begin 'A' -->
<polygon points=" 750.000000, 109.683856, 771.000000, 109.554035, 779.000000, 109.554035, 800.000000, 109.683856, 792.500000, 109.683856, 786.250000, 109.651401, 763.750000, 109.651401, 757.500000, 109.683856" fill="rgb(178, 34, 34)" style="fill-opacity:1.00" />
<!-- End 'A' -->
<!-- Begin 'T' -->
<rect height="0.018100" width="50.000000" x="750.000000" y="109.683856" fill="rgb(0, 100, 0)" style="fill-opacity:1.00" />
<rect height="0.113126" width="10.000000" x="770.000000" y="109.683856" fill="rgb(0, 100, 0)" style="fill-opacity:1.00" />
<!-- End 'T' -->
<!-- Begin 'G' -->
<ellipse cx="775.000000" cy="109.850894" rx="25.000000" ry="0.053911" fill="rgb(255, 165, 0)" style="fill-opacity:1.00" />
<ellipse cx="775.000000" cy="109.850894" rx="16.666667" ry="0.035941" fill="rgb(255, 255, 255)" style="fill-opacity:1.00" />
<rect height="0.053911" width="25.000000" x="775.000000" y="109.823938" fill="rgb(255, 255, 255)" style="fill-opacity:1.00" />
<rect height="0.013478" width="25.000000" x="775.000000" y="109.864372" fill="rgb(255, 165, 0)" style="fill-opacity:1.00" />
<rect height="0.040434" width="6.250000" x="793.750000" y="109.864372" fill="rgb(255, 165, 0)" style="fill-opacity:1.00" />
<!-- End 'G' -->
<!-- Begin 'C' -->
<ellipse cx="775.000000" cy="109.952403" rx="25.000000" ry="0.047597" fill="rgb(0, 0, 128)" style="fill-opacity:1.00" />
<ellipse cx="775.000000" cy="109.952403" rx="16.666667" ry="0.031732" fill="rgb(255, 255, 255)" style="fill-opacity:1.00" />
<rect height="0.047597" width="25.000000" x="775.000000" y="109.928604" fill="rgb(255, 255, 255)" style="fill-opacity:1.00" />
<!-- End 'C' -->
<!-- Begin 'T' -->
<rect height="0.219420" width="50.000000" x="810.000000" y="105.921774" fill="rgb(0, 100, 0)" style="fill-opacity:1.00" />
<rect height="1.371372" width="10.000000" x="830.000000" y="105.921774" fill="rgb(0, 100, 0)" style="fill-opacity:1.00" />
<!-- End 'T' -->
<!-- Begin 'A' -->
<polygon points=" 810.000000, 108.639528, 831.000000, 107.293146, 839.000000, 107.293146, 860.000000, 108.639528, 852.500000, 108.639528, 846.250000, 108.302933, 823.750000, 108.302933, 817.500000, 108.639528" fill="rgb(178, 34, 34)" style="fill-opacity:1.00" />
<!-- End 'A' -->
<!-- Begin 'C' -->
<ellipse cx="835.000000" cy="108.985854" rx="25.000000" ry="0.346326" fill="rgb(0, 0, 128)" style="fill-opacity:1.00" />
<ellipse cx="835.000000" cy="108.985854" rx="16.666667" ry="0.230884" fill="rgb(255, 255, 255)" style="fill-opacity:1.00" />
<rect height="0.346326" width="25.000000" x="835.000000" y="108.812691" fill="rgb(255, 255, 255)" style="fill-opacity:1.00" />
<!-- End 'C' -->
<!-- Begin 'G' -->
<ellipse cx="835.000000" cy="109.666090" rx="25.000000" ry="0.333910" fill="rgb(255, 165, 0)" style="fill-opacity:1.00" />
<ellipse cx="835.000000" cy="109.666090" rx="16.666667" ry="0.222607" fill="rgb(255, 255, 255)" style="fill-opacity:1.00" />
<rect height="0.333910" width="25.000000" x="835.000000" y="109.499135" fill="rgb(255, 255, 255)" style="fill-opacity:1.00" />
<rect height="0.083477" width="25.000000" x="835.000000" y="109.749568" fill="rgb(255, 165, 0)" style="fill-opacity:1.00" />
<rect height="0.250432" width="6.250000" x="853.750000" y="109.749568" fill="rgb(255, 165, 0)" style="fill-opacity:1.00" />
<!-- End 'G' -->
<!-- Begin 'T' -->
<rect height="0.609993" width="50.000000" x="870.000000" y="101.068311" fill="rgb(0, 100, 0)" style="fill-opacity:1.00" />
<rect height="3.812455" width="10.000000" x="890.000000" y="101.068311" fill="rgb(0, 100, 0)" style="fill-opacity:1.00" />
<!-- End 'T' -->
<!-- Begin 'A' -->
<polygon points=" 870.000000, 107.624291, 891.000000, 104.880766, 899.000000, 104.880766, 920.000000, 107.624291, 912.500000, 107.624291, 906.250000, 106.938409, 883.750000, 106.938409, 877.500000, 107.624291" fill="rgb(178, 34, 34)" style="fill-opacity:1.00" />
<!-- End 'A' -->
<!-- Begin 'C' -->
<ellipse cx="895.000000" cy="108.234343" rx="25.000000" ry="0.610053" fill="rgb(0, 0, 128)" style="fill-opacity:1.00" />
<ellipse cx="895.000000" cy="108.234343" rx="16.666667" ry="0.406702" fill="rgb(255, 255, 255)" style="fill-opacity:1.00" />
<rect height="0.610053" width="25.000000" x="895.000000" y="107.929317" fill="rgb(255, 255, 255)" style="fill-opacity:1.00" />
<!-- End 'C' -->
<!-- Begin 'G' -->
<ellipse cx="895.000000" cy="109.422198" rx="25.000000" ry="0.577802" fill="rgb(255, 165, 0)" style="fill-opacity:1.00" />
<ellipse cx="895.000000" cy="109.422198" rx="16.666667" ry="0.385201" fill="rgb(255, 255, 255)" style="fill-opacity:1.00" />
<rect height="0.577802" width="25.000000" x="895.000000" y="109.133297" fill="rgb(255, 255, 255)" style="fill-opacity:1.00" />
<rect height="0.144450" width="25.000000" x="895.000000" y="109.566649" fill="rgb(255, 165, 0)" style="fill-opacity:1.00" />
<rect height="0.433351" width="6.250000" x="913.750000" y="109.566649" fill="rgb(255, 165, 0)" style="fill-opacity:1.00" />
<!-- End 'G' -->
<!-- Begin 'T' -->
<rect height="0.296044" width="50.000000" x="930.000000" y="105.210804" fill="rgb(0, 100, 0)" style="fill-opacity:1.00" />
<rect height="1.850278" width="10.000000" x="950.000000" y="105.210804" fill="rgb(0, 100, 0)" style="fill-opacity:1.00" />
<!-- End 'T' -->
<!-- Begin 'A' -->
<polygon points=" 930.000000, 108.362194, 951.000000, 107.061082, 959.000000, 107.061082, 980.000000, 108.362194, 972.500000, 108.362194, 966.250000, 108.036916, 943.750000, 108.036916, 937.500000, 108.362194" fill="rgb(178, 34, 34)" style="fill-opacity:1.00" />
<!-- End 'A' -->
<!-- Begin 'C' -->
<ellipse cx="955.000000" cy="108.845163" rx="25.000000" ry="0.482969" fill="rgb(0, 0, 128)" style="fill-opacity:1.00" />
<ellipse cx="955.000000" cy="108.845163" rx="16.666667" ry="0.321980" fill="rgb(255, 255, 255)" style="fill-opacity:1.00" />
<rect height="0.482969" width="25.000000" x="955.000000" y="108.603679" fill="rgb(255, 255, 255)" style="fill-opacity:1.00" />
<!-- End 'C' -->
<!-- Begin 'G' -->
<ellipse cx="955.000000" cy="109.664066" rx="25.000000" ry="0.335934" fill="rgb(255, 165, 0)" style="fill-opacity:1.00" />
<ellipse cx="955.000000" cy="109.664066" rx="16.666667" ry="0.223956" fill="rgb(255, 255, 255)" style="fill-opacity:1.00" />
<rect height="0.335934" width="25.000000" x="955.000000" y="109.496100" fill="rgb(255, 255, 255)" style="fill-opacity:1.00" />
<rect height="0.083983" width="25.000000" x="955.000000" y="109.748050" fill="rgb(255, 165, 0)" style="fill-opacity:1.00" />
<rect height="0.251950" width="6.250000" x="973.750000" y="109.748050" fill="rgb(255, 165, 0)" style="fill-opacity:1.00" />
<!-- End 'G' -->
<text x="520.000000" y="165">
IC = 4.12
</text>

</svg>
