<?xml version="1.0" encoding="UTF-8" standalone="yes"?>
                 <!DOCTYPE svg PUBLIC "-//W3C//DTD SVG 1.0//EN" "http://www.w3.org/TR/2001/REC-SVG-20010904/DTD/svg10.dtd">
                 <svg height="170" width="1020" xmlns="http://www.w3.org/2000/svg" xmlns:xlink="http://www.w3.org/1999/xlink">
                 <line x1="85" y1="120" x2="987" y2="120" style="stroke:rgb(99,99,99);stroke-width:2" />
<rect height="7.000000" width="2.000000" x="85.000000" y="120.000000" fill="rgb(0, 0, 0)" style="fill-opacity:1.00" />
<text x="107.000000" y="140">
1
</text>
<rect height="7.000000" width="2.000000" x="145.000000" y="120.000000" fill="rgb(0, 0, 0)" style="fill-opacity:1.00" />
<text x="167.000000" y="140">
2
</text>
<rect height="7.000000" width="2.000000" x="205.000000" y="120.000000" fill="rgb(0, 0, 0)" style="fill-opacity:1.00" />
<text x="227.000000" y="140">
3
</text>
<rect height="7.000000" width="2.000000" x="265.000000" y="120.000000" fill="rgb(0, 0, 0)" style="fill-opacity:1.00" />
<text x="287.000000" y="140">
4
</text>
<rect height="7.000000" width="2.000000" x="325.000000" y="120.000000" fill="rgb(0, 0, 0)" style="fill-opacity:1.00" />
<text x="347.000000" y="140">
5
</text>
<rect height="7.000000" width="2.000000" x="385.000000" y="120.000000" fill="rgb(0, 0, 0)" style="fill-opacity:1.00" />
<text x="407.000000" y="140">
6
</text>
<rect height="7.000000" width="2.000000" x="445.000000" y="120.000000" fill="rgb(0, 0, 0)" style="fill-opacity:1.00" />
<text x="467.000000" y="140">
7
</text>
<rect height="7.000000" width="2.000000" x="505.000000" y="120.000000" fill="rgb(0, 0, 0)" style="fill-opacity:1.00" />
<text x="527.000000" y="140">
8
</text>
<rect height="7.000000" width="2.000000" x="565.000000" y="120.000000" fill="rgb(0, 0, 0)" style="fill-opacity:1.00" />
<text x="587.000000" y="140">
9
</text>
<rect height="7.000000" width="2.000000" x="625.000000" y="120.000000" fill="rgb(0, 0, 0)" style="fill-opacity:1.00" />
<text x="647.000000" y="140">
10
</text>
<rect height="7.000000" width="2.000000" x="685.000000" y="120.000000" fill="rgb(0, 0, 0)" style="fill-opacity:1.00" />
<text x="707.000000" y="140">
11
</text>
<rect height="7.000000" width="2.000000" x="745.000000" y="120.000000" fill="rgb(0, 0, 0)" style="fill-opacity:1.00" />
<text x="767.000000" y="140">
12
</text>
<rect height="7.000000" width="2.000000" x="805.000000" y="120.000000" fill="rgb(0, 0, 0)" style="fill-opacity:1.00" />
<text x="827.000000" y="140">
13
</text>
<rect height="7.000000" width="2.000000" x="865.000000" y="120.000000" fill="rgb(0, 0, 0)" style="fill-opacity:1.00" />
<text x="887.000000" y="140">
14
</text>
<rect height="7.000000" width="2.000000" x="925.000000" y="120.000000" fill="rgb(0, 0, 0)" style="fill-opacity:1.00" />
<text x="947.000000" y="140">
15
</text>
<rect height="7.000000" width="2.000000" x="985.000000" y="120.000000" fill="rgb(0, 0, 0)" style="fill-opacity:1.00" />
<line x1="80" y1="112" x2="80" y2="10" style="stroke:rgb(99,99,99);stroke-width:2" />
<rect height="2.000000" width="7.000000" x="73.000000" y="110.000000" fill="rgb(0, 0, 0)" style="fill-opacity:1.00" />
<text x="63" y="115">
0
</text>
<rect height="2.000000" width="7.000000" x="73.000000" y="60.000000" fill="rgb(0, 0, 0)" style="fill-opacity:1.00" />
<text x="63" y="65">
1
</text>
<rect height="2.000000" width="7.000000" x="73.000000" y="10.000000" fill="rgb(0, 0, 0)" style="fill-opacity:1.00" />
<text x="63" y="15">
2
</text>
<text x="50" y="65"
transform="rotate(-90, 50, 70)">
bits
</text>
<!-- Begin 'T' -->
<rect height="2.513213" width="50.000000" x="90.000000" y="84.642600" fill="rgb(0, 100, 0)" style="fill-opacity:1.00" />
<rect height="15.707580" width="10.000000" x="110.000000" y="84.642600" fill="rgb(0, 100, 0)" style="fill-opacity:1.00" />
<!-- End 'T' -->
<!-- Begin 'A' -->
<polygon points=" 90.000000, 105.810847, 111.000000, 100.350180, 119.000000, 100.350180, 140.000000, 105.810847, 132.500000, 105.810847, 126.250000, 104.445680, 103.750000, 104.445680, 97.500000, 105.810847" fill="rgb(178, 34, 34)" style="fill-opacity:1.00" />
<!-- End 'A' -->
<!-- Begin 'G' -->
<ellipse cx="115.000000" cy="107.102646" rx="25.000000" ry="1.291799" fill="rgb(255, 165, 0)" style="fill-opacity:1.00" />
<ellipse cx="115.000000" cy="107.102646" rx="16.666667" ry="0.861199" fill="rgb(255, 255, 255)" style="fill-opacity:1.00" />
<rect height="1.291799" width="25.000000" x="115.000000" y="106.456746" fill="rgb(255, 255, 255)" style="fill-opacity:1.00" />
<rect height="0.322950" width="25.000000" x="115.000000" y="107.425595" fill="rgb(255, 165, 0)" style="fill-opacity:1.00" />
<rect height="0.968849" width="6.250000" x="133.750000" y="107.425595" fill="rgb(255, 165, 0)" style="fill-opacity:1.00" />
<!-- End 'G' -->
<!-- Begin 'C' -->
<ellipse cx="115.000000" cy="109.197222" rx="25.000000" ry="0.802778" fill="rgb(0, 0, 128)" style="fill-opacity:1.00" />
<ellipse cx="115.000000" cy="109.197222" rx="16.666667" ry="0.535185" fill="rgb(255, 255, 255)" style="fill-opacity:1.00" />
<rect height="0.802778" width="25.000000" x="115.000000" y="108.795833" fill="rgb(255, 255, 255)" style="fill-opacity:1.00" />
<!-- End 'C' -->
<!-- Begin 'T' -->
<rect height="0.663708" width="50.000000" x="150.000000" y="100.592708" fill="rgb(0, 100, 0)" style="fill-opacity:1.00" />
<rect height="4.148173" width="10.000000" x="170.000000" y="100.592708" fill="rgb(0, 100, 0)" style="fill-opacity:1.00" />
<!-- End 'T' -->
<!-- Begin 'G' -->
<ellipse cx="175.000000" cy="106.041887" rx="25.000000" ry="1.301005" fill="rgb(255, 165, 0)" style="fill-opacity:1.00" />
<ellipse cx="175.000000" cy="106.041887" rx="16.666667" ry="0.867337" fill="rgb(255, 255, 255)" style="fill-opacity:1.00" />
<rect height="1.301005" width="25.000000" x="175.000000" y="105.391384" fill="rgb(255, 255, 255)" style="fill-opacity:1.00" />
<rect height="0.325251" width="25.000000" x="175.000000" y="106.367138" fill="rgb(255, 165, 0)" style="fill-opacity:1.00" />
<rect height="0.975754" width="6.250000" x="193.750000" y="106.367138" fill="rgb(255, 165, 0)" style="fill-opacity:1.00" />
<!-- End 'G' -->
<!-- Begin 'A' -->
<polygon points=" 150.000000, 109.079317, 171.000000, 107.342892, 179.000000, 107.342892, 200.000000, 109.079317, 192.500000, 109.079317, 186.250000, 108.645211, 163.750000, 108.645211, 157.500000, 109.079317" fill="rgb(178, 34, 34)" style="fill-opacity:1.00" />
<!-- End 'A' -->
<!-- Begin 'C' -->
<ellipse cx="175.000000" cy="109.539659" rx="25.000000" ry="0.460341" fill="rgb(0, 0, 128)" style="fill-opacity:1.00" />
<ellipse cx="175.000000" cy="109.539659" rx="16.666667" ry="0.306894" fill="rgb(255, 255, 255)" style="fill-opacity:1.00" />
<rect height="0.460341" width="25.000000" x="175.000000" y="109.309488" fill="rgb(255, 255, 255)" style="fill-opacity:1.00" />
<!-- End 'C' -->
<!-- Begin 'C' -->
<ellipse cx="235.000000" cy="78.232157" rx="25.000000" ry="21.957737" fill="rgb(0, 0, 128)" style="fill-opacity:1.00" />
<ellipse cx="235.000000" cy="78.232157" rx="16.666667" ry="14.638491" fill="rgb(255, 255, 255)" style="fill-opacity:1.00" />
<rect height="21.957737" width="25.000000" x="235.000000" y="67.253288" fill="rgb(255, 255, 255)" style="fill-opacity:1.00" />
<!-- End 'C' -->
<!-- Begin 'T' -->
<rect height="0.731503" width="50.000000" x="210.000000" y="100.189893" fill="rgb(0, 100, 0)" style="fill-opacity:1.00" />
<rect height="4.571895" width="10.000000" x="230.000000" y="100.189893" fill="rgb(0, 100, 0)" style="fill-opacity:1.00" />
<!-- End 'T' -->
<!-- Begin 'A' -->
<polygon points=" 210.000000, 109.249861, 231.000000, 104.761789, 239.000000, 104.761789, 260.000000, 109.249861, 252.500000, 109.249861, 246.250000, 108.127843, 223.750000, 108.127843, 217.500000, 109.249861" fill="rgb(178, 34, 34)" style="fill-opacity:1.00" />
<!-- End 'A' -->
<!-- Begin 'G' -->
<ellipse cx="235.000000" cy="109.624930" rx="25.000000" ry="0.375070" fill="rgb(255, 165, 0)" style="fill-opacity:1.00" />
<ellipse cx="235.000000" cy="109.624930" rx="16.666667" ry="0.250046" fill="rgb(255, 255, 255)" style="fill-opacity:1.00" />
<rect height="0.375070" width="25.000000" x="235.000000" y="109.437395" fill="rgb(255, 255, 255)" style="fill-opacity:1.00" />
<rect height="0.093767" width="25.000000" x="235.000000" y="109.718698" fill="rgb(255, 165, 0)" style="fill-opacity:1.00" />
<rect height="0.281302" width="6.250000" x="253.750000" y="109.718698" fill="rgb(255, 165, 0)" style="fill-opacity:1.00" />
<!-- End 'G' -->
<!-- Begin 'C' -->
<ellipse cx="295.000000" cy="85.369235" rx="25.000000" ry="12.334943" fill="rgb(0, 0, 128)" style="fill-opacity:1.00" />
<ellipse cx="295.000000" cy="85.369235" rx="16.666667" ry="8.223295" fill="rgb(255, 255, 255)" style="fill-opacity:1.00" />
<rect height="12.334943" width="25.000000" x="295.000000" y="79.201763" fill="rgb(255, 255, 255)" style="fill-opacity:1.00" />
<!-- End 'C' -->
<!-- Begin 'T' -->
<rect height="1.380559" width="50.000000" x="270.000000" y="97.704178" fill="rgb(0, 100, 0)" style="fill-opacity:1.00" />
<rect height="8.628492" width="10.000000" x="290.000000" y="97.704178" fill="rgb(0, 100, 0)" style="fill-opacity:1.00" />
<!-- End 'T' -->
<!-- Begin 'A' -->
<polygon points=" 270.000000, 109.583354, 291.000000, 106.332670, 299.000000, 106.332670, 320.000000, 109.583354, 312.500000, 109.583354, 306.250000, 108.770683, 283.750000, 108.770683, 277.500000, 109.583354" fill="rgb(178, 34, 34)" style="fill-opacity:1.00" />
<!-- End 'A' -->
<!-- Begin 'G' -->
<ellipse cx="295.000000" cy="109.791677" rx="25.000000" ry="0.208323" fill="rgb(255, 165, 0)" style="fill-opacity:1.00" />
<ellipse cx="295.000000" cy="109.791677" rx="16.666667" ry="0.138882" fill="rgb(255, 255, 255)" style="fill-opacity:1.00" />
<rect height="0.208323" width="25.000000" x="295.000000" y="109.687516" fill="rgb(255, 255, 255)" style="fill-opacity:1.00" />
<rect height="0.052081" width="25.000000" x="295.000000" y="109.843758" fill="rgb(255, 165, 0)" style="fill-opacity:1.00" />
<rect height="0.156242" width="6.250000" x="313.750000" y="109.843758" fill="rgb(255, 165, 0)" style="fill-opacity:1.00" />
<!-- End 'G' -->
<!-- Begin 'A' -->
<polygon points=" 330.000000, 102.081884, 351.000000, 91.275253, 359.000000, 91.275253, 380.000000, 102.081884, 372.500000, 102.081884, 366.250000, 99.380226, 343.750000, 99.380226, 337.500000, 102.081884" fill="rgb(178, 34, 34)" style="fill-opacity:1.00" />
<polygon points=" 355.000000, 93.436579, 347.000000, 96.759231, 362.000000, 96.759231" fill="rgb(255, 255, 255)" style="fill-opacity:1.00" />
<!-- End 'A' -->
<!-- Begin 'G' -->
<ellipse cx="355.000000" cy="103.705084" rx="25.000000" ry="1.623200" fill="rgb(255, 165, 0)" style="fill-opacity:1.00" />
<ellipse cx="355.000000" cy="103.705084" rx="16.666667" ry="1.082133" fill="rgb(255, 255, 255)" style="fill-opacity:1.00" />
<rect height="1.623200" width="25.000000" x="355.000000" y="102.893484" fill="rgb(255, 255, 255)" style="fill-opacity:1.00" />
<rect height="0.405800" width="25.000000" x="355.000000" y="104.110884" fill="rgb(255, 165, 0)" style="fill-opacity:1.00" />
<rect height="1.217400" width="6.250000" x="373.750000" y="104.110884" fill="rgb(255, 165, 0)" style="fill-opacity:1.00" />
<!-- End 'G' -->
<!-- Begin 'T' -->
<rect height="0.496203" width="50.000000" x="330.000000" y="105.328284" fill="rgb(0, 100, 0)" style="fill-opacity:1.00" />
<rect height="3.101269" width="10.000000" x="350.000000" y="105.328284" fill="rgb(0, 100, 0)" style="fill-opacity:1.00" />
<!-- End 'T' -->
<!-- Begin 'C' -->
<ellipse cx="355.000000" cy="109.214777" rx="25.000000" ry="0.785223" fill="rgb(0, 0, 128)" style="fill-opacity:1.00" />
<ellipse cx="355.000000" cy="109.214777" rx="16.666667" ry="0.523482" fill="rgb(255, 255, 255)" style="fill-opacity:1.00" />
<rect height="0.785223" width="25.000000" x="355.000000" y="108.822165" fill="rgb(255, 255, 255)" style="fill-opacity:1.00" />
<!-- End 'C' -->
<!-- Begin 'A' -->
<polygon points=" 390.000000, 98.540565, 411.000000, 86.077018, 419.000000, 86.077018, 440.000000, 98.540565, 432.500000, 98.540565, 426.250000, 95.424678, 403.750000, 95.424678, 397.500000, 98.540565" fill="rgb(178, 34, 34)" style="fill-opacity:1.00" />
<polygon points=" 415.000000, 88.569727, 407.000000, 92.555146, 422.000000, 92.555146" fill="rgb(255, 255, 255)" style="fill-opacity:1.00" />
<!-- End 'A' -->
<!-- Begin 'T' -->
<rect height="1.347503" width="50.000000" x="390.000000" y="98.540565" fill="rgb(0, 100, 0)" style="fill-opacity:1.00" />
<rect height="8.421895" width="10.000000" x="410.000000" y="98.540565" fill="rgb(0, 100, 0)" style="fill-opacity:1.00" />
<!-- End 'T' -->
<!-- Begin 'G' -->
<ellipse cx="415.000000" cy="107.876004" rx="25.000000" ry="0.913544" fill="rgb(255, 165, 0)" style="fill-opacity:1.00" />
<ellipse cx="415.000000" cy="107.876004" rx="16.666667" ry="0.609030" fill="rgb(255, 255, 255)" style="fill-opacity:1.00" />
<rect height="0.913544" width="25.000000" x="415.000000" y="107.419232" fill="rgb(255, 255, 255)" style="fill-opacity:1.00" />
<rect height="0.228386" width="25.000000" x="415.000000" y="108.104391" fill="rgb(255, 165, 0)" style="fill-opacity:1.00" />
<rect height="0.685158" width="6.250000" x="433.750000" y="108.104391" fill="rgb(255, 165, 0)" style="fill-opacity:1.00" />
<!-- End 'G' -->
<!-- Begin 'C' -->
<ellipse cx="415.000000" cy="109.394774" rx="25.000000" ry="0.605226" fill="rgb(0, 0, 128)" style="fill-opacity:1.00" />
<ellipse cx="415.000000" cy="109.394774" rx="16.666667" ry="0.403484" fill="rgb(255, 255, 255)" style="fill-opacity:1.00" />
<rect height="0.605226" width="25.000000" x="415.000000" y="109.092162" fill="rgb(255, 255, 255)" style="fill-opacity:1.00" />
<!-- End 'C' -->
<!-- Begin 'A' -->
<polygon points=" 450.000000, 90.477276, 471.000000, 65.037408, 479.000000, 65.037408, 500.000000, 90.477276, 492.500000, 90.477276, 486.250000, 84.117309, 463.750000, 84.117309, 457.500000, 90.477276" fill="rgb(178, 34, 34)" style="fill-opacity:1.00" />
<polygon points=" 475.000000, 70.125382, 467.000000, 79.301329, 482.000000, 79.301329" fill="rgb(255, 255, 255)" style="fill-opacity:1.00" />
<!-- End 'A' -->
<!-- Begin 'T' -->
<rect height="3.010506" width="50.000000" x="450.000000" y="90.477276" fill="rgb(0, 100, 0)" style="fill-opacity:1.00" />
<rect height="18.815662" width="10.000000" x="470.000000" y="90.477276" fill="rgb(0, 100, 0)" style="fill-opacity:1.00" />
<!-- End 'T' -->
<!-- Begin 'G' -->
<ellipse cx="475.000000" cy="109.470775" rx="25.000000" ry="0.177838" fill="rgb(255, 165, 0)" style="fill-opacity:1.00" />
<ellipse cx="475.000000" cy="109.470775" rx="16.666667" ry="0.118558" fill="rgb(255, 255, 255)" style="fill-opacity:1.00" />
<rect height="0.177838" width="25.000000" x="475.000000" y="109.381857" fill="rgb(255, 255, 255)" style="fill-opacity:1.00" />
<rect height="0.044459" width="25.000000" x="475.000000" y="109.515235" fill="rgb(255, 165, 0)" style="fill-opacity:1.00" />
<rect height="0.133378" width="6.250000" x="493.750000" y="109.515235" fill="rgb(255, 165, 0)" style="fill-opacity:1.00" />
<!-- End 'G' -->
<!-- Begin 'C' -->
<ellipse cx="475.000000" cy="109.824307" rx="25.000000" ry="0.175693" fill="rgb(0, 0, 128)" style="fill-opacity:1.00" />
<ellipse cx="475.000000" cy="109.824307" rx="16.666667" ry="0.117129" fill="rgb(255, 255, 255)" style="fill-opacity:1.00" />
<rect height="0.175693" width="25.000000" x="475.000000" y="109.736460" fill="rgb(255, 255, 255)" style="fill-opacity:1.00" />
<!-- End 'C' -->
<!-- Begin 'T' -->
<rect height="3.783913" width="50.000000" x="510.000000" y="66.624264" fill="rgb(0, 100, 0)" style="fill-opacity:1.00" />
<rect height="23.649459" width="10.000000" x="530.000000" y="66.624264" fill="rgb(0, 100, 0)" style="fill-opacity:1.00" />
<!-- End 'T' -->
<!-- Begin 'A' -->
<polygon points=" 510.000000, 109.131265, 531.000000, 90.273723, 539.000000, 90.273723, 560.000000, 109.131265, 552.500000, 109.131265, 546.250000, 104.416879, 523.750000, 104.416879, 517.500000, 109.131265" fill="rgb(178, 34, 34)" style="fill-opacity:1.00" />
<polygon points=" 535.000000, 94.045231, 527.000000, 100.588248, 542.000000, 100.588248" fill="rgb(255, 255, 255)" style="fill-opacity:1.00" />
<!-- End 'A' -->
<!-- Begin 'G' -->
<ellipse cx="535.000000" cy="109.367420" rx="25.000000" ry="0.236156" fill="rgb(255, 165, 0)" style="fill-opacity:1.00" />
<ellipse cx="535.000000" cy="109.367420" rx="16.666667" ry="0.157437" fill="rgb(255, 255, 255)" style="fill-opacity:1.00" />
<rect height="0.236156" width="25.000000" x="535.000000" y="109.249343" fill="rgb(255, 255, 255)" style="fill-opacity:1.00" />
<rect height="0.059039" width="25.000000" x="535.000000" y="109.426459" fill="rgb(255, 165, 0)" style="fill-opacity:1.00" />
<rect height="0.177117" width="6.250000" x="553.750000" y="109.426459" fill="rgb(255, 165, 0)" style="fill-opacity:1.00" />
<!-- End 'G' -->
<!-- Begin 'C' -->
<ellipse cx="535.000000" cy="109.801788" rx="25.000000" ry="0.198212" fill="rgb(0, 0, 128)" style="fill-opacity:1.00" />
<ellipse cx="535.000000" cy="109.801788" rx="16.666667" ry="0.132141" fill="rgb(255, 255, 255)" style="fill-opacity:1.00" />
<rect height="0.198212" width="25.000000" x="535.000000" y="109.702682" fill="rgb(255, 255, 255)" style="fill-opacity:1.00" />
<!-- End 'C' -->
<!-- Begin 'T' -->
<rect height="1.870511" width="50.000000" x="570.000000" y="85.985503" fill="rgb(0, 100, 0)" style="fill-opacity:1.00" />
<rect height="11.690692" width="10.000000" x="590.000000" y="85.985503" fill="rgb(0, 100, 0)" style="fill-opacity:1.00" />
<!-- End 'T' -->
<!-- Begin 'A' -->
<polygon points=" 570.000000, 107.086247, 591.000000, 97.676195, 599.000000, 97.676195, 620.000000, 107.086247, 612.500000, 107.086247, 606.250000, 104.733734, 583.750000, 104.733734, 577.500000, 107.086247" fill="rgb(178, 34, 34)" style="fill-opacity:1.00" />
<polygon points=" 595.000000, 99.558206, 587.000000, 102.322226, 602.000000, 102.322226" fill="rgb(255, 255, 255)" style="fill-opacity:1.00" />
<!-- End 'A' -->
<!-- Begin 'C' -->
<ellipse cx="595.000000" cy="108.005119" rx="25.000000" ry="0.918871" fill="rgb(0, 0, 128)" style="fill-opacity:1.00" />
<ellipse cx="595.000000" cy="108.005119" rx="16.666667" ry="0.612581" fill="rgb(255, 255, 255)" style="fill-opacity:1.00" />
<rect height="0.918871" width="25.000000" x="595.000000" y="107.545683" fill="rgb(255, 255, 255)" style="fill-opacity:1.00" />
<!-- End 'C' -->
<!-- Begin 'G' -->
<ellipse cx="595.000000" cy="109.461995" rx="25.000000" ry="0.538005" fill="rgb(255, 165, 0)" style="fill-opacity:1.00" />
<ellipse cx="595.000000" cy="109.461995" rx="16.666667" ry="0.358670" fill="rgb(255, 255, 255)" style="fill-opacity:1.00" />
<rect height="0.538005" width="25.000000" x="595.000000" y="109.192992" fill="rgb(255, 255, 255)" style="fill-opacity:1.00" />
<rect height="0.134501" width="25.000000" x="595.000000" y="109.596496" fill="rgb(255, 165, 0)" style="fill-opacity:1.00" />
<rect height="0.403504" width="6.250000" x="613.750000" y="109.596496" fill="rgb(255, 165, 0)" style="fill-opacity:1.00" />
<!-- End 'G' -->
<!-- Begin 'T' -->
<rect height="1.890237" width="50.000000" x="630.000000" y="89.952744" fill="rgb(0, 100, 0)" style="fill-opacity:1.00" />
<rect height="11.813980" width="10.000000" x="650.000000" y="89.952744" fill="rgb(0, 100, 0)" style="fill-opacity:1.00" />
<!-- End 'T' -->
<!-- Begin 'A' -->
<polygon points=" 630.000000, 105.128364, 651.000000, 101.766725, 659.000000, 101.766725, 680.000000, 105.128364, 672.500000, 105.128364, 666.250000, 104.287954, 643.750000, 104.287954, 637.500000, 105.128364" fill="rgb(178, 34, 34)" style="fill-opacity:1.00" />
<!-- End 'A' -->
<!-- Begin 'C' -->
<ellipse cx="655.000000" cy="106.768268" rx="25.000000" ry="1.639905" fill="rgb(0, 0, 128)" style="fill-opacity:1.00" />
<ellipse cx="655.000000" cy="106.768268" rx="16.666667" ry="1.093270" fill="rgb(255, 255, 255)" style="fill-opacity:1.00" />
<rect height="1.639905" width="25.000000" x="655.000000" y="105.948316" fill="rgb(255, 255, 255)" style="fill-opacity:1.00" />
<!-- End 'C' -->
<!-- Begin 'G' -->
<ellipse cx="655.000000" cy="109.204087" rx="25.000000" ry="0.795913" fill="rgb(255, 165, 0)" style="fill-opacity:1.00" />
<ellipse cx="655.000000" cy="109.204087" rx="16.666667" ry="0.530609" fill="rgb(255, 255, 255)" style="fill-opacity:1.00" />
<rect height="0.795913" width="25.000000" x="655.000000" y="108.806130" fill="rgb(255, 255, 255)" style="fill-opacity:1.00" />
<rect height="0.198978" width="25.000000" x="655.000000" y="109.403065" fill="rgb(255, 165, 0)" style="fill-opacity:1.00" />
<rect height="0.596935" width="6.250000" x="673.750000" y="109.403065" fill="rgb(255, 165, 0)" style="fill-opacity:1.00" />
<!-- End 'G' -->
<!-- Begin 'G' -->
<ellipse cx="715.000000" cy="82.886584" rx="25.000000" ry="14.561693" fill="rgb(255, 165, 0)" style="fill-opacity:1.00" />
<ellipse cx="715.000000" cy="82.886584" rx="16.666667" ry="9.707796" fill="rgb(255, 255, 255)" style="fill-opacity:1.00" />
<rect height="14.561693" width="25.000000" x="715.000000" y="75.605738" fill="rgb(255, 255, 255)" style="fill-opacity:1.00" />
<rect height="3.640423" width="25.000000" x="715.000000" y="86.527008" fill="rgb(255, 165, 0)" style="fill-opacity:1.00" />
<rect height="10.921270" width="6.250000" x="733.750000" y="86.527008" fill="rgb(255, 165, 0)" style="fill-opacity:1.00" />
<!-- End 'G' -->
<!-- Begin 'A' -->
<polygon points=" 690.000000, 106.787077, 711.000000, 97.448278, 719.000000, 97.448278, 740.000000, 106.787077, 732.500000, 106.787077, 726.250000, 104.452377, 703.750000, 104.452377, 697.500000, 106.787077" fill="rgb(178, 34, 34)" style="fill-opacity:1.00" />
<polygon points=" 715.000000, 99.316037, 707.000000, 102.051557, 722.000000, 102.051557" fill="rgb(255, 255, 255)" style="fill-opacity:1.00" />
<!-- End 'A' -->
<!-- Begin 'T' -->
<rect height="0.461689" width="50.000000" x="690.000000" y="106.787077" fill="rgb(0, 100, 0)" style="fill-opacity:1.00" />
<rect height="2.885554" width="10.000000" x="710.000000" y="106.787077" fill="rgb(0, 100, 0)" style="fill-opacity:1.00" />
<!-- End 'T' -->
<!-- Begin 'C' -->
<ellipse cx="715.000000" cy="109.836316" rx="25.000000" ry="0.163684" fill="rgb(0, 0, 128)" style="fill-opacity:1.00" />
<ellipse cx="715.000000" cy="109.836316" rx="16.666667" ry="0.109123" fill="rgb(255, 255, 255)" style="fill-opacity:1.00" />
<rect height="0.163684" width="25.000000" x="715.000000" y="109.754473" fill="rgb(255, 255, 255)" style="fill-opacity:1.00" />
<!-- End 'C' -->
<!-- Begin 'G' -->
<ellipse cx="775.000000" cy="75.176224" rx="25.000000" ry="26.002080" fill="rgb(255, 165, 0)" style="fill-opacity:1.00" />
<ellipse cx="775.000000" cy="75.176224" rx="16.666667" ry="17.334720" fill="rgb(255, 255, 255)" style="fill-opacity:1.00" />
<rect height="26.002080" width="25.000000" x="775.000000" y="62.175184" fill="rgb(255, 255, 255)" style="fill-opacity:1.00" />
<rect height="6.500520" width="25.000000" x="775.000000" y="81.676744" fill="rgb(255, 165, 0)" style="fill-opacity:1.00" />
<rect height="19.501560" width="6.250000" x="793.750000" y="81.676744" fill="rgb(255, 165, 0)" style="fill-opacity:1.00" />
<!-- End 'G' -->
<!-- Begin 'A' -->
<polygon points=" 750.000000, 105.639525, 771.000000, 101.178304, 779.000000, 101.178304, 800.000000, 105.639525, 792.500000, 105.639525, 786.250000, 104.524220, 763.750000, 104.524220, 757.500000, 105.639525" fill="rgb(178, 34, 34)" style="fill-opacity:1.00" />
<!-- End 'A' -->
<!-- Begin 'T' -->
<rect height="0.602527" width="50.000000" x="750.000000" y="105.639525" fill="rgb(0, 100, 0)" style="fill-opacity:1.00" />
<rect height="3.765793" width="10.000000" x="770.000000" y="105.639525" fill="rgb(0, 100, 0)" style="fill-opacity:1.00" />
<!-- End 'T' -->
<!-- Begin 'C' -->
<ellipse cx="775.000000" cy="109.702659" rx="25.000000" ry="0.297341" fill="rgb(0, 0, 128)" style="fill-opacity:1.00" />
<ellipse cx="775.000000" cy="109.702659" rx="16.666667" ry="0.198227" fill="rgb(255, 255, 255)" style="fill-opacity:1.00" />
<rect height="0.297341" width="25.000000" x="775.000000" y="109.553988" fill="rgb(255, 255, 255)" style="fill-opacity:1.00" />
<!-- End 'C' -->
<!-- Begin 'A' -->
<polygon points=" 810.000000, 104.023019, 831.000000, 99.024975, 839.000000, 99.024975, 860.000000, 104.023019, 852.500000, 104.023019, 846.250000, 102.773508, 823.750000, 102.773508, 817.500000, 104.023019" fill="rgb(178, 34, 34)" style="fill-opacity:1.00" />
<!-- End 'A' -->
<!-- Begin 'C' -->
<ellipse cx="835.000000" cy="105.595703" rx="25.000000" ry="1.572684" fill="rgb(0, 0, 128)" style="fill-opacity:1.00" />
<ellipse cx="835.000000" cy="105.595703" rx="16.666667" ry="1.048456" fill="rgb(255, 255, 255)" style="fill-opacity:1.00" />
<rect height="1.572684" width="25.000000" x="835.000000" y="104.809361" fill="rgb(255, 255, 255)" style="fill-opacity:1.00" />
<!-- End 'C' -->
<!-- Begin 'T' -->
<rect height="0.290977" width="50.000000" x="810.000000" y="107.168387" fill="rgb(0, 100, 0)" style="fill-opacity:1.00" />
<rect height="1.818607" width="10.000000" x="830.000000" y="107.168387" fill="rgb(0, 100, 0)" style="fill-opacity:1.00" />
<!-- End 'T' -->
<!-- Begin 'G' -->
<ellipse cx="835.000000" cy="109.493497" rx="25.000000" ry="0.506503" fill="rgb(255, 165, 0)" style="fill-opacity:1.00" />
<ellipse cx="835.000000" cy="109.493497" rx="16.666667" ry="0.337669" fill="rgb(255, 255, 255)" style="fill-opacity:1.00" />
<rect height="0.506503" width="25.000000" x="835.000000" y="109.240246" fill="rgb(255, 255, 255)" style="fill-opacity:1.00" />
<rect height="0.126626" width="25.000000" x="835.000000" y="109.620123" fill="rgb(255, 165, 0)" style="fill-opacity:1.00" />
<rect height="0.379877" width="6.250000" x="853.750000" y="109.620123" fill="rgb(255, 165, 0)" style="fill-opacity:1.00" />
<!-- End 'G' -->
<!-- Begin 'A' -->
<polygon points=" 870.000000, 99.451192, 891.000000, 76.363652, 899.000000, 76.363652, 920.000000, 99.451192, 912.500000, 99.451192, 906.250000, 93.679307, 883.750000, 93.679307, 877.500000, 99.451192" fill="rgb(178, 34, 34)" style="fill-opacity:1.00" />
<polygon points=" 895.000000, 80.981160, 887.000000, 89.216176, 902.000000, 89.216176" fill="rgb(255, 255, 255)" style="fill-opacity:1.00" />
<!-- End 'A' -->
<!-- Begin 'T' -->
<rect height="0.961643" width="50.000000" x="870.000000" y="99.451192" fill="rgb(0, 100, 0)" style="fill-opacity:1.00" />
<rect height="6.010270" width="10.000000" x="890.000000" y="99.451192" fill="rgb(0, 100, 0)" style="fill-opacity:1.00" />
<!-- End 'T' -->
<!-- Begin 'C' -->
<ellipse cx="895.000000" cy="107.023429" rx="25.000000" ry="1.561968" fill="rgb(0, 0, 128)" style="fill-opacity:1.00" />
<ellipse cx="895.000000" cy="107.023429" rx="16.666667" ry="1.041312" fill="rgb(255, 255, 255)" style="fill-opacity:1.00" />
<rect height="1.561968" width="25.000000" x="895.000000" y="106.242446" fill="rgb(255, 255, 255)" style="fill-opacity:1.00" />
<!-- End 'C' -->
<!-- Begin 'G' -->
<ellipse cx="895.000000" cy="109.292698" rx="25.000000" ry="0.707302" fill="rgb(255, 165, 0)" style="fill-opacity:1.00" />
<ellipse cx="895.000000" cy="109.292698" rx="16.666667" ry="0.471534" fill="rgb(255, 255, 255)" style="fill-opacity:1.00" />
<rect height="0.707302" width="25.000000" x="895.000000" y="108.939048" fill="rgb(255, 255, 255)" style="fill-opacity:1.00" />
<rect height="0.176825" width="25.000000" x="895.000000" y="109.469524" fill="rgb(255, 165, 0)" style="fill-opacity:1.00" />
<rect height="0.530476" width="6.250000" x="913.750000" y="109.469524" fill="rgb(255, 165, 0)" style="fill-opacity:1.00" />
<!-- End 'G' -->
<!-- Begin 'A' -->
<polygon points=" 930.000000, 101.285739, 951.000000, 89.640841, 959.000000, 89.640841, 980.000000, 101.285739, 972.500000, 101.285739, 966.250000, 98.374514, 943.750000, 98.374514, 937.500000, 101.285739" fill="rgb(178, 34, 34)" style="fill-opacity:1.00" />
<polygon points=" 955.000000, 91.969820, 947.000000, 95.627779, 962.000000, 95.627779" fill="rgb(255, 255, 255)" style="fill-opacity:1.00" />
<!-- End 'A' -->
<!-- Begin 'T' -->
<rect height="0.789124" width="50.000000" x="930.000000" y="101.285739" fill="rgb(0, 100, 0)" style="fill-opacity:1.00" />
<rect height="4.932023" width="10.000000" x="950.000000" y="101.285739" fill="rgb(0, 100, 0)" style="fill-opacity:1.00" />
<!-- End 'T' -->
<!-- Begin 'G' -->
<ellipse cx="955.000000" cy="107.226348" rx="25.000000" ry="1.008587" fill="rgb(255, 165, 0)" style="fill-opacity:1.00" />
<ellipse cx="955.000000" cy="107.226348" rx="16.666667" ry="0.672391" fill="rgb(255, 255, 255)" style="fill-opacity:1.00" />
<rect height="1.008587" width="25.000000" x="955.000000" y="106.722055" fill="rgb(255, 255, 255)" style="fill-opacity:1.00" />
<rect height="0.252147" width="25.000000" x="955.000000" y="107.478495" fill="rgb(255, 165, 0)" style="fill-opacity:1.00" />
<rect height="0.756440" width="6.250000" x="973.750000" y="107.478495" fill="rgb(255, 165, 0)" style="fill-opacity:1.00" />
<!-- End 'G' -->
<!-- Begin 'C' -->
<ellipse cx="955.000000" cy="109.117467" rx="25.000000" ry="0.882533" fill="rgb(0, 0, 128)" style="fill-opacity:1.00" />
<ellipse cx="955.000000" cy="109.117467" rx="16.666667" ry="0.588355" fill="rgb(255, 255, 255)" style="fill-opacity:1.00" />
<rect height="0.882533" width="25.000000" x="955.000000" y="108.676201" fill="rgb(255, 255, 255)" style="fill-opacity:1.00" />
<!-- End 'C' -->
<text x="520.000000" y="165">
IC = 9.36
</text>

</svg>
