<?xml version="1.0" encoding="UTF-8" standalone="yes"?>
                 <!DOCTYPE svg PUBLIC "-//W3C//DTD SVG 1.0//EN" "http://www.w3.org/TR/2001/REC-SVG-20010904/DTD/svg10.dtd">
                 <svg height="170" width="1260" xmlns="http://www.w3.org/2000/svg" xmlns:xlink="http://www.w3.org/1999/xlink">
                 <line x1="85" y1="120" x2="1227" y2="120" style="stroke:rgb(99,99,99);stroke-width:2" />
<rect height="7.000000" width="2.000000" x="85.000000" y="120.000000" fill="rgb(0, 0, 0)" style="fill-opacity:1.00" />
<text x="107.000000" y="140">
1
</text>
<rect height="7.000000" width="2.000000" x="145.000000" y="120.000000" fill="rgb(0, 0, 0)" style="fill-opacity:1.00" />
<text x="167.000000" y="140">
2
</text>
<rect height="7.000000" width="2.000000" x="205.000000" y="120.000000" fill="rgb(0, 0, 0)" style="fill-opacity:1.00" />
<text x="227.000000" y="140">
3
</text>
<rect height="7.000000" width="2.000000" x="265.000000" y="120.000000" fill="rgb(0, 0, 0)" style="fill-opacity:1.00" />
<text x="287.000000" y="140">
4
</text>
<rect height="7.000000" width="2.000000" x="325.000000" y="120.000000" fill="rgb(0, 0, 0)" style="fill-opacity:1.00" />
<text x="347.000000" y="140">
5
</text>
<rect height="7.000000" width="2.000000" x="385.000000" y="120.000000" fill="rgb(0, 0, 0)" style="fill-opacity:1.00" />
<text x="407.000000" y="140">
6
</text>
<rect height="7.000000" width="2.000000" x="445.000000" y="120.000000" fill="rgb(0, 0, 0)" style="fill-opacity:1.00" />
<text x="467.000000" y="140">
7
</text>
<rect height="7.000000" width="2.000000" x="505.000000" y="120.000000" fill="rgb(0, 0, 0)" style="fill-opacity:1.00" />
<text x="527.000000" y="140">
8
</text>
<rect height="7.000000" width="2.000000" x="565.000000" y="120.000000" fill="rgb(0, 0, 0)" style="fill-opacity:1.00" />
<text x="587.000000" y="140">
9
</text>
<rect height="7.000000" width="2.000000" x="625.000000" y="120.000000" fill="rgb(0, 0, 0)" style="fill-opacity:1.00" />
<text x="647.000000" y="140">
10
</text>
<rect height="7.000000" width="2.000000" x="685.000000" y="120.000000" fill="rgb(0, 0, 0)" style="fill-opacity:1.00" />
<text x="707.000000" y="140">
11
</text>
<rect height="7.000000" width="2.000000" x="745.000000" y="120.000000" fill="rgb(0, 0, 0)" style="fill-opacity:1.00" />
<text x="767.000000" y="140">
12
</text>
<rect height="7.000000" width="2.000000" x="805.000000" y="120.000000" fill="rgb(0, 0, 0)" style="fill-opacity:1.00" />
<text x="827.000000" y="140">
13
</text>
<rect height="7.000000" width="2.000000" x="865.000000" y="120.000000" fill="rgb(0, 0, 0)" style="fill-opacity:1.00" />
<text x="887.000000" y="140">
14
</text>
<rect height="7.000000" width="2.000000" x="925.000000" y="120.000000" fill="rgb(0, 0, 0)" style="fill-opacity:1.00" />
<text x="947.000000" y="140">
15
</text>
<rect height="7.000000" width="2.000000" x="985.000000" y="120.000000" fill="rgb(0, 0, 0)" style="fill-opacity:1.00" />
<text x="1007.000000" y="140">
16
</text>
<rect height="7.000000" width="2.000000" x="1045.000000" y="120.000000" fill="rgb(0, 0, 0)" style="fill-opacity:1.00" />
<text x="1067.000000" y="140">
17
</text>
<rect height="7.000000" width="2.000000" x="1105.000000" y="120.000000" fill="rgb(0, 0, 0)" style="fill-opacity:1.00" />
<text x="1127.000000" y="140">
18
</text>
<rect height="7.000000" width="2.000000" x="1165.000000" y="120.000000" fill="rgb(0, 0, 0)" style="fill-opacity:1.00" />
<text x="1187.000000" y="140">
19
</text>
<rect height="7.000000" width="2.000000" x="1225.000000" y="120.000000" fill="rgb(0, 0, 0)" style="fill-opacity:1.00" />
<line x1="80" y1="112" x2="80" y2="10" style="stroke:rgb(99,99,99);stroke-width:2" />
<rect height="2.000000" width="7.000000" x="73.000000" y="110.000000" fill="rgb(0, 0, 0)" style="fill-opacity:1.00" />
<text x="63" y="115">
0
</text>
<rect height="2.000000" width="7.000000" x="73.000000" y="60.000000" fill="rgb(0, 0, 0)" style="fill-opacity:1.00" />
<text x="63" y="65">
1
</text>
<rect height="2.000000" width="7.000000" x="73.000000" y="10.000000" fill="rgb(0, 0, 0)" style="fill-opacity:1.00" />
<text x="63" y="15">
2
</text>
<text x="50" y="65"
transform="rotate(-90, 50, 70)">
bits
</text>
<!-- Begin 'T' -->
<rect height="1.406258" width="50.000000" x="90.000000" y="92.479096" fill="rgb(0, 100, 0)" style="fill-opacity:1.00" />
<rect height="8.789112" width="10.000000" x="110.000000" y="92.479096" fill="rgb(0, 100, 0)" style="fill-opacity:1.00" />
<!-- End 'T' -->
<!-- Begin 'C' -->
<ellipse cx="115.000000" cy="104.057796" rx="25.000000" ry="2.789588" fill="rgb(0, 0, 128)" style="fill-opacity:1.00" />
<ellipse cx="115.000000" cy="104.057796" rx="16.666667" ry="1.859725" fill="rgb(255, 255, 255)" style="fill-opacity:1.00" />
<rect height="2.789588" width="25.000000" x="115.000000" y="102.663002" fill="rgb(255, 255, 255)" style="fill-opacity:1.00" />
<!-- End 'C' -->
<!-- Begin 'A' -->
<polygon points=" 90.000000, 108.528779, 111.000000, 106.847384, 119.000000, 106.847384, 140.000000, 108.528779, 132.500000, 108.528779, 126.250000, 108.108430, 103.750000, 108.108430, 97.500000, 108.528779" fill="rgb(178, 34, 34)" style="fill-opacity:1.00" />
<!-- End 'A' -->
<!-- Begin 'G' -->
<ellipse cx="115.000000" cy="109.264390" rx="25.000000" ry="0.735610" fill="rgb(255, 165, 0)" style="fill-opacity:1.00" />
<ellipse cx="115.000000" cy="109.264390" rx="16.666667" ry="0.490407" fill="rgb(255, 255, 255)" style="fill-opacity:1.00" />
<rect height="0.735610" width="25.000000" x="115.000000" y="108.896584" fill="rgb(255, 255, 255)" style="fill-opacity:1.00" />
<rect height="0.183903" width="25.000000" x="115.000000" y="109.448292" fill="rgb(255, 165, 0)" style="fill-opacity:1.00" />
<rect height="0.551708" width="6.250000" x="133.750000" y="109.448292" fill="rgb(255, 165, 0)" style="fill-opacity:1.00" />
<!-- End 'G' -->
<!-- Begin 'G' -->
<ellipse cx="175.000000" cy="104.467760" rx="25.000000" ry="1.617956" fill="rgb(255, 165, 0)" style="fill-opacity:1.00" />
<ellipse cx="175.000000" cy="104.467760" rx="16.666667" ry="1.078637" fill="rgb(255, 255, 255)" style="fill-opacity:1.00" />
<rect height="1.617956" width="25.000000" x="175.000000" y="103.658783" fill="rgb(255, 255, 255)" style="fill-opacity:1.00" />
<rect height="0.404489" width="25.000000" x="175.000000" y="104.872249" fill="rgb(255, 165, 0)" style="fill-opacity:1.00" />
<rect height="1.213467" width="6.250000" x="193.750000" y="104.872249" fill="rgb(255, 165, 0)" style="fill-opacity:1.00" />
<!-- End 'G' -->
<!-- Begin 'T' -->
<rect height="0.234545" width="50.000000" x="150.000000" y="106.085716" fill="rgb(0, 100, 0)" style="fill-opacity:1.00" />
<rect height="1.465907" width="10.000000" x="170.000000" y="106.085716" fill="rgb(0, 100, 0)" style="fill-opacity:1.00" />
<!-- End 'T' -->
<!-- Begin 'A' -->
<polygon points=" 150.000000, 108.861583, 171.000000, 107.551623, 179.000000, 107.551623, 200.000000, 108.861583, 192.500000, 108.861583, 186.250000, 108.534093, 163.750000, 108.534093, 157.500000, 108.861583" fill="rgb(178, 34, 34)" style="fill-opacity:1.00" />
<!-- End 'A' -->
<!-- Begin 'C' -->
<ellipse cx="175.000000" cy="109.430791" rx="25.000000" ry="0.569209" fill="rgb(0, 0, 128)" style="fill-opacity:1.00" />
<ellipse cx="175.000000" cy="109.430791" rx="16.666667" ry="0.379472" fill="rgb(255, 255, 255)" style="fill-opacity:1.00" />
<rect height="0.569209" width="25.000000" x="175.000000" y="109.146187" fill="rgb(255, 255, 255)" style="fill-opacity:1.00" />
<!-- End 'C' -->
<!-- Begin 'G' -->
<ellipse cx="235.000000" cy="97.280473" rx="25.000000" ry="4.135684" fill="rgb(255, 165, 0)" style="fill-opacity:1.00" />
<ellipse cx="235.000000" cy="97.280473" rx="16.666667" ry="2.757123" fill="rgb(255, 255, 255)" style="fill-opacity:1.00" />
<rect height="4.135684" width="25.000000" x="235.000000" y="95.212631" fill="rgb(255, 255, 255)" style="fill-opacity:1.00" />
<rect height="1.033921" width="25.000000" x="235.000000" y="98.314394" fill="rgb(255, 165, 0)" style="fill-opacity:1.00" />
<rect height="3.101763" width="6.250000" x="253.750000" y="98.314394" fill="rgb(255, 165, 0)" style="fill-opacity:1.00" />
<!-- End 'G' -->
<!-- Begin 'A' -->
<polygon points=" 210.000000, 106.599548, 231.000000, 101.416157, 239.000000, 101.416157, 260.000000, 106.599548, 252.500000, 106.599548, 246.250000, 105.303701, 223.750000, 105.303701, 217.500000, 106.599548" fill="rgb(178, 34, 34)" style="fill-opacity:1.00" />
<!-- End 'A' -->
<!-- Begin 'T' -->
<rect height="0.397026" width="50.000000" x="210.000000" y="106.599548" fill="rgb(0, 100, 0)" style="fill-opacity:1.00" />
<rect height="2.481411" width="10.000000" x="230.000000" y="106.599548" fill="rgb(0, 100, 0)" style="fill-opacity:1.00" />
<!-- End 'T' -->
<!-- Begin 'C' -->
<ellipse cx="235.000000" cy="109.540480" rx="25.000000" ry="0.459520" fill="rgb(0, 0, 128)" style="fill-opacity:1.00" />
<ellipse cx="235.000000" cy="109.540480" rx="16.666667" ry="0.306347" fill="rgb(255, 255, 255)" style="fill-opacity:1.00" />
<rect height="0.459520" width="25.000000" x="235.000000" y="109.310719" fill="rgb(255, 255, 255)" style="fill-opacity:1.00" />
<!-- End 'C' -->
<!-- Begin 'C' -->
<ellipse cx="295.000000" cy="74.389625" rx="25.000000" ry="27.612692" fill="rgb(0, 0, 128)" style="fill-opacity:1.00" />
<ellipse cx="295.000000" cy="74.389625" rx="16.666667" ry="18.408461" fill="rgb(255, 255, 255)" style="fill-opacity:1.00" />
<rect height="27.612692" width="25.000000" x="295.000000" y="60.583279" fill="rgb(255, 255, 255)" style="fill-opacity:1.00" />
<!-- End 'C' -->
<!-- Begin 'A' -->
<polygon points=" 270.000000, 105.932213, 291.000000, 102.002316, 299.000000, 102.002316, 320.000000, 105.932213, 312.500000, 105.932213, 306.250000, 104.949739, 283.750000, 104.949739, 277.500000, 105.932213" fill="rgb(178, 34, 34)" style="fill-opacity:1.00" />
<!-- End 'A' -->
<!-- Begin 'T' -->
<rect height="0.408158" width="50.000000" x="270.000000" y="105.932213" fill="rgb(0, 100, 0)" style="fill-opacity:1.00" />
<rect height="2.550985" width="10.000000" x="290.000000" y="105.932213" fill="rgb(0, 100, 0)" style="fill-opacity:1.00" />
<!-- End 'T' -->
<!-- Begin 'G' -->
<ellipse cx="295.000000" cy="109.241599" rx="25.000000" ry="0.758401" fill="rgb(255, 165, 0)" style="fill-opacity:1.00" />
<ellipse cx="295.000000" cy="109.241599" rx="16.666667" ry="0.505601" fill="rgb(255, 255, 255)" style="fill-opacity:1.00" />
<rect height="0.758401" width="25.000000" x="295.000000" y="108.862398" fill="rgb(255, 255, 255)" style="fill-opacity:1.00" />
<rect height="0.189600" width="25.000000" x="295.000000" y="109.431199" fill="rgb(255, 165, 0)" style="fill-opacity:1.00" />
<rect height="0.568801" width="6.250000" x="313.750000" y="109.431199" fill="rgb(255, 165, 0)" style="fill-opacity:1.00" />
<!-- End 'G' -->
<!-- Begin 'C' -->
<ellipse cx="355.000000" cy="62.422931" rx="25.000000" ry="46.246957" fill="rgb(0, 0, 128)" style="fill-opacity:1.00" />
<ellipse cx="355.000000" cy="62.422931" rx="16.666667" ry="30.831305" fill="rgb(255, 255, 255)" style="fill-opacity:1.00" />
<rect height="46.246957" width="25.000000" x="355.000000" y="39.299453" fill="rgb(255, 255, 255)" style="fill-opacity:1.00" />
<!-- End 'C' -->
<!-- Begin 'A' -->
<polygon points=" 330.000000, 109.590735, 351.000000, 108.669888, 359.000000, 108.669888, 380.000000, 109.590735, 372.500000, 109.590735, 366.250000, 109.360523, 343.750000, 109.360523, 337.500000, 109.590735" fill="rgb(178, 34, 34)" style="fill-opacity:1.00" />
<!-- End 'A' -->
<!-- Begin 'T' -->
<rect height="0.049112" width="50.000000" x="330.000000" y="109.590735" fill="rgb(0, 100, 0)" style="fill-opacity:1.00" />
<rect height="0.306949" width="10.000000" x="350.000000" y="109.590735" fill="rgb(0, 100, 0)" style="fill-opacity:1.00" />
<!-- End 'T' -->
<!-- Begin 'G' -->
<ellipse cx="355.000000" cy="109.948842" rx="25.000000" ry="0.051158" fill="rgb(255, 165, 0)" style="fill-opacity:1.00" />
<ellipse cx="355.000000" cy="109.948842" rx="16.666667" ry="0.034105" fill="rgb(255, 255, 255)" style="fill-opacity:1.00" />
<rect height="0.051158" width="25.000000" x="355.000000" y="109.923263" fill="rgb(255, 255, 255)" style="fill-opacity:1.00" />
<rect height="0.012790" width="25.000000" x="355.000000" y="109.961631" fill="rgb(255, 165, 0)" style="fill-opacity:1.00" />
<rect height="0.038369" width="6.250000" x="373.750000" y="109.961631" fill="rgb(255, 165, 0)" style="fill-opacity:1.00" />
<!-- End 'G' -->
<!-- Begin 'A' -->
<polygon points=" 390.000000, 100.074185, 411.000000, 57.081554, 419.000000, 57.081554, 440.000000, 100.074185, 432.500000, 100.074185, 426.250000, 89.326027, 403.750000, 89.326027, 397.500000, 100.074185" fill="rgb(178, 34, 34)" style="fill-opacity:1.00" />
<polygon points=" 415.000000, 65.680080, 407.000000, 81.877132, 422.000000, 81.877132" fill="rgb(255, 255, 255)" style="fill-opacity:1.00" />
<!-- End 'A' -->
<!-- Begin 'T' -->
<rect height="0.849465" width="50.000000" x="390.000000" y="100.074185" fill="rgb(0, 100, 0)" style="fill-opacity:1.00" />
<rect height="5.309157" width="10.000000" x="410.000000" y="100.074185" fill="rgb(0, 100, 0)" style="fill-opacity:1.00" />
<!-- End 'T' -->
<!-- Begin 'G' -->
<ellipse cx="415.000000" cy="107.287713" rx="25.000000" ry="1.904372" fill="rgb(255, 165, 0)" style="fill-opacity:1.00" />
<ellipse cx="415.000000" cy="107.287713" rx="16.666667" ry="1.269581" fill="rgb(255, 255, 255)" style="fill-opacity:1.00" />
<rect height="1.904372" width="25.000000" x="415.000000" y="106.335527" fill="rgb(255, 255, 255)" style="fill-opacity:1.00" />
<rect height="0.476093" width="25.000000" x="415.000000" y="107.763806" fill="rgb(255, 165, 0)" style="fill-opacity:1.00" />
<rect height="1.428279" width="6.250000" x="433.750000" y="107.763806" fill="rgb(255, 165, 0)" style="fill-opacity:1.00" />
<!-- End 'G' -->
<!-- Begin 'C' -->
<ellipse cx="415.000000" cy="109.596042" rx="25.000000" ry="0.403958" fill="rgb(0, 0, 128)" style="fill-opacity:1.00" />
<ellipse cx="415.000000" cy="109.596042" rx="16.666667" ry="0.269305" fill="rgb(255, 255, 255)" style="fill-opacity:1.00" />
<rect height="0.403958" width="25.000000" x="415.000000" y="109.394064" fill="rgb(255, 255, 255)" style="fill-opacity:1.00" />
<!-- End 'C' -->
<!-- Begin 'C' -->
<ellipse cx="475.000000" cy="84.059501" rx="25.000000" ry="10.515344" fill="rgb(0, 0, 128)" style="fill-opacity:1.00" />
<ellipse cx="475.000000" cy="84.059501" rx="16.666667" ry="7.010229" fill="rgb(255, 255, 255)" style="fill-opacity:1.00" />
<rect height="10.515344" width="25.000000" x="475.000000" y="78.801829" fill="rgb(255, 255, 255)" style="fill-opacity:1.00" />
<!-- End 'C' -->
<!-- Begin 'G' -->
<ellipse cx="475.000000" cy="101.233900" rx="25.000000" ry="6.659055" fill="rgb(255, 165, 0)" style="fill-opacity:1.00" />
<ellipse cx="475.000000" cy="101.233900" rx="16.666667" ry="4.439370" fill="rgb(255, 255, 255)" style="fill-opacity:1.00" />
<rect height="6.659055" width="25.000000" x="475.000000" y="97.904373" fill="rgb(255, 255, 255)" style="fill-opacity:1.00" />
<rect height="1.664764" width="25.000000" x="475.000000" y="102.898664" fill="rgb(255, 165, 0)" style="fill-opacity:1.00" />
<rect height="4.994292" width="6.250000" x="493.750000" y="102.898664" fill="rgb(255, 165, 0)" style="fill-opacity:1.00" />
<!-- End 'G' -->
<!-- Begin 'A' -->
<polygon points=" 450.000000, 109.522933, 471.000000, 107.892956, 479.000000, 107.892956, 500.000000, 109.522933, 492.500000, 109.522933, 486.250000, 109.115439, 463.750000, 109.115439, 457.500000, 109.522933" fill="rgb(178, 34, 34)" style="fill-opacity:1.00" />
<!-- End 'A' -->
<!-- Begin 'T' -->
<rect height="0.076331" width="50.000000" x="450.000000" y="109.522933" fill="rgb(0, 100, 0)" style="fill-opacity:1.00" />
<rect height="0.477067" width="10.000000" x="470.000000" y="109.522933" fill="rgb(0, 100, 0)" style="fill-opacity:1.00" />
<!-- End 'T' -->
<!-- Begin 'C' -->
<ellipse cx="535.000000" cy="95.893868" rx="25.000000" ry="4.372901" fill="rgb(0, 0, 128)" style="fill-opacity:1.00" />
<ellipse cx="535.000000" cy="95.893868" rx="16.666667" ry="2.915267" fill="rgb(255, 255, 255)" style="fill-opacity:1.00" />
<rect height="4.372901" width="25.000000" x="535.000000" y="93.707418" fill="rgb(255, 255, 255)" style="fill-opacity:1.00" />
<!-- End 'C' -->
<!-- Begin 'T' -->
<rect height="1.047884" width="50.000000" x="510.000000" y="100.266769" fill="rgb(0, 100, 0)" style="fill-opacity:1.00" />
<rect height="6.549275" width="10.000000" x="530.000000" y="100.266769" fill="rgb(0, 100, 0)" style="fill-opacity:1.00" />
<!-- End 'T' -->
<!-- Begin 'A' -->
<polygon points=" 510.000000, 108.992419, 531.000000, 106.816045, 539.000000, 106.816045, 560.000000, 108.992419, 552.500000, 108.992419, 546.250000, 108.448325, 523.750000, 108.448325, 517.500000, 108.992419" fill="rgb(178, 34, 34)" style="fill-opacity:1.00" />
<!-- End 'A' -->
<!-- Begin 'G' -->
<ellipse cx="535.000000" cy="109.486134" rx="25.000000" ry="0.493715" fill="rgb(255, 165, 0)" style="fill-opacity:1.00" />
<ellipse cx="535.000000" cy="109.486134" rx="16.666667" ry="0.329143" fill="rgb(255, 255, 255)" style="fill-opacity:1.00" />
<rect height="0.493715" width="25.000000" x="535.000000" y="109.239276" fill="rgb(255, 255, 255)" style="fill-opacity:1.00" />
<rect height="0.123429" width="25.000000" x="535.000000" y="109.609562" fill="rgb(255, 165, 0)" style="fill-opacity:1.00" />
<rect height="0.370286" width="6.250000" x="553.750000" y="109.609562" fill="rgb(255, 165, 0)" style="fill-opacity:1.00" />
<!-- End 'G' -->
<!-- Begin 'A' -->
<polygon points=" 570.000000, 104.499783, 591.000000, 33.498159, 599.000000, 33.498159, 620.000000, 104.499783, 612.500000, 104.499783, 606.250000, 86.749377, 583.750000, 86.749377, 577.500000, 104.499783" fill="rgb(178, 34, 34)" style="fill-opacity:1.00" />
<polygon points=" 595.000000, 47.698484, 587.000000, 75.099133, 602.000000, 75.099133" fill="rgb(255, 255, 255)" style="fill-opacity:1.00" />
<!-- End 'A' -->
<!-- Begin 'G' -->
<ellipse cx="595.000000" cy="105.874815" rx="25.000000" ry="1.375031" fill="rgb(255, 165, 0)" style="fill-opacity:1.00" />
<ellipse cx="595.000000" cy="105.874815" rx="16.666667" ry="0.916688" fill="rgb(255, 255, 255)" style="fill-opacity:1.00" />
<rect height="1.375031" width="25.000000" x="595.000000" y="105.187299" fill="rgb(255, 255, 255)" style="fill-opacity:1.00" />
<rect height="0.343758" width="25.000000" x="595.000000" y="106.218573" fill="rgb(255, 165, 0)" style="fill-opacity:1.00" />
<rect height="1.031274" width="6.250000" x="613.750000" y="106.218573" fill="rgb(255, 165, 0)" style="fill-opacity:1.00" />
<!-- End 'G' -->
<!-- Begin 'T' -->
<rect height="0.253339" width="50.000000" x="570.000000" y="107.249846" fill="rgb(0, 100, 0)" style="fill-opacity:1.00" />
<rect height="1.583370" width="10.000000" x="590.000000" y="107.249846" fill="rgb(0, 100, 0)" style="fill-opacity:1.00" />
<!-- End 'T' -->
<!-- Begin 'C' -->
<ellipse cx="595.000000" cy="109.333227" rx="25.000000" ry="0.500011" fill="rgb(0, 0, 128)" style="fill-opacity:1.00" />
<ellipse cx="595.000000" cy="109.333227" rx="16.666667" ry="0.333341" fill="rgb(255, 255, 255)" style="fill-opacity:1.00" />
<rect height="0.500011" width="25.000000" x="595.000000" y="109.083221" fill="rgb(255, 255, 255)" style="fill-opacity:1.00" />
<!-- End 'C' -->
<!-- Begin 'G' -->
<ellipse cx="655.000000" cy="62.121015" rx="25.000000" ry="46.340791" fill="rgb(255, 165, 0)" style="fill-opacity:1.00" />
<ellipse cx="655.000000" cy="62.121015" rx="16.666667" ry="30.893860" fill="rgb(255, 255, 255)" style="fill-opacity:1.00" />
<rect height="46.340791" width="25.000000" x="655.000000" y="38.950620" fill="rgb(255, 255, 255)" style="fill-opacity:1.00" />
<rect height="11.585198" width="25.000000" x="655.000000" y="73.706213" fill="rgb(255, 165, 0)" style="fill-opacity:1.00" />
<rect height="34.755593" width="6.250000" x="673.750000" y="73.706213" fill="rgb(255, 165, 0)" style="fill-opacity:1.00" />
<!-- End 'G' -->
<!-- Begin 'A' -->
<polygon points=" 630.000000, 109.076949, 651.000000, 108.461806, 659.000000, 108.461806, 680.000000, 109.076949, 672.500000, 109.076949, 666.250000, 108.923163, 643.750000, 108.923163, 637.500000, 109.076949" fill="rgb(178, 34, 34)" style="fill-opacity:1.00" />
<!-- End 'A' -->
<!-- Begin 'T' -->
<rect height="0.065615" width="50.000000" x="630.000000" y="109.076949" fill="rgb(0, 100, 0)" style="fill-opacity:1.00" />
<rect height="0.410095" width="10.000000" x="650.000000" y="109.076949" fill="rgb(0, 100, 0)" style="fill-opacity:1.00" />
<!-- End 'T' -->
<!-- Begin 'C' -->
<ellipse cx="655.000000" cy="109.538307" rx="25.000000" ry="0.051262" fill="rgb(0, 0, 128)" style="fill-opacity:1.00" />
<ellipse cx="655.000000" cy="109.538307" rx="16.666667" ry="0.034175" fill="rgb(255, 255, 255)" style="fill-opacity:1.00" />
<rect height="0.051262" width="25.000000" x="655.000000" y="109.512676" fill="rgb(255, 255, 255)" style="fill-opacity:1.00" />
<!-- End 'C' -->
<!-- Begin 'G' -->
<ellipse cx="715.000000" cy="77.691209" rx="25.000000" ry="14.367638" fill="rgb(255, 165, 0)" style="fill-opacity:1.00" />
<ellipse cx="715.000000" cy="77.691209" rx="16.666667" ry="9.578426" fill="rgb(255, 255, 255)" style="fill-opacity:1.00" />
<rect height="14.367638" width="25.000000" x="715.000000" y="70.507390" fill="rgb(255, 255, 255)" style="fill-opacity:1.00" />
<rect height="3.591910" width="25.000000" x="715.000000" y="81.283119" fill="rgb(255, 165, 0)" style="fill-opacity:1.00" />
<rect height="10.775729" width="6.250000" x="733.750000" y="81.283119" fill="rgb(255, 165, 0)" style="fill-opacity:1.00" />
<!-- End 'G' -->
<!-- Begin 'A' -->
<polygon points=" 690.000000, 108.985800, 711.000000, 92.058847, 719.000000, 92.058847, 740.000000, 108.985800, 732.500000, 108.985800, 726.250000, 104.754062, 703.750000, 104.754062, 697.500000, 108.985800" fill="rgb(178, 34, 34)" style="fill-opacity:1.00" />
<polygon points=" 715.000000, 95.444238, 707.000000, 101.215019, 722.000000, 101.215019" fill="rgb(255, 255, 255)" style="fill-opacity:1.00" />
<!-- End 'A' -->
<!-- Begin 'T' -->
<rect height="0.081087" width="50.000000" x="690.000000" y="108.985800" fill="rgb(0, 100, 0)" style="fill-opacity:1.00" />
<rect height="0.506795" width="10.000000" x="710.000000" y="108.985800" fill="rgb(0, 100, 0)" style="fill-opacity:1.00" />
<!-- End 'T' -->
<!-- Begin 'C' -->
<ellipse cx="715.000000" cy="109.593954" rx="25.000000" ry="0.101359" fill="rgb(0, 0, 128)" style="fill-opacity:1.00" />
<ellipse cx="715.000000" cy="109.593954" rx="16.666667" ry="0.067573" fill="rgb(255, 255, 255)" style="fill-opacity:1.00" />
<rect height="0.101359" width="25.000000" x="715.000000" y="109.543275" fill="rgb(255, 255, 255)" style="fill-opacity:1.00" />
<!-- End 'C' -->
<!-- Begin 'G' -->
<ellipse cx="775.000000" cy="85.875748" rx="25.000000" ry="9.084482" fill="rgb(255, 165, 0)" style="fill-opacity:1.00" />
<ellipse cx="775.000000" cy="85.875748" rx="16.666667" ry="6.056321" fill="rgb(255, 255, 255)" style="fill-opacity:1.00" />
<rect height="9.084482" width="25.000000" x="775.000000" y="81.333508" fill="rgb(255, 255, 255)" style="fill-opacity:1.00" />
<rect height="2.271120" width="25.000000" x="775.000000" y="88.146869" fill="rgb(255, 165, 0)" style="fill-opacity:1.00" />
<rect height="6.813361" width="6.250000" x="793.750000" y="88.146869" fill="rgb(255, 165, 0)" style="fill-opacity:1.00" />
<!-- End 'G' -->
<!-- Begin 'T' -->
<rect height="1.968724" width="50.000000" x="750.000000" y="94.960230" fill="rgb(0, 100, 0)" style="fill-opacity:1.00" />
<rect height="12.304526" width="10.000000" x="770.000000" y="94.960230" fill="rgb(0, 100, 0)" style="fill-opacity:1.00" />
<!-- End 'T' -->
<!-- Begin 'A' -->
<polygon points=" 750.000000, 109.243553, 771.000000, 107.264755, 779.000000, 107.264755, 800.000000, 109.243553, 792.500000, 109.243553, 786.250000, 108.748854, 763.750000, 108.748854, 757.500000, 109.243553" fill="rgb(178, 34, 34)" style="fill-opacity:1.00" />
<!-- End 'A' -->
<!-- Begin 'C' -->
<ellipse cx="775.000000" cy="109.477411" rx="25.000000" ry="0.233858" fill="rgb(0, 0, 128)" style="fill-opacity:1.00" />
<ellipse cx="775.000000" cy="109.477411" rx="16.666667" ry="0.155905" fill="rgb(255, 255, 255)" style="fill-opacity:1.00" />
<rect height="0.233858" width="25.000000" x="775.000000" y="109.360482" fill="rgb(255, 255, 255)" style="fill-opacity:1.00" />
<!-- End 'C' -->
<!-- Begin 'G' -->
<ellipse cx="835.000000" cy="63.713318" rx="25.000000" ry="43.000793" fill="rgb(255, 165, 0)" style="fill-opacity:1.00" />
<ellipse cx="835.000000" cy="63.713318" rx="16.666667" ry="28.667196" fill="rgb(255, 255, 255)" style="fill-opacity:1.00" />
<rect height="43.000793" width="25.000000" x="835.000000" y="42.212921" fill="rgb(255, 255, 255)" style="fill-opacity:1.00" />
<rect height="10.750198" width="25.000000" x="835.000000" y="74.463516" fill="rgb(255, 165, 0)" style="fill-opacity:1.00" />
<rect height="32.250595" width="6.250000" x="853.750000" y="74.463516" fill="rgb(255, 165, 0)" style="fill-opacity:1.00" />
<!-- End 'G' -->
<!-- Begin 'A' -->
<polygon points=" 810.000000, 107.968904, 831.000000, 106.714111, 839.000000, 106.714111, 860.000000, 107.968904, 852.500000, 107.968904, 846.250000, 107.655206, 823.750000, 107.655206, 817.500000, 107.968904" fill="rgb(178, 34, 34)" style="fill-opacity:1.00" />
<!-- End 'A' -->
<!-- Begin 'T' -->
<rect height="0.138992" width="50.000000" x="810.000000" y="107.968904" fill="rgb(0, 100, 0)" style="fill-opacity:1.00" />
<rect height="0.868703" width="10.000000" x="830.000000" y="107.968904" fill="rgb(0, 100, 0)" style="fill-opacity:1.00" />
<!-- End 'T' -->
<!-- Begin 'C' -->
<ellipse cx="835.000000" cy="108.885868" rx="25.000000" ry="0.048261" fill="rgb(0, 0, 128)" style="fill-opacity:1.00" />
<ellipse cx="835.000000" cy="108.885868" rx="16.666667" ry="0.032174" fill="rgb(255, 255, 255)" style="fill-opacity:1.00" />
<rect height="0.048261" width="25.000000" x="835.000000" y="108.861738" fill="rgb(255, 255, 255)" style="fill-opacity:1.00" />
<!-- End 'C' -->
<!-- Begin 'G' -->
<ellipse cx="895.000000" cy="75.493918" rx="25.000000" ry="24.789634" fill="rgb(255, 165, 0)" style="fill-opacity:1.00" />
<ellipse cx="895.000000" cy="75.493918" rx="16.666667" ry="16.526423" fill="rgb(255, 255, 255)" style="fill-opacity:1.00" />
<rect height="24.789634" width="25.000000" x="895.000000" y="63.099101" fill="rgb(255, 255, 255)" style="fill-opacity:1.00" />
<rect height="6.197409" width="25.000000" x="895.000000" y="81.691327" fill="rgb(255, 165, 0)" style="fill-opacity:1.00" />
<rect height="18.592226" width="6.250000" x="913.750000" y="81.691327" fill="rgb(255, 165, 0)" style="fill-opacity:1.00" />
<!-- End 'G' -->
<!-- Begin 'T' -->
<rect height="0.736022" width="50.000000" x="870.000000" y="100.283552" fill="rgb(0, 100, 0)" style="fill-opacity:1.00" />
<rect height="4.600138" width="10.000000" x="890.000000" y="100.283552" fill="rgb(0, 100, 0)" style="fill-opacity:1.00" />
<!-- End 'T' -->
<!-- Begin 'A' -->
<polygon points=" 870.000000, 108.525467, 891.000000, 104.883691, 899.000000, 104.883691, 920.000000, 108.525467, 912.500000, 108.525467, 906.250000, 107.615023, 883.750000, 107.615023, 877.500000, 108.525467" fill="rgb(178, 34, 34)" style="fill-opacity:1.00" />
<!-- End 'A' -->
<!-- Begin 'C' -->
<ellipse cx="895.000000" cy="108.812976" rx="25.000000" ry="0.287509" fill="rgb(0, 0, 128)" style="fill-opacity:1.00" />
<ellipse cx="895.000000" cy="108.812976" rx="16.666667" ry="0.191672" fill="rgb(255, 255, 255)" style="fill-opacity:1.00" />
<rect height="0.287509" width="25.000000" x="895.000000" y="108.669221" fill="rgb(255, 255, 255)" style="fill-opacity:1.00" />
<!-- End 'C' -->
<!-- Begin 'C' -->
<ellipse cx="955.000000" cy="78.138377" rx="25.000000" ry="20.728052" fill="rgb(0, 0, 128)" style="fill-opacity:1.00" />
<ellipse cx="955.000000" cy="78.138377" rx="16.666667" ry="13.818701" fill="rgb(255, 255, 255)" style="fill-opacity:1.00" />
<rect height="20.728052" width="25.000000" x="955.000000" y="67.774351" fill="rgb(255, 255, 255)" style="fill-opacity:1.00" />
<!-- End 'C' -->
<!-- Begin 'A' -->
<polygon points=" 930.000000, 104.796798, 951.000000, 98.866429, 959.000000, 98.866429, 980.000000, 104.796798, 972.500000, 104.796798, 966.250000, 103.314206, 943.750000, 103.314206, 937.500000, 104.796798" fill="rgb(178, 34, 34)" style="fill-opacity:1.00" />
<!-- End 'A' -->
<!-- Begin 'T' -->
<rect height="0.614499" width="50.000000" x="930.000000" y="104.796798" fill="rgb(0, 100, 0)" style="fill-opacity:1.00" />
<rect height="3.840620" width="10.000000" x="950.000000" y="104.796798" fill="rgb(0, 100, 0)" style="fill-opacity:1.00" />
<!-- End 'T' -->
<!-- Begin 'G' -->
<ellipse cx="955.000000" cy="108.806857" rx="25.000000" ry="0.169439" fill="rgb(255, 165, 0)" style="fill-opacity:1.00" />
<ellipse cx="955.000000" cy="108.806857" rx="16.666667" ry="0.112959" fill="rgb(255, 255, 255)" style="fill-opacity:1.00" />
<rect height="0.169439" width="25.000000" x="955.000000" y="108.722137" fill="rgb(255, 255, 255)" style="fill-opacity:1.00" />
<rect height="0.042360" width="25.000000" x="955.000000" y="108.849217" fill="rgb(255, 165, 0)" style="fill-opacity:1.00" />
<rect height="0.127079" width="6.250000" x="973.750000" y="108.849217" fill="rgb(255, 165, 0)" style="fill-opacity:1.00" />
<!-- End 'G' -->
<!-- Begin 'G' -->
<ellipse cx="1015.000000" cy="81.140952" rx="25.000000" ry="10.760642" fill="rgb(255, 165, 0)" style="fill-opacity:1.00" />
<ellipse cx="1015.000000" cy="81.140952" rx="16.666667" ry="7.173761" fill="rgb(255, 255, 255)" style="fill-opacity:1.00" />
<rect height="10.760642" width="25.000000" x="1015.000000" y="75.760631" fill="rgb(255, 255, 255)" style="fill-opacity:1.00" />
<rect height="2.690160" width="25.000000" x="1015.000000" y="83.831112" fill="rgb(255, 165, 0)" style="fill-opacity:1.00" />
<rect height="8.070481" width="6.250000" x="1033.750000" y="83.831112" fill="rgb(255, 165, 0)" style="fill-opacity:1.00" />
<!-- End 'G' -->
<!-- Begin 'A' -->
<polygon points=" 990.000000, 107.703638, 1011.000000, 91.901593, 1019.000000, 91.901593, 1040.000000, 107.703638, 1032.500000, 107.703638, 1026.250000, 103.753127, 1003.750000, 103.753127, 997.500000, 107.703638" fill="rgb(178, 34, 34)" style="fill-opacity:1.00" />
<polygon points=" 1015.000000, 95.062002, 1007.000000, 100.382820, 1022.000000, 100.382820" fill="rgb(255, 255, 255)" style="fill-opacity:1.00" />
<!-- End 'A' -->
<!-- Begin 'T' -->
<rect height="0.122010" width="50.000000" x="990.000000" y="107.703638" fill="rgb(0, 100, 0)" style="fill-opacity:1.00" />
<rect height="0.762565" width="10.000000" x="1010.000000" y="107.703638" fill="rgb(0, 100, 0)" style="fill-opacity:1.00" />
<!-- End 'T' -->
<!-- Begin 'C' -->
<ellipse cx="1015.000000" cy="108.762756" rx="25.000000" ry="0.296553" fill="rgb(0, 0, 128)" style="fill-opacity:1.00" />
<ellipse cx="1015.000000" cy="108.762756" rx="16.666667" ry="0.197702" fill="rgb(255, 255, 255)" style="fill-opacity:1.00" />
<rect height="0.296553" width="25.000000" x="1015.000000" y="108.614480" fill="rgb(255, 255, 255)" style="fill-opacity:1.00" />
<!-- End 'C' -->
<!-- Begin 'C' -->
<ellipse cx="1075.000000" cy="92.074745" rx="25.000000" ry="6.203694" fill="rgb(0, 0, 128)" style="fill-opacity:1.00" />
<ellipse cx="1075.000000" cy="92.074745" rx="16.666667" ry="4.135796" fill="rgb(255, 255, 255)" style="fill-opacity:1.00" />
<rect height="6.203694" width="25.000000" x="1075.000000" y="88.972898" fill="rgb(255, 255, 255)" style="fill-opacity:1.00" />
<!-- End 'C' -->
<!-- Begin 'G' -->
<ellipse cx="1075.000000" cy="102.234417" rx="25.000000" ry="3.955979" fill="rgb(255, 165, 0)" style="fill-opacity:1.00" />
<ellipse cx="1075.000000" cy="102.234417" rx="16.666667" ry="2.637319" fill="rgb(255, 255, 255)" style="fill-opacity:1.00" />
<rect height="3.955979" width="25.000000" x="1075.000000" y="100.256428" fill="rgb(255, 255, 255)" style="fill-opacity:1.00" />
<rect height="0.988995" width="25.000000" x="1075.000000" y="103.223412" fill="rgb(255, 165, 0)" style="fill-opacity:1.00" />
<rect height="2.966984" width="6.250000" x="1093.750000" y="103.223412" fill="rgb(255, 165, 0)" style="fill-opacity:1.00" />
<!-- End 'G' -->
<!-- Begin 'A' -->
<polygon points=" 1050.000000, 108.322515, 1071.000000, 106.190396, 1079.000000, 106.190396, 1100.000000, 108.322515, 1092.500000, 108.322515, 1086.250000, 107.789485, 1063.750000, 107.789485, 1057.500000, 108.322515" fill="rgb(178, 34, 34)" style="fill-opacity:1.00" />
<!-- End 'A' -->
<!-- Begin 'T' -->
<rect height="0.156184" width="50.000000" x="1050.000000" y="108.322515" fill="rgb(0, 100, 0)" style="fill-opacity:1.00" />
<rect height="0.976151" width="10.000000" x="1070.000000" y="108.322515" fill="rgb(0, 100, 0)" style="fill-opacity:1.00" />
<!-- End 'T' -->
<!-- Begin 'T' -->
<rect height="0.949198" width="50.000000" x="1110.000000" y="95.886781" fill="rgb(0, 100, 0)" style="fill-opacity:1.00" />
<rect height="5.932488" width="10.000000" x="1130.000000" y="95.886781" fill="rgb(0, 100, 0)" style="fill-opacity:1.00" />
<!-- End 'T' -->
<!-- Begin 'C' -->
<ellipse cx="1135.000000" cy="104.232612" rx="25.000000" ry="2.413342" fill="rgb(0, 0, 128)" style="fill-opacity:1.00" />
<ellipse cx="1135.000000" cy="104.232612" rx="16.666667" ry="1.608895" fill="rgb(255, 255, 255)" style="fill-opacity:1.00" />
<rect height="2.413342" width="25.000000" x="1135.000000" y="103.025941" fill="rgb(255, 255, 255)" style="fill-opacity:1.00" />
<!-- End 'C' -->
<!-- Begin 'A' -->
<polygon points=" 1110.000000, 108.409263, 1131.000000, 106.645954, 1139.000000, 106.645954, 1160.000000, 108.409263, 1152.500000, 108.409263, 1146.250000, 107.968436, 1123.750000, 107.968436, 1117.500000, 108.409263" fill="rgb(178, 34, 34)" style="fill-opacity:1.00" />
<!-- End 'A' -->
<!-- Begin 'G' -->
<ellipse cx="1135.000000" cy="108.962165" rx="25.000000" ry="0.552902" fill="rgb(255, 165, 0)" style="fill-opacity:1.00" />
<ellipse cx="1135.000000" cy="108.962165" rx="16.666667" ry="0.368601" fill="rgb(255, 255, 255)" style="fill-opacity:1.00" />
<rect height="0.552902" width="25.000000" x="1135.000000" y="108.685714" fill="rgb(255, 255, 255)" style="fill-opacity:1.00" />
<rect height="0.138225" width="25.000000" x="1135.000000" y="109.100391" fill="rgb(255, 165, 0)" style="fill-opacity:1.00" />
<rect height="0.414676" width="6.250000" x="1153.750000" y="109.100391" fill="rgb(255, 165, 0)" style="fill-opacity:1.00" />
<!-- End 'G' -->
<!-- Begin 'A' -->
<polygon points=" 1170.000000, 102.746682, 1191.000000, 97.399208, 1199.000000, 97.399208, 1220.000000, 102.746682, 1212.500000, 102.746682, 1206.250000, 101.409814, 1183.750000, 101.409814, 1177.500000, 102.746682" fill="rgb(178, 34, 34)" style="fill-opacity:1.00" />
<!-- End 'A' -->
<!-- Begin 'G' -->
<ellipse cx="1195.000000" cy="104.518116" rx="25.000000" ry="1.771434" fill="rgb(255, 165, 0)" style="fill-opacity:1.00" />
<ellipse cx="1195.000000" cy="104.518116" rx="16.666667" ry="1.180956" fill="rgb(255, 255, 255)" style="fill-opacity:1.00" />
<rect height="1.771434" width="25.000000" x="1195.000000" y="103.632399" fill="rgb(255, 255, 255)" style="fill-opacity:1.00" />
<rect height="0.442858" width="25.000000" x="1195.000000" y="104.960975" fill="rgb(255, 165, 0)" style="fill-opacity:1.00" />
<rect height="1.328575" width="6.250000" x="1213.750000" y="104.960975" fill="rgb(255, 165, 0)" style="fill-opacity:1.00" />
<!-- End 'G' -->
<!-- Begin 'C' -->
<ellipse cx="1195.000000" cy="107.497044" rx="25.000000" ry="1.207494" fill="rgb(0, 0, 128)" style="fill-opacity:1.00" />
<ellipse cx="1195.000000" cy="107.497044" rx="16.666667" ry="0.804996" fill="rgb(255, 255, 255)" style="fill-opacity:1.00" />
<rect height="1.207494" width="25.000000" x="1195.000000" y="106.893297" fill="rgb(255, 255, 255)" style="fill-opacity:1.00" />
<!-- End 'C' -->
<!-- Begin 'T' -->
<rect height="0.127384" width="50.000000" x="1170.000000" y="108.704538" fill="rgb(0, 100, 0)" style="fill-opacity:1.00" />
<rect height="0.796150" width="10.000000" x="1190.000000" y="108.704538" fill="rgb(0, 100, 0)" style="fill-opacity:1.00" />
<!-- End 'T' -->
<text x="640.000000" y="165">
IC = 16.97
</text>

</svg>
