<?xml version="1.0" encoding="UTF-8" standalone="yes"?>
                 <!DOCTYPE svg PUBLIC "-//W3C//DTD SVG 1.0//EN" "http://www.w3.org/TR/2001/REC-SVG-20010904/DTD/svg10.dtd">
                 <svg height="500" width="780" xmlns="http://www.w3.org/2000/svg" xmlns:xlink="http://www.w3.org/1999/xlink">
                 <line x1="85" y1="450" x2="747" y2="450" style="stroke:rgb(99,99,99);stroke-width:2" />
<rect height="7.000000" width="2.000000" x="85.000000" y="450.000000" fill="rgb(0, 0, 0)" style="fill-opacity:1.00" />
<text x="107.000000" y="470">
1
</text>
<rect height="7.000000" width="2.000000" x="145.000000" y="450.000000" fill="rgb(0, 0, 0)" style="fill-opacity:1.00" />
<text x="167.000000" y="470">
2
</text>
<rect height="7.000000" width="2.000000" x="205.000000" y="450.000000" fill="rgb(0, 0, 0)" style="fill-opacity:1.00" />
<text x="227.000000" y="470">
3
</text>
<rect height="7.000000" width="2.000000" x="265.000000" y="450.000000" fill="rgb(0, 0, 0)" style="fill-opacity:1.00" />
<text x="287.000000" y="470">
4
</text>
<rect height="7.000000" width="2.000000" x="325.000000" y="450.000000" fill="rgb(0, 0, 0)" style="fill-opacity:1.00" />
<text x="347.000000" y="470">
5
</text>
<rect height="7.000000" width="2.000000" x="385.000000" y="450.000000" fill="rgb(0, 0, 0)" style="fill-opacity:1.00" />
<text x="407.000000" y="470">
6
</text>
<rect height="7.000000" width="2.000000" x="445.000000" y="450.000000" fill="rgb(0, 0, 0)" style="fill-opacity:1.00" />
<text x="467.000000" y="470">
7
</text>
<rect height="7.000000" width="2.000000" x="505.000000" y="450.000000" fill="rgb(0, 0, 0)" style="fill-opacity:1.00" />
<text x="527.000000" y="470">
8
</text>
<rect height="7.000000" width="2.000000" x="565.000000" y="450.000000" fill="rgb(0, 0, 0)" style="fill-opacity:1.00" />
<text x="587.000000" y="470">
9
</text>
<rect height="7.000000" width="2.000000" x="625.000000" y="450.000000" fill="rgb(0, 0, 0)" style="fill-opacity:1.00" />
<text x="647.000000" y="470">
10
</text>
<rect height="7.000000" width="2.000000" x="685.000000" y="450.000000" fill="rgb(0, 0, 0)" style="fill-opacity:1.00" />
<text x="707.000000" y="470">
11
</text>
<rect height="7.000000" width="2.000000" x="745.000000" y="450.000000" fill="rgb(0, 0, 0)" style="fill-opacity:1.00" />
<!-- Begin 'A' -->
<polygon points=" 10.000000, 110.000000, 35.200000, 10.000000, 44.800000, 10.000000, 70.000000, 110.000000, 61.000000, 110.000000, 53.500000, 85.000000, 26.500000, 85.000000, 19.000000, 110.000000" fill="rgb(178, 34, 34)" style="fill-opacity:1.00" />
<polygon points=" 40.000000, 30.000000, 30.400000, 69.000000, 48.400000, 69.000000" fill="rgb(255, 255, 255)" style="fill-opacity:1.00" />
<!-- End 'A' -->
<!-- Begin 'C' -->
<ellipse cx="40.000000" cy="170.000000" rx="30.000000" ry="50.000000" fill="rgb(0, 0, 128)" style="fill-opacity:1.00" />
<ellipse cx="40.000000" cy="170.000000" rx="20.000000" ry="33.333333" fill="rgb(255, 255, 255)" style="fill-opacity:1.00" />
<rect height="50.000000" width="30.000000" x="40.000000" y="145.000000" fill="rgb(255, 255, 255)" style="fill-opacity:1.00" />
<!-- End 'C' -->
<!-- Begin 'G' -->
<ellipse cx="40.000000" cy="280.000000" rx="30.000000" ry="50.000000" fill="rgb(255, 165, 0)" style="fill-opacity:1.00" />
<ellipse cx="40.000000" cy="280.000000" rx="20.000000" ry="33.333333" fill="rgb(255, 255, 255)" style="fill-opacity:1.00" />
<rect height="50.000000" width="30.000000" x="40.000000" y="255.000000" fill="rgb(255, 255, 255)" style="fill-opacity:1.00" />
<rect height="12.500000" width="30.000000" x="40.000000" y="292.500000" fill="rgb(255, 165, 0)" style="fill-opacity:1.00" />
<rect height="37.500000" width="7.500000" x="62.500000" y="292.500000" fill="rgb(255, 165, 0)" style="fill-opacity:1.00" />
<!-- End 'G' -->
<!-- Begin 'T' -->
<rect height="16.000000" width="60.000000" x="10.000000" y="340.000000" fill="rgb(0, 100, 0)" style="fill-opacity:1.00" />
<rect height="100.000000" width="12.000000" x="34.000000" y="340.000000" fill="rgb(0, 100, 0)" style="fill-opacity:1.00" />
<!-- End 'T' -->
<!-- Begin 'A' -->
<polygon points=" 90.000000, 55.084081, 111.000000, 10.000000, 119.000000, 10.000000, 140.000000, 55.084081, 132.500000, 55.084081, 126.250000, 43.813061, 103.750000, 43.813061, 97.500000, 55.084081" fill="rgb(178, 34, 34)" style="fill-opacity:0.32" />
<polygon points=" 115.000000, 19.016816, 107.000000, 36.050449, 122.000000, 36.050449" fill="rgb(255, 255, 255)" style="fill-opacity:1.00" />
<!-- End 'A' -->
<!-- Begin 'T' -->
<rect height="4.048423" width="50.000000" x="90.000000" y="55.084081" fill="rgb(0, 100, 0)" style="fill-opacity:0.32" />
<rect height="25.302647" width="10.000000" x="110.000000" y="55.084081" fill="rgb(0, 100, 0)" style="fill-opacity:0.32" />
<!-- End 'T' -->
<!-- Begin 'C' -->
<ellipse cx="115.000000" cy="88.073881" rx="25.000000" ry="7.687153" fill="rgb(0, 0, 128)" style="fill-opacity:0.32" />
<ellipse cx="115.000000" cy="88.073881" rx="16.666667" ry="5.124769" fill="rgb(255, 255, 255)" style="fill-opacity:1.00" />
<rect height="7.687153" width="25.000000" x="115.000000" y="84.230305" fill="rgb(255, 255, 255)" style="fill-opacity:1.00" />
<!-- End 'C' -->
<!-- Begin 'G' -->
<ellipse cx="115.000000" cy="102.880517" rx="25.000000" ry="7.119483" fill="rgb(255, 165, 0)" style="fill-opacity:0.32" />
<ellipse cx="115.000000" cy="102.880517" rx="16.666667" ry="4.746322" fill="rgb(255, 255, 255)" style="fill-opacity:1.00" />
<rect height="7.119483" width="25.000000" x="115.000000" y="99.320775" fill="rgb(255, 255, 255)" style="fill-opacity:1.00" />
<rect height="1.779871" width="25.000000" x="115.000000" y="104.660388" fill="rgb(255, 165, 0)" style="fill-opacity:0.32" />
<rect height="5.339612" width="6.250000" x="133.750000" y="104.660388" fill="rgb(255, 165, 0)" style="fill-opacity:0.32" />
<!-- End 'G' -->
<!-- Begin 'A' -->
<polygon points=" 90.000000, 164.743470, 111.000000, 120.000000, 119.000000, 120.000000, 140.000000, 164.743470, 132.500000, 164.743470, 126.250000, 153.557602, 103.750000, 153.557602, 97.500000, 164.743470" fill="rgb(178, 34, 34)" style="fill-opacity:0.17" />
<polygon points=" 115.000000, 128.948694, 107.000000, 145.846082, 122.000000, 145.846082" fill="rgb(255, 255, 255)" style="fill-opacity:1.00" />
<!-- End 'A' -->
<!-- Begin 'T' -->
<rect height="4.663194" width="50.000000" x="90.000000" y="164.743470" fill="rgb(0, 100, 0)" style="fill-opacity:0.17" />
<rect height="29.144965" width="10.000000" x="110.000000" y="164.743470" fill="rgb(0, 100, 0)" style="fill-opacity:0.17" />
<!-- End 'T' -->
<!-- Begin 'C' -->
<ellipse cx="115.000000" cy="202.018068" rx="25.000000" ry="8.129633" fill="rgb(0, 0, 128)" style="fill-opacity:0.17" />
<ellipse cx="115.000000" cy="202.018068" rx="16.666667" ry="5.419756" fill="rgb(255, 255, 255)" style="fill-opacity:1.00" />
<rect height="8.129633" width="25.000000" x="115.000000" y="197.953251" fill="rgb(255, 255, 255)" style="fill-opacity:1.00" />
<!-- End 'C' -->
<!-- Begin 'G' -->
<ellipse cx="115.000000" cy="215.073851" rx="25.000000" ry="4.926149" fill="rgb(255, 165, 0)" style="fill-opacity:0.17" />
<ellipse cx="115.000000" cy="215.073851" rx="16.666667" ry="3.284100" fill="rgb(255, 255, 255)" style="fill-opacity:1.00" />
<rect height="4.926149" width="25.000000" x="115.000000" y="212.610776" fill="rgb(255, 255, 255)" style="fill-opacity:1.00" />
<rect height="1.231537" width="25.000000" x="115.000000" y="216.305388" fill="rgb(255, 165, 0)" style="fill-opacity:0.17" />
<rect height="3.694612" width="6.250000" x="133.750000" y="216.305388" fill="rgb(255, 165, 0)" style="fill-opacity:0.17" />
<!-- End 'G' -->
<!-- Begin 'A' -->
<polygon points=" 90.000000, 271.290654, 111.000000, 230.000000, 119.000000, 230.000000, 140.000000, 271.290654, 132.500000, 271.290654, 126.250000, 260.967991, 103.750000, 260.967991, 97.500000, 271.290654" fill="rgb(178, 34, 34)" style="fill-opacity:0.17" />
<polygon points=" 115.000000, 238.258131, 107.000000, 253.774393, 122.000000, 253.774393" fill="rgb(255, 255, 255)" style="fill-opacity:1.00" />
<!-- End 'A' -->
<!-- Begin 'T' -->
<rect height="4.748210" width="50.000000" x="90.000000" y="271.290654" fill="rgb(0, 100, 0)" style="fill-opacity:0.17" />
<rect height="29.676312" width="10.000000" x="110.000000" y="271.290654" fill="rgb(0, 100, 0)" style="fill-opacity:0.17" />
<!-- End 'T' -->
<!-- Begin 'C' -->
<ellipse cx="115.000000" cy="308.823010" rx="25.000000" ry="7.856044" fill="rgb(0, 0, 128)" style="fill-opacity:0.17" />
<ellipse cx="115.000000" cy="308.823010" rx="16.666667" ry="5.237362" fill="rgb(255, 255, 255)" style="fill-opacity:1.00" />
<rect height="7.856044" width="25.000000" x="115.000000" y="304.894989" fill="rgb(255, 255, 255)" style="fill-opacity:1.00" />
<!-- End 'C' -->
<!-- Begin 'G' -->
<ellipse cx="115.000000" cy="323.339527" rx="25.000000" ry="6.660473" fill="rgb(255, 165, 0)" style="fill-opacity:0.17" />
<ellipse cx="115.000000" cy="323.339527" rx="16.666667" ry="4.440315" fill="rgb(255, 255, 255)" style="fill-opacity:1.00" />
<rect height="6.660473" width="25.000000" x="115.000000" y="320.009291" fill="rgb(255, 255, 255)" style="fill-opacity:1.00" />
<rect height="1.665118" width="25.000000" x="115.000000" y="325.004645" fill="rgb(255, 165, 0)" style="fill-opacity:0.17" />
<rect height="4.995355" width="6.250000" x="133.750000" y="325.004645" fill="rgb(255, 165, 0)" style="fill-opacity:0.17" />
<!-- End 'G' -->
<!-- Begin 'T' -->
<rect height="5.781783" width="50.000000" x="90.000000" y="340.000000" fill="rgb(0, 100, 0)" style="fill-opacity:0.33" />
<rect height="36.136142" width="10.000000" x="110.000000" y="340.000000" fill="rgb(0, 100, 0)" style="fill-opacity:0.33" />
<!-- End 'T' -->
<!-- Begin 'A' -->
<polygon points=" 90.000000, 402.375166, 111.000000, 376.136142, 119.000000, 376.136142, 140.000000, 402.375166, 132.500000, 402.375166, 126.250000, 395.815410, 103.750000, 395.815410, 97.500000, 402.375166" fill="rgb(178, 34, 34)" style="fill-opacity:0.33" />
<polygon points=" 115.000000, 381.383947, 107.000000, 390.879556, 122.000000, 390.879556" fill="rgb(255, 255, 255)" style="fill-opacity:1.00" />
<!-- End 'A' -->
<!-- Begin 'C' -->
<ellipse cx="115.000000" cy="412.924133" rx="25.000000" ry="10.548967" fill="rgb(0, 0, 128)" style="fill-opacity:0.33" />
<ellipse cx="115.000000" cy="412.924133" rx="16.666667" ry="7.032645" fill="rgb(255, 255, 255)" style="fill-opacity:1.00" />
<rect height="10.548967" width="25.000000" x="115.000000" y="407.649649" fill="rgb(255, 255, 255)" style="fill-opacity:1.00" />
<!-- End 'C' -->
<!-- Begin 'G' -->
<ellipse cx="115.000000" cy="431.736550" rx="25.000000" ry="8.263450" fill="rgb(255, 165, 0)" style="fill-opacity:0.33" />
<ellipse cx="115.000000" cy="431.736550" rx="16.666667" ry="5.508967" fill="rgb(255, 255, 255)" style="fill-opacity:1.00" />
<rect height="8.263450" width="25.000000" x="115.000000" y="427.604825" fill="rgb(255, 255, 255)" style="fill-opacity:1.00" />
<rect height="2.065863" width="25.000000" x="115.000000" y="433.802412" fill="rgb(255, 165, 0)" style="fill-opacity:0.33" />
<rect height="6.197588" width="6.250000" x="133.750000" y="433.802412" fill="rgb(255, 165, 0)" style="fill-opacity:0.33" />
<!-- End 'G' -->
<!-- Begin 'A' -->
<polygon points=" 150.000000, 64.418957, 171.000000, 10.000000, 179.000000, 10.000000, 200.000000, 64.418957, 192.500000, 64.418957, 186.250000, 50.814218, 163.750000, 50.814218, 157.500000, 64.418957" fill="rgb(178, 34, 34)" style="fill-opacity:0.38" />
<polygon points=" 175.000000, 20.883791, 167.000000, 41.651374, 182.000000, 41.651374" fill="rgb(255, 255, 255)" style="fill-opacity:1.00" />
<!-- End 'A' -->
<!-- Begin 'T' -->
<rect height="3.341270" width="50.000000" x="150.000000" y="64.418957" fill="rgb(0, 100, 0)" style="fill-opacity:0.38" />
<rect height="20.882940" width="10.000000" x="170.000000" y="64.418957" fill="rgb(0, 100, 0)" style="fill-opacity:0.38" />
<!-- End 'T' -->
<!-- Begin 'G' -->
<ellipse cx="175.000000" cy="91.663360" rx="25.000000" ry="6.361463" fill="rgb(255, 165, 0)" style="fill-opacity:0.38" />
<ellipse cx="175.000000" cy="91.663360" rx="16.666667" ry="4.240976" fill="rgb(255, 255, 255)" style="fill-opacity:1.00" />
<rect height="6.361463" width="25.000000" x="175.000000" y="88.482629" fill="rgb(255, 255, 255)" style="fill-opacity:1.00" />
<rect height="1.590366" width="25.000000" x="175.000000" y="93.253726" fill="rgb(255, 165, 0)" style="fill-opacity:0.38" />
<rect height="4.771098" width="6.250000" x="193.750000" y="93.253726" fill="rgb(255, 165, 0)" style="fill-opacity:0.38" />
<!-- End 'G' -->
<!-- Begin 'C' -->
<ellipse cx="175.000000" cy="104.012412" rx="25.000000" ry="5.987588" fill="rgb(0, 0, 128)" style="fill-opacity:0.38" />
<ellipse cx="175.000000" cy="104.012412" rx="16.666667" ry="3.991725" fill="rgb(255, 255, 255)" style="fill-opacity:1.00" />
<rect height="5.987588" width="25.000000" x="175.000000" y="101.018618" fill="rgb(255, 255, 255)" style="fill-opacity:1.00" />
<!-- End 'C' -->
<!-- Begin 'A' -->
<polygon points=" 150.000000, 165.776668, 171.000000, 120.000000, 179.000000, 120.000000, 200.000000, 165.776668, 192.500000, 165.776668, 186.250000, 154.332501, 163.750000, 154.332501, 157.500000, 165.776668" fill="rgb(178, 34, 34)" style="fill-opacity:0.17" />
<polygon points=" 175.000000, 129.155334, 167.000000, 146.466001, 182.000000, 146.466001" fill="rgb(255, 255, 255)" style="fill-opacity:1.00" />
<!-- End 'A' -->
<!-- Begin 'T' -->
<rect height="4.538514" width="50.000000" x="150.000000" y="165.776668" fill="rgb(0, 100, 0)" style="fill-opacity:0.17" />
<rect height="28.365715" width="10.000000" x="170.000000" y="165.776668" fill="rgb(0, 100, 0)" style="fill-opacity:0.17" />
<!-- End 'T' -->
<!-- Begin 'G' -->
<ellipse cx="175.000000" cy="201.650535" rx="25.000000" ry="7.508152" fill="rgb(255, 165, 0)" style="fill-opacity:0.17" />
<ellipse cx="175.000000" cy="201.650535" rx="16.666667" ry="5.005435" fill="rgb(255, 255, 255)" style="fill-opacity:1.00" />
<rect height="7.508152" width="25.000000" x="175.000000" y="197.896459" fill="rgb(255, 255, 255)" style="fill-opacity:1.00" />
<rect height="1.877038" width="25.000000" x="175.000000" y="203.527573" fill="rgb(255, 165, 0)" style="fill-opacity:0.17" />
<rect height="5.631114" width="6.250000" x="193.750000" y="203.527573" fill="rgb(255, 165, 0)" style="fill-opacity:0.17" />
<!-- End 'G' -->
<!-- Begin 'C' -->
<ellipse cx="175.000000" cy="214.579344" rx="25.000000" ry="5.420656" fill="rgb(0, 0, 128)" style="fill-opacity:0.17" />
<ellipse cx="175.000000" cy="214.579344" rx="16.666667" ry="3.613771" fill="rgb(255, 255, 255)" style="fill-opacity:1.00" />
<rect height="5.420656" width="25.000000" x="175.000000" y="211.869015" fill="rgb(255, 255, 255)" style="fill-opacity:1.00" />
<!-- End 'C' -->
<!-- Begin 'A' -->
<polygon points=" 150.000000, 281.980458, 171.000000, 230.000000, 179.000000, 230.000000, 200.000000, 281.980458, 192.500000, 281.980458, 186.250000, 268.985344, 163.750000, 268.985344, 157.500000, 281.980458" fill="rgb(178, 34, 34)" style="fill-opacity:0.14" />
<polygon points=" 175.000000, 240.396092, 167.000000, 260.188275, 182.000000, 260.188275" fill="rgb(255, 255, 255)" style="fill-opacity:1.00" />
<!-- End 'A' -->
<!-- Begin 'T' -->
<rect height="3.972891" width="50.000000" x="150.000000" y="281.980458" fill="rgb(0, 100, 0)" style="fill-opacity:0.14" />
<rect height="24.830567" width="10.000000" x="170.000000" y="281.980458" fill="rgb(0, 100, 0)" style="fill-opacity:0.14" />
<!-- End 'T' -->
<!-- Begin 'G' -->
<ellipse cx="175.000000" cy="313.505814" rx="25.000000" ry="6.694789" fill="rgb(255, 165, 0)" style="fill-opacity:0.14" />
<ellipse cx="175.000000" cy="313.505814" rx="16.666667" ry="4.463193" fill="rgb(255, 255, 255)" style="fill-opacity:1.00" />
<rect height="6.694789" width="25.000000" x="175.000000" y="310.158420" fill="rgb(255, 255, 255)" style="fill-opacity:1.00" />
<rect height="1.673697" width="25.000000" x="175.000000" y="315.179511" fill="rgb(255, 165, 0)" style="fill-opacity:0.14" />
<rect height="5.021092" width="6.250000" x="193.750000" y="315.179511" fill="rgb(255, 165, 0)" style="fill-opacity:0.14" />
<!-- End 'G' -->
<!-- Begin 'C' -->
<ellipse cx="175.000000" cy="325.100302" rx="25.000000" ry="4.899698" fill="rgb(0, 0, 128)" style="fill-opacity:0.14" />
<ellipse cx="175.000000" cy="325.100302" rx="16.666667" ry="3.266466" fill="rgb(255, 255, 255)" style="fill-opacity:1.00" />
<rect height="4.899698" width="25.000000" x="175.000000" y="322.650452" fill="rgb(255, 255, 255)" style="fill-opacity:1.00" />
<!-- End 'C' -->
<!-- Begin 'T' -->
<rect height="6.025066" width="50.000000" x="150.000000" y="340.000000" fill="rgb(0, 100, 0)" style="fill-opacity:0.30" />
<rect height="37.656662" width="10.000000" x="170.000000" y="340.000000" fill="rgb(0, 100, 0)" style="fill-opacity:0.30" />
<!-- End 'T' -->
<!-- Begin 'A' -->
<polygon points=" 150.000000, 410.608625, 171.000000, 377.656662, 179.000000, 377.656662, 200.000000, 410.608625, 192.500000, 410.608625, 186.250000, 402.370634, 163.750000, 402.370634, 157.500000, 410.608625" fill="rgb(178, 34, 34)" style="fill-opacity:0.30" />
<polygon points=" 175.000000, 384.247054, 167.000000, 396.427840, 182.000000, 396.427840" fill="rgb(255, 255, 255)" style="fill-opacity:1.00" />
<!-- End 'A' -->
<!-- Begin 'G' -->
<ellipse cx="175.000000" cy="419.416095" rx="25.000000" ry="8.807470" fill="rgb(255, 165, 0)" style="fill-opacity:0.30" />
<ellipse cx="175.000000" cy="419.416095" rx="16.666667" ry="5.871647" fill="rgb(255, 255, 255)" style="fill-opacity:1.00" />
<rect height="8.807470" width="25.000000" x="175.000000" y="415.012360" fill="rgb(255, 255, 255)" style="fill-opacity:1.00" />
<rect height="2.201867" width="25.000000" x="175.000000" y="421.617962" fill="rgb(255, 165, 0)" style="fill-opacity:0.30" />
<rect height="6.605602" width="6.250000" x="193.750000" y="421.617962" fill="rgb(255, 165, 0)" style="fill-opacity:0.30" />
<!-- End 'G' -->
<!-- Begin 'C' -->
<ellipse cx="175.000000" cy="434.111782" rx="25.000000" ry="5.888218" fill="rgb(0, 0, 128)" style="fill-opacity:0.30" />
<ellipse cx="175.000000" cy="434.111782" rx="16.666667" ry="3.925478" fill="rgb(255, 255, 255)" style="fill-opacity:1.00" />
<rect height="5.888218" width="25.000000" x="175.000000" y="431.167673" fill="rgb(255, 255, 255)" style="fill-opacity:1.00" />
<!-- End 'C' -->
<!-- Begin 'A' -->
<polygon points=" 210.000000, 63.461536, 231.000000, 10.000000, 239.000000, 10.000000, 260.000000, 63.461536, 252.500000, 63.461536, 246.250000, 50.096152, 223.750000, 50.096152, 217.500000, 63.461536" fill="rgb(178, 34, 34)" style="fill-opacity:0.46" />
<polygon points=" 235.000000, 20.692307, 227.000000, 41.076921, 242.000000, 41.076921" fill="rgb(255, 255, 255)" style="fill-opacity:1.00" />
<!-- End 'A' -->
<!-- Begin 'T' -->
<rect height="3.578697" width="50.000000" x="210.000000" y="63.461536" fill="rgb(0, 100, 0)" style="fill-opacity:0.46" />
<rect height="22.366857" width="10.000000" x="230.000000" y="63.461536" fill="rgb(0, 100, 0)" style="fill-opacity:0.46" />
<!-- End 'T' -->
<!-- Begin 'G' -->
<ellipse cx="235.000000" cy="92.639101" rx="25.000000" ry="6.810708" fill="rgb(255, 165, 0)" style="fill-opacity:0.46" />
<ellipse cx="235.000000" cy="92.639101" rx="16.666667" ry="4.540472" fill="rgb(255, 255, 255)" style="fill-opacity:1.00" />
<rect height="6.810708" width="25.000000" x="235.000000" y="89.233746" fill="rgb(255, 255, 255)" style="fill-opacity:1.00" />
<rect height="1.702677" width="25.000000" x="235.000000" y="94.341778" fill="rgb(255, 165, 0)" style="fill-opacity:0.46" />
<rect height="5.108031" width="6.250000" x="253.750000" y="94.341778" fill="rgb(255, 165, 0)" style="fill-opacity:0.46" />
<!-- End 'G' -->
<!-- Begin 'C' -->
<ellipse cx="235.000000" cy="104.724904" rx="25.000000" ry="5.275096" fill="rgb(0, 0, 128)" style="fill-opacity:0.46" />
<ellipse cx="235.000000" cy="104.724904" rx="16.666667" ry="3.516730" fill="rgb(255, 255, 255)" style="fill-opacity:1.00" />
<rect height="5.275096" width="25.000000" x="235.000000" y="102.087357" fill="rgb(255, 255, 255)" style="fill-opacity:1.00" />
<!-- End 'C' -->
<!-- Begin 'A' -->
<polygon points=" 210.000000, 157.166828, 231.000000, 120.000000, 239.000000, 120.000000, 260.000000, 157.166828, 252.500000, 157.166828, 246.250000, 147.875121, 223.750000, 147.875121, 217.500000, 157.166828" fill="rgb(178, 34, 34)" style="fill-opacity:0.11" />
<polygon points=" 235.000000, 127.433366, 227.000000, 141.300097, 242.000000, 141.300097" fill="rgb(255, 255, 255)" style="fill-opacity:1.00" />
<!-- End 'A' -->
<!-- Begin 'T' -->
<rect height="5.235988" width="50.000000" x="210.000000" y="157.166828" fill="rgb(0, 100, 0)" style="fill-opacity:0.11" />
<rect height="32.724922" width="10.000000" x="230.000000" y="157.166828" fill="rgb(0, 100, 0)" style="fill-opacity:0.11" />
<!-- End 'T' -->
<!-- Begin 'G' -->
<ellipse cx="235.000000" cy="197.769775" rx="25.000000" ry="7.878025" fill="rgb(255, 165, 0)" style="fill-opacity:0.11" />
<ellipse cx="235.000000" cy="197.769775" rx="16.666667" ry="5.252017" fill="rgb(255, 255, 255)" style="fill-opacity:1.00" />
<rect height="7.878025" width="25.000000" x="235.000000" y="193.830763" fill="rgb(255, 255, 255)" style="fill-opacity:1.00" />
<rect height="1.969506" width="25.000000" x="235.000000" y="199.739281" fill="rgb(255, 165, 0)" style="fill-opacity:0.11" />
<rect height="5.908519" width="6.250000" x="253.750000" y="199.739281" fill="rgb(255, 165, 0)" style="fill-opacity:0.11" />
<!-- End 'G' -->
<!-- Begin 'C' -->
<ellipse cx="235.000000" cy="212.823900" rx="25.000000" ry="7.176100" fill="rgb(0, 0, 128)" style="fill-opacity:0.11" />
<ellipse cx="235.000000" cy="212.823900" rx="16.666667" ry="4.784067" fill="rgb(255, 255, 255)" style="fill-opacity:1.00" />
<rect height="7.176100" width="25.000000" x="235.000000" y="209.235850" fill="rgb(255, 255, 255)" style="fill-opacity:1.00" />
<!-- End 'C' -->
<!-- Begin 'A' -->
<polygon points=" 210.000000, 268.267923, 231.000000, 230.000000, 239.000000, 230.000000, 260.000000, 268.267923, 252.500000, 268.267923, 246.250000, 258.700942, 223.750000, 258.700942, 217.500000, 268.267923" fill="rgb(178, 34, 34)" style="fill-opacity:0.15" />
<polygon points=" 235.000000, 237.653585, 227.000000, 251.960754, 242.000000, 251.960754" fill="rgb(255, 255, 255)" style="fill-opacity:1.00" />
<!-- End 'A' -->
<!-- Begin 'T' -->
<rect height="4.738461" width="50.000000" x="210.000000" y="268.267923" fill="rgb(0, 100, 0)" style="fill-opacity:0.15" />
<rect height="29.615378" width="10.000000" x="230.000000" y="268.267923" fill="rgb(0, 100, 0)" style="fill-opacity:0.15" />
<!-- End 'T' -->
<!-- Begin 'G' -->
<ellipse cx="235.000000" cy="307.797844" rx="25.000000" ry="9.914542" fill="rgb(255, 165, 0)" style="fill-opacity:0.15" />
<ellipse cx="235.000000" cy="307.797844" rx="16.666667" ry="6.609695" fill="rgb(255, 255, 255)" style="fill-opacity:1.00" />
<rect height="9.914542" width="25.000000" x="235.000000" y="302.840572" fill="rgb(255, 255, 255)" style="fill-opacity:1.00" />
<rect height="2.478636" width="25.000000" x="235.000000" y="310.276479" fill="rgb(255, 165, 0)" style="fill-opacity:0.15" />
<rect height="7.435907" width="6.250000" x="253.750000" y="310.276479" fill="rgb(255, 165, 0)" style="fill-opacity:0.15" />
<!-- End 'G' -->
<!-- Begin 'C' -->
<ellipse cx="235.000000" cy="323.856193" rx="25.000000" ry="6.143807" fill="rgb(0, 0, 128)" style="fill-opacity:0.15" />
<ellipse cx="235.000000" cy="323.856193" rx="16.666667" ry="4.095871" fill="rgb(255, 255, 255)" style="fill-opacity:1.00" />
<rect height="6.143807" width="25.000000" x="235.000000" y="320.784290" fill="rgb(255, 255, 255)" style="fill-opacity:1.00" />
<!-- End 'C' -->
<!-- Begin 'T' -->
<rect height="6.897678" width="50.000000" x="210.000000" y="340.000000" fill="rgb(0, 100, 0)" style="fill-opacity:0.28" />
<rect height="43.110489" width="10.000000" x="230.000000" y="340.000000" fill="rgb(0, 100, 0)" style="fill-opacity:0.28" />
<!-- End 'T' -->
<!-- Begin 'A' -->
<polygon points=" 210.000000, 407.443682, 231.000000, 383.110489, 239.000000, 383.110489, 260.000000, 407.443682, 252.500000, 407.443682, 246.250000, 401.360384, 223.750000, 401.360384, 217.500000, 407.443682" fill="rgb(178, 34, 34)" style="fill-opacity:0.28" />
<polygon points=" 235.000000, 387.977128, 227.000000, 396.710405, 242.000000, 396.710405" fill="rgb(255, 255, 255)" style="fill-opacity:1.00" />
<!-- End 'A' -->
<!-- Begin 'G' -->
<ellipse cx="235.000000" cy="416.139853" rx="25.000000" ry="8.696171" fill="rgb(255, 165, 0)" style="fill-opacity:0.28" />
<ellipse cx="235.000000" cy="416.139853" rx="16.666667" ry="5.797447" fill="rgb(255, 255, 255)" style="fill-opacity:1.00" />
<rect height="8.696171" width="25.000000" x="235.000000" y="411.791767" fill="rgb(255, 255, 255)" style="fill-opacity:1.00" />
<rect height="2.174043" width="25.000000" x="235.000000" y="418.313895" fill="rgb(255, 165, 0)" style="fill-opacity:0.28" />
<rect height="6.522128" width="6.250000" x="253.750000" y="418.313895" fill="rgb(255, 165, 0)" style="fill-opacity:0.28" />
<!-- End 'G' -->
<!-- Begin 'C' -->
<ellipse cx="235.000000" cy="432.418012" rx="25.000000" ry="7.581988" fill="rgb(0, 0, 128)" style="fill-opacity:0.28" />
<ellipse cx="235.000000" cy="432.418012" rx="16.666667" ry="5.054659" fill="rgb(255, 255, 255)" style="fill-opacity:1.00" />
<rect height="7.581988" width="25.000000" x="235.000000" y="428.627018" fill="rgb(255, 255, 255)" style="fill-opacity:1.00" />
<!-- End 'C' -->
<!-- Begin 'A' -->
<polygon points=" 270.000000, 74.136160, 291.000000, 10.000000, 299.000000, 10.000000, 320.000000, 74.136160, 312.500000, 74.136160, 306.250000, 58.102120, 283.750000, 58.102120, 277.500000, 74.136160" fill="rgb(178, 34, 34)" style="fill-opacity:0.41" />
<polygon points=" 295.000000, 22.827232, 287.000000, 47.481696, 302.000000, 47.481696" fill="rgb(255, 255, 255)" style="fill-opacity:1.00" />
<!-- End 'A' -->
<!-- Begin 'T' -->
<rect height="2.113753" width="50.000000" x="270.000000" y="74.136160" fill="rgb(0, 100, 0)" style="fill-opacity:0.41" />
<rect height="13.210954" width="10.000000" x="290.000000" y="74.136160" fill="rgb(0, 100, 0)" style="fill-opacity:0.41" />
<!-- End 'T' -->
<!-- Begin 'G' -->
<ellipse cx="295.000000" cy="93.171888" rx="25.000000" ry="5.824773" fill="rgb(255, 165, 0)" style="fill-opacity:0.41" />
<ellipse cx="295.000000" cy="93.171888" rx="16.666667" ry="3.883182" fill="rgb(255, 255, 255)" style="fill-opacity:1.00" />
<rect height="5.824773" width="25.000000" x="295.000000" y="90.259501" fill="rgb(255, 255, 255)" style="fill-opacity:1.00" />
<rect height="1.456193" width="25.000000" x="295.000000" y="94.628081" fill="rgb(255, 165, 0)" style="fill-opacity:0.41" />
<rect height="4.368580" width="6.250000" x="313.750000" y="94.628081" fill="rgb(255, 165, 0)" style="fill-opacity:0.41" />
<!-- End 'G' -->
<!-- Begin 'C' -->
<ellipse cx="295.000000" cy="104.498331" rx="25.000000" ry="5.501669" fill="rgb(0, 0, 128)" style="fill-opacity:0.41" />
<ellipse cx="295.000000" cy="104.498331" rx="16.666667" ry="3.667780" fill="rgb(255, 255, 255)" style="fill-opacity:1.00" />
<rect height="5.501669" width="25.000000" x="295.000000" y="101.747496" fill="rgb(255, 255, 255)" style="fill-opacity:1.00" />
<!-- End 'C' -->
<!-- Begin 'C' -->
<ellipse cx="295.000000" cy="140.318385" rx="25.000000" ry="20.318385" fill="rgb(0, 0, 128)" style="fill-opacity:0.13" />
<ellipse cx="295.000000" cy="140.318385" rx="16.666667" ry="13.545590" fill="rgb(255, 255, 255)" style="fill-opacity:1.00" />
<rect height="20.318385" width="25.000000" x="295.000000" y="130.159193" fill="rgb(255, 255, 255)" style="fill-opacity:1.00" />
<!-- End 'C' -->
<!-- Begin 'A' -->
<polygon points=" 270.000000, 188.242894, 291.000000, 160.636770, 299.000000, 160.636770, 320.000000, 188.242894, 312.500000, 188.242894, 306.250000, 181.341363, 283.750000, 181.341363, 277.500000, 188.242894" fill="rgb(178, 34, 34)" style="fill-opacity:0.13" />
<polygon points=" 295.000000, 166.157995, 287.000000, 176.200444, 302.000000, 176.200444" fill="rgb(255, 255, 255)" style="fill-opacity:1.00" />
<!-- End 'A' -->
<!-- Begin 'G' -->
<ellipse cx="295.000000" cy="197.590371" rx="25.000000" ry="9.347478" fill="rgb(255, 165, 0)" style="fill-opacity:0.13" />
<ellipse cx="295.000000" cy="197.590371" rx="16.666667" ry="6.231652" fill="rgb(255, 255, 255)" style="fill-opacity:1.00" />
<rect height="9.347478" width="25.000000" x="295.000000" y="192.916632" fill="rgb(255, 255, 255)" style="fill-opacity:1.00" />
<rect height="2.336869" width="25.000000" x="295.000000" y="199.927241" fill="rgb(255, 165, 0)" style="fill-opacity:0.13" />
<rect height="7.010608" width="6.250000" x="313.750000" y="199.927241" fill="rgb(255, 165, 0)" style="fill-opacity:0.13" />
<!-- End 'G' -->
<!-- Begin 'T' -->
<rect height="2.089944" width="50.000000" x="270.000000" y="206.937849" fill="rgb(0, 100, 0)" style="fill-opacity:0.13" />
<rect height="13.062151" width="10.000000" x="290.000000" y="206.937849" fill="rgb(0, 100, 0)" style="fill-opacity:0.13" />
<!-- End 'T' -->
<!-- Begin 'A' -->
<polygon points=" 270.000000, 271.007719, 291.000000, 230.000000, 299.000000, 230.000000, 320.000000, 271.007719, 312.500000, 271.007719, 306.250000, 260.755789, 283.750000, 260.755789, 277.500000, 271.007719" fill="rgb(178, 34, 34)" style="fill-opacity:0.16" />
<polygon points=" 295.000000, 238.201544, 287.000000, 253.604631, 302.000000, 253.604631" fill="rgb(255, 255, 255)" style="fill-opacity:1.00" />
<!-- End 'A' -->
<!-- Begin 'C' -->
<ellipse cx="295.000000" cy="282.101908" rx="25.000000" ry="11.094189" fill="rgb(0, 0, 128)" style="fill-opacity:0.16" />
<ellipse cx="295.000000" cy="282.101908" rx="16.666667" ry="7.396126" fill="rgb(255, 255, 255)" style="fill-opacity:1.00" />
<rect height="11.094189" width="25.000000" x="295.000000" y="276.554813" fill="rgb(255, 255, 255)" style="fill-opacity:1.00" />
<!-- End 'C' -->
<!-- Begin 'G' -->
<ellipse cx="295.000000" cy="302.775733" rx="25.000000" ry="9.579637" fill="rgb(255, 165, 0)" style="fill-opacity:0.16" />
<ellipse cx="295.000000" cy="302.775733" rx="16.666667" ry="6.386424" fill="rgb(255, 255, 255)" style="fill-opacity:1.00" />
<rect height="9.579637" width="25.000000" x="295.000000" y="297.985915" fill="rgb(255, 255, 255)" style="fill-opacity:1.00" />
<rect height="2.394909" width="25.000000" x="295.000000" y="305.170642" fill="rgb(255, 165, 0)" style="fill-opacity:0.16" />
<rect height="7.184727" width="6.250000" x="313.750000" y="305.170642" fill="rgb(255, 165, 0)" style="fill-opacity:0.16" />
<!-- End 'G' -->
<!-- Begin 'T' -->
<rect height="2.823141" width="50.000000" x="270.000000" y="312.355370" fill="rgb(0, 100, 0)" style="fill-opacity:0.16" />
<rect height="17.644630" width="10.000000" x="290.000000" y="312.355370" fill="rgb(0, 100, 0)" style="fill-opacity:0.16" />
<!-- End 'T' -->
<!-- Begin 'A' -->
<polygon points=" 270.000000, 371.051029, 291.000000, 340.000000, 299.000000, 340.000000, 320.000000, 371.051029, 312.500000, 371.051029, 306.250000, 363.288272, 283.750000, 363.288272, 277.500000, 371.051029" fill="rgb(178, 34, 34)" style="fill-opacity:0.30" />
<polygon points=" 295.000000, 346.210206, 287.000000, 357.630617, 302.000000, 357.630617" fill="rgb(255, 255, 255)" style="fill-opacity:1.00" />
<!-- End 'A' -->
<!-- Begin 'G' -->
<ellipse cx="295.000000" cy="384.898988" rx="25.000000" ry="13.847959" fill="rgb(255, 165, 0)" style="fill-opacity:0.30" />
<ellipse cx="295.000000" cy="384.898988" rx="16.666667" ry="9.231973" fill="rgb(255, 255, 255)" style="fill-opacity:1.00" />
<rect height="13.847959" width="25.000000" x="295.000000" y="377.975008" fill="rgb(255, 255, 255)" style="fill-opacity:1.00" />
<rect height="3.461990" width="25.000000" x="295.000000" y="388.360977" fill="rgb(255, 165, 0)" style="fill-opacity:0.30" />
<rect height="10.385969" width="6.250000" x="313.750000" y="388.360977" fill="rgb(255, 165, 0)" style="fill-opacity:0.30" />
<!-- End 'G' -->
<!-- Begin 'T' -->
<rect height="3.510250" width="50.000000" x="270.000000" y="398.746947" fill="rgb(0, 100, 0)" style="fill-opacity:0.30" />
<rect height="21.939060" width="10.000000" x="290.000000" y="398.746947" fill="rgb(0, 100, 0)" style="fill-opacity:0.30" />
<!-- End 'T' -->
<!-- Begin 'C' -->
<ellipse cx="295.000000" cy="430.343003" rx="25.000000" ry="9.656997" fill="rgb(0, 0, 128)" style="fill-opacity:0.30" />
<ellipse cx="295.000000" cy="430.343003" rx="16.666667" ry="6.437998" fill="rgb(255, 255, 255)" style="fill-opacity:1.00" />
<rect height="9.656997" width="25.000000" x="295.000000" y="425.514505" fill="rgb(255, 255, 255)" style="fill-opacity:1.00" />
<!-- End 'C' -->
<!-- Begin 'G' -->
<ellipse cx="355.000000" cy="53.987251" rx="25.000000" ry="43.987251" fill="rgb(255, 165, 0)" style="fill-opacity:0.46" />
<ellipse cx="355.000000" cy="53.987251" rx="16.666667" ry="29.324834" fill="rgb(255, 255, 255)" style="fill-opacity:1.00" />
<rect height="43.987251" width="25.000000" x="355.000000" y="31.993625" fill="rgb(255, 255, 255)" style="fill-opacity:1.00" />
<rect height="10.996813" width="25.000000" x="355.000000" y="64.984064" fill="rgb(255, 165, 0)" style="fill-opacity:0.46" />
<rect height="32.990438" width="6.250000" x="373.750000" y="64.984064" fill="rgb(255, 165, 0)" style="fill-opacity:0.46" />
<!-- End 'G' -->
<!-- Begin 'T' -->
<rect height="1.464421" width="50.000000" x="330.000000" y="97.974502" fill="rgb(0, 100, 0)" style="fill-opacity:0.46" />
<rect height="9.152634" width="10.000000" x="350.000000" y="97.974502" fill="rgb(0, 100, 0)" style="fill-opacity:0.46" />
<!-- End 'T' -->
<!-- Begin 'A' -->
<polygon points=" 330.000000, 109.644914, 351.000000, 107.127136, 359.000000, 107.127136, 380.000000, 109.644914, 372.500000, 109.644914, 366.250000, 109.015469, 343.750000, 109.015469, 337.500000, 109.644914" fill="rgb(178, 34, 34)" style="fill-opacity:0.46" />
<!-- End 'A' -->
<!-- Begin 'C' -->
<ellipse cx="355.000000" cy="109.822457" rx="25.000000" ry="0.177543" fill="rgb(0, 0, 128)" style="fill-opacity:0.46" />
<ellipse cx="355.000000" cy="109.822457" rx="16.666667" ry="0.118362" fill="rgb(255, 255, 255)" style="fill-opacity:1.00" />
<rect height="0.177543" width="25.000000" x="355.000000" y="109.733685" fill="rgb(255, 255, 255)" style="fill-opacity:1.00" />
<!-- End 'C' -->
<!-- Begin 'G' -->
<ellipse cx="355.000000" cy="148.778156" rx="25.000000" ry="28.778156" fill="rgb(255, 165, 0)" style="fill-opacity:0.19" />
<ellipse cx="355.000000" cy="148.778156" rx="16.666667" ry="19.185437" fill="rgb(255, 255, 255)" style="fill-opacity:1.00" />
<rect height="28.778156" width="25.000000" x="355.000000" y="134.389078" fill="rgb(255, 255, 255)" style="fill-opacity:1.00" />
<rect height="7.194539" width="25.000000" x="355.000000" y="155.972695" fill="rgb(255, 165, 0)" style="fill-opacity:0.19" />
<rect height="21.583617" width="6.250000" x="373.750000" y="155.972695" fill="rgb(255, 165, 0)" style="fill-opacity:0.19" />
<!-- End 'G' -->
<!-- Begin 'T' -->
<rect height="3.621366" width="50.000000" x="330.000000" y="177.556312" fill="rgb(0, 100, 0)" style="fill-opacity:0.19" />
<rect height="22.633538" width="10.000000" x="350.000000" y="177.556312" fill="rgb(0, 100, 0)" style="fill-opacity:0.19" />
<!-- End 'T' -->
<!-- Begin 'A' -->
<polygon points=" 330.000000, 219.999104, 351.000000, 200.189851, 359.000000, 200.189851, 380.000000, 219.999104, 372.500000, 219.999104, 366.250000, 215.046791, 343.750000, 215.046791, 337.500000, 219.999104" fill="rgb(178, 34, 34)" style="fill-opacity:0.19" />
<polygon points=" 355.000000, 204.151701, 347.000000, 211.075403, 362.000000, 211.075403" fill="rgb(255, 255, 255)" style="fill-opacity:1.00" />
<!-- End 'A' -->
<!-- Begin 'C' -->
<ellipse cx="355.000000" cy="219.999552" rx="25.000000" ry="0.000448" fill="rgb(0, 0, 128)" style="fill-opacity:0.19" />
<ellipse cx="355.000000" cy="219.999552" rx="16.666667" ry="0.000299" fill="rgb(255, 255, 255)" style="fill-opacity:1.00" />
<rect height="0.000448" width="25.000000" x="355.000000" y="219.999328" fill="rgb(255, 255, 255)" style="fill-opacity:1.00" />
<!-- End 'C' -->
<!-- Begin 'G' -->
<ellipse cx="355.000000" cy="267.374382" rx="25.000000" ry="37.374382" fill="rgb(255, 165, 0)" style="fill-opacity:0.19" />
<ellipse cx="355.000000" cy="267.374382" rx="16.666667" ry="24.916255" fill="rgb(255, 255, 255)" style="fill-opacity:1.00" />
<rect height="37.374382" width="25.000000" x="355.000000" y="248.687191" fill="rgb(255, 255, 255)" style="fill-opacity:1.00" />
<rect height="9.343596" width="25.000000" x="355.000000" y="276.717978" fill="rgb(255, 165, 0)" style="fill-opacity:0.19" />
<rect height="28.030787" width="6.250000" x="373.750000" y="276.717978" fill="rgb(255, 165, 0)" style="fill-opacity:0.19" />
<!-- End 'G' -->
<!-- Begin 'T' -->
<rect height="3.697038" width="50.000000" x="330.000000" y="304.748764" fill="rgb(0, 100, 0)" style="fill-opacity:0.19" />
<rect height="23.106489" width="10.000000" x="350.000000" y="304.748764" fill="rgb(0, 100, 0)" style="fill-opacity:0.19" />
<!-- End 'T' -->
<!-- Begin 'A' -->
<polygon points=" 330.000000, 329.938223, 351.000000, 327.855253, 359.000000, 327.855253, 380.000000, 329.938223, 372.500000, 329.938223, 366.250000, 329.417481, 343.750000, 329.417481, 337.500000, 329.938223" fill="rgb(178, 34, 34)" style="fill-opacity:0.19" />
<!-- End 'A' -->
<!-- Begin 'C' -->
<ellipse cx="355.000000" cy="329.969112" rx="25.000000" ry="0.030888" fill="rgb(0, 0, 128)" style="fill-opacity:0.19" />
<ellipse cx="355.000000" cy="329.969112" rx="16.666667" ry="0.020592" fill="rgb(255, 255, 255)" style="fill-opacity:1.00" />
<rect height="0.030888" width="25.000000" x="355.000000" y="329.953668" fill="rgb(255, 255, 255)" style="fill-opacity:1.00" />
<!-- End 'C' -->
<!-- Begin 'G' -->
<ellipse cx="355.000000" cy="366.109987" rx="25.000000" ry="26.109987" fill="rgb(255, 165, 0)" style="fill-opacity:0.17" />
<ellipse cx="355.000000" cy="366.109987" rx="16.666667" ry="17.406658" fill="rgb(255, 255, 255)" style="fill-opacity:1.00" />
<rect height="26.109987" width="25.000000" x="355.000000" y="353.054994" fill="rgb(255, 255, 255)" style="fill-opacity:1.00" />
<rect height="6.527497" width="25.000000" x="355.000000" y="372.637484" fill="rgb(255, 165, 0)" style="fill-opacity:0.17" />
<rect height="19.582490" width="6.250000" x="373.750000" y="372.637484" fill="rgb(255, 165, 0)" style="fill-opacity:0.17" />
<!-- End 'G' -->
<!-- Begin 'T' -->
<rect height="5.464213" width="50.000000" x="330.000000" y="392.219974" fill="rgb(0, 100, 0)" style="fill-opacity:0.17" />
<rect height="34.151330" width="10.000000" x="350.000000" y="392.219974" fill="rgb(0, 100, 0)" style="fill-opacity:0.17" />
<!-- End 'T' -->
<!-- Begin 'A' -->
<polygon points=" 330.000000, 435.893454, 351.000000, 426.371304, 359.000000, 426.371304, 380.000000, 435.893454, 372.500000, 435.893454, 366.250000, 433.512917, 343.750000, 433.512917, 337.500000, 435.893454" fill="rgb(178, 34, 34)" style="fill-opacity:0.17" />
<polygon points=" 355.000000, 428.275734, 347.000000, 431.084594, 362.000000, 431.084594" fill="rgb(255, 255, 255)" style="fill-opacity:1.00" />
<!-- End 'A' -->
<!-- Begin 'C' -->
<ellipse cx="355.000000" cy="437.946727" rx="25.000000" ry="2.053273" fill="rgb(0, 0, 128)" style="fill-opacity:0.17" />
<ellipse cx="355.000000" cy="437.946727" rx="16.666667" ry="1.368849" fill="rgb(255, 255, 255)" style="fill-opacity:1.00" />
<rect height="2.053273" width="25.000000" x="355.000000" y="436.920091" fill="rgb(255, 255, 255)" style="fill-opacity:1.00" />
<!-- End 'C' -->
<!-- Begin 'T' -->
<rect height="15.987696" width="50.000000" x="390.000000" y="10.000000" fill="rgb(0, 100, 0)" style="fill-opacity:0.07" />
<rect height="99.923101" width="10.000000" x="410.000000" y="10.000000" fill="rgb(0, 100, 0)" style="fill-opacity:0.07" />
<!-- End 'T' -->
<!-- Begin 'A' -->
<polygon points=" 390.000000, 109.984191, 411.000000, 109.923101, 419.000000, 109.923101, 440.000000, 109.984191, 432.500000, 109.984191, 426.250000, 109.968918, 403.750000, 109.968918, 397.500000, 109.984191" fill="rgb(178, 34, 34)" style="fill-opacity:0.07" />
<!-- End 'A' -->
<!-- Begin 'C' -->
<ellipse cx="415.000000" cy="109.988636" rx="25.000000" ry="0.004445" fill="rgb(0, 0, 128)" style="fill-opacity:0.07" />
<ellipse cx="415.000000" cy="109.988636" rx="16.666667" ry="0.002964" fill="rgb(255, 255, 255)" style="fill-opacity:1.00" />
<rect height="0.004445" width="25.000000" x="415.000000" y="109.986413" fill="rgb(255, 255, 255)" style="fill-opacity:1.00" />
<!-- End 'C' -->
<!-- Begin 'G' -->
<ellipse cx="415.000000" cy="109.996541" rx="25.000000" ry="0.003459" fill="rgb(255, 165, 0)" style="fill-opacity:0.07" />
<ellipse cx="415.000000" cy="109.996541" rx="16.666667" ry="0.002306" fill="rgb(255, 255, 255)" style="fill-opacity:1.00" />
<rect height="0.003459" width="25.000000" x="415.000000" y="109.994811" fill="rgb(255, 255, 255)" style="fill-opacity:1.00" />
<rect height="0.000865" width="25.000000" x="415.000000" y="109.997406" fill="rgb(255, 165, 0)" style="fill-opacity:0.07" />
<rect height="0.002594" width="6.250000" x="433.750000" y="109.997406" fill="rgb(255, 165, 0)" style="fill-opacity:0.07" />
<!-- End 'G' -->
<!-- Begin 'T' -->
<rect height="15.611566" width="50.000000" x="390.000000" y="120.000000" fill="rgb(0, 100, 0)" style="fill-opacity:0.01" />
<rect height="97.572290" width="10.000000" x="410.000000" y="120.000000" fill="rgb(0, 100, 0)" style="fill-opacity:0.01" />
<!-- End 'T' -->
<!-- Begin 'C' -->
<ellipse cx="415.000000" cy="218.704898" rx="25.000000" ry="1.132608" fill="rgb(0, 0, 128)" style="fill-opacity:0.01" />
<ellipse cx="415.000000" cy="218.704898" rx="16.666667" ry="0.755072" fill="rgb(255, 255, 255)" style="fill-opacity:1.00" />
<rect height="1.132608" width="25.000000" x="415.000000" y="218.138594" fill="rgb(255, 255, 255)" style="fill-opacity:1.00" />
<!-- End 'C' -->
<!-- Begin 'A' -->
<polygon points=" 390.000000, 219.999461, 411.000000, 219.837505, 419.000000, 219.837505, 440.000000, 219.999461, 432.500000, 219.999461, 426.250000, 219.958972, 403.750000, 219.958972, 397.500000, 219.999461" fill="rgb(178, 34, 34)" style="fill-opacity:0.01" />
<!-- End 'A' -->
<!-- Begin 'G' -->
<ellipse cx="415.000000" cy="219.999731" rx="25.000000" ry="0.000269" fill="rgb(255, 165, 0)" style="fill-opacity:0.01" />
<ellipse cx="415.000000" cy="219.999731" rx="16.666667" ry="0.000180" fill="rgb(255, 255, 255)" style="fill-opacity:1.00" />
<rect height="0.000269" width="25.000000" x="415.000000" y="219.999596" fill="rgb(255, 255, 255)" style="fill-opacity:1.00" />
<rect height="0.000067" width="25.000000" x="415.000000" y="219.999798" fill="rgb(255, 165, 0)" style="fill-opacity:0.01" />
<rect height="0.000202" width="6.250000" x="433.750000" y="219.999798" fill="rgb(255, 165, 0)" style="fill-opacity:0.01" />
<!-- End 'G' -->
<!-- Begin 'T' -->
<rect height="15.661261" width="50.000000" x="390.000000" y="230.000000" fill="rgb(0, 100, 0)" style="fill-opacity:0.74" />
<rect height="97.882882" width="10.000000" x="410.000000" y="230.000000" fill="rgb(0, 100, 0)" style="fill-opacity:0.74" />
<!-- End 'T' -->
<!-- Begin 'C' -->
<ellipse cx="415.000000" cy="328.890440" rx="25.000000" ry="1.007558" fill="rgb(0, 0, 128)" style="fill-opacity:0.74" />
<ellipse cx="415.000000" cy="328.890440" rx="16.666667" ry="0.671705" fill="rgb(255, 255, 255)" style="fill-opacity:1.00" />
<rect height="1.007558" width="25.000000" x="415.000000" y="328.386661" fill="rgb(255, 255, 255)" style="fill-opacity:1.00" />
<!-- End 'C' -->
<!-- Begin 'A' -->
<polygon points=" 390.000000, 329.951305, 411.000000, 329.897998, 419.000000, 329.897998, 440.000000, 329.951305, 432.500000, 329.951305, 426.250000, 329.937978, 403.750000, 329.937978, 397.500000, 329.951305" fill="rgb(178, 34, 34)" style="fill-opacity:0.74" />
<!-- End 'A' -->
<!-- Begin 'G' -->
<ellipse cx="415.000000" cy="329.975652" rx="25.000000" ry="0.024348" fill="rgb(255, 165, 0)" style="fill-opacity:0.74" />
<ellipse cx="415.000000" cy="329.975652" rx="16.666667" ry="0.016232" fill="rgb(255, 255, 255)" style="fill-opacity:1.00" />
<rect height="0.024348" width="25.000000" x="415.000000" y="329.963479" fill="rgb(255, 255, 255)" style="fill-opacity:1.00" />
<rect height="0.006087" width="25.000000" x="415.000000" y="329.981739" fill="rgb(255, 165, 0)" style="fill-opacity:0.74" />
<rect height="0.018261" width="6.250000" x="433.750000" y="329.981739" fill="rgb(255, 165, 0)" style="fill-opacity:0.74" />
<!-- End 'G' -->
<!-- Begin 'T' -->
<rect height="15.889331" width="50.000000" x="390.000000" y="340.000000" fill="rgb(0, 100, 0)" style="fill-opacity:0.18" />
<rect height="99.308316" width="10.000000" x="410.000000" y="340.000000" fill="rgb(0, 100, 0)" style="fill-opacity:0.18" />
<!-- End 'T' -->
<!-- Begin 'C' -->
<ellipse cx="415.000000" cy="439.654134" rx="25.000000" ry="0.345818" fill="rgb(0, 0, 128)" style="fill-opacity:0.18" />
<ellipse cx="415.000000" cy="439.654134" rx="16.666667" ry="0.230546" fill="rgb(255, 255, 255)" style="fill-opacity:1.00" />
<rect height="0.345818" width="25.000000" x="415.000000" y="439.481225" fill="rgb(255, 255, 255)" style="fill-opacity:1.00" />
<!-- End 'C' -->
<!-- Begin 'A' -->
<polygon points=" 390.000000, 439.999989, 411.000000, 439.999952, 419.000000, 439.999952, 440.000000, 439.999989, 432.500000, 439.999989, 426.250000, 439.999980, 403.750000, 439.999980, 397.500000, 439.999989" fill="rgb(178, 34, 34)" style="fill-opacity:0.18" />
<!-- End 'A' -->
<!-- Begin 'G' -->
<ellipse cx="415.000000" cy="439.999995" rx="25.000000" ry="0.000005" fill="rgb(255, 165, 0)" style="fill-opacity:0.18" />
<ellipse cx="415.000000" cy="439.999995" rx="16.666667" ry="0.000004" fill="rgb(255, 255, 255)" style="fill-opacity:1.00" />
<rect height="0.000005" width="25.000000" x="415.000000" y="439.999992" fill="rgb(255, 255, 255)" style="fill-opacity:1.00" />
<rect height="0.000001" width="25.000000" x="415.000000" y="439.999996" fill="rgb(255, 165, 0)" style="fill-opacity:0.18" />
<rect height="0.000004" width="6.250000" x="433.750000" y="439.999996" fill="rgb(255, 165, 0)" style="fill-opacity:0.18" />
<!-- End 'G' -->
<!-- Begin 'A' -->
<polygon points=" 450.000000, 59.930322, 471.000000, 10.000000, 479.000000, 10.000000, 500.000000, 59.930322, 492.500000, 59.930322, 486.250000, 47.447741, 463.750000, 47.447741, 457.500000, 59.930322" fill="rgb(178, 34, 34)" style="fill-opacity:0.00" />
<polygon points=" 475.000000, 19.986064, 467.000000, 38.958193, 482.000000, 38.958193" fill="rgb(255, 255, 255)" style="fill-opacity:1.00" />
<!-- End 'A' -->
<!-- Begin 'C' -->
<ellipse cx="475.000000" cy="81.401124" rx="25.000000" ry="21.470802" fill="rgb(0, 0, 128)" style="fill-opacity:0.00" />
<ellipse cx="475.000000" cy="81.401124" rx="16.666667" ry="14.313868" fill="rgb(255, 255, 255)" style="fill-opacity:1.00" />
<rect height="21.470802" width="25.000000" x="475.000000" y="70.665723" fill="rgb(255, 255, 255)" style="fill-opacity:1.00" />
<!-- End 'C' -->
<!-- Begin 'G' -->
<ellipse cx="475.000000" cy="106.291956" rx="25.000000" ry="3.420030" fill="rgb(255, 165, 0)" style="fill-opacity:0.00" />
<ellipse cx="475.000000" cy="106.291956" rx="16.666667" ry="2.280020" fill="rgb(255, 255, 255)" style="fill-opacity:1.00" />
<rect height="3.420030" width="25.000000" x="475.000000" y="104.581941" fill="rgb(255, 255, 255)" style="fill-opacity:1.00" />
<rect height="0.855008" width="25.000000" x="475.000000" y="107.146964" fill="rgb(255, 165, 0)" style="fill-opacity:0.00" />
<rect height="2.565023" width="6.250000" x="493.750000" y="107.146964" fill="rgb(255, 165, 0)" style="fill-opacity:0.00" />
<!-- End 'G' -->
<!-- Begin 'T' -->
<rect height="0.046082" width="50.000000" x="450.000000" y="109.711987" fill="rgb(0, 100, 0)" style="fill-opacity:0.00" />
<rect height="0.288013" width="10.000000" x="470.000000" y="109.711987" fill="rgb(0, 100, 0)" style="fill-opacity:0.00" />
<!-- End 'T' -->
<!-- Begin 'T' -->
<rect height="10.527188" width="50.000000" x="450.000000" y="120.000000" fill="rgb(0, 100, 0)" style="fill-opacity:0.02" />
<rect height="65.794928" width="10.000000" x="470.000000" y="120.000000" fill="rgb(0, 100, 0)" style="fill-opacity:0.02" />
<!-- End 'T' -->
<!-- Begin 'C' -->
<ellipse cx="475.000000" cy="202.885901" rx="25.000000" ry="17.090973" fill="rgb(0, 0, 128)" style="fill-opacity:0.02" />
<ellipse cx="475.000000" cy="202.885901" rx="16.666667" ry="11.393982" fill="rgb(255, 255, 255)" style="fill-opacity:1.00" />
<rect height="17.090973" width="25.000000" x="475.000000" y="194.340414" fill="rgb(255, 255, 255)" style="fill-opacity:1.00" />
<!-- End 'C' -->
<!-- Begin 'A' -->
<polygon points=" 450.000000, 219.999996, 471.000000, 219.976874, 479.000000, 219.976874, 500.000000, 219.999996, 492.500000, 219.999996, 486.250000, 219.994215, 463.750000, 219.994215, 457.500000, 219.999996" fill="rgb(178, 34, 34)" style="fill-opacity:0.02" />
<!-- End 'A' -->
<!-- Begin 'G' -->
<ellipse cx="475.000000" cy="219.999998" rx="25.000000" ry="0.000002" fill="rgb(255, 165, 0)" style="fill-opacity:0.02" />
<ellipse cx="475.000000" cy="219.999998" rx="16.666667" ry="0.000001" fill="rgb(255, 255, 255)" style="fill-opacity:1.00" />
<rect height="0.000002" width="25.000000" x="475.000000" y="219.999997" fill="rgb(255, 255, 255)" style="fill-opacity:1.00" />
<rect height="0.000001" width="25.000000" x="475.000000" y="219.999998" fill="rgb(255, 165, 0)" style="fill-opacity:0.02" />
<rect height="0.000002" width="6.250000" x="493.750000" y="219.999998" fill="rgb(255, 165, 0)" style="fill-opacity:0.02" />
<!-- End 'G' -->
<!-- Begin 'C' -->
<ellipse cx="475.000000" cy="261.080237" rx="25.000000" ry="31.080237" fill="rgb(0, 0, 128)" style="fill-opacity:0.00" />
<ellipse cx="475.000000" cy="261.080237" rx="16.666667" ry="20.720158" fill="rgb(255, 255, 255)" style="fill-opacity:1.00" />
<rect height="31.080237" width="25.000000" x="475.000000" y="245.540118" fill="rgb(255, 255, 255)" style="fill-opacity:1.00" />
<!-- End 'C' -->
<!-- Begin 'T' -->
<rect height="5.935963" width="50.000000" x="450.000000" y="292.160473" fill="rgb(0, 100, 0)" style="fill-opacity:0.00" />
<rect height="37.099772" width="10.000000" x="470.000000" y="292.160473" fill="rgb(0, 100, 0)" style="fill-opacity:0.00" />
<!-- End 'T' -->
<!-- Begin 'A' -->
<polygon points=" 450.000000, 329.997024, 471.000000, 329.260245, 479.000000, 329.260245, 500.000000, 329.997024, 492.500000, 329.997024, 486.250000, 329.812829, 463.750000, 329.812829, 457.500000, 329.997024" fill="rgb(178, 34, 34)" style="fill-opacity:0.00" />
<!-- End 'A' -->
<!-- Begin 'G' -->
<ellipse cx="475.000000" cy="329.998512" rx="25.000000" ry="0.001488" fill="rgb(255, 165, 0)" style="fill-opacity:0.00" />
<ellipse cx="475.000000" cy="329.998512" rx="16.666667" ry="0.000992" fill="rgb(255, 255, 255)" style="fill-opacity:1.00" />
<rect height="0.001488" width="25.000000" x="475.000000" y="329.997768" fill="rgb(255, 255, 255)" style="fill-opacity:1.00" />
<rect height="0.000372" width="25.000000" x="475.000000" y="329.998884" fill="rgb(255, 165, 0)" style="fill-opacity:0.00" />
<rect height="0.001116" width="6.250000" x="493.750000" y="329.998884" fill="rgb(255, 165, 0)" style="fill-opacity:0.00" />
<!-- End 'G' -->
<!-- Begin 'C' -->
<ellipse cx="475.000000" cy="367.683332" rx="25.000000" ry="27.683332" fill="rgb(0, 0, 128)" style="fill-opacity:0.98" />
<ellipse cx="475.000000" cy="367.683332" rx="16.666667" ry="18.455555" fill="rgb(255, 255, 255)" style="fill-opacity:1.00" />
<rect height="27.683332" width="25.000000" x="475.000000" y="353.841666" fill="rgb(255, 255, 255)" style="fill-opacity:1.00" />
<!-- End 'C' -->
<!-- Begin 'T' -->
<rect height="6.926150" width="50.000000" x="450.000000" y="395.366664" fill="rgb(0, 100, 0)" style="fill-opacity:0.98" />
<rect height="43.288440" width="10.000000" x="470.000000" y="395.366664" fill="rgb(0, 100, 0)" style="fill-opacity:0.98" />
<!-- End 'T' -->
<!-- Begin 'A' -->
<polygon points=" 450.000000, 439.930499, 471.000000, 438.655104, 479.000000, 438.655104, 500.000000, 439.930499, 492.500000, 439.930499, 486.250000, 439.611650, 463.750000, 439.611650, 457.500000, 439.930499" fill="rgb(178, 34, 34)" style="fill-opacity:0.98" />
<!-- End 'A' -->
<!-- Begin 'G' -->
<ellipse cx="475.000000" cy="439.965250" rx="25.000000" ry="0.034750" fill="rgb(255, 165, 0)" style="fill-opacity:0.98" />
<ellipse cx="475.000000" cy="439.965250" rx="16.666667" ry="0.023167" fill="rgb(255, 255, 255)" style="fill-opacity:1.00" />
<rect height="0.034750" width="25.000000" x="475.000000" y="439.947874" fill="rgb(255, 255, 255)" style="fill-opacity:1.00" />
<rect height="0.008688" width="25.000000" x="475.000000" y="439.973937" fill="rgb(255, 165, 0)" style="fill-opacity:0.98" />
<rect height="0.026063" width="6.250000" x="493.750000" y="439.973937" fill="rgb(255, 165, 0)" style="fill-opacity:0.98" />
<!-- End 'G' -->
<!-- Begin 'A' -->
<polygon points=" 510.000000, 85.190961, 531.000000, 10.000000, 539.000000, 10.000000, 560.000000, 85.190961, 552.500000, 85.190961, 546.250000, 66.393221, 523.750000, 66.393221, 517.500000, 85.190961" fill="rgb(178, 34, 34)" style="fill-opacity:0.01" />
<polygon points=" 535.000000, 25.038192, 527.000000, 54.114577, 542.000000, 54.114577" fill="rgb(255, 255, 255)" style="fill-opacity:1.00" />
<!-- End 'A' -->
<!-- Begin 'G' -->
<ellipse cx="535.000000" cy="97.587507" rx="25.000000" ry="12.396546" fill="rgb(255, 165, 0)" style="fill-opacity:0.01" />
<ellipse cx="535.000000" cy="97.587507" rx="16.666667" ry="8.264364" fill="rgb(255, 255, 255)" style="fill-opacity:1.00" />
<rect height="12.396546" width="25.000000" x="535.000000" y="91.389234" fill="rgb(255, 255, 255)" style="fill-opacity:1.00" />
<rect height="3.099137" width="25.000000" x="535.000000" y="100.686644" fill="rgb(255, 165, 0)" style="fill-opacity:0.01" />
<rect height="9.297410" width="6.250000" x="553.750000" y="100.686644" fill="rgb(255, 165, 0)" style="fill-opacity:0.01" />
<!-- End 'G' -->
<!-- Begin 'T' -->
<rect height="0.002485" width="50.000000" x="510.000000" y="109.984054" fill="rgb(0, 100, 0)" style="fill-opacity:0.01" />
<rect height="0.015531" width="10.000000" x="530.000000" y="109.984054" fill="rgb(0, 100, 0)" style="fill-opacity:0.01" />
<!-- End 'T' -->
<!-- Begin 'C' -->
<ellipse cx="535.000000" cy="109.999792" rx="25.000000" ry="0.000208" fill="rgb(0, 0, 128)" style="fill-opacity:0.01" />
<ellipse cx="535.000000" cy="109.999792" rx="16.666667" ry="0.000139" fill="rgb(255, 255, 255)" style="fill-opacity:1.00" />
<rect height="0.000208" width="25.000000" x="535.000000" y="109.999688" fill="rgb(255, 255, 255)" style="fill-opacity:1.00" />
<!-- End 'C' -->
<!-- Begin 'A' -->
<polygon points=" 510.000000, 210.905740, 531.000000, 120.000000, 539.000000, 120.000000, 560.000000, 210.905740, 552.500000, 210.905740, 546.250000, 188.179305, 523.750000, 188.179305, 517.500000, 210.905740" fill="rgb(178, 34, 34)" style="fill-opacity:0.55" />
<polygon points=" 535.000000, 138.181148, 527.000000, 173.543444, 542.000000, 173.543444" fill="rgb(255, 255, 255)" style="fill-opacity:1.00" />
<!-- End 'A' -->
<!-- Begin 'T' -->
<rect height="1.048295" width="50.000000" x="510.000000" y="210.905740" fill="rgb(0, 100, 0)" style="fill-opacity:0.55" />
<rect height="6.551845" width="10.000000" x="530.000000" y="210.905740" fill="rgb(0, 100, 0)" style="fill-opacity:0.55" />
<!-- End 'T' -->
<!-- Begin 'C' -->
<ellipse cx="535.000000" cy="218.533018" rx="25.000000" ry="1.075433" fill="rgb(0, 0, 128)" style="fill-opacity:0.55" />
<ellipse cx="535.000000" cy="218.533018" rx="16.666667" ry="0.716955" fill="rgb(255, 255, 255)" style="fill-opacity:1.00" />
<rect height="1.075433" width="25.000000" x="535.000000" y="217.995302" fill="rgb(255, 255, 255)" style="fill-opacity:1.00" />
<!-- End 'C' -->
<!-- Begin 'G' -->
<ellipse cx="535.000000" cy="219.804225" rx="25.000000" ry="0.195775" fill="rgb(255, 165, 0)" style="fill-opacity:0.55" />
<ellipse cx="535.000000" cy="219.804225" rx="16.666667" ry="0.130516" fill="rgb(255, 255, 255)" style="fill-opacity:1.00" />
<rect height="0.195775" width="25.000000" x="535.000000" y="219.706338" fill="rgb(255, 255, 255)" style="fill-opacity:1.00" />
<rect height="0.048944" width="25.000000" x="535.000000" y="219.853169" fill="rgb(255, 165, 0)" style="fill-opacity:0.55" />
<rect height="0.146831" width="6.250000" x="553.750000" y="219.853169" fill="rgb(255, 165, 0)" style="fill-opacity:0.55" />
<!-- End 'G' -->
<!-- Begin 'G' -->
<ellipse cx="535.000000" cy="278.967490" rx="25.000000" ry="48.967490" fill="rgb(255, 165, 0)" style="fill-opacity:0.00" />
<ellipse cx="535.000000" cy="278.967490" rx="16.666667" ry="32.644993" fill="rgb(255, 255, 255)" style="fill-opacity:1.00" />
<rect height="48.967490" width="25.000000" x="535.000000" y="254.483745" fill="rgb(255, 255, 255)" style="fill-opacity:1.00" />
<rect height="12.241872" width="25.000000" x="535.000000" y="291.209362" fill="rgb(255, 165, 0)" style="fill-opacity:0.00" />
<rect height="36.725617" width="6.250000" x="553.750000" y="291.209362" fill="rgb(255, 165, 0)" style="fill-opacity:0.00" />
<!-- End 'G' -->
<!-- Begin 'A' -->
<polygon points=" 510.000000, 329.993203, 531.000000, 327.934979, 539.000000, 327.934979, 560.000000, 329.993203, 552.500000, 329.993203, 546.250000, 329.478647, 523.750000, 329.478647, 517.500000, 329.993203" fill="rgb(178, 34, 34)" style="fill-opacity:0.00" />
<!-- End 'A' -->
<!-- Begin 'T' -->
<rect height="0.000859" width="50.000000" x="510.000000" y="329.993203" fill="rgb(0, 100, 0)" style="fill-opacity:0.00" />
<rect height="0.005371" width="10.000000" x="530.000000" y="329.993203" fill="rgb(0, 100, 0)" style="fill-opacity:0.00" />
<!-- End 'T' -->
<!-- Begin 'C' -->
<ellipse cx="535.000000" cy="329.999287" rx="25.000000" ry="0.000713" fill="rgb(0, 0, 128)" style="fill-opacity:0.00" />
<ellipse cx="535.000000" cy="329.999287" rx="16.666667" ry="0.000475" fill="rgb(255, 255, 255)" style="fill-opacity:1.00" />
<rect height="0.000713" width="25.000000" x="535.000000" y="329.998930" fill="rgb(255, 255, 255)" style="fill-opacity:1.00" />
<!-- End 'C' -->
<!-- Begin 'G' -->
<ellipse cx="535.000000" cy="389.999146" rx="25.000000" ry="49.999146" fill="rgb(255, 165, 0)" style="fill-opacity:0.44" />
<ellipse cx="535.000000" cy="389.999146" rx="16.666667" ry="33.332764" fill="rgb(255, 255, 255)" style="fill-opacity:1.00" />
<rect height="49.999146" width="25.000000" x="535.000000" y="364.999573" fill="rgb(255, 255, 255)" style="fill-opacity:1.00" />
<rect height="12.499787" width="25.000000" x="535.000000" y="402.498933" fill="rgb(255, 165, 0)" style="fill-opacity:0.44" />
<rect height="37.499360" width="6.250000" x="553.750000" y="402.498933" fill="rgb(255, 165, 0)" style="fill-opacity:0.44" />
<!-- End 'G' -->
<!-- Begin 'T' -->
<rect height="0.000164" width="50.000000" x="510.000000" y="439.998293" fill="rgb(0, 100, 0)" style="fill-opacity:0.44" />
<rect height="0.001025" width="10.000000" x="530.000000" y="439.998293" fill="rgb(0, 100, 0)" style="fill-opacity:0.44" />
<!-- End 'T' -->
<!-- Begin 'A' -->
<polygon points=" 510.000000, 439.999930, 531.000000, 439.999318, 539.000000, 439.999318, 560.000000, 439.999930, 552.500000, 439.999930, 546.250000, 439.999777, 523.750000, 439.999777, 517.500000, 439.999930" fill="rgb(178, 34, 34)" style="fill-opacity:0.44" />
<!-- End 'A' -->
<!-- Begin 'C' -->
<ellipse cx="535.000000" cy="439.999965" rx="25.000000" ry="0.000035" fill="rgb(0, 0, 128)" style="fill-opacity:0.44" />
<ellipse cx="535.000000" cy="439.999965" rx="16.666667" ry="0.000023" fill="rgb(255, 255, 255)" style="fill-opacity:1.00" />
<rect height="0.000035" width="25.000000" x="535.000000" y="439.999947" fill="rgb(255, 255, 255)" style="fill-opacity:1.00" />
<!-- End 'C' -->
<!-- Begin 'A' -->
<polygon points=" 570.000000, 102.218665, 591.000000, 10.000000, 599.000000, 10.000000, 620.000000, 102.218665, 612.500000, 102.218665, 606.250000, 79.163999, 583.750000, 79.163999, 577.500000, 102.218665" fill="rgb(178, 34, 34)" style="fill-opacity:0.51" />
<polygon points=" 595.000000, 28.443733, 587.000000, 64.331199, 602.000000, 64.331199" fill="rgb(255, 255, 255)" style="fill-opacity:1.00" />
<!-- End 'A' -->
<!-- Begin 'G' -->
<ellipse cx="595.000000" cy="104.256637" rx="25.000000" ry="2.037972" fill="rgb(255, 165, 0)" style="fill-opacity:0.51" />
<ellipse cx="595.000000" cy="104.256637" rx="16.666667" ry="1.358648" fill="rgb(255, 255, 255)" style="fill-opacity:1.00" />
<rect height="2.037972" width="25.000000" x="595.000000" y="103.237651" fill="rgb(255, 255, 255)" style="fill-opacity:1.00" />
<rect height="0.509493" width="25.000000" x="595.000000" y="104.766131" fill="rgb(255, 165, 0)" style="fill-opacity:0.51" />
<rect height="1.528479" width="6.250000" x="613.750000" y="104.766131" fill="rgb(255, 165, 0)" style="fill-opacity:0.51" />
<!-- End 'G' -->
<!-- Begin 'T' -->
<rect height="0.458030" width="50.000000" x="570.000000" y="106.294610" fill="rgb(0, 100, 0)" style="fill-opacity:0.51" />
<rect height="2.862687" width="10.000000" x="590.000000" y="106.294610" fill="rgb(0, 100, 0)" style="fill-opacity:0.51" />
<!-- End 'T' -->
<!-- Begin 'C' -->
<ellipse cx="595.000000" cy="109.578649" rx="25.000000" ry="0.421351" fill="rgb(0, 0, 128)" style="fill-opacity:0.51" />
<ellipse cx="595.000000" cy="109.578649" rx="16.666667" ry="0.280901" fill="rgb(255, 255, 255)" style="fill-opacity:1.00" />
<rect height="0.421351" width="25.000000" x="595.000000" y="109.367973" fill="rgb(255, 255, 255)" style="fill-opacity:1.00" />
<!-- End 'C' -->
<!-- Begin 'A' -->
<polygon points=" 570.000000, 219.662801, 591.000000, 120.000000, 599.000000, 120.000000, 620.000000, 219.662801, 612.500000, 219.662801, 606.250000, 194.747101, 583.750000, 194.747101, 577.500000, 219.662801" fill="rgb(178, 34, 34)" style="fill-opacity:0.01" />
<polygon points=" 595.000000, 139.932560, 587.000000, 178.797681, 602.000000, 178.797681" fill="rgb(255, 255, 255)" style="fill-opacity:1.00" />
<!-- End 'A' -->
<!-- Begin 'G' -->
<ellipse cx="595.000000" cy="219.828442" rx="25.000000" ry="0.165641" fill="rgb(255, 165, 0)" style="fill-opacity:0.01" />
<ellipse cx="595.000000" cy="219.828442" rx="16.666667" ry="0.110427" fill="rgb(255, 255, 255)" style="fill-opacity:1.00" />
<rect height="0.165641" width="25.000000" x="595.000000" y="219.745621" fill="rgb(255, 255, 255)" style="fill-opacity:1.00" />
<rect height="0.041410" width="25.000000" x="595.000000" y="219.869852" fill="rgb(255, 165, 0)" style="fill-opacity:0.01" />
<rect height="0.124230" width="6.250000" x="613.750000" y="219.869852" fill="rgb(255, 165, 0)" style="fill-opacity:0.01" />
<!-- End 'G' -->
<!-- Begin 'C' -->
<ellipse cx="595.000000" cy="219.997014" rx="25.000000" ry="0.002932" fill="rgb(0, 0, 128)" style="fill-opacity:0.01" />
<ellipse cx="595.000000" cy="219.997014" rx="16.666667" ry="0.001955" fill="rgb(255, 255, 255)" style="fill-opacity:1.00" />
<rect height="0.002932" width="25.000000" x="595.000000" y="219.995548" fill="rgb(255, 255, 255)" style="fill-opacity:1.00" />
<!-- End 'C' -->
<!-- Begin 'T' -->
<rect height="0.000009" width="50.000000" x="570.000000" y="219.999946" fill="rgb(0, 100, 0)" style="fill-opacity:0.01" />
<rect height="0.000054" width="10.000000" x="590.000000" y="219.999946" fill="rgb(0, 100, 0)" style="fill-opacity:0.01" />
<!-- End 'T' -->
<!-- Begin 'A' -->
<polygon points=" 570.000000, 329.984047, 591.000000, 230.000000, 599.000000, 230.000000, 620.000000, 329.984047, 612.500000, 329.984047, 606.250000, 304.988035, 583.750000, 304.988035, 577.500000, 329.984047" fill="rgb(178, 34, 34)" style="fill-opacity:0.44" />
<polygon points=" 595.000000, 249.996809, 587.000000, 288.990428, 602.000000, 288.990428" fill="rgb(255, 255, 255)" style="fill-opacity:1.00" />
<!-- End 'A' -->
<!-- Begin 'G' -->
<ellipse cx="595.000000" cy="329.990164" rx="25.000000" ry="0.006118" fill="rgb(255, 165, 0)" style="fill-opacity:0.44" />
<ellipse cx="595.000000" cy="329.990164" rx="16.666667" ry="0.004078" fill="rgb(255, 255, 255)" style="fill-opacity:1.00" />
<rect height="0.006118" width="25.000000" x="595.000000" y="329.987106" fill="rgb(255, 255, 255)" style="fill-opacity:1.00" />
<rect height="0.001529" width="25.000000" x="595.000000" y="329.991694" fill="rgb(255, 165, 0)" style="fill-opacity:0.44" />
<rect height="0.004588" width="6.250000" x="613.750000" y="329.991694" fill="rgb(255, 165, 0)" style="fill-opacity:0.44" />
<!-- End 'G' -->
<!-- Begin 'T' -->
<rect height="0.000587" width="50.000000" x="570.000000" y="329.996282" fill="rgb(0, 100, 0)" style="fill-opacity:0.44" />
<rect height="0.003671" width="10.000000" x="590.000000" y="329.996282" fill="rgb(0, 100, 0)" style="fill-opacity:0.44" />
<!-- End 'T' -->
<!-- Begin 'C' -->
<ellipse cx="595.000000" cy="329.999976" rx="25.000000" ry="0.000024" fill="rgb(0, 0, 128)" style="fill-opacity:0.44" />
<ellipse cx="595.000000" cy="329.999976" rx="16.666667" ry="0.000016" fill="rgb(255, 255, 255)" style="fill-opacity:1.00" />
<rect height="0.000024" width="25.000000" x="595.000000" y="329.999965" fill="rgb(255, 255, 255)" style="fill-opacity:1.00" />
<!-- End 'C' -->
<!-- Begin 'T' -->
<rect height="10.894783" width="50.000000" x="570.000000" y="340.000000" fill="rgb(0, 100, 0)" style="fill-opacity:0.04" />
<rect height="68.092397" width="10.000000" x="590.000000" y="340.000000" fill="rgb(0, 100, 0)" style="fill-opacity:0.04" />
<!-- End 'T' -->
<!-- Begin 'C' -->
<ellipse cx="595.000000" cy="416.383591" rx="25.000000" ry="8.291194" fill="rgb(0, 0, 128)" style="fill-opacity:0.04" />
<ellipse cx="595.000000" cy="416.383591" rx="16.666667" ry="5.527463" fill="rgb(255, 255, 255)" style="fill-opacity:1.00" />
<rect height="8.291194" width="25.000000" x="595.000000" y="412.237994" fill="rgb(255, 255, 255)" style="fill-opacity:1.00" />
<!-- End 'C' -->
<!-- Begin 'A' -->
<polygon points=" 570.000000, 439.999947, 591.000000, 424.674785, 599.000000, 424.674785, 620.000000, 439.999947, 612.500000, 439.999947, 606.250000, 436.168656, 583.750000, 436.168656, 577.500000, 439.999947" fill="rgb(178, 34, 34)" style="fill-opacity:0.04" />
<polygon points=" 595.000000, 427.739817, 587.000000, 432.869882, 602.000000, 432.869882" fill="rgb(255, 255, 255)" style="fill-opacity:1.00" />
<!-- End 'A' -->
<!-- Begin 'G' -->
<ellipse cx="595.000000" cy="439.999974" rx="25.000000" ry="0.000026" fill="rgb(255, 165, 0)" style="fill-opacity:0.04" />
<ellipse cx="595.000000" cy="439.999974" rx="16.666667" ry="0.000018" fill="rgb(255, 255, 255)" style="fill-opacity:1.00" />
<rect height="0.000026" width="25.000000" x="595.000000" y="439.999960" fill="rgb(255, 255, 255)" style="fill-opacity:1.00" />
<rect height="0.000007" width="25.000000" x="595.000000" y="439.999980" fill="rgb(255, 165, 0)" style="fill-opacity:0.04" />
<rect height="0.000020" width="6.250000" x="613.750000" y="439.999980" fill="rgb(255, 165, 0)" style="fill-opacity:0.04" />
<!-- End 'G' -->
<!-- Begin 'C' -->
<ellipse cx="655.000000" cy="46.161111" rx="25.000000" ry="36.161111" fill="rgb(0, 0, 128)" style="fill-opacity:0.93" />
<ellipse cx="655.000000" cy="46.161111" rx="16.666667" ry="24.107407" fill="rgb(255, 255, 255)" style="fill-opacity:1.00" />
<rect height="36.161111" width="25.000000" x="655.000000" y="28.080555" fill="rgb(255, 255, 255)" style="fill-opacity:1.00" />
<!-- End 'C' -->
<!-- Begin 'A' -->
<polygon points=" 630.000000, 101.818907, 651.000000, 82.322222, 659.000000, 82.322222, 680.000000, 101.818907, 672.500000, 101.818907, 666.250000, 96.944736, 643.750000, 96.944736, 637.500000, 101.818907" fill="rgb(178, 34, 34)" style="fill-opacity:0.93" />
<polygon points=" 655.000000, 86.221559, 647.000000, 93.020233, 662.000000, 93.020233" fill="rgb(255, 255, 255)" style="fill-opacity:1.00" />
<!-- End 'A' -->
<!-- Begin 'T' -->
<rect height="1.039963" width="50.000000" x="630.000000" y="101.818907" fill="rgb(0, 100, 0)" style="fill-opacity:0.93" />
<rect height="6.499768" width="10.000000" x="650.000000" y="101.818907" fill="rgb(0, 100, 0)" style="fill-opacity:0.93" />
<!-- End 'T' -->
<!-- Begin 'G' -->
<ellipse cx="655.000000" cy="109.159338" rx="25.000000" ry="0.840662" fill="rgb(255, 165, 0)" style="fill-opacity:0.93" />
<ellipse cx="655.000000" cy="109.159338" rx="16.666667" ry="0.560441" fill="rgb(255, 255, 255)" style="fill-opacity:1.00" />
<rect height="0.840662" width="25.000000" x="655.000000" y="108.739007" fill="rgb(255, 255, 255)" style="fill-opacity:1.00" />
<rect height="0.210166" width="25.000000" x="655.000000" y="109.369503" fill="rgb(255, 165, 0)" style="fill-opacity:0.93" />
<rect height="0.630497" width="6.250000" x="673.750000" y="109.369503" fill="rgb(255, 165, 0)" style="fill-opacity:0.93" />
<!-- End 'G' -->
<!-- Begin 'C' -->
<ellipse cx="655.000000" cy="150.590618" rx="25.000000" ry="30.590618" fill="rgb(0, 0, 128)" style="fill-opacity:0.01" />
<ellipse cx="655.000000" cy="150.590618" rx="16.666667" ry="20.393746" fill="rgb(255, 255, 255)" style="fill-opacity:1.00" />
<rect height="30.590618" width="25.000000" x="655.000000" y="135.295309" fill="rgb(255, 255, 255)" style="fill-opacity:1.00" />
<!-- End 'C' -->
<!-- Begin 'T' -->
<rect height="3.252916" width="50.000000" x="630.000000" y="181.181237" fill="rgb(0, 100, 0)" style="fill-opacity:0.01" />
<rect height="20.330726" width="10.000000" x="650.000000" y="181.181237" fill="rgb(0, 100, 0)" style="fill-opacity:0.01" />
<!-- End 'T' -->
<!-- Begin 'A' -->
<polygon points=" 630.000000, 219.999982, 651.000000, 201.511963, 659.000000, 201.511963, 680.000000, 219.999982, 672.500000, 219.999982, 666.250000, 215.377977, 643.750000, 215.377977, 637.500000, 219.999982" fill="rgb(178, 34, 34)" style="fill-opacity:0.01" />
<polygon points=" 655.000000, 205.209566, 647.000000, 211.604774, 662.000000, 211.604774" fill="rgb(255, 255, 255)" style="fill-opacity:1.00" />
<!-- End 'A' -->
<!-- Begin 'G' -->
<ellipse cx="655.000000" cy="219.999991" rx="25.000000" ry="0.000009" fill="rgb(255, 165, 0)" style="fill-opacity:0.01" />
<ellipse cx="655.000000" cy="219.999991" rx="16.666667" ry="0.000006" fill="rgb(255, 255, 255)" style="fill-opacity:1.00" />
<rect height="0.000009" width="25.000000" x="655.000000" y="219.999987" fill="rgb(255, 255, 255)" style="fill-opacity:1.00" />
<rect height="0.000002" width="25.000000" x="655.000000" y="219.999993" fill="rgb(255, 165, 0)" style="fill-opacity:0.01" />
<rect height="0.000007" width="6.250000" x="673.750000" y="219.999993" fill="rgb(255, 165, 0)" style="fill-opacity:0.01" />
<!-- End 'G' -->
<!-- Begin 'C' -->
<ellipse cx="655.000000" cy="255.433121" rx="25.000000" ry="25.433121" fill="rgb(0, 0, 128)" style="fill-opacity:0.02" />
<ellipse cx="655.000000" cy="255.433121" rx="16.666667" ry="16.955414" fill="rgb(255, 255, 255)" style="fill-opacity:1.00" />
<rect height="25.433121" width="25.000000" x="655.000000" y="242.716560" fill="rgb(255, 255, 255)" style="fill-opacity:1.00" />
<!-- End 'C' -->
<!-- Begin 'A' -->
<polygon points=" 630.000000, 329.348321, 651.000000, 280.866242, 659.000000, 280.866242, 680.000000, 329.348321, 672.500000, 329.348321, 666.250000, 317.227801, 643.750000, 317.227801, 637.500000, 329.348321" fill="rgb(178, 34, 34)" style="fill-opacity:0.02" />
<polygon points=" 655.000000, 290.562658, 647.000000, 308.955489, 662.000000, 308.955489" fill="rgb(255, 255, 255)" style="fill-opacity:1.00" />
<!-- End 'A' -->
<!-- Begin 'T' -->
<rect height="0.054785" width="50.000000" x="630.000000" y="329.348321" fill="rgb(0, 100, 0)" style="fill-opacity:0.02" />
<rect height="0.342404" width="10.000000" x="650.000000" y="329.348321" fill="rgb(0, 100, 0)" style="fill-opacity:0.02" />
<!-- End 'T' -->
<!-- Begin 'G' -->
<ellipse cx="655.000000" cy="329.845363" rx="25.000000" ry="0.154637" fill="rgb(255, 165, 0)" style="fill-opacity:0.02" />
<ellipse cx="655.000000" cy="329.845363" rx="16.666667" ry="0.103092" fill="rgb(255, 255, 255)" style="fill-opacity:1.00" />
<rect height="0.154637" width="25.000000" x="655.000000" y="329.768044" fill="rgb(255, 255, 255)" style="fill-opacity:1.00" />
<rect height="0.038659" width="25.000000" x="655.000000" y="329.884022" fill="rgb(255, 165, 0)" style="fill-opacity:0.02" />
<rect height="0.115978" width="6.250000" x="673.750000" y="329.884022" fill="rgb(255, 165, 0)" style="fill-opacity:0.02" />
<!-- End 'G' -->
<!-- Begin 'C' -->
<ellipse cx="655.000000" cy="363.201159" rx="25.000000" ry="23.201159" fill="rgb(0, 0, 128)" style="fill-opacity:0.04" />
<ellipse cx="655.000000" cy="363.201159" rx="16.666667" ry="15.467440" fill="rgb(255, 255, 255)" style="fill-opacity:1.00" />
<rect height="23.201159" width="25.000000" x="655.000000" y="351.600580" fill="rgb(255, 255, 255)" style="fill-opacity:1.00" />
<!-- End 'C' -->
<!-- Begin 'A' -->
<polygon points=" 630.000000, 415.017418, 651.000000, 386.402319, 659.000000, 386.402319, 680.000000, 415.017418, 672.500000, 415.017418, 666.250000, 407.863643, 643.750000, 407.863643, 637.500000, 415.017418" fill="rgb(178, 34, 34)" style="fill-opacity:0.04" />
<polygon points=" 655.000000, 392.125339, 647.000000, 402.571378, 662.000000, 402.571378" fill="rgb(255, 255, 255)" style="fill-opacity:1.00" />
<!-- End 'A' -->
<!-- Begin 'T' -->
<rect height="3.091585" width="50.000000" x="630.000000" y="415.017418" fill="rgb(0, 100, 0)" style="fill-opacity:0.04" />
<rect height="19.322407" width="10.000000" x="650.000000" y="415.017418" fill="rgb(0, 100, 0)" style="fill-opacity:0.04" />
<!-- End 'T' -->
<!-- Begin 'G' -->
<ellipse cx="655.000000" cy="437.169912" rx="25.000000" ry="2.830088" fill="rgb(255, 165, 0)" style="fill-opacity:0.04" />
<ellipse cx="655.000000" cy="437.169912" rx="16.666667" ry="1.886725" fill="rgb(255, 255, 255)" style="fill-opacity:1.00" />
<rect height="2.830088" width="25.000000" x="655.000000" y="435.754868" fill="rgb(255, 255, 255)" style="fill-opacity:1.00" />
<rect height="0.707522" width="25.000000" x="655.000000" y="437.877434" fill="rgb(255, 165, 0)" style="fill-opacity:0.04" />
<rect height="2.122566" width="6.250000" x="673.750000" y="437.877434" fill="rgb(255, 165, 0)" style="fill-opacity:0.04" />
<!-- End 'G' -->
<!-- Begin 'A' -->
<polygon points=" 690.000000, 37.244736, 711.000000, 10.000000, 719.000000, 10.000000, 740.000000, 37.244736, 732.500000, 37.244736, 726.250000, 30.433552, 703.750000, 30.433552, 697.500000, 37.244736" fill="rgb(178, 34, 34)" style="fill-opacity:0.20" />
<polygon points=" 715.000000, 15.448947, 707.000000, 25.346841, 722.000000, 25.346841" fill="rgb(255, 255, 255)" style="fill-opacity:1.00" />
<!-- End 'A' -->
<!-- Begin 'G' -->
<ellipse cx="715.000000" cy="50.838105" rx="25.000000" ry="13.593369" fill="rgb(255, 165, 0)" style="fill-opacity:0.20" />
<ellipse cx="715.000000" cy="50.838105" rx="16.666667" ry="9.062246" fill="rgb(255, 255, 255)" style="fill-opacity:1.00" />
<rect height="13.593369" width="25.000000" x="715.000000" y="44.041420" fill="rgb(255, 255, 255)" style="fill-opacity:1.00" />
<rect height="3.398342" width="25.000000" x="715.000000" y="54.236447" fill="rgb(255, 165, 0)" style="fill-opacity:0.20" />
<rect height="10.195027" width="6.250000" x="733.750000" y="54.236447" fill="rgb(255, 165, 0)" style="fill-opacity:0.20" />
<!-- End 'G' -->
<!-- Begin 'T' -->
<rect height="3.924346" width="50.000000" x="690.000000" y="64.431474" fill="rgb(0, 100, 0)" style="fill-opacity:0.20" />
<rect height="24.527163" width="10.000000" x="710.000000" y="64.431474" fill="rgb(0, 100, 0)" style="fill-opacity:0.20" />
<!-- End 'T' -->
<!-- Begin 'C' -->
<ellipse cx="715.000000" cy="99.479318" rx="25.000000" ry="10.520682" fill="rgb(0, 0, 128)" style="fill-opacity:0.20" />
<ellipse cx="715.000000" cy="99.479318" rx="16.666667" ry="7.013788" fill="rgb(255, 255, 255)" style="fill-opacity:1.00" />
<rect height="10.520682" width="25.000000" x="715.000000" y="94.218978" fill="rgb(255, 255, 255)" style="fill-opacity:1.00" />
<!-- End 'C' -->
<!-- Begin 'T' -->
<rect height="8.797301" width="50.000000" x="690.000000" y="120.000000" fill="rgb(0, 100, 0)" style="fill-opacity:0.71" />
<rect height="54.983130" width="10.000000" x="710.000000" y="120.000000" fill="rgb(0, 100, 0)" style="fill-opacity:0.71" />
<!-- End 'T' -->
<!-- Begin 'G' -->
<ellipse cx="715.000000" cy="183.511003" rx="25.000000" ry="8.527873" fill="rgb(255, 165, 0)" style="fill-opacity:0.71" />
<ellipse cx="715.000000" cy="183.511003" rx="16.666667" ry="5.685249" fill="rgb(255, 255, 255)" style="fill-opacity:1.00" />
<rect height="8.527873" width="25.000000" x="715.000000" y="179.247066" fill="rgb(255, 255, 255)" style="fill-opacity:1.00" />
<rect height="2.131968" width="25.000000" x="715.000000" y="185.642971" fill="rgb(255, 165, 0)" style="fill-opacity:0.71" />
<rect height="6.395905" width="6.250000" x="733.750000" y="185.642971" fill="rgb(255, 165, 0)" style="fill-opacity:0.71" />
<!-- End 'G' -->
<!-- Begin 'C' -->
<ellipse cx="715.000000" cy="200.125174" rx="25.000000" ry="8.086298" fill="rgb(0, 0, 128)" style="fill-opacity:0.71" />
<ellipse cx="715.000000" cy="200.125174" rx="16.666667" ry="5.390865" fill="rgb(255, 255, 255)" style="fill-opacity:1.00" />
<rect height="8.086298" width="25.000000" x="715.000000" y="196.082025" fill="rgb(255, 255, 255)" style="fill-opacity:1.00" />
<!-- End 'C' -->
<!-- Begin 'A' -->
<polygon points=" 690.000000, 220.000000, 711.000000, 208.211472, 719.000000, 208.211472, 740.000000, 220.000000, 732.500000, 220.000000, 726.250000, 217.052868, 703.750000, 217.052868, 697.500000, 220.000000" fill="rgb(178, 34, 34)" style="fill-opacity:0.71" />
<polygon points=" 715.000000, 210.569177, 707.000000, 214.284589, 722.000000, 214.284589" fill="rgb(255, 255, 255)" style="fill-opacity:1.00" />
<!-- End 'A' -->
<!-- Begin 'A' -->
<polygon points=" 690.000000, 276.706877, 711.000000, 230.000000, 719.000000, 230.000000, 740.000000, 276.706877, 732.500000, 276.706877, 726.250000, 265.030158, 703.750000, 265.030158, 697.500000, 276.706877" fill="rgb(178, 34, 34)" style="fill-opacity:0.02" />
<polygon points=" 715.000000, 239.341375, 707.000000, 257.024126, 722.000000, 257.024126" fill="rgb(255, 255, 255)" style="fill-opacity:1.00" />
<!-- End 'A' -->
<!-- Begin 'C' -->
<ellipse cx="715.000000" cy="286.965274" rx="25.000000" ry="10.258397" fill="rgb(0, 0, 128)" style="fill-opacity:0.02" />
<ellipse cx="715.000000" cy="286.965274" rx="16.666667" ry="6.838931" fill="rgb(255, 255, 255)" style="fill-opacity:1.00" />
<rect height="10.258397" width="25.000000" x="715.000000" y="281.836076" fill="rgb(255, 255, 255)" style="fill-opacity:1.00" />
<!-- End 'C' -->
<!-- Begin 'T' -->
<rect height="3.207156" width="50.000000" x="690.000000" y="297.223671" fill="rgb(0, 100, 0)" style="fill-opacity:0.02" />
<rect height="20.044726" width="10.000000" x="710.000000" y="297.223671" fill="rgb(0, 100, 0)" style="fill-opacity:0.02" />
<!-- End 'T' -->
<!-- Begin 'G' -->
<ellipse cx="715.000000" cy="323.634199" rx="25.000000" ry="6.365801" fill="rgb(255, 165, 0)" style="fill-opacity:0.02" />
<ellipse cx="715.000000" cy="323.634199" rx="16.666667" ry="4.243868" fill="rgb(255, 255, 255)" style="fill-opacity:1.00" />
<rect height="6.365801" width="25.000000" x="715.000000" y="320.451298" fill="rgb(255, 255, 255)" style="fill-opacity:1.00" />
<rect height="1.591450" width="25.000000" x="715.000000" y="325.225649" fill="rgb(255, 165, 0)" style="fill-opacity:0.02" />
<rect height="4.774351" width="6.250000" x="733.750000" y="325.225649" fill="rgb(255, 165, 0)" style="fill-opacity:0.02" />
<!-- End 'G' -->
<!-- Begin 'G' -->
<ellipse cx="715.000000" cy="366.060354" rx="25.000000" ry="26.060354" fill="rgb(255, 165, 0)" style="fill-opacity:0.07" />
<ellipse cx="715.000000" cy="366.060354" rx="16.666667" ry="17.373569" fill="rgb(255, 255, 255)" style="fill-opacity:1.00" />
<rect height="26.060354" width="25.000000" x="715.000000" y="353.030177" fill="rgb(255, 255, 255)" style="fill-opacity:1.00" />
<rect height="6.515089" width="25.000000" x="715.000000" y="372.575443" fill="rgb(255, 165, 0)" style="fill-opacity:0.07" />
<rect height="19.545266" width="6.250000" x="733.750000" y="372.575443" fill="rgb(255, 165, 0)" style="fill-opacity:0.07" />
<!-- End 'G' -->
<!-- Begin 'T' -->
<rect height="3.611729" width="50.000000" x="690.000000" y="392.120708" fill="rgb(0, 100, 0)" style="fill-opacity:0.07" />
<rect height="22.573309" width="10.000000" x="710.000000" y="392.120708" fill="rgb(0, 100, 0)" style="fill-opacity:0.07" />
<!-- End 'T' -->
<!-- Begin 'A' -->
<polygon points=" 690.000000, 435.819044, 711.000000, 414.694017, 719.000000, 414.694017, 740.000000, 435.819044, 732.500000, 435.819044, 726.250000, 430.537787, 703.750000, 430.537787, 697.500000, 435.819044" fill="rgb(178, 34, 34)" style="fill-opacity:0.07" />
<polygon points=" 715.000000, 418.919022, 707.000000, 426.369033, 722.000000, 426.369033" fill="rgb(255, 255, 255)" style="fill-opacity:1.00" />
<!-- End 'A' -->
<!-- Begin 'C' -->
<ellipse cx="715.000000" cy="437.909522" rx="25.000000" ry="2.090478" fill="rgb(0, 0, 128)" style="fill-opacity:0.07" />
<ellipse cx="715.000000" cy="437.909522" rx="16.666667" ry="1.393652" fill="rgb(255, 255, 255)" style="fill-opacity:1.00" />
<rect height="2.090478" width="25.000000" x="715.000000" y="436.864283" fill="rgb(255, 255, 255)" style="fill-opacity:1.00" />
<!-- End 'C' -->
<text x="400.000000" y="495">
IC = 7.54
</text>

</svg>
