<?xml version="1.0" encoding="UTF-8" standalone="yes"?>
                 <!DOCTYPE svg PUBLIC "-//W3C//DTD SVG 1.0//EN" "http://www.w3.org/TR/2001/REC-SVG-20010904/DTD/svg10.dtd">
                 <svg height="170" width="780" xmlns="http://www.w3.org/2000/svg" xmlns:xlink="http://www.w3.org/1999/xlink">
                 <line x1="85" y1="120" x2="747" y2="120" style="stroke:rgb(99,99,99);stroke-width:2" />
<rect height="7.000000" width="2.000000" x="85.000000" y="120.000000" fill="rgb(0, 0, 0)" style="fill-opacity:1.00" />
<text x="107.000000" y="140">
1
</text>
<rect height="7.000000" width="2.000000" x="145.000000" y="120.000000" fill="rgb(0, 0, 0)" style="fill-opacity:1.00" />
<text x="167.000000" y="140">
2
</text>
<rect height="7.000000" width="2.000000" x="205.000000" y="120.000000" fill="rgb(0, 0, 0)" style="fill-opacity:1.00" />
<text x="227.000000" y="140">
3
</text>
<rect height="7.000000" width="2.000000" x="265.000000" y="120.000000" fill="rgb(0, 0, 0)" style="fill-opacity:1.00" />
<text x="287.000000" y="140">
4
</text>
<rect height="7.000000" width="2.000000" x="325.000000" y="120.000000" fill="rgb(0, 0, 0)" style="fill-opacity:1.00" />
<text x="347.000000" y="140">
5
</text>
<rect height="7.000000" width="2.000000" x="385.000000" y="120.000000" fill="rgb(0, 0, 0)" style="fill-opacity:1.00" />
<text x="407.000000" y="140">
6
</text>
<rect height="7.000000" width="2.000000" x="445.000000" y="120.000000" fill="rgb(0, 0, 0)" style="fill-opacity:1.00" />
<text x="467.000000" y="140">
7
</text>
<rect height="7.000000" width="2.000000" x="505.000000" y="120.000000" fill="rgb(0, 0, 0)" style="fill-opacity:1.00" />
<text x="527.000000" y="140">
8
</text>
<rect height="7.000000" width="2.000000" x="565.000000" y="120.000000" fill="rgb(0, 0, 0)" style="fill-opacity:1.00" />
<text x="587.000000" y="140">
9
</text>
<rect height="7.000000" width="2.000000" x="625.000000" y="120.000000" fill="rgb(0, 0, 0)" style="fill-opacity:1.00" />
<text x="647.000000" y="140">
10
</text>
<rect height="7.000000" width="2.000000" x="685.000000" y="120.000000" fill="rgb(0, 0, 0)" style="fill-opacity:1.00" />
<text x="707.000000" y="140">
11
</text>
<rect height="7.000000" width="2.000000" x="745.000000" y="120.000000" fill="rgb(0, 0, 0)" style="fill-opacity:1.00" />
<line x1="80" y1="112" x2="80" y2="10" style="stroke:rgb(99,99,99);stroke-width:2" />
<rect height="2.000000" width="7.000000" x="73.000000" y="110.000000" fill="rgb(0, 0, 0)" style="fill-opacity:1.00" />
<text x="63" y="115">
0
</text>
<rect height="2.000000" width="7.000000" x="73.000000" y="60.000000" fill="rgb(0, 0, 0)" style="fill-opacity:1.00" />
<text x="63" y="65">
1
</text>
<rect height="2.000000" width="7.000000" x="73.000000" y="10.000000" fill="rgb(0, 0, 0)" style="fill-opacity:1.00" />
<text x="63" y="15">
2
</text>
<text x="50" y="65"
transform="rotate(-90, 50, 70)">
bits
</text>
<!-- Begin 'A' -->
<polygon points=" 90.000000, 103.027108, 111.000000, 95.024945, 119.000000, 95.024945, 140.000000, 103.027108, 132.500000, 103.027108, 126.250000, 101.026567, 103.750000, 101.026567, 97.500000, 103.027108" fill="rgb(178, 34, 34)" style="fill-opacity:1.00" />
<polygon points=" 115.000000, 96.625378, 107.000000, 98.826243, 122.000000, 98.826243" fill="rgb(255, 255, 255)" style="fill-opacity:1.00" />
<!-- End 'A' -->
<!-- Begin 'G' -->
<ellipse cx="115.000000" cy="104.511564" rx="25.000000" ry="1.484457" fill="rgb(255, 165, 0)" style="fill-opacity:1.00" />
<ellipse cx="115.000000" cy="104.511564" rx="16.666667" ry="0.989638" fill="rgb(255, 255, 255)" style="fill-opacity:1.00" />
<rect height="1.484457" width="25.000000" x="115.000000" y="103.769336" fill="rgb(255, 255, 255)" style="fill-opacity:1.00" />
<rect height="0.371114" width="25.000000" x="115.000000" y="104.882679" fill="rgb(255, 165, 0)" style="fill-opacity:1.00" />
<rect height="1.113342" width="6.250000" x="133.750000" y="104.882679" fill="rgb(255, 165, 0)" style="fill-opacity:1.00" />
<!-- End 'G' -->
<!-- Begin 'T' -->
<rect height="0.426675" width="50.000000" x="90.000000" y="105.996021" fill="rgb(0, 100, 0)" style="fill-opacity:1.00" />
<rect height="2.666719" width="10.000000" x="110.000000" y="105.996021" fill="rgb(0, 100, 0)" style="fill-opacity:1.00" />
<!-- End 'T' -->
<!-- Begin 'C' -->
<ellipse cx="115.000000" cy="109.331370" rx="25.000000" ry="0.668630" fill="rgb(0, 0, 128)" style="fill-opacity:1.00" />
<ellipse cx="115.000000" cy="109.331370" rx="16.666667" ry="0.445753" fill="rgb(255, 255, 255)" style="fill-opacity:1.00" />
<rect height="0.668630" width="25.000000" x="115.000000" y="108.997055" fill="rgb(255, 255, 255)" style="fill-opacity:1.00" />
<!-- End 'C' -->
<!-- Begin 'G' -->
<ellipse cx="175.000000" cy="66.540061" rx="25.000000" ry="38.816253" fill="rgb(255, 165, 0)" style="fill-opacity:1.00" />
<ellipse cx="175.000000" cy="66.540061" rx="16.666667" ry="25.877502" fill="rgb(255, 255, 255)" style="fill-opacity:1.00" />
<rect height="38.816253" width="25.000000" x="175.000000" y="47.131935" fill="rgb(255, 255, 255)" style="fill-opacity:1.00" />
<rect height="9.704063" width="25.000000" x="175.000000" y="76.244125" fill="rgb(255, 165, 0)" style="fill-opacity:1.00" />
<rect height="29.112189" width="6.250000" x="193.750000" y="76.244125" fill="rgb(255, 165, 0)" style="fill-opacity:1.00" />
<!-- End 'G' -->
<!-- Begin 'T' -->
<rect height="0.634078" width="50.000000" x="150.000000" y="105.356314" fill="rgb(0, 100, 0)" style="fill-opacity:1.00" />
<rect height="3.962985" width="10.000000" x="170.000000" y="105.356314" fill="rgb(0, 100, 0)" style="fill-opacity:1.00" />
<!-- End 'T' -->
<!-- Begin 'A' -->
<polygon points=" 150.000000, 109.788677, 171.000000, 109.319299, 179.000000, 109.319299, 200.000000, 109.788677, 192.500000, 109.788677, 186.250000, 109.671333, 163.750000, 109.671333, 157.500000, 109.788677" fill="rgb(178, 34, 34)" style="fill-opacity:1.00" />
<!-- End 'A' -->
<!-- Begin 'C' -->
<ellipse cx="175.000000" cy="109.894338" rx="25.000000" ry="0.105662" fill="rgb(0, 0, 128)" style="fill-opacity:1.00" />
<ellipse cx="175.000000" cy="109.894338" rx="16.666667" ry="0.070441" fill="rgb(255, 255, 255)" style="fill-opacity:1.00" />
<rect height="0.105662" width="25.000000" x="175.000000" y="109.841508" fill="rgb(255, 255, 255)" style="fill-opacity:1.00" />
<!-- End 'C' -->
<!-- Begin 'A' -->
<polygon points=" 210.000000, 101.120764, 231.000000, 52.715523, 239.000000, 52.715523, 260.000000, 101.120764, 252.500000, 101.120764, 246.250000, 89.019454, 223.750000, 89.019454, 217.500000, 101.120764" fill="rgb(178, 34, 34)" style="fill-opacity:1.00" />
<polygon points=" 235.000000, 62.396571, 227.000000, 80.758667, 242.000000, 80.758667" fill="rgb(255, 255, 255)" style="fill-opacity:1.00" />
<!-- End 'A' -->
<!-- Begin 'T' -->
<rect height="0.670615" width="50.000000" x="210.000000" y="101.120764" fill="rgb(0, 100, 0)" style="fill-opacity:1.00" />
<rect height="4.191341" width="10.000000" x="230.000000" y="101.120764" fill="rgb(0, 100, 0)" style="fill-opacity:1.00" />
<!-- End 'T' -->
<!-- Begin 'G' -->
<ellipse cx="235.000000" cy="106.801905" rx="25.000000" ry="1.489800" fill="rgb(255, 165, 0)" style="fill-opacity:1.00" />
<ellipse cx="235.000000" cy="106.801905" rx="16.666667" ry="0.993200" fill="rgb(255, 255, 255)" style="fill-opacity:1.00" />
<rect height="1.489800" width="25.000000" x="235.000000" y="106.057005" fill="rgb(255, 255, 255)" style="fill-opacity:1.00" />
<rect height="0.372450" width="25.000000" x="235.000000" y="107.174355" fill="rgb(255, 165, 0)" style="fill-opacity:1.00" />
<rect height="1.117350" width="6.250000" x="253.750000" y="107.174355" fill="rgb(255, 165, 0)" style="fill-opacity:1.00" />
<!-- End 'G' -->
<!-- Begin 'C' -->
<ellipse cx="235.000000" cy="109.145852" rx="25.000000" ry="0.854148" fill="rgb(0, 0, 128)" style="fill-opacity:1.00" />
<ellipse cx="235.000000" cy="109.145852" rx="16.666667" ry="0.569432" fill="rgb(255, 255, 255)" style="fill-opacity:1.00" />
<rect height="0.854148" width="25.000000" x="235.000000" y="108.718779" fill="rgb(255, 255, 255)" style="fill-opacity:1.00" />
<!-- End 'C' -->
<!-- Begin 'A' -->
<polygon points=" 270.000000, 90.687258, 291.000000, 57.484059, 299.000000, 57.484059, 320.000000, 90.687258, 312.500000, 90.687258, 306.250000, 82.386458, 283.750000, 82.386458, 277.500000, 90.687258" fill="rgb(178, 34, 34)" style="fill-opacity:1.00" />
<polygon points=" 295.000000, 64.124699, 287.000000, 76.405978, 302.000000, 76.405978" fill="rgb(255, 255, 255)" style="fill-opacity:1.00" />
<!-- End 'A' -->
<!-- Begin 'T' -->
<rect height="3.089621" width="50.000000" x="270.000000" y="90.687258" fill="rgb(0, 100, 0)" style="fill-opacity:1.00" />
<rect height="19.310130" width="10.000000" x="290.000000" y="90.687258" fill="rgb(0, 100, 0)" style="fill-opacity:1.00" />
<!-- End 'T' -->
<!-- Begin 'G' -->
<ellipse cx="295.000000" cy="109.998355" rx="25.000000" ry="0.000968" fill="rgb(255, 165, 0)" style="fill-opacity:1.00" />
<ellipse cx="295.000000" cy="109.998355" rx="16.666667" ry="0.000645" fill="rgb(255, 255, 255)" style="fill-opacity:1.00" />
<rect height="0.000968" width="25.000000" x="295.000000" y="109.997871" fill="rgb(255, 255, 255)" style="fill-opacity:1.00" />
<rect height="0.000242" width="25.000000" x="295.000000" y="109.998596" fill="rgb(255, 165, 0)" style="fill-opacity:1.00" />
<rect height="0.000726" width="6.250000" x="313.750000" y="109.998596" fill="rgb(255, 165, 0)" style="fill-opacity:1.00" />
<!-- End 'G' -->
<!-- Begin 'C' -->
<ellipse cx="295.000000" cy="109.999661" rx="25.000000" ry="0.000339" fill="rgb(0, 0, 128)" style="fill-opacity:1.00" />
<ellipse cx="295.000000" cy="109.999661" rx="16.666667" ry="0.000226" fill="rgb(255, 255, 255)" style="fill-opacity:1.00" />
<rect height="0.000339" width="25.000000" x="295.000000" y="109.999492" fill="rgb(255, 255, 255)" style="fill-opacity:1.00" />
<!-- End 'C' -->
<!-- Begin 'T' -->
<rect height="9.929965" width="50.000000" x="330.000000" y="40.877183" fill="rgb(0, 100, 0)" style="fill-opacity:1.00" />
<rect height="62.062282" width="10.000000" x="350.000000" y="40.877183" fill="rgb(0, 100, 0)" style="fill-opacity:1.00" />
<!-- End 'T' -->
<!-- Begin 'G' -->
<ellipse cx="355.000000" cy="104.856046" rx="25.000000" ry="1.916581" fill="rgb(255, 165, 0)" style="fill-opacity:1.00" />
<ellipse cx="355.000000" cy="104.856046" rx="16.666667" ry="1.277721" fill="rgb(255, 255, 255)" style="fill-opacity:1.00" />
<rect height="1.916581" width="25.000000" x="355.000000" y="103.897755" fill="rgb(255, 255, 255)" style="fill-opacity:1.00" />
<rect height="0.479145" width="25.000000" x="355.000000" y="105.335191" fill="rgb(255, 165, 0)" style="fill-opacity:1.00" />
<rect height="1.437436" width="6.250000" x="373.750000" y="105.335191" fill="rgb(255, 165, 0)" style="fill-opacity:1.00" />
<!-- End 'G' -->
<!-- Begin 'A' -->
<polygon points=" 330.000000, 109.083892, 351.000000, 106.772627, 359.000000, 106.772627, 380.000000, 109.083892, 372.500000, 109.083892, 366.250000, 108.506076, 343.750000, 108.506076, 337.500000, 109.083892" fill="rgb(178, 34, 34)" style="fill-opacity:1.00" />
<!-- End 'A' -->
<!-- Begin 'C' -->
<ellipse cx="355.000000" cy="109.541946" rx="25.000000" ry="0.458054" fill="rgb(0, 0, 128)" style="fill-opacity:1.00" />
<ellipse cx="355.000000" cy="109.541946" rx="16.666667" ry="0.305369" fill="rgb(255, 255, 255)" style="fill-opacity:1.00" />
<rect height="0.458054" width="25.000000" x="355.000000" y="109.312919" fill="rgb(255, 255, 255)" style="fill-opacity:1.00" />
<!-- End 'C' -->
<!-- Begin 'C' -->
<ellipse cx="415.000000" cy="72.268437" rx="25.000000" ry="25.078630" fill="rgb(0, 0, 128)" style="fill-opacity:1.00" />
<ellipse cx="415.000000" cy="72.268437" rx="16.666667" ry="16.719087" fill="rgb(255, 255, 255)" style="fill-opacity:1.00" />
<rect height="25.078630" width="25.000000" x="415.000000" y="59.729122" fill="rgb(255, 255, 255)" style="fill-opacity:1.00" />
<!-- End 'C' -->
<!-- Begin 'A' -->
<polygon points=" 390.000000, 109.867732, 411.000000, 97.347068, 419.000000, 97.347068, 440.000000, 109.867732, 432.500000, 109.867732, 426.250000, 106.737566, 403.750000, 106.737566, 397.500000, 109.867732" fill="rgb(178, 34, 34)" style="fill-opacity:1.00" />
<polygon points=" 415.000000, 99.851201, 407.000000, 103.859466, 422.000000, 103.859466" fill="rgb(255, 255, 255)" style="fill-opacity:1.00" />
<!-- End 'A' -->
<!-- Begin 'G' -->
<ellipse cx="415.000000" cy="109.901580" rx="25.000000" ry="0.033848" fill="rgb(255, 165, 0)" style="fill-opacity:1.00" />
<ellipse cx="415.000000" cy="109.901580" rx="16.666667" ry="0.022565" fill="rgb(255, 255, 255)" style="fill-opacity:1.00" />
<rect height="0.033848" width="25.000000" x="415.000000" y="109.884656" fill="rgb(255, 255, 255)" style="fill-opacity:1.00" />
<rect height="0.008462" width="25.000000" x="415.000000" y="109.910042" fill="rgb(255, 165, 0)" style="fill-opacity:1.00" />
<rect height="0.025386" width="6.250000" x="433.750000" y="109.910042" fill="rgb(255, 165, 0)" style="fill-opacity:1.00" />
<!-- End 'G' -->
<!-- Begin 'T' -->
<rect height="0.010332" width="50.000000" x="390.000000" y="109.935428" fill="rgb(0, 100, 0)" style="fill-opacity:1.00" />
<rect height="0.064572" width="10.000000" x="410.000000" y="109.935428" fill="rgb(0, 100, 0)" style="fill-opacity:1.00" />
<!-- End 'T' -->
<!-- Begin 'T' -->
<rect height="2.527007" width="50.000000" x="450.000000" y="84.904052" fill="rgb(0, 100, 0)" style="fill-opacity:1.00" />
<rect height="15.793795" width="10.000000" x="470.000000" y="84.904052" fill="rgb(0, 100, 0)" style="fill-opacity:1.00" />
<!-- End 'T' -->
<!-- Begin 'A' -->
<polygon points=" 450.000000, 104.760122, 471.000000, 100.697848, 479.000000, 100.697848, 500.000000, 104.760122, 492.500000, 104.760122, 486.250000, 103.744554, 463.750000, 103.744554, 457.500000, 104.760122" fill="rgb(178, 34, 34)" style="fill-opacity:1.00" />
<!-- End 'A' -->
<!-- Begin 'C' -->
<ellipse cx="475.000000" cy="106.628463" rx="25.000000" ry="1.868341" fill="rgb(0, 0, 128)" style="fill-opacity:1.00" />
<ellipse cx="475.000000" cy="106.628463" rx="16.666667" ry="1.245561" fill="rgb(255, 255, 255)" style="fill-opacity:1.00" />
<rect height="1.868341" width="25.000000" x="475.000000" y="105.694293" fill="rgb(255, 255, 255)" style="fill-opacity:1.00" />
<!-- End 'C' -->
<!-- Begin 'G' -->
<ellipse cx="475.000000" cy="109.248402" rx="25.000000" ry="0.751598" fill="rgb(255, 165, 0)" style="fill-opacity:1.00" />
<ellipse cx="475.000000" cy="109.248402" rx="16.666667" ry="0.501065" fill="rgb(255, 255, 255)" style="fill-opacity:1.00" />
<rect height="0.751598" width="25.000000" x="475.000000" y="108.872603" fill="rgb(255, 255, 255)" style="fill-opacity:1.00" />
<rect height="0.187899" width="25.000000" x="475.000000" y="109.436302" fill="rgb(255, 165, 0)" style="fill-opacity:1.00" />
<rect height="0.563698" width="6.250000" x="493.750000" y="109.436302" fill="rgb(255, 165, 0)" style="fill-opacity:1.00" />
<!-- End 'G' -->
<!-- Begin 'T' -->
<rect height="0.222459" width="50.000000" x="510.000000" y="106.275833" fill="rgb(0, 100, 0)" style="fill-opacity:1.00" />
<rect height="1.390371" width="10.000000" x="530.000000" y="106.275833" fill="rgb(0, 100, 0)" style="fill-opacity:1.00" />
<!-- End 'T' -->
<!-- Begin 'A' -->
<polygon points=" 510.000000, 108.673610, 531.000000, 107.666203, 539.000000, 107.666203, 560.000000, 108.673610, 552.500000, 108.673610, 546.250000, 108.421759, 523.750000, 108.421759, 517.500000, 108.673610" fill="rgb(178, 34, 34)" style="fill-opacity:1.00" />
<!-- End 'A' -->
<!-- Begin 'G' -->
<ellipse cx="535.000000" cy="109.034681" rx="25.000000" ry="0.361070" fill="rgb(255, 165, 0)" style="fill-opacity:1.00" />
<ellipse cx="535.000000" cy="109.034681" rx="16.666667" ry="0.240714" fill="rgb(255, 255, 255)" style="fill-opacity:1.00" />
<rect height="0.361070" width="25.000000" x="535.000000" y="108.854146" fill="rgb(255, 255, 255)" style="fill-opacity:1.00" />
<rect height="0.090268" width="25.000000" x="535.000000" y="109.124948" fill="rgb(255, 165, 0)" style="fill-opacity:1.00" />
<rect height="0.270803" width="6.250000" x="553.750000" y="109.124948" fill="rgb(255, 165, 0)" style="fill-opacity:1.00" />
<!-- End 'G' -->
<!-- Begin 'C' -->
<ellipse cx="535.000000" cy="109.697876" rx="25.000000" ry="0.302124" fill="rgb(0, 0, 128)" style="fill-opacity:1.00" />
<ellipse cx="535.000000" cy="109.697876" rx="16.666667" ry="0.201416" fill="rgb(255, 255, 255)" style="fill-opacity:1.00" />
<rect height="0.302124" width="25.000000" x="535.000000" y="109.546813" fill="rgb(255, 255, 255)" style="fill-opacity:1.00" />
<!-- End 'C' -->
<!-- Begin 'T' -->
<rect height="0.113093" width="50.000000" x="570.000000" y="107.594789" fill="rgb(0, 100, 0)" style="fill-opacity:1.00" />
<rect height="0.706828" width="10.000000" x="590.000000" y="107.594789" fill="rgb(0, 100, 0)" style="fill-opacity:1.00" />
<!-- End 'T' -->
<!-- Begin 'C' -->
<ellipse cx="595.000000" cy="108.640236" rx="25.000000" ry="0.338619" fill="rgb(0, 0, 128)" style="fill-opacity:1.00" />
<ellipse cx="595.000000" cy="108.640236" rx="16.666667" ry="0.225746" fill="rgb(255, 255, 255)" style="fill-opacity:1.00" />
<rect height="0.338619" width="25.000000" x="595.000000" y="108.470927" fill="rgb(255, 255, 255)" style="fill-opacity:1.00" />
<!-- End 'C' -->
<!-- Begin 'A' -->
<polygon points=" 570.000000, 109.651573, 591.000000, 108.978856, 599.000000, 108.978856, 620.000000, 109.651573, 612.500000, 109.651573, 606.250000, 109.483394, 583.750000, 109.483394, 577.500000, 109.651573" fill="rgb(178, 34, 34)" style="fill-opacity:1.00" />
<!-- End 'A' -->
<!-- Begin 'G' -->
<ellipse cx="595.000000" cy="109.825787" rx="25.000000" ry="0.174213" fill="rgb(255, 165, 0)" style="fill-opacity:1.00" />
<ellipse cx="595.000000" cy="109.825787" rx="16.666667" ry="0.116142" fill="rgb(255, 255, 255)" style="fill-opacity:1.00" />
<rect height="0.174213" width="25.000000" x="595.000000" y="109.738680" fill="rgb(255, 255, 255)" style="fill-opacity:1.00" />
<rect height="0.043553" width="25.000000" x="595.000000" y="109.869340" fill="rgb(255, 165, 0)" style="fill-opacity:1.00" />
<rect height="0.130660" width="6.250000" x="613.750000" y="109.869340" fill="rgb(255, 165, 0)" style="fill-opacity:1.00" />
<!-- End 'G' -->
<!-- Begin 'T' -->
<rect height="0.128815" width="50.000000" x="630.000000" y="107.505034" fill="rgb(0, 100, 0)" style="fill-opacity:1.00" />
<rect height="0.805095" width="10.000000" x="650.000000" y="107.505034" fill="rgb(0, 100, 0)" style="fill-opacity:1.00" />
<!-- End 'T' -->
<!-- Begin 'A' -->
<polygon points=" 630.000000, 109.070641, 651.000000, 108.310129, 659.000000, 108.310129, 680.000000, 109.070641, 672.500000, 109.070641, 666.250000, 108.880513, 643.750000, 108.880513, 637.500000, 109.070641" fill="rgb(178, 34, 34)" style="fill-opacity:1.00" />
<!-- End 'A' -->
<!-- Begin 'G' -->
<ellipse cx="655.000000" cy="109.323506" rx="25.000000" ry="0.252866" fill="rgb(255, 165, 0)" style="fill-opacity:1.00" />
<ellipse cx="655.000000" cy="109.323506" rx="16.666667" ry="0.168577" fill="rgb(255, 255, 255)" style="fill-opacity:1.00" />
<rect height="0.252866" width="25.000000" x="655.000000" y="109.197073" fill="rgb(255, 255, 255)" style="fill-opacity:1.00" />
<rect height="0.063216" width="25.000000" x="655.000000" y="109.386723" fill="rgb(255, 165, 0)" style="fill-opacity:1.00" />
<rect height="0.189649" width="6.250000" x="673.750000" y="109.386723" fill="rgb(255, 165, 0)" style="fill-opacity:1.00" />
<!-- End 'G' -->
<!-- Begin 'C' -->
<ellipse cx="655.000000" cy="109.788186" rx="25.000000" ry="0.211814" fill="rgb(0, 0, 128)" style="fill-opacity:1.00" />
<ellipse cx="655.000000" cy="109.788186" rx="16.666667" ry="0.141209" fill="rgb(255, 255, 255)" style="fill-opacity:1.00" />
<rect height="0.211814" width="25.000000" x="655.000000" y="109.682279" fill="rgb(255, 255, 255)" style="fill-opacity:1.00" />
<!-- End 'C' -->
<!-- Begin 'A' -->
<polygon points=" 690.000000, 107.975341, 711.000000, 106.962551, 719.000000, 106.962551, 740.000000, 107.975341, 732.500000, 107.975341, 726.250000, 107.722144, 703.750000, 107.722144, 697.500000, 107.975341" fill="rgb(178, 34, 34)" style="fill-opacity:1.00" />
<!-- End 'A' -->
<!-- Begin 'T' -->
<rect height="0.148810" width="50.000000" x="690.000000" y="107.975341" fill="rgb(0, 100, 0)" style="fill-opacity:1.00" />
<rect height="0.930061" width="10.000000" x="710.000000" y="107.975341" fill="rgb(0, 100, 0)" style="fill-opacity:1.00" />
<!-- End 'T' -->
<!-- Begin 'G' -->
<ellipse cx="715.000000" cy="109.207928" rx="25.000000" ry="0.302526" fill="rgb(255, 165, 0)" style="fill-opacity:1.00" />
<ellipse cx="715.000000" cy="109.207928" rx="16.666667" ry="0.201684" fill="rgb(255, 255, 255)" style="fill-opacity:1.00" />
<rect height="0.302526" width="25.000000" x="715.000000" y="109.056665" fill="rgb(255, 255, 255)" style="fill-opacity:1.00" />
<rect height="0.075631" width="25.000000" x="715.000000" y="109.283559" fill="rgb(255, 165, 0)" style="fill-opacity:1.00" />
<rect height="0.226894" width="6.250000" x="733.750000" y="109.283559" fill="rgb(255, 165, 0)" style="fill-opacity:1.00" />
<!-- End 'G' -->
<!-- Begin 'C' -->
<ellipse cx="715.000000" cy="109.755227" rx="25.000000" ry="0.244773" fill="rgb(0, 0, 128)" style="fill-opacity:1.00" />
<ellipse cx="715.000000" cy="109.755227" rx="16.666667" ry="0.163182" fill="rgb(255, 255, 255)" style="fill-opacity:1.00" />
<rect height="0.244773" width="25.000000" x="715.000000" y="109.632840" fill="rgb(255, 255, 255)" style="fill-opacity:1.00" />
<!-- End 'C' -->
<text x="400.000000" y="165">
IC = 7.51
</text>

</svg>
