<?xml version="1.0" encoding="UTF-8" standalone="yes"?>
                 <!DOCTYPE svg PUBLIC "-//W3C//DTD SVG 1.0//EN" "http://www.w3.org/TR/2001/REC-SVG-20010904/DTD/svg10.dtd">
                 <svg height="500" width="840" xmlns="http://www.w3.org/2000/svg" xmlns:xlink="http://www.w3.org/1999/xlink">
                 <line x1="85" y1="450" x2="807" y2="450" style="stroke:rgb(99,99,99);stroke-width:2" />
<rect height="7.000000" width="2.000000" x="85.000000" y="450.000000" fill="rgb(0, 0, 0)" style="fill-opacity:1.00" />
<text x="107.000000" y="470">
1
</text>
<rect height="7.000000" width="2.000000" x="145.000000" y="450.000000" fill="rgb(0, 0, 0)" style="fill-opacity:1.00" />
<text x="167.000000" y="470">
2
</text>
<rect height="7.000000" width="2.000000" x="205.000000" y="450.000000" fill="rgb(0, 0, 0)" style="fill-opacity:1.00" />
<text x="227.000000" y="470">
3
</text>
<rect height="7.000000" width="2.000000" x="265.000000" y="450.000000" fill="rgb(0, 0, 0)" style="fill-opacity:1.00" />
<text x="287.000000" y="470">
4
</text>
<rect height="7.000000" width="2.000000" x="325.000000" y="450.000000" fill="rgb(0, 0, 0)" style="fill-opacity:1.00" />
<text x="347.000000" y="470">
5
</text>
<rect height="7.000000" width="2.000000" x="385.000000" y="450.000000" fill="rgb(0, 0, 0)" style="fill-opacity:1.00" />
<text x="407.000000" y="470">
6
</text>
<rect height="7.000000" width="2.000000" x="445.000000" y="450.000000" fill="rgb(0, 0, 0)" style="fill-opacity:1.00" />
<text x="467.000000" y="470">
7
</text>
<rect height="7.000000" width="2.000000" x="505.000000" y="450.000000" fill="rgb(0, 0, 0)" style="fill-opacity:1.00" />
<text x="527.000000" y="470">
8
</text>
<rect height="7.000000" width="2.000000" x="565.000000" y="450.000000" fill="rgb(0, 0, 0)" style="fill-opacity:1.00" />
<text x="587.000000" y="470">
9
</text>
<rect height="7.000000" width="2.000000" x="625.000000" y="450.000000" fill="rgb(0, 0, 0)" style="fill-opacity:1.00" />
<text x="647.000000" y="470">
10
</text>
<rect height="7.000000" width="2.000000" x="685.000000" y="450.000000" fill="rgb(0, 0, 0)" style="fill-opacity:1.00" />
<text x="707.000000" y="470">
11
</text>
<rect height="7.000000" width="2.000000" x="745.000000" y="450.000000" fill="rgb(0, 0, 0)" style="fill-opacity:1.00" />
<text x="767.000000" y="470">
12
</text>
<rect height="7.000000" width="2.000000" x="805.000000" y="450.000000" fill="rgb(0, 0, 0)" style="fill-opacity:1.00" />
<!-- Begin 'A' -->
<polygon points=" 10.000000, 110.000000, 35.200000, 10.000000, 44.800000, 10.000000, 70.000000, 110.000000, 61.000000, 110.000000, 53.500000, 85.000000, 26.500000, 85.000000, 19.000000, 110.000000" fill="rgb(178, 34, 34)" style="fill-opacity:1.00" />
<polygon points=" 40.000000, 30.000000, 30.400000, 69.000000, 48.400000, 69.000000" fill="rgb(255, 255, 255)" style="fill-opacity:1.00" />
<!-- End 'A' -->
<!-- Begin 'C' -->
<ellipse cx="40.000000" cy="170.000000" rx="30.000000" ry="50.000000" fill="rgb(0, 0, 128)" style="fill-opacity:1.00" />
<ellipse cx="40.000000" cy="170.000000" rx="20.000000" ry="33.333333" fill="rgb(255, 255, 255)" style="fill-opacity:1.00" />
<rect height="50.000000" width="30.000000" x="40.000000" y="145.000000" fill="rgb(255, 255, 255)" style="fill-opacity:1.00" />
<!-- End 'C' -->
<!-- Begin 'G' -->
<ellipse cx="40.000000" cy="280.000000" rx="30.000000" ry="50.000000" fill="rgb(255, 165, 0)" style="fill-opacity:1.00" />
<ellipse cx="40.000000" cy="280.000000" rx="20.000000" ry="33.333333" fill="rgb(255, 255, 255)" style="fill-opacity:1.00" />
<rect height="50.000000" width="30.000000" x="40.000000" y="255.000000" fill="rgb(255, 255, 255)" style="fill-opacity:1.00" />
<rect height="12.500000" width="30.000000" x="40.000000" y="292.500000" fill="rgb(255, 165, 0)" style="fill-opacity:1.00" />
<rect height="37.500000" width="7.500000" x="62.500000" y="292.500000" fill="rgb(255, 165, 0)" style="fill-opacity:1.00" />
<!-- End 'G' -->
<!-- Begin 'T' -->
<rect height="16.000000" width="60.000000" x="10.000000" y="340.000000" fill="rgb(0, 100, 0)" style="fill-opacity:1.00" />
<rect height="100.000000" width="12.000000" x="34.000000" y="340.000000" fill="rgb(0, 100, 0)" style="fill-opacity:1.00" />
<!-- End 'T' -->
<!-- Begin 'A' -->
<polygon points=" 90.000000, 52.188835, 111.000000, 10.000000, 119.000000, 10.000000, 140.000000, 52.188835, 132.500000, 52.188835, 126.250000, 41.641627, 103.750000, 41.641627, 97.500000, 52.188835" fill="rgb(178, 34, 34)" style="fill-opacity:0.19" />
<polygon points=" 115.000000, 18.437767, 107.000000, 34.313301, 122.000000, 34.313301" fill="rgb(255, 255, 255)" style="fill-opacity:1.00" />
<!-- End 'A' -->
<!-- Begin 'G' -->
<ellipse cx="115.000000" cy="68.573324" rx="25.000000" ry="16.384488" fill="rgb(255, 165, 0)" style="fill-opacity:0.19" />
<ellipse cx="115.000000" cy="68.573324" rx="16.666667" ry="10.922992" fill="rgb(255, 255, 255)" style="fill-opacity:1.00" />
<rect height="16.384488" width="25.000000" x="115.000000" y="60.381080" fill="rgb(255, 255, 255)" style="fill-opacity:1.00" />
<rect height="4.096122" width="25.000000" x="115.000000" y="72.669446" fill="rgb(255, 165, 0)" style="fill-opacity:0.19" />
<rect height="12.288366" width="6.250000" x="133.750000" y="72.669446" fill="rgb(255, 165, 0)" style="fill-opacity:0.19" />
<!-- End 'G' -->
<!-- Begin 'C' -->
<ellipse cx="115.000000" cy="92.010107" rx="25.000000" ry="7.052295" fill="rgb(0, 0, 128)" style="fill-opacity:0.19" />
<ellipse cx="115.000000" cy="92.010107" rx="16.666667" ry="4.701530" fill="rgb(255, 255, 255)" style="fill-opacity:1.00" />
<rect height="7.052295" width="25.000000" x="115.000000" y="88.483959" fill="rgb(255, 255, 255)" style="fill-opacity:1.00" />
<!-- End 'C' -->
<!-- Begin 'T' -->
<rect height="1.750016" width="50.000000" x="90.000000" y="99.062401" fill="rgb(0, 100, 0)" style="fill-opacity:0.19" />
<rect height="10.937599" width="10.000000" x="110.000000" y="99.062401" fill="rgb(0, 100, 0)" style="fill-opacity:0.19" />
<!-- End 'T' -->
<!-- Begin 'A' -->
<polygon points=" 90.000000, 157.773932, 111.000000, 120.000000, 119.000000, 120.000000, 140.000000, 157.773932, 132.500000, 157.773932, 126.250000, 148.330449, 103.750000, 148.330449, 97.500000, 157.773932" fill="rgb(178, 34, 34)" style="fill-opacity:0.31" />
<polygon points=" 115.000000, 127.554786, 107.000000, 141.664359, 122.000000, 141.664359" fill="rgb(255, 255, 255)" style="fill-opacity:1.00" />
<!-- End 'A' -->
<!-- Begin 'C' -->
<ellipse cx="115.000000" cy="170.151701" rx="25.000000" ry="12.377769" fill="rgb(0, 0, 128)" style="fill-opacity:0.31" />
<ellipse cx="115.000000" cy="170.151701" rx="16.666667" ry="8.251846" fill="rgb(255, 255, 255)" style="fill-opacity:1.00" />
<rect height="12.377769" width="25.000000" x="115.000000" y="163.962817" fill="rgb(255, 255, 255)" style="fill-opacity:1.00" />
<!-- End 'C' -->
<!-- Begin 'T' -->
<rect height="3.273843" width="50.000000" x="90.000000" y="182.529469" fill="rgb(0, 100, 0)" style="fill-opacity:0.31" />
<rect height="20.461520" width="10.000000" x="110.000000" y="182.529469" fill="rgb(0, 100, 0)" style="fill-opacity:0.31" />
<!-- End 'T' -->
<!-- Begin 'G' -->
<ellipse cx="115.000000" cy="211.495495" rx="25.000000" ry="8.504505" fill="rgb(255, 165, 0)" style="fill-opacity:0.31" />
<ellipse cx="115.000000" cy="211.495495" rx="16.666667" ry="5.669670" fill="rgb(255, 255, 255)" style="fill-opacity:1.00" />
<rect height="8.504505" width="25.000000" x="115.000000" y="207.243242" fill="rgb(255, 255, 255)" style="fill-opacity:1.00" />
<rect height="2.126126" width="25.000000" x="115.000000" y="213.621621" fill="rgb(255, 165, 0)" style="fill-opacity:0.31" />
<rect height="6.378379" width="6.250000" x="133.750000" y="213.621621" fill="rgb(255, 165, 0)" style="fill-opacity:0.31" />
<!-- End 'G' -->
<!-- Begin 'A' -->
<polygon points=" 90.000000, 270.935333, 111.000000, 230.000000, 119.000000, 230.000000, 140.000000, 270.935333, 132.500000, 270.935333, 126.250000, 260.701500, 103.750000, 260.701500, 97.500000, 270.935333" fill="rgb(178, 34, 34)" style="fill-opacity:0.30" />
<polygon points=" 115.000000, 238.187067, 107.000000, 253.561200, 122.000000, 253.561200" fill="rgb(255, 255, 255)" style="fill-opacity:1.00" />
<!-- End 'A' -->
<!-- Begin 'G' -->
<ellipse cx="115.000000" cy="285.916150" rx="25.000000" ry="14.980816" fill="rgb(255, 165, 0)" style="fill-opacity:0.30" />
<ellipse cx="115.000000" cy="285.916150" rx="16.666667" ry="9.987211" fill="rgb(255, 255, 255)" style="fill-opacity:1.00" />
<rect height="14.980816" width="25.000000" x="115.000000" y="278.425741" fill="rgb(255, 255, 255)" style="fill-opacity:1.00" />
<rect height="3.745204" width="25.000000" x="115.000000" y="289.661354" fill="rgb(255, 165, 0)" style="fill-opacity:0.30" />
<rect height="11.235612" width="6.250000" x="133.750000" y="289.661354" fill="rgb(255, 165, 0)" style="fill-opacity:0.30" />
<!-- End 'G' -->
<!-- Begin 'C' -->
<ellipse cx="115.000000" cy="309.788501" rx="25.000000" ry="8.891535" fill="rgb(0, 0, 128)" style="fill-opacity:0.30" />
<ellipse cx="115.000000" cy="309.788501" rx="16.666667" ry="5.927690" fill="rgb(255, 255, 255)" style="fill-opacity:1.00" />
<rect height="8.891535" width="25.000000" x="115.000000" y="305.342733" fill="rgb(255, 255, 255)" style="fill-opacity:1.00" />
<!-- End 'C' -->
<!-- Begin 'T' -->
<rect height="1.811194" width="50.000000" x="90.000000" y="318.680035" fill="rgb(0, 100, 0)" style="fill-opacity:0.30" />
<rect height="11.319965" width="10.000000" x="110.000000" y="318.680035" fill="rgb(0, 100, 0)" style="fill-opacity:0.30" />
<!-- End 'T' -->
<!-- Begin 'G' -->
<ellipse cx="115.000000" cy="358.810911" rx="25.000000" ry="18.810911" fill="rgb(255, 165, 0)" style="fill-opacity:0.20" />
<ellipse cx="115.000000" cy="358.810911" rx="16.666667" ry="12.540608" fill="rgb(255, 255, 255)" style="fill-opacity:1.00" />
<rect height="18.810911" width="25.000000" x="115.000000" y="349.405456" fill="rgb(255, 255, 255)" style="fill-opacity:1.00" />
<rect height="4.702728" width="25.000000" x="115.000000" y="363.513639" fill="rgb(255, 165, 0)" style="fill-opacity:0.20" />
<rect height="14.108183" width="6.250000" x="133.750000" y="363.513639" fill="rgb(255, 165, 0)" style="fill-opacity:0.20" />
<!-- End 'G' -->
<!-- Begin 'A' -->
<polygon points=" 90.000000, 399.966983, 111.000000, 377.621823, 119.000000, 377.621823, 140.000000, 399.966983, 132.500000, 399.966983, 126.250000, 394.380693, 103.750000, 394.380693, 97.500000, 399.966983" fill="rgb(178, 34, 34)" style="fill-opacity:0.20" />
<polygon points=" 115.000000, 382.090855, 107.000000, 390.028919, 122.000000, 390.028919" fill="rgb(255, 255, 255)" style="fill-opacity:1.00" />
<!-- End 'A' -->
<!-- Begin 'C' -->
<ellipse cx="115.000000" cy="410.265813" rx="25.000000" ry="10.298829" fill="rgb(0, 0, 128)" style="fill-opacity:0.20" />
<ellipse cx="115.000000" cy="410.265813" rx="16.666667" ry="6.865886" fill="rgb(255, 255, 255)" style="fill-opacity:1.00" />
<rect height="10.298829" width="25.000000" x="115.000000" y="405.116398" fill="rgb(255, 255, 255)" style="fill-opacity:1.00" />
<!-- End 'C' -->
<!-- Begin 'T' -->
<rect height="3.109657" width="50.000000" x="90.000000" y="420.564642" fill="rgb(0, 100, 0)" style="fill-opacity:0.20" />
<rect height="19.435358" width="10.000000" x="110.000000" y="420.564642" fill="rgb(0, 100, 0)" style="fill-opacity:0.20" />
<!-- End 'T' -->
<!-- Begin 'A' -->
<polygon points=" 150.000000, 62.890059, 171.000000, 10.000000, 179.000000, 10.000000, 200.000000, 62.890059, 192.500000, 62.890059, 186.250000, 49.667544, 163.750000, 49.667544, 157.500000, 62.890059" fill="rgb(178, 34, 34)" style="fill-opacity:0.36" />
<polygon points=" 175.000000, 20.578012, 167.000000, 40.734035, 182.000000, 40.734035" fill="rgb(255, 255, 255)" style="fill-opacity:1.00" />
<!-- End 'A' -->
<!-- Begin 'G' -->
<ellipse cx="175.000000" cy="75.092661" rx="25.000000" ry="12.202602" fill="rgb(255, 165, 0)" style="fill-opacity:0.36" />
<ellipse cx="175.000000" cy="75.092661" rx="16.666667" ry="8.135068" fill="rgb(255, 255, 255)" style="fill-opacity:1.00" />
<rect height="12.202602" width="25.000000" x="175.000000" y="68.991360" fill="rgb(255, 255, 255)" style="fill-opacity:1.00" />
<rect height="3.050650" width="25.000000" x="175.000000" y="78.143311" fill="rgb(255, 165, 0)" style="fill-opacity:0.36" />
<rect height="9.151951" width="6.250000" x="193.750000" y="78.143311" fill="rgb(255, 165, 0)" style="fill-opacity:0.36" />
<!-- End 'G' -->
<!-- Begin 'C' -->
<ellipse cx="175.000000" cy="93.378757" rx="25.000000" ry="6.083494" fill="rgb(0, 0, 128)" style="fill-opacity:0.36" />
<ellipse cx="175.000000" cy="93.378757" rx="16.666667" ry="4.055663" fill="rgb(255, 255, 255)" style="fill-opacity:1.00" />
<rect height="6.083494" width="25.000000" x="175.000000" y="90.337010" fill="rgb(255, 255, 255)" style="fill-opacity:1.00" />
<!-- End 'C' -->
<!-- Begin 'T' -->
<rect height="1.686040" width="50.000000" x="150.000000" y="99.462251" fill="rgb(0, 100, 0)" style="fill-opacity:0.36" />
<rect height="10.537749" width="10.000000" x="170.000000" y="99.462251" fill="rgb(0, 100, 0)" style="fill-opacity:0.36" />
<!-- End 'T' -->
<!-- Begin 'A' -->
<polygon points=" 150.000000, 157.138083, 171.000000, 120.000000, 179.000000, 120.000000, 200.000000, 157.138083, 192.500000, 157.138083, 186.250000, 147.853562, 163.750000, 147.853562, 157.500000, 157.138083" fill="rgb(178, 34, 34)" style="fill-opacity:0.20" />
<polygon points=" 175.000000, 127.427617, 167.000000, 141.282850, 182.000000, 141.282850" fill="rgb(255, 255, 255)" style="fill-opacity:1.00" />
<!-- End 'A' -->
<!-- Begin 'T' -->
<rect height="4.200147" width="50.000000" x="150.000000" y="157.138083" fill="rgb(0, 100, 0)" style="fill-opacity:0.20" />
<rect height="26.250920" width="10.000000" x="170.000000" y="157.138083" fill="rgb(0, 100, 0)" style="fill-opacity:0.20" />
<!-- End 'T' -->
<!-- Begin 'G' -->
<ellipse cx="175.000000" cy="192.791503" rx="25.000000" ry="9.402500" fill="rgb(255, 165, 0)" style="fill-opacity:0.20" />
<ellipse cx="175.000000" cy="192.791503" rx="16.666667" ry="6.268334" fill="rgb(255, 255, 255)" style="fill-opacity:1.00" />
<rect height="9.402500" width="25.000000" x="175.000000" y="188.090253" fill="rgb(255, 255, 255)" style="fill-opacity:1.00" />
<rect height="2.350625" width="25.000000" x="175.000000" y="195.142128" fill="rgb(255, 165, 0)" style="fill-opacity:0.20" />
<rect height="7.051875" width="6.250000" x="193.750000" y="195.142128" fill="rgb(255, 165, 0)" style="fill-opacity:0.20" />
<!-- End 'G' -->
<!-- Begin 'C' -->
<ellipse cx="175.000000" cy="211.097002" rx="25.000000" ry="8.902998" fill="rgb(0, 0, 128)" style="fill-opacity:0.20" />
<ellipse cx="175.000000" cy="211.097002" rx="16.666667" ry="5.935332" fill="rgb(255, 255, 255)" style="fill-opacity:1.00" />
<rect height="8.902998" width="25.000000" x="175.000000" y="206.645502" fill="rgb(255, 255, 255)" style="fill-opacity:1.00" />
<!-- End 'C' -->
<!-- Begin 'A' -->
<polygon points=" 150.000000, 274.293738, 171.000000, 230.000000, 179.000000, 230.000000, 200.000000, 274.293738, 192.500000, 274.293738, 186.250000, 263.220304, 163.750000, 263.220304, 157.500000, 274.293738" fill="rgb(178, 34, 34)" style="fill-opacity:0.28" />
<polygon points=" 175.000000, 238.858748, 167.000000, 255.576243, 182.000000, 255.576243" fill="rgb(255, 255, 255)" style="fill-opacity:1.00" />
<!-- End 'A' -->
<!-- Begin 'G' -->
<ellipse cx="175.000000" cy="288.323742" rx="25.000000" ry="14.030003" fill="rgb(255, 165, 0)" style="fill-opacity:0.28" />
<ellipse cx="175.000000" cy="288.323742" rx="16.666667" ry="9.353336" fill="rgb(255, 255, 255)" style="fill-opacity:1.00" />
<rect height="14.030003" width="25.000000" x="175.000000" y="281.308740" fill="rgb(255, 255, 255)" style="fill-opacity:1.00" />
<rect height="3.507501" width="25.000000" x="175.000000" y="291.831242" fill="rgb(255, 165, 0)" style="fill-opacity:0.28" />
<rect height="10.522502" width="6.250000" x="193.750000" y="291.831242" fill="rgb(255, 165, 0)" style="fill-opacity:0.28" />
<!-- End 'G' -->
<!-- Begin 'C' -->
<ellipse cx="175.000000" cy="310.504126" rx="25.000000" ry="8.150381" fill="rgb(0, 0, 128)" style="fill-opacity:0.28" />
<ellipse cx="175.000000" cy="310.504126" rx="16.666667" ry="5.433587" fill="rgb(255, 255, 255)" style="fill-opacity:1.00" />
<rect height="8.150381" width="25.000000" x="175.000000" y="306.428935" fill="rgb(255, 255, 255)" style="fill-opacity:1.00" />
<!-- End 'C' -->
<!-- Begin 'T' -->
<rect height="1.815279" width="50.000000" x="150.000000" y="318.654507" fill="rgb(0, 100, 0)" style="fill-opacity:0.28" />
<rect height="11.345493" width="10.000000" x="170.000000" y="318.654507" fill="rgb(0, 100, 0)" style="fill-opacity:0.28" />
<!-- End 'T' -->
<!-- Begin 'T' -->
<rect height="5.886805" width="50.000000" x="150.000000" y="340.000000" fill="rgb(0, 100, 0)" style="fill-opacity:0.16" />
<rect height="36.792532" width="10.000000" x="170.000000" y="340.000000" fill="rgb(0, 100, 0)" style="fill-opacity:0.16" />
<!-- End 'T' -->
<!-- Begin 'G' -->
<ellipse cx="175.000000" cy="389.184661" rx="25.000000" ry="12.392129" fill="rgb(255, 165, 0)" style="fill-opacity:0.16" />
<ellipse cx="175.000000" cy="389.184661" rx="16.666667" ry="8.261420" fill="rgb(255, 255, 255)" style="fill-opacity:1.00" />
<rect height="12.392129" width="25.000000" x="175.000000" y="382.988597" fill="rgb(255, 255, 255)" style="fill-opacity:1.00" />
<rect height="3.098032" width="25.000000" x="175.000000" y="392.282694" fill="rgb(255, 165, 0)" style="fill-opacity:0.16" />
<rect height="9.294097" width="6.250000" x="193.750000" y="392.282694" fill="rgb(255, 165, 0)" style="fill-opacity:0.16" />
<!-- End 'G' -->
<!-- Begin 'A' -->
<polygon points=" 150.000000, 425.602992, 171.000000, 401.576791, 179.000000, 401.576791, 200.000000, 425.602992, 192.500000, 425.602992, 186.250000, 419.596441, 163.750000, 419.596441, 157.500000, 425.602992" fill="rgb(178, 34, 34)" style="fill-opacity:0.16" />
<polygon points=" 175.000000, 406.382031, 167.000000, 414.992511, 182.000000, 414.992511" fill="rgb(255, 255, 255)" style="fill-opacity:1.00" />
<!-- End 'A' -->
<!-- Begin 'C' -->
<ellipse cx="175.000000" cy="432.801496" rx="25.000000" ry="7.198504" fill="rgb(0, 0, 128)" style="fill-opacity:0.16" />
<ellipse cx="175.000000" cy="432.801496" rx="16.666667" ry="4.799003" fill="rgb(255, 255, 255)" style="fill-opacity:1.00" />
<rect height="7.198504" width="25.000000" x="175.000000" y="429.202244" fill="rgb(255, 255, 255)" style="fill-opacity:1.00" />
<!-- End 'C' -->
<!-- Begin 'C' -->
<ellipse cx="235.000000" cy="26.081667" rx="25.000000" ry="16.081667" fill="rgb(0, 0, 128)" style="fill-opacity:0.43" />
<ellipse cx="235.000000" cy="26.081667" rx="16.666667" ry="10.721111" fill="rgb(255, 255, 255)" style="fill-opacity:1.00" />
<rect height="16.081667" width="25.000000" x="235.000000" y="18.040833" fill="rgb(255, 255, 255)" style="fill-opacity:1.00" />
<!-- End 'C' -->
<!-- Begin 'G' -->
<ellipse cx="235.000000" cy="55.937480" rx="25.000000" ry="13.774146" fill="rgb(255, 165, 0)" style="fill-opacity:0.43" />
<ellipse cx="235.000000" cy="55.937480" rx="16.666667" ry="9.182764" fill="rgb(255, 255, 255)" style="fill-opacity:1.00" />
<rect height="13.774146" width="25.000000" x="235.000000" y="49.050407" fill="rgb(255, 255, 255)" style="fill-opacity:1.00" />
<rect height="3.443537" width="25.000000" x="235.000000" y="59.381016" fill="rgb(255, 165, 0)" style="fill-opacity:0.43" />
<rect height="10.330610" width="6.250000" x="253.750000" y="59.381016" fill="rgb(255, 165, 0)" style="fill-opacity:0.43" />
<!-- End 'G' -->
<!-- Begin 'A' -->
<polygon points=" 210.000000, 97.245416, 231.000000, 69.711626, 239.000000, 69.711626, 260.000000, 97.245416, 252.500000, 97.245416, 246.250000, 90.361968, 223.750000, 90.361968, 217.500000, 97.245416" fill="rgb(178, 34, 34)" style="fill-opacity:0.43" />
<polygon points=" 235.000000, 75.218384, 227.000000, 85.231900, 242.000000, 85.231900" fill="rgb(255, 255, 255)" style="fill-opacity:1.00" />
<!-- End 'A' -->
<!-- Begin 'T' -->
<rect height="2.040733" width="50.000000" x="210.000000" y="97.245416" fill="rgb(0, 100, 0)" style="fill-opacity:0.43" />
<rect height="12.754584" width="10.000000" x="230.000000" y="97.245416" fill="rgb(0, 100, 0)" style="fill-opacity:0.43" />
<!-- End 'T' -->
<!-- Begin 'C' -->
<ellipse cx="235.000000" cy="137.221078" rx="25.000000" ry="17.221078" fill="rgb(0, 0, 128)" style="fill-opacity:0.15" />
<ellipse cx="235.000000" cy="137.221078" rx="16.666667" ry="11.480719" fill="rgb(255, 255, 255)" style="fill-opacity:1.00" />
<rect height="17.221078" width="25.000000" x="235.000000" y="128.610539" fill="rgb(255, 255, 255)" style="fill-opacity:1.00" />
<!-- End 'C' -->
<!-- Begin 'A' -->
<polygon points=" 210.000000, 182.295925, 231.000000, 154.442156, 239.000000, 154.442156, 260.000000, 182.295925, 252.500000, 182.295925, 246.250000, 175.332483, 223.750000, 175.332483, 217.500000, 182.295925" fill="rgb(178, 34, 34)" style="fill-opacity:0.15" />
<polygon points=" 235.000000, 160.012910, 227.000000, 170.154417, 242.000000, 170.154417" fill="rgb(255, 255, 255)" style="fill-opacity:1.00" />
<!-- End 'A' -->
<!-- Begin 'T' -->
<rect height="3.107011" width="50.000000" x="210.000000" y="182.295925" fill="rgb(0, 100, 0)" style="fill-opacity:0.15" />
<rect height="19.418820" width="10.000000" x="230.000000" y="182.295925" fill="rgb(0, 100, 0)" style="fill-opacity:0.15" />
<!-- End 'T' -->
<!-- Begin 'G' -->
<ellipse cx="235.000000" cy="210.857373" rx="25.000000" ry="9.142627" fill="rgb(255, 165, 0)" style="fill-opacity:0.15" />
<ellipse cx="235.000000" cy="210.857373" rx="16.666667" ry="6.095085" fill="rgb(255, 255, 255)" style="fill-opacity:1.00" />
<rect height="9.142627" width="25.000000" x="235.000000" y="206.286059" fill="rgb(255, 255, 255)" style="fill-opacity:1.00" />
<rect height="2.285657" width="25.000000" x="235.000000" y="213.143029" fill="rgb(255, 165, 0)" style="fill-opacity:0.15" />
<rect height="6.856971" width="6.250000" x="253.750000" y="213.143029" fill="rgb(255, 165, 0)" style="fill-opacity:0.15" />
<!-- End 'G' -->
<!-- Begin 'G' -->
<ellipse cx="235.000000" cy="250.602960" rx="25.000000" ry="20.602960" fill="rgb(255, 165, 0)" style="fill-opacity:0.24" />
<ellipse cx="235.000000" cy="250.602960" rx="16.666667" ry="13.735307" fill="rgb(255, 255, 255)" style="fill-opacity:1.00" />
<rect height="20.602960" width="25.000000" x="235.000000" y="240.301480" fill="rgb(255, 255, 255)" style="fill-opacity:1.00" />
<rect height="5.150740" width="25.000000" x="235.000000" y="255.753700" fill="rgb(255, 165, 0)" style="fill-opacity:0.24" />
<rect height="15.452220" width="6.250000" x="253.750000" y="255.753700" fill="rgb(255, 165, 0)" style="fill-opacity:0.24" />
<!-- End 'G' -->
<!-- Begin 'A' -->
<polygon points=" 210.000000, 301.189089, 231.000000, 271.205920, 239.000000, 271.205920, 260.000000, 301.189089, 252.500000, 301.189089, 246.250000, 293.693296, 223.750000, 293.693296, 217.500000, 301.189089" fill="rgb(178, 34, 34)" style="fill-opacity:0.24" />
<polygon points=" 235.000000, 277.202553, 227.000000, 288.195821, 242.000000, 288.195821" fill="rgb(255, 255, 255)" style="fill-opacity:1.00" />
<!-- End 'A' -->
<!-- Begin 'C' -->
<ellipse cx="235.000000" cy="310.680871" rx="25.000000" ry="9.491782" fill="rgb(0, 0, 128)" style="fill-opacity:0.24" />
<ellipse cx="235.000000" cy="310.680871" rx="16.666667" ry="6.327855" fill="rgb(255, 255, 255)" style="fill-opacity:1.00" />
<rect height="9.491782" width="25.000000" x="235.000000" y="305.934980" fill="rgb(255, 255, 255)" style="fill-opacity:1.00" />
<!-- End 'C' -->
<!-- Begin 'T' -->
<rect height="1.572375" width="50.000000" x="210.000000" y="320.172653" fill="rgb(0, 100, 0)" style="fill-opacity:0.24" />
<rect height="9.827347" width="10.000000" x="230.000000" y="320.172653" fill="rgb(0, 100, 0)" style="fill-opacity:0.24" />
<!-- End 'T' -->
<!-- Begin 'C' -->
<ellipse cx="235.000000" cy="361.956037" rx="25.000000" ry="21.956037" fill="rgb(0, 0, 128)" style="fill-opacity:0.18" />
<ellipse cx="235.000000" cy="361.956037" rx="16.666667" ry="14.637358" fill="rgb(255, 255, 255)" style="fill-opacity:1.00" />
<rect height="21.956037" width="25.000000" x="235.000000" y="350.978018" fill="rgb(255, 255, 255)" style="fill-opacity:1.00" />
<!-- End 'C' -->
<!-- Begin 'T' -->
<rect height="3.469600" width="50.000000" x="210.000000" y="383.912074" fill="rgb(0, 100, 0)" style="fill-opacity:0.18" />
<rect height="21.684997" width="10.000000" x="230.000000" y="383.912074" fill="rgb(0, 100, 0)" style="fill-opacity:0.18" />
<!-- End 'T' -->
<!-- Begin 'G' -->
<ellipse cx="235.000000" cy="414.540239" rx="25.000000" ry="8.943168" fill="rgb(255, 165, 0)" style="fill-opacity:0.18" />
<ellipse cx="235.000000" cy="414.540239" rx="16.666667" ry="5.962112" fill="rgb(255, 255, 255)" style="fill-opacity:1.00" />
<rect height="8.943168" width="25.000000" x="235.000000" y="410.068655" fill="rgb(255, 255, 255)" style="fill-opacity:1.00" />
<rect height="2.235792" width="25.000000" x="235.000000" y="416.776031" fill="rgb(255, 165, 0)" style="fill-opacity:0.18" />
<rect height="6.707376" width="6.250000" x="253.750000" y="416.776031" fill="rgb(255, 165, 0)" style="fill-opacity:0.18" />
<!-- End 'G' -->
<!-- Begin 'A' -->
<polygon points=" 210.000000, 440.000000, 231.000000, 423.483406, 239.000000, 423.483406, 260.000000, 440.000000, 252.500000, 440.000000, 246.250000, 435.870852, 223.750000, 435.870852, 217.500000, 440.000000" fill="rgb(178, 34, 34)" style="fill-opacity:0.18" />
<polygon points=" 235.000000, 426.786725, 227.000000, 432.393363, 242.000000, 432.393363" fill="rgb(255, 255, 255)" style="fill-opacity:1.00" />
<!-- End 'A' -->
<!-- Begin 'C' -->
<ellipse cx="295.000000" cy="40.014305" rx="25.000000" ry="30.014305" fill="rgb(0, 0, 128)" style="fill-opacity:0.26" />
<ellipse cx="295.000000" cy="40.014305" rx="16.666667" ry="20.009537" fill="rgb(255, 255, 255)" style="fill-opacity:1.00" />
<rect height="30.014305" width="25.000000" x="295.000000" y="25.007153" fill="rgb(255, 255, 255)" style="fill-opacity:1.00" />
<!-- End 'C' -->
<!-- Begin 'G' -->
<ellipse cx="295.000000" cy="84.278456" rx="25.000000" ry="14.249845" fill="rgb(255, 165, 0)" style="fill-opacity:0.26" />
<ellipse cx="295.000000" cy="84.278456" rx="16.666667" ry="9.499897" fill="rgb(255, 255, 255)" style="fill-opacity:1.00" />
<rect height="14.249845" width="25.000000" x="295.000000" y="77.153534" fill="rgb(255, 255, 255)" style="fill-opacity:1.00" />
<rect height="3.562461" width="25.000000" x="295.000000" y="87.840918" fill="rgb(255, 165, 0)" style="fill-opacity:0.26" />
<rect height="10.687384" width="6.250000" x="313.750000" y="87.840918" fill="rgb(255, 165, 0)" style="fill-opacity:0.26" />
<!-- End 'G' -->
<!-- Begin 'A' -->
<polygon points=" 270.000000, 107.955205, 291.000000, 98.528301, 299.000000, 98.528301, 320.000000, 107.955205, 312.500000, 107.955205, 306.250000, 105.598479, 283.750000, 105.598479, 277.500000, 107.955205" fill="rgb(178, 34, 34)" style="fill-opacity:0.26" />
<polygon points=" 295.000000, 100.413682, 287.000000, 103.184443, 302.000000, 103.184443" fill="rgb(255, 255, 255)" style="fill-opacity:1.00" />
<!-- End 'A' -->
<!-- Begin 'T' -->
<rect height="0.327167" width="50.000000" x="270.000000" y="107.955205" fill="rgb(0, 100, 0)" style="fill-opacity:0.26" />
<rect height="2.044795" width="10.000000" x="290.000000" y="107.955205" fill="rgb(0, 100, 0)" style="fill-opacity:0.26" />
<!-- End 'T' -->
<!-- Begin 'C' -->
<ellipse cx="295.000000" cy="162.426249" rx="25.000000" ry="42.426249" fill="rgb(0, 0, 128)" style="fill-opacity:0.31" />
<ellipse cx="295.000000" cy="162.426249" rx="16.666667" ry="28.284166" fill="rgb(255, 255, 255)" style="fill-opacity:1.00" />
<rect height="42.426249" width="25.000000" x="295.000000" y="141.213125" fill="rgb(255, 255, 255)" style="fill-opacity:1.00" />
<!-- End 'C' -->
<!-- Begin 'A' -->
<polygon points=" 270.000000, 213.432013, 291.000000, 204.852498, 299.000000, 204.852498, 320.000000, 213.432013, 312.500000, 213.432013, 306.250000, 211.287134, 283.750000, 211.287134, 277.500000, 213.432013" fill="rgb(178, 34, 34)" style="fill-opacity:0.31" />
<polygon points=" 295.000000, 206.568401, 287.000000, 209.000207, 302.000000, 209.000207" fill="rgb(255, 255, 255)" style="fill-opacity:1.00" />
<!-- End 'A' -->
<!-- Begin 'G' -->
<ellipse cx="295.000000" cy="215.543070" rx="25.000000" ry="2.111057" fill="rgb(255, 165, 0)" style="fill-opacity:0.31" />
<ellipse cx="295.000000" cy="215.543070" rx="16.666667" ry="1.407371" fill="rgb(255, 255, 255)" style="fill-opacity:1.00" />
<rect height="2.111057" width="25.000000" x="295.000000" y="214.487541" fill="rgb(255, 255, 255)" style="fill-opacity:1.00" />
<rect height="0.527764" width="25.000000" x="295.000000" y="216.070834" fill="rgb(255, 165, 0)" style="fill-opacity:0.31" />
<rect height="1.583293" width="6.250000" x="313.750000" y="216.070834" fill="rgb(255, 165, 0)" style="fill-opacity:0.31" />
<!-- End 'G' -->
<!-- Begin 'T' -->
<rect height="0.375340" width="50.000000" x="270.000000" y="217.654127" fill="rgb(0, 100, 0)" style="fill-opacity:0.31" />
<rect height="2.345873" width="10.000000" x="290.000000" y="217.654127" fill="rgb(0, 100, 0)" style="fill-opacity:0.31" />
<!-- End 'T' -->
<!-- Begin 'C' -->
<ellipse cx="295.000000" cy="255.113170" rx="25.000000" ry="25.113170" fill="rgb(0, 0, 128)" style="fill-opacity:0.28" />
<ellipse cx="295.000000" cy="255.113170" rx="16.666667" ry="16.742113" fill="rgb(255, 255, 255)" style="fill-opacity:1.00" />
<rect height="25.113170" width="25.000000" x="295.000000" y="242.556585" fill="rgb(255, 255, 255)" style="fill-opacity:1.00" />
<!-- End 'C' -->
<!-- Begin 'G' -->
<ellipse cx="295.000000" cy="298.839703" rx="25.000000" ry="18.613363" fill="rgb(255, 165, 0)" style="fill-opacity:0.28" />
<ellipse cx="295.000000" cy="298.839703" rx="16.666667" ry="12.408909" fill="rgb(255, 255, 255)" style="fill-opacity:1.00" />
<rect height="18.613363" width="25.000000" x="295.000000" y="289.533021" fill="rgb(255, 255, 255)" style="fill-opacity:1.00" />
<rect height="4.653341" width="25.000000" x="295.000000" y="303.493044" fill="rgb(255, 165, 0)" style="fill-opacity:0.28" />
<rect height="13.960022" width="6.250000" x="313.750000" y="303.493044" fill="rgb(255, 165, 0)" style="fill-opacity:0.28" />
<!-- End 'G' -->
<!-- Begin 'A' -->
<polygon points=" 270.000000, 327.499140, 291.000000, 317.453066, 299.000000, 317.453066, 320.000000, 327.499140, 312.500000, 327.499140, 306.250000, 324.987621, 283.750000, 324.987621, 277.500000, 327.499140" fill="rgb(178, 34, 34)" style="fill-opacity:0.28" />
<polygon points=" 295.000000, 319.462281, 287.000000, 322.480710, 302.000000, 322.480710" fill="rgb(255, 255, 255)" style="fill-opacity:1.00" />
<!-- End 'A' -->
<!-- Begin 'T' -->
<rect height="0.400138" width="50.000000" x="270.000000" y="327.499140" fill="rgb(0, 100, 0)" style="fill-opacity:0.28" />
<rect height="2.500860" width="10.000000" x="290.000000" y="327.499140" fill="rgb(0, 100, 0)" style="fill-opacity:0.28" />
<!-- End 'T' -->
<!-- Begin 'C' -->
<ellipse cx="295.000000" cy="365.317622" rx="25.000000" ry="25.317622" fill="rgb(0, 0, 128)" style="fill-opacity:0.15" />
<ellipse cx="295.000000" cy="365.317622" rx="16.666667" ry="16.878415" fill="rgb(255, 255, 255)" style="fill-opacity:1.00" />
<rect height="25.317622" width="25.000000" x="295.000000" y="352.658811" fill="rgb(255, 255, 255)" style="fill-opacity:1.00" />
<!-- End 'C' -->
<!-- Begin 'G' -->
<ellipse cx="295.000000" cy="408.200644" rx="25.000000" ry="17.565399" fill="rgb(255, 165, 0)" style="fill-opacity:0.15" />
<ellipse cx="295.000000" cy="408.200644" rx="16.666667" ry="11.710266" fill="rgb(255, 255, 255)" style="fill-opacity:1.00" />
<rect height="17.565399" width="25.000000" x="295.000000" y="399.417944" fill="rgb(255, 255, 255)" style="fill-opacity:1.00" />
<rect height="4.391350" width="25.000000" x="295.000000" y="412.591994" fill="rgb(255, 165, 0)" style="fill-opacity:0.15" />
<rect height="13.174049" width="6.250000" x="313.750000" y="412.591994" fill="rgb(255, 165, 0)" style="fill-opacity:0.15" />
<!-- End 'G' -->
<!-- Begin 'A' -->
<polygon points=" 270.000000, 439.498472, 291.000000, 425.766043, 299.000000, 425.766043, 320.000000, 439.498472, 312.500000, 439.498472, 306.250000, 436.065365, 283.750000, 436.065365, 277.500000, 439.498472" fill="rgb(178, 34, 34)" style="fill-opacity:0.15" />
<polygon points=" 295.000000, 428.512529, 287.000000, 433.005500, 302.000000, 433.005500" fill="rgb(255, 255, 255)" style="fill-opacity:1.00" />
<!-- End 'A' -->
<!-- Begin 'T' -->
<rect height="0.080244" width="50.000000" x="270.000000" y="439.498472" fill="rgb(0, 100, 0)" style="fill-opacity:0.15" />
<rect height="0.501528" width="10.000000" x="290.000000" y="439.498472" fill="rgb(0, 100, 0)" style="fill-opacity:0.15" />
<!-- End 'T' -->
<!-- Begin 'A' -->
<polygon points=" 330.000000, 65.422147, 351.000000, 10.000000, 359.000000, 10.000000, 380.000000, 65.422147, 372.500000, 65.422147, 366.250000, 51.566610, 343.750000, 51.566610, 337.500000, 65.422147" fill="rgb(178, 34, 34)" style="fill-opacity:0.10" />
<polygon points=" 355.000000, 21.084429, 347.000000, 42.253288, 362.000000, 42.253288" fill="rgb(255, 255, 255)" style="fill-opacity:1.00" />
<!-- End 'A' -->
<!-- Begin 'C' -->
<ellipse cx="355.000000" cy="80.028654" rx="25.000000" ry="14.606507" fill="rgb(0, 0, 128)" style="fill-opacity:0.10" />
<ellipse cx="355.000000" cy="80.028654" rx="16.666667" ry="9.737671" fill="rgb(255, 255, 255)" style="fill-opacity:1.00" />
<rect height="14.606507" width="25.000000" x="355.000000" y="72.725401" fill="rgb(255, 255, 255)" style="fill-opacity:1.00" />
<!-- End 'C' -->
<!-- Begin 'G' -->
<ellipse cx="355.000000" cy="102.311654" rx="25.000000" ry="7.676493" fill="rgb(255, 165, 0)" style="fill-opacity:0.10" />
<ellipse cx="355.000000" cy="102.311654" rx="16.666667" ry="5.117662" fill="rgb(255, 255, 255)" style="fill-opacity:1.00" />
<rect height="7.676493" width="25.000000" x="355.000000" y="98.473407" fill="rgb(255, 255, 255)" style="fill-opacity:1.00" />
<rect height="1.919123" width="25.000000" x="355.000000" y="104.230777" fill="rgb(255, 165, 0)" style="fill-opacity:0.10" />
<rect height="5.757369" width="6.250000" x="373.750000" y="104.230777" fill="rgb(255, 165, 0)" style="fill-opacity:0.10" />
<!-- End 'G' -->
<!-- Begin 'T' -->
<rect height="0.001897" width="50.000000" x="330.000000" y="109.988146" fill="rgb(0, 100, 0)" style="fill-opacity:0.10" />
<rect height="0.011854" width="10.000000" x="350.000000" y="109.988146" fill="rgb(0, 100, 0)" style="fill-opacity:0.10" />
<!-- End 'T' -->
<!-- Begin 'A' -->
<polygon points=" 330.000000, 175.151143, 351.000000, 120.000000, 359.000000, 120.000000, 380.000000, 175.151143, 372.500000, 175.151143, 366.250000, 161.363357, 343.750000, 161.363357, 337.500000, 175.151143" fill="rgb(178, 34, 34)" style="fill-opacity:0.64" />
<polygon points=" 355.000000, 131.030229, 347.000000, 152.090686, 362.000000, 152.090686" fill="rgb(255, 255, 255)" style="fill-opacity:1.00" />
<!-- End 'A' -->
<!-- Begin 'C' -->
<ellipse cx="355.000000" cy="195.639582" rx="25.000000" ry="20.488440" fill="rgb(0, 0, 128)" style="fill-opacity:0.64" />
<ellipse cx="355.000000" cy="195.639582" rx="16.666667" ry="13.658960" fill="rgb(255, 255, 255)" style="fill-opacity:1.00" />
<rect height="20.488440" width="25.000000" x="355.000000" y="185.395363" fill="rgb(255, 255, 255)" style="fill-opacity:1.00" />
<!-- End 'C' -->
<!-- Begin 'G' -->
<ellipse cx="355.000000" cy="217.292091" rx="25.000000" ry="1.164068" fill="rgb(255, 165, 0)" style="fill-opacity:0.64" />
<ellipse cx="355.000000" cy="217.292091" rx="16.666667" ry="0.776046" fill="rgb(255, 255, 255)" style="fill-opacity:1.00" />
<rect height="1.164068" width="25.000000" x="355.000000" y="216.710056" fill="rgb(255, 255, 255)" style="fill-opacity:1.00" />
<rect height="0.291017" width="25.000000" x="355.000000" y="217.583108" fill="rgb(255, 165, 0)" style="fill-opacity:0.64" />
<rect height="0.873051" width="6.250000" x="373.750000" y="217.583108" fill="rgb(255, 165, 0)" style="fill-opacity:0.64" />
<!-- End 'G' -->
<!-- Begin 'T' -->
<rect height="0.247015" width="50.000000" x="330.000000" y="218.456159" fill="rgb(0, 100, 0)" style="fill-opacity:0.64" />
<rect height="1.543841" width="10.000000" x="350.000000" y="218.456159" fill="rgb(0, 100, 0)" style="fill-opacity:0.64" />
<!-- End 'T' -->
<!-- Begin 'A' -->
<polygon points=" 330.000000, 280.880247, 351.000000, 230.000000, 359.000000, 230.000000, 380.000000, 280.880247, 372.500000, 280.880247, 366.250000, 268.160185, 343.750000, 268.160185, 337.500000, 280.880247" fill="rgb(178, 34, 34)" style="fill-opacity:0.24" />
<polygon points=" 355.000000, 240.176049, 347.000000, 259.528148, 362.000000, 259.528148" fill="rgb(255, 255, 255)" style="fill-opacity:1.00" />
<!-- End 'A' -->
<!-- Begin 'C' -->
<ellipse cx="355.000000" cy="302.874586" rx="25.000000" ry="21.994339" fill="rgb(0, 0, 128)" style="fill-opacity:0.24" />
<ellipse cx="355.000000" cy="302.874586" rx="16.666667" ry="14.662892" fill="rgb(255, 255, 255)" style="fill-opacity:1.00" />
<rect height="21.994339" width="25.000000" x="355.000000" y="291.877416" fill="rgb(255, 255, 255)" style="fill-opacity:1.00" />
<!-- End 'C' -->
<!-- Begin 'G' -->
<ellipse cx="355.000000" cy="327.419826" rx="25.000000" ry="2.550901" fill="rgb(255, 165, 0)" style="fill-opacity:0.24" />
<ellipse cx="355.000000" cy="327.419826" rx="16.666667" ry="1.700601" fill="rgb(255, 255, 255)" style="fill-opacity:1.00" />
<rect height="2.550901" width="25.000000" x="355.000000" y="326.144375" fill="rgb(255, 255, 255)" style="fill-opacity:1.00" />
<rect height="0.637725" width="25.000000" x="355.000000" y="328.057551" fill="rgb(255, 165, 0)" style="fill-opacity:0.24" />
<rect height="1.913176" width="6.250000" x="373.750000" y="328.057551" fill="rgb(255, 165, 0)" style="fill-opacity:0.24" />
<!-- End 'G' -->
<!-- Begin 'T' -->
<rect height="0.004684" width="50.000000" x="330.000000" y="329.970727" fill="rgb(0, 100, 0)" style="fill-opacity:0.24" />
<rect height="0.029273" width="10.000000" x="350.000000" y="329.970727" fill="rgb(0, 100, 0)" style="fill-opacity:0.24" />
<!-- End 'T' -->
<!-- Begin 'A' -->
<polygon points=" 330.000000, 425.061550, 351.000000, 340.000000, 359.000000, 340.000000, 380.000000, 425.061550, 372.500000, 425.061550, 366.250000, 403.796163, 343.750000, 403.796163, 337.500000, 425.061550" fill="rgb(178, 34, 34)" style="fill-opacity:0.02" />
<polygon points=" 355.000000, 357.012310, 347.000000, 390.036930, 362.000000, 390.036930" fill="rgb(255, 255, 255)" style="fill-opacity:1.00" />
<!-- End 'A' -->
<!-- Begin 'C' -->
<ellipse cx="355.000000" cy="432.181975" rx="25.000000" ry="7.120425" fill="rgb(0, 0, 128)" style="fill-opacity:0.02" />
<ellipse cx="355.000000" cy="432.181975" rx="16.666667" ry="4.746950" fill="rgb(255, 255, 255)" style="fill-opacity:1.00" />
<rect height="7.120425" width="25.000000" x="355.000000" y="428.621763" fill="rgb(255, 255, 255)" style="fill-opacity:1.00" />
<!-- End 'C' -->
<!-- Begin 'G' -->
<ellipse cx="355.000000" cy="439.651199" rx="25.000000" ry="0.348799" fill="rgb(255, 165, 0)" style="fill-opacity:0.02" />
<ellipse cx="355.000000" cy="439.651199" rx="16.666667" ry="0.232533" fill="rgb(255, 255, 255)" style="fill-opacity:1.00" />
<rect height="0.348799" width="25.000000" x="355.000000" y="439.476800" fill="rgb(255, 255, 255)" style="fill-opacity:1.00" />
<rect height="0.087200" width="25.000000" x="355.000000" y="439.738399" fill="rgb(255, 165, 0)" style="fill-opacity:0.02" />
<rect height="0.261600" width="6.250000" x="373.750000" y="439.738399" fill="rgb(255, 165, 0)" style="fill-opacity:0.02" />
<!-- End 'G' -->
<!-- Begin 'T' -->
<rect height="0.000000" width="50.000000" x="330.000000" y="439.999999" fill="rgb(0, 100, 0)" style="fill-opacity:0.02" />
<rect height="0.000001" width="10.000000" x="350.000000" y="439.999999" fill="rgb(0, 100, 0)" style="fill-opacity:0.02" />
<!-- End 'T' -->
<!-- Begin 'G' -->
<ellipse cx="415.000000" cy="59.999482" rx="25.000000" ry="49.999482" fill="rgb(255, 165, 0)" style="fill-opacity:0.55" />
<ellipse cx="415.000000" cy="59.999482" rx="16.666667" ry="33.332988" fill="rgb(255, 255, 255)" style="fill-opacity:1.00" />
<rect height="49.999482" width="25.000000" x="415.000000" y="34.999741" fill="rgb(255, 255, 255)" style="fill-opacity:1.00" />
<rect height="12.499871" width="25.000000" x="415.000000" y="72.499353" fill="rgb(255, 165, 0)" style="fill-opacity:0.55" />
<rect height="37.499612" width="6.250000" x="433.750000" y="72.499353" fill="rgb(255, 165, 0)" style="fill-opacity:0.55" />
<!-- End 'G' -->
<!-- Begin 'A' -->
<polygon points=" 390.000000, 109.999959, 411.000000, 109.998964, 419.000000, 109.998964, 440.000000, 109.999959, 432.500000, 109.999959, 426.250000, 109.999710, 403.750000, 109.999710, 397.500000, 109.999959" fill="rgb(178, 34, 34)" style="fill-opacity:0.55" />
<!-- End 'A' -->
<!-- Begin 'T' -->
<rect height="0.000006" width="50.000000" x="390.000000" y="109.999959" fill="rgb(0, 100, 0)" style="fill-opacity:0.55" />
<rect height="0.000038" width="10.000000" x="410.000000" y="109.999959" fill="rgb(0, 100, 0)" style="fill-opacity:0.55" />
<!-- End 'T' -->
<!-- Begin 'C' -->
<ellipse cx="415.000000" cy="109.999999" rx="25.000000" ry="0.000001" fill="rgb(0, 0, 128)" style="fill-opacity:0.55" />
<ellipse cx="415.000000" cy="109.999999" rx="16.666667" ry="0.000001" fill="rgb(255, 255, 255)" style="fill-opacity:1.00" />
<rect height="0.000001" width="25.000000" x="415.000000" y="109.999998" fill="rgb(255, 255, 255)" style="fill-opacity:1.00" />
<!-- End 'C' -->
<!-- Begin 'G' -->
<ellipse cx="415.000000" cy="169.954696" rx="25.000000" ry="49.954696" fill="rgb(255, 165, 0)" style="fill-opacity:0.40" />
<ellipse cx="415.000000" cy="169.954696" rx="16.666667" ry="33.303131" fill="rgb(255, 255, 255)" style="fill-opacity:1.00" />
<rect height="49.954696" width="25.000000" x="415.000000" y="144.977348" fill="rgb(255, 255, 255)" style="fill-opacity:1.00" />
<rect height="12.488674" width="25.000000" x="415.000000" y="182.443370" fill="rgb(255, 165, 0)" style="fill-opacity:0.40" />
<rect height="37.466022" width="6.250000" x="433.750000" y="182.443370" fill="rgb(255, 165, 0)" style="fill-opacity:0.40" />
<!-- End 'G' -->
<!-- Begin 'A' -->
<polygon points=" 390.000000, 219.999640, 411.000000, 219.909392, 419.000000, 219.909392, 440.000000, 219.999640, 432.500000, 219.999640, 426.250000, 219.977078, 403.750000, 219.977078, 397.500000, 219.999640" fill="rgb(178, 34, 34)" style="fill-opacity:0.40" />
<!-- End 'A' -->
<!-- Begin 'T' -->
<rect height="0.000057" width="50.000000" x="390.000000" y="219.999640" fill="rgb(0, 100, 0)" style="fill-opacity:0.40" />
<rect height="0.000354" width="10.000000" x="410.000000" y="219.999640" fill="rgb(0, 100, 0)" style="fill-opacity:0.40" />
<!-- End 'T' -->
<!-- Begin 'C' -->
<ellipse cx="415.000000" cy="219.999997" rx="25.000000" ry="0.000003" fill="rgb(0, 0, 128)" style="fill-opacity:0.40" />
<ellipse cx="415.000000" cy="219.999997" rx="16.666667" ry="0.000002" fill="rgb(255, 255, 255)" style="fill-opacity:1.00" />
<rect height="0.000003" width="25.000000" x="415.000000" y="219.999996" fill="rgb(255, 255, 255)" style="fill-opacity:1.00" />
<!-- End 'C' -->
<!-- Begin 'G' -->
<ellipse cx="415.000000" cy="280.000000" rx="25.000000" ry="50.000000" fill="rgb(255, 165, 0)" style="fill-opacity:0.04" />
<ellipse cx="415.000000" cy="280.000000" rx="16.666667" ry="33.333333" fill="rgb(255, 255, 255)" style="fill-opacity:1.00" />
<rect height="50.000000" width="25.000000" x="415.000000" y="255.000000" fill="rgb(255, 255, 255)" style="fill-opacity:1.00" />
<rect height="12.500000" width="25.000000" x="415.000000" y="292.500000" fill="rgb(255, 165, 0)" style="fill-opacity:0.04" />
<rect height="37.500000" width="6.250000" x="433.750000" y="292.500000" fill="rgb(255, 165, 0)" style="fill-opacity:0.04" />
<!-- End 'G' -->
<!-- Begin 'T' -->
<rect height="0.000000" width="50.000000" x="390.000000" y="330.000000" fill="rgb(0, 100, 0)" style="fill-opacity:0.04" />
<rect height="0.000000" width="10.000000" x="410.000000" y="330.000000" fill="rgb(0, 100, 0)" style="fill-opacity:0.04" />
<!-- End 'T' -->
<!-- Begin 'C' -->
<ellipse cx="415.000000" cy="330.000000" rx="25.000000" ry="0.000000" fill="rgb(0, 0, 128)" style="fill-opacity:0.04" />
<ellipse cx="415.000000" cy="330.000000" rx="16.666667" ry="0.000000" fill="rgb(255, 255, 255)" style="fill-opacity:1.00" />
<rect height="0.000000" width="25.000000" x="415.000000" y="330.000000" fill="rgb(255, 255, 255)" style="fill-opacity:1.00" />
<!-- End 'C' -->
<!-- Begin 'A' -->
<polygon points=" 390.000000, 330.000000, 411.000000, 330.000000, 419.000000, 330.000000, 440.000000, 330.000000, 432.500000, 330.000000, 426.250000, 330.000000, 403.750000, 330.000000, 397.500000, 330.000000" fill="rgb(178, 34, 34)" style="fill-opacity:0.04" />
<!-- End 'A' -->
<!-- Begin 'G' -->
<ellipse cx="415.000000" cy="389.999997" rx="25.000000" ry="49.999997" fill="rgb(255, 165, 0)" style="fill-opacity:0.01" />
<ellipse cx="415.000000" cy="389.999997" rx="16.666667" ry="33.333332" fill="rgb(255, 255, 255)" style="fill-opacity:1.00" />
<rect height="49.999997" width="25.000000" x="415.000000" y="364.999999" fill="rgb(255, 255, 255)" style="fill-opacity:1.00" />
<rect height="12.499999" width="25.000000" x="415.000000" y="402.499997" fill="rgb(255, 165, 0)" style="fill-opacity:0.01" />
<rect height="37.499998" width="6.250000" x="433.750000" y="402.499997" fill="rgb(255, 165, 0)" style="fill-opacity:0.01" />
<!-- End 'G' -->
<!-- Begin 'A' -->
<polygon points=" 390.000000, 439.999999, 411.000000, 439.999995, 419.000000, 439.999995, 440.000000, 439.999999, 432.500000, 439.999999, 426.250000, 439.999998, 403.750000, 439.999998, 397.500000, 439.999999" fill="rgb(178, 34, 34)" style="fill-opacity:0.01" />
<!-- End 'A' -->
<!-- Begin 'T' -->
<rect height="0.000000" width="50.000000" x="390.000000" y="439.999999" fill="rgb(0, 100, 0)" style="fill-opacity:0.01" />
<rect height="0.000001" width="10.000000" x="410.000000" y="439.999999" fill="rgb(0, 100, 0)" style="fill-opacity:0.01" />
<!-- End 'T' -->
<!-- Begin 'C' -->
<ellipse cx="415.000000" cy="440.000000" rx="25.000000" ry="0.000000" fill="rgb(0, 0, 128)" style="fill-opacity:0.01" />
<ellipse cx="415.000000" cy="440.000000" rx="16.666667" ry="0.000000" fill="rgb(255, 255, 255)" style="fill-opacity:1.00" />
<rect height="0.000000" width="25.000000" x="415.000000" y="440.000000" fill="rgb(255, 255, 255)" style="fill-opacity:1.00" />
<!-- End 'C' -->
<!-- Begin 'G' -->
<ellipse cx="475.000000" cy="59.998618" rx="25.000000" ry="49.998618" fill="rgb(255, 165, 0)" style="fill-opacity:0.00" />
<ellipse cx="475.000000" cy="59.998618" rx="16.666667" ry="33.332412" fill="rgb(255, 255, 255)" style="fill-opacity:1.00" />
<rect height="49.998618" width="25.000000" x="475.000000" y="34.999309" fill="rgb(255, 255, 255)" style="fill-opacity:1.00" />
<rect height="12.499655" width="25.000000" x="475.000000" y="72.498273" fill="rgb(255, 165, 0)" style="fill-opacity:0.00" />
<rect height="37.498964" width="6.250000" x="493.750000" y="72.498273" fill="rgb(255, 165, 0)" style="fill-opacity:0.00" />
<!-- End 'G' -->
<!-- Begin 'C' -->
<ellipse cx="475.000000" cy="109.998563" rx="25.000000" ry="0.001326" fill="rgb(0, 0, 128)" style="fill-opacity:0.00" />
<ellipse cx="475.000000" cy="109.998563" rx="16.666667" ry="0.000884" fill="rgb(255, 255, 255)" style="fill-opacity:1.00" />
<rect height="0.001326" width="25.000000" x="475.000000" y="109.997900" fill="rgb(255, 255, 255)" style="fill-opacity:1.00" />
<!-- End 'C' -->
<!-- Begin 'A' -->
<polygon points=" 450.000000, 109.999993, 471.000000, 109.999889, 479.000000, 109.999889, 500.000000, 109.999993, 492.500000, 109.999993, 486.250000, 109.999967, 463.750000, 109.999967, 457.500000, 109.999993" fill="rgb(178, 34, 34)" style="fill-opacity:0.00" />
<!-- End 'A' -->
<!-- Begin 'T' -->
<rect height="0.000001" width="50.000000" x="450.000000" y="109.999993" fill="rgb(0, 100, 0)" style="fill-opacity:0.00" />
<rect height="0.000007" width="10.000000" x="470.000000" y="109.999993" fill="rgb(0, 100, 0)" style="fill-opacity:0.00" />
<!-- End 'T' -->
<!-- Begin 'G' -->
<ellipse cx="475.000000" cy="169.570147" rx="25.000000" ry="49.570147" fill="rgb(255, 165, 0)" style="fill-opacity:0.00" />
<ellipse cx="475.000000" cy="169.570147" rx="16.666667" ry="33.046765" fill="rgb(255, 255, 255)" style="fill-opacity:1.00" />
<rect height="49.570147" width="25.000000" x="475.000000" y="144.785074" fill="rgb(255, 255, 255)" style="fill-opacity:1.00" />
<rect height="12.392537" width="25.000000" x="475.000000" y="181.962684" fill="rgb(255, 165, 0)" style="fill-opacity:0.00" />
<rect height="37.177610" width="6.250000" x="493.750000" y="181.962684" fill="rgb(255, 165, 0)" style="fill-opacity:0.00" />
<!-- End 'G' -->
<!-- Begin 'C' -->
<ellipse cx="475.000000" cy="219.394415" rx="25.000000" ry="0.254121" fill="rgb(0, 0, 128)" style="fill-opacity:0.00" />
<ellipse cx="475.000000" cy="219.394415" rx="16.666667" ry="0.169414" fill="rgb(255, 255, 255)" style="fill-opacity:1.00" />
<rect height="0.254121" width="25.000000" x="475.000000" y="219.267355" fill="rgb(255, 255, 255)" style="fill-opacity:1.00" />
<!-- End 'C' -->
<!-- Begin 'A' -->
<polygon points=" 450.000000, 219.962268, 471.000000, 219.648536, 479.000000, 219.648536, 500.000000, 219.962268, 492.500000, 219.962268, 486.250000, 219.883835, 463.750000, 219.883835, 457.500000, 219.962268" fill="rgb(178, 34, 34)" style="fill-opacity:0.00" />
<!-- End 'A' -->
<!-- Begin 'T' -->
<rect height="0.006037" width="50.000000" x="450.000000" y="219.962268" fill="rgb(0, 100, 0)" style="fill-opacity:0.00" />
<rect height="0.037732" width="10.000000" x="470.000000" y="219.962268" fill="rgb(0, 100, 0)" style="fill-opacity:0.00" />
<!-- End 'T' -->
<!-- Begin 'G' -->
<ellipse cx="475.000000" cy="279.997279" rx="25.000000" ry="49.997279" fill="rgb(255, 165, 0)" style="fill-opacity:1.00" />
<ellipse cx="475.000000" cy="279.997279" rx="16.666667" ry="33.331519" fill="rgb(255, 255, 255)" style="fill-opacity:1.00" />
<rect height="49.997279" width="25.000000" x="475.000000" y="254.998639" fill="rgb(255, 255, 255)" style="fill-opacity:1.00" />
<rect height="12.499320" width="25.000000" x="475.000000" y="292.496599" fill="rgb(255, 165, 0)" style="fill-opacity:1.00" />
<rect height="37.497959" width="6.250000" x="493.750000" y="292.496599" fill="rgb(255, 165, 0)" style="fill-opacity:1.00" />
<!-- End 'G' -->
<!-- Begin 'A' -->
<polygon points=" 450.000000, 329.998605, 471.000000, 329.994558, 479.000000, 329.994558, 500.000000, 329.998605, 492.500000, 329.998605, 486.250000, 329.997593, 463.750000, 329.997593, 457.500000, 329.998605" fill="rgb(178, 34, 34)" style="fill-opacity:1.00" />
<!-- End 'A' -->
<!-- Begin 'T' -->
<rect height="0.000140" width="50.000000" x="450.000000" y="329.998605" fill="rgb(0, 100, 0)" style="fill-opacity:1.00" />
<rect height="0.000875" width="10.000000" x="470.000000" y="329.998605" fill="rgb(0, 100, 0)" style="fill-opacity:1.00" />
<!-- End 'T' -->
<!-- Begin 'C' -->
<ellipse cx="475.000000" cy="329.999740" rx="25.000000" ry="0.000260" fill="rgb(0, 0, 128)" style="fill-opacity:1.00" />
<ellipse cx="475.000000" cy="329.999740" rx="16.666667" ry="0.000173" fill="rgb(255, 255, 255)" style="fill-opacity:1.00" />
<rect height="0.000260" width="25.000000" x="475.000000" y="329.999610" fill="rgb(255, 255, 255)" style="fill-opacity:1.00" />
<!-- End 'C' -->
<!-- Begin 'G' -->
<ellipse cx="475.000000" cy="389.991405" rx="25.000000" ry="49.991405" fill="rgb(255, 165, 0)" style="fill-opacity:0.00" />
<ellipse cx="475.000000" cy="389.991405" rx="16.666667" ry="33.327603" fill="rgb(255, 255, 255)" style="fill-opacity:1.00" />
<rect height="49.991405" width="25.000000" x="475.000000" y="364.995703" fill="rgb(255, 255, 255)" style="fill-opacity:1.00" />
<rect height="12.497851" width="25.000000" x="475.000000" y="402.489257" fill="rgb(255, 165, 0)" style="fill-opacity:0.00" />
<rect height="37.493554" width="6.250000" x="493.750000" y="402.489257" fill="rgb(255, 165, 0)" style="fill-opacity:0.00" />
<!-- End 'G' -->
<!-- Begin 'C' -->
<ellipse cx="475.000000" cy="439.987172" rx="25.000000" ry="0.004362" fill="rgb(0, 0, 128)" style="fill-opacity:0.00" />
<ellipse cx="475.000000" cy="439.987172" rx="16.666667" ry="0.002908" fill="rgb(255, 255, 255)" style="fill-opacity:1.00" />
<rect height="0.004362" width="25.000000" x="475.000000" y="439.984991" fill="rgb(255, 255, 255)" style="fill-opacity:1.00" />
<!-- End 'C' -->
<!-- Begin 'A' -->
<polygon points=" 450.000000, 439.999503, 471.000000, 439.991534, 479.000000, 439.991534, 500.000000, 439.999503, 492.500000, 439.999503, 486.250000, 439.997510, 463.750000, 439.997510, 457.500000, 439.999503" fill="rgb(178, 34, 34)" style="fill-opacity:0.00" />
<!-- End 'A' -->
<!-- Begin 'T' -->
<rect height="0.000080" width="50.000000" x="450.000000" y="439.999503" fill="rgb(0, 100, 0)" style="fill-opacity:0.00" />
<rect height="0.000497" width="10.000000" x="470.000000" y="439.999503" fill="rgb(0, 100, 0)" style="fill-opacity:0.00" />
<!-- End 'T' -->
<!-- Begin 'A' -->
<polygon points=" 510.000000, 109.983855, 531.000000, 10.000000, 539.000000, 10.000000, 560.000000, 109.983855, 552.500000, 109.983855, 546.250000, 84.987891, 523.750000, 84.987891, 517.500000, 109.983855" fill="rgb(178, 34, 34)" style="fill-opacity:0.00" />
<polygon points=" 535.000000, 29.996771, 527.000000, 68.990313, 542.000000, 68.990313" fill="rgb(255, 255, 255)" style="fill-opacity:1.00" />
<!-- End 'A' -->
<!-- Begin 'G' -->
<ellipse cx="535.000000" cy="109.989164" rx="25.000000" ry="0.005309" fill="rgb(255, 165, 0)" style="fill-opacity:0.00" />
<ellipse cx="535.000000" cy="109.989164" rx="16.666667" ry="0.003539" fill="rgb(255, 255, 255)" style="fill-opacity:1.00" />
<rect height="0.005309" width="25.000000" x="535.000000" y="109.986510" fill="rgb(255, 255, 255)" style="fill-opacity:1.00" />
<rect height="0.001327" width="25.000000" x="535.000000" y="109.990492" fill="rgb(255, 165, 0)" style="fill-opacity:0.00" />
<rect height="0.003982" width="6.250000" x="553.750000" y="109.990492" fill="rgb(255, 165, 0)" style="fill-opacity:0.00" />
<!-- End 'G' -->
<!-- Begin 'T' -->
<rect height="0.000592" width="50.000000" x="510.000000" y="109.994473" fill="rgb(0, 100, 0)" style="fill-opacity:0.00" />
<rect height="0.003699" width="10.000000" x="530.000000" y="109.994473" fill="rgb(0, 100, 0)" style="fill-opacity:0.00" />
<!-- End 'T' -->
<!-- Begin 'C' -->
<ellipse cx="535.000000" cy="109.999086" rx="25.000000" ry="0.000914" fill="rgb(0, 0, 128)" style="fill-opacity:0.00" />
<ellipse cx="535.000000" cy="109.999086" rx="16.666667" ry="0.000609" fill="rgb(255, 255, 255)" style="fill-opacity:1.00" />
<rect height="0.000914" width="25.000000" x="535.000000" y="109.998630" fill="rgb(255, 255, 255)" style="fill-opacity:1.00" />
<!-- End 'C' -->
<!-- Begin 'A' -->
<polygon points=" 510.000000, 219.889594, 531.000000, 120.000000, 539.000000, 120.000000, 560.000000, 219.889594, 552.500000, 219.889594, 546.250000, 194.917195, 523.750000, 194.917195, 517.500000, 219.889594" fill="rgb(178, 34, 34)" style="fill-opacity:0.00" />
<polygon points=" 535.000000, 139.977919, 527.000000, 178.933756, 542.000000, 178.933756" fill="rgb(255, 255, 255)" style="fill-opacity:1.00" />
<!-- End 'A' -->
<!-- Begin 'C' -->
<ellipse cx="535.000000" cy="219.938267" rx="25.000000" ry="0.048673" fill="rgb(0, 0, 128)" style="fill-opacity:0.00" />
<ellipse cx="535.000000" cy="219.938267" rx="16.666667" ry="0.032449" fill="rgb(255, 255, 255)" style="fill-opacity:1.00" />
<rect height="0.048673" width="25.000000" x="535.000000" y="219.913931" fill="rgb(255, 255, 255)" style="fill-opacity:1.00" />
<!-- End 'C' -->
<!-- Begin 'G' -->
<ellipse cx="535.000000" cy="219.993445" rx="25.000000" ry="0.006504" fill="rgb(255, 165, 0)" style="fill-opacity:0.00" />
<ellipse cx="535.000000" cy="219.993445" rx="16.666667" ry="0.004336" fill="rgb(255, 255, 255)" style="fill-opacity:1.00" />
<rect height="0.006504" width="25.000000" x="535.000000" y="219.990192" fill="rgb(255, 255, 255)" style="fill-opacity:1.00" />
<rect height="0.001626" width="25.000000" x="535.000000" y="219.995071" fill="rgb(255, 165, 0)" style="fill-opacity:0.00" />
<rect height="0.004878" width="6.250000" x="553.750000" y="219.995071" fill="rgb(255, 165, 0)" style="fill-opacity:0.00" />
<!-- End 'G' -->
<!-- Begin 'T' -->
<rect height="0.000008" width="50.000000" x="510.000000" y="219.999949" fill="rgb(0, 100, 0)" style="fill-opacity:0.00" />
<rect height="0.000051" width="10.000000" x="530.000000" y="219.999949" fill="rgb(0, 100, 0)" style="fill-opacity:0.00" />
<!-- End 'T' -->
<!-- Begin 'A' -->
<polygon points=" 510.000000, 329.959639, 531.000000, 230.000000, 539.000000, 230.000000, 560.000000, 329.959639, 552.500000, 329.959639, 546.250000, 304.969729, 523.750000, 304.969729, 517.500000, 329.959639" fill="rgb(178, 34, 34)" style="fill-opacity:1.00" />
<polygon points=" 535.000000, 249.991928, 527.000000, 288.975783, 542.000000, 288.975783" fill="rgb(255, 255, 255)" style="fill-opacity:1.00" />
<!-- End 'A' -->
<!-- Begin 'C' -->
<ellipse cx="535.000000" cy="329.971548" rx="25.000000" ry="0.011909" fill="rgb(0, 0, 128)" style="fill-opacity:1.00" />
<ellipse cx="535.000000" cy="329.971548" rx="16.666667" ry="0.007939" fill="rgb(255, 255, 255)" style="fill-opacity:1.00" />
<rect height="0.011909" width="25.000000" x="535.000000" y="329.965593" fill="rgb(255, 255, 255)" style="fill-opacity:1.00" />
<!-- End 'C' -->
<!-- Begin 'G' -->
<ellipse cx="535.000000" cy="329.988726" rx="25.000000" ry="0.005269" fill="rgb(255, 165, 0)" style="fill-opacity:1.00" />
<ellipse cx="535.000000" cy="329.988726" rx="16.666667" ry="0.003513" fill="rgb(255, 255, 255)" style="fill-opacity:1.00" />
<rect height="0.005269" width="25.000000" x="535.000000" y="329.986091" fill="rgb(255, 255, 255)" style="fill-opacity:1.00" />
<rect height="0.001317" width="25.000000" x="535.000000" y="329.990043" fill="rgb(255, 165, 0)" style="fill-opacity:1.00" />
<rect height="0.003952" width="6.250000" x="553.750000" y="329.990043" fill="rgb(255, 165, 0)" style="fill-opacity:1.00" />
<!-- End 'G' -->
<!-- Begin 'T' -->
<rect height="0.000961" width="50.000000" x="510.000000" y="329.993995" fill="rgb(0, 100, 0)" style="fill-opacity:1.00" />
<rect height="0.006005" width="10.000000" x="530.000000" y="329.993995" fill="rgb(0, 100, 0)" style="fill-opacity:1.00" />
<!-- End 'T' -->
<!-- Begin 'A' -->
<polygon points=" 510.000000, 439.126112, 531.000000, 340.000000, 539.000000, 340.000000, 560.000000, 439.126112, 552.500000, 439.126112, 546.250000, 414.344584, 523.750000, 414.344584, 517.500000, 439.126112" fill="rgb(178, 34, 34)" style="fill-opacity:0.00" />
<polygon points=" 535.000000, 359.825222, 527.000000, 398.475667, 542.000000, 398.475667" fill="rgb(255, 255, 255)" style="fill-opacity:1.00" />
<!-- End 'A' -->
<!-- Begin 'G' -->
<ellipse cx="535.000000" cy="439.543310" rx="25.000000" ry="0.417199" fill="rgb(255, 165, 0)" style="fill-opacity:0.00" />
<ellipse cx="535.000000" cy="439.543310" rx="16.666667" ry="0.278132" fill="rgb(255, 255, 255)" style="fill-opacity:1.00" />
<rect height="0.417199" width="25.000000" x="535.000000" y="439.334711" fill="rgb(255, 255, 255)" style="fill-opacity:1.00" />
<rect height="0.104300" width="25.000000" x="535.000000" y="439.647610" fill="rgb(255, 165, 0)" style="fill-opacity:0.00" />
<rect height="0.312899" width="6.250000" x="553.750000" y="439.647610" fill="rgb(255, 165, 0)" style="fill-opacity:0.00" />
<!-- End 'G' -->
<!-- Begin 'C' -->
<ellipse cx="535.000000" cy="439.980130" rx="25.000000" ry="0.019621" fill="rgb(0, 0, 128)" style="fill-opacity:0.00" />
<ellipse cx="535.000000" cy="439.980130" rx="16.666667" ry="0.013081" fill="rgb(255, 255, 255)" style="fill-opacity:1.00" />
<rect height="0.019621" width="25.000000" x="535.000000" y="439.970319" fill="rgb(255, 255, 255)" style="fill-opacity:1.00" />
<!-- End 'C' -->
<!-- Begin 'T' -->
<rect height="0.000040" width="50.000000" x="510.000000" y="439.999751" fill="rgb(0, 100, 0)" style="fill-opacity:0.00" />
<rect height="0.000249" width="10.000000" x="530.000000" y="439.999751" fill="rgb(0, 100, 0)" style="fill-opacity:0.00" />
<!-- End 'T' -->
<!-- Begin 'A' -->
<polygon points=" 570.000000, 107.722660, 591.000000, 10.000000, 599.000000, 10.000000, 620.000000, 107.722660, 612.500000, 107.722660, 606.250000, 83.291995, 583.750000, 83.291995, 577.500000, 107.722660" fill="rgb(178, 34, 34)" style="fill-opacity:1.00" />
<polygon points=" 595.000000, 29.544532, 587.000000, 67.633596, 602.000000, 67.633596" fill="rgb(255, 255, 255)" style="fill-opacity:1.00" />
<!-- End 'A' -->
<!-- Begin 'T' -->
<rect height="0.346795" width="50.000000" x="570.000000" y="107.722660" fill="rgb(0, 100, 0)" style="fill-opacity:1.00" />
<rect height="2.167470" width="10.000000" x="590.000000" y="107.722660" fill="rgb(0, 100, 0)" style="fill-opacity:1.00" />
<!-- End 'T' -->
<!-- Begin 'C' -->
<ellipse cx="595.000000" cy="109.933644" rx="25.000000" ry="0.043514" fill="rgb(0, 0, 128)" style="fill-opacity:1.00" />
<ellipse cx="595.000000" cy="109.933644" rx="16.666667" ry="0.029009" fill="rgb(255, 255, 255)" style="fill-opacity:1.00" />
<rect height="0.043514" width="25.000000" x="595.000000" y="109.911887" fill="rgb(255, 255, 255)" style="fill-opacity:1.00" />
<!-- End 'C' -->
<!-- Begin 'G' -->
<ellipse cx="595.000000" cy="109.988579" rx="25.000000" ry="0.011421" fill="rgb(255, 165, 0)" style="fill-opacity:1.00" />
<ellipse cx="595.000000" cy="109.988579" rx="16.666667" ry="0.007614" fill="rgb(255, 255, 255)" style="fill-opacity:1.00" />
<rect height="0.011421" width="25.000000" x="595.000000" y="109.982868" fill="rgb(255, 255, 255)" style="fill-opacity:1.00" />
<rect height="0.002855" width="25.000000" x="595.000000" y="109.991434" fill="rgb(255, 165, 0)" style="fill-opacity:1.00" />
<rect height="0.008566" width="6.250000" x="613.750000" y="109.991434" fill="rgb(255, 165, 0)" style="fill-opacity:1.00" />
<!-- End 'G' -->
<!-- Begin 'A' -->
<polygon points=" 570.000000, 219.885966, 591.000000, 120.000000, 599.000000, 120.000000, 620.000000, 219.885966, 612.500000, 219.885966, 606.250000, 194.914474, 583.750000, 194.914474, 577.500000, 219.885966" fill="rgb(178, 34, 34)" style="fill-opacity:0.00" />
<polygon points=" 595.000000, 139.977193, 587.000000, 178.931580, 602.000000, 178.931580" fill="rgb(255, 255, 255)" style="fill-opacity:1.00" />
<!-- End 'A' -->
<!-- Begin 'T' -->
<rect height="0.016144" width="50.000000" x="570.000000" y="219.885966" fill="rgb(0, 100, 0)" style="fill-opacity:0.00" />
<rect height="0.100902" width="10.000000" x="590.000000" y="219.885966" fill="rgb(0, 100, 0)" style="fill-opacity:0.00" />
<!-- End 'T' -->
<!-- Begin 'G' -->
<ellipse cx="595.000000" cy="219.992900" rx="25.000000" ry="0.006032" fill="rgb(255, 165, 0)" style="fill-opacity:0.00" />
<ellipse cx="595.000000" cy="219.992900" rx="16.666667" ry="0.004022" fill="rgb(255, 255, 255)" style="fill-opacity:1.00" />
<rect height="0.006032" width="25.000000" x="595.000000" y="219.989884" fill="rgb(255, 255, 255)" style="fill-opacity:1.00" />
<rect height="0.001508" width="25.000000" x="595.000000" y="219.994408" fill="rgb(255, 165, 0)" style="fill-opacity:0.00" />
<rect height="0.004524" width="6.250000" x="613.750000" y="219.994408" fill="rgb(255, 165, 0)" style="fill-opacity:0.00" />
<!-- End 'G' -->
<!-- Begin 'C' -->
<ellipse cx="595.000000" cy="219.999466" rx="25.000000" ry="0.000534" fill="rgb(0, 0, 128)" style="fill-opacity:0.00" />
<ellipse cx="595.000000" cy="219.999466" rx="16.666667" ry="0.000356" fill="rgb(255, 255, 255)" style="fill-opacity:1.00" />
<rect height="0.000534" width="25.000000" x="595.000000" y="219.999199" fill="rgb(255, 255, 255)" style="fill-opacity:1.00" />
<!-- End 'C' -->
<!-- Begin 'A' -->
<polygon points=" 570.000000, 328.991654, 591.000000, 230.000000, 599.000000, 230.000000, 620.000000, 328.991654, 612.500000, 328.991654, 606.250000, 304.243741, 583.750000, 304.243741, 577.500000, 328.991654" fill="rgb(178, 34, 34)" style="fill-opacity:0.00" />
<polygon points=" 595.000000, 249.798331, 587.000000, 288.394993, 602.000000, 288.394993" fill="rgb(255, 255, 255)" style="fill-opacity:1.00" />
<!-- End 'A' -->
<!-- Begin 'T' -->
<rect height="0.153018" width="50.000000" x="570.000000" y="328.991654" fill="rgb(0, 100, 0)" style="fill-opacity:0.00" />
<rect height="0.956365" width="10.000000" x="590.000000" y="328.991654" fill="rgb(0, 100, 0)" style="fill-opacity:0.00" />
<!-- End 'T' -->
<!-- Begin 'C' -->
<ellipse cx="595.000000" cy="329.965976" rx="25.000000" ry="0.017956" fill="rgb(0, 0, 128)" style="fill-opacity:0.00" />
<ellipse cx="595.000000" cy="329.965976" rx="16.666667" ry="0.011971" fill="rgb(255, 255, 255)" style="fill-opacity:1.00" />
<rect height="0.017956" width="25.000000" x="595.000000" y="329.956998" fill="rgb(255, 255, 255)" style="fill-opacity:1.00" />
<!-- End 'C' -->
<!-- Begin 'G' -->
<ellipse cx="595.000000" cy="329.991966" rx="25.000000" ry="0.008034" fill="rgb(255, 165, 0)" style="fill-opacity:0.00" />
<ellipse cx="595.000000" cy="329.991966" rx="16.666667" ry="0.005356" fill="rgb(255, 255, 255)" style="fill-opacity:1.00" />
<rect height="0.008034" width="25.000000" x="595.000000" y="329.987949" fill="rgb(255, 255, 255)" style="fill-opacity:1.00" />
<rect height="0.002009" width="25.000000" x="595.000000" y="329.993974" fill="rgb(255, 165, 0)" style="fill-opacity:0.00" />
<rect height="0.006026" width="6.250000" x="613.750000" y="329.993974" fill="rgb(255, 165, 0)" style="fill-opacity:0.00" />
<!-- End 'G' -->
<!-- Begin 'A' -->
<polygon points=" 570.000000, 439.991037, 591.000000, 340.000000, 599.000000, 340.000000, 620.000000, 439.991037, 612.500000, 439.991037, 606.250000, 414.993278, 583.750000, 414.993278, 577.500000, 439.991037" fill="rgb(178, 34, 34)" style="fill-opacity:0.00" />
<polygon points=" 595.000000, 359.998207, 587.000000, 398.994622, 602.000000, 398.994622" fill="rgb(255, 255, 255)" style="fill-opacity:1.00" />
<!-- End 'A' -->
<!-- Begin 'G' -->
<ellipse cx="595.000000" cy="439.993615" rx="25.000000" ry="0.002578" fill="rgb(255, 165, 0)" style="fill-opacity:0.00" />
<ellipse cx="595.000000" cy="439.993615" rx="16.666667" ry="0.001719" fill="rgb(255, 255, 255)" style="fill-opacity:1.00" />
<rect height="0.002578" width="25.000000" x="595.000000" y="439.992326" fill="rgb(255, 255, 255)" style="fill-opacity:1.00" />
<rect height="0.000644" width="25.000000" x="595.000000" y="439.994259" fill="rgb(255, 165, 0)" style="fill-opacity:0.00" />
<rect height="0.001933" width="6.250000" x="613.750000" y="439.994259" fill="rgb(255, 165, 0)" style="fill-opacity:0.00" />
<!-- End 'G' -->
<!-- Begin 'T' -->
<rect height="0.000608" width="50.000000" x="570.000000" y="439.996193" fill="rgb(0, 100, 0)" style="fill-opacity:0.00" />
<rect height="0.003800" width="10.000000" x="590.000000" y="439.996193" fill="rgb(0, 100, 0)" style="fill-opacity:0.00" />
<!-- End 'T' -->
<!-- Begin 'C' -->
<ellipse cx="595.000000" cy="439.999997" rx="25.000000" ry="0.000003" fill="rgb(0, 0, 128)" style="fill-opacity:0.00" />
<ellipse cx="595.000000" cy="439.999997" rx="16.666667" ry="0.000002" fill="rgb(255, 255, 255)" style="fill-opacity:1.00" />
<rect height="0.000003" width="25.000000" x="595.000000" y="439.999995" fill="rgb(255, 255, 255)" style="fill-opacity:1.00" />
<!-- End 'C' -->
<!-- Begin 'G' -->
<ellipse cx="655.000000" cy="50.534604" rx="25.000000" ry="40.534604" fill="rgb(255, 165, 0)" style="fill-opacity:0.98" />
<ellipse cx="655.000000" cy="50.534604" rx="16.666667" ry="27.023070" fill="rgb(255, 255, 255)" style="fill-opacity:1.00" />
<rect height="40.534604" width="25.000000" x="655.000000" y="30.267302" fill="rgb(255, 255, 255)" style="fill-opacity:1.00" />
<rect height="10.133651" width="25.000000" x="655.000000" y="60.668255" fill="rgb(255, 165, 0)" style="fill-opacity:0.98" />
<rect height="30.400953" width="6.250000" x="673.750000" y="60.668255" fill="rgb(255, 165, 0)" style="fill-opacity:0.98" />
<!-- End 'G' -->
<!-- Begin 'A' -->
<polygon points=" 630.000000, 104.869704, 651.000000, 91.069209, 659.000000, 91.069209, 680.000000, 104.869704, 672.500000, 104.869704, 666.250000, 101.419580, 643.750000, 101.419580, 637.500000, 104.869704" fill="rgb(178, 34, 34)" style="fill-opacity:0.98" />
<polygon points=" 655.000000, 93.829308, 647.000000, 98.349506, 662.000000, 98.349506" fill="rgb(255, 255, 255)" style="fill-opacity:1.00" />
<!-- End 'A' -->
<!-- Begin 'C' -->
<ellipse cx="655.000000" cy="107.426244" rx="25.000000" ry="2.556540" fill="rgb(0, 0, 128)" style="fill-opacity:0.98" />
<ellipse cx="655.000000" cy="107.426244" rx="16.666667" ry="1.704360" fill="rgb(255, 255, 255)" style="fill-opacity:1.00" />
<rect height="2.556540" width="25.000000" x="655.000000" y="106.147974" fill="rgb(255, 255, 255)" style="fill-opacity:1.00" />
<!-- End 'C' -->
<!-- Begin 'T' -->
<rect height="0.002755" width="50.000000" x="630.000000" y="109.982784" fill="rgb(0, 100, 0)" style="fill-opacity:0.98" />
<rect height="0.017216" width="10.000000" x="650.000000" y="109.982784" fill="rgb(0, 100, 0)" style="fill-opacity:0.98" />
<!-- End 'T' -->
<!-- Begin 'G' -->
<ellipse cx="655.000000" cy="167.409921" rx="25.000000" ry="47.409921" fill="rgb(255, 165, 0)" style="fill-opacity:0.00" />
<ellipse cx="655.000000" cy="167.409921" rx="16.666667" ry="31.606614" fill="rgb(255, 255, 255)" style="fill-opacity:1.00" />
<rect height="47.409921" width="25.000000" x="655.000000" y="143.704960" fill="rgb(255, 255, 255)" style="fill-opacity:1.00" />
<rect height="11.852480" width="25.000000" x="655.000000" y="179.262401" fill="rgb(255, 165, 0)" style="fill-opacity:0.00" />
<rect height="35.557441" width="6.250000" x="673.750000" y="179.262401" fill="rgb(255, 165, 0)" style="fill-opacity:0.00" />
<!-- End 'G' -->
<!-- Begin 'A' -->
<polygon points=" 630.000000, 219.999697, 651.000000, 214.819842, 659.000000, 214.819842, 680.000000, 219.999697, 672.500000, 219.999697, 666.250000, 218.704733, 643.750000, 218.704733, 637.500000, 219.999697" fill="rgb(178, 34, 34)" style="fill-opacity:0.00" />
<!-- End 'A' -->
<!-- Begin 'T' -->
<rect height="0.000033" width="50.000000" x="630.000000" y="219.999697" fill="rgb(0, 100, 0)" style="fill-opacity:0.00" />
<rect height="0.000207" width="10.000000" x="650.000000" y="219.999697" fill="rgb(0, 100, 0)" style="fill-opacity:0.00" />
<!-- End 'T' -->
<!-- Begin 'C' -->
<ellipse cx="655.000000" cy="219.999952" rx="25.000000" ry="0.000048" fill="rgb(0, 0, 128)" style="fill-opacity:0.00" />
<ellipse cx="655.000000" cy="219.999952" rx="16.666667" ry="0.000032" fill="rgb(255, 255, 255)" style="fill-opacity:1.00" />
<rect height="0.000048" width="25.000000" x="655.000000" y="219.999928" fill="rgb(255, 255, 255)" style="fill-opacity:1.00" />
<!-- End 'C' -->
<!-- Begin 'G' -->
<ellipse cx="655.000000" cy="279.659435" rx="25.000000" ry="49.659435" fill="rgb(255, 165, 0)" style="fill-opacity:0.00" />
<ellipse cx="655.000000" cy="279.659435" rx="16.666667" ry="33.106290" fill="rgb(255, 255, 255)" style="fill-opacity:1.00" />
<rect height="49.659435" width="25.000000" x="655.000000" y="254.829718" fill="rgb(255, 255, 255)" style="fill-opacity:1.00" />
<rect height="12.414859" width="25.000000" x="655.000000" y="292.074294" fill="rgb(255, 165, 0)" style="fill-opacity:0.00" />
<rect height="37.244576" width="6.250000" x="673.750000" y="292.074294" fill="rgb(255, 165, 0)" style="fill-opacity:0.00" />
<!-- End 'G' -->
<!-- Begin 'A' -->
<polygon points=" 630.000000, 329.996536, 651.000000, 329.318871, 659.000000, 329.318871, 680.000000, 329.996536, 672.500000, 329.996536, 666.250000, 329.827119, 643.750000, 329.827119, 637.500000, 329.996536" fill="rgb(178, 34, 34)" style="fill-opacity:0.00" />
<!-- End 'A' -->
<!-- Begin 'C' -->
<ellipse cx="655.000000" cy="329.998250" rx="25.000000" ry="0.001714" fill="rgb(0, 0, 128)" style="fill-opacity:0.00" />
<ellipse cx="655.000000" cy="329.998250" rx="16.666667" ry="0.001143" fill="rgb(255, 255, 255)" style="fill-opacity:1.00" />
<rect height="0.001714" width="25.000000" x="655.000000" y="329.997393" fill="rgb(255, 255, 255)" style="fill-opacity:1.00" />
<!-- End 'C' -->
<!-- Begin 'T' -->
<rect height="0.000006" width="50.000000" x="630.000000" y="329.999965" fill="rgb(0, 100, 0)" style="fill-opacity:0.00" />
<rect height="0.000035" width="10.000000" x="650.000000" y="329.999965" fill="rgb(0, 100, 0)" style="fill-opacity:0.00" />
<!-- End 'T' -->
<!-- Begin 'G' -->
<ellipse cx="655.000000" cy="383.305972" rx="25.000000" ry="43.305972" fill="rgb(255, 165, 0)" style="fill-opacity:0.02" />
<ellipse cx="655.000000" cy="383.305972" rx="16.666667" ry="28.870648" fill="rgb(255, 255, 255)" style="fill-opacity:1.00" />
<rect height="43.305972" width="25.000000" x="655.000000" y="361.652986" fill="rgb(255, 255, 255)" style="fill-opacity:1.00" />
<rect height="10.826493" width="25.000000" x="655.000000" y="394.132465" fill="rgb(255, 165, 0)" style="fill-opacity:0.02" />
<rect height="32.479479" width="6.250000" x="673.750000" y="394.132465" fill="rgb(255, 165, 0)" style="fill-opacity:0.02" />
<!-- End 'G' -->
<!-- Begin 'A' -->
<polygon points=" 630.000000, 439.998260, 651.000000, 426.611943, 659.000000, 426.611943, 680.000000, 439.998260, 672.500000, 439.998260, 666.250000, 436.651681, 643.750000, 436.651681, 637.500000, 439.998260" fill="rgb(178, 34, 34)" style="fill-opacity:0.02" />
<polygon points=" 655.000000, 429.289207, 647.000000, 433.643733, 662.000000, 433.643733" fill="rgb(255, 255, 255)" style="fill-opacity:1.00" />
<!-- End 'A' -->
<!-- Begin 'T' -->
<rect height="0.000162" width="50.000000" x="630.000000" y="439.998260" fill="rgb(0, 100, 0)" style="fill-opacity:0.02" />
<rect height="0.001014" width="10.000000" x="650.000000" y="439.998260" fill="rgb(0, 100, 0)" style="fill-opacity:0.02" />
<!-- End 'T' -->
<!-- Begin 'C' -->
<ellipse cx="655.000000" cy="439.999637" rx="25.000000" ry="0.000363" fill="rgb(0, 0, 128)" style="fill-opacity:0.02" />
<ellipse cx="655.000000" cy="439.999637" rx="16.666667" ry="0.000242" fill="rgb(255, 255, 255)" style="fill-opacity:1.00" />
<rect height="0.000363" width="25.000000" x="655.000000" y="439.999455" fill="rgb(255, 255, 255)" style="fill-opacity:1.00" />
<!-- End 'C' -->
<!-- Begin 'T' -->
<rect height="7.604839" width="50.000000" x="690.000000" y="10.000000" fill="rgb(0, 100, 0)" style="fill-opacity:0.14" />
<rect height="47.530243" width="10.000000" x="710.000000" y="10.000000" fill="rgb(0, 100, 0)" style="fill-opacity:0.14" />
<!-- End 'T' -->
<!-- Begin 'C' -->
<ellipse cx="715.000000" cy="75.184069" rx="25.000000" ry="17.653826" fill="rgb(0, 0, 128)" style="fill-opacity:0.14" />
<ellipse cx="715.000000" cy="75.184069" rx="16.666667" ry="11.769217" fill="rgb(255, 255, 255)" style="fill-opacity:1.00" />
<rect height="17.653826" width="25.000000" x="715.000000" y="66.357156" fill="rgb(255, 255, 255)" style="fill-opacity:1.00" />
<!-- End 'C' -->
<!-- Begin 'A' -->
<polygon points=" 690.000000, 107.385233, 711.000000, 92.837895, 719.000000, 92.837895, 740.000000, 107.385233, 732.500000, 107.385233, 726.250000, 103.748399, 703.750000, 103.748399, 697.500000, 107.385233" fill="rgb(178, 34, 34)" style="fill-opacity:0.14" />
<polygon points=" 715.000000, 95.747363, 707.000000, 100.566298, 722.000000, 100.566298" fill="rgb(255, 255, 255)" style="fill-opacity:1.00" />
<!-- End 'A' -->
<!-- Begin 'G' -->
<ellipse cx="715.000000" cy="108.692617" rx="25.000000" ry="1.307383" fill="rgb(255, 165, 0)" style="fill-opacity:0.14" />
<ellipse cx="715.000000" cy="108.692617" rx="16.666667" ry="0.871589" fill="rgb(255, 255, 255)" style="fill-opacity:1.00" />
<rect height="1.307383" width="25.000000" x="715.000000" y="108.038925" fill="rgb(255, 255, 255)" style="fill-opacity:1.00" />
<rect height="0.326846" width="25.000000" x="715.000000" y="109.019462" fill="rgb(255, 165, 0)" style="fill-opacity:0.14" />
<rect height="0.980538" width="6.250000" x="733.750000" y="109.019462" fill="rgb(255, 165, 0)" style="fill-opacity:0.14" />
<!-- End 'G' -->
<!-- Begin 'T' -->
<rect height="10.453129" width="50.000000" x="690.000000" y="120.000000" fill="rgb(0, 100, 0)" style="fill-opacity:0.05" />
<rect height="65.332055" width="10.000000" x="710.000000" y="120.000000" fill="rgb(0, 100, 0)" style="fill-opacity:0.05" />
<!-- End 'T' -->
<!-- Begin 'C' -->
<ellipse cx="715.000000" cy="201.686736" rx="25.000000" ry="16.354681" fill="rgb(0, 0, 128)" style="fill-opacity:0.05" />
<ellipse cx="715.000000" cy="201.686736" rx="16.666667" ry="10.903121" fill="rgb(255, 255, 255)" style="fill-opacity:1.00" />
<rect height="16.354681" width="25.000000" x="715.000000" y="193.509396" fill="rgb(255, 255, 255)" style="fill-opacity:1.00" />
<!-- End 'C' -->
<!-- Begin 'A' -->
<polygon points=" 690.000000, 219.999639, 711.000000, 218.041417, 719.000000, 218.041417, 740.000000, 219.999639, 732.500000, 219.999639, 726.250000, 219.510083, 703.750000, 219.510083, 697.500000, 219.999639" fill="rgb(178, 34, 34)" style="fill-opacity:0.05" />
<!-- End 'A' -->
<!-- Begin 'G' -->
<ellipse cx="715.000000" cy="219.999819" rx="25.000000" ry="0.000181" fill="rgb(255, 165, 0)" style="fill-opacity:0.05" />
<ellipse cx="715.000000" cy="219.999819" rx="16.666667" ry="0.000120" fill="rgb(255, 255, 255)" style="fill-opacity:1.00" />
<rect height="0.000181" width="25.000000" x="715.000000" y="219.999729" fill="rgb(255, 255, 255)" style="fill-opacity:1.00" />
<rect height="0.000045" width="25.000000" x="715.000000" y="219.999865" fill="rgb(255, 165, 0)" style="fill-opacity:0.05" />
<rect height="0.000135" width="6.250000" x="733.750000" y="219.999865" fill="rgb(255, 165, 0)" style="fill-opacity:0.05" />
<!-- End 'G' -->
<!-- Begin 'T' -->
<rect height="8.059374" width="50.000000" x="690.000000" y="230.000000" fill="rgb(0, 100, 0)" style="fill-opacity:0.81" />
<rect height="50.371086" width="10.000000" x="710.000000" y="230.000000" fill="rgb(0, 100, 0)" style="fill-opacity:0.81" />
<!-- End 'T' -->
<!-- Begin 'C' -->
<ellipse cx="715.000000" cy="292.238329" rx="25.000000" ry="11.867243" fill="rgb(0, 0, 128)" style="fill-opacity:0.81" />
<ellipse cx="715.000000" cy="292.238329" rx="16.666667" ry="7.911495" fill="rgb(255, 255, 255)" style="fill-opacity:1.00" />
<rect height="11.867243" width="25.000000" x="715.000000" y="286.304707" fill="rgb(255, 255, 255)" style="fill-opacity:1.00" />
<!-- End 'C' -->
<!-- Begin 'A' -->
<polygon points=" 690.000000, 317.242074, 711.000000, 304.105572, 719.000000, 304.105572, 740.000000, 317.242074, 732.500000, 317.242074, 726.250000, 313.957948, 703.750000, 313.957948, 697.500000, 317.242074" fill="rgb(178, 34, 34)" style="fill-opacity:0.81" />
<polygon points=" 715.000000, 306.732872, 707.000000, 310.987473, 722.000000, 310.987473" fill="rgb(255, 255, 255)" style="fill-opacity:1.00" />
<!-- End 'A' -->
<!-- Begin 'G' -->
<ellipse cx="715.000000" cy="323.621037" rx="25.000000" ry="6.378963" fill="rgb(255, 165, 0)" style="fill-opacity:0.81" />
<ellipse cx="715.000000" cy="323.621037" rx="16.666667" ry="4.252642" fill="rgb(255, 255, 255)" style="fill-opacity:1.00" />
<rect height="6.378963" width="25.000000" x="715.000000" y="320.431555" fill="rgb(255, 255, 255)" style="fill-opacity:1.00" />
<rect height="1.594741" width="25.000000" x="715.000000" y="325.215778" fill="rgb(255, 165, 0)" style="fill-opacity:0.81" />
<rect height="4.784222" width="6.250000" x="733.750000" y="325.215778" fill="rgb(255, 165, 0)" style="fill-opacity:0.81" />
<!-- End 'G' -->
<!-- Begin 'A' -->
<polygon points=" 690.000000, 391.505342, 711.000000, 340.000000, 719.000000, 340.000000, 740.000000, 391.505342, 732.500000, 391.505342, 726.250000, 378.629007, 703.750000, 378.629007, 697.500000, 391.505342" fill="rgb(178, 34, 34)" style="fill-opacity:0.00" />
<polygon points=" 715.000000, 350.301068, 707.000000, 369.903205, 722.000000, 369.903205" fill="rgb(255, 255, 255)" style="fill-opacity:1.00" />
<!-- End 'A' -->
<!-- Begin 'T' -->
<rect height="6.125564" width="50.000000" x="690.000000" y="391.505342" fill="rgb(0, 100, 0)" style="fill-opacity:0.00" />
<rect height="38.284772" width="10.000000" x="710.000000" y="391.505342" fill="rgb(0, 100, 0)" style="fill-opacity:0.00" />
<!-- End 'T' -->
<!-- Begin 'C' -->
<ellipse cx="715.000000" cy="434.894851" rx="25.000000" ry="5.104737" fill="rgb(0, 0, 128)" style="fill-opacity:0.00" />
<ellipse cx="715.000000" cy="434.894851" rx="16.666667" ry="3.403158" fill="rgb(255, 255, 255)" style="fill-opacity:1.00" />
<rect height="5.104737" width="25.000000" x="715.000000" y="432.342483" fill="rgb(255, 255, 255)" style="fill-opacity:1.00" />
<!-- End 'C' -->
<!-- Begin 'G' -->
<ellipse cx="715.000000" cy="439.999794" rx="25.000000" ry="0.000206" fill="rgb(255, 165, 0)" style="fill-opacity:0.00" />
<ellipse cx="715.000000" cy="439.999794" rx="16.666667" ry="0.000137" fill="rgb(255, 255, 255)" style="fill-opacity:1.00" />
<rect height="0.000206" width="25.000000" x="715.000000" y="439.999691" fill="rgb(255, 255, 255)" style="fill-opacity:1.00" />
<rect height="0.000052" width="25.000000" x="715.000000" y="439.999845" fill="rgb(255, 165, 0)" style="fill-opacity:0.00" />
<rect height="0.000155" width="6.250000" x="733.750000" y="439.999845" fill="rgb(255, 165, 0)" style="fill-opacity:0.00" />
<!-- End 'G' -->
<!-- Begin 'G' -->
<ellipse cx="775.000000" cy="37.647785" rx="25.000000" ry="27.647785" fill="rgb(255, 165, 0)" style="fill-opacity:0.13" />
<ellipse cx="775.000000" cy="37.647785" rx="16.666667" ry="18.431857" fill="rgb(255, 255, 255)" style="fill-opacity:1.00" />
<rect height="27.647785" width="25.000000" x="775.000000" y="23.823893" fill="rgb(255, 255, 255)" style="fill-opacity:1.00" />
<rect height="6.911946" width="25.000000" x="775.000000" y="44.559731" fill="rgb(255, 165, 0)" style="fill-opacity:0.13" />
<rect height="20.735839" width="6.250000" x="793.750000" y="44.559731" fill="rgb(255, 165, 0)" style="fill-opacity:0.13" />
<!-- End 'G' -->
<!-- Begin 'A' -->
<polygon points=" 750.000000, 91.059941, 771.000000, 65.295570, 779.000000, 65.295570, 800.000000, 91.059941, 792.500000, 91.059941, 786.250000, 84.618848, 763.750000, 84.618848, 757.500000, 91.059941" fill="rgb(178, 34, 34)" style="fill-opacity:0.13" />
<polygon points=" 775.000000, 70.448444, 767.000000, 79.754192, 782.000000, 79.754192" fill="rgb(255, 255, 255)" style="fill-opacity:1.00" />
<!-- End 'A' -->
<!-- Begin 'C' -->
<ellipse cx="775.000000" cy="98.891095" rx="25.000000" ry="7.831155" fill="rgb(0, 0, 128)" style="fill-opacity:0.13" />
<ellipse cx="775.000000" cy="98.891095" rx="16.666667" ry="5.220770" fill="rgb(255, 255, 255)" style="fill-opacity:1.00" />
<rect height="7.831155" width="25.000000" x="775.000000" y="94.975518" fill="rgb(255, 255, 255)" style="fill-opacity:1.00" />
<!-- End 'C' -->
<!-- Begin 'T' -->
<rect height="0.524440" width="50.000000" x="750.000000" y="106.722250" fill="rgb(0, 100, 0)" style="fill-opacity:0.13" />
<rect height="3.277750" width="10.000000" x="770.000000" y="106.722250" fill="rgb(0, 100, 0)" style="fill-opacity:0.13" />
<!-- End 'T' -->
<!-- Begin 'G' -->
<ellipse cx="775.000000" cy="135.120026" rx="25.000000" ry="15.120026" fill="rgb(255, 165, 0)" style="fill-opacity:0.26" />
<ellipse cx="775.000000" cy="135.120026" rx="16.666667" ry="10.080017" fill="rgb(255, 255, 255)" style="fill-opacity:1.00" />
<rect height="15.120026" width="25.000000" x="775.000000" y="127.560013" fill="rgb(255, 255, 255)" style="fill-opacity:1.00" />
<rect height="3.780006" width="25.000000" x="775.000000" y="138.900032" fill="rgb(255, 165, 0)" style="fill-opacity:0.26" />
<rect height="11.340019" width="6.250000" x="793.750000" y="138.900032" fill="rgb(255, 165, 0)" style="fill-opacity:0.26" />
<!-- End 'G' -->
<!-- Begin 'C' -->
<ellipse cx="775.000000" cy="163.412071" rx="25.000000" ry="13.172019" fill="rgb(0, 0, 128)" style="fill-opacity:0.26" />
<ellipse cx="775.000000" cy="163.412071" rx="16.666667" ry="8.781346" fill="rgb(255, 255, 255)" style="fill-opacity:1.00" />
<rect height="13.172019" width="25.000000" x="775.000000" y="156.826061" fill="rgb(255, 255, 255)" style="fill-opacity:1.00" />
<!-- End 'C' -->
<!-- Begin 'A' -->
<polygon points=" 750.000000, 202.429922, 771.000000, 176.584090, 779.000000, 176.584090, 800.000000, 202.429922, 792.500000, 202.429922, 786.250000, 195.968464, 763.750000, 195.968464, 757.500000, 202.429922" fill="rgb(178, 34, 34)" style="fill-opacity:0.26" />
<polygon points=" 775.000000, 181.753257, 767.000000, 191.091589, 782.000000, 191.091589" fill="rgb(255, 255, 255)" style="fill-opacity:1.00" />
<!-- End 'A' -->
<!-- Begin 'T' -->
<rect height="2.811213" width="50.000000" x="750.000000" y="202.429922" fill="rgb(0, 100, 0)" style="fill-opacity:0.26" />
<rect height="17.570078" width="10.000000" x="770.000000" y="202.429922" fill="rgb(0, 100, 0)" style="fill-opacity:0.26" />
<!-- End 'T' -->
<!-- Begin 'G' -->
<ellipse cx="775.000000" cy="250.215246" rx="25.000000" ry="20.215246" fill="rgb(255, 165, 0)" style="fill-opacity:0.11" />
<ellipse cx="775.000000" cy="250.215246" rx="16.666667" ry="13.476830" fill="rgb(255, 255, 255)" style="fill-opacity:1.00" />
<rect height="20.215246" width="25.000000" x="775.000000" y="240.107623" fill="rgb(255, 255, 255)" style="fill-opacity:1.00" />
<rect height="5.053811" width="25.000000" x="775.000000" y="255.269057" fill="rgb(255, 165, 0)" style="fill-opacity:0.11" />
<rect height="15.161434" width="6.250000" x="793.750000" y="255.269057" fill="rgb(255, 165, 0)" style="fill-opacity:0.11" />
<!-- End 'G' -->
<!-- Begin 'A' -->
<polygon points=" 750.000000, 300.087551, 771.000000, 270.430491, 779.000000, 270.430491, 800.000000, 300.087551, 792.500000, 300.087551, 786.250000, 292.673286, 763.750000, 292.673286, 757.500000, 300.087551" fill="rgb(178, 34, 34)" style="fill-opacity:0.11" />
<polygon points=" 775.000000, 276.361903, 767.000000, 287.224727, 782.000000, 287.224727" fill="rgb(255, 255, 255)" style="fill-opacity:1.00" />
<!-- End 'A' -->
<!-- Begin 'C' -->
<ellipse cx="775.000000" cy="312.417092" rx="25.000000" ry="12.329541" fill="rgb(0, 0, 128)" style="fill-opacity:0.11" />
<ellipse cx="775.000000" cy="312.417092" rx="16.666667" ry="8.219694" fill="rgb(255, 255, 255)" style="fill-opacity:1.00" />
<rect height="12.329541" width="25.000000" x="775.000000" y="306.252321" fill="rgb(255, 255, 255)" style="fill-opacity:1.00" />
<!-- End 'C' -->
<!-- Begin 'T' -->
<rect height="0.840539" width="50.000000" x="750.000000" y="324.746633" fill="rgb(0, 100, 0)" style="fill-opacity:0.11" />
<rect height="5.253367" width="10.000000" x="770.000000" y="324.746633" fill="rgb(0, 100, 0)" style="fill-opacity:0.11" />
<!-- End 'T' -->
<!-- Begin 'G' -->
<ellipse cx="775.000000" cy="369.860410" rx="25.000000" ry="29.860410" fill="rgb(255, 165, 0)" style="fill-opacity:0.51" />
<ellipse cx="775.000000" cy="369.860410" rx="16.666667" ry="19.906940" fill="rgb(255, 255, 255)" style="fill-opacity:1.00" />
<rect height="29.860410" width="25.000000" x="775.000000" y="354.930205" fill="rgb(255, 255, 255)" style="fill-opacity:1.00" />
<rect height="7.465102" width="25.000000" x="775.000000" y="377.325512" fill="rgb(255, 165, 0)" style="fill-opacity:0.51" />
<rect height="22.395307" width="6.250000" x="793.750000" y="377.325512" fill="rgb(255, 165, 0)" style="fill-opacity:0.51" />
<!-- End 'G' -->
<!-- Begin 'C' -->
<ellipse cx="775.000000" cy="407.213458" rx="25.000000" ry="7.492639" fill="rgb(0, 0, 128)" style="fill-opacity:0.51" />
<ellipse cx="775.000000" cy="407.213458" rx="16.666667" ry="4.995092" fill="rgb(255, 255, 255)" style="fill-opacity:1.00" />
<rect height="7.492639" width="25.000000" x="775.000000" y="403.467139" fill="rgb(255, 255, 255)" style="fill-opacity:1.00" />
<!-- End 'C' -->
<!-- Begin 'A' -->
<polygon points=" 750.000000, 429.314679, 771.000000, 414.706097, 779.000000, 414.706097, 800.000000, 429.314679, 792.500000, 429.314679, 786.250000, 425.662533, 763.750000, 425.662533, 757.500000, 429.314679" fill="rgb(178, 34, 34)" style="fill-opacity:0.51" />
<polygon points=" 775.000000, 417.627813, 767.000000, 422.471246, 782.000000, 422.471246" fill="rgb(255, 255, 255)" style="fill-opacity:1.00" />
<!-- End 'A' -->
<!-- Begin 'T' -->
<rect height="1.709651" width="50.000000" x="750.000000" y="429.314679" fill="rgb(0, 100, 0)" style="fill-opacity:0.51" />
<rect height="10.685321" width="10.000000" x="770.000000" y="429.314679" fill="rgb(0, 100, 0)" style="fill-opacity:0.51" />
<!-- End 'T' -->
<text x="430.000000" y="495">
IC = 11.10
</text>

</svg>
