<?xml version="1.0" encoding="UTF-8"?>
<svg xmlns="http://www.w3.org/2000/svg" xmlns:xlink="http://www.w3.org/1999/xlink" width="720pt" height="360pt" viewBox="0 0 720 360" version="1.1">
<defs>
<g>
<symbol overflow="visible" id="glyph0-0">
<path style="stroke:none;" d=""/>
</symbol>
<symbol overflow="visible" id="glyph0-1">
<path style="stroke:none;" d="M 2.640625 -6.796875 C 2 -6.796875 1.421875 -6.53125 1.078125 -6.046875 C 0.640625 -5.453125 0.40625 -4.546875 0.40625 -3.296875 C 0.40625 -1 1.1875 0.21875 2.640625 0.21875 C 4.078125 0.21875 4.859375 -1 4.859375 -3.234375 C 4.859375 -4.5625 4.65625 -5.4375 4.203125 -6.046875 C 3.84375 -6.53125 3.28125 -6.796875 2.640625 -6.796875 Z M 2.640625 -6.046875 C 3.546875 -6.046875 4 -5.125 4 -3.3125 C 4 -1.375 3.5625 -0.484375 2.625 -0.484375 C 1.734375 -0.484375 1.28125 -1.421875 1.28125 -3.28125 C 1.28125 -5.140625 1.734375 -6.046875 2.640625 -6.046875 Z M 2.640625 -6.046875 "/>
</symbol>
<symbol overflow="visible" id="glyph0-2">
<path style="stroke:none;" d="M 1.828125 -1 L 0.828125 -1 L 0.828125 0 L 1.828125 0 Z M 1.828125 -1 "/>
</symbol>
<symbol overflow="visible" id="glyph0-3">
<path style="stroke:none;" d="M 4.5625 -6.796875 L 1.0625 -6.796875 L 0.546875 -3.09375 L 1.328125 -3.09375 C 1.71875 -3.5625 2.046875 -3.734375 2.578125 -3.734375 C 3.484375 -3.734375 4.0625 -3.109375 4.0625 -2.09375 C 4.0625 -1.125 3.484375 -0.53125 2.578125 -0.53125 C 1.828125 -0.53125 1.375 -0.90625 1.1875 -1.671875 L 0.328125 -1.671875 C 0.453125 -1.109375 0.546875 -0.84375 0.75 -0.59375 C 1.125 -0.078125 1.828125 0.21875 2.59375 0.21875 C 3.96875 0.21875 4.921875 -0.78125 4.921875 -2.21875 C 4.921875 -3.5625 4.03125 -4.484375 2.71875 -4.484375 C 2.25 -4.484375 1.859375 -4.359375 1.46875 -4.0625 L 1.734375 -5.96875 L 4.5625 -5.96875 Z M 4.5625 -6.796875 "/>
</symbol>
<symbol overflow="visible" id="glyph0-4">
<path style="stroke:none;" d="M 2.484375 -4.84375 L 2.484375 0 L 3.328125 0 L 3.328125 -6.796875 L 2.765625 -6.796875 C 2.46875 -5.75 2.28125 -5.609375 0.984375 -5.453125 L 0.984375 -4.84375 Z M 2.484375 -4.84375 "/>
</symbol>
<symbol overflow="visible" id="glyph0-5">
<path style="stroke:none;" d="M 4.859375 -0.828125 L 1.28125 -0.828125 C 1.359375 -1.390625 1.671875 -1.75 2.5 -2.234375 L 3.46875 -2.75 C 4.40625 -3.265625 4.90625 -3.96875 4.90625 -4.8125 C 4.90625 -5.375 4.671875 -5.90625 4.265625 -6.265625 C 3.859375 -6.625 3.375 -6.796875 2.71875 -6.796875 C 1.859375 -6.796875 1.21875 -6.5 0.84375 -5.921875 C 0.609375 -5.5625 0.5 -5.125 0.484375 -4.4375 L 1.328125 -4.4375 C 1.359375 -4.90625 1.40625 -5.1875 1.53125 -5.40625 C 1.75 -5.8125 2.1875 -6.0625 2.703125 -6.0625 C 3.46875 -6.0625 4.03125 -5.515625 4.03125 -4.78125 C 4.03125 -4.25 3.71875 -3.796875 3.125 -3.4375 L 2.234375 -2.9375 C 0.8125 -2.140625 0.40625 -1.5 0.328125 0 L 4.859375 0 Z M 4.859375 -0.828125 "/>
</symbol>
<symbol overflow="visible" id="glyph0-6">
<path style="stroke:none;" d="M 2.125 -3.125 L 2.578125 -3.125 C 3.515625 -3.125 3.984375 -2.703125 3.984375 -1.890625 C 3.984375 -1.03125 3.46875 -0.53125 2.578125 -0.53125 C 1.65625 -0.53125 1.203125 -0.984375 1.15625 -1.96875 L 0.3125 -1.96875 C 0.34375 -1.421875 0.4375 -1.078125 0.609375 -0.765625 C 0.953125 -0.109375 1.625 0.21875 2.546875 0.21875 C 3.953125 0.21875 4.859375 -0.609375 4.859375 -1.90625 C 4.859375 -2.765625 4.515625 -3.25 3.703125 -3.515625 C 4.34375 -3.765625 4.65625 -4.25 4.65625 -4.9375 C 4.65625 -6.109375 3.875 -6.796875 2.578125 -6.796875 C 1.203125 -6.796875 0.484375 -6.046875 0.453125 -4.609375 L 1.296875 -4.609375 C 1.3125 -5.015625 1.34375 -5.25 1.453125 -5.453125 C 1.640625 -5.828125 2.0625 -6.0625 2.59375 -6.0625 C 3.34375 -6.0625 3.796875 -5.625 3.796875 -4.90625 C 3.796875 -4.421875 3.609375 -4.140625 3.25 -3.984375 C 3.015625 -3.890625 2.71875 -3.84375 2.125 -3.84375 Z M 2.125 -3.125 "/>
</symbol>
<symbol overflow="visible" id="glyph0-7">
<path style="stroke:none;" d="M 3.140625 -1.625 L 3.140625 0 L 3.984375 0 L 3.984375 -1.625 L 4.984375 -1.625 L 4.984375 -2.390625 L 3.984375 -2.390625 L 3.984375 -6.796875 L 3.359375 -6.796875 L 0.265625 -2.515625 L 0.265625 -1.625 Z M 3.140625 -2.390625 L 1 -2.390625 L 3.140625 -5.359375 Z M 3.140625 -2.390625 "/>
</symbol>
<symbol overflow="visible" id="glyph0-8">
<path style="stroke:none;" d="M 4.78125 -5.03125 C 4.609375 -6.140625 3.890625 -6.796875 2.84375 -6.796875 C 2.09375 -6.796875 1.421875 -6.4375 1.03125 -5.828125 C 0.609375 -5.171875 0.40625 -4.34375 0.40625 -3.09375 C 0.40625 -1.953125 0.578125 -1.234375 0.984375 -0.625 C 1.359375 -0.078125 1.953125 0.21875 2.703125 0.21875 C 3.984375 0.21875 4.921875 -0.734375 4.921875 -2.078125 C 4.921875 -3.34375 4.0625 -4.234375 2.84375 -4.234375 C 2.171875 -4.234375 1.640625 -3.96875 1.28125 -3.46875 C 1.28125 -5.125 1.828125 -6.046875 2.796875 -6.046875 C 3.390625 -6.046875 3.796875 -5.671875 3.9375 -5.03125 Z M 2.734375 -3.484375 C 3.546875 -3.484375 4.0625 -2.921875 4.0625 -2 C 4.0625 -1.15625 3.484375 -0.53125 2.703125 -0.53125 C 1.921875 -0.53125 1.328125 -1.1875 1.328125 -2.046875 C 1.328125 -2.890625 1.90625 -3.484375 2.734375 -3.484375 Z M 2.734375 -3.484375 "/>
</symbol>
<symbol overflow="visible" id="glyph0-9">
<path style="stroke:none;" d="M 4.984375 -6.796875 L 0.4375 -6.796875 L 0.4375 -5.96875 L 4.109375 -5.96875 C 2.5 -3.65625 1.828125 -2.234375 1.328125 0 L 2.21875 0 C 2.59375 -2.171875 3.453125 -4.046875 4.984375 -6.09375 Z M 4.984375 -6.796875 "/>
</symbol>
<symbol overflow="visible" id="glyph0-10">
<path style="stroke:none;" d="M 3.75 -3.578125 C 4.453125 -4 4.6875 -4.34375 4.6875 -4.984375 C 4.6875 -6.046875 3.84375 -6.796875 2.640625 -6.796875 C 1.4375 -6.796875 0.59375 -6.046875 0.59375 -4.984375 C 0.59375 -4.359375 0.828125 -4.015625 1.515625 -3.578125 C 0.734375 -3.203125 0.359375 -2.640625 0.359375 -1.890625 C 0.359375 -0.640625 1.296875 0.21875 2.640625 0.21875 C 3.984375 0.21875 4.921875 -0.640625 4.921875 -1.875 C 4.921875 -2.640625 4.53125 -3.203125 3.75 -3.578125 Z M 2.640625 -6.046875 C 3.359375 -6.046875 3.8125 -5.625 3.8125 -4.96875 C 3.8125 -4.34375 3.34375 -3.921875 2.640625 -3.921875 C 1.921875 -3.921875 1.453125 -4.34375 1.453125 -4.984375 C 1.453125 -5.625 1.921875 -6.046875 2.640625 -6.046875 Z M 2.640625 -3.203125 C 3.484375 -3.203125 4.0625 -2.671875 4.0625 -1.875 C 4.0625 -1.0625 3.484375 -0.53125 2.625 -0.53125 C 1.796875 -0.53125 1.21875 -1.078125 1.21875 -1.875 C 1.21875 -2.671875 1.796875 -3.203125 2.640625 -3.203125 Z M 2.640625 -3.203125 "/>
</symbol>
<symbol overflow="visible" id="glyph0-11">
<path style="stroke:none;" d="M 0.515625 -1.546875 C 0.671875 -0.4375 1.40625 0.21875 2.4375 0.21875 C 3.1875 0.21875 3.859375 -0.140625 4.265625 -0.75 C 4.6875 -1.40625 4.890625 -2.25 4.890625 -3.484375 C 4.890625 -4.625 4.703125 -5.359375 4.3125 -5.953125 C 3.9375 -6.5 3.34375 -6.796875 2.59375 -6.796875 C 1.296875 -6.796875 0.359375 -5.84375 0.359375 -4.515625 C 0.359375 -3.25 1.234375 -2.34375 2.453125 -2.34375 C 3.09375 -2.34375 3.5625 -2.578125 4.015625 -3.109375 C 4 -1.453125 3.46875 -0.53125 2.5 -0.53125 C 1.90625 -0.53125 1.484375 -0.90625 1.359375 -1.546875 Z M 2.578125 -6.0625 C 3.375 -6.0625 3.96875 -5.40625 3.96875 -4.53125 C 3.96875 -3.6875 3.375 -3.09375 2.546875 -3.09375 C 1.734375 -3.09375 1.234375 -3.671875 1.234375 -4.578125 C 1.234375 -5.4375 1.796875 -6.0625 2.578125 -6.0625 Z M 2.578125 -6.0625 "/>
</symbol>
<symbol overflow="visible" id="glyph1-0">
<path style="stroke:none;" d=""/>
</symbol>
<symbol overflow="visible" id="glyph1-1">
<path style="stroke:none;" d="M 0 -0.953125 L 0 -4.890625 C 0 -5.71875 -0.234375 -6.34375 -0.734375 -6.796875 C -1.1875 -7.234375 -1.8125 -7.46875 -2.5 -7.46875 C -3.546875 -7.46875 -4.1875 -7 -4.625 -5.875 C -4.984375 -6.671875 -5.640625 -7.09375 -6.53125 -7.09375 C -7.15625 -7.09375 -7.734375 -6.859375 -8.140625 -6.390625 C -8.5625 -5.9375 -8.75 -5.34375 -8.75 -4.5 L -8.75 -0.953125 Z M -4.984375 -2.0625 L -7.765625 -2.0625 L -7.765625 -4.21875 C -7.765625 -4.84375 -7.6875 -5.203125 -7.453125 -5.5 C -7.21875 -5.8125 -6.859375 -5.96875 -6.375 -5.96875 C -5.90625 -5.96875 -5.53125 -5.8125 -5.296875 -5.5 C -5.0625 -5.203125 -4.984375 -4.84375 -4.984375 -4.21875 Z M -0.984375 -2.0625 L -4 -2.0625 L -4 -4.78125 C -4 -5.328125 -3.859375 -5.6875 -3.578125 -5.953125 C -3.296875 -6.21875 -2.921875 -6.359375 -2.484375 -6.359375 C -2.0625 -6.359375 -1.6875 -6.21875 -1.40625 -5.953125 C -1.109375 -5.6875 -0.984375 -5.328125 -0.984375 -4.78125 Z M -0.984375 -2.0625 "/>
</symbol>
<symbol overflow="visible" id="glyph1-2">
<path style="stroke:none;" d="M -6.28125 -1.796875 L -6.28125 -0.796875 L 0 -0.796875 L 0 -1.796875 Z M -8.75 -1.796875 L -8.75 -0.796875 L -7.484375 -0.796875 L -7.484375 -1.796875 Z M -8.75 -1.796875 "/>
</symbol>
<symbol overflow="visible" id="glyph1-3">
<path style="stroke:none;" d="M -6.28125 -3.046875 L -6.28125 -2.015625 L -8.015625 -2.015625 L -8.015625 -1.015625 L -6.28125 -1.015625 L -6.28125 -0.171875 L -5.46875 -0.171875 L -5.46875 -1.015625 L -0.71875 -1.015625 C -0.078125 -1.015625 0.28125 -1.453125 0.28125 -2.234375 C 0.28125 -2.46875 0.25 -2.71875 0.1875 -3.046875 L -0.640625 -3.046875 C -0.609375 -2.921875 -0.59375 -2.765625 -0.59375 -2.5625 C -0.59375 -2.140625 -0.71875 -2.015625 -1.15625 -2.015625 L -5.46875 -2.015625 L -5.46875 -3.046875 Z M -6.28125 -3.046875 "/>
</symbol>
<symbol overflow="visible" id="glyph1-4">
<path style="stroke:none;" d="M -4.53125 -5.25 C -5.765625 -5.25 -6.46875 -4.421875 -6.46875 -2.96875 C -6.46875 -1.515625 -5.71875 -0.5625 -4.546875 -0.5625 C -3.5625 -0.5625 -3.09375 -1.0625 -2.734375 -2.5625 L -2.515625 -3.484375 C -2.34375 -4.1875 -2.09375 -4.46875 -1.625 -4.46875 C -1.046875 -4.46875 -0.640625 -3.875 -0.640625 -3 C -0.640625 -2.453125 -0.796875 -2 -1.0625 -1.75 C -1.25 -1.59375 -1.421875 -1.53125 -1.875 -1.46875 L -1.875 -0.40625 C -0.421875 -0.453125 0.28125 -1.265625 0.28125 -2.921875 C 0.28125 -4.5 -0.5 -5.515625 -1.71875 -5.515625 C -2.65625 -5.515625 -3.171875 -4.984375 -3.46875 -3.734375 L -3.703125 -2.765625 C -3.890625 -1.953125 -4.15625 -1.609375 -4.59375 -1.609375 C -5.171875 -1.609375 -5.546875 -2.125 -5.546875 -2.9375 C -5.546875 -3.75 -5.203125 -4.171875 -4.53125 -4.203125 Z M -4.53125 -5.25 "/>
</symbol>
</g>
</defs>
<g id="surface25470">
<rect x="0" y="0" width="720" height="360" style="fill:rgb(100%,100%,100%);fill-opacity:1;stroke:none;"/>
<path style=" stroke:none;fill-rule:nonzero;fill:rgb(14.509804%,36.078431%,60%);fill-opacity:1;" d="M 69.628906 312.175781 L 69.679688 312.171875 L 69.679688 312.085938 L 69.832031 311.949219 L 70.191406 311.78125 L 70.546875 311.664062 L 71.464844 311.453125 L 72.738281 311.25 L 74.0625 311.09375 L 75.03125 311.003906 L 75.898438 310.929688 L 77.886719 310.800781 L 79.160156 310.730469 L 80.535156 310.671875 L 82.21875 310.613281 L 83.441406 310.574219 L 86.195312 310.519531 L 88.234375 310.496094 L 89.8125 310.484375 L 93.226562 310.484375 L 95.265625 310.496094 L 96.746094 310.515625 L 98.375 310.542969 L 99.75 310.574219 L 102.148438 310.652344 L 104.289062 310.753906 L 105.257812 310.808594 L 106.785156 310.921875 L 107.957031 311.027344 L 108.773438 311.121094 L 109.691406 311.25 L 110.503906 311.410156 L 111.117188 311.59375 L 111.421875 311.746094 L 104.289062 311.746094 L 103.929688 311.601562 L 103.523438 311.492188 L 102.757812 311.347656 L 101.992188 311.242188 L 100.921875 311.140625 L 99.957031 311.074219 L 98.628906 311.007812 L 97.457031 310.964844 L 96.234375 310.929688 L 95.0625 310.910156 L 92.820312 310.886719 L 90.21875 310.886719 L 89.253906 310.894531 L 87.265625 310.925781 L 86.195312 310.949219 L 84.664062 311 L 83.59375 311.046875 L 82.320312 311.117188 L 81.453125 311.175781 L 80.382812 311.269531 L 79.617188 311.351562 L 78.753906 311.46875 L 78.242188 311.554688 L 77.785156 311.65625 L 77.375 311.773438 L 77.070312 311.898438 L 76.867188 312.027344 L 76.765625 312.15625 L 76.765625 312.707031 L 76.867188 312.835938 L 77.121094 312.984375 L 77.785156 313.203125 L 78.753906 313.390625 L 79.875 313.539062 L 80.945312 313.644531 L 81.554688 313.695312 L 82.371094 313.753906 L 83.644531 313.824219 L 85.480469 313.894531 L 86.550781 313.921875 L 88.183594 313.953125 L 89.863281 313.964844 L 92.105469 313.964844 L 94.09375 313.953125 L 95.417969 313.933594 L 96.796875 313.90625 L 98.679688 313.84375 L 99.851562 313.789062 L 100.871094 313.71875 L 101.636719 313.652344 L 102.148438 313.597656 L 102.910156 313.484375 L 103.523438 313.363281 L 103.980469 313.242188 L 104.289062 313.121094 L 111.421875 313.121094 L 111.117188 313.261719 L 110.660156 313.402344 L 110.199219 313.503906 L 109.484375 313.628906 L 108.671875 313.738281 L 107.5 313.863281 L 106.53125 313.945312 L 105.257812 314.03125 L 104.082031 314.101562 L 102.808594 314.160156 L 100.921875 314.230469 L 99.699219 314.269531 L 98.375 314.300781 L 96.796875 314.328125 L 94.808594 314.351562 L 92.667969 314.367188 L 90.679688 314.371094 L 88.539062 314.363281 L 86.957031 314.347656 L 84.867188 314.316406 L 82.269531 314.253906 L 80.382812 314.1875 L 78.90625 314.117188 L 77.632812 314.046875 L 76.203125 313.953125 L 74.371094 313.796875 L 73.25 313.675781 L 72.484375 313.574219 L 71.617188 313.4375 L 71.003906 313.3125 L 70.292969 313.113281 L 69.78125 312.859375 L 69.628906 312.664062 Z M 69.628906 312.175781 "/>
<path style=" stroke:none;fill-rule:nonzero;fill:rgb(96.862745%,70.196078%,16.862745%);fill-opacity:1;" d="M 69.628906 223.828125 L 69.679688 223.761719 L 69.679688 222.488281 L 69.882812 219.621094 L 70.394531 215.671875 L 71.054688 212.425781 L 71.769531 209.875 L 72.230469 208.539062 L 72.992188 206.628906 L 73.65625 205.226562 L 75.335938 202.359375 L 77.476562 199.683594 L 78.652344 198.539062 L 79.976562 197.453125 L 81.863281 196.246094 L 82.726562 195.796875 L 85.378906 194.777344 L 88.386719 194.140625 L 91.699219 193.949219 L 93.226562 194.015625 L 95.316406 194.269531 L 98.171875 194.96875 L 99.800781 195.605469 L 101.078125 196.246094 L 102.402344 197.074219 L 104.03125 198.347656 L 105.5625 199.875 L 106.785156 201.402344 L 108.007812 203.316406 L 109.027344 205.355469 L 109.894531 207.582031 L 110.660156 210.257812 L 111.117188 212.488281 L 111.421875 214.71875 L 104.339844 214.71875 L 103.929688 212.488281 L 103.472656 210.769531 L 102.707031 208.667969 L 101.941406 207.136719 L 101.179688 205.925781 L 99.75 204.269531 L 98.527344 203.25 L 97 202.359375 L 95.519531 201.785156 L 93.839844 201.402344 L 92.820312 201.277344 L 90.117188 201.277344 L 87.671875 201.722656 L 86.246094 202.230469 L 85.226562 202.742188 L 83.796875 203.699219 L 82.933594 204.460938 L 82.421875 204.972656 L 80.894531 206.945312 L 79.875 208.730469 L 79.3125 209.941406 L 78.601562 211.851562 L 78.089844 213.570312 L 77.53125 216.121094 L 77.222656 218.03125 L 76.816406 222.363281 L 76.765625 233.828125 L 76.917969 236.25 L 77.222656 238.859375 L 77.632812 241.152344 L 78.242188 243.574219 L 78.855469 245.421875 L 79.925781 247.90625 L 80.84375 249.5625 L 81.554688 250.644531 L 82.933594 252.367188 L 83.492188 252.9375 L 84.816406 254.085938 L 86.195312 254.976562 L 87.875 255.742188 L 89.148438 256.125 L 91.1875 256.441406 L 93.789062 256.441406 L 96.847656 256.058594 L 98.78125 255.550781 L 100.109375 255.039062 L 100.976562 254.59375 L 102.046875 253.894531 L 102.808594 253.257812 L 103.523438 252.554688 L 104.390625 251.472656 L 104.390625 236.25 L 91.800781 236.183594 L 91.800781 229.050781 L 111.371094 228.988281 L 111.421875 253.894531 L 110.351562 255.613281 L 109.027344 257.269531 L 107.753906 258.542969 L 106.429688 259.628906 L 104.542969 260.835938 L 103.011719 261.601562 L 100.667969 262.492188 L 98.527344 263.066406 L 96.285156 263.449219 L 94.296875 263.640625 L 91.953125 263.703125 L 89.863281 263.578125 L 87.621094 263.195312 L 85.835938 262.683594 L 84.207031 262.046875 L 82.574219 261.21875 L 80.535156 259.882812 L 79.210938 258.800781 L 77.835938 257.460938 L 76.460938 255.867188 L 75.234375 254.148438 L 74.421875 252.8125 L 73.605469 251.28125 L 72.738281 249.371094 L 71.921875 247.207031 L 71.3125 245.230469 L 70.75 243 L 70.34375 240.898438 L 69.933594 238.03125 L 69.730469 235.738281 L 69.628906 233.765625 Z M 69.628906 223.828125 "/>
<path style=" stroke:none;fill-rule:nonzero;fill:rgb(83.921569%,15.686275%,22.352941%);fill-opacity:1;" d="M 69.628906 264.882812 L 111.421875 264.882812 L 111.421875 269.640625 L 94.003906 269.679688 L 94.003906 309.304688 L 86.996094 309.304688 L 86.996094 269.722656 L 86.894531 269.640625 L 69.628906 269.640625 Z M 69.628906 264.882812 "/>
<path style=" stroke:none;fill-rule:nonzero;fill:rgb(14.509804%,36.078431%,60%);fill-opacity:1;" d="M 113.621094 148.457031 L 113.671875 148.1875 L 113.671875 141.742188 L 113.828125 131.542969 L 114.183594 118.65625 L 114.539062 109.796875 L 115.457031 93.957031 L 116.730469 78.652344 L 118.058594 66.839844 L 119.023438 59.859375 L 119.890625 54.492188 L 121.878906 44.558594 L 123.152344 39.457031 L 124.53125 34.890625 L 126.210938 30.328125 L 127.433594 27.644531 L 130.1875 23.347656 L 132.226562 21.46875 L 133.804688 20.664062 L 137.222656 20.664062 L 139.257812 21.738281 L 140.738281 23.078125 L 142.367188 25.226562 L 143.746094 27.644531 L 146.140625 33.550781 L 148.28125 41.066406 L 149.25 45.363281 L 150.777344 53.683594 L 151.949219 61.738281 L 152.765625 68.71875 L 153.683594 78.652344 L 154.5 90.734375 L 155.109375 104.425781 L 155.417969 115.96875 L 148.28125 115.96875 L 147.925781 105.230469 L 147.515625 96.910156 L 146.75 85.902344 L 145.988281 78.117188 L 144.917969 70.332031 L 143.949219 65.230469 L 142.625 60.128906 L 141.453125 56.90625 L 140.226562 54.492188 L 139.054688 52.878906 L 136.8125 51.269531 L 134.214844 51.269531 L 133.246094 51.804688 L 131.257812 53.953125 L 130.1875 55.832031 L 128.660156 59.589844 L 127.589844 63.082031 L 126.3125 68.449219 L 125.449219 73.015625 L 124.378906 79.996094 L 123.613281 86.171875 L 122.746094 95.03125 L 122.234375 101.742188 L 121.777344 109.257812 L 121.371094 118.117188 L 121.0625 127.515625 L 120.859375 137.449219 L 120.757812 147.113281 L 120.757812 188.726562 L 120.859375 198.390625 L 121.113281 209.667969 L 121.777344 226.042969 L 122.746094 240.273438 L 123.867188 251.546875 L 124.9375 259.601562 L 125.550781 263.359375 L 126.363281 267.65625 L 127.640625 273.027344 L 129.472656 278.394531 L 130.542969 280.542969 L 132.175781 282.691406 L 133.855469 283.765625 L 136.097656 283.765625 L 138.085938 282.691406 L 139.414062 281.347656 L 140.789062 279.199219 L 142.675781 274.636719 L 143.847656 270.339844 L 144.867188 265.242188 L 145.628906 260.140625 L 146.140625 255.84375 L 146.90625 247.519531 L 147.515625 238.394531 L 147.976562 228.996094 L 148.28125 219.867188 L 155.417969 219.867188 L 155.109375 230.609375 L 154.652344 241.078125 L 154.191406 248.863281 L 153.480469 258.261719 L 152.664062 266.582031 L 151.492188 275.980469 L 150.523438 282.152344 L 149.25 288.867188 L 148.078125 293.96875 L 146.804688 298.53125 L 144.917969 303.898438 L 143.695312 306.585938 L 142.367188 309 L 140.789062 311.148438 L 138.800781 313.027344 L 136.660156 314.101562 L 134.671875 314.371094 L 132.53125 313.832031 L 130.953125 312.761719 L 128.863281 310.34375 L 126.261719 305.511719 L 124.378906 300.410156 L 122.898438 295.308594 L 121.625 289.941406 L 120.199219 282.691406 L 118.363281 270.878906 L 117.242188 261.75 L 116.476562 254.234375 L 115.609375 243.761719 L 115 234.367188 L 114.285156 219.332031 L 113.777344 200.269531 L 113.621094 185.503906 Z M 113.621094 148.457031 "/>
<path style=" stroke:none;fill-rule:nonzero;fill:rgb(83.921569%,15.686275%,22.352941%);fill-opacity:1;" d="M 157.617188 20.664062 L 199.410156 20.664062 L 199.410156 52.101562 L 181.992188 52.378906 L 181.992188 314.371094 L 174.984375 314.371094 L 174.984375 52.652344 L 174.882812 52.101562 L 157.617188 52.101562 Z M 157.617188 20.664062 "/>
<path style=" stroke:none;fill-rule:nonzero;fill:rgb(6.27451%,58.823529%,28.235294%);fill-opacity:1;" d="M 201.609375 274.996094 L 201.652344 274.929688 L 219.738281 204.566406 L 225.230469 204.566406 L 243.402344 275.0625 L 237.019531 275.0625 L 232.464844 256.660156 L 212.503906 256.660156 L 208.039062 274.996094 L 201.609375 274.996094 L 214.425781 249.046875 L 230.632812 248.980469 L 222.550781 216.082031 L 222.460938 216.015625 L 222.371094 216.214844 L 214.378906 248.980469 L 214.425781 249.046875 Z M 201.609375 274.996094 "/>
<path style=" stroke:none;fill-rule:nonzero;fill:rgb(14.509804%,36.078431%,60%);fill-opacity:1;" d="M 201.609375 287.800781 L 201.660156 287.777344 L 201.660156 287.195312 L 201.8125 286.273438 L 202.171875 285.105469 L 202.527344 284.304688 L 203.445312 282.871094 L 204.71875 281.488281 L 206.042969 280.417969 L 207.011719 279.789062 L 207.878906 279.300781 L 209.867188 278.402344 L 211.140625 277.941406 L 212.515625 277.53125 L 214.199219 277.117188 L 215.421875 276.875 L 218.175781 276.484375 L 220.210938 276.316406 L 221.792969 276.242188 L 225.207031 276.242188 L 227.246094 276.339844 L 228.722656 276.460938 L 230.355469 276.65625 L 231.730469 276.875 L 234.128906 277.410156 L 236.269531 278.089844 L 237.234375 278.476562 L 238.765625 279.230469 L 239.9375 279.957031 L 240.753906 280.589844 L 241.671875 281.488281 L 242.484375 282.582031 L 243.097656 283.820312 L 243.402344 284.863281 L 236.269531 284.863281 L 235.910156 283.890625 L 235.503906 283.140625 L 234.738281 282.144531 L 233.972656 281.441406 L 232.902344 280.734375 L 231.933594 280.273438 L 230.609375 279.8125 L 229.4375 279.519531 L 228.214844 279.300781 L 227.042969 279.15625 L 224.800781 279.011719 L 222.199219 279.011719 L 221.230469 279.058594 L 219.246094 279.253906 L 218.175781 279.425781 L 216.644531 279.765625 L 215.574219 280.078125 L 214.300781 280.566406 L 213.433594 280.976562 L 212.363281 281.609375 L 211.597656 282.167969 L 210.734375 282.96875 L 210.222656 283.578125 L 209.765625 284.257812 L 209.355469 285.058594 L 209.050781 285.90625 L 208.847656 286.804688 L 208.746094 287.679688 L 208.746094 291.445312 L 208.847656 292.320312 L 209.101562 293.339844 L 209.765625 294.820312 L 210.734375 296.105469 L 211.855469 297.128906 L 212.925781 297.855469 L 213.535156 298.195312 L 214.351562 298.585938 L 215.625 299.070312 L 217.460938 299.554688 L 218.53125 299.75 L 220.160156 299.945312 L 221.84375 300.042969 L 224.085938 300.042969 L 226.074219 299.945312 L 227.398438 299.824219 L 228.777344 299.628906 L 230.660156 299.214844 L 231.832031 298.828125 L 232.851562 298.367188 L 233.617188 297.90625 L 234.128906 297.515625 L 234.890625 296.761719 L 235.503906 295.9375 L 235.960938 295.085938 L 236.269531 294.261719 L 243.402344 294.261719 L 243.097656 295.234375 L 242.640625 296.179688 L 242.179688 296.882812 L 241.464844 297.734375 L 240.652344 298.488281 L 239.480469 299.335938 L 238.511719 299.894531 L 237.234375 300.503906 L 236.0625 300.964844 L 234.789062 301.375 L 232.902344 301.863281 L 231.679688 302.105469 L 230.355469 302.324219 L 228.777344 302.519531 L 226.789062 302.6875 L 224.648438 302.785156 L 222.660156 302.808594 L 220.519531 302.761719 L 218.9375 302.664062 L 216.847656 302.445312 L 214.25 302.007812 L 212.363281 301.546875 L 210.886719 301.085938 L 209.613281 300.601562 L 208.183594 299.945312 L 206.347656 298.875 L 205.226562 298.050781 L 204.464844 297.371094 L 203.597656 296.421875 L 202.984375 295.574219 L 202.273438 294.214844 L 201.761719 292.488281 L 201.609375 291.152344 Z M 201.609375 287.800781 "/>
<path style=" stroke:none;fill-rule:nonzero;fill:rgb(96.862745%,70.196078%,16.862745%);fill-opacity:1;" d="M 201.609375 308.4375 L 201.660156 308.425781 L 201.660156 308.238281 L 201.863281 307.808594 L 202.375 307.222656 L 203.035156 306.738281 L 203.75 306.359375 L 204.207031 306.160156 L 204.972656 305.875 L 205.636719 305.667969 L 207.316406 305.242188 L 209.457031 304.84375 L 210.628906 304.671875 L 211.957031 304.511719 L 213.84375 304.332031 L 214.707031 304.265625 L 217.359375 304.113281 L 220.367188 304.019531 L 223.679688 303.988281 L 225.207031 304 L 227.296875 304.035156 L 230.152344 304.140625 L 231.78125 304.234375 L 233.058594 304.332031 L 234.382812 304.453125 L 236.011719 304.644531 L 237.542969 304.871094 L 238.765625 305.097656 L 239.988281 305.382812 L 241.007812 305.6875 L 241.875 306.019531 L 242.640625 306.417969 L 243.097656 306.75 L 243.402344 307.078125 L 236.320312 307.078125 L 235.910156 306.75 L 235.453125 306.492188 L 234.6875 306.179688 L 233.921875 305.953125 L 233.160156 305.773438 L 231.730469 305.523438 L 230.507812 305.375 L 228.980469 305.242188 L 227.5 305.15625 L 225.820312 305.097656 L 224.800781 305.078125 L 222.097656 305.078125 L 219.652344 305.144531 L 218.226562 305.222656 L 217.207031 305.296875 L 215.777344 305.441406 L 214.914062 305.554688 L 214.402344 305.628906 L 212.875 305.921875 L 211.855469 306.1875 L 211.292969 306.367188 L 210.578125 306.652344 L 210.070312 306.910156 L 209.507812 307.289062 L 209.203125 307.574219 L 208.796875 308.21875 L 208.746094 309.925781 L 208.898438 310.285156 L 209.203125 310.671875 L 209.613281 311.015625 L 210.222656 311.375 L 210.835938 311.648438 L 211.90625 312.019531 L 212.824219 312.265625 L 213.535156 312.425781 L 214.914062 312.683594 L 215.472656 312.769531 L 216.796875 312.9375 L 218.175781 313.070312 L 219.855469 313.1875 L 221.128906 313.242188 L 223.167969 313.289062 L 225.769531 313.289062 L 228.828125 313.234375 L 230.761719 313.15625 L 232.089844 313.082031 L 232.953125 313.015625 L 234.023438 312.910156 L 234.789062 312.816406 L 235.503906 312.710938 L 236.371094 312.550781 L 236.371094 310.285156 L 223.78125 310.273438 L 223.78125 309.214844 L 243.351562 309.203125 L 243.402344 312.910156 L 242.332031 313.167969 L 241.007812 313.414062 L 239.734375 313.601562 L 238.410156 313.765625 L 236.523438 313.945312 L 234.992188 314.058594 L 232.648438 314.191406 L 230.507812 314.277344 L 228.265625 314.332031 L 226.277344 314.359375 L 223.933594 314.371094 L 221.84375 314.351562 L 219.601562 314.292969 L 217.816406 314.21875 L 216.1875 314.125 L 214.554688 314 L 212.515625 313.800781 L 211.191406 313.640625 L 209.816406 313.441406 L 208.4375 313.203125 L 207.214844 312.949219 L 206.402344 312.75 L 205.585938 312.523438 L 204.71875 312.238281 L 203.902344 311.914062 L 203.292969 311.621094 L 202.730469 311.289062 L 202.324219 310.976562 L 201.914062 310.550781 L 201.710938 310.207031 L 201.609375 309.914062 Z M 201.609375 308.4375 "/>
<path style=" stroke:none;fill-rule:nonzero;fill:rgb(6.27451%,58.823529%,28.235294%);fill-opacity:1;" d="M 245.601562 314.09375 L 245.648438 313.820312 L 263.730469 20.664062 L 269.222656 20.664062 L 287.398438 314.371094 L 281.011719 314.371094 L 276.457031 237.703125 L 256.496094 237.703125 L 252.03125 314.09375 L 245.601562 314.09375 L 258.417969 205.988281 L 274.625 205.710938 L 266.542969 68.648438 L 266.457031 68.375 L 266.367188 69.199219 L 258.375 205.710938 L 258.417969 205.988281 Z M 245.601562 314.09375 "/>
<path style=" stroke:none;fill-rule:nonzero;fill:rgb(83.921569%,15.686275%,22.352941%);fill-opacity:1;" d="M 289.597656 20.664062 L 331.390625 20.664062 L 331.390625 52.101562 L 313.972656 52.378906 L 313.972656 314.371094 L 306.964844 314.371094 L 306.964844 52.652344 L 306.863281 52.101562 L 289.597656 52.101562 Z M 289.597656 20.664062 "/>
<path style=" stroke:none;fill-rule:nonzero;fill:rgb(96.862745%,70.196078%,16.862745%);fill-opacity:1;" d="M 333.589844 308.898438 L 333.640625 308.890625 L 333.640625 308.714844 L 333.84375 308.320312 L 334.355469 307.78125 L 335.015625 307.332031 L 335.730469 306.984375 L 336.1875 306.800781 L 336.953125 306.539062 L 337.617188 306.34375 L 339.296875 305.953125 L 341.4375 305.585938 L 342.609375 305.429688 L 343.9375 305.277344 L 345.820312 305.113281 L 346.6875 305.050781 L 349.339844 304.910156 L 352.347656 304.824219 L 355.660156 304.796875 L 357.1875 304.808594 L 359.277344 304.84375 L 362.132812 304.9375 L 363.761719 305.027344 L 365.035156 305.113281 L 366.363281 305.226562 L 367.992188 305.402344 L 369.523438 305.613281 L 370.746094 305.820312 L 371.96875 306.082031 L 372.988281 306.363281 L 373.855469 306.667969 L 374.617188 307.035156 L 375.078125 307.34375 L 375.382812 307.648438 L 368.296875 307.648438 L 367.890625 307.34375 L 367.433594 307.105469 L 366.667969 306.816406 L 365.902344 306.609375 L 365.140625 306.441406 L 363.710938 306.214844 L 362.488281 306.074219 L 360.960938 305.953125 L 359.480469 305.875 L 357.800781 305.820312 L 356.78125 305.804688 L 354.078125 305.804688 L 351.632812 305.863281 L 350.207031 305.933594 L 349.1875 306.003906 L 347.757812 306.136719 L 346.890625 306.242188 L 346.382812 306.3125 L 344.855469 306.582031 L 343.835938 306.828125 L 343.273438 306.992188 L 342.558594 307.253906 L 342.050781 307.492188 L 341.488281 307.839844 L 341.183594 308.101562 L 340.777344 308.695312 L 340.726562 310.269531 L 340.878906 310.601562 L 341.183594 310.960938 L 341.589844 311.277344 L 342.203125 311.609375 L 342.816406 311.863281 L 343.886719 312.203125 L 344.800781 312.429688 L 345.515625 312.578125 L 346.890625 312.816406 L 347.453125 312.894531 L 348.777344 313.050781 L 350.152344 313.171875 L 351.835938 313.277344 L 353.109375 313.332031 L 355.148438 313.375 L 357.75 313.375 L 360.804688 313.320312 L 362.742188 313.25 L 364.070312 313.183594 L 364.933594 313.121094 L 366.003906 313.023438 L 366.769531 312.9375 L 367.484375 312.839844 L 368.351562 312.691406 L 368.351562 310.601562 L 355.761719 310.59375 L 355.761719 309.613281 L 375.332031 309.605469 L 375.382812 313.023438 L 374.3125 313.261719 L 372.988281 313.488281 L 371.714844 313.664062 L 370.386719 313.8125 L 368.503906 313.976562 L 366.972656 314.082031 L 364.628906 314.203125 L 362.488281 314.285156 L 360.246094 314.335938 L 358.257812 314.363281 L 355.914062 314.371094 L 353.824219 314.351562 L 351.582031 314.300781 L 349.796875 314.230469 L 348.167969 314.144531 L 346.535156 314.03125 L 344.496094 313.847656 L 343.171875 313.699219 L 341.796875 313.515625 L 340.417969 313.296875 L 339.195312 313.058594 L 338.378906 312.875 L 337.566406 312.664062 L 336.699219 312.402344 L 335.882812 312.105469 L 335.273438 311.835938 L 334.710938 311.53125 L 334.304688 311.242188 L 333.894531 310.847656 L 333.691406 310.53125 L 333.589844 310.261719 Z M 333.589844 308.898438 "/>
<path style=" stroke:none;fill-rule:nonzero;fill:rgb(83.921569%,15.686275%,22.352941%);fill-opacity:1;" d="M 333.589844 57.507812 L 375.382812 57.507812 L 375.382812 83.851562 L 357.964844 84.082031 L 357.964844 303.617188 L 350.957031 303.617188 L 350.957031 84.3125 L 350.855469 83.851562 L 333.589844 83.851562 Z M 333.589844 57.507812 "/>
<path style=" stroke:none;fill-rule:nonzero;fill:rgb(6.27451%,58.823529%,28.235294%);fill-opacity:1;" d="M 377.582031 290.871094 L 377.628906 290.683594 L 395.710938 91.742188 L 401.203125 91.742188 L 419.375 291.058594 L 412.992188 291.058594 L 408.4375 239.027344 L 388.476562 239.027344 L 384.011719 290.871094 L 377.582031 290.871094 L 390.398438 217.507812 L 406.605469 217.320312 L 398.523438 124.304688 L 398.433594 124.117188 L 398.347656 124.679688 L 390.351562 217.320312 L 390.398438 217.507812 Z M 377.582031 290.871094 "/>
<path style=" stroke:none;fill-rule:nonzero;fill:rgb(96.862745%,70.196078%,16.862745%);fill-opacity:1;" d="M 377.582031 301.71875 L 377.632812 301.695312 L 377.632812 301.292969 L 377.835938 300.382812 L 378.347656 299.128906 L 379.011719 298.097656 L 379.722656 297.289062 L 380.183594 296.867188 L 380.945312 296.257812 L 381.609375 295.816406 L 383.292969 294.90625 L 385.433594 294.054688 L 386.605469 293.691406 L 387.929688 293.347656 L 389.816406 292.964844 L 390.683594 292.824219 L 393.332031 292.5 L 396.339844 292.296875 L 399.652344 292.238281 L 401.179688 292.257812 L 403.269531 292.335938 L 406.125 292.558594 L 407.757812 292.761719 L 409.03125 292.964844 L 410.355469 293.226562 L 411.988281 293.632812 L 413.515625 294.117188 L 414.738281 294.601562 L 415.960938 295.207031 L 416.980469 295.855469 L 417.847656 296.5625 L 418.613281 297.410156 L 419.070312 298.117188 L 419.375 298.828125 L 412.292969 298.828125 L 411.882812 298.117188 L 411.425781 297.574219 L 410.660156 296.90625 L 409.898438 296.421875 L 409.132812 296.035156 L 407.703125 295.511719 L 406.480469 295.1875 L 404.953125 294.90625 L 403.476562 294.722656 L 401.792969 294.601562 L 400.773438 294.5625 L 398.070312 294.5625 L 395.625 294.703125 L 394.199219 294.863281 L 393.179688 295.027344 L 391.753906 295.328125 L 390.886719 295.570312 L 390.375 295.734375 L 388.847656 296.359375 L 387.828125 296.925781 L 387.265625 297.308594 L 386.554688 297.917969 L 386.042969 298.460938 L 385.484375 299.269531 L 385.175781 299.878906 L 384.769531 301.253906 L 384.71875 304.890625 L 384.871094 305.660156 L 385.175781 306.488281 L 385.585938 307.214844 L 386.195312 307.984375 L 386.808594 308.570312 L 387.878906 309.359375 L 388.796875 309.882812 L 389.507812 310.226562 L 390.886719 310.773438 L 391.445312 310.953125 L 392.769531 311.320312 L 394.148438 311.601562 L 395.828125 311.84375 L 397.105469 311.964844 L 399.140625 312.066406 L 401.742188 312.066406 L 404.800781 311.945312 L 406.738281 311.785156 L 408.0625 311.621094 L 408.929688 311.480469 L 410 311.257812 L 410.761719 311.054688 L 411.476562 310.832031 L 412.34375 310.488281 L 412.34375 305.660156 L 399.753906 305.636719 L 399.753906 303.375 L 419.324219 303.355469 L 419.375 311.257812 L 418.304688 311.804688 L 416.980469 312.328125 L 415.707031 312.734375 L 414.382812 313.078125 L 412.496094 313.460938 L 410.96875 313.703125 L 408.621094 313.988281 L 406.480469 314.167969 L 404.238281 314.289062 L 402.25 314.351562 L 399.90625 314.371094 L 397.816406 314.332031 L 395.574219 314.207031 L 393.789062 314.046875 L 392.160156 313.84375 L 390.527344 313.582031 L 388.488281 313.15625 L 387.164062 312.8125 L 385.789062 312.390625 L 384.414062 311.882812 L 383.191406 311.339844 L 382.375 310.914062 L 381.558594 310.429688 L 380.691406 309.824219 L 379.875 309.136719 L 379.265625 308.507812 L 378.703125 307.800781 L 378.296875 307.132812 L 377.890625 306.222656 L 377.683594 305.496094 L 377.582031 304.871094 Z M 377.582031 301.71875 "/>
<path style=" stroke:none;fill-rule:nonzero;fill:rgb(14.509804%,36.078431%,60%);fill-opacity:1;" d="M 421.578125 148.457031 L 421.628906 148.1875 L 421.628906 141.742188 L 421.78125 131.542969 L 422.136719 118.65625 L 422.492188 109.796875 L 423.410156 93.957031 L 424.683594 78.652344 L 426.011719 66.839844 L 426.980469 59.859375 L 427.84375 54.492188 L 429.832031 44.558594 L 431.105469 39.457031 L 432.484375 34.890625 L 434.164062 30.328125 L 435.390625 27.644531 L 438.140625 23.347656 L 440.179688 21.46875 L 441.757812 20.664062 L 445.175781 20.664062 L 447.214844 21.738281 L 448.691406 23.078125 L 450.324219 25.226562 L 451.699219 27.644531 L 454.09375 33.550781 L 456.234375 41.066406 L 457.203125 45.363281 L 458.730469 53.683594 L 459.90625 61.738281 L 460.71875 68.71875 L 461.636719 78.652344 L 462.453125 90.734375 L 463.0625 104.425781 L 463.371094 115.96875 L 456.234375 115.96875 L 455.878906 105.230469 L 455.46875 96.910156 L 454.707031 85.902344 L 453.941406 78.117188 L 452.871094 70.332031 L 451.902344 65.230469 L 450.578125 60.128906 L 449.40625 56.90625 L 448.183594 54.492188 L 447.007812 52.878906 L 444.765625 51.269531 L 442.167969 51.269531 L 441.199219 51.804688 L 439.210938 53.953125 L 438.140625 55.832031 L 436.613281 59.589844 L 435.542969 63.082031 L 434.265625 68.449219 L 433.402344 73.015625 L 432.332031 79.996094 L 431.566406 86.171875 L 430.699219 95.03125 L 430.191406 101.742188 L 429.730469 109.257812 L 429.324219 118.117188 L 429.019531 127.515625 L 428.8125 137.449219 L 428.710938 147.113281 L 428.710938 188.726562 L 428.8125 198.390625 L 429.070312 209.667969 L 429.730469 226.042969 L 430.699219 240.273438 L 431.820312 251.546875 L 432.890625 259.601562 L 433.503906 263.359375 L 434.320312 267.65625 L 435.59375 273.027344 L 437.425781 278.394531 L 438.496094 280.542969 L 440.128906 282.691406 L 441.8125 283.765625 L 444.054688 283.765625 L 446.042969 282.691406 L 447.367188 281.347656 L 448.742188 279.199219 L 450.628906 274.636719 L 451.800781 270.339844 L 452.820312 265.242188 L 453.585938 260.140625 L 454.09375 255.84375 L 454.859375 247.519531 L 455.46875 238.394531 L 455.929688 228.996094 L 456.234375 219.867188 L 463.371094 219.867188 L 463.0625 230.609375 L 462.605469 241.078125 L 462.148438 248.863281 L 461.433594 258.261719 L 460.617188 266.582031 L 459.445312 275.980469 L 458.476562 282.152344 L 457.203125 288.867188 L 456.03125 293.96875 L 454.757812 298.53125 L 452.871094 303.898438 L 451.648438 306.585938 L 450.324219 309 L 448.742188 311.148438 L 446.753906 313.027344 L 444.613281 314.101562 L 442.625 314.371094 L 440.484375 313.832031 L 438.90625 312.761719 L 436.816406 310.34375 L 434.214844 305.511719 L 432.332031 300.410156 L 430.851562 295.308594 L 429.578125 289.941406 L 428.152344 282.691406 L 426.316406 270.878906 L 425.195312 261.75 L 424.429688 254.234375 L 423.5625 243.761719 L 422.953125 234.367188 L 422.238281 219.332031 L 421.730469 200.269531 L 421.578125 185.503906 Z M 421.578125 148.457031 "/>
<path style=" stroke:none;fill-rule:nonzero;fill:rgb(83.921569%,15.686275%,22.352941%);fill-opacity:1;" d="M 465.570312 20.664062 L 507.363281 20.664062 L 507.363281 52.101562 L 489.945312 52.378906 L 489.945312 314.371094 L 482.9375 314.371094 L 482.9375 52.652344 L 482.835938 52.101562 L 465.570312 52.101562 Z M 465.570312 20.664062 "/>
<path style=" stroke:none;fill-rule:nonzero;fill:rgb(96.862745%,70.196078%,16.862745%);fill-opacity:1;" d="M 509.5625 146.460938 L 509.613281 146.191406 L 509.613281 140.828125 L 509.816406 128.757812 L 510.328125 112.128906 L 510.992188 98.449219 L 511.703125 87.71875 L 512.164062 82.085938 L 512.925781 74.039062 L 513.589844 68.140625 L 515.273438 56.070312 L 517.414062 44.804688 L 518.585938 39.976562 L 519.910156 35.414062 L 521.796875 30.320312 L 522.660156 28.441406 L 525.3125 24.148438 L 528.320312 21.46875 L 531.632812 20.664062 L 533.160156 20.929688 L 535.25 22.003906 L 538.105469 24.953125 L 539.734375 27.636719 L 541.011719 30.320312 L 542.335938 33.804688 L 543.964844 39.171875 L 545.496094 45.609375 L 546.71875 52.046875 L 547.941406 60.09375 L 548.960938 68.675781 L 549.828125 78.0625 L 550.59375 89.328125 L 551.050781 98.714844 L 551.355469 108.105469 L 544.273438 108.105469 L 543.863281 98.714844 L 543.40625 91.476562 L 542.640625 82.625 L 541.875 76.1875 L 541.113281 71.089844 L 539.683594 64.117188 L 538.460938 59.824219 L 536.933594 56.070312 L 535.453125 53.65625 L 533.773438 52.046875 L 532.753906 51.507812 L 530.050781 51.507812 L 527.605469 53.386719 L 526.179688 55.53125 L 525.160156 57.679688 L 523.730469 61.703125 L 522.867188 64.921875 L 522.355469 67.066406 L 520.828125 75.382812 L 519.808594 82.890625 L 519.246094 87.988281 L 518.535156 96.035156 L 518.023438 103.277344 L 517.464844 114.003906 L 517.15625 122.050781 L 516.75 140.292969 L 516.699219 188.574219 L 516.851562 198.765625 L 517.15625 209.761719 L 517.566406 219.417969 L 518.175781 229.609375 L 518.789062 237.390625 L 519.859375 247.851562 L 520.777344 254.824219 L 521.488281 259.382812 L 522.867188 266.625 L 523.425781 269.039062 L 524.75 273.867188 L 526.128906 277.625 L 527.808594 280.84375 L 529.082031 282.453125 L 531.121094 283.792969 L 533.722656 283.792969 L 536.78125 282.183594 L 538.71875 280.039062 L 540.042969 277.890625 L 540.910156 276.015625 L 541.980469 273.0625 L 542.742188 270.382812 L 543.457031 267.429688 L 544.324219 262.871094 L 544.324219 198.765625 L 531.734375 198.496094 L 531.734375 168.457031 L 551.304688 168.1875 L 551.355469 273.0625 L 550.285156 280.304688 L 548.960938 287.28125 L 547.6875 292.644531 L 546.363281 297.203125 L 544.476562 302.300781 L 542.945312 305.519531 L 540.601562 309.273438 L 538.460938 311.6875 L 536.21875 313.296875 L 534.230469 314.101562 L 531.886719 314.371094 L 529.796875 313.835938 L 527.554688 312.226562 L 525.769531 310.078125 L 524.140625 307.398438 L 522.507812 303.910156 L 520.46875 298.277344 L 519.144531 293.71875 L 517.769531 288.085938 L 516.394531 281.378906 L 515.167969 274.136719 L 514.355469 268.503906 L 513.539062 262.066406 L 512.671875 254.019531 L 511.855469 244.898438 L 511.246094 236.585938 L 510.683594 227.195312 L 510.277344 218.34375 L 509.867188 206.277344 L 509.664062 196.621094 L 509.5625 188.304688 Z M 509.5625 146.460938 "/>
<path style=" stroke:none;fill-rule:nonzero;fill:rgb(6.27451%,58.823529%,28.235294%);fill-opacity:1;" d="M 553.554688 311.15625 L 553.601562 311.144531 L 571.683594 299.535156 L 577.175781 299.535156 L 595.351562 311.167969 L 588.964844 311.167969 L 584.410156 308.132812 L 564.453125 308.132812 L 559.988281 311.15625 L 553.554688 311.15625 L 566.371094 306.875 L 582.578125 306.863281 L 574.5 301.433594 L 574.410156 301.425781 L 574.320312 301.457031 L 566.328125 306.863281 L 566.371094 306.875 Z M 553.554688 311.15625 "/>
<path style=" stroke:none;fill-rule:nonzero;fill:rgb(14.509804%,36.078431%,60%);fill-opacity:1;" d="M 553.554688 313.226562 L 553.609375 313.226562 L 553.609375 313.179688 L 553.761719 313.109375 L 554.117188 313.023438 L 554.472656 312.960938 L 555.390625 312.851562 L 556.664062 312.746094 L 557.992188 312.664062 L 558.960938 312.617188 L 559.824219 312.582031 L 561.8125 312.511719 L 563.085938 312.476562 L 564.464844 312.445312 L 566.144531 312.414062 L 567.367188 312.394531 L 570.121094 312.367188 L 572.160156 312.351562 L 573.738281 312.347656 L 577.15625 312.347656 L 579.195312 312.355469 L 580.671875 312.363281 L 582.300781 312.378906 L 583.679688 312.394531 L 586.074219 312.4375 L 588.214844 312.488281 L 589.183594 312.515625 L 590.710938 312.574219 L 591.882812 312.628906 L 592.699219 312.679688 L 593.617188 312.746094 L 594.433594 312.828125 L 595.042969 312.925781 L 595.351562 313.003906 L 588.214844 313.003906 L 587.859375 312.929688 L 587.449219 312.871094 L 586.6875 312.796875 L 585.921875 312.742188 L 584.851562 312.6875 L 583.882812 312.652344 L 582.558594 312.617188 L 581.386719 312.597656 L 580.160156 312.582031 L 578.988281 312.570312 L 576.746094 312.558594 L 574.148438 312.558594 L 573.179688 312.5625 L 571.191406 312.578125 L 570.121094 312.589844 L 568.59375 312.617188 L 567.523438 312.640625 L 566.246094 312.675781 L 565.382812 312.707031 L 564.3125 312.757812 L 563.546875 312.796875 L 562.679688 312.859375 L 562.171875 312.90625 L 561.710938 312.957031 L 561.304688 313.019531 L 560.996094 313.082031 L 560.792969 313.152344 L 560.691406 313.21875 L 560.691406 313.503906 L 560.792969 313.570312 L 561.050781 313.648438 L 561.710938 313.761719 L 562.679688 313.859375 L 563.800781 313.9375 L 564.871094 313.992188 L 565.484375 314.019531 L 566.296875 314.046875 L 567.574219 314.085938 L 569.40625 314.121094 L 570.476562 314.136719 L 572.109375 314.152344 L 573.789062 314.160156 L 576.035156 314.160156 L 578.019531 314.152344 L 579.347656 314.144531 L 580.722656 314.128906 L 582.609375 314.097656 L 583.78125 314.066406 L 584.800781 314.03125 L 585.5625 313.996094 L 586.074219 313.96875 L 586.839844 313.910156 L 587.449219 313.847656 L 587.910156 313.78125 L 588.214844 313.71875 L 595.351562 313.71875 L 595.042969 313.792969 L 594.585938 313.867188 L 594.128906 313.917969 L 593.414062 313.984375 L 592.597656 314.042969 L 591.425781 314.105469 L 590.457031 314.148438 L 589.183594 314.195312 L 588.011719 314.230469 L 586.738281 314.261719 L 584.851562 314.296875 L 583.628906 314.316406 L 582.300781 314.332031 L 580.722656 314.347656 L 578.734375 314.363281 L 576.59375 314.367188 L 574.605469 314.371094 L 572.464844 314.367188 L 570.886719 314.359375 L 568.796875 314.34375 L 566.195312 314.308594 L 564.3125 314.273438 L 562.832031 314.238281 L 561.558594 314.203125 L 560.132812 314.152344 L 558.296875 314.070312 L 557.175781 314.007812 L 556.410156 313.957031 L 555.542969 313.882812 L 554.933594 313.820312 L 554.21875 313.714844 L 553.710938 313.585938 L 553.554688 313.484375 Z M 553.554688 313.226562 "/>
<path style=" stroke:none;fill-rule:nonzero;fill:rgb(96.862745%,70.196078%,16.862745%);fill-opacity:1;" d="M 553.554688 291.703125 L 553.609375 291.695312 L 553.609375 291.480469 L 553.8125 291.003906 L 554.320312 290.34375 L 554.984375 289.804688 L 555.695312 289.378906 L 556.15625 289.15625 L 556.921875 288.835938 L 557.582031 288.601562 L 559.265625 288.125 L 561.40625 287.679688 L 562.578125 287.488281 L 563.902344 287.308594 L 565.789062 287.105469 L 566.65625 287.03125 L 569.304688 286.859375 L 572.3125 286.753906 L 575.625 286.722656 L 577.15625 286.734375 L 579.246094 286.777344 L 582.097656 286.890625 L 583.730469 287 L 585.003906 287.105469 L 586.328125 287.242188 L 587.960938 287.457031 L 589.488281 287.710938 L 590.710938 287.964844 L 591.933594 288.285156 L 592.953125 288.625 L 593.820312 288.996094 L 594.585938 289.441406 L 595.042969 289.8125 L 595.351562 290.1875 L 588.265625 290.1875 L 587.859375 289.8125 L 587.398438 289.527344 L 586.632812 289.175781 L 585.871094 288.921875 L 585.105469 288.71875 L 583.679688 288.445312 L 582.457031 288.273438 L 580.925781 288.125 L 579.449219 288.027344 L 577.765625 287.964844 L 576.746094 287.945312 L 574.046875 287.945312 L 571.597656 288.019531 L 570.171875 288.101562 L 569.152344 288.1875 L 567.726562 288.347656 L 566.859375 288.476562 L 566.347656 288.558594 L 564.820312 288.890625 L 563.800781 289.1875 L 563.242188 289.390625 L 562.527344 289.707031 L 562.015625 289.996094 L 561.457031 290.417969 L 561.152344 290.738281 L 560.742188 291.460938 L 560.691406 293.371094 L 560.84375 293.777344 L 561.152344 294.210938 L 561.558594 294.59375 L 562.171875 295 L 562.78125 295.304688 L 563.851562 295.71875 L 564.769531 295.996094 L 565.484375 296.175781 L 566.859375 296.464844 L 567.417969 296.558594 L 568.746094 296.75 L 570.121094 296.898438 L 571.804688 297.027344 L 573.078125 297.089844 L 575.117188 297.144531 L 577.714844 297.144531 L 580.773438 297.082031 L 582.710938 296.996094 L 584.035156 296.910156 L 584.902344 296.835938 L 585.972656 296.71875 L 586.738281 296.613281 L 587.449219 296.496094 L 588.316406 296.316406 L 588.316406 293.777344 L 575.726562 293.765625 L 575.726562 292.574219 L 595.300781 292.566406 L 595.351562 296.71875 L 594.28125 297.007812 L 592.953125 297.28125 L 591.679688 297.496094 L 590.355469 297.675781 L 588.46875 297.878906 L 586.941406 298.003906 L 584.597656 298.152344 L 582.457031 298.25 L 580.210938 298.3125 L 578.226562 298.34375 L 575.878906 298.355469 L 573.789062 298.332031 L 571.546875 298.269531 L 569.765625 298.183594 L 568.132812 298.078125 L 566.503906 297.941406 L 564.464844 297.71875 L 563.136719 297.539062 L 561.761719 297.3125 L 560.386719 297.046875 L 559.164062 296.761719 L 558.347656 296.539062 L 557.53125 296.285156 L 556.664062 295.964844 L 555.851562 295.605469 L 555.238281 295.273438 L 554.679688 294.902344 L 554.269531 294.550781 L 553.863281 294.074219 L 553.660156 293.691406 L 553.554688 293.363281 Z M 553.554688 291.703125 "/>
<path style=" stroke:none;fill-rule:nonzero;fill:rgb(83.921569%,15.686275%,22.352941%);fill-opacity:1;" d="M 553.554688 161.800781 L 595.351562 161.800781 L 595.351562 175.046875 L 577.933594 175.164062 L 577.933594 285.542969 L 570.925781 285.542969 L 570.925781 175.28125 L 570.824219 175.046875 L 553.554688 175.046875 Z M 553.554688 161.800781 "/>
<path style=" stroke:none;fill-rule:nonzero;fill:rgb(14.509804%,36.078431%,60%);fill-opacity:1;" d="M 597.550781 148.457031 L 597.601562 148.1875 L 597.601562 141.742188 L 597.753906 131.542969 L 598.109375 118.65625 L 598.46875 109.796875 L 599.386719 93.957031 L 600.660156 78.652344 L 601.984375 66.839844 L 602.953125 59.859375 L 603.820312 54.492188 L 605.808594 44.558594 L 607.082031 39.457031 L 608.457031 34.890625 L 610.140625 30.328125 L 611.363281 27.644531 L 614.113281 23.347656 L 616.152344 21.46875 L 617.734375 20.664062 L 621.148438 20.664062 L 623.1875 21.738281 L 624.664062 23.078125 L 626.296875 25.226562 L 627.671875 27.644531 L 630.066406 33.550781 L 632.207031 41.066406 L 633.175781 45.363281 L 634.707031 53.683594 L 635.878906 61.738281 L 636.691406 68.71875 L 637.609375 78.652344 L 638.425781 90.734375 L 639.039062 104.425781 L 639.34375 115.96875 L 632.207031 115.96875 L 631.851562 105.230469 L 631.445312 96.910156 L 630.679688 85.902344 L 629.914062 78.117188 L 628.84375 70.332031 L 627.875 65.230469 L 626.550781 60.128906 L 625.378906 56.90625 L 624.15625 54.492188 L 622.984375 52.878906 L 620.742188 51.269531 L 618.140625 51.269531 L 617.171875 51.804688 L 615.183594 53.953125 L 614.113281 55.832031 L 612.585938 59.589844 L 611.515625 63.082031 L 610.242188 68.449219 L 609.375 73.015625 L 608.304688 79.996094 L 607.539062 86.171875 L 606.671875 95.03125 L 606.164062 101.742188 L 605.703125 109.257812 L 605.296875 118.117188 L 604.992188 127.515625 L 604.789062 137.449219 L 604.683594 147.113281 L 604.683594 188.726562 L 604.789062 198.390625 L 605.042969 209.667969 L 605.703125 226.042969 L 606.671875 240.273438 L 607.792969 251.546875 L 608.863281 259.601562 L 609.476562 263.359375 L 610.292969 267.65625 L 611.566406 273.027344 L 613.402344 278.394531 L 614.472656 280.542969 L 616.101562 282.691406 L 617.785156 283.765625 L 620.027344 283.765625 L 622.015625 282.691406 L 623.339844 281.347656 L 624.714844 279.199219 L 626.601562 274.636719 L 627.773438 270.339844 L 628.792969 265.242188 L 629.558594 260.140625 L 630.066406 255.84375 L 630.832031 247.519531 L 631.445312 238.394531 L 631.902344 228.996094 L 632.207031 219.867188 L 639.34375 219.867188 L 639.039062 230.609375 L 638.578125 241.078125 L 638.121094 248.863281 L 637.40625 258.261719 L 636.589844 266.582031 L 635.417969 275.980469 L 634.449219 282.152344 L 633.175781 288.867188 L 632.003906 293.96875 L 630.730469 298.53125 L 628.84375 303.898438 L 627.621094 306.585938 L 626.296875 309 L 624.714844 311.148438 L 622.726562 313.027344 L 620.585938 314.101562 L 618.601562 314.371094 L 616.460938 313.832031 L 614.878906 312.761719 L 612.789062 310.34375 L 610.191406 305.511719 L 608.304688 300.410156 L 606.824219 295.308594 L 605.550781 289.941406 L 604.125 282.691406 L 602.289062 270.878906 L 601.167969 261.75 L 600.402344 254.234375 L 599.539062 243.761719 L 598.925781 234.367188 L 598.210938 219.332031 L 597.703125 200.269531 L 597.550781 185.503906 Z M 597.550781 148.457031 "/>
<path style=" stroke:none;fill-rule:nonzero;fill:rgb(6.27451%,58.823529%,28.235294%);fill-opacity:1;" d="M 641.542969 314.09375 L 641.589844 313.820312 L 659.671875 20.664062 L 665.164062 20.664062 L 683.335938 314.371094 L 676.953125 314.371094 L 672.398438 237.703125 L 652.4375 237.703125 L 647.972656 314.09375 L 641.542969 314.09375 L 654.359375 205.988281 L 670.566406 205.710938 L 662.484375 68.648438 L 662.394531 68.375 L 662.304688 69.199219 L 654.3125 205.710938 L 654.359375 205.988281 Z M 641.542969 314.09375 "/>
<g style="fill:rgb(0%,0%,0%);fill-opacity:1;">
  <use xlink:href="#glyph0-1" x="21.957031" y="318.198242"/>
  <use xlink:href="#glyph0-2" x="27.291016" y="318.198242"/>
  <use xlink:href="#glyph0-1" x="29.958008" y="318.198242"/>
</g>
<g style="fill:rgb(0%,0%,0%);fill-opacity:1;">
  <use xlink:href="#glyph0-1" x="21.957031" y="244.475586"/>
  <use xlink:href="#glyph0-2" x="27.291016" y="244.475586"/>
  <use xlink:href="#glyph0-3" x="29.958008" y="244.475586"/>
</g>
<g style="fill:rgb(0%,0%,0%);fill-opacity:1;">
  <use xlink:href="#glyph0-4" x="21.957031" y="170.75293"/>
  <use xlink:href="#glyph0-2" x="27.291016" y="170.75293"/>
  <use xlink:href="#glyph0-1" x="29.958008" y="170.75293"/>
</g>
<g style="fill:rgb(0%,0%,0%);fill-opacity:1;">
  <use xlink:href="#glyph0-4" x="21.957031" y="97.03418"/>
  <use xlink:href="#glyph0-2" x="27.291016" y="97.03418"/>
  <use xlink:href="#glyph0-3" x="29.958008" y="97.03418"/>
</g>
<g style="fill:rgb(0%,0%,0%);fill-opacity:1;">
  <use xlink:href="#glyph0-5" x="21.957031" y="23.311523"/>
  <use xlink:href="#glyph0-2" x="27.291016" y="23.311523"/>
  <use xlink:href="#glyph0-1" x="29.958008" y="23.311523"/>
</g>
<g style="fill:rgb(0%,0%,0%);fill-opacity:1;">
  <use xlink:href="#glyph0-4" x="87.527344" y="338.19043"/>
</g>
<g style="fill:rgb(0%,0%,0%);fill-opacity:1;">
  <use xlink:href="#glyph0-5" x="131.519531" y="338.19043"/>
</g>
<g style="fill:rgb(0%,0%,0%);fill-opacity:1;">
  <use xlink:href="#glyph0-6" x="175.511719" y="338.19043"/>
</g>
<g style="fill:rgb(0%,0%,0%);fill-opacity:1;">
  <use xlink:href="#glyph0-7" x="219.507812" y="338.19043"/>
</g>
<g style="fill:rgb(0%,0%,0%);fill-opacity:1;">
  <use xlink:href="#glyph0-3" x="263.5" y="338.19043"/>
</g>
<g style="fill:rgb(0%,0%,0%);fill-opacity:1;">
  <use xlink:href="#glyph0-8" x="307.492188" y="338.19043"/>
</g>
<g style="fill:rgb(0%,0%,0%);fill-opacity:1;">
  <use xlink:href="#glyph0-9" x="351.488281" y="338.19043"/>
</g>
<g style="fill:rgb(0%,0%,0%);fill-opacity:1;">
  <use xlink:href="#glyph0-10" x="395.480469" y="338.19043"/>
</g>
<g style="fill:rgb(0%,0%,0%);fill-opacity:1;">
  <use xlink:href="#glyph0-11" x="439.472656" y="338.19043"/>
</g>
<g style="fill:rgb(0%,0%,0%);fill-opacity:1;">
  <use xlink:href="#glyph0-4" x="480.964844" y="338.19043"/>
  <use xlink:href="#glyph0-1" x="486.298828" y="338.19043"/>
</g>
<g style="fill:rgb(0%,0%,0%);fill-opacity:1;">
  <use xlink:href="#glyph0-4" x="524.960938" y="338.19043"/>
  <use xlink:href="#glyph0-4" x="530.294922" y="338.19043"/>
</g>
<g style="fill:rgb(0%,0%,0%);fill-opacity:1;">
  <use xlink:href="#glyph0-4" x="568.953125" y="338.19043"/>
  <use xlink:href="#glyph0-5" x="574.287109" y="338.19043"/>
</g>
<g style="fill:rgb(0%,0%,0%);fill-opacity:1;">
  <use xlink:href="#glyph0-4" x="612.945312" y="338.19043"/>
  <use xlink:href="#glyph0-6" x="618.279297" y="338.19043"/>
</g>
<g style="fill:rgb(0%,0%,0%);fill-opacity:1;">
  <use xlink:href="#glyph0-4" x="656.941406" y="338.19043"/>
  <use xlink:href="#glyph0-7" x="662.275391" y="338.19043"/>
</g>
<g style="fill:rgb(0%,0%,0%);fill-opacity:1;">
  <use xlink:href="#glyph1-1" x="14.412109" y="178.015625"/>
  <use xlink:href="#glyph1-2" x="14.412109" y="170.011719"/>
  <use xlink:href="#glyph1-3" x="14.412109" y="167.347656"/>
  <use xlink:href="#glyph1-4" x="14.412109" y="164.011719"/>
</g>
</g>
</svg>
