<?xml version="1.0" encoding="UTF-8"?>
<svg xmlns="http://www.w3.org/2000/svg" xmlns:xlink="http://www.w3.org/1999/xlink" width="720pt" height="360pt" viewBox="0 0 720 360" version="1.1">
<defs>
<g>
<symbol overflow="visible" id="glyph0-0">
<path style="stroke:none;" d=""/>
</symbol>
<symbol overflow="visible" id="glyph0-1">
<path style="stroke:none;" d="M 2.640625 -6.796875 C 2 -6.796875 1.421875 -6.53125 1.078125 -6.046875 C 0.640625 -5.453125 0.40625 -4.546875 0.40625 -3.296875 C 0.40625 -1 1.1875 0.21875 2.640625 0.21875 C 4.078125 0.21875 4.859375 -1 4.859375 -3.234375 C 4.859375 -4.5625 4.65625 -5.4375 4.203125 -6.046875 C 3.84375 -6.53125 3.28125 -6.796875 2.640625 -6.796875 Z M 2.640625 -6.046875 C 3.546875 -6.046875 4 -5.125 4 -3.3125 C 4 -1.375 3.5625 -0.484375 2.625 -0.484375 C 1.734375 -0.484375 1.28125 -1.421875 1.28125 -3.28125 C 1.28125 -5.140625 1.734375 -6.046875 2.640625 -6.046875 Z M 2.640625 -6.046875 "/>
</symbol>
<symbol overflow="visible" id="glyph0-2">
<path style="stroke:none;" d="M 1.828125 -1 L 0.828125 -1 L 0.828125 0 L 1.828125 0 Z M 1.828125 -1 "/>
</symbol>
<symbol overflow="visible" id="glyph0-3">
<path style="stroke:none;" d="M 4.5625 -6.796875 L 1.0625 -6.796875 L 0.546875 -3.09375 L 1.328125 -3.09375 C 1.71875 -3.5625 2.046875 -3.734375 2.578125 -3.734375 C 3.484375 -3.734375 4.0625 -3.109375 4.0625 -2.09375 C 4.0625 -1.125 3.484375 -0.53125 2.578125 -0.53125 C 1.828125 -0.53125 1.375 -0.90625 1.1875 -1.671875 L 0.328125 -1.671875 C 0.453125 -1.109375 0.546875 -0.84375 0.75 -0.59375 C 1.125 -0.078125 1.828125 0.21875 2.59375 0.21875 C 3.96875 0.21875 4.921875 -0.78125 4.921875 -2.21875 C 4.921875 -3.5625 4.03125 -4.484375 2.71875 -4.484375 C 2.25 -4.484375 1.859375 -4.359375 1.46875 -4.0625 L 1.734375 -5.96875 L 4.5625 -5.96875 Z M 4.5625 -6.796875 "/>
</symbol>
<symbol overflow="visible" id="glyph0-4">
<path style="stroke:none;" d="M 2.484375 -4.84375 L 2.484375 0 L 3.328125 0 L 3.328125 -6.796875 L 2.765625 -6.796875 C 2.46875 -5.75 2.28125 -5.609375 0.984375 -5.453125 L 0.984375 -4.84375 Z M 2.484375 -4.84375 "/>
</symbol>
<symbol overflow="visible" id="glyph0-5">
<path style="stroke:none;" d="M 4.859375 -0.828125 L 1.28125 -0.828125 C 1.359375 -1.390625 1.671875 -1.75 2.5 -2.234375 L 3.46875 -2.75 C 4.40625 -3.265625 4.90625 -3.96875 4.90625 -4.8125 C 4.90625 -5.375 4.671875 -5.90625 4.265625 -6.265625 C 3.859375 -6.625 3.375 -6.796875 2.71875 -6.796875 C 1.859375 -6.796875 1.21875 -6.5 0.84375 -5.921875 C 0.609375 -5.5625 0.5 -5.125 0.484375 -4.4375 L 1.328125 -4.4375 C 1.359375 -4.90625 1.40625 -5.1875 1.53125 -5.40625 C 1.75 -5.8125 2.1875 -6.0625 2.703125 -6.0625 C 3.46875 -6.0625 4.03125 -5.515625 4.03125 -4.78125 C 4.03125 -4.25 3.71875 -3.796875 3.125 -3.4375 L 2.234375 -2.9375 C 0.8125 -2.140625 0.40625 -1.5 0.328125 0 L 4.859375 0 Z M 4.859375 -0.828125 "/>
</symbol>
<symbol overflow="visible" id="glyph0-6">
<path style="stroke:none;" d="M 2.125 -3.125 L 2.578125 -3.125 C 3.515625 -3.125 3.984375 -2.703125 3.984375 -1.890625 C 3.984375 -1.03125 3.46875 -0.53125 2.578125 -0.53125 C 1.65625 -0.53125 1.203125 -0.984375 1.15625 -1.96875 L 0.3125 -1.96875 C 0.34375 -1.421875 0.4375 -1.078125 0.609375 -0.765625 C 0.953125 -0.109375 1.625 0.21875 2.546875 0.21875 C 3.953125 0.21875 4.859375 -0.609375 4.859375 -1.90625 C 4.859375 -2.765625 4.515625 -3.25 3.703125 -3.515625 C 4.34375 -3.765625 4.65625 -4.25 4.65625 -4.9375 C 4.65625 -6.109375 3.875 -6.796875 2.578125 -6.796875 C 1.203125 -6.796875 0.484375 -6.046875 0.453125 -4.609375 L 1.296875 -4.609375 C 1.3125 -5.015625 1.34375 -5.25 1.453125 -5.453125 C 1.640625 -5.828125 2.0625 -6.0625 2.59375 -6.0625 C 3.34375 -6.0625 3.796875 -5.625 3.796875 -4.90625 C 3.796875 -4.421875 3.609375 -4.140625 3.25 -3.984375 C 3.015625 -3.890625 2.71875 -3.84375 2.125 -3.84375 Z M 2.125 -3.125 "/>
</symbol>
<symbol overflow="visible" id="glyph0-7">
<path style="stroke:none;" d="M 3.140625 -1.625 L 3.140625 0 L 3.984375 0 L 3.984375 -1.625 L 4.984375 -1.625 L 4.984375 -2.390625 L 3.984375 -2.390625 L 3.984375 -6.796875 L 3.359375 -6.796875 L 0.265625 -2.515625 L 0.265625 -1.625 Z M 3.140625 -2.390625 L 1 -2.390625 L 3.140625 -5.359375 Z M 3.140625 -2.390625 "/>
</symbol>
<symbol overflow="visible" id="glyph0-8">
<path style="stroke:none;" d="M 4.78125 -5.03125 C 4.609375 -6.140625 3.890625 -6.796875 2.84375 -6.796875 C 2.09375 -6.796875 1.421875 -6.4375 1.03125 -5.828125 C 0.609375 -5.171875 0.40625 -4.34375 0.40625 -3.09375 C 0.40625 -1.953125 0.578125 -1.234375 0.984375 -0.625 C 1.359375 -0.078125 1.953125 0.21875 2.703125 0.21875 C 3.984375 0.21875 4.921875 -0.734375 4.921875 -2.078125 C 4.921875 -3.34375 4.0625 -4.234375 2.84375 -4.234375 C 2.171875 -4.234375 1.640625 -3.96875 1.28125 -3.46875 C 1.28125 -5.125 1.828125 -6.046875 2.796875 -6.046875 C 3.390625 -6.046875 3.796875 -5.671875 3.9375 -5.03125 Z M 2.734375 -3.484375 C 3.546875 -3.484375 4.0625 -2.921875 4.0625 -2 C 4.0625 -1.15625 3.484375 -0.53125 2.703125 -0.53125 C 1.921875 -0.53125 1.328125 -1.1875 1.328125 -2.046875 C 1.328125 -2.890625 1.90625 -3.484375 2.734375 -3.484375 Z M 2.734375 -3.484375 "/>
</symbol>
<symbol overflow="visible" id="glyph0-9">
<path style="stroke:none;" d="M 4.984375 -6.796875 L 0.4375 -6.796875 L 0.4375 -5.96875 L 4.109375 -5.96875 C 2.5 -3.65625 1.828125 -2.234375 1.328125 0 L 2.21875 0 C 2.59375 -2.171875 3.453125 -4.046875 4.984375 -6.09375 Z M 4.984375 -6.796875 "/>
</symbol>
<symbol overflow="visible" id="glyph0-10">
<path style="stroke:none;" d="M 3.75 -3.578125 C 4.453125 -4 4.6875 -4.34375 4.6875 -4.984375 C 4.6875 -6.046875 3.84375 -6.796875 2.640625 -6.796875 C 1.4375 -6.796875 0.59375 -6.046875 0.59375 -4.984375 C 0.59375 -4.359375 0.828125 -4.015625 1.515625 -3.578125 C 0.734375 -3.203125 0.359375 -2.640625 0.359375 -1.890625 C 0.359375 -0.640625 1.296875 0.21875 2.640625 0.21875 C 3.984375 0.21875 4.921875 -0.640625 4.921875 -1.875 C 4.921875 -2.640625 4.53125 -3.203125 3.75 -3.578125 Z M 2.640625 -6.046875 C 3.359375 -6.046875 3.8125 -5.625 3.8125 -4.96875 C 3.8125 -4.34375 3.34375 -3.921875 2.640625 -3.921875 C 1.921875 -3.921875 1.453125 -4.34375 1.453125 -4.984375 C 1.453125 -5.625 1.921875 -6.046875 2.640625 -6.046875 Z M 2.640625 -3.203125 C 3.484375 -3.203125 4.0625 -2.671875 4.0625 -1.875 C 4.0625 -1.0625 3.484375 -0.53125 2.625 -0.53125 C 1.796875 -0.53125 1.21875 -1.078125 1.21875 -1.875 C 1.21875 -2.671875 1.796875 -3.203125 2.640625 -3.203125 Z M 2.640625 -3.203125 "/>
</symbol>
<symbol overflow="visible" id="glyph0-11">
<path style="stroke:none;" d="M 0.515625 -1.546875 C 0.671875 -0.4375 1.40625 0.21875 2.4375 0.21875 C 3.1875 0.21875 3.859375 -0.140625 4.265625 -0.75 C 4.6875 -1.40625 4.890625 -2.25 4.890625 -3.484375 C 4.890625 -4.625 4.703125 -5.359375 4.3125 -5.953125 C 3.9375 -6.5 3.34375 -6.796875 2.59375 -6.796875 C 1.296875 -6.796875 0.359375 -5.84375 0.359375 -4.515625 C 0.359375 -3.25 1.234375 -2.34375 2.453125 -2.34375 C 3.09375 -2.34375 3.5625 -2.578125 4.015625 -3.109375 C 4 -1.453125 3.46875 -0.53125 2.5 -0.53125 C 1.90625 -0.53125 1.484375 -0.90625 1.359375 -1.546875 Z M 2.578125 -6.0625 C 3.375 -6.0625 3.96875 -5.40625 3.96875 -4.53125 C 3.96875 -3.6875 3.375 -3.09375 2.546875 -3.09375 C 1.734375 -3.09375 1.234375 -3.671875 1.234375 -4.578125 C 1.234375 -5.4375 1.796875 -6.0625 2.578125 -6.0625 Z M 2.578125 -6.0625 "/>
</symbol>
<symbol overflow="visible" id="glyph1-0">
<path style="stroke:none;" d=""/>
</symbol>
<symbol overflow="visible" id="glyph1-1">
<path style="stroke:none;" d="M 0 -0.953125 L 0 -4.890625 C 0 -5.71875 -0.234375 -6.34375 -0.734375 -6.796875 C -1.1875 -7.234375 -1.8125 -7.46875 -2.5 -7.46875 C -3.546875 -7.46875 -4.1875 -7 -4.625 -5.875 C -4.984375 -6.671875 -5.640625 -7.09375 -6.53125 -7.09375 C -7.15625 -7.09375 -7.734375 -6.859375 -8.140625 -6.390625 C -8.5625 -5.9375 -8.75 -5.34375 -8.75 -4.5 L -8.75 -0.953125 Z M -4.984375 -2.0625 L -7.765625 -2.0625 L -7.765625 -4.21875 C -7.765625 -4.84375 -7.6875 -5.203125 -7.453125 -5.5 C -7.21875 -5.8125 -6.859375 -5.96875 -6.375 -5.96875 C -5.90625 -5.96875 -5.53125 -5.8125 -5.296875 -5.5 C -5.0625 -5.203125 -4.984375 -4.84375 -4.984375 -4.21875 Z M -0.984375 -2.0625 L -4 -2.0625 L -4 -4.78125 C -4 -5.328125 -3.859375 -5.6875 -3.578125 -5.953125 C -3.296875 -6.21875 -2.921875 -6.359375 -2.484375 -6.359375 C -2.0625 -6.359375 -1.6875 -6.21875 -1.40625 -5.953125 C -1.109375 -5.6875 -0.984375 -5.328125 -0.984375 -4.78125 Z M -0.984375 -2.0625 "/>
</symbol>
<symbol overflow="visible" id="glyph1-2">
<path style="stroke:none;" d="M -6.28125 -1.796875 L -6.28125 -0.796875 L 0 -0.796875 L 0 -1.796875 Z M -8.75 -1.796875 L -8.75 -0.796875 L -7.484375 -0.796875 L -7.484375 -1.796875 Z M -8.75 -1.796875 "/>
</symbol>
<symbol overflow="visible" id="glyph1-3">
<path style="stroke:none;" d="M -6.28125 -3.046875 L -6.28125 -2.015625 L -8.015625 -2.015625 L -8.015625 -1.015625 L -6.28125 -1.015625 L -6.28125 -0.171875 L -5.46875 -0.171875 L -5.46875 -1.015625 L -0.71875 -1.015625 C -0.078125 -1.015625 0.28125 -1.453125 0.28125 -2.234375 C 0.28125 -2.46875 0.25 -2.71875 0.1875 -3.046875 L -0.640625 -3.046875 C -0.609375 -2.921875 -0.59375 -2.765625 -0.59375 -2.5625 C -0.59375 -2.140625 -0.71875 -2.015625 -1.15625 -2.015625 L -5.46875 -2.015625 L -5.46875 -3.046875 Z M -6.28125 -3.046875 "/>
</symbol>
<symbol overflow="visible" id="glyph1-4">
<path style="stroke:none;" d="M -4.53125 -5.25 C -5.765625 -5.25 -6.46875 -4.421875 -6.46875 -2.96875 C -6.46875 -1.515625 -5.71875 -0.5625 -4.546875 -0.5625 C -3.5625 -0.5625 -3.09375 -1.0625 -2.734375 -2.5625 L -2.515625 -3.484375 C -2.34375 -4.1875 -2.09375 -4.46875 -1.625 -4.46875 C -1.046875 -4.46875 -0.640625 -3.875 -0.640625 -3 C -0.640625 -2.453125 -0.796875 -2 -1.0625 -1.75 C -1.25 -1.59375 -1.421875 -1.53125 -1.875 -1.46875 L -1.875 -0.40625 C -0.421875 -0.453125 0.28125 -1.265625 0.28125 -2.921875 C 0.28125 -4.5 -0.5 -5.515625 -1.71875 -5.515625 C -2.65625 -5.515625 -3.171875 -4.984375 -3.46875 -3.734375 L -3.703125 -2.765625 C -3.890625 -1.953125 -4.15625 -1.609375 -4.59375 -1.609375 C -5.171875 -1.609375 -5.546875 -2.125 -5.546875 -2.9375 C -5.546875 -3.75 -5.203125 -4.171875 -4.53125 -4.203125 Z M -4.53125 -5.25 "/>
</symbol>
</g>
</defs>
<g id="surface28137">
<rect x="0" y="0" width="720" height="360" style="fill:rgb(100%,100%,100%);fill-opacity:1;stroke:none;"/>
<path style=" stroke:none;fill-rule:nonzero;fill:rgb(6.27451%,58.823529%,28.235294%);fill-opacity:1;" d="M 69.628906 300.09375 L 69.671875 299.875 L 86.546875 64.570312 L 91.671875 64.570312 L 108.628906 300.316406 L 102.667969 300.316406 L 98.417969 238.777344 L 79.796875 238.777344 L 75.628906 300.09375 L 69.628906 300.09375 L 81.585938 213.324219 L 96.710938 213.101562 L 89.171875 103.089844 L 89.085938 102.867188 L 89.003906 103.53125 L 81.546875 213.101562 L 81.585938 213.324219 Z M 69.628906 300.09375 "/>
<path style=" stroke:none;fill-rule:nonzero;fill:rgb(14.509804%,36.078431%,60%);fill-opacity:1;" d="M 69.628906 308.753906 L 69.675781 308.75 L 69.675781 308.6875 L 69.820312 308.589844 L 70.152344 308.464844 L 70.484375 308.378906 L 71.339844 308.226562 L 72.53125 308.078125 L 73.765625 307.964844 L 74.671875 307.898438 L 75.480469 307.84375 L 77.332031 307.75 L 78.523438 307.699219 L 79.808594 307.65625 L 81.375 307.613281 L 82.519531 307.585938 L 85.085938 307.542969 L 86.988281 307.527344 L 88.460938 307.519531 L 91.648438 307.519531 L 93.550781 307.527344 L 94.929688 307.542969 L 96.453125 307.5625 L 97.738281 307.585938 L 99.972656 307.644531 L 101.96875 307.714844 L 102.871094 307.757812 L 104.300781 307.835938 L 105.394531 307.914062 L 106.15625 307.984375 L 107.011719 308.078125 L 107.769531 308.195312 L 108.34375 308.328125 L 108.628906 308.4375 L 101.96875 308.4375 L 101.636719 308.335938 L 101.257812 308.253906 L 100.542969 308.148438 L 99.828125 308.074219 L 98.832031 308 L 97.925781 307.949219 L 96.691406 307.898438 L 95.597656 307.867188 L 94.453125 307.84375 L 93.359375 307.828125 L 91.269531 307.8125 L 88.84375 307.8125 L 87.9375 307.820312 L 86.085938 307.839844 L 85.085938 307.859375 L 83.660156 307.894531 L 82.660156 307.929688 L 81.472656 307.980469 L 80.664062 308.023438 L 79.664062 308.09375 L 78.949219 308.152344 L 78.140625 308.238281 L 77.667969 308.300781 L 77.238281 308.375 L 76.859375 308.460938 L 76.574219 308.550781 L 76.382812 308.648438 L 76.289062 308.738281 L 76.289062 309.140625 L 76.382812 309.234375 L 76.621094 309.34375 L 77.238281 309.503906 L 78.140625 309.640625 L 79.1875 309.75 L 80.1875 309.824219 L 80.757812 309.863281 L 81.519531 309.902344 L 82.707031 309.957031 L 84.421875 310.007812 L 85.417969 310.027344 L 86.941406 310.050781 L 88.511719 310.058594 L 90.601562 310.058594 L 92.457031 310.050781 L 93.695312 310.035156 L 94.976562 310.015625 L 96.738281 309.972656 L 97.832031 309.929688 L 98.78125 309.878906 L 99.496094 309.832031 L 99.972656 309.789062 L 100.683594 309.710938 L 101.257812 309.621094 L 101.683594 309.53125 L 101.96875 309.441406 L 108.628906 309.441406 L 108.34375 309.546875 L 107.914062 309.648438 L 107.484375 309.722656 L 106.820312 309.8125 L 106.058594 309.894531 L 104.964844 309.984375 L 104.0625 310.042969 L 102.871094 310.109375 L 101.777344 310.15625 L 100.589844 310.203125 L 98.832031 310.253906 L 97.6875 310.28125 L 96.453125 310.304688 L 94.976562 310.324219 L 93.125 310.34375 L 91.125 310.351562 L 89.269531 310.355469 L 87.273438 310.351562 L 85.800781 310.339844 L 83.847656 310.316406 L 81.425781 310.269531 L 79.664062 310.21875 L 78.285156 310.171875 L 77.097656 310.117188 L 75.765625 310.050781 L 74.050781 309.933594 L 73.007812 309.847656 L 72.292969 309.773438 L 71.484375 309.671875 L 70.914062 309.582031 L 70.246094 309.4375 L 69.773438 309.253906 L 69.628906 309.109375 Z M 69.628906 308.753906 "/>
<path style=" stroke:none;fill-rule:nonzero;fill:rgb(96.862745%,70.196078%,16.862745%);fill-opacity:1;" d="M 69.628906 312.75 L 69.675781 312.746094 L 69.675781 312.695312 L 69.867188 312.578125 L 70.34375 312.417969 L 70.960938 312.285156 L 71.625 312.183594 L 72.054688 312.128906 L 72.769531 312.050781 L 73.386719 311.992188 L 74.957031 311.875 L 76.953125 311.769531 L 78.046875 311.722656 L 79.285156 311.675781 L 81.042969 311.628906 L 81.851562 311.609375 L 84.324219 311.566406 L 87.132812 311.542969 L 90.222656 311.535156 L 91.648438 311.539062 L 93.597656 311.546875 L 96.261719 311.574219 L 97.785156 311.601562 L 98.972656 311.628906 L 100.210938 311.660156 L 101.730469 311.714844 L 103.160156 311.777344 L 104.300781 311.835938 L 105.441406 311.914062 L 106.390625 312 L 107.199219 312.089844 L 107.914062 312.199219 L 108.34375 312.289062 L 108.628906 312.378906 L 102.015625 312.378906 L 101.636719 312.289062 L 101.207031 312.21875 L 100.496094 312.132812 L 99.78125 312.070312 L 99.066406 312.019531 L 97.738281 311.953125 L 96.59375 311.914062 L 95.167969 311.875 L 93.789062 311.851562 L 92.21875 311.835938 L 91.269531 311.832031 L 88.746094 311.832031 L 86.464844 311.851562 L 85.132812 311.871094 L 84.183594 311.890625 L 82.851562 311.929688 L 82.042969 311.960938 L 81.566406 311.984375 L 80.140625 312.0625 L 79.1875 312.136719 L 78.664062 312.183594 L 78 312.261719 L 77.523438 312.332031 L 77 312.4375 L 76.714844 312.511719 L 76.335938 312.691406 L 76.289062 313.15625 L 76.429688 313.253906 L 76.714844 313.359375 L 77.097656 313.453125 L 77.667969 313.550781 L 78.238281 313.628906 L 79.234375 313.726562 L 80.09375 313.796875 L 80.757812 313.839844 L 82.042969 313.910156 L 82.566406 313.933594 L 83.800781 313.980469 L 85.085938 314.015625 L 86.65625 314.046875 L 87.84375 314.0625 L 89.746094 314.074219 L 92.171875 314.074219 L 95.027344 314.058594 L 96.832031 314.039062 L 98.070312 314.019531 L 98.878906 314 L 99.875 313.972656 L 100.589844 313.945312 L 101.257812 313.917969 L 102.0625 313.875 L 102.0625 313.253906 L 90.316406 313.25 L 90.316406 312.960938 L 108.578125 312.960938 L 108.628906 313.972656 L 107.628906 314.042969 L 106.390625 314.109375 L 105.203125 314.160156 L 103.964844 314.203125 L 102.207031 314.253906 L 100.78125 314.285156 L 98.59375 314.320312 L 96.59375 314.34375 L 94.503906 314.359375 L 92.648438 314.367188 L 90.460938 314.371094 L 88.511719 314.367188 L 86.417969 314.351562 L 84.753906 314.328125 L 83.230469 314.304688 L 81.710938 314.269531 L 79.808594 314.214844 L 78.570312 314.171875 L 77.285156 314.117188 L 76.003906 314.050781 L 74.859375 313.980469 L 74.101562 313.929688 L 73.339844 313.867188 L 72.53125 313.789062 L 71.769531 313.699219 L 71.199219 313.621094 L 70.675781 313.527344 L 70.296875 313.445312 L 69.914062 313.328125 L 69.722656 313.234375 L 69.628906 313.152344 Z M 69.628906 312.75 "/>
<path style=" stroke:none;fill-rule:nonzero;fill:rgb(83.921569%,15.686275%,22.352941%);fill-opacity:1;" d="M 69.628906 301.496094 L 108.628906 301.496094 L 108.628906 302.015625 L 92.375 302.019531 L 92.375 306.339844 L 85.835938 306.339844 L 85.835938 302.023438 L 85.742188 302.015625 L 69.628906 302.015625 Z M 69.628906 301.496094 "/>
<path style=" stroke:none;fill-rule:nonzero;fill:rgb(14.509804%,36.078431%,60%);fill-opacity:1;" d="M 110.679688 161.34375 L 110.726562 161.117188 L 110.726562 155.664062 L 110.871094 147.027344 L 111.203125 136.121094 L 111.535156 128.621094 L 112.390625 115.214844 L 113.582031 102.261719 L 114.816406 92.265625 L 115.722656 86.355469 L 116.53125 81.8125 L 118.382812 73.402344 L 119.574219 69.085938 L 120.859375 65.222656 L 122.425781 61.359375 L 123.570312 59.089844 L 126.136719 55.453125 L 128.039062 53.863281 L 129.511719 53.179688 L 132.699219 53.179688 L 134.601562 54.089844 L 135.980469 55.226562 L 137.503906 57.042969 L 138.789062 59.089844 L 141.023438 64.085938 L 143.019531 70.449219 L 143.921875 74.085938 L 145.351562 81.128906 L 146.445312 87.949219 L 147.207031 93.855469 L 148.0625 102.261719 L 148.820312 112.488281 L 149.394531 124.078125 L 149.679688 133.847656 L 143.019531 133.847656 L 142.6875 124.757812 L 142.304688 117.714844 L 141.59375 108.398438 L 140.878906 101.808594 L 139.882812 95.21875 L 138.976562 90.902344 L 137.742188 86.582031 L 136.648438 83.855469 L 135.503906 81.8125 L 134.410156 80.449219 L 132.320312 79.085938 L 129.894531 79.085938 L 128.988281 79.539062 L 127.136719 81.359375 L 126.136719 82.949219 L 124.710938 86.128906 L 123.710938 89.082031 L 122.523438 93.628906 L 121.714844 97.492188 L 120.714844 103.398438 L 120 108.625 L 119.191406 116.125 L 118.71875 121.804688 L 118.289062 128.167969 L 117.910156 135.667969 L 117.625 143.621094 L 117.433594 152.027344 L 117.339844 160.207031 L 117.339844 195.429688 L 117.433594 203.609375 L 117.671875 213.15625 L 118.289062 227.015625 L 119.191406 239.058594 L 120.238281 248.605469 L 121.238281 255.421875 L 121.808594 258.601562 L 122.570312 262.238281 L 123.757812 266.78125 L 125.472656 271.328125 L 126.46875 273.144531 L 127.992188 274.964844 L 129.5625 275.871094 L 131.652344 275.871094 L 133.507812 274.964844 L 134.746094 273.828125 L 136.027344 272.007812 L 137.789062 268.144531 L 138.882812 264.511719 L 139.832031 260.191406 L 140.546875 255.875 L 141.023438 252.238281 L 141.734375 245.195312 L 142.304688 237.46875 L 142.734375 229.515625 L 143.019531 221.789062 L 149.679688 221.789062 L 149.394531 230.878906 L 148.964844 239.742188 L 148.535156 246.332031 L 147.871094 254.285156 L 147.109375 261.328125 L 146.015625 269.28125 L 145.113281 274.507812 L 143.921875 280.1875 L 142.828125 284.507812 L 141.640625 288.371094 L 139.882812 292.914062 L 138.738281 295.1875 L 137.503906 297.230469 L 136.027344 299.050781 L 134.175781 300.640625 L 132.175781 301.550781 L 130.320312 301.777344 L 128.324219 301.324219 L 126.851562 300.414062 L 124.898438 298.367188 L 122.472656 294.277344 L 120.714844 289.960938 L 119.335938 285.644531 L 118.148438 281.097656 L 116.816406 274.964844 L 115.101562 264.964844 L 114.058594 257.238281 L 113.34375 250.875 L 112.535156 242.015625 L 111.964844 234.058594 L 111.296875 221.335938 L 110.824219 205.203125 L 110.679688 192.703125 Z M 110.679688 161.34375 "/>
<path style=" stroke:none;fill-rule:nonzero;fill:rgb(96.862745%,70.196078%,16.862745%);fill-opacity:1;" d="M 110.679688 305.148438 L 110.726562 305.144531 L 110.726562 305.050781 L 110.917969 304.839844 L 111.394531 304.550781 L 112.011719 304.3125 L 112.675781 304.125 L 113.105469 304.027344 L 113.820312 303.886719 L 114.4375 303.785156 L 116.007812 303.574219 L 118.003906 303.378906 L 119.097656 303.292969 L 120.335938 303.214844 L 122.09375 303.125 L 122.902344 303.09375 L 125.375 303.015625 L 128.179688 302.96875 L 131.273438 302.957031 L 132.699219 302.960938 L 134.648438 302.980469 L 137.3125 303.03125 L 138.835938 303.078125 L 140.023438 303.125 L 141.261719 303.183594 L 142.78125 303.277344 L 144.207031 303.390625 L 145.351562 303.503906 L 146.492188 303.644531 L 147.441406 303.792969 L 148.25 303.957031 L 148.964844 304.152344 L 149.394531 304.316406 L 149.679688 304.480469 L 143.066406 304.480469 L 142.6875 304.316406 L 142.257812 304.191406 L 141.546875 304.035156 L 140.832031 303.925781 L 140.117188 303.835938 L 138.789062 303.714844 L 137.644531 303.640625 L 136.21875 303.574219 L 134.839844 303.53125 L 133.269531 303.503906 L 132.320312 303.492188 L 129.796875 303.492188 L 127.515625 303.527344 L 126.183594 303.5625 L 125.234375 303.601562 L 123.902344 303.671875 L 123.09375 303.726562 L 122.617188 303.765625 L 121.191406 303.910156 L 120.238281 304.039062 L 119.714844 304.128906 L 119.050781 304.269531 L 118.574219 304.394531 L 118.050781 304.582031 L 117.765625 304.722656 L 117.386719 305.039062 L 117.339844 305.882812 L 117.480469 306.058594 L 117.765625 306.25 L 118.148438 306.417969 L 118.71875 306.597656 L 119.289062 306.734375 L 120.285156 306.914062 L 121.144531 307.035156 L 121.808594 307.117188 L 123.09375 307.242188 L 123.617188 307.285156 L 124.851562 307.367188 L 126.136719 307.433594 L 127.707031 307.488281 L 128.894531 307.519531 L 130.796875 307.539062 L 133.222656 307.539062 L 136.078125 307.511719 L 137.882812 307.476562 L 139.121094 307.4375 L 139.929688 307.40625 L 140.925781 307.355469 L 141.640625 307.308594 L 142.304688 307.257812 L 143.113281 307.175781 L 143.113281 306.058594 L 131.367188 306.054688 L 131.367188 305.53125 L 149.628906 305.527344 L 149.679688 307.355469 L 148.679688 307.480469 L 147.441406 307.601562 L 146.253906 307.695312 L 145.015625 307.773438 L 143.257812 307.863281 L 141.832031 307.917969 L 139.644531 307.984375 L 137.644531 308.027344 L 135.554688 308.054688 L 133.699219 308.070312 L 131.511719 308.074219 L 129.5625 308.0625 L 127.46875 308.035156 L 125.804688 308 L 124.28125 307.953125 L 122.761719 307.890625 L 120.859375 307.792969 L 119.621094 307.714844 L 118.335938 307.617188 L 117.054688 307.5 L 115.910156 307.371094 L 115.152344 307.273438 L 114.390625 307.164062 L 113.582031 307.023438 L 112.820312 306.863281 L 112.25 306.71875 L 111.726562 306.554688 L 111.347656 306.402344 L 110.964844 306.191406 L 110.773438 306.023438 L 110.679688 305.878906 Z M 110.679688 305.148438 "/>
<path style=" stroke:none;fill-rule:nonzero;fill:rgb(83.921569%,15.686275%,22.352941%);fill-opacity:1;" d="M 110.679688 309.253906 L 149.679688 309.253906 L 149.679688 309.800781 L 133.425781 309.804688 L 133.425781 314.371094 L 126.886719 314.371094 L 126.886719 309.8125 L 126.792969 309.800781 L 110.679688 309.800781 Z M 110.679688 309.253906 "/>
<path style=" stroke:none;fill-rule:nonzero;fill:rgb(6.27451%,58.823529%,28.235294%);fill-opacity:1;" d="M 151.730469 314.371094 L 151.773438 314.367188 L 168.648438 313.273438 L 173.769531 313.273438 L 190.730469 314.371094 L 184.769531 314.371094 L 180.519531 314.085938 L 161.898438 314.085938 L 157.730469 314.371094 L 151.730469 314.371094 L 163.6875 313.964844 L 178.8125 313.964844 L 171.269531 313.453125 L 171.1875 313.453125 L 171.105469 313.457031 L 163.648438 313.964844 L 163.6875 313.964844 Z M 151.730469 314.371094 "/>
<path style=" stroke:none;fill-rule:nonzero;fill:rgb(96.862745%,70.196078%,16.862745%);fill-opacity:1;" d="M 151.730469 310.167969 L 151.777344 310.164062 L 151.777344 310.105469 L 151.96875 309.964844 L 152.445312 309.773438 L 153.0625 309.617188 L 153.726562 309.496094 L 154.15625 309.429688 L 154.871094 309.335938 L 155.488281 309.269531 L 157.058594 309.132812 L 159.054688 309.003906 L 160.148438 308.945312 L 161.386719 308.894531 L 163.144531 308.835938 L 163.953125 308.8125 L 166.425781 308.765625 L 169.230469 308.734375 L 172.324219 308.726562 L 173.75 308.726562 L 175.699219 308.742188 L 178.363281 308.773438 L 179.886719 308.804688 L 181.074219 308.835938 L 182.3125 308.875 L 183.832031 308.9375 L 185.257812 309.011719 L 186.402344 309.085938 L 187.542969 309.175781 L 188.492188 309.277344 L 189.300781 309.382812 L 190.015625 309.511719 L 190.445312 309.621094 L 190.730469 309.726562 L 184.117188 309.726562 L 183.738281 309.621094 L 183.308594 309.539062 L 182.597656 309.4375 L 181.882812 309.363281 L 181.167969 309.304688 L 179.839844 309.222656 L 178.695312 309.175781 L 177.269531 309.132812 L 175.890625 309.105469 L 174.320312 309.085938 L 173.371094 309.078125 L 170.847656 309.078125 L 168.566406 309.101562 L 167.234375 309.125 L 166.285156 309.148438 L 164.953125 309.195312 L 164.144531 309.234375 L 163.667969 309.257812 L 162.242188 309.351562 L 161.289062 309.4375 L 160.765625 309.496094 L 160.101562 309.589844 L 159.625 309.671875 L 159.101562 309.796875 L 158.816406 309.886719 L 158.4375 310.097656 L 158.390625 310.652344 L 158.53125 310.769531 L 158.816406 310.894531 L 159.199219 311.007812 L 159.769531 311.121094 L 160.339844 311.210938 L 161.335938 311.332031 L 162.195312 311.414062 L 162.859375 311.464844 L 164.144531 311.546875 L 164.667969 311.574219 L 165.902344 311.628906 L 167.1875 311.675781 L 168.757812 311.710938 L 169.945312 311.730469 L 171.847656 311.746094 L 174.273438 311.746094 L 177.128906 311.726562 L 178.933594 311.703125 L 180.171875 311.675781 L 180.980469 311.65625 L 181.976562 311.621094 L 182.691406 311.589844 L 183.355469 311.558594 L 184.164062 311.503906 L 184.164062 310.769531 L 172.417969 310.765625 L 172.417969 310.421875 L 190.679688 310.417969 L 190.730469 311.621094 L 189.730469 311.703125 L 188.492188 311.785156 L 187.304688 311.847656 L 186.066406 311.898438 L 184.308594 311.957031 L 182.882812 311.992188 L 180.695312 312.039062 L 178.695312 312.066406 L 176.605469 312.082031 L 174.75 312.09375 L 172.5625 312.09375 L 170.613281 312.089844 L 168.519531 312.070312 L 166.855469 312.046875 L 165.332031 312.015625 L 163.8125 311.976562 L 161.910156 311.910156 L 160.671875 311.859375 L 159.386719 311.792969 L 158.105469 311.71875 L 156.960938 311.632812 L 156.203125 311.570312 L 155.441406 311.496094 L 154.632812 311.402344 L 153.871094 311.296875 L 153.300781 311.203125 L 152.777344 311.09375 L 152.398438 310.992188 L 152.015625 310.855469 L 151.824219 310.746094 L 151.730469 310.648438 Z M 151.730469 310.167969 "/>
<path style=" stroke:none;fill-rule:nonzero;fill:rgb(83.921569%,15.686275%,22.352941%);fill-opacity:1;" d="M 151.730469 31.167969 L 190.730469 31.167969 L 190.730469 60.753906 L 174.476562 61.011719 L 174.476562 307.546875 L 167.9375 307.546875 L 167.9375 61.273438 L 167.839844 60.753906 L 151.730469 60.753906 Z M 151.730469 31.167969 "/>
<path style=" stroke:none;fill-rule:nonzero;fill:rgb(6.27451%,58.823529%,28.235294%);fill-opacity:1;" d="M 192.78125 314.367188 L 192.824219 314.359375 L 209.695312 308.640625 L 214.820312 308.640625 L 231.78125 314.371094 L 225.820312 314.371094 L 221.570312 312.875 L 202.949219 312.875 L 198.78125 314.367188 L 192.78125 314.367188 L 204.738281 312.257812 L 219.863281 312.25 L 212.320312 309.578125 L 212.238281 309.574219 L 212.15625 309.589844 L 204.699219 312.25 L 204.738281 312.257812 Z M 192.78125 314.367188 "/>
<path style=" stroke:none;fill-rule:nonzero;fill:rgb(96.862745%,70.196078%,16.862745%);fill-opacity:1;" d="M 192.78125 147.535156 L 192.828125 147.277344 L 192.828125 142.167969 L 193.019531 130.671875 L 193.496094 114.832031 L 194.113281 101.804688 L 194.777344 91.582031 L 195.207031 86.21875 L 195.921875 78.554688 L 196.539062 72.933594 L 198.109375 61.4375 L 200.105469 50.707031 L 201.199219 46.109375 L 202.4375 41.765625 L 204.195312 36.910156 L 205.003906 35.125 L 207.476562 31.035156 L 210.28125 28.480469 L 213.375 27.714844 L 214.800781 27.96875 L 216.75 28.992188 L 219.414062 31.800781 L 220.9375 34.355469 L 222.125 36.910156 L 223.363281 40.234375 L 224.882812 45.34375 L 226.308594 51.472656 L 227.453125 57.605469 L 228.59375 65.269531 L 229.542969 73.445312 L 230.351562 82.386719 L 231.066406 93.117188 L 231.496094 102.058594 L 231.78125 111 L 225.167969 111 L 224.789062 102.058594 L 224.359375 95.160156 L 223.648438 86.730469 L 222.933594 80.597656 L 222.21875 75.746094 L 220.886719 69.101562 L 219.746094 65.015625 L 218.320312 61.4375 L 216.941406 59.136719 L 215.371094 57.605469 L 214.421875 57.09375 L 211.898438 57.09375 L 209.617188 58.882812 L 208.285156 60.925781 L 207.335938 62.96875 L 206.003906 66.800781 L 205.195312 69.867188 L 204.71875 71.914062 L 203.292969 79.832031 L 202.339844 86.984375 L 201.816406 91.839844 L 201.152344 99.503906 L 200.675781 106.402344 L 200.152344 116.621094 L 199.867188 124.285156 L 199.488281 141.65625 L 199.441406 187.644531 L 199.582031 197.351562 L 199.867188 207.828125 L 200.25 217.023438 L 200.820312 226.730469 L 201.390625 234.140625 L 202.386719 244.105469 L 203.246094 250.746094 L 203.910156 255.089844 L 205.195312 261.988281 L 205.71875 264.285156 L 206.953125 268.886719 L 208.238281 272.460938 L 209.808594 275.527344 L 210.996094 277.0625 L 212.898438 278.339844 L 215.324219 278.339844 L 218.179688 276.804688 L 219.984375 274.761719 L 221.222656 272.71875 L 222.03125 270.929688 L 223.027344 268.117188 L 223.742188 265.5625 L 224.40625 262.753906 L 225.214844 258.410156 L 225.214844 197.351562 L 213.46875 197.097656 L 213.46875 168.484375 L 231.730469 168.226562 L 231.78125 268.117188 L 230.78125 275.015625 L 229.542969 281.660156 L 228.355469 286.769531 L 227.117188 291.113281 L 225.359375 295.964844 L 223.933594 299.03125 L 221.746094 302.609375 L 219.746094 304.90625 L 217.65625 306.441406 L 215.800781 307.207031 L 213.613281 307.460938 L 211.664062 306.953125 L 209.570312 305.417969 L 207.90625 303.375 L 206.382812 300.820312 L 204.859375 297.5 L 202.957031 292.132812 L 201.722656 287.789062 L 200.4375 282.425781 L 199.152344 276.039062 L 198.011719 269.140625 L 197.25 263.777344 L 196.492188 257.644531 L 195.683594 249.980469 L 194.921875 241.292969 L 194.351562 233.375 L 193.828125 224.433594 L 193.445312 216 L 193.066406 204.503906 L 192.875 195.308594 L 192.78125 187.386719 Z M 192.78125 147.535156 "/>
<path style=" stroke:none;fill-rule:nonzero;fill:rgb(6.27451%,58.823529%,28.235294%);fill-opacity:1;" d="M 233.832031 264.027344 L 233.875 263.90625 L 250.746094 136.179688 L 255.871094 136.179688 L 272.832031 264.148438 L 266.871094 264.148438 L 262.621094 230.742188 L 244 230.742188 L 239.832031 264.027344 L 233.832031 264.027344 L 245.789062 216.925781 L 260.914062 216.804688 L 253.371094 157.085938 L 253.289062 156.964844 L 253.207031 157.328125 L 245.75 216.804688 L 245.789062 216.925781 Z M 233.832031 264.027344 "/>
<path style=" stroke:none;fill-rule:nonzero;fill:rgb(96.862745%,70.196078%,16.862745%);fill-opacity:1;" d="M 233.832031 286.332031 L 233.878906 286.289062 L 233.878906 285.390625 L 234.070312 283.375 L 234.546875 280.597656 L 235.164062 278.316406 L 235.828125 276.523438 L 236.257812 275.582031 L 236.972656 274.238281 L 237.589844 273.253906 L 239.160156 271.238281 L 241.15625 269.359375 L 242.25 268.550781 L 243.488281 267.789062 L 245.246094 266.9375 L 246.054688 266.625 L 248.527344 265.910156 L 251.332031 265.460938 L 254.425781 265.328125 L 255.851562 265.371094 L 257.800781 265.550781 L 260.464844 266.042969 L 261.988281 266.492188 L 263.175781 266.9375 L 264.414062 267.519531 L 265.933594 268.417969 L 267.359375 269.492188 L 268.503906 270.566406 L 269.644531 271.910156 L 270.59375 273.34375 L 271.402344 274.910156 L 272.117188 276.792969 L 272.542969 278.359375 L 272.832031 279.925781 L 266.21875 279.925781 L 265.839844 278.359375 L 265.410156 277.152344 L 264.699219 275.671875 L 263.984375 274.597656 L 263.269531 273.746094 L 261.9375 272.582031 L 260.796875 271.867188 L 259.371094 271.238281 L 257.992188 270.835938 L 256.421875 270.566406 L 255.472656 270.476562 L 252.949219 270.476562 L 250.667969 270.789062 L 249.335938 271.148438 L 248.386719 271.507812 L 247.054688 272.179688 L 246.246094 272.714844 L 245.769531 273.074219 L 244.34375 274.464844 L 243.390625 275.71875 L 242.867188 276.570312 L 242.203125 277.914062 L 241.726562 279.121094 L 241.203125 280.914062 L 240.917969 282.257812 L 240.539062 285.300781 L 240.492188 293.363281 L 240.632812 295.066406 L 240.917969 296.902344 L 241.296875 298.515625 L 241.871094 300.21875 L 242.441406 301.515625 L 243.4375 303.261719 L 244.296875 304.425781 L 244.960938 305.1875 L 246.246094 306.398438 L 246.769531 306.800781 L 248.003906 307.609375 L 249.289062 308.234375 L 250.859375 308.773438 L 252.046875 309.039062 L 253.949219 309.265625 L 256.375 309.265625 L 259.226562 308.996094 L 261.035156 308.636719 L 262.273438 308.28125 L 263.082031 307.964844 L 264.078125 307.472656 L 264.792969 307.023438 L 265.457031 306.53125 L 266.265625 305.769531 L 266.265625 295.066406 L 254.519531 295.023438 L 254.519531 290.003906 L 272.78125 289.960938 L 272.832031 307.472656 L 271.832031 308.683594 L 270.59375 309.847656 L 269.40625 310.742188 L 268.167969 311.503906 L 266.410156 312.355469 L 264.984375 312.894531 L 262.796875 313.519531 L 260.796875 313.921875 L 258.707031 314.191406 L 256.851562 314.324219 L 254.664062 314.371094 L 252.710938 314.28125 L 250.621094 314.011719 L 248.957031 313.652344 L 247.433594 313.207031 L 245.910156 312.625 L 244.007812 311.683594 L 242.773438 310.921875 L 241.488281 309.980469 L 240.203125 308.863281 L 239.0625 307.652344 L 238.300781 306.710938 L 237.542969 305.636719 L 236.734375 304.292969 L 235.972656 302.769531 L 235.402344 301.382812 L 234.878906 299.8125 L 234.496094 298.335938 L 234.117188 296.320312 L 233.925781 294.707031 L 233.832031 293.320312 Z M 233.832031 286.332031 "/>
<path style=" stroke:none;fill-rule:nonzero;fill:rgb(6.27451%,58.823529%,28.235294%);fill-opacity:1;" d="M 274.882812 314.371094 L 274.925781 314.367188 L 291.796875 313.210938 L 296.921875 313.210938 L 313.882812 314.371094 L 307.921875 314.371094 L 303.671875 314.066406 L 285.050781 314.066406 L 280.882812 314.371094 L 274.882812 314.371094 L 286.839844 313.941406 L 301.964844 313.941406 L 294.421875 313.402344 L 294.339844 313.398438 L 294.257812 313.402344 L 286.800781 313.941406 L 286.839844 313.941406 Z M 274.882812 314.371094 "/>
<path style=" stroke:none;fill-rule:nonzero;fill:rgb(14.509804%,36.078431%,60%);fill-opacity:1;" d="M 274.882812 311.375 L 274.929688 311.375 L 274.929688 311.351562 L 275.074219 311.308594 L 275.40625 311.257812 L 275.738281 311.222656 L 276.59375 311.160156 L 277.785156 311.101562 L 279.019531 311.054688 L 279.925781 311.027344 L 280.734375 311.003906 L 282.585938 310.964844 L 283.777344 310.945312 L 285.058594 310.929688 L 286.628906 310.910156 L 287.769531 310.898438 L 290.339844 310.882812 L 292.242188 310.875 L 293.714844 310.871094 L 296.902344 310.871094 L 298.804688 310.875 L 300.183594 310.882812 L 301.707031 310.890625 L 302.988281 310.898438 L 305.226562 310.921875 L 307.222656 310.953125 L 308.125 310.96875 L 309.554688 311.003906 L 310.648438 311.035156 L 311.40625 311.0625 L 312.265625 311.101562 L 313.023438 311.148438 L 313.59375 311.203125 L 313.882812 311.25 L 307.222656 311.25 L 306.890625 311.207031 L 306.507812 311.171875 L 305.796875 311.128906 L 305.082031 311.097656 L 304.082031 311.066406 L 303.179688 311.046875 L 301.945312 311.027344 L 300.851562 311.015625 L 299.707031 311.003906 L 298.613281 311 L 296.523438 310.992188 L 294.097656 310.992188 L 293.191406 310.996094 L 291.339844 311.003906 L 290.339844 311.011719 L 288.914062 311.027344 L 287.914062 311.039062 L 286.726562 311.0625 L 285.917969 311.078125 L 284.917969 311.105469 L 284.203125 311.128906 L 283.394531 311.164062 L 282.921875 311.191406 L 282.492188 311.222656 L 282.113281 311.257812 L 281.828125 311.292969 L 281.636719 311.332031 L 281.539062 311.371094 L 281.539062 311.535156 L 281.636719 311.574219 L 281.875 311.617188 L 282.492188 311.683594 L 283.394531 311.738281 L 284.441406 311.785156 L 285.441406 311.816406 L 286.011719 311.832031 L 286.773438 311.847656 L 287.960938 311.867188 L 289.671875 311.890625 L 290.671875 311.898438 L 292.195312 311.90625 L 293.761719 311.910156 L 295.855469 311.910156 L 297.710938 311.90625 L 298.949219 311.902344 L 300.230469 311.894531 L 301.992188 311.875 L 303.085938 311.859375 L 304.035156 311.835938 L 304.75 311.816406 L 305.226562 311.800781 L 305.9375 311.769531 L 306.507812 311.730469 L 306.9375 311.695312 L 307.222656 311.660156 L 313.882812 311.660156 L 313.59375 311.699219 L 313.167969 311.742188 L 312.738281 311.773438 L 312.074219 311.808594 L 311.3125 311.84375 L 310.21875 311.878906 L 309.316406 311.90625 L 308.125 311.929688 L 307.03125 311.949219 L 305.84375 311.96875 L 304.082031 311.992188 L 302.941406 312 L 301.707031 312.011719 L 300.230469 312.019531 L 298.375 312.027344 L 296.378906 312.03125 L 292.527344 312.03125 L 291.050781 312.023438 L 289.101562 312.015625 L 286.675781 311.996094 L 284.917969 311.976562 L 283.539062 311.957031 L 282.347656 311.933594 L 281.019531 311.90625 L 279.304688 311.859375 L 278.257812 311.824219 L 277.546875 311.792969 L 276.738281 311.753906 L 276.167969 311.714844 L 275.5 311.65625 L 275.027344 311.582031 L 274.882812 311.523438 Z M 274.882812 311.375 "/>
<path style=" stroke:none;fill-rule:nonzero;fill:rgb(96.862745%,70.196078%,16.862745%);fill-opacity:1;" d="M 274.882812 145.890625 L 274.929688 145.628906 L 274.929688 140.394531 L 275.121094 128.621094 L 275.597656 112.398438 L 276.214844 99.054688 L 276.878906 88.585938 L 277.308594 83.089844 L 278.023438 75.242188 L 278.640625 69.484375 L 280.210938 57.710938 L 282.207031 46.71875 L 283.300781 42.011719 L 284.539062 37.5625 L 286.296875 32.589844 L 287.105469 30.757812 L 289.578125 26.570312 L 292.382812 23.957031 L 295.476562 23.171875 L 296.902344 23.433594 L 298.851562 24.480469 L 301.515625 27.355469 L 303.039062 29.972656 L 304.226562 32.589844 L 305.464844 35.992188 L 306.984375 41.226562 L 308.410156 47.503906 L 309.554688 53.785156 L 310.695312 61.636719 L 311.644531 70.007812 L 312.453125 79.167969 L 313.167969 90.15625 L 313.59375 99.316406 L 313.882812 108.472656 L 307.269531 108.472656 L 306.890625 99.316406 L 306.460938 92.25 L 305.75 83.613281 L 305.035156 77.335938 L 304.320312 72.363281 L 302.988281 65.558594 L 301.847656 61.375 L 300.421875 57.710938 L 299.042969 55.355469 L 297.472656 53.785156 L 296.523438 53.261719 L 294 53.261719 L 291.71875 55.09375 L 290.386719 57.1875 L 289.4375 59.28125 L 288.105469 63.203125 L 287.296875 66.34375 L 286.820312 68.4375 L 285.394531 76.550781 L 284.441406 83.875 L 283.917969 88.847656 L 283.253906 96.699219 L 282.777344 103.761719 L 282.253906 114.230469 L 281.96875 122.078125 L 281.589844 139.871094 L 281.539062 186.972656 L 281.683594 196.914062 L 281.96875 207.644531 L 282.347656 217.0625 L 282.921875 227.007812 L 283.492188 234.59375 L 284.488281 244.800781 L 285.34375 251.601562 L 286.011719 256.050781 L 287.296875 263.117188 L 287.820312 265.472656 L 289.054688 270.179688 L 290.339844 273.84375 L 291.910156 276.984375 L 293.097656 278.554688 L 295 279.863281 L 297.425781 279.863281 L 300.277344 278.292969 L 302.085938 276.199219 L 303.324219 274.105469 L 304.132812 272.273438 L 305.128906 269.394531 L 305.84375 266.78125 L 306.507812 263.902344 L 307.316406 259.453125 L 307.316406 196.914062 L 295.570312 196.652344 L 295.570312 167.347656 L 313.832031 167.085938 L 313.882812 269.394531 L 312.882812 276.460938 L 311.644531 283.265625 L 310.457031 288.496094 L 309.21875 292.945312 L 307.460938 297.917969 L 306.035156 301.058594 L 303.847656 304.722656 L 301.847656 307.074219 L 299.757812 308.644531 L 297.902344 309.429688 L 295.714844 309.691406 L 293.761719 309.167969 L 291.671875 307.597656 L 290.007812 305.507812 L 288.484375 302.890625 L 286.960938 299.488281 L 285.058594 293.992188 L 283.824219 289.542969 L 282.539062 284.050781 L 281.253906 277.507812 L 280.113281 270.441406 L 279.351562 264.949219 L 278.59375 258.667969 L 277.785156 250.816406 L 277.023438 241.921875 L 276.453125 233.808594 L 275.929688 224.652344 L 275.546875 216.015625 L 275.167969 204.242188 L 274.976562 194.820312 L 274.882812 186.710938 Z M 274.882812 145.890625 "/>
<path style=" stroke:none;fill-rule:nonzero;fill:rgb(14.509804%,36.078431%,60%);fill-opacity:1;" d="M 315.933594 147.835938 L 315.980469 147.574219 L 315.980469 141.289062 L 316.125 131.335938 L 316.457031 118.765625 L 316.789062 110.121094 L 317.644531 94.671875 L 318.835938 79.742188 L 320.070312 68.21875 L 320.976562 61.410156 L 321.78125 56.171875 L 323.636719 46.480469 L 324.828125 41.503906 L 326.109375 37.050781 L 327.679688 32.597656 L 328.820312 29.980469 L 331.390625 25.789062 L 333.292969 23.957031 L 334.765625 23.171875 L 337.953125 23.171875 L 339.855469 24.21875 L 341.234375 25.527344 L 342.757812 27.621094 L 344.039062 29.980469 L 346.277344 35.742188 L 348.273438 43.074219 L 349.175781 47.265625 L 350.605469 55.382812 L 351.699219 63.242188 L 352.457031 70.050781 L 353.316406 79.742188 L 354.074219 91.527344 L 354.644531 104.882812 L 354.929688 116.144531 L 348.273438 116.144531 L 347.941406 105.671875 L 347.558594 97.550781 L 346.847656 86.8125 L 346.132812 79.21875 L 345.132812 71.621094 L 344.230469 66.644531 L 342.996094 61.671875 L 341.902344 58.527344 L 340.757812 56.171875 L 339.664062 54.597656 L 337.574219 53.027344 L 335.148438 53.027344 L 334.242188 53.550781 L 332.390625 55.644531 L 331.390625 57.480469 L 329.964844 61.144531 L 328.964844 64.550781 L 327.777344 69.789062 L 326.96875 74.242188 L 325.96875 81.050781 L 325.253906 87.074219 L 324.445312 95.71875 L 323.972656 102.265625 L 323.542969 109.597656 L 323.164062 118.242188 L 322.878906 127.40625 L 322.6875 137.097656 L 322.589844 146.527344 L 322.589844 187.121094 L 322.6875 196.550781 L 322.925781 207.550781 L 323.542969 223.527344 L 324.445312 237.40625 L 325.492188 248.40625 L 326.492188 256.265625 L 327.0625 259.929688 L 327.824219 264.121094 L 329.011719 269.359375 L 330.722656 274.597656 L 331.722656 276.691406 L 333.246094 278.789062 L 334.8125 279.835938 L 336.90625 279.835938 L 338.761719 278.789062 L 340 277.476562 L 341.28125 275.382812 L 343.042969 270.929688 L 344.136719 266.742188 L 345.085938 261.765625 L 345.800781 256.789062 L 346.277344 252.597656 L 346.988281 244.480469 L 347.558594 235.574219 L 347.988281 226.40625 L 348.273438 217.503906 L 354.929688 217.503906 L 354.644531 227.980469 L 354.21875 238.191406 L 353.789062 245.789062 L 353.125 254.953125 L 352.363281 263.074219 L 351.269531 272.242188 L 350.367188 278.265625 L 349.175781 284.8125 L 348.082031 289.789062 L 346.894531 294.242188 L 345.132812 299.476562 L 343.992188 302.097656 L 342.757812 304.453125 L 341.28125 306.550781 L 339.425781 308.382812 L 337.429688 309.429688 L 335.574219 309.691406 L 333.578125 309.167969 L 332.101562 308.121094 L 330.152344 305.765625 L 327.726562 301.050781 L 325.96875 296.074219 L 324.589844 291.097656 L 323.398438 285.859375 L 322.070312 278.789062 L 320.355469 267.265625 L 319.308594 258.359375 L 318.597656 251.027344 L 317.789062 240.8125 L 317.21875 231.644531 L 316.550781 216.980469 L 316.074219 198.382812 L 315.933594 183.980469 Z M 315.933594 147.835938 "/>
<path style=" stroke:none;fill-rule:nonzero;fill:rgb(96.862745%,70.196078%,16.862745%);fill-opacity:1;" d="M 315.933594 311.367188 L 315.980469 311.367188 L 315.980469 311.347656 L 316.171875 311.300781 L 316.648438 311.234375 L 317.265625 311.179688 L 317.929688 311.136719 L 318.359375 311.113281 L 319.074219 311.082031 L 319.691406 311.058594 L 321.261719 311.011719 L 323.257812 310.96875 L 324.351562 310.949219 L 325.585938 310.929688 L 327.347656 310.910156 L 328.15625 310.902344 L 330.628906 310.886719 L 333.433594 310.875 L 336.527344 310.871094 L 337.953125 310.875 L 339.902344 310.878906 L 342.566406 310.890625 L 344.089844 310.898438 L 345.277344 310.910156 L 346.515625 310.925781 L 348.035156 310.945312 L 349.460938 310.96875 L 350.605469 310.996094 L 351.746094 311.027344 L 352.695312 311.0625 L 353.503906 311.097656 L 354.21875 311.144531 L 354.644531 311.179688 L 354.929688 311.21875 L 348.320312 311.21875 L 347.941406 311.179688 L 347.511719 311.152344 L 346.800781 311.117188 L 346.085938 311.089844 L 345.371094 311.070312 L 344.039062 311.042969 L 342.898438 311.027344 L 341.472656 311.011719 L 340.09375 311.003906 L 338.523438 310.996094 L 337.574219 310.992188 L 335.050781 310.992188 L 332.769531 311 L 331.4375 311.011719 L 330.488281 311.019531 L 329.15625 311.035156 L 328.347656 311.046875 L 327.871094 311.054688 L 326.445312 311.089844 L 325.492188 311.117188 L 324.96875 311.136719 L 324.304688 311.167969 L 323.828125 311.199219 L 323.304688 311.242188 L 323.019531 311.273438 L 322.640625 311.34375 L 322.589844 311.535156 L 322.734375 311.574219 L 323.019531 311.617188 L 323.398438 311.65625 L 323.972656 311.695312 L 324.542969 311.726562 L 325.539062 311.769531 L 326.394531 311.796875 L 327.0625 311.816406 L 328.347656 311.84375 L 328.871094 311.851562 L 330.105469 311.871094 L 331.390625 311.886719 L 332.960938 311.898438 L 334.148438 311.90625 L 336.050781 311.910156 L 338.476562 311.910156 L 341.328125 311.90625 L 343.136719 311.894531 L 344.375 311.886719 L 345.183594 311.878906 L 346.179688 311.867188 L 346.894531 311.859375 L 347.558594 311.847656 L 348.367188 311.828125 L 348.367188 311.574219 L 336.621094 311.574219 L 336.621094 311.457031 L 354.882812 311.453125 L 354.929688 311.867188 L 353.933594 311.898438 L 352.695312 311.925781 L 351.507812 311.945312 L 350.269531 311.964844 L 348.511719 311.984375 L 347.085938 311.996094 L 344.898438 312.011719 L 342.898438 312.019531 L 340.808594 312.027344 L 338.953125 312.03125 L 334.8125 312.03125 L 332.722656 312.023438 L 331.058594 312.015625 L 328.011719 311.992188 L 326.109375 311.96875 L 324.875 311.949219 L 323.589844 311.929688 L 322.304688 311.902344 L 321.164062 311.871094 L 320.402344 311.851562 L 319.644531 311.824219 L 318.835938 311.792969 L 318.074219 311.757812 L 317.503906 311.722656 L 316.980469 311.6875 L 316.597656 311.652344 L 316.21875 311.605469 L 316.027344 311.566406 L 315.933594 311.535156 Z M 315.933594 311.367188 "/>
<path style=" stroke:none;fill-rule:nonzero;fill:rgb(83.921569%,15.686275%,22.352941%);fill-opacity:1;" d="M 315.933594 313.210938 L 354.929688 313.210938 L 354.929688 313.335938 L 338.679688 313.335938 L 338.679688 314.371094 L 332.140625 314.371094 L 332.140625 313.335938 L 315.933594 313.335938 Z M 315.933594 313.210938 "/>
<path style=" stroke:none;fill-rule:nonzero;fill:rgb(6.27451%,58.823529%,28.235294%);fill-opacity:1;" d="M 356.984375 309.382812 L 357.027344 309.109375 L 373.898438 20.664062 L 379.023438 20.664062 L 395.980469 309.652344 L 390.023438 309.652344 L 385.773438 234.214844 L 367.148438 234.214844 L 362.984375 309.382812 L 356.984375 309.382812 L 368.941406 203.011719 L 384.066406 202.738281 L 376.523438 67.878906 L 376.441406 67.605469 L 376.359375 68.421875 L 368.898438 202.738281 L 368.941406 203.011719 Z M 356.984375 309.382812 "/>
<path style=" stroke:none;fill-rule:nonzero;fill:rgb(96.862745%,70.196078%,16.862745%);fill-opacity:1;" d="M 356.984375 312.347656 L 357.03125 312.34375 L 357.03125 312.28125 L 357.222656 312.132812 L 357.699219 311.933594 L 358.316406 311.769531 L 358.980469 311.640625 L 359.410156 311.570312 L 360.121094 311.476562 L 360.742188 311.402344 L 362.3125 311.257812 L 364.308594 311.121094 L 365.402344 311.066406 L 366.636719 311.007812 L 368.398438 310.949219 L 369.207031 310.925781 L 371.679688 310.875 L 374.484375 310.839844 L 377.578125 310.832031 L 379.003906 310.835938 L 380.953125 310.847656 L 383.617188 310.882812 L 385.140625 310.917969 L 386.328125 310.949219 L 387.5625 310.992188 L 389.085938 311.054688 L 390.511719 311.132812 L 391.65625 311.210938 L 392.796875 311.308594 L 393.746094 311.410156 L 394.554688 311.523438 L 395.269531 311.660156 L 395.695312 311.773438 L 395.980469 311.886719 L 389.371094 311.886719 L 388.992188 311.773438 L 388.5625 311.683594 L 387.851562 311.578125 L 387.136719 311.5 L 386.421875 311.441406 L 385.089844 311.355469 L 383.949219 311.304688 L 382.523438 311.257812 L 381.144531 311.230469 L 379.574219 311.210938 L 378.625 311.203125 L 376.101562 311.203125 L 373.820312 311.226562 L 372.488281 311.253906 L 371.535156 311.277344 L 370.207031 311.328125 L 369.398438 311.363281 L 368.921875 311.390625 L 367.496094 311.492188 L 366.542969 311.582031 L 366.019531 311.644531 L 365.355469 311.738281 L 364.878906 311.828125 L 364.355469 311.957031 L 364.070312 312.054688 L 363.691406 312.273438 L 363.640625 312.855469 L 363.785156 312.976562 L 364.070312 313.109375 L 364.449219 313.226562 L 365.023438 313.347656 L 365.59375 313.441406 L 366.589844 313.570312 L 367.445312 313.652344 L 368.113281 313.707031 L 369.398438 313.796875 L 369.921875 313.824219 L 371.15625 313.882812 L 372.441406 313.929688 L 374.011719 313.964844 L 375.199219 313.984375 L 377.101562 314.003906 L 379.527344 314.003906 L 382.378906 313.984375 L 384.1875 313.957031 L 385.425781 313.929688 L 386.234375 313.910156 L 387.230469 313.871094 L 387.945312 313.839844 L 388.609375 313.804688 L 389.417969 313.75 L 389.417969 312.976562 L 377.671875 312.972656 L 377.671875 312.613281 L 395.933594 312.609375 L 395.980469 313.871094 L 394.984375 313.960938 L 393.746094 314.042969 L 392.558594 314.109375 L 391.320312 314.164062 L 389.5625 314.226562 L 388.136719 314.265625 L 385.949219 314.308594 L 383.949219 314.339844 L 381.855469 314.359375 L 380.003906 314.367188 L 377.816406 314.371094 L 375.863281 314.363281 L 373.773438 314.34375 L 372.109375 314.320312 L 370.585938 314.285156 L 369.0625 314.246094 L 367.160156 314.175781 L 365.925781 314.121094 L 364.640625 314.054688 L 363.355469 313.972656 L 362.214844 313.886719 L 361.453125 313.816406 L 360.695312 313.742188 L 359.886719 313.644531 L 359.125 313.535156 L 358.554688 313.433594 L 358.03125 313.320312 L 357.648438 313.214844 L 357.269531 313.066406 L 357.078125 312.953125 L 356.984375 312.851562 Z M 356.984375 312.347656 "/>
<path style=" stroke:none;fill-rule:nonzero;fill:rgb(14.509804%,36.078431%,60%);fill-opacity:1;" d="M 398.035156 310.191406 L 398.082031 310.1875 L 398.082031 310.113281 L 398.226562 309.996094 L 398.558594 309.847656 L 398.890625 309.746094 L 399.746094 309.566406 L 400.9375 309.390625 L 402.171875 309.253906 L 403.074219 309.175781 L 403.882812 309.113281 L 405.738281 309 L 406.929688 308.941406 L 408.210938 308.886719 L 409.78125 308.835938 L 410.921875 308.804688 L 413.492188 308.753906 L 415.394531 308.734375 L 416.867188 308.726562 L 420.054688 308.726562 L 421.957031 308.738281 L 423.335938 308.753906 L 424.859375 308.777344 L 426.140625 308.804688 L 428.378906 308.871094 L 430.375 308.960938 L 431.277344 309.007812 L 432.707031 309.105469 L 433.800781 309.195312 L 434.558594 309.277344 L 435.414062 309.390625 L 436.175781 309.527344 L 436.746094 309.6875 L 437.03125 309.820312 L 430.375 309.820312 L 430.042969 309.695312 L 429.660156 309.601562 L 428.949219 309.472656 L 428.234375 309.382812 L 427.234375 309.296875 L 426.332031 309.238281 L 425.097656 309.179688 L 424 309.140625 L 422.859375 309.113281 L 421.765625 309.09375 L 419.675781 309.078125 L 417.25 309.078125 L 416.34375 309.082031 L 414.488281 309.105469 L 413.492188 309.128906 L 412.066406 309.171875 L 411.066406 309.210938 L 409.875 309.273438 L 409.070312 309.324219 L 408.070312 309.40625 L 407.355469 309.476562 L 406.546875 309.578125 L 406.070312 309.65625 L 405.644531 309.742188 L 405.265625 309.84375 L 404.976562 309.953125 L 404.789062 310.066406 L 404.691406 310.175781 L 404.691406 310.652344 L 404.789062 310.765625 L 405.027344 310.894531 L 405.644531 311.082031 L 406.546875 311.246094 L 407.59375 311.375 L 408.59375 311.46875 L 409.164062 311.511719 L 409.925781 311.558594 L 411.113281 311.621094 L 412.824219 311.683594 L 413.824219 311.707031 L 415.347656 311.730469 L 416.914062 311.746094 L 419.007812 311.746094 L 420.863281 311.730469 L 422.097656 311.714844 L 423.382812 311.691406 L 425.144531 311.640625 L 426.238281 311.589844 L 427.1875 311.53125 L 427.902344 311.472656 L 428.378906 311.425781 L 429.089844 311.328125 L 429.660156 311.222656 L 430.089844 311.117188 L 430.375 311.011719 L 437.03125 311.011719 L 436.746094 311.132812 L 436.320312 311.253906 L 435.890625 311.34375 L 435.226562 311.453125 L 434.464844 311.546875 L 433.371094 311.65625 L 432.46875 311.726562 L 431.277344 311.804688 L 430.183594 311.863281 L 428.996094 311.914062 L 427.234375 311.976562 L 426.09375 312.007812 L 424.859375 312.035156 L 423.382812 312.058594 L 421.527344 312.082031 L 419.53125 312.09375 L 417.675781 312.09375 L 415.679688 312.089844 L 414.203125 312.078125 L 412.253906 312.050781 L 409.828125 311.992188 L 408.070312 311.933594 L 406.691406 311.875 L 405.5 311.816406 L 404.167969 311.730469 L 402.457031 311.597656 L 401.410156 311.492188 L 400.699219 311.40625 L 399.890625 311.285156 L 399.320312 311.175781 L 398.652344 311.003906 L 398.175781 310.785156 L 398.035156 310.617188 Z M 398.035156 310.191406 "/>
<path style=" stroke:none;fill-rule:nonzero;fill:rgb(96.862745%,70.196078%,16.862745%);fill-opacity:1;" d="M 398.035156 313.746094 L 398.082031 313.742188 L 398.082031 313.722656 L 398.273438 313.679688 L 398.75 313.617188 L 399.367188 313.566406 L 400.03125 313.523438 L 400.460938 313.503906 L 401.171875 313.472656 L 401.792969 313.453125 L 403.363281 313.40625 L 405.359375 313.363281 L 406.453125 313.347656 L 407.6875 313.332031 L 409.449219 313.3125 L 410.257812 313.304688 L 412.730469 313.289062 L 415.535156 313.277344 L 418.628906 313.273438 L 420.054688 313.277344 L 422.003906 313.28125 L 424.667969 313.292969 L 426.191406 313.300781 L 427.378906 313.3125 L 428.613281 313.324219 L 430.136719 313.34375 L 431.5625 313.367188 L 432.707031 313.390625 L 433.847656 313.421875 L 434.796875 313.453125 L 435.605469 313.488281 L 436.320312 313.53125 L 436.746094 313.566406 L 437.03125 313.601562 L 430.421875 313.601562 L 430.042969 313.566406 L 429.613281 313.539062 L 428.902344 313.507812 L 428.1875 313.480469 L 427.472656 313.464844 L 426.140625 313.4375 L 425 313.421875 L 423.574219 313.40625 L 422.195312 313.398438 L 420.625 313.390625 L 417.152344 313.390625 L 414.871094 313.398438 L 413.539062 313.40625 L 412.585938 313.414062 L 411.257812 313.429688 L 410.449219 313.441406 L 409.972656 313.449219 L 408.546875 313.480469 L 407.59375 313.507812 L 407.070312 313.527344 L 406.40625 313.554688 L 405.929688 313.582031 L 405.40625 313.625 L 405.121094 313.652344 L 404.742188 313.722656 L 404.691406 313.902344 L 404.835938 313.941406 L 405.121094 313.980469 L 405.5 314.015625 L 406.070312 314.054688 L 406.644531 314.082031 L 407.640625 314.121094 L 408.496094 314.148438 L 409.164062 314.164062 L 410.449219 314.191406 L 410.972656 314.203125 L 412.207031 314.21875 L 413.492188 314.234375 L 415.0625 314.246094 L 416.25 314.25 L 418.152344 314.257812 L 420.578125 314.257812 L 423.429688 314.25 L 425.238281 314.242188 L 426.476562 314.234375 L 427.285156 314.226562 L 428.28125 314.214844 L 428.996094 314.207031 L 429.660156 314.195312 L 430.46875 314.179688 L 430.46875 313.941406 L 418.722656 313.9375 L 418.722656 313.828125 L 436.984375 313.824219 L 437.03125 314.214844 L 436.035156 314.242188 L 434.796875 314.269531 L 433.609375 314.289062 L 432.371094 314.304688 L 430.613281 314.324219 L 429.1875 314.335938 L 427 314.351562 L 425 314.359375 L 422.90625 314.367188 L 421.054688 314.371094 L 418.867188 314.371094 L 416.914062 314.367188 L 414.824219 314.363281 L 413.160156 314.355469 L 410.113281 314.332031 L 408.210938 314.3125 L 406.976562 314.292969 L 405.691406 314.273438 L 404.40625 314.246094 L 403.265625 314.21875 L 402.503906 314.199219 L 401.746094 314.175781 L 400.9375 314.144531 L 400.175781 314.113281 L 399.605469 314.082031 L 399.082031 314.046875 L 398.699219 314.011719 L 398.320312 313.96875 L 398.128906 313.929688 L 398.035156 313.902344 Z M 398.035156 313.746094 "/>
<path style=" stroke:none;fill-rule:nonzero;fill:rgb(83.921569%,15.686275%,22.352941%);fill-opacity:1;" d="M 398.035156 31.167969 L 437.03125 31.167969 L 437.03125 60.753906 L 420.78125 61.011719 L 420.78125 307.546875 L 414.242188 307.546875 L 414.242188 61.273438 L 414.144531 60.753906 L 398.035156 60.753906 Z M 398.035156 31.167969 "/>
<path style=" stroke:none;fill-rule:nonzero;fill:rgb(96.862745%,70.196078%,16.862745%);fill-opacity:1;" d="M 439.085938 144.441406 L 439.132812 144.175781 L 439.132812 138.898438 L 439.324219 127.023438 L 439.800781 110.660156 L 440.417969 97.199219 L 441.082031 86.640625 L 441.511719 81.101562 L 442.222656 73.183594 L 442.84375 67.375 L 444.410156 55.5 L 446.410156 44.414062 L 447.503906 39.664062 L 448.738281 35.179688 L 450.5 30.164062 L 451.308594 28.316406 L 453.78125 24.09375 L 456.585938 21.453125 L 459.679688 20.664062 L 461.105469 20.925781 L 463.054688 21.984375 L 465.71875 24.886719 L 467.242188 27.523438 L 468.429688 30.164062 L 469.664062 33.59375 L 471.1875 38.875 L 472.613281 45.207031 L 473.753906 51.542969 L 474.898438 59.457031 L 475.847656 67.902344 L 476.65625 77.140625 L 477.371094 88.226562 L 477.796875 97.464844 L 478.082031 106.699219 L 471.472656 106.699219 L 471.09375 97.464844 L 470.664062 90.335938 L 469.949219 81.628906 L 469.238281 75.292969 L 468.523438 70.28125 L 467.191406 63.417969 L 466.050781 59.195312 L 464.625 55.5 L 463.246094 53.125 L 461.675781 51.542969 L 460.726562 51.011719 L 458.203125 51.011719 L 455.921875 52.859375 L 454.589844 54.972656 L 453.636719 57.082031 L 452.308594 61.042969 L 451.5 64.210938 L 451.023438 66.320312 L 449.597656 74.503906 L 448.644531 81.890625 L 448.121094 86.90625 L 447.457031 94.824219 L 446.980469 101.949219 L 446.457031 112.507812 L 446.171875 120.421875 L 445.792969 138.371094 L 445.742188 185.875 L 445.886719 195.902344 L 446.171875 206.726562 L 446.550781 216.226562 L 447.121094 226.253906 L 447.695312 233.90625 L 448.691406 244.199219 L 449.546875 251.0625 L 450.214844 255.550781 L 451.5 262.675781 L 452.019531 265.050781 L 453.257812 269.800781 L 454.542969 273.496094 L 456.113281 276.664062 L 457.300781 278.246094 L 459.203125 279.566406 L 461.628906 279.566406 L 464.480469 277.980469 L 466.289062 275.871094 L 467.527344 273.757812 L 468.335938 271.914062 L 469.332031 269.007812 L 470.046875 266.371094 L 470.710938 263.46875 L 471.519531 258.980469 L 471.519531 195.902344 L 459.773438 195.640625 L 459.773438 166.082031 L 478.035156 165.816406 L 478.082031 269.007812 L 477.085938 276.136719 L 475.847656 282.996094 L 474.660156 288.273438 L 473.421875 292.761719 L 471.664062 297.777344 L 470.238281 300.941406 L 468.046875 304.636719 L 466.050781 307.011719 L 463.957031 308.597656 L 462.105469 309.386719 L 459.917969 309.652344 L 457.964844 309.125 L 455.875 307.542969 L 454.210938 305.429688 L 452.6875 302.789062 L 451.164062 299.359375 L 449.261719 293.816406 L 448.027344 289.332031 L 446.742188 283.789062 L 445.457031 277.191406 L 444.316406 270.066406 L 443.554688 264.523438 L 442.796875 258.1875 L 441.988281 250.269531 L 441.226562 241.296875 L 440.65625 233.117188 L 440.132812 223.878906 L 439.75 215.171875 L 439.371094 203.292969 L 439.179688 193.792969 L 439.085938 185.609375 Z M 439.085938 144.441406 "/>
<path style=" stroke:none;fill-rule:nonzero;fill:rgb(83.921569%,15.686275%,22.352941%);fill-opacity:1;" d="M 439.085938 310.832031 L 478.082031 310.832031 L 478.082031 311.210938 L 461.832031 311.214844 L 461.832031 314.371094 L 455.292969 314.371094 L 455.292969 311.21875 L 455.195312 311.210938 L 439.085938 311.210938 Z M 439.085938 310.832031 "/>
<path style=" stroke:none;fill-rule:nonzero;fill:rgb(6.27451%,58.823529%,28.235294%);fill-opacity:1;" d="M 480.136719 314.371094 L 480.179688 314.367188 L 497.050781 313.382812 L 502.175781 313.382812 L 519.132812 314.371094 L 513.175781 314.371094 L 508.925781 314.113281 L 490.300781 314.113281 L 486.136719 314.371094 L 480.136719 314.371094 L 492.09375 314.007812 L 507.21875 314.003906 L 499.675781 313.542969 L 499.59375 313.542969 L 499.511719 313.546875 L 492.050781 314.003906 L 492.09375 314.007812 Z M 480.136719 314.371094 "/>
<path style=" stroke:none;fill-rule:nonzero;fill:rgb(14.509804%,36.078431%,60%);fill-opacity:1;" d="M 480.136719 157.269531 L 480.183594 157.03125 L 480.183594 151.351562 L 480.328125 142.359375 L 480.660156 131 L 480.992188 123.1875 L 481.847656 109.222656 L 483.039062 95.734375 L 484.273438 85.320312 L 485.175781 79.167969 L 485.984375 74.433594 L 487.839844 65.675781 L 489.03125 61.179688 L 490.3125 57.15625 L 491.882812 53.132812 L 493.023438 50.765625 L 495.59375 46.980469 L 497.496094 45.324219 L 498.96875 44.613281 L 502.15625 44.613281 L 504.058594 45.558594 L 505.4375 46.742188 L 506.960938 48.636719 L 508.242188 50.765625 L 510.480469 55.972656 L 512.476562 62.597656 L 513.378906 66.386719 L 514.804688 73.722656 L 515.898438 80.824219 L 516.660156 86.976562 L 517.515625 95.734375 L 518.277344 106.382812 L 518.847656 118.453125 L 519.132812 128.632812 L 512.476562 128.632812 L 512.144531 119.164062 L 511.761719 111.828125 L 511.050781 102.125 L 510.335938 95.261719 L 509.335938 88.398438 L 508.433594 83.898438 L 507.195312 79.402344 L 506.101562 76.5625 L 504.960938 74.433594 L 503.867188 73.011719 L 501.773438 71.59375 L 499.351562 71.59375 L 498.445312 72.066406 L 496.589844 73.960938 L 495.59375 75.617188 L 494.164062 78.929688 L 493.167969 82.007812 L 491.976562 86.742188 L 491.167969 90.765625 L 490.171875 96.917969 L 489.457031 102.359375 L 488.648438 110.171875 L 488.171875 116.085938 L 487.746094 122.714844 L 487.363281 130.523438 L 487.078125 138.808594 L 486.890625 147.566406 L 486.792969 156.085938 L 486.792969 192.769531 L 486.890625 201.289062 L 487.128906 211.230469 L 487.746094 225.667969 L 488.648438 238.210938 L 489.695312 248.152344 L 490.695312 255.25 L 491.265625 258.566406 L 492.027344 262.351562 L 493.214844 267.085938 L 494.925781 271.820312 L 495.925781 273.710938 L 497.449219 275.605469 L 499.015625 276.550781 L 501.109375 276.550781 L 502.964844 275.605469 L 504.199219 274.421875 L 505.484375 272.527344 L 507.246094 268.503906 L 508.339844 264.71875 L 509.289062 260.222656 L 510.003906 255.726562 L 510.480469 251.9375 L 511.191406 244.601562 L 511.761719 236.554688 L 512.191406 228.269531 L 512.476562 220.222656 L 519.132812 220.222656 L 518.847656 229.691406 L 518.421875 238.921875 L 517.992188 245.785156 L 517.328125 254.070312 L 516.566406 261.40625 L 515.472656 269.6875 L 514.570312 275.132812 L 513.378906 281.050781 L 512.285156 285.546875 L 511.097656 289.570312 L 509.335938 294.304688 L 508.195312 296.667969 L 506.960938 298.800781 L 505.484375 300.691406 L 503.628906 302.351562 L 501.632812 303.296875 L 499.777344 303.53125 L 497.78125 303.058594 L 496.304688 302.113281 L 494.355469 299.984375 L 491.929688 295.722656 L 490.171875 291.226562 L 488.792969 286.730469 L 487.601562 281.996094 L 486.269531 275.605469 L 484.558594 265.191406 L 483.511719 257.144531 L 482.800781 250.519531 L 481.992188 241.289062 L 481.421875 233.003906 L 480.753906 219.75 L 480.277344 202.945312 L 480.136719 189.929688 Z M 480.136719 157.269531 "/>
<path style=" stroke:none;fill-rule:nonzero;fill:rgb(83.921569%,15.686275%,22.352941%);fill-opacity:1;" d="M 480.136719 304.710938 L 519.132812 304.710938 L 519.132812 305.515625 L 502.882812 305.523438 L 502.882812 312.203125 L 496.34375 312.203125 L 496.34375 305.527344 L 496.246094 305.515625 L 480.136719 305.515625 Z M 480.136719 304.710938 "/>
<path style=" stroke:none;fill-rule:nonzero;fill:rgb(14.509804%,36.078431%,60%);fill-opacity:1;" d="M 521.1875 278.992188 L 521.234375 278.941406 L 521.234375 277.695312 L 521.378906 275.71875 L 521.710938 273.226562 L 522.042969 271.515625 L 522.898438 268.449219 L 524.089844 265.488281 L 525.324219 263.203125 L 526.226562 261.855469 L 527.035156 260.816406 L 528.890625 258.894531 L 530.082031 257.90625 L 531.363281 257.023438 L 532.933594 256.140625 L 534.074219 255.621094 L 536.644531 254.789062 L 538.546875 254.425781 L 540.019531 254.273438 L 543.207031 254.273438 L 545.109375 254.480469 L 546.488281 254.738281 L 548.011719 255.15625 L 549.292969 255.621094 L 551.53125 256.765625 L 553.527344 258.21875 L 554.429688 259.050781 L 555.855469 260.660156 L 556.949219 262.21875 L 557.710938 263.566406 L 558.566406 265.488281 L 559.328125 267.828125 L 559.898438 270.476562 L 560.183594 272.707031 L 553.527344 272.707031 L 553.195312 270.632812 L 552.8125 269.019531 L 552.101562 266.890625 L 551.386719 265.386719 L 550.386719 263.878906 L 549.484375 262.894531 L 548.246094 261.90625 L 547.152344 261.28125 L 546.011719 260.816406 L 544.917969 260.503906 L 542.824219 260.191406 L 540.402344 260.191406 L 539.496094 260.296875 L 537.640625 260.710938 L 536.644531 261.074219 L 535.214844 261.800781 L 534.21875 262.476562 L 533.027344 263.515625 L 532.21875 264.398438 L 531.222656 265.75 L 530.507812 266.945312 L 529.699219 268.65625 L 529.222656 269.957031 L 528.796875 271.410156 L 528.414062 273.125 L 528.128906 274.941406 L 527.941406 276.863281 L 527.84375 278.734375 L 527.84375 286.78125 L 527.941406 288.652344 L 528.179688 290.832031 L 528.796875 294 L 529.699219 296.753906 L 530.746094 298.933594 L 531.746094 300.492188 L 532.316406 301.21875 L 533.078125 302.050781 L 534.265625 303.089844 L 535.976562 304.128906 L 536.976562 304.542969 L 538.5 304.960938 L 540.066406 305.167969 L 542.160156 305.167969 L 544.015625 304.960938 L 545.25 304.699219 L 546.535156 304.285156 L 548.296875 303.402344 L 549.390625 302.570312 L 550.339844 301.582031 L 551.054688 300.597656 L 551.53125 299.765625 L 552.242188 298.15625 L 552.8125 296.390625 L 553.242188 294.574219 L 553.527344 292.808594 L 560.183594 292.808594 L 559.898438 294.882812 L 559.472656 296.910156 L 559.042969 298.414062 L 558.378906 300.234375 L 557.617188 301.84375 L 556.523438 303.660156 L 555.621094 304.855469 L 554.429688 306.152344 L 553.335938 307.140625 L 552.148438 308.023438 L 550.386719 309.0625 L 549.246094 309.582031 L 548.011719 310.050781 L 546.535156 310.464844 L 544.679688 310.828125 L 542.683594 311.035156 L 540.828125 311.085938 L 538.832031 310.984375 L 537.355469 310.777344 L 535.40625 310.308594 L 532.980469 309.375 L 531.222656 308.386719 L 529.84375 307.402344 L 528.652344 306.363281 L 527.320312 304.960938 L 525.609375 302.675781 L 524.5625 300.910156 L 523.851562 299.453125 L 523.042969 297.429688 L 522.472656 295.613281 L 521.804688 292.703125 L 521.328125 289.015625 L 521.1875 286.160156 Z M 521.1875 278.992188 "/>
<path style=" stroke:none;fill-rule:nonzero;fill:rgb(96.862745%,70.196078%,16.862745%);fill-opacity:1;" d="M 521.1875 313.167969 L 521.234375 313.167969 L 521.234375 313.128906 L 521.425781 313.042969 L 521.898438 312.921875 L 522.519531 312.824219 L 523.183594 312.746094 L 523.613281 312.707031 L 524.324219 312.648438 L 524.945312 312.605469 L 526.511719 312.519531 L 528.511719 312.441406 L 529.605469 312.40625 L 530.839844 312.375 L 532.601562 312.335938 L 533.410156 312.324219 L 535.882812 312.292969 L 538.6875 312.273438 L 541.78125 312.265625 L 543.207031 312.269531 L 545.15625 312.277344 L 547.820312 312.296875 L 549.339844 312.316406 L 550.53125 312.335938 L 551.765625 312.363281 L 553.289062 312.398438 L 554.714844 312.445312 L 555.855469 312.492188 L 557 312.550781 L 557.949219 312.609375 L 558.757812 312.679688 L 559.472656 312.757812 L 559.898438 312.828125 L 560.183594 312.894531 L 553.574219 312.894531 L 553.195312 312.828125 L 552.765625 312.773438 L 552.050781 312.710938 L 551.339844 312.664062 L 550.625 312.628906 L 549.292969 312.578125 L 548.152344 312.546875 L 546.726562 312.519531 L 545.347656 312.503906 L 543.777344 312.492188 L 542.824219 312.488281 L 540.304688 312.488281 L 538.023438 312.5 L 536.691406 312.515625 L 535.738281 312.53125 L 534.40625 312.5625 L 533.601562 312.585938 L 533.125 312.601562 L 531.699219 312.660156 L 530.746094 312.714844 L 530.222656 312.75 L 529.558594 312.808594 L 529.082031 312.859375 L 528.558594 312.9375 L 528.273438 312.992188 L 527.894531 313.125 L 527.84375 313.46875 L 527.988281 313.542969 L 528.273438 313.621094 L 528.652344 313.691406 L 529.222656 313.765625 L 529.796875 313.820312 L 530.792969 313.894531 L 531.648438 313.945312 L 532.316406 313.976562 L 533.601562 314.027344 L 534.121094 314.046875 L 535.359375 314.082031 L 536.644531 314.109375 L 538.210938 314.128906 L 539.402344 314.140625 L 541.304688 314.152344 L 543.730469 314.152344 L 546.582031 314.140625 L 548.390625 314.125 L 549.625 314.109375 L 550.433594 314.097656 L 551.433594 314.074219 L 552.148438 314.054688 L 552.8125 314.035156 L 553.621094 314 L 553.621094 313.542969 L 541.875 313.539062 L 541.875 313.324219 L 560.136719 313.324219 L 560.183594 314.074219 L 559.1875 314.125 L 557.949219 314.175781 L 556.761719 314.214844 L 555.523438 314.246094 L 553.765625 314.285156 L 552.335938 314.308594 L 550.148438 314.335938 L 548.152344 314.351562 L 546.058594 314.363281 L 544.207031 314.367188 L 542.015625 314.371094 L 540.066406 314.367188 L 537.976562 314.355469 L 536.308594 314.339844 L 534.789062 314.320312 L 533.265625 314.296875 L 531.363281 314.253906 L 530.128906 314.222656 L 528.84375 314.183594 L 527.558594 314.132812 L 526.417969 314.082031 L 525.65625 314.042969 L 524.894531 313.996094 L 524.089844 313.9375 L 523.328125 313.875 L 522.757812 313.8125 L 522.234375 313.746094 L 521.851562 313.683594 L 521.472656 313.597656 L 521.28125 313.527344 L 521.1875 313.46875 Z M 521.1875 313.167969 "/>
<path style=" stroke:none;fill-rule:nonzero;fill:rgb(83.921569%,15.686275%,22.352941%);fill-opacity:1;" d="M 521.1875 178.765625 L 560.183594 178.765625 L 560.183594 186.722656 L 543.933594 186.792969 L 543.933594 253.09375 L 537.394531 253.09375 L 537.394531 186.863281 L 537.296875 186.722656 L 521.1875 186.722656 Z M 521.1875 178.765625 "/>
<path style=" stroke:none;fill-rule:nonzero;fill:rgb(14.509804%,36.078431%,60%);fill-opacity:1;" d="M 562.238281 154.503906 L 562.285156 154.257812 L 562.285156 148.394531 L 562.429688 139.109375 L 562.761719 127.382812 L 563.09375 119.320312 L 563.949219 104.90625 L 565.136719 90.980469 L 566.375 80.230469 L 567.277344 73.875 L 568.085938 68.988281 L 569.941406 59.949219 L 571.132812 55.308594 L 572.414062 51.15625 L 573.984375 47 L 575.125 44.558594 L 577.695312 40.648438 L 579.597656 38.9375 L 581.070312 38.207031 L 584.257812 38.207031 L 586.160156 39.183594 L 587.539062 40.402344 L 589.0625 42.359375 L 590.34375 44.558594 L 592.578125 49.933594 L 594.578125 56.773438 L 595.480469 60.683594 L 596.90625 68.257812 L 598 75.585938 L 598.761719 81.9375 L 599.617188 90.980469 L 600.378906 101.972656 L 600.949219 114.433594 L 601.234375 124.941406 L 594.578125 124.941406 L 594.246094 115.167969 L 593.863281 107.59375 L 593.152344 97.574219 L 592.4375 90.492188 L 591.4375 83.40625 L 590.535156 78.761719 L 589.296875 74.121094 L 588.203125 71.1875 L 587.0625 68.988281 L 585.96875 67.523438 L 583.875 66.058594 L 581.453125 66.058594 L 580.546875 66.546875 L 578.691406 68.5 L 577.695312 70.210938 L 576.265625 73.632812 L 575.269531 76.808594 L 574.078125 81.695312 L 573.269531 85.847656 L 572.273438 92.199219 L 571.558594 97.820312 L 570.75 105.882812 L 570.273438 111.992188 L 569.847656 118.832031 L 569.464844 126.894531 L 569.179688 135.445312 L 568.992188 144.484375 L 568.894531 153.28125 L 568.894531 191.152344 L 568.992188 199.949219 L 569.230469 210.210938 L 569.847656 225.113281 L 570.75 238.0625 L 571.796875 248.324219 L 572.796875 255.652344 L 573.367188 259.074219 L 574.128906 262.984375 L 575.316406 267.871094 L 577.027344 272.757812 L 578.027344 274.710938 L 579.550781 276.664062 L 581.117188 277.644531 L 583.210938 277.644531 L 585.066406 276.664062 L 586.300781 275.445312 L 587.585938 273.488281 L 589.347656 269.335938 L 590.441406 265.425781 L 591.390625 260.785156 L 592.105469 256.140625 L 592.578125 252.234375 L 593.292969 244.660156 L 593.863281 236.351562 L 594.292969 227.800781 L 594.578125 219.492188 L 601.234375 219.492188 L 600.949219 229.265625 L 600.523438 238.796875 L 600.09375 245.878906 L 599.429688 254.433594 L 598.667969 262.007812 L 597.574219 270.558594 L 596.671875 276.175781 L 595.480469 282.285156 L 594.386719 286.925781 L 593.199219 291.082031 L 591.4375 295.96875 L 590.296875 298.410156 L 589.0625 300.609375 L 587.585938 302.5625 L 585.730469 304.273438 L 583.734375 305.25 L 581.878906 305.496094 L 579.882812 305.007812 L 578.40625 304.03125 L 576.457031 301.832031 L 574.03125 297.433594 L 572.273438 292.789062 L 570.894531 288.148438 L 569.703125 283.261719 L 568.371094 276.664062 L 566.660156 265.914062 L 565.613281 257.609375 L 564.902344 250.765625 L 564.09375 241.238281 L 563.523438 232.6875 L 562.855469 219.003906 L 562.378906 201.65625 L 562.238281 188.21875 Z M 562.238281 154.503906 "/>
<path style=" stroke:none;fill-rule:nonzero;fill:rgb(96.862745%,70.196078%,16.862745%);fill-opacity:1;" d="M 562.238281 313.777344 L 562.285156 313.777344 L 562.285156 313.757812 L 562.476562 313.714844 L 562.949219 313.65625 L 563.570312 313.605469 L 564.234375 313.570312 L 564.664062 313.546875 L 565.375 313.519531 L 565.996094 313.5 L 567.5625 313.457031 L 569.5625 313.417969 L 570.65625 313.398438 L 571.890625 313.382812 L 573.652344 313.367188 L 574.460938 313.359375 L 576.933594 313.34375 L 579.738281 313.335938 L 582.832031 313.332031 L 584.257812 313.332031 L 586.207031 313.335938 L 588.871094 313.347656 L 590.390625 313.355469 L 591.582031 313.367188 L 592.816406 313.378906 L 594.339844 313.398438 L 595.765625 313.417969 L 596.90625 313.441406 L 598.050781 313.472656 L 599 313.5 L 599.808594 313.535156 L 600.523438 313.574219 L 600.949219 313.609375 L 601.234375 313.640625 L 594.625 313.640625 L 594.246094 313.609375 L 593.816406 313.582031 L 593.101562 313.550781 L 592.390625 313.527344 L 591.675781 313.511719 L 590.34375 313.484375 L 589.203125 313.46875 L 587.777344 313.457031 L 586.398438 313.449219 L 584.828125 313.441406 L 581.355469 313.441406 L 579.074219 313.445312 L 577.742188 313.453125 L 576.789062 313.460938 L 575.457031 313.476562 L 574.648438 313.488281 L 574.175781 313.496094 L 572.746094 313.523438 L 571.796875 313.550781 L 571.273438 313.570312 L 570.609375 313.597656 L 570.132812 313.625 L 569.609375 313.660156 L 569.324219 313.691406 L 568.941406 313.753906 L 568.894531 313.925781 L 569.039062 313.960938 L 569.324219 314 L 569.703125 314.035156 L 570.273438 314.070312 L 570.84375 314.097656 L 571.84375 314.136719 L 572.699219 314.160156 L 573.367188 314.175781 L 574.648438 314.203125 L 575.171875 314.210938 L 576.410156 314.226562 L 577.695312 314.242188 L 579.261719 314.253906 L 580.453125 314.257812 L 582.355469 314.261719 L 584.78125 314.261719 L 587.632812 314.257812 L 589.441406 314.25 L 590.675781 314.242188 L 591.484375 314.234375 L 592.484375 314.222656 L 593.199219 314.214844 L 593.863281 314.203125 L 594.671875 314.1875 L 594.671875 313.960938 L 582.925781 313.960938 L 582.925781 313.855469 L 601.1875 313.851562 L 601.234375 314.222656 L 600.238281 314.25 L 599 314.273438 L 597.8125 314.292969 L 596.574219 314.308594 L 594.816406 314.328125 L 593.386719 314.339844 L 591.199219 314.351562 L 589.203125 314.359375 L 587.109375 314.367188 L 585.257812 314.371094 L 583.066406 314.371094 L 581.117188 314.367188 L 579.027344 314.363281 L 577.359375 314.355469 L 575.839844 314.347656 L 574.316406 314.332031 L 572.414062 314.3125 L 571.179688 314.296875 L 569.894531 314.277344 L 568.609375 314.253906 L 567.46875 314.226562 L 565.945312 314.1875 L 565.136719 314.15625 L 564.378906 314.125 L 563.808594 314.09375 L 563.285156 314.0625 L 562.902344 314.03125 L 562.523438 313.988281 L 562.332031 313.953125 L 562.238281 313.925781 Z M 562.238281 313.777344 "/>
<path style=" stroke:none;fill-rule:nonzero;fill:rgb(83.921569%,15.686275%,22.352941%);fill-opacity:1;" d="M 562.238281 306.675781 L 601.234375 306.675781 L 601.234375 307.261719 L 584.984375 307.265625 L 584.984375 312.152344 L 578.441406 312.152344 L 578.441406 307.273438 L 578.347656 307.261719 L 562.238281 307.261719 Z M 562.238281 306.675781 "/>
<path style=" stroke:none;fill-rule:nonzero;fill:rgb(6.27451%,58.823529%,28.235294%);fill-opacity:1;" d="M 603.289062 281.84375 L 603.328125 281.765625 L 620.203125 199.660156 L 625.328125 199.660156 L 642.285156 281.921875 L 636.328125 281.921875 L 632.078125 260.449219 L 613.453125 260.449219 L 609.289062 281.84375 L 603.289062 281.84375 L 615.246094 251.566406 L 630.371094 251.488281 L 622.828125 213.101562 L 622.746094 213.023438 L 622.664062 213.253906 L 615.203125 251.488281 L 615.246094 251.566406 Z M 603.289062 281.84375 "/>
<path style=" stroke:none;fill-rule:nonzero;fill:rgb(14.509804%,36.078431%,60%);fill-opacity:1;" d="M 603.289062 303.832031 L 603.335938 303.828125 L 603.335938 303.667969 L 603.476562 303.421875 L 603.8125 303.105469 L 604.144531 302.890625 L 605 302.503906 L 606.1875 302.132812 L 607.425781 301.84375 L 608.328125 301.671875 L 609.136719 301.542969 L 610.992188 301.300781 L 612.183594 301.175781 L 613.464844 301.0625 L 615.035156 300.953125 L 616.175781 300.886719 L 618.746094 300.78125 L 620.648438 300.734375 L 622.121094 300.714844 L 625.308594 300.714844 L 627.210938 300.742188 L 628.589844 300.773438 L 630.109375 300.828125 L 631.394531 300.886719 L 633.628906 301.03125 L 635.628906 301.214844 L 636.53125 301.320312 L 637.957031 301.523438 L 639.050781 301.71875 L 639.8125 301.886719 L 640.667969 302.132812 L 641.429688 302.425781 L 642 302.757812 L 642.285156 303.042969 L 635.628906 303.042969 L 635.296875 302.777344 L 634.914062 302.578125 L 634.203125 302.308594 L 633.488281 302.117188 L 632.488281 301.929688 L 631.585938 301.804688 L 630.347656 301.679688 L 629.253906 301.601562 L 628.113281 301.542969 L 627.019531 301.503906 L 624.925781 301.464844 L 622.5 301.464844 L 621.597656 301.476562 L 619.742188 301.527344 L 618.746094 301.574219 L 617.316406 301.664062 L 616.320312 301.75 L 615.128906 301.882812 L 614.320312 301.992188 L 613.324219 302.164062 L 612.609375 302.3125 L 611.800781 302.53125 L 611.324219 302.695312 L 610.898438 302.878906 L 610.515625 303.09375 L 610.230469 303.324219 L 610.042969 303.566406 L 609.945312 303.800781 L 609.945312 304.816406 L 610.042969 305.050781 L 610.28125 305.328125 L 610.898438 305.726562 L 611.800781 306.074219 L 612.847656 306.347656 L 613.847656 306.542969 L 614.417969 306.636719 L 615.179688 306.742188 L 616.367188 306.871094 L 618.078125 307.003906 L 619.078125 307.054688 L 620.597656 307.109375 L 622.167969 307.132812 L 624.261719 307.132812 L 626.117188 307.109375 L 627.351562 307.074219 L 628.636719 307.023438 L 630.398438 306.910156 L 631.492188 306.808594 L 632.441406 306.683594 L 633.15625 306.558594 L 633.628906 306.453125 L 634.34375 306.25 L 634.914062 306.027344 L 635.34375 305.796875 L 635.628906 305.574219 L 642.285156 305.574219 L 642 305.835938 L 641.574219 306.09375 L 641.144531 306.28125 L 640.480469 306.511719 L 639.71875 306.714844 L 638.625 306.945312 L 637.722656 307.09375 L 636.53125 307.257812 L 635.4375 307.382812 L 634.25 307.496094 L 632.488281 307.625 L 631.347656 307.691406 L 630.109375 307.75 L 628.636719 307.800781 L 626.78125 307.847656 L 624.785156 307.875 L 622.929688 307.878906 L 620.933594 307.867188 L 619.457031 307.839844 L 617.507812 307.78125 L 615.082031 307.664062 L 613.324219 307.539062 L 611.945312 307.414062 L 610.753906 307.285156 L 609.421875 307.109375 L 607.710938 306.820312 L 606.664062 306.597656 L 605.953125 306.414062 L 605.144531 306.160156 L 604.574219 305.929688 L 603.90625 305.5625 L 603.429688 305.097656 L 603.289062 304.738281 Z M 603.289062 303.832031 "/>
<path style=" stroke:none;fill-rule:nonzero;fill:rgb(96.862745%,70.196078%,16.862745%);fill-opacity:1;" d="M 603.289062 290.140625 L 603.335938 290.125 L 603.335938 289.824219 L 603.527344 289.148438 L 604 288.21875 L 604.621094 287.453125 L 605.285156 286.855469 L 605.714844 286.539062 L 606.425781 286.089844 L 607.046875 285.757812 L 608.613281 285.082031 L 610.613281 284.453125 L 611.707031 284.183594 L 612.941406 283.925781 L 614.703125 283.640625 L 615.511719 283.535156 L 617.984375 283.296875 L 620.789062 283.144531 L 623.882812 283.101562 L 625.308594 283.117188 L 627.257812 283.175781 L 629.921875 283.339844 L 631.441406 283.492188 L 632.632812 283.640625 L 633.867188 283.835938 L 635.390625 284.136719 L 636.816406 284.496094 L 637.957031 284.855469 L 639.101562 285.308594 L 640.050781 285.789062 L 640.859375 286.3125 L 641.574219 286.945312 L 642 287.46875 L 642.285156 287.996094 L 635.675781 287.996094 L 635.296875 287.46875 L 634.867188 287.0625 L 634.152344 286.570312 L 633.441406 286.207031 L 632.726562 285.921875 L 631.394531 285.53125 L 630.253906 285.292969 L 628.828125 285.082031 L 627.449219 284.949219 L 625.878906 284.855469 L 624.925781 284.828125 L 622.40625 284.828125 L 620.125 284.933594 L 618.792969 285.050781 L 617.839844 285.171875 L 616.507812 285.398438 L 615.699219 285.578125 L 615.226562 285.699219 L 613.796875 286.164062 L 612.847656 286.582031 L 612.324219 286.867188 L 611.660156 287.320312 L 611.183594 287.722656 L 610.660156 288.324219 L 610.375 288.773438 L 609.992188 289.796875 L 609.945312 292.496094 L 610.089844 293.066406 L 610.375 293.683594 L 610.753906 294.222656 L 611.324219 294.792969 L 611.894531 295.230469 L 612.894531 295.8125 L 613.75 296.203125 L 614.417969 296.460938 L 615.699219 296.863281 L 616.222656 297 L 617.460938 297.269531 L 618.746094 297.480469 L 620.3125 297.660156 L 621.503906 297.75 L 623.40625 297.824219 L 625.832031 297.824219 L 628.683594 297.734375 L 630.492188 297.617188 L 631.726562 297.496094 L 632.535156 297.390625 L 633.535156 297.226562 L 634.25 297.074219 L 634.914062 296.910156 L 635.722656 296.65625 L 635.722656 293.066406 L 623.976562 293.050781 L 623.976562 291.371094 L 642.238281 291.355469 L 642.285156 297.226562 L 641.289062 297.628906 L 640.050781 298.019531 L 638.863281 298.320312 L 637.625 298.574219 L 635.867188 298.863281 L 634.4375 299.042969 L 632.25 299.25 L 630.253906 299.386719 L 628.160156 299.476562 L 626.304688 299.523438 L 624.117188 299.535156 L 622.167969 299.507812 L 620.078125 299.417969 L 618.410156 299.296875 L 616.890625 299.148438 L 615.367188 298.953125 L 613.464844 298.636719 L 612.230469 298.382812 L 610.945312 298.066406 L 609.660156 297.691406 L 608.519531 297.285156 L 607.757812 296.96875 L 606.996094 296.609375 L 606.1875 296.160156 L 605.429688 295.648438 L 604.859375 295.183594 L 604.335938 294.660156 L 603.953125 294.164062 L 603.574219 293.488281 L 603.382812 292.949219 L 603.289062 292.480469 Z M 603.289062 290.140625 "/>
<path style=" stroke:none;fill-rule:nonzero;fill:rgb(83.921569%,15.686275%,22.352941%);fill-opacity:1;" d="M 603.289062 309.058594 L 642.285156 309.058594 L 642.285156 309.628906 L 626.03125 309.632812 L 626.03125 314.371094 L 619.492188 314.371094 L 619.492188 309.640625 L 619.398438 309.628906 L 603.289062 309.628906 Z M 603.289062 309.058594 "/>
<path style=" stroke:none;fill-rule:nonzero;fill:rgb(6.27451%,58.823529%,28.235294%);fill-opacity:1;" d="M 644.339844 311.496094 L 644.378906 311.488281 L 661.253906 305.507812 L 666.378906 305.507812 L 683.335938 311.5 L 677.378906 311.5 L 673.128906 309.9375 L 654.503906 309.9375 L 650.339844 311.496094 L 644.339844 311.496094 L 656.296875 309.289062 L 671.421875 309.285156 L 663.878906 306.488281 L 663.796875 306.480469 L 663.714844 306.5 L 656.253906 309.285156 L 656.296875 309.289062 Z M 644.339844 311.496094 "/>
<path style=" stroke:none;fill-rule:nonzero;fill:rgb(14.509804%,36.078431%,60%);fill-opacity:1;" d="M 644.339844 293.648438 L 644.386719 293.632812 L 644.386719 293.214844 L 644.527344 292.558594 L 644.863281 291.730469 L 645.195312 291.160156 L 646.050781 290.140625 L 647.238281 289.15625 L 648.476562 288.394531 L 649.378906 287.945312 L 650.1875 287.601562 L 652.042969 286.960938 L 653.230469 286.632812 L 654.515625 286.339844 L 656.085938 286.046875 L 657.226562 285.871094 L 659.796875 285.597656 L 661.699219 285.476562 L 663.171875 285.421875 L 666.359375 285.421875 L 668.261719 285.492188 L 669.640625 285.578125 L 671.160156 285.714844 L 672.445312 285.871094 L 674.679688 286.253906 L 676.679688 286.734375 L 677.582031 287.011719 L 679.007812 287.546875 L 680.101562 288.066406 L 680.863281 288.515625 L 681.71875 289.15625 L 682.480469 289.933594 L 683.050781 290.816406 L 683.335938 291.558594 L 676.679688 291.558594 L 676.347656 290.867188 L 675.964844 290.332031 L 675.253906 289.621094 L 674.539062 289.121094 L 673.539062 288.621094 L 672.636719 288.292969 L 671.398438 287.964844 L 670.304688 287.757812 L 669.164062 287.601562 L 668.070312 287.496094 L 665.976562 287.394531 L 663.550781 287.394531 L 662.648438 287.425781 L 660.792969 287.566406 L 659.796875 287.6875 L 658.367188 287.929688 L 657.371094 288.152344 L 656.179688 288.5 L 655.371094 288.792969 L 654.375 289.242188 L 653.660156 289.640625 L 652.851562 290.210938 L 652.375 290.640625 L 651.949219 291.125 L 651.566406 291.695312 L 651.28125 292.300781 L 651.09375 292.941406 L 650.996094 293.5625 L 650.996094 296.242188 L 651.09375 296.863281 L 651.328125 297.589844 L 651.949219 298.644531 L 652.851562 299.558594 L 653.898438 300.285156 L 654.898438 300.804688 L 655.46875 301.042969 L 656.230469 301.320312 L 657.417969 301.667969 L 659.128906 302.011719 L 660.128906 302.152344 L 661.648438 302.289062 L 663.21875 302.359375 L 665.3125 302.359375 L 667.167969 302.289062 L 668.402344 302.203125 L 669.6875 302.0625 L 671.449219 301.769531 L 672.542969 301.496094 L 673.492188 301.164062 L 674.207031 300.835938 L 674.679688 300.5625 L 675.394531 300.023438 L 675.964844 299.4375 L 676.394531 298.832031 L 676.679688 298.246094 L 683.335938 298.246094 L 683.050781 298.9375 L 682.625 299.609375 L 682.195312 300.113281 L 681.53125 300.714844 L 680.769531 301.253906 L 679.675781 301.855469 L 678.769531 302.253906 L 677.582031 302.6875 L 676.488281 303.015625 L 675.300781 303.308594 L 673.539062 303.652344 L 672.398438 303.828125 L 671.160156 303.984375 L 669.6875 304.121094 L 667.832031 304.242188 L 665.835938 304.3125 L 663.980469 304.328125 L 661.984375 304.292969 L 660.507812 304.222656 L 658.558594 304.070312 L 656.132812 303.757812 L 654.375 303.429688 L 652.996094 303.101562 L 651.804688 302.753906 L 650.472656 302.289062 L 648.761719 301.527344 L 647.714844 300.941406 L 647.003906 300.457031 L 646.195312 299.785156 L 645.621094 299.179688 L 644.957031 298.210938 L 644.480469 296.984375 L 644.339844 296.035156 Z M 644.339844 293.648438 "/>
<path style=" stroke:none;fill-rule:nonzero;fill:rgb(96.862745%,70.196078%,16.862745%);fill-opacity:1;" d="M 644.339844 199.621094 L 644.386719 199.484375 L 644.386719 196.78125 L 644.578125 190.699219 L 645.050781 182.316406 L 645.671875 175.421875 L 646.335938 170.015625 L 646.765625 167.175781 L 647.476562 163.121094 L 648.097656 160.148438 L 649.664062 154.066406 L 651.664062 148.386719 L 652.757812 145.953125 L 653.992188 143.65625 L 655.753906 141.085938 L 656.5625 140.140625 L 659.035156 137.980469 L 661.839844 136.625 L 664.933594 136.222656 L 666.359375 136.355469 L 668.308594 136.898438 L 670.972656 138.382812 L 672.492188 139.734375 L 673.683594 141.085938 L 674.917969 142.84375 L 676.441406 145.546875 L 677.867188 148.792969 L 679.007812 152.039062 L 680.152344 156.09375 L 681.101562 160.417969 L 681.910156 165.148438 L 682.625 170.828125 L 683.050781 175.558594 L 683.335938 180.289062 L 676.726562 180.289062 L 676.347656 175.558594 L 675.917969 171.910156 L 675.203125 167.449219 L 674.492188 164.203125 L 673.777344 161.636719 L 672.445312 158.121094 L 671.304688 155.957031 L 669.878906 154.066406 L 668.5 152.847656 L 666.929688 152.039062 L 665.976562 151.765625 L 663.457031 151.765625 L 661.175781 152.714844 L 659.84375 153.792969 L 658.890625 154.875 L 657.558594 156.902344 L 656.75 158.527344 L 656.277344 159.605469 L 654.847656 163.796875 L 653.898438 167.582031 L 653.375 170.152344 L 652.710938 174.207031 L 652.234375 177.855469 L 651.710938 183.265625 L 651.425781 187.320312 L 651.042969 196.511719 L 650.996094 220.84375 L 651.140625 225.980469 L 651.425781 231.523438 L 651.804688 236.390625 L 652.375 241.527344 L 652.945312 245.445312 L 653.945312 250.71875 L 654.800781 254.234375 L 655.46875 256.53125 L 656.75 260.179688 L 657.273438 261.398438 L 658.511719 263.832031 L 659.796875 265.722656 L 661.363281 267.347656 L 662.554688 268.15625 L 664.457031 268.832031 L 666.882812 268.832031 L 669.734375 268.023438 L 671.542969 266.941406 L 672.777344 265.859375 L 673.585938 264.914062 L 674.585938 263.425781 L 675.300781 262.074219 L 675.964844 260.585938 L 676.773438 258.289062 L 676.773438 225.980469 L 665.027344 225.84375 L 665.027344 210.707031 L 683.289062 210.570312 L 683.335938 263.425781 L 682.339844 267.074219 L 681.101562 270.589844 L 679.914062 273.292969 L 678.675781 275.59375 L 676.917969 278.160156 L 675.488281 279.78125 L 673.300781 281.675781 L 671.304688 282.890625 L 669.210938 283.703125 L 667.355469 284.109375 L 665.167969 284.242188 L 663.21875 283.972656 L 661.128906 283.160156 L 659.460938 282.082031 L 657.941406 280.730469 L 656.417969 278.972656 L 654.515625 276.132812 L 653.28125 273.835938 L 651.996094 270.996094 L 650.710938 267.617188 L 649.570312 263.964844 L 648.808594 261.128906 L 648.046875 257.882812 L 647.238281 253.828125 L 646.480469 249.230469 L 645.910156 245.042969 L 645.386719 240.308594 L 645.003906 235.847656 L 644.625 229.765625 L 644.433594 224.898438 L 644.339844 220.707031 Z M 644.339844 199.621094 "/>
<path style=" stroke:none;fill-rule:nonzero;fill:rgb(83.921569%,15.686275%,22.352941%);fill-opacity:1;" d="M 644.339844 312.679688 L 683.335938 312.679688 L 683.335938 312.863281 L 667.082031 312.863281 L 667.082031 314.371094 L 660.542969 314.371094 L 660.542969 312.863281 L 644.339844 312.863281 Z M 644.339844 312.679688 "/>
<g style="fill:rgb(0%,0%,0%);fill-opacity:1;">
  <use xlink:href="#glyph0-1" x="21.957031" y="318.198242"/>
  <use xlink:href="#glyph0-2" x="27.291016" y="318.198242"/>
  <use xlink:href="#glyph0-1" x="29.958008" y="318.198242"/>
</g>
<g style="fill:rgb(0%,0%,0%);fill-opacity:1;">
  <use xlink:href="#glyph0-1" x="21.957031" y="239.838867"/>
  <use xlink:href="#glyph0-2" x="27.291016" y="239.838867"/>
  <use xlink:href="#glyph0-3" x="29.958008" y="239.838867"/>
</g>
<g style="fill:rgb(0%,0%,0%);fill-opacity:1;">
  <use xlink:href="#glyph0-4" x="21.957031" y="161.479492"/>
  <use xlink:href="#glyph0-2" x="27.291016" y="161.479492"/>
  <use xlink:href="#glyph0-1" x="29.958008" y="161.479492"/>
</g>
<g style="fill:rgb(0%,0%,0%);fill-opacity:1;">
  <use xlink:href="#glyph0-4" x="21.957031" y="83.120117"/>
  <use xlink:href="#glyph0-2" x="27.291016" y="83.120117"/>
  <use xlink:href="#glyph0-3" x="29.958008" y="83.120117"/>
</g>
<g style="fill:rgb(0%,0%,0%);fill-opacity:1;">
  <use xlink:href="#glyph0-4" x="86.128906" y="338.19043"/>
</g>
<g style="fill:rgb(0%,0%,0%);fill-opacity:1;">
  <use xlink:href="#glyph0-5" x="127.179688" y="338.19043"/>
</g>
<g style="fill:rgb(0%,0%,0%);fill-opacity:1;">
  <use xlink:href="#glyph0-6" x="168.230469" y="338.19043"/>
</g>
<g style="fill:rgb(0%,0%,0%);fill-opacity:1;">
  <use xlink:href="#glyph0-7" x="209.28125" y="338.19043"/>
</g>
<g style="fill:rgb(0%,0%,0%);fill-opacity:1;">
  <use xlink:href="#glyph0-3" x="250.332031" y="338.19043"/>
</g>
<g style="fill:rgb(0%,0%,0%);fill-opacity:1;">
  <use xlink:href="#glyph0-8" x="291.382812" y="338.19043"/>
</g>
<g style="fill:rgb(0%,0%,0%);fill-opacity:1;">
  <use xlink:href="#glyph0-9" x="332.433594" y="338.19043"/>
</g>
<g style="fill:rgb(0%,0%,0%);fill-opacity:1;">
  <use xlink:href="#glyph0-10" x="373.484375" y="338.19043"/>
</g>
<g style="fill:rgb(0%,0%,0%);fill-opacity:1;">
  <use xlink:href="#glyph0-11" x="414.535156" y="338.19043"/>
</g>
<g style="fill:rgb(0%,0%,0%);fill-opacity:1;">
  <use xlink:href="#glyph0-4" x="453.085938" y="338.19043"/>
  <use xlink:href="#glyph0-1" x="458.419922" y="338.19043"/>
</g>
<g style="fill:rgb(0%,0%,0%);fill-opacity:1;">
  <use xlink:href="#glyph0-4" x="494.136719" y="338.19043"/>
  <use xlink:href="#glyph0-4" x="499.470703" y="338.19043"/>
</g>
<g style="fill:rgb(0%,0%,0%);fill-opacity:1;">
  <use xlink:href="#glyph0-4" x="535.1875" y="338.19043"/>
  <use xlink:href="#glyph0-5" x="540.521484" y="338.19043"/>
</g>
<g style="fill:rgb(0%,0%,0%);fill-opacity:1;">
  <use xlink:href="#glyph0-4" x="576.238281" y="338.19043"/>
  <use xlink:href="#glyph0-6" x="581.572266" y="338.19043"/>
</g>
<g style="fill:rgb(0%,0%,0%);fill-opacity:1;">
  <use xlink:href="#glyph0-4" x="617.289062" y="338.19043"/>
  <use xlink:href="#glyph0-7" x="622.623047" y="338.19043"/>
</g>
<g style="fill:rgb(0%,0%,0%);fill-opacity:1;">
  <use xlink:href="#glyph0-4" x="658.339844" y="338.19043"/>
  <use xlink:href="#glyph0-3" x="663.673828" y="338.19043"/>
</g>
<g style="fill:rgb(0%,0%,0%);fill-opacity:1;">
  <use xlink:href="#glyph1-1" x="14.412109" y="178.015625"/>
  <use xlink:href="#glyph1-2" x="14.412109" y="170.011719"/>
  <use xlink:href="#glyph1-3" x="14.412109" y="167.347656"/>
  <use xlink:href="#glyph1-4" x="14.412109" y="164.011719"/>
</g>
</g>
</svg>
