<?xml version="1.0" encoding="UTF-8"?>
<svg xmlns="http://www.w3.org/2000/svg" xmlns:xlink="http://www.w3.org/1999/xlink" width="720pt" height="360pt" viewBox="0 0 720 360" version="1.1">
<defs>
<g>
<symbol overflow="visible" id="glyph0-0">
<path style="stroke:none;" d=""/>
</symbol>
<symbol overflow="visible" id="glyph0-1">
<path style="stroke:none;" d="M 2.640625 -6.796875 C 2 -6.796875 1.421875 -6.53125 1.078125 -6.046875 C 0.640625 -5.453125 0.40625 -4.546875 0.40625 -3.296875 C 0.40625 -1 1.1875 0.21875 2.640625 0.21875 C 4.078125 0.21875 4.859375 -1 4.859375 -3.234375 C 4.859375 -4.5625 4.65625 -5.4375 4.203125 -6.046875 C 3.84375 -6.53125 3.28125 -6.796875 2.640625 -6.796875 Z M 2.640625 -6.046875 C 3.546875 -6.046875 4 -5.125 4 -3.3125 C 4 -1.375 3.5625 -0.484375 2.625 -0.484375 C 1.734375 -0.484375 1.28125 -1.421875 1.28125 -3.28125 C 1.28125 -5.140625 1.734375 -6.046875 2.640625 -6.046875 Z M 2.640625 -6.046875 "/>
</symbol>
<symbol overflow="visible" id="glyph0-2">
<path style="stroke:none;" d="M 1.828125 -1 L 0.828125 -1 L 0.828125 0 L 1.828125 0 Z M 1.828125 -1 "/>
</symbol>
<symbol overflow="visible" id="glyph0-3">
<path style="stroke:none;" d="M 4.5625 -6.796875 L 1.0625 -6.796875 L 0.546875 -3.09375 L 1.328125 -3.09375 C 1.71875 -3.5625 2.046875 -3.734375 2.578125 -3.734375 C 3.484375 -3.734375 4.0625 -3.109375 4.0625 -2.09375 C 4.0625 -1.125 3.484375 -0.53125 2.578125 -0.53125 C 1.828125 -0.53125 1.375 -0.90625 1.1875 -1.671875 L 0.328125 -1.671875 C 0.453125 -1.109375 0.546875 -0.84375 0.75 -0.59375 C 1.125 -0.078125 1.828125 0.21875 2.59375 0.21875 C 3.96875 0.21875 4.921875 -0.78125 4.921875 -2.21875 C 4.921875 -3.5625 4.03125 -4.484375 2.71875 -4.484375 C 2.25 -4.484375 1.859375 -4.359375 1.46875 -4.0625 L 1.734375 -5.96875 L 4.5625 -5.96875 Z M 4.5625 -6.796875 "/>
</symbol>
<symbol overflow="visible" id="glyph0-4">
<path style="stroke:none;" d="M 2.484375 -4.84375 L 2.484375 0 L 3.328125 0 L 3.328125 -6.796875 L 2.765625 -6.796875 C 2.46875 -5.75 2.28125 -5.609375 0.984375 -5.453125 L 0.984375 -4.84375 Z M 2.484375 -4.84375 "/>
</symbol>
<symbol overflow="visible" id="glyph0-5">
<path style="stroke:none;" d="M 4.859375 -0.828125 L 1.28125 -0.828125 C 1.359375 -1.390625 1.671875 -1.75 2.5 -2.234375 L 3.46875 -2.75 C 4.40625 -3.265625 4.90625 -3.96875 4.90625 -4.8125 C 4.90625 -5.375 4.671875 -5.90625 4.265625 -6.265625 C 3.859375 -6.625 3.375 -6.796875 2.71875 -6.796875 C 1.859375 -6.796875 1.21875 -6.5 0.84375 -5.921875 C 0.609375 -5.5625 0.5 -5.125 0.484375 -4.4375 L 1.328125 -4.4375 C 1.359375 -4.90625 1.40625 -5.1875 1.53125 -5.40625 C 1.75 -5.8125 2.1875 -6.0625 2.703125 -6.0625 C 3.46875 -6.0625 4.03125 -5.515625 4.03125 -4.78125 C 4.03125 -4.25 3.71875 -3.796875 3.125 -3.4375 L 2.234375 -2.9375 C 0.8125 -2.140625 0.40625 -1.5 0.328125 0 L 4.859375 0 Z M 4.859375 -0.828125 "/>
</symbol>
<symbol overflow="visible" id="glyph0-6">
<path style="stroke:none;" d="M 2.125 -3.125 L 2.578125 -3.125 C 3.515625 -3.125 3.984375 -2.703125 3.984375 -1.890625 C 3.984375 -1.03125 3.46875 -0.53125 2.578125 -0.53125 C 1.65625 -0.53125 1.203125 -0.984375 1.15625 -1.96875 L 0.3125 -1.96875 C 0.34375 -1.421875 0.4375 -1.078125 0.609375 -0.765625 C 0.953125 -0.109375 1.625 0.21875 2.546875 0.21875 C 3.953125 0.21875 4.859375 -0.609375 4.859375 -1.90625 C 4.859375 -2.765625 4.515625 -3.25 3.703125 -3.515625 C 4.34375 -3.765625 4.65625 -4.25 4.65625 -4.9375 C 4.65625 -6.109375 3.875 -6.796875 2.578125 -6.796875 C 1.203125 -6.796875 0.484375 -6.046875 0.453125 -4.609375 L 1.296875 -4.609375 C 1.3125 -5.015625 1.34375 -5.25 1.453125 -5.453125 C 1.640625 -5.828125 2.0625 -6.0625 2.59375 -6.0625 C 3.34375 -6.0625 3.796875 -5.625 3.796875 -4.90625 C 3.796875 -4.421875 3.609375 -4.140625 3.25 -3.984375 C 3.015625 -3.890625 2.71875 -3.84375 2.125 -3.84375 Z M 2.125 -3.125 "/>
</symbol>
<symbol overflow="visible" id="glyph0-7">
<path style="stroke:none;" d="M 3.140625 -1.625 L 3.140625 0 L 3.984375 0 L 3.984375 -1.625 L 4.984375 -1.625 L 4.984375 -2.390625 L 3.984375 -2.390625 L 3.984375 -6.796875 L 3.359375 -6.796875 L 0.265625 -2.515625 L 0.265625 -1.625 Z M 3.140625 -2.390625 L 1 -2.390625 L 3.140625 -5.359375 Z M 3.140625 -2.390625 "/>
</symbol>
<symbol overflow="visible" id="glyph0-8">
<path style="stroke:none;" d="M 4.78125 -5.03125 C 4.609375 -6.140625 3.890625 -6.796875 2.84375 -6.796875 C 2.09375 -6.796875 1.421875 -6.4375 1.03125 -5.828125 C 0.609375 -5.171875 0.40625 -4.34375 0.40625 -3.09375 C 0.40625 -1.953125 0.578125 -1.234375 0.984375 -0.625 C 1.359375 -0.078125 1.953125 0.21875 2.703125 0.21875 C 3.984375 0.21875 4.921875 -0.734375 4.921875 -2.078125 C 4.921875 -3.34375 4.0625 -4.234375 2.84375 -4.234375 C 2.171875 -4.234375 1.640625 -3.96875 1.28125 -3.46875 C 1.28125 -5.125 1.828125 -6.046875 2.796875 -6.046875 C 3.390625 -6.046875 3.796875 -5.671875 3.9375 -5.03125 Z M 2.734375 -3.484375 C 3.546875 -3.484375 4.0625 -2.921875 4.0625 -2 C 4.0625 -1.15625 3.484375 -0.53125 2.703125 -0.53125 C 1.921875 -0.53125 1.328125 -1.1875 1.328125 -2.046875 C 1.328125 -2.890625 1.90625 -3.484375 2.734375 -3.484375 Z M 2.734375 -3.484375 "/>
</symbol>
<symbol overflow="visible" id="glyph0-9">
<path style="stroke:none;" d="M 4.984375 -6.796875 L 0.4375 -6.796875 L 0.4375 -5.96875 L 4.109375 -5.96875 C 2.5 -3.65625 1.828125 -2.234375 1.328125 0 L 2.21875 0 C 2.59375 -2.171875 3.453125 -4.046875 4.984375 -6.09375 Z M 4.984375 -6.796875 "/>
</symbol>
<symbol overflow="visible" id="glyph0-10">
<path style="stroke:none;" d="M 3.75 -3.578125 C 4.453125 -4 4.6875 -4.34375 4.6875 -4.984375 C 4.6875 -6.046875 3.84375 -6.796875 2.640625 -6.796875 C 1.4375 -6.796875 0.59375 -6.046875 0.59375 -4.984375 C 0.59375 -4.359375 0.828125 -4.015625 1.515625 -3.578125 C 0.734375 -3.203125 0.359375 -2.640625 0.359375 -1.890625 C 0.359375 -0.640625 1.296875 0.21875 2.640625 0.21875 C 3.984375 0.21875 4.921875 -0.640625 4.921875 -1.875 C 4.921875 -2.640625 4.53125 -3.203125 3.75 -3.578125 Z M 2.640625 -6.046875 C 3.359375 -6.046875 3.8125 -5.625 3.8125 -4.96875 C 3.8125 -4.34375 3.34375 -3.921875 2.640625 -3.921875 C 1.921875 -3.921875 1.453125 -4.34375 1.453125 -4.984375 C 1.453125 -5.625 1.921875 -6.046875 2.640625 -6.046875 Z M 2.640625 -3.203125 C 3.484375 -3.203125 4.0625 -2.671875 4.0625 -1.875 C 4.0625 -1.0625 3.484375 -0.53125 2.625 -0.53125 C 1.796875 -0.53125 1.21875 -1.078125 1.21875 -1.875 C 1.21875 -2.671875 1.796875 -3.203125 2.640625 -3.203125 Z M 2.640625 -3.203125 "/>
</symbol>
<symbol overflow="visible" id="glyph0-11">
<path style="stroke:none;" d="M 0.515625 -1.546875 C 0.671875 -0.4375 1.40625 0.21875 2.4375 0.21875 C 3.1875 0.21875 3.859375 -0.140625 4.265625 -0.75 C 4.6875 -1.40625 4.890625 -2.25 4.890625 -3.484375 C 4.890625 -4.625 4.703125 -5.359375 4.3125 -5.953125 C 3.9375 -6.5 3.34375 -6.796875 2.59375 -6.796875 C 1.296875 -6.796875 0.359375 -5.84375 0.359375 -4.515625 C 0.359375 -3.25 1.234375 -2.34375 2.453125 -2.34375 C 3.09375 -2.34375 3.5625 -2.578125 4.015625 -3.109375 C 4 -1.453125 3.46875 -0.53125 2.5 -0.53125 C 1.90625 -0.53125 1.484375 -0.90625 1.359375 -1.546875 Z M 2.578125 -6.0625 C 3.375 -6.0625 3.96875 -5.40625 3.96875 -4.53125 C 3.96875 -3.6875 3.375 -3.09375 2.546875 -3.09375 C 1.734375 -3.09375 1.234375 -3.671875 1.234375 -4.578125 C 1.234375 -5.4375 1.796875 -6.0625 2.578125 -6.0625 Z M 2.578125 -6.0625 "/>
</symbol>
<symbol overflow="visible" id="glyph1-0">
<path style="stroke:none;" d=""/>
</symbol>
<symbol overflow="visible" id="glyph1-1">
<path style="stroke:none;" d="M 0 -0.953125 L 0 -4.890625 C 0 -5.71875 -0.234375 -6.34375 -0.734375 -6.796875 C -1.1875 -7.234375 -1.8125 -7.46875 -2.5 -7.46875 C -3.546875 -7.46875 -4.1875 -7 -4.625 -5.875 C -4.984375 -6.671875 -5.640625 -7.09375 -6.53125 -7.09375 C -7.15625 -7.09375 -7.734375 -6.859375 -8.140625 -6.390625 C -8.5625 -5.9375 -8.75 -5.34375 -8.75 -4.5 L -8.75 -0.953125 Z M -4.984375 -2.0625 L -7.765625 -2.0625 L -7.765625 -4.21875 C -7.765625 -4.84375 -7.6875 -5.203125 -7.453125 -5.5 C -7.21875 -5.8125 -6.859375 -5.96875 -6.375 -5.96875 C -5.90625 -5.96875 -5.53125 -5.8125 -5.296875 -5.5 C -5.0625 -5.203125 -4.984375 -4.84375 -4.984375 -4.21875 Z M -0.984375 -2.0625 L -4 -2.0625 L -4 -4.78125 C -4 -5.328125 -3.859375 -5.6875 -3.578125 -5.953125 C -3.296875 -6.21875 -2.921875 -6.359375 -2.484375 -6.359375 C -2.0625 -6.359375 -1.6875 -6.21875 -1.40625 -5.953125 C -1.109375 -5.6875 -0.984375 -5.328125 -0.984375 -4.78125 Z M -0.984375 -2.0625 "/>
</symbol>
<symbol overflow="visible" id="glyph1-2">
<path style="stroke:none;" d="M -6.28125 -1.796875 L -6.28125 -0.796875 L 0 -0.796875 L 0 -1.796875 Z M -8.75 -1.796875 L -8.75 -0.796875 L -7.484375 -0.796875 L -7.484375 -1.796875 Z M -8.75 -1.796875 "/>
</symbol>
<symbol overflow="visible" id="glyph1-3">
<path style="stroke:none;" d="M -6.28125 -3.046875 L -6.28125 -2.015625 L -8.015625 -2.015625 L -8.015625 -1.015625 L -6.28125 -1.015625 L -6.28125 -0.171875 L -5.46875 -0.171875 L -5.46875 -1.015625 L -0.71875 -1.015625 C -0.078125 -1.015625 0.28125 -1.453125 0.28125 -2.234375 C 0.28125 -2.46875 0.25 -2.71875 0.1875 -3.046875 L -0.640625 -3.046875 C -0.609375 -2.921875 -0.59375 -2.765625 -0.59375 -2.5625 C -0.59375 -2.140625 -0.71875 -2.015625 -1.15625 -2.015625 L -5.46875 -2.015625 L -5.46875 -3.046875 Z M -6.28125 -3.046875 "/>
</symbol>
<symbol overflow="visible" id="glyph1-4">
<path style="stroke:none;" d="M -4.53125 -5.25 C -5.765625 -5.25 -6.46875 -4.421875 -6.46875 -2.96875 C -6.46875 -1.515625 -5.71875 -0.5625 -4.546875 -0.5625 C -3.5625 -0.5625 -3.09375 -1.0625 -2.734375 -2.5625 L -2.515625 -3.484375 C -2.34375 -4.1875 -2.09375 -4.46875 -1.625 -4.46875 C -1.046875 -4.46875 -0.640625 -3.875 -0.640625 -3 C -0.640625 -2.453125 -0.796875 -2 -1.0625 -1.75 C -1.25 -1.59375 -1.421875 -1.53125 -1.875 -1.46875 L -1.875 -0.40625 C -0.421875 -0.453125 0.28125 -1.265625 0.28125 -2.921875 C 0.28125 -4.5 -0.5 -5.515625 -1.71875 -5.515625 C -2.65625 -5.515625 -3.171875 -4.984375 -3.46875 -3.734375 L -3.703125 -2.765625 C -3.890625 -1.953125 -4.15625 -1.609375 -4.59375 -1.609375 C -5.171875 -1.609375 -5.546875 -2.125 -5.546875 -2.9375 C -5.546875 -3.75 -5.203125 -4.171875 -4.53125 -4.203125 Z M -4.53125 -5.25 "/>
</symbol>
</g>
</defs>
<g id="surface30323">
<rect x="0" y="0" width="720" height="360" style="fill:rgb(100%,100%,100%);fill-opacity:1;stroke:none;"/>
<path style=" stroke:none;fill-rule:nonzero;fill:rgb(6.27451%,58.823529%,28.235294%);fill-opacity:1;" d="M 69.628906 314.367188 L 69.667969 314.363281 L 84.550781 311.238281 L 89.070312 311.238281 L 104.027344 314.371094 L 98.769531 314.371094 L 95.023438 313.550781 L 78.597656 313.550781 L 74.921875 314.367188 L 69.628906 314.367188 L 80.175781 313.214844 L 93.515625 313.210938 L 86.863281 311.75 L 86.789062 311.746094 L 86.71875 311.753906 L 80.140625 313.210938 L 80.175781 313.214844 Z M 69.628906 314.367188 "/>
<path style=" stroke:none;fill-rule:nonzero;fill:rgb(14.509804%,36.078431%,60%);fill-opacity:1;" d="M 69.628906 307.3125 L 69.671875 307.308594 L 69.671875 307.203125 L 69.796875 307.03125 L 70.089844 306.820312 L 70.382812 306.671875 L 71.140625 306.410156 L 72.1875 306.15625 L 73.277344 305.960938 L 74.074219 305.847656 L 74.789062 305.757812 L 76.425781 305.59375 L 77.472656 305.507812 L 78.605469 305.433594 L 79.992188 305.359375 L 80.996094 305.3125 L 83.261719 305.242188 L 84.941406 305.210938 L 86.242188 305.199219 L 89.050781 305.199219 L 90.730469 305.214844 L 91.945312 305.238281 L 93.289062 305.273438 L 94.421875 305.3125 L 96.390625 305.410156 L 98.152344 305.535156 L 98.949219 305.605469 L 100.207031 305.746094 L 101.171875 305.878906 L 101.84375 305.992188 L 102.601562 306.15625 L 103.269531 306.359375 L 103.773438 306.585938 L 104.027344 306.773438 L 98.152344 306.773438 L 97.859375 306.597656 L 97.523438 306.460938 L 96.894531 306.277344 L 96.265625 306.148438 L 95.386719 306.019531 L 94.585938 305.9375 L 93.496094 305.851562 L 92.53125 305.796875 L 91.527344 305.757812 L 90.5625 305.730469 L 88.714844 305.703125 L 86.574219 305.703125 L 85.777344 305.714844 L 84.144531 305.75 L 83.261719 305.78125 L 82.003906 305.84375 L 81.121094 305.898438 L 80.074219 305.988281 L 79.359375 306.066406 L 78.480469 306.179688 L 77.851562 306.28125 L 77.136719 306.429688 L 76.71875 306.539062 L 76.339844 306.664062 L 76.003906 306.8125 L 75.753906 306.964844 L 75.585938 307.128906 L 75.5 307.289062 L 75.5 307.980469 L 75.585938 308.140625 L 75.796875 308.324219 L 76.339844 308.597656 L 77.136719 308.832031 L 78.0625 309.019531 L 78.941406 309.152344 L 79.445312 309.214844 L 80.117188 309.285156 L 81.164062 309.375 L 82.675781 309.460938 L 83.554688 309.496094 L 84.898438 309.535156 L 86.28125 309.550781 L 88.128906 309.550781 L 89.765625 309.535156 L 90.855469 309.511719 L 91.988281 309.476562 L 93.539062 309.398438 L 94.503906 309.328125 L 95.34375 309.246094 L 95.972656 309.160156 L 96.390625 309.089844 L 97.019531 308.953125 L 97.523438 308.800781 L 97.902344 308.644531 L 98.152344 308.492188 L 104.027344 308.492188 L 103.773438 308.671875 L 103.398438 308.84375 L 103.019531 308.972656 L 102.433594 309.128906 L 101.761719 309.265625 L 100.796875 309.421875 L 100 309.523438 L 98.949219 309.636719 L 97.984375 309.71875 L 96.9375 309.796875 L 95.386719 309.882812 L 94.378906 309.929688 L 93.289062 309.96875 L 91.988281 310.003906 L 90.351562 310.035156 L 88.589844 310.054688 L 86.953125 310.058594 L 85.191406 310.046875 L 83.890625 310.03125 L 82.171875 309.992188 L 80.03125 309.910156 L 78.480469 309.828125 L 77.265625 309.742188 L 76.214844 309.652344 L 75.039062 309.535156 L 73.53125 309.339844 L 72.609375 309.1875 L 71.976562 309.0625 L 71.265625 308.890625 L 70.761719 308.734375 L 70.175781 308.484375 L 69.753906 308.167969 L 69.628906 307.925781 Z M 69.628906 307.3125 "/>
<path style=" stroke:none;fill-rule:nonzero;fill:rgb(96.862745%,70.196078%,16.862745%);fill-opacity:1;" d="M 69.628906 297.296875 L 69.671875 297.285156 L 69.671875 297.070312 L 69.839844 296.585938 L 70.257812 295.921875 L 70.804688 295.375 L 71.390625 294.945312 L 71.769531 294.71875 L 72.398438 294.394531 L 72.941406 294.160156 L 74.328125 293.675781 L 76.089844 293.226562 L 77.054688 293.03125 L 78.144531 292.847656 L 79.695312 292.644531 L 80.410156 292.570312 L 82.589844 292.398438 L 85.066406 292.292969 L 87.792969 292.257812 L 89.050781 292.269531 L 90.769531 292.3125 L 93.121094 292.429688 L 94.460938 292.539062 L 95.511719 292.644531 L 96.601562 292.785156 L 97.945312 293 L 99.203125 293.257812 L 100.207031 293.515625 L 101.214844 293.835938 L 102.054688 294.179688 L 102.765625 294.558594 L 103.398438 295.007812 L 103.773438 295.382812 L 104.027344 295.761719 L 98.195312 295.761719 L 97.859375 295.382812 L 97.480469 295.09375 L 96.851562 294.738281 L 96.222656 294.480469 L 95.59375 294.277344 L 94.421875 294 L 93.414062 293.828125 L 92.15625 293.675781 L 90.9375 293.578125 L 89.554688 293.515625 L 88.714844 293.492188 L 86.492188 293.492188 L 84.480469 293.570312 L 83.304688 293.65625 L 82.464844 293.742188 L 81.289062 293.902344 L 80.578125 294.03125 L 80.15625 294.117188 L 78.898438 294.449219 L 78.0625 294.75 L 77.597656 294.953125 L 77.011719 295.277344 L 76.59375 295.566406 L 76.132812 295.996094 L 75.878906 296.320312 L 75.542969 297.046875 L 75.5 298.980469 L 75.628906 299.390625 L 75.878906 299.832031 L 76.214844 300.21875 L 76.71875 300.625 L 77.222656 300.9375 L 78.101562 301.355469 L 78.859375 301.632812 L 79.445312 301.816406 L 80.578125 302.105469 L 81.039062 302.203125 L 82.128906 302.398438 L 83.261719 302.546875 L 84.644531 302.675781 L 85.695312 302.742188 L 87.371094 302.792969 L 89.511719 302.792969 L 92.027344 302.730469 L 93.625 302.644531 L 94.714844 302.558594 L 95.425781 302.484375 L 96.308594 302.363281 L 96.9375 302.257812 L 97.523438 302.140625 L 98.238281 301.957031 L 98.238281 299.390625 L 87.875 299.378906 L 87.875 298.175781 L 103.984375 298.164062 L 104.027344 302.363281 L 103.144531 302.65625 L 102.054688 302.933594 L 101.003906 303.148438 L 99.914062 303.332031 L 98.363281 303.535156 L 97.105469 303.664062 L 95.175781 303.816406 L 93.414062 303.910156 L 91.566406 303.976562 L 89.933594 304.007812 L 88.003906 304.019531 L 86.28125 303.996094 L 84.4375 303.933594 L 82.96875 303.847656 L 81.625 303.738281 L 80.285156 303.601562 L 78.605469 303.375 L 77.515625 303.191406 L 76.382812 302.964844 L 75.25 302.699219 L 74.242188 302.40625 L 73.574219 302.183594 L 72.902344 301.925781 L 72.1875 301.601562 L 71.515625 301.238281 L 71.011719 300.90625 L 70.550781 300.527344 L 70.214844 300.175781 L 69.882812 299.691406 L 69.714844 299.304688 L 69.628906 298.972656 Z M 69.628906 297.296875 "/>
<path style=" stroke:none;fill-rule:nonzero;fill:rgb(83.921569%,15.686275%,22.352941%);fill-opacity:1;" d="M 69.628906 265.515625 L 104.027344 265.515625 L 104.027344 268.253906 L 89.691406 268.277344 L 89.691406 291.078125 L 83.921875 291.078125 L 83.921875 268.300781 L 83.839844 268.253906 L 69.628906 268.253906 Z M 69.628906 265.515625 "/>
<path style=" stroke:none;fill-rule:nonzero;fill:rgb(6.27451%,58.823529%,28.235294%);fill-opacity:1;" d="M 105.835938 314.367188 L 105.871094 314.367188 L 120.757812 312.617188 L 125.277344 312.617188 L 140.234375 314.371094 L 134.976562 314.371094 L 131.230469 313.914062 L 114.804688 313.914062 L 111.128906 314.367188 L 105.835938 314.367188 L 116.382812 313.722656 L 129.722656 313.722656 L 123.070312 312.902344 L 122.996094 312.902344 L 122.925781 312.90625 L 116.347656 313.722656 L 116.382812 313.722656 Z M 105.835938 314.367188 "/>
<path style=" stroke:none;fill-rule:nonzero;fill:rgb(14.509804%,36.078431%,60%);fill-opacity:1;" d="M 105.835938 306.578125 L 105.878906 306.570312 L 105.878906 306.378906 L 106.003906 306.082031 L 106.296875 305.703125 L 106.589844 305.445312 L 107.347656 304.980469 L 108.394531 304.53125 L 109.484375 304.1875 L 110.28125 303.980469 L 110.996094 303.824219 L 112.632812 303.535156 L 113.679688 303.382812 L 114.8125 303.25 L 116.195312 303.117188 L 117.203125 303.039062 L 119.46875 302.914062 L 121.148438 302.859375 L 122.449219 302.835938 L 125.257812 302.835938 L 126.9375 302.867188 L 128.152344 302.90625 L 129.496094 302.96875 L 130.628906 303.039062 L 132.597656 303.210938 L 134.359375 303.433594 L 135.15625 303.558594 L 136.414062 303.800781 L 137.378906 304.039062 L 138.050781 304.242188 L 138.808594 304.53125 L 139.476562 304.886719 L 139.980469 305.289062 L 140.234375 305.625 L 134.359375 305.625 L 134.066406 305.3125 L 133.730469 305.066406 L 133.101562 304.746094 L 132.472656 304.515625 L 131.589844 304.289062 L 130.792969 304.140625 L 129.703125 303.988281 L 128.738281 303.894531 L 127.734375 303.824219 L 126.769531 303.777344 L 124.921875 303.730469 L 122.78125 303.730469 L 121.984375 303.746094 L 120.351562 303.808594 L 119.46875 303.863281 L 118.210938 303.972656 L 117.328125 304.078125 L 116.28125 304.234375 L 115.566406 304.367188 L 114.6875 304.570312 L 114.058594 304.753906 L 113.34375 305.011719 L 112.925781 305.207031 L 112.546875 305.429688 L 112.210938 305.6875 L 111.960938 305.964844 L 111.792969 306.253906 L 111.707031 306.539062 L 111.707031 307.757812 L 111.792969 308.039062 L 112.003906 308.371094 L 112.546875 308.847656 L 113.34375 309.265625 L 114.269531 309.597656 L 115.148438 309.832031 L 115.652344 309.941406 L 116.324219 310.066406 L 117.371094 310.226562 L 118.882812 310.382812 L 119.761719 310.445312 L 121.105469 310.507812 L 122.488281 310.539062 L 124.335938 310.539062 L 125.972656 310.507812 L 127.0625 310.46875 L 128.195312 310.40625 L 129.746094 310.273438 L 130.710938 310.148438 L 131.550781 309.996094 L 132.179688 309.847656 L 132.597656 309.722656 L 133.226562 309.476562 L 133.730469 309.210938 L 134.109375 308.9375 L 134.359375 308.667969 L 140.234375 308.667969 L 139.980469 308.984375 L 139.605469 309.289062 L 139.226562 309.519531 L 138.640625 309.792969 L 137.96875 310.035156 L 137.003906 310.3125 L 136.207031 310.492188 L 135.15625 310.6875 L 134.191406 310.839844 L 133.144531 310.972656 L 131.589844 311.128906 L 130.585938 311.207031 L 129.496094 311.277344 L 128.195312 311.34375 L 126.558594 311.398438 L 124.796875 311.429688 L 123.160156 311.4375 L 121.398438 311.421875 L 120.097656 311.390625 L 118.378906 311.316406 L 116.238281 311.175781 L 114.6875 311.027344 L 113.46875 310.878906 L 112.421875 310.71875 L 111.246094 310.507812 L 109.738281 310.164062 L 108.816406 309.894531 L 108.183594 309.675781 L 107.472656 309.367188 L 106.96875 309.09375 L 106.382812 308.652344 L 105.960938 308.09375 L 105.835938 307.660156 Z M 105.835938 306.578125 "/>
<path style=" stroke:none;fill-rule:nonzero;fill:rgb(96.862745%,70.196078%,16.862745%);fill-opacity:1;" d="M 105.835938 271.71875 L 105.878906 271.691406 L 105.878906 271.140625 L 106.046875 269.902344 L 106.464844 268.199219 L 107.011719 266.792969 L 107.597656 265.695312 L 107.976562 265.117188 L 108.605469 264.292969 L 109.148438 263.6875 L 110.535156 262.449219 L 112.296875 261.292969 L 113.261719 260.796875 L 114.351562 260.332031 L 115.902344 259.808594 L 116.617188 259.613281 L 118.796875 259.175781 L 121.273438 258.898438 L 124 258.816406 L 125.257812 258.84375 L 126.976562 258.953125 L 129.328125 259.257812 L 130.667969 259.53125 L 131.71875 259.808594 L 132.808594 260.164062 L 134.152344 260.714844 L 135.410156 261.375 L 136.414062 262.035156 L 137.421875 262.859375 L 138.261719 263.742188 L 138.972656 264.703125 L 139.605469 265.859375 L 139.980469 266.824219 L 140.234375 267.785156 L 134.402344 267.785156 L 134.066406 266.824219 L 133.6875 266.078125 L 133.058594 265.171875 L 132.429688 264.511719 L 131.800781 263.988281 L 130.628906 263.273438 L 129.621094 262.832031 L 128.363281 262.449219 L 127.144531 262.199219 L 125.761719 262.035156 L 124.921875 261.980469 L 122.699219 261.980469 L 120.6875 262.171875 L 119.511719 262.394531 L 118.671875 262.613281 L 117.496094 263.027344 L 116.785156 263.355469 L 116.363281 263.578125 L 115.105469 264.429688 L 114.269531 265.199219 L 113.804688 265.722656 L 113.21875 266.546875 L 112.800781 267.289062 L 112.339844 268.390625 L 112.085938 269.214844 L 111.75 271.085938 L 111.707031 276.039062 L 111.835938 277.082031 L 112.085938 278.210938 L 112.421875 279.199219 L 112.925781 280.246094 L 113.429688 281.042969 L 114.308594 282.117188 L 115.066406 282.832031 L 115.652344 283.300781 L 116.785156 284.042969 L 117.246094 284.289062 L 118.335938 284.785156 L 119.46875 285.171875 L 120.851562 285.5 L 121.902344 285.664062 L 123.578125 285.804688 L 125.71875 285.804688 L 128.234375 285.636719 L 129.828125 285.417969 L 130.921875 285.199219 L 131.632812 285.003906 L 132.515625 284.703125 L 133.144531 284.425781 L 133.730469 284.125 L 134.445312 283.65625 L 134.445312 277.082031 L 124.082031 277.054688 L 124.082031 273.972656 L 140.191406 273.945312 L 140.234375 284.703125 L 139.351562 285.445312 L 138.261719 286.160156 L 137.210938 286.710938 L 136.121094 287.179688 L 134.570312 287.699219 L 133.3125 288.03125 L 131.382812 288.417969 L 129.621094 288.664062 L 127.773438 288.828125 L 126.136719 288.910156 L 124.210938 288.9375 L 122.488281 288.882812 L 120.644531 288.71875 L 119.175781 288.5 L 117.832031 288.222656 L 116.492188 287.867188 L 114.8125 287.289062 L 113.722656 286.820312 L 112.589844 286.242188 L 111.457031 285.554688 L 110.449219 284.8125 L 109.78125 284.234375 L 109.109375 283.574219 L 108.394531 282.75 L 107.722656 281.8125 L 107.21875 280.960938 L 106.757812 280 L 106.421875 279.089844 L 106.089844 277.851562 L 105.921875 276.863281 L 105.835938 276.011719 Z M 105.835938 271.71875 "/>
<path style=" stroke:none;fill-rule:nonzero;fill:rgb(83.921569%,15.686275%,22.352941%);fill-opacity:1;" d="M 105.835938 290.117188 L 140.234375 290.117188 L 140.234375 291.351562 L 125.898438 291.363281 L 125.898438 301.65625 L 120.128906 301.65625 L 120.128906 291.375 L 120.046875 291.351562 L 105.835938 291.351562 Z M 105.835938 290.117188 "/>
<path style=" stroke:none;fill-rule:nonzero;fill:rgb(6.27451%,58.823529%,28.235294%);fill-opacity:1;" d="M 142.042969 312.707031 L 142.078125 312.699219 L 156.964844 303.953125 L 161.484375 303.953125 L 176.441406 312.714844 L 171.183594 312.714844 L 167.4375 310.425781 L 151.011719 310.425781 L 147.335938 312.707031 L 142.042969 312.707031 L 152.589844 309.480469 L 165.929688 309.472656 L 159.277344 305.382812 L 159.203125 305.375 L 159.132812 305.402344 L 152.554688 309.472656 L 152.589844 309.480469 Z M 142.042969 312.707031 "/>
<path style=" stroke:none;fill-rule:nonzero;fill:rgb(14.509804%,36.078431%,60%);fill-opacity:1;" d="M 142.042969 290.335938 L 142.085938 290.316406 L 142.085938 289.835938 L 142.210938 289.070312 L 142.503906 288.101562 L 142.796875 287.4375 L 143.554688 286.253906 L 144.601562 285.105469 L 145.691406 284.21875 L 146.488281 283.695312 L 147.203125 283.292969 L 148.839844 282.550781 L 149.886719 282.167969 L 151.019531 281.824219 L 152.402344 281.484375 L 153.410156 281.28125 L 155.675781 280.960938 L 157.355469 280.820312 L 158.652344 280.757812 L 161.464844 280.757812 L 163.144531 280.839844 L 164.359375 280.941406 L 165.703125 281.101562 L 166.832031 281.28125 L 168.804688 281.722656 L 170.566406 282.289062 L 171.363281 282.609375 L 172.621094 283.234375 L 173.585938 283.835938 L 174.257812 284.359375 L 175.011719 285.105469 L 175.683594 286.011719 L 176.1875 287.035156 L 176.441406 287.902344 L 170.566406 287.902344 L 170.273438 287.097656 L 169.9375 286.472656 L 169.308594 285.648438 L 168.679688 285.066406 L 167.796875 284.480469 L 167 284.097656 L 165.910156 283.714844 L 164.945312 283.476562 L 163.941406 283.292969 L 162.976562 283.171875 L 161.128906 283.050781 L 158.988281 283.050781 L 158.191406 283.09375 L 156.558594 283.253906 L 155.675781 283.394531 L 154.417969 283.675781 L 153.535156 283.9375 L 152.488281 284.339844 L 151.773438 284.683594 L 150.894531 285.207031 L 150.265625 285.667969 L 149.550781 286.332031 L 149.132812 286.835938 L 148.753906 287.398438 L 148.417969 288.0625 L 148.167969 288.765625 L 148 289.511719 L 147.914062 290.238281 L 147.914062 293.355469 L 148 294.082031 L 148.210938 294.925781 L 148.753906 296.152344 L 149.550781 297.21875 L 150.472656 298.066406 L 151.355469 298.667969 L 151.859375 298.949219 L 152.53125 299.273438 L 153.578125 299.675781 L 155.089844 300.078125 L 155.96875 300.238281 L 157.3125 300.398438 L 158.695312 300.480469 L 160.542969 300.480469 L 162.179688 300.398438 L 163.269531 300.296875 L 164.402344 300.136719 L 165.953125 299.796875 L 166.917969 299.472656 L 167.757812 299.089844 L 168.386719 298.707031 L 168.804688 298.386719 L 169.433594 297.761719 L 169.9375 297.078125 L 170.316406 296.375 L 170.566406 295.691406 L 176.441406 295.691406 L 176.1875 296.496094 L 175.8125 297.28125 L 175.433594 297.863281 L 174.847656 298.566406 L 174.175781 299.191406 L 173.210938 299.894531 L 172.414062 300.359375 L 171.363281 300.863281 L 170.398438 301.242188 L 169.351562 301.585938 L 167.796875 301.988281 L 166.792969 302.191406 L 165.703125 302.371094 L 164.402344 302.53125 L 162.765625 302.671875 L 161.003906 302.753906 L 159.367188 302.773438 L 157.605469 302.734375 L 156.304688 302.652344 L 154.585938 302.472656 L 152.445312 302.109375 L 150.894531 301.726562 L 149.675781 301.34375 L 148.628906 300.941406 L 147.453125 300.398438 L 145.945312 299.511719 L 145.019531 298.828125 L 144.390625 298.265625 L 143.679688 297.480469 L 143.175781 296.777344 L 142.589844 295.648438 L 142.167969 294.222656 L 142.042969 293.113281 Z M 142.042969 290.335938 "/>
<path style=" stroke:none;fill-rule:nonzero;fill:rgb(96.862745%,70.196078%,16.862745%);fill-opacity:1;" d="M 142.042969 314.097656 L 142.085938 314.097656 L 142.085938 314.089844 L 142.253906 314.070312 L 142.671875 314.042969 L 143.21875 314.019531 L 143.804688 314.003906 L 144.183594 313.992188 L 144.8125 313.980469 L 145.355469 313.96875 L 146.742188 313.949219 L 148.503906 313.933594 L 149.46875 313.925781 L 150.558594 313.917969 L 152.109375 313.910156 L 152.824219 313.90625 L 155.003906 313.898438 L 157.480469 313.894531 L 163.183594 313.894531 L 165.535156 313.902344 L 166.875 313.90625 L 167.925781 313.910156 L 169.015625 313.914062 L 170.359375 313.921875 L 171.617188 313.933594 L 172.621094 313.945312 L 173.628906 313.957031 L 174.46875 313.972656 L 175.179688 313.988281 L 175.8125 314.003906 L 176.1875 314.019531 L 176.441406 314.035156 L 170.609375 314.035156 L 170.273438 314.019531 L 169.894531 314.007812 L 169.265625 313.992188 L 168.007812 313.976562 L 166.832031 313.964844 L 165.828125 313.957031 L 164.570312 313.949219 L 163.351562 313.945312 L 156.890625 313.945312 L 155.71875 313.949219 L 154.878906 313.953125 L 153.703125 313.960938 L 152.992188 313.964844 L 152.570312 313.96875 L 151.3125 313.980469 L 150.472656 313.996094 L 150.011719 314.003906 L 149.425781 314.015625 L 149.007812 314.027344 L 148.546875 314.046875 L 148.292969 314.058594 L 147.957031 314.085938 L 147.914062 314.167969 L 148.042969 314.183594 L 148.292969 314.199219 L 148.628906 314.214844 L 149.132812 314.234375 L 149.636719 314.246094 L 150.515625 314.261719 L 151.273438 314.273438 L 151.859375 314.28125 L 152.992188 314.292969 L 153.453125 314.296875 L 154.542969 314.304688 L 155.675781 314.3125 L 157.058594 314.316406 L 158.109375 314.320312 L 161.925781 314.320312 L 164.441406 314.316406 L 166.035156 314.316406 L 167.128906 314.3125 L 167.839844 314.308594 L 168.722656 314.304688 L 169.351562 314.300781 L 169.9375 314.292969 L 170.652344 314.285156 L 170.652344 314.183594 L 160.289062 314.183594 L 160.289062 314.132812 L 176.398438 314.132812 L 176.441406 314.304688 L 175.558594 314.316406 L 174.46875 314.328125 L 173.417969 314.335938 L 172.328125 314.34375 L 170.777344 314.351562 L 169.519531 314.355469 L 167.589844 314.363281 L 165.828125 314.367188 L 163.980469 314.367188 L 162.34375 314.371094 L 158.695312 314.371094 L 156.851562 314.367188 L 155.382812 314.363281 L 154.039062 314.359375 L 152.699219 314.355469 L 151.019531 314.34375 L 149.929688 314.335938 L 148.796875 314.328125 L 147.664062 314.316406 L 145.984375 314.296875 L 145.316406 314.285156 L 144.601562 314.273438 L 143.425781 314.246094 L 142.964844 314.230469 L 142.628906 314.214844 L 142.292969 314.195312 L 142.128906 314.179688 L 142.042969 314.164062 Z M 142.042969 314.097656 "/>
<path style=" stroke:none;fill-rule:nonzero;fill:rgb(83.921569%,15.686275%,22.352941%);fill-opacity:1;" d="M 142.042969 219.457031 L 176.441406 219.457031 L 176.441406 225.894531 L 162.105469 225.949219 L 162.105469 279.578125 L 156.335938 279.578125 L 156.335938 226.007812 L 156.253906 225.894531 L 142.042969 225.894531 Z M 142.042969 219.457031 "/>
<path style=" stroke:none;fill-rule:nonzero;fill:rgb(6.27451%,58.823529%,28.235294%);fill-opacity:1;" d="M 178.25 314.367188 L 178.285156 314.363281 L 193.171875 310.785156 L 197.691406 310.785156 L 212.648438 314.371094 L 207.390625 314.371094 L 203.644531 313.433594 L 187.21875 313.433594 L 183.542969 314.367188 L 178.25 314.367188 L 188.796875 313.046875 L 202.136719 313.042969 L 195.484375 311.371094 L 195.410156 311.367188 L 195.339844 311.378906 L 188.761719 313.042969 L 188.796875 313.046875 Z M 178.25 314.367188 "/>
<path style=" stroke:none;fill-rule:nonzero;fill:rgb(83.921569%,15.686275%,22.352941%);fill-opacity:1;" d="M 178.25 39.191406 L 212.648438 39.191406 L 212.648438 68.136719 L 198.3125 68.390625 L 198.3125 309.605469 L 192.542969 309.605469 L 192.542969 68.644531 L 192.460938 68.136719 L 178.25 68.136719 Z M 178.25 39.191406 "/>
<path style=" stroke:none;fill-rule:nonzero;fill:rgb(96.862745%,70.196078%,16.862745%);fill-opacity:1;" d="M 214.457031 146.460938 L 214.5 146.191406 L 214.5 140.828125 L 214.667969 128.757812 L 215.085938 112.128906 L 215.632812 98.449219 L 216.21875 87.71875 L 216.597656 82.085938 L 217.226562 74.039062 L 217.769531 68.140625 L 219.15625 56.070312 L 220.917969 44.804688 L 221.882812 39.976562 L 222.972656 35.414062 L 224.523438 30.320312 L 225.238281 28.441406 L 227.417969 24.148438 L 229.894531 21.46875 L 232.621094 20.664062 L 233.878906 20.929688 L 235.597656 22.003906 L 237.949219 24.953125 L 239.289062 27.636719 L 240.339844 30.320312 L 241.429688 33.804688 L 242.769531 39.171875 L 244.03125 45.609375 L 245.035156 52.046875 L 246.042969 60.09375 L 246.882812 68.675781 L 247.59375 78.0625 L 248.222656 89.328125 L 248.601562 98.714844 L 248.855469 108.105469 L 243.023438 108.105469 L 242.6875 98.714844 L 242.308594 91.476562 L 241.679688 82.625 L 241.050781 76.1875 L 240.421875 71.089844 L 239.246094 64.117188 L 238.242188 59.824219 L 236.984375 56.070312 L 235.765625 53.65625 L 234.382812 52.046875 L 233.542969 51.507812 L 231.320312 51.507812 L 229.304688 53.386719 L 228.132812 55.53125 L 227.292969 57.679688 L 226.117188 61.703125 L 225.40625 64.921875 L 224.984375 67.066406 L 223.726562 75.382812 L 222.886719 82.890625 L 222.425781 87.988281 L 221.839844 96.035156 L 221.421875 103.277344 L 220.957031 114.003906 L 220.707031 122.050781 L 220.371094 140.292969 L 220.328125 188.574219 L 220.457031 198.765625 L 220.707031 209.761719 L 221.042969 219.417969 L 221.546875 229.609375 L 222.050781 237.390625 L 222.929688 247.851562 L 223.683594 254.824219 L 224.273438 259.382812 L 225.40625 266.625 L 225.867188 269.039062 L 226.957031 273.867188 L 228.089844 277.625 L 229.472656 280.84375 L 230.523438 282.453125 L 232.199219 283.792969 L 234.339844 283.792969 L 236.855469 282.183594 L 238.449219 280.039062 L 239.542969 277.890625 L 240.253906 276.015625 L 241.136719 273.0625 L 241.765625 270.382812 L 242.351562 267.429688 L 243.066406 262.871094 L 243.066406 198.765625 L 232.703125 198.496094 L 232.703125 168.457031 L 248.8125 168.1875 L 248.855469 273.0625 L 247.972656 280.304688 L 246.882812 287.28125 L 245.832031 292.644531 L 244.742188 297.203125 L 243.191406 302.300781 L 241.933594 305.519531 L 240.003906 309.273438 L 238.242188 311.6875 L 236.394531 313.296875 L 234.757812 314.101562 L 232.828125 314.371094 L 231.109375 313.835938 L 229.265625 312.226562 L 227.796875 310.078125 L 226.453125 307.398438 L 225.113281 303.910156 L 223.433594 298.277344 L 222.34375 293.71875 L 221.210938 288.085938 L 220.078125 281.378906 L 219.070312 274.136719 L 218.398438 268.503906 L 217.730469 262.066406 L 217.015625 254.019531 L 216.34375 244.898438 L 215.839844 236.585938 L 215.378906 227.195312 L 215.042969 218.34375 L 214.707031 206.277344 L 214.539062 196.621094 L 214.457031 188.304688 Z M 214.457031 146.460938 "/>
<path style=" stroke:none;fill-rule:nonzero;fill:rgb(14.509804%,36.078431%,60%);fill-opacity:1;" d="M 250.664062 148.457031 L 250.707031 148.1875 L 250.707031 141.742188 L 250.832031 131.542969 L 251.125 118.65625 L 251.417969 109.796875 L 252.175781 93.957031 L 253.222656 78.652344 L 254.3125 66.839844 L 255.109375 59.859375 L 255.824219 54.492188 L 257.460938 44.558594 L 258.507812 39.457031 L 259.640625 34.890625 L 261.023438 30.328125 L 262.03125 27.644531 L 264.296875 23.347656 L 265.976562 21.46875 L 267.273438 20.664062 L 270.085938 20.664062 L 271.761719 21.738281 L 272.980469 23.078125 L 274.320312 25.226562 L 275.453125 27.644531 L 277.425781 33.550781 L 279.1875 41.066406 L 279.984375 45.363281 L 281.242188 53.683594 L 282.207031 61.738281 L 282.878906 68.71875 L 283.632812 78.652344 L 284.304688 90.734375 L 284.808594 104.425781 L 285.0625 115.96875 L 279.1875 115.96875 L 278.894531 105.230469 L 278.558594 96.910156 L 277.929688 85.902344 L 277.300781 78.117188 L 276.417969 70.332031 L 275.621094 65.230469 L 274.53125 60.128906 L 273.566406 56.90625 L 272.558594 54.492188 L 271.59375 52.878906 L 269.75 51.269531 L 267.609375 51.269531 L 266.8125 51.804688 L 265.179688 53.953125 L 264.296875 55.832031 L 263.039062 59.589844 L 262.15625 63.082031 L 261.109375 68.449219 L 260.394531 73.015625 L 259.515625 79.996094 L 258.886719 86.171875 L 258.171875 95.03125 L 257.753906 101.742188 L 257.375 109.257812 L 257.039062 118.117188 L 256.789062 127.515625 L 256.621094 137.449219 L 256.535156 147.113281 L 256.535156 188.726562 L 256.621094 198.390625 L 256.832031 209.667969 L 257.375 226.042969 L 258.171875 240.273438 L 259.09375 251.546875 L 259.976562 259.601562 L 260.480469 263.359375 L 261.152344 267.65625 L 262.199219 273.027344 L 263.710938 278.394531 L 264.589844 280.542969 L 265.933594 282.691406 L 267.316406 283.765625 L 269.164062 283.765625 L 270.796875 282.691406 L 271.890625 281.347656 L 273.023438 279.199219 L 274.574219 274.636719 L 275.539062 270.339844 L 276.378906 265.242188 L 277.007812 260.140625 L 277.425781 255.84375 L 278.054688 247.519531 L 278.558594 238.394531 L 278.9375 228.996094 L 279.1875 219.867188 L 285.0625 219.867188 L 284.808594 230.609375 L 284.429688 241.078125 L 284.054688 248.863281 L 283.464844 258.261719 L 282.796875 266.582031 L 281.832031 275.980469 L 281.035156 282.152344 L 279.984375 288.867188 L 279.019531 293.96875 L 277.972656 298.53125 L 276.417969 303.898438 L 275.414062 306.585938 L 274.320312 309 L 273.023438 311.148438 L 271.386719 313.027344 L 269.625 314.101562 L 267.988281 314.371094 L 266.226562 313.832031 L 264.925781 312.761719 L 263.207031 310.34375 L 261.066406 305.511719 L 259.515625 300.410156 L 258.296875 295.308594 L 257.25 289.941406 L 256.074219 282.691406 L 254.566406 270.878906 L 253.640625 261.75 L 253.011719 254.234375 L 252.300781 243.761719 L 251.796875 234.367188 L 251.210938 219.332031 L 250.789062 200.269531 L 250.664062 185.503906 Z M 250.664062 148.457031 "/>
<path style=" stroke:none;fill-rule:nonzero;fill:rgb(6.27451%,58.823529%,28.235294%);fill-opacity:1;" d="M 286.871094 314.371094 L 286.90625 314.367188 L 301.789062 313.035156 L 306.3125 313.035156 L 321.269531 314.371094 L 316.011719 314.371094 L 312.265625 314.023438 L 295.835938 314.023438 L 292.164062 314.371094 L 286.871094 314.371094 L 297.417969 313.878906 L 310.757812 313.875 L 304.105469 313.25 L 304.03125 313.25 L 303.960938 313.253906 L 297.382812 313.875 L 297.417969 313.878906 Z M 286.871094 314.371094 "/>
<path style=" stroke:none;fill-rule:nonzero;fill:rgb(14.509804%,36.078431%,60%);fill-opacity:1;" d="M 286.871094 211.761719 L 286.914062 211.671875 L 286.914062 209.546875 L 287.039062 206.175781 L 287.332031 201.921875 L 287.625 198.996094 L 288.382812 193.765625 L 289.429688 188.714844 L 290.519531 184.8125 L 291.316406 182.507812 L 292.03125 180.734375 L 293.667969 177.453125 L 294.714844 175.769531 L 295.847656 174.261719 L 297.230469 172.757812 L 298.238281 171.871094 L 300.503906 170.449219 L 302.183594 169.832031 L 303.480469 169.566406 L 306.292969 169.566406 L 307.96875 169.917969 L 309.1875 170.363281 L 310.527344 171.070312 L 311.660156 171.871094 L 313.632812 173.820312 L 315.394531 176.300781 L 316.191406 177.71875 L 317.449219 180.46875 L 318.414062 183.128906 L 319.085938 185.433594 L 319.839844 188.714844 L 320.511719 192.703125 L 321.015625 197.222656 L 321.269531 201.035156 L 315.394531 201.035156 L 315.101562 197.488281 L 314.765625 194.742188 L 314.136719 191.105469 L 313.507812 188.535156 L 312.625 185.964844 L 311.828125 184.28125 L 310.738281 182.597656 L 309.773438 181.53125 L 308.765625 180.734375 L 307.800781 180.203125 L 305.957031 179.671875 L 303.816406 179.671875 L 303.019531 179.847656 L 301.382812 180.558594 L 300.503906 181.179688 L 299.246094 182.417969 L 298.363281 183.570312 L 297.316406 185.34375 L 296.601562 186.851562 L 295.722656 189.15625 L 295.09375 191.195312 L 294.378906 194.121094 L 293.960938 196.335938 L 293.582031 198.820312 L 293.246094 201.746094 L 292.996094 204.847656 L 292.828125 208.128906 L 292.742188 211.320312 L 292.742188 225.058594 L 292.828125 228.25 L 293.039062 231.972656 L 293.582031 237.382812 L 294.378906 242.082031 L 295.300781 245.804688 L 296.183594 248.464844 L 296.6875 249.703125 L 297.359375 251.121094 L 298.40625 252.894531 L 299.917969 254.667969 L 300.796875 255.378906 L 302.140625 256.085938 L 303.523438 256.441406 L 305.371094 256.441406 L 307.003906 256.085938 L 308.097656 255.644531 L 309.230469 254.933594 L 310.78125 253.425781 L 311.746094 252.007812 L 312.585938 250.324219 L 313.214844 248.640625 L 313.632812 247.222656 L 314.261719 244.472656 L 314.765625 241.460938 L 315.144531 238.355469 L 315.394531 235.34375 L 321.269531 235.34375 L 321.015625 238.890625 L 320.636719 242.347656 L 320.261719 244.917969 L 319.671875 248.019531 L 319.003906 250.769531 L 318.039062 253.871094 L 317.242188 255.910156 L 316.191406 258.125 L 315.226562 259.808594 L 314.179688 261.316406 L 312.625 263.089844 L 311.621094 263.976562 L 310.527344 264.773438 L 309.230469 265.484375 L 307.59375 266.105469 L 305.832031 266.460938 L 304.195312 266.546875 L 302.433594 266.371094 L 301.132812 266.015625 L 299.414062 265.21875 L 297.273438 263.621094 L 295.722656 261.9375 L 294.503906 260.253906 L 293.457031 258.480469 L 292.28125 256.085938 L 290.773438 252.1875 L 289.847656 249.171875 L 289.21875 246.691406 L 288.507812 243.234375 L 288.003906 240.128906 L 287.417969 235.164062 L 286.996094 228.871094 L 286.871094 223.996094 Z M 286.871094 211.761719 "/>
<path style=" stroke:none;fill-rule:nonzero;fill:rgb(83.921569%,15.686275%,22.352941%);fill-opacity:1;" d="M 286.871094 267.726562 L 321.269531 267.726562 L 321.269531 272.449219 L 306.933594 272.492188 L 306.933594 311.855469 L 301.164062 311.855469 L 301.164062 272.535156 L 301.082031 272.449219 L 286.871094 272.449219 Z M 286.871094 267.726562 "/>
<path style=" stroke:none;fill-rule:nonzero;fill:rgb(6.27451%,58.823529%,28.235294%);fill-opacity:1;" d="M 323.078125 295.210938 L 323.113281 295.023438 L 337.996094 95.472656 L 342.519531 95.472656 L 357.472656 295.398438 L 352.21875 295.398438 L 348.472656 243.210938 L 332.042969 243.210938 L 328.371094 295.210938 L 323.078125 295.210938 L 333.625 221.625 L 346.964844 221.4375 L 340.3125 128.136719 L 340.238281 127.949219 L 340.164062 128.511719 L 333.589844 221.4375 L 333.625 221.625 Z M 323.078125 295.210938 "/>
<path style=" stroke:none;fill-rule:nonzero;fill:rgb(14.509804%,36.078431%,60%);fill-opacity:1;" d="M 323.078125 301.019531 L 323.121094 301.007812 L 323.121094 300.785156 L 323.246094 300.429688 L 323.539062 299.980469 L 323.832031 299.675781 L 324.589844 299.125 L 325.636719 298.59375 L 326.726562 298.183594 L 327.523438 297.941406 L 328.238281 297.753906 L 329.875 297.40625 L 330.921875 297.230469 L 332.054688 297.074219 L 333.4375 296.914062 L 334.445312 296.820312 L 336.710938 296.671875 L 338.386719 296.605469 L 339.6875 296.578125 L 342.5 296.578125 L 344.175781 296.617188 L 345.394531 296.660156 L 346.734375 296.738281 L 347.867188 296.820312 L 349.839844 297.027344 L 351.601562 297.285156 L 352.398438 297.4375 L 353.65625 297.726562 L 354.621094 298.003906 L 355.292969 298.246094 L 356.046875 298.59375 L 356.71875 299.011719 L 357.222656 299.488281 L 357.472656 299.890625 L 351.601562 299.890625 L 351.308594 299.515625 L 350.972656 299.226562 L 350.34375 298.84375 L 349.714844 298.574219 L 348.832031 298.304688 L 348.035156 298.125 L 346.945312 297.949219 L 345.980469 297.835938 L 344.972656 297.753906 L 344.007812 297.699219 L 342.164062 297.640625 L 340.023438 297.640625 L 339.226562 297.660156 L 337.589844 297.734375 L 336.710938 297.800781 L 335.453125 297.929688 L 334.570312 298.050781 L 333.523438 298.238281 L 332.808594 298.398438 L 331.929688 298.640625 L 331.300781 298.855469 L 330.585938 299.160156 L 330.167969 299.394531 L 329.789062 299.65625 L 329.453125 299.964844 L 329.203125 300.289062 L 329.035156 300.636719 L 328.949219 300.972656 L 328.949219 302.417969 L 329.035156 302.753906 L 329.246094 303.144531 L 329.789062 303.714844 L 330.585938 304.207031 L 331.507812 304.597656 L 332.390625 304.878906 L 332.894531 305.007812 L 333.566406 305.160156 L 334.613281 305.34375 L 336.125 305.53125 L 337.003906 305.605469 L 338.347656 305.679688 L 339.730469 305.71875 L 341.578125 305.71875 L 343.210938 305.679688 L 344.304688 305.632812 L 345.4375 305.558594 L 346.988281 305.402344 L 347.953125 305.253906 L 348.792969 305.074219 L 349.421875 304.898438 L 349.839844 304.75 L 350.46875 304.460938 L 350.972656 304.140625 L 351.351562 303.816406 L 351.601562 303.5 L 357.472656 303.5 L 357.222656 303.871094 L 356.84375 304.234375 L 356.46875 304.507812 L 355.878906 304.832031 L 355.210938 305.121094 L 354.246094 305.449219 L 353.449219 305.664062 L 352.398438 305.894531 L 351.433594 306.074219 L 350.386719 306.230469 L 348.832031 306.417969 L 347.828125 306.511719 L 346.734375 306.59375 L 345.4375 306.667969 L 343.800781 306.734375 L 342.039062 306.773438 L 340.402344 306.78125 L 338.640625 306.761719 L 337.339844 306.726562 L 335.621094 306.640625 L 333.480469 306.472656 L 331.929688 306.296875 L 330.710938 306.121094 L 329.664062 305.933594 L 328.488281 305.679688 L 326.980469 305.269531 L 326.054688 304.953125 L 325.425781 304.691406 L 324.714844 304.328125 L 324.210938 304.003906 L 323.625 303.480469 L 323.203125 302.816406 L 323.078125 302.304688 Z M 323.078125 301.019531 "/>
<path style=" stroke:none;fill-rule:nonzero;fill:rgb(83.921569%,15.686275%,22.352941%);fill-opacity:1;" d="M 323.078125 307.960938 L 357.472656 307.960938 L 357.472656 308.648438 L 343.140625 308.652344 L 343.140625 314.371094 L 337.371094 314.371094 L 337.371094 308.660156 L 337.289062 308.648438 L 323.078125 308.648438 Z M 323.078125 307.960938 "/>
<path style=" stroke:none;fill-rule:nonzero;fill:rgb(6.27451%,58.823529%,28.235294%);fill-opacity:1;" d="M 359.285156 292.585938 L 359.320312 292.414062 L 374.203125 106.664062 L 378.726562 106.664062 L 393.679688 292.761719 L 388.425781 292.761719 L 384.679688 244.183594 L 368.25 244.183594 L 364.578125 292.585938 L 359.285156 292.585938 L 369.832031 224.089844 L 383.171875 223.914062 L 376.519531 137.070312 L 376.445312 136.894531 L 376.371094 137.417969 L 369.796875 223.914062 L 369.832031 224.089844 Z M 359.285156 292.585938 "/>
<path style=" stroke:none;fill-rule:nonzero;fill:rgb(96.862745%,70.196078%,16.862745%);fill-opacity:1;" d="M 359.285156 298.0625 L 359.328125 298.054688 L 359.328125 297.878906 L 359.496094 297.484375 L 359.914062 296.9375 L 360.460938 296.492188 L 361.046875 296.140625 L 361.425781 295.953125 L 362.054688 295.691406 L 362.597656 295.496094 L 363.984375 295.101562 L 365.746094 294.730469 L 366.710938 294.574219 L 367.800781 294.425781 L 369.351562 294.257812 L 370.066406 294.195312 L 372.246094 294.054688 L 374.722656 293.96875 L 377.449219 293.941406 L 378.707031 293.949219 L 380.425781 293.984375 L 382.773438 294.082031 L 384.117188 294.167969 L 385.167969 294.257812 L 386.257812 294.371094 L 387.597656 294.546875 L 388.859375 294.757812 L 389.863281 294.96875 L 390.871094 295.234375 L 391.710938 295.515625 L 392.421875 295.824219 L 393.050781 296.191406 L 393.429688 296.5 L 393.679688 296.808594 L 387.851562 296.808594 L 387.515625 296.5 L 387.136719 296.261719 L 386.507812 295.972656 L 385.878906 295.761719 L 385.25 295.59375 L 384.074219 295.367188 L 383.070312 295.222656 L 381.808594 295.101562 L 380.59375 295.023438 L 379.210938 294.96875 L 378.371094 294.953125 L 376.148438 294.953125 L 374.132812 295.011719 L 372.960938 295.082031 L 372.121094 295.152344 L 370.945312 295.285156 L 370.234375 295.390625 L 369.8125 295.460938 L 368.554688 295.734375 L 367.714844 295.980469 L 367.253906 296.148438 L 366.667969 296.410156 L 366.25 296.648438 L 365.785156 297 L 365.535156 297.265625 L 365.199219 297.863281 L 365.15625 299.445312 L 365.285156 299.777344 L 365.535156 300.136719 L 365.871094 300.453125 L 366.375 300.789062 L 366.878906 301.042969 L 367.757812 301.386719 L 368.511719 301.613281 L 369.101562 301.765625 L 370.234375 302 L 370.695312 302.082031 L 371.785156 302.238281 L 372.917969 302.363281 L 374.300781 302.46875 L 375.351562 302.519531 L 377.027344 302.5625 L 379.167969 302.5625 L 381.683594 302.511719 L 383.277344 302.441406 L 384.371094 302.371094 L 385.082031 302.308594 L 385.964844 302.210938 L 386.59375 302.125 L 387.179688 302.027344 L 387.894531 301.878906 L 387.894531 299.777344 L 377.53125 299.769531 L 377.53125 298.785156 L 393.640625 298.777344 L 393.679688 302.210938 L 392.800781 302.449219 L 391.710938 302.679688 L 390.660156 302.855469 L 389.570312 303.003906 L 388.019531 303.171875 L 386.761719 303.277344 L 384.832031 303.398438 L 383.070312 303.476562 L 381.222656 303.53125 L 379.585938 303.558594 L 377.65625 303.566406 L 375.9375 303.546875 L 374.09375 303.496094 L 372.625 303.425781 L 371.28125 303.335938 L 369.9375 303.222656 L 368.261719 303.039062 L 367.171875 302.890625 L 366.039062 302.703125 L 364.90625 302.484375 L 363.898438 302.246094 L 363.226562 302.0625 L 362.558594 301.851562 L 361.84375 301.589844 L 361.171875 301.289062 L 360.667969 301.015625 L 360.207031 300.710938 L 359.871094 300.417969 L 359.535156 300.023438 L 359.367188 299.707031 L 359.285156 299.433594 Z M 359.285156 298.0625 "/>
<path style=" stroke:none;fill-rule:nonzero;fill:rgb(83.921569%,15.686275%,22.352941%);fill-opacity:1;" d="M 359.285156 304.746094 L 393.679688 304.746094 L 393.679688 305.777344 L 379.347656 305.785156 L 379.347656 314.371094 L 373.578125 314.371094 L 373.578125 305.792969 L 373.496094 305.777344 L 359.285156 305.777344 Z M 359.285156 304.746094 "/>
<path style=" stroke:none;fill-rule:nonzero;fill:rgb(14.509804%,36.078431%,60%);fill-opacity:1;" d="M 395.492188 308.320312 L 395.535156 308.308594 L 395.535156 308.074219 L 395.660156 307.703125 L 395.953125 307.234375 L 396.246094 306.910156 L 397 306.332031 L 398.050781 305.773438 L 399.140625 305.34375 L 399.9375 305.089844 L 400.652344 304.894531 L 402.289062 304.53125 L 403.335938 304.34375 L 404.46875 304.179688 L 405.851562 304.011719 L 406.859375 303.914062 L 409.125 303.757812 L 410.800781 303.6875 L 412.101562 303.660156 L 414.914062 303.660156 L 416.589844 303.699219 L 417.808594 303.746094 L 419.148438 303.824219 L 420.28125 303.914062 L 422.253906 304.128906 L 424.015625 304.402344 L 424.8125 304.558594 L 426.070312 304.863281 L 427.035156 305.15625 L 427.707031 305.410156 L 428.460938 305.773438 L 429.132812 306.214844 L 429.636719 306.714844 L 429.886719 307.136719 L 424.015625 307.136719 L 423.722656 306.742188 L 423.386719 306.441406 L 422.757812 306.039062 L 422.128906 305.753906 L 421.246094 305.46875 L 420.449219 305.285156 L 419.359375 305.097656 L 418.394531 304.980469 L 417.386719 304.894531 L 416.421875 304.835938 L 414.578125 304.773438 L 412.4375 304.773438 L 411.640625 304.796875 L 410.003906 304.875 L 409.125 304.941406 L 407.867188 305.078125 L 406.984375 305.207031 L 405.9375 305.402344 L 405.222656 305.570312 L 404.34375 305.824219 L 403.714844 306.046875 L 403 306.371094 L 402.582031 306.617188 L 402.203125 306.890625 L 401.867188 307.214844 L 401.617188 307.554688 L 401.449219 307.917969 L 401.363281 308.269531 L 401.363281 309.789062 L 401.449219 310.140625 L 401.65625 310.550781 L 402.203125 311.148438 L 403 311.667969 L 403.921875 312.078125 L 404.804688 312.375 L 405.308594 312.511719 L 405.980469 312.667969 L 407.027344 312.863281 L 408.539062 313.058594 L 409.417969 313.136719 L 410.761719 313.214844 L 412.144531 313.253906 L 413.992188 313.253906 L 415.625 313.214844 L 416.71875 313.167969 L 417.851562 313.089844 L 419.402344 312.921875 L 420.367188 312.765625 L 421.207031 312.578125 L 421.835938 312.394531 L 422.253906 312.234375 L 422.882812 311.933594 L 423.386719 311.601562 L 423.765625 311.257812 L 424.015625 310.925781 L 429.886719 310.925781 L 429.636719 311.316406 L 429.257812 311.699219 L 428.882812 311.980469 L 428.292969 312.324219 L 427.625 312.628906 L 426.660156 312.96875 L 425.863281 313.195312 L 424.8125 313.441406 L 423.847656 313.625 L 422.800781 313.792969 L 421.246094 313.988281 L 420.242188 314.085938 L 419.148438 314.175781 L 417.851562 314.253906 L 416.214844 314.320312 L 414.453125 314.359375 L 412.816406 314.371094 L 411.054688 314.351562 L 409.753906 314.3125 L 408.035156 314.222656 L 405.894531 314.046875 L 404.34375 313.863281 L 403.125 313.675781 L 402.078125 313.480469 L 400.902344 313.214844 L 399.394531 312.785156 L 398.46875 312.453125 L 397.839844 312.175781 L 397.128906 311.796875 L 396.625 311.453125 L 396.039062 310.90625 L 395.617188 310.210938 L 395.492188 309.671875 Z M 395.492188 308.320312 "/>
<path style=" stroke:none;fill-rule:nonzero;fill:rgb(96.862745%,70.196078%,16.862745%);fill-opacity:1;" d="M 395.492188 203.742188 L 395.535156 203.613281 L 395.535156 201.027344 L 395.703125 195.210938 L 396.121094 187.199219 L 396.667969 180.609375 L 397.253906 175.4375 L 397.632812 172.726562 L 398.261719 168.847656 L 398.804688 166.003906 L 400.191406 160.1875 L 401.953125 154.761719 L 402.917969 152.433594 L 404.007812 150.238281 L 405.558594 147.78125 L 406.273438 146.878906 L 408.453125 144.808594 L 410.929688 143.519531 L 413.65625 143.128906 L 414.914062 143.257812 L 416.632812 143.777344 L 418.980469 145.199219 L 420.324219 146.488281 L 421.375 147.78125 L 422.464844 149.460938 L 423.804688 152.046875 L 425.066406 155.148438 L 426.070312 158.25 L 427.078125 162.128906 L 427.917969 166.261719 L 428.628906 170.785156 L 429.257812 176.214844 L 429.636719 180.738281 L 429.886719 185.261719 L 424.058594 185.261719 L 423.722656 180.738281 L 423.34375 177.25 L 422.714844 172.984375 L 422.085938 169.882812 L 421.457031 167.425781 L 420.28125 164.066406 L 419.277344 162 L 418.015625 160.1875 L 416.800781 159.027344 L 415.417969 158.25 L 414.578125 157.992188 L 412.355469 157.992188 L 410.339844 158.898438 L 409.167969 159.929688 L 408.328125 160.964844 L 407.152344 162.902344 L 406.441406 164.453125 L 406.019531 165.488281 L 404.761719 169.492188 L 403.921875 173.113281 L 403.460938 175.566406 L 402.875 179.445312 L 402.453125 182.933594 L 401.992188 188.105469 L 401.742188 191.980469 L 401.40625 200.769531 L 401.363281 224.03125 L 401.492188 228.941406 L 401.742188 234.242188 L 402.078125 238.894531 L 402.582031 243.804688 L 403.085938 247.550781 L 403.964844 252.59375 L 404.71875 255.953125 L 405.308594 258.148438 L 406.441406 261.640625 L 406.902344 262.800781 L 407.992188 265.128906 L 409.125 266.9375 L 410.507812 268.488281 L 411.558594 269.265625 L 413.234375 269.910156 L 415.375 269.910156 L 417.890625 269.132812 L 419.484375 268.101562 L 420.578125 267.066406 L 421.289062 266.164062 L 422.171875 264.742188 L 422.800781 263.449219 L 423.386719 262.027344 L 424.101562 259.828125 L 424.101562 228.941406 L 413.738281 228.8125 L 413.738281 214.339844 L 429.847656 214.210938 L 429.886719 264.742188 L 429.007812 268.230469 L 427.917969 271.589844 L 426.867188 274.175781 L 425.777344 276.371094 L 424.226562 278.828125 L 422.96875 280.378906 L 421.039062 282.1875 L 419.277344 283.351562 L 417.429688 284.125 L 415.792969 284.515625 L 413.863281 284.644531 L 412.144531 284.382812 L 410.300781 283.609375 L 408.832031 282.574219 L 407.488281 281.28125 L 406.144531 279.601562 L 404.46875 276.890625 L 403.378906 274.691406 L 402.246094 271.976562 L 401.113281 268.746094 L 400.105469 265.257812 L 399.433594 262.542969 L 398.765625 259.441406 L 398.050781 255.566406 L 397.378906 251.171875 L 396.875 247.164062 L 396.414062 242.640625 L 396.078125 238.375 L 395.742188 232.5625 L 395.574219 227.910156 L 395.492188 223.902344 Z M 395.492188 203.742188 "/>
<path style=" stroke:none;fill-rule:nonzero;fill:rgb(83.921569%,15.686275%,22.352941%);fill-opacity:1;" d="M 395.492188 285.824219 L 429.886719 285.824219 L 429.886719 287.605469 L 415.554688 287.621094 L 415.554688 302.480469 L 409.785156 302.480469 L 409.785156 287.636719 L 409.703125 287.605469 L 395.492188 287.605469 Z M 395.492188 285.824219 "/>
<path style=" stroke:none;fill-rule:nonzero;fill:rgb(6.27451%,58.823529%,28.235294%);fill-opacity:1;" d="M 431.699219 286.832031 L 431.734375 286.671875 L 446.617188 117.058594 L 451.140625 117.058594 L 466.09375 286.992188 L 460.839844 286.992188 L 457.09375 242.632812 L 440.664062 242.632812 L 436.992188 286.832031 L 431.699219 286.832031 L 442.246094 224.285156 L 455.585938 224.125 L 448.933594 144.820312 L 448.859375 144.660156 L 448.785156 145.140625 L 442.207031 224.125 L 442.246094 224.285156 Z M 431.699219 286.832031 "/>
<path style=" stroke:none;fill-rule:nonzero;fill:rgb(96.862745%,70.196078%,16.862745%);fill-opacity:1;" d="M 431.699219 297.925781 L 431.742188 297.90625 L 431.742188 297.492188 L 431.910156 296.554688 L 432.328125 295.265625 L 432.875 294.203125 L 433.460938 293.371094 L 433.839844 292.933594 L 434.46875 292.3125 L 435.011719 291.855469 L 436.398438 290.917969 L 438.160156 290.042969 L 439.125 289.667969 L 440.214844 289.316406 L 441.765625 288.921875 L 442.480469 288.773438 L 444.660156 288.441406 L 447.136719 288.234375 L 449.863281 288.171875 L 451.121094 288.191406 L 452.839844 288.277344 L 455.1875 288.503906 L 456.53125 288.710938 L 457.582031 288.921875 L 458.671875 289.191406 L 460.011719 289.605469 L 461.269531 290.105469 L 462.277344 290.605469 L 463.285156 291.230469 L 464.125 291.894531 L 464.835938 292.625 L 465.464844 293.496094 L 465.84375 294.226562 L 466.09375 294.953125 L 460.265625 294.953125 L 459.929688 294.226562 L 459.550781 293.664062 L 458.921875 292.976562 L 458.292969 292.476562 L 457.664062 292.082031 L 456.488281 291.542969 L 455.484375 291.207031 L 454.222656 290.917969 L 453.007812 290.730469 L 451.625 290.605469 L 450.785156 290.5625 L 448.5625 290.5625 L 446.546875 290.710938 L 445.375 290.875 L 444.535156 291.042969 L 443.359375 291.355469 L 442.648438 291.605469 L 442.226562 291.769531 L 440.96875 292.414062 L 440.128906 292.996094 L 439.667969 293.394531 L 439.082031 294.015625 L 438.660156 294.578125 L 438.199219 295.410156 L 437.949219 296.035156 L 437.613281 297.449219 L 437.570312 301.191406 L 437.695312 301.984375 L 437.949219 302.835938 L 438.285156 303.585938 L 438.789062 304.375 L 439.292969 304.980469 L 440.171875 305.789062 L 440.925781 306.332031 L 441.515625 306.683594 L 442.648438 307.246094 L 443.109375 307.433594 L 444.199219 307.808594 L 445.332031 308.097656 L 446.714844 308.347656 L 447.765625 308.472656 L 449.441406 308.578125 L 451.582031 308.578125 L 454.097656 308.453125 L 455.691406 308.285156 L 456.78125 308.121094 L 457.496094 307.972656 L 458.378906 307.746094 L 459.007812 307.535156 L 459.59375 307.308594 L 460.308594 306.953125 L 460.308594 301.984375 L 449.945312 301.960938 L 449.945312 299.632812 L 466.054688 299.613281 L 466.09375 307.746094 L 465.214844 308.308594 L 464.125 308.847656 L 463.074219 309.261719 L 461.984375 309.617188 L 460.433594 310.011719 L 459.175781 310.261719 L 457.246094 310.554688 L 455.484375 310.742188 L 453.636719 310.863281 L 452 310.925781 L 450.070312 310.949219 L 448.351562 310.90625 L 446.507812 310.78125 L 445.039062 310.617188 L 443.695312 310.40625 L 442.351562 310.136719 L 440.675781 309.699219 L 439.585938 309.347656 L 438.453125 308.910156 L 437.320312 308.390625 L 436.3125 307.828125 L 435.640625 307.390625 L 434.96875 306.890625 L 434.257812 306.269531 L 433.585938 305.5625 L 433.082031 304.917969 L 432.621094 304.1875 L 432.285156 303.5 L 431.949219 302.566406 L 431.78125 301.816406 L 431.699219 301.171875 Z M 431.699219 297.925781 "/>
<path style=" stroke:none;fill-rule:nonzero;fill:rgb(83.921569%,15.686275%,22.352941%);fill-opacity:1;" d="M 431.699219 312.128906 L 466.09375 312.128906 L 466.09375 312.367188 L 451.761719 312.371094 L 451.761719 314.371094 L 445.992188 314.371094 L 445.992188 312.371094 L 445.910156 312.367188 L 431.699219 312.367188 Z M 431.699219 312.128906 "/>
<path style=" stroke:none;fill-rule:nonzero;fill:rgb(6.27451%,58.823529%,28.235294%);fill-opacity:1;" d="M 467.90625 314.367188 L 467.941406 314.363281 L 482.824219 311.332031 L 487.34375 311.332031 L 502.300781 314.371094 L 497.046875 314.371094 L 493.300781 313.578125 L 476.871094 313.578125 L 473.199219 314.367188 L 467.90625 314.367188 L 478.453125 313.25 L 491.792969 313.246094 L 485.140625 311.828125 L 485.066406 311.828125 L 484.992188 311.835938 L 478.414062 313.246094 L 478.453125 313.25 Z M 467.90625 314.367188 "/>
<path style=" stroke:none;fill-rule:nonzero;fill:rgb(96.862745%,70.196078%,16.862745%);fill-opacity:1;" d="M 467.90625 169.800781 L 467.949219 169.589844 L 467.949219 165.375 L 468.117188 155.890625 L 468.535156 142.828125 L 469.082031 132.078125 L 469.667969 123.648438 L 470.046875 119.226562 L 470.675781 112.902344 L 471.21875 108.265625 L 472.605469 98.785156 L 474.367188 89.933594 L 475.332031 86.140625 L 476.421875 82.558594 L 477.972656 78.554688 L 478.6875 77.078125 L 480.867188 73.707031 L 483.34375 71.597656 L 486.070312 70.96875 L 487.328125 71.175781 L 489.046875 72.019531 L 491.394531 74.339844 L 492.738281 76.445312 L 493.785156 78.554688 L 494.878906 81.292969 L 496.21875 85.507812 L 497.476562 90.566406 L 498.484375 95.621094 L 499.492188 101.945312 L 500.332031 108.6875 L 501.042969 116.0625 L 501.671875 124.914062 L 502.050781 132.289062 L 502.300781 139.664062 L 496.472656 139.664062 L 496.136719 132.289062 L 495.757812 126.601562 L 495.128906 119.644531 L 494.5 114.589844 L 493.871094 110.585938 L 492.695312 105.105469 L 491.691406 101.734375 L 490.429688 98.785156 L 489.214844 96.886719 L 487.832031 95.621094 L 486.992188 95.203125 L 484.769531 95.203125 L 482.753906 96.675781 L 481.582031 98.363281 L 480.742188 100.046875 L 479.566406 103.210938 L 478.855469 105.738281 L 478.433594 107.421875 L 477.175781 113.957031 L 476.335938 119.855469 L 475.875 123.859375 L 475.289062 130.183594 L 474.867188 135.871094 L 474.40625 144.300781 L 474.15625 150.625 L 473.820312 164.953125 L 473.777344 202.886719 L 473.902344 210.894531 L 474.15625 219.535156 L 474.492188 227.121094 L 474.996094 235.128906 L 475.5 241.238281 L 476.378906 249.457031 L 477.132812 254.9375 L 477.722656 258.519531 L 478.855469 264.210938 L 479.316406 266.105469 L 480.40625 269.898438 L 481.539062 272.847656 L 482.921875 275.378906 L 483.972656 276.640625 L 485.648438 277.695312 L 487.789062 277.695312 L 490.304688 276.433594 L 491.898438 274.746094 L 492.988281 273.058594 L 493.703125 271.585938 L 494.585938 269.265625 L 495.214844 267.160156 L 495.800781 264.839844 L 496.511719 261.257812 L 496.511719 210.894531 L 486.152344 210.683594 L 486.152344 187.082031 L 502.261719 186.871094 L 502.300781 269.265625 L 501.421875 274.957031 L 500.332031 280.4375 L 499.28125 284.652344 L 498.191406 288.234375 L 496.640625 292.238281 L 495.382812 294.765625 L 493.453125 297.714844 L 491.691406 299.613281 L 489.84375 300.875 L 488.207031 301.507812 L 486.277344 301.71875 L 484.558594 301.296875 L 482.714844 300.035156 L 481.246094 298.347656 L 479.902344 296.242188 L 478.558594 293.5 L 476.882812 289.074219 L 475.792969 285.492188 L 474.660156 281.066406 L 473.527344 275.800781 L 472.519531 270.109375 L 471.847656 265.683594 L 471.175781 260.625 L 470.464844 254.304688 L 469.792969 247.140625 L 469.289062 240.605469 L 468.828125 233.230469 L 468.492188 226.277344 L 468.15625 216.792969 L 467.988281 209.207031 L 467.90625 202.675781 Z M 467.90625 169.800781 "/>
<path style=" stroke:none;fill-rule:nonzero;fill:rgb(83.921569%,15.686275%,22.352941%);fill-opacity:1;" d="M 467.90625 302.898438 L 502.300781 302.898438 L 502.300781 303.675781 L 487.96875 303.683594 L 487.96875 310.152344 L 482.199219 310.152344 L 482.199219 303.691406 L 482.117188 303.675781 L 467.90625 303.675781 Z M 467.90625 302.898438 "/>
<path style=" stroke:none;fill-rule:nonzero;fill:rgb(6.27451%,58.823529%,28.235294%);fill-opacity:1;" d="M 504.113281 314.367188 L 504.148438 314.367188 L 519.03125 312.238281 L 523.550781 312.238281 L 538.507812 314.371094 L 533.253906 314.371094 L 529.507812 313.8125 L 513.078125 313.8125 L 509.40625 314.367188 L 504.113281 314.367188 L 514.660156 313.585938 L 528 313.582031 L 521.347656 312.585938 L 521.273438 312.585938 L 521.199219 312.59375 L 514.621094 313.582031 L 514.660156 313.585938 Z M 504.113281 314.367188 "/>
<path style=" stroke:none;fill-rule:nonzero;fill:rgb(14.509804%,36.078431%,60%);fill-opacity:1;" d="M 504.113281 196.488281 L 504.15625 196.335938 L 504.15625 192.65625 L 504.28125 186.832031 L 504.574219 179.476562 L 504.867188 174.421875 L 505.621094 165.378906 L 506.671875 156.644531 L 507.761719 149.898438 L 508.558594 145.914062 L 509.273438 142.851562 L 510.90625 137.179688 L 511.957031 134.269531 L 513.089844 131.664062 L 514.472656 129.058594 L 515.480469 127.527344 L 517.746094 125.074219 L 519.421875 124 L 520.722656 123.539062 L 523.535156 123.539062 L 525.210938 124.152344 L 526.429688 124.921875 L 527.769531 126.144531 L 528.902344 127.527344 L 530.875 130.898438 L 532.636719 135.1875 L 533.433594 137.640625 L 534.691406 142.390625 L 535.65625 146.988281 L 536.328125 150.972656 L 537.082031 156.644531 L 537.753906 163.539062 L 538.257812 171.355469 L 538.507812 177.945312 L 532.636719 177.945312 L 532.34375 171.816406 L 532.007812 167.0625 L 531.378906 160.78125 L 530.75 156.335938 L 529.867188 151.890625 L 529.070312 148.980469 L 527.980469 146.070312 L 527.015625 144.230469 L 526.007812 142.851562 L 525.042969 141.929688 L 523.199219 141.011719 L 521.058594 141.011719 L 520.261719 141.316406 L 518.625 142.542969 L 517.746094 143.617188 L 516.488281 145.761719 L 515.605469 147.753906 L 514.558594 150.820312 L 513.84375 153.425781 L 512.964844 157.410156 L 512.335938 160.933594 L 511.621094 165.992188 L 511.203125 169.824219 L 510.824219 174.113281 L 510.488281 179.171875 L 510.238281 184.535156 L 510.070312 190.203125 L 509.984375 195.722656 L 509.984375 219.476562 L 510.070312 224.992188 L 510.277344 231.429688 L 510.824219 240.777344 L 511.621094 248.898438 L 512.542969 255.335938 L 513.425781 259.933594 L 513.929688 262.078125 L 514.597656 264.53125 L 515.648438 267.597656 L 517.15625 270.660156 L 518.039062 271.886719 L 519.382812 273.113281 L 520.765625 273.726562 L 522.609375 273.726562 L 524.246094 273.113281 L 525.335938 272.347656 L 526.46875 271.121094 L 528.023438 268.515625 L 528.988281 266.0625 L 529.828125 263.152344 L 530.457031 260.242188 L 530.875 257.789062 L 531.503906 253.039062 L 532.007812 247.828125 L 532.386719 242.464844 L 532.636719 237.253906 L 538.507812 237.253906 L 538.257812 243.382812 L 537.878906 249.359375 L 537.503906 253.804688 L 536.914062 259.167969 L 536.242188 263.917969 L 535.28125 269.28125 L 534.480469 272.808594 L 533.433594 276.636719 L 532.46875 279.550781 L 531.421875 282.15625 L 529.867188 285.21875 L 528.863281 286.753906 L 527.769531 288.132812 L 526.46875 289.359375 L 524.835938 290.429688 L 523.074219 291.042969 L 521.4375 291.195312 L 519.675781 290.890625 L 518.375 290.277344 L 516.65625 288.898438 L 514.515625 286.140625 L 512.964844 283.226562 L 511.746094 280.316406 L 510.699219 277.25 L 509.523438 273.113281 L 508.015625 266.371094 L 507.089844 261.160156 L 506.460938 256.867188 L 505.75 250.890625 L 505.246094 245.527344 L 504.65625 236.945312 L 504.238281 226.066406 L 504.113281 217.636719 Z M 504.113281 196.488281 "/>
<path style=" stroke:none;fill-rule:nonzero;fill:rgb(96.862745%,70.196078%,16.862745%);fill-opacity:1;" d="M 504.113281 297.542969 L 504.15625 297.53125 L 504.15625 297.3125 L 504.324219 296.816406 L 504.742188 296.132812 L 505.289062 295.570312 L 505.875 295.128906 L 506.253906 294.898438 L 506.882812 294.570312 L 507.425781 294.328125 L 508.8125 293.832031 L 510.574219 293.367188 L 511.539062 293.167969 L 512.628906 292.984375 L 514.179688 292.773438 L 514.894531 292.695312 L 517.074219 292.519531 L 519.550781 292.410156 L 522.277344 292.375 L 523.535156 292.386719 L 525.253906 292.433594 L 527.601562 292.554688 L 528.945312 292.664062 L 529.992188 292.773438 L 531.085938 292.917969 L 532.425781 293.136719 L 533.683594 293.402344 L 534.691406 293.664062 L 535.699219 293.996094 L 536.539062 294.347656 L 537.25 294.734375 L 537.878906 295.195312 L 538.257812 295.582031 L 538.507812 295.96875 L 532.679688 295.96875 L 532.34375 295.582031 L 531.964844 295.285156 L 531.335938 294.921875 L 530.707031 294.65625 L 530.078125 294.449219 L 528.902344 294.160156 L 527.898438 293.984375 L 526.636719 293.832031 L 525.421875 293.730469 L 524.039062 293.664062 L 523.199219 293.644531 L 520.976562 293.644531 L 518.960938 293.71875 L 517.789062 293.808594 L 516.949219 293.898438 L 515.773438 294.0625 L 515.0625 294.195312 L 514.640625 294.28125 L 513.382812 294.625 L 512.542969 294.933594 L 512.082031 295.140625 L 511.496094 295.472656 L 511.074219 295.769531 L 510.613281 296.210938 L 510.363281 296.539062 L 510.027344 297.289062 L 509.984375 299.273438 L 510.109375 299.691406 L 510.363281 300.144531 L 510.699219 300.539062 L 511.203125 300.957031 L 511.707031 301.277344 L 512.585938 301.707031 L 513.339844 301.992188 L 513.929688 302.179688 L 515.0625 302.476562 L 515.523438 302.578125 L 516.613281 302.777344 L 517.746094 302.929688 L 519.128906 303.0625 L 520.179688 303.128906 L 521.855469 303.183594 L 523.996094 303.183594 L 526.511719 303.117188 L 528.105469 303.027344 L 529.195312 302.941406 L 529.910156 302.863281 L 530.789062 302.742188 L 531.421875 302.632812 L 532.007812 302.511719 L 532.71875 302.324219 L 532.71875 299.691406 L 522.359375 299.679688 L 522.359375 298.445312 L 538.46875 298.433594 L 538.507812 302.742188 L 537.628906 303.039062 L 536.539062 303.328125 L 535.488281 303.546875 L 534.398438 303.734375 L 532.847656 303.945312 L 531.589844 304.074219 L 529.660156 304.230469 L 527.898438 304.328125 L 526.050781 304.394531 L 524.414062 304.429688 L 522.484375 304.4375 L 520.765625 304.417969 L 518.921875 304.351562 L 517.453125 304.261719 L 516.109375 304.152344 L 514.765625 304.007812 L 513.089844 303.777344 L 512 303.589844 L 510.867188 303.359375 L 509.734375 303.085938 L 508.726562 302.785156 L 508.054688 302.554688 L 507.382812 302.292969 L 506.671875 301.960938 L 506 301.585938 L 505.496094 301.246094 L 505.035156 300.859375 L 504.699219 300.496094 L 504.363281 300 L 504.195312 299.601562 L 504.113281 299.261719 Z M 504.113281 297.542969 "/>
<path style=" stroke:none;fill-rule:nonzero;fill:rgb(83.921569%,15.686275%,22.352941%);fill-opacity:1;" d="M 504.113281 305.617188 L 538.507812 305.617188 L 538.507812 306.199219 L 524.175781 306.207031 L 524.175781 311.058594 L 518.40625 311.058594 L 518.40625 306.210938 L 518.324219 306.199219 L 504.113281 306.199219 Z M 504.113281 305.617188 "/>
<path style=" stroke:none;fill-rule:nonzero;fill:rgb(6.27451%,58.823529%,28.235294%);fill-opacity:1;" d="M 540.320312 294.933594 L 540.355469 294.746094 L 555.238281 92.308594 L 559.757812 92.308594 L 574.714844 295.125 L 569.460938 295.125 L 565.710938 242.183594 L 549.285156 242.183594 L 545.613281 294.933594 L 540.320312 294.933594 L 550.867188 220.28125 L 564.207031 220.09375 L 557.554688 125.445312 L 557.480469 125.253906 L 557.40625 125.824219 L 550.828125 220.09375 L 550.867188 220.28125 Z M 540.320312 294.933594 "/>
<path style=" stroke:none;fill-rule:nonzero;fill:rgb(14.509804%,36.078431%,60%);fill-opacity:1;" d="M 540.320312 302.492188 L 540.363281 302.476562 L 540.363281 302.164062 L 540.488281 301.671875 L 540.78125 301.046875 L 541.074219 300.621094 L 541.828125 299.851562 L 542.878906 299.113281 L 543.96875 298.539062 L 544.765625 298.203125 L 545.480469 297.941406 L 547.113281 297.460938 L 548.164062 297.214844 L 549.296875 296.992188 L 550.679688 296.773438 L 551.6875 296.644531 L 553.953125 296.433594 L 555.628906 296.34375 L 556.929688 296.304688 L 559.742188 296.304688 L 561.417969 296.355469 L 562.636719 296.421875 L 563.976562 296.527344 L 565.109375 296.644531 L 567.082031 296.929688 L 568.84375 297.292969 L 569.640625 297.5 L 570.898438 297.902344 L 571.863281 298.292969 L 572.535156 298.632812 L 573.289062 299.113281 L 573.960938 299.695312 L 574.464844 300.359375 L 574.714844 300.917969 L 568.84375 300.917969 L 568.550781 300.398438 L 568.214844 299.996094 L 567.585938 299.464844 L 566.957031 299.085938 L 566.074219 298.710938 L 565.277344 298.460938 L 564.1875 298.214844 L 563.222656 298.058594 L 562.214844 297.941406 L 561.25 297.863281 L 559.40625 297.785156 L 557.265625 297.785156 L 556.46875 297.8125 L 554.832031 297.917969 L 553.953125 298.007812 L 552.695312 298.191406 L 551.8125 298.359375 L 550.765625 298.617188 L 550.050781 298.839844 L 549.171875 299.175781 L 548.542969 299.476562 L 547.828125 299.90625 L 547.410156 300.230469 L 547.03125 300.59375 L 546.695312 301.023438 L 546.445312 301.476562 L 546.277344 301.957031 L 546.191406 302.425781 L 546.191406 304.441406 L 546.277344 304.90625 L 546.484375 305.453125 L 547.03125 306.246094 L 547.828125 306.933594 L 548.75 307.480469 L 549.632812 307.871094 L 550.136719 308.050781 L 550.804688 308.261719 L 551.855469 308.519531 L 553.363281 308.78125 L 554.246094 308.882812 L 555.589844 308.988281 L 556.972656 309.039062 L 558.816406 309.039062 L 560.453125 308.988281 L 561.542969 308.921875 L 562.675781 308.820312 L 564.230469 308.597656 L 565.195312 308.390625 L 566.03125 308.144531 L 566.664062 307.898438 L 567.082031 307.6875 L 567.710938 307.285156 L 568.214844 306.84375 L 568.59375 306.390625 L 568.84375 305.949219 L 574.714844 305.949219 L 574.464844 306.46875 L 574.085938 306.972656 L 573.710938 307.351562 L 573.121094 307.804688 L 572.449219 308.207031 L 571.484375 308.664062 L 570.6875 308.960938 L 569.640625 309.289062 L 568.675781 309.535156 L 567.628906 309.753906 L 566.074219 310.015625 L 565.070312 310.144531 L 563.976562 310.261719 L 562.675781 310.367188 L 561.042969 310.457031 L 559.28125 310.507812 L 557.644531 310.523438 L 555.882812 310.496094 L 554.582031 310.445312 L 552.863281 310.328125 L 550.722656 310.09375 L 549.171875 309.847656 L 547.953125 309.597656 L 546.90625 309.339844 L 545.730469 308.988281 L 544.21875 308.417969 L 543.296875 307.976562 L 542.667969 307.609375 L 541.957031 307.105469 L 541.453125 306.648438 L 540.863281 305.921875 L 540.445312 305 L 540.320312 304.285156 Z M 540.320312 302.492188 "/>
<path style=" stroke:none;fill-rule:nonzero;fill:rgb(83.921569%,15.686275%,22.352941%);fill-opacity:1;" d="M 540.320312 311.703125 L 574.714844 311.703125 L 574.714844 311.988281 L 560.378906 311.988281 L 560.378906 314.371094 L 554.613281 314.371094 L 554.613281 311.992188 L 554.53125 311.988281 L 540.320312 311.988281 Z M 540.320312 311.703125 "/>
<path style=" stroke:none;fill-rule:nonzero;fill:rgb(6.27451%,58.823529%,28.235294%);fill-opacity:1;" d="M 576.527344 309.351562 L 576.5625 309.097656 L 591.445312 39.191406 L 595.964844 39.191406 L 610.921875 309.605469 L 605.667969 309.605469 L 601.917969 239.019531 L 585.492188 239.019531 L 581.816406 309.351562 L 576.527344 309.351562 L 587.074219 209.820312 L 600.414062 209.566406 L 593.761719 83.371094 L 593.6875 83.117188 L 593.613281 83.878906 L 587.035156 209.566406 L 587.074219 209.820312 Z M 576.527344 309.351562 "/>
<path style=" stroke:none;fill-rule:nonzero;fill:rgb(96.862745%,70.196078%,16.862745%);fill-opacity:1;" d="M 576.527344 312.320312 L 576.570312 312.316406 L 576.570312 312.253906 L 576.734375 312.105469 L 577.15625 311.902344 L 577.699219 311.734375 L 578.289062 311.605469 L 578.664062 311.535156 L 579.296875 311.4375 L 579.839844 311.363281 L 581.226562 311.21875 L 582.988281 311.078125 L 583.953125 311.019531 L 585.042969 310.964844 L 586.59375 310.902344 L 587.308594 310.878906 L 589.488281 310.828125 L 591.964844 310.796875 L 594.691406 310.785156 L 595.949219 310.789062 L 597.667969 310.800781 L 600.015625 310.835938 L 601.359375 310.871094 L 602.40625 310.902344 L 603.5 310.945312 L 604.839844 311.011719 L 606.097656 311.089844 L 607.105469 311.167969 L 608.113281 311.265625 L 608.953125 311.371094 L 609.664062 311.484375 L 610.292969 311.625 L 610.671875 311.738281 L 610.921875 311.851562 L 605.09375 311.851562 L 604.757812 311.738281 L 604.378906 311.648438 L 603.75 311.542969 L 603.121094 311.464844 L 602.492188 311.402344 L 601.316406 311.316406 L 600.308594 311.261719 L 599.050781 311.21875 L 597.835938 311.1875 L 596.453125 311.167969 L 595.613281 311.160156 L 593.390625 311.160156 L 591.375 311.183594 L 590.203125 311.210938 L 589.363281 311.238281 L 588.1875 311.285156 L 587.476562 311.324219 L 587.054688 311.351562 L 585.796875 311.453125 L 584.957031 311.546875 L 584.496094 311.605469 L 583.910156 311.707031 L 583.488281 311.792969 L 583.027344 311.925781 L 582.777344 312.023438 L 582.441406 312.246094 L 582.398438 312.835938 L 582.523438 312.960938 L 582.777344 313.09375 L 583.113281 313.210938 L 583.617188 313.335938 L 584.117188 313.429688 L 585 313.558594 L 585.753906 313.644531 L 586.34375 313.699219 L 587.476562 313.789062 L 587.9375 313.816406 L 589.027344 313.875 L 590.160156 313.921875 L 591.542969 313.960938 L 592.59375 313.980469 L 594.269531 313.996094 L 596.410156 313.996094 L 598.925781 313.976562 L 600.519531 313.953125 L 601.609375 313.925781 L 602.324219 313.902344 L 603.203125 313.867188 L 603.835938 313.832031 L 604.421875 313.796875 L 605.132812 313.742188 L 605.132812 312.960938 L 594.773438 312.957031 L 594.773438 312.589844 L 610.882812 312.585938 L 610.921875 313.867188 L 610.042969 313.953125 L 608.953125 314.039062 L 607.902344 314.105469 L 606.8125 314.160156 L 605.261719 314.222656 L 604 314.261719 L 602.074219 314.308594 L 600.308594 314.339844 L 598.464844 314.359375 L 596.828125 314.367188 L 594.898438 314.371094 L 593.179688 314.363281 L 591.332031 314.34375 L 589.867188 314.316406 L 588.523438 314.285156 L 587.179688 314.242188 L 585.503906 314.175781 L 584.414062 314.117188 L 583.28125 314.050781 L 582.148438 313.96875 L 581.140625 313.878906 L 580.46875 313.8125 L 579.796875 313.730469 L 579.085938 313.632812 L 578.414062 313.523438 L 577.910156 313.421875 L 577.449219 313.304688 L 577.113281 313.199219 L 576.777344 313.050781 L 576.609375 312.933594 L 576.527344 312.832031 Z M 576.527344 312.320312 "/>
<path style=" stroke:none;fill-rule:nonzero;fill:rgb(14.509804%,36.078431%,60%);fill-opacity:1;" d="M 612.734375 156.847656 L 612.777344 156.601562 L 612.777344 150.667969 L 612.902344 141.277344 L 613.195312 129.410156 L 613.488281 121.253906 L 614.242188 106.671875 L 615.292969 92.582031 L 616.382812 81.707031 L 617.179688 75.277344 L 617.894531 70.335938 L 619.527344 61.191406 L 620.578125 56.492188 L 621.710938 52.289062 L 623.09375 48.089844 L 624.101562 45.617188 L 626.367188 41.664062 L 628.042969 39.933594 L 629.34375 39.191406 L 632.15625 39.191406 L 633.832031 40.179688 L 635.050781 41.414062 L 636.390625 43.390625 L 637.523438 45.617188 L 639.496094 51.054688 L 641.257812 57.976562 L 642.054688 61.929688 L 643.3125 69.59375 L 644.277344 77.007812 L 644.949219 83.4375 L 645.703125 92.582031 L 646.375 103.703125 L 646.878906 116.3125 L 647.128906 126.941406 L 641.257812 126.941406 L 640.964844 117.050781 L 640.628906 109.390625 L 640 99.253906 L 639.371094 92.085938 L 638.488281 84.917969 L 637.691406 80.222656 L 636.601562 75.527344 L 635.636719 72.558594 L 634.628906 70.335938 L 633.664062 68.851562 L 631.820312 67.367188 L 629.679688 67.367188 L 628.882812 67.863281 L 627.246094 69.839844 L 626.367188 71.570312 L 625.109375 75.03125 L 624.226562 78.246094 L 623.179688 83.1875 L 622.464844 87.390625 L 621.585938 93.816406 L 620.957031 99.503906 L 620.242188 107.660156 L 619.824219 113.839844 L 619.445312 120.761719 L 619.109375 128.917969 L 618.859375 137.566406 L 618.691406 146.714844 L 618.605469 155.613281 L 618.605469 193.925781 L 618.691406 202.824219 L 618.898438 213.207031 L 619.445312 228.285156 L 620.242188 241.382812 L 621.164062 251.765625 L 622.046875 259.179688 L 622.550781 262.640625 L 623.21875 266.597656 L 624.269531 271.539062 L 625.777344 276.484375 L 626.660156 278.460938 L 628.003906 280.4375 L 629.386719 281.425781 L 631.230469 281.425781 L 632.867188 280.4375 L 633.957031 279.203125 L 635.089844 277.226562 L 636.644531 273.023438 L 637.609375 269.066406 L 638.445312 264.371094 L 639.078125 259.675781 L 639.496094 255.71875 L 640.125 248.058594 L 640.628906 239.652344 L 641.003906 231.003906 L 641.257812 222.597656 L 647.128906 222.597656 L 646.878906 232.484375 L 646.5 242.125 L 646.125 249.292969 L 645.535156 257.945312 L 644.863281 265.609375 L 643.898438 274.257812 L 643.101562 279.945312 L 642.054688 286.125 L 641.089844 290.820312 L 640.042969 295.023438 L 638.488281 299.964844 L 637.480469 302.4375 L 636.390625 304.664062 L 635.089844 306.640625 L 633.457031 308.371094 L 631.695312 309.359375 L 630.058594 309.605469 L 628.296875 309.113281 L 626.996094 308.121094 L 625.277344 305.898438 L 623.136719 301.449219 L 621.585938 296.753906 L 620.367188 292.054688 L 619.320312 287.113281 L 618.144531 280.4375 L 616.632812 269.5625 L 615.710938 261.160156 L 615.082031 254.238281 L 614.371094 244.597656 L 613.867188 235.945312 L 613.277344 222.105469 L 612.859375 204.554688 L 612.734375 190.960938 Z M 612.734375 156.847656 "/>
<path style=" stroke:none;fill-rule:nonzero;fill:rgb(83.921569%,15.686275%,22.352941%);fill-opacity:1;" d="M 612.734375 310.785156 L 647.128906 310.785156 L 647.128906 311.167969 L 632.792969 311.171875 L 632.792969 314.371094 L 627.027344 314.371094 L 627.027344 311.175781 L 626.945312 311.167969 L 612.734375 311.167969 Z M 612.734375 310.785156 "/>
<path style=" stroke:none;fill-rule:nonzero;fill:rgb(6.27451%,58.823529%,28.235294%);fill-opacity:1;" d="M 648.941406 301.503906 L 648.976562 301.285156 L 663.859375 70.96875 L 668.378906 70.96875 L 683.335938 301.71875 L 678.082031 301.71875 L 674.332031 241.484375 L 657.90625 241.484375 L 654.230469 301.503906 L 648.941406 301.503906 L 659.488281 216.570312 L 672.828125 216.351562 L 666.175781 108.667969 L 666.101562 108.449219 L 666.027344 109.101562 L 659.449219 216.351562 L 659.488281 216.570312 Z M 648.941406 301.503906 "/>
<path style=" stroke:none;fill-rule:nonzero;fill:rgb(14.509804%,36.078431%,60%);fill-opacity:1;" d="M 648.941406 306.054688 L 648.980469 306.050781 L 648.980469 305.890625 L 649.109375 305.636719 L 649.402344 305.320312 L 649.695312 305.101562 L 650.449219 304.710938 L 651.5 304.332031 L 652.589844 304.039062 L 653.386719 303.867188 L 654.101562 303.734375 L 655.734375 303.488281 L 656.785156 303.363281 L 657.917969 303.25 L 659.300781 303.136719 L 660.308594 303.070312 L 662.574219 302.964844 L 664.25 302.917969 L 665.550781 302.898438 L 668.363281 302.898438 L 670.039062 302.925781 L 671.257812 302.960938 L 672.597656 303.011719 L 673.730469 303.070312 L 675.703125 303.21875 L 677.464844 303.402344 L 678.261719 303.507812 L 679.519531 303.714844 L 680.484375 303.914062 L 681.15625 304.085938 L 681.910156 304.332031 L 682.582031 304.628906 L 683.085938 304.96875 L 683.335938 305.253906 L 677.464844 305.253906 L 677.171875 304.988281 L 676.835938 304.78125 L 676.207031 304.511719 L 675.578125 304.320312 L 674.695312 304.125 L 673.898438 304 L 672.808594 303.875 L 671.84375 303.792969 L 670.835938 303.734375 L 669.871094 303.695312 L 668.027344 303.65625 L 665.886719 303.65625 L 665.089844 303.667969 L 663.453125 303.722656 L 662.574219 303.769531 L 661.316406 303.859375 L 660.433594 303.945312 L 659.386719 304.078125 L 658.671875 304.191406 L 657.792969 304.363281 L 657.160156 304.515625 L 656.449219 304.734375 L 656.03125 304.902344 L 655.652344 305.085938 L 655.316406 305.304688 L 655.066406 305.539062 L 654.898438 305.785156 L 654.8125 306.023438 L 654.8125 307.050781 L 654.898438 307.289062 L 655.105469 307.566406 L 655.652344 307.972656 L 656.449219 308.324219 L 657.371094 308.601562 L 658.253906 308.800781 L 658.757812 308.894531 L 659.425781 309 L 660.476562 309.132812 L 661.984375 309.265625 L 662.867188 309.316406 L 664.210938 309.371094 L 665.59375 309.398438 L 667.4375 309.398438 L 669.074219 309.371094 L 670.164062 309.339844 L 671.296875 309.285156 L 672.851562 309.171875 L 673.816406 309.066406 L 674.652344 308.941406 L 675.28125 308.8125 L 675.703125 308.707031 L 676.332031 308.503906 L 676.835938 308.277344 L 677.210938 308.046875 L 677.464844 307.820312 L 683.335938 307.820312 L 683.085938 308.085938 L 682.707031 308.34375 L 682.332031 308.535156 L 681.742188 308.769531 L 681.070312 308.972656 L 680.105469 309.207031 L 679.308594 309.359375 L 678.261719 309.523438 L 677.296875 309.648438 L 676.246094 309.761719 L 674.695312 309.894531 L 673.6875 309.960938 L 672.597656 310.019531 L 671.296875 310.074219 L 669.664062 310.121094 L 667.902344 310.148438 L 666.265625 310.152344 L 664.503906 310.140625 L 663.203125 310.113281 L 661.484375 310.054688 L 659.34375 309.933594 L 657.792969 309.808594 L 656.574219 309.683594 L 655.527344 309.550781 L 654.351562 309.371094 L 652.839844 309.078125 L 651.917969 308.855469 L 651.289062 308.667969 L 650.578125 308.410156 L 650.074219 308.175781 L 649.484375 307.804688 L 649.066406 307.335938 L 648.941406 306.972656 Z M 648.941406 306.054688 "/>
<path style=" stroke:none;fill-rule:nonzero;fill:rgb(96.862745%,70.196078%,16.862745%);fill-opacity:1;" d="M 648.941406 312.632812 L 648.980469 312.632812 L 648.980469 312.574219 L 649.148438 312.449219 L 649.570312 312.277344 L 650.113281 312.136719 L 650.703125 312.027344 L 651.078125 311.96875 L 651.707031 311.886719 L 652.253906 311.824219 L 653.636719 311.699219 L 655.398438 311.582031 L 656.363281 311.53125 L 657.457031 311.484375 L 659.007812 311.433594 L 659.722656 311.414062 L 661.902344 311.371094 L 664.378906 311.339844 L 667.105469 311.332031 L 668.363281 311.335938 L 670.082031 311.347656 L 672.429688 311.378906 L 673.773438 311.40625 L 674.820312 311.433594 L 675.914062 311.46875 L 677.253906 311.523438 L 678.511719 311.589844 L 679.519531 311.65625 L 680.527344 311.742188 L 681.367188 311.828125 L 682.078125 311.925781 L 682.707031 312.042969 L 683.085938 312.140625 L 683.335938 312.238281 L 677.507812 312.238281 L 677.171875 312.140625 L 676.792969 312.066406 L 676.164062 311.972656 L 675.535156 311.90625 L 674.90625 311.855469 L 673.730469 311.78125 L 672.722656 311.738281 L 671.464844 311.699219 L 670.25 311.675781 L 668.867188 311.65625 L 668.027344 311.652344 L 665.804688 311.652344 L 663.789062 311.671875 L 662.613281 311.695312 L 661.777344 311.714844 L 660.601562 311.757812 L 659.886719 311.789062 L 659.46875 311.8125 L 658.210938 311.898438 L 657.371094 311.976562 L 656.910156 312.03125 L 656.324219 312.113281 L 655.902344 312.1875 L 655.441406 312.296875 L 655.191406 312.382812 L 654.855469 312.570312 L 654.8125 313.070312 L 654.9375 313.175781 L 655.191406 313.289062 L 655.527344 313.390625 L 656.03125 313.492188 L 656.53125 313.574219 L 657.414062 313.683594 L 658.167969 313.753906 L 658.757812 313.800781 L 659.886719 313.875 L 660.351562 313.902344 L 661.441406 313.953125 L 662.574219 313.992188 L 663.957031 314.023438 L 665.007812 314.039062 L 666.683594 314.054688 L 668.824219 314.054688 L 671.339844 314.039062 L 672.933594 314.015625 L 674.023438 313.992188 L 674.738281 313.972656 L 675.617188 313.945312 L 676.246094 313.914062 L 676.835938 313.886719 L 677.546875 313.839844 L 677.546875 313.175781 L 667.1875 313.171875 L 667.1875 312.863281 L 683.296875 312.859375 L 683.335938 313.945312 L 682.457031 314.019531 L 681.367188 314.089844 L 680.316406 314.144531 L 679.226562 314.191406 L 677.675781 314.246094 L 676.414062 314.277344 L 674.484375 314.316406 L 672.722656 314.34375 L 670.878906 314.359375 L 669.242188 314.367188 L 667.3125 314.371094 L 665.59375 314.363281 L 663.746094 314.347656 L 662.28125 314.328125 L 660.9375 314.296875 L 659.59375 314.261719 L 657.917969 314.203125 L 656.828125 314.15625 L 655.695312 314.097656 L 654.5625 314.03125 L 653.554688 313.953125 L 652.882812 313.894531 L 652.210938 313.828125 L 651.5 313.746094 L 650.828125 313.652344 L 650.324219 313.566406 L 649.863281 313.46875 L 649.527344 313.378906 L 649.191406 313.253906 L 649.023438 313.152344 L 648.941406 313.066406 Z M 648.941406 312.632812 "/>
<g style="fill:rgb(0%,0%,0%);fill-opacity:1;">
  <use xlink:href="#glyph0-1" x="21.957031" y="318.198242"/>
  <use xlink:href="#glyph0-2" x="27.291016" y="318.198242"/>
  <use xlink:href="#glyph0-1" x="29.958008" y="318.198242"/>
</g>
<g style="fill:rgb(0%,0%,0%);fill-opacity:1;">
  <use xlink:href="#glyph0-1" x="21.957031" y="244.475586"/>
  <use xlink:href="#glyph0-2" x="27.291016" y="244.475586"/>
  <use xlink:href="#glyph0-3" x="29.958008" y="244.475586"/>
</g>
<g style="fill:rgb(0%,0%,0%);fill-opacity:1;">
  <use xlink:href="#glyph0-4" x="21.957031" y="170.75293"/>
  <use xlink:href="#glyph0-2" x="27.291016" y="170.75293"/>
  <use xlink:href="#glyph0-1" x="29.958008" y="170.75293"/>
</g>
<g style="fill:rgb(0%,0%,0%);fill-opacity:1;">
  <use xlink:href="#glyph0-4" x="21.957031" y="97.03418"/>
  <use xlink:href="#glyph0-2" x="27.291016" y="97.03418"/>
  <use xlink:href="#glyph0-3" x="29.958008" y="97.03418"/>
</g>
<g style="fill:rgb(0%,0%,0%);fill-opacity:1;">
  <use xlink:href="#glyph0-5" x="21.957031" y="23.311523"/>
  <use xlink:href="#glyph0-2" x="27.291016" y="23.311523"/>
  <use xlink:href="#glyph0-1" x="29.958008" y="23.311523"/>
</g>
<g style="fill:rgb(0%,0%,0%);fill-opacity:1;">
  <use xlink:href="#glyph0-4" x="83.828125" y="338.19043"/>
</g>
<g style="fill:rgb(0%,0%,0%);fill-opacity:1;">
  <use xlink:href="#glyph0-5" x="120.035156" y="338.19043"/>
</g>
<g style="fill:rgb(0%,0%,0%);fill-opacity:1;">
  <use xlink:href="#glyph0-6" x="156.242188" y="338.19043"/>
</g>
<g style="fill:rgb(0%,0%,0%);fill-opacity:1;">
  <use xlink:href="#glyph0-7" x="192.449219" y="338.19043"/>
</g>
<g style="fill:rgb(0%,0%,0%);fill-opacity:1;">
  <use xlink:href="#glyph0-3" x="228.65625" y="338.19043"/>
</g>
<g style="fill:rgb(0%,0%,0%);fill-opacity:1;">
  <use xlink:href="#glyph0-8" x="264.863281" y="338.19043"/>
</g>
<g style="fill:rgb(0%,0%,0%);fill-opacity:1;">
  <use xlink:href="#glyph0-9" x="301.070312" y="338.19043"/>
</g>
<g style="fill:rgb(0%,0%,0%);fill-opacity:1;">
  <use xlink:href="#glyph0-10" x="337.277344" y="338.19043"/>
</g>
<g style="fill:rgb(0%,0%,0%);fill-opacity:1;">
  <use xlink:href="#glyph0-11" x="373.484375" y="338.19043"/>
</g>
<g style="fill:rgb(0%,0%,0%);fill-opacity:1;">
  <use xlink:href="#glyph0-4" x="407.191406" y="338.19043"/>
  <use xlink:href="#glyph0-1" x="412.525391" y="338.19043"/>
</g>
<g style="fill:rgb(0%,0%,0%);fill-opacity:1;">
  <use xlink:href="#glyph0-4" x="443.398438" y="338.19043"/>
  <use xlink:href="#glyph0-4" x="448.732422" y="338.19043"/>
</g>
<g style="fill:rgb(0%,0%,0%);fill-opacity:1;">
  <use xlink:href="#glyph0-4" x="479.605469" y="338.19043"/>
  <use xlink:href="#glyph0-5" x="484.939453" y="338.19043"/>
</g>
<g style="fill:rgb(0%,0%,0%);fill-opacity:1;">
  <use xlink:href="#glyph0-4" x="515.8125" y="338.19043"/>
  <use xlink:href="#glyph0-6" x="521.146484" y="338.19043"/>
</g>
<g style="fill:rgb(0%,0%,0%);fill-opacity:1;">
  <use xlink:href="#glyph0-4" x="552.019531" y="338.19043"/>
  <use xlink:href="#glyph0-7" x="557.353516" y="338.19043"/>
</g>
<g style="fill:rgb(0%,0%,0%);fill-opacity:1;">
  <use xlink:href="#glyph0-4" x="588.226562" y="338.19043"/>
  <use xlink:href="#glyph0-3" x="593.560547" y="338.19043"/>
</g>
<g style="fill:rgb(0%,0%,0%);fill-opacity:1;">
  <use xlink:href="#glyph0-4" x="624.433594" y="338.19043"/>
  <use xlink:href="#glyph0-8" x="629.767578" y="338.19043"/>
</g>
<g style="fill:rgb(0%,0%,0%);fill-opacity:1;">
  <use xlink:href="#glyph0-4" x="660.640625" y="338.19043"/>
  <use xlink:href="#glyph0-9" x="665.974609" y="338.19043"/>
</g>
<g style="fill:rgb(0%,0%,0%);fill-opacity:1;">
  <use xlink:href="#glyph1-1" x="14.412109" y="178.015625"/>
  <use xlink:href="#glyph1-2" x="14.412109" y="170.011719"/>
  <use xlink:href="#glyph1-3" x="14.412109" y="167.347656"/>
  <use xlink:href="#glyph1-4" x="14.412109" y="164.011719"/>
</g>
</g>
</svg>
