<?xml version="1.0" encoding="UTF-8"?>
<svg xmlns="http://www.w3.org/2000/svg" xmlns:xlink="http://www.w3.org/1999/xlink" width="720pt" height="360pt" viewBox="0 0 720 360" version="1.1">
<defs>
<g>
<symbol overflow="visible" id="glyph0-0">
<path style="stroke:none;" d=""/>
</symbol>
<symbol overflow="visible" id="glyph0-1">
<path style="stroke:none;" d="M 2.640625 -6.796875 C 2 -6.796875 1.421875 -6.53125 1.078125 -6.046875 C 0.640625 -5.453125 0.40625 -4.546875 0.40625 -3.296875 C 0.40625 -1 1.1875 0.21875 2.640625 0.21875 C 4.078125 0.21875 4.859375 -1 4.859375 -3.234375 C 4.859375 -4.5625 4.65625 -5.4375 4.203125 -6.046875 C 3.84375 -6.53125 3.28125 -6.796875 2.640625 -6.796875 Z M 2.640625 -6.046875 C 3.546875 -6.046875 4 -5.125 4 -3.3125 C 4 -1.375 3.5625 -0.484375 2.625 -0.484375 C 1.734375 -0.484375 1.28125 -1.421875 1.28125 -3.28125 C 1.28125 -5.140625 1.734375 -6.046875 2.640625 -6.046875 Z M 2.640625 -6.046875 "/>
</symbol>
<symbol overflow="visible" id="glyph0-2">
<path style="stroke:none;" d="M 1.828125 -1 L 0.828125 -1 L 0.828125 0 L 1.828125 0 Z M 1.828125 -1 "/>
</symbol>
<symbol overflow="visible" id="glyph0-3">
<path style="stroke:none;" d="M 4.5625 -6.796875 L 1.0625 -6.796875 L 0.546875 -3.09375 L 1.328125 -3.09375 C 1.71875 -3.5625 2.046875 -3.734375 2.578125 -3.734375 C 3.484375 -3.734375 4.0625 -3.109375 4.0625 -2.09375 C 4.0625 -1.125 3.484375 -0.53125 2.578125 -0.53125 C 1.828125 -0.53125 1.375 -0.90625 1.1875 -1.671875 L 0.328125 -1.671875 C 0.453125 -1.109375 0.546875 -0.84375 0.75 -0.59375 C 1.125 -0.078125 1.828125 0.21875 2.59375 0.21875 C 3.96875 0.21875 4.921875 -0.78125 4.921875 -2.21875 C 4.921875 -3.5625 4.03125 -4.484375 2.71875 -4.484375 C 2.25 -4.484375 1.859375 -4.359375 1.46875 -4.0625 L 1.734375 -5.96875 L 4.5625 -5.96875 Z M 4.5625 -6.796875 "/>
</symbol>
<symbol overflow="visible" id="glyph0-4">
<path style="stroke:none;" d="M 2.484375 -4.84375 L 2.484375 0 L 3.328125 0 L 3.328125 -6.796875 L 2.765625 -6.796875 C 2.46875 -5.75 2.28125 -5.609375 0.984375 -5.453125 L 0.984375 -4.84375 Z M 2.484375 -4.84375 "/>
</symbol>
<symbol overflow="visible" id="glyph0-5">
<path style="stroke:none;" d="M 4.859375 -0.828125 L 1.28125 -0.828125 C 1.359375 -1.390625 1.671875 -1.75 2.5 -2.234375 L 3.46875 -2.75 C 4.40625 -3.265625 4.90625 -3.96875 4.90625 -4.8125 C 4.90625 -5.375 4.671875 -5.90625 4.265625 -6.265625 C 3.859375 -6.625 3.375 -6.796875 2.71875 -6.796875 C 1.859375 -6.796875 1.21875 -6.5 0.84375 -5.921875 C 0.609375 -5.5625 0.5 -5.125 0.484375 -4.4375 L 1.328125 -4.4375 C 1.359375 -4.90625 1.40625 -5.1875 1.53125 -5.40625 C 1.75 -5.8125 2.1875 -6.0625 2.703125 -6.0625 C 3.46875 -6.0625 4.03125 -5.515625 4.03125 -4.78125 C 4.03125 -4.25 3.71875 -3.796875 3.125 -3.4375 L 2.234375 -2.9375 C 0.8125 -2.140625 0.40625 -1.5 0.328125 0 L 4.859375 0 Z M 4.859375 -0.828125 "/>
</symbol>
<symbol overflow="visible" id="glyph0-6">
<path style="stroke:none;" d="M 2.125 -3.125 L 2.578125 -3.125 C 3.515625 -3.125 3.984375 -2.703125 3.984375 -1.890625 C 3.984375 -1.03125 3.46875 -0.53125 2.578125 -0.53125 C 1.65625 -0.53125 1.203125 -0.984375 1.15625 -1.96875 L 0.3125 -1.96875 C 0.34375 -1.421875 0.4375 -1.078125 0.609375 -0.765625 C 0.953125 -0.109375 1.625 0.21875 2.546875 0.21875 C 3.953125 0.21875 4.859375 -0.609375 4.859375 -1.90625 C 4.859375 -2.765625 4.515625 -3.25 3.703125 -3.515625 C 4.34375 -3.765625 4.65625 -4.25 4.65625 -4.9375 C 4.65625 -6.109375 3.875 -6.796875 2.578125 -6.796875 C 1.203125 -6.796875 0.484375 -6.046875 0.453125 -4.609375 L 1.296875 -4.609375 C 1.3125 -5.015625 1.34375 -5.25 1.453125 -5.453125 C 1.640625 -5.828125 2.0625 -6.0625 2.59375 -6.0625 C 3.34375 -6.0625 3.796875 -5.625 3.796875 -4.90625 C 3.796875 -4.421875 3.609375 -4.140625 3.25 -3.984375 C 3.015625 -3.890625 2.71875 -3.84375 2.125 -3.84375 Z M 2.125 -3.125 "/>
</symbol>
<symbol overflow="visible" id="glyph0-7">
<path style="stroke:none;" d="M 3.140625 -1.625 L 3.140625 0 L 3.984375 0 L 3.984375 -1.625 L 4.984375 -1.625 L 4.984375 -2.390625 L 3.984375 -2.390625 L 3.984375 -6.796875 L 3.359375 -6.796875 L 0.265625 -2.515625 L 0.265625 -1.625 Z M 3.140625 -2.390625 L 1 -2.390625 L 3.140625 -5.359375 Z M 3.140625 -2.390625 "/>
</symbol>
<symbol overflow="visible" id="glyph0-8">
<path style="stroke:none;" d="M 4.78125 -5.03125 C 4.609375 -6.140625 3.890625 -6.796875 2.84375 -6.796875 C 2.09375 -6.796875 1.421875 -6.4375 1.03125 -5.828125 C 0.609375 -5.171875 0.40625 -4.34375 0.40625 -3.09375 C 0.40625 -1.953125 0.578125 -1.234375 0.984375 -0.625 C 1.359375 -0.078125 1.953125 0.21875 2.703125 0.21875 C 3.984375 0.21875 4.921875 -0.734375 4.921875 -2.078125 C 4.921875 -3.34375 4.0625 -4.234375 2.84375 -4.234375 C 2.171875 -4.234375 1.640625 -3.96875 1.28125 -3.46875 C 1.28125 -5.125 1.828125 -6.046875 2.796875 -6.046875 C 3.390625 -6.046875 3.796875 -5.671875 3.9375 -5.03125 Z M 2.734375 -3.484375 C 3.546875 -3.484375 4.0625 -2.921875 4.0625 -2 C 4.0625 -1.15625 3.484375 -0.53125 2.703125 -0.53125 C 1.921875 -0.53125 1.328125 -1.1875 1.328125 -2.046875 C 1.328125 -2.890625 1.90625 -3.484375 2.734375 -3.484375 Z M 2.734375 -3.484375 "/>
</symbol>
<symbol overflow="visible" id="glyph0-9">
<path style="stroke:none;" d="M 4.984375 -6.796875 L 0.4375 -6.796875 L 0.4375 -5.96875 L 4.109375 -5.96875 C 2.5 -3.65625 1.828125 -2.234375 1.328125 0 L 2.21875 0 C 2.59375 -2.171875 3.453125 -4.046875 4.984375 -6.09375 Z M 4.984375 -6.796875 "/>
</symbol>
<symbol overflow="visible" id="glyph0-10">
<path style="stroke:none;" d="M 3.75 -3.578125 C 4.453125 -4 4.6875 -4.34375 4.6875 -4.984375 C 4.6875 -6.046875 3.84375 -6.796875 2.640625 -6.796875 C 1.4375 -6.796875 0.59375 -6.046875 0.59375 -4.984375 C 0.59375 -4.359375 0.828125 -4.015625 1.515625 -3.578125 C 0.734375 -3.203125 0.359375 -2.640625 0.359375 -1.890625 C 0.359375 -0.640625 1.296875 0.21875 2.640625 0.21875 C 3.984375 0.21875 4.921875 -0.640625 4.921875 -1.875 C 4.921875 -2.640625 4.53125 -3.203125 3.75 -3.578125 Z M 2.640625 -6.046875 C 3.359375 -6.046875 3.8125 -5.625 3.8125 -4.96875 C 3.8125 -4.34375 3.34375 -3.921875 2.640625 -3.921875 C 1.921875 -3.921875 1.453125 -4.34375 1.453125 -4.984375 C 1.453125 -5.625 1.921875 -6.046875 2.640625 -6.046875 Z M 2.640625 -3.203125 C 3.484375 -3.203125 4.0625 -2.671875 4.0625 -1.875 C 4.0625 -1.0625 3.484375 -0.53125 2.625 -0.53125 C 1.796875 -0.53125 1.21875 -1.078125 1.21875 -1.875 C 1.21875 -2.671875 1.796875 -3.203125 2.640625 -3.203125 Z M 2.640625 -3.203125 "/>
</symbol>
<symbol overflow="visible" id="glyph0-11">
<path style="stroke:none;" d="M 0.515625 -1.546875 C 0.671875 -0.4375 1.40625 0.21875 2.4375 0.21875 C 3.1875 0.21875 3.859375 -0.140625 4.265625 -0.75 C 4.6875 -1.40625 4.890625 -2.25 4.890625 -3.484375 C 4.890625 -4.625 4.703125 -5.359375 4.3125 -5.953125 C 3.9375 -6.5 3.34375 -6.796875 2.59375 -6.796875 C 1.296875 -6.796875 0.359375 -5.84375 0.359375 -4.515625 C 0.359375 -3.25 1.234375 -2.34375 2.453125 -2.34375 C 3.09375 -2.34375 3.5625 -2.578125 4.015625 -3.109375 C 4 -1.453125 3.46875 -0.53125 2.5 -0.53125 C 1.90625 -0.53125 1.484375 -0.90625 1.359375 -1.546875 Z M 2.578125 -6.0625 C 3.375 -6.0625 3.96875 -5.40625 3.96875 -4.53125 C 3.96875 -3.6875 3.375 -3.09375 2.546875 -3.09375 C 1.734375 -3.09375 1.234375 -3.671875 1.234375 -4.578125 C 1.234375 -5.4375 1.796875 -6.0625 2.578125 -6.0625 Z M 2.578125 -6.0625 "/>
</symbol>
<symbol overflow="visible" id="glyph1-0">
<path style="stroke:none;" d=""/>
</symbol>
<symbol overflow="visible" id="glyph1-1">
<path style="stroke:none;" d="M 0 -0.953125 L 0 -4.890625 C 0 -5.71875 -0.234375 -6.34375 -0.734375 -6.796875 C -1.1875 -7.234375 -1.8125 -7.46875 -2.5 -7.46875 C -3.546875 -7.46875 -4.1875 -7 -4.625 -5.875 C -4.984375 -6.671875 -5.640625 -7.09375 -6.53125 -7.09375 C -7.15625 -7.09375 -7.734375 -6.859375 -8.140625 -6.390625 C -8.5625 -5.9375 -8.75 -5.34375 -8.75 -4.5 L -8.75 -0.953125 Z M -4.984375 -2.0625 L -7.765625 -2.0625 L -7.765625 -4.21875 C -7.765625 -4.84375 -7.6875 -5.203125 -7.453125 -5.5 C -7.21875 -5.8125 -6.859375 -5.96875 -6.375 -5.96875 C -5.90625 -5.96875 -5.53125 -5.8125 -5.296875 -5.5 C -5.0625 -5.203125 -4.984375 -4.84375 -4.984375 -4.21875 Z M -0.984375 -2.0625 L -4 -2.0625 L -4 -4.78125 C -4 -5.328125 -3.859375 -5.6875 -3.578125 -5.953125 C -3.296875 -6.21875 -2.921875 -6.359375 -2.484375 -6.359375 C -2.0625 -6.359375 -1.6875 -6.21875 -1.40625 -5.953125 C -1.109375 -5.6875 -0.984375 -5.328125 -0.984375 -4.78125 Z M -0.984375 -2.0625 "/>
</symbol>
<symbol overflow="visible" id="glyph1-2">
<path style="stroke:none;" d="M -6.28125 -1.796875 L -6.28125 -0.796875 L 0 -0.796875 L 0 -1.796875 Z M -8.75 -1.796875 L -8.75 -0.796875 L -7.484375 -0.796875 L -7.484375 -1.796875 Z M -8.75 -1.796875 "/>
</symbol>
<symbol overflow="visible" id="glyph1-3">
<path style="stroke:none;" d="M -6.28125 -3.046875 L -6.28125 -2.015625 L -8.015625 -2.015625 L -8.015625 -1.015625 L -6.28125 -1.015625 L -6.28125 -0.171875 L -5.46875 -0.171875 L -5.46875 -1.015625 L -0.71875 -1.015625 C -0.078125 -1.015625 0.28125 -1.453125 0.28125 -2.234375 C 0.28125 -2.46875 0.25 -2.71875 0.1875 -3.046875 L -0.640625 -3.046875 C -0.609375 -2.921875 -0.59375 -2.765625 -0.59375 -2.5625 C -0.59375 -2.140625 -0.71875 -2.015625 -1.15625 -2.015625 L -5.46875 -2.015625 L -5.46875 -3.046875 Z M -6.28125 -3.046875 "/>
</symbol>
<symbol overflow="visible" id="glyph1-4">
<path style="stroke:none;" d="M -4.53125 -5.25 C -5.765625 -5.25 -6.46875 -4.421875 -6.46875 -2.96875 C -6.46875 -1.515625 -5.71875 -0.5625 -4.546875 -0.5625 C -3.5625 -0.5625 -3.09375 -1.0625 -2.734375 -2.5625 L -2.515625 -3.484375 C -2.34375 -4.1875 -2.09375 -4.46875 -1.625 -4.46875 C -1.046875 -4.46875 -0.640625 -3.875 -0.640625 -3 C -0.640625 -2.453125 -0.796875 -2 -1.0625 -1.75 C -1.25 -1.59375 -1.421875 -1.53125 -1.875 -1.46875 L -1.875 -0.40625 C -0.421875 -0.453125 0.28125 -1.265625 0.28125 -2.921875 C 0.28125 -4.5 -0.5 -5.515625 -1.71875 -5.515625 C -2.65625 -5.515625 -3.171875 -4.984375 -3.46875 -3.734375 L -3.703125 -2.765625 C -3.890625 -1.953125 -4.15625 -1.609375 -4.59375 -1.609375 C -5.171875 -1.609375 -5.546875 -2.125 -5.546875 -2.9375 C -5.546875 -3.75 -5.203125 -4.171875 -4.53125 -4.203125 Z M -4.53125 -5.25 "/>
</symbol>
</g>
</defs>
<g id="surface63">
<rect x="0" y="0" width="720" height="360" style="fill:rgb(100%,100%,100%);fill-opacity:1;stroke:none;"/>
<path style=" stroke:none;fill-rule:nonzero;fill:rgb(6.27451%,58.823529%,28.235294%);fill-opacity:1;" d="M 69.628906 305.832031 L 69.6875 305.816406 L 92.722656 289.976562 L 99.722656 289.976562 L 122.875 305.847656 L 114.738281 305.847656 L 108.9375 301.703125 L 83.507812 301.703125 L 77.820312 305.832031 L 69.628906 305.832031 L 85.957031 299.992188 L 106.605469 299.976562 L 96.308594 292.570312 L 96.195312 292.554688 L 96.082031 292.601562 L 85.898438 299.976562 L 85.957031 299.992188 Z M 69.628906 305.832031 "/>
<path style=" stroke:none;fill-rule:nonzero;fill:rgb(14.509804%,36.078431%,60%);fill-opacity:1;" d="M 69.628906 313.109375 L 69.695312 313.109375 L 69.695312 313.058594 L 69.890625 312.980469 L 70.34375 312.882812 L 70.796875 312.816406 L 71.96875 312.695312 L 73.589844 312.582031 L 75.277344 312.492188 L 76.511719 312.4375 L 77.617188 312.398438 L 80.148438 312.320312 L 81.773438 312.28125 L 83.523438 312.25 L 85.667969 312.214844 L 87.226562 312.195312 L 90.730469 312.160156 L 93.328125 312.148438 L 95.34375 312.140625 L 99.691406 312.140625 L 102.289062 312.148438 L 104.171875 312.160156 L 106.25 312.175781 L 108.003906 312.195312 L 111.054688 312.238281 L 113.78125 312.296875 L 115.015625 312.328125 L 116.964844 312.390625 L 118.457031 312.453125 L 119.496094 312.503906 L 120.664062 312.582031 L 121.703125 312.671875 L 122.484375 312.777344 L 122.875 312.863281 L 113.78125 312.863281 L 113.328125 312.78125 L 112.808594 312.71875 L 111.835938 312.636719 L 110.859375 312.578125 L 109.496094 312.519531 L 108.265625 312.480469 L 106.574219 312.441406 L 105.082031 312.414062 L 103.523438 312.398438 L 102.03125 312.386719 L 99.171875 312.371094 L 95.863281 312.371094 L 94.628906 312.375 L 92.097656 312.394531 L 90.730469 312.40625 L 88.785156 312.4375 L 87.421875 312.460938 L 85.796875 312.503906 L 84.695312 312.539062 L 83.328125 312.589844 L 82.355469 312.636719 L 81.253906 312.707031 L 80.601562 312.757812 L 80.019531 312.8125 L 79.5 312.878906 L 79.109375 312.953125 L 78.851562 313.027344 L 78.71875 313.101562 L 78.71875 313.417969 L 78.851562 313.488281 L 79.175781 313.574219 L 80.019531 313.699219 L 81.253906 313.808594 L 82.679688 313.894531 L 84.042969 313.953125 L 84.824219 313.984375 L 85.863281 314.015625 L 87.484375 314.058594 L 89.824219 314.097656 L 91.1875 314.113281 L 93.265625 314.128906 L 95.40625 314.136719 L 98.265625 314.136719 L 100.796875 314.128906 L 102.484375 314.121094 L 104.238281 314.105469 L 106.640625 314.070312 L 108.132812 314.035156 L 109.433594 313.996094 L 110.40625 313.957031 L 111.054688 313.925781 L 112.03125 313.863281 L 112.808594 313.792969 L 113.394531 313.722656 L 113.78125 313.652344 L 122.875 313.652344 L 122.484375 313.734375 L 121.898438 313.8125 L 121.316406 313.875 L 120.40625 313.945312 L 119.367188 314.007812 L 117.875 314.078125 L 116.640625 314.125 L 115.015625 314.175781 L 113.523438 314.214844 L 111.898438 314.25 L 109.496094 314.292969 L 107.9375 314.3125 L 106.25 314.328125 L 104.238281 314.347656 L 101.707031 314.359375 L 98.976562 314.367188 L 96.445312 314.371094 L 93.71875 314.367188 L 91.707031 314.359375 L 89.042969 314.339844 L 85.730469 314.304688 L 83.328125 314.265625 L 81.445312 314.226562 L 79.824219 314.183594 L 78.003906 314.128906 L 75.667969 314.039062 L 74.238281 313.972656 L 73.265625 313.914062 L 72.160156 313.835938 L 71.382812 313.761719 L 70.472656 313.648438 L 69.824219 313.503906 L 69.628906 313.390625 Z M 69.628906 313.109375 "/>
<path style=" stroke:none;fill-rule:nonzero;fill:rgb(96.862745%,70.196078%,16.862745%);fill-opacity:1;" d="M 69.628906 308.710938 L 69.695312 308.707031 L 69.695312 308.636719 L 69.953125 308.472656 L 70.601562 308.25 L 71.449219 308.066406 L 72.355469 307.925781 L 72.941406 307.847656 L 73.914062 307.742188 L 74.757812 307.660156 L 76.902344 307.5 L 79.628906 307.347656 L 81.121094 307.285156 L 82.808594 307.222656 L 85.214844 307.15625 L 86.316406 307.128906 L 89.691406 307.074219 L 93.523438 307.035156 L 97.746094 307.027344 L 99.691406 307.03125 L 102.355469 307.042969 L 105.992188 307.082031 L 108.070312 307.121094 L 109.691406 307.15625 L 111.378906 307.203125 L 113.457031 307.273438 L 115.40625 307.359375 L 116.964844 307.445312 L 118.523438 307.554688 L 119.820312 307.667969 L 120.925781 307.792969 L 121.898438 307.945312 L 122.484375 308.070312 L 122.875 308.199219 L 113.847656 308.199219 L 113.328125 308.070312 L 112.742188 307.972656 L 111.769531 307.855469 L 110.796875 307.769531 L 109.820312 307.703125 L 108.003906 307.609375 L 106.445312 307.550781 L 104.496094 307.5 L 102.613281 307.46875 L 100.472656 307.445312 L 99.171875 307.4375 L 95.730469 307.4375 L 92.613281 307.464844 L 90.796875 307.492188 L 89.5 307.523438 L 87.679688 307.574219 L 86.578125 307.617188 L 85.925781 307.648438 L 83.980469 307.757812 L 82.679688 307.859375 L 81.964844 307.929688 L 81.058594 308.035156 L 80.40625 308.132812 L 79.695312 308.277344 L 79.304688 308.382812 L 78.785156 308.628906 L 78.71875 309.277344 L 78.914062 309.410156 L 79.304688 309.558594 L 79.824219 309.6875 L 80.601562 309.824219 L 81.382812 309.929688 L 82.746094 310.070312 L 83.914062 310.164062 L 84.824219 310.222656 L 86.578125 310.320312 L 87.289062 310.355469 L 88.980469 310.417969 L 90.730469 310.46875 L 92.875 310.511719 L 94.5 310.535156 L 97.09375 310.550781 L 100.40625 310.550781 L 104.304688 310.53125 L 106.769531 310.5 L 108.457031 310.472656 L 109.5625 310.445312 L 110.925781 310.40625 L 111.898438 310.371094 L 112.808594 310.332031 L 113.914062 310.269531 L 113.914062 309.410156 L 97.875 309.410156 L 97.875 309.007812 L 122.808594 309.003906 L 122.875 310.40625 L 121.511719 310.503906 L 119.820312 310.597656 L 118.199219 310.667969 L 116.511719 310.730469 L 114.109375 310.800781 L 112.160156 310.84375 L 109.171875 310.894531 L 106.445312 310.925781 L 103.589844 310.945312 L 101.054688 310.957031 L 98.070312 310.960938 L 95.40625 310.953125 L 92.550781 310.933594 L 90.277344 310.902344 L 88.199219 310.867188 L 86.121094 310.820312 L 83.523438 310.746094 L 81.835938 310.683594 L 80.082031 310.609375 L 78.332031 310.519531 L 76.773438 310.421875 L 75.734375 310.347656 L 74.695312 310.261719 L 73.589844 310.152344 L 72.550781 310.03125 L 71.773438 309.917969 L 71.058594 309.792969 L 70.539062 309.675781 L 70.019531 309.511719 L 69.757812 309.382812 L 69.628906 309.273438 Z M 69.628906 308.710938 "/>
<path style=" stroke:none;fill-rule:nonzero;fill:rgb(83.921569%,15.686275%,22.352941%);fill-opacity:1;" d="M 69.628906 271.222656 L 122.875 271.222656 L 122.875 273.105469 L 100.683594 273.121094 L 100.683594 288.796875 L 91.753906 288.796875 L 91.753906 273.136719 L 91.625 273.105469 L 69.628906 273.105469 Z M 69.628906 271.222656 "/>
<path style=" stroke:none;fill-rule:nonzero;fill:rgb(6.27451%,58.823529%,28.235294%);fill-opacity:1;" d="M 125.675781 275.066406 L 125.734375 275.035156 L 148.769531 242.613281 L 155.769531 242.613281 L 178.917969 275.097656 L 170.785156 275.097656 L 164.984375 266.617188 L 139.554688 266.617188 L 133.867188 275.066406 L 125.675781 275.066406 L 142 263.109375 L 162.652344 263.078125 L 152.355469 247.917969 L 152.242188 247.886719 L 152.128906 247.980469 L 141.945312 263.078125 L 142 263.109375 Z M 125.675781 275.066406 "/>
<path style=" stroke:none;fill-rule:nonzero;fill:rgb(14.509804%,36.078431%,60%);fill-opacity:1;" d="M 125.675781 309.0625 L 125.742188 309.058594 L 125.742188 308.960938 L 125.933594 308.808594 L 126.390625 308.613281 L 126.84375 308.480469 L 128.011719 308.238281 L 129.636719 308.007812 L 131.324219 307.832031 L 132.558594 307.726562 L 133.664062 307.644531 L 136.195312 307.496094 L 137.816406 307.417969 L 139.570312 307.347656 L 141.714844 307.28125 L 143.273438 307.238281 L 146.777344 307.175781 L 149.375 307.144531 L 151.390625 307.132812 L 155.738281 307.132812 L 158.335938 307.152344 L 160.21875 307.171875 L 162.296875 307.203125 L 164.050781 307.238281 L 167.101562 307.328125 L 169.828125 307.441406 L 171.0625 307.507812 L 173.011719 307.632812 L 174.503906 307.753906 L 175.542969 307.859375 L 176.710938 308.007812 L 177.75 308.191406 L 178.53125 308.398438 L 178.917969 308.570312 L 169.828125 308.570312 L 169.375 308.410156 L 168.855469 308.285156 L 167.882812 308.117188 L 166.90625 308 L 165.542969 307.882812 L 164.308594 307.804688 L 162.621094 307.730469 L 161.128906 307.679688 L 159.570312 307.644531 L 158.078125 307.621094 L 155.21875 307.597656 L 151.90625 307.597656 L 150.675781 307.605469 L 148.140625 307.636719 L 146.777344 307.664062 L 144.832031 307.722656 L 143.46875 307.773438 L 141.84375 307.855469 L 140.738281 307.925781 L 139.375 308.03125 L 138.402344 308.121094 L 137.296875 308.257812 L 136.648438 308.359375 L 136.066406 308.472656 L 135.546875 308.605469 L 135.15625 308.746094 L 134.894531 308.894531 L 134.765625 309.042969 L 134.765625 309.667969 L 134.894531 309.816406 L 135.21875 309.984375 L 136.066406 310.234375 L 137.296875 310.449219 L 138.726562 310.617188 L 140.089844 310.738281 L 140.871094 310.796875 L 141.910156 310.859375 L 143.53125 310.941406 L 145.871094 311.023438 L 147.234375 311.054688 L 149.3125 311.085938 L 151.453125 311.105469 L 154.3125 311.105469 L 156.84375 311.085938 L 158.53125 311.066406 L 160.285156 311.035156 L 162.6875 310.964844 L 164.179688 310.902344 L 165.480469 310.824219 L 166.453125 310.746094 L 167.101562 310.683594 L 168.074219 310.558594 L 168.855469 310.417969 L 169.441406 310.277344 L 169.828125 310.140625 L 178.917969 310.140625 L 178.53125 310.300781 L 177.945312 310.460938 L 177.363281 310.578125 L 176.453125 310.71875 L 175.414062 310.84375 L 173.921875 310.984375 L 172.6875 311.078125 L 171.0625 311.179688 L 169.570312 311.257812 L 167.945312 311.328125 L 165.542969 311.40625 L 163.984375 311.449219 L 162.296875 311.484375 L 160.285156 311.515625 L 157.753906 311.546875 L 155.023438 311.5625 L 152.492188 311.566406 L 149.765625 311.558594 L 147.753906 311.542969 L 145.089844 311.503906 L 141.777344 311.433594 L 139.375 311.355469 L 137.492188 311.277344 L 135.871094 311.195312 L 134.050781 311.085938 L 131.714844 310.910156 L 130.285156 310.769531 L 129.3125 310.65625 L 128.207031 310.5 L 127.429688 310.359375 L 126.519531 310.132812 L 125.871094 309.84375 L 125.675781 309.621094 Z M 125.675781 309.0625 "/>
<path style=" stroke:none;fill-rule:nonzero;fill:rgb(96.862745%,70.196078%,16.862745%);fill-opacity:1;" d="M 125.675781 313.441406 L 125.742188 313.441406 L 125.742188 313.410156 L 126 313.34375 L 126.648438 313.25 L 127.492188 313.175781 L 128.402344 313.117188 L 128.988281 313.085938 L 129.960938 313.039062 L 130.804688 313.007812 L 132.949219 312.941406 L 135.675781 312.878906 L 137.167969 312.851562 L 138.855469 312.828125 L 141.257812 312.796875 L 142.363281 312.789062 L 145.738281 312.765625 L 149.570312 312.75 L 153.792969 312.746094 L 155.738281 312.746094 L 158.402344 312.753906 L 162.039062 312.769531 L 164.117188 312.785156 L 165.738281 312.796875 L 167.425781 312.816406 L 169.503906 312.847656 L 171.453125 312.882812 L 173.011719 312.917969 L 174.570312 312.964844 L 175.867188 313.011719 L 176.972656 313.0625 L 177.945312 313.125 L 178.53125 313.175781 L 178.917969 313.230469 L 169.894531 313.230469 L 169.375 313.175781 L 168.789062 313.136719 L 167.816406 313.085938 L 166.84375 313.050781 L 165.867188 313.023438 L 164.050781 312.984375 L 162.492188 312.960938 L 160.542969 312.941406 L 158.660156 312.925781 L 156.519531 312.917969 L 155.21875 312.914062 L 151.777344 312.914062 L 148.660156 312.925781 L 146.84375 312.9375 L 145.542969 312.949219 L 143.726562 312.972656 L 142.621094 312.988281 L 141.972656 313 L 140.027344 313.046875 L 138.726562 313.089844 L 138.011719 313.117188 L 137.105469 313.160156 L 136.453125 313.203125 L 135.738281 313.261719 L 135.351562 313.304688 L 134.832031 313.40625 L 134.765625 313.675781 L 134.960938 313.730469 L 135.351562 313.792969 L 135.871094 313.84375 L 136.648438 313.902344 L 137.429688 313.945312 L 138.792969 314.003906 L 139.960938 314.042969 L 140.871094 314.066406 L 142.621094 314.105469 L 143.335938 314.121094 L 145.023438 314.144531 L 146.777344 314.167969 L 148.921875 314.183594 L 150.542969 314.195312 L 153.140625 314.203125 L 156.453125 314.203125 L 160.347656 314.191406 L 162.816406 314.179688 L 164.503906 314.167969 L 165.609375 314.160156 L 166.972656 314.140625 L 167.945312 314.128906 L 168.855469 314.109375 L 169.960938 314.085938 L 169.960938 313.730469 L 153.921875 313.730469 L 153.921875 313.5625 L 178.855469 313.5625 L 178.917969 314.140625 L 177.554688 314.183594 L 175.867188 314.21875 L 174.246094 314.25 L 172.554688 314.277344 L 170.152344 314.304688 L 168.207031 314.320312 L 165.21875 314.34375 L 162.492188 314.355469 L 159.636719 314.363281 L 157.101562 314.371094 L 154.117188 314.371094 L 151.453125 314.367188 L 148.597656 314.359375 L 146.324219 314.347656 L 144.246094 314.332031 L 142.167969 314.3125 L 139.570312 314.28125 L 137.882812 314.257812 L 136.128906 314.226562 L 134.375 314.1875 L 132.816406 314.148438 L 131.777344 314.117188 L 130.742188 314.082031 L 129.636719 314.035156 L 128.597656 313.984375 L 127.820312 313.941406 L 127.105469 313.886719 L 126.585938 313.839844 L 126.066406 313.773438 L 125.804688 313.71875 L 125.675781 313.671875 Z M 125.675781 313.441406 "/>
<path style=" stroke:none;fill-rule:nonzero;fill:rgb(83.921569%,15.686275%,22.352941%);fill-opacity:1;" d="M 125.675781 276.277344 L 178.917969 276.277344 L 178.917969 279.453125 L 156.730469 279.480469 L 156.730469 305.953125 L 147.800781 305.953125 L 147.800781 279.507812 L 147.671875 279.453125 L 125.675781 279.453125 Z M 125.675781 276.277344 "/>
<path style=" stroke:none;fill-rule:nonzero;fill:rgb(6.27451%,58.823529%,28.235294%);fill-opacity:1;" d="M 181.722656 312.019531 L 181.777344 312.011719 L 204.816406 303.835938 L 211.8125 303.835938 L 234.964844 312.027344 L 226.832031 312.027344 L 221.03125 309.890625 L 195.601562 309.890625 L 189.914062 312.019531 L 181.722656 312.019531 L 198.046875 309.003906 L 218.695312 308.996094 L 208.402344 305.171875 L 208.289062 305.164062 L 208.171875 305.1875 L 197.992188 308.996094 L 198.046875 309.003906 Z M 181.722656 312.019531 "/>
<path style=" stroke:none;fill-rule:nonzero;fill:rgb(14.509804%,36.078431%,60%);fill-opacity:1;" d="M 181.722656 294.054688 L 181.785156 294.042969 L 181.785156 293.707031 L 181.980469 293.179688 L 182.4375 292.511719 L 182.890625 292.050781 L 184.058594 291.230469 L 185.683594 290.4375 L 187.371094 289.824219 L 188.605469 289.464844 L 189.707031 289.183594 L 192.242188 288.671875 L 193.863281 288.40625 L 195.617188 288.167969 L 197.761719 287.933594 L 199.320312 287.792969 L 202.824219 287.570312 L 205.421875 287.472656 L 207.433594 287.433594 L 211.785156 287.433594 L 214.382812 287.488281 L 216.265625 287.558594 L 218.34375 287.667969 L 220.097656 287.792969 L 223.148438 288.101562 L 225.875 288.488281 L 227.109375 288.710938 L 229.058594 289.144531 L 230.550781 289.5625 L 231.589844 289.921875 L 232.757812 290.4375 L 233.796875 291.0625 L 234.578125 291.773438 L 234.964844 292.371094 L 225.875 292.371094 L 225.421875 291.816406 L 224.902344 291.382812 L 223.925781 290.8125 L 222.953125 290.410156 L 221.589844 290.007812 L 220.355469 289.742188 L 218.667969 289.476562 L 217.175781 289.308594 L 215.617188 289.183594 L 214.121094 289.101562 L 211.265625 289.019531 L 207.953125 289.019531 L 206.722656 289.046875 L 204.1875 289.15625 L 202.824219 289.253906 L 200.875 289.449219 L 199.511719 289.628906 L 197.890625 289.910156 L 196.785156 290.144531 L 195.421875 290.507812 L 194.449219 290.828125 L 193.34375 291.285156 L 192.695312 291.632812 L 192.109375 292.023438 L 191.589844 292.484375 L 191.203125 292.96875 L 190.941406 293.484375 L 190.8125 293.984375 L 190.8125 296.144531 L 190.941406 296.644531 L 191.265625 297.226562 L 192.109375 298.078125 L 193.34375 298.8125 L 194.773438 299.398438 L 196.136719 299.816406 L 196.917969 300.011719 L 197.953125 300.234375 L 199.578125 300.511719 L 201.914062 300.789062 L 203.28125 300.902344 L 205.355469 301.011719 L 207.5 301.070312 L 210.355469 301.070312 L 212.890625 301.011719 L 214.578125 300.941406 L 216.332031 300.832031 L 218.734375 300.59375 L 220.226562 300.371094 L 221.523438 300.109375 L 222.5 299.84375 L 223.148438 299.621094 L 224.121094 299.191406 L 224.902344 298.71875 L 225.484375 298.230469 L 225.875 297.757812 L 234.964844 297.757812 L 234.578125 298.3125 L 233.992188 298.855469 L 233.40625 299.257812 L 232.5 299.746094 L 231.460938 300.179688 L 229.964844 300.664062 L 228.734375 300.984375 L 227.109375 301.332031 L 225.617188 301.597656 L 223.992188 301.832031 L 221.589844 302.113281 L 220.03125 302.25 L 218.34375 302.375 L 216.332031 302.488281 L 213.796875 302.585938 L 211.070312 302.640625 L 208.539062 302.65625 L 205.8125 302.625 L 203.800781 302.570312 L 201.136719 302.445312 L 197.824219 302.195312 L 195.421875 301.929688 L 193.539062 301.667969 L 191.917969 301.386719 L 190.097656 301.011719 L 187.761719 300.402344 L 186.332031 299.925781 L 185.359375 299.539062 L 184.253906 298.996094 L 183.476562 298.507812 L 182.566406 297.730469 L 181.917969 296.742188 L 181.722656 295.976562 Z M 181.722656 294.054688 "/>
<path style=" stroke:none;fill-rule:nonzero;fill:rgb(96.862745%,70.196078%,16.862745%);fill-opacity:1;" d="M 181.722656 313.707031 L 181.785156 313.703125 L 181.785156 313.683594 L 182.046875 313.636719 L 182.695312 313.570312 L 183.539062 313.515625 L 184.449219 313.472656 L 185.035156 313.449219 L 186.007812 313.417969 L 186.851562 313.394531 L 188.996094 313.347656 L 191.722656 313.300781 L 193.214844 313.285156 L 194.902344 313.265625 L 197.304688 313.246094 L 198.410156 313.238281 L 201.785156 313.222656 L 205.617188 313.210938 L 209.835938 313.207031 L 211.785156 313.207031 L 214.449219 313.210938 L 218.082031 313.222656 L 220.160156 313.234375 L 221.785156 313.246094 L 223.472656 313.257812 L 225.550781 313.28125 L 227.5 313.304688 L 229.058594 313.332031 L 230.617188 313.363281 L 231.914062 313.398438 L 233.019531 313.433594 L 233.992188 313.480469 L 234.578125 313.515625 L 234.964844 313.554688 L 225.941406 313.554688 L 225.421875 313.515625 L 224.835938 313.488281 L 223.863281 313.453125 L 222.890625 313.425781 L 221.914062 313.40625 L 220.097656 313.378906 L 218.539062 313.363281 L 216.589844 313.347656 L 214.707031 313.335938 L 212.566406 313.332031 L 211.265625 313.328125 L 207.824219 313.328125 L 204.707031 313.335938 L 202.890625 313.34375 L 201.589844 313.355469 L 199.773438 313.371094 L 198.667969 313.382812 L 198.019531 313.390625 L 196.070312 313.421875 L 194.773438 313.453125 L 194.058594 313.472656 L 193.148438 313.503906 L 192.5 313.535156 L 191.785156 313.578125 L 191.398438 313.609375 L 190.878906 313.679688 L 190.8125 313.871094 L 191.007812 313.914062 L 191.398438 313.957031 L 191.917969 313.996094 L 192.695312 314.035156 L 193.476562 314.066406 L 194.839844 314.105469 L 196.007812 314.132812 L 196.917969 314.152344 L 198.667969 314.179688 L 199.382812 314.191406 L 201.070312 314.210938 L 202.824219 314.226562 L 204.96875 314.238281 L 206.589844 314.246094 L 209.1875 314.25 L 212.5 314.25 L 216.394531 314.242188 L 218.863281 314.234375 L 220.550781 314.226562 L 221.65625 314.21875 L 223.019531 314.207031 L 223.992188 314.195312 L 224.902344 314.183594 L 226.003906 314.167969 L 226.003906 313.914062 L 209.96875 313.910156 L 209.96875 313.792969 L 234.902344 313.792969 L 234.964844 314.207031 L 233.601562 314.234375 L 231.914062 314.261719 L 230.292969 314.285156 L 228.601562 314.300781 L 226.199219 314.324219 L 224.253906 314.335938 L 221.265625 314.351562 L 218.539062 314.359375 L 215.679688 314.367188 L 213.148438 314.371094 L 210.164062 314.371094 L 207.5 314.367188 L 204.644531 314.363281 L 202.371094 314.355469 L 200.292969 314.34375 L 195.617188 314.308594 L 193.929688 314.289062 L 192.175781 314.265625 L 190.421875 314.238281 L 188.863281 314.210938 L 186.785156 314.164062 L 185.683594 314.132812 L 184.644531 314.09375 L 183.863281 314.0625 L 183.152344 314.023438 L 182.632812 313.988281 L 182.113281 313.941406 L 181.851562 313.902344 L 181.722656 313.871094 Z M 181.722656 313.707031 "/>
<path style=" stroke:none;fill-rule:nonzero;fill:rgb(83.921569%,15.686275%,22.352941%);fill-opacity:1;" d="M 181.722656 254.628906 L 234.964844 254.628906 L 234.964844 258.011719 L 212.777344 258.042969 L 212.777344 286.253906 L 203.847656 286.253906 L 203.847656 258.070312 L 203.71875 258.011719 L 181.722656 258.011719 Z M 181.722656 254.628906 "/>
<path style=" stroke:none;fill-rule:nonzero;fill:rgb(6.27451%,58.823529%,28.235294%);fill-opacity:1;" d="M 237.769531 314.363281 L 237.824219 314.355469 L 260.863281 306.863281 L 267.859375 306.863281 L 291.011719 314.371094 L 282.878906 314.371094 L 277.074219 312.410156 L 251.648438 312.410156 L 245.960938 314.363281 L 237.769531 314.363281 L 254.09375 311.601562 L 274.742188 311.59375 L 264.449219 308.089844 L 264.332031 308.082031 L 264.21875 308.105469 L 254.039062 311.59375 L 254.09375 311.601562 Z M 237.769531 314.363281 "/>
<path style=" stroke:none;fill-rule:nonzero;fill:rgb(14.509804%,36.078431%,60%);fill-opacity:1;" d="M 237.769531 301.441406 L 237.832031 301.4375 L 237.832031 301.269531 L 238.027344 301.011719 L 238.484375 300.679688 L 238.9375 300.453125 L 240.105469 300.050781 L 241.730469 299.660156 L 243.417969 299.355469 L 244.652344 299.179688 L 245.753906 299.042969 L 248.289062 298.789062 L 249.910156 298.65625 L 251.664062 298.539062 L 253.804688 298.421875 L 255.363281 298.355469 L 258.871094 298.246094 L 261.46875 298.195312 L 263.480469 298.175781 L 267.832031 298.175781 L 270.429688 298.203125 L 272.3125 298.238281 L 274.390625 298.292969 L 276.144531 298.355469 L 279.195312 298.503906 L 281.921875 298.699219 L 283.15625 298.808594 L 285.105469 299.019531 L 286.597656 299.226562 L 287.636719 299.40625 L 288.804688 299.660156 L 289.84375 299.96875 L 290.621094 300.316406 L 291.011719 300.613281 L 281.921875 300.613281 L 281.46875 300.339844 L 280.949219 300.125 L 279.972656 299.84375 L 279 299.644531 L 277.636719 299.445312 L 276.402344 299.316406 L 274.714844 299.183594 L 273.222656 299.101562 L 271.664062 299.042969 L 270.167969 299 L 267.3125 298.957031 L 264 298.957031 L 262.765625 298.972656 L 260.234375 299.027344 L 258.871094 299.074219 L 256.921875 299.171875 L 255.558594 299.261719 L 253.9375 299.398438 L 252.832031 299.515625 L 251.46875 299.691406 L 250.496094 299.851562 L 249.390625 300.078125 L 248.742188 300.25 L 248.15625 300.441406 L 247.636719 300.667969 L 247.25 300.90625 L 246.988281 301.160156 L 246.859375 301.410156 L 246.859375 302.472656 L 246.988281 302.71875 L 247.3125 303.007812 L 248.15625 303.425781 L 249.390625 303.789062 L 250.820312 304.078125 L 252.183594 304.285156 L 252.960938 304.378906 L 254 304.488281 L 255.625 304.628906 L 257.960938 304.765625 L 259.324219 304.820312 L 261.402344 304.875 L 263.546875 304.902344 L 266.402344 304.902344 L 268.9375 304.875 L 270.625 304.839844 L 272.378906 304.785156 L 274.78125 304.667969 L 276.273438 304.558594 L 277.570312 304.429688 L 278.546875 304.296875 L 279.195312 304.1875 L 280.167969 303.976562 L 280.949219 303.742188 L 281.53125 303.5 L 281.921875 303.269531 L 291.011719 303.269531 L 290.621094 303.542969 L 290.039062 303.808594 L 289.453125 304.007812 L 288.546875 304.25 L 287.507812 304.460938 L 286.011719 304.703125 L 284.777344 304.859375 L 283.15625 305.03125 L 281.664062 305.164062 L 280.039062 305.277344 L 277.636719 305.417969 L 276.078125 305.484375 L 274.390625 305.546875 L 272.378906 305.601562 L 269.84375 305.648438 L 267.117188 305.675781 L 264.585938 305.683594 L 261.859375 305.671875 L 259.84375 305.644531 L 257.183594 305.582031 L 253.871094 305.457031 L 251.46875 305.328125 L 249.585938 305.195312 L 247.960938 305.058594 L 246.144531 304.875 L 243.808594 304.570312 L 242.378906 304.339844 L 241.40625 304.148438 L 240.300781 303.878906 L 239.523438 303.640625 L 238.613281 303.253906 L 237.964844 302.765625 L 237.769531 302.390625 Z M 237.769531 301.441406 "/>
<path style=" stroke:none;fill-rule:nonzero;fill:rgb(83.921569%,15.686275%,22.352941%);fill-opacity:1;" d="M 237.769531 89.691406 L 291.011719 89.691406 L 291.011719 111.882812 L 268.820312 112.078125 L 268.820312 296.996094 L 259.894531 296.996094 L 259.894531 112.269531 L 259.765625 111.882812 L 237.769531 111.882812 Z M 237.769531 89.691406 "/>
<path style=" stroke:none;fill-rule:nonzero;fill:rgb(6.27451%,58.823529%,28.235294%);fill-opacity:1;" d="M 293.816406 306.542969 L 293.871094 306.527344 L 316.910156 292.105469 L 323.90625 292.105469 L 347.058594 306.554688 L 338.925781 306.554688 L 333.121094 302.785156 L 307.695312 302.785156 L 302.007812 306.542969 L 293.816406 306.542969 L 310.140625 301.222656 L 330.789062 301.210938 L 320.492188 294.464844 L 320.378906 294.453125 L 320.265625 294.492188 L 310.082031 301.210938 L 310.140625 301.222656 Z M 293.816406 306.542969 "/>
<path style=" stroke:none;fill-rule:nonzero;fill:rgb(96.862745%,70.196078%,16.862745%);fill-opacity:1;" d="M 293.816406 188.839844 L 293.878906 188.675781 L 293.878906 185.417969 L 294.140625 178.078125 L 294.789062 167.96875 L 295.632812 159.652344 L 296.542969 153.128906 L 297.125 149.703125 L 298.101562 144.8125 L 298.945312 141.222656 L 301.085938 133.882812 L 303.8125 127.035156 L 305.308594 124.101562 L 306.996094 121.328125 L 309.398438 118.230469 L 310.503906 117.089844 L 313.878906 114.480469 L 317.710938 112.847656 L 321.929688 112.359375 L 323.878906 112.523438 L 326.539062 113.175781 L 330.175781 114.96875 L 332.253906 116.597656 L 333.878906 118.230469 L 335.566406 120.347656 L 337.644531 123.609375 L 339.589844 127.523438 L 341.148438 131.4375 L 342.707031 136.332031 L 344.007812 141.550781 L 345.109375 147.257812 L 346.085938 154.105469 L 346.667969 159.8125 L 347.058594 165.519531 L 338.035156 165.519531 L 337.515625 159.8125 L 336.929688 155.410156 L 335.957031 150.027344 L 334.980469 146.113281 L 334.007812 143.015625 L 332.191406 138.777344 L 330.632812 136.167969 L 328.683594 133.882812 L 326.800781 132.417969 L 324.65625 131.4375 L 323.359375 131.113281 L 319.917969 131.113281 L 316.800781 132.253906 L 314.984375 133.558594 L 313.683594 134.863281 L 311.867188 137.308594 L 310.761719 139.265625 L 310.113281 140.570312 L 308.164062 145.625 L 306.867188 150.191406 L 306.152344 153.289062 L 305.242188 158.183594 L 304.59375 162.585938 L 303.878906 169.109375 L 303.488281 174 L 302.96875 185.089844 L 302.90625 214.445312 L 303.101562 220.640625 L 303.488281 227.328125 L 304.007812 233.195312 L 304.789062 239.394531 L 305.566406 244.125 L 306.929688 250.484375 L 308.101562 254.722656 L 309.007812 257.496094 L 310.761719 261.898438 L 311.476562 263.367188 L 313.164062 266.300781 L 314.917969 268.585938 L 317.058594 270.542969 L 318.683594 271.519531 L 321.28125 272.335938 L 324.59375 272.335938 L 328.488281 271.355469 L 330.957031 270.050781 L 332.644531 268.746094 L 333.746094 267.605469 L 335.113281 265.8125 L 336.085938 264.179688 L 336.996094 262.386719 L 338.097656 259.613281 L 338.097656 220.640625 L 322.058594 220.476562 L 322.058594 202.210938 L 346.992188 202.050781 L 347.058594 265.8125 L 345.695312 270.214844 L 344.007812 274.453125 L 342.382812 277.714844 L 340.695312 280.488281 L 338.292969 283.585938 L 336.34375 285.542969 L 333.359375 287.828125 L 330.632812 289.292969 L 327.773438 290.273438 L 325.242188 290.761719 L 322.253906 290.925781 L 319.59375 290.597656 L 316.734375 289.621094 L 314.464844 288.316406 L 312.386719 286.6875 L 310.308594 284.566406 L 307.710938 281.140625 L 306.023438 278.367188 L 304.269531 274.945312 L 302.515625 270.867188 L 300.957031 266.464844 L 299.917969 263.039062 L 298.878906 259.125 L 297.777344 254.234375 L 296.738281 248.6875 L 295.957031 243.632812 L 295.242188 237.925781 L 294.722656 232.542969 L 294.203125 225.207031 L 293.945312 219.335938 L 293.816406 214.28125 Z M 293.816406 188.839844 "/>
<path style=" stroke:none;fill-rule:nonzero;fill:rgb(83.921569%,15.686275%,22.352941%);fill-opacity:1;" d="M 293.816406 307.734375 L 347.058594 307.734375 L 347.058594 308.445312 L 324.867188 308.453125 L 324.867188 314.371094 L 315.941406 314.371094 L 315.941406 308.457031 L 315.8125 308.445312 L 293.816406 308.445312 Z M 293.816406 307.734375 "/>
<path style=" stroke:none;fill-rule:nonzero;fill:rgb(6.27451%,58.823529%,28.235294%);fill-opacity:1;" d="M 349.859375 314.363281 L 349.917969 314.355469 L 372.957031 306.917969 L 379.953125 306.917969 L 403.105469 314.371094 L 394.972656 314.371094 L 389.167969 312.425781 L 363.742188 312.425781 L 358.050781 314.363281 L 349.859375 314.363281 L 366.1875 311.621094 L 386.835938 311.613281 L 376.539062 308.136719 L 376.425781 308.128906 L 376.3125 308.148438 L 366.128906 311.613281 L 366.1875 311.621094 Z M 349.859375 314.363281 "/>
<path style=" stroke:none;fill-rule:nonzero;fill:rgb(14.509804%,36.078431%,60%);fill-opacity:1;" d="M 349.859375 286.898438 L 349.925781 286.867188 L 349.925781 286.136719 L 350.121094 284.980469 L 350.574219 283.515625 L 351.03125 282.507812 L 352.199219 280.710938 L 353.820312 278.972656 L 355.511719 277.632812 L 356.742188 276.839844 L 357.847656 276.230469 L 360.378906 275.101562 L 362.003906 274.523438 L 363.757812 274.003906 L 365.898438 273.488281 L 367.457031 273.179688 L 370.964844 272.695312 L 373.5625 272.480469 L 375.574219 272.390625 L 379.925781 272.390625 L 382.523438 272.511719 L 384.40625 272.664062 L 386.484375 272.90625 L 388.234375 273.179688 L 391.289062 273.851562 L 394.015625 274.707031 L 395.25 275.195312 L 397.195312 276.136719 L 398.691406 277.054688 L 399.730469 277.84375 L 400.898438 278.972656 L 401.9375 280.34375 L 402.714844 281.898438 L 403.105469 283.210938 L 394.015625 283.210938 L 393.558594 281.992188 L 393.039062 281.046875 L 392.066406 279.796875 L 391.09375 278.914062 L 389.730469 278.027344 L 388.496094 277.449219 L 386.808594 276.871094 L 385.3125 276.503906 L 383.753906 276.230469 L 382.261719 276.046875 L 379.40625 275.863281 L 376.09375 275.863281 L 374.859375 275.925781 L 372.328125 276.167969 L 370.964844 276.382812 L 369.015625 276.808594 L 367.652344 277.207031 L 366.027344 277.816406 L 364.925781 278.332031 L 363.5625 279.125 L 362.585938 279.828125 L 361.484375 280.832031 L 360.835938 281.59375 L 360.25 282.449219 L 359.730469 283.453125 L 359.339844 284.523438 L 359.082031 285.648438 L 358.953125 286.746094 L 358.953125 291.472656 L 359.082031 292.570312 L 359.40625 293.851562 L 360.25 295.710938 L 361.484375 297.324219 L 362.914062 298.605469 L 364.277344 299.519531 L 365.054688 299.945312 L 366.09375 300.433594 L 367.71875 301.042969 L 370.054688 301.652344 L 371.417969 301.898438 L 373.496094 302.140625 L 375.640625 302.261719 L 378.496094 302.261719 L 381.027344 302.140625 L 382.714844 301.988281 L 384.46875 301.746094 L 386.871094 301.226562 L 388.367188 300.738281 L 389.664062 300.160156 L 390.636719 299.582031 L 391.289062 299.09375 L 392.261719 298.148438 L 393.039062 297.113281 L 393.625 296.042969 L 394.015625 295.007812 L 403.105469 295.007812 L 402.714844 296.226562 L 402.132812 297.417969 L 401.546875 298.300781 L 400.636719 299.367188 L 399.597656 300.3125 L 398.105469 301.378906 L 396.871094 302.082031 L 395.25 302.84375 L 393.753906 303.421875 L 392.132812 303.941406 L 389.730469 304.550781 L 388.171875 304.855469 L 386.484375 305.128906 L 384.46875 305.371094 L 381.9375 305.585938 L 379.210938 305.707031 L 376.679688 305.738281 L 373.949219 305.675781 L 371.9375 305.554688 L 369.277344 305.28125 L 365.964844 304.734375 L 363.5625 304.152344 L 361.679688 303.574219 L 360.054688 302.964844 L 358.238281 302.140625 L 355.898438 300.800781 L 354.472656 299.761719 L 353.496094 298.910156 L 352.394531 297.722656 L 351.613281 296.652344 L 350.707031 294.945312 L 350.054688 292.78125 L 349.859375 291.105469 Z M 349.859375 286.898438 "/>
<path style=" stroke:none;fill-rule:nonzero;fill:rgb(83.921569%,15.686275%,22.352941%);fill-opacity:1;" d="M 349.859375 203.332031 L 403.105469 203.332031 L 403.105469 210.597656 L 380.914062 210.660156 L 380.914062 271.210938 L 371.988281 271.210938 L 371.988281 210.722656 L 371.859375 210.597656 L 349.859375 210.597656 Z M 349.859375 203.332031 "/>
<path style=" stroke:none;fill-rule:nonzero;fill:rgb(96.862745%,70.196078%,16.862745%);fill-opacity:1;" d="M 405.90625 146.460938 L 405.972656 146.191406 L 405.972656 140.828125 L 406.230469 128.757812 L 406.882812 112.128906 L 407.726562 98.449219 L 408.632812 87.71875 L 409.21875 82.085938 L 410.191406 74.039062 L 411.039062 68.140625 L 413.179688 56.070312 L 415.90625 44.804688 L 417.402344 39.976562 L 419.089844 35.414062 L 421.492188 30.320312 L 422.59375 28.441406 L 425.972656 24.148438 L 429.800781 21.46875 L 434.023438 20.664062 L 435.972656 20.929688 L 438.632812 22.003906 L 442.269531 24.953125 L 444.347656 27.636719 L 445.96875 30.320312 L 447.660156 33.804688 L 449.738281 39.171875 L 451.683594 45.609375 L 453.242188 52.046875 L 454.800781 60.09375 L 456.101562 68.675781 L 457.203125 78.0625 L 458.175781 89.328125 L 458.761719 98.714844 L 459.152344 108.105469 L 450.125 108.105469 L 449.605469 98.714844 L 449.023438 91.476562 L 448.046875 82.625 L 447.074219 76.1875 L 446.101562 71.089844 L 444.28125 64.117188 L 442.722656 59.824219 L 440.777344 56.070312 L 438.894531 53.65625 L 436.75 52.046875 L 435.453125 51.507812 L 432.011719 51.507812 L 428.894531 53.386719 L 427.074219 55.53125 L 425.777344 57.679688 L 423.957031 61.703125 L 422.855469 64.921875 L 422.207031 67.066406 L 420.257812 75.382812 L 418.957031 82.890625 L 418.246094 87.988281 L 417.335938 96.035156 L 416.6875 103.277344 L 415.972656 114.003906 L 415.582031 122.050781 L 415.0625 140.292969 L 414.996094 188.574219 L 415.191406 198.765625 L 415.582031 209.761719 L 416.101562 219.417969 L 416.882812 229.609375 L 417.660156 237.390625 L 419.023438 247.851562 L 420.191406 254.824219 L 421.101562 259.382812 L 422.855469 266.625 L 423.570312 269.039062 L 425.257812 273.867188 L 427.011719 277.625 L 429.152344 280.84375 L 430.777344 282.453125 L 433.375 283.792969 L 436.683594 283.792969 L 440.582031 282.183594 L 443.046875 280.039062 L 444.738281 277.890625 L 445.839844 276.015625 L 447.203125 273.0625 L 448.179688 270.382812 L 449.085938 267.429688 L 450.191406 262.871094 L 450.191406 198.765625 L 434.152344 198.496094 L 434.152344 168.457031 L 459.085938 168.1875 L 459.152344 273.0625 L 457.789062 280.304688 L 456.101562 287.28125 L 454.476562 292.644531 L 452.789062 297.203125 L 450.386719 302.300781 L 448.4375 305.519531 L 445.449219 309.273438 L 442.722656 311.6875 L 439.867188 313.296875 L 437.335938 314.101562 L 434.347656 314.371094 L 431.683594 313.835938 L 428.828125 312.226562 L 426.554688 310.078125 L 424.476562 307.398438 L 422.398438 303.910156 L 419.804688 298.277344 L 418.113281 293.71875 L 416.363281 288.085938 L 414.609375 281.378906 L 413.050781 274.136719 L 412.011719 268.503906 L 410.972656 262.066406 L 409.867188 254.019531 L 408.828125 244.898438 L 408.050781 236.585938 L 407.335938 227.195312 L 406.816406 218.34375 L 406.296875 206.277344 L 406.039062 196.621094 L 405.90625 188.304688 Z M 405.90625 146.460938 "/>
<path style=" stroke:none;fill-rule:nonzero;fill:rgb(96.862745%,70.196078%,16.862745%);fill-opacity:1;" d="M 461.953125 146.460938 L 462.019531 146.191406 L 462.019531 140.828125 L 462.277344 128.757812 L 462.929688 112.128906 L 463.773438 98.449219 L 464.679688 87.71875 L 465.265625 82.085938 L 466.238281 74.039062 L 467.082031 68.140625 L 469.226562 56.070312 L 471.953125 44.804688 L 473.445312 39.976562 L 475.136719 35.414062 L 477.539062 30.320312 L 478.640625 28.441406 L 482.019531 24.148438 L 485.847656 21.46875 L 490.070312 20.664062 L 492.015625 20.929688 L 494.679688 22.003906 L 498.316406 24.953125 L 500.394531 27.636719 L 502.015625 30.320312 L 503.703125 33.804688 L 505.78125 39.171875 L 507.730469 45.609375 L 509.289062 52.046875 L 510.847656 60.09375 L 512.144531 68.675781 L 513.25 78.0625 L 514.222656 89.328125 L 514.808594 98.714844 L 515.199219 108.105469 L 506.171875 108.105469 L 505.652344 98.714844 L 505.070312 91.476562 L 504.09375 82.625 L 503.121094 76.1875 L 502.148438 71.089844 L 500.328125 64.117188 L 498.769531 59.824219 L 496.820312 56.070312 L 494.9375 53.65625 L 492.796875 52.046875 L 491.496094 51.507812 L 488.054688 51.507812 L 484.941406 53.386719 L 483.121094 55.53125 L 481.824219 57.679688 L 480.003906 61.703125 L 478.902344 64.921875 L 478.25 67.066406 L 476.304688 75.382812 L 475.003906 82.890625 L 474.289062 87.988281 L 473.382812 96.035156 L 472.734375 103.277344 L 472.019531 114.003906 L 471.628906 122.050781 L 471.109375 140.292969 L 471.042969 188.574219 L 471.238281 198.765625 L 471.628906 209.761719 L 472.148438 219.417969 L 472.925781 229.609375 L 473.707031 237.390625 L 475.070312 247.851562 L 476.238281 254.824219 L 477.148438 259.382812 L 478.902344 266.625 L 479.617188 269.039062 L 481.304688 273.867188 L 483.058594 277.625 L 485.199219 280.84375 L 486.824219 282.453125 L 489.421875 283.792969 L 492.730469 283.792969 L 496.628906 282.183594 L 499.09375 280.039062 L 500.78125 277.890625 L 501.886719 276.015625 L 503.25 273.0625 L 504.222656 270.382812 L 505.132812 267.429688 L 506.238281 262.871094 L 506.238281 198.765625 L 490.199219 198.496094 L 490.199219 168.457031 L 515.132812 168.1875 L 515.199219 273.0625 L 513.835938 280.304688 L 512.144531 287.28125 L 510.523438 292.644531 L 508.835938 297.203125 L 506.433594 302.300781 L 504.484375 305.519531 L 501.496094 309.273438 L 498.769531 311.6875 L 495.914062 313.296875 L 493.382812 314.101562 L 490.394531 314.371094 L 487.730469 313.835938 L 484.875 312.226562 L 482.601562 310.078125 L 480.523438 307.398438 L 478.445312 303.910156 L 475.847656 298.277344 L 474.160156 293.71875 L 472.40625 288.085938 L 470.65625 281.378906 L 469.097656 274.136719 L 468.058594 268.503906 L 467.019531 262.066406 L 465.914062 254.019531 L 464.875 244.898438 L 464.097656 236.585938 L 463.382812 227.195312 L 462.863281 218.34375 L 462.34375 206.277344 L 462.082031 196.621094 L 461.953125 188.304688 Z M 461.953125 146.460938 "/>
<path style=" stroke:none;fill-rule:nonzero;fill:rgb(14.509804%,36.078431%,60%);fill-opacity:1;" d="M 518 309.382812 L 518.066406 309.375 L 518.066406 309.183594 L 518.261719 308.875 L 518.714844 308.488281 L 519.167969 308.222656 L 520.335938 307.746094 L 521.960938 307.285156 L 523.648438 306.929688 L 524.882812 306.71875 L 525.988281 306.558594 L 528.519531 306.261719 L 530.140625 306.105469 L 531.894531 305.96875 L 534.039062 305.832031 L 535.597656 305.753906 L 539.101562 305.621094 L 541.699219 305.566406 L 543.714844 305.542969 L 548.0625 305.542969 L 550.660156 305.574219 L 552.542969 305.613281 L 554.621094 305.679688 L 556.375 305.753906 L 559.425781 305.929688 L 562.152344 306.15625 L 563.386719 306.285156 L 565.335938 306.535156 L 566.828125 306.777344 L 567.867188 306.988281 L 569.035156 307.285156 L 570.074219 307.648438 L 570.855469 308.058594 L 571.246094 308.40625 L 562.152344 308.40625 L 561.699219 308.085938 L 561.179688 307.835938 L 560.207031 307.503906 L 559.230469 307.269531 L 557.867188 307.035156 L 556.632812 306.882812 L 554.945312 306.726562 L 553.453125 306.632812 L 551.894531 306.558594 L 550.402344 306.511719 L 547.542969 306.460938 L 544.234375 306.460938 L 543 306.476562 L 540.464844 306.542969 L 539.101562 306.597656 L 537.15625 306.710938 L 535.792969 306.816406 L 534.167969 306.980469 L 533.0625 307.117188 L 531.699219 307.324219 L 530.726562 307.511719 L 529.621094 307.777344 L 528.972656 307.980469 L 528.390625 308.207031 L 527.871094 308.472656 L 527.480469 308.753906 L 527.21875 309.050781 L 527.089844 309.34375 L 527.089844 310.59375 L 527.21875 310.882812 L 527.546875 311.222656 L 528.390625 311.714844 L 529.621094 312.144531 L 531.050781 312.480469 L 532.414062 312.722656 L 533.195312 312.835938 L 534.234375 312.964844 L 535.855469 313.128906 L 538.195312 313.289062 L 539.558594 313.355469 L 541.636719 313.417969 L 543.777344 313.449219 L 546.636719 313.449219 L 549.167969 313.417969 L 550.855469 313.378906 L 552.609375 313.3125 L 555.011719 313.175781 L 556.503906 313.046875 L 557.804688 312.894531 L 558.777344 312.742188 L 559.425781 312.613281 L 560.402344 312.359375 L 561.179688 312.085938 L 561.765625 311.804688 L 562.152344 311.53125 L 571.246094 311.53125 L 570.855469 311.851562 L 570.269531 312.167969 L 569.6875 312.402344 L 568.777344 312.683594 L 567.738281 312.933594 L 566.246094 313.214844 L 565.011719 313.402344 L 563.386719 313.605469 L 561.894531 313.757812 L 560.269531 313.894531 L 557.867188 314.054688 L 556.308594 314.136719 L 554.621094 314.210938 L 552.609375 314.273438 L 550.078125 314.332031 L 547.347656 314.363281 L 544.816406 314.371094 L 542.089844 314.355469 L 540.078125 314.320312 L 537.414062 314.25 L 534.101562 314.105469 L 531.699219 313.949219 L 529.816406 313.796875 L 528.195312 313.636719 L 526.375 313.417969 L 524.039062 313.0625 L 522.609375 312.789062 L 521.636719 312.5625 L 520.53125 312.25 L 519.753906 311.964844 L 518.84375 311.515625 L 518.195312 310.941406 L 518 310.496094 Z M 518 309.382812 "/>
<path style=" stroke:none;fill-rule:nonzero;fill:rgb(83.921569%,15.686275%,22.352941%);fill-opacity:1;" d="M 518 55.339844 L 571.246094 55.339844 L 571.246094 81.996094 L 549.054688 82.230469 L 549.054688 304.363281 L 540.125 304.363281 L 540.125 82.464844 L 539.996094 81.996094 L 518 81.996094 Z M 518 55.339844 "/>
<path style=" stroke:none;fill-rule:nonzero;fill:rgb(6.27451%,58.823529%,28.235294%);fill-opacity:1;" d="M 574.046875 305.707031 L 574.101562 305.675781 L 597.140625 272.390625 L 604.136719 272.390625 L 627.289062 305.738281 L 619.15625 305.738281 L 613.355469 297.03125 L 587.925781 297.03125 L 582.238281 305.707031 L 574.046875 305.707031 L 590.371094 293.433594 L 611.023438 293.402344 L 600.726562 277.835938 L 600.613281 277.804688 L 600.496094 277.898438 L 590.316406 293.402344 L 590.371094 293.433594 Z M 574.046875 305.707031 "/>
<path style=" stroke:none;fill-rule:nonzero;fill:rgb(14.509804%,36.078431%,60%);fill-opacity:1;" d="M 574.046875 310.160156 L 574.113281 310.152344 L 574.113281 309.992188 L 574.304688 309.730469 L 574.761719 309.40625 L 575.214844 309.179688 L 576.382812 308.777344 L 578.007812 308.390625 L 579.695312 308.089844 L 580.929688 307.914062 L 582.035156 307.777344 L 584.566406 307.523438 L 586.1875 307.394531 L 587.941406 307.277344 L 590.085938 307.164062 L 591.644531 307.09375 L 595.148438 306.984375 L 597.746094 306.9375 L 599.757812 306.917969 L 604.109375 306.917969 L 606.707031 306.945312 L 608.589844 306.980469 L 610.667969 307.035156 L 612.421875 307.09375 L 615.472656 307.246094 L 618.199219 307.4375 L 619.433594 307.542969 L 621.382812 307.757812 L 622.875 307.960938 L 623.914062 308.136719 L 625.082031 308.390625 L 626.121094 308.695312 L 626.902344 309.042969 L 627.289062 309.335938 L 618.199219 309.335938 L 617.746094 309.0625 L 617.226562 308.851562 L 616.253906 308.574219 L 615.277344 308.375 L 613.914062 308.179688 L 612.679688 308.046875 L 610.992188 307.917969 L 609.5 307.835938 L 607.941406 307.777344 L 606.449219 307.734375 L 603.589844 307.695312 L 600.277344 307.695312 L 599.046875 307.707031 L 596.511719 307.761719 L 595.148438 307.808594 L 593.203125 307.90625 L 591.839844 307.996094 L 590.214844 308.128906 L 589.109375 308.246094 L 587.746094 308.421875 L 586.773438 308.582031 L 585.667969 308.804688 L 585.019531 308.976562 L 584.4375 309.167969 L 583.917969 309.390625 L 583.527344 309.628906 L 583.265625 309.882812 L 583.136719 310.125 L 583.136719 311.183594 L 583.265625 311.425781 L 583.589844 311.714844 L 584.4375 312.128906 L 585.667969 312.492188 L 587.097656 312.777344 L 588.460938 312.980469 L 589.242188 313.078125 L 590.28125 313.183594 L 591.902344 313.320312 L 594.242188 313.457031 L 595.605469 313.511719 L 597.683594 313.566406 L 599.824219 313.59375 L 602.679688 313.59375 L 605.214844 313.566406 L 606.902344 313.53125 L 608.65625 313.476562 L 611.058594 313.363281 L 612.550781 313.253906 L 613.851562 313.125 L 614.824219 312.996094 L 615.472656 312.886719 L 616.445312 312.675781 L 617.226562 312.441406 L 617.8125 312.203125 L 618.199219 311.972656 L 627.289062 311.972656 L 626.902344 312.246094 L 626.316406 312.511719 L 625.730469 312.707031 L 624.824219 312.945312 L 623.785156 313.15625 L 622.289062 313.398438 L 621.058594 313.554688 L 619.433594 313.722656 L 617.941406 313.851562 L 616.316406 313.96875 L 613.914062 314.105469 L 612.355469 314.171875 L 610.667969 314.234375 L 608.65625 314.289062 L 606.121094 314.335938 L 603.394531 314.363281 L 600.863281 314.371094 L 598.136719 314.355469 L 596.125 314.328125 L 593.460938 314.269531 L 590.148438 314.144531 L 587.746094 314.015625 L 585.863281 313.886719 L 584.242188 313.75 L 582.421875 313.566406 L 580.085938 313.265625 L 578.65625 313.035156 L 577.683594 312.84375 L 576.578125 312.578125 L 575.800781 312.339844 L 574.890625 311.960938 L 574.242188 311.476562 L 574.046875 311.101562 Z M 574.046875 310.160156 "/>
<path style=" stroke:none;fill-rule:nonzero;fill:rgb(83.921569%,15.686275%,22.352941%);fill-opacity:1;" d="M 574.046875 203.332031 L 627.289062 203.332031 L 627.289062 210.597656 L 605.101562 210.660156 L 605.101562 271.210938 L 596.171875 271.210938 L 596.171875 210.722656 L 596.042969 210.597656 L 574.046875 210.597656 Z M 574.046875 203.332031 "/>
<path style=" stroke:none;fill-rule:nonzero;fill:rgb(6.27451%,58.823529%,28.235294%);fill-opacity:1;" d="M 630.09375 292.957031 L 630.148438 292.9375 L 653.1875 272.757812 L 660.183594 272.757812 L 683.335938 292.976562 L 675.203125 292.976562 L 669.398438 287.699219 L 643.972656 287.699219 L 638.285156 292.957031 L 630.09375 292.957031 L 646.417969 285.515625 L 667.066406 285.496094 L 656.773438 276.0625 L 656.65625 276.042969 L 656.542969 276.101562 L 646.363281 285.496094 L 646.417969 285.515625 Z M 630.09375 292.957031 "/>
<path style=" stroke:none;fill-rule:nonzero;fill:rgb(14.509804%,36.078431%,60%);fill-opacity:1;" d="M 630.09375 313.175781 L 630.15625 313.175781 L 630.15625 313.128906 L 630.351562 313.054688 L 630.808594 312.964844 L 631.261719 312.898438 L 632.429688 312.785156 L 634.054688 312.675781 L 635.742188 312.589844 L 636.976562 312.539062 L 638.078125 312.5 L 640.613281 312.429688 L 642.234375 312.394531 L 643.988281 312.359375 L 646.132812 312.328125 L 647.691406 312.308594 L 651.195312 312.277344 L 653.792969 312.265625 L 655.804688 312.257812 L 660.15625 312.257812 L 662.753906 312.265625 L 664.636719 312.277344 L 666.714844 312.292969 L 668.46875 312.308594 L 671.519531 312.351562 L 674.246094 312.40625 L 675.480469 312.4375 L 677.429688 312.496094 L 678.921875 312.554688 L 679.960938 312.605469 L 681.128906 312.675781 L 682.167969 312.761719 L 682.949219 312.859375 L 683.335938 312.945312 L 674.246094 312.945312 L 673.792969 312.867188 L 673.273438 312.808594 L 672.296875 312.726562 L 671.324219 312.671875 L 669.960938 312.617188 L 668.726562 312.578125 L 667.039062 312.542969 L 665.546875 312.519531 L 663.988281 312.5 L 662.492188 312.492188 L 659.636719 312.480469 L 656.324219 312.480469 L 655.089844 312.484375 L 652.558594 312.496094 L 651.195312 312.511719 L 649.246094 312.539062 L 647.882812 312.5625 L 646.261719 312.601562 L 645.15625 312.636719 L 643.792969 312.683594 L 642.820312 312.730469 L 641.714844 312.792969 L 641.066406 312.839844 L 640.480469 312.894531 L 639.960938 312.960938 L 639.574219 313.027344 L 639.3125 313.097656 L 639.183594 313.167969 L 639.183594 313.46875 L 639.3125 313.535156 L 639.636719 313.617188 L 640.480469 313.734375 L 641.714844 313.835938 L 643.144531 313.917969 L 644.507812 313.976562 L 645.285156 314.003906 L 646.324219 314.035156 L 647.949219 314.074219 L 650.285156 314.113281 L 651.648438 314.128906 L 653.726562 314.144531 L 655.871094 314.152344 L 658.726562 314.152344 L 661.261719 314.144531 L 662.949219 314.132812 L 664.703125 314.117188 L 667.105469 314.085938 L 668.597656 314.054688 L 669.894531 314.015625 L 670.871094 313.980469 L 671.519531 313.949219 L 672.492188 313.890625 L 673.273438 313.824219 L 673.855469 313.757812 L 674.246094 313.691406 L 683.335938 313.691406 L 682.949219 313.769531 L 682.363281 313.84375 L 681.777344 313.898438 L 680.871094 313.96875 L 679.832031 314.027344 L 678.335938 314.09375 L 677.105469 314.140625 L 675.480469 314.1875 L 673.988281 314.222656 L 672.363281 314.257812 L 669.960938 314.296875 L 668.402344 314.316406 L 666.714844 314.332031 L 664.703125 314.347656 L 662.167969 314.359375 L 659.441406 314.367188 L 656.910156 314.371094 L 654.183594 314.367188 L 652.167969 314.359375 L 649.507812 314.339844 L 646.195312 314.308594 L 643.792969 314.269531 L 641.910156 314.234375 L 640.289062 314.195312 L 638.46875 314.144531 L 636.132812 314.058594 L 634.703125 313.992188 L 633.730469 313.9375 L 632.625 313.863281 L 631.847656 313.796875 L 630.9375 313.6875 L 630.289062 313.550781 L 630.09375 313.445312 Z M 630.09375 313.175781 "/>
<path style=" stroke:none;fill-rule:nonzero;fill:rgb(96.862745%,70.196078%,16.862745%);fill-opacity:1;" d="M 630.09375 307.988281 L 630.15625 307.984375 L 630.15625 307.886719 L 630.417969 307.664062 L 631.066406 307.359375 L 631.910156 307.105469 L 632.820312 306.910156 L 633.40625 306.804688 L 634.378906 306.65625 L 635.222656 306.546875 L 637.367188 306.328125 L 640.09375 306.121094 L 641.585938 306.03125 L 643.273438 305.945312 L 645.675781 305.851562 L 646.78125 305.820312 L 650.15625 305.738281 L 653.988281 305.691406 L 658.207031 305.675781 L 660.15625 305.679688 L 662.820312 305.699219 L 666.453125 305.753906 L 668.53125 305.804688 L 670.15625 305.851562 L 671.84375 305.917969 L 673.921875 306.015625 L 675.871094 306.132812 L 677.429688 306.253906 L 678.988281 306.402344 L 680.285156 306.558594 L 681.390625 306.730469 L 682.363281 306.9375 L 682.949219 307.113281 L 683.335938 307.285156 L 674.3125 307.285156 L 673.792969 307.113281 L 673.207031 306.976562 L 672.234375 306.816406 L 671.257812 306.695312 L 670.285156 306.601562 L 668.46875 306.476562 L 666.910156 306.394531 L 664.960938 306.328125 L 663.078125 306.28125 L 660.9375 306.253906 L 659.636719 306.242188 L 656.195312 306.242188 L 653.078125 306.277344 L 651.261719 306.316406 L 649.960938 306.355469 L 648.144531 306.429688 L 647.039062 306.488281 L 646.390625 306.527344 L 644.441406 306.683594 L 643.144531 306.820312 L 642.429688 306.914062 L 641.519531 307.0625 L 640.871094 307.195312 L 640.15625 307.394531 L 639.769531 307.539062 L 639.25 307.875 L 639.183594 308.765625 L 639.378906 308.953125 L 639.769531 309.15625 L 640.289062 309.332031 L 641.066406 309.519531 L 641.84375 309.664062 L 643.210938 309.855469 L 644.378906 309.984375 L 645.285156 310.066406 L 647.039062 310.199219 L 647.753906 310.246094 L 649.441406 310.332031 L 651.195312 310.402344 L 653.339844 310.460938 L 654.960938 310.492188 L 657.558594 310.515625 L 660.871094 310.515625 L 664.765625 310.488281 L 667.234375 310.449219 L 668.921875 310.40625 L 670.027344 310.375 L 671.390625 310.320312 L 672.363281 310.269531 L 673.273438 310.214844 L 674.375 310.132812 L 674.375 308.953125 L 658.339844 308.945312 L 658.339844 308.394531 L 683.273438 308.390625 L 683.335938 310.320312 L 681.972656 310.453125 L 680.285156 310.582031 L 678.660156 310.679688 L 676.972656 310.761719 L 674.570312 310.855469 L 672.625 310.917969 L 669.636719 310.984375 L 666.910156 311.03125 L 664.050781 311.058594 L 661.519531 311.074219 L 658.53125 311.078125 L 655.871094 311.070312 L 653.015625 311.039062 L 650.742188 311 L 648.664062 310.949219 L 646.585938 310.886719 L 643.988281 310.78125 L 642.300781 310.699219 L 640.546875 310.59375 L 638.792969 310.472656 L 637.234375 310.339844 L 636.195312 310.234375 L 635.15625 310.117188 L 634.054688 309.96875 L 633.015625 309.800781 L 632.234375 309.648438 L 631.523438 309.476562 L 631.003906 309.3125 L 630.484375 309.089844 L 630.222656 308.914062 L 630.09375 308.757812 Z M 630.09375 307.988281 "/>
<path style=" stroke:none;fill-rule:nonzero;fill:rgb(83.921569%,15.686275%,22.352941%);fill-opacity:1;" d="M 630.09375 294.15625 L 683.335938 294.15625 L 683.335938 295.261719 L 661.148438 295.269531 L 661.148438 304.496094 L 652.21875 304.496094 L 652.21875 295.28125 L 652.089844 295.261719 L 630.09375 295.261719 Z M 630.09375 294.15625 "/>
<g style="fill:rgb(0%,0%,0%);fill-opacity:1;">
  <use xlink:href="#glyph0-1" x="21.957031" y="318.198242"/>
  <use xlink:href="#glyph0-2" x="27.291016" y="318.198242"/>
  <use xlink:href="#glyph0-1" x="29.958008" y="318.198242"/>
</g>
<g style="fill:rgb(0%,0%,0%);fill-opacity:1;">
  <use xlink:href="#glyph0-1" x="21.957031" y="244.475586"/>
  <use xlink:href="#glyph0-2" x="27.291016" y="244.475586"/>
  <use xlink:href="#glyph0-3" x="29.958008" y="244.475586"/>
</g>
<g style="fill:rgb(0%,0%,0%);fill-opacity:1;">
  <use xlink:href="#glyph0-4" x="21.957031" y="170.75293"/>
  <use xlink:href="#glyph0-2" x="27.291016" y="170.75293"/>
  <use xlink:href="#glyph0-1" x="29.958008" y="170.75293"/>
</g>
<g style="fill:rgb(0%,0%,0%);fill-opacity:1;">
  <use xlink:href="#glyph0-4" x="21.957031" y="97.03418"/>
  <use xlink:href="#glyph0-2" x="27.291016" y="97.03418"/>
  <use xlink:href="#glyph0-3" x="29.958008" y="97.03418"/>
</g>
<g style="fill:rgb(0%,0%,0%);fill-opacity:1;">
  <use xlink:href="#glyph0-5" x="21.957031" y="23.311523"/>
  <use xlink:href="#glyph0-2" x="27.291016" y="23.311523"/>
  <use xlink:href="#glyph0-1" x="29.958008" y="23.311523"/>
</g>
<g style="fill:rgb(0%,0%,0%);fill-opacity:1;">
  <use xlink:href="#glyph0-4" x="93.25" y="338.19043"/>
</g>
<g style="fill:rgb(0%,0%,0%);fill-opacity:1;">
  <use xlink:href="#glyph0-5" x="149.296875" y="338.19043"/>
</g>
<g style="fill:rgb(0%,0%,0%);fill-opacity:1;">
  <use xlink:href="#glyph0-6" x="205.34375" y="338.19043"/>
</g>
<g style="fill:rgb(0%,0%,0%);fill-opacity:1;">
  <use xlink:href="#glyph0-7" x="261.390625" y="338.19043"/>
</g>
<g style="fill:rgb(0%,0%,0%);fill-opacity:1;">
  <use xlink:href="#glyph0-3" x="317.4375" y="338.19043"/>
</g>
<g style="fill:rgb(0%,0%,0%);fill-opacity:1;">
  <use xlink:href="#glyph0-8" x="373.484375" y="338.19043"/>
</g>
<g style="fill:rgb(0%,0%,0%);fill-opacity:1;">
  <use xlink:href="#glyph0-9" x="429.53125" y="338.19043"/>
</g>
<g style="fill:rgb(0%,0%,0%);fill-opacity:1;">
  <use xlink:href="#glyph0-10" x="485.574219" y="338.19043"/>
</g>
<g style="fill:rgb(0%,0%,0%);fill-opacity:1;">
  <use xlink:href="#glyph0-11" x="541.621094" y="338.19043"/>
</g>
<g style="fill:rgb(0%,0%,0%);fill-opacity:1;">
  <use xlink:href="#glyph0-4" x="595.167969" y="338.19043"/>
  <use xlink:href="#glyph0-1" x="600.501953" y="338.19043"/>
</g>
<g style="fill:rgb(0%,0%,0%);fill-opacity:1;">
  <use xlink:href="#glyph0-4" x="651.214844" y="338.19043"/>
  <use xlink:href="#glyph0-4" x="656.548828" y="338.19043"/>
</g>
<g style="fill:rgb(0%,0%,0%);fill-opacity:1;">
  <use xlink:href="#glyph1-1" x="14.412109" y="178.015625"/>
  <use xlink:href="#glyph1-2" x="14.412109" y="170.011719"/>
  <use xlink:href="#glyph1-3" x="14.412109" y="167.347656"/>
  <use xlink:href="#glyph1-4" x="14.412109" y="164.011719"/>
</g>
</g>
</svg>
