<?xml version="1.0" encoding="UTF-8"?>
<svg xmlns="http://www.w3.org/2000/svg" xmlns:xlink="http://www.w3.org/1999/xlink" width="720pt" height="360pt" viewBox="0 0 720 360" version="1.1">
<defs>
<g>
<symbol overflow="visible" id="glyph0-0">
<path style="stroke:none;" d=""/>
</symbol>
<symbol overflow="visible" id="glyph0-1">
<path style="stroke:none;" d="M 2.640625 -6.796875 C 2 -6.796875 1.421875 -6.53125 1.078125 -6.046875 C 0.640625 -5.453125 0.40625 -4.546875 0.40625 -3.296875 C 0.40625 -1 1.1875 0.21875 2.640625 0.21875 C 4.078125 0.21875 4.859375 -1 4.859375 -3.234375 C 4.859375 -4.5625 4.65625 -5.4375 4.203125 -6.046875 C 3.84375 -6.53125 3.28125 -6.796875 2.640625 -6.796875 Z M 2.640625 -6.046875 C 3.546875 -6.046875 4 -5.125 4 -3.3125 C 4 -1.375 3.5625 -0.484375 2.625 -0.484375 C 1.734375 -0.484375 1.28125 -1.421875 1.28125 -3.28125 C 1.28125 -5.140625 1.734375 -6.046875 2.640625 -6.046875 Z M 2.640625 -6.046875 "/>
</symbol>
<symbol overflow="visible" id="glyph0-2">
<path style="stroke:none;" d="M 1.828125 -1 L 0.828125 -1 L 0.828125 0 L 1.828125 0 Z M 1.828125 -1 "/>
</symbol>
<symbol overflow="visible" id="glyph0-3">
<path style="stroke:none;" d="M 4.5625 -6.796875 L 1.0625 -6.796875 L 0.546875 -3.09375 L 1.328125 -3.09375 C 1.71875 -3.5625 2.046875 -3.734375 2.578125 -3.734375 C 3.484375 -3.734375 4.0625 -3.109375 4.0625 -2.09375 C 4.0625 -1.125 3.484375 -0.53125 2.578125 -0.53125 C 1.828125 -0.53125 1.375 -0.90625 1.1875 -1.671875 L 0.328125 -1.671875 C 0.453125 -1.109375 0.546875 -0.84375 0.75 -0.59375 C 1.125 -0.078125 1.828125 0.21875 2.59375 0.21875 C 3.96875 0.21875 4.921875 -0.78125 4.921875 -2.21875 C 4.921875 -3.5625 4.03125 -4.484375 2.71875 -4.484375 C 2.25 -4.484375 1.859375 -4.359375 1.46875 -4.0625 L 1.734375 -5.96875 L 4.5625 -5.96875 Z M 4.5625 -6.796875 "/>
</symbol>
<symbol overflow="visible" id="glyph0-4">
<path style="stroke:none;" d="M 2.484375 -4.84375 L 2.484375 0 L 3.328125 0 L 3.328125 -6.796875 L 2.765625 -6.796875 C 2.46875 -5.75 2.28125 -5.609375 0.984375 -5.453125 L 0.984375 -4.84375 Z M 2.484375 -4.84375 "/>
</symbol>
<symbol overflow="visible" id="glyph0-5">
<path style="stroke:none;" d="M 4.859375 -0.828125 L 1.28125 -0.828125 C 1.359375 -1.390625 1.671875 -1.75 2.5 -2.234375 L 3.46875 -2.75 C 4.40625 -3.265625 4.90625 -3.96875 4.90625 -4.8125 C 4.90625 -5.375 4.671875 -5.90625 4.265625 -6.265625 C 3.859375 -6.625 3.375 -6.796875 2.71875 -6.796875 C 1.859375 -6.796875 1.21875 -6.5 0.84375 -5.921875 C 0.609375 -5.5625 0.5 -5.125 0.484375 -4.4375 L 1.328125 -4.4375 C 1.359375 -4.90625 1.40625 -5.1875 1.53125 -5.40625 C 1.75 -5.8125 2.1875 -6.0625 2.703125 -6.0625 C 3.46875 -6.0625 4.03125 -5.515625 4.03125 -4.78125 C 4.03125 -4.25 3.71875 -3.796875 3.125 -3.4375 L 2.234375 -2.9375 C 0.8125 -2.140625 0.40625 -1.5 0.328125 0 L 4.859375 0 Z M 4.859375 -0.828125 "/>
</symbol>
<symbol overflow="visible" id="glyph0-6">
<path style="stroke:none;" d="M 2.125 -3.125 L 2.578125 -3.125 C 3.515625 -3.125 3.984375 -2.703125 3.984375 -1.890625 C 3.984375 -1.03125 3.46875 -0.53125 2.578125 -0.53125 C 1.65625 -0.53125 1.203125 -0.984375 1.15625 -1.96875 L 0.3125 -1.96875 C 0.34375 -1.421875 0.4375 -1.078125 0.609375 -0.765625 C 0.953125 -0.109375 1.625 0.21875 2.546875 0.21875 C 3.953125 0.21875 4.859375 -0.609375 4.859375 -1.90625 C 4.859375 -2.765625 4.515625 -3.25 3.703125 -3.515625 C 4.34375 -3.765625 4.65625 -4.25 4.65625 -4.9375 C 4.65625 -6.109375 3.875 -6.796875 2.578125 -6.796875 C 1.203125 -6.796875 0.484375 -6.046875 0.453125 -4.609375 L 1.296875 -4.609375 C 1.3125 -5.015625 1.34375 -5.25 1.453125 -5.453125 C 1.640625 -5.828125 2.0625 -6.0625 2.59375 -6.0625 C 3.34375 -6.0625 3.796875 -5.625 3.796875 -4.90625 C 3.796875 -4.421875 3.609375 -4.140625 3.25 -3.984375 C 3.015625 -3.890625 2.71875 -3.84375 2.125 -3.84375 Z M 2.125 -3.125 "/>
</symbol>
<symbol overflow="visible" id="glyph0-7">
<path style="stroke:none;" d="M 3.140625 -1.625 L 3.140625 0 L 3.984375 0 L 3.984375 -1.625 L 4.984375 -1.625 L 4.984375 -2.390625 L 3.984375 -2.390625 L 3.984375 -6.796875 L 3.359375 -6.796875 L 0.265625 -2.515625 L 0.265625 -1.625 Z M 3.140625 -2.390625 L 1 -2.390625 L 3.140625 -5.359375 Z M 3.140625 -2.390625 "/>
</symbol>
<symbol overflow="visible" id="glyph0-8">
<path style="stroke:none;" d="M 4.78125 -5.03125 C 4.609375 -6.140625 3.890625 -6.796875 2.84375 -6.796875 C 2.09375 -6.796875 1.421875 -6.4375 1.03125 -5.828125 C 0.609375 -5.171875 0.40625 -4.34375 0.40625 -3.09375 C 0.40625 -1.953125 0.578125 -1.234375 0.984375 -0.625 C 1.359375 -0.078125 1.953125 0.21875 2.703125 0.21875 C 3.984375 0.21875 4.921875 -0.734375 4.921875 -2.078125 C 4.921875 -3.34375 4.0625 -4.234375 2.84375 -4.234375 C 2.171875 -4.234375 1.640625 -3.96875 1.28125 -3.46875 C 1.28125 -5.125 1.828125 -6.046875 2.796875 -6.046875 C 3.390625 -6.046875 3.796875 -5.671875 3.9375 -5.03125 Z M 2.734375 -3.484375 C 3.546875 -3.484375 4.0625 -2.921875 4.0625 -2 C 4.0625 -1.15625 3.484375 -0.53125 2.703125 -0.53125 C 1.921875 -0.53125 1.328125 -1.1875 1.328125 -2.046875 C 1.328125 -2.890625 1.90625 -3.484375 2.734375 -3.484375 Z M 2.734375 -3.484375 "/>
</symbol>
<symbol overflow="visible" id="glyph0-9">
<path style="stroke:none;" d="M 4.984375 -6.796875 L 0.4375 -6.796875 L 0.4375 -5.96875 L 4.109375 -5.96875 C 2.5 -3.65625 1.828125 -2.234375 1.328125 0 L 2.21875 0 C 2.59375 -2.171875 3.453125 -4.046875 4.984375 -6.09375 Z M 4.984375 -6.796875 "/>
</symbol>
<symbol overflow="visible" id="glyph0-10">
<path style="stroke:none;" d="M 3.75 -3.578125 C 4.453125 -4 4.6875 -4.34375 4.6875 -4.984375 C 4.6875 -6.046875 3.84375 -6.796875 2.640625 -6.796875 C 1.4375 -6.796875 0.59375 -6.046875 0.59375 -4.984375 C 0.59375 -4.359375 0.828125 -4.015625 1.515625 -3.578125 C 0.734375 -3.203125 0.359375 -2.640625 0.359375 -1.890625 C 0.359375 -0.640625 1.296875 0.21875 2.640625 0.21875 C 3.984375 0.21875 4.921875 -0.640625 4.921875 -1.875 C 4.921875 -2.640625 4.53125 -3.203125 3.75 -3.578125 Z M 2.640625 -6.046875 C 3.359375 -6.046875 3.8125 -5.625 3.8125 -4.96875 C 3.8125 -4.34375 3.34375 -3.921875 2.640625 -3.921875 C 1.921875 -3.921875 1.453125 -4.34375 1.453125 -4.984375 C 1.453125 -5.625 1.921875 -6.046875 2.640625 -6.046875 Z M 2.640625 -3.203125 C 3.484375 -3.203125 4.0625 -2.671875 4.0625 -1.875 C 4.0625 -1.0625 3.484375 -0.53125 2.625 -0.53125 C 1.796875 -0.53125 1.21875 -1.078125 1.21875 -1.875 C 1.21875 -2.671875 1.796875 -3.203125 2.640625 -3.203125 Z M 2.640625 -3.203125 "/>
</symbol>
<symbol overflow="visible" id="glyph0-11">
<path style="stroke:none;" d="M 0.515625 -1.546875 C 0.671875 -0.4375 1.40625 0.21875 2.4375 0.21875 C 3.1875 0.21875 3.859375 -0.140625 4.265625 -0.75 C 4.6875 -1.40625 4.890625 -2.25 4.890625 -3.484375 C 4.890625 -4.625 4.703125 -5.359375 4.3125 -5.953125 C 3.9375 -6.5 3.34375 -6.796875 2.59375 -6.796875 C 1.296875 -6.796875 0.359375 -5.84375 0.359375 -4.515625 C 0.359375 -3.25 1.234375 -2.34375 2.453125 -2.34375 C 3.09375 -2.34375 3.5625 -2.578125 4.015625 -3.109375 C 4 -1.453125 3.46875 -0.53125 2.5 -0.53125 C 1.90625 -0.53125 1.484375 -0.90625 1.359375 -1.546875 Z M 2.578125 -6.0625 C 3.375 -6.0625 3.96875 -5.40625 3.96875 -4.53125 C 3.96875 -3.6875 3.375 -3.09375 2.546875 -3.09375 C 1.734375 -3.09375 1.234375 -3.671875 1.234375 -4.578125 C 1.234375 -5.4375 1.796875 -6.0625 2.578125 -6.0625 Z M 2.578125 -6.0625 "/>
</symbol>
<symbol overflow="visible" id="glyph1-0">
<path style="stroke:none;" d=""/>
</symbol>
<symbol overflow="visible" id="glyph1-1">
<path style="stroke:none;" d="M 0 -0.953125 L 0 -4.890625 C 0 -5.71875 -0.234375 -6.34375 -0.734375 -6.796875 C -1.1875 -7.234375 -1.8125 -7.46875 -2.5 -7.46875 C -3.546875 -7.46875 -4.1875 -7 -4.625 -5.875 C -4.984375 -6.671875 -5.640625 -7.09375 -6.53125 -7.09375 C -7.15625 -7.09375 -7.734375 -6.859375 -8.140625 -6.390625 C -8.5625 -5.9375 -8.75 -5.34375 -8.75 -4.5 L -8.75 -0.953125 Z M -4.984375 -2.0625 L -7.765625 -2.0625 L -7.765625 -4.21875 C -7.765625 -4.84375 -7.6875 -5.203125 -7.453125 -5.5 C -7.21875 -5.8125 -6.859375 -5.96875 -6.375 -5.96875 C -5.90625 -5.96875 -5.53125 -5.8125 -5.296875 -5.5 C -5.0625 -5.203125 -4.984375 -4.84375 -4.984375 -4.21875 Z M -0.984375 -2.0625 L -4 -2.0625 L -4 -4.78125 C -4 -5.328125 -3.859375 -5.6875 -3.578125 -5.953125 C -3.296875 -6.21875 -2.921875 -6.359375 -2.484375 -6.359375 C -2.0625 -6.359375 -1.6875 -6.21875 -1.40625 -5.953125 C -1.109375 -5.6875 -0.984375 -5.328125 -0.984375 -4.78125 Z M -0.984375 -2.0625 "/>
</symbol>
<symbol overflow="visible" id="glyph1-2">
<path style="stroke:none;" d="M -6.28125 -1.796875 L -6.28125 -0.796875 L 0 -0.796875 L 0 -1.796875 Z M -8.75 -1.796875 L -8.75 -0.796875 L -7.484375 -0.796875 L -7.484375 -1.796875 Z M -8.75 -1.796875 "/>
</symbol>
<symbol overflow="visible" id="glyph1-3">
<path style="stroke:none;" d="M -6.28125 -3.046875 L -6.28125 -2.015625 L -8.015625 -2.015625 L -8.015625 -1.015625 L -6.28125 -1.015625 L -6.28125 -0.171875 L -5.46875 -0.171875 L -5.46875 -1.015625 L -0.71875 -1.015625 C -0.078125 -1.015625 0.28125 -1.453125 0.28125 -2.234375 C 0.28125 -2.46875 0.25 -2.71875 0.1875 -3.046875 L -0.640625 -3.046875 C -0.609375 -2.921875 -0.59375 -2.765625 -0.59375 -2.5625 C -0.59375 -2.140625 -0.71875 -2.015625 -1.15625 -2.015625 L -5.46875 -2.015625 L -5.46875 -3.046875 Z M -6.28125 -3.046875 "/>
</symbol>
<symbol overflow="visible" id="glyph1-4">
<path style="stroke:none;" d="M -4.53125 -5.25 C -5.765625 -5.25 -6.46875 -4.421875 -6.46875 -2.96875 C -6.46875 -1.515625 -5.71875 -0.5625 -4.546875 -0.5625 C -3.5625 -0.5625 -3.09375 -1.0625 -2.734375 -2.5625 L -2.515625 -3.484375 C -2.34375 -4.1875 -2.09375 -4.46875 -1.625 -4.46875 C -1.046875 -4.46875 -0.640625 -3.875 -0.640625 -3 C -0.640625 -2.453125 -0.796875 -2 -1.0625 -1.75 C -1.25 -1.59375 -1.421875 -1.53125 -1.875 -1.46875 L -1.875 -0.40625 C -0.421875 -0.453125 0.28125 -1.265625 0.28125 -2.921875 C 0.28125 -4.5 -0.5 -5.515625 -1.71875 -5.515625 C -2.65625 -5.515625 -3.171875 -4.984375 -3.46875 -3.734375 L -3.703125 -2.765625 C -3.890625 -1.953125 -4.15625 -1.609375 -4.59375 -1.609375 C -5.171875 -1.609375 -5.546875 -2.125 -5.546875 -2.9375 C -5.546875 -3.75 -5.203125 -4.171875 -4.53125 -4.203125 Z M -4.53125 -5.25 "/>
</symbol>
</g>
</defs>
<g id="surface87329">
<rect x="0" y="0" width="720" height="360" style="fill:rgb(100%,100%,100%);fill-opacity:1;stroke:none;"/>
<path style=" stroke:none;fill-rule:nonzero;fill:rgb(6.27451%,58.823529%,28.235294%);fill-opacity:1;" d="M 69.628906 299.398438 L 69.667969 299.382812 L 85.484375 284.972656 L 90.289062 284.972656 L 106.183594 299.410156 L 100.597656 299.410156 L 96.613281 295.640625 L 79.15625 295.640625 L 75.253906 299.398438 L 69.628906 299.398438 L 80.835938 294.082031 L 95.011719 294.070312 L 87.945312 287.332031 L 87.867188 287.316406 L 87.789062 287.359375 L 80.796875 294.070312 L 80.835938 294.082031 Z M 69.628906 299.398438 "/>
<path style=" stroke:none;fill-rule:nonzero;fill:rgb(14.509804%,36.078431%,60%);fill-opacity:1;" d="M 69.628906 304.046875 L 69.675781 304.039062 L 69.675781 303.863281 L 69.808594 303.589844 L 70.121094 303.238281 L 70.433594 303 L 71.234375 302.570312 L 72.347656 302.15625 L 73.507812 301.839844 L 74.355469 301.648438 L 75.113281 301.503906 L 76.851562 301.234375 L 77.964844 301.097656 L 79.167969 300.972656 L 80.640625 300.851562 L 81.710938 300.777344 L 84.117188 300.664062 L 85.898438 300.613281 L 87.28125 300.589844 L 90.269531 300.589844 L 92.050781 300.617188 L 93.34375 300.65625 L 94.769531 300.714844 L 95.972656 300.777344 L 98.070312 300.9375 L 99.941406 301.140625 L 100.789062 301.257812 L 102.125 301.484375 L 103.152344 301.699219 L 103.863281 301.890625 L 104.667969 302.15625 L 105.378906 302.484375 L 105.914062 302.855469 L 106.183594 303.167969 L 99.941406 303.167969 L 99.628906 302.875 L 99.273438 302.652344 L 98.605469 302.355469 L 97.9375 302.144531 L 97 301.933594 L 96.152344 301.792969 L 94.992188 301.65625 L 93.96875 301.570312 L 92.898438 301.503906 L 91.875 301.460938 L 89.910156 301.417969 L 87.636719 301.417969 L 86.792969 301.433594 L 85.054688 301.488281 L 84.117188 301.539062 L 82.78125 301.640625 L 81.84375 301.738281 L 80.730469 301.882812 L 79.972656 302.003906 L 79.035156 302.195312 L 78.367188 302.359375 L 77.609375 302.601562 L 77.164062 302.78125 L 76.761719 302.984375 L 76.40625 303.226562 L 76.136719 303.480469 L 75.960938 303.746094 L 75.871094 304.007812 L 75.871094 305.132812 L 75.960938 305.394531 L 76.183594 305.699219 L 76.761719 306.144531 L 77.609375 306.527344 L 78.589844 306.832031 L 79.527344 307.050781 L 80.058594 307.152344 L 80.773438 307.269531 L 81.886719 307.414062 L 83.492188 307.558594 L 84.429688 307.617188 L 85.855469 307.675781 L 87.328125 307.703125 L 89.289062 307.703125 L 91.027344 307.675781 L 92.183594 307.640625 L 93.390625 307.582031 L 95.039062 307.457031 L 96.0625 307.339844 L 96.953125 307.203125 L 97.625 307.066406 L 98.070312 306.949219 L 98.738281 306.722656 L 99.273438 306.476562 L 99.675781 306.222656 L 99.941406 305.976562 L 106.183594 305.976562 L 105.914062 306.265625 L 105.515625 306.550781 L 105.113281 306.761719 L 104.488281 307.015625 L 103.773438 307.238281 L 102.75 307.496094 L 101.902344 307.660156 L 100.789062 307.84375 L 99.761719 307.980469 L 98.648438 308.105469 L 97 308.25 L 95.929688 308.320312 L 94.769531 308.386719 L 93.390625 308.445312 L 91.648438 308.496094 L 89.777344 308.523438 L 88.039062 308.53125 L 86.167969 308.519531 L 84.785156 308.488281 L 82.957031 308.421875 L 80.683594 308.292969 L 79.035156 308.15625 L 77.742188 308.015625 L 76.628906 307.871094 L 75.378906 307.675781 L 73.773438 307.355469 L 72.792969 307.109375 L 72.125 306.90625 L 71.367188 306.621094 L 70.832031 306.367188 L 70.207031 305.960938 L 69.761719 305.445312 L 69.628906 305.046875 Z M 69.628906 304.046875 "/>
<path style=" stroke:none;fill-rule:nonzero;fill:rgb(96.862745%,70.196078%,16.862745%);fill-opacity:1;" d="M 69.628906 311.707031 L 69.675781 311.703125 L 69.675781 311.617188 L 69.851562 311.425781 L 70.296875 311.164062 L 70.878906 310.945312 L 71.5 310.777344 L 71.902344 310.6875 L 72.570312 310.558594 L 73.152344 310.464844 L 74.621094 310.273438 L 76.496094 310.09375 L 77.519531 310.019531 L 78.679688 309.945312 L 80.328125 309.863281 L 81.085938 309.835938 L 83.402344 309.765625 L 86.035156 309.726562 L 88.929688 309.710938 L 90.269531 309.714844 L 92.097656 309.734375 L 94.59375 309.78125 L 96.019531 309.824219 L 97.132812 309.863281 L 98.292969 309.921875 L 99.71875 310.003906 L 101.054688 310.109375 L 102.125 310.210938 L 103.195312 310.335938 L 104.085938 310.472656 L 104.84375 310.621094 L 105.515625 310.800781 L 105.914062 310.949219 L 106.183594 311.097656 L 99.984375 311.097656 L 99.628906 310.949219 L 99.226562 310.835938 L 98.558594 310.695312 L 97.890625 310.59375 L 97.222656 310.511719 L 95.972656 310.402344 L 94.90625 310.332031 L 93.566406 310.273438 L 92.273438 310.234375 L 90.804688 310.210938 L 89.910156 310.203125 L 87.550781 310.203125 L 85.410156 310.230469 L 84.160156 310.265625 L 83.269531 310.300781 L 82.023438 310.363281 L 81.265625 310.414062 L 80.816406 310.449219 L 79.480469 310.578125 L 78.589844 310.699219 L 78.097656 310.78125 L 77.476562 310.90625 L 77.027344 311.023438 L 76.539062 311.191406 L 76.269531 311.320312 L 75.914062 311.609375 L 75.871094 312.375 L 76.003906 312.535156 L 76.269531 312.710938 L 76.628906 312.863281 L 77.164062 313.027344 L 77.699219 313.148438 L 78.632812 313.316406 L 79.4375 313.425781 L 80.058594 313.5 L 81.265625 313.613281 L 81.753906 313.652344 L 82.914062 313.726562 L 84.117188 313.789062 L 85.589844 313.839844 L 86.703125 313.863281 L 88.484375 313.886719 L 90.757812 313.886719 L 93.433594 313.859375 L 95.128906 313.824219 L 96.285156 313.792969 L 97.042969 313.761719 L 97.980469 313.714844 L 98.648438 313.671875 L 99.273438 313.625 L 100.03125 313.554688 L 100.03125 312.535156 L 89.019531 312.53125 L 89.019531 312.054688 L 106.136719 312.050781 L 106.183594 313.714844 L 105.246094 313.832031 L 104.085938 313.941406 L 102.972656 314.027344 L 101.8125 314.097656 L 100.164062 314.179688 L 98.828125 314.230469 L 96.777344 314.289062 L 94.90625 314.328125 L 92.941406 314.355469 L 91.203125 314.367188 L 89.152344 314.371094 L 87.328125 314.363281 L 85.363281 314.335938 L 83.804688 314.300781 L 82.378906 314.261719 L 80.953125 314.203125 L 79.167969 314.117188 L 78.011719 314.042969 L 76.804688 313.953125 L 75.601562 313.847656 L 74.53125 313.734375 L 73.820312 313.644531 L 73.105469 313.542969 L 72.347656 313.414062 L 71.636719 313.269531 L 71.101562 313.136719 L 70.609375 312.988281 L 70.253906 312.847656 L 69.898438 312.65625 L 69.71875 312.503906 L 69.628906 312.371094 Z M 69.628906 311.707031 "/>
<path style=" stroke:none;fill-rule:nonzero;fill:rgb(83.921569%,15.686275%,22.352941%);fill-opacity:1;" d="M 69.628906 202.578125 L 106.183594 202.578125 L 106.183594 211.273438 L 90.949219 211.347656 L 90.949219 283.792969 L 84.820312 283.792969 L 84.820312 211.425781 L 84.730469 211.273438 L 69.628906 211.273438 Z M 69.628906 202.578125 "/>
<path style=" stroke:none;fill-rule:nonzero;fill:rgb(6.27451%,58.823529%,28.235294%);fill-opacity:1;" d="M 108.105469 314.367188 L 108.144531 314.367188 L 123.960938 311.558594 L 128.765625 311.558594 L 144.660156 314.371094 L 139.074219 314.371094 L 135.089844 313.636719 L 117.636719 313.636719 L 113.730469 314.367188 L 108.105469 314.367188 L 119.3125 313.332031 L 133.492188 313.328125 L 126.421875 312.015625 L 126.34375 312.015625 L 126.265625 312.023438 L 119.273438 313.328125 L 119.3125 313.332031 Z M 108.105469 314.367188 "/>
<path style=" stroke:none;fill-rule:nonzero;fill:rgb(14.509804%,36.078431%,60%);fill-opacity:1;" d="M 108.105469 306.472656 L 108.152344 306.46875 L 108.152344 306.316406 L 108.285156 306.074219 L 108.597656 305.773438 L 108.910156 305.5625 L 109.710938 305.191406 L 110.824219 304.832031 L 111.984375 304.554688 L 112.832031 304.390625 L 113.589844 304.261719 L 115.328125 304.027344 L 116.441406 303.910156 L 117.644531 303.800781 L 119.117188 303.695312 L 120.1875 303.632812 L 122.59375 303.53125 L 124.375 303.484375 L 125.757812 303.46875 L 128.746094 303.46875 L 130.527344 303.492188 L 131.820312 303.523438 L 133.246094 303.574219 L 134.453125 303.632812 L 136.546875 303.769531 L 138.417969 303.945312 L 139.265625 304.046875 L 140.601562 304.242188 L 141.628906 304.433594 L 142.339844 304.597656 L 143.144531 304.832031 L 143.855469 305.117188 L 144.390625 305.4375 L 144.660156 305.710938 L 138.417969 305.710938 L 138.105469 305.457031 L 137.75 305.261719 L 137.082031 305.003906 L 136.414062 304.820312 L 135.476562 304.636719 L 134.628906 304.515625 L 133.46875 304.394531 L 132.445312 304.320312 L 131.375 304.261719 L 130.351562 304.226562 L 128.390625 304.1875 L 126.117188 304.1875 L 125.269531 304.199219 L 123.53125 304.25 L 122.59375 304.292969 L 121.257812 304.382812 L 120.320312 304.464844 L 119.207031 304.589844 L 118.449219 304.699219 L 117.511719 304.863281 L 116.84375 305.007812 L 116.085938 305.21875 L 115.640625 305.375 L 115.238281 305.550781 L 114.882812 305.761719 L 114.613281 305.980469 L 114.4375 306.214844 L 114.347656 306.441406 L 114.347656 307.421875 L 114.4375 307.648438 L 114.660156 307.914062 L 115.238281 308.300781 L 116.085938 308.632812 L 117.066406 308.898438 L 118.003906 309.089844 L 118.539062 309.179688 L 119.25 309.277344 L 120.363281 309.40625 L 121.96875 309.53125 L 122.90625 309.582031 L 124.332031 309.632812 L 125.804688 309.65625 L 127.765625 309.65625 L 129.503906 309.632812 L 130.664062 309.601562 L 131.867188 309.550781 L 133.515625 309.441406 L 134.539062 309.34375 L 135.433594 309.222656 L 136.101562 309.101562 L 136.546875 309 L 137.214844 308.804688 L 137.75 308.589844 L 138.152344 308.371094 L 138.417969 308.15625 L 144.660156 308.15625 L 144.390625 308.40625 L 143.992188 308.652344 L 143.589844 308.835938 L 142.964844 309.058594 L 142.253906 309.253906 L 141.226562 309.476562 L 140.378906 309.621094 L 139.265625 309.777344 L 138.242188 309.898438 L 137.125 310.003906 L 135.476562 310.132812 L 134.40625 310.195312 L 133.246094 310.253906 L 131.867188 310.300781 L 130.128906 310.347656 L 128.253906 310.371094 L 126.515625 310.378906 L 124.644531 310.367188 L 123.261719 310.339844 L 121.433594 310.285156 L 119.160156 310.167969 L 117.511719 310.050781 L 116.21875 309.929688 L 115.105469 309.804688 L 113.855469 309.632812 L 112.253906 309.355469 L 111.269531 309.140625 L 110.601562 308.964844 L 109.84375 308.71875 L 109.308594 308.496094 L 108.6875 308.140625 L 108.238281 307.691406 L 108.105469 307.347656 Z M 108.105469 306.472656 "/>
<path style=" stroke:none;fill-rule:nonzero;fill:rgb(96.862745%,70.196078%,16.862745%);fill-opacity:1;" d="M 108.105469 248.347656 L 108.152344 248.292969 L 108.152344 247.199219 L 108.328125 244.746094 L 108.773438 241.367188 L 109.355469 238.585938 L 109.980469 236.402344 L 110.378906 235.257812 L 111.046875 233.621094 L 111.628906 232.421875 L 113.097656 229.96875 L 114.972656 227.675781 L 115.996094 226.695312 L 117.15625 225.769531 L 118.804688 224.730469 L 119.5625 224.351562 L 121.878906 223.476562 L 124.511719 222.933594 L 127.40625 222.769531 L 128.746094 222.824219 L 130.574219 223.042969 L 133.070312 223.640625 L 134.496094 224.1875 L 135.609375 224.730469 L 136.769531 225.441406 L 138.195312 226.53125 L 139.53125 227.839844 L 140.601562 229.148438 L 141.671875 230.785156 L 142.5625 232.53125 L 143.320312 234.441406 L 143.992188 236.730469 L 144.390625 238.640625 L 144.660156 240.546875 L 138.464844 240.546875 L 138.105469 238.640625 L 137.707031 237.167969 L 137.035156 235.367188 L 136.367188 234.058594 L 135.699219 233.023438 L 134.453125 231.605469 L 133.382812 230.730469 L 132.042969 229.96875 L 130.75 229.476562 L 129.28125 229.148438 L 128.390625 229.039062 L 126.027344 229.039062 L 123.886719 229.421875 L 122.636719 229.859375 L 121.746094 230.296875 L 120.5 231.113281 L 119.742188 231.765625 L 119.296875 232.203125 L 117.957031 233.894531 L 117.066406 235.421875 L 116.574219 236.457031 L 115.953125 238.09375 L 115.507812 239.566406 L 115.015625 241.746094 L 114.75 243.382812 L 114.390625 247.09375 L 114.347656 256.910156 L 114.480469 258.980469 L 114.75 261.214844 L 115.105469 263.179688 L 115.640625 265.253906 L 116.175781 266.832031 L 117.109375 268.960938 L 117.914062 270.378906 L 118.539062 271.304688 L 119.742188 272.777344 L 120.230469 273.269531 L 121.390625 274.25 L 122.59375 275.015625 L 124.066406 275.667969 L 125.179688 275.996094 L 126.960938 276.269531 L 129.234375 276.269531 L 131.910156 275.941406 L 133.605469 275.503906 L 134.761719 275.070312 L 135.519531 274.6875 L 136.457031 274.085938 L 137.125 273.542969 L 137.75 272.941406 L 138.507812 272.015625 L 138.507812 258.980469 L 127.496094 258.925781 L 127.496094 252.816406 L 144.613281 252.761719 L 144.660156 274.085938 L 143.722656 275.558594 L 142.5625 276.976562 L 141.449219 278.066406 L 140.289062 278.996094 L 138.640625 280.03125 L 137.304688 280.6875 L 135.253906 281.449219 L 133.382812 281.941406 L 131.421875 282.265625 L 129.679688 282.429688 L 127.632812 282.484375 L 125.804688 282.375 L 123.84375 282.050781 L 122.28125 281.613281 L 120.855469 281.066406 L 119.429688 280.359375 L 117.644531 279.214844 L 116.488281 278.285156 L 115.285156 277.140625 L 114.078125 275.777344 L 113.011719 274.304688 L 112.296875 273.160156 L 111.582031 271.851562 L 110.824219 270.214844 L 110.113281 268.359375 L 109.578125 266.671875 L 109.085938 264.761719 L 108.730469 262.960938 L 108.375 260.507812 L 108.195312 258.542969 L 108.105469 256.855469 Z M 108.105469 248.347656 "/>
<path style=" stroke:none;fill-rule:nonzero;fill:rgb(83.921569%,15.686275%,22.352941%);fill-opacity:1;" d="M 108.105469 283.664062 L 144.660156 283.664062 L 144.660156 285.660156 L 129.425781 285.675781 L 129.425781 302.289062 L 123.296875 302.289062 L 123.296875 285.695312 L 123.207031 285.660156 L 108.105469 285.660156 Z M 108.105469 283.664062 "/>
<path style=" stroke:none;fill-rule:nonzero;fill:rgb(6.27451%,58.823529%,28.235294%);fill-opacity:1;" d="M 146.582031 289.785156 L 146.621094 289.769531 L 162.4375 274.269531 L 167.242188 274.269531 L 183.136719 289.800781 L 177.550781 289.800781 L 173.570312 285.746094 L 156.113281 285.746094 L 152.207031 289.785156 L 146.582031 289.785156 L 157.792969 284.070312 L 171.96875 284.054688 L 164.898438 276.808594 L 164.820312 276.792969 L 164.742188 276.835938 L 157.753906 284.054688 L 157.792969 284.070312 Z M 146.582031 289.785156 "/>
<path style=" stroke:none;fill-rule:nonzero;fill:rgb(14.509804%,36.078431%,60%);fill-opacity:1;" d="M 146.582031 297.550781 L 146.628906 297.539062 L 146.628906 297.207031 L 146.761719 296.679688 L 147.074219 296.019531 L 147.386719 295.5625 L 148.1875 294.75 L 149.300781 293.960938 L 150.460938 293.355469 L 151.308594 292.996094 L 152.066406 292.71875 L 153.804688 292.207031 L 154.917969 291.945312 L 156.121094 291.710938 L 157.59375 291.476562 L 158.664062 291.339844 L 161.070312 291.117188 L 162.855469 291.019531 L 164.234375 290.980469 L 167.222656 290.980469 L 169.003906 291.035156 L 170.296875 291.105469 L 171.726562 291.214844 L 172.929688 291.339844 L 175.023438 291.640625 L 176.894531 292.027344 L 177.742188 292.25 L 179.078125 292.679688 L 180.105469 293.09375 L 180.820312 293.449219 L 181.621094 293.960938 L 182.335938 294.582031 L 182.867188 295.285156 L 183.136719 295.878906 L 176.894531 295.878906 L 176.582031 295.328125 L 176.226562 294.902344 L 175.558594 294.335938 L 174.890625 293.933594 L 173.953125 293.535156 L 173.105469 293.269531 L 171.949219 293.007812 L 170.921875 292.84375 L 169.851562 292.71875 L 168.828125 292.636719 L 166.867188 292.554688 L 164.59375 292.554688 L 163.746094 292.582031 L 162.007812 292.691406 L 161.070312 292.789062 L 159.734375 292.980469 L 158.796875 293.160156 L 157.683594 293.4375 L 156.925781 293.671875 L 155.988281 294.03125 L 155.320312 294.347656 L 154.5625 294.804688 L 154.117188 295.148438 L 153.714844 295.535156 L 153.359375 295.992188 L 153.089844 296.472656 L 152.914062 296.984375 L 152.824219 297.480469 L 152.824219 299.621094 L 152.914062 300.117188 L 153.136719 300.699219 L 153.714844 301.539062 L 154.5625 302.273438 L 155.542969 302.851562 L 156.480469 303.265625 L 157.015625 303.460938 L 157.726562 303.679688 L 158.84375 303.957031 L 160.445312 304.234375 L 161.382812 304.34375 L 162.808594 304.453125 L 164.28125 304.507812 L 166.242188 304.507812 L 167.980469 304.453125 L 169.140625 304.382812 L 170.34375 304.273438 L 171.992188 304.039062 L 173.015625 303.820312 L 173.910156 303.554688 L 174.578125 303.292969 L 175.023438 303.074219 L 175.691406 302.644531 L 176.226562 302.175781 L 176.628906 301.691406 L 176.894531 301.222656 L 183.136719 301.222656 L 182.867188 301.777344 L 182.46875 302.3125 L 182.066406 302.714844 L 181.441406 303.199219 L 180.730469 303.625 L 179.703125 304.109375 L 178.855469 304.425781 L 177.742188 304.769531 L 176.71875 305.035156 L 175.601562 305.269531 L 173.953125 305.542969 L 172.882812 305.683594 L 171.726562 305.808594 L 170.34375 305.917969 L 168.605469 306.015625 L 166.730469 306.070312 L 164.992188 306.082031 L 163.121094 306.054688 L 161.738281 306 L 159.910156 305.875 L 157.636719 305.628906 L 155.988281 305.363281 L 154.695312 305.101562 L 153.582031 304.828125 L 152.332031 304.453125 L 150.730469 303.847656 L 149.75 303.375 L 149.078125 302.992188 L 148.320312 302.453125 L 147.785156 301.96875 L 147.164062 301.195312 L 146.71875 300.214844 L 146.582031 299.457031 Z M 146.582031 297.550781 "/>
<path style=" stroke:none;fill-rule:nonzero;fill:rgb(96.862745%,70.196078%,16.862745%);fill-opacity:1;" d="M 146.582031 312.851562 L 146.628906 312.847656 L 146.628906 312.800781 L 146.804688 312.691406 L 147.25 312.539062 L 147.832031 312.417969 L 148.457031 312.320312 L 148.855469 312.269531 L 149.523438 312.195312 L 150.105469 312.140625 L 151.574219 312.03125 L 153.449219 311.929688 L 154.472656 311.886719 L 155.632812 311.847656 L 157.28125 311.800781 L 158.039062 311.78125 L 160.359375 311.746094 L 162.988281 311.71875 L 165.886719 311.710938 L 167.222656 311.714844 L 169.050781 311.726562 L 171.546875 311.75 L 172.972656 311.777344 L 174.085938 311.800781 L 175.246094 311.832031 L 176.671875 311.878906 L 178.011719 311.9375 L 179.078125 311.996094 L 180.148438 312.070312 L 181.042969 312.148438 L 181.800781 312.230469 L 182.46875 312.335938 L 182.867188 312.417969 L 183.136719 312.503906 L 176.941406 312.503906 L 176.582031 312.417969 L 176.183594 312.355469 L 175.515625 312.273438 L 174.84375 312.214844 L 174.175781 312.167969 L 172.929688 312.105469 L 171.859375 312.066406 L 170.519531 312.03125 L 169.226562 312.011719 L 167.757812 311.996094 L 166.867188 311.992188 L 164.503906 311.992188 L 162.363281 312.007812 L 161.117188 312.027344 L 160.222656 312.046875 L 158.976562 312.085938 L 158.21875 312.113281 L 157.773438 312.132812 L 156.433594 312.207031 L 155.542969 312.277344 L 155.054688 312.320312 L 154.429688 312.394531 L 153.984375 312.460938 L 153.492188 312.558594 L 153.226562 312.628906 L 152.867188 312.796875 L 152.824219 313.230469 L 152.957031 313.324219 L 153.226562 313.425781 L 153.582031 313.511719 L 154.117188 313.605469 L 154.652344 313.675781 L 155.585938 313.769531 L 156.390625 313.832031 L 157.015625 313.875 L 158.21875 313.9375 L 158.707031 313.960938 L 159.867188 314.003906 L 161.070312 314.039062 L 162.542969 314.066406 L 163.65625 314.082031 L 165.4375 314.09375 L 167.710938 314.09375 L 170.386719 314.078125 L 172.082031 314.058594 L 173.242188 314.039062 L 174 314.023438 L 174.933594 313.996094 L 175.601562 313.972656 L 176.226562 313.945312 L 176.984375 313.90625 L 176.984375 313.324219 L 165.972656 313.320312 L 165.972656 313.050781 L 183.09375 313.046875 L 183.136719 313.996094 L 182.199219 314.0625 L 181.042969 314.125 L 179.925781 314.175781 L 178.769531 314.214844 L 177.117188 314.261719 L 175.78125 314.289062 L 173.730469 314.324219 L 171.859375 314.347656 L 169.898438 314.359375 L 168.160156 314.367188 L 166.109375 314.371094 L 164.28125 314.367188 L 162.320312 314.351562 L 160.757812 314.332031 L 159.332031 314.308594 L 157.90625 314.277344 L 156.121094 314.226562 L 154.964844 314.183594 L 153.761719 314.132812 L 152.554688 314.070312 L 151.488281 314.007812 L 150.773438 313.957031 L 150.058594 313.898438 L 149.300781 313.824219 L 148.589844 313.742188 L 148.054688 313.667969 L 147.5625 313.582031 L 147.207031 313.5 L 146.851562 313.390625 L 146.671875 313.304688 L 146.582031 313.230469 Z M 146.582031 312.851562 "/>
<path style=" stroke:none;fill-rule:nonzero;fill:rgb(83.921569%,15.686275%,22.352941%);fill-opacity:1;" d="M 146.582031 307.261719 L 183.136719 307.261719 L 183.136719 307.613281 L 167.902344 307.617188 L 167.902344 310.53125 L 161.773438 310.53125 L 161.773438 307.617188 L 161.683594 307.613281 L 146.582031 307.613281 Z M 146.582031 307.261719 "/>
<path style=" stroke:none;fill-rule:nonzero;fill:rgb(14.509804%,36.078431%,60%);fill-opacity:1;" d="M 185.058594 151.753906 L 185.105469 151.496094 L 185.105469 145.273438 L 185.238281 135.421875 L 185.550781 122.980469 L 185.863281 114.425781 L 186.664062 99.132812 L 187.78125 84.355469 L 188.9375 72.949219 L 189.785156 66.207031 L 190.542969 61.023438 L 192.28125 51.433594 L 193.394531 46.507812 L 194.601562 42.101562 L 196.070312 37.695312 L 197.140625 35.101562 L 199.546875 30.953125 L 201.332031 29.140625 L 202.710938 28.359375 L 205.699219 28.359375 L 207.484375 29.398438 L 208.773438 30.695312 L 210.203125 32.769531 L 211.40625 35.101562 L 213.5 40.804688 L 215.371094 48.0625 L 216.21875 52.210938 L 217.558594 60.246094 L 218.582031 68.023438 L 219.296875 74.761719 L 220.097656 84.355469 L 220.8125 96.019531 L 221.347656 109.242188 L 221.613281 120.386719 L 215.371094 120.386719 L 215.0625 110.019531 L 214.703125 101.984375 L 214.035156 91.355469 L 213.367188 83.835938 L 212.429688 76.320312 L 211.582031 71.394531 L 210.425781 66.46875 L 209.398438 63.355469 L 208.328125 61.023438 L 207.304688 59.46875 L 205.34375 57.914062 L 203.070312 57.914062 L 202.222656 58.433594 L 200.484375 60.503906 L 199.546875 62.320312 L 198.210938 65.949219 L 197.273438 69.320312 L 196.160156 74.503906 L 195.402344 78.910156 L 194.464844 85.652344 L 193.796875 91.613281 L 193.039062 100.167969 L 192.59375 106.648438 L 192.191406 113.90625 L 191.835938 122.460938 L 191.570312 131.535156 L 191.390625 141.125 L 191.300781 150.457031 L 191.300781 190.640625 L 191.390625 199.972656 L 191.613281 210.859375 L 192.191406 226.671875 L 193.039062 240.410156 L 194.019531 251.300781 L 194.957031 259.074219 L 195.492188 262.703125 L 196.203125 266.851562 L 197.320312 272.039062 L 198.921875 277.222656 L 199.859375 279.296875 L 201.285156 281.371094 L 202.757812 282.40625 L 204.71875 282.40625 L 206.457031 281.371094 L 207.617188 280.074219 L 208.820312 278 L 210.46875 273.59375 L 211.496094 269.445312 L 212.386719 264.519531 L 213.054688 259.59375 L 213.5 255.445312 L 214.167969 247.410156 L 214.703125 238.597656 L 215.105469 229.523438 L 215.371094 220.710938 L 221.613281 220.710938 L 221.347656 231.078125 L 220.945312 241.1875 L 220.542969 248.707031 L 219.917969 257.78125 L 219.207031 265.816406 L 218.179688 274.890625 L 217.335938 280.851562 L 216.21875 287.332031 L 215.195312 292.257812 L 214.078125 296.664062 L 212.429688 301.847656 L 211.359375 304.441406 L 210.203125 306.773438 L 208.820312 308.847656 L 207.082031 310.664062 L 205.210938 311.699219 L 203.46875 311.957031 L 201.597656 311.441406 L 200.214844 310.402344 L 198.390625 308.070312 L 196.117188 303.402344 L 194.464844 298.480469 L 193.171875 293.554688 L 192.058594 288.367188 L 190.8125 281.371094 L 189.207031 269.964844 L 188.226562 261.148438 L 187.554688 253.890625 L 186.796875 243.78125 L 186.265625 234.707031 L 185.640625 220.191406 L 185.195312 201.785156 L 185.058594 187.527344 Z M 185.058594 151.753906 "/>
<path style=" stroke:none;fill-rule:nonzero;fill:rgb(96.862745%,70.196078%,16.862745%);fill-opacity:1;" d="M 185.058594 313.667969 L 185.105469 313.664062 L 185.105469 313.640625 L 185.28125 313.589844 L 185.730469 313.523438 L 186.308594 313.464844 L 186.933594 313.417969 L 187.332031 313.394531 L 188.003906 313.363281 L 188.582031 313.335938 L 190.054688 313.285156 L 191.925781 313.238281 L 192.949219 313.21875 L 194.109375 313.199219 L 195.757812 313.179688 L 196.515625 313.171875 L 198.835938 313.152344 L 201.464844 313.140625 L 204.363281 313.136719 L 205.699219 313.140625 L 207.527344 313.144531 L 210.023438 313.15625 L 211.449219 313.167969 L 212.5625 313.179688 L 213.722656 313.191406 L 215.148438 313.214844 L 216.488281 313.242188 L 217.558594 313.269531 L 218.625 313.304688 L 219.519531 313.339844 L 220.277344 313.378906 L 220.945312 313.425781 L 221.347656 313.464844 L 221.613281 313.503906 L 215.417969 313.503906 L 215.0625 313.464844 L 214.660156 313.433594 L 213.992188 313.398438 L 213.320312 313.371094 L 212.652344 313.351562 L 211.40625 313.320312 L 210.335938 313.300781 L 209 313.285156 L 207.707031 313.277344 L 206.234375 313.269531 L 202.980469 313.269531 L 200.839844 313.277344 L 199.59375 313.285156 L 198.699219 313.292969 L 197.453125 313.308594 L 196.695312 313.324219 L 196.25 313.332031 L 194.910156 313.367188 L 194.019531 313.398438 L 193.53125 313.421875 L 192.90625 313.453125 L 192.460938 313.484375 L 191.96875 313.53125 L 191.703125 313.5625 L 191.34375 313.640625 L 191.300781 313.84375 L 191.433594 313.886719 L 191.703125 313.933594 L 192.058594 313.972656 L 192.59375 314.015625 L 193.128906 314.046875 L 194.066406 314.089844 L 194.867188 314.121094 L 195.492188 314.140625 L 196.695312 314.171875 L 197.183594 314.179688 L 198.34375 314.199219 L 199.546875 314.214844 L 201.019531 314.230469 L 202.132812 314.238281 L 203.917969 314.242188 L 206.191406 314.242188 L 208.863281 314.234375 L 210.558594 314.226562 L 211.71875 314.21875 L 212.476562 314.210938 L 213.410156 314.199219 L 214.078125 314.1875 L 214.703125 314.171875 L 215.460938 314.15625 L 215.460938 313.886719 L 204.453125 313.882812 L 204.453125 313.757812 L 221.570312 313.757812 L 221.613281 314.199219 L 220.675781 314.226562 L 219.519531 314.257812 L 218.402344 314.28125 L 217.246094 314.296875 L 215.59375 314.320312 L 214.257812 314.332031 L 212.207031 314.347656 L 210.335938 314.359375 L 208.375 314.367188 L 206.636719 314.371094 L 204.585938 314.371094 L 202.757812 314.367188 L 200.796875 314.363281 L 199.234375 314.351562 L 196.382812 314.328125 L 194.601562 314.304688 L 193.441406 314.285156 L 192.238281 314.261719 L 191.035156 314.230469 L 189.964844 314.203125 L 189.25 314.179688 L 188.539062 314.152344 L 187.78125 314.117188 L 187.066406 314.078125 L 186.53125 314.042969 L 186.039062 314.003906 L 185.683594 313.96875 L 185.328125 313.917969 L 185.148438 313.875 L 185.058594 313.839844 Z M 185.058594 313.667969 "/>
<path style=" stroke:none;fill-rule:nonzero;fill:rgb(14.509804%,36.078431%,60%);fill-opacity:1;" d="M 223.539062 157.734375 L 223.582031 157.488281 L 223.582031 151.601562 L 223.714844 142.273438 L 224.027344 130.496094 L 224.339844 122.398438 L 225.140625 107.917969 L 226.257812 93.929688 L 227.414062 83.132812 L 228.261719 76.753906 L 229.019531 71.84375 L 230.757812 62.765625 L 231.875 58.101562 L 233.078125 53.929688 L 234.546875 49.757812 L 235.617188 47.304688 L 238.023438 43.378906 L 239.808594 41.660156 L 241.191406 40.925781 L 244.175781 40.925781 L 245.960938 41.90625 L 247.253906 43.132812 L 248.679688 45.097656 L 249.882812 47.304688 L 251.976562 52.703125 L 253.847656 59.574219 L 254.695312 63.503906 L 256.035156 71.109375 L 257.058594 78.472656 L 257.773438 84.851562 L 258.574219 93.929688 L 259.289062 104.972656 L 259.824219 117.488281 L 260.089844 128.042969 L 253.847656 128.042969 L 253.539062 118.226562 L 253.179688 110.617188 L 252.511719 100.558594 L 251.84375 93.441406 L 250.90625 86.324219 L 250.058594 81.660156 L 248.902344 77 L 247.875 74.054688 L 246.804688 71.84375 L 245.78125 70.375 L 243.820312 68.902344 L 241.546875 68.902344 L 240.699219 69.390625 L 238.960938 71.355469 L 238.023438 73.074219 L 236.6875 76.507812 L 235.75 79.699219 L 234.636719 84.605469 L 233.878906 88.777344 L 232.941406 95.160156 L 232.273438 100.800781 L 231.515625 108.902344 L 231.070312 115.035156 L 230.667969 121.90625 L 230.3125 130.003906 L 230.046875 138.59375 L 229.867188 147.671875 L 229.777344 156.507812 L 229.777344 194.542969 L 229.867188 203.378906 L 230.089844 213.6875 L 230.667969 228.65625 L 231.515625 241.660156 L 232.496094 251.96875 L 233.433594 259.328125 L 233.96875 262.765625 L 234.679688 266.691406 L 235.796875 271.601562 L 237.402344 276.507812 L 238.335938 278.472656 L 239.761719 280.433594 L 241.234375 281.414062 L 243.195312 281.414062 L 244.933594 280.433594 L 246.09375 279.207031 L 247.296875 277.242188 L 248.945312 273.070312 L 249.972656 269.144531 L 250.863281 264.484375 L 251.53125 259.820312 L 251.976562 255.894531 L 252.644531 248.285156 L 253.179688 239.945312 L 253.582031 231.355469 L 253.847656 223.011719 L 260.089844 223.011719 L 259.824219 232.828125 L 259.421875 242.398438 L 259.019531 249.515625 L 258.394531 258.101562 L 257.683594 265.710938 L 256.65625 274.300781 L 255.8125 279.945312 L 254.695312 286.078125 L 253.671875 290.742188 L 252.558594 294.914062 L 250.90625 299.820312 L 249.835938 302.273438 L 248.679688 304.484375 L 247.296875 306.445312 L 245.558594 308.164062 L 243.6875 309.144531 L 241.949219 309.390625 L 240.074219 308.902344 L 238.695312 307.917969 L 236.867188 305.710938 L 234.59375 301.292969 L 232.941406 296.628906 L 231.648438 291.96875 L 230.535156 287.058594 L 229.289062 280.433594 L 227.683594 269.636719 L 226.703125 261.292969 L 226.035156 254.421875 L 225.277344 244.851562 L 224.742188 236.261719 L 224.117188 222.519531 L 223.671875 205.097656 L 223.539062 191.601562 Z M 223.539062 157.734375 "/>
<path style=" stroke:none;fill-rule:nonzero;fill:rgb(96.862745%,70.196078%,16.862745%);fill-opacity:1;" d="M 223.539062 313.644531 L 223.582031 313.644531 L 223.582031 313.632812 L 223.761719 313.613281 L 224.207031 313.585938 L 224.785156 313.566406 L 225.410156 313.546875 L 225.8125 313.539062 L 226.480469 313.523438 L 227.058594 313.515625 L 228.53125 313.496094 L 230.402344 313.476562 L 231.425781 313.46875 L 232.585938 313.460938 L 234.234375 313.453125 L 234.992188 313.449219 L 237.3125 313.445312 L 239.941406 313.4375 L 244.175781 313.4375 L 246.003906 313.441406 L 248.5 313.445312 L 249.925781 313.449219 L 251.042969 313.453125 L 252.199219 313.460938 L 253.625 313.46875 L 254.964844 313.476562 L 256.035156 313.488281 L 257.105469 313.503906 L 257.996094 313.515625 L 258.753906 313.53125 L 259.421875 313.550781 L 259.824219 313.566406 L 260.089844 313.582031 L 253.894531 313.582031 L 253.539062 313.566406 L 253.136719 313.554688 L 252.46875 313.539062 L 251.800781 313.527344 L 251.128906 313.519531 L 249.882812 313.507812 L 248.8125 313.5 L 247.476562 313.496094 L 246.183594 313.492188 L 244.710938 313.488281 L 241.457031 313.488281 L 239.316406 313.492188 L 238.070312 313.496094 L 237.179688 313.5 L 235.929688 313.503906 L 235.171875 313.511719 L 234.726562 313.511719 L 233.390625 313.527344 L 232.496094 313.539062 L 232.007812 313.546875 L 231.382812 313.5625 L 230.9375 313.574219 L 230.445312 313.589844 L 230.179688 313.601562 L 229.824219 313.632812 L 229.777344 313.710938 L 229.910156 313.730469 L 230.179688 313.746094 L 230.535156 313.761719 L 231.070312 313.78125 L 231.605469 313.792969 L 232.542969 313.808594 L 233.34375 313.820312 L 233.96875 313.828125 L 235.171875 313.839844 L 235.664062 313.84375 L 236.820312 313.851562 L 238.023438 313.859375 L 239.496094 313.863281 L 240.609375 313.867188 L 247.339844 313.867188 L 249.035156 313.863281 L 250.195312 313.859375 L 250.953125 313.855469 L 251.886719 313.851562 L 252.558594 313.847656 L 253.179688 313.839844 L 253.9375 313.832031 L 253.9375 313.730469 L 242.929688 313.726562 L 242.929688 313.679688 L 260.046875 313.679688 L 260.089844 313.851562 L 259.152344 313.863281 L 257.996094 313.875 L 256.878906 313.882812 L 255.722656 313.890625 L 254.074219 313.898438 L 252.734375 313.902344 L 250.683594 313.910156 L 248.8125 313.914062 L 246.851562 313.917969 L 241.234375 313.917969 L 239.273438 313.914062 L 237.710938 313.910156 L 234.859375 313.902344 L 233.078125 313.890625 L 231.917969 313.882812 L 230.714844 313.875 L 229.511719 313.863281 L 228.441406 313.851562 L 227.726562 313.84375 L 227.015625 313.832031 L 226.257812 313.820312 L 225.542969 313.804688 L 225.007812 313.789062 L 224.519531 313.777344 L 224.160156 313.761719 L 223.804688 313.742188 L 223.625 313.726562 L 223.539062 313.710938 Z M 223.539062 313.644531 "/>
<path style=" stroke:none;fill-rule:nonzero;fill:rgb(83.921569%,15.686275%,22.352941%);fill-opacity:1;" d="M 223.539062 310.570312 L 260.089844 310.570312 L 260.089844 310.75 L 244.855469 310.753906 L 244.855469 312.257812 L 238.726562 312.257812 L 238.726562 310.753906 L 238.636719 310.75 L 223.539062 310.75 Z M 223.539062 310.570312 "/>
<path style=" stroke:none;fill-rule:nonzero;fill:rgb(6.27451%,58.823529%,28.235294%);fill-opacity:1;" d="M 262.015625 297.214844 L 262.054688 297.019531 L 277.871094 89.007812 L 282.671875 89.007812 L 298.566406 297.414062 L 292.984375 297.414062 L 289 243.011719 L 271.542969 243.011719 L 267.636719 297.214844 L 262.015625 297.214844 L 273.222656 220.507812 L 287.398438 220.3125 L 280.328125 123.058594 L 280.25 122.863281 L 280.171875 123.449219 L 273.183594 220.3125 L 273.222656 220.507812 Z M 262.015625 297.214844 "/>
<path style=" stroke:none;fill-rule:nonzero;fill:rgb(14.509804%,36.078431%,60%);fill-opacity:1;" d="M 262.015625 313.683594 L 262.058594 313.683594 L 262.058594 313.65625 L 262.191406 313.613281 L 262.503906 313.558594 L 262.816406 313.523438 L 263.617188 313.457031 L 264.734375 313.394531 L 265.890625 313.34375 L 266.738281 313.316406 L 267.496094 313.292969 L 269.234375 313.253906 L 270.351562 313.230469 L 271.554688 313.210938 L 273.023438 313.195312 L 274.09375 313.183594 L 276.5 313.164062 L 278.285156 313.15625 L 279.667969 313.152344 L 282.652344 313.152344 L 284.4375 313.160156 L 285.730469 313.164062 L 287.15625 313.171875 L 288.359375 313.183594 L 290.453125 313.207031 L 292.328125 313.238281 L 293.171875 313.257812 L 294.511719 313.289062 L 295.535156 313.324219 L 296.25 313.351562 L 297.050781 313.394531 L 297.765625 313.445312 L 298.300781 313.5 L 298.566406 313.546875 L 292.328125 313.546875 L 292.015625 313.503906 L 291.65625 313.46875 L 290.988281 313.425781 L 290.320312 313.390625 L 289.382812 313.359375 L 288.539062 313.339844 L 287.378906 313.316406 L 286.351562 313.304688 L 285.285156 313.292969 L 284.257812 313.289062 L 282.296875 313.28125 L 279.175781 313.28125 L 277.4375 313.292969 L 276.5 313.300781 L 275.164062 313.316406 L 274.226562 313.328125 L 273.113281 313.351562 L 272.355469 313.371094 L 271.421875 313.398438 L 270.75 313.425781 L 269.992188 313.460938 L 269.546875 313.488281 L 269.148438 313.519531 L 268.789062 313.558594 L 268.523438 313.597656 L 268.34375 313.636719 L 268.253906 313.679688 L 268.253906 313.851562 L 268.34375 313.890625 L 268.566406 313.9375 L 269.148438 314.003906 L 269.992188 314.0625 L 270.972656 314.109375 L 271.910156 314.144531 L 272.445312 314.160156 L 273.160156 314.175781 L 274.273438 314.199219 L 275.878906 314.222656 L 276.8125 314.230469 L 278.238281 314.238281 L 279.710938 314.242188 L 281.671875 314.242188 L 283.410156 314.238281 L 284.570312 314.234375 L 285.773438 314.226562 L 287.421875 314.207031 L 288.449219 314.1875 L 289.339844 314.167969 L 290.453125 314.128906 L 291.121094 314.09375 L 291.65625 314.054688 L 292.058594 314.015625 L 292.328125 313.980469 L 298.566406 313.980469 L 298.300781 314.023438 L 297.898438 314.066406 L 297.496094 314.097656 L 296.875 314.136719 L 296.160156 314.171875 L 295.136719 314.210938 L 294.289062 314.238281 L 293.171875 314.265625 L 292.148438 314.285156 L 291.035156 314.304688 L 289.382812 314.328125 L 288.316406 314.339844 L 287.15625 314.347656 L 285.773438 314.355469 L 284.035156 314.363281 L 282.164062 314.371094 L 280.425781 314.371094 L 278.550781 314.367188 L 277.171875 314.363281 L 275.34375 314.355469 L 273.070312 314.332031 L 271.421875 314.3125 L 270.128906 314.292969 L 269.011719 314.269531 L 267.765625 314.238281 L 266.160156 314.191406 L 265.179688 314.152344 L 264.511719 314.121094 L 263.753906 314.078125 L 263.21875 314.039062 L 262.59375 313.976562 L 262.148438 313.898438 L 262.015625 313.835938 Z M 262.015625 313.683594 "/>
<path style=" stroke:none;fill-rule:nonzero;fill:rgb(96.862745%,70.196078%,16.862745%);fill-opacity:1;" d="M 262.015625 310.75 L 262.058594 310.75 L 262.058594 310.710938 L 262.238281 310.621094 L 262.683594 310.5 L 263.261719 310.402344 L 263.886719 310.324219 L 264.289062 310.28125 L 264.957031 310.222656 L 265.535156 310.179688 L 267.007812 310.09375 L 268.878906 310.011719 L 269.90625 309.976562 L 271.0625 309.945312 L 272.710938 309.90625 L 273.46875 309.894531 L 275.789062 309.863281 L 278.417969 309.84375 L 281.316406 309.835938 L 282.652344 309.839844 L 284.480469 309.847656 L 286.976562 309.867188 L 288.402344 309.886719 L 289.519531 309.90625 L 290.675781 309.933594 L 292.105469 309.972656 L 293.441406 310.019531 L 294.511719 310.066406 L 295.582031 310.121094 L 296.472656 310.183594 L 297.230469 310.253906 L 297.898438 310.335938 L 298.300781 310.402344 L 298.566406 310.472656 L 292.371094 310.472656 L 292.015625 310.402344 L 291.613281 310.351562 L 290.945312 310.285156 L 290.277344 310.238281 L 289.605469 310.203125 L 288.359375 310.152344 L 287.289062 310.121094 L 285.953125 310.09375 L 284.660156 310.078125 L 283.1875 310.066406 L 282.296875 310.0625 L 279.933594 310.0625 L 277.792969 310.074219 L 276.546875 310.089844 L 275.65625 310.105469 L 274.40625 310.132812 L 273.648438 310.15625 L 273.203125 310.171875 L 271.867188 310.234375 L 270.972656 310.289062 L 270.484375 310.324219 L 269.859375 310.382812 L 269.414062 310.4375 L 268.921875 310.515625 L 268.65625 310.574219 L 268.300781 310.707031 L 268.253906 311.058594 L 268.390625 311.132812 L 268.65625 311.210938 L 269.011719 311.28125 L 269.546875 311.355469 L 270.082031 311.414062 L 271.019531 311.488281 L 271.820312 311.539062 L 272.445312 311.574219 L 273.648438 311.625 L 274.140625 311.644531 L 275.296875 311.679688 L 276.5 311.707031 L 277.972656 311.730469 L 279.085938 311.742188 L 280.871094 311.75 L 283.144531 311.75 L 285.816406 311.738281 L 287.511719 311.722656 L 288.671875 311.707031 L 289.429688 311.695312 L 290.363281 311.671875 L 291.035156 311.652344 L 291.65625 311.632812 L 292.414062 311.597656 L 292.414062 311.132812 L 281.40625 311.128906 L 281.40625 310.910156 L 298.523438 310.910156 L 298.566406 311.671875 L 297.632812 311.726562 L 296.472656 311.777344 L 295.359375 311.816406 L 294.199219 311.847656 L 292.550781 311.886719 L 291.210938 311.910156 L 289.160156 311.9375 L 287.289062 311.953125 L 285.328125 311.964844 L 283.589844 311.972656 L 281.539062 311.972656 L 279.710938 311.96875 L 277.75 311.957031 L 276.191406 311.941406 L 274.761719 311.921875 L 273.335938 311.898438 L 271.554688 311.855469 L 270.394531 311.824219 L 269.191406 311.78125 L 267.988281 311.734375 L 266.917969 311.679688 L 266.203125 311.640625 L 265.492188 311.59375 L 264.734375 311.535156 L 264.019531 311.46875 L 263.484375 311.40625 L 262.996094 311.339844 L 262.636719 311.273438 L 262.28125 311.1875 L 262.101562 311.117188 L 262.015625 311.054688 Z M 262.015625 310.75 "/>
<path style=" stroke:none;fill-rule:nonzero;fill:rgb(83.921569%,15.686275%,22.352941%);fill-opacity:1;" d="M 262.015625 298.59375 L 298.566406 298.59375 L 298.566406 299.667969 L 283.332031 299.679688 L 283.332031 308.65625 L 277.203125 308.65625 L 277.203125 299.6875 L 277.113281 299.667969 L 262.015625 299.667969 Z M 262.015625 298.59375 "/>
<path style=" stroke:none;fill-rule:nonzero;fill:rgb(6.27451%,58.823529%,28.235294%);fill-opacity:1;" d="M 300.492188 313.402344 L 300.53125 313.394531 L 316.347656 305.941406 L 321.148438 305.941406 L 337.042969 313.410156 L 331.460938 313.410156 L 327.476562 311.460938 L 310.019531 311.460938 L 306.113281 313.402344 L 300.492188 313.402344 L 311.699219 310.652344 L 325.875 310.648438 L 318.808594 307.160156 L 318.730469 307.15625 L 318.652344 307.175781 L 311.660156 310.648438 L 311.699219 310.652344 Z M 300.492188 313.402344 "/>
<path style=" stroke:none;fill-rule:nonzero;fill:rgb(83.921569%,15.686275%,22.352941%);fill-opacity:1;" d="M 300.492188 54.347656 L 337.042969 54.347656 L 337.042969 81.152344 L 321.808594 81.386719 L 321.808594 304.761719 L 315.679688 304.761719 L 315.679688 81.621094 L 315.59375 81.152344 L 300.492188 81.152344 Z M 300.492188 54.347656 "/>
<path style=" stroke:none;fill-rule:nonzero;fill:rgb(6.27451%,58.823529%,28.235294%);fill-opacity:1;" d="M 338.96875 313.589844 L 339.007812 313.3125 L 354.824219 20.664062 L 359.625 20.664062 L 375.519531 313.863281 L 369.9375 313.863281 L 365.953125 237.328125 L 348.496094 237.328125 L 344.589844 313.589844 L 338.96875 313.589844 L 350.175781 205.667969 L 364.351562 205.394531 L 357.285156 68.566406 L 357.207031 68.289062 L 357.128906 69.117188 L 350.136719 205.394531 L 350.175781 205.667969 Z M 338.96875 313.589844 "/>
<path style=" stroke:none;fill-rule:nonzero;fill:rgb(96.862745%,70.196078%,16.862745%);fill-opacity:1;" d="M 377.445312 313.1875 L 377.488281 313.1875 L 377.488281 313.183594 L 377.667969 313.171875 L 378.113281 313.160156 L 378.691406 313.148438 L 379.316406 313.140625 L 379.71875 313.136719 L 380.386719 313.132812 L 380.964844 313.125 L 382.4375 313.117188 L 384.308594 313.109375 L 385.335938 313.105469 L 386.496094 313.101562 L 388.144531 313.097656 L 388.902344 313.097656 L 391.21875 313.09375 L 393.847656 313.089844 L 399.910156 313.089844 L 402.410156 313.09375 L 403.835938 313.097656 L 404.949219 313.097656 L 406.109375 313.101562 L 407.535156 313.105469 L 408.871094 313.109375 L 409.941406 313.113281 L 411.011719 313.121094 L 411.902344 313.128906 L 412.660156 313.132812 L 413.328125 313.144531 L 413.730469 313.152344 L 414 313.15625 L 407.800781 313.15625 L 407.445312 313.152344 L 407.042969 313.144531 L 406.375 313.136719 L 405.039062 313.128906 L 403.789062 313.125 L 402.71875 313.121094 L 401.382812 313.117188 L 400.089844 313.117188 L 398.621094 313.113281 L 395.363281 313.113281 L 393.226562 313.117188 L 391.085938 313.117188 L 389.835938 313.121094 L 389.078125 313.125 L 388.632812 313.125 L 387.296875 313.132812 L 386.40625 313.136719 L 385.914062 313.140625 L 385.289062 313.148438 L 384.84375 313.152344 L 384.355469 313.164062 L 384.085938 313.167969 L 383.730469 313.183594 L 383.6875 313.21875 L 383.820312 313.226562 L 384.085938 313.234375 L 384.445312 313.242188 L 384.980469 313.25 L 385.511719 313.257812 L 386.449219 313.265625 L 387.253906 313.269531 L 387.875 313.273438 L 389.078125 313.28125 L 389.570312 313.28125 L 390.730469 313.285156 L 391.933594 313.289062 L 393.402344 313.289062 L 394.519531 313.292969 L 401.25 313.292969 L 402.941406 313.289062 L 404.101562 313.289062 L 404.859375 313.285156 L 405.796875 313.285156 L 406.464844 313.28125 L 407.089844 313.28125 L 407.847656 313.277344 L 407.847656 313.226562 L 396.835938 313.226562 L 396.835938 313.203125 L 413.953125 313.203125 L 414 313.285156 L 413.0625 313.289062 L 411.902344 313.296875 L 410.789062 313.300781 L 409.628906 313.304688 L 407.980469 313.308594 L 406.644531 313.308594 L 404.59375 313.3125 L 402.71875 313.3125 L 400.757812 313.316406 L 393.179688 313.316406 L 391.621094 313.3125 L 390.195312 313.3125 L 388.769531 313.308594 L 386.984375 313.304688 L 385.824219 313.300781 L 383.417969 313.292969 L 382.347656 313.285156 L 381.636719 313.28125 L 380.921875 313.277344 L 380.164062 313.269531 L 379.449219 313.261719 L 378.917969 313.257812 L 378.425781 313.25 L 378.070312 313.242188 L 377.710938 313.234375 L 377.535156 313.226562 L 377.445312 313.21875 Z M 377.445312 313.1875 "/>
<path style=" stroke:none;fill-rule:nonzero;fill:rgb(83.921569%,15.686275%,22.352941%);fill-opacity:1;" d="M 377.445312 30.210938 L 414 30.210938 L 414 60.363281 L 398.765625 60.628906 L 398.765625 311.910156 L 392.636719 311.910156 L 392.636719 60.890625 L 392.546875 60.363281 L 377.445312 60.363281 Z M 377.445312 30.210938 "/>
<path style=" stroke:none;fill-rule:nonzero;fill:rgb(6.27451%,58.823529%,28.235294%);fill-opacity:1;" d="M 415.921875 310.277344 L 415.960938 310.019531 L 431.777344 33.378906 L 436.582031 33.378906 L 452.476562 310.539062 L 446.890625 310.539062 L 442.90625 238.191406 L 425.449219 238.191406 L 421.546875 310.277344 L 415.921875 310.277344 L 427.128906 208.261719 L 441.304688 208.003906 L 434.238281 78.660156 L 434.160156 78.402344 L 434.082031 79.183594 L 427.089844 208.003906 L 427.128906 208.261719 Z M 415.921875 310.277344 "/>
<path style=" stroke:none;fill-rule:nonzero;fill:rgb(83.921569%,15.686275%,22.352941%);fill-opacity:1;" d="M 415.921875 311.71875 L 452.476562 311.71875 L 452.476562 312 L 437.242188 312.003906 L 437.242188 314.371094 L 431.113281 314.371094 L 431.113281 312.007812 L 431.023438 312 L 415.921875 312 Z M 415.921875 311.71875 "/>
<path style=" stroke:none;fill-rule:nonzero;fill:rgb(6.27451%,58.823529%,28.235294%);fill-opacity:1;" d="M 454.398438 313.074219 L 454.4375 313.03125 L 470.253906 268.394531 L 475.058594 268.394531 L 490.953125 313.117188 L 485.367188 313.117188 L 481.382812 301.441406 L 463.929688 301.441406 L 460.023438 313.074219 L 454.398438 313.074219 L 465.605469 296.613281 L 479.78125 296.570312 L 472.714844 275.699219 L 472.636719 275.65625 L 472.558594 275.785156 L 465.566406 296.570312 L 465.605469 296.613281 Z M 454.398438 313.074219 "/>
<path style=" stroke:none;fill-rule:nonzero;fill:rgb(14.509804%,36.078431%,60%);fill-opacity:1;" d="M 454.398438 314.328125 L 454.445312 314.328125 L 454.578125 314.324219 L 455.203125 314.316406 L 456.003906 314.3125 L 457.117188 314.308594 L 458.277344 314.308594 L 459.125 314.304688 L 459.882812 314.304688 L 461.621094 314.300781 L 463.9375 314.300781 L 465.410156 314.296875 L 482.839844 314.296875 L 484.710938 314.300781 L 485.558594 314.300781 L 486.894531 314.304688 L 487.921875 314.304688 L 488.632812 314.308594 L 489.4375 314.308594 L 490.148438 314.3125 L 490.683594 314.316406 L 490.953125 314.320312 L 484.710938 314.320312 L 484.398438 314.316406 L 484.042969 314.316406 L 482.707031 314.308594 L 480.921875 314.308594 L 479.761719 314.304688 L 466.613281 314.304688 L 465.5 314.308594 L 464.742188 314.308594 L 463.804688 314.3125 L 463.136719 314.3125 L 462.378906 314.316406 L 461.53125 314.316406 L 461.175781 314.320312 L 460.90625 314.324219 L 460.730469 314.324219 L 460.640625 314.328125 L 460.640625 314.339844 L 460.730469 314.339844 L 460.953125 314.34375 L 461.53125 314.347656 L 462.378906 314.351562 L 463.359375 314.355469 L 464.296875 314.355469 L 464.828125 314.359375 L 466.65625 314.359375 L 468.261719 314.363281 L 478.160156 314.363281 L 479.808594 314.359375 L 481.726562 314.359375 L 482.394531 314.355469 L 483.507812 314.355469 L 484.042969 314.351562 L 484.445312 314.347656 L 490.953125 314.347656 L 490.683594 314.347656 L 490.285156 314.351562 L 489.882812 314.355469 L 489.257812 314.355469 L 488.546875 314.359375 L 487.519531 314.359375 L 486.671875 314.363281 L 485.558594 314.363281 L 484.53125 314.367188 L 480.699219 314.367188 L 479.539062 314.371094 L 467.726562 314.371094 L 465.453125 314.367188 L 462.511719 314.367188 L 461.398438 314.363281 L 460.148438 314.363281 L 458.542969 314.359375 L 457.5625 314.355469 L 456.894531 314.355469 L 456.136719 314.351562 L 455.601562 314.351562 L 454.980469 314.347656 L 454.53125 314.339844 L 454.398438 314.335938 Z M 454.398438 314.328125 "/>
<path style=" stroke:none;fill-rule:nonzero;fill:rgb(83.921569%,15.686275%,22.352941%);fill-opacity:1;" d="M 454.398438 156.09375 L 490.953125 156.09375 L 490.953125 167.988281 L 475.71875 168.09375 L 475.71875 267.214844 L 469.589844 267.214844 L 469.589844 168.195312 L 469.5 167.988281 L 454.398438 167.988281 Z M 454.398438 156.09375 "/>
<path style=" stroke:none;fill-rule:nonzero;fill:rgb(6.27451%,58.823529%,28.235294%);fill-opacity:1;" d="M 492.875 314.371094 L 492.914062 314.371094 L 508.730469 314.355469 L 513.535156 314.355469 L 529.429688 314.371094 L 523.84375 314.371094 L 519.859375 314.367188 L 502.40625 314.367188 L 498.5 314.371094 L 492.875 314.371094 L 504.085938 314.367188 L 518.261719 314.367188 L 511.191406 314.359375 L 511.035156 314.359375 L 504.046875 314.367188 L 504.085938 314.367188 Z M 492.875 314.371094 "/>
<path style=" stroke:none;fill-rule:nonzero;fill:rgb(14.509804%,36.078431%,60%);fill-opacity:1;" d="M 492.875 313.085938 L 492.921875 313.085938 L 492.921875 313.082031 L 493.054688 313.074219 L 493.367188 313.070312 L 493.679688 313.0625 L 494.480469 313.054688 L 495.59375 313.046875 L 496.753906 313.039062 L 497.601562 313.035156 L 498.359375 313.03125 L 500.097656 313.027344 L 501.210938 313.023438 L 502.414062 313.023438 L 503.886719 313.019531 L 504.957031 313.019531 L 507.363281 313.015625 L 518.015625 313.015625 L 519.222656 313.019531 L 521.316406 313.019531 L 523.1875 313.027344 L 524.035156 313.027344 L 525.371094 313.03125 L 526.398438 313.035156 L 527.109375 313.039062 L 527.914062 313.046875 L 528.625 313.054688 L 529.160156 313.0625 L 529.429688 313.066406 L 523.1875 313.066406 L 522.875 313.0625 L 522.519531 313.054688 L 521.183594 313.046875 L 520.246094 313.042969 L 519.398438 313.039062 L 518.242188 313.035156 L 517.214844 313.035156 L 516.144531 313.03125 L 508.300781 313.03125 L 507.363281 313.035156 L 506.027344 313.035156 L 505.089844 313.039062 L 503.976562 313.039062 L 503.21875 313.042969 L 502.28125 313.046875 L 501.613281 313.050781 L 500.855469 313.054688 L 500.410156 313.058594 L 500.007812 313.0625 L 499.652344 313.066406 L 499.382812 313.074219 L 499.207031 313.078125 L 499.117188 313.085938 L 499.117188 313.109375 L 499.207031 313.113281 L 499.429688 313.117188 L 500.007812 313.128906 L 500.855469 313.136719 L 501.835938 313.140625 L 502.773438 313.148438 L 503.308594 313.148438 L 504.019531 313.152344 L 505.132812 313.15625 L 506.738281 313.15625 L 507.675781 313.160156 L 515.433594 313.160156 L 516.636719 313.15625 L 518.285156 313.15625 L 519.308594 313.152344 L 520.203125 313.148438 L 520.871094 313.148438 L 521.316406 313.144531 L 521.984375 313.140625 L 522.519531 313.136719 L 522.921875 313.128906 L 523.1875 313.125 L 529.429688 313.125 L 529.160156 313.128906 L 528.761719 313.136719 L 528.359375 313.140625 L 527.734375 313.144531 L 527.023438 313.152344 L 525.996094 313.15625 L 525.148438 313.160156 L 524.035156 313.164062 L 523.011719 313.164062 L 521.894531 313.167969 L 520.246094 313.171875 L 519.175781 313.171875 L 518.015625 313.175781 L 506.203125 313.175781 L 503.929688 313.171875 L 502.28125 313.167969 L 500.988281 313.167969 L 499.875 313.164062 L 498.625 313.160156 L 497.023438 313.152344 L 496.039062 313.148438 L 495.371094 313.144531 L 494.613281 313.136719 L 494.078125 313.132812 L 493.457031 313.125 L 493.007812 313.113281 L 492.875 313.105469 Z M 492.875 313.085938 "/>
<path style=" stroke:none;fill-rule:nonzero;fill:rgb(96.862745%,70.196078%,16.862745%);fill-opacity:1;" d="M 492.875 150.8125 L 492.921875 150.558594 L 492.921875 145.414062 L 493.097656 133.835938 L 493.542969 117.890625 L 494.125 104.769531 L 494.75 94.480469 L 495.148438 89.082031 L 495.816406 81.363281 L 496.398438 75.707031 L 497.867188 64.128906 L 499.742188 53.328125 L 500.765625 48.695312 L 501.925781 44.324219 L 503.574219 39.4375 L 504.332031 37.636719 L 506.648438 33.519531 L 509.28125 30.949219 L 512.179688 30.175781 L 513.515625 30.433594 L 515.34375 31.464844 L 517.839844 34.292969 L 519.265625 36.863281 L 520.378906 39.4375 L 521.539062 42.78125 L 522.964844 47.925781 L 524.304688 54.097656 L 525.371094 60.273438 L 526.441406 67.988281 L 527.335938 76.21875 L 528.09375 85.222656 L 528.761719 96.027344 L 529.160156 105.027344 L 529.429688 114.03125 L 523.234375 114.03125 L 522.875 105.027344 L 522.476562 98.082031 L 521.804688 89.59375 L 521.136719 83.421875 L 520.46875 78.535156 L 519.222656 71.847656 L 518.152344 67.730469 L 516.8125 64.128906 L 515.519531 61.816406 L 514.050781 60.273438 L 513.160156 59.757812 L 510.796875 59.757812 L 508.65625 61.558594 L 507.40625 63.617188 L 506.515625 65.671875 L 505.269531 69.53125 L 504.511719 72.617188 L 504.066406 74.675781 L 502.726562 82.648438 L 501.835938 89.851562 L 501.34375 94.738281 L 500.722656 102.457031 L 500.277344 109.402344 L 499.785156 119.691406 L 499.519531 127.40625 L 499.160156 144.898438 L 499.117188 191.199219 L 499.25 200.972656 L 499.519531 211.519531 L 499.875 220.777344 L 500.410156 230.550781 L 500.945312 238.011719 L 501.878906 248.042969 L 502.683594 254.730469 L 503.308594 259.105469 L 504.511719 266.050781 L 505 268.363281 L 506.160156 272.996094 L 507.363281 276.59375 L 508.835938 279.683594 L 509.949219 281.226562 L 511.730469 282.511719 L 514.003906 282.511719 L 516.679688 280.96875 L 518.375 278.910156 L 519.53125 276.851562 L 520.289062 275.050781 L 521.226562 272.222656 L 521.894531 269.648438 L 522.519531 266.820312 L 523.277344 262.449219 L 523.277344 200.972656 L 512.265625 200.714844 L 512.265625 171.90625 L 529.382812 171.648438 L 529.429688 272.222656 L 528.492188 279.167969 L 527.335938 285.855469 L 526.21875 291 L 525.0625 295.371094 L 523.410156 300.257812 L 522.074219 303.347656 L 520.023438 306.949219 L 518.152344 309.261719 L 516.191406 310.804688 L 514.453125 311.578125 L 512.402344 311.835938 L 510.574219 311.320312 L 508.613281 309.777344 L 507.050781 307.71875 L 505.625 305.148438 L 504.199219 301.804688 L 502.414062 296.402344 L 501.257812 292.027344 L 500.054688 286.625 L 498.847656 280.195312 L 497.78125 273.25 L 497.066406 267.851562 L 496.351562 261.675781 L 495.59375 253.960938 L 494.882812 245.214844 L 494.347656 237.242188 L 493.855469 228.238281 L 493.5 219.75 L 493.144531 208.175781 L 492.964844 198.914062 L 492.875 190.941406 Z M 492.875 150.8125 "/>
<path style=" stroke:none;fill-rule:nonzero;fill:rgb(6.27451%,58.823529%,28.235294%);fill-opacity:1;" d="M 531.351562 313.015625 L 531.390625 313.015625 L 547.207031 312.988281 L 552.011719 312.988281 L 567.90625 313.015625 L 562.320312 313.015625 L 558.339844 313.007812 L 540.882812 313.007812 L 536.976562 313.015625 L 531.351562 313.015625 L 542.5625 313.003906 L 556.738281 313.003906 L 549.667969 312.992188 L 549.511719 312.992188 L 542.523438 313.003906 L 542.5625 313.003906 Z M 531.351562 313.015625 "/>
<path style=" stroke:none;fill-rule:nonzero;fill:rgb(96.862745%,70.196078%,16.862745%);fill-opacity:1;" d="M 531.351562 151.1875 L 531.398438 150.929688 L 531.398438 145.800781 L 531.574219 134.253906 L 532.023438 118.34375 L 532.601562 105.257812 L 533.226562 94.996094 L 533.625 89.605469 L 534.296875 81.910156 L 534.875 76.265625 L 536.34375 64.71875 L 538.21875 53.941406 L 539.242188 49.324219 L 540.402344 44.960938 L 542.050781 40.085938 L 542.808594 38.289062 L 545.128906 34.183594 L 547.757812 31.621094 L 550.65625 30.847656 L 551.992188 31.105469 L 553.820312 32.132812 L 556.316406 34.953125 L 557.742188 37.519531 L 558.855469 40.085938 L 560.015625 43.421875 L 561.441406 48.554688 L 562.78125 54.710938 L 563.851562 60.871094 L 564.917969 68.566406 L 565.8125 76.777344 L 566.570312 85.757812 L 567.238281 96.535156 L 567.636719 105.515625 L 567.90625 114.496094 L 561.710938 114.496094 L 561.351562 105.515625 L 560.953125 98.585938 L 560.285156 90.121094 L 559.613281 83.960938 L 558.945312 79.085938 L 557.699219 72.417969 L 556.628906 68.3125 L 555.289062 64.71875 L 554 62.410156 L 552.527344 60.871094 L 551.636719 60.355469 L 549.273438 60.355469 L 547.132812 62.152344 L 545.886719 64.207031 L 544.992188 66.257812 L 543.746094 70.105469 L 542.988281 73.1875 L 542.542969 75.238281 L 541.203125 83.191406 L 540.3125 90.378906 L 539.824219 95.253906 L 539.199219 102.949219 L 538.753906 109.878906 L 538.261719 120.140625 L 537.996094 127.839844 L 537.636719 145.285156 L 537.59375 191.472656 L 537.726562 201.222656 L 537.996094 211.742188 L 538.351562 220.976562 L 538.886719 230.726562 L 539.421875 238.167969 L 540.359375 248.175781 L 541.160156 254.847656 L 541.785156 259.207031 L 542.988281 266.136719 L 543.476562 268.445312 L 544.636719 273.0625 L 545.839844 276.65625 L 547.3125 279.734375 L 548.425781 281.273438 L 550.210938 282.558594 L 552.484375 282.558594 L 555.15625 281.019531 L 556.851562 278.964844 L 558.011719 276.914062 L 558.769531 275.117188 L 559.703125 272.292969 L 560.371094 269.730469 L 560.996094 266.90625 L 561.753906 262.542969 L 561.753906 201.222656 L 550.742188 200.964844 L 550.742188 172.226562 L 567.863281 171.96875 L 567.90625 272.292969 L 566.96875 279.222656 L 565.8125 285.894531 L 564.695312 291.023438 L 563.539062 295.386719 L 561.886719 300.261719 L 560.550781 303.339844 L 558.5 306.933594 L 556.628906 309.242188 L 554.667969 310.78125 L 552.929688 311.550781 L 550.878906 311.808594 L 549.050781 311.296875 L 547.089844 309.753906 L 545.527344 307.703125 L 544.101562 305.136719 L 542.675781 301.800781 L 540.890625 296.414062 L 539.734375 292.050781 L 538.53125 286.664062 L 537.328125 280.25 L 536.257812 273.320312 L 535.542969 267.933594 L 534.828125 261.773438 L 534.070312 254.078125 L 533.359375 245.351562 L 532.824219 237.398438 L 532.332031 228.417969 L 531.976562 219.953125 L 531.621094 208.40625 L 531.441406 199.167969 L 531.351562 191.214844 Z M 531.351562 151.1875 "/>
<path style=" stroke:none;fill-rule:nonzero;fill:rgb(6.27451%,58.823529%,28.235294%);fill-opacity:1;" d="M 569.828125 311.808594 L 569.867188 311.804688 L 585.683594 306.613281 L 590.488281 306.613281 L 606.382812 311.8125 L 600.796875 311.8125 L 596.816406 310.457031 L 579.359375 310.457031 L 575.453125 311.808594 L 569.828125 311.808594 L 581.039062 309.894531 L 595.214844 309.890625 L 588.144531 307.464844 L 588.066406 307.457031 L 587.988281 307.472656 L 581 309.890625 L 581.039062 309.894531 Z M 569.828125 311.808594 "/>
<path style=" stroke:none;fill-rule:nonzero;fill:rgb(14.509804%,36.078431%,60%);fill-opacity:1;" d="M 569.828125 313.59375 L 569.875 313.589844 L 569.875 313.5625 L 570.007812 313.511719 L 570.320312 313.453125 L 570.632812 313.410156 L 571.433594 313.335938 L 572.550781 313.265625 L 573.707031 313.210938 L 574.554688 313.175781 L 575.3125 313.152344 L 577.050781 313.105469 L 578.164062 313.082031 L 579.371094 313.058594 L 580.839844 313.039062 L 581.910156 313.027344 L 584.316406 313.007812 L 586.101562 312.996094 L 587.484375 312.992188 L 590.46875 312.992188 L 592.253906 313 L 593.542969 313.003906 L 594.972656 313.015625 L 596.175781 313.027344 L 598.269531 313.054688 L 600.140625 313.089844 L 600.988281 313.109375 L 602.328125 313.148438 L 603.351562 313.1875 L 604.066406 313.21875 L 604.867188 313.265625 L 605.582031 313.320312 L 606.117188 313.386719 L 606.382812 313.441406 L 600.140625 313.441406 L 599.832031 313.390625 L 599.472656 313.351562 L 598.804688 313.300781 L 598.136719 313.261719 L 597.199219 313.226562 L 596.351562 313.203125 L 595.195312 313.179688 L 594.167969 313.164062 L 593.097656 313.152344 L 592.074219 313.144531 L 590.113281 313.136719 L 587.839844 313.136719 L 586.992188 313.140625 L 585.253906 313.148438 L 584.316406 313.160156 L 582.980469 313.175781 L 582.042969 313.191406 L 580.929688 313.21875 L 580.171875 313.238281 L 579.234375 313.273438 L 578.566406 313.300781 L 577.808594 313.34375 L 577.363281 313.375 L 576.960938 313.410156 L 576.605469 313.449219 L 576.339844 313.496094 L 576.160156 313.542969 L 576.070312 313.585938 L 576.070312 313.78125 L 576.160156 313.828125 L 576.382812 313.878906 L 576.960938 313.957031 L 577.808594 314.023438 L 578.789062 314.074219 L 579.726562 314.113281 L 580.261719 314.132812 L 580.972656 314.152344 L 582.089844 314.175781 L 583.695312 314.203125 L 584.628906 314.210938 L 586.054688 314.222656 L 587.527344 314.226562 L 589.488281 314.226562 L 591.226562 314.222656 L 592.386719 314.214844 L 593.589844 314.207031 L 595.238281 314.183594 L 596.265625 314.164062 L 597.15625 314.140625 L 597.824219 314.117188 L 598.269531 314.097656 L 598.9375 314.058594 L 599.472656 314.015625 L 599.875 313.96875 L 600.140625 313.925781 L 606.382812 313.925781 L 606.117188 313.976562 L 605.714844 314.027344 L 605.3125 314.0625 L 604.6875 314.109375 L 603.976562 314.148438 L 602.949219 314.191406 L 602.105469 314.21875 L 600.988281 314.25 L 599.964844 314.273438 L 598.847656 314.296875 L 597.199219 314.320312 L 596.128906 314.335938 L 594.972656 314.34375 L 593.589844 314.355469 L 591.851562 314.363281 L 589.980469 314.371094 L 588.242188 314.371094 L 586.367188 314.367188 L 584.984375 314.363281 L 583.160156 314.351562 L 580.886719 314.328125 L 579.234375 314.304688 L 577.941406 314.28125 L 576.828125 314.257812 L 575.582031 314.222656 L 573.976562 314.167969 L 572.996094 314.125 L 572.328125 314.089844 L 571.570312 314.039062 L 571.035156 313.996094 L 570.410156 313.925781 L 569.964844 313.835938 L 569.828125 313.765625 Z M 569.828125 313.59375 "/>
<path style=" stroke:none;fill-rule:nonzero;fill:rgb(96.862745%,70.196078%,16.862745%);fill-opacity:1;" d="M 569.828125 296.78125 L 569.875 296.769531 L 569.875 296.492188 L 570.054688 295.871094 L 570.5 295.011719 L 571.078125 294.308594 L 571.703125 293.753906 L 572.101562 293.464844 L 572.773438 293.050781 L 573.351562 292.746094 L 574.824219 292.125 L 576.695312 291.542969 L 577.71875 291.296875 L 578.878906 291.058594 L 580.527344 290.796875 L 581.285156 290.699219 L 583.605469 290.480469 L 586.234375 290.339844 L 589.132812 290.300781 L 590.46875 290.3125 L 592.296875 290.367188 L 594.792969 290.519531 L 596.21875 290.660156 L 597.332031 290.796875 L 598.492188 290.976562 L 599.917969 291.253906 L 601.257812 291.585938 L 602.328125 291.917969 L 603.394531 292.332031 L 604.289062 292.773438 L 605.046875 293.257812 L 605.714844 293.839844 L 606.117188 294.320312 L 606.382812 294.804688 L 600.1875 294.804688 L 599.832031 294.320312 L 599.429688 293.949219 L 598.761719 293.492188 L 598.089844 293.160156 L 597.421875 292.898438 L 596.175781 292.539062 L 595.105469 292.316406 L 593.769531 292.125 L 592.476562 292 L 591.003906 291.917969 L 590.113281 291.890625 L 587.75 291.890625 L 585.609375 291.984375 L 584.363281 292.097656 L 583.46875 292.207031 L 582.222656 292.414062 L 581.464844 292.582031 L 581.019531 292.691406 L 579.679688 293.121094 L 578.789062 293.507812 L 578.300781 293.769531 L 577.675781 294.183594 L 577.230469 294.558594 L 576.738281 295.109375 L 576.472656 295.523438 L 576.117188 296.464844 L 576.070312 298.953125 L 576.203125 299.476562 L 576.472656 300.042969 L 576.828125 300.542969 L 577.363281 301.066406 L 577.898438 301.46875 L 578.835938 302.007812 L 579.636719 302.367188 L 580.261719 302.601562 L 581.464844 302.972656 L 581.953125 303.097656 L 583.113281 303.347656 L 584.316406 303.539062 L 585.789062 303.707031 L 586.902344 303.789062 L 588.6875 303.859375 L 590.960938 303.859375 L 593.632812 303.777344 L 595.328125 303.664062 L 596.488281 303.554688 L 597.246094 303.457031 L 598.179688 303.304688 L 598.847656 303.167969 L 599.472656 303.015625 L 600.230469 302.78125 L 600.230469 299.476562 L 589.222656 299.464844 L 589.222656 297.914062 L 606.339844 297.902344 L 606.382812 303.304688 L 605.445312 303.679688 L 604.289062 304.039062 L 603.171875 304.316406 L 602.015625 304.550781 L 600.363281 304.8125 L 599.027344 304.976562 L 596.976562 305.171875 L 595.105469 305.296875 L 593.144531 305.378906 L 591.40625 305.421875 L 589.355469 305.433594 L 587.527344 305.40625 L 585.566406 305.324219 L 584.003906 305.214844 L 582.578125 305.074219 L 581.152344 304.894531 L 579.371094 304.605469 L 578.210938 304.371094 L 577.007812 304.078125 L 575.804688 303.734375 L 574.734375 303.359375 L 574.019531 303.070312 L 573.308594 302.738281 L 572.550781 302.324219 L 571.835938 301.855469 L 571.300781 301.425781 L 570.8125 300.941406 L 570.453125 300.488281 L 570.097656 299.863281 L 569.917969 299.367188 L 569.828125 298.9375 Z M 569.828125 296.78125 "/>
<path style=" stroke:none;fill-rule:nonzero;fill:rgb(83.921569%,15.686275%,22.352941%);fill-opacity:1;" d="M 569.828125 273.597656 L 606.382812 273.597656 L 606.382812 275.257812 L 591.148438 275.273438 L 591.148438 289.121094 L 585.019531 289.121094 L 585.019531 275.289062 L 584.929688 275.257812 L 569.828125 275.257812 Z M 569.828125 273.597656 "/>
<path style=" stroke:none;fill-rule:nonzero;fill:rgb(6.27451%,58.823529%,28.235294%);fill-opacity:1;" d="M 608.308594 302.082031 L 608.347656 302.066406 L 624.164062 284.222656 L 628.964844 284.222656 L 644.859375 302.097656 L 639.277344 302.097656 L 635.292969 297.433594 L 617.835938 297.433594 L 613.929688 302.082031 L 608.308594 302.082031 L 619.515625 295.503906 L 633.691406 295.484375 L 626.621094 287.144531 L 626.542969 287.125 L 626.464844 287.175781 L 619.476562 295.484375 L 619.515625 295.503906 Z M 608.308594 302.082031 "/>
<path style=" stroke:none;fill-rule:nonzero;fill:rgb(14.509804%,36.078431%,60%);fill-opacity:1;" d="M 608.308594 251.027344 L 608.351562 250.976562 L 608.351562 249.734375 L 608.484375 247.765625 L 608.796875 245.277344 L 609.109375 243.570312 L 609.910156 240.511719 L 611.027344 237.5625 L 612.183594 235.28125 L 613.03125 233.933594 L 613.789062 232.898438 L 615.527344 230.980469 L 616.644531 229.996094 L 617.847656 229.117188 L 619.316406 228.238281 L 620.386719 227.71875 L 622.792969 226.890625 L 624.578125 226.527344 L 625.960938 226.371094 L 628.945312 226.371094 L 630.730469 226.578125 L 632.023438 226.839844 L 633.449219 227.253906 L 634.652344 227.71875 L 636.746094 228.859375 L 638.621094 230.308594 L 639.464844 231.136719 L 640.804688 232.742188 L 641.828125 234.296875 L 642.542969 235.644531 L 643.34375 237.5625 L 644.058594 239.890625 L 644.59375 242.535156 L 644.859375 244.761719 L 638.621094 244.761719 L 638.308594 242.6875 L 637.949219 241.082031 L 637.28125 238.960938 L 636.613281 237.457031 L 635.675781 235.953125 L 634.832031 234.972656 L 633.671875 233.988281 L 632.644531 233.363281 L 631.574219 232.898438 L 630.550781 232.589844 L 628.589844 232.277344 L 626.316406 232.277344 L 625.46875 232.378906 L 623.730469 232.796875 L 622.792969 233.15625 L 621.457031 233.882812 L 620.519531 234.554688 L 619.40625 235.59375 L 618.648438 236.472656 L 617.710938 237.820312 L 617.042969 239.011719 L 616.285156 240.722656 L 615.839844 242.015625 L 615.4375 243.464844 L 615.082031 245.175781 L 614.816406 246.988281 L 614.636719 248.90625 L 614.546875 250.769531 L 614.546875 258.800781 L 614.636719 260.664062 L 614.859375 262.839844 L 615.4375 266 L 616.285156 268.746094 L 617.265625 270.921875 L 618.203125 272.476562 L 618.738281 273.199219 L 619.453125 274.027344 L 620.566406 275.066406 L 622.171875 276.101562 L 623.105469 276.515625 L 624.53125 276.929688 L 626.003906 277.136719 L 627.964844 277.136719 L 629.703125 276.929688 L 630.863281 276.671875 L 632.066406 276.257812 L 633.714844 275.375 L 634.742188 274.546875 L 635.632812 273.5625 L 636.300781 272.578125 L 636.746094 271.75 L 637.414062 270.144531 L 637.949219 268.382812 L 638.351562 266.570312 L 638.621094 264.808594 L 644.859375 264.808594 L 644.59375 266.878906 L 644.191406 268.902344 L 643.789062 270.402344 L 643.167969 272.214844 L 642.453125 273.820312 L 641.425781 275.632812 L 640.582031 276.824219 L 639.464844 278.121094 L 638.441406 279.105469 L 637.328125 279.984375 L 635.675781 281.023438 L 634.605469 281.539062 L 633.449219 282.007812 L 632.066406 282.421875 L 630.328125 282.785156 L 628.457031 282.992188 L 626.71875 283.042969 L 624.84375 282.9375 L 623.464844 282.730469 L 621.636719 282.265625 L 619.363281 281.332031 L 617.710938 280.347656 L 616.421875 279.363281 L 615.304688 278.328125 L 614.058594 276.929688 L 612.453125 274.652344 L 611.472656 272.890625 L 610.804688 271.4375 L 610.046875 269.417969 L 609.511719 267.605469 L 608.886719 264.703125 L 608.441406 261.027344 L 608.308594 258.179688 Z M 608.308594 251.027344 "/>
<path style=" stroke:none;fill-rule:nonzero;fill:rgb(96.862745%,70.196078%,16.862745%);fill-opacity:1;" d="M 608.308594 306.285156 L 608.351562 306.28125 L 608.351562 306.152344 L 608.53125 305.863281 L 608.976562 305.464844 L 609.554688 305.136719 L 610.179688 304.882812 L 610.582031 304.746094 L 611.25 304.554688 L 611.828125 304.414062 L 613.300781 304.125 L 615.171875 303.855469 L 616.195312 303.742188 L 617.355469 303.632812 L 619.003906 303.511719 L 619.761719 303.464844 L 622.082031 303.363281 L 624.710938 303.296875 L 627.609375 303.277344 L 628.945312 303.285156 L 630.773438 303.3125 L 633.269531 303.382812 L 634.695312 303.445312 L 635.8125 303.511719 L 636.96875 303.59375 L 638.394531 303.722656 L 639.734375 303.875 L 640.804688 304.027344 L 641.875 304.222656 L 642.765625 304.425781 L 643.523438 304.652344 L 644.191406 304.921875 L 644.59375 305.144531 L 644.859375 305.367188 L 638.664062 305.367188 L 638.308594 305.144531 L 637.90625 304.972656 L 637.238281 304.761719 L 636.570312 304.605469 L 635.898438 304.484375 L 634.652344 304.316406 L 633.582031 304.214844 L 632.246094 304.125 L 630.953125 304.066406 L 629.480469 304.027344 L 628.589844 304.015625 L 626.226562 304.015625 L 624.085938 304.0625 L 622.839844 304.113281 L 621.949219 304.164062 L 620.699219 304.261719 L 619.941406 304.335938 L 619.496094 304.386719 L 618.160156 304.585938 L 617.265625 304.765625 L 616.777344 304.886719 L 616.152344 305.082031 L 615.707031 305.253906 L 615.214844 305.511719 L 614.949219 305.703125 L 614.59375 306.136719 L 614.546875 307.292969 L 614.679688 307.535156 L 614.949219 307.796875 L 615.304688 308.03125 L 615.839844 308.273438 L 616.375 308.460938 L 617.3125 308.710938 L 618.113281 308.875 L 618.738281 308.984375 L 619.941406 309.15625 L 620.433594 309.214844 L 621.589844 309.332031 L 622.792969 309.421875 L 624.265625 309.496094 L 625.378906 309.535156 L 627.164062 309.566406 L 629.4375 309.566406 L 632.109375 309.53125 L 633.804688 309.476562 L 634.964844 309.425781 L 635.722656 309.382812 L 636.65625 309.3125 L 637.328125 309.246094 L 637.949219 309.175781 L 638.707031 309.066406 L 638.707031 307.535156 L 627.699219 307.53125 L 627.699219 306.8125 L 644.816406 306.804688 L 644.859375 309.3125 L 643.925781 309.484375 L 642.765625 309.652344 L 641.652344 309.78125 L 640.492188 309.890625 L 638.84375 310.011719 L 637.503906 310.085938 L 635.453125 310.175781 L 633.582031 310.234375 L 631.621094 310.273438 L 629.882812 310.292969 L 627.832031 310.300781 L 626.003906 310.285156 L 624.042969 310.246094 L 622.480469 310.195312 L 621.054688 310.132812 L 619.628906 310.050781 L 617.847656 309.914062 L 616.6875 309.804688 L 615.484375 309.671875 L 614.28125 309.511719 L 613.210938 309.335938 L 612.496094 309.203125 L 611.785156 309.050781 L 611.027344 308.855469 L 610.3125 308.636719 L 609.777344 308.441406 L 609.289062 308.214844 L 608.929688 308.003906 L 608.574219 307.714844 L 608.394531 307.484375 L 608.308594 307.285156 Z M 608.308594 306.285156 "/>
<path style=" stroke:none;fill-rule:nonzero;fill:rgb(83.921569%,15.686275%,22.352941%);fill-opacity:1;" d="M 608.308594 311.480469 L 644.859375 311.480469 L 644.859375 311.789062 L 629.625 311.789062 L 629.625 314.371094 L 623.496094 314.371094 L 623.496094 311.792969 L 623.40625 311.789062 L 608.308594 311.789062 Z M 608.308594 311.480469 "/>
<path style=" stroke:none;fill-rule:nonzero;fill:rgb(6.27451%,58.823529%,28.235294%);fill-opacity:1;" d="M 646.785156 282.507812 L 646.824219 282.441406 L 662.640625 212.765625 L 667.441406 212.765625 L 683.335938 282.570312 L 677.753906 282.570312 L 673.769531 264.351562 L 656.3125 264.351562 L 652.40625 282.507812 L 646.785156 282.507812 L 657.992188 256.8125 L 672.167969 256.746094 L 665.097656 224.171875 L 665.019531 224.105469 L 664.941406 224.304688 L 657.953125 256.746094 L 657.992188 256.8125 Z M 646.785156 282.507812 "/>
<path style=" stroke:none;fill-rule:nonzero;fill:rgb(14.509804%,36.078431%,60%);fill-opacity:1;" d="M 646.785156 312.269531 L 646.828125 312.265625 L 646.828125 312.183594 L 646.960938 312.054688 L 647.273438 311.894531 L 647.585938 311.78125 L 648.390625 311.578125 L 649.503906 311.386719 L 650.660156 311.238281 L 651.507812 311.148438 L 652.265625 311.082031 L 654.003906 310.953125 L 655.121094 310.890625 L 656.324219 310.832031 L 657.792969 310.773438 L 658.863281 310.742188 L 661.269531 310.6875 L 663.054688 310.664062 L 664.4375 310.652344 L 667.421875 310.652344 L 669.207031 310.664062 L 670.5 310.683594 L 671.925781 310.710938 L 673.128906 310.742188 L 675.222656 310.816406 L 677.097656 310.910156 L 677.941406 310.964844 L 679.28125 311.070312 L 680.304688 311.171875 L 681.019531 311.261719 L 681.820312 311.386719 L 682.535156 311.539062 L 683.070312 311.710938 L 683.335938 311.859375 L 677.097656 311.859375 L 676.785156 311.722656 L 676.425781 311.617188 L 675.757812 311.476562 L 675.089844 311.378906 L 674.152344 311.28125 L 673.308594 311.214844 L 672.148438 311.152344 L 671.121094 311.109375 L 670.054688 311.082031 L 669.027344 311.058594 L 667.066406 311.039062 L 664.792969 311.039062 L 663.945312 311.046875 L 662.207031 311.074219 L 661.269531 311.097656 L 659.933594 311.144531 L 658.996094 311.1875 L 657.882812 311.257812 L 657.125 311.316406 L 656.191406 311.402344 L 655.519531 311.480469 L 654.761719 311.59375 L 654.316406 311.679688 L 653.917969 311.773438 L 653.558594 311.886719 L 653.292969 312.003906 L 653.113281 312.128906 L 653.023438 312.253906 L 653.023438 312.78125 L 653.113281 312.902344 L 653.335938 313.046875 L 653.917969 313.253906 L 654.761719 313.433594 L 655.742188 313.574219 L 656.679688 313.675781 L 657.214844 313.726562 L 657.929688 313.777344 L 659.042969 313.847656 L 660.648438 313.914062 L 661.582031 313.941406 L 663.011719 313.96875 L 664.480469 313.984375 L 666.441406 313.984375 L 668.179688 313.96875 L 669.339844 313.953125 L 670.542969 313.925781 L 672.191406 313.867188 L 673.21875 313.8125 L 674.109375 313.75 L 674.777344 313.683594 L 675.222656 313.628906 L 675.894531 313.523438 L 676.425781 313.410156 L 676.828125 313.289062 L 677.097656 313.175781 L 683.335938 313.175781 L 683.070312 313.308594 L 682.667969 313.441406 L 682.265625 313.542969 L 681.644531 313.660156 L 680.929688 313.765625 L 679.90625 313.882812 L 679.058594 313.960938 L 677.941406 314.046875 L 676.917969 314.113281 L 675.804688 314.171875 L 674.152344 314.238281 L 673.085938 314.273438 L 671.925781 314.300781 L 670.542969 314.328125 L 668.804688 314.355469 L 666.933594 314.367188 L 665.195312 314.371094 L 663.320312 314.363281 L 661.941406 314.351562 L 660.113281 314.320312 L 657.839844 314.257812 L 656.191406 314.195312 L 654.898438 314.128906 L 653.78125 314.0625 L 652.535156 313.96875 L 650.929688 313.820312 L 649.949219 313.703125 L 649.28125 313.609375 L 648.523438 313.476562 L 647.988281 313.359375 L 647.363281 313.167969 L 646.917969 312.925781 L 646.785156 312.738281 Z M 646.785156 312.269531 "/>
<path style=" stroke:none;fill-rule:nonzero;fill:rgb(96.862745%,70.196078%,16.862745%);fill-opacity:1;" d="M 646.785156 305.789062 L 646.828125 305.785156 L 646.828125 305.667969 L 647.007812 305.402344 L 647.453125 305.039062 L 648.03125 304.738281 L 648.65625 304.503906 L 649.058594 304.378906 L 649.726562 304.203125 L 650.304688 304.074219 L 651.777344 303.808594 L 653.648438 303.5625 L 654.675781 303.457031 L 655.832031 303.355469 L 657.480469 303.246094 L 658.238281 303.203125 L 660.558594 303.109375 L 663.1875 303.050781 L 666.085938 303.03125 L 667.421875 303.039062 L 669.25 303.0625 L 671.746094 303.125 L 673.171875 303.1875 L 674.289062 303.246094 L 675.445312 303.320312 L 676.875 303.4375 L 678.210938 303.578125 L 679.28125 303.722656 L 680.351562 303.898438 L 681.242188 304.085938 L 682 304.292969 L 682.667969 304.539062 L 683.070312 304.746094 L 683.335938 304.949219 L 677.140625 304.949219 L 676.785156 304.746094 L 676.382812 304.585938 L 675.714844 304.390625 L 675.046875 304.25 L 674.378906 304.136719 L 673.128906 303.984375 L 672.058594 303.890625 L 670.722656 303.808594 L 669.429688 303.757812 L 667.957031 303.722656 L 667.066406 303.710938 L 664.703125 303.710938 L 662.5625 303.75 L 661.316406 303.796875 L 660.425781 303.84375 L 659.175781 303.933594 L 658.417969 304.003906 L 657.972656 304.050781 L 656.636719 304.234375 L 655.742188 304.398438 L 655.253906 304.507812 L 654.628906 304.683594 L 654.183594 304.84375 L 653.691406 305.078125 L 653.425781 305.253906 L 653.070312 305.65625 L 653.023438 306.714844 L 653.160156 306.9375 L 653.425781 307.179688 L 653.78125 307.390625 L 654.316406 307.613281 L 654.851562 307.785156 L 655.789062 308.015625 L 656.589844 308.167969 L 657.214844 308.265625 L 658.417969 308.425781 L 658.910156 308.480469 L 660.066406 308.585938 L 661.269531 308.667969 L 662.742188 308.738281 L 663.855469 308.773438 L 665.640625 308.800781 L 667.914062 308.800781 L 670.589844 308.765625 L 672.28125 308.71875 L 673.441406 308.671875 L 674.199219 308.632812 L 675.136719 308.566406 L 675.804688 308.507812 L 676.425781 308.441406 L 677.183594 308.34375 L 677.183594 306.9375 L 666.175781 306.933594 L 666.175781 306.273438 L 683.292969 306.265625 L 683.335938 308.566406 L 682.402344 308.726562 L 681.242188 308.878906 L 680.128906 308.996094 L 678.96875 309.097656 L 677.320312 309.207031 L 675.980469 309.277344 L 673.929688 309.359375 L 672.058594 309.414062 L 670.097656 309.449219 L 668.359375 309.464844 L 666.308594 309.472656 L 664.480469 309.460938 L 662.519531 309.425781 L 660.960938 309.378906 L 659.53125 309.320312 L 658.105469 309.242188 L 656.324219 309.121094 L 655.164062 309.019531 L 653.960938 308.894531 L 652.757812 308.75 L 651.6875 308.589844 L 650.972656 308.46875 L 650.261719 308.324219 L 649.503906 308.148438 L 648.789062 307.949219 L 648.253906 307.765625 L 647.765625 307.5625 L 647.40625 307.367188 L 647.050781 307.101562 L 646.875 306.890625 L 646.785156 306.707031 Z M 646.785156 305.789062 "/>
<path style=" stroke:none;fill-rule:nonzero;fill:rgb(83.921569%,15.686275%,22.352941%);fill-opacity:1;" d="M 646.785156 283.75 L 683.335938 283.75 L 683.335938 285.6875 L 668.101562 285.707031 L 668.101562 301.851562 L 661.972656 301.851562 L 661.972656 285.722656 L 661.886719 285.6875 L 646.785156 285.6875 Z M 646.785156 283.75 "/>
<g style="fill:rgb(0%,0%,0%);fill-opacity:1;">
  <use xlink:href="#glyph0-1" x="21.957031" y="318.198242"/>
  <use xlink:href="#glyph0-2" x="27.291016" y="318.198242"/>
  <use xlink:href="#glyph0-1" x="29.958008" y="318.198242"/>
</g>
<g style="fill:rgb(0%,0%,0%);fill-opacity:1;">
  <use xlink:href="#glyph0-1" x="21.957031" y="243.795898"/>
  <use xlink:href="#glyph0-2" x="27.291016" y="243.795898"/>
  <use xlink:href="#glyph0-3" x="29.958008" y="243.795898"/>
</g>
<g style="fill:rgb(0%,0%,0%);fill-opacity:1;">
  <use xlink:href="#glyph0-4" x="21.957031" y="169.397461"/>
  <use xlink:href="#glyph0-2" x="27.291016" y="169.397461"/>
  <use xlink:href="#glyph0-1" x="29.958008" y="169.397461"/>
</g>
<g style="fill:rgb(0%,0%,0%);fill-opacity:1;">
  <use xlink:href="#glyph0-4" x="21.957031" y="94.995117"/>
  <use xlink:href="#glyph0-2" x="27.291016" y="94.995117"/>
  <use xlink:href="#glyph0-3" x="29.958008" y="94.995117"/>
</g>
<g style="fill:rgb(0%,0%,0%);fill-opacity:1;">
  <use xlink:href="#glyph0-5" x="21.957031" y="20.59668"/>
  <use xlink:href="#glyph0-2" x="27.291016" y="20.59668"/>
  <use xlink:href="#glyph0-1" x="29.958008" y="20.59668"/>
</g>
<g style="fill:rgb(0%,0%,0%);fill-opacity:1;">
  <use xlink:href="#glyph0-4" x="84.90625" y="338.19043"/>
</g>
<g style="fill:rgb(0%,0%,0%);fill-opacity:1;">
  <use xlink:href="#glyph0-5" x="123.382812" y="338.19043"/>
</g>
<g style="fill:rgb(0%,0%,0%);fill-opacity:1;">
  <use xlink:href="#glyph0-6" x="161.859375" y="338.19043"/>
</g>
<g style="fill:rgb(0%,0%,0%);fill-opacity:1;">
  <use xlink:href="#glyph0-7" x="200.335938" y="338.19043"/>
</g>
<g style="fill:rgb(0%,0%,0%);fill-opacity:1;">
  <use xlink:href="#glyph0-3" x="238.8125" y="338.19043"/>
</g>
<g style="fill:rgb(0%,0%,0%);fill-opacity:1;">
  <use xlink:href="#glyph0-8" x="277.289062" y="338.19043"/>
</g>
<g style="fill:rgb(0%,0%,0%);fill-opacity:1;">
  <use xlink:href="#glyph0-9" x="315.769531" y="338.19043"/>
</g>
<g style="fill:rgb(0%,0%,0%);fill-opacity:1;">
  <use xlink:href="#glyph0-10" x="354.246094" y="338.19043"/>
</g>
<g style="fill:rgb(0%,0%,0%);fill-opacity:1;">
  <use xlink:href="#glyph0-11" x="392.722656" y="338.19043"/>
</g>
<g style="fill:rgb(0%,0%,0%);fill-opacity:1;">
  <use xlink:href="#glyph0-4" x="428.699219" y="338.19043"/>
  <use xlink:href="#glyph0-1" x="434.033203" y="338.19043"/>
</g>
<g style="fill:rgb(0%,0%,0%);fill-opacity:1;">
  <use xlink:href="#glyph0-4" x="467.175781" y="338.19043"/>
  <use xlink:href="#glyph0-4" x="472.509766" y="338.19043"/>
</g>
<g style="fill:rgb(0%,0%,0%);fill-opacity:1;">
  <use xlink:href="#glyph0-4" x="505.652344" y="338.19043"/>
  <use xlink:href="#glyph0-5" x="510.986328" y="338.19043"/>
</g>
<g style="fill:rgb(0%,0%,0%);fill-opacity:1;">
  <use xlink:href="#glyph0-4" x="544.128906" y="338.19043"/>
  <use xlink:href="#glyph0-6" x="549.462891" y="338.19043"/>
</g>
<g style="fill:rgb(0%,0%,0%);fill-opacity:1;">
  <use xlink:href="#glyph0-4" x="582.605469" y="338.19043"/>
  <use xlink:href="#glyph0-7" x="587.939453" y="338.19043"/>
</g>
<g style="fill:rgb(0%,0%,0%);fill-opacity:1;">
  <use xlink:href="#glyph0-4" x="621.082031" y="338.19043"/>
  <use xlink:href="#glyph0-3" x="626.416016" y="338.19043"/>
</g>
<g style="fill:rgb(0%,0%,0%);fill-opacity:1;">
  <use xlink:href="#glyph0-4" x="659.558594" y="338.19043"/>
  <use xlink:href="#glyph0-8" x="664.892578" y="338.19043"/>
</g>
<g style="fill:rgb(0%,0%,0%);fill-opacity:1;">
  <use xlink:href="#glyph1-1" x="14.412109" y="178.015625"/>
  <use xlink:href="#glyph1-2" x="14.412109" y="170.011719"/>
  <use xlink:href="#glyph1-3" x="14.412109" y="167.347656"/>
  <use xlink:href="#glyph1-4" x="14.412109" y="164.011719"/>
</g>
</g>
</svg>
