<?xml version="1.0" encoding="UTF-8"?>
<svg xmlns="http://www.w3.org/2000/svg" xmlns:xlink="http://www.w3.org/1999/xlink" width="720pt" height="360pt" viewBox="0 0 720 360" version="1.1">
<defs>
<g>
<symbol overflow="visible" id="glyph0-0">
<path style="stroke:none;" d=""/>
</symbol>
<symbol overflow="visible" id="glyph0-1">
<path style="stroke:none;" d="M 2.640625 -6.796875 C 2 -6.796875 1.421875 -6.53125 1.078125 -6.046875 C 0.640625 -5.453125 0.40625 -4.546875 0.40625 -3.296875 C 0.40625 -1 1.1875 0.21875 2.640625 0.21875 C 4.078125 0.21875 4.859375 -1 4.859375 -3.234375 C 4.859375 -4.5625 4.65625 -5.4375 4.203125 -6.046875 C 3.84375 -6.53125 3.28125 -6.796875 2.640625 -6.796875 Z M 2.640625 -6.046875 C 3.546875 -6.046875 4 -5.125 4 -3.3125 C 4 -1.375 3.5625 -0.484375 2.625 -0.484375 C 1.734375 -0.484375 1.28125 -1.421875 1.28125 -3.28125 C 1.28125 -5.140625 1.734375 -6.046875 2.640625 -6.046875 Z M 2.640625 -6.046875 "/>
</symbol>
<symbol overflow="visible" id="glyph0-2">
<path style="stroke:none;" d="M 1.828125 -1 L 0.828125 -1 L 0.828125 0 L 1.828125 0 Z M 1.828125 -1 "/>
</symbol>
<symbol overflow="visible" id="glyph0-3">
<path style="stroke:none;" d="M 4.5625 -6.796875 L 1.0625 -6.796875 L 0.546875 -3.09375 L 1.328125 -3.09375 C 1.71875 -3.5625 2.046875 -3.734375 2.578125 -3.734375 C 3.484375 -3.734375 4.0625 -3.109375 4.0625 -2.09375 C 4.0625 -1.125 3.484375 -0.53125 2.578125 -0.53125 C 1.828125 -0.53125 1.375 -0.90625 1.1875 -1.671875 L 0.328125 -1.671875 C 0.453125 -1.109375 0.546875 -0.84375 0.75 -0.59375 C 1.125 -0.078125 1.828125 0.21875 2.59375 0.21875 C 3.96875 0.21875 4.921875 -0.78125 4.921875 -2.21875 C 4.921875 -3.5625 4.03125 -4.484375 2.71875 -4.484375 C 2.25 -4.484375 1.859375 -4.359375 1.46875 -4.0625 L 1.734375 -5.96875 L 4.5625 -5.96875 Z M 4.5625 -6.796875 "/>
</symbol>
<symbol overflow="visible" id="glyph0-4">
<path style="stroke:none;" d="M 2.484375 -4.84375 L 2.484375 0 L 3.328125 0 L 3.328125 -6.796875 L 2.765625 -6.796875 C 2.46875 -5.75 2.28125 -5.609375 0.984375 -5.453125 L 0.984375 -4.84375 Z M 2.484375 -4.84375 "/>
</symbol>
<symbol overflow="visible" id="glyph0-5">
<path style="stroke:none;" d="M 4.859375 -0.828125 L 1.28125 -0.828125 C 1.359375 -1.390625 1.671875 -1.75 2.5 -2.234375 L 3.46875 -2.75 C 4.40625 -3.265625 4.90625 -3.96875 4.90625 -4.8125 C 4.90625 -5.375 4.671875 -5.90625 4.265625 -6.265625 C 3.859375 -6.625 3.375 -6.796875 2.71875 -6.796875 C 1.859375 -6.796875 1.21875 -6.5 0.84375 -5.921875 C 0.609375 -5.5625 0.5 -5.125 0.484375 -4.4375 L 1.328125 -4.4375 C 1.359375 -4.90625 1.40625 -5.1875 1.53125 -5.40625 C 1.75 -5.8125 2.1875 -6.0625 2.703125 -6.0625 C 3.46875 -6.0625 4.03125 -5.515625 4.03125 -4.78125 C 4.03125 -4.25 3.71875 -3.796875 3.125 -3.4375 L 2.234375 -2.9375 C 0.8125 -2.140625 0.40625 -1.5 0.328125 0 L 4.859375 0 Z M 4.859375 -0.828125 "/>
</symbol>
<symbol overflow="visible" id="glyph0-6">
<path style="stroke:none;" d="M 2.125 -3.125 L 2.578125 -3.125 C 3.515625 -3.125 3.984375 -2.703125 3.984375 -1.890625 C 3.984375 -1.03125 3.46875 -0.53125 2.578125 -0.53125 C 1.65625 -0.53125 1.203125 -0.984375 1.15625 -1.96875 L 0.3125 -1.96875 C 0.34375 -1.421875 0.4375 -1.078125 0.609375 -0.765625 C 0.953125 -0.109375 1.625 0.21875 2.546875 0.21875 C 3.953125 0.21875 4.859375 -0.609375 4.859375 -1.90625 C 4.859375 -2.765625 4.515625 -3.25 3.703125 -3.515625 C 4.34375 -3.765625 4.65625 -4.25 4.65625 -4.9375 C 4.65625 -6.109375 3.875 -6.796875 2.578125 -6.796875 C 1.203125 -6.796875 0.484375 -6.046875 0.453125 -4.609375 L 1.296875 -4.609375 C 1.3125 -5.015625 1.34375 -5.25 1.453125 -5.453125 C 1.640625 -5.828125 2.0625 -6.0625 2.59375 -6.0625 C 3.34375 -6.0625 3.796875 -5.625 3.796875 -4.90625 C 3.796875 -4.421875 3.609375 -4.140625 3.25 -3.984375 C 3.015625 -3.890625 2.71875 -3.84375 2.125 -3.84375 Z M 2.125 -3.125 "/>
</symbol>
<symbol overflow="visible" id="glyph0-7">
<path style="stroke:none;" d="M 3.140625 -1.625 L 3.140625 0 L 3.984375 0 L 3.984375 -1.625 L 4.984375 -1.625 L 4.984375 -2.390625 L 3.984375 -2.390625 L 3.984375 -6.796875 L 3.359375 -6.796875 L 0.265625 -2.515625 L 0.265625 -1.625 Z M 3.140625 -2.390625 L 1 -2.390625 L 3.140625 -5.359375 Z M 3.140625 -2.390625 "/>
</symbol>
<symbol overflow="visible" id="glyph0-8">
<path style="stroke:none;" d="M 4.78125 -5.03125 C 4.609375 -6.140625 3.890625 -6.796875 2.84375 -6.796875 C 2.09375 -6.796875 1.421875 -6.4375 1.03125 -5.828125 C 0.609375 -5.171875 0.40625 -4.34375 0.40625 -3.09375 C 0.40625 -1.953125 0.578125 -1.234375 0.984375 -0.625 C 1.359375 -0.078125 1.953125 0.21875 2.703125 0.21875 C 3.984375 0.21875 4.921875 -0.734375 4.921875 -2.078125 C 4.921875 -3.34375 4.0625 -4.234375 2.84375 -4.234375 C 2.171875 -4.234375 1.640625 -3.96875 1.28125 -3.46875 C 1.28125 -5.125 1.828125 -6.046875 2.796875 -6.046875 C 3.390625 -6.046875 3.796875 -5.671875 3.9375 -5.03125 Z M 2.734375 -3.484375 C 3.546875 -3.484375 4.0625 -2.921875 4.0625 -2 C 4.0625 -1.15625 3.484375 -0.53125 2.703125 -0.53125 C 1.921875 -0.53125 1.328125 -1.1875 1.328125 -2.046875 C 1.328125 -2.890625 1.90625 -3.484375 2.734375 -3.484375 Z M 2.734375 -3.484375 "/>
</symbol>
<symbol overflow="visible" id="glyph0-9">
<path style="stroke:none;" d="M 4.984375 -6.796875 L 0.4375 -6.796875 L 0.4375 -5.96875 L 4.109375 -5.96875 C 2.5 -3.65625 1.828125 -2.234375 1.328125 0 L 2.21875 0 C 2.59375 -2.171875 3.453125 -4.046875 4.984375 -6.09375 Z M 4.984375 -6.796875 "/>
</symbol>
<symbol overflow="visible" id="glyph1-0">
<path style="stroke:none;" d=""/>
</symbol>
<symbol overflow="visible" id="glyph1-1">
<path style="stroke:none;" d="M 0 -0.953125 L 0 -4.890625 C 0 -5.71875 -0.234375 -6.34375 -0.734375 -6.796875 C -1.1875 -7.234375 -1.8125 -7.46875 -2.5 -7.46875 C -3.546875 -7.46875 -4.1875 -7 -4.625 -5.875 C -4.984375 -6.671875 -5.640625 -7.09375 -6.53125 -7.09375 C -7.15625 -7.09375 -7.734375 -6.859375 -8.140625 -6.390625 C -8.5625 -5.9375 -8.75 -5.34375 -8.75 -4.5 L -8.75 -0.953125 Z M -4.984375 -2.0625 L -7.765625 -2.0625 L -7.765625 -4.21875 C -7.765625 -4.84375 -7.6875 -5.203125 -7.453125 -5.5 C -7.21875 -5.8125 -6.859375 -5.96875 -6.375 -5.96875 C -5.90625 -5.96875 -5.53125 -5.8125 -5.296875 -5.5 C -5.0625 -5.203125 -4.984375 -4.84375 -4.984375 -4.21875 Z M -0.984375 -2.0625 L -4 -2.0625 L -4 -4.78125 C -4 -5.328125 -3.859375 -5.6875 -3.578125 -5.953125 C -3.296875 -6.21875 -2.921875 -6.359375 -2.484375 -6.359375 C -2.0625 -6.359375 -1.6875 -6.21875 -1.40625 -5.953125 C -1.109375 -5.6875 -0.984375 -5.328125 -0.984375 -4.78125 Z M -0.984375 -2.0625 "/>
</symbol>
<symbol overflow="visible" id="glyph1-2">
<path style="stroke:none;" d="M -6.28125 -1.796875 L -6.28125 -0.796875 L 0 -0.796875 L 0 -1.796875 Z M -8.75 -1.796875 L -8.75 -0.796875 L -7.484375 -0.796875 L -7.484375 -1.796875 Z M -8.75 -1.796875 "/>
</symbol>
<symbol overflow="visible" id="glyph1-3">
<path style="stroke:none;" d="M -6.28125 -3.046875 L -6.28125 -2.015625 L -8.015625 -2.015625 L -8.015625 -1.015625 L -6.28125 -1.015625 L -6.28125 -0.171875 L -5.46875 -0.171875 L -5.46875 -1.015625 L -0.71875 -1.015625 C -0.078125 -1.015625 0.28125 -1.453125 0.28125 -2.234375 C 0.28125 -2.46875 0.25 -2.71875 0.1875 -3.046875 L -0.640625 -3.046875 C -0.609375 -2.921875 -0.59375 -2.765625 -0.59375 -2.5625 C -0.59375 -2.140625 -0.71875 -2.015625 -1.15625 -2.015625 L -5.46875 -2.015625 L -5.46875 -3.046875 Z M -6.28125 -3.046875 "/>
</symbol>
<symbol overflow="visible" id="glyph1-4">
<path style="stroke:none;" d="M -4.53125 -5.25 C -5.765625 -5.25 -6.46875 -4.421875 -6.46875 -2.96875 C -6.46875 -1.515625 -5.71875 -0.5625 -4.546875 -0.5625 C -3.5625 -0.5625 -3.09375 -1.0625 -2.734375 -2.5625 L -2.515625 -3.484375 C -2.34375 -4.1875 -2.09375 -4.46875 -1.625 -4.46875 C -1.046875 -4.46875 -0.640625 -3.875 -0.640625 -3 C -0.640625 -2.453125 -0.796875 -2 -1.0625 -1.75 C -1.25 -1.59375 -1.421875 -1.53125 -1.875 -1.46875 L -1.875 -0.40625 C -0.421875 -0.453125 0.28125 -1.265625 0.28125 -2.921875 C 0.28125 -4.5 -0.5 -5.515625 -1.71875 -5.515625 C -2.65625 -5.515625 -3.171875 -4.984375 -3.46875 -3.734375 L -3.703125 -2.765625 C -3.890625 -1.953125 -4.15625 -1.609375 -4.59375 -1.609375 C -5.171875 -1.609375 -5.546875 -2.125 -5.546875 -2.9375 C -5.546875 -3.75 -5.203125 -4.171875 -4.53125 -4.203125 Z M -4.53125 -5.25 "/>
</symbol>
</g>
</defs>
<g id="surface6193">
<rect x="0" y="0" width="720" height="360" style="fill:rgb(100%,100%,100%);fill-opacity:1;stroke:none;"/>
<path style=" stroke:none;fill-rule:nonzero;fill:rgb(6.27451%,58.823529%,28.235294%);fill-opacity:1;" d="M 69.628906 285.480469 L 69.71875 285.433594 L 106.015625 233.152344 L 117.039062 233.152344 L 153.515625 285.53125 L 140.703125 285.53125 L 131.558594 271.859375 L 91.496094 271.859375 L 82.535156 285.480469 L 69.628906 285.480469 L 95.351562 266.203125 L 127.886719 266.152344 L 111.664062 241.710938 L 111.484375 241.660156 L 111.304688 241.808594 L 95.261719 266.152344 L 95.351562 266.203125 Z M 69.628906 285.480469 "/>
<path style=" stroke:none;fill-rule:nonzero;fill:rgb(14.509804%,36.078431%,60%);fill-opacity:1;" d="M 69.628906 312.710938 L 69.730469 312.707031 L 69.730469 312.640625 L 70.039062 312.539062 L 70.753906 312.410156 L 71.472656 312.324219 L 73.3125 312.164062 L 75.871094 312.011719 L 78.53125 311.890625 L 80.472656 311.824219 L 82.210938 311.769531 L 86.203125 311.667969 L 88.761719 311.617188 L 91.523438 311.574219 L 94.898438 311.527344 L 97.351562 311.5 L 102.878906 311.457031 L 106.96875 311.4375 L 110.140625 311.429688 L 116.996094 311.429688 L 121.085938 311.441406 L 124.054688 311.453125 L 127.328125 311.476562 L 130.089844 311.5 L 134.898438 311.558594 L 139.195312 311.632812 L 141.140625 311.675781 L 144.207031 311.761719 L 146.5625 311.839844 L 148.199219 311.910156 L 150.039062 312.011719 L 151.675781 312.132812 L 152.902344 312.269531 L 153.515625 312.382812 L 139.195312 312.382812 L 138.480469 312.277344 L 137.660156 312.195312 L 136.125 312.082031 L 134.589844 312.003906 L 132.441406 311.925781 L 130.5 311.875 L 127.839844 311.824219 L 125.488281 311.792969 L 123.03125 311.769531 L 120.679688 311.753906 L 116.175781 311.738281 L 110.960938 311.738281 L 109.015625 311.742188 L 105.027344 311.761719 L 102.878906 311.78125 L 99.808594 311.820312 L 97.660156 311.855469 L 95.101562 311.910156 L 93.363281 311.953125 L 91.214844 312.023438 L 89.679688 312.085938 L 87.941406 312.175781 L 86.917969 312.242188 L 85.996094 312.316406 L 85.179688 312.40625 L 84.566406 312.5 L 84.15625 312.597656 L 83.953125 312.695312 L 83.953125 313.113281 L 84.15625 313.210938 L 84.667969 313.324219 L 85.996094 313.488281 L 87.941406 313.628906 L 90.191406 313.742188 L 92.339844 313.824219 L 93.566406 313.859375 L 95.203125 313.902344 L 97.761719 313.957031 L 101.445312 314.011719 L 103.59375 314.03125 L 106.867188 314.054688 L 110.242188 314.0625 L 114.746094 314.0625 L 118.734375 314.054688 L 121.394531 314.039062 L 124.15625 314.019531 L 127.941406 313.972656 L 130.292969 313.929688 L 132.339844 313.878906 L 133.875 313.828125 L 134.898438 313.785156 L 136.433594 313.703125 L 137.660156 313.609375 L 138.582031 313.515625 L 139.195312 313.425781 L 153.515625 313.425781 L 152.902344 313.53125 L 151.984375 313.636719 L 151.0625 313.714844 L 149.628906 313.808594 L 147.992188 313.890625 L 145.640625 313.984375 L 143.695312 314.046875 L 141.140625 314.117188 L 138.785156 314.167969 L 136.226562 314.210938 L 132.441406 314.265625 L 129.988281 314.292969 L 127.328125 314.316406 L 124.15625 314.339844 L 120.167969 314.355469 L 115.871094 314.367188 L 111.878906 314.371094 L 107.582031 314.367188 L 104.414062 314.355469 L 100.21875 314.332031 L 95 314.28125 L 91.214844 314.230469 L 88.25 314.179688 L 85.691406 314.125 L 82.828125 314.054688 L 79.144531 313.933594 L 76.894531 313.84375 L 75.359375 313.769531 L 73.621094 313.664062 L 72.390625 313.570312 L 70.960938 313.417969 L 69.9375 313.226562 L 69.628906 313.082031 Z M 69.628906 312.710938 "/>
<path style=" stroke:none;fill-rule:nonzero;fill:rgb(96.862745%,70.196078%,16.862745%);fill-opacity:1;" d="M 69.628906 291.5 L 69.730469 291.488281 L 69.730469 291.285156 L 70.140625 290.824219 L 71.164062 290.191406 L 72.492188 289.671875 L 73.925781 289.261719 L 74.847656 289.050781 L 76.382812 288.742188 L 77.710938 288.519531 L 81.085938 288.058594 L 85.382812 287.628906 L 87.738281 287.445312 L 90.398438 287.273438 L 94.183594 287.078125 L 95.921875 287.007812 L 101.242188 286.84375 L 107.277344 286.742188 L 113.925781 286.710938 L 116.996094 286.722656 L 121.191406 286.761719 L 126.917969 286.875 L 130.191406 286.976562 L 132.75 287.078125 L 135.410156 287.210938 L 138.683594 287.414062 L 141.753906 287.660156 L 144.207031 287.90625 L 146.664062 288.210938 L 148.710938 288.539062 L 150.449219 288.894531 L 151.984375 289.324219 L 152.902344 289.683594 L 153.515625 290.039062 L 139.296875 290.039062 L 138.480469 289.683594 L 137.558594 289.40625 L 136.023438 289.070312 L 134.488281 288.824219 L 132.953125 288.628906 L 130.089844 288.363281 L 127.636719 288.203125 L 124.566406 288.058594 L 121.597656 287.964844 L 118.222656 287.90625 L 116.175781 287.886719 L 110.753906 287.886719 L 105.84375 287.957031 L 102.980469 288.039062 L 100.933594 288.121094 L 98.070312 288.273438 L 96.332031 288.394531 L 95.308594 288.476562 L 92.238281 288.792969 L 90.191406 289.078125 L 89.066406 289.273438 L 87.632812 289.578125 L 86.613281 289.855469 L 85.484375 290.265625 L 84.871094 290.570312 L 84.054688 291.265625 L 83.953125 293.101562 L 84.257812 293.492188 L 84.871094 293.910156 L 85.691406 294.277344 L 86.917969 294.664062 L 88.144531 294.960938 L 90.292969 295.359375 L 92.136719 295.625 L 93.566406 295.796875 L 96.332031 296.074219 L 97.457031 296.164062 L 100.117188 296.347656 L 102.878906 296.492188 L 106.253906 296.613281 L 108.8125 296.675781 L 112.902344 296.726562 L 118.121094 296.726562 L 124.257812 296.664062 L 128.144531 296.585938 L 130.804688 296.503906 L 132.546875 296.429688 L 134.695312 296.320312 L 136.226562 296.214844 L 137.660156 296.105469 L 139.398438 295.929688 L 139.398438 293.492188 L 114.132812 293.480469 L 114.132812 292.335938 L 153.414062 292.328125 L 153.515625 296.320312 L 151.367188 296.59375 L 148.710938 296.859375 L 146.152344 297.0625 L 143.492188 297.238281 L 139.707031 297.429688 L 136.636719 297.554688 L 131.929688 297.695312 L 127.636719 297.789062 L 123.132812 297.851562 L 119.144531 297.878906 L 114.4375 297.890625 L 110.242188 297.871094 L 105.742188 297.808594 L 102.160156 297.726562 L 98.886719 297.625 L 95.613281 297.492188 L 91.523438 297.277344 L 88.863281 297.105469 L 86.101562 296.890625 L 83.335938 296.636719 L 80.882812 296.359375 L 79.246094 296.144531 L 77.609375 295.898438 L 75.871094 295.59375 L 74.234375 295.246094 L 73.003906 294.929688 L 71.878906 294.574219 L 71.0625 294.234375 L 70.242188 293.777344 L 69.832031 293.410156 L 69.628906 293.09375 Z M 69.628906 291.5 "/>
<path style=" stroke:none;fill-rule:nonzero;fill:rgb(83.921569%,15.686275%,22.352941%);fill-opacity:1;" d="M 69.628906 299.070312 L 153.515625 299.070312 L 153.515625 300.265625 L 118.554688 300.277344 L 118.554688 310.25 L 104.488281 310.25 L 104.488281 300.289062 L 104.285156 300.265625 L 69.628906 300.265625 Z M 69.628906 299.070312 "/>
<path style=" stroke:none;fill-rule:nonzero;fill:rgb(14.509804%,36.078431%,60%);fill-opacity:1;" d="M 157.933594 307.902344 L 158.035156 307.890625 L 158.035156 307.640625 L 158.34375 307.242188 L 159.058594 306.738281 L 159.773438 306.394531 L 161.617188 305.773438 L 164.171875 305.179688 L 166.832031 304.71875 L 168.777344 304.445312 L 170.515625 304.238281 L 174.503906 303.847656 L 177.0625 303.648438 L 179.824219 303.472656 L 183.203125 303.292969 L 185.65625 303.1875 L 191.179688 303.023438 L 195.273438 302.949219 L 198.445312 302.917969 L 205.296875 302.917969 L 209.390625 302.960938 L 212.359375 303.011719 L 215.632812 303.09375 L 218.394531 303.1875 L 223.203125 303.417969 L 227.5 303.710938 L 229.441406 303.878906 L 232.511719 304.203125 L 234.863281 304.519531 L 236.5 304.792969 L 238.34375 305.179688 L 239.980469 305.648438 L 241.207031 306.183594 L 241.820312 306.632812 L 227.5 306.632812 L 226.78125 306.214844 L 225.964844 305.890625 L 224.429688 305.460938 L 222.894531 305.15625 L 220.746094 304.855469 L 218.800781 304.65625 L 216.144531 304.457031 L 213.789062 304.332031 L 211.335938 304.238281 L 208.980469 304.171875 L 204.480469 304.109375 L 199.261719 304.109375 L 197.320312 304.132812 L 193.328125 304.214844 L 191.179688 304.289062 L 188.113281 304.433594 L 185.964844 304.570312 L 183.40625 304.78125 L 181.667969 304.957031 L 179.519531 305.230469 L 177.984375 305.472656 L 176.246094 305.816406 L 175.222656 306.078125 L 174.300781 306.371094 L 173.484375 306.71875 L 172.867188 307.085938 L 172.460938 307.472656 L 172.253906 307.847656 L 172.253906 309.472656 L 172.460938 309.847656 L 172.972656 310.289062 L 174.300781 310.925781 L 176.246094 311.480469 L 178.496094 311.921875 L 180.644531 312.234375 L 181.871094 312.382812 L 183.507812 312.550781 L 186.066406 312.757812 L 189.75 312.96875 L 191.898438 313.050781 L 195.171875 313.136719 L 198.546875 313.175781 L 203.046875 313.175781 L 207.039062 313.136719 L 209.699219 313.082031 L 212.460938 313 L 216.246094 312.820312 L 218.597656 312.652344 L 220.644531 312.453125 L 222.179688 312.253906 L 223.203125 312.089844 L 224.734375 311.765625 L 225.964844 311.40625 L 226.882812 311.042969 L 227.5 310.683594 L 241.820312 310.683594 L 241.207031 311.105469 L 240.285156 311.511719 L 239.367188 311.816406 L 237.933594 312.183594 L 236.296875 312.507812 L 233.945312 312.875 L 232 313.113281 L 229.441406 313.375 L 227.089844 313.574219 L 224.53125 313.753906 L 220.746094 313.960938 L 218.292969 314.066406 L 215.632812 314.160156 L 212.460938 314.246094 L 208.46875 314.316406 L 204.171875 314.359375 L 200.183594 314.371094 L 195.886719 314.351562 L 192.714844 314.308594 L 188.519531 314.214844 L 183.304688 314.023438 L 179.519531 313.828125 L 176.550781 313.628906 L 173.992188 313.417969 L 171.128906 313.136719 L 167.445312 312.675781 L 165.195312 312.320312 L 163.660156 312.027344 L 161.921875 311.617188 L 160.695312 311.25 L 159.261719 310.664062 L 158.238281 309.921875 L 157.933594 309.34375 Z M 157.933594 307.902344 "/>
<path style=" stroke:none;fill-rule:nonzero;fill:rgb(83.921569%,15.686275%,22.352941%);fill-opacity:1;" d="M 157.933594 62.890625 L 241.820312 62.890625 L 241.820312 88.457031 L 206.859375 88.679688 L 206.859375 301.738281 L 192.792969 301.738281 L 192.792969 88.90625 L 192.589844 88.457031 L 157.933594 88.457031 Z M 157.933594 62.890625 "/>
<path style=" stroke:none;fill-rule:nonzero;fill:rgb(6.27451%,58.823529%,28.235294%);fill-opacity:1;" d="M 246.234375 314.09375 L 246.324219 313.820312 L 282.625 20.664062 L 293.648438 20.664062 L 330.125 314.371094 L 317.308594 314.371094 L 308.167969 237.703125 L 268.105469 237.703125 L 259.140625 314.09375 L 246.234375 314.09375 L 271.957031 205.988281 L 304.492188 205.710938 L 288.269531 68.648438 L 288.089844 68.375 L 287.910156 69.199219 L 271.867188 205.710938 L 271.957031 205.988281 Z M 246.234375 314.09375 "/>
<path style=" stroke:none;fill-rule:nonzero;fill:rgb(14.509804%,36.078431%,60%);fill-opacity:1;" d="M 334.539062 166.8125 L 334.640625 166.59375 L 334.640625 161.355469 L 334.949219 153.058594 L 335.664062 142.578125 L 336.378906 135.375 L 338.222656 122.492188 L 340.78125 110.046875 L 343.441406 100.441406 L 345.382812 94.765625 L 347.121094 90.398438 L 351.113281 82.320312 L 353.667969 78.171875 L 356.433594 74.460938 L 359.808594 70.75 L 362.261719 68.566406 L 367.789062 65.074219 L 371.878906 63.546875 L 375.050781 62.890625 L 381.90625 62.890625 L 385.996094 63.761719 L 388.964844 64.855469 L 392.238281 66.601562 L 395 68.566406 L 399.808594 73.371094 L 404.105469 79.484375 L 406.046875 82.976562 L 409.117188 89.746094 L 411.46875 96.292969 L 413.109375 101.96875 L 414.949219 110.046875 L 416.585938 119.875 L 417.8125 131.007812 L 418.425781 140.394531 L 404.105469 140.394531 L 403.390625 131.664062 L 402.570312 124.894531 L 401.035156 115.941406 L 399.5 109.613281 L 397.351562 103.28125 L 395.410156 99.132812 L 392.75 94.984375 L 390.394531 92.363281 L 387.941406 90.398438 L 385.589844 89.089844 L 381.085938 87.78125 L 375.871094 87.78125 L 373.925781 88.214844 L 369.9375 89.960938 L 367.789062 91.492188 L 364.71875 94.546875 L 362.570312 97.386719 L 360.011719 101.753906 L 358.273438 105.464844 L 356.125 111.140625 L 354.589844 116.160156 L 352.851562 123.367188 L 351.828125 128.824219 L 350.90625 134.9375 L 350.089844 142.140625 L 349.476562 149.785156 L 349.066406 157.863281 L 348.863281 165.722656 L 348.863281 199.5625 L 349.066406 207.421875 L 349.578125 216.589844 L 350.90625 229.910156 L 352.851562 241.480469 L 355.101562 250.648438 L 357.25 257.199219 L 358.476562 260.257812 L 360.113281 263.75 L 362.671875 268.117188 L 366.355469 272.480469 L 368.503906 274.230469 L 371.777344 275.976562 L 375.152344 276.847656 L 379.65625 276.847656 L 383.644531 275.976562 L 386.304688 274.882812 L 389.066406 273.136719 L 392.851562 269.425781 L 395.203125 265.933594 L 397.25 261.785156 L 398.785156 257.636719 L 399.808594 254.144531 L 401.34375 247.375 L 402.570312 239.953125 L 403.492188 232.308594 L 404.105469 224.886719 L 418.425781 224.886719 L 417.8125 233.621094 L 416.894531 242.136719 L 415.972656 248.464844 L 414.539062 256.109375 L 412.902344 262.875 L 410.550781 270.515625 L 408.605469 275.539062 L 406.046875 280.996094 L 403.695312 285.144531 L 401.136719 288.855469 L 397.351562 293.222656 L 394.898438 295.40625 L 392.238281 297.371094 L 389.066406 299.117188 L 385.078125 300.644531 L 380.78125 301.519531 L 376.789062 301.738281 L 372.492188 301.300781 L 369.320312 300.425781 L 365.128906 298.460938 L 359.910156 294.53125 L 356.125 290.386719 L 353.160156 286.238281 L 350.601562 281.871094 L 347.734375 275.976562 L 344.054688 266.367188 L 341.800781 258.945312 L 340.269531 252.832031 L 338.527344 244.316406 L 337.300781 236.675781 L 335.867188 224.449219 L 334.847656 208.949219 L 334.539062 196.941406 Z M 334.539062 166.8125 "/>
<path style=" stroke:none;fill-rule:nonzero;fill:rgb(83.921569%,15.686275%,22.352941%);fill-opacity:1;" d="M 334.539062 302.917969 L 418.425781 302.917969 L 418.425781 304.144531 L 383.464844 304.152344 L 383.464844 314.371094 L 369.398438 314.371094 L 369.398438 304.164062 L 369.195312 304.144531 L 334.539062 304.144531 Z M 334.539062 302.917969 "/>
<path style=" stroke:none;fill-rule:nonzero;fill:rgb(6.27451%,58.823529%,28.235294%);fill-opacity:1;" d="M 422.84375 314.359375 L 422.933594 314.347656 L 459.230469 302.917969 L 470.253906 302.917969 L 506.730469 314.371094 L 493.914062 314.371094 L 484.773438 311.382812 L 444.710938 311.382812 L 435.75 314.359375 L 422.84375 314.359375 L 448.566406 310.144531 L 481.097656 310.132812 L 464.875 304.789062 L 464.695312 304.777344 L 464.519531 304.808594 L 448.476562 310.132812 L 448.566406 310.144531 Z M 422.84375 314.359375 "/>
<path style=" stroke:none;fill-rule:nonzero;fill:rgb(83.921569%,15.686275%,22.352941%);fill-opacity:1;" d="M 422.84375 62.890625 L 506.730469 62.890625 L 506.730469 88.457031 L 471.769531 88.679688 L 471.769531 301.738281 L 457.703125 301.738281 L 457.703125 88.90625 L 457.5 88.457031 L 422.84375 88.457031 Z M 422.84375 62.890625 "/>
<path style=" stroke:none;fill-rule:nonzero;fill:rgb(6.27451%,58.823529%,28.235294%);fill-opacity:1;" d="M 511.144531 314.359375 L 511.234375 314.347656 L 547.53125 302.917969 L 558.558594 302.917969 L 595.035156 314.371094 L 582.21875 314.371094 L 573.074219 311.382812 L 533.015625 311.382812 L 524.050781 314.359375 L 511.144531 314.359375 L 536.867188 310.144531 L 569.402344 310.132812 L 553.179688 304.789062 L 553 304.777344 L 552.820312 304.808594 L 536.777344 310.132812 L 536.867188 310.144531 Z M 511.144531 314.359375 "/>
<path style=" stroke:none;fill-rule:nonzero;fill:rgb(83.921569%,15.686275%,22.352941%);fill-opacity:1;" d="M 511.144531 62.890625 L 595.035156 62.890625 L 595.035156 88.457031 L 560.070312 88.679688 L 560.070312 301.738281 L 546.003906 301.738281 L 546.003906 88.90625 L 545.800781 88.457031 L 511.144531 88.457031 Z M 511.144531 62.890625 "/>
<path style=" stroke:none;fill-rule:nonzero;fill:rgb(6.27451%,58.823529%,28.235294%);fill-opacity:1;" d="M 599.449219 301.511719 L 599.539062 301.289062 L 635.835938 62.890625 L 646.859375 62.890625 L 683.335938 301.738281 L 670.519531 301.738281 L 661.378906 239.390625 L 621.316406 239.390625 L 612.355469 301.511719 L 599.449219 301.511719 L 625.171875 213.601562 L 657.703125 213.375 L 641.484375 101.914062 L 641.304688 101.6875 L 641.125 102.363281 L 625.082031 213.375 L 625.171875 213.601562 Z M 599.449219 301.511719 "/>
<path style=" stroke:none;fill-rule:nonzero;fill:rgb(96.862745%,70.196078%,16.862745%);fill-opacity:1;" d="M 599.449219 307.824219 L 599.550781 307.8125 L 599.550781 307.601562 L 599.960938 307.132812 L 600.984375 306.484375 L 602.3125 305.949219 L 603.746094 305.53125 L 604.667969 305.3125 L 606.199219 305 L 607.53125 304.769531 L 610.90625 304.296875 L 615.203125 303.859375 L 617.554688 303.671875 L 620.214844 303.492188 L 624 303.292969 L 625.742188 303.21875 L 631.058594 303.054688 L 637.097656 302.949219 L 643.746094 302.917969 L 646.816406 302.925781 L 651.007812 302.96875 L 656.738281 303.085938 L 660.011719 303.1875 L 662.570312 303.292969 L 665.230469 303.429688 L 668.503906 303.640625 L 671.570312 303.890625 L 674.027344 304.140625 L 676.484375 304.453125 L 678.527344 304.789062 L 680.269531 305.15625 L 681.800781 305.59375 L 682.722656 305.960938 L 683.335938 306.328125 L 669.117188 306.328125 L 668.296875 305.960938 L 667.378906 305.679688 L 665.84375 305.332031 L 664.308594 305.082031 L 662.773438 304.882812 L 659.910156 304.613281 L 657.453125 304.445312 L 654.386719 304.296875 L 651.417969 304.203125 L 648.042969 304.140625 L 645.996094 304.121094 L 640.574219 304.121094 L 635.664062 304.191406 L 632.800781 304.277344 L 630.753906 304.359375 L 627.890625 304.515625 L 626.148438 304.644531 L 625.125 304.726562 L 622.058594 305.050781 L 620.011719 305.34375 L 618.886719 305.542969 L 617.453125 305.855469 L 616.429688 306.140625 L 615.304688 306.558594 L 614.691406 306.871094 L 613.875 307.582031 L 613.769531 309.464844 L 614.078125 309.863281 L 614.691406 310.292969 L 615.511719 310.667969 L 616.738281 311.066406 L 617.964844 311.367188 L 620.113281 311.777344 L 621.957031 312.046875 L 623.386719 312.226562 L 626.148438 312.507812 L 627.273438 312.601562 L 629.933594 312.792969 L 632.695312 312.9375 L 636.074219 313.0625 L 638.628906 313.125 L 642.722656 313.179688 L 647.941406 313.179688 L 654.078125 313.117188 L 657.964844 313.03125 L 660.625 312.949219 L 662.363281 312.875 L 664.511719 312.761719 L 666.046875 312.65625 L 667.480469 312.539062 L 669.21875 312.363281 L 669.21875 309.863281 L 643.949219 309.851562 L 643.949219 308.679688 L 683.234375 308.671875 L 683.335938 312.761719 L 681.1875 313.042969 L 678.527344 313.3125 L 675.972656 313.523438 L 673.3125 313.703125 L 669.527344 313.898438 L 666.457031 314.027344 L 661.75 314.171875 L 657.453125 314.265625 L 652.953125 314.328125 L 648.964844 314.359375 L 644.257812 314.371094 L 640.0625 314.351562 L 635.5625 314.285156 L 631.980469 314.203125 L 628.707031 314.097656 L 625.433594 313.960938 L 621.339844 313.742188 L 618.683594 313.566406 L 615.917969 313.34375 L 613.15625 313.085938 L 610.703125 312.800781 L 609.066406 312.582031 L 607.429688 312.332031 L 605.6875 312.015625 L 604.050781 311.660156 L 602.824219 311.335938 L 601.699219 310.972656 L 600.882812 310.625 L 600.0625 310.15625 L 599.652344 309.777344 L 599.449219 309.453125 Z M 599.449219 307.824219 "/>
<g style="fill:rgb(0%,0%,0%);fill-opacity:1;">
  <use xlink:href="#glyph0-1" x="21.957031" y="318.198242"/>
  <use xlink:href="#glyph0-2" x="27.291016" y="318.198242"/>
  <use xlink:href="#glyph0-1" x="29.958008" y="318.198242"/>
</g>
<g style="fill:rgb(0%,0%,0%);fill-opacity:1;">
  <use xlink:href="#glyph0-1" x="21.957031" y="244.475586"/>
  <use xlink:href="#glyph0-2" x="27.291016" y="244.475586"/>
  <use xlink:href="#glyph0-3" x="29.958008" y="244.475586"/>
</g>
<g style="fill:rgb(0%,0%,0%);fill-opacity:1;">
  <use xlink:href="#glyph0-4" x="21.957031" y="170.75293"/>
  <use xlink:href="#glyph0-2" x="27.291016" y="170.75293"/>
  <use xlink:href="#glyph0-1" x="29.958008" y="170.75293"/>
</g>
<g style="fill:rgb(0%,0%,0%);fill-opacity:1;">
  <use xlink:href="#glyph0-4" x="21.957031" y="97.03418"/>
  <use xlink:href="#glyph0-2" x="27.291016" y="97.03418"/>
  <use xlink:href="#glyph0-3" x="29.958008" y="97.03418"/>
</g>
<g style="fill:rgb(0%,0%,0%);fill-opacity:1;">
  <use xlink:href="#glyph0-5" x="21.957031" y="23.311523"/>
  <use xlink:href="#glyph0-2" x="27.291016" y="23.311523"/>
  <use xlink:href="#glyph0-1" x="29.958008" y="23.311523"/>
</g>
<g style="fill:rgb(0%,0%,0%);fill-opacity:1;">
  <use xlink:href="#glyph0-4" x="108.574219" y="338.19043"/>
</g>
<g style="fill:rgb(0%,0%,0%);fill-opacity:1;">
  <use xlink:href="#glyph0-5" x="196.875" y="338.19043"/>
</g>
<g style="fill:rgb(0%,0%,0%);fill-opacity:1;">
  <use xlink:href="#glyph0-6" x="285.179688" y="338.19043"/>
</g>
<g style="fill:rgb(0%,0%,0%);fill-opacity:1;">
  <use xlink:href="#glyph0-7" x="373.484375" y="338.19043"/>
</g>
<g style="fill:rgb(0%,0%,0%);fill-opacity:1;">
  <use xlink:href="#glyph0-3" x="461.785156" y="338.19043"/>
</g>
<g style="fill:rgb(0%,0%,0%);fill-opacity:1;">
  <use xlink:href="#glyph0-8" x="550.089844" y="338.19043"/>
</g>
<g style="fill:rgb(0%,0%,0%);fill-opacity:1;">
  <use xlink:href="#glyph0-9" x="638.394531" y="338.19043"/>
</g>
<g style="fill:rgb(0%,0%,0%);fill-opacity:1;">
  <use xlink:href="#glyph1-1" x="14.412109" y="178.015625"/>
  <use xlink:href="#glyph1-2" x="14.412109" y="170.011719"/>
  <use xlink:href="#glyph1-3" x="14.412109" y="167.347656"/>
  <use xlink:href="#glyph1-4" x="14.412109" y="164.011719"/>
</g>
</g>
</svg>
