<?xml version="1.0" encoding="UTF-8"?>
<svg xmlns="http://www.w3.org/2000/svg" xmlns:xlink="http://www.w3.org/1999/xlink" width="720pt" height="360pt" viewBox="0 0 720 360" version="1.1">
<defs>
<g>
<symbol overflow="visible" id="glyph0-0">
<path style="stroke:none;" d=""/>
</symbol>
<symbol overflow="visible" id="glyph0-1">
<path style="stroke:none;" d="M 2.640625 -6.796875 C 2 -6.796875 1.421875 -6.53125 1.078125 -6.046875 C 0.640625 -5.453125 0.40625 -4.546875 0.40625 -3.296875 C 0.40625 -1 1.1875 0.21875 2.640625 0.21875 C 4.078125 0.21875 4.859375 -1 4.859375 -3.234375 C 4.859375 -4.5625 4.65625 -5.4375 4.203125 -6.046875 C 3.84375 -6.53125 3.28125 -6.796875 2.640625 -6.796875 Z M 2.640625 -6.046875 C 3.546875 -6.046875 4 -5.125 4 -3.3125 C 4 -1.375 3.5625 -0.484375 2.625 -0.484375 C 1.734375 -0.484375 1.28125 -1.421875 1.28125 -3.28125 C 1.28125 -5.140625 1.734375 -6.046875 2.640625 -6.046875 Z M 2.640625 -6.046875 "/>
</symbol>
<symbol overflow="visible" id="glyph0-2">
<path style="stroke:none;" d="M 1.828125 -1 L 0.828125 -1 L 0.828125 0 L 1.828125 0 Z M 1.828125 -1 "/>
</symbol>
<symbol overflow="visible" id="glyph0-3">
<path style="stroke:none;" d="M 4.5625 -6.796875 L 1.0625 -6.796875 L 0.546875 -3.09375 L 1.328125 -3.09375 C 1.71875 -3.5625 2.046875 -3.734375 2.578125 -3.734375 C 3.484375 -3.734375 4.0625 -3.109375 4.0625 -2.09375 C 4.0625 -1.125 3.484375 -0.53125 2.578125 -0.53125 C 1.828125 -0.53125 1.375 -0.90625 1.1875 -1.671875 L 0.328125 -1.671875 C 0.453125 -1.109375 0.546875 -0.84375 0.75 -0.59375 C 1.125 -0.078125 1.828125 0.21875 2.59375 0.21875 C 3.96875 0.21875 4.921875 -0.78125 4.921875 -2.21875 C 4.921875 -3.5625 4.03125 -4.484375 2.71875 -4.484375 C 2.25 -4.484375 1.859375 -4.359375 1.46875 -4.0625 L 1.734375 -5.96875 L 4.5625 -5.96875 Z M 4.5625 -6.796875 "/>
</symbol>
<symbol overflow="visible" id="glyph0-4">
<path style="stroke:none;" d="M 2.484375 -4.84375 L 2.484375 0 L 3.328125 0 L 3.328125 -6.796875 L 2.765625 -6.796875 C 2.46875 -5.75 2.28125 -5.609375 0.984375 -5.453125 L 0.984375 -4.84375 Z M 2.484375 -4.84375 "/>
</symbol>
<symbol overflow="visible" id="glyph0-5">
<path style="stroke:none;" d="M 4.859375 -0.828125 L 1.28125 -0.828125 C 1.359375 -1.390625 1.671875 -1.75 2.5 -2.234375 L 3.46875 -2.75 C 4.40625 -3.265625 4.90625 -3.96875 4.90625 -4.8125 C 4.90625 -5.375 4.671875 -5.90625 4.265625 -6.265625 C 3.859375 -6.625 3.375 -6.796875 2.71875 -6.796875 C 1.859375 -6.796875 1.21875 -6.5 0.84375 -5.921875 C 0.609375 -5.5625 0.5 -5.125 0.484375 -4.4375 L 1.328125 -4.4375 C 1.359375 -4.90625 1.40625 -5.1875 1.53125 -5.40625 C 1.75 -5.8125 2.1875 -6.0625 2.703125 -6.0625 C 3.46875 -6.0625 4.03125 -5.515625 4.03125 -4.78125 C 4.03125 -4.25 3.71875 -3.796875 3.125 -3.4375 L 2.234375 -2.9375 C 0.8125 -2.140625 0.40625 -1.5 0.328125 0 L 4.859375 0 Z M 4.859375 -0.828125 "/>
</symbol>
<symbol overflow="visible" id="glyph0-6">
<path style="stroke:none;" d="M 2.125 -3.125 L 2.578125 -3.125 C 3.515625 -3.125 3.984375 -2.703125 3.984375 -1.890625 C 3.984375 -1.03125 3.46875 -0.53125 2.578125 -0.53125 C 1.65625 -0.53125 1.203125 -0.984375 1.15625 -1.96875 L 0.3125 -1.96875 C 0.34375 -1.421875 0.4375 -1.078125 0.609375 -0.765625 C 0.953125 -0.109375 1.625 0.21875 2.546875 0.21875 C 3.953125 0.21875 4.859375 -0.609375 4.859375 -1.90625 C 4.859375 -2.765625 4.515625 -3.25 3.703125 -3.515625 C 4.34375 -3.765625 4.65625 -4.25 4.65625 -4.9375 C 4.65625 -6.109375 3.875 -6.796875 2.578125 -6.796875 C 1.203125 -6.796875 0.484375 -6.046875 0.453125 -4.609375 L 1.296875 -4.609375 C 1.3125 -5.015625 1.34375 -5.25 1.453125 -5.453125 C 1.640625 -5.828125 2.0625 -6.0625 2.59375 -6.0625 C 3.34375 -6.0625 3.796875 -5.625 3.796875 -4.90625 C 3.796875 -4.421875 3.609375 -4.140625 3.25 -3.984375 C 3.015625 -3.890625 2.71875 -3.84375 2.125 -3.84375 Z M 2.125 -3.125 "/>
</symbol>
<symbol overflow="visible" id="glyph0-7">
<path style="stroke:none;" d="M 3.140625 -1.625 L 3.140625 0 L 3.984375 0 L 3.984375 -1.625 L 4.984375 -1.625 L 4.984375 -2.390625 L 3.984375 -2.390625 L 3.984375 -6.796875 L 3.359375 -6.796875 L 0.265625 -2.515625 L 0.265625 -1.625 Z M 3.140625 -2.390625 L 1 -2.390625 L 3.140625 -5.359375 Z M 3.140625 -2.390625 "/>
</symbol>
<symbol overflow="visible" id="glyph0-8">
<path style="stroke:none;" d="M 4.78125 -5.03125 C 4.609375 -6.140625 3.890625 -6.796875 2.84375 -6.796875 C 2.09375 -6.796875 1.421875 -6.4375 1.03125 -5.828125 C 0.609375 -5.171875 0.40625 -4.34375 0.40625 -3.09375 C 0.40625 -1.953125 0.578125 -1.234375 0.984375 -0.625 C 1.359375 -0.078125 1.953125 0.21875 2.703125 0.21875 C 3.984375 0.21875 4.921875 -0.734375 4.921875 -2.078125 C 4.921875 -3.34375 4.0625 -4.234375 2.84375 -4.234375 C 2.171875 -4.234375 1.640625 -3.96875 1.28125 -3.46875 C 1.28125 -5.125 1.828125 -6.046875 2.796875 -6.046875 C 3.390625 -6.046875 3.796875 -5.671875 3.9375 -5.03125 Z M 2.734375 -3.484375 C 3.546875 -3.484375 4.0625 -2.921875 4.0625 -2 C 4.0625 -1.15625 3.484375 -0.53125 2.703125 -0.53125 C 1.921875 -0.53125 1.328125 -1.1875 1.328125 -2.046875 C 1.328125 -2.890625 1.90625 -3.484375 2.734375 -3.484375 Z M 2.734375 -3.484375 "/>
</symbol>
<symbol overflow="visible" id="glyph0-9">
<path style="stroke:none;" d="M 4.984375 -6.796875 L 0.4375 -6.796875 L 0.4375 -5.96875 L 4.109375 -5.96875 C 2.5 -3.65625 1.828125 -2.234375 1.328125 0 L 2.21875 0 C 2.59375 -2.171875 3.453125 -4.046875 4.984375 -6.09375 Z M 4.984375 -6.796875 "/>
</symbol>
<symbol overflow="visible" id="glyph1-0">
<path style="stroke:none;" d=""/>
</symbol>
<symbol overflow="visible" id="glyph1-1">
<path style="stroke:none;" d="M 0 -0.953125 L 0 -4.890625 C 0 -5.71875 -0.234375 -6.34375 -0.734375 -6.796875 C -1.1875 -7.234375 -1.8125 -7.46875 -2.5 -7.46875 C -3.546875 -7.46875 -4.1875 -7 -4.625 -5.875 C -4.984375 -6.671875 -5.640625 -7.09375 -6.53125 -7.09375 C -7.15625 -7.09375 -7.734375 -6.859375 -8.140625 -6.390625 C -8.5625 -5.9375 -8.75 -5.34375 -8.75 -4.5 L -8.75 -0.953125 Z M -4.984375 -2.0625 L -7.765625 -2.0625 L -7.765625 -4.21875 C -7.765625 -4.84375 -7.6875 -5.203125 -7.453125 -5.5 C -7.21875 -5.8125 -6.859375 -5.96875 -6.375 -5.96875 C -5.90625 -5.96875 -5.53125 -5.8125 -5.296875 -5.5 C -5.0625 -5.203125 -4.984375 -4.84375 -4.984375 -4.21875 Z M -0.984375 -2.0625 L -4 -2.0625 L -4 -4.78125 C -4 -5.328125 -3.859375 -5.6875 -3.578125 -5.953125 C -3.296875 -6.21875 -2.921875 -6.359375 -2.484375 -6.359375 C -2.0625 -6.359375 -1.6875 -6.21875 -1.40625 -5.953125 C -1.109375 -5.6875 -0.984375 -5.328125 -0.984375 -4.78125 Z M -0.984375 -2.0625 "/>
</symbol>
<symbol overflow="visible" id="glyph1-2">
<path style="stroke:none;" d="M -6.28125 -1.796875 L -6.28125 -0.796875 L 0 -0.796875 L 0 -1.796875 Z M -8.75 -1.796875 L -8.75 -0.796875 L -7.484375 -0.796875 L -7.484375 -1.796875 Z M -8.75 -1.796875 "/>
</symbol>
<symbol overflow="visible" id="glyph1-3">
<path style="stroke:none;" d="M -6.28125 -3.046875 L -6.28125 -2.015625 L -8.015625 -2.015625 L -8.015625 -1.015625 L -6.28125 -1.015625 L -6.28125 -0.171875 L -5.46875 -0.171875 L -5.46875 -1.015625 L -0.71875 -1.015625 C -0.078125 -1.015625 0.28125 -1.453125 0.28125 -2.234375 C 0.28125 -2.46875 0.25 -2.71875 0.1875 -3.046875 L -0.640625 -3.046875 C -0.609375 -2.921875 -0.59375 -2.765625 -0.59375 -2.5625 C -0.59375 -2.140625 -0.71875 -2.015625 -1.15625 -2.015625 L -5.46875 -2.015625 L -5.46875 -3.046875 Z M -6.28125 -3.046875 "/>
</symbol>
<symbol overflow="visible" id="glyph1-4">
<path style="stroke:none;" d="M -4.53125 -5.25 C -5.765625 -5.25 -6.46875 -4.421875 -6.46875 -2.96875 C -6.46875 -1.515625 -5.71875 -0.5625 -4.546875 -0.5625 C -3.5625 -0.5625 -3.09375 -1.0625 -2.734375 -2.5625 L -2.515625 -3.484375 C -2.34375 -4.1875 -2.09375 -4.46875 -1.625 -4.46875 C -1.046875 -4.46875 -0.640625 -3.875 -0.640625 -3 C -0.640625 -2.453125 -0.796875 -2 -1.0625 -1.75 C -1.25 -1.59375 -1.421875 -1.53125 -1.875 -1.46875 L -1.875 -0.40625 C -0.421875 -0.453125 0.28125 -1.265625 0.28125 -2.921875 C 0.28125 -4.5 -0.5 -5.515625 -1.71875 -5.515625 C -2.65625 -5.515625 -3.171875 -4.984375 -3.46875 -3.734375 L -3.703125 -2.765625 C -3.890625 -1.953125 -4.15625 -1.609375 -4.59375 -1.609375 C -5.171875 -1.609375 -5.546875 -2.125 -5.546875 -2.9375 C -5.546875 -3.75 -5.203125 -4.171875 -4.53125 -4.203125 Z M -4.53125 -5.25 "/>
</symbol>
</g>
</defs>
<g id="surface9844">
<rect x="0" y="0" width="720" height="360" style="fill:rgb(100%,100%,100%);fill-opacity:1;stroke:none;"/>
<path style=" stroke:none;fill-rule:nonzero;fill:rgb(6.27451%,58.823529%,28.235294%);fill-opacity:1;" d="M 69.628906 314.367188 L 69.71875 314.367188 L 106.015625 311.785156 L 117.039062 311.785156 L 153.515625 314.371094 L 140.703125 314.371094 L 131.558594 313.695312 L 91.496094 313.695312 L 82.535156 314.367188 L 69.628906 314.367188 L 95.351562 313.414062 L 127.886719 313.414062 L 111.664062 312.207031 L 111.484375 312.203125 L 111.304688 312.210938 L 95.261719 313.414062 L 95.351562 313.414062 Z M 69.628906 314.367188 "/>
<path style=" stroke:none;fill-rule:nonzero;fill:rgb(14.509804%,36.078431%,60%);fill-opacity:1;" d="M 69.628906 291.457031 L 69.730469 291.445312 L 69.730469 291.140625 L 70.039062 290.65625 L 70.753906 290.046875 L 71.472656 289.628906 L 73.3125 288.878906 L 75.871094 288.15625 L 78.53125 287.597656 L 80.472656 287.269531 L 82.210938 287.015625 L 86.203125 286.542969 L 88.761719 286.304688 L 91.523438 286.085938 L 94.898438 285.871094 L 97.351562 285.746094 L 102.878906 285.542969 L 106.96875 285.453125 L 110.140625 285.414062 L 116.996094 285.414062 L 121.085938 285.464844 L 124.054688 285.527344 L 127.328125 285.628906 L 130.089844 285.746094 L 134.898438 286.023438 L 139.195312 286.378906 L 141.140625 286.582031 L 144.207031 286.976562 L 146.5625 287.355469 L 148.199219 287.6875 L 150.039062 288.15625 L 151.675781 288.726562 L 152.902344 289.375 L 153.515625 289.921875 L 139.195312 289.921875 L 138.480469 289.414062 L 137.660156 289.019531 L 136.125 288.5 L 134.589844 288.132812 L 132.441406 287.761719 L 130.5 287.523438 L 127.839844 287.28125 L 125.488281 287.128906 L 123.03125 287.015625 L 120.679688 286.9375 L 116.175781 286.863281 L 110.960938 286.863281 L 109.015625 286.886719 L 105.027344 286.988281 L 102.878906 287.078125 L 99.808594 287.253906 L 97.660156 287.421875 L 95.101562 287.675781 L 93.363281 287.890625 L 91.214844 288.21875 L 89.679688 288.511719 L 87.941406 288.929688 L 86.917969 289.25 L 85.996094 289.605469 L 85.179688 290.023438 L 84.566406 290.46875 L 84.15625 290.9375 L 83.953125 291.394531 L 83.953125 293.363281 L 84.15625 293.820312 L 84.667969 294.351562 L 85.996094 295.125 L 87.941406 295.800781 L 90.191406 296.332031 L 92.339844 296.714844 L 93.566406 296.890625 L 95.203125 297.09375 L 97.761719 297.347656 L 101.445312 297.601562 L 103.59375 297.703125 L 106.867188 297.804688 L 110.242188 297.855469 L 114.746094 297.855469 L 118.734375 297.804688 L 121.394531 297.742188 L 124.15625 297.640625 L 127.941406 297.425781 L 130.292969 297.222656 L 132.339844 296.980469 L 133.875 296.738281 L 134.898438 296.535156 L 136.433594 296.140625 L 137.660156 295.710938 L 138.582031 295.265625 L 139.195312 294.835938 L 153.515625 294.835938 L 152.902344 295.34375 L 151.984375 295.835938 L 151.0625 296.207031 L 149.628906 296.648438 L 147.992188 297.042969 L 145.640625 297.488281 L 143.695312 297.78125 L 141.140625 298.097656 L 138.785156 298.339844 L 136.226562 298.554688 L 132.441406 298.808594 L 129.988281 298.933594 L 127.328125 299.050781 L 124.15625 299.152344 L 120.167969 299.238281 L 115.871094 299.289062 L 111.878906 299.304688 L 107.582031 299.277344 L 104.414062 299.226562 L 100.21875 299.113281 L 95 298.882812 L 91.214844 298.644531 L 88.25 298.402344 L 85.691406 298.148438 L 82.828125 297.804688 L 79.144531 297.246094 L 76.894531 296.816406 L 75.359375 296.460938 L 73.621094 295.964844 L 72.390625 295.519531 L 70.960938 294.808594 L 69.9375 293.90625 L 69.628906 293.210938 Z M 69.628906 291.457031 "/>
<path style=" stroke:none;fill-rule:nonzero;fill:rgb(96.862745%,70.196078%,16.862745%);fill-opacity:1;" d="M 69.628906 304.816406 L 69.730469 304.808594 L 69.730469 304.625 L 70.140625 304.207031 L 71.164062 303.632812 L 72.492188 303.164062 L 73.925781 302.792969 L 74.847656 302.597656 L 76.382812 302.320312 L 77.710938 302.117188 L 81.085938 301.703125 L 85.382812 301.3125 L 87.738281 301.148438 L 90.398438 300.992188 L 94.183594 300.816406 L 95.921875 300.75 L 101.242188 300.601562 L 107.277344 300.511719 L 113.925781 300.484375 L 116.996094 300.492188 L 121.191406 300.527344 L 126.917969 300.628906 L 130.191406 300.722656 L 132.75 300.816406 L 135.410156 300.933594 L 138.683594 301.121094 L 141.753906 301.34375 L 144.207031 301.5625 L 146.664062 301.839844 L 148.710938 302.136719 L 150.449219 302.460938 L 151.984375 302.847656 L 152.902344 303.171875 L 153.515625 303.496094 L 139.296875 303.496094 L 138.480469 303.171875 L 137.558594 302.921875 L 136.023438 302.617188 L 134.488281 302.394531 L 132.953125 302.21875 L 130.089844 301.980469 L 127.636719 301.832031 L 124.566406 301.703125 L 121.597656 301.621094 L 118.222656 301.5625 L 116.175781 301.546875 L 110.753906 301.546875 L 105.84375 301.609375 L 102.980469 301.683594 L 100.933594 301.757812 L 98.070312 301.898438 L 96.332031 302.007812 L 95.308594 302.082031 L 92.238281 302.367188 L 90.191406 302.625 L 89.066406 302.800781 L 87.632812 303.078125 L 86.613281 303.328125 L 85.484375 303.699219 L 84.871094 303.976562 L 84.054688 304.605469 L 83.953125 306.269531 L 84.257812 306.621094 L 84.871094 307 L 85.691406 307.332031 L 86.917969 307.683594 L 88.144531 307.949219 L 90.292969 308.3125 L 92.136719 308.550781 L 93.566406 308.707031 L 96.332031 308.957031 L 97.457031 309.042969 L 100.117188 309.207031 L 102.878906 309.335938 L 106.253906 309.449219 L 108.8125 309.503906 L 112.902344 309.550781 L 118.121094 309.550781 L 124.257812 309.496094 L 128.144531 309.421875 L 130.804688 309.347656 L 132.546875 309.28125 L 134.695312 309.179688 L 136.226562 309.085938 L 137.660156 308.984375 L 139.398438 308.828125 L 139.398438 306.621094 L 114.132812 306.609375 L 114.132812 305.574219 L 153.414062 305.566406 L 153.515625 309.179688 L 151.367188 309.429688 L 148.710938 309.671875 L 146.152344 309.855469 L 143.492188 310.011719 L 139.707031 310.1875 L 136.636719 310.296875 L 131.929688 310.429688 L 127.636719 310.511719 L 123.132812 310.566406 L 119.144531 310.59375 L 114.4375 310.605469 L 110.242188 310.585938 L 105.742188 310.53125 L 102.160156 310.457031 L 98.886719 310.363281 L 95.613281 310.242188 L 91.523438 310.050781 L 88.863281 309.890625 L 86.101562 309.699219 L 83.335938 309.46875 L 80.882812 309.21875 L 79.246094 309.023438 L 77.609375 308.800781 L 75.871094 308.523438 L 74.234375 308.210938 L 73.003906 307.921875 L 71.878906 307.601562 L 71.0625 307.292969 L 70.242188 306.878906 L 69.832031 306.546875 L 69.628906 306.257812 Z M 69.628906 304.816406 "/>
<path style=" stroke:none;fill-rule:nonzero;fill:rgb(83.921569%,15.686275%,22.352941%);fill-opacity:1;" d="M 69.628906 225.144531 L 153.515625 225.144531 L 153.515625 231.46875 L 118.554688 231.523438 L 118.554688 284.234375 L 104.488281 284.234375 L 104.488281 231.582031 L 104.285156 231.46875 L 69.628906 231.46875 Z M 69.628906 225.144531 "/>
<path style=" stroke:none;fill-rule:nonzero;fill:rgb(83.921569%,15.686275%,22.352941%);fill-opacity:1;" d="M 157.933594 20.664062 L 241.820312 20.664062 L 241.820312 52.101562 L 206.859375 52.378906 L 206.859375 314.371094 L 192.792969 314.371094 L 192.792969 52.652344 L 192.589844 52.101562 L 157.933594 52.101562 Z M 157.933594 20.664062 "/>
<path style=" stroke:none;fill-rule:nonzero;fill:rgb(6.27451%,58.823529%,28.235294%);fill-opacity:1;" d="M 246.234375 314.09375 L 246.324219 313.820312 L 282.625 20.664062 L 293.648438 20.664062 L 330.125 314.371094 L 317.308594 314.371094 L 308.167969 237.703125 L 268.105469 237.703125 L 259.140625 314.09375 L 246.234375 314.09375 L 271.957031 205.988281 L 304.492188 205.710938 L 288.269531 68.648438 L 288.089844 68.375 L 287.910156 69.199219 L 271.867188 205.710938 L 271.957031 205.988281 Z M 246.234375 314.09375 "/>
<path style=" stroke:none;fill-rule:nonzero;fill:rgb(6.27451%,58.823529%,28.235294%);fill-opacity:1;" d="M 334.539062 314.09375 L 334.628906 313.820312 L 370.925781 20.664062 L 381.949219 20.664062 L 418.425781 314.371094 L 405.609375 314.371094 L 396.46875 237.703125 L 356.40625 237.703125 L 347.445312 314.09375 L 334.539062 314.09375 L 360.261719 205.988281 L 392.792969 205.710938 L 376.574219 68.648438 L 376.394531 68.375 L 376.214844 69.199219 L 360.171875 205.710938 L 360.261719 205.988281 Z M 334.539062 314.09375 "/>
<path style=" stroke:none;fill-rule:nonzero;fill:rgb(83.921569%,15.686275%,22.352941%);fill-opacity:1;" d="M 422.84375 20.664062 L 506.730469 20.664062 L 506.730469 52.101562 L 471.769531 52.378906 L 471.769531 314.371094 L 457.703125 314.371094 L 457.703125 52.652344 L 457.5 52.101562 L 422.84375 52.101562 Z M 422.84375 20.664062 "/>
<path style=" stroke:none;fill-rule:nonzero;fill:rgb(6.27451%,58.823529%,28.235294%);fill-opacity:1;" d="M 511.144531 314.367188 L 511.234375 314.359375 L 547.53125 308.722656 L 558.558594 308.722656 L 595.035156 314.371094 L 582.21875 314.371094 L 573.074219 312.894531 L 533.015625 312.894531 L 524.050781 314.367188 L 511.144531 314.367188 L 536.867188 312.285156 L 569.402344 312.28125 L 553.179688 309.644531 L 553 309.640625 L 552.820312 309.65625 L 536.777344 312.28125 L 536.867188 312.285156 Z M 511.144531 314.367188 "/>
<path style=" stroke:none;fill-rule:nonzero;fill:rgb(96.862745%,70.196078%,16.862745%);fill-opacity:1;" d="M 511.144531 206.75 L 511.246094 206.632812 L 511.246094 204.285156 L 511.65625 199 L 512.679688 191.722656 L 514.011719 185.738281 L 515.441406 181.042969 L 516.363281 178.574219 L 517.898438 175.054688 L 519.226562 172.472656 L 522.605469 167.1875 L 526.898438 162.257812 L 529.253906 160.144531 L 531.914062 158.152344 L 535.699219 155.921875 L 537.4375 155.097656 L 542.757812 153.21875 L 548.792969 152.046875 L 555.441406 151.695312 L 558.511719 151.8125 L 562.707031 152.28125 L 568.433594 153.574219 L 571.707031 154.746094 L 574.265625 155.921875 L 576.925781 157.445312 L 580.199219 159.792969 L 583.269531 162.609375 L 585.722656 165.429688 L 588.179688 168.949219 L 590.226562 172.707031 L 591.964844 176.816406 L 593.5 181.746094 L 594.421875 185.855469 L 595.035156 189.960938 L 580.8125 189.960938 L 579.996094 185.855469 L 579.074219 182.683594 L 577.539062 178.8125 L 576.003906 175.992188 L 574.472656 173.761719 L 571.605469 170.710938 L 569.152344 168.832031 L 566.082031 167.1875 L 563.117188 166.132812 L 559.738281 165.429688 L 557.691406 165.195312 L 552.269531 165.195312 L 547.359375 166.015625 L 544.496094 166.953125 L 542.449219 167.894531 L 539.585938 169.65625 L 537.847656 171.0625 L 536.824219 172.003906 L 533.753906 175.640625 L 531.707031 178.929688 L 530.582031 181.160156 L 529.152344 184.679688 L 528.128906 187.851562 L 527.003906 192.546875 L 526.390625 196.066406 L 525.570312 204.050781 L 525.46875 225.179688 L 525.773438 229.640625 L 526.390625 234.453125 L 527.207031 238.679688 L 528.433594 243.140625 L 529.664062 246.542969 L 531.8125 251.121094 L 533.652344 254.175781 L 535.085938 256.167969 L 537.847656 259.339844 L 538.972656 260.394531 L 541.632812 262.507812 L 544.394531 264.152344 L 547.769531 265.558594 L 550.328125 266.265625 L 554.417969 266.851562 L 559.636719 266.851562 L 565.773438 266.148438 L 569.664062 265.207031 L 572.324219 264.269531 L 574.0625 263.449219 L 576.210938 262.15625 L 577.746094 260.980469 L 579.175781 259.691406 L 580.914062 257.695312 L 580.914062 229.640625 L 555.648438 229.523438 L 555.648438 216.375 L 594.929688 216.257812 L 595.035156 262.15625 L 592.886719 265.324219 L 590.226562 268.378906 L 587.667969 270.726562 L 585.007812 272.722656 L 581.222656 274.953125 L 578.152344 276.359375 L 573.449219 278.003906 L 569.152344 279.058594 L 564.648438 279.765625 L 560.660156 280.117188 L 555.953125 280.234375 L 551.761719 280 L 547.257812 279.292969 L 543.679688 278.355469 L 540.402344 277.183594 L 537.128906 275.65625 L 533.039062 273.191406 L 530.378906 271.195312 L 527.617188 268.730469 L 524.855469 265.796875 L 522.398438 262.625 L 520.761719 260.160156 L 519.125 257.34375 L 517.386719 253.820312 L 515.75 249.832031 L 514.523438 246.191406 L 513.394531 242.082031 L 512.578125 238.210938 L 511.757812 232.925781 L 511.351562 228.699219 L 511.144531 225.0625 Z M 511.144531 206.75 "/>
<path style=" stroke:none;fill-rule:nonzero;fill:rgb(83.921569%,15.686275%,22.352941%);fill-opacity:1;" d="M 511.144531 281.414062 L 595.035156 281.414062 L 595.035156 284.210938 L 560.070312 284.234375 L 560.070312 307.542969 L 546.003906 307.542969 L 546.003906 284.257812 L 545.800781 284.210938 L 511.144531 284.210938 Z M 511.144531 281.414062 "/>
<path style=" stroke:none;fill-rule:nonzero;fill:rgb(6.27451%,58.823529%,28.235294%);fill-opacity:1;" d="M 599.449219 287.351562 L 599.539062 287.175781 L 635.835938 100.808594 L 646.859375 100.808594 L 683.335938 287.527344 L 670.519531 287.527344 L 661.378906 238.789062 L 621.316406 238.789062 L 612.355469 287.351562 L 599.449219 287.351562 L 625.171875 218.625 L 657.703125 218.449219 L 641.484375 131.3125 L 641.304688 131.140625 L 641.125 131.664062 L 625.082031 218.449219 L 625.171875 218.625 Z M 599.449219 287.351562 "/>
<path style=" stroke:none;fill-rule:nonzero;fill:rgb(96.862745%,70.196078%,16.862745%);fill-opacity:1;" d="M 599.449219 299.699219 L 599.550781 299.675781 L 599.550781 299.207031 L 599.960938 298.152344 L 600.984375 296.699219 L 602.3125 295.503906 L 603.746094 294.566406 L 604.667969 294.074219 L 606.199219 293.371094 L 607.53125 292.855469 L 610.90625 291.800781 L 615.203125 290.816406 L 617.554688 290.394531 L 620.214844 289.996094 L 624 289.550781 L 625.742188 289.386719 L 631.058594 289.011719 L 637.097656 288.777344 L 643.746094 288.707031 L 646.816406 288.730469 L 651.007812 288.824219 L 656.738281 289.082031 L 660.011719 289.316406 L 662.570312 289.550781 L 665.230469 289.855469 L 668.503906 290.324219 L 671.570312 290.886719 L 674.027344 291.449219 L 676.484375 292.152344 L 678.527344 292.902344 L 680.269531 293.722656 L 681.800781 294.707031 L 682.722656 295.527344 L 683.335938 296.347656 L 669.117188 296.347656 L 668.296875 295.527344 L 667.378906 294.894531 L 665.84375 294.121094 L 664.308594 293.558594 L 662.773438 293.113281 L 659.910156 292.503906 L 657.453125 292.128906 L 654.386719 291.800781 L 651.417969 291.589844 L 648.042969 291.449219 L 645.996094 291.402344 L 640.574219 291.402344 L 635.664062 291.566406 L 632.800781 291.753906 L 630.753906 291.941406 L 627.890625 292.292969 L 626.148438 292.574219 L 625.125 292.761719 L 622.058594 293.488281 L 620.011719 294.144531 L 618.886719 294.589844 L 617.453125 295.292969 L 616.429688 295.925781 L 615.304688 296.863281 L 614.691406 297.566406 L 613.875 299.160156 L 613.769531 303.378906 L 614.078125 304.269531 L 614.691406 305.230469 L 615.511719 306.074219 L 616.738281 306.964844 L 617.964844 307.644531 L 620.113281 308.558594 L 621.957031 309.167969 L 623.386719 309.566406 L 626.148438 310.199219 L 627.273438 310.410156 L 629.933594 310.832031 L 632.695312 311.160156 L 636.074219 311.441406 L 638.628906 311.582031 L 642.722656 311.699219 L 647.941406 311.699219 L 654.078125 311.558594 L 657.964844 311.371094 L 660.625 311.183594 L 662.363281 311.019531 L 664.511719 310.761719 L 666.046875 310.527344 L 667.480469 310.269531 L 669.21875 309.871094 L 669.21875 304.269531 L 643.949219 304.246094 L 643.949219 301.621094 L 683.234375 301.597656 L 683.335938 310.761719 L 681.1875 311.394531 L 678.527344 312.003906 L 675.972656 312.472656 L 673.3125 312.871094 L 669.527344 313.316406 L 666.457031 313.597656 L 661.75 313.925781 L 657.453125 314.136719 L 652.953125 314.277344 L 648.964844 314.347656 L 644.257812 314.371094 L 640.0625 314.324219 L 635.5625 314.183594 L 631.980469 313.996094 L 628.707031 313.761719 L 625.433594 313.457031 L 621.339844 312.964844 L 618.683594 312.566406 L 615.917969 312.074219 L 613.15625 311.488281 L 610.703125 310.855469 L 609.066406 310.363281 L 607.429688 309.800781 L 605.6875 309.097656 L 604.050781 308.300781 L 602.824219 307.574219 L 601.699219 306.753906 L 600.882812 305.980469 L 600.0625 304.925781 L 599.652344 304.082031 L 599.449219 303.355469 Z M 599.449219 299.699219 "/>
<g style="fill:rgb(0%,0%,0%);fill-opacity:1;">
  <use xlink:href="#glyph0-1" x="21.957031" y="318.198242"/>
  <use xlink:href="#glyph0-2" x="27.291016" y="318.198242"/>
  <use xlink:href="#glyph0-1" x="29.958008" y="318.198242"/>
</g>
<g style="fill:rgb(0%,0%,0%);fill-opacity:1;">
  <use xlink:href="#glyph0-1" x="21.957031" y="244.475586"/>
  <use xlink:href="#glyph0-2" x="27.291016" y="244.475586"/>
  <use xlink:href="#glyph0-3" x="29.958008" y="244.475586"/>
</g>
<g style="fill:rgb(0%,0%,0%);fill-opacity:1;">
  <use xlink:href="#glyph0-4" x="21.957031" y="170.75293"/>
  <use xlink:href="#glyph0-2" x="27.291016" y="170.75293"/>
  <use xlink:href="#glyph0-1" x="29.958008" y="170.75293"/>
</g>
<g style="fill:rgb(0%,0%,0%);fill-opacity:1;">
  <use xlink:href="#glyph0-4" x="21.957031" y="97.03418"/>
  <use xlink:href="#glyph0-2" x="27.291016" y="97.03418"/>
  <use xlink:href="#glyph0-3" x="29.958008" y="97.03418"/>
</g>
<g style="fill:rgb(0%,0%,0%);fill-opacity:1;">
  <use xlink:href="#glyph0-5" x="21.957031" y="23.311523"/>
  <use xlink:href="#glyph0-2" x="27.291016" y="23.311523"/>
  <use xlink:href="#glyph0-1" x="29.958008" y="23.311523"/>
</g>
<g style="fill:rgb(0%,0%,0%);fill-opacity:1;">
  <use xlink:href="#glyph0-4" x="108.574219" y="338.19043"/>
</g>
<g style="fill:rgb(0%,0%,0%);fill-opacity:1;">
  <use xlink:href="#glyph0-5" x="196.875" y="338.19043"/>
</g>
<g style="fill:rgb(0%,0%,0%);fill-opacity:1;">
  <use xlink:href="#glyph0-6" x="285.179688" y="338.19043"/>
</g>
<g style="fill:rgb(0%,0%,0%);fill-opacity:1;">
  <use xlink:href="#glyph0-7" x="373.484375" y="338.19043"/>
</g>
<g style="fill:rgb(0%,0%,0%);fill-opacity:1;">
  <use xlink:href="#glyph0-3" x="461.785156" y="338.19043"/>
</g>
<g style="fill:rgb(0%,0%,0%);fill-opacity:1;">
  <use xlink:href="#glyph0-8" x="550.089844" y="338.19043"/>
</g>
<g style="fill:rgb(0%,0%,0%);fill-opacity:1;">
  <use xlink:href="#glyph0-9" x="638.394531" y="338.19043"/>
</g>
<g style="fill:rgb(0%,0%,0%);fill-opacity:1;">
  <use xlink:href="#glyph1-1" x="14.412109" y="178.015625"/>
  <use xlink:href="#glyph1-2" x="14.412109" y="170.011719"/>
  <use xlink:href="#glyph1-3" x="14.412109" y="167.347656"/>
  <use xlink:href="#glyph1-4" x="14.412109" y="164.011719"/>
</g>
</g>
</svg>
