<?xml version="1.0" encoding="UTF-8"?>
<svg xmlns="http://www.w3.org/2000/svg" xmlns:xlink="http://www.w3.org/1999/xlink" width="720pt" height="360pt" viewBox="0 0 720 360" version="1.1">
<defs>
<g>
<symbol overflow="visible" id="glyph0-0">
<path style="stroke:none;" d=""/>
</symbol>
<symbol overflow="visible" id="glyph0-1">
<path style="stroke:none;" d="M 2.640625 -6.796875 C 2 -6.796875 1.421875 -6.53125 1.078125 -6.046875 C 0.640625 -5.453125 0.40625 -4.546875 0.40625 -3.296875 C 0.40625 -1 1.1875 0.21875 2.640625 0.21875 C 4.078125 0.21875 4.859375 -1 4.859375 -3.234375 C 4.859375 -4.5625 4.65625 -5.4375 4.203125 -6.046875 C 3.84375 -6.53125 3.28125 -6.796875 2.640625 -6.796875 Z M 2.640625 -6.046875 C 3.546875 -6.046875 4 -5.125 4 -3.3125 C 4 -1.375 3.5625 -0.484375 2.625 -0.484375 C 1.734375 -0.484375 1.28125 -1.421875 1.28125 -3.28125 C 1.28125 -5.140625 1.734375 -6.046875 2.640625 -6.046875 Z M 2.640625 -6.046875 "/>
</symbol>
<symbol overflow="visible" id="glyph0-2">
<path style="stroke:none;" d="M 1.828125 -1 L 0.828125 -1 L 0.828125 0 L 1.828125 0 Z M 1.828125 -1 "/>
</symbol>
<symbol overflow="visible" id="glyph0-3">
<path style="stroke:none;" d="M 4.5625 -6.796875 L 1.0625 -6.796875 L 0.546875 -3.09375 L 1.328125 -3.09375 C 1.71875 -3.5625 2.046875 -3.734375 2.578125 -3.734375 C 3.484375 -3.734375 4.0625 -3.109375 4.0625 -2.09375 C 4.0625 -1.125 3.484375 -0.53125 2.578125 -0.53125 C 1.828125 -0.53125 1.375 -0.90625 1.1875 -1.671875 L 0.328125 -1.671875 C 0.453125 -1.109375 0.546875 -0.84375 0.75 -0.59375 C 1.125 -0.078125 1.828125 0.21875 2.59375 0.21875 C 3.96875 0.21875 4.921875 -0.78125 4.921875 -2.21875 C 4.921875 -3.5625 4.03125 -4.484375 2.71875 -4.484375 C 2.25 -4.484375 1.859375 -4.359375 1.46875 -4.0625 L 1.734375 -5.96875 L 4.5625 -5.96875 Z M 4.5625 -6.796875 "/>
</symbol>
<symbol overflow="visible" id="glyph0-4">
<path style="stroke:none;" d="M 2.484375 -4.84375 L 2.484375 0 L 3.328125 0 L 3.328125 -6.796875 L 2.765625 -6.796875 C 2.46875 -5.75 2.28125 -5.609375 0.984375 -5.453125 L 0.984375 -4.84375 Z M 2.484375 -4.84375 "/>
</symbol>
<symbol overflow="visible" id="glyph0-5">
<path style="stroke:none;" d="M 4.859375 -0.828125 L 1.28125 -0.828125 C 1.359375 -1.390625 1.671875 -1.75 2.5 -2.234375 L 3.46875 -2.75 C 4.40625 -3.265625 4.90625 -3.96875 4.90625 -4.8125 C 4.90625 -5.375 4.671875 -5.90625 4.265625 -6.265625 C 3.859375 -6.625 3.375 -6.796875 2.71875 -6.796875 C 1.859375 -6.796875 1.21875 -6.5 0.84375 -5.921875 C 0.609375 -5.5625 0.5 -5.125 0.484375 -4.4375 L 1.328125 -4.4375 C 1.359375 -4.90625 1.40625 -5.1875 1.53125 -5.40625 C 1.75 -5.8125 2.1875 -6.0625 2.703125 -6.0625 C 3.46875 -6.0625 4.03125 -5.515625 4.03125 -4.78125 C 4.03125 -4.25 3.71875 -3.796875 3.125 -3.4375 L 2.234375 -2.9375 C 0.8125 -2.140625 0.40625 -1.5 0.328125 0 L 4.859375 0 Z M 4.859375 -0.828125 "/>
</symbol>
<symbol overflow="visible" id="glyph0-6">
<path style="stroke:none;" d="M 2.125 -3.125 L 2.578125 -3.125 C 3.515625 -3.125 3.984375 -2.703125 3.984375 -1.890625 C 3.984375 -1.03125 3.46875 -0.53125 2.578125 -0.53125 C 1.65625 -0.53125 1.203125 -0.984375 1.15625 -1.96875 L 0.3125 -1.96875 C 0.34375 -1.421875 0.4375 -1.078125 0.609375 -0.765625 C 0.953125 -0.109375 1.625 0.21875 2.546875 0.21875 C 3.953125 0.21875 4.859375 -0.609375 4.859375 -1.90625 C 4.859375 -2.765625 4.515625 -3.25 3.703125 -3.515625 C 4.34375 -3.765625 4.65625 -4.25 4.65625 -4.9375 C 4.65625 -6.109375 3.875 -6.796875 2.578125 -6.796875 C 1.203125 -6.796875 0.484375 -6.046875 0.453125 -4.609375 L 1.296875 -4.609375 C 1.3125 -5.015625 1.34375 -5.25 1.453125 -5.453125 C 1.640625 -5.828125 2.0625 -6.0625 2.59375 -6.0625 C 3.34375 -6.0625 3.796875 -5.625 3.796875 -4.90625 C 3.796875 -4.421875 3.609375 -4.140625 3.25 -3.984375 C 3.015625 -3.890625 2.71875 -3.84375 2.125 -3.84375 Z M 2.125 -3.125 "/>
</symbol>
<symbol overflow="visible" id="glyph0-7">
<path style="stroke:none;" d="M 3.140625 -1.625 L 3.140625 0 L 3.984375 0 L 3.984375 -1.625 L 4.984375 -1.625 L 4.984375 -2.390625 L 3.984375 -2.390625 L 3.984375 -6.796875 L 3.359375 -6.796875 L 0.265625 -2.515625 L 0.265625 -1.625 Z M 3.140625 -2.390625 L 1 -2.390625 L 3.140625 -5.359375 Z M 3.140625 -2.390625 "/>
</symbol>
<symbol overflow="visible" id="glyph0-8">
<path style="stroke:none;" d="M 4.78125 -5.03125 C 4.609375 -6.140625 3.890625 -6.796875 2.84375 -6.796875 C 2.09375 -6.796875 1.421875 -6.4375 1.03125 -5.828125 C 0.609375 -5.171875 0.40625 -4.34375 0.40625 -3.09375 C 0.40625 -1.953125 0.578125 -1.234375 0.984375 -0.625 C 1.359375 -0.078125 1.953125 0.21875 2.703125 0.21875 C 3.984375 0.21875 4.921875 -0.734375 4.921875 -2.078125 C 4.921875 -3.34375 4.0625 -4.234375 2.84375 -4.234375 C 2.171875 -4.234375 1.640625 -3.96875 1.28125 -3.46875 C 1.28125 -5.125 1.828125 -6.046875 2.796875 -6.046875 C 3.390625 -6.046875 3.796875 -5.671875 3.9375 -5.03125 Z M 2.734375 -3.484375 C 3.546875 -3.484375 4.0625 -2.921875 4.0625 -2 C 4.0625 -1.15625 3.484375 -0.53125 2.703125 -0.53125 C 1.921875 -0.53125 1.328125 -1.1875 1.328125 -2.046875 C 1.328125 -2.890625 1.90625 -3.484375 2.734375 -3.484375 Z M 2.734375 -3.484375 "/>
</symbol>
<symbol overflow="visible" id="glyph1-0">
<path style="stroke:none;" d=""/>
</symbol>
<symbol overflow="visible" id="glyph1-1">
<path style="stroke:none;" d="M 0 -0.953125 L 0 -4.890625 C 0 -5.71875 -0.234375 -6.34375 -0.734375 -6.796875 C -1.1875 -7.234375 -1.8125 -7.46875 -2.5 -7.46875 C -3.546875 -7.46875 -4.1875 -7 -4.625 -5.875 C -4.984375 -6.671875 -5.640625 -7.09375 -6.53125 -7.09375 C -7.15625 -7.09375 -7.734375 -6.859375 -8.140625 -6.390625 C -8.5625 -5.9375 -8.75 -5.34375 -8.75 -4.5 L -8.75 -0.953125 Z M -4.984375 -2.0625 L -7.765625 -2.0625 L -7.765625 -4.21875 C -7.765625 -4.84375 -7.6875 -5.203125 -7.453125 -5.5 C -7.21875 -5.8125 -6.859375 -5.96875 -6.375 -5.96875 C -5.90625 -5.96875 -5.53125 -5.8125 -5.296875 -5.5 C -5.0625 -5.203125 -4.984375 -4.84375 -4.984375 -4.21875 Z M -0.984375 -2.0625 L -4 -2.0625 L -4 -4.78125 C -4 -5.328125 -3.859375 -5.6875 -3.578125 -5.953125 C -3.296875 -6.21875 -2.921875 -6.359375 -2.484375 -6.359375 C -2.0625 -6.359375 -1.6875 -6.21875 -1.40625 -5.953125 C -1.109375 -5.6875 -0.984375 -5.328125 -0.984375 -4.78125 Z M -0.984375 -2.0625 "/>
</symbol>
<symbol overflow="visible" id="glyph1-2">
<path style="stroke:none;" d="M -6.28125 -1.796875 L -6.28125 -0.796875 L 0 -0.796875 L 0 -1.796875 Z M -8.75 -1.796875 L -8.75 -0.796875 L -7.484375 -0.796875 L -7.484375 -1.796875 Z M -8.75 -1.796875 "/>
</symbol>
<symbol overflow="visible" id="glyph1-3">
<path style="stroke:none;" d="M -6.28125 -3.046875 L -6.28125 -2.015625 L -8.015625 -2.015625 L -8.015625 -1.015625 L -6.28125 -1.015625 L -6.28125 -0.171875 L -5.46875 -0.171875 L -5.46875 -1.015625 L -0.71875 -1.015625 C -0.078125 -1.015625 0.28125 -1.453125 0.28125 -2.234375 C 0.28125 -2.46875 0.25 -2.71875 0.1875 -3.046875 L -0.640625 -3.046875 C -0.609375 -2.921875 -0.59375 -2.765625 -0.59375 -2.5625 C -0.59375 -2.140625 -0.71875 -2.015625 -1.15625 -2.015625 L -5.46875 -2.015625 L -5.46875 -3.046875 Z M -6.28125 -3.046875 "/>
</symbol>
<symbol overflow="visible" id="glyph1-4">
<path style="stroke:none;" d="M -4.53125 -5.25 C -5.765625 -5.25 -6.46875 -4.421875 -6.46875 -2.96875 C -6.46875 -1.515625 -5.71875 -0.5625 -4.546875 -0.5625 C -3.5625 -0.5625 -3.09375 -1.0625 -2.734375 -2.5625 L -2.515625 -3.484375 C -2.34375 -4.1875 -2.09375 -4.46875 -1.625 -4.46875 C -1.046875 -4.46875 -0.640625 -3.875 -0.640625 -3 C -0.640625 -2.453125 -0.796875 -2 -1.0625 -1.75 C -1.25 -1.59375 -1.421875 -1.53125 -1.875 -1.46875 L -1.875 -0.40625 C -0.421875 -0.453125 0.28125 -1.265625 0.28125 -2.921875 C 0.28125 -4.5 -0.5 -5.515625 -1.71875 -5.515625 C -2.65625 -5.515625 -3.171875 -4.984375 -3.46875 -3.734375 L -3.703125 -2.765625 C -3.890625 -1.953125 -4.15625 -1.609375 -4.59375 -1.609375 C -5.171875 -1.609375 -5.546875 -2.125 -5.546875 -2.9375 C -5.546875 -3.75 -5.203125 -4.171875 -4.53125 -4.203125 Z M -4.53125 -5.25 "/>
</symbol>
</g>
</defs>
<g id="surface6553">
<rect x="0" y="0" width="720" height="360" style="fill:rgb(100%,100%,100%);fill-opacity:1;stroke:none;"/>
<path style=" stroke:none;fill-rule:nonzero;fill:rgb(6.27451%,58.823529%,28.235294%);fill-opacity:1;" d="M 69.628906 314.371094 L 69.734375 314.367188 L 112.132812 313.058594 L 125.007812 313.058594 L 167.617188 314.371094 L 152.644531 314.371094 L 141.96875 314.027344 L 95.171875 314.027344 L 84.703125 314.371094 L 69.628906 314.371094 L 99.675781 313.886719 L 137.675781 313.882812 L 118.726562 313.273438 L 118.519531 313.269531 L 118.308594 313.273438 L 99.570312 313.882812 L 99.675781 313.886719 Z M 69.628906 314.371094 "/>
<path style=" stroke:none;fill-rule:nonzero;fill:rgb(14.509804%,36.078431%,60%);fill-opacity:1;" d="M 69.628906 258.359375 L 69.75 258.316406 L 69.75 257.304688 L 70.105469 255.699219 L 70.945312 253.671875 L 71.78125 252.277344 L 73.929688 249.789062 L 76.917969 247.382812 L 80.027344 245.523438 L 82.296875 244.425781 L 84.328125 243.582031 L 88.988281 242.019531 L 91.976562 241.21875 L 95.203125 240.5 L 99.144531 239.78125 L 102.011719 239.359375 L 108.464844 238.683594 L 113.246094 238.386719 L 116.949219 238.261719 L 124.957031 238.261719 L 129.734375 238.429688 L 133.203125 238.640625 L 137.023438 238.980469 L 140.25 239.359375 L 145.867188 240.289062 L 150.886719 241.46875 L 153.15625 242.144531 L 156.742188 243.453125 L 159.492188 244.722656 L 161.402344 245.820312 L 163.554688 247.382812 L 165.464844 249.28125 L 166.898438 251.433594 L 167.617188 253.25 L 150.886719 253.25 L 150.050781 251.5625 L 149.09375 250.253906 L 147.300781 248.519531 L 145.507812 247.296875 L 143 246.074219 L 140.730469 245.269531 L 137.621094 244.46875 L 134.875 243.960938 L 132.007812 243.582031 L 129.257812 243.328125 L 124 243.074219 L 117.90625 243.074219 L 115.636719 243.160156 L 110.976562 243.496094 L 108.464844 243.792969 L 104.878906 244.382812 L 102.371094 244.933594 L 99.382812 245.777344 L 97.351562 246.496094 L 94.84375 247.59375 L 93.050781 248.5625 L 91.019531 249.957031 L 89.824219 251.011719 L 88.75 252.195312 L 87.792969 253.589844 L 87.074219 255.066406 L 86.597656 256.628906 L 86.359375 258.148438 L 86.359375 264.691406 L 86.597656 266.210938 L 87.195312 267.984375 L 88.75 270.5625 L 91.019531 272.800781 L 93.648438 274.574219 L 96.15625 275.839844 L 97.589844 276.429688 L 99.503906 277.105469 L 102.492188 277.949219 L 106.792969 278.792969 L 109.300781 279.132812 L 113.125 279.46875 L 117.070312 279.640625 L 122.328125 279.640625 L 126.988281 279.46875 L 130.09375 279.257812 L 133.320312 278.921875 L 137.742188 278.203125 L 140.492188 277.527344 L 142.878906 276.726562 L 144.671875 275.921875 L 145.867188 275.246094 L 147.660156 273.9375 L 149.09375 272.503906 L 150.167969 271.027344 L 150.886719 269.589844 L 167.617188 269.589844 L 166.898438 271.277344 L 165.824219 272.925781 L 164.75 274.148438 L 163.074219 275.628906 L 161.164062 276.9375 L 158.414062 278.414062 L 156.144531 279.386719 L 153.15625 280.441406 L 150.410156 281.242188 L 147.421875 281.960938 L 143 282.804688 L 140.132812 283.226562 L 137.023438 283.609375 L 133.320312 283.945312 L 128.660156 284.242188 L 123.640625 284.410156 L 118.980469 284.453125 L 113.960938 284.367188 L 110.257812 284.199219 L 105.359375 283.820312 L 99.265625 283.058594 L 94.84375 282.257812 L 91.378906 281.453125 L 88.390625 280.609375 L 85.042969 279.46875 L 80.742188 277.613281 L 78.113281 276.175781 L 76.320312 274.996094 L 74.289062 273.347656 L 72.855469 271.871094 L 71.183594 269.503906 L 69.988281 266.507812 L 69.628906 264.1875 Z M 69.628906 258.359375 "/>
<path style=" stroke:none;fill-rule:nonzero;fill:rgb(96.862745%,70.196078%,16.862745%);fill-opacity:1;" d="M 69.628906 305.425781 L 69.75 305.414062 L 69.75 305.207031 L 70.226562 304.746094 L 71.421875 304.105469 L 72.976562 303.582031 L 74.648438 303.167969 L 75.722656 302.953125 L 77.515625 302.640625 L 79.070312 302.414062 L 83.011719 301.953125 L 88.03125 301.519531 L 90.78125 301.332031 L 93.886719 301.15625 L 98.308594 300.960938 L 100.339844 300.890625 L 106.554688 300.726562 L 113.605469 300.621094 L 121.371094 300.589844 L 124.957031 300.601562 L 129.855469 300.644531 L 136.546875 300.757812 L 140.371094 300.859375 L 143.359375 300.960938 L 146.464844 301.097656 L 150.289062 301.300781 L 153.875 301.550781 L 156.742188 301.796875 L 159.609375 302.105469 L 162 302.4375 L 164.03125 302.796875 L 165.824219 303.230469 L 166.898438 303.589844 L 167.617188 303.953125 L 151.007812 303.953125 L 150.050781 303.589844 L 148.976562 303.3125 L 147.183594 302.972656 L 145.390625 302.726562 L 143.597656 302.527344 L 140.25 302.261719 L 137.382812 302.097656 L 133.800781 301.953125 L 130.332031 301.859375 L 126.390625 301.796875 L 124 301.777344 L 117.667969 301.777344 L 111.929688 301.847656 L 108.585938 301.929688 L 106.195312 302.011719 L 102.847656 302.167969 L 100.816406 302.292969 L 99.621094 302.375 L 96.039062 302.695312 L 93.648438 302.980469 L 92.332031 303.179688 L 90.660156 303.488281 L 89.464844 303.765625 L 88.152344 304.179688 L 87.433594 304.488281 L 86.476562 305.1875 L 86.359375 307.042969 L 86.71875 307.433594 L 87.433594 307.859375 L 88.390625 308.230469 L 89.824219 308.621094 L 91.257812 308.917969 L 93.769531 309.320312 L 95.917969 309.589844 L 97.589844 309.765625 L 100.816406 310.042969 L 102.132812 310.136719 L 105.238281 310.320312 L 108.464844 310.464844 L 112.410156 310.589844 L 115.394531 310.652344 L 120.175781 310.703125 L 126.269531 310.703125 L 133.441406 310.640625 L 137.980469 310.558594 L 141.089844 310.476562 L 143.121094 310.402344 L 145.628906 310.289062 L 147.421875 310.1875 L 149.09375 310.074219 L 151.125 309.898438 L 151.125 307.433594 L 121.609375 307.425781 L 121.609375 306.269531 L 167.496094 306.261719 L 167.617188 310.289062 L 165.105469 310.570312 L 162 310.835938 L 159.011719 311.042969 L 155.90625 311.21875 L 151.484375 311.414062 L 147.898438 311.539062 L 142.402344 311.679688 L 137.382812 311.773438 L 132.125 311.835938 L 127.464844 311.867188 L 121.96875 311.878906 L 117.070312 311.855469 L 111.8125 311.796875 L 107.628906 311.710938 L 103.804688 311.609375 L 99.980469 311.476562 L 95.203125 311.257812 L 92.09375 311.082031 L 88.867188 310.867188 L 85.640625 310.609375 L 82.773438 310.332031 L 80.863281 310.113281 L 78.949219 309.867188 L 76.917969 309.558594 L 75.007812 309.207031 L 73.574219 308.886719 L 72.257812 308.527344 L 71.300781 308.1875 L 70.347656 307.722656 L 69.867188 307.351562 L 69.628906 307.03125 Z M 69.628906 305.425781 "/>
<path style=" stroke:none;fill-rule:nonzero;fill:rgb(83.921569%,15.686275%,22.352941%);fill-opacity:1;" d="M 69.628906 285.632812 L 167.617188 285.632812 L 167.617188 287.105469 L 126.777344 287.121094 L 126.777344 299.410156 L 110.347656 299.410156 L 110.347656 287.132812 L 110.109375 287.105469 L 69.628906 287.105469 Z M 69.628906 285.632812 "/>
<path style=" stroke:none;fill-rule:nonzero;fill:rgb(83.921569%,15.686275%,22.352941%);fill-opacity:1;" d="M 172.773438 20.664062 L 270.761719 20.664062 L 270.761719 52.101562 L 229.921875 52.378906 L 229.921875 314.371094 L 213.492188 314.371094 L 213.492188 52.652344 L 213.253906 52.101562 L 172.773438 52.101562 Z M 172.773438 20.664062 "/>
<path style=" stroke:none;fill-rule:nonzero;fill:rgb(6.27451%,58.823529%,28.235294%);fill-opacity:1;" d="M 275.917969 314.09375 L 276.023438 313.820312 L 318.421875 20.664062 L 331.296875 20.664062 L 373.90625 314.371094 L 358.933594 314.371094 L 348.257812 237.703125 L 301.460938 237.703125 L 290.992188 314.09375 L 275.917969 314.09375 L 305.960938 205.988281 L 343.964844 205.710938 L 325.015625 68.648438 L 324.804688 68.375 L 324.597656 69.199219 L 305.859375 205.710938 L 305.960938 205.988281 Z M 275.917969 314.09375 "/>
<path style=" stroke:none;fill-rule:nonzero;fill:rgb(6.27451%,58.823529%,28.235294%);fill-opacity:1;" d="M 379.0625 314.09375 L 379.167969 313.820312 L 421.566406 20.664062 L 434.441406 20.664062 L 477.046875 314.371094 L 462.078125 314.371094 L 451.402344 237.703125 L 404.605469 237.703125 L 394.136719 314.09375 L 379.0625 314.09375 L 409.105469 205.988281 L 447.109375 205.710938 L 428.160156 68.648438 L 427.949219 68.375 L 427.742188 69.199219 L 409.003906 205.710938 L 409.105469 205.988281 Z M 379.0625 314.09375 "/>
<path style=" stroke:none;fill-rule:nonzero;fill:rgb(96.862745%,70.196078%,16.862745%);fill-opacity:1;" d="M 482.207031 310.164062 L 482.324219 310.160156 L 482.324219 310.023438 L 482.804688 309.722656 L 484 309.304688 L 485.550781 308.964844 L 487.226562 308.695312 L 488.300781 308.554688 L 490.09375 308.351562 L 491.644531 308.203125 L 495.589844 307.902344 L 500.609375 307.621094 L 503.355469 307.5 L 506.464844 307.386719 L 510.886719 307.257812 L 512.917969 307.210938 L 519.128906 307.101562 L 526.179688 307.035156 L 533.949219 307.015625 L 537.53125 307.023438 L 542.433594 307.050781 L 549.125 307.121094 L 552.949219 307.191406 L 555.933594 307.257812 L 559.042969 307.34375 L 562.867188 307.480469 L 566.449219 307.640625 L 569.320312 307.800781 L 572.1875 308.003906 L 574.578125 308.21875 L 576.609375 308.453125 L 578.402344 308.734375 L 579.476562 308.96875 L 580.191406 309.207031 L 563.582031 309.207031 L 562.625 308.96875 L 561.550781 308.789062 L 559.757812 308.566406 L 557.964844 308.40625 L 556.175781 308.277344 L 552.828125 308.105469 L 549.960938 307.996094 L 546.375 307.902344 L 542.910156 307.839844 L 538.964844 307.800781 L 536.578125 307.789062 L 530.242188 307.789062 L 524.507812 307.835938 L 521.160156 307.890625 L 518.773438 307.941406 L 515.425781 308.042969 L 513.394531 308.125 L 512.199219 308.175781 L 508.613281 308.386719 L 506.226562 308.574219 L 504.910156 308.703125 L 503.238281 308.902344 L 502.042969 309.085938 L 500.726562 309.351562 L 500.011719 309.554688 L 499.054688 310.011719 L 498.933594 311.21875 L 499.292969 311.476562 L 500.011719 311.75 L 500.96875 311.992188 L 502.402344 312.25 L 503.835938 312.441406 L 506.34375 312.703125 L 508.496094 312.878906 L 510.167969 312.992188 L 513.394531 313.175781 L 514.707031 313.234375 L 517.816406 313.355469 L 521.042969 313.449219 L 524.984375 313.53125 L 527.972656 313.570312 L 532.753906 313.605469 L 538.847656 313.605469 L 546.015625 313.566406 L 550.558594 313.511719 L 553.664062 313.457031 L 555.695312 313.410156 L 558.207031 313.335938 L 559.996094 313.269531 L 561.671875 313.195312 L 563.703125 313.082031 L 563.703125 311.476562 L 534.1875 311.46875 L 534.1875 310.714844 L 580.074219 310.710938 L 580.191406 313.335938 L 577.683594 313.519531 L 574.578125 313.691406 L 571.589844 313.828125 L 568.480469 313.941406 L 564.0625 314.070312 L 560.476562 314.148438 L 554.980469 314.242188 L 549.960938 314.304688 L 544.703125 314.34375 L 540.042969 314.363281 L 534.546875 314.371094 L 529.644531 314.355469 L 524.386719 314.316406 L 520.207031 314.261719 L 516.382812 314.195312 L 512.558594 314.109375 L 507.777344 313.96875 L 504.671875 313.851562 L 501.445312 313.710938 L 498.21875 313.542969 L 495.351562 313.363281 L 493.4375 313.222656 L 491.527344 313.0625 L 489.496094 312.859375 L 487.582031 312.632812 L 486.148438 312.421875 L 484.835938 312.1875 L 483.878906 311.964844 L 482.921875 311.664062 L 482.445312 311.421875 L 482.207031 311.214844 Z M 482.207031 310.164062 "/>
<path style=" stroke:none;fill-rule:nonzero;fill:rgb(83.921569%,15.686275%,22.352941%);fill-opacity:1;" d="M 482.207031 50.976562 L 580.191406 50.976562 L 580.191406 78.257812 L 539.355469 78.496094 L 539.355469 305.835938 L 522.925781 305.835938 L 522.925781 78.734375 L 522.6875 78.257812 L 482.207031 78.257812 Z M 482.207031 50.976562 "/>
<path style=" stroke:none;fill-rule:nonzero;fill:rgb(6.27451%,58.823529%,28.235294%);fill-opacity:1;" d="M 585.351562 314.367188 L 585.453125 314.367188 L 627.851562 312.121094 L 640.730469 312.121094 L 683.335938 314.371094 L 668.367188 314.371094 L 657.6875 313.785156 L 610.894531 313.785156 L 600.425781 314.367188 L 585.351562 314.367188 L 615.394531 313.539062 L 653.398438 313.539062 L 634.449219 312.488281 L 634.238281 312.488281 L 634.03125 312.492188 L 615.289062 313.539062 L 615.394531 313.539062 Z M 585.351562 314.367188 "/>
<path style=" stroke:none;fill-rule:nonzero;fill:rgb(14.509804%,36.078431%,60%);fill-opacity:1;" d="M 585.351562 309.671875 L 585.46875 309.667969 L 585.46875 309.621094 L 585.828125 309.542969 L 586.664062 309.441406 L 587.5 309.375 L 589.652344 309.253906 L 592.640625 309.136719 L 595.746094 309.046875 L 598.015625 308.992188 L 600.046875 308.949219 L 604.707031 308.875 L 607.695312 308.835938 L 610.921875 308.800781 L 614.867188 308.765625 L 617.734375 308.746094 L 624.1875 308.710938 L 628.964844 308.699219 L 632.671875 308.691406 L 640.675781 308.691406 L 645.457031 308.699219 L 648.921875 308.710938 L 652.746094 308.726562 L 655.972656 308.746094 L 661.589844 308.789062 L 666.609375 308.847656 L 668.878906 308.882812 L 672.460938 308.945312 L 675.210938 309.007812 L 677.125 309.058594 L 679.273438 309.136719 L 681.1875 309.230469 L 682.621094 309.332031 L 683.335938 309.421875 L 666.609375 309.421875 L 665.769531 309.339844 L 664.816406 309.277344 L 663.023438 309.191406 L 661.230469 309.132812 L 658.722656 309.074219 L 656.449219 309.035156 L 653.34375 308.996094 L 650.59375 308.96875 L 647.726562 308.949219 L 644.980469 308.9375 L 639.722656 308.925781 L 633.625 308.925781 L 631.355469 308.929688 L 626.695312 308.945312 L 624.1875 308.960938 L 620.601562 308.988281 L 618.09375 309.015625 L 615.105469 309.058594 L 613.074219 309.09375 L 610.5625 309.148438 L 608.769531 309.195312 L 606.738281 309.261719 L 605.546875 309.3125 L 604.46875 309.371094 L 603.511719 309.4375 L 602.796875 309.511719 L 602.320312 309.585938 L 602.078125 309.660156 L 602.078125 309.980469 L 602.320312 310.054688 L 602.917969 310.140625 L 604.46875 310.265625 L 606.738281 310.375 L 609.367188 310.460938 L 611.878906 310.523438 L 613.3125 310.550781 L 615.222656 310.582031 L 618.210938 310.625 L 622.511719 310.667969 L 625.023438 310.683594 L 628.847656 310.699219 L 632.789062 310.707031 L 638.046875 310.707031 L 642.707031 310.699219 L 645.816406 310.6875 L 649.042969 310.671875 L 653.464844 310.636719 L 656.210938 310.605469 L 658.601562 310.566406 L 660.394531 310.527344 L 661.589844 310.492188 L 663.382812 310.429688 L 664.816406 310.359375 L 665.890625 310.289062 L 666.609375 310.21875 L 683.335938 310.21875 L 682.621094 310.300781 L 681.542969 310.378906 L 680.46875 310.441406 L 678.796875 310.511719 L 676.882812 310.574219 L 674.136719 310.648438 L 671.867188 310.695312 L 668.878906 310.746094 L 666.128906 310.785156 L 663.140625 310.820312 L 658.722656 310.863281 L 655.851562 310.882812 L 652.746094 310.902344 L 649.042969 310.917969 L 644.382812 310.929688 L 639.363281 310.941406 L 634.703125 310.941406 L 629.683594 310.9375 L 625.980469 310.929688 L 621.078125 310.910156 L 614.984375 310.875 L 610.5625 310.835938 L 607.097656 310.796875 L 604.109375 310.753906 L 600.765625 310.699219 L 596.464844 310.609375 L 593.835938 310.539062 L 592.042969 310.480469 L 590.011719 310.402344 L 588.578125 310.328125 L 586.902344 310.214844 L 585.707031 310.066406 L 585.351562 309.953125 Z M 585.351562 309.671875 "/>
<path style=" stroke:none;fill-rule:nonzero;fill:rgb(96.862745%,70.196078%,16.862745%);fill-opacity:1;" d="M 585.351562 288.582031 L 585.46875 288.554688 L 585.46875 287.949219 L 585.949219 286.585938 L 587.140625 284.710938 L 588.695312 283.171875 L 590.367188 281.960938 L 591.445312 281.324219 L 593.238281 280.417969 L 594.789062 279.753906 L 598.734375 278.394531 L 603.753906 277.121094 L 606.5 276.578125 L 609.609375 276.066406 L 614.027344 275.488281 L 616.0625 275.277344 L 622.273438 274.792969 L 629.324219 274.492188 L 637.09375 274.402344 L 640.675781 274.429688 L 645.578125 274.550781 L 652.269531 274.886719 L 656.09375 275.1875 L 659.078125 275.488281 L 662.1875 275.882812 L 666.011719 276.488281 L 669.59375 277.214844 L 672.460938 277.9375 L 675.332031 278.847656 L 677.722656 279.8125 L 679.753906 280.871094 L 681.542969 282.140625 L 682.621094 283.199219 L 683.335938 284.257812 L 666.726562 284.257812 L 665.769531 283.199219 L 664.695312 282.382812 L 662.902344 281.386719 L 661.109375 280.660156 L 659.316406 280.085938 L 655.972656 279.300781 L 653.105469 278.816406 L 649.519531 278.394531 L 646.054688 278.121094 L 642.109375 277.9375 L 639.722656 277.878906 L 633.386719 277.878906 L 627.652344 278.089844 L 624.304688 278.332031 L 621.914062 278.574219 L 618.570312 279.027344 L 616.539062 279.390625 L 615.34375 279.632812 L 611.757812 280.570312 L 609.367188 281.417969 L 608.054688 281.992188 L 606.382812 282.898438 L 605.1875 283.714844 L 603.871094 284.925781 L 603.15625 285.832031 L 602.199219 287.886719 L 602.078125 293.332031 L 602.4375 294.480469 L 603.15625 295.71875 L 604.109375 296.808594 L 605.546875 297.957031 L 606.980469 298.835938 L 609.488281 300.011719 L 611.640625 300.800781 L 613.3125 301.3125 L 616.539062 302.128906 L 617.851562 302.402344 L 620.960938 302.945312 L 624.1875 303.371094 L 628.128906 303.734375 L 631.117188 303.914062 L 635.898438 304.066406 L 641.992188 304.066406 L 649.160156 303.882812 L 653.703125 303.640625 L 656.808594 303.398438 L 658.839844 303.1875 L 661.351562 302.855469 L 663.140625 302.554688 L 664.816406 302.222656 L 666.847656 301.707031 L 666.847656 294.480469 L 637.332031 294.449219 L 637.332031 291.0625 L 683.21875 291.03125 L 683.335938 302.855469 L 680.828125 303.671875 L 677.722656 304.457031 L 674.734375 305.0625 L 671.625 305.578125 L 667.203125 306.152344 L 663.621094 306.515625 L 658.125 306.9375 L 653.105469 307.210938 L 647.847656 307.390625 L 643.1875 307.480469 L 637.691406 307.511719 L 632.789062 307.453125 L 627.53125 307.269531 L 623.351562 307.027344 L 619.527344 306.726562 L 615.703125 306.332031 L 610.921875 305.699219 L 607.816406 305.183594 L 604.589844 304.550781 L 601.363281 303.792969 L 598.496094 302.976562 L 596.582031 302.339844 L 594.671875 301.617188 L 592.640625 300.707031 L 590.726562 299.679688 L 589.292969 298.742188 L 587.980469 297.683594 L 587.023438 296.6875 L 586.066406 295.328125 L 585.589844 294.238281 L 585.351562 293.300781 Z M 585.351562 288.582031 "/>
<path style=" stroke:none;fill-rule:nonzero;fill:rgb(83.921569%,15.686275%,22.352941%);fill-opacity:1;" d="M 585.351562 209.25 L 683.335938 209.25 L 683.335938 216.097656 L 642.5 216.15625 L 642.5 273.222656 L 626.070312 273.222656 L 626.070312 216.21875 L 625.832031 216.097656 L 585.351562 216.097656 Z M 585.351562 209.25 "/>
<g style="fill:rgb(0%,0%,0%);fill-opacity:1;">
  <use xlink:href="#glyph0-1" x="21.957031" y="318.198242"/>
  <use xlink:href="#glyph0-2" x="27.291016" y="318.198242"/>
  <use xlink:href="#glyph0-1" x="29.958008" y="318.198242"/>
</g>
<g style="fill:rgb(0%,0%,0%);fill-opacity:1;">
  <use xlink:href="#glyph0-1" x="21.957031" y="244.475586"/>
  <use xlink:href="#glyph0-2" x="27.291016" y="244.475586"/>
  <use xlink:href="#glyph0-3" x="29.958008" y="244.475586"/>
</g>
<g style="fill:rgb(0%,0%,0%);fill-opacity:1;">
  <use xlink:href="#glyph0-4" x="21.957031" y="170.75293"/>
  <use xlink:href="#glyph0-2" x="27.291016" y="170.75293"/>
  <use xlink:href="#glyph0-1" x="29.958008" y="170.75293"/>
</g>
<g style="fill:rgb(0%,0%,0%);fill-opacity:1;">
  <use xlink:href="#glyph0-4" x="21.957031" y="97.03418"/>
  <use xlink:href="#glyph0-2" x="27.291016" y="97.03418"/>
  <use xlink:href="#glyph0-3" x="29.958008" y="97.03418"/>
</g>
<g style="fill:rgb(0%,0%,0%);fill-opacity:1;">
  <use xlink:href="#glyph0-5" x="21.957031" y="23.311523"/>
  <use xlink:href="#glyph0-2" x="27.291016" y="23.311523"/>
  <use xlink:href="#glyph0-1" x="29.958008" y="23.311523"/>
</g>
<g style="fill:rgb(0%,0%,0%);fill-opacity:1;">
  <use xlink:href="#glyph0-4" x="115.621094" y="338.19043"/>
</g>
<g style="fill:rgb(0%,0%,0%);fill-opacity:1;">
  <use xlink:href="#glyph0-5" x="218.765625" y="338.19043"/>
</g>
<g style="fill:rgb(0%,0%,0%);fill-opacity:1;">
  <use xlink:href="#glyph0-6" x="321.910156" y="338.19043"/>
</g>
<g style="fill:rgb(0%,0%,0%);fill-opacity:1;">
  <use xlink:href="#glyph0-7" x="425.054688" y="338.19043"/>
</g>
<g style="fill:rgb(0%,0%,0%);fill-opacity:1;">
  <use xlink:href="#glyph0-3" x="528.199219" y="338.19043"/>
</g>
<g style="fill:rgb(0%,0%,0%);fill-opacity:1;">
  <use xlink:href="#glyph0-8" x="631.34375" y="338.19043"/>
</g>
<g style="fill:rgb(0%,0%,0%);fill-opacity:1;">
  <use xlink:href="#glyph1-1" x="14.412109" y="178.015625"/>
  <use xlink:href="#glyph1-2" x="14.412109" y="170.011719"/>
  <use xlink:href="#glyph1-3" x="14.412109" y="167.347656"/>
  <use xlink:href="#glyph1-4" x="14.412109" y="164.011719"/>
</g>
</g>
</svg>
