<?xml version="1.0" encoding="UTF-8"?>
<svg xmlns="http://www.w3.org/2000/svg" xmlns:xlink="http://www.w3.org/1999/xlink" width="720pt" height="360pt" viewBox="0 0 720 360" version="1.1">
<defs>
<g>
<symbol overflow="visible" id="glyph0-0">
<path style="stroke:none;" d=""/>
</symbol>
<symbol overflow="visible" id="glyph0-1">
<path style="stroke:none;" d="M 2.640625 -6.796875 C 2 -6.796875 1.421875 -6.53125 1.078125 -6.046875 C 0.640625 -5.453125 0.40625 -4.546875 0.40625 -3.296875 C 0.40625 -1 1.1875 0.21875 2.640625 0.21875 C 4.078125 0.21875 4.859375 -1 4.859375 -3.234375 C 4.859375 -4.5625 4.65625 -5.4375 4.203125 -6.046875 C 3.84375 -6.53125 3.28125 -6.796875 2.640625 -6.796875 Z M 2.640625 -6.046875 C 3.546875 -6.046875 4 -5.125 4 -3.3125 C 4 -1.375 3.5625 -0.484375 2.625 -0.484375 C 1.734375 -0.484375 1.28125 -1.421875 1.28125 -3.28125 C 1.28125 -5.140625 1.734375 -6.046875 2.640625 -6.046875 Z M 2.640625 -6.046875 "/>
</symbol>
<symbol overflow="visible" id="glyph0-2">
<path style="stroke:none;" d="M 1.828125 -1 L 0.828125 -1 L 0.828125 0 L 1.828125 0 Z M 1.828125 -1 "/>
</symbol>
<symbol overflow="visible" id="glyph0-3">
<path style="stroke:none;" d="M 4.5625 -6.796875 L 1.0625 -6.796875 L 0.546875 -3.09375 L 1.328125 -3.09375 C 1.71875 -3.5625 2.046875 -3.734375 2.578125 -3.734375 C 3.484375 -3.734375 4.0625 -3.109375 4.0625 -2.09375 C 4.0625 -1.125 3.484375 -0.53125 2.578125 -0.53125 C 1.828125 -0.53125 1.375 -0.90625 1.1875 -1.671875 L 0.328125 -1.671875 C 0.453125 -1.109375 0.546875 -0.84375 0.75 -0.59375 C 1.125 -0.078125 1.828125 0.21875 2.59375 0.21875 C 3.96875 0.21875 4.921875 -0.78125 4.921875 -2.21875 C 4.921875 -3.5625 4.03125 -4.484375 2.71875 -4.484375 C 2.25 -4.484375 1.859375 -4.359375 1.46875 -4.0625 L 1.734375 -5.96875 L 4.5625 -5.96875 Z M 4.5625 -6.796875 "/>
</symbol>
<symbol overflow="visible" id="glyph0-4">
<path style="stroke:none;" d="M 2.484375 -4.84375 L 2.484375 0 L 3.328125 0 L 3.328125 -6.796875 L 2.765625 -6.796875 C 2.46875 -5.75 2.28125 -5.609375 0.984375 -5.453125 L 0.984375 -4.84375 Z M 2.484375 -4.84375 "/>
</symbol>
<symbol overflow="visible" id="glyph0-5">
<path style="stroke:none;" d="M 4.859375 -0.828125 L 1.28125 -0.828125 C 1.359375 -1.390625 1.671875 -1.75 2.5 -2.234375 L 3.46875 -2.75 C 4.40625 -3.265625 4.90625 -3.96875 4.90625 -4.8125 C 4.90625 -5.375 4.671875 -5.90625 4.265625 -6.265625 C 3.859375 -6.625 3.375 -6.796875 2.71875 -6.796875 C 1.859375 -6.796875 1.21875 -6.5 0.84375 -5.921875 C 0.609375 -5.5625 0.5 -5.125 0.484375 -4.4375 L 1.328125 -4.4375 C 1.359375 -4.90625 1.40625 -5.1875 1.53125 -5.40625 C 1.75 -5.8125 2.1875 -6.0625 2.703125 -6.0625 C 3.46875 -6.0625 4.03125 -5.515625 4.03125 -4.78125 C 4.03125 -4.25 3.71875 -3.796875 3.125 -3.4375 L 2.234375 -2.9375 C 0.8125 -2.140625 0.40625 -1.5 0.328125 0 L 4.859375 0 Z M 4.859375 -0.828125 "/>
</symbol>
<symbol overflow="visible" id="glyph0-6">
<path style="stroke:none;" d="M 2.125 -3.125 L 2.578125 -3.125 C 3.515625 -3.125 3.984375 -2.703125 3.984375 -1.890625 C 3.984375 -1.03125 3.46875 -0.53125 2.578125 -0.53125 C 1.65625 -0.53125 1.203125 -0.984375 1.15625 -1.96875 L 0.3125 -1.96875 C 0.34375 -1.421875 0.4375 -1.078125 0.609375 -0.765625 C 0.953125 -0.109375 1.625 0.21875 2.546875 0.21875 C 3.953125 0.21875 4.859375 -0.609375 4.859375 -1.90625 C 4.859375 -2.765625 4.515625 -3.25 3.703125 -3.515625 C 4.34375 -3.765625 4.65625 -4.25 4.65625 -4.9375 C 4.65625 -6.109375 3.875 -6.796875 2.578125 -6.796875 C 1.203125 -6.796875 0.484375 -6.046875 0.453125 -4.609375 L 1.296875 -4.609375 C 1.3125 -5.015625 1.34375 -5.25 1.453125 -5.453125 C 1.640625 -5.828125 2.0625 -6.0625 2.59375 -6.0625 C 3.34375 -6.0625 3.796875 -5.625 3.796875 -4.90625 C 3.796875 -4.421875 3.609375 -4.140625 3.25 -3.984375 C 3.015625 -3.890625 2.71875 -3.84375 2.125 -3.84375 Z M 2.125 -3.125 "/>
</symbol>
<symbol overflow="visible" id="glyph0-7">
<path style="stroke:none;" d="M 3.140625 -1.625 L 3.140625 0 L 3.984375 0 L 3.984375 -1.625 L 4.984375 -1.625 L 4.984375 -2.390625 L 3.984375 -2.390625 L 3.984375 -6.796875 L 3.359375 -6.796875 L 0.265625 -2.515625 L 0.265625 -1.625 Z M 3.140625 -2.390625 L 1 -2.390625 L 3.140625 -5.359375 Z M 3.140625 -2.390625 "/>
</symbol>
<symbol overflow="visible" id="glyph0-8">
<path style="stroke:none;" d="M 4.78125 -5.03125 C 4.609375 -6.140625 3.890625 -6.796875 2.84375 -6.796875 C 2.09375 -6.796875 1.421875 -6.4375 1.03125 -5.828125 C 0.609375 -5.171875 0.40625 -4.34375 0.40625 -3.09375 C 0.40625 -1.953125 0.578125 -1.234375 0.984375 -0.625 C 1.359375 -0.078125 1.953125 0.21875 2.703125 0.21875 C 3.984375 0.21875 4.921875 -0.734375 4.921875 -2.078125 C 4.921875 -3.34375 4.0625 -4.234375 2.84375 -4.234375 C 2.171875 -4.234375 1.640625 -3.96875 1.28125 -3.46875 C 1.28125 -5.125 1.828125 -6.046875 2.796875 -6.046875 C 3.390625 -6.046875 3.796875 -5.671875 3.9375 -5.03125 Z M 2.734375 -3.484375 C 3.546875 -3.484375 4.0625 -2.921875 4.0625 -2 C 4.0625 -1.15625 3.484375 -0.53125 2.703125 -0.53125 C 1.921875 -0.53125 1.328125 -1.1875 1.328125 -2.046875 C 1.328125 -2.890625 1.90625 -3.484375 2.734375 -3.484375 Z M 2.734375 -3.484375 "/>
</symbol>
<symbol overflow="visible" id="glyph0-9">
<path style="stroke:none;" d="M 4.984375 -6.796875 L 0.4375 -6.796875 L 0.4375 -5.96875 L 4.109375 -5.96875 C 2.5 -3.65625 1.828125 -2.234375 1.328125 0 L 2.21875 0 C 2.59375 -2.171875 3.453125 -4.046875 4.984375 -6.09375 Z M 4.984375 -6.796875 "/>
</symbol>
<symbol overflow="visible" id="glyph0-10">
<path style="stroke:none;" d="M 3.75 -3.578125 C 4.453125 -4 4.6875 -4.34375 4.6875 -4.984375 C 4.6875 -6.046875 3.84375 -6.796875 2.640625 -6.796875 C 1.4375 -6.796875 0.59375 -6.046875 0.59375 -4.984375 C 0.59375 -4.359375 0.828125 -4.015625 1.515625 -3.578125 C 0.734375 -3.203125 0.359375 -2.640625 0.359375 -1.890625 C 0.359375 -0.640625 1.296875 0.21875 2.640625 0.21875 C 3.984375 0.21875 4.921875 -0.640625 4.921875 -1.875 C 4.921875 -2.640625 4.53125 -3.203125 3.75 -3.578125 Z M 2.640625 -6.046875 C 3.359375 -6.046875 3.8125 -5.625 3.8125 -4.96875 C 3.8125 -4.34375 3.34375 -3.921875 2.640625 -3.921875 C 1.921875 -3.921875 1.453125 -4.34375 1.453125 -4.984375 C 1.453125 -5.625 1.921875 -6.046875 2.640625 -6.046875 Z M 2.640625 -3.203125 C 3.484375 -3.203125 4.0625 -2.671875 4.0625 -1.875 C 4.0625 -1.0625 3.484375 -0.53125 2.625 -0.53125 C 1.796875 -0.53125 1.21875 -1.078125 1.21875 -1.875 C 1.21875 -2.671875 1.796875 -3.203125 2.640625 -3.203125 Z M 2.640625 -3.203125 "/>
</symbol>
<symbol overflow="visible" id="glyph0-11">
<path style="stroke:none;" d="M 0.515625 -1.546875 C 0.671875 -0.4375 1.40625 0.21875 2.4375 0.21875 C 3.1875 0.21875 3.859375 -0.140625 4.265625 -0.75 C 4.6875 -1.40625 4.890625 -2.25 4.890625 -3.484375 C 4.890625 -4.625 4.703125 -5.359375 4.3125 -5.953125 C 3.9375 -6.5 3.34375 -6.796875 2.59375 -6.796875 C 1.296875 -6.796875 0.359375 -5.84375 0.359375 -4.515625 C 0.359375 -3.25 1.234375 -2.34375 2.453125 -2.34375 C 3.09375 -2.34375 3.5625 -2.578125 4.015625 -3.109375 C 4 -1.453125 3.46875 -0.53125 2.5 -0.53125 C 1.90625 -0.53125 1.484375 -0.90625 1.359375 -1.546875 Z M 2.578125 -6.0625 C 3.375 -6.0625 3.96875 -5.40625 3.96875 -4.53125 C 3.96875 -3.6875 3.375 -3.09375 2.546875 -3.09375 C 1.734375 -3.09375 1.234375 -3.671875 1.234375 -4.578125 C 1.234375 -5.4375 1.796875 -6.0625 2.578125 -6.0625 Z M 2.578125 -6.0625 "/>
</symbol>
<symbol overflow="visible" id="glyph1-0">
<path style="stroke:none;" d=""/>
</symbol>
<symbol overflow="visible" id="glyph1-1">
<path style="stroke:none;" d="M 0 -0.953125 L 0 -4.890625 C 0 -5.71875 -0.234375 -6.34375 -0.734375 -6.796875 C -1.1875 -7.234375 -1.8125 -7.46875 -2.5 -7.46875 C -3.546875 -7.46875 -4.1875 -7 -4.625 -5.875 C -4.984375 -6.671875 -5.640625 -7.09375 -6.53125 -7.09375 C -7.15625 -7.09375 -7.734375 -6.859375 -8.140625 -6.390625 C -8.5625 -5.9375 -8.75 -5.34375 -8.75 -4.5 L -8.75 -0.953125 Z M -4.984375 -2.0625 L -7.765625 -2.0625 L -7.765625 -4.21875 C -7.765625 -4.84375 -7.6875 -5.203125 -7.453125 -5.5 C -7.21875 -5.8125 -6.859375 -5.96875 -6.375 -5.96875 C -5.90625 -5.96875 -5.53125 -5.8125 -5.296875 -5.5 C -5.0625 -5.203125 -4.984375 -4.84375 -4.984375 -4.21875 Z M -0.984375 -2.0625 L -4 -2.0625 L -4 -4.78125 C -4 -5.328125 -3.859375 -5.6875 -3.578125 -5.953125 C -3.296875 -6.21875 -2.921875 -6.359375 -2.484375 -6.359375 C -2.0625 -6.359375 -1.6875 -6.21875 -1.40625 -5.953125 C -1.109375 -5.6875 -0.984375 -5.328125 -0.984375 -4.78125 Z M -0.984375 -2.0625 "/>
</symbol>
<symbol overflow="visible" id="glyph1-2">
<path style="stroke:none;" d="M -6.28125 -1.796875 L -6.28125 -0.796875 L 0 -0.796875 L 0 -1.796875 Z M -8.75 -1.796875 L -8.75 -0.796875 L -7.484375 -0.796875 L -7.484375 -1.796875 Z M -8.75 -1.796875 "/>
</symbol>
<symbol overflow="visible" id="glyph1-3">
<path style="stroke:none;" d="M -6.28125 -3.046875 L -6.28125 -2.015625 L -8.015625 -2.015625 L -8.015625 -1.015625 L -6.28125 -1.015625 L -6.28125 -0.171875 L -5.46875 -0.171875 L -5.46875 -1.015625 L -0.71875 -1.015625 C -0.078125 -1.015625 0.28125 -1.453125 0.28125 -2.234375 C 0.28125 -2.46875 0.25 -2.71875 0.1875 -3.046875 L -0.640625 -3.046875 C -0.609375 -2.921875 -0.59375 -2.765625 -0.59375 -2.5625 C -0.59375 -2.140625 -0.71875 -2.015625 -1.15625 -2.015625 L -5.46875 -2.015625 L -5.46875 -3.046875 Z M -6.28125 -3.046875 "/>
</symbol>
<symbol overflow="visible" id="glyph1-4">
<path style="stroke:none;" d="M -4.53125 -5.25 C -5.765625 -5.25 -6.46875 -4.421875 -6.46875 -2.96875 C -6.46875 -1.515625 -5.71875 -0.5625 -4.546875 -0.5625 C -3.5625 -0.5625 -3.09375 -1.0625 -2.734375 -2.5625 L -2.515625 -3.484375 C -2.34375 -4.1875 -2.09375 -4.46875 -1.625 -4.46875 C -1.046875 -4.46875 -0.640625 -3.875 -0.640625 -3 C -0.640625 -2.453125 -0.796875 -2 -1.0625 -1.75 C -1.25 -1.59375 -1.421875 -1.53125 -1.875 -1.46875 L -1.875 -0.40625 C -0.421875 -0.453125 0.28125 -1.265625 0.28125 -2.921875 C 0.28125 -4.5 -0.5 -5.515625 -1.71875 -5.515625 C -2.65625 -5.515625 -3.171875 -4.984375 -3.46875 -3.734375 L -3.703125 -2.765625 C -3.890625 -1.953125 -4.15625 -1.609375 -4.59375 -1.609375 C -5.171875 -1.609375 -5.546875 -2.125 -5.546875 -2.9375 C -5.546875 -3.75 -5.203125 -4.171875 -4.53125 -4.203125 Z M -4.53125 -5.25 "/>
</symbol>
</g>
</defs>
<g id="surface110366">
<rect x="0" y="0" width="720" height="360" style="fill:rgb(100%,100%,100%);fill-opacity:1;stroke:none;"/>
<path style=" stroke:none;fill-rule:nonzero;fill:rgb(6.27451%,58.823529%,28.235294%);fill-opacity:1;" d="M 69.628906 312.675781 L 69.679688 312.671875 L 90.792969 311.488281 L 97.203125 311.488281 L 118.417969 312.675781 L 110.964844 312.675781 L 105.648438 312.367188 L 82.347656 312.367188 L 77.136719 312.675781 L 69.628906 312.675781 L 84.589844 312.238281 L 103.511719 312.238281 L 94.074219 311.683594 L 93.867188 311.683594 L 84.535156 312.238281 L 84.589844 312.238281 Z M 69.628906 312.675781 "/>
<path style=" stroke:none;fill-rule:nonzero;fill:rgb(14.509804%,36.078431%,60%);fill-opacity:1;" d="M 69.628906 309.265625 L 69.6875 309.265625 L 69.6875 309.222656 L 69.867188 309.160156 L 70.285156 309.078125 L 70.699219 309.023438 L 71.769531 308.921875 L 73.257812 308.828125 L 74.804688 308.753906 L 75.9375 308.710938 L 76.949219 308.675781 L 79.269531 308.613281 L 80.753906 308.582031 L 82.363281 308.550781 L 84.324219 308.523438 L 85.753906 308.507812 L 88.964844 308.480469 L 91.347656 308.46875 L 93.191406 308.460938 L 97.175781 308.460938 L 99.558594 308.46875 L 101.28125 308.476562 L 103.1875 308.492188 L 104.792969 308.507812 L 107.589844 308.542969 L 110.089844 308.589844 L 111.21875 308.617188 L 113.003906 308.671875 L 114.371094 308.722656 L 115.324219 308.765625 L 116.394531 308.828125 L 117.347656 308.902344 L 118.0625 308.988281 L 118.417969 309.0625 L 110.089844 309.0625 L 109.671875 308.996094 L 109.195312 308.941406 L 108.304688 308.871094 L 107.410156 308.824219 L 106.160156 308.773438 L 105.03125 308.742188 L 103.484375 308.710938 L 102.117188 308.691406 L 100.6875 308.675781 L 99.320312 308.664062 L 96.699219 308.65625 L 93.667969 308.65625 L 92.535156 308.660156 L 90.214844 308.671875 L 88.964844 308.683594 L 87.179688 308.707031 L 85.933594 308.730469 L 84.445312 308.761719 L 83.433594 308.792969 L 82.183594 308.835938 L 81.289062 308.875 L 80.28125 308.929688 L 79.683594 308.972656 L 79.148438 309.019531 L 78.671875 309.074219 L 78.316406 309.132812 L 78.078125 309.195312 L 77.960938 309.257812 L 77.960938 309.519531 L 78.078125 309.582031 L 78.375 309.652344 L 79.148438 309.753906 L 80.28125 309.84375 L 81.589844 309.914062 L 82.839844 309.964844 L 83.550781 309.988281 L 84.503906 310.015625 L 85.992188 310.050781 L 88.132812 310.082031 L 89.382812 310.097656 L 91.285156 310.109375 L 93.25 310.117188 L 95.867188 310.117188 L 98.1875 310.109375 L 99.734375 310.101562 L 101.34375 310.089844 L 103.542969 310.058594 L 104.910156 310.03125 L 106.101562 310 L 106.996094 309.96875 L 107.589844 309.941406 L 108.480469 309.890625 L 109.195312 309.832031 L 109.730469 309.773438 L 110.089844 309.714844 L 118.417969 309.714844 L 118.0625 309.78125 L 117.523438 309.847656 L 116.988281 309.898438 L 116.15625 309.957031 L 115.203125 310.007812 L 113.835938 310.066406 L 112.707031 310.105469 L 111.21875 310.148438 L 109.851562 310.179688 L 108.363281 310.210938 L 106.160156 310.242188 L 104.734375 310.261719 L 103.1875 310.277344 L 101.34375 310.289062 L 99.019531 310.300781 L 96.523438 310.308594 L 94.203125 310.308594 L 91.703125 310.304688 L 89.859375 310.300781 L 87.417969 310.285156 L 84.386719 310.253906 L 82.183594 310.222656 L 80.457031 310.191406 L 78.96875 310.15625 L 77.304688 310.109375 L 75.164062 310.035156 L 73.855469 309.980469 L 72.960938 309.929688 L 71.949219 309.867188 L 71.234375 309.804688 L 70.402344 309.710938 L 69.808594 309.59375 L 69.628906 309.5 Z M 69.628906 309.265625 "/>
<path style=" stroke:none;fill-rule:nonzero;fill:rgb(96.862745%,70.196078%,16.862745%);fill-opacity:1;" d="M 69.628906 305.667969 L 69.6875 305.664062 L 69.6875 305.613281 L 69.925781 305.496094 L 70.523438 305.335938 L 71.296875 305.203125 L 72.128906 305.101562 L 72.664062 305.046875 L 73.554688 304.96875 L 74.328125 304.914062 L 76.292969 304.796875 L 78.792969 304.6875 L 80.160156 304.640625 L 81.707031 304.597656 L 83.910156 304.546875 L 84.921875 304.53125 L 88.015625 304.488281 L 91.523438 304.464844 L 95.390625 304.457031 L 97.175781 304.457031 L 99.617188 304.46875 L 102.949219 304.496094 L 104.851562 304.523438 L 106.339844 304.546875 L 107.886719 304.582031 L 109.789062 304.632812 L 111.574219 304.695312 L 113.003906 304.757812 L 114.429688 304.835938 L 115.621094 304.917969 L 116.632812 305.007812 L 117.523438 305.117188 L 118.0625 305.207031 L 118.417969 305.296875 L 110.148438 305.296875 L 109.671875 305.207031 L 109.136719 305.136719 L 108.242188 305.050781 L 107.351562 304.988281 L 106.457031 304.941406 L 104.792969 304.875 L 103.363281 304.832031 L 101.578125 304.796875 L 99.855469 304.773438 L 97.890625 304.757812 L 96.699219 304.753906 L 93.546875 304.753906 L 90.691406 304.769531 L 89.027344 304.792969 L 87.835938 304.8125 L 86.167969 304.851562 L 85.160156 304.882812 L 84.5625 304.902344 L 82.777344 304.980469 L 81.589844 305.054688 L 80.933594 305.105469 L 80.101562 305.179688 L 79.507812 305.25 L 78.851562 305.355469 L 78.496094 305.433594 L 78.019531 305.605469 L 77.960938 306.070312 L 78.136719 306.171875 L 78.496094 306.277344 L 78.96875 306.367188 L 79.683594 306.46875 L 80.398438 306.542969 L 81.648438 306.644531 L 82.71875 306.710938 L 83.550781 306.753906 L 85.160156 306.824219 L 85.8125 306.847656 L 87.359375 306.894531 L 88.964844 306.929688 L 90.929688 306.960938 L 92.417969 306.976562 L 94.796875 306.988281 L 97.832031 306.988281 L 101.402344 306.972656 L 103.664062 306.953125 L 105.210938 306.933594 L 106.21875 306.914062 L 107.46875 306.886719 L 108.363281 306.859375 L 109.195312 306.832031 L 110.207031 306.789062 L 110.207031 306.171875 L 95.511719 306.167969 L 95.511719 305.878906 L 118.359375 305.875 L 118.417969 306.886719 L 117.167969 306.957031 L 115.621094 307.023438 L 114.132812 307.074219 L 112.585938 307.117188 L 110.386719 307.167969 L 108.601562 307.199219 L 105.863281 307.234375 L 103.363281 307.257812 L 100.746094 307.273438 L 98.425781 307.28125 L 95.691406 307.285156 L 93.25 307.277344 L 90.632812 307.261719 L 88.550781 307.242188 L 86.644531 307.214844 L 84.742188 307.183594 L 82.363281 307.128906 L 80.816406 307.085938 L 79.207031 307.03125 L 77.601562 306.964844 L 76.175781 306.894531 L 75.222656 306.839844 L 74.269531 306.78125 L 73.257812 306.703125 L 72.308594 306.613281 L 71.59375 306.535156 L 70.9375 306.445312 L 70.460938 306.359375 L 69.988281 306.242188 L 69.75 306.148438 L 69.628906 306.070312 Z M 69.628906 305.667969 "/>
<path style=" stroke:none;fill-rule:nonzero;fill:rgb(83.921569%,15.686275%,22.352941%);fill-opacity:1;" d="M 69.628906 313.855469 L 118.417969 313.855469 L 118.417969 313.910156 L 98.085938 313.910156 L 98.085938 314.371094 L 89.902344 314.371094 L 89.902344 313.910156 L 69.628906 313.910156 Z M 69.628906 313.855469 "/>
<path style=" stroke:none;fill-rule:nonzero;fill:rgb(6.27451%,58.823529%,28.235294%);fill-opacity:1;" d="M 120.984375 312.5625 L 121.039062 312.5625 L 142.148438 312.457031 L 148.558594 312.457031 L 169.773438 312.5625 L 162.320312 312.5625 L 157.003906 312.535156 L 133.703125 312.535156 L 128.492188 312.5625 L 120.984375 312.5625 L 135.945312 312.523438 L 154.867188 312.523438 L 145.433594 312.472656 L 145.328125 312.472656 L 145.222656 312.476562 L 135.894531 312.523438 L 135.945312 312.523438 Z M 120.984375 312.5625 "/>
<path style=" stroke:none;fill-rule:nonzero;fill:rgb(96.862745%,70.196078%,16.862745%);fill-opacity:1;" d="M 120.984375 311.164062 L 121.046875 311.164062 L 121.046875 311.160156 L 121.28125 311.152344 L 121.878906 311.140625 L 122.652344 311.132812 L 123.484375 311.125 L 124.019531 311.121094 L 124.914062 311.113281 L 125.6875 311.109375 L 127.648438 311.101562 L 130.148438 311.09375 L 131.515625 311.089844 L 133.0625 311.089844 L 135.265625 311.085938 L 136.277344 311.082031 L 139.371094 311.082031 L 142.882812 311.078125 L 150.972656 311.078125 L 154.304688 311.082031 L 156.207031 311.082031 L 157.695312 311.085938 L 159.242188 311.085938 L 161.148438 311.089844 L 162.933594 311.09375 L 164.359375 311.097656 L 165.789062 311.105469 L 166.976562 311.109375 L 167.988281 311.117188 L 168.882812 311.125 L 169.417969 311.132812 L 169.773438 311.136719 L 161.503906 311.136719 L 161.027344 311.132812 L 160.492188 311.125 L 159.601562 311.121094 L 158.707031 311.117188 L 157.816406 311.113281 L 156.148438 311.109375 L 154.722656 311.105469 L 152.9375 311.101562 L 151.210938 311.101562 L 149.246094 311.097656 L 144.902344 311.097656 L 142.046875 311.101562 L 139.191406 311.101562 L 137.527344 311.105469 L 136.515625 311.109375 L 135.917969 311.109375 L 134.132812 311.117188 L 132.945312 311.121094 L 132.289062 311.125 L 131.457031 311.128906 L 130.863281 311.132812 L 130.207031 311.140625 L 129.851562 311.148438 L 129.375 311.160156 L 129.316406 311.191406 L 129.492188 311.199219 L 129.851562 311.207031 L 130.328125 311.214844 L 131.039062 311.21875 L 131.753906 311.226562 L 133.003906 311.234375 L 134.074219 311.238281 L 134.90625 311.242188 L 136.515625 311.246094 L 137.167969 311.246094 L 138.714844 311.25 L 140.324219 311.253906 L 142.285156 311.253906 L 143.773438 311.257812 L 149.1875 311.257812 L 152.757812 311.253906 L 156.566406 311.253906 L 157.578125 311.25 L 158.828125 311.25 L 159.71875 311.246094 L 160.550781 311.246094 L 161.5625 311.242188 L 161.5625 311.199219 L 146.867188 311.199219 L 146.867188 311.179688 L 169.714844 311.179688 L 169.773438 311.25 L 168.523438 311.253906 L 166.976562 311.257812 L 165.492188 311.261719 L 163.941406 311.265625 L 161.742188 311.269531 L 159.957031 311.273438 L 157.21875 311.273438 L 154.722656 311.277344 L 141.988281 311.277344 L 139.90625 311.273438 L 138.003906 311.273438 L 136.097656 311.269531 L 133.71875 311.265625 L 132.171875 311.261719 L 130.566406 311.261719 L 128.957031 311.253906 L 127.53125 311.25 L 125.625 311.242188 L 124.613281 311.238281 L 123.664062 311.230469 L 122.949219 311.226562 L 122.292969 311.21875 L 121.820312 311.210938 L 121.105469 311.199219 L 120.984375 311.191406 Z M 120.984375 311.164062 "/>
<path style=" stroke:none;fill-rule:nonzero;fill:rgb(6.27451%,58.823529%,28.235294%);fill-opacity:1;" d="M 172.34375 308.949219 L 172.394531 308.941406 L 193.503906 303.355469 L 199.914062 303.355469 L 221.128906 308.953125 L 213.675781 308.953125 L 208.359375 307.492188 L 185.058594 307.492188 L 179.847656 308.949219 L 172.34375 308.949219 L 187.300781 306.886719 L 206.222656 306.882812 L 196.789062 304.269531 L 196.683594 304.265625 L 196.578125 304.28125 L 187.25 306.882812 L 187.300781 306.886719 Z M 172.34375 308.949219 "/>
<path style=" stroke:none;fill-rule:nonzero;fill:rgb(14.509804%,36.078431%,60%);fill-opacity:1;" d="M 172.34375 294.09375 L 172.402344 294.082031 L 172.402344 293.765625 L 172.578125 293.269531 L 172.996094 292.640625 L 173.414062 292.210938 L 174.484375 291.4375 L 175.972656 290.691406 L 177.519531 290.117188 L 178.648438 289.777344 L 179.660156 289.515625 L 181.980469 289.03125 L 183.46875 288.78125 L 185.074219 288.558594 L 187.039062 288.335938 L 188.464844 288.207031 L 191.679688 287.996094 L 194.058594 287.90625 L 195.902344 287.867188 L 199.890625 287.867188 L 202.269531 287.917969 L 203.996094 287.984375 L 205.898438 288.089844 L 207.503906 288.207031 L 210.300781 288.496094 L 212.800781 288.859375 L 213.929688 289.070312 L 215.714844 289.476562 L 217.085938 289.867188 L 218.035156 290.207031 L 219.109375 290.691406 L 220.058594 291.28125 L 220.773438 291.949219 L 221.128906 292.511719 L 212.800781 292.511719 L 212.382812 291.988281 L 211.90625 291.582031 L 211.015625 291.046875 L 210.125 290.667969 L 208.875 290.285156 L 207.742188 290.039062 L 206.195312 289.789062 L 204.828125 289.632812 L 203.398438 289.515625 L 202.03125 289.4375 L 199.414062 289.359375 L 196.378906 289.359375 L 195.25 289.382812 L 192.929688 289.488281 L 191.679688 289.582031 L 189.894531 289.761719 L 188.644531 289.933594 L 187.15625 290.195312 L 186.144531 290.417969 L 184.894531 290.757812 L 184.003906 291.058594 L 182.992188 291.492188 L 182.398438 291.816406 L 181.863281 292.183594 L 181.386719 292.617188 L 181.027344 293.074219 L 180.789062 293.558594 L 180.671875 294.027344 L 180.671875 296.054688 L 180.789062 296.527344 L 181.089844 297.074219 L 181.863281 297.875 L 182.992188 298.566406 L 184.300781 299.117188 L 185.550781 299.507812 L 186.265625 299.691406 L 187.214844 299.902344 L 188.703125 300.164062 L 190.847656 300.425781 L 192.09375 300.53125 L 194 300.632812 L 195.960938 300.6875 L 198.582031 300.6875 L 200.902344 300.632812 L 202.449219 300.570312 L 204.054688 300.464844 L 206.257812 300.242188 L 207.625 300.03125 L 208.8125 299.785156 L 209.707031 299.535156 L 210.300781 299.324219 L 211.195312 298.921875 L 211.90625 298.476562 L 212.445312 298.019531 L 212.800781 297.574219 L 221.128906 297.574219 L 220.773438 298.097656 L 220.238281 298.605469 L 219.703125 298.984375 L 218.871094 299.445312 L 217.917969 299.847656 L 216.550781 300.308594 L 215.417969 300.609375 L 213.929688 300.933594 L 212.5625 301.183594 L 211.074219 301.40625 L 208.875 301.667969 L 207.445312 301.796875 L 205.898438 301.914062 L 204.054688 302.019531 L 201.734375 302.113281 L 199.234375 302.164062 L 196.914062 302.175781 L 194.414062 302.152344 L 192.570312 302.097656 L 190.132812 301.980469 L 187.097656 301.746094 L 184.894531 301.496094 L 183.171875 301.25 L 181.683594 300.988281 L 180.015625 300.632812 L 177.875 300.058594 L 176.566406 299.613281 L 175.671875 299.246094 L 174.664062 298.738281 L 173.949219 298.28125 L 173.117188 297.546875 L 172.519531 296.617188 L 172.34375 295.898438 Z M 172.34375 294.09375 "/>
<path style=" stroke:none;fill-rule:nonzero;fill:rgb(96.862745%,70.196078%,16.862745%);fill-opacity:1;" d="M 172.34375 266.65625 L 172.402344 266.625 L 172.402344 265.984375 L 172.640625 264.542969 L 173.234375 262.5625 L 174.007812 260.929688 L 174.839844 259.648438 L 175.375 258.976562 L 176.269531 258.015625 L 177.042969 257.3125 L 179.003906 255.875 L 181.503906 254.53125 L 182.875 253.953125 L 184.421875 253.410156 L 186.621094 252.800781 L 187.632812 252.578125 L 190.726562 252.066406 L 194.238281 251.746094 L 198.105469 251.648438 L 199.890625 251.683594 L 202.328125 251.808594 L 205.660156 252.160156 L 207.566406 252.480469 L 209.050781 252.800781 L 210.597656 253.21875 L 212.503906 253.859375 L 214.289062 254.625 L 215.714844 255.394531 L 217.144531 256.351562 L 218.335938 257.378906 L 219.34375 258.496094 L 220.238281 259.839844 L 220.773438 260.960938 L 221.128906 262.082031 L 212.859375 262.082031 L 212.382812 260.960938 L 211.847656 260.097656 L 210.957031 259.042969 L 210.0625 258.273438 L 209.171875 257.664062 L 207.503906 256.832031 L 206.078125 256.320312 L 204.292969 255.875 L 202.566406 255.585938 L 200.605469 255.394531 L 199.414062 255.328125 L 196.261719 255.328125 L 193.402344 255.554688 L 191.738281 255.808594 L 190.546875 256.066406 L 188.882812 256.546875 L 187.871094 256.929688 L 187.277344 257.183594 L 185.492188 258.175781 L 184.300781 259.074219 L 183.648438 259.679688 L 182.8125 260.640625 L 182.21875 261.503906 L 181.5625 262.785156 L 181.207031 263.746094 L 180.730469 265.921875 L 180.671875 271.679688 L 180.851562 272.894531 L 181.207031 274.207031 L 181.683594 275.359375 L 182.398438 276.574219 L 183.109375 277.503906 L 184.359375 278.75 L 185.429688 279.582031 L 186.265625 280.128906 L 187.871094 280.992188 L 188.527344 281.28125 L 190.074219 281.855469 L 191.679688 282.304688 L 193.640625 282.6875 L 195.128906 282.878906 L 197.507812 283.039062 L 200.542969 283.039062 L 204.113281 282.847656 L 206.375 282.589844 L 207.921875 282.335938 L 208.933594 282.113281 L 210.183594 281.757812 L 211.074219 281.441406 L 211.90625 281.085938 L 212.917969 280.542969 L 212.917969 272.894531 L 198.222656 272.863281 L 198.222656 269.28125 L 221.070312 269.25 L 221.128906 281.757812 L 219.882812 282.625 L 218.335938 283.457031 L 216.847656 284.09375 L 215.300781 284.640625 L 213.097656 285.246094 L 211.3125 285.632812 L 208.578125 286.078125 L 206.078125 286.367188 L 203.460938 286.558594 L 201.140625 286.65625 L 198.402344 286.6875 L 195.960938 286.625 L 193.34375 286.429688 L 191.261719 286.175781 L 189.359375 285.855469 L 187.453125 285.441406 L 185.074219 284.765625 L 183.527344 284.222656 L 181.921875 283.550781 L 180.316406 282.75 L 178.886719 281.886719 L 177.933594 281.214844 L 176.984375 280.449219 L 175.972656 279.488281 L 175.019531 278.398438 L 174.304688 277.40625 L 173.652344 276.289062 L 173.175781 275.230469 L 172.699219 273.792969 L 172.460938 272.640625 L 172.34375 271.648438 Z M 172.34375 266.65625 "/>
<path style=" stroke:none;fill-rule:nonzero;fill:rgb(83.921569%,15.686275%,22.352941%);fill-opacity:1;" d="M 172.34375 310.132812 L 221.128906 310.132812 L 221.128906 310.585938 L 200.796875 310.589844 L 200.796875 314.371094 L 192.617188 314.371094 L 192.617188 310.59375 L 192.496094 310.585938 L 172.34375 310.585938 Z M 172.34375 310.132812 "/>
<path style=" stroke:none;fill-rule:nonzero;fill:rgb(6.27451%,58.823529%,28.235294%);fill-opacity:1;" d="M 223.699219 313.019531 L 223.75 313.019531 L 244.859375 311.503906 L 251.273438 311.503906 L 272.488281 313.023438 L 265.03125 313.023438 L 259.714844 312.625 L 236.417969 312.625 L 231.203125 313.019531 L 223.699219 313.019531 L 238.65625 312.460938 L 257.578125 312.460938 L 248.144531 311.75 L 248.039062 311.75 L 247.9375 311.753906 L 238.605469 312.460938 L 238.65625 312.460938 Z M 223.699219 313.019531 "/>
<path style=" stroke:none;fill-rule:nonzero;fill:rgb(14.509804%,36.078431%,60%);fill-opacity:1;" d="M 223.699219 148.101562 L 223.757812 147.847656 L 223.757812 141.675781 L 223.9375 131.902344 L 224.351562 119.554688 L 224.769531 111.070312 L 225.839844 95.894531 L 227.328125 81.238281 L 228.875 69.921875 L 230.003906 63.234375 L 231.015625 58.089844 L 233.335938 48.574219 L 234.824219 43.6875 L 236.429688 39.316406 L 238.394531 34.945312 L 239.820312 32.375 L 243.035156 28.257812 L 245.414062 26.457031 L 247.257812 25.6875 L 251.246094 25.6875 L 253.625 26.714844 L 255.351562 28 L 257.253906 30.058594 L 258.863281 32.375 L 261.65625 38.03125 L 264.15625 45.230469 L 265.289062 49.347656 L 267.074219 57.320312 L 268.441406 65.035156 L 269.394531 71.722656 L 270.464844 81.238281 L 271.414062 92.808594 L 272.128906 105.925781 L 272.488281 116.984375 L 264.15625 116.984375 L 263.742188 106.699219 L 263.265625 98.726562 L 262.371094 88.179688 L 261.480469 80.722656 L 260.230469 73.265625 L 259.101562 68.378906 L 257.550781 63.492188 L 256.183594 60.40625 L 254.757812 58.089844 L 253.386719 56.546875 L 250.769531 55.003906 L 247.734375 55.003906 L 246.605469 55.519531 L 244.285156 57.578125 L 243.035156 59.378906 L 241.25 62.976562 L 240 66.320312 L 238.511719 71.464844 L 237.5 75.835938 L 236.253906 82.523438 L 235.359375 88.4375 L 234.347656 96.925781 L 233.753906 103.355469 L 233.21875 110.554688 L 232.742188 119.042969 L 232.386719 128.042969 L 232.148438 137.558594 L 232.027344 146.816406 L 232.027344 186.679688 L 232.148438 195.9375 L 232.445312 206.738281 L 233.21875 222.425781 L 234.347656 236.058594 L 235.65625 246.859375 L 236.90625 254.574219 L 237.621094 258.175781 L 238.574219 262.289062 L 240.058594 267.433594 L 242.203125 272.578125 L 243.453125 274.632812 L 245.355469 276.691406 L 247.320312 277.722656 L 249.9375 277.722656 L 252.257812 276.691406 L 253.804688 275.40625 L 255.410156 273.347656 L 257.613281 268.976562 L 258.980469 264.863281 L 260.171875 259.976562 L 261.0625 255.089844 L 261.65625 250.972656 L 262.550781 243 L 263.265625 234.257812 L 263.800781 225.257812 L 264.15625 216.511719 L 272.488281 216.511719 L 272.128906 226.800781 L 271.59375 236.828125 L 271.058594 244.289062 L 270.226562 253.289062 L 269.273438 261.261719 L 267.90625 270.261719 L 266.773438 276.175781 L 265.289062 282.605469 L 263.917969 287.492188 L 262.429688 291.867188 L 260.230469 297.007812 L 258.800781 299.582031 L 257.253906 301.894531 L 255.410156 303.953125 L 253.089844 305.753906 L 250.589844 306.78125 L 248.269531 307.039062 L 245.773438 306.523438 L 243.925781 305.496094 L 241.488281 303.179688 L 238.453125 298.550781 L 236.253906 293.664062 L 234.527344 288.78125 L 233.039062 283.636719 L 231.375 276.691406 L 229.230469 265.375 L 227.921875 256.632812 L 227.03125 249.429688 L 226.019531 239.402344 L 225.304688 230.398438 L 224.472656 216 L 223.875 197.738281 L 223.699219 183.59375 Z M 223.699219 148.101562 "/>
<path style=" stroke:none;fill-rule:nonzero;fill:rgb(96.862745%,70.196078%,16.862745%);fill-opacity:1;" d="M 223.699219 309.121094 L 223.757812 309.117188 L 223.757812 309.078125 L 223.996094 308.992188 L 224.589844 308.875 L 225.363281 308.777344 L 226.195312 308.699219 L 226.734375 308.660156 L 227.625 308.601562 L 228.398438 308.558594 L 230.363281 308.472656 L 232.859375 308.390625 L 234.230469 308.355469 L 235.777344 308.324219 L 237.976562 308.289062 L 238.988281 308.273438 L 242.082031 308.242188 L 245.59375 308.222656 L 249.460938 308.21875 L 251.246094 308.21875 L 253.683594 308.226562 L 257.015625 308.25 L 258.921875 308.269531 L 260.410156 308.289062 L 261.957031 308.3125 L 263.859375 308.351562 L 265.644531 308.398438 L 267.074219 308.445312 L 268.5 308.5 L 269.691406 308.5625 L 270.703125 308.628906 L 271.59375 308.710938 L 272.128906 308.777344 L 272.488281 308.84375 L 264.214844 308.84375 L 263.742188 308.777344 L 263.203125 308.726562 L 262.3125 308.664062 L 261.421875 308.617188 L 260.527344 308.578125 L 258.863281 308.53125 L 257.433594 308.5 L 255.648438 308.472656 L 253.921875 308.453125 L 251.960938 308.445312 L 250.769531 308.441406 L 247.617188 308.441406 L 244.761719 308.453125 L 243.09375 308.46875 L 241.90625 308.484375 L 240.238281 308.511719 L 239.226562 308.535156 L 238.632812 308.550781 L 236.847656 308.609375 L 235.65625 308.664062 L 235.003906 308.699219 L 234.167969 308.757812 L 233.574219 308.8125 L 232.921875 308.886719 L 232.5625 308.945312 L 232.085938 309.074219 L 232.027344 309.421875 L 232.207031 309.496094 L 232.5625 309.574219 L 233.039062 309.644531 L 233.753906 309.714844 L 234.46875 309.773438 L 235.71875 309.847656 L 236.789062 309.898438 L 237.621094 309.929688 L 239.226562 309.980469 L 239.882812 310 L 241.429688 310.035156 L 243.035156 310.058594 L 245 310.082031 L 246.484375 310.09375 L 248.867188 310.105469 L 251.898438 310.105469 L 255.46875 310.09375 L 257.730469 310.078125 L 259.277344 310.0625 L 260.289062 310.046875 L 261.539062 310.027344 L 262.429688 310.007812 L 263.265625 309.988281 L 264.277344 309.953125 L 264.277344 309.496094 L 249.578125 309.492188 L 249.578125 309.277344 L 272.425781 309.277344 L 272.488281 310.027344 L 271.238281 310.078125 L 269.691406 310.128906 L 268.203125 310.167969 L 266.65625 310.199219 L 264.453125 310.238281 L 262.667969 310.261719 L 259.933594 310.285156 L 257.433594 310.304688 L 254.816406 310.316406 L 252.496094 310.320312 L 249.757812 310.324219 L 247.320312 310.320312 L 244.699219 310.308594 L 242.617188 310.292969 L 240.714844 310.273438 L 238.8125 310.25 L 236.429688 310.207031 L 234.882812 310.175781 L 233.277344 310.136719 L 231.671875 310.085938 L 230.242188 310.035156 L 229.292969 309.996094 L 228.339844 309.949219 L 227.328125 309.890625 L 226.375 309.824219 L 225.660156 309.765625 L 225.007812 309.699219 L 224.53125 309.636719 L 224.054688 309.550781 L 223.816406 309.480469 L 223.699219 309.421875 Z M 223.699219 309.121094 "/>
<path style=" stroke:none;fill-rule:nonzero;fill:rgb(83.921569%,15.686275%,22.352941%);fill-opacity:1;" d="M 223.699219 314.203125 L 272.488281 314.203125 L 272.488281 314.21875 L 252.152344 314.21875 L 252.152344 314.371094 L 243.972656 314.371094 L 243.972656 314.21875 L 223.699219 314.21875 Z M 223.699219 314.203125 "/>
<path style=" stroke:none;fill-rule:nonzero;fill:rgb(6.27451%,58.823529%,28.235294%);fill-opacity:1;" d="M 275.054688 299.253906 L 275.105469 299.027344 L 296.21875 56.5 L 302.628906 56.5 L 323.84375 299.484375 L 316.390625 299.484375 L 311.074219 236.058594 L 287.773438 236.058594 L 282.558594 299.253906 L 275.054688 299.253906 L 290.015625 209.820312 L 308.933594 209.589844 L 299.5 96.199219 L 299.398438 95.972656 L 299.292969 96.65625 L 289.960938 209.589844 L 290.015625 209.820312 Z M 275.054688 299.253906 "/>
<path style=" stroke:none;fill-rule:nonzero;fill:rgb(14.509804%,36.078431%,60%);fill-opacity:1;" d="M 275.054688 310.078125 L 275.113281 310.078125 L 275.113281 310.03125 L 275.292969 309.957031 L 275.710938 309.863281 L 276.125 309.800781 L 277.195312 309.683594 L 278.683594 309.574219 L 280.230469 309.488281 L 281.359375 309.4375 L 282.371094 309.398438 L 284.691406 309.328125 L 286.179688 309.292969 L 287.789062 309.257812 L 289.75 309.226562 L 291.179688 309.207031 L 294.390625 309.175781 L 296.769531 309.160156 L 298.617188 309.15625 L 302.601562 309.15625 L 304.980469 309.164062 L 306.707031 309.171875 L 308.613281 309.1875 L 310.21875 309.207031 L 313.015625 309.25 L 315.511719 309.300781 L 316.644531 309.332031 L 318.429688 309.394531 L 319.796875 309.453125 L 320.75 309.503906 L 321.820312 309.574219 L 322.773438 309.660156 L 323.484375 309.761719 L 323.84375 309.84375 L 315.511719 309.84375 L 315.097656 309.765625 L 314.621094 309.707031 L 313.726562 309.625 L 312.835938 309.570312 L 311.585938 309.515625 L 310.457031 309.476562 L 308.910156 309.441406 L 307.539062 309.417969 L 306.113281 309.398438 L 304.742188 309.386719 L 302.125 309.375 L 299.089844 309.375 L 297.960938 309.378906 L 295.640625 309.394531 L 294.390625 309.410156 L 292.605469 309.4375 L 291.355469 309.460938 L 289.871094 309.5 L 288.859375 309.535156 L 287.609375 309.585938 L 286.714844 309.628906 L 285.703125 309.691406 L 285.109375 309.742188 L 284.574219 309.796875 L 284.097656 309.859375 L 283.742188 309.925781 L 283.503906 310 L 283.382812 310.070312 L 283.382812 310.371094 L 283.503906 310.441406 L 283.800781 310.519531 L 284.574219 310.640625 L 285.703125 310.742188 L 287.011719 310.824219 L 288.261719 310.882812 L 288.976562 310.910156 L 289.929688 310.941406 L 291.417969 310.980469 L 293.558594 311.019531 L 294.808594 311.035156 L 296.710938 311.050781 L 298.675781 311.058594 L 301.292969 311.058594 L 303.613281 311.050781 L 305.160156 311.039062 L 306.765625 311.023438 L 308.96875 310.992188 L 310.335938 310.960938 L 311.527344 310.921875 L 312.417969 310.886719 L 313.015625 310.855469 L 313.90625 310.792969 L 314.621094 310.730469 L 315.15625 310.660156 L 315.511719 310.59375 L 323.84375 310.59375 L 323.484375 310.671875 L 322.949219 310.75 L 322.414062 310.804688 L 321.582031 310.871094 L 320.628906 310.933594 L 319.261719 311 L 318.132812 311.046875 L 316.644531 311.09375 L 315.273438 311.128906 L 313.789062 311.164062 L 311.585938 311.203125 L 310.160156 311.222656 L 308.613281 311.238281 L 306.765625 311.253906 L 304.445312 311.269531 L 301.949219 311.277344 L 299.628906 311.277344 L 297.128906 311.273438 L 295.285156 311.265625 L 292.84375 311.25 L 289.808594 311.214844 L 287.609375 311.175781 L 285.882812 311.140625 L 284.394531 311.101562 L 282.730469 311.050781 L 280.585938 310.964844 L 279.277344 310.898438 L 278.386719 310.84375 L 277.375 310.769531 L 276.660156 310.699219 L 275.828125 310.589844 L 275.234375 310.453125 L 275.054688 310.347656 Z M 275.054688 310.078125 "/>
<path style=" stroke:none;fill-rule:nonzero;fill:rgb(96.862745%,70.196078%,16.862745%);fill-opacity:1;" d="M 275.054688 303.796875 L 275.113281 303.789062 L 275.113281 303.65625 L 275.351562 303.355469 L 275.945312 302.941406 L 276.71875 302.601562 L 277.554688 302.332031 L 278.089844 302.191406 L 278.980469 301.992188 L 279.753906 301.84375 L 281.71875 301.546875 L 284.21875 301.265625 L 285.585938 301.144531 L 287.132812 301.03125 L 289.335938 300.902344 L 290.34375 300.855469 L 293.4375 300.75 L 296.949219 300.683594 L 300.816406 300.664062 L 302.601562 300.671875 L 305.042969 300.695312 L 308.375 300.769531 L 310.277344 300.835938 L 311.765625 300.902344 L 313.3125 300.992188 L 315.214844 301.125 L 317 301.285156 L 318.429688 301.445312 L 319.855469 301.644531 L 321.046875 301.859375 L 322.058594 302.09375 L 322.949219 302.371094 L 323.484375 302.605469 L 323.84375 302.839844 L 315.574219 302.839844 L 315.097656 302.605469 L 314.5625 302.425781 L 313.667969 302.207031 L 312.777344 302.046875 L 311.882812 301.917969 L 310.21875 301.746094 L 308.789062 301.636719 L 307.003906 301.546875 L 305.28125 301.484375 L 303.316406 301.445312 L 302.125 301.429688 L 298.972656 301.429688 L 296.117188 301.476562 L 294.449219 301.53125 L 293.261719 301.585938 L 291.59375 301.683594 L 290.582031 301.765625 L 289.988281 301.820312 L 288.203125 302.027344 L 287.011719 302.210938 L 286.359375 302.339844 L 285.527344 302.539062 L 284.929688 302.71875 L 284.277344 302.988281 L 283.917969 303.1875 L 283.445312 303.640625 L 283.382812 304.84375 L 283.5625 305.097656 L 283.917969 305.371094 L 284.394531 305.613281 L 285.109375 305.867188 L 285.824219 306.058594 L 287.074219 306.320312 L 288.144531 306.492188 L 288.976562 306.605469 L 290.582031 306.785156 L 291.238281 306.847656 L 292.785156 306.96875 L 294.390625 307.0625 L 296.355469 307.140625 L 297.84375 307.179688 L 300.222656 307.214844 L 303.257812 307.214844 L 306.828125 307.175781 L 309.085938 307.121094 L 310.632812 307.066406 L 311.644531 307.019531 L 312.894531 306.949219 L 313.789062 306.878906 L 314.621094 306.808594 L 315.632812 306.695312 L 315.632812 305.097656 L 300.9375 305.089844 L 300.9375 304.34375 L 323.785156 304.335938 L 323.84375 306.949219 L 322.59375 307.128906 L 321.046875 307.300781 L 319.558594 307.433594 L 318.011719 307.546875 L 315.8125 307.675781 L 314.027344 307.753906 L 311.289062 307.847656 L 308.789062 307.910156 L 306.171875 307.949219 L 303.851562 307.96875 L 301.113281 307.976562 L 298.675781 307.960938 L 296.058594 307.921875 L 293.976562 307.867188 L 292.070312 307.800781 L 290.167969 307.714844 L 287.789062 307.574219 L 286.238281 307.460938 L 284.632812 307.320312 L 283.027344 307.15625 L 281.597656 306.972656 L 280.648438 306.832031 L 279.695312 306.671875 L 278.683594 306.472656 L 277.730469 306.246094 L 277.019531 306.039062 L 276.363281 305.804688 L 275.886719 305.585938 L 275.410156 305.285156 L 275.171875 305.042969 L 275.054688 304.835938 Z M 275.054688 303.796875 "/>
<path style=" stroke:none;fill-rule:nonzero;fill:rgb(83.921569%,15.686275%,22.352941%);fill-opacity:1;" d="M 275.054688 312.457031 L 323.84375 312.457031 L 323.84375 312.664062 L 303.507812 312.664062 L 303.507812 314.371094 L 295.328125 314.371094 L 295.328125 312.664062 L 275.054688 312.664062 Z M 275.054688 312.457031 "/>
<path style=" stroke:none;fill-rule:nonzero;fill:rgb(6.27451%,58.823529%,28.235294%);fill-opacity:1;" d="M 326.410156 314.371094 L 326.464844 314.371094 L 347.574219 313.660156 L 353.984375 313.660156 L 375.199219 314.371094 L 367.746094 314.371094 L 362.429688 314.183594 L 339.128906 314.183594 L 333.917969 314.371094 L 326.410156 314.371094 L 341.371094 314.109375 L 360.292969 314.109375 L 350.855469 313.777344 L 350.648438 313.777344 L 341.320312 314.109375 L 341.371094 314.109375 Z M 326.410156 314.371094 "/>
<path style=" stroke:none;fill-rule:nonzero;fill:rgb(14.509804%,36.078431%,60%);fill-opacity:1;" d="M 326.410156 168.34375 L 326.46875 168.136719 L 326.46875 163.167969 L 326.648438 155.300781 L 327.066406 145.363281 L 327.480469 138.535156 L 328.554688 126.320312 L 330.039062 114.519531 L 331.585938 105.414062 L 332.71875 100.03125 L 333.730469 95.890625 L 336.050781 88.230469 L 337.535156 84.296875 L 339.144531 80.78125 L 341.105469 77.261719 L 342.535156 75.191406 L 345.746094 71.878906 L 348.128906 70.429688 L 349.972656 69.808594 L 353.957031 69.808594 L 356.339844 70.636719 L 358.0625 71.671875 L 359.96875 73.328125 L 361.574219 75.191406 L 364.371094 79.746094 L 366.871094 85.539062 L 368 88.851562 L 369.785156 95.269531 L 371.152344 101.480469 L 372.105469 106.863281 L 373.175781 114.519531 L 374.128906 123.835938 L 374.84375 134.394531 L 375.199219 143.292969 L 366.871094 143.292969 L 366.453125 135.015625 L 365.976562 128.597656 L 365.085938 120.109375 L 364.191406 114.105469 L 362.941406 108.105469 L 361.8125 104.171875 L 360.265625 100.238281 L 358.898438 97.753906 L 357.46875 95.890625 L 356.101562 94.648438 L 353.484375 93.40625 L 350.449219 93.40625 L 349.316406 93.820312 L 346.996094 95.476562 L 345.746094 96.925781 L 343.960938 99.824219 L 342.714844 102.515625 L 341.226562 106.65625 L 340.214844 110.175781 L 338.964844 115.554688 L 338.074219 120.316406 L 337.0625 127.148438 L 336.464844 132.324219 L 335.929688 138.121094 L 335.453125 144.949219 L 335.097656 152.195312 L 334.859375 159.855469 L 334.742188 167.308594 L 334.742188 199.394531 L 334.859375 206.84375 L 335.15625 215.539062 L 335.929688 228.167969 L 337.0625 239.136719 L 338.371094 247.832031 L 339.621094 254.042969 L 340.332031 256.941406 L 341.285156 260.253906 L 342.773438 264.390625 L 344.914062 268.53125 L 346.164062 270.1875 L 348.066406 271.84375 L 350.03125 272.671875 L 352.648438 272.671875 L 354.96875 271.84375 L 356.515625 270.808594 L 358.125 269.152344 L 360.324219 265.632812 L 361.691406 262.320312 L 362.882812 258.390625 L 363.777344 254.457031 L 364.371094 251.144531 L 365.261719 244.726562 L 365.976562 237.6875 L 366.511719 230.445312 L 366.871094 223.40625 L 375.199219 223.40625 L 374.84375 231.683594 L 374.308594 239.757812 L 373.769531 245.761719 L 372.9375 253.007812 L 371.988281 259.425781 L 370.617188 266.667969 L 369.488281 271.429688 L 368 276.605469 L 366.632812 280.539062 L 365.144531 284.058594 L 362.941406 288.199219 L 361.515625 290.265625 L 359.96875 292.128906 L 358.125 293.785156 L 355.804688 295.234375 L 353.304688 296.0625 L 350.984375 296.269531 L 348.484375 295.855469 L 346.640625 295.027344 L 344.199219 293.164062 L 341.167969 289.441406 L 338.964844 285.507812 L 337.238281 281.574219 L 335.753906 277.433594 L 334.085938 271.84375 L 331.945312 262.734375 L 330.636719 255.699219 L 329.742188 249.902344 L 328.730469 241.828125 L 328.015625 234.582031 L 327.183594 222.992188 L 326.589844 208.292969 L 326.410156 196.910156 Z M 326.410156 168.34375 "/>
<path style=" stroke:none;fill-rule:nonzero;fill:rgb(96.862745%,70.196078%,16.862745%);fill-opacity:1;" d="M 326.410156 308.691406 L 326.46875 308.6875 L 326.46875 308.566406 L 326.707031 308.292969 L 327.304688 307.917969 L 328.078125 307.609375 L 328.910156 307.367188 L 329.445312 307.238281 L 330.335938 307.058594 L 331.109375 306.925781 L 333.074219 306.652344 L 335.574219 306.398438 L 336.941406 306.289062 L 338.488281 306.1875 L 340.691406 306.070312 L 341.703125 306.03125 L 344.796875 305.933594 L 348.304688 305.871094 L 352.171875 305.855469 L 353.957031 305.859375 L 356.398438 305.882812 L 359.730469 305.949219 L 361.632812 306.011719 L 363.121094 306.070312 L 364.667969 306.148438 L 366.570312 306.269531 L 368.355469 306.417969 L 369.785156 306.5625 L 371.214844 306.742188 L 372.402344 306.9375 L 373.414062 307.148438 L 374.308594 307.402344 L 374.84375 307.613281 L 375.199219 307.828125 L 366.929688 307.828125 L 366.453125 307.613281 L 365.917969 307.453125 L 365.023438 307.25 L 364.132812 307.105469 L 363.238281 306.992188 L 361.574219 306.835938 L 360.144531 306.738281 L 358.359375 306.652344 L 356.636719 306.597656 L 354.671875 306.5625 L 353.484375 306.550781 L 350.328125 306.550781 L 347.472656 306.59375 L 345.808594 306.640625 L 344.617188 306.6875 L 342.953125 306.78125 L 341.941406 306.851562 L 341.34375 306.902344 L 339.558594 307.089844 L 338.371094 307.257812 L 337.714844 307.371094 L 336.882812 307.554688 L 336.289062 307.71875 L 335.632812 307.960938 L 335.277344 308.140625 L 334.800781 308.554688 L 334.742188 309.640625 L 334.917969 309.871094 L 335.277344 310.121094 L 335.753906 310.339844 L 336.464844 310.570312 L 337.179688 310.742188 L 338.429688 310.980469 L 339.5 311.136719 L 340.332031 311.242188 L 341.941406 311.402344 L 342.59375 311.457031 L 344.140625 311.566406 L 345.746094 311.652344 L 347.710938 311.722656 L 349.199219 311.761719 L 351.578125 311.792969 L 354.613281 311.792969 L 358.183594 311.753906 L 360.445312 311.707031 L 361.992188 311.65625 L 363.003906 311.617188 L 364.25 311.550781 L 365.144531 311.488281 L 365.976562 311.421875 L 366.988281 311.320312 L 366.988281 309.871094 L 352.292969 309.867188 L 352.292969 309.1875 L 375.140625 309.183594 L 375.199219 311.550781 L 373.949219 311.710938 L 372.402344 311.871094 L 370.914062 311.992188 L 369.367188 312.09375 L 367.167969 312.207031 L 365.382812 312.28125 L 362.644531 312.367188 L 360.144531 312.421875 L 357.527344 312.457031 L 355.207031 312.476562 L 352.472656 312.480469 L 350.03125 312.46875 L 347.414062 312.433594 L 345.332031 312.382812 L 343.425781 312.324219 L 341.523438 312.246094 L 339.144531 312.117188 L 337.597656 312.015625 L 335.988281 311.886719 L 334.382812 311.738281 L 332.957031 311.574219 L 332.003906 311.445312 L 331.050781 311.300781 L 330.039062 311.121094 L 329.089844 310.914062 L 328.375 310.726562 L 327.71875 310.515625 L 327.242188 310.3125 L 326.769531 310.042969 L 326.53125 309.824219 L 326.410156 309.636719 Z M 326.410156 308.691406 "/>
<path style=" stroke:none;fill-rule:nonzero;fill:rgb(83.921569%,15.686275%,22.352941%);fill-opacity:1;" d="M 326.410156 297.449219 L 375.199219 297.449219 L 375.199219 298.222656 L 354.867188 298.230469 L 354.867188 304.675781 L 346.683594 304.675781 L 346.683594 298.238281 L 346.566406 298.222656 L 326.410156 298.222656 Z M 326.410156 297.449219 "/>
<path style=" stroke:none;fill-rule:nonzero;fill:rgb(6.27451%,58.823529%,28.235294%);fill-opacity:1;" d="M 377.765625 308.335938 L 377.820312 308.324219 L 398.929688 295.296875 L 405.339844 295.296875 L 426.554688 308.347656 L 419.101562 308.347656 L 413.785156 304.941406 L 390.484375 304.941406 L 385.273438 308.335938 L 377.765625 308.335938 L 392.726562 303.53125 L 411.648438 303.519531 L 402.214844 297.429688 L 402.109375 297.417969 L 402.003906 297.453125 L 392.675781 303.519531 L 392.726562 303.53125 Z M 377.765625 308.335938 "/>
<path style=" stroke:none;fill-rule:nonzero;fill:rgb(14.509804%,36.078431%,60%);fill-opacity:1;" d="M 377.765625 310.492188 L 377.828125 310.492188 L 377.828125 310.441406 L 378.003906 310.367188 L 378.421875 310.269531 L 378.839844 310.203125 L 379.910156 310.082031 L 381.394531 309.964844 L 382.945312 309.878906 L 384.074219 309.824219 L 385.085938 309.785156 L 387.40625 309.707031 L 388.894531 309.671875 L 390.5 309.636719 L 392.464844 309.601562 L 393.890625 309.582031 L 397.105469 309.546875 L 399.484375 309.535156 L 401.328125 309.527344 L 405.316406 309.527344 L 407.695312 309.535156 L 409.421875 309.546875 L 411.324219 309.5625 L 412.929688 309.582031 L 415.726562 309.625 L 418.226562 309.683594 L 419.355469 309.714844 L 421.140625 309.777344 L 422.507812 309.839844 L 423.460938 309.890625 L 424.53125 309.964844 L 425.484375 310.058594 L 426.199219 310.160156 L 426.554688 310.25 L 418.226562 310.25 L 417.808594 310.167969 L 417.332031 310.105469 L 416.441406 310.019531 L 415.546875 309.960938 L 414.300781 309.902344 L 413.167969 309.863281 L 411.621094 309.828125 L 410.253906 309.800781 L 408.824219 309.785156 L 407.457031 309.773438 L 404.839844 309.757812 L 401.804688 309.757812 L 400.675781 309.761719 L 398.351562 309.78125 L 397.105469 309.792969 L 395.320312 309.824219 L 394.070312 309.847656 L 392.582031 309.890625 L 391.570312 309.921875 L 390.320312 309.976562 L 389.429688 310.023438 L 388.417969 310.089844 L 387.824219 310.140625 L 387.285156 310.199219 L 386.8125 310.265625 L 386.453125 310.335938 L 386.214844 310.410156 L 386.097656 310.484375 L 386.097656 310.796875 L 386.214844 310.871094 L 386.511719 310.957031 L 387.285156 311.082031 L 388.417969 311.1875 L 389.726562 311.273438 L 390.976562 311.335938 L 391.691406 311.363281 L 392.640625 311.394531 L 394.128906 311.4375 L 396.269531 311.476562 L 397.519531 311.492188 L 399.425781 311.507812 L 401.386719 311.515625 L 404.003906 311.515625 L 406.328125 311.507812 L 407.875 311.5 L 409.480469 311.480469 L 411.679688 311.449219 L 413.050781 311.414062 L 414.238281 311.375 L 415.132812 311.339844 L 415.726562 311.304688 L 416.621094 311.242188 L 417.332031 311.171875 L 417.867188 311.101562 L 418.226562 311.035156 L 426.554688 311.035156 L 426.199219 311.113281 L 425.664062 311.195312 L 425.128906 311.253906 L 424.292969 311.324219 L 423.34375 311.386719 L 421.972656 311.457031 L 420.84375 311.503906 L 419.355469 311.554688 L 417.988281 311.59375 L 416.5 311.628906 L 414.300781 311.667969 L 412.871094 311.6875 L 411.324219 311.707031 L 409.480469 311.722656 L 407.160156 311.738281 L 404.660156 311.746094 L 402.339844 311.75 L 399.839844 311.742188 L 397.996094 311.734375 L 395.558594 311.71875 L 392.523438 311.679688 L 390.320312 311.644531 L 388.597656 311.605469 L 387.109375 311.5625 L 385.441406 311.507812 L 383.300781 311.417969 L 381.992188 311.351562 L 381.097656 311.292969 L 380.085938 311.214844 L 379.375 311.144531 L 378.539062 311.03125 L 377.945312 310.886719 L 377.765625 310.773438 Z M 377.765625 310.492188 "/>
<path style=" stroke:none;fill-rule:nonzero;fill:rgb(96.862745%,70.196078%,16.862745%);fill-opacity:1;" d="M 377.765625 169.160156 L 377.828125 168.960938 L 377.828125 164.96875 L 378.066406 155.984375 L 378.660156 143.609375 L 379.433594 133.425781 L 380.265625 125.441406 L 380.800781 121.25 L 381.695312 115.261719 L 382.46875 110.871094 L 384.429688 101.886719 L 386.929688 93.503906 L 388.296875 89.910156 L 389.84375 86.519531 L 392.046875 82.726562 L 393.058594 81.328125 L 396.152344 78.132812 L 399.664062 76.136719 L 403.53125 75.539062 L 405.316406 75.738281 L 407.753906 76.535156 L 411.085938 78.734375 L 412.988281 80.730469 L 414.476562 82.726562 L 416.023438 85.320312 L 417.929688 89.3125 L 419.714844 94.101562 L 421.140625 98.894531 L 422.570312 104.882812 L 423.757812 111.269531 L 424.769531 118.257812 L 425.664062 126.640625 L 426.199219 133.628906 L 426.554688 140.613281 L 418.285156 140.613281 L 417.808594 133.628906 L 417.273438 128.238281 L 416.382812 121.648438 L 415.488281 116.859375 L 414.597656 113.066406 L 412.929688 107.875 L 411.503906 104.683594 L 409.71875 101.886719 L 407.992188 100.089844 L 406.027344 98.894531 L 404.839844 98.496094 L 401.683594 98.496094 L 398.828125 99.890625 L 397.164062 101.488281 L 395.972656 103.085938 L 394.308594 106.082031 L 393.296875 108.476562 L 392.699219 110.074219 L 390.917969 116.261719 L 389.726562 121.851562 L 389.070312 125.640625 L 388.238281 131.632812 L 387.644531 137.019531 L 386.988281 145.003906 L 386.632812 150.992188 L 386.15625 164.566406 L 386.097656 200.5 L 386.273438 208.085938 L 386.632812 216.269531 L 387.109375 223.453125 L 387.824219 231.039062 L 388.535156 236.828125 L 389.785156 244.613281 L 390.855469 249.804688 L 391.691406 253.199219 L 393.296875 258.585938 L 393.949219 260.382812 L 395.496094 263.976562 L 397.105469 266.769531 L 399.066406 269.167969 L 400.554688 270.363281 L 402.933594 271.363281 L 405.96875 271.363281 L 409.539062 270.164062 L 411.800781 268.566406 L 413.347656 266.972656 L 414.359375 265.574219 L 415.609375 263.378906 L 416.5 261.382812 L 417.332031 259.1875 L 418.34375 255.792969 L 418.34375 208.085938 L 403.648438 207.882812 L 403.648438 185.527344 L 426.496094 185.328125 L 426.554688 263.378906 L 425.304688 268.765625 L 423.757812 273.957031 L 422.273438 277.949219 L 420.726562 281.34375 L 418.523438 285.136719 L 416.738281 287.53125 L 414 290.324219 L 411.503906 292.121094 L 408.882812 293.320312 L 406.5625 293.917969 L 403.828125 294.117188 L 401.386719 293.71875 L 398.769531 292.523438 L 396.6875 290.925781 L 394.785156 288.929688 L 392.878906 286.332031 L 390.5 282.140625 L 388.953125 278.75 L 387.347656 274.554688 L 385.738281 269.566406 L 384.3125 264.175781 L 383.359375 259.984375 L 382.40625 255.195312 L 381.394531 249.207031 L 380.445312 242.417969 L 379.730469 236.230469 L 379.074219 229.242188 L 378.601562 222.65625 L 378.125 213.671875 L 377.886719 206.488281 L 377.765625 200.300781 Z M 377.765625 169.160156 "/>
<path style=" stroke:none;fill-rule:nonzero;fill:rgb(83.921569%,15.686275%,22.352941%);fill-opacity:1;" d="M 377.765625 312.925781 L 426.554688 312.925781 L 426.554688 313.082031 L 406.222656 313.082031 L 406.222656 314.371094 L 398.042969 314.371094 L 398.042969 313.085938 L 397.921875 313.082031 L 377.765625 313.082031 Z M 377.765625 312.925781 "/>
<path style=" stroke:none;fill-rule:nonzero;fill:rgb(6.27451%,58.823529%,28.235294%);fill-opacity:1;" d="M 429.125 311.402344 L 429.175781 311.398438 L 450.285156 306.90625 L 456.695312 306.90625 L 477.910156 311.40625 L 470.457031 311.40625 L 465.140625 310.230469 L 441.839844 310.230469 L 436.628906 311.402344 L 429.125 311.402344 L 444.082031 309.746094 L 463.003906 309.738281 L 453.570312 307.640625 L 453.464844 307.636719 L 453.359375 307.648438 L 444.03125 309.738281 L 444.082031 309.746094 Z M 429.125 311.402344 "/>
<path style=" stroke:none;fill-rule:nonzero;fill:rgb(14.509804%,36.078431%,60%);fill-opacity:1;" d="M 429.125 301.566406 L 429.183594 301.558594 L 429.183594 301.394531 L 429.363281 301.140625 L 429.777344 300.816406 L 430.195312 300.59375 L 431.265625 300.199219 L 432.753906 299.8125 L 434.300781 299.519531 L 435.429688 299.34375 L 436.441406 299.207031 L 438.761719 298.960938 L 440.25 298.832031 L 441.855469 298.71875 L 443.820312 298.601562 L 445.246094 298.535156 L 448.460938 298.425781 L 450.839844 298.378906 L 452.683594 298.359375 L 456.671875 298.359375 L 459.050781 298.386719 L 460.777344 298.421875 L 462.679688 298.472656 L 464.285156 298.535156 L 467.082031 298.683594 L 469.582031 298.871094 L 470.710938 298.980469 L 472.496094 299.1875 L 473.867188 299.390625 L 474.816406 299.566406 L 475.890625 299.8125 L 476.839844 300.117188 L 477.554688 300.460938 L 477.910156 300.75 L 469.582031 300.75 L 469.164062 300.480469 L 468.691406 300.273438 L 467.796875 299.996094 L 466.90625 299.800781 L 465.65625 299.605469 L 464.523438 299.476562 L 462.976562 299.351562 L 461.609375 299.269531 L 460.179688 299.207031 L 458.8125 299.167969 L 456.195312 299.128906 L 453.160156 299.128906 L 452.03125 299.140625 L 449.710938 299.195312 L 448.460938 299.242188 L 446.675781 299.335938 L 445.425781 299.421875 L 443.9375 299.558594 L 442.925781 299.671875 L 441.675781 299.847656 L 440.785156 300.003906 L 439.773438 300.226562 L 439.179688 300.394531 L 438.644531 300.582031 L 438.167969 300.804688 L 437.808594 301.039062 L 437.570312 301.289062 L 437.453125 301.53125 L 437.453125 302.574219 L 437.570312 302.816406 L 437.871094 303.101562 L 438.644531 303.511719 L 439.773438 303.867188 L 441.082031 304.148438 L 442.332031 304.351562 L 443.046875 304.445312 L 443.996094 304.554688 L 445.484375 304.6875 L 447.628906 304.824219 L 448.875 304.878906 L 450.78125 304.929688 L 452.746094 304.957031 L 455.363281 304.957031 L 457.683594 304.929688 L 459.230469 304.898438 L 460.835938 304.84375 L 463.039062 304.730469 L 464.40625 304.621094 L 465.597656 304.492188 L 466.488281 304.367188 L 467.082031 304.257812 L 467.976562 304.050781 L 468.691406 303.820312 L 469.226562 303.585938 L 469.582031 303.355469 L 477.910156 303.355469 L 477.554688 303.625 L 477.019531 303.886719 L 476.484375 304.082031 L 475.652344 304.316406 L 474.699219 304.527344 L 473.332031 304.761719 L 472.199219 304.917969 L 470.710938 305.085938 L 469.34375 305.214844 L 467.855469 305.328125 L 465.65625 305.460938 L 464.226562 305.53125 L 462.679688 305.589844 L 460.835938 305.644531 L 458.515625 305.691406 L 456.015625 305.71875 L 453.695312 305.726562 L 451.195312 305.710938 L 449.351562 305.683594 L 446.914062 305.625 L 443.878906 305.503906 L 441.675781 305.375 L 439.953125 305.246094 L 438.464844 305.113281 L 436.796875 304.929688 L 434.65625 304.632812 L 433.347656 304.40625 L 432.457031 304.21875 L 431.445312 303.953125 L 430.730469 303.71875 L 429.898438 303.34375 L 429.300781 302.863281 L 429.125 302.492188 Z M 429.125 301.566406 "/>
<path style=" stroke:none;fill-rule:nonzero;fill:rgb(96.862745%,70.196078%,16.862745%);fill-opacity:1;" d="M 429.125 313.351562 L 429.183594 313.347656 L 429.183594 313.316406 L 429.421875 313.242188 L 430.015625 313.140625 L 430.789062 313.058594 L 431.621094 312.992188 L 432.15625 312.957031 L 433.050781 312.910156 L 433.824219 312.875 L 435.789062 312.800781 L 438.285156 312.730469 L 439.65625 312.703125 L 441.203125 312.675781 L 443.402344 312.644531 L 444.414062 312.632812 L 447.507812 312.605469 L 451.019531 312.589844 L 454.886719 312.585938 L 456.671875 312.585938 L 459.109375 312.59375 L 462.441406 312.609375 L 464.347656 312.628906 L 465.832031 312.644531 L 467.378906 312.664062 L 469.285156 312.695312 L 471.070312 312.738281 L 472.496094 312.777344 L 473.925781 312.824219 L 475.117188 312.875 L 476.125 312.933594 L 477.019531 313.003906 L 477.554688 313.058594 L 477.910156 313.117188 L 469.640625 313.117188 L 469.164062 313.058594 L 468.628906 313.015625 L 467.738281 312.960938 L 466.84375 312.921875 L 465.953125 312.890625 L 464.285156 312.847656 L 462.859375 312.824219 L 461.074219 312.800781 L 459.347656 312.785156 L 457.386719 312.777344 L 456.195312 312.773438 L 453.042969 312.773438 L 450.1875 312.785156 L 448.519531 312.796875 L 447.328125 312.808594 L 445.664062 312.835938 L 444.652344 312.855469 L 444.058594 312.867188 L 442.273438 312.917969 L 441.082031 312.964844 L 440.429688 312.992188 L 439.59375 313.042969 L 439 313.085938 L 438.34375 313.152344 L 437.988281 313.203125 L 437.511719 313.3125 L 437.453125 313.605469 L 437.632812 313.667969 L 437.988281 313.734375 L 438.464844 313.792969 L 439.179688 313.855469 L 439.890625 313.902344 L 441.140625 313.964844 L 442.214844 314.007812 L 443.046875 314.035156 L 444.652344 314.082031 L 445.308594 314.09375 L 446.855469 314.125 L 448.460938 314.148438 L 450.421875 314.167969 L 451.910156 314.175781 L 454.292969 314.183594 L 457.324219 314.183594 L 460.894531 314.175781 L 463.15625 314.160156 L 464.703125 314.148438 L 465.714844 314.136719 L 466.964844 314.121094 L 467.855469 314.101562 L 468.691406 314.085938 L 469.699219 314.058594 L 469.699219 313.667969 L 455.003906 313.667969 L 455.003906 313.484375 L 477.851562 313.480469 L 477.910156 314.121094 L 476.664062 314.164062 L 475.117188 314.207031 L 473.628906 314.238281 L 472.082031 314.265625 L 469.878906 314.296875 L 468.09375 314.316406 L 465.359375 314.339844 L 462.859375 314.355469 L 460.242188 314.363281 L 457.921875 314.367188 L 455.183594 314.371094 L 452.746094 314.367188 L 450.125 314.359375 L 448.042969 314.34375 L 446.140625 314.328125 L 444.234375 314.308594 L 441.855469 314.273438 L 440.308594 314.246094 L 438.703125 314.210938 L 437.097656 314.171875 L 435.667969 314.125 L 434.714844 314.089844 L 433.765625 314.050781 L 432.753906 314.003906 L 431.800781 313.949219 L 431.085938 313.898438 L 430.433594 313.839844 L 429.957031 313.785156 L 429.480469 313.714844 L 429.242188 313.65625 L 429.125 313.605469 Z M 429.125 313.351562 "/>
<path style=" stroke:none;fill-rule:nonzero;fill:rgb(83.921569%,15.686275%,22.352941%);fill-opacity:1;" d="M 429.125 67.148438 L 477.910156 67.148438 L 477.910156 91.769531 L 457.578125 91.988281 L 457.578125 297.179688 L 449.398438 297.179688 L 449.398438 92.203125 L 449.277344 91.769531 L 429.125 91.769531 Z M 429.125 67.148438 "/>
<path style=" stroke:none;fill-rule:nonzero;fill:rgb(6.27451%,58.823529%,28.235294%);fill-opacity:1;" d="M 480.480469 314.371094 L 480.53125 314.371094 L 501.640625 313.9375 L 508.054688 313.9375 L 529.269531 314.371094 L 521.8125 314.371094 L 516.496094 314.257812 L 493.199219 314.257812 L 487.984375 314.371094 L 480.480469 314.371094 L 495.4375 314.210938 L 514.359375 314.210938 L 504.925781 314.007812 L 504.820312 314.007812 L 504.71875 314.011719 L 495.386719 314.210938 L 495.4375 314.210938 Z M 480.480469 314.371094 "/>
<path style=" stroke:none;fill-rule:nonzero;fill:rgb(14.509804%,36.078431%,60%);fill-opacity:1;" d="M 480.480469 312.382812 L 480.539062 312.378906 L 480.539062 312.367188 L 480.71875 312.34375 L 481.132812 312.3125 L 481.550781 312.292969 L 482.621094 312.257812 L 484.109375 312.222656 L 485.65625 312.195312 L 486.785156 312.179688 L 487.796875 312.167969 L 490.117188 312.144531 L 491.605469 312.132812 L 493.210938 312.121094 L 495.175781 312.113281 L 496.605469 312.105469 L 499.816406 312.09375 L 502.195312 312.089844 L 508.027344 312.089844 L 510.40625 312.09375 L 512.132812 312.09375 L 514.035156 312.101562 L 515.644531 312.105469 L 518.441406 312.117188 L 520.9375 312.136719 L 522.070312 312.144531 L 523.855469 312.164062 L 525.222656 312.183594 L 526.175781 312.199219 L 527.246094 312.222656 L 528.195312 312.25 L 528.910156 312.28125 L 529.269531 312.308594 L 520.9375 312.308594 L 520.523438 312.28125 L 520.046875 312.261719 L 519.152344 312.238281 L 518.261719 312.21875 L 517.011719 312.203125 L 515.882812 312.191406 L 514.335938 312.179688 L 512.964844 312.171875 L 511.539062 312.167969 L 510.167969 312.164062 L 507.550781 312.160156 L 503.386719 312.160156 L 501.066406 312.164062 L 499.816406 312.167969 L 498.03125 312.179688 L 496.78125 312.1875 L 495.292969 312.199219 L 494.285156 312.207031 L 493.035156 312.226562 L 492.140625 312.238281 L 491.128906 312.257812 L 490.535156 312.273438 L 490 312.292969 L 489.523438 312.3125 L 489.167969 312.332031 L 488.929688 312.355469 L 488.808594 312.378906 L 488.808594 312.472656 L 488.929688 312.496094 L 489.226562 312.519531 L 490 312.558594 L 491.128906 312.589844 L 492.4375 312.617188 L 493.6875 312.632812 L 494.402344 312.644531 L 495.355469 312.652344 L 496.839844 312.664062 L 498.984375 312.675781 L 500.234375 312.683594 L 502.136719 312.6875 L 504.101562 312.691406 L 506.71875 312.691406 L 509.039062 312.6875 L 510.585938 312.683594 L 512.191406 312.679688 L 514.394531 312.667969 L 515.761719 312.660156 L 516.953125 312.648438 L 517.84375 312.636719 L 518.441406 312.625 L 519.332031 312.605469 L 520.046875 312.585938 L 520.582031 312.566406 L 520.9375 312.542969 L 529.269531 312.542969 L 528.910156 312.570312 L 528.375 312.59375 L 527.839844 312.609375 L 527.007812 312.632812 L 526.054688 312.652344 L 524.6875 312.671875 L 523.554688 312.6875 L 522.070312 312.703125 L 520.699219 312.714844 L 519.214844 312.722656 L 517.011719 312.734375 L 515.582031 312.742188 L 514.035156 312.746094 L 512.191406 312.753906 L 509.871094 312.757812 L 500.710938 312.757812 L 498.269531 312.75 L 495.234375 312.738281 L 493.035156 312.726562 L 491.308594 312.714844 L 489.820312 312.703125 L 488.15625 312.6875 L 486.011719 312.660156 L 484.703125 312.640625 L 483.8125 312.621094 L 482.800781 312.597656 L 482.085938 312.578125 L 481.253906 312.542969 L 480.65625 312.5 L 480.480469 312.464844 Z M 480.480469 312.382812 "/>
<path style=" stroke:none;fill-rule:nonzero;fill:rgb(96.862745%,70.196078%,16.862745%);fill-opacity:1;" d="M 480.480469 143.855469 L 480.539062 143.589844 L 480.539062 138.339844 L 480.777344 126.519531 L 481.371094 110.234375 L 482.144531 96.835938 L 482.980469 86.328125 L 483.515625 80.8125 L 484.40625 72.933594 L 485.179688 67.15625 L 487.144531 55.335938 L 489.640625 44.304688 L 491.011719 39.574219 L 492.558594 35.109375 L 494.757812 30.117188 L 495.769531 28.28125 L 498.863281 24.078125 L 502.375 21.449219 L 506.242188 20.664062 L 508.027344 20.925781 L 510.464844 21.976562 L 513.796875 24.867188 L 515.703125 27.492188 L 517.191406 30.117188 L 518.738281 33.535156 L 520.640625 38.785156 L 522.425781 45.089844 L 523.855469 51.394531 L 525.28125 59.273438 L 526.472656 67.679688 L 527.484375 76.875 L 528.375 87.90625 L 528.910156 97.097656 L 529.269531 106.292969 L 520.996094 106.292969 L 520.523438 97.097656 L 519.988281 90.007812 L 519.09375 81.339844 L 518.203125 75.035156 L 517.308594 70.042969 L 515.644531 63.214844 L 514.214844 59.011719 L 512.429688 55.335938 L 510.703125 52.972656 L 508.742188 51.394531 L 507.550781 50.871094 L 504.398438 50.871094 L 501.542969 52.707031 L 499.875 54.808594 L 498.6875 56.910156 L 497.019531 60.851562 L 496.007812 64.003906 L 495.414062 66.105469 L 493.628906 74.246094 L 492.4375 81.601562 L 491.785156 86.59375 L 490.953125 94.472656 L 490.355469 101.566406 L 489.703125 112.070312 L 489.34375 119.953125 L 488.867188 137.8125 L 488.808594 185.09375 L 488.988281 195.074219 L 489.34375 205.84375 L 489.820312 215.300781 L 490.535156 225.28125 L 491.25 232.898438 L 492.5 243.144531 L 493.570312 249.972656 L 494.402344 254.4375 L 496.007812 261.53125 L 496.664062 263.894531 L 498.210938 268.621094 L 499.816406 272.300781 L 501.78125 275.449219 L 503.265625 277.027344 L 505.648438 278.339844 L 508.683594 278.339844 L 512.25 276.765625 L 514.511719 274.664062 L 516.058594 272.5625 L 517.070312 270.722656 L 518.320312 267.832031 L 519.214844 265.207031 L 520.046875 262.316406 L 521.058594 257.851562 L 521.058594 195.074219 L 506.363281 194.8125 L 506.363281 165.394531 L 529.207031 165.128906 L 529.269531 267.832031 L 528.019531 274.925781 L 526.472656 281.753906 L 524.984375 287.007812 L 523.4375 291.472656 L 521.234375 296.464844 L 519.449219 299.617188 L 516.714844 303.292969 L 514.214844 305.65625 L 511.597656 307.234375 L 509.277344 308.023438 L 506.539062 308.285156 L 504.101562 307.757812 L 501.484375 306.183594 L 499.398438 304.082031 L 497.496094 301.453125 L 495.59375 298.039062 L 493.210938 292.523438 L 491.664062 288.058594 L 490.058594 282.542969 L 488.453125 275.976562 L 487.023438 268.882812 L 486.074219 263.367188 L 485.121094 257.0625 L 484.109375 249.183594 L 483.15625 240.253906 L 482.441406 232.109375 L 481.789062 222.917969 L 481.3125 214.25 L 480.835938 202.429688 L 480.597656 192.972656 L 480.480469 184.832031 Z M 480.480469 143.855469 "/>
<path style=" stroke:none;fill-rule:nonzero;fill:rgb(83.921569%,15.686275%,22.352941%);fill-opacity:1;" d="M 480.480469 309.464844 L 529.269531 309.464844 L 529.269531 309.617188 L 508.933594 309.621094 L 508.933594 310.910156 L 500.753906 310.910156 L 500.753906 309.621094 L 500.636719 309.617188 L 480.480469 309.617188 Z M 480.480469 309.464844 "/>
<path style=" stroke:none;fill-rule:nonzero;fill:rgb(6.27451%,58.823529%,28.235294%);fill-opacity:1;" d="M 531.835938 314.363281 L 531.886719 314.359375 L 553 307.820312 L 559.410156 307.820312 L 580.625 314.371094 L 573.171875 314.371094 L 567.855469 312.660156 L 544.554688 312.660156 L 539.34375 314.363281 L 531.835938 314.363281 L 546.796875 311.953125 L 565.71875 311.949219 L 556.28125 308.890625 L 556.179688 308.886719 L 556.074219 308.902344 L 546.742188 311.949219 L 546.796875 311.953125 Z M 531.835938 314.363281 "/>
<path style=" stroke:none;fill-rule:nonzero;fill:rgb(14.509804%,36.078431%,60%);fill-opacity:1;" d="M 531.835938 288.265625 L 531.894531 288.253906 L 531.894531 288 L 532.074219 287.597656 L 532.492188 287.089844 L 532.90625 286.742188 L 533.976562 286.117188 L 535.464844 285.511719 L 537.011719 285.046875 L 538.144531 284.773438 L 539.152344 284.5625 L 541.476562 284.167969 L 542.960938 283.96875 L 544.570312 283.789062 L 546.53125 283.609375 L 547.960938 283.503906 L 551.171875 283.332031 L 553.554688 283.257812 L 555.398438 283.226562 L 559.382812 283.226562 L 561.761719 283.269531 L 563.488281 283.324219 L 565.394531 283.40625 L 567 283.503906 L 569.796875 283.734375 L 572.292969 284.03125 L 573.425781 284.203125 L 575.210938 284.53125 L 576.578125 284.847656 L 577.53125 285.121094 L 578.601562 285.511719 L 579.554688 285.988281 L 580.265625 286.53125 L 580.625 286.984375 L 572.292969 286.984375 L 571.878906 286.5625 L 571.402344 286.234375 L 570.507812 285.800781 L 569.617188 285.492188 L 568.367188 285.1875 L 567.238281 284.984375 L 565.691406 284.785156 L 564.320312 284.65625 L 562.894531 284.5625 L 561.527344 284.496094 L 558.90625 284.433594 L 555.875 284.433594 L 554.742188 284.457031 L 552.421875 284.539062 L 551.171875 284.613281 L 549.386719 284.761719 L 548.136719 284.898438 L 546.652344 285.113281 L 545.640625 285.292969 L 544.390625 285.566406 L 543.496094 285.808594 L 542.484375 286.160156 L 541.890625 286.421875 L 541.355469 286.71875 L 540.878906 287.070312 L 540.523438 287.441406 L 540.285156 287.832031 L 540.164062 288.210938 L 540.164062 289.851562 L 540.285156 290.234375 L 540.582031 290.675781 L 541.355469 291.324219 L 542.484375 291.882812 L 543.796875 292.328125 L 545.042969 292.644531 L 545.757812 292.792969 L 546.710938 292.964844 L 548.199219 293.175781 L 550.339844 293.386719 L 551.589844 293.472656 L 553.492188 293.554688 L 555.457031 293.597656 L 558.074219 293.597656 L 560.394531 293.554688 L 561.941406 293.503906 L 563.546875 293.417969 L 565.75 293.238281 L 567.117188 293.070312 L 568.308594 292.867188 L 569.199219 292.667969 L 569.796875 292.496094 L 570.6875 292.167969 L 571.402344 291.808594 L 571.9375 291.4375 L 572.292969 291.078125 L 580.625 291.078125 L 580.265625 291.503906 L 579.730469 291.914062 L 579.195312 292.222656 L 578.363281 292.59375 L 577.410156 292.921875 L 576.042969 293.292969 L 574.914062 293.535156 L 573.425781 293.800781 L 572.058594 294 L 570.570312 294.179688 L 568.367188 294.390625 L 566.941406 294.496094 L 565.394531 294.59375 L 563.546875 294.675781 L 561.226562 294.75 L 558.730469 294.792969 L 556.410156 294.804688 L 553.910156 294.785156 L 552.066406 294.742188 L 549.625 294.644531 L 546.589844 294.457031 L 544.390625 294.253906 L 542.664062 294.054688 L 541.175781 293.839844 L 539.511719 293.554688 L 537.371094 293.089844 L 536.058594 292.730469 L 535.167969 292.433594 L 534.15625 292.019531 L 533.441406 291.652344 L 532.609375 291.058594 L 532.015625 290.308594 L 531.835938 289.726562 Z M 531.835938 288.265625 "/>
<path style=" stroke:none;fill-rule:nonzero;fill:rgb(96.862745%,70.196078%,16.862745%);fill-opacity:1;" d="M 531.835938 224.847656 L 531.894531 224.753906 L 531.894531 222.929688 L 532.132812 218.816406 L 532.726562 213.152344 L 533.5 208.492188 L 534.335938 204.835938 L 534.871094 202.917969 L 535.761719 200.175781 L 536.535156 198.164062 L 538.5 194.054688 L 541 190.214844 L 542.367188 188.570312 L 543.914062 187.015625 L 546.117188 185.28125 L 547.128906 184.640625 L 550.222656 183.179688 L 553.730469 182.265625 L 557.597656 181.992188 L 559.382812 182.082031 L 561.824219 182.449219 L 565.15625 183.453125 L 567.058594 184.367188 L 568.546875 185.28125 L 570.09375 186.46875 L 571.996094 188.296875 L 573.78125 190.488281 L 575.210938 192.683594 L 576.636719 195.421875 L 577.828125 198.347656 L 578.839844 201.546875 L 579.730469 205.382812 L 580.265625 208.582031 L 580.625 211.78125 L 572.355469 211.78125 L 571.878906 208.582031 L 571.34375 206.113281 L 570.449219 203.097656 L 569.558594 200.90625 L 568.664062 199.171875 L 567 196.792969 L 565.570312 195.332031 L 563.785156 194.054688 L 562.0625 193.230469 L 560.097656 192.683594 L 558.90625 192.5 L 555.753906 192.5 L 552.898438 193.140625 L 551.230469 193.871094 L 550.042969 194.601562 L 548.375 195.972656 L 547.363281 197.070312 L 546.769531 197.800781 L 544.984375 200.632812 L 543.796875 203.191406 L 543.140625 204.925781 L 542.308594 207.667969 L 541.710938 210.136719 L 541.058594 213.789062 L 540.703125 216.53125 L 540.226562 222.746094 L 540.164062 239.191406 L 540.34375 242.664062 L 540.703125 246.410156 L 541.175781 249.703125 L 541.890625 253.171875 L 542.605469 255.824219 L 543.855469 259.386719 L 544.925781 261.761719 L 545.757812 263.316406 L 547.363281 265.785156 L 548.019531 266.605469 L 549.566406 268.25 L 551.171875 269.53125 L 553.136719 270.625 L 554.625 271.175781 L 557.003906 271.632812 L 560.039062 271.632812 L 563.609375 271.082031 L 565.867188 270.351562 L 567.414062 269.621094 L 568.425781 268.980469 L 569.675781 267.976562 L 570.570312 267.0625 L 571.402344 266.058594 L 572.414062 264.503906 L 572.414062 242.664062 L 557.71875 242.574219 L 557.71875 232.339844 L 580.566406 232.25 L 580.625 267.976562 L 579.375 270.445312 L 577.828125 272.820312 L 576.339844 274.648438 L 574.792969 276.199219 L 572.59375 277.9375 L 570.808594 279.03125 L 568.070312 280.3125 L 565.570312 281.132812 L 562.953125 281.683594 L 560.632812 281.957031 L 557.894531 282.046875 L 555.457031 281.867188 L 552.839844 281.316406 L 550.757812 280.585938 L 548.851562 279.671875 L 546.949219 278.484375 L 544.570312 276.566406 L 543.023438 275.011719 L 541.414062 273.09375 L 539.808594 270.808594 L 538.378906 268.34375 L 537.429688 266.421875 L 536.476562 264.230469 L 535.464844 261.488281 L 534.511719 258.382812 L 533.800781 255.550781 L 533.144531 252.351562 L 532.667969 249.335938 L 532.191406 245.222656 L 531.953125 241.933594 L 531.835938 239.101562 Z M 531.835938 224.847656 "/>
<path style=" stroke:none;fill-rule:nonzero;fill:rgb(83.921569%,15.686275%,22.352941%);fill-opacity:1;" d="M 531.835938 295.984375 L 580.625 295.984375 L 580.625 297.125 L 560.289062 297.132812 L 560.289062 306.640625 L 552.109375 306.640625 L 552.109375 297.144531 L 551.992188 297.125 L 531.835938 297.125 Z M 531.835938 295.984375 "/>
<path style=" stroke:none;fill-rule:nonzero;fill:rgb(6.27451%,58.823529%,28.235294%);fill-opacity:1;" d="M 583.191406 314.371094 L 583.246094 314.371094 L 604.355469 314.074219 L 610.765625 314.074219 L 631.980469 314.371094 L 624.527344 314.371094 L 619.210938 314.292969 L 595.910156 314.292969 L 590.699219 314.371094 L 583.191406 314.371094 L 598.152344 314.261719 L 617.074219 314.261719 L 607.636719 314.121094 L 607.535156 314.121094 L 607.429688 314.125 L 598.101562 314.261719 L 598.152344 314.261719 Z M 583.191406 314.371094 "/>
<path style=" stroke:none;fill-rule:nonzero;fill:rgb(14.509804%,36.078431%,60%);fill-opacity:1;" d="M 583.191406 308.023438 L 583.25 308.023438 L 583.25 307.984375 L 583.429688 307.921875 L 583.847656 307.84375 L 584.261719 307.789062 L 585.335938 307.695312 L 586.820312 307.601562 L 588.367188 307.53125 L 589.5 307.488281 L 590.511719 307.457031 L 592.832031 307.398438 L 594.320312 307.367188 L 595.925781 307.339844 L 597.886719 307.3125 L 599.316406 307.296875 L 602.527344 307.269531 L 604.910156 307.257812 L 606.753906 307.253906 L 610.738281 307.253906 L 613.121094 307.261719 L 614.84375 307.269531 L 616.75 307.28125 L 618.355469 307.296875 L 621.152344 307.332031 L 623.652344 307.375 L 624.78125 307.402344 L 626.566406 307.453125 L 627.933594 307.5 L 628.886719 307.542969 L 629.957031 307.601562 L 630.910156 307.675781 L 631.625 307.757812 L 631.980469 307.828125 L 623.652344 307.828125 L 623.234375 307.761719 L 622.757812 307.714844 L 621.867188 307.648438 L 620.972656 307.601562 L 619.722656 307.554688 L 618.59375 307.523438 L 617.046875 307.492188 L 615.679688 307.472656 L 614.25 307.457031 L 612.882812 307.449219 L 610.265625 307.4375 L 607.230469 307.4375 L 606.097656 307.441406 L 603.777344 307.453125 L 602.527344 307.464844 L 600.746094 307.488281 L 599.496094 307.507812 L 598.007812 307.542969 L 596.996094 307.570312 L 595.746094 307.609375 L 594.855469 307.648438 L 593.84375 307.703125 L 593.246094 307.742188 L 592.710938 307.789062 L 592.234375 307.839844 L 591.878906 307.898438 L 591.640625 307.957031 L 591.523438 308.015625 L 591.523438 308.265625 L 591.640625 308.324219 L 591.9375 308.394531 L 592.710938 308.492188 L 593.84375 308.578125 L 595.152344 308.644531 L 596.402344 308.695312 L 597.113281 308.714844 L 598.066406 308.742188 L 599.554688 308.773438 L 601.695312 308.808594 L 602.945312 308.820312 L 604.847656 308.832031 L 606.8125 308.839844 L 609.429688 308.839844 L 611.75 308.832031 L 613.296875 308.824219 L 614.90625 308.8125 L 617.105469 308.785156 L 618.476562 308.757812 L 619.664062 308.726562 L 620.558594 308.695312 L 621.152344 308.671875 L 622.042969 308.621094 L 622.757812 308.566406 L 623.292969 308.507812 L 623.652344 308.453125 L 631.980469 308.453125 L 631.625 308.519531 L 631.089844 308.582031 L 630.554688 308.628906 L 629.71875 308.683594 L 628.769531 308.734375 L 627.398438 308.792969 L 626.269531 308.828125 L 624.78125 308.871094 L 623.414062 308.902344 L 621.925781 308.929688 L 619.722656 308.960938 L 618.296875 308.976562 L 616.75 308.992188 L 614.90625 309.003906 L 612.585938 309.015625 L 610.085938 309.023438 L 607.765625 309.023438 L 605.265625 309.019531 L 603.421875 309.015625 L 600.980469 309 L 597.949219 308.96875 L 595.746094 308.941406 L 594.019531 308.910156 L 592.535156 308.875 L 590.867188 308.832031 L 588.726562 308.761719 L 587.417969 308.707031 L 586.523438 308.660156 L 585.511719 308.597656 L 584.796875 308.542969 L 583.964844 308.449219 L 583.371094 308.335938 L 583.191406 308.246094 Z M 583.191406 308.023438 "/>
<path style=" stroke:none;fill-rule:nonzero;fill:rgb(96.862745%,70.196078%,16.862745%);fill-opacity:1;" d="M 583.191406 310.625 L 583.25 310.621094 L 583.25 310.605469 L 583.488281 310.5625 L 584.085938 310.507812 L 584.859375 310.464844 L 585.691406 310.425781 L 586.226562 310.410156 L 587.117188 310.382812 L 587.894531 310.363281 L 589.855469 310.320312 L 592.355469 310.285156 L 593.722656 310.269531 L 595.269531 310.253906 L 597.472656 310.234375 L 598.484375 310.230469 L 601.578125 310.214844 L 605.085938 310.207031 L 608.953125 310.203125 L 610.738281 310.203125 L 613.179688 310.207031 L 616.511719 310.21875 L 618.414062 310.226562 L 619.902344 310.234375 L 621.449219 310.246094 L 623.351562 310.265625 L 625.136719 310.285156 L 626.566406 310.308594 L 627.996094 310.335938 L 629.183594 310.363281 L 630.195312 310.394531 L 631.089844 310.433594 L 631.625 310.464844 L 631.980469 310.496094 L 623.710938 310.496094 L 623.234375 310.464844 L 622.699219 310.441406 L 621.804688 310.410156 L 620.023438 310.371094 L 618.355469 310.347656 L 616.925781 310.335938 L 615.144531 310.320312 L 613.417969 310.3125 L 611.453125 310.308594 L 610.265625 310.304688 L 607.109375 310.304688 L 604.253906 310.3125 L 602.589844 310.320312 L 601.398438 310.328125 L 599.734375 310.339844 L 598.722656 310.351562 L 598.125 310.359375 L 596.339844 310.386719 L 595.152344 310.410156 L 594.496094 310.429688 L 593.664062 310.453125 L 593.070312 310.480469 L 592.414062 310.515625 L 592.058594 310.542969 L 591.582031 310.601562 L 591.523438 310.765625 L 591.699219 310.796875 L 592.058594 310.835938 L 592.535156 310.867188 L 593.246094 310.902344 L 593.960938 310.925781 L 595.210938 310.960938 L 596.28125 310.984375 L 597.113281 311 L 598.722656 311.023438 L 599.375 311.03125 L 600.921875 311.050781 L 602.527344 311.0625 L 604.492188 311.074219 L 605.980469 311.078125 L 608.359375 311.082031 L 611.394531 311.082031 L 614.964844 311.078125 L 617.226562 311.070312 L 618.773438 311.0625 L 619.785156 311.054688 L 621.03125 311.046875 L 621.925781 311.039062 L 622.757812 311.027344 L 623.769531 311.011719 L 623.769531 310.796875 L 609.074219 310.796875 L 609.074219 310.695312 L 631.921875 310.695312 L 631.980469 311.046875 L 630.730469 311.070312 L 629.183594 311.09375 L 627.695312 311.113281 L 626.148438 311.128906 L 623.949219 311.144531 L 622.164062 311.15625 L 619.425781 311.167969 L 616.925781 311.175781 L 614.308594 311.179688 L 611.988281 311.183594 L 606.8125 311.183594 L 604.195312 311.175781 L 602.113281 311.171875 L 600.207031 311.160156 L 598.304688 311.148438 L 595.925781 311.128906 L 594.378906 311.117188 L 592.769531 311.097656 L 591.164062 311.074219 L 589.738281 311.050781 L 588.785156 311.03125 L 587.832031 311.007812 L 586.820312 310.984375 L 585.871094 310.953125 L 585.15625 310.925781 L 584.5 310.894531 L 584.023438 310.863281 L 583.550781 310.824219 L 583.3125 310.789062 L 583.191406 310.761719 Z M 583.191406 310.625 "/>
<path style=" stroke:none;fill-rule:nonzero;fill:rgb(83.921569%,15.686275%,22.352941%);fill-opacity:1;" d="M 583.191406 312.363281 L 631.980469 312.363281 L 631.980469 312.421875 L 611.648438 312.421875 L 611.648438 312.894531 L 603.464844 312.894531 L 603.464844 312.421875 L 583.191406 312.421875 Z M 583.191406 312.363281 "/>
<path style=" stroke:none;fill-rule:nonzero;fill:rgb(14.509804%,36.078431%,60%);fill-opacity:1;" d="M 634.546875 309.742188 L 634.609375 309.738281 L 634.609375 309.71875 L 634.785156 309.6875 L 635.203125 309.652344 L 635.621094 309.625 L 636.691406 309.574219 L 638.179688 309.53125 L 639.726562 309.492188 L 640.855469 309.472656 L 641.867188 309.457031 L 644.1875 309.425781 L 645.675781 309.410156 L 647.28125 309.398438 L 649.246094 309.382812 L 650.671875 309.375 L 653.886719 309.363281 L 656.265625 309.355469 L 662.097656 309.355469 L 664.476562 309.359375 L 666.203125 309.363281 L 668.105469 309.367188 L 669.710938 309.375 L 672.507812 309.394531 L 675.007812 309.414062 L 676.136719 309.429688 L 677.921875 309.453125 L 679.292969 309.476562 L 680.242188 309.5 L 681.3125 309.53125 L 682.265625 309.566406 L 682.980469 309.609375 L 683.335938 309.640625 L 675.007812 309.640625 L 674.589844 309.609375 L 674.113281 309.585938 L 673.222656 309.550781 L 672.328125 309.527344 L 671.082031 309.503906 L 669.949219 309.488281 L 668.402344 309.472656 L 667.035156 309.464844 L 665.605469 309.457031 L 664.238281 309.453125 L 661.621094 309.445312 L 658.585938 309.445312 L 657.457031 309.449219 L 655.136719 309.453125 L 653.886719 309.460938 L 652.101562 309.472656 L 650.851562 309.484375 L 649.363281 309.5 L 648.351562 309.511719 L 647.101562 309.535156 L 646.210938 309.550781 L 645.199219 309.578125 L 644.605469 309.597656 L 644.066406 309.621094 L 643.59375 309.648438 L 643.234375 309.675781 L 642.996094 309.707031 L 642.878906 309.738281 L 642.878906 309.863281 L 642.996094 309.890625 L 643.292969 309.925781 L 644.066406 309.976562 L 645.199219 310.019531 L 646.507812 310.050781 L 647.757812 310.078125 L 648.472656 310.085938 L 649.421875 310.101562 L 650.910156 310.117188 L 653.050781 310.132812 L 654.300781 310.140625 L 656.207031 310.144531 L 658.167969 310.148438 L 660.789062 310.148438 L 663.109375 310.144531 L 664.65625 310.140625 L 666.261719 310.136719 L 668.460938 310.121094 L 669.832031 310.109375 L 671.019531 310.09375 L 671.914062 310.078125 L 672.507812 310.066406 L 673.402344 310.039062 L 674.113281 310.011719 L 674.648438 309.984375 L 675.007812 309.957031 L 683.335938 309.957031 L 682.980469 309.988281 L 682.445312 310.019531 L 681.910156 310.042969 L 681.074219 310.074219 L 680.125 310.097656 L 678.753906 310.125 L 677.625 310.144531 L 676.136719 310.164062 L 674.769531 310.179688 L 673.28125 310.195312 L 671.082031 310.210938 L 669.652344 310.21875 L 668.105469 310.226562 L 666.261719 310.230469 L 663.941406 310.238281 L 661.441406 310.242188 L 656.621094 310.242188 L 654.777344 310.238281 L 652.339844 310.230469 L 649.304688 310.214844 L 647.101562 310.199219 L 645.378906 310.183594 L 643.890625 310.167969 L 642.222656 310.144531 L 640.082031 310.109375 L 638.773438 310.082031 L 637.878906 310.058594 L 636.867188 310.027344 L 636.15625 310 L 635.320312 309.953125 L 634.726562 309.898438 L 634.546875 309.851562 Z M 634.546875 309.742188 "/>
<path style=" stroke:none;fill-rule:nonzero;fill:rgb(96.862745%,70.196078%,16.862745%);fill-opacity:1;" d="M 634.546875 311.636719 L 634.609375 311.636719 L 634.609375 311.628906 L 634.847656 311.609375 L 635.441406 311.578125 L 636.214844 311.554688 L 637.046875 311.539062 L 637.582031 311.527344 L 638.476562 311.515625 L 639.25 311.503906 L 641.210938 311.484375 L 643.710938 311.464844 L 645.078125 311.453125 L 646.625 311.445312 L 648.828125 311.4375 L 649.839844 311.433594 L 652.933594 311.425781 L 656.445312 311.421875 L 662.097656 311.421875 L 664.535156 311.425781 L 667.867188 311.429688 L 669.769531 311.433594 L 671.257812 311.4375 L 672.804688 311.445312 L 674.710938 311.453125 L 676.496094 311.464844 L 677.921875 311.476562 L 679.351562 311.488281 L 680.539062 311.503906 L 681.550781 311.519531 L 682.445312 311.539062 L 682.980469 311.554688 L 683.335938 311.574219 L 675.066406 311.574219 L 674.589844 311.554688 L 674.054688 311.542969 L 673.164062 311.527344 L 672.269531 311.515625 L 671.378906 311.507812 L 669.710938 311.496094 L 668.285156 311.488281 L 666.5 311.484375 L 664.773438 311.480469 L 662.808594 311.476562 L 655.609375 311.476562 L 653.945312 311.480469 L 652.753906 311.484375 L 651.089844 311.492188 L 650.078125 311.496094 L 649.484375 311.5 L 647.699219 311.515625 L 646.507812 311.527344 L 645.851562 311.539062 L 645.019531 311.550781 L 644.425781 311.5625 L 643.769531 311.582031 L 643.414062 311.597656 L 642.9375 311.628906 L 642.878906 311.710938 L 643.058594 311.730469 L 643.414062 311.746094 L 643.890625 311.765625 L 644.605469 311.78125 L 645.316406 311.796875 L 646.566406 311.8125 L 647.636719 311.824219 L 648.472656 311.832031 L 650.078125 311.847656 L 650.730469 311.851562 L 652.277344 311.859375 L 653.886719 311.863281 L 655.847656 311.871094 L 657.335938 311.875 L 662.75 311.875 L 666.320312 311.871094 L 668.582031 311.867188 L 670.128906 311.867188 L 671.140625 311.863281 L 672.390625 311.855469 L 673.28125 311.851562 L 674.113281 311.847656 L 675.125 311.839844 L 675.125 311.730469 L 660.429688 311.726562 L 660.429688 311.675781 L 683.277344 311.675781 L 683.335938 311.855469 L 682.085938 311.871094 L 680.539062 311.882812 L 679.054688 311.890625 L 677.507812 311.898438 L 675.304688 311.90625 L 673.519531 311.914062 L 670.78125 311.917969 L 668.285156 311.921875 L 665.667969 311.925781 L 663.34375 311.929688 L 660.609375 311.929688 L 658.167969 311.925781 L 655.550781 311.925781 L 653.46875 311.921875 L 651.566406 311.917969 L 649.660156 311.910156 L 647.28125 311.902344 L 645.734375 311.894531 L 644.128906 311.882812 L 642.519531 311.871094 L 641.09375 311.859375 L 640.140625 311.847656 L 639.1875 311.839844 L 638.179688 311.824219 L 637.226562 311.808594 L 636.511719 311.792969 L 635.859375 311.777344 L 635.382812 311.761719 L 634.90625 311.742188 L 634.667969 311.726562 L 634.546875 311.710938 Z M 634.546875 311.636719 "/>
<path style=" stroke:none;fill-rule:nonzero;fill:rgb(83.921569%,15.686275%,22.352941%);fill-opacity:1;" d="M 634.546875 313.109375 L 683.335938 313.109375 L 683.335938 313.121094 L 663.003906 313.121094 L 663.003906 313.230469 L 654.824219 313.230469 L 654.824219 313.121094 L 634.546875 313.121094 Z M 634.546875 313.109375 "/>
<g style="fill:rgb(0%,0%,0%);fill-opacity:1;">
  <use xlink:href="#glyph0-1" x="21.957031" y="318.198242"/>
  <use xlink:href="#glyph0-2" x="27.291016" y="318.198242"/>
  <use xlink:href="#glyph0-1" x="29.958008" y="318.198242"/>
</g>
<g style="fill:rgb(0%,0%,0%);fill-opacity:1;">
  <use xlink:href="#glyph0-1" x="21.957031" y="237.31543"/>
  <use xlink:href="#glyph0-2" x="27.291016" y="237.31543"/>
  <use xlink:href="#glyph0-3" x="29.958008" y="237.31543"/>
</g>
<g style="fill:rgb(0%,0%,0%);fill-opacity:1;">
  <use xlink:href="#glyph0-4" x="21.957031" y="156.432617"/>
  <use xlink:href="#glyph0-2" x="27.291016" y="156.432617"/>
  <use xlink:href="#glyph0-1" x="29.958008" y="156.432617"/>
</g>
<g style="fill:rgb(0%,0%,0%);fill-opacity:1;">
  <use xlink:href="#glyph0-4" x="21.957031" y="75.549805"/>
  <use xlink:href="#glyph0-2" x="27.291016" y="75.549805"/>
  <use xlink:href="#glyph0-3" x="29.958008" y="75.549805"/>
</g>
<g style="fill:rgb(0%,0%,0%);fill-opacity:1;">
  <use xlink:href="#glyph0-4" x="91.023438" y="338.19043"/>
</g>
<g style="fill:rgb(0%,0%,0%);fill-opacity:1;">
  <use xlink:href="#glyph0-5" x="142.378906" y="338.19043"/>
</g>
<g style="fill:rgb(0%,0%,0%);fill-opacity:1;">
  <use xlink:href="#glyph0-6" x="193.734375" y="338.19043"/>
</g>
<g style="fill:rgb(0%,0%,0%);fill-opacity:1;">
  <use xlink:href="#glyph0-7" x="245.09375" y="338.19043"/>
</g>
<g style="fill:rgb(0%,0%,0%);fill-opacity:1;">
  <use xlink:href="#glyph0-3" x="296.449219" y="338.19043"/>
</g>
<g style="fill:rgb(0%,0%,0%);fill-opacity:1;">
  <use xlink:href="#glyph0-8" x="347.804688" y="338.19043"/>
</g>
<g style="fill:rgb(0%,0%,0%);fill-opacity:1;">
  <use xlink:href="#glyph0-9" x="399.160156" y="338.19043"/>
</g>
<g style="fill:rgb(0%,0%,0%);fill-opacity:1;">
  <use xlink:href="#glyph0-10" x="450.519531" y="338.19043"/>
</g>
<g style="fill:rgb(0%,0%,0%);fill-opacity:1;">
  <use xlink:href="#glyph0-11" x="501.875" y="338.19043"/>
</g>
<g style="fill:rgb(0%,0%,0%);fill-opacity:1;">
  <use xlink:href="#glyph0-4" x="550.730469" y="338.19043"/>
  <use xlink:href="#glyph0-1" x="556.064453" y="338.19043"/>
</g>
<g style="fill:rgb(0%,0%,0%);fill-opacity:1;">
  <use xlink:href="#glyph0-4" x="602.085938" y="338.19043"/>
  <use xlink:href="#glyph0-4" x="607.419922" y="338.19043"/>
</g>
<g style="fill:rgb(0%,0%,0%);fill-opacity:1;">
  <use xlink:href="#glyph0-4" x="653.441406" y="338.19043"/>
  <use xlink:href="#glyph0-5" x="658.775391" y="338.19043"/>
</g>
<g style="fill:rgb(0%,0%,0%);fill-opacity:1;">
  <use xlink:href="#glyph1-1" x="14.412109" y="178.015625"/>
  <use xlink:href="#glyph1-2" x="14.412109" y="170.011719"/>
  <use xlink:href="#glyph1-3" x="14.412109" y="167.347656"/>
  <use xlink:href="#glyph1-4" x="14.412109" y="164.011719"/>
</g>
</g>
</svg>
