<?xml version="1.0" encoding="UTF-8"?>
<svg xmlns="http://www.w3.org/2000/svg" xmlns:xlink="http://www.w3.org/1999/xlink" width="720pt" height="360pt" viewBox="0 0 720 360" version="1.1">
<defs>
<g>
<symbol overflow="visible" id="glyph0-0">
<path style="stroke:none;" d=""/>
</symbol>
<symbol overflow="visible" id="glyph0-1">
<path style="stroke:none;" d="M 2.640625 -6.796875 C 2 -6.796875 1.421875 -6.53125 1.078125 -6.046875 C 0.640625 -5.453125 0.40625 -4.546875 0.40625 -3.296875 C 0.40625 -1 1.1875 0.21875 2.640625 0.21875 C 4.078125 0.21875 4.859375 -1 4.859375 -3.234375 C 4.859375 -4.5625 4.65625 -5.4375 4.203125 -6.046875 C 3.84375 -6.53125 3.28125 -6.796875 2.640625 -6.796875 Z M 2.640625 -6.046875 C 3.546875 -6.046875 4 -5.125 4 -3.3125 C 4 -1.375 3.5625 -0.484375 2.625 -0.484375 C 1.734375 -0.484375 1.28125 -1.421875 1.28125 -3.28125 C 1.28125 -5.140625 1.734375 -6.046875 2.640625 -6.046875 Z M 2.640625 -6.046875 "/>
</symbol>
<symbol overflow="visible" id="glyph0-2">
<path style="stroke:none;" d="M 1.828125 -1 L 0.828125 -1 L 0.828125 0 L 1.828125 0 Z M 1.828125 -1 "/>
</symbol>
<symbol overflow="visible" id="glyph0-3">
<path style="stroke:none;" d="M 4.5625 -6.796875 L 1.0625 -6.796875 L 0.546875 -3.09375 L 1.328125 -3.09375 C 1.71875 -3.5625 2.046875 -3.734375 2.578125 -3.734375 C 3.484375 -3.734375 4.0625 -3.109375 4.0625 -2.09375 C 4.0625 -1.125 3.484375 -0.53125 2.578125 -0.53125 C 1.828125 -0.53125 1.375 -0.90625 1.1875 -1.671875 L 0.328125 -1.671875 C 0.453125 -1.109375 0.546875 -0.84375 0.75 -0.59375 C 1.125 -0.078125 1.828125 0.21875 2.59375 0.21875 C 3.96875 0.21875 4.921875 -0.78125 4.921875 -2.21875 C 4.921875 -3.5625 4.03125 -4.484375 2.71875 -4.484375 C 2.25 -4.484375 1.859375 -4.359375 1.46875 -4.0625 L 1.734375 -5.96875 L 4.5625 -5.96875 Z M 4.5625 -6.796875 "/>
</symbol>
<symbol overflow="visible" id="glyph0-4">
<path style="stroke:none;" d="M 2.484375 -4.84375 L 2.484375 0 L 3.328125 0 L 3.328125 -6.796875 L 2.765625 -6.796875 C 2.46875 -5.75 2.28125 -5.609375 0.984375 -5.453125 L 0.984375 -4.84375 Z M 2.484375 -4.84375 "/>
</symbol>
<symbol overflow="visible" id="glyph0-5">
<path style="stroke:none;" d="M 4.859375 -0.828125 L 1.28125 -0.828125 C 1.359375 -1.390625 1.671875 -1.75 2.5 -2.234375 L 3.46875 -2.75 C 4.40625 -3.265625 4.90625 -3.96875 4.90625 -4.8125 C 4.90625 -5.375 4.671875 -5.90625 4.265625 -6.265625 C 3.859375 -6.625 3.375 -6.796875 2.71875 -6.796875 C 1.859375 -6.796875 1.21875 -6.5 0.84375 -5.921875 C 0.609375 -5.5625 0.5 -5.125 0.484375 -4.4375 L 1.328125 -4.4375 C 1.359375 -4.90625 1.40625 -5.1875 1.53125 -5.40625 C 1.75 -5.8125 2.1875 -6.0625 2.703125 -6.0625 C 3.46875 -6.0625 4.03125 -5.515625 4.03125 -4.78125 C 4.03125 -4.25 3.71875 -3.796875 3.125 -3.4375 L 2.234375 -2.9375 C 0.8125 -2.140625 0.40625 -1.5 0.328125 0 L 4.859375 0 Z M 4.859375 -0.828125 "/>
</symbol>
<symbol overflow="visible" id="glyph0-6">
<path style="stroke:none;" d="M 2.125 -3.125 L 2.578125 -3.125 C 3.515625 -3.125 3.984375 -2.703125 3.984375 -1.890625 C 3.984375 -1.03125 3.46875 -0.53125 2.578125 -0.53125 C 1.65625 -0.53125 1.203125 -0.984375 1.15625 -1.96875 L 0.3125 -1.96875 C 0.34375 -1.421875 0.4375 -1.078125 0.609375 -0.765625 C 0.953125 -0.109375 1.625 0.21875 2.546875 0.21875 C 3.953125 0.21875 4.859375 -0.609375 4.859375 -1.90625 C 4.859375 -2.765625 4.515625 -3.25 3.703125 -3.515625 C 4.34375 -3.765625 4.65625 -4.25 4.65625 -4.9375 C 4.65625 -6.109375 3.875 -6.796875 2.578125 -6.796875 C 1.203125 -6.796875 0.484375 -6.046875 0.453125 -4.609375 L 1.296875 -4.609375 C 1.3125 -5.015625 1.34375 -5.25 1.453125 -5.453125 C 1.640625 -5.828125 2.0625 -6.0625 2.59375 -6.0625 C 3.34375 -6.0625 3.796875 -5.625 3.796875 -4.90625 C 3.796875 -4.421875 3.609375 -4.140625 3.25 -3.984375 C 3.015625 -3.890625 2.71875 -3.84375 2.125 -3.84375 Z M 2.125 -3.125 "/>
</symbol>
<symbol overflow="visible" id="glyph0-7">
<path style="stroke:none;" d="M 3.140625 -1.625 L 3.140625 0 L 3.984375 0 L 3.984375 -1.625 L 4.984375 -1.625 L 4.984375 -2.390625 L 3.984375 -2.390625 L 3.984375 -6.796875 L 3.359375 -6.796875 L 0.265625 -2.515625 L 0.265625 -1.625 Z M 3.140625 -2.390625 L 1 -2.390625 L 3.140625 -5.359375 Z M 3.140625 -2.390625 "/>
</symbol>
<symbol overflow="visible" id="glyph0-8">
<path style="stroke:none;" d="M 4.78125 -5.03125 C 4.609375 -6.140625 3.890625 -6.796875 2.84375 -6.796875 C 2.09375 -6.796875 1.421875 -6.4375 1.03125 -5.828125 C 0.609375 -5.171875 0.40625 -4.34375 0.40625 -3.09375 C 0.40625 -1.953125 0.578125 -1.234375 0.984375 -0.625 C 1.359375 -0.078125 1.953125 0.21875 2.703125 0.21875 C 3.984375 0.21875 4.921875 -0.734375 4.921875 -2.078125 C 4.921875 -3.34375 4.0625 -4.234375 2.84375 -4.234375 C 2.171875 -4.234375 1.640625 -3.96875 1.28125 -3.46875 C 1.28125 -5.125 1.828125 -6.046875 2.796875 -6.046875 C 3.390625 -6.046875 3.796875 -5.671875 3.9375 -5.03125 Z M 2.734375 -3.484375 C 3.546875 -3.484375 4.0625 -2.921875 4.0625 -2 C 4.0625 -1.15625 3.484375 -0.53125 2.703125 -0.53125 C 1.921875 -0.53125 1.328125 -1.1875 1.328125 -2.046875 C 1.328125 -2.890625 1.90625 -3.484375 2.734375 -3.484375 Z M 2.734375 -3.484375 "/>
</symbol>
<symbol overflow="visible" id="glyph0-9">
<path style="stroke:none;" d="M 4.984375 -6.796875 L 0.4375 -6.796875 L 0.4375 -5.96875 L 4.109375 -5.96875 C 2.5 -3.65625 1.828125 -2.234375 1.328125 0 L 2.21875 0 C 2.59375 -2.171875 3.453125 -4.046875 4.984375 -6.09375 Z M 4.984375 -6.796875 "/>
</symbol>
<symbol overflow="visible" id="glyph0-10">
<path style="stroke:none;" d="M 3.75 -3.578125 C 4.453125 -4 4.6875 -4.34375 4.6875 -4.984375 C 4.6875 -6.046875 3.84375 -6.796875 2.640625 -6.796875 C 1.4375 -6.796875 0.59375 -6.046875 0.59375 -4.984375 C 0.59375 -4.359375 0.828125 -4.015625 1.515625 -3.578125 C 0.734375 -3.203125 0.359375 -2.640625 0.359375 -1.890625 C 0.359375 -0.640625 1.296875 0.21875 2.640625 0.21875 C 3.984375 0.21875 4.921875 -0.640625 4.921875 -1.875 C 4.921875 -2.640625 4.53125 -3.203125 3.75 -3.578125 Z M 2.640625 -6.046875 C 3.359375 -6.046875 3.8125 -5.625 3.8125 -4.96875 C 3.8125 -4.34375 3.34375 -3.921875 2.640625 -3.921875 C 1.921875 -3.921875 1.453125 -4.34375 1.453125 -4.984375 C 1.453125 -5.625 1.921875 -6.046875 2.640625 -6.046875 Z M 2.640625 -3.203125 C 3.484375 -3.203125 4.0625 -2.671875 4.0625 -1.875 C 4.0625 -1.0625 3.484375 -0.53125 2.625 -0.53125 C 1.796875 -0.53125 1.21875 -1.078125 1.21875 -1.875 C 1.21875 -2.671875 1.796875 -3.203125 2.640625 -3.203125 Z M 2.640625 -3.203125 "/>
</symbol>
<symbol overflow="visible" id="glyph0-11">
<path style="stroke:none;" d="M 0.515625 -1.546875 C 0.671875 -0.4375 1.40625 0.21875 2.4375 0.21875 C 3.1875 0.21875 3.859375 -0.140625 4.265625 -0.75 C 4.6875 -1.40625 4.890625 -2.25 4.890625 -3.484375 C 4.890625 -4.625 4.703125 -5.359375 4.3125 -5.953125 C 3.9375 -6.5 3.34375 -6.796875 2.59375 -6.796875 C 1.296875 -6.796875 0.359375 -5.84375 0.359375 -4.515625 C 0.359375 -3.25 1.234375 -2.34375 2.453125 -2.34375 C 3.09375 -2.34375 3.5625 -2.578125 4.015625 -3.109375 C 4 -1.453125 3.46875 -0.53125 2.5 -0.53125 C 1.90625 -0.53125 1.484375 -0.90625 1.359375 -1.546875 Z M 2.578125 -6.0625 C 3.375 -6.0625 3.96875 -5.40625 3.96875 -4.53125 C 3.96875 -3.6875 3.375 -3.09375 2.546875 -3.09375 C 1.734375 -3.09375 1.234375 -3.671875 1.234375 -4.578125 C 1.234375 -5.4375 1.796875 -6.0625 2.578125 -6.0625 Z M 2.578125 -6.0625 "/>
</symbol>
<symbol overflow="visible" id="glyph1-0">
<path style="stroke:none;" d=""/>
</symbol>
<symbol overflow="visible" id="glyph1-1">
<path style="stroke:none;" d="M 0 -0.953125 L 0 -4.890625 C 0 -5.71875 -0.234375 -6.34375 -0.734375 -6.796875 C -1.1875 -7.234375 -1.8125 -7.46875 -2.5 -7.46875 C -3.546875 -7.46875 -4.1875 -7 -4.625 -5.875 C -4.984375 -6.671875 -5.640625 -7.09375 -6.53125 -7.09375 C -7.15625 -7.09375 -7.734375 -6.859375 -8.140625 -6.390625 C -8.5625 -5.9375 -8.75 -5.34375 -8.75 -4.5 L -8.75 -0.953125 Z M -4.984375 -2.0625 L -7.765625 -2.0625 L -7.765625 -4.21875 C -7.765625 -4.84375 -7.6875 -5.203125 -7.453125 -5.5 C -7.21875 -5.8125 -6.859375 -5.96875 -6.375 -5.96875 C -5.90625 -5.96875 -5.53125 -5.8125 -5.296875 -5.5 C -5.0625 -5.203125 -4.984375 -4.84375 -4.984375 -4.21875 Z M -0.984375 -2.0625 L -4 -2.0625 L -4 -4.78125 C -4 -5.328125 -3.859375 -5.6875 -3.578125 -5.953125 C -3.296875 -6.21875 -2.921875 -6.359375 -2.484375 -6.359375 C -2.0625 -6.359375 -1.6875 -6.21875 -1.40625 -5.953125 C -1.109375 -5.6875 -0.984375 -5.328125 -0.984375 -4.78125 Z M -0.984375 -2.0625 "/>
</symbol>
<symbol overflow="visible" id="glyph1-2">
<path style="stroke:none;" d="M -6.28125 -1.796875 L -6.28125 -0.796875 L 0 -0.796875 L 0 -1.796875 Z M -8.75 -1.796875 L -8.75 -0.796875 L -7.484375 -0.796875 L -7.484375 -1.796875 Z M -8.75 -1.796875 "/>
</symbol>
<symbol overflow="visible" id="glyph1-3">
<path style="stroke:none;" d="M -6.28125 -3.046875 L -6.28125 -2.015625 L -8.015625 -2.015625 L -8.015625 -1.015625 L -6.28125 -1.015625 L -6.28125 -0.171875 L -5.46875 -0.171875 L -5.46875 -1.015625 L -0.71875 -1.015625 C -0.078125 -1.015625 0.28125 -1.453125 0.28125 -2.234375 C 0.28125 -2.46875 0.25 -2.71875 0.1875 -3.046875 L -0.640625 -3.046875 C -0.609375 -2.921875 -0.59375 -2.765625 -0.59375 -2.5625 C -0.59375 -2.140625 -0.71875 -2.015625 -1.15625 -2.015625 L -5.46875 -2.015625 L -5.46875 -3.046875 Z M -6.28125 -3.046875 "/>
</symbol>
<symbol overflow="visible" id="glyph1-4">
<path style="stroke:none;" d="M -4.53125 -5.25 C -5.765625 -5.25 -6.46875 -4.421875 -6.46875 -2.96875 C -6.46875 -1.515625 -5.71875 -0.5625 -4.546875 -0.5625 C -3.5625 -0.5625 -3.09375 -1.0625 -2.734375 -2.5625 L -2.515625 -3.484375 C -2.34375 -4.1875 -2.09375 -4.46875 -1.625 -4.46875 C -1.046875 -4.46875 -0.640625 -3.875 -0.640625 -3 C -0.640625 -2.453125 -0.796875 -2 -1.0625 -1.75 C -1.25 -1.59375 -1.421875 -1.53125 -1.875 -1.46875 L -1.875 -0.40625 C -0.421875 -0.453125 0.28125 -1.265625 0.28125 -2.921875 C 0.28125 -4.5 -0.5 -5.515625 -1.71875 -5.515625 C -2.65625 -5.515625 -3.171875 -4.984375 -3.46875 -3.734375 L -3.703125 -2.765625 C -3.890625 -1.953125 -4.15625 -1.609375 -4.59375 -1.609375 C -5.171875 -1.609375 -5.546875 -2.125 -5.546875 -2.9375 C -5.546875 -3.75 -5.203125 -4.171875 -4.53125 -4.203125 Z M -4.53125 -5.25 "/>
</symbol>
</g>
</defs>
<g id="surface5803">
<rect x="0" y="0" width="720" height="360" style="fill:rgb(100%,100%,100%);fill-opacity:1;stroke:none;"/>
<path style=" stroke:none;fill-rule:nonzero;fill:rgb(96.862745%,70.196078%,16.862745%);fill-opacity:1;" d="M 69.628906 201.09375 L 69.675781 201 L 69.675781 199.078125 L 69.867188 194.757812 L 70.34375 188.804688 L 70.960938 183.90625 L 71.625 180.066406 L 72.054688 178.050781 L 72.769531 175.167969 L 73.386719 173.054688 L 74.957031 168.734375 L 76.953125 164.703125 L 78.046875 162.972656 L 79.285156 161.339844 L 81.042969 159.515625 L 81.851562 158.84375 L 84.324219 157.308594 L 87.132812 156.347656 L 90.222656 156.058594 L 91.648438 156.15625 L 93.597656 156.539062 L 96.261719 157.597656 L 97.785156 158.554688 L 98.972656 159.515625 L 100.210938 160.765625 L 101.730469 162.6875 L 103.160156 164.988281 L 104.300781 167.292969 L 105.441406 170.175781 L 106.390625 173.25 L 107.199219 176.609375 L 107.914062 180.640625 L 108.34375 184.003906 L 108.628906 187.363281 L 102.015625 187.363281 L 101.636719 184.003906 L 101.207031 181.410156 L 100.496094 178.242188 L 99.78125 175.9375 L 99.066406 174.113281 L 97.738281 171.617188 L 96.59375 170.078125 L 95.167969 168.734375 L 93.789062 167.871094 L 92.21875 167.292969 L 91.269531 167.101562 L 88.746094 167.101562 L 86.464844 167.773438 L 85.132812 168.542969 L 84.183594 169.3125 L 82.851562 170.75 L 82.042969 171.902344 L 81.566406 172.671875 L 80.140625 175.648438 L 79.1875 178.335938 L 78.664062 180.160156 L 78 183.042969 L 77.523438 185.636719 L 77 189.476562 L 76.714844 192.355469 L 76.335938 198.886719 L 76.289062 216.171875 L 76.429688 219.820312 L 76.714844 223.757812 L 77.097656 227.214844 L 77.667969 230.863281 L 78.238281 233.648438 L 79.234375 237.394531 L 80.09375 239.890625 L 80.757812 241.523438 L 82.042969 244.113281 L 82.566406 244.980469 L 83.800781 246.707031 L 85.085938 248.050781 L 86.65625 249.203125 L 87.84375 249.78125 L 89.746094 250.261719 L 92.171875 250.261719 L 95.027344 249.683594 L 96.832031 248.914062 L 98.070312 248.148438 L 98.878906 247.476562 L 99.875 246.417969 L 100.589844 245.460938 L 101.257812 244.402344 L 102.0625 242.769531 L 102.0625 219.820312 L 90.316406 219.722656 L 90.316406 208.96875 L 108.578125 208.875 L 108.628906 246.417969 L 107.628906 249.011719 L 106.390625 251.507812 L 105.203125 253.429688 L 103.964844 255.0625 L 102.207031 256.886719 L 100.78125 258.039062 L 98.59375 259.382812 L 96.59375 260.246094 L 94.503906 260.824219 L 92.648438 261.109375 L 90.460938 261.207031 L 88.511719 261.015625 L 86.417969 260.4375 L 84.753906 259.671875 L 83.230469 258.710938 L 81.710938 257.460938 L 79.808594 255.445312 L 78.570312 253.8125 L 77.285156 251.796875 L 76.003906 249.394531 L 74.859375 246.804688 L 74.101562 244.785156 L 73.339844 242.480469 L 72.53125 239.601562 L 71.769531 236.335938 L 71.199219 233.359375 L 70.675781 230 L 70.296875 226.832031 L 69.914062 222.507812 L 69.722656 219.050781 L 69.628906 216.074219 Z M 69.628906 201.09375 "/>
<path style=" stroke:none;fill-rule:nonzero;fill:rgb(83.921569%,15.686275%,22.352941%);fill-opacity:1;" d="M 69.628906 262.386719 L 108.628906 262.386719 L 108.628906 267.953125 L 92.375 268 L 92.375 314.371094 L 85.835938 314.371094 L 85.835938 268.050781 L 85.742188 267.953125 L 69.628906 267.953125 Z M 69.628906 262.386719 "/>
<path style=" stroke:none;fill-rule:nonzero;fill:rgb(6.27451%,58.823529%,28.235294%);fill-opacity:1;" d="M 110.679688 296.953125 L 110.722656 296.9375 L 127.597656 278.574219 L 132.71875 278.574219 L 149.679688 296.96875 L 143.71875 296.96875 L 139.46875 292.167969 L 120.847656 292.167969 L 116.679688 296.953125 L 110.679688 296.953125 L 122.636719 290.183594 L 137.761719 290.164062 L 130.222656 281.582031 L 130.136719 281.5625 L 130.054688 281.613281 L 122.597656 290.164062 L 122.636719 290.183594 Z M 110.679688 296.953125 "/>
<path style=" stroke:none;fill-rule:nonzero;fill:rgb(14.509804%,36.078431%,60%);fill-opacity:1;" d="M 110.679688 258.402344 L 110.726562 258.371094 L 110.726562 257.636719 L 110.871094 256.46875 L 111.203125 254.992188 L 111.535156 253.976562 L 112.390625 252.164062 L 113.582031 250.414062 L 114.816406 249.0625 L 115.722656 248.261719 L 116.53125 247.648438 L 118.382812 246.511719 L 119.574219 245.925781 L 120.859375 245.402344 L 122.425781 244.882812 L 123.570312 244.574219 L 126.136719 244.082031 L 128.039062 243.867188 L 129.511719 243.773438 L 132.699219 243.773438 L 134.601562 243.898438 L 135.980469 244.050781 L 137.503906 244.296875 L 138.789062 244.574219 L 141.023438 245.25 L 143.019531 246.109375 L 143.921875 246.601562 L 145.351562 247.554688 L 146.445312 248.476562 L 147.207031 249.277344 L 148.0625 250.414062 L 148.820312 251.796875 L 149.394531 253.363281 L 149.679688 254.683594 L 143.019531 254.683594 L 142.6875 253.457031 L 142.304688 252.503906 L 141.59375 251.242188 L 140.878906 250.351562 L 139.882812 249.460938 L 138.976562 248.875 L 137.742188 248.292969 L 136.648438 247.921875 L 135.503906 247.648438 L 134.410156 247.460938 L 132.320312 247.277344 L 129.894531 247.277344 L 128.988281 247.339844 L 127.136719 247.585938 L 126.136719 247.800781 L 124.710938 248.230469 L 123.710938 248.628906 L 122.523438 249.246094 L 121.714844 249.769531 L 120.714844 250.566406 L 120 251.273438 L 119.191406 252.289062 L 118.71875 253.054688 L 118.289062 253.917969 L 117.910156 254.929688 L 117.625 256.007812 L 117.433594 257.144531 L 117.339844 258.25 L 117.339844 263.011719 L 117.433594 264.121094 L 117.671875 265.410156 L 118.289062 267.285156 L 119.191406 268.914062 L 120.238281 270.203125 L 121.238281 271.125 L 121.808594 271.554688 L 122.570312 272.046875 L 123.757812 272.664062 L 125.472656 273.277344 L 126.46875 273.523438 L 127.992188 273.769531 L 129.5625 273.890625 L 131.652344 273.890625 L 133.507812 273.769531 L 134.746094 273.617188 L 136.027344 273.371094 L 137.789062 272.847656 L 138.882812 272.355469 L 139.832031 271.773438 L 140.546875 271.1875 L 141.023438 270.695312 L 141.734375 269.742188 L 142.304688 268.699219 L 142.734375 267.621094 L 143.019531 266.578125 L 149.679688 266.578125 L 149.394531 267.808594 L 148.964844 269.003906 L 148.535156 269.898438 L 147.871094 270.972656 L 147.109375 271.925781 L 146.015625 273 L 145.113281 273.707031 L 143.921875 274.476562 L 142.828125 275.058594 L 141.640625 275.582031 L 139.882812 276.195312 L 138.738281 276.503906 L 137.503906 276.78125 L 136.027344 277.027344 L 134.175781 277.242188 L 132.175781 277.363281 L 130.320312 277.394531 L 128.324219 277.335938 L 126.851562 277.210938 L 124.898438 276.933594 L 122.472656 276.382812 L 120.714844 275.796875 L 119.335938 275.214844 L 118.148438 274.597656 L 116.816406 273.769531 L 115.101562 272.417969 L 114.058594 271.371094 L 113.34375 270.511719 L 112.535156 269.3125 L 111.964844 268.238281 L 111.296875 266.515625 L 110.824219 264.335938 L 110.679688 262.644531 Z M 110.679688 258.402344 "/>
<path style=" stroke:none;fill-rule:nonzero;fill:rgb(96.862745%,70.196078%,16.862745%);fill-opacity:1;" d="M 110.679688 305.097656 L 110.726562 305.082031 L 110.726562 304.785156 L 110.917969 304.121094 L 111.394531 303.203125 L 112.011719 302.445312 L 112.675781 301.851562 L 113.105469 301.542969 L 113.820312 301.097656 L 114.4375 300.773438 L 116.007812 300.105469 L 118.003906 299.484375 L 119.097656 299.214844 L 120.335938 298.964844 L 122.09375 298.683594 L 122.902344 298.578125 L 125.375 298.34375 L 128.179688 298.195312 L 131.273438 298.148438 L 132.699219 298.164062 L 134.648438 298.222656 L 137.3125 298.386719 L 138.835938 298.535156 L 140.023438 298.683594 L 141.261719 298.875 L 142.78125 299.171875 L 144.207031 299.527344 L 145.351562 299.882812 L 146.492188 300.328125 L 147.441406 300.800781 L 148.25 301.320312 L 148.964844 301.941406 L 149.394531 302.460938 L 149.679688 302.980469 L 143.066406 302.980469 L 142.6875 302.460938 L 142.257812 302.0625 L 141.546875 301.570312 L 140.832031 301.214844 L 140.117188 300.933594 L 138.789062 300.550781 L 137.644531 300.3125 L 136.21875 300.105469 L 134.839844 299.972656 L 133.269531 299.882812 L 132.320312 299.855469 L 129.796875 299.855469 L 127.515625 299.957031 L 126.183594 300.074219 L 125.234375 300.195312 L 123.902344 300.417969 L 123.09375 300.59375 L 122.617188 300.710938 L 121.191406 301.171875 L 120.238281 301.585938 L 119.714844 301.867188 L 119.050781 302.3125 L 118.574219 302.710938 L 118.050781 303.304688 L 117.765625 303.75 L 117.386719 304.757812 L 117.339844 307.421875 L 117.480469 307.984375 L 117.765625 308.59375 L 118.148438 309.125 L 118.71875 309.691406 L 119.289062 310.121094 L 120.285156 310.695312 L 121.144531 311.082031 L 121.808594 311.332031 L 123.09375 311.734375 L 123.617188 311.867188 L 124.851562 312.132812 L 126.136719 312.339844 L 127.707031 312.519531 L 128.894531 312.609375 L 130.796875 312.683594 L 133.222656 312.683594 L 136.078125 312.59375 L 137.882812 312.472656 L 139.121094 312.355469 L 139.929688 312.253906 L 140.925781 312.089844 L 141.640625 311.941406 L 142.304688 311.777344 L 143.113281 311.527344 L 143.113281 307.984375 L 131.367188 307.972656 L 131.367188 306.3125 L 149.628906 306.296875 L 149.679688 312.089844 L 148.679688 312.488281 L 147.441406 312.875 L 146.253906 313.171875 L 145.015625 313.421875 L 143.257812 313.703125 L 141.832031 313.882812 L 139.644531 314.089844 L 137.644531 314.222656 L 135.554688 314.3125 L 133.699219 314.355469 L 131.511719 314.371094 L 129.5625 314.339844 L 127.46875 314.253906 L 125.804688 314.132812 L 124.28125 313.984375 L 122.761719 313.792969 L 120.859375 313.480469 L 119.621094 313.230469 L 118.335938 312.917969 L 117.054688 312.546875 L 115.910156 312.148438 L 115.152344 311.835938 L 114.390625 311.480469 L 113.582031 311.039062 L 112.820312 310.535156 L 112.25 310.074219 L 111.726562 309.554688 L 111.347656 309.066406 L 110.964844 308.402344 L 110.773438 307.867188 L 110.679688 307.410156 Z M 110.679688 305.097656 "/>
<path style=" stroke:none;fill-rule:nonzero;fill:rgb(6.27451%,58.823529%,28.235294%);fill-opacity:1;" d="M 151.730469 242.765625 L 151.773438 242.695312 L 168.648438 168.007812 L 173.769531 168.007812 L 190.730469 242.835938 L 184.769531 242.835938 L 180.519531 223.304688 L 161.898438 223.304688 L 157.730469 242.765625 L 151.730469 242.765625 L 163.6875 215.222656 L 178.8125 215.152344 L 171.269531 180.234375 L 171.1875 180.164062 L 171.105469 180.375 L 163.648438 215.152344 L 163.6875 215.222656 Z M 151.730469 242.765625 "/>
<path style=" stroke:none;fill-rule:nonzero;fill:rgb(14.509804%,36.078431%,60%);fill-opacity:1;" d="M 151.730469 274.625 L 151.777344 274.5625 L 151.777344 273.019531 L 151.921875 270.574219 L 152.253906 267.488281 L 152.585938 265.367188 L 153.441406 261.570312 L 154.632812 257.90625 L 155.867188 255.078125 L 156.773438 253.40625 L 157.582031 252.117188 L 159.433594 249.738281 L 160.625 248.515625 L 161.910156 247.421875 L 163.476562 246.332031 L 164.617188 245.6875 L 167.1875 244.65625 L 169.089844 244.207031 L 170.5625 244.015625 L 173.75 244.015625 L 175.652344 244.273438 L 177.03125 244.59375 L 178.554688 245.109375 L 179.839844 245.6875 L 182.074219 247.101562 L 184.070312 248.902344 L 184.972656 249.929688 L 186.402344 251.925781 L 187.496094 253.855469 L 188.253906 255.527344 L 189.113281 257.90625 L 189.871094 260.800781 L 190.445312 264.078125 L 190.730469 266.84375 L 184.070312 266.84375 L 183.738281 264.273438 L 183.355469 262.277344 L 182.644531 259.640625 L 181.929688 257.777344 L 180.933594 255.914062 L 180.027344 254.691406 L 178.792969 253.46875 L 177.699219 252.695312 L 176.554688 252.117188 L 175.460938 251.730469 L 173.371094 251.347656 L 170.945312 251.347656 L 170.039062 251.476562 L 168.1875 251.988281 L 167.1875 252.441406 L 165.761719 253.339844 L 164.761719 254.175781 L 163.574219 255.460938 L 162.765625 256.554688 L 161.765625 258.226562 L 161.050781 259.707031 L 160.242188 261.828125 L 159.769531 263.4375 L 159.339844 265.238281 L 158.960938 267.359375 L 158.675781 269.609375 L 158.484375 271.988281 L 158.390625 274.304688 L 158.390625 284.273438 L 158.484375 286.589844 L 158.722656 289.289062 L 159.339844 293.210938 L 160.242188 296.621094 L 161.289062 299.320312 L 162.289062 301.25 L 162.859375 302.152344 L 163.621094 303.179688 L 164.808594 304.46875 L 166.519531 305.753906 L 167.519531 306.265625 L 169.042969 306.78125 L 170.613281 307.039062 L 172.703125 307.039062 L 174.558594 306.78125 L 175.796875 306.460938 L 177.078125 305.945312 L 178.839844 304.851562 L 179.933594 303.824219 L 180.882812 302.601562 L 181.597656 301.378906 L 182.074219 300.351562 L 182.785156 298.355469 L 183.355469 296.171875 L 183.785156 293.921875 L 184.070312 291.734375 L 190.730469 291.734375 L 190.445312 294.304688 L 190.015625 296.8125 L 189.585938 298.679688 L 188.921875 300.929688 L 188.160156 302.921875 L 187.066406 305.175781 L 186.164062 306.652344 L 184.972656 308.261719 L 183.878906 309.484375 L 182.691406 310.578125 L 180.933594 311.863281 L 179.789062 312.503906 L 178.554688 313.085938 L 177.078125 313.597656 L 175.226562 314.050781 L 173.226562 314.304688 L 171.371094 314.371094 L 169.375 314.242188 L 167.902344 313.984375 L 165.949219 313.40625 L 163.523438 312.25 L 161.765625 311.027344 L 160.386719 309.804688 L 159.199219 308.519531 L 157.867188 306.78125 L 156.152344 303.953125 L 155.105469 301.765625 L 154.394531 299.964844 L 153.585938 297.457031 L 153.015625 295.207031 L 152.347656 291.605469 L 151.875 287.039062 L 151.730469 283.5 Z M 151.730469 274.625 "/>
<path style=" stroke:none;fill-rule:nonzero;fill:rgb(6.27451%,58.823529%,28.235294%);fill-opacity:1;" d="M 192.78125 314.304688 L 192.824219 314.238281 L 209.695312 244.015625 L 214.820312 244.015625 L 231.78125 314.371094 L 225.820312 314.371094 L 221.570312 296.003906 L 202.949219 296.003906 L 198.78125 314.304688 L 192.78125 314.304688 L 204.738281 288.410156 L 219.863281 288.34375 L 212.320312 255.507812 L 212.238281 255.445312 L 212.15625 255.640625 L 204.699219 288.34375 L 204.738281 288.410156 Z M 192.78125 314.304688 "/>
<path style=" stroke:none;fill-rule:nonzero;fill:rgb(14.509804%,36.078431%,60%);fill-opacity:1;" d="M 192.78125 200.566406 L 192.828125 200.496094 L 192.828125 198.855469 L 192.972656 196.257812 L 193.304688 192.972656 L 193.636719 190.714844 L 194.492188 186.679688 L 195.683594 182.78125 L 196.917969 179.773438 L 197.824219 177.996094 L 198.632812 176.628906 L 200.484375 174.097656 L 201.675781 172.796875 L 202.957031 171.632812 L 204.527344 170.472656 L 205.667969 169.789062 L 208.238281 168.691406 L 210.140625 168.214844 L 211.613281 168.007812 L 214.800781 168.007812 L 216.703125 168.28125 L 218.082031 168.625 L 219.605469 169.171875 L 220.886719 169.789062 L 223.125 171.292969 L 225.121094 173.207031 L 226.023438 174.300781 L 227.453125 176.421875 L 228.546875 178.472656 L 229.304688 180.253906 L 230.164062 182.78125 L 230.921875 185.859375 L 231.496094 189.347656 L 231.78125 192.289062 L 225.121094 192.289062 L 224.789062 189.554688 L 224.40625 187.433594 L 223.695312 184.628906 L 222.980469 182.644531 L 221.984375 180.664062 L 221.078125 179.363281 L 219.84375 178.0625 L 218.75 177.242188 L 217.605469 176.628906 L 216.511719 176.214844 L 214.421875 175.804688 L 211.996094 175.804688 L 211.089844 175.941406 L 209.238281 176.488281 L 208.238281 176.96875 L 206.8125 177.925781 L 205.8125 178.816406 L 204.625 180.183594 L 203.816406 181.347656 L 202.816406 183.125 L 202.101562 184.699219 L 201.292969 186.953125 L 200.820312 188.664062 L 200.390625 190.578125 L 200.011719 192.835938 L 199.726562 195.230469 L 199.535156 197.761719 L 199.441406 200.222656 L 199.441406 210.824219 L 199.535156 213.289062 L 199.773438 216.160156 L 200.390625 220.332031 L 201.292969 223.957031 L 202.339844 226.832031 L 203.339844 228.882812 L 203.910156 229.839844 L 204.671875 230.933594 L 205.859375 232.300781 L 207.570312 233.671875 L 208.570312 234.21875 L 210.09375 234.765625 L 211.664062 235.039062 L 213.753906 235.039062 L 215.609375 234.765625 L 216.847656 234.421875 L 218.128906 233.875 L 219.890625 232.710938 L 220.984375 231.617188 L 221.933594 230.320312 L 222.648438 229.019531 L 223.125 227.925781 L 223.835938 225.804688 L 224.40625 223.480469 L 224.835938 221.085938 L 225.121094 218.757812 L 231.78125 218.757812 L 231.496094 221.496094 L 231.066406 224.164062 L 230.636719 226.148438 L 229.972656 228.539062 L 229.210938 230.660156 L 228.117188 233.054688 L 227.214844 234.628906 L 226.023438 236.335938 L 224.929688 237.636719 L 223.742188 238.800781 L 221.984375 240.167969 L 220.839844 240.851562 L 219.605469 241.46875 L 218.128906 242.015625 L 216.277344 242.492188 L 214.277344 242.765625 L 212.421875 242.835938 L 210.425781 242.699219 L 208.953125 242.425781 L 207 241.808594 L 204.574219 240.578125 L 202.816406 239.277344 L 201.4375 237.980469 L 200.25 236.613281 L 198.917969 234.765625 L 197.203125 231.753906 L 196.15625 229.429688 L 195.445312 227.515625 L 194.636719 224.847656 L 194.066406 222.453125 L 193.398438 218.621094 L 192.925781 213.765625 L 192.78125 210.003906 Z M 192.78125 200.566406 "/>
<path style=" stroke:none;fill-rule:nonzero;fill:rgb(14.509804%,36.078431%,60%);fill-opacity:1;" d="M 233.832031 148.457031 L 233.878906 148.1875 L 233.878906 141.742188 L 234.023438 131.542969 L 234.355469 118.65625 L 234.6875 109.796875 L 235.542969 93.957031 L 236.734375 78.652344 L 237.96875 66.839844 L 238.875 59.859375 L 239.683594 54.492188 L 241.535156 44.558594 L 242.726562 39.457031 L 244.007812 34.890625 L 245.578125 30.328125 L 246.71875 27.644531 L 249.289062 23.347656 L 251.191406 21.46875 L 252.664062 20.664062 L 255.851562 20.664062 L 257.753906 21.738281 L 259.132812 23.078125 L 260.65625 25.226562 L 261.9375 27.644531 L 264.175781 33.550781 L 266.171875 41.066406 L 267.074219 45.363281 L 268.503906 53.683594 L 269.597656 61.738281 L 270.355469 68.71875 L 271.214844 78.652344 L 271.972656 90.734375 L 272.542969 104.425781 L 272.832031 115.96875 L 266.171875 115.96875 L 265.839844 105.230469 L 265.457031 96.910156 L 264.746094 85.902344 L 264.03125 78.117188 L 263.03125 70.332031 L 262.128906 65.230469 L 260.894531 60.128906 L 259.800781 56.90625 L 258.65625 54.492188 L 257.5625 52.878906 L 255.472656 51.269531 L 253.046875 51.269531 L 252.140625 51.804688 L 250.289062 53.953125 L 249.289062 55.832031 L 247.863281 59.589844 L 246.863281 63.082031 L 245.675781 68.449219 L 244.867188 73.015625 L 243.867188 79.996094 L 243.152344 86.171875 L 242.34375 95.03125 L 241.871094 101.742188 L 241.441406 109.257812 L 241.0625 118.117188 L 240.777344 127.515625 L 240.585938 137.449219 L 240.492188 147.113281 L 240.492188 188.726562 L 240.585938 198.390625 L 240.824219 209.667969 L 241.441406 226.042969 L 242.34375 240.273438 L 243.390625 251.546875 L 244.390625 259.601562 L 244.960938 263.359375 L 245.722656 267.65625 L 246.910156 273.027344 L 248.621094 278.394531 L 249.621094 280.542969 L 251.144531 282.691406 L 252.710938 283.765625 L 254.804688 283.765625 L 256.660156 282.691406 L 257.898438 281.347656 L 259.179688 279.199219 L 260.941406 274.636719 L 262.035156 270.339844 L 262.984375 265.242188 L 263.699219 260.140625 L 264.175781 255.84375 L 264.886719 247.519531 L 265.457031 238.394531 L 265.886719 228.996094 L 266.171875 219.867188 L 272.832031 219.867188 L 272.542969 230.609375 L 272.117188 241.078125 L 271.6875 248.863281 L 271.023438 258.261719 L 270.261719 266.582031 L 269.167969 275.980469 L 268.265625 282.152344 L 267.074219 288.867188 L 265.980469 293.96875 L 264.792969 298.53125 L 263.03125 303.898438 L 261.890625 306.585938 L 260.65625 309 L 259.179688 311.148438 L 257.324219 313.027344 L 255.328125 314.101562 L 253.472656 314.371094 L 251.476562 313.832031 L 250.003906 312.761719 L 248.050781 310.34375 L 245.625 305.511719 L 243.867188 300.410156 L 242.488281 295.308594 L 241.296875 289.941406 L 239.96875 282.691406 L 238.253906 270.878906 L 237.207031 261.75 L 236.496094 254.234375 L 235.6875 243.761719 L 235.117188 234.367188 L 234.449219 219.332031 L 233.976562 200.269531 L 233.832031 185.503906 Z M 233.832031 148.457031 "/>
<path style=" stroke:none;fill-rule:nonzero;fill:rgb(14.509804%,36.078431%,60%);fill-opacity:1;" d="M 274.882812 148.457031 L 274.929688 148.1875 L 274.929688 141.742188 L 275.074219 131.542969 L 275.40625 118.65625 L 275.738281 109.796875 L 276.59375 93.957031 L 277.785156 78.652344 L 279.019531 66.839844 L 279.925781 59.859375 L 280.734375 54.492188 L 282.585938 44.558594 L 283.777344 39.457031 L 285.058594 34.890625 L 286.628906 30.328125 L 287.769531 27.644531 L 290.339844 23.347656 L 292.242188 21.46875 L 293.714844 20.664062 L 296.902344 20.664062 L 298.804688 21.738281 L 300.183594 23.078125 L 301.707031 25.226562 L 302.988281 27.644531 L 305.226562 33.550781 L 307.222656 41.066406 L 308.125 45.363281 L 309.554688 53.683594 L 310.648438 61.738281 L 311.40625 68.71875 L 312.265625 78.652344 L 313.023438 90.734375 L 313.59375 104.425781 L 313.882812 115.96875 L 307.222656 115.96875 L 306.890625 105.230469 L 306.507812 96.910156 L 305.796875 85.902344 L 305.082031 78.117188 L 304.082031 70.332031 L 303.179688 65.230469 L 301.945312 60.128906 L 300.851562 56.90625 L 299.707031 54.492188 L 298.613281 52.878906 L 296.523438 51.269531 L 294.097656 51.269531 L 293.191406 51.804688 L 291.339844 53.953125 L 290.339844 55.832031 L 288.914062 59.589844 L 287.914062 63.082031 L 286.726562 68.449219 L 285.917969 73.015625 L 284.917969 79.996094 L 284.203125 86.171875 L 283.394531 95.03125 L 282.921875 101.742188 L 282.492188 109.257812 L 282.113281 118.117188 L 281.828125 127.515625 L 281.636719 137.449219 L 281.539062 147.113281 L 281.539062 188.726562 L 281.636719 198.390625 L 281.875 209.667969 L 282.492188 226.042969 L 283.394531 240.273438 L 284.441406 251.546875 L 285.441406 259.601562 L 286.011719 263.359375 L 286.773438 267.65625 L 287.960938 273.027344 L 289.671875 278.394531 L 290.671875 280.542969 L 292.195312 282.691406 L 293.761719 283.765625 L 295.855469 283.765625 L 297.710938 282.691406 L 298.949219 281.347656 L 300.230469 279.199219 L 301.992188 274.636719 L 303.085938 270.339844 L 304.035156 265.242188 L 304.75 260.140625 L 305.226562 255.84375 L 305.9375 247.519531 L 306.507812 238.394531 L 306.9375 228.996094 L 307.222656 219.867188 L 313.882812 219.867188 L 313.59375 230.609375 L 313.167969 241.078125 L 312.738281 248.863281 L 312.074219 258.261719 L 311.3125 266.582031 L 310.21875 275.980469 L 309.316406 282.152344 L 308.125 288.867188 L 307.03125 293.96875 L 305.84375 298.53125 L 304.082031 303.898438 L 302.941406 306.585938 L 301.707031 309 L 300.230469 311.148438 L 298.375 313.027344 L 296.378906 314.101562 L 294.523438 314.371094 L 292.527344 313.832031 L 291.050781 312.761719 L 289.101562 310.34375 L 286.675781 305.511719 L 284.917969 300.410156 L 283.539062 295.308594 L 282.347656 289.941406 L 281.019531 282.691406 L 279.304688 270.878906 L 278.257812 261.75 L 277.546875 254.234375 L 276.738281 243.761719 L 276.167969 234.367188 L 275.5 219.332031 L 275.027344 200.269531 L 274.882812 185.503906 Z M 274.882812 148.457031 "/>
<path style=" stroke:none;fill-rule:nonzero;fill:rgb(6.27451%,58.823529%,28.235294%);fill-opacity:1;" d="M 315.933594 314.363281 L 315.976562 314.351562 L 332.847656 304.914062 L 337.972656 304.914062 L 354.929688 314.371094 L 348.972656 314.371094 L 344.722656 311.902344 L 326.101562 311.902344 L 321.933594 314.363281 L 315.933594 314.363281 L 327.890625 310.878906 L 343.015625 310.871094 L 335.472656 306.457031 L 335.390625 306.449219 L 335.308594 306.476562 L 327.847656 310.871094 L 327.890625 310.878906 Z M 315.933594 314.363281 "/>
<path style=" stroke:none;fill-rule:nonzero;fill:rgb(14.509804%,36.078431%,60%);fill-opacity:1;" d="M 315.933594 245.796875 L 315.980469 245.757812 L 315.980469 244.851562 L 316.125 243.414062 L 316.457031 241.597656 L 316.789062 240.351562 L 317.644531 238.117188 L 318.835938 235.964844 L 320.070312 234.300781 L 320.976562 233.316406 L 321.78125 232.558594 L 323.636719 231.160156 L 324.828125 230.441406 L 326.109375 229.800781 L 327.679688 229.15625 L 328.820312 228.777344 L 331.390625 228.175781 L 333.292969 227.910156 L 334.765625 227.796875 L 337.953125 227.796875 L 339.855469 227.945312 L 341.234375 228.136719 L 342.757812 228.4375 L 344.039062 228.777344 L 346.277344 229.609375 L 348.273438 230.667969 L 349.175781 231.273438 L 350.605469 232.445312 L 351.699219 233.582031 L 352.457031 234.5625 L 353.316406 235.964844 L 354.074219 237.664062 L 354.644531 239.59375 L 354.929688 241.21875 L 348.273438 241.21875 L 347.941406 239.707031 L 347.558594 238.535156 L 346.847656 236.984375 L 346.132812 235.886719 L 345.132812 234.792969 L 344.230469 234.074219 L 342.996094 233.355469 L 341.902344 232.902344 L 340.757812 232.558594 L 339.664062 232.332031 L 337.574219 232.105469 L 335.148438 232.105469 L 334.242188 232.183594 L 332.390625 232.484375 L 331.390625 232.75 L 329.964844 233.277344 L 328.964844 233.769531 L 327.777344 234.527344 L 326.96875 235.167969 L 325.96875 236.152344 L 325.253906 237.023438 L 324.445312 238.269531 L 323.972656 239.214844 L 323.542969 240.273438 L 323.164062 241.523438 L 322.878906 242.84375 L 322.6875 244.246094 L 322.589844 245.605469 L 322.589844 251.46875 L 322.6875 252.828125 L 322.925781 254.417969 L 323.542969 256.722656 L 324.445312 258.726562 L 325.492188 260.316406 L 326.492188 261.449219 L 327.0625 261.980469 L 327.824219 262.585938 L 329.011719 263.339844 L 330.722656 264.097656 L 331.722656 264.398438 L 333.246094 264.703125 L 334.8125 264.851562 L 336.90625 264.851562 L 338.761719 264.703125 L 340 264.511719 L 341.28125 264.210938 L 343.042969 263.566406 L 344.136719 262.960938 L 345.085938 262.242188 L 345.800781 261.527344 L 346.277344 260.921875 L 346.988281 259.75 L 347.558594 258.460938 L 347.988281 257.140625 L 348.273438 255.851562 L 354.929688 255.851562 L 354.644531 257.367188 L 354.21875 258.839844 L 353.789062 259.9375 L 353.125 261.261719 L 352.363281 262.433594 L 351.269531 263.757812 L 350.367188 264.625 L 349.175781 265.570312 L 348.082031 266.289062 L 346.894531 266.933594 L 345.132812 267.6875 L 343.992188 268.066406 L 342.757812 268.40625 L 341.28125 268.710938 L 339.425781 268.976562 L 337.429688 269.125 L 335.574219 269.164062 L 333.578125 269.089844 L 332.101562 268.9375 L 330.152344 268.597656 L 327.726562 267.914062 L 325.96875 267.199219 L 324.589844 266.480469 L 323.398438 265.722656 L 322.070312 264.703125 L 320.355469 263.039062 L 319.308594 261.753906 L 318.597656 260.695312 L 317.789062 259.21875 L 317.21875 257.894531 L 316.550781 255.777344 L 316.074219 253.09375 L 315.933594 251.011719 Z M 315.933594 245.796875 "/>
<path style=" stroke:none;fill-rule:nonzero;fill:rgb(83.921569%,15.686275%,22.352941%);fill-opacity:1;" d="M 315.933594 270.34375 L 354.929688 270.34375 L 354.929688 273.917969 L 338.679688 273.949219 L 338.679688 303.734375 L 332.140625 303.734375 L 332.140625 273.980469 L 332.042969 273.917969 L 315.933594 273.917969 Z M 315.933594 270.34375 "/>
<path style=" stroke:none;fill-rule:nonzero;fill:rgb(6.27451%,58.823529%,28.235294%);fill-opacity:1;" d="M 356.984375 314.328125 L 357.027344 314.285156 L 373.898438 269.121094 L 379.023438 269.121094 L 395.980469 314.371094 L 390.023438 314.371094 L 385.773438 302.558594 L 367.148438 302.558594 L 362.984375 314.328125 L 356.984375 314.328125 L 368.941406 297.671875 L 384.066406 297.628906 L 376.523438 276.511719 L 376.441406 276.46875 L 376.359375 276.597656 L 368.898438 297.628906 L 368.941406 297.671875 Z M 356.984375 314.328125 "/>
<path style=" stroke:none;fill-rule:nonzero;fill:rgb(83.921569%,15.686275%,22.352941%);fill-opacity:1;" d="M 356.984375 145.304688 L 395.980469 145.304688 L 395.980469 158.433594 L 379.730469 158.546875 L 379.730469 267.941406 L 373.191406 267.941406 L 373.191406 158.660156 L 373.09375 158.433594 L 356.984375 158.433594 Z M 356.984375 145.304688 "/>
<path style=" stroke:none;fill-rule:nonzero;fill:rgb(6.27451%,58.823529%,28.235294%);fill-opacity:1;" d="M 398.035156 310.578125 L 398.078125 310.527344 L 414.949219 255.707031 L 420.074219 255.707031 L 437.03125 310.628906 L 431.074219 310.628906 L 426.824219 296.292969 L 408.199219 296.292969 L 404.035156 310.578125 L 398.035156 310.578125 L 409.992188 290.363281 L 425.117188 290.3125 L 417.574219 264.679688 L 417.492188 264.628906 L 417.410156 264.78125 L 409.949219 290.3125 L 409.992188 290.363281 Z M 398.035156 310.578125 "/>
<path style=" stroke:none;fill-rule:nonzero;fill:rgb(96.862745%,70.196078%,16.862745%);fill-opacity:1;" d="M 398.035156 218.851562 L 398.082031 218.792969 L 398.082031 217.652344 L 398.273438 215.089844 L 398.75 211.554688 L 399.367188 208.648438 L 400.03125 206.367188 L 400.460938 205.171875 L 401.171875 203.460938 L 401.792969 202.207031 L 403.363281 199.644531 L 405.359375 197.25 L 406.453125 196.222656 L 407.6875 195.253906 L 409.449219 194.171875 L 410.257812 193.773438 L 412.730469 192.863281 L 415.535156 192.292969 L 418.628906 192.121094 L 420.054688 192.179688 L 422.003906 192.40625 L 424.667969 193.03125 L 426.191406 193.601562 L 427.378906 194.171875 L 428.613281 194.914062 L 430.136719 196.054688 L 431.5625 197.421875 L 432.707031 198.789062 L 433.847656 200.5 L 434.796875 202.324219 L 435.605469 204.316406 L 436.320312 206.710938 L 436.746094 208.707031 L 437.03125 210.699219 L 430.421875 210.699219 L 430.042969 208.707031 L 429.613281 207.167969 L 428.902344 205.285156 L 428.1875 203.917969 L 427.472656 202.835938 L 426.140625 201.355469 L 425 200.441406 L 423.574219 199.644531 L 422.195312 199.132812 L 420.625 198.789062 L 419.675781 198.675781 L 417.152344 198.675781 L 414.871094 199.074219 L 413.539062 199.53125 L 412.585938 199.984375 L 411.257812 200.839844 L 410.449219 201.523438 L 409.972656 201.980469 L 408.546875 203.746094 L 407.59375 205.34375 L 407.070312 206.425781 L 406.40625 208.136719 L 405.929688 209.675781 L 405.40625 211.953125 L 405.121094 213.664062 L 404.742188 217.539062 L 404.691406 227.796875 L 404.835938 229.964844 L 405.121094 232.300781 L 405.5 234.351562 L 406.070312 236.515625 L 406.644531 238.167969 L 407.640625 240.390625 L 408.496094 241.875 L 409.164062 242.84375 L 410.449219 244.382812 L 410.972656 244.894531 L 412.207031 245.921875 L 413.492188 246.71875 L 415.0625 247.402344 L 416.25 247.746094 L 418.152344 248.027344 L 420.578125 248.027344 L 423.429688 247.6875 L 425.238281 247.230469 L 426.476562 246.777344 L 427.285156 246.375 L 428.28125 245.75 L 428.996094 245.179688 L 429.660156 244.554688 L 430.46875 243.582031 L 430.46875 229.964844 L 418.722656 229.90625 L 418.722656 223.523438 L 436.984375 223.464844 L 437.03125 245.75 L 436.035156 247.289062 L 434.796875 248.769531 L 433.609375 249.910156 L 432.371094 250.878906 L 430.613281 251.960938 L 429.1875 252.644531 L 427 253.445312 L 425 253.957031 L 422.90625 254.296875 L 421.054688 254.46875 L 418.867188 254.527344 L 416.914062 254.414062 L 414.824219 254.070312 L 413.160156 253.613281 L 411.636719 253.042969 L 410.113281 252.304688 L 408.210938 251.105469 L 406.976562 250.136719 L 405.691406 248.941406 L 404.40625 247.515625 L 403.265625 245.976562 L 402.503906 244.78125 L 401.746094 243.414062 L 400.9375 241.703125 L 400.175781 239.765625 L 399.605469 238 L 399.082031 236.003906 L 398.699219 234.125 L 398.320312 231.558594 L 398.128906 229.507812 L 398.035156 227.742188 Z M 398.035156 218.851562 "/>
<path style=" stroke:none;fill-rule:nonzero;fill:rgb(83.921569%,15.686275%,22.352941%);fill-opacity:1;" d="M 398.035156 311.808594 L 437.03125 311.808594 L 437.03125 312.085938 L 420.78125 312.085938 L 420.78125 314.371094 L 414.242188 314.371094 L 414.242188 312.089844 L 414.144531 312.085938 L 398.035156 312.085938 Z M 398.035156 311.808594 "/>
<path style=" stroke:none;fill-rule:nonzero;fill:rgb(96.862745%,70.196078%,16.862745%);fill-opacity:1;" d="M 439.085938 146.460938 L 439.132812 146.191406 L 439.132812 140.828125 L 439.324219 128.757812 L 439.800781 112.128906 L 440.417969 98.449219 L 441.082031 87.71875 L 441.511719 82.085938 L 442.222656 74.039062 L 442.84375 68.140625 L 444.410156 56.070312 L 446.410156 44.804688 L 447.503906 39.976562 L 448.738281 35.414062 L 450.5 30.320312 L 451.308594 28.441406 L 453.78125 24.148438 L 456.585938 21.46875 L 459.679688 20.664062 L 461.105469 20.929688 L 463.054688 22.003906 L 465.71875 24.953125 L 467.242188 27.636719 L 468.429688 30.320312 L 469.664062 33.804688 L 471.1875 39.171875 L 472.613281 45.609375 L 473.753906 52.046875 L 474.898438 60.09375 L 475.847656 68.675781 L 476.65625 78.0625 L 477.371094 89.328125 L 477.796875 98.714844 L 478.082031 108.105469 L 471.472656 108.105469 L 471.09375 98.714844 L 470.664062 91.476562 L 469.949219 82.625 L 469.238281 76.1875 L 468.523438 71.089844 L 467.191406 64.117188 L 466.050781 59.824219 L 464.625 56.070312 L 463.246094 53.65625 L 461.675781 52.046875 L 460.726562 51.507812 L 458.203125 51.507812 L 455.921875 53.386719 L 454.589844 55.53125 L 453.636719 57.679688 L 452.308594 61.703125 L 451.5 64.921875 L 451.023438 67.066406 L 449.597656 75.382812 L 448.644531 82.890625 L 448.121094 87.988281 L 447.457031 96.035156 L 446.980469 103.277344 L 446.457031 114.003906 L 446.171875 122.050781 L 445.792969 140.292969 L 445.742188 188.574219 L 445.886719 198.765625 L 446.171875 209.761719 L 446.550781 219.417969 L 447.121094 229.609375 L 447.695312 237.390625 L 448.691406 247.851562 L 449.546875 254.824219 L 450.214844 259.382812 L 451.5 266.625 L 452.019531 269.039062 L 453.257812 273.867188 L 454.542969 277.625 L 456.113281 280.84375 L 457.300781 282.453125 L 459.203125 283.792969 L 461.628906 283.792969 L 464.480469 282.183594 L 466.289062 280.039062 L 467.527344 277.890625 L 468.335938 276.015625 L 469.332031 273.0625 L 470.046875 270.382812 L 470.710938 267.429688 L 471.519531 262.871094 L 471.519531 198.765625 L 459.773438 198.496094 L 459.773438 168.457031 L 478.035156 168.1875 L 478.082031 273.0625 L 477.085938 280.304688 L 475.847656 287.28125 L 474.660156 292.644531 L 473.421875 297.203125 L 471.664062 302.300781 L 470.238281 305.519531 L 468.046875 309.273438 L 466.050781 311.6875 L 463.957031 313.296875 L 462.105469 314.101562 L 459.917969 314.371094 L 457.964844 313.835938 L 455.875 312.226562 L 454.210938 310.078125 L 452.6875 307.398438 L 451.164062 303.910156 L 449.261719 298.277344 L 448.027344 293.71875 L 446.742188 288.085938 L 445.457031 281.378906 L 444.316406 274.136719 L 443.554688 268.503906 L 442.796875 262.066406 L 441.988281 254.019531 L 441.226562 244.898438 L 440.65625 236.585938 L 440.132812 227.195312 L 439.75 218.34375 L 439.371094 206.277344 L 439.179688 196.621094 L 439.085938 188.304688 Z M 439.085938 146.460938 "/>
<path style=" stroke:none;fill-rule:nonzero;fill:rgb(96.862745%,70.196078%,16.862745%);fill-opacity:1;" d="M 480.136719 146.460938 L 480.183594 146.191406 L 480.183594 140.828125 L 480.375 128.757812 L 480.847656 112.128906 L 481.46875 98.449219 L 482.132812 87.71875 L 482.5625 82.085938 L 483.273438 74.039062 L 483.894531 68.140625 L 485.460938 56.070312 L 487.460938 44.804688 L 488.554688 39.976562 L 489.789062 35.414062 L 491.550781 30.320312 L 492.359375 28.441406 L 494.832031 24.148438 L 497.636719 21.46875 L 500.730469 20.664062 L 502.15625 20.929688 L 504.105469 22.003906 L 506.769531 24.953125 L 508.289062 27.636719 L 509.480469 30.320312 L 510.714844 33.804688 L 512.238281 39.171875 L 513.664062 45.609375 L 514.804688 52.046875 L 515.949219 60.09375 L 516.898438 68.675781 L 517.707031 78.0625 L 518.421875 89.328125 L 518.847656 98.714844 L 519.132812 108.105469 L 512.523438 108.105469 L 512.144531 98.714844 L 511.714844 91.476562 L 511 82.625 L 510.289062 76.1875 L 509.574219 71.089844 L 508.242188 64.117188 L 507.101562 59.824219 L 505.675781 56.070312 L 504.296875 53.65625 L 502.726562 52.046875 L 501.773438 51.507812 L 499.253906 51.507812 L 496.972656 53.386719 L 495.640625 55.53125 L 494.6875 57.679688 L 493.359375 61.703125 L 492.550781 64.921875 L 492.074219 67.066406 L 490.648438 75.382812 L 489.695312 82.890625 L 489.171875 87.988281 L 488.507812 96.035156 L 488.03125 103.277344 L 487.507812 114.003906 L 487.222656 122.050781 L 486.84375 140.292969 L 486.792969 188.574219 L 486.9375 198.765625 L 487.222656 209.761719 L 487.601562 219.417969 L 488.171875 229.609375 L 488.746094 237.390625 L 489.742188 247.851562 L 490.597656 254.824219 L 491.265625 259.382812 L 492.550781 266.625 L 493.070312 269.039062 L 494.308594 273.867188 L 495.59375 277.625 L 497.164062 280.84375 L 498.351562 282.453125 L 500.253906 283.792969 L 502.679688 283.792969 L 505.53125 282.183594 L 507.339844 280.039062 L 508.578125 277.890625 L 509.386719 276.015625 L 510.382812 273.0625 L 511.097656 270.382812 L 511.761719 267.429688 L 512.570312 262.871094 L 512.570312 198.765625 L 500.824219 198.496094 L 500.824219 168.457031 L 519.085938 168.1875 L 519.132812 273.0625 L 518.136719 280.304688 L 516.898438 287.28125 L 515.710938 292.644531 L 514.472656 297.203125 L 512.714844 302.300781 L 511.289062 305.519531 L 509.097656 309.273438 L 507.101562 311.6875 L 505.007812 313.296875 L 503.15625 314.101562 L 500.96875 314.371094 L 499.015625 313.835938 L 496.925781 312.226562 L 495.261719 310.078125 L 493.738281 307.398438 L 492.214844 303.910156 L 490.3125 298.277344 L 489.078125 293.71875 L 487.792969 288.085938 L 486.507812 281.378906 L 485.367188 274.136719 L 484.605469 268.503906 L 483.847656 262.066406 L 483.039062 254.019531 L 482.277344 244.898438 L 481.707031 236.585938 L 481.183594 227.195312 L 480.800781 218.34375 L 480.421875 206.277344 L 480.230469 196.621094 L 480.136719 188.304688 Z M 480.136719 146.460938 "/>
<path style=" stroke:none;fill-rule:nonzero;fill:rgb(96.862745%,70.196078%,16.862745%);fill-opacity:1;" d="M 521.1875 274.148438 L 521.234375 274.085938 L 521.234375 272.800781 L 521.425781 269.910156 L 521.898438 265.925781 L 522.519531 262.648438 L 523.183594 260.078125 L 523.613281 258.730469 L 524.324219 256.800781 L 524.945312 255.386719 L 526.511719 252.496094 L 528.511719 249.796875 L 529.605469 248.640625 L 530.839844 247.550781 L 532.601562 246.328125 L 533.410156 245.878906 L 535.882812 244.851562 L 538.6875 244.207031 L 541.78125 244.015625 L 543.207031 244.078125 L 545.15625 244.335938 L 547.820312 245.042969 L 549.339844 245.6875 L 550.53125 246.328125 L 551.765625 247.164062 L 553.289062 248.449219 L 554.714844 249.992188 L 555.855469 251.53125 L 557 253.460938 L 557.949219 255.515625 L 558.757812 257.765625 L 559.472656 260.464844 L 559.898438 262.710938 L 560.183594 264.960938 L 553.574219 264.960938 L 553.195312 262.710938 L 552.765625 260.976562 L 552.050781 258.855469 L 551.339844 257.316406 L 550.625 256.09375 L 549.292969 254.421875 L 548.152344 253.394531 L 546.726562 252.496094 L 545.347656 251.917969 L 543.777344 251.53125 L 542.824219 251.402344 L 540.304688 251.402344 L 538.023438 251.855469 L 536.691406 252.367188 L 535.738281 252.882812 L 534.40625 253.84375 L 533.601562 254.617188 L 533.125 255.128906 L 531.699219 257.121094 L 530.746094 258.921875 L 530.222656 260.140625 L 529.558594 262.070312 L 529.082031 263.804688 L 528.558594 266.375 L 528.273438 268.300781 L 527.894531 272.671875 L 527.84375 284.238281 L 527.988281 286.679688 L 528.273438 289.3125 L 528.652344 291.625 L 529.222656 294.066406 L 529.796875 295.929688 L 530.792969 298.4375 L 531.648438 300.105469 L 532.316406 301.199219 L 533.601562 302.933594 L 534.121094 303.511719 L 535.359375 304.667969 L 536.644531 305.566406 L 538.210938 306.339844 L 539.402344 306.726562 L 541.304688 307.046875 L 543.730469 307.046875 L 546.582031 306.660156 L 548.390625 306.144531 L 549.625 305.632812 L 550.433594 305.183594 L 551.433594 304.476562 L 552.148438 303.832031 L 552.8125 303.125 L 553.621094 302.035156 L 553.621094 286.679688 L 541.875 286.613281 L 541.875 279.417969 L 560.136719 279.351562 L 560.183594 304.476562 L 559.1875 306.210938 L 557.949219 307.882812 L 556.761719 309.167969 L 555.523438 310.257812 L 553.765625 311.480469 L 552.335938 312.25 L 550.148438 313.148438 L 548.152344 313.726562 L 546.058594 314.113281 L 544.207031 314.304688 L 542.015625 314.371094 L 540.066406 314.242188 L 537.976562 313.855469 L 536.308594 313.34375 L 534.789062 312.699219 L 533.265625 311.863281 L 531.363281 310.515625 L 530.128906 309.421875 L 528.84375 308.074219 L 527.558594 306.46875 L 526.417969 304.734375 L 525.65625 303.382812 L 524.894531 301.839844 L 524.089844 299.914062 L 523.328125 297.730469 L 522.757812 295.738281 L 522.234375 293.488281 L 521.851562 291.367188 L 521.472656 288.476562 L 521.28125 286.164062 L 521.1875 284.171875 Z M 521.1875 274.148438 "/>
<path style=" stroke:none;fill-rule:nonzero;fill:rgb(83.921569%,15.686275%,22.352941%);fill-opacity:1;" d="M 521.1875 168.007812 L 560.183594 168.007812 L 560.183594 176.019531 L 543.933594 176.089844 L 543.933594 242.835938 L 537.394531 242.835938 L 537.394531 176.160156 L 537.296875 176.019531 L 521.1875 176.019531 Z M 521.1875 168.007812 "/>
<path style=" stroke:none;fill-rule:nonzero;fill:rgb(96.862745%,70.196078%,16.862745%);fill-opacity:1;" d="M 562.238281 200.058594 L 562.285156 199.988281 L 562.285156 198.621094 L 562.476562 195.546875 L 562.949219 191.3125 L 563.570312 187.824219 L 564.234375 185.09375 L 564.664062 183.65625 L 565.375 181.609375 L 565.996094 180.105469 L 567.5625 177.027344 L 569.5625 174.160156 L 570.65625 172.929688 L 571.890625 171.765625 L 573.652344 170.46875 L 574.460938 169.992188 L 576.933594 168.898438 L 579.738281 168.214844 L 582.832031 168.007812 L 584.257812 168.078125 L 586.207031 168.351562 L 588.871094 169.101562 L 590.390625 169.785156 L 591.582031 170.46875 L 592.816406 171.355469 L 594.339844 172.722656 L 595.765625 174.363281 L 596.90625 176.003906 L 598.050781 178.054688 L 599 180.242188 L 599.808594 182.632812 L 600.523438 185.503906 L 600.949219 187.894531 L 601.234375 190.285156 L 594.625 190.285156 L 594.246094 187.894531 L 593.816406 186.050781 L 593.101562 183.792969 L 592.390625 182.152344 L 591.675781 180.855469 L 590.34375 179.078125 L 589.203125 177.984375 L 587.777344 177.027344 L 586.398438 176.414062 L 584.828125 176.003906 L 583.875 175.867188 L 581.355469 175.867188 L 579.074219 176.347656 L 577.742188 176.890625 L 576.789062 177.4375 L 575.457031 178.464844 L 574.648438 179.285156 L 574.175781 179.832031 L 572.746094 181.949219 L 571.796875 183.863281 L 571.273438 185.160156 L 570.609375 187.210938 L 570.132812 189.054688 L 569.609375 191.789062 L 569.324219 193.839844 L 568.941406 198.484375 L 568.894531 210.785156 L 569.039062 213.382812 L 569.324219 216.183594 L 569.703125 218.644531 L 570.273438 221.242188 L 570.84375 223.222656 L 571.84375 225.886719 L 572.699219 227.664062 L 573.367188 228.828125 L 574.648438 230.671875 L 575.171875 231.285156 L 576.410156 232.515625 L 577.695312 233.472656 L 579.261719 234.292969 L 580.453125 234.703125 L 582.355469 235.046875 L 584.78125 235.046875 L 587.632812 234.636719 L 589.441406 234.089844 L 590.675781 233.542969 L 591.484375 233.0625 L 592.484375 232.3125 L 593.199219 231.628906 L 593.863281 230.875 L 594.671875 229.714844 L 594.671875 213.382812 L 582.925781 213.316406 L 582.925781 205.660156 L 601.1875 205.59375 L 601.234375 232.3125 L 600.238281 234.15625 L 599 235.933594 L 597.8125 237.300781 L 596.574219 238.460938 L 594.816406 239.761719 L 593.386719 240.582031 L 591.199219 241.539062 L 589.203125 242.152344 L 587.109375 242.5625 L 585.257812 242.765625 L 583.066406 242.835938 L 581.117188 242.699219 L 579.027344 242.289062 L 577.359375 241.742188 L 575.839844 241.058594 L 574.316406 240.171875 L 572.414062 238.734375 L 571.179688 237.574219 L 569.894531 236.140625 L 568.609375 234.429688 L 567.46875 232.585938 L 566.707031 231.148438 L 565.945312 229.511719 L 565.136719 227.460938 L 564.378906 225.136719 L 563.808594 223.019531 L 563.285156 220.625 L 562.902344 218.371094 L 562.523438 215.296875 L 562.332031 212.835938 L 562.238281 210.71875 Z M 562.238281 200.058594 "/>
<path style=" stroke:none;fill-rule:nonzero;fill:rgb(83.921569%,15.686275%,22.352941%);fill-opacity:1;" d="M 562.238281 244.015625 L 601.234375 244.015625 L 601.234375 251.546875 L 584.984375 251.613281 L 584.984375 314.371094 L 578.441406 314.371094 L 578.441406 251.679688 L 578.347656 251.546875 L 562.238281 251.546875 Z M 562.238281 244.015625 "/>
<path style=" stroke:none;fill-rule:nonzero;fill:rgb(14.509804%,36.078431%,60%);fill-opacity:1;" d="M 603.289062 200.566406 L 603.335938 200.496094 L 603.335938 198.855469 L 603.476562 196.257812 L 603.8125 192.972656 L 604.144531 190.714844 L 605 186.679688 L 606.1875 182.78125 L 607.425781 179.773438 L 608.328125 177.996094 L 609.136719 176.628906 L 610.992188 174.097656 L 612.183594 172.796875 L 613.464844 171.632812 L 615.035156 170.472656 L 616.175781 169.789062 L 618.746094 168.691406 L 620.648438 168.214844 L 622.121094 168.007812 L 625.308594 168.007812 L 627.210938 168.28125 L 628.589844 168.625 L 630.109375 169.171875 L 631.394531 169.789062 L 633.628906 171.292969 L 635.628906 173.207031 L 636.53125 174.300781 L 637.957031 176.421875 L 639.050781 178.472656 L 639.8125 180.253906 L 640.667969 182.78125 L 641.429688 185.859375 L 642 189.347656 L 642.285156 192.289062 L 635.628906 192.289062 L 635.296875 189.554688 L 634.914062 187.433594 L 634.203125 184.628906 L 633.488281 182.644531 L 632.488281 180.664062 L 631.585938 179.363281 L 630.347656 178.0625 L 629.253906 177.242188 L 628.113281 176.628906 L 627.019531 176.214844 L 624.925781 175.804688 L 622.5 175.804688 L 621.597656 175.941406 L 619.742188 176.488281 L 618.746094 176.96875 L 617.316406 177.925781 L 616.320312 178.816406 L 615.128906 180.183594 L 614.320312 181.347656 L 613.324219 183.125 L 612.609375 184.699219 L 611.800781 186.953125 L 611.324219 188.664062 L 610.898438 190.578125 L 610.515625 192.835938 L 610.230469 195.230469 L 610.042969 197.761719 L 609.945312 200.222656 L 609.945312 210.824219 L 610.042969 213.289062 L 610.28125 216.160156 L 610.898438 220.332031 L 611.800781 223.957031 L 612.847656 226.832031 L 613.847656 228.882812 L 614.417969 229.839844 L 615.179688 230.933594 L 616.367188 232.300781 L 618.078125 233.671875 L 619.078125 234.21875 L 620.597656 234.765625 L 622.167969 235.039062 L 624.261719 235.039062 L 626.117188 234.765625 L 627.351562 234.421875 L 628.636719 233.875 L 630.398438 232.710938 L 631.492188 231.617188 L 632.441406 230.320312 L 633.15625 229.019531 L 633.628906 227.925781 L 634.34375 225.804688 L 634.914062 223.480469 L 635.34375 221.085938 L 635.628906 218.757812 L 642.285156 218.757812 L 642 221.496094 L 641.574219 224.164062 L 641.144531 226.148438 L 640.480469 228.539062 L 639.71875 230.660156 L 638.625 233.054688 L 637.722656 234.628906 L 636.53125 236.335938 L 635.4375 237.636719 L 634.25 238.800781 L 632.488281 240.167969 L 631.347656 240.851562 L 630.109375 241.46875 L 628.636719 242.015625 L 626.78125 242.492188 L 624.785156 242.765625 L 622.929688 242.835938 L 620.933594 242.699219 L 619.457031 242.425781 L 617.507812 241.808594 L 615.082031 240.578125 L 613.324219 239.277344 L 611.945312 237.980469 L 610.753906 236.613281 L 609.421875 234.765625 L 607.710938 231.753906 L 606.664062 229.429688 L 605.953125 227.515625 L 605.144531 224.847656 L 604.574219 222.453125 L 603.90625 218.621094 L 603.429688 213.765625 L 603.289062 210.003906 Z M 603.289062 200.566406 "/>
<path style=" stroke:none;fill-rule:nonzero;fill:rgb(96.862745%,70.196078%,16.862745%);fill-opacity:1;" d="M 603.289062 274.148438 L 603.335938 274.085938 L 603.335938 272.800781 L 603.527344 269.910156 L 604 265.925781 L 604.621094 262.648438 L 605.285156 260.078125 L 605.714844 258.730469 L 606.425781 256.800781 L 607.046875 255.386719 L 608.613281 252.496094 L 610.613281 249.796875 L 611.707031 248.640625 L 612.941406 247.550781 L 614.703125 246.328125 L 615.511719 245.878906 L 617.984375 244.851562 L 620.789062 244.207031 L 623.882812 244.015625 L 625.308594 244.078125 L 627.257812 244.335938 L 629.921875 245.042969 L 631.441406 245.6875 L 632.632812 246.328125 L 633.867188 247.164062 L 635.390625 248.449219 L 636.816406 249.992188 L 637.957031 251.53125 L 639.101562 253.460938 L 640.050781 255.515625 L 640.859375 257.765625 L 641.574219 260.464844 L 642 262.710938 L 642.285156 264.960938 L 635.675781 264.960938 L 635.296875 262.710938 L 634.867188 260.976562 L 634.152344 258.855469 L 633.441406 257.316406 L 632.726562 256.09375 L 631.394531 254.421875 L 630.253906 253.394531 L 628.828125 252.496094 L 627.449219 251.917969 L 625.878906 251.53125 L 624.925781 251.402344 L 622.40625 251.402344 L 620.125 251.855469 L 618.792969 252.367188 L 617.839844 252.882812 L 616.507812 253.84375 L 615.699219 254.617188 L 615.226562 255.128906 L 613.796875 257.121094 L 612.847656 258.921875 L 612.324219 260.140625 L 611.660156 262.070312 L 611.183594 263.804688 L 610.660156 266.375 L 610.375 268.300781 L 609.992188 272.671875 L 609.945312 284.238281 L 610.089844 286.679688 L 610.375 289.3125 L 610.753906 291.625 L 611.324219 294.066406 L 611.894531 295.929688 L 612.894531 298.4375 L 613.75 300.105469 L 614.417969 301.199219 L 615.699219 302.933594 L 616.222656 303.511719 L 617.460938 304.667969 L 618.746094 305.566406 L 620.3125 306.339844 L 621.503906 306.726562 L 623.40625 307.046875 L 625.832031 307.046875 L 628.683594 306.660156 L 630.492188 306.144531 L 631.726562 305.632812 L 632.535156 305.183594 L 633.535156 304.476562 L 634.25 303.832031 L 634.914062 303.125 L 635.722656 302.035156 L 635.722656 286.679688 L 623.976562 286.613281 L 623.976562 279.417969 L 642.238281 279.351562 L 642.285156 304.476562 L 641.289062 306.210938 L 640.050781 307.882812 L 638.863281 309.167969 L 637.625 310.257812 L 635.867188 311.480469 L 634.4375 312.25 L 632.25 313.148438 L 630.253906 313.726562 L 628.160156 314.113281 L 626.304688 314.304688 L 624.117188 314.371094 L 622.167969 314.242188 L 620.078125 313.855469 L 618.410156 313.34375 L 616.890625 312.699219 L 615.367188 311.863281 L 613.464844 310.515625 L 612.230469 309.421875 L 610.945312 308.074219 L 609.660156 306.46875 L 608.519531 304.734375 L 607.757812 303.382812 L 606.996094 301.839844 L 606.1875 299.914062 L 605.429688 297.730469 L 604.859375 295.738281 L 604.335938 293.488281 L 603.953125 291.367188 L 603.574219 288.476562 L 603.382812 286.164062 L 603.289062 284.171875 Z M 603.289062 274.148438 "/>
<path style=" stroke:none;fill-rule:nonzero;fill:rgb(14.509804%,36.078431%,60%);fill-opacity:1;" d="M 644.339844 234.804688 L 644.386719 234.738281 L 644.386719 233.109375 L 644.527344 230.535156 L 644.863281 227.28125 L 645.195312 225.042969 L 646.050781 221.042969 L 647.238281 217.179688 L 648.476562 214.195312 L 649.378906 212.433594 L 650.1875 211.078125 L 652.042969 208.570312 L 653.230469 207.28125 L 654.515625 206.128906 L 656.085938 204.976562 L 657.226562 204.300781 L 659.796875 203.214844 L 661.699219 202.742188 L 663.171875 202.535156 L 666.359375 202.535156 L 668.261719 202.808594 L 669.640625 203.148438 L 671.160156 203.691406 L 672.445312 204.300781 L 674.679688 205.789062 L 676.679688 207.6875 L 677.582031 208.773438 L 679.007812 210.875 L 680.101562 212.910156 L 680.863281 214.671875 L 681.71875 217.179688 L 682.480469 220.230469 L 683.050781 223.6875 L 683.335938 226.601562 L 676.679688 226.601562 L 676.347656 223.890625 L 675.964844 221.789062 L 675.253906 219.011719 L 674.539062 217.042969 L 673.539062 215.078125 L 672.636719 213.789062 L 671.398438 212.503906 L 670.304688 211.6875 L 669.164062 211.078125 L 668.070312 210.671875 L 665.976562 210.265625 L 663.550781 210.265625 L 662.648438 210.402344 L 660.792969 210.941406 L 659.796875 211.417969 L 658.367188 212.367188 L 657.371094 213.246094 L 656.179688 214.605469 L 655.371094 215.757812 L 654.375 217.519531 L 653.660156 219.078125 L 652.851562 221.316406 L 652.375 223.007812 L 651.949219 224.90625 L 651.566406 227.144531 L 651.28125 229.515625 L 651.09375 232.027344 L 650.996094 234.464844 L 650.996094 244.972656 L 651.09375 247.414062 L 651.328125 250.261719 L 651.949219 254.398438 L 652.851562 257.988281 L 653.898438 260.835938 L 654.898438 262.871094 L 655.46875 263.820312 L 656.230469 264.902344 L 657.417969 266.261719 L 659.128906 267.617188 L 660.128906 268.15625 L 661.648438 268.699219 L 663.21875 268.972656 L 665.3125 268.972656 L 667.167969 268.699219 L 668.402344 268.363281 L 669.6875 267.820312 L 671.449219 266.667969 L 672.542969 265.582031 L 673.492188 264.292969 L 674.207031 263.007812 L 674.679688 261.921875 L 675.394531 259.820312 L 675.964844 257.515625 L 676.394531 255.140625 L 676.679688 252.835938 L 683.335938 252.835938 L 683.050781 255.550781 L 682.625 258.191406 L 682.195312 260.160156 L 681.53125 262.53125 L 680.769531 264.632812 L 679.675781 267.003906 L 678.769531 268.566406 L 677.582031 270.257812 L 676.488281 271.546875 L 675.300781 272.699219 L 673.539062 274.054688 L 672.398438 274.734375 L 671.160156 275.34375 L 669.6875 275.886719 L 667.832031 276.359375 L 665.835938 276.632812 L 663.980469 276.699219 L 661.984375 276.5625 L 660.507812 276.292969 L 658.558594 275.683594 L 656.132812 274.460938 L 654.375 273.175781 L 652.996094 271.886719 L 651.804688 270.53125 L 650.472656 268.699219 L 648.761719 265.71875 L 647.714844 263.414062 L 647.003906 261.515625 L 646.195312 258.871094 L 645.621094 256.5 L 644.957031 252.703125 L 644.480469 247.890625 L 644.339844 244.160156 Z M 644.339844 234.804688 "/>
<path style=" stroke:none;fill-rule:nonzero;fill:rgb(96.862745%,70.196078%,16.862745%);fill-opacity:1;" d="M 644.339844 307.214844 L 644.386719 307.203125 L 644.386719 306.972656 L 644.578125 306.460938 L 645.050781 305.75 L 645.671875 305.167969 L 646.335938 304.710938 L 646.765625 304.46875 L 647.476562 304.125 L 648.097656 303.875 L 649.664062 303.359375 L 651.664062 302.878906 L 652.757812 302.675781 L 653.992188 302.480469 L 655.753906 302.261719 L 656.5625 302.183594 L 659.035156 302 L 661.839844 301.886719 L 664.933594 301.851562 L 666.359375 301.863281 L 668.308594 301.910156 L 670.972656 302.035156 L 672.492188 302.148438 L 673.683594 302.261719 L 674.917969 302.410156 L 676.441406 302.640625 L 677.867188 302.914062 L 679.007812 303.1875 L 680.152344 303.53125 L 681.101562 303.898438 L 681.910156 304.296875 L 682.625 304.777344 L 683.050781 305.179688 L 683.335938 305.578125 L 676.726562 305.578125 L 676.347656 305.179688 L 675.917969 304.871094 L 675.203125 304.492188 L 674.492188 304.21875 L 673.777344 304 L 672.445312 303.703125 L 671.304688 303.519531 L 669.878906 303.359375 L 668.5 303.257812 L 666.929688 303.1875 L 665.976562 303.167969 L 663.457031 303.167969 L 661.175781 303.246094 L 659.84375 303.339844 L 658.890625 303.429688 L 657.558594 303.601562 L 656.75 303.738281 L 656.277344 303.828125 L 654.847656 304.183594 L 653.898438 304.503906 L 653.375 304.722656 L 652.710938 305.0625 L 652.234375 305.371094 L 651.710938 305.832031 L 651.425781 306.171875 L 651.042969 306.949219 L 650.996094 309.007812 L 651.140625 309.441406 L 651.425781 309.910156 L 651.804688 310.324219 L 652.375 310.757812 L 652.945312 311.089844 L 653.945312 311.535156 L 654.800781 311.832031 L 655.46875 312.027344 L 656.75 312.335938 L 657.273438 312.4375 L 658.511719 312.644531 L 659.796875 312.804688 L 661.363281 312.941406 L 662.554688 313.011719 L 664.457031 313.066406 L 666.882812 313.066406 L 669.734375 313 L 671.542969 312.90625 L 672.777344 312.816406 L 673.585938 312.734375 L 674.585938 312.609375 L 675.300781 312.496094 L 675.964844 312.371094 L 676.773438 312.175781 L 676.773438 309.441406 L 665.027344 309.433594 L 665.027344 308.152344 L 683.289062 308.140625 L 683.335938 312.609375 L 682.339844 312.917969 L 681.101562 313.214844 L 679.914062 313.445312 L 678.675781 313.640625 L 676.917969 313.855469 L 675.488281 313.992188 L 673.300781 314.152344 L 671.304688 314.257812 L 669.210938 314.324219 L 667.355469 314.359375 L 665.167969 314.371094 L 663.21875 314.347656 L 661.128906 314.277344 L 659.460938 314.1875 L 657.941406 314.074219 L 656.417969 313.925781 L 654.515625 313.683594 L 653.28125 313.492188 L 651.996094 313.25 L 650.710938 312.964844 L 649.570312 312.65625 L 648.808594 312.414062 L 648.046875 312.140625 L 647.238281 311.796875 L 646.480469 311.410156 L 645.910156 311.054688 L 645.386719 310.65625 L 645.003906 310.277344 L 644.625 309.761719 L 644.433594 309.351562 L 644.339844 308.996094 Z M 644.339844 307.214844 "/>
<path style=" stroke:none;fill-rule:nonzero;fill:rgb(83.921569%,15.686275%,22.352941%);fill-opacity:1;" d="M 644.339844 277.878906 L 683.335938 277.878906 L 683.335938 280.320312 L 667.082031 280.339844 L 667.082031 300.671875 L 660.542969 300.671875 L 660.542969 280.363281 L 660.449219 280.320312 L 644.339844 280.320312 Z M 644.339844 277.878906 "/>
<g style="fill:rgb(0%,0%,0%);fill-opacity:1;">
  <use xlink:href="#glyph0-1" x="21.957031" y="318.198242"/>
  <use xlink:href="#glyph0-2" x="27.291016" y="318.198242"/>
  <use xlink:href="#glyph0-1" x="29.958008" y="318.198242"/>
</g>
<g style="fill:rgb(0%,0%,0%);fill-opacity:1;">
  <use xlink:href="#glyph0-1" x="21.957031" y="244.475586"/>
  <use xlink:href="#glyph0-2" x="27.291016" y="244.475586"/>
  <use xlink:href="#glyph0-3" x="29.958008" y="244.475586"/>
</g>
<g style="fill:rgb(0%,0%,0%);fill-opacity:1;">
  <use xlink:href="#glyph0-4" x="21.957031" y="170.75293"/>
  <use xlink:href="#glyph0-2" x="27.291016" y="170.75293"/>
  <use xlink:href="#glyph0-1" x="29.958008" y="170.75293"/>
</g>
<g style="fill:rgb(0%,0%,0%);fill-opacity:1;">
  <use xlink:href="#glyph0-4" x="21.957031" y="97.03418"/>
  <use xlink:href="#glyph0-2" x="27.291016" y="97.03418"/>
  <use xlink:href="#glyph0-3" x="29.958008" y="97.03418"/>
</g>
<g style="fill:rgb(0%,0%,0%);fill-opacity:1;">
  <use xlink:href="#glyph0-5" x="21.957031" y="23.311523"/>
  <use xlink:href="#glyph0-2" x="27.291016" y="23.311523"/>
  <use xlink:href="#glyph0-1" x="29.958008" y="23.311523"/>
</g>
<g style="fill:rgb(0%,0%,0%);fill-opacity:1;">
  <use xlink:href="#glyph0-4" x="86.128906" y="338.19043"/>
</g>
<g style="fill:rgb(0%,0%,0%);fill-opacity:1;">
  <use xlink:href="#glyph0-5" x="127.179688" y="338.19043"/>
</g>
<g style="fill:rgb(0%,0%,0%);fill-opacity:1;">
  <use xlink:href="#glyph0-6" x="168.230469" y="338.19043"/>
</g>
<g style="fill:rgb(0%,0%,0%);fill-opacity:1;">
  <use xlink:href="#glyph0-7" x="209.28125" y="338.19043"/>
</g>
<g style="fill:rgb(0%,0%,0%);fill-opacity:1;">
  <use xlink:href="#glyph0-3" x="250.332031" y="338.19043"/>
</g>
<g style="fill:rgb(0%,0%,0%);fill-opacity:1;">
  <use xlink:href="#glyph0-8" x="291.382812" y="338.19043"/>
</g>
<g style="fill:rgb(0%,0%,0%);fill-opacity:1;">
  <use xlink:href="#glyph0-9" x="332.433594" y="338.19043"/>
</g>
<g style="fill:rgb(0%,0%,0%);fill-opacity:1;">
  <use xlink:href="#glyph0-10" x="373.484375" y="338.19043"/>
</g>
<g style="fill:rgb(0%,0%,0%);fill-opacity:1;">
  <use xlink:href="#glyph0-11" x="414.535156" y="338.19043"/>
</g>
<g style="fill:rgb(0%,0%,0%);fill-opacity:1;">
  <use xlink:href="#glyph0-4" x="453.085938" y="338.19043"/>
  <use xlink:href="#glyph0-1" x="458.419922" y="338.19043"/>
</g>
<g style="fill:rgb(0%,0%,0%);fill-opacity:1;">
  <use xlink:href="#glyph0-4" x="494.136719" y="338.19043"/>
  <use xlink:href="#glyph0-4" x="499.470703" y="338.19043"/>
</g>
<g style="fill:rgb(0%,0%,0%);fill-opacity:1;">
  <use xlink:href="#glyph0-4" x="535.1875" y="338.19043"/>
  <use xlink:href="#glyph0-5" x="540.521484" y="338.19043"/>
</g>
<g style="fill:rgb(0%,0%,0%);fill-opacity:1;">
  <use xlink:href="#glyph0-4" x="576.238281" y="338.19043"/>
  <use xlink:href="#glyph0-6" x="581.572266" y="338.19043"/>
</g>
<g style="fill:rgb(0%,0%,0%);fill-opacity:1;">
  <use xlink:href="#glyph0-4" x="617.289062" y="338.19043"/>
  <use xlink:href="#glyph0-7" x="622.623047" y="338.19043"/>
</g>
<g style="fill:rgb(0%,0%,0%);fill-opacity:1;">
  <use xlink:href="#glyph0-4" x="658.339844" y="338.19043"/>
  <use xlink:href="#glyph0-3" x="663.673828" y="338.19043"/>
</g>
<g style="fill:rgb(0%,0%,0%);fill-opacity:1;">
  <use xlink:href="#glyph1-1" x="14.412109" y="178.015625"/>
  <use xlink:href="#glyph1-2" x="14.412109" y="170.011719"/>
  <use xlink:href="#glyph1-3" x="14.412109" y="167.347656"/>
  <use xlink:href="#glyph1-4" x="14.412109" y="164.011719"/>
</g>
</g>
</svg>
