<?xml version="1.0" encoding="UTF-8"?>
<svg xmlns="http://www.w3.org/2000/svg" xmlns:xlink="http://www.w3.org/1999/xlink" width="720pt" height="360pt" viewBox="0 0 720 360" version="1.1">
<defs>
<g>
<symbol overflow="visible" id="glyph0-0">
<path style="stroke:none;" d=""/>
</symbol>
<symbol overflow="visible" id="glyph0-1">
<path style="stroke:none;" d="M 2.640625 -6.796875 C 2 -6.796875 1.421875 -6.53125 1.078125 -6.046875 C 0.640625 -5.453125 0.40625 -4.546875 0.40625 -3.296875 C 0.40625 -1 1.1875 0.21875 2.640625 0.21875 C 4.078125 0.21875 4.859375 -1 4.859375 -3.234375 C 4.859375 -4.5625 4.65625 -5.4375 4.203125 -6.046875 C 3.84375 -6.53125 3.28125 -6.796875 2.640625 -6.796875 Z M 2.640625 -6.046875 C 3.546875 -6.046875 4 -5.125 4 -3.3125 C 4 -1.375 3.5625 -0.484375 2.625 -0.484375 C 1.734375 -0.484375 1.28125 -1.421875 1.28125 -3.28125 C 1.28125 -5.140625 1.734375 -6.046875 2.640625 -6.046875 Z M 2.640625 -6.046875 "/>
</symbol>
<symbol overflow="visible" id="glyph0-2">
<path style="stroke:none;" d="M 1.828125 -1 L 0.828125 -1 L 0.828125 0 L 1.828125 0 Z M 1.828125 -1 "/>
</symbol>
<symbol overflow="visible" id="glyph0-3">
<path style="stroke:none;" d="M 4.5625 -6.796875 L 1.0625 -6.796875 L 0.546875 -3.09375 L 1.328125 -3.09375 C 1.71875 -3.5625 2.046875 -3.734375 2.578125 -3.734375 C 3.484375 -3.734375 4.0625 -3.109375 4.0625 -2.09375 C 4.0625 -1.125 3.484375 -0.53125 2.578125 -0.53125 C 1.828125 -0.53125 1.375 -0.90625 1.1875 -1.671875 L 0.328125 -1.671875 C 0.453125 -1.109375 0.546875 -0.84375 0.75 -0.59375 C 1.125 -0.078125 1.828125 0.21875 2.59375 0.21875 C 3.96875 0.21875 4.921875 -0.78125 4.921875 -2.21875 C 4.921875 -3.5625 4.03125 -4.484375 2.71875 -4.484375 C 2.25 -4.484375 1.859375 -4.359375 1.46875 -4.0625 L 1.734375 -5.96875 L 4.5625 -5.96875 Z M 4.5625 -6.796875 "/>
</symbol>
<symbol overflow="visible" id="glyph0-4">
<path style="stroke:none;" d="M 2.484375 -4.84375 L 2.484375 0 L 3.328125 0 L 3.328125 -6.796875 L 2.765625 -6.796875 C 2.46875 -5.75 2.28125 -5.609375 0.984375 -5.453125 L 0.984375 -4.84375 Z M 2.484375 -4.84375 "/>
</symbol>
<symbol overflow="visible" id="glyph0-5">
<path style="stroke:none;" d="M 4.859375 -0.828125 L 1.28125 -0.828125 C 1.359375 -1.390625 1.671875 -1.75 2.5 -2.234375 L 3.46875 -2.75 C 4.40625 -3.265625 4.90625 -3.96875 4.90625 -4.8125 C 4.90625 -5.375 4.671875 -5.90625 4.265625 -6.265625 C 3.859375 -6.625 3.375 -6.796875 2.71875 -6.796875 C 1.859375 -6.796875 1.21875 -6.5 0.84375 -5.921875 C 0.609375 -5.5625 0.5 -5.125 0.484375 -4.4375 L 1.328125 -4.4375 C 1.359375 -4.90625 1.40625 -5.1875 1.53125 -5.40625 C 1.75 -5.8125 2.1875 -6.0625 2.703125 -6.0625 C 3.46875 -6.0625 4.03125 -5.515625 4.03125 -4.78125 C 4.03125 -4.25 3.71875 -3.796875 3.125 -3.4375 L 2.234375 -2.9375 C 0.8125 -2.140625 0.40625 -1.5 0.328125 0 L 4.859375 0 Z M 4.859375 -0.828125 "/>
</symbol>
<symbol overflow="visible" id="glyph0-6">
<path style="stroke:none;" d="M 2.125 -3.125 L 2.578125 -3.125 C 3.515625 -3.125 3.984375 -2.703125 3.984375 -1.890625 C 3.984375 -1.03125 3.46875 -0.53125 2.578125 -0.53125 C 1.65625 -0.53125 1.203125 -0.984375 1.15625 -1.96875 L 0.3125 -1.96875 C 0.34375 -1.421875 0.4375 -1.078125 0.609375 -0.765625 C 0.953125 -0.109375 1.625 0.21875 2.546875 0.21875 C 3.953125 0.21875 4.859375 -0.609375 4.859375 -1.90625 C 4.859375 -2.765625 4.515625 -3.25 3.703125 -3.515625 C 4.34375 -3.765625 4.65625 -4.25 4.65625 -4.9375 C 4.65625 -6.109375 3.875 -6.796875 2.578125 -6.796875 C 1.203125 -6.796875 0.484375 -6.046875 0.453125 -4.609375 L 1.296875 -4.609375 C 1.3125 -5.015625 1.34375 -5.25 1.453125 -5.453125 C 1.640625 -5.828125 2.0625 -6.0625 2.59375 -6.0625 C 3.34375 -6.0625 3.796875 -5.625 3.796875 -4.90625 C 3.796875 -4.421875 3.609375 -4.140625 3.25 -3.984375 C 3.015625 -3.890625 2.71875 -3.84375 2.125 -3.84375 Z M 2.125 -3.125 "/>
</symbol>
<symbol overflow="visible" id="glyph0-7">
<path style="stroke:none;" d="M 3.140625 -1.625 L 3.140625 0 L 3.984375 0 L 3.984375 -1.625 L 4.984375 -1.625 L 4.984375 -2.390625 L 3.984375 -2.390625 L 3.984375 -6.796875 L 3.359375 -6.796875 L 0.265625 -2.515625 L 0.265625 -1.625 Z M 3.140625 -2.390625 L 1 -2.390625 L 3.140625 -5.359375 Z M 3.140625 -2.390625 "/>
</symbol>
<symbol overflow="visible" id="glyph0-8">
<path style="stroke:none;" d="M 4.78125 -5.03125 C 4.609375 -6.140625 3.890625 -6.796875 2.84375 -6.796875 C 2.09375 -6.796875 1.421875 -6.4375 1.03125 -5.828125 C 0.609375 -5.171875 0.40625 -4.34375 0.40625 -3.09375 C 0.40625 -1.953125 0.578125 -1.234375 0.984375 -0.625 C 1.359375 -0.078125 1.953125 0.21875 2.703125 0.21875 C 3.984375 0.21875 4.921875 -0.734375 4.921875 -2.078125 C 4.921875 -3.34375 4.0625 -4.234375 2.84375 -4.234375 C 2.171875 -4.234375 1.640625 -3.96875 1.28125 -3.46875 C 1.28125 -5.125 1.828125 -6.046875 2.796875 -6.046875 C 3.390625 -6.046875 3.796875 -5.671875 3.9375 -5.03125 Z M 2.734375 -3.484375 C 3.546875 -3.484375 4.0625 -2.921875 4.0625 -2 C 4.0625 -1.15625 3.484375 -0.53125 2.703125 -0.53125 C 1.921875 -0.53125 1.328125 -1.1875 1.328125 -2.046875 C 1.328125 -2.890625 1.90625 -3.484375 2.734375 -3.484375 Z M 2.734375 -3.484375 "/>
</symbol>
<symbol overflow="visible" id="glyph0-9">
<path style="stroke:none;" d="M 4.984375 -6.796875 L 0.4375 -6.796875 L 0.4375 -5.96875 L 4.109375 -5.96875 C 2.5 -3.65625 1.828125 -2.234375 1.328125 0 L 2.21875 0 C 2.59375 -2.171875 3.453125 -4.046875 4.984375 -6.09375 Z M 4.984375 -6.796875 "/>
</symbol>
<symbol overflow="visible" id="glyph0-10">
<path style="stroke:none;" d="M 3.75 -3.578125 C 4.453125 -4 4.6875 -4.34375 4.6875 -4.984375 C 4.6875 -6.046875 3.84375 -6.796875 2.640625 -6.796875 C 1.4375 -6.796875 0.59375 -6.046875 0.59375 -4.984375 C 0.59375 -4.359375 0.828125 -4.015625 1.515625 -3.578125 C 0.734375 -3.203125 0.359375 -2.640625 0.359375 -1.890625 C 0.359375 -0.640625 1.296875 0.21875 2.640625 0.21875 C 3.984375 0.21875 4.921875 -0.640625 4.921875 -1.875 C 4.921875 -2.640625 4.53125 -3.203125 3.75 -3.578125 Z M 2.640625 -6.046875 C 3.359375 -6.046875 3.8125 -5.625 3.8125 -4.96875 C 3.8125 -4.34375 3.34375 -3.921875 2.640625 -3.921875 C 1.921875 -3.921875 1.453125 -4.34375 1.453125 -4.984375 C 1.453125 -5.625 1.921875 -6.046875 2.640625 -6.046875 Z M 2.640625 -3.203125 C 3.484375 -3.203125 4.0625 -2.671875 4.0625 -1.875 C 4.0625 -1.0625 3.484375 -0.53125 2.625 -0.53125 C 1.796875 -0.53125 1.21875 -1.078125 1.21875 -1.875 C 1.21875 -2.671875 1.796875 -3.203125 2.640625 -3.203125 Z M 2.640625 -3.203125 "/>
</symbol>
<symbol overflow="visible" id="glyph0-11">
<path style="stroke:none;" d="M 0.515625 -1.546875 C 0.671875 -0.4375 1.40625 0.21875 2.4375 0.21875 C 3.1875 0.21875 3.859375 -0.140625 4.265625 -0.75 C 4.6875 -1.40625 4.890625 -2.25 4.890625 -3.484375 C 4.890625 -4.625 4.703125 -5.359375 4.3125 -5.953125 C 3.9375 -6.5 3.34375 -6.796875 2.59375 -6.796875 C 1.296875 -6.796875 0.359375 -5.84375 0.359375 -4.515625 C 0.359375 -3.25 1.234375 -2.34375 2.453125 -2.34375 C 3.09375 -2.34375 3.5625 -2.578125 4.015625 -3.109375 C 4 -1.453125 3.46875 -0.53125 2.5 -0.53125 C 1.90625 -0.53125 1.484375 -0.90625 1.359375 -1.546875 Z M 2.578125 -6.0625 C 3.375 -6.0625 3.96875 -5.40625 3.96875 -4.53125 C 3.96875 -3.6875 3.375 -3.09375 2.546875 -3.09375 C 1.734375 -3.09375 1.234375 -3.671875 1.234375 -4.578125 C 1.234375 -5.4375 1.796875 -6.0625 2.578125 -6.0625 Z M 2.578125 -6.0625 "/>
</symbol>
<symbol overflow="visible" id="glyph1-0">
<path style="stroke:none;" d=""/>
</symbol>
<symbol overflow="visible" id="glyph1-1">
<path style="stroke:none;" d="M 0 -0.953125 L 0 -4.890625 C 0 -5.71875 -0.234375 -6.34375 -0.734375 -6.796875 C -1.1875 -7.234375 -1.8125 -7.46875 -2.5 -7.46875 C -3.546875 -7.46875 -4.1875 -7 -4.625 -5.875 C -4.984375 -6.671875 -5.640625 -7.09375 -6.53125 -7.09375 C -7.15625 -7.09375 -7.734375 -6.859375 -8.140625 -6.390625 C -8.5625 -5.9375 -8.75 -5.34375 -8.75 -4.5 L -8.75 -0.953125 Z M -4.984375 -2.0625 L -7.765625 -2.0625 L -7.765625 -4.21875 C -7.765625 -4.84375 -7.6875 -5.203125 -7.453125 -5.5 C -7.21875 -5.8125 -6.859375 -5.96875 -6.375 -5.96875 C -5.90625 -5.96875 -5.53125 -5.8125 -5.296875 -5.5 C -5.0625 -5.203125 -4.984375 -4.84375 -4.984375 -4.21875 Z M -0.984375 -2.0625 L -4 -2.0625 L -4 -4.78125 C -4 -5.328125 -3.859375 -5.6875 -3.578125 -5.953125 C -3.296875 -6.21875 -2.921875 -6.359375 -2.484375 -6.359375 C -2.0625 -6.359375 -1.6875 -6.21875 -1.40625 -5.953125 C -1.109375 -5.6875 -0.984375 -5.328125 -0.984375 -4.78125 Z M -0.984375 -2.0625 "/>
</symbol>
<symbol overflow="visible" id="glyph1-2">
<path style="stroke:none;" d="M -6.28125 -1.796875 L -6.28125 -0.796875 L 0 -0.796875 L 0 -1.796875 Z M -8.75 -1.796875 L -8.75 -0.796875 L -7.484375 -0.796875 L -7.484375 -1.796875 Z M -8.75 -1.796875 "/>
</symbol>
<symbol overflow="visible" id="glyph1-3">
<path style="stroke:none;" d="M -6.28125 -3.046875 L -6.28125 -2.015625 L -8.015625 -2.015625 L -8.015625 -1.015625 L -6.28125 -1.015625 L -6.28125 -0.171875 L -5.46875 -0.171875 L -5.46875 -1.015625 L -0.71875 -1.015625 C -0.078125 -1.015625 0.28125 -1.453125 0.28125 -2.234375 C 0.28125 -2.46875 0.25 -2.71875 0.1875 -3.046875 L -0.640625 -3.046875 C -0.609375 -2.921875 -0.59375 -2.765625 -0.59375 -2.5625 C -0.59375 -2.140625 -0.71875 -2.015625 -1.15625 -2.015625 L -5.46875 -2.015625 L -5.46875 -3.046875 Z M -6.28125 -3.046875 "/>
</symbol>
<symbol overflow="visible" id="glyph1-4">
<path style="stroke:none;" d="M -4.53125 -5.25 C -5.765625 -5.25 -6.46875 -4.421875 -6.46875 -2.96875 C -6.46875 -1.515625 -5.71875 -0.5625 -4.546875 -0.5625 C -3.5625 -0.5625 -3.09375 -1.0625 -2.734375 -2.5625 L -2.515625 -3.484375 C -2.34375 -4.1875 -2.09375 -4.46875 -1.625 -4.46875 C -1.046875 -4.46875 -0.640625 -3.875 -0.640625 -3 C -0.640625 -2.453125 -0.796875 -2 -1.0625 -1.75 C -1.25 -1.59375 -1.421875 -1.53125 -1.875 -1.46875 L -1.875 -0.40625 C -0.421875 -0.453125 0.28125 -1.265625 0.28125 -2.921875 C 0.28125 -4.5 -0.5 -5.515625 -1.71875 -5.515625 C -2.65625 -5.515625 -3.171875 -4.984375 -3.46875 -3.734375 L -3.703125 -2.765625 C -3.890625 -1.953125 -4.15625 -1.609375 -4.59375 -1.609375 C -5.171875 -1.609375 -5.546875 -2.125 -5.546875 -2.9375 C -5.546875 -3.75 -5.203125 -4.171875 -4.53125 -4.203125 Z M -4.53125 -5.25 "/>
</symbol>
</g>
</defs>
<g id="surface13144">
<rect x="0" y="0" width="720" height="360" style="fill:rgb(100%,100%,100%);fill-opacity:1;stroke:none;"/>
<path style=" stroke:none;fill-rule:nonzero;fill:rgb(6.27451%,58.823529%,28.235294%);fill-opacity:1;" d="M 69.628906 283.382812 L 69.675781 283.289062 L 89.15625 186.804688 L 95.074219 186.804688 L 114.648438 283.472656 L 107.773438 283.472656 L 102.867188 258.238281 L 81.367188 258.238281 L 76.554688 283.382812 L 69.628906 283.382812 L 83.433594 247.800781 L 100.894531 247.710938 L 92.1875 202.597656 L 92.089844 202.507812 L 91.996094 202.78125 L 83.386719 247.710938 L 83.433594 247.800781 Z M 69.628906 283.382812 "/>
<path style=" stroke:none;fill-rule:nonzero;fill:rgb(14.509804%,36.078431%,60%);fill-opacity:1;" d="M 69.628906 312.855469 L 69.683594 312.851562 L 69.683594 312.792969 L 69.847656 312.699219 L 70.234375 312.582031 L 70.617188 312.503906 L 71.605469 312.355469 L 72.976562 312.21875 L 74.40625 312.109375 L 75.449219 312.046875 L 76.382812 311.996094 L 78.523438 311.90625 L 79.894531 311.859375 L 81.378906 311.816406 L 83.191406 311.777344 L 84.507812 311.75 L 87.472656 311.710938 L 89.667969 311.695312 L 91.371094 311.6875 L 95.050781 311.6875 L 97.246094 311.699219 L 98.839844 311.710938 L 100.59375 311.730469 L 102.078125 311.75 L 104.65625 311.804688 L 106.964844 311.875 L 108.007812 311.914062 L 109.652344 311.988281 L 110.917969 312.0625 L 111.796875 312.125 L 112.785156 312.21875 L 113.660156 312.328125 L 114.320312 312.453125 L 114.648438 312.558594 L 106.964844 312.558594 L 106.578125 312.460938 L 106.140625 312.382812 L 105.316406 312.285156 L 104.492188 312.210938 L 103.339844 312.140625 L 102.296875 312.09375 L 100.871094 312.046875 L 99.605469 312.019531 L 98.289062 311.996094 L 97.027344 311.980469 L 94.609375 311.96875 L 91.808594 311.96875 L 90.765625 311.972656 L 88.625 311.992188 L 87.472656 312.007812 L 85.824219 312.042969 L 84.671875 312.074219 L 83.300781 312.125 L 82.367188 312.167969 L 81.214844 312.230469 L 80.390625 312.285156 L 79.457031 312.367188 L 78.90625 312.429688 L 78.414062 312.496094 L 77.976562 312.578125 L 77.644531 312.664062 L 77.425781 312.753906 L 77.316406 312.84375 L 77.316406 313.222656 L 77.425781 313.3125 L 77.699219 313.414062 L 78.414062 313.5625 L 79.457031 313.695312 L 80.664062 313.796875 L 81.816406 313.871094 L 82.476562 313.90625 L 83.355469 313.945312 L 84.726562 313.992188 L 86.703125 314.042969 L 87.855469 314.0625 L 89.613281 314.082031 L 91.425781 314.089844 L 93.84375 314.089844 L 95.984375 314.082031 L 97.410156 314.070312 L 98.894531 314.050781 L 100.925781 314.007812 L 102.1875 313.96875 L 103.285156 313.921875 L 104.109375 313.875 L 104.65625 313.835938 L 105.480469 313.761719 L 106.140625 313.675781 L 106.632812 313.589844 L 106.964844 313.507812 L 114.648438 313.507812 L 114.320312 313.605469 L 113.828125 313.703125 L 113.332031 313.773438 L 112.5625 313.859375 L 111.6875 313.933594 L 110.421875 314.019531 L 109.378906 314.078125 L 108.007812 314.136719 L 106.746094 314.183594 L 105.371094 314.226562 L 103.339844 314.273438 L 102.023438 314.300781 L 100.59375 314.320312 L 98.894531 314.339844 L 96.75 314.359375 L 94.445312 314.367188 L 92.304688 314.371094 L 90 314.367188 L 88.296875 314.355469 L 86.046875 314.332031 L 83.246094 314.289062 L 81.214844 314.242188 L 79.621094 314.195312 L 78.25 314.148438 L 76.710938 314.082031 L 74.734375 313.972656 L 73.527344 313.890625 L 72.703125 313.820312 L 71.769531 313.726562 L 71.113281 313.640625 L 70.34375 313.503906 L 69.792969 313.328125 L 69.628906 313.195312 Z M 69.628906 312.855469 "/>
<path style=" stroke:none;fill-rule:nonzero;fill:rgb(96.862745%,70.196078%,16.862745%);fill-opacity:1;" d="M 69.628906 291.316406 L 69.683594 291.300781 L 69.683594 291.015625 L 69.902344 290.378906 L 70.453125 289.496094 L 71.167969 288.773438 L 71.933594 288.203125 L 72.429688 287.90625 L 73.253906 287.480469 L 73.964844 287.167969 L 75.777344 286.527344 L 78.085938 285.929688 L 79.347656 285.675781 L 80.773438 285.433594 L 82.804688 285.164062 L 83.738281 285.0625 L 86.59375 284.835938 L 89.832031 284.695312 L 93.402344 284.652344 L 95.050781 284.664062 L 97.300781 284.722656 L 100.375 284.878906 L 102.132812 285.019531 L 103.503906 285.164062 L 104.933594 285.347656 L 106.6875 285.632812 L 108.335938 285.972656 L 109.652344 286.3125 L 110.972656 286.738281 L 112.070312 287.195312 L 113.003906 287.691406 L 113.828125 288.289062 L 114.320312 288.785156 L 114.648438 289.285156 L 107.019531 289.285156 L 106.578125 288.785156 L 106.085938 288.402344 L 105.261719 287.933594 L 104.4375 287.59375 L 103.613281 287.324219 L 102.078125 286.953125 L 100.757812 286.726562 L 99.113281 286.527344 L 97.519531 286.398438 L 95.707031 286.3125 L 94.609375 286.285156 L 91.699219 286.285156 L 89.066406 286.386719 L 87.527344 286.5 L 86.429688 286.613281 L 84.890625 286.824219 L 83.960938 286.996094 L 83.410156 287.109375 L 81.761719 287.550781 L 80.664062 287.949219 L 80.0625 288.21875 L 79.292969 288.644531 L 78.742188 289.027344 L 78.140625 289.597656 L 77.808594 290.023438 L 77.371094 290.988281 L 77.316406 293.546875 L 77.480469 294.085938 L 77.808594 294.667969 L 78.25 295.179688 L 78.90625 295.71875 L 79.566406 296.132812 L 80.71875 296.683594 L 81.707031 297.054688 L 82.476562 297.296875 L 83.960938 297.679688 L 84.5625 297.808594 L 85.992188 298.0625 L 87.472656 298.261719 L 89.285156 298.433594 L 90.65625 298.519531 L 92.855469 298.589844 L 95.652344 298.589844 L 98.949219 298.503906 L 101.035156 298.390625 L 102.460938 298.277344 L 103.394531 298.175781 L 104.546875 298.019531 L 105.371094 297.878906 L 106.140625 297.722656 L 107.074219 297.480469 L 107.074219 294.085938 L 93.511719 294.070312 L 93.511719 292.480469 L 114.59375 292.464844 L 114.648438 298.019531 L 113.496094 298.40625 L 112.070312 298.773438 L 110.699219 299.058594 L 109.269531 299.300781 L 107.238281 299.570312 L 105.589844 299.738281 L 103.066406 299.9375 L 100.757812 300.066406 L 98.34375 300.152344 L 96.203125 300.195312 L 93.675781 300.207031 L 91.425781 300.179688 L 89.011719 300.09375 L 87.089844 299.980469 L 85.332031 299.839844 L 83.574219 299.65625 L 81.378906 299.355469 L 79.953125 299.113281 L 78.46875 298.816406 L 76.988281 298.460938 L 75.667969 298.078125 L 74.789062 297.78125 L 73.910156 297.4375 L 72.976562 297.011719 L 72.101562 296.527344 L 71.441406 296.089844 L 70.835938 295.589844 L 70.398438 295.121094 L 69.957031 294.484375 L 69.738281 293.972656 L 69.628906 293.53125 Z M 69.628906 291.316406 "/>
<path style=" stroke:none;fill-rule:nonzero;fill:rgb(83.921569%,15.686275%,22.352941%);fill-opacity:1;" d="M 69.628906 301.386719 L 114.648438 301.386719 L 114.648438 302.363281 L 95.886719 302.375 L 95.886719 310.507812 L 88.339844 310.507812 L 88.339844 302.382812 L 88.230469 302.363281 L 69.628906 302.363281 Z M 69.628906 301.386719 "/>
<path style=" stroke:none;fill-rule:nonzero;fill:rgb(6.27451%,58.823529%,28.235294%);fill-opacity:1;" d="M 117.019531 284.980469 L 117.066406 284.8125 L 136.546875 106.804688 L 142.464844 106.804688 L 162.039062 285.144531 L 155.164062 285.144531 L 150.257812 238.59375 L 128.757812 238.59375 L 123.945312 284.980469 L 117.019531 284.980469 L 130.824219 219.335938 L 148.285156 219.167969 L 139.578125 135.941406 L 139.480469 135.773438 L 139.386719 136.277344 L 130.777344 219.167969 L 130.824219 219.335938 Z M 117.019531 284.980469 "/>
<path style=" stroke:none;fill-rule:nonzero;fill:rgb(83.921569%,15.686275%,22.352941%);fill-opacity:1;" d="M 117.019531 286.324219 L 162.039062 286.324219 L 162.039062 289.328125 L 143.277344 289.355469 L 143.277344 314.371094 L 135.730469 314.371094 L 135.730469 289.378906 L 135.617188 289.328125 L 117.019531 289.328125 Z M 117.019531 286.324219 "/>
<path style=" stroke:none;fill-rule:nonzero;fill:rgb(14.509804%,36.078431%,60%);fill-opacity:1;" d="M 164.410156 313.4375 L 164.464844 313.4375 L 164.464844 313.402344 L 164.628906 313.34375 L 165.015625 313.269531 L 165.398438 313.222656 L 166.386719 313.132812 L 167.757812 313.046875 L 169.1875 312.980469 L 170.230469 312.941406 L 171.164062 312.910156 L 173.304688 312.855469 L 174.675781 312.824219 L 176.160156 312.800781 L 177.972656 312.773438 L 179.289062 312.757812 L 182.253906 312.734375 L 184.449219 312.726562 L 186.152344 312.71875 L 189.832031 312.71875 L 192.027344 312.726562 L 193.621094 312.734375 L 195.375 312.746094 L 196.859375 312.757812 L 199.4375 312.792969 L 201.746094 312.835938 L 202.789062 312.859375 L 204.433594 312.90625 L 205.699219 312.953125 L 206.578125 312.992188 L 207.566406 313.046875 L 208.441406 313.113281 L 209.101562 313.191406 L 209.429688 313.257812 L 201.746094 313.257812 L 201.359375 313.195312 L 200.921875 313.148438 L 200.097656 313.085938 L 199.273438 313.042969 L 198.121094 313 L 197.078125 312.972656 L 195.652344 312.941406 L 194.386719 312.925781 L 193.070312 312.910156 L 191.808594 312.902344 L 189.390625 312.890625 L 186.589844 312.890625 L 185.546875 312.894531 L 183.40625 312.90625 L 182.253906 312.917969 L 180.605469 312.9375 L 179.453125 312.957031 L 178.082031 312.988281 L 177.148438 313.015625 L 175.996094 313.054688 L 175.171875 313.089844 L 174.238281 313.136719 L 173.6875 313.175781 L 173.195312 313.21875 L 172.753906 313.269531 L 172.425781 313.320312 L 172.207031 313.375 L 172.097656 313.429688 L 172.097656 313.664062 L 172.207031 313.71875 L 172.480469 313.78125 L 173.195312 313.875 L 174.238281 313.953125 L 175.445312 314.019531 L 176.597656 314.0625 L 177.257812 314.085938 L 178.136719 314.109375 L 179.507812 314.136719 L 181.484375 314.167969 L 182.636719 314.179688 L 184.394531 314.191406 L 186.207031 314.199219 L 188.621094 314.199219 L 190.765625 314.191406 L 192.191406 314.183594 L 193.675781 314.171875 L 195.707031 314.148438 L 196.96875 314.125 L 198.066406 314.09375 L 198.890625 314.066406 L 199.4375 314.042969 L 200.261719 313.996094 L 200.921875 313.945312 L 201.414062 313.890625 L 201.746094 313.839844 L 209.429688 313.839844 L 209.101562 313.898438 L 208.609375 313.957031 L 208.113281 314.003906 L 207.34375 314.054688 L 206.464844 314.101562 L 205.203125 314.15625 L 204.160156 314.191406 L 202.789062 314.226562 L 201.523438 314.257812 L 200.152344 314.28125 L 198.121094 314.3125 L 196.804688 314.328125 L 195.375 314.339844 L 193.675781 314.351562 L 191.53125 314.363281 L 189.226562 314.371094 L 187.085938 314.371094 L 184.78125 314.367188 L 183.078125 314.363281 L 180.828125 314.347656 L 178.027344 314.320312 L 175.996094 314.292969 L 174.402344 314.261719 L 173.03125 314.234375 L 171.492188 314.191406 L 169.515625 314.125 L 168.308594 314.074219 L 167.484375 314.03125 L 166.550781 313.972656 L 165.894531 313.921875 L 165.125 313.835938 L 164.574219 313.730469 L 164.410156 313.648438 Z M 164.410156 313.4375 "/>
<path style=" stroke:none;fill-rule:nonzero;fill:rgb(83.921569%,15.686275%,22.352941%);fill-opacity:1;" d="M 164.410156 32.574219 L 209.429688 32.574219 L 209.429688 62.4375 L 190.667969 62.699219 L 190.667969 311.539062 L 183.117188 311.539062 L 183.117188 62.960938 L 183.007812 62.4375 L 164.410156 62.4375 Z M 164.410156 32.574219 "/>
<path style=" stroke:none;fill-rule:nonzero;fill:rgb(96.862745%,70.196078%,16.862745%);fill-opacity:1;" d="M 211.800781 146.460938 L 211.855469 146.191406 L 211.855469 140.828125 L 212.074219 128.757812 L 212.625 112.128906 L 213.339844 98.449219 L 214.105469 87.71875 L 214.601562 82.085938 L 215.425781 74.039062 L 216.136719 68.140625 L 217.949219 56.070312 L 220.257812 44.804688 L 221.519531 39.976562 L 222.945312 35.414062 L 224.976562 30.320312 L 225.910156 28.441406 L 228.765625 24.148438 L 232.003906 21.46875 L 235.574219 20.664062 L 237.222656 20.929688 L 239.472656 22.003906 L 242.546875 24.953125 L 244.304688 27.636719 L 245.675781 30.320312 L 247.105469 33.804688 L 248.859375 39.171875 L 250.507812 45.609375 L 251.824219 52.046875 L 253.144531 60.09375 L 254.242188 68.675781 L 255.175781 78.0625 L 256 89.328125 L 256.492188 98.714844 L 256.820312 108.105469 L 249.191406 108.105469 L 248.75 98.714844 L 248.257812 91.476562 L 247.433594 82.625 L 246.609375 76.1875 L 245.785156 71.089844 L 244.25 64.117188 L 242.929688 59.824219 L 241.285156 56.070312 L 239.691406 53.65625 L 237.878906 52.046875 L 236.78125 51.507812 L 233.871094 51.507812 L 231.238281 53.386719 L 229.699219 55.53125 L 228.601562 57.679688 L 227.0625 61.703125 L 226.132812 64.921875 L 225.582031 67.066406 L 223.933594 75.382812 L 222.835938 82.890625 L 222.234375 87.988281 L 221.464844 96.035156 L 220.914062 103.277344 L 220.3125 114.003906 L 219.980469 122.050781 L 219.542969 140.292969 L 219.488281 188.574219 L 219.652344 198.765625 L 219.980469 209.761719 L 220.421875 219.417969 L 221.078125 229.609375 L 221.738281 237.390625 L 222.890625 247.851562 L 223.878906 254.824219 L 224.648438 259.382812 L 226.132812 266.625 L 226.734375 269.039062 L 228.164062 273.867188 L 229.644531 277.625 L 231.457031 280.84375 L 232.828125 282.453125 L 235.023438 283.792969 L 237.824219 283.792969 L 241.121094 282.183594 L 243.207031 280.039062 L 244.632812 277.890625 L 245.566406 276.015625 L 246.71875 273.0625 L 247.542969 270.382812 L 248.3125 267.429688 L 249.246094 262.871094 L 249.246094 198.765625 L 235.683594 198.496094 L 235.683594 168.457031 L 256.765625 168.1875 L 256.820312 273.0625 L 255.667969 280.304688 L 254.242188 287.28125 L 252.867188 292.644531 L 251.441406 297.203125 L 249.410156 302.300781 L 247.761719 305.519531 L 245.238281 309.273438 L 242.929688 311.6875 L 240.515625 313.296875 L 238.375 314.101562 L 235.847656 314.371094 L 233.597656 313.835938 L 231.183594 312.226562 L 229.261719 310.078125 L 227.503906 307.398438 L 225.746094 303.910156 L 223.550781 298.277344 L 222.121094 293.71875 L 220.640625 288.085938 L 219.15625 281.378906 L 217.839844 274.136719 L 216.960938 268.503906 L 216.082031 262.066406 L 215.148438 254.019531 L 214.273438 244.898438 L 213.613281 236.585938 L 213.007812 227.195312 L 212.570312 218.34375 L 212.128906 206.277344 L 211.910156 196.621094 L 211.800781 188.304688 Z M 211.800781 146.460938 "/>
<path style=" stroke:none;fill-rule:nonzero;fill:rgb(83.921569%,15.686275%,22.352941%);fill-opacity:1;" d="M 259.191406 20.664062 L 304.210938 20.664062 L 304.210938 52.101562 L 285.449219 52.378906 L 285.449219 314.371094 L 277.898438 314.371094 L 277.898438 52.652344 L 277.789062 52.101562 L 259.191406 52.101562 Z M 259.191406 20.664062 "/>
<path style=" stroke:none;fill-rule:nonzero;fill:rgb(83.921569%,15.686275%,22.352941%);fill-opacity:1;" d="M 306.582031 20.664062 L 351.601562 20.664062 L 351.601562 52.101562 L 332.839844 52.378906 L 332.839844 314.371094 L 325.289062 314.371094 L 325.289062 52.652344 L 325.179688 52.101562 L 306.582031 52.101562 Z M 306.582031 20.664062 "/>
<path style=" stroke:none;fill-rule:nonzero;fill:rgb(96.862745%,70.196078%,16.862745%);fill-opacity:1;" d="M 353.972656 146.460938 L 354.027344 146.191406 L 354.027344 140.828125 L 354.246094 128.757812 L 354.796875 112.128906 L 355.511719 98.449219 L 356.277344 87.71875 L 356.773438 82.085938 L 357.597656 74.039062 L 358.308594 68.140625 L 360.121094 56.070312 L 362.429688 44.804688 L 363.691406 39.976562 L 365.117188 35.414062 L 367.148438 30.320312 L 368.082031 28.441406 L 370.9375 24.148438 L 374.175781 21.46875 L 377.746094 20.664062 L 379.394531 20.929688 L 381.644531 22.003906 L 384.71875 24.953125 L 386.476562 27.636719 L 387.847656 30.320312 L 389.277344 33.804688 L 391.03125 39.171875 L 392.679688 45.609375 L 393.996094 52.046875 L 395.316406 60.09375 L 396.414062 68.675781 L 397.347656 78.0625 L 398.171875 89.328125 L 398.664062 98.714844 L 398.992188 108.105469 L 391.363281 108.105469 L 390.921875 98.714844 L 390.429688 91.476562 L 389.605469 82.625 L 388.78125 76.1875 L 387.957031 71.089844 L 386.421875 64.117188 L 385.101562 59.824219 L 383.457031 56.070312 L 381.863281 53.65625 L 380.050781 52.046875 L 378.953125 51.507812 L 376.042969 51.507812 L 373.410156 53.386719 L 371.871094 55.53125 L 370.773438 57.679688 L 369.234375 61.703125 L 368.300781 64.921875 L 367.753906 67.066406 L 366.105469 75.382812 L 365.007812 82.890625 L 364.40625 87.988281 L 363.636719 96.035156 L 363.085938 103.277344 L 362.484375 114.003906 L 362.152344 122.050781 L 361.714844 140.292969 L 361.660156 188.574219 L 361.824219 198.765625 L 362.152344 209.761719 L 362.59375 219.417969 L 363.25 229.609375 L 363.910156 237.390625 L 365.0625 247.851562 L 366.050781 254.824219 L 366.820312 259.382812 L 368.300781 266.625 L 368.90625 269.039062 L 370.332031 273.867188 L 371.816406 277.625 L 373.628906 280.84375 L 375 282.453125 L 377.195312 283.792969 L 379.996094 283.792969 L 383.292969 282.183594 L 385.378906 280.039062 L 386.804688 277.890625 L 387.738281 276.015625 L 388.890625 273.0625 L 389.714844 270.382812 L 390.484375 267.429688 L 391.417969 262.871094 L 391.417969 198.765625 L 377.855469 198.496094 L 377.855469 168.457031 L 398.9375 168.1875 L 398.992188 273.0625 L 397.839844 280.304688 L 396.414062 287.28125 L 395.039062 292.644531 L 393.613281 297.203125 L 391.582031 302.300781 L 389.933594 305.519531 L 387.410156 309.273438 L 385.101562 311.6875 L 382.6875 313.296875 L 380.546875 314.101562 L 378.019531 314.371094 L 375.769531 313.835938 L 373.355469 312.226562 L 371.433594 310.078125 L 369.675781 307.398438 L 367.917969 303.910156 L 365.722656 298.277344 L 364.292969 293.71875 L 362.8125 288.085938 L 361.328125 281.378906 L 360.011719 274.136719 L 359.132812 268.503906 L 358.253906 262.066406 L 357.320312 254.019531 L 356.441406 244.898438 L 355.785156 236.585938 L 355.179688 227.195312 L 354.742188 218.34375 L 354.300781 206.277344 L 354.082031 196.621094 L 353.972656 188.304688 Z M 353.972656 146.460938 "/>
<path style=" stroke:none;fill-rule:nonzero;fill:rgb(14.509804%,36.078431%,60%);fill-opacity:1;" d="M 401.363281 148.457031 L 401.417969 148.1875 L 401.417969 141.742188 L 401.582031 131.542969 L 401.96875 118.65625 L 402.351562 109.796875 L 403.339844 93.957031 L 404.710938 78.652344 L 406.140625 66.839844 L 407.183594 59.859375 L 408.117188 54.492188 L 410.257812 44.558594 L 411.628906 39.457031 L 413.113281 34.890625 L 414.925781 30.328125 L 416.242188 27.644531 L 419.207031 23.347656 L 421.402344 21.46875 L 423.105469 20.664062 L 426.785156 20.664062 L 428.980469 21.738281 L 430.570312 23.078125 L 432.328125 25.226562 L 433.8125 27.644531 L 436.390625 33.550781 L 438.699219 41.066406 L 439.742188 45.363281 L 441.386719 53.683594 L 442.652344 61.738281 L 443.527344 68.71875 L 444.515625 78.652344 L 445.394531 90.734375 L 446.054688 104.425781 L 446.382812 115.96875 L 438.699219 115.96875 L 438.3125 105.230469 L 437.875 96.910156 L 437.050781 85.902344 L 436.226562 78.117188 L 435.074219 70.332031 L 434.03125 65.230469 L 432.601562 60.128906 L 431.339844 56.90625 L 430.023438 54.492188 L 428.761719 52.878906 L 426.34375 51.269531 L 423.542969 51.269531 L 422.5 51.804688 L 420.359375 53.953125 L 419.207031 55.832031 L 417.558594 59.589844 L 416.40625 63.082031 L 415.035156 68.449219 L 414.101562 73.015625 L 412.949219 79.996094 L 412.125 86.171875 L 411.191406 95.03125 L 410.640625 101.742188 L 410.148438 109.257812 L 409.707031 118.117188 L 409.378906 127.515625 L 409.160156 137.449219 L 409.050781 147.113281 L 409.050781 188.726562 L 409.160156 198.390625 L 409.433594 209.667969 L 410.148438 226.042969 L 411.191406 240.273438 L 412.398438 251.546875 L 413.550781 259.601562 L 414.210938 263.359375 L 415.089844 267.65625 L 416.460938 273.027344 L 418.4375 278.394531 L 419.589844 280.542969 L 421.347656 282.691406 L 423.160156 283.765625 L 425.574219 283.765625 L 427.71875 282.691406 L 429.144531 281.347656 L 430.625 279.199219 L 432.660156 274.636719 L 433.921875 270.339844 L 435.019531 265.242188 L 435.84375 260.140625 L 436.390625 255.84375 L 437.214844 247.519531 L 437.875 238.394531 L 438.367188 228.996094 L 438.699219 219.867188 L 446.382812 219.867188 L 446.054688 230.609375 L 445.5625 241.078125 L 445.066406 248.863281 L 444.296875 258.261719 L 443.417969 266.582031 L 442.15625 275.980469 L 441.113281 282.152344 L 439.742188 288.867188 L 438.476562 293.96875 L 437.105469 298.53125 L 435.074219 303.898438 L 433.757812 306.585938 L 432.328125 309 L 430.625 311.148438 L 428.484375 313.027344 L 426.179688 314.101562 L 424.039062 314.371094 L 421.734375 313.832031 L 420.03125 312.761719 L 417.78125 310.34375 L 414.980469 305.511719 L 412.949219 300.410156 L 411.355469 295.308594 L 409.984375 289.941406 L 408.445312 282.691406 L 406.46875 270.878906 L 405.261719 261.75 L 404.4375 254.234375 L 403.503906 243.761719 L 402.84375 234.367188 L 402.078125 219.332031 L 401.527344 200.269531 L 401.363281 185.503906 Z M 401.363281 148.457031 "/>
<path style=" stroke:none;fill-rule:nonzero;fill:rgb(6.27451%,58.823529%,28.235294%);fill-opacity:1;" d="M 448.753906 313.3125 L 448.800781 313.300781 L 468.28125 300.921875 L 474.199219 300.921875 L 493.773438 313.324219 L 486.898438 313.324219 L 481.992188 310.089844 L 460.488281 310.089844 L 455.679688 313.3125 L 448.753906 313.3125 L 462.558594 308.75 L 480.019531 308.738281 L 471.3125 302.949219 L 471.214844 302.9375 L 471.121094 302.972656 L 462.511719 308.738281 L 462.558594 308.75 Z M 448.753906 313.3125 "/>
<path style=" stroke:none;fill-rule:nonzero;fill:rgb(14.509804%,36.078431%,60%);fill-opacity:1;" d="M 448.753906 289.195312 L 448.808594 289.179688 L 448.808594 288.769531 L 448.972656 288.121094 L 449.359375 287.300781 L 449.742188 286.738281 L 450.730469 285.730469 L 452.101562 284.757812 L 453.53125 284.007812 L 454.574219 283.566406 L 455.507812 283.222656 L 457.648438 282.59375 L 459.019531 282.269531 L 460.503906 281.976562 L 462.316406 281.6875 L 463.632812 281.515625 L 466.597656 281.242188 L 468.792969 281.125 L 470.496094 281.074219 L 474.175781 281.074219 L 476.371094 281.140625 L 477.960938 281.226562 L 479.71875 281.363281 L 481.203125 281.515625 L 483.78125 281.890625 L 486.089844 282.371094 L 487.132812 282.644531 L 488.777344 283.171875 L 490.042969 283.683594 L 490.917969 284.128906 L 491.90625 284.757812 L 492.785156 285.527344 L 493.445312 286.398438 L 493.773438 287.132812 L 486.089844 287.132812 L 485.703125 286.449219 L 485.265625 285.917969 L 484.441406 285.21875 L 483.617188 284.726562 L 482.464844 284.230469 L 481.421875 283.90625 L 479.992188 283.582031 L 478.730469 283.375 L 477.414062 283.222656 L 476.152344 283.121094 L 473.734375 283.019531 L 470.933594 283.019531 L 469.890625 283.050781 L 467.75 283.1875 L 466.597656 283.308594 L 464.949219 283.546875 L 463.796875 283.769531 L 462.425781 284.109375 L 461.492188 284.402344 L 460.339844 284.84375 L 459.515625 285.238281 L 458.582031 285.800781 L 458.03125 286.226562 L 457.539062 286.703125 L 457.097656 287.269531 L 456.769531 287.867188 L 456.550781 288.496094 L 456.441406 289.113281 L 456.441406 291.757812 L 456.550781 292.371094 L 456.824219 293.089844 L 457.539062 294.128906 L 458.582031 295.035156 L 459.789062 295.75 L 460.941406 296.261719 L 461.601562 296.5 L 462.480469 296.773438 L 463.851562 297.117188 L 465.828125 297.457031 L 466.980469 297.59375 L 468.738281 297.730469 L 470.550781 297.796875 L 472.964844 297.796875 L 475.109375 297.730469 L 476.535156 297.644531 L 478.015625 297.507812 L 480.050781 297.21875 L 481.3125 296.945312 L 482.410156 296.621094 L 483.234375 296.296875 L 483.78125 296.023438 L 484.605469 295.496094 L 485.265625 294.914062 L 485.757812 294.316406 L 486.089844 293.738281 L 493.773438 293.738281 L 493.445312 294.417969 L 492.953125 295.085938 L 492.457031 295.578125 L 491.6875 296.175781 L 490.808594 296.707031 L 489.546875 297.304688 L 488.503906 297.695312 L 487.132812 298.121094 L 485.867188 298.445312 L 484.496094 298.738281 L 482.464844 299.078125 L 481.148438 299.25 L 479.71875 299.402344 L 478.015625 299.539062 L 475.875 299.660156 L 473.570312 299.726562 L 471.429688 299.742188 L 469.125 299.710938 L 467.421875 299.640625 L 465.171875 299.488281 L 462.371094 299.179688 L 460.339844 298.855469 L 458.746094 298.53125 L 457.375 298.191406 L 455.835938 297.730469 L 453.859375 296.980469 L 452.652344 296.398438 L 451.828125 295.921875 L 450.894531 295.253906 L 450.234375 294.65625 L 449.46875 293.703125 L 448.917969 292.492188 L 448.753906 291.550781 Z M 448.753906 289.195312 "/>
<path style=" stroke:none;fill-rule:nonzero;fill:rgb(96.862745%,70.196078%,16.862745%);fill-opacity:1;" d="M 448.753906 240.550781 L 448.808594 240.488281 L 448.808594 239.230469 L 449.027344 236.402344 L 449.578125 232.503906 L 450.292969 229.300781 L 451.058594 226.785156 L 451.554688 225.464844 L 452.378906 223.582031 L 453.089844 222.199219 L 454.902344 219.371094 L 457.207031 216.730469 L 458.472656 215.597656 L 459.898438 214.53125 L 461.929688 213.335938 L 462.863281 212.894531 L 465.71875 211.890625 L 468.957031 211.261719 L 472.527344 211.074219 L 474.175781 211.136719 L 476.425781 211.386719 L 479.5 212.078125 L 481.257812 212.707031 L 482.628906 213.335938 L 484.058594 214.152344 L 485.8125 215.410156 L 487.460938 216.917969 L 488.777344 218.425781 L 490.097656 220.3125 L 491.195312 222.324219 L 492.128906 224.523438 L 492.953125 227.164062 L 493.445312 229.363281 L 493.773438 231.5625 L 486.144531 231.5625 L 485.703125 229.363281 L 485.210938 227.664062 L 484.386719 225.589844 L 483.5625 224.082031 L 482.738281 222.890625 L 481.203125 221.253906 L 479.882812 220.25 L 478.238281 219.371094 L 476.644531 218.804688 L 474.832031 218.425781 L 473.734375 218.300781 L 470.824219 218.300781 L 468.191406 218.742188 L 466.652344 219.242188 L 465.554688 219.746094 L 464.015625 220.691406 L 463.082031 221.445312 L 462.535156 221.945312 L 460.886719 223.894531 L 459.789062 225.65625 L 459.183594 226.847656 L 458.417969 228.734375 L 457.867188 230.429688 L 457.265625 232.945312 L 456.933594 234.832031 L 456.496094 239.105469 L 456.441406 250.417969 L 456.605469 252.804688 L 456.933594 255.382812 L 457.375 257.644531 L 458.03125 260.03125 L 458.691406 261.855469 L 459.84375 264.308594 L 460.832031 265.941406 L 461.601562 267.007812 L 463.082031 268.707031 L 463.6875 269.273438 L 465.113281 270.402344 L 466.597656 271.28125 L 468.410156 272.039062 L 469.78125 272.414062 L 471.976562 272.730469 L 474.777344 272.730469 L 478.074219 272.351562 L 480.160156 271.847656 L 481.585938 271.347656 L 482.519531 270.90625 L 483.671875 270.214844 L 484.496094 269.585938 L 485.265625 268.894531 L 486.199219 267.828125 L 486.199219 252.804688 L 472.636719 252.742188 L 472.636719 245.703125 L 493.71875 245.640625 L 493.773438 270.214844 L 492.621094 271.910156 L 491.195312 273.546875 L 489.820312 274.800781 L 488.394531 275.871094 L 486.363281 277.066406 L 484.714844 277.820312 L 482.191406 278.699219 L 479.882812 279.265625 L 477.46875 279.640625 L 475.328125 279.832031 L 472.800781 279.894531 L 470.550781 279.769531 L 468.136719 279.390625 L 466.214844 278.886719 L 464.457031 278.257812 L 462.699219 277.441406 L 460.503906 276.121094 L 459.074219 275.054688 L 457.59375 273.734375 L 456.109375 272.164062 L 454.792969 270.464844 L 453.914062 269.144531 L 453.035156 267.636719 L 452.101562 265.753906 L 451.222656 263.617188 L 450.566406 261.667969 L 449.960938 259.46875 L 449.523438 257.394531 L 449.082031 254.566406 L 448.863281 252.300781 L 448.753906 250.355469 Z M 448.753906 240.550781 "/>
<path style=" stroke:none;fill-rule:nonzero;fill:rgb(6.27451%,58.823529%,28.235294%);fill-opacity:1;" d="M 496.144531 274.414062 L 496.191406 274.351562 L 515.671875 210.554688 L 521.589844 210.554688 L 541.164062 274.472656 L 534.289062 274.472656 L 529.382812 257.789062 L 507.878906 257.789062 L 503.070312 274.414062 L 496.144531 274.414062 L 509.949219 250.886719 L 527.410156 250.824219 L 518.703125 221 L 518.605469 220.9375 L 518.511719 221.117188 L 509.902344 250.824219 L 509.949219 250.886719 Z M 496.144531 274.414062 "/>
<path style=" stroke:none;fill-rule:nonzero;fill:rgb(96.862745%,70.196078%,16.862745%);fill-opacity:1;" d="M 496.144531 308.441406 L 496.199219 308.433594 L 496.199219 308.242188 L 496.417969 307.816406 L 496.96875 307.230469 L 497.683594 306.746094 L 498.449219 306.367188 L 498.945312 306.167969 L 499.769531 305.886719 L 500.480469 305.675781 L 502.292969 305.25 L 504.597656 304.851562 L 505.863281 304.683594 L 507.289062 304.523438 L 509.320312 304.339844 L 510.253906 304.277344 L 513.109375 304.125 L 516.347656 304.027344 L 519.917969 304 L 521.566406 304.011719 L 523.816406 304.046875 L 526.890625 304.152344 L 528.648438 304.246094 L 530.019531 304.339844 L 531.449219 304.464844 L 533.203125 304.652344 L 534.851562 304.882812 L 536.167969 305.109375 L 537.488281 305.394531 L 538.585938 305.695312 L 539.519531 306.027344 L 540.34375 306.425781 L 540.835938 306.757812 L 541.164062 307.089844 L 533.535156 307.089844 L 533.09375 306.757812 L 532.601562 306.5 L 531.777344 306.1875 L 530.953125 305.960938 L 530.128906 305.78125 L 528.59375 305.535156 L 527.273438 305.382812 L 525.628906 305.25 L 524.035156 305.164062 L 522.222656 305.109375 L 521.125 305.089844 L 518.214844 305.089844 L 515.582031 305.15625 L 514.042969 305.230469 L 512.945312 305.308594 L 511.40625 305.449219 L 510.472656 305.5625 L 509.925781 305.640625 L 508.277344 305.933594 L 507.179688 306.199219 L 506.574219 306.378906 L 505.808594 306.660156 L 505.257812 306.917969 L 504.65625 307.296875 L 504.324219 307.582031 L 503.886719 308.222656 L 503.832031 309.929688 L 503.996094 310.289062 L 504.324219 310.675781 L 504.765625 311.019531 L 505.421875 311.378906 L 506.082031 311.652344 L 507.234375 312.023438 L 508.222656 312.269531 L 508.992188 312.429688 L 510.472656 312.683594 L 511.078125 312.769531 L 512.503906 312.941406 L 513.988281 313.074219 L 515.800781 313.1875 L 517.171875 313.242188 L 519.367188 313.292969 L 522.167969 313.292969 L 525.464844 313.234375 L 527.550781 313.160156 L 528.976562 313.082031 L 529.910156 313.015625 L 531.0625 312.914062 L 531.886719 312.816406 L 532.65625 312.714844 L 533.589844 312.550781 L 533.589844 310.289062 L 520.027344 310.28125 L 520.027344 309.21875 L 541.109375 309.210938 L 541.164062 312.914062 L 540.011719 313.167969 L 538.585938 313.414062 L 537.210938 313.605469 L 535.785156 313.765625 L 533.753906 313.945312 L 532.105469 314.058594 L 529.582031 314.191406 L 527.273438 314.277344 L 524.859375 314.332031 L 522.71875 314.359375 L 520.191406 314.371094 L 517.941406 314.351562 L 515.523438 314.292969 L 513.605469 314.21875 L 511.847656 314.125 L 510.089844 314 L 507.894531 313.800781 L 506.464844 313.640625 L 504.984375 313.441406 L 503.5 313.207031 L 502.183594 312.949219 L 501.304688 312.75 L 500.425781 312.523438 L 499.492188 312.238281 L 498.613281 311.917969 L 497.957031 311.625 L 497.351562 311.292969 L 496.914062 310.980469 L 496.472656 310.554688 L 496.253906 310.214844 L 496.144531 309.917969 Z M 496.144531 308.441406 "/>
<path style=" stroke:none;fill-rule:nonzero;fill:rgb(83.921569%,15.686275%,22.352941%);fill-opacity:1;" d="M 496.144531 275.652344 L 541.164062 275.652344 L 541.164062 278.558594 L 522.402344 278.585938 L 522.402344 302.820312 L 514.851562 302.820312 L 514.851562 278.613281 L 514.742188 278.558594 L 496.144531 278.558594 Z M 496.144531 275.652344 "/>
<path style=" stroke:none;fill-rule:nonzero;fill:rgb(6.27451%,58.823529%,28.235294%);fill-opacity:1;" d="M 543.535156 260.113281 L 543.582031 260.0625 L 563.0625 207.132812 L 568.980469 207.132812 L 588.554688 260.160156 L 581.675781 260.160156 L 576.773438 246.320312 L 555.269531 246.320312 L 550.460938 260.113281 L 543.535156 260.113281 L 557.339844 240.59375 L 574.800781 240.542969 L 566.09375 215.796875 L 565.996094 215.746094 L 565.902344 215.894531 L 557.292969 240.542969 L 557.339844 240.59375 Z M 543.535156 260.113281 "/>
<path style=" stroke:none;fill-rule:nonzero;fill:rgb(96.862745%,70.196078%,16.862745%);fill-opacity:1;" d="M 543.535156 311.324219 L 543.589844 311.320312 L 543.589844 311.222656 L 543.808594 311.003906 L 544.359375 310.703125 L 545.070312 310.457031 L 545.839844 310.261719 L 546.335938 310.160156 L 547.160156 310.011719 L 547.871094 309.90625 L 549.683594 309.6875 L 551.988281 309.484375 L 553.253906 309.394531 L 554.679688 309.3125 L 556.710938 309.21875 L 557.644531 309.1875 L 560.5 309.109375 L 563.738281 309.058594 L 567.308594 309.046875 L 568.957031 309.050781 L 571.207031 309.070312 L 574.28125 309.121094 L 576.039062 309.171875 L 577.410156 309.21875 L 578.839844 309.285156 L 580.59375 309.378906 L 582.242188 309.496094 L 583.558594 309.613281 L 584.878906 309.761719 L 585.976562 309.914062 L 586.910156 310.085938 L 587.730469 310.289062 L 588.226562 310.460938 L 588.554688 310.628906 L 580.925781 310.628906 L 580.484375 310.460938 L 579.992188 310.328125 L 579.167969 310.167969 L 578.34375 310.050781 L 577.519531 309.960938 L 575.984375 309.832031 L 574.664062 309.753906 L 573.019531 309.6875 L 571.425781 309.644531 L 569.613281 309.613281 L 568.515625 309.605469 L 565.605469 309.605469 L 562.972656 309.636719 L 561.433594 309.675781 L 560.335938 309.714844 L 558.796875 309.789062 L 557.863281 309.847656 L 557.316406 309.886719 L 555.667969 310.039062 L 554.570312 310.171875 L 553.964844 310.265625 L 553.199219 310.410156 L 552.648438 310.542969 L 552.046875 310.738281 L 551.714844 310.882812 L 551.277344 311.214844 L 551.222656 312.089844 L 551.386719 312.273438 L 551.714844 312.472656 L 552.15625 312.648438 L 552.8125 312.832031 L 553.472656 312.976562 L 554.625 313.164062 L 555.613281 313.289062 L 556.382812 313.375 L 557.863281 313.503906 L 558.46875 313.546875 L 559.894531 313.636719 L 561.378906 313.703125 L 563.191406 313.761719 L 564.5625 313.792969 L 566.757812 313.816406 L 569.558594 313.816406 L 572.851562 313.785156 L 574.941406 313.75 L 576.367188 313.710938 L 577.300781 313.675781 L 578.453125 313.621094 L 579.277344 313.574219 L 580.046875 313.519531 L 580.980469 313.4375 L 580.980469 312.273438 L 567.417969 312.269531 L 567.417969 311.726562 L 588.5 311.71875 L 588.554688 313.621094 L 587.402344 313.753906 L 585.976562 313.878906 L 584.601562 313.976562 L 583.175781 314.058594 L 581.144531 314.152344 L 579.496094 314.210938 L 576.972656 314.277344 L 574.664062 314.320312 L 572.25 314.351562 L 570.109375 314.367188 L 567.582031 314.371094 L 565.332031 314.359375 L 562.914062 314.332031 L 560.996094 314.292969 L 559.238281 314.246094 L 557.480469 314.179688 L 555.285156 314.078125 L 553.855469 313.996094 L 552.375 313.894531 L 550.890625 313.773438 L 549.574219 313.640625 L 548.695312 313.539062 L 547.816406 313.421875 L 546.882812 313.277344 L 546.003906 313.109375 L 545.347656 312.960938 L 544.742188 312.789062 L 544.304688 312.628906 L 543.863281 312.410156 L 543.644531 312.234375 L 543.535156 312.085938 Z M 543.535156 311.324219 "/>
<path style=" stroke:none;fill-rule:nonzero;fill:rgb(83.921569%,15.686275%,22.352941%);fill-opacity:1;" d="M 543.535156 261.339844 L 588.554688 261.339844 L 588.554688 266.320312 L 569.792969 266.363281 L 569.792969 307.867188 L 562.242188 307.867188 L 562.242188 266.410156 L 562.132812 266.320312 L 543.535156 266.320312 Z M 543.535156 261.339844 "/>
<path style=" stroke:none;fill-rule:nonzero;fill:rgb(6.27451%,58.823529%,28.235294%);fill-opacity:1;" d="M 590.925781 309.8125 L 590.972656 309.8125 L 610.453125 307.222656 L 616.371094 307.222656 L 635.945312 309.816406 L 629.066406 309.816406 L 624.164062 309.136719 L 602.660156 309.136719 L 597.851562 309.8125 L 590.925781 309.8125 L 604.730469 308.859375 L 622.191406 308.855469 L 613.484375 307.644531 L 613.386719 307.644531 L 613.292969 307.648438 L 604.683594 308.855469 L 604.730469 308.859375 Z M 590.925781 309.8125 "/>
<path style=" stroke:none;fill-rule:nonzero;fill:rgb(14.509804%,36.078431%,60%);fill-opacity:1;" d="M 590.925781 314.082031 L 590.980469 314.082031 L 590.980469 314.070312 L 591.144531 314.050781 L 591.53125 314.03125 L 591.914062 314.015625 L 592.902344 313.984375 L 594.273438 313.960938 L 595.703125 313.9375 L 596.746094 313.925781 L 597.679688 313.917969 L 599.820312 313.898438 L 601.191406 313.890625 L 602.675781 313.882812 L 604.488281 313.875 L 605.804688 313.871094 L 608.769531 313.863281 L 610.964844 313.859375 L 618.542969 313.859375 L 620.132812 313.863281 L 621.890625 313.867188 L 623.375 313.871094 L 625.953125 313.882812 L 628.261719 313.894531 L 629.304688 313.902344 L 630.949219 313.914062 L 632.214844 313.929688 L 633.089844 313.941406 L 634.078125 313.960938 L 634.957031 313.980469 L 635.617188 314.003906 L 635.945312 314.023438 L 628.261719 314.023438 L 627.875 314.007812 L 627.4375 313.992188 L 626.613281 313.972656 L 625.789062 313.957031 L 624.636719 313.945312 L 623.59375 313.9375 L 622.164062 313.925781 L 620.902344 313.921875 L 619.585938 313.917969 L 618.324219 313.914062 L 615.90625 313.910156 L 613.105469 313.910156 L 612.0625 313.914062 L 609.921875 313.917969 L 608.769531 313.917969 L 607.121094 313.925781 L 605.96875 313.933594 L 604.597656 313.941406 L 603.664062 313.949219 L 602.511719 313.960938 L 601.6875 313.972656 L 600.753906 313.988281 L 600.203125 314 L 599.710938 314.011719 L 599.269531 314.027344 L 598.941406 314.042969 L 598.722656 314.0625 L 598.613281 314.078125 L 598.613281 314.152344 L 598.722656 314.167969 L 598.996094 314.1875 L 599.710938 314.214844 L 600.753906 314.242188 L 601.960938 314.261719 L 603.113281 314.273438 L 603.773438 314.28125 L 604.652344 314.289062 L 606.023438 314.296875 L 608 314.308594 L 609.152344 314.3125 L 610.910156 314.316406 L 617.277344 314.316406 L 618.707031 314.3125 L 620.1875 314.308594 L 622.21875 314.300781 L 623.484375 314.292969 L 624.582031 314.285156 L 625.40625 314.277344 L 625.953125 314.269531 L 626.777344 314.253906 L 627.4375 314.238281 L 627.929688 314.222656 L 628.261719 314.207031 L 635.945312 314.207031 L 635.617188 314.222656 L 635.121094 314.242188 L 634.628906 314.257812 L 633.859375 314.273438 L 632.980469 314.289062 L 631.71875 314.304688 L 630.675781 314.316406 L 629.304688 314.328125 L 628.039062 314.335938 L 626.667969 314.34375 L 624.636719 314.351562 L 623.320312 314.355469 L 621.890625 314.359375 L 620.1875 314.363281 L 618.046875 314.367188 L 615.742188 314.371094 L 611.292969 314.371094 L 609.59375 314.367188 L 607.339844 314.363281 L 604.542969 314.355469 L 602.511719 314.347656 L 600.917969 314.335938 L 599.546875 314.328125 L 598.007812 314.316406 L 596.03125 314.292969 L 594.824219 314.277344 L 594 314.265625 L 593.066406 314.246094 L 592.40625 314.230469 L 591.640625 314.203125 L 591.089844 314.171875 L 590.925781 314.144531 Z M 590.925781 314.082031 "/>
<path style=" stroke:none;fill-rule:nonzero;fill:rgb(96.862745%,70.196078%,16.862745%);fill-opacity:1;" d="M 590.925781 311.714844 L 590.980469 311.714844 L 590.980469 311.683594 L 591.199219 311.613281 L 591.75 311.519531 L 592.460938 311.441406 L 593.230469 311.378906 L 593.726562 311.347656 L 594.550781 311.300781 L 595.261719 311.265625 L 597.074219 311.199219 L 599.378906 311.132812 L 600.644531 311.105469 L 602.070312 311.078125 L 604.101562 311.050781 L 605.035156 311.039062 L 607.890625 311.015625 L 611.128906 311 L 614.699219 310.996094 L 616.347656 310.996094 L 618.597656 311.003906 L 621.671875 311.019531 L 623.429688 311.035156 L 624.800781 311.050781 L 626.230469 311.070312 L 627.984375 311.101562 L 629.632812 311.136719 L 630.949219 311.175781 L 632.269531 311.222656 L 633.367188 311.269531 L 634.300781 311.324219 L 635.121094 311.390625 L 635.617188 311.441406 L 635.945312 311.496094 L 628.316406 311.496094 L 627.875 311.441406 L 627.382812 311.402344 L 626.558594 311.351562 L 625.734375 311.3125 L 624.910156 311.285156 L 623.375 311.246094 L 622.054688 311.21875 L 620.410156 311.199219 L 618.816406 311.183594 L 617.003906 311.175781 L 615.90625 311.171875 L 612.996094 311.171875 L 610.363281 311.183594 L 608.824219 311.195312 L 607.726562 311.207031 L 606.1875 311.230469 L 605.253906 311.25 L 604.707031 311.261719 L 603.058594 311.308594 L 601.960938 311.351562 L 601.355469 311.382812 L 600.589844 311.425781 L 600.039062 311.46875 L 599.433594 311.53125 L 599.105469 311.578125 L 598.667969 311.679688 L 598.613281 311.957031 L 598.777344 312.015625 L 599.105469 312.078125 L 599.546875 312.132812 L 600.203125 312.191406 L 600.863281 312.238281 L 602.015625 312.296875 L 603.003906 312.335938 L 603.773438 312.363281 L 605.253906 312.40625 L 605.859375 312.417969 L 607.285156 312.445312 L 608.769531 312.46875 L 610.582031 312.488281 L 611.953125 312.496094 L 614.148438 312.503906 L 616.949219 312.503906 L 620.242188 312.496094 L 622.332031 312.480469 L 623.757812 312.46875 L 624.691406 312.460938 L 625.84375 312.441406 L 626.667969 312.425781 L 627.4375 312.410156 L 628.371094 312.382812 L 628.371094 312.015625 L 614.808594 312.015625 L 614.808594 311.84375 L 635.890625 311.839844 L 635.945312 312.441406 L 634.792969 312.484375 L 633.367188 312.523438 L 631.992188 312.554688 L 630.566406 312.582031 L 628.535156 312.609375 L 626.886719 312.628906 L 624.363281 312.648438 L 622.054688 312.664062 L 619.640625 312.671875 L 617.5 312.675781 L 614.972656 312.679688 L 612.722656 312.675781 L 610.304688 312.667969 L 608.386719 312.652344 L 606.628906 312.640625 L 604.871094 312.617188 L 602.675781 312.585938 L 601.246094 312.558594 L 599.765625 312.527344 L 598.28125 312.488281 L 596.964844 312.449219 L 595.207031 312.378906 L 594.273438 312.332031 L 593.394531 312.28125 L 592.738281 312.234375 L 592.132812 312.179688 L 591.695312 312.128906 L 591.253906 312.058594 L 591.035156 312.003906 L 590.925781 311.957031 Z M 590.925781 311.714844 "/>
<path style=" stroke:none;fill-rule:nonzero;fill:rgb(83.921569%,15.686275%,22.352941%);fill-opacity:1;" d="M 590.925781 302.535156 L 635.945312 302.535156 L 635.945312 302.910156 L 617.183594 302.914062 L 617.183594 306.042969 L 609.632812 306.042969 L 609.632812 302.917969 L 609.523438 302.910156 L 590.925781 302.910156 Z M 590.925781 302.535156 "/>
<path style=" stroke:none;fill-rule:nonzero;fill:rgb(6.27451%,58.823529%,28.235294%);fill-opacity:1;" d="M 638.316406 314.363281 L 638.363281 314.355469 L 657.84375 306.546875 L 663.761719 306.546875 L 683.335938 314.371094 L 676.457031 314.371094 L 671.550781 312.328125 L 650.050781 312.328125 L 645.242188 314.363281 L 638.316406 314.363281 L 652.121094 311.484375 L 669.582031 311.476562 L 660.875 307.824219 L 660.777344 307.816406 L 660.683594 307.839844 L 652.074219 311.476562 L 652.121094 311.484375 Z M 638.316406 314.363281 "/>
<path style=" stroke:none;fill-rule:nonzero;fill:rgb(14.509804%,36.078431%,60%);fill-opacity:1;" d="M 638.316406 300.945312 L 638.371094 300.941406 L 638.371094 300.769531 L 638.535156 300.496094 L 638.921875 300.152344 L 639.304688 299.917969 L 640.292969 299.496094 L 641.664062 299.085938 L 643.09375 298.773438 L 644.136719 298.585938 L 645.070312 298.445312 L 647.210938 298.179688 L 648.582031 298.042969 L 650.066406 297.921875 L 651.878906 297.800781 L 653.195312 297.726562 L 656.160156 297.613281 L 658.355469 297.5625 L 660.058594 297.542969 L 663.738281 297.542969 L 665.933594 297.570312 L 667.523438 297.605469 L 669.28125 297.664062 L 670.765625 297.726562 L 673.34375 297.886719 L 675.652344 298.085938 L 676.695312 298.199219 L 678.339844 298.421875 L 679.605469 298.636719 L 680.480469 298.824219 L 681.46875 299.085938 L 682.347656 299.410156 L 683.007812 299.773438 L 683.335938 300.082031 L 675.652344 300.082031 L 675.265625 299.796875 L 674.828125 299.574219 L 674.003906 299.28125 L 673.179688 299.074219 L 672.027344 298.867188 L 670.984375 298.730469 L 669.554688 298.59375 L 668.292969 298.507812 L 666.976562 298.445312 L 665.714844 298.402344 L 663.296875 298.359375 L 660.496094 298.359375 L 659.453125 298.371094 L 657.3125 298.429688 L 656.160156 298.480469 L 654.511719 298.578125 L 653.359375 298.671875 L 651.988281 298.816406 L 651.054688 298.9375 L 649.902344 299.125 L 649.078125 299.289062 L 648.144531 299.523438 L 647.59375 299.703125 L 647.101562 299.902344 L 646.660156 300.136719 L 646.332031 300.390625 L 646.113281 300.652344 L 646.003906 300.910156 L 646.003906 302.019531 L 646.113281 302.277344 L 646.386719 302.578125 L 647.101562 303.015625 L 648.144531 303.394531 L 649.351562 303.691406 L 650.503906 303.90625 L 651.164062 304.007812 L 652.042969 304.121094 L 653.414062 304.265625 L 655.390625 304.410156 L 656.542969 304.464844 L 658.300781 304.523438 L 660.113281 304.550781 L 662.527344 304.550781 L 664.667969 304.523438 L 666.097656 304.488281 L 667.578125 304.429688 L 669.609375 304.308594 L 670.875 304.195312 L 671.972656 304.058594 L 672.796875 303.921875 L 673.34375 303.808594 L 674.167969 303.585938 L 674.828125 303.34375 L 675.320312 303.09375 L 675.652344 302.847656 L 683.335938 302.847656 L 683.007812 303.136719 L 682.511719 303.414062 L 682.019531 303.621094 L 681.25 303.871094 L 680.371094 304.09375 L 679.109375 304.34375 L 678.066406 304.507812 L 676.695312 304.6875 L 675.429688 304.824219 L 674.058594 304.945312 L 672.027344 305.085938 L 670.710938 305.160156 L 669.28125 305.222656 L 667.578125 305.28125 L 665.4375 305.332031 L 663.132812 305.359375 L 660.992188 305.367188 L 658.683594 305.351562 L 656.984375 305.324219 L 654.730469 305.257812 L 651.933594 305.128906 L 649.902344 304.996094 L 648.308594 304.859375 L 646.9375 304.714844 L 645.398438 304.523438 L 643.421875 304.207031 L 642.214844 303.964844 L 641.390625 303.765625 L 640.457031 303.484375 L 639.796875 303.234375 L 639.03125 302.835938 L 638.480469 302.328125 L 638.316406 301.933594 Z M 638.316406 300.945312 "/>
<path style=" stroke:none;fill-rule:nonzero;fill:rgb(96.862745%,70.196078%,16.862745%);fill-opacity:1;" d="M 638.316406 290.601562 L 638.371094 290.59375 L 638.371094 290.410156 L 638.589844 289.996094 L 639.140625 289.425781 L 639.851562 288.957031 L 640.621094 288.589844 L 641.117188 288.394531 L 641.941406 288.117188 L 642.652344 287.917969 L 644.464844 287.503906 L 646.769531 287.117188 L 648.035156 286.949219 L 649.460938 286.792969 L 651.492188 286.617188 L 652.425781 286.554688 L 655.28125 286.40625 L 658.519531 286.316406 L 662.089844 286.289062 L 663.738281 286.296875 L 665.988281 286.332031 L 669.0625 286.433594 L 670.820312 286.527344 L 672.191406 286.617188 L 673.617188 286.738281 L 675.375 286.921875 L 677.023438 287.144531 L 678.339844 287.363281 L 679.660156 287.640625 L 680.757812 287.933594 L 681.691406 288.257812 L 682.511719 288.644531 L 683.007812 288.964844 L 683.335938 289.289062 L 675.707031 289.289062 L 675.265625 288.964844 L 674.773438 288.714844 L 673.949219 288.414062 L 673.125 288.191406 L 672.300781 288.015625 L 670.765625 287.777344 L 669.445312 287.632812 L 667.800781 287.503906 L 666.207031 287.417969 L 664.394531 287.363281 L 663.296875 287.347656 L 660.386719 287.347656 L 657.75 287.410156 L 656.214844 287.484375 L 655.117188 287.558594 L 653.578125 287.695312 L 652.644531 287.804688 L 652.097656 287.878906 L 650.449219 288.164062 L 649.351562 288.421875 L 648.746094 288.597656 L 647.980469 288.875 L 647.429688 289.121094 L 646.824219 289.488281 L 646.496094 289.765625 L 646.058594 290.390625 L 646.003906 292.046875 L 646.167969 292.398438 L 646.496094 292.773438 L 646.9375 293.105469 L 647.59375 293.457031 L 648.253906 293.722656 L 649.40625 294.082031 L 650.394531 294.320312 L 651.164062 294.476562 L 652.644531 294.726562 L 653.25 294.808594 L 654.675781 294.972656 L 656.160156 295.101562 L 657.972656 295.210938 L 659.34375 295.269531 L 661.539062 295.3125 L 664.339844 295.3125 L 667.632812 295.257812 L 669.722656 295.183594 L 671.148438 295.113281 L 672.082031 295.046875 L 673.234375 294.945312 L 674.058594 294.855469 L 674.828125 294.753906 L 675.761719 294.597656 L 675.761719 292.398438 L 662.199219 292.386719 L 662.199219 291.359375 L 683.28125 291.347656 L 683.335938 294.945312 L 682.183594 295.195312 L 680.757812 295.433594 L 679.382812 295.617188 L 677.957031 295.773438 L 675.925781 295.949219 L 674.277344 296.058594 L 671.753906 296.1875 L 669.445312 296.269531 L 667.03125 296.324219 L 664.890625 296.355469 L 662.363281 296.363281 L 660.113281 296.34375 L 657.695312 296.289062 L 655.773438 296.214844 L 654.019531 296.125 L 652.261719 296.003906 L 650.066406 295.8125 L 648.636719 295.65625 L 647.15625 295.460938 L 645.671875 295.230469 L 644.355469 294.984375 L 643.476562 294.789062 L 642.597656 294.570312 L 641.664062 294.292969 L 640.785156 293.980469 L 640.128906 293.695312 L 639.523438 293.371094 L 639.085938 293.070312 L 638.644531 292.65625 L 638.425781 292.324219 L 638.316406 292.039062 Z M 638.316406 290.601562 "/>
<path style=" stroke:none;fill-rule:nonzero;fill:rgb(83.921569%,15.686275%,22.352941%);fill-opacity:1;" d="M 638.316406 203 L 683.335938 203 L 683.335938 211.789062 L 664.574219 211.867188 L 664.574219 285.109375 L 657.023438 285.109375 L 657.023438 211.945312 L 656.914062 211.789062 L 638.316406 211.789062 Z M 638.316406 203 "/>
<g style="fill:rgb(0%,0%,0%);fill-opacity:1;">
  <use xlink:href="#glyph0-1" x="21.957031" y="318.198242"/>
  <use xlink:href="#glyph0-2" x="27.291016" y="318.198242"/>
  <use xlink:href="#glyph0-1" x="29.958008" y="318.198242"/>
</g>
<g style="fill:rgb(0%,0%,0%);fill-opacity:1;">
  <use xlink:href="#glyph0-1" x="21.957031" y="244.475586"/>
  <use xlink:href="#glyph0-2" x="27.291016" y="244.475586"/>
  <use xlink:href="#glyph0-3" x="29.958008" y="244.475586"/>
</g>
<g style="fill:rgb(0%,0%,0%);fill-opacity:1;">
  <use xlink:href="#glyph0-4" x="21.957031" y="170.75293"/>
  <use xlink:href="#glyph0-2" x="27.291016" y="170.75293"/>
  <use xlink:href="#glyph0-1" x="29.958008" y="170.75293"/>
</g>
<g style="fill:rgb(0%,0%,0%);fill-opacity:1;">
  <use xlink:href="#glyph0-4" x="21.957031" y="97.03418"/>
  <use xlink:href="#glyph0-2" x="27.291016" y="97.03418"/>
  <use xlink:href="#glyph0-3" x="29.958008" y="97.03418"/>
</g>
<g style="fill:rgb(0%,0%,0%);fill-opacity:1;">
  <use xlink:href="#glyph0-5" x="21.957031" y="23.311523"/>
  <use xlink:href="#glyph0-2" x="27.291016" y="23.311523"/>
  <use xlink:href="#glyph0-1" x="29.958008" y="23.311523"/>
</g>
<g style="fill:rgb(0%,0%,0%);fill-opacity:1;">
  <use xlink:href="#glyph0-4" x="89.140625" y="338.19043"/>
</g>
<g style="fill:rgb(0%,0%,0%);fill-opacity:1;">
  <use xlink:href="#glyph0-5" x="136.53125" y="338.19043"/>
</g>
<g style="fill:rgb(0%,0%,0%);fill-opacity:1;">
  <use xlink:href="#glyph0-6" x="183.921875" y="338.19043"/>
</g>
<g style="fill:rgb(0%,0%,0%);fill-opacity:1;">
  <use xlink:href="#glyph0-7" x="231.3125" y="338.19043"/>
</g>
<g style="fill:rgb(0%,0%,0%);fill-opacity:1;">
  <use xlink:href="#glyph0-3" x="278.703125" y="338.19043"/>
</g>
<g style="fill:rgb(0%,0%,0%);fill-opacity:1;">
  <use xlink:href="#glyph0-8" x="326.09375" y="338.19043"/>
</g>
<g style="fill:rgb(0%,0%,0%);fill-opacity:1;">
  <use xlink:href="#glyph0-9" x="373.484375" y="338.19043"/>
</g>
<g style="fill:rgb(0%,0%,0%);fill-opacity:1;">
  <use xlink:href="#glyph0-10" x="420.875" y="338.19043"/>
</g>
<g style="fill:rgb(0%,0%,0%);fill-opacity:1;">
  <use xlink:href="#glyph0-11" x="468.265625" y="338.19043"/>
</g>
<g style="fill:rgb(0%,0%,0%);fill-opacity:1;">
  <use xlink:href="#glyph0-4" x="513.15625" y="338.19043"/>
  <use xlink:href="#glyph0-1" x="518.490234" y="338.19043"/>
</g>
<g style="fill:rgb(0%,0%,0%);fill-opacity:1;">
  <use xlink:href="#glyph0-4" x="560.546875" y="338.19043"/>
  <use xlink:href="#glyph0-4" x="565.880859" y="338.19043"/>
</g>
<g style="fill:rgb(0%,0%,0%);fill-opacity:1;">
  <use xlink:href="#glyph0-4" x="607.9375" y="338.19043"/>
  <use xlink:href="#glyph0-5" x="613.271484" y="338.19043"/>
</g>
<g style="fill:rgb(0%,0%,0%);fill-opacity:1;">
  <use xlink:href="#glyph0-4" x="655.328125" y="338.19043"/>
  <use xlink:href="#glyph0-6" x="660.662109" y="338.19043"/>
</g>
<g style="fill:rgb(0%,0%,0%);fill-opacity:1;">
  <use xlink:href="#glyph1-1" x="14.412109" y="178.015625"/>
  <use xlink:href="#glyph1-2" x="14.412109" y="170.011719"/>
  <use xlink:href="#glyph1-3" x="14.412109" y="167.347656"/>
  <use xlink:href="#glyph1-4" x="14.412109" y="164.011719"/>
</g>
</g>
</svg>
