<?xml version="1.0" encoding="UTF-8"?>
<svg xmlns="http://www.w3.org/2000/svg" xmlns:xlink="http://www.w3.org/1999/xlink" width="720pt" height="360pt" viewBox="0 0 720 360" version="1.1">
<defs>
<g>
<symbol overflow="visible" id="glyph0-0">
<path style="stroke:none;" d=""/>
</symbol>
<symbol overflow="visible" id="glyph0-1">
<path style="stroke:none;" d="M 2.640625 -6.796875 C 2 -6.796875 1.421875 -6.53125 1.078125 -6.046875 C 0.640625 -5.453125 0.40625 -4.546875 0.40625 -3.296875 C 0.40625 -1 1.1875 0.21875 2.640625 0.21875 C 4.078125 0.21875 4.859375 -1 4.859375 -3.234375 C 4.859375 -4.5625 4.65625 -5.4375 4.203125 -6.046875 C 3.84375 -6.53125 3.28125 -6.796875 2.640625 -6.796875 Z M 2.640625 -6.046875 C 3.546875 -6.046875 4 -5.125 4 -3.3125 C 4 -1.375 3.5625 -0.484375 2.625 -0.484375 C 1.734375 -0.484375 1.28125 -1.421875 1.28125 -3.28125 C 1.28125 -5.140625 1.734375 -6.046875 2.640625 -6.046875 Z M 2.640625 -6.046875 "/>
</symbol>
<symbol overflow="visible" id="glyph0-2">
<path style="stroke:none;" d="M 1.828125 -1 L 0.828125 -1 L 0.828125 0 L 1.828125 0 Z M 1.828125 -1 "/>
</symbol>
<symbol overflow="visible" id="glyph0-3">
<path style="stroke:none;" d="M 4.5625 -6.796875 L 1.0625 -6.796875 L 0.546875 -3.09375 L 1.328125 -3.09375 C 1.71875 -3.5625 2.046875 -3.734375 2.578125 -3.734375 C 3.484375 -3.734375 4.0625 -3.109375 4.0625 -2.09375 C 4.0625 -1.125 3.484375 -0.53125 2.578125 -0.53125 C 1.828125 -0.53125 1.375 -0.90625 1.1875 -1.671875 L 0.328125 -1.671875 C 0.453125 -1.109375 0.546875 -0.84375 0.75 -0.59375 C 1.125 -0.078125 1.828125 0.21875 2.59375 0.21875 C 3.96875 0.21875 4.921875 -0.78125 4.921875 -2.21875 C 4.921875 -3.5625 4.03125 -4.484375 2.71875 -4.484375 C 2.25 -4.484375 1.859375 -4.359375 1.46875 -4.0625 L 1.734375 -5.96875 L 4.5625 -5.96875 Z M 4.5625 -6.796875 "/>
</symbol>
<symbol overflow="visible" id="glyph0-4">
<path style="stroke:none;" d="M 2.484375 -4.84375 L 2.484375 0 L 3.328125 0 L 3.328125 -6.796875 L 2.765625 -6.796875 C 2.46875 -5.75 2.28125 -5.609375 0.984375 -5.453125 L 0.984375 -4.84375 Z M 2.484375 -4.84375 "/>
</symbol>
<symbol overflow="visible" id="glyph0-5">
<path style="stroke:none;" d="M 4.859375 -0.828125 L 1.28125 -0.828125 C 1.359375 -1.390625 1.671875 -1.75 2.5 -2.234375 L 3.46875 -2.75 C 4.40625 -3.265625 4.90625 -3.96875 4.90625 -4.8125 C 4.90625 -5.375 4.671875 -5.90625 4.265625 -6.265625 C 3.859375 -6.625 3.375 -6.796875 2.71875 -6.796875 C 1.859375 -6.796875 1.21875 -6.5 0.84375 -5.921875 C 0.609375 -5.5625 0.5 -5.125 0.484375 -4.4375 L 1.328125 -4.4375 C 1.359375 -4.90625 1.40625 -5.1875 1.53125 -5.40625 C 1.75 -5.8125 2.1875 -6.0625 2.703125 -6.0625 C 3.46875 -6.0625 4.03125 -5.515625 4.03125 -4.78125 C 4.03125 -4.25 3.71875 -3.796875 3.125 -3.4375 L 2.234375 -2.9375 C 0.8125 -2.140625 0.40625 -1.5 0.328125 0 L 4.859375 0 Z M 4.859375 -0.828125 "/>
</symbol>
<symbol overflow="visible" id="glyph0-6">
<path style="stroke:none;" d="M 2.125 -3.125 L 2.578125 -3.125 C 3.515625 -3.125 3.984375 -2.703125 3.984375 -1.890625 C 3.984375 -1.03125 3.46875 -0.53125 2.578125 -0.53125 C 1.65625 -0.53125 1.203125 -0.984375 1.15625 -1.96875 L 0.3125 -1.96875 C 0.34375 -1.421875 0.4375 -1.078125 0.609375 -0.765625 C 0.953125 -0.109375 1.625 0.21875 2.546875 0.21875 C 3.953125 0.21875 4.859375 -0.609375 4.859375 -1.90625 C 4.859375 -2.765625 4.515625 -3.25 3.703125 -3.515625 C 4.34375 -3.765625 4.65625 -4.25 4.65625 -4.9375 C 4.65625 -6.109375 3.875 -6.796875 2.578125 -6.796875 C 1.203125 -6.796875 0.484375 -6.046875 0.453125 -4.609375 L 1.296875 -4.609375 C 1.3125 -5.015625 1.34375 -5.25 1.453125 -5.453125 C 1.640625 -5.828125 2.0625 -6.0625 2.59375 -6.0625 C 3.34375 -6.0625 3.796875 -5.625 3.796875 -4.90625 C 3.796875 -4.421875 3.609375 -4.140625 3.25 -3.984375 C 3.015625 -3.890625 2.71875 -3.84375 2.125 -3.84375 Z M 2.125 -3.125 "/>
</symbol>
<symbol overflow="visible" id="glyph0-7">
<path style="stroke:none;" d="M 3.140625 -1.625 L 3.140625 0 L 3.984375 0 L 3.984375 -1.625 L 4.984375 -1.625 L 4.984375 -2.390625 L 3.984375 -2.390625 L 3.984375 -6.796875 L 3.359375 -6.796875 L 0.265625 -2.515625 L 0.265625 -1.625 Z M 3.140625 -2.390625 L 1 -2.390625 L 3.140625 -5.359375 Z M 3.140625 -2.390625 "/>
</symbol>
<symbol overflow="visible" id="glyph0-8">
<path style="stroke:none;" d="M 4.78125 -5.03125 C 4.609375 -6.140625 3.890625 -6.796875 2.84375 -6.796875 C 2.09375 -6.796875 1.421875 -6.4375 1.03125 -5.828125 C 0.609375 -5.171875 0.40625 -4.34375 0.40625 -3.09375 C 0.40625 -1.953125 0.578125 -1.234375 0.984375 -0.625 C 1.359375 -0.078125 1.953125 0.21875 2.703125 0.21875 C 3.984375 0.21875 4.921875 -0.734375 4.921875 -2.078125 C 4.921875 -3.34375 4.0625 -4.234375 2.84375 -4.234375 C 2.171875 -4.234375 1.640625 -3.96875 1.28125 -3.46875 C 1.28125 -5.125 1.828125 -6.046875 2.796875 -6.046875 C 3.390625 -6.046875 3.796875 -5.671875 3.9375 -5.03125 Z M 2.734375 -3.484375 C 3.546875 -3.484375 4.0625 -2.921875 4.0625 -2 C 4.0625 -1.15625 3.484375 -0.53125 2.703125 -0.53125 C 1.921875 -0.53125 1.328125 -1.1875 1.328125 -2.046875 C 1.328125 -2.890625 1.90625 -3.484375 2.734375 -3.484375 Z M 2.734375 -3.484375 "/>
</symbol>
<symbol overflow="visible" id="glyph0-9">
<path style="stroke:none;" d="M 4.984375 -6.796875 L 0.4375 -6.796875 L 0.4375 -5.96875 L 4.109375 -5.96875 C 2.5 -3.65625 1.828125 -2.234375 1.328125 0 L 2.21875 0 C 2.59375 -2.171875 3.453125 -4.046875 4.984375 -6.09375 Z M 4.984375 -6.796875 "/>
</symbol>
<symbol overflow="visible" id="glyph1-0">
<path style="stroke:none;" d=""/>
</symbol>
<symbol overflow="visible" id="glyph1-1">
<path style="stroke:none;" d="M 0 -0.953125 L 0 -4.890625 C 0 -5.71875 -0.234375 -6.34375 -0.734375 -6.796875 C -1.1875 -7.234375 -1.8125 -7.46875 -2.5 -7.46875 C -3.546875 -7.46875 -4.1875 -7 -4.625 -5.875 C -4.984375 -6.671875 -5.640625 -7.09375 -6.53125 -7.09375 C -7.15625 -7.09375 -7.734375 -6.859375 -8.140625 -6.390625 C -8.5625 -5.9375 -8.75 -5.34375 -8.75 -4.5 L -8.75 -0.953125 Z M -4.984375 -2.0625 L -7.765625 -2.0625 L -7.765625 -4.21875 C -7.765625 -4.84375 -7.6875 -5.203125 -7.453125 -5.5 C -7.21875 -5.8125 -6.859375 -5.96875 -6.375 -5.96875 C -5.90625 -5.96875 -5.53125 -5.8125 -5.296875 -5.5 C -5.0625 -5.203125 -4.984375 -4.84375 -4.984375 -4.21875 Z M -0.984375 -2.0625 L -4 -2.0625 L -4 -4.78125 C -4 -5.328125 -3.859375 -5.6875 -3.578125 -5.953125 C -3.296875 -6.21875 -2.921875 -6.359375 -2.484375 -6.359375 C -2.0625 -6.359375 -1.6875 -6.21875 -1.40625 -5.953125 C -1.109375 -5.6875 -0.984375 -5.328125 -0.984375 -4.78125 Z M -0.984375 -2.0625 "/>
</symbol>
<symbol overflow="visible" id="glyph1-2">
<path style="stroke:none;" d="M -6.28125 -1.796875 L -6.28125 -0.796875 L 0 -0.796875 L 0 -1.796875 Z M -8.75 -1.796875 L -8.75 -0.796875 L -7.484375 -0.796875 L -7.484375 -1.796875 Z M -8.75 -1.796875 "/>
</symbol>
<symbol overflow="visible" id="glyph1-3">
<path style="stroke:none;" d="M -6.28125 -3.046875 L -6.28125 -2.015625 L -8.015625 -2.015625 L -8.015625 -1.015625 L -6.28125 -1.015625 L -6.28125 -0.171875 L -5.46875 -0.171875 L -5.46875 -1.015625 L -0.71875 -1.015625 C -0.078125 -1.015625 0.28125 -1.453125 0.28125 -2.234375 C 0.28125 -2.46875 0.25 -2.71875 0.1875 -3.046875 L -0.640625 -3.046875 C -0.609375 -2.921875 -0.59375 -2.765625 -0.59375 -2.5625 C -0.59375 -2.140625 -0.71875 -2.015625 -1.15625 -2.015625 L -5.46875 -2.015625 L -5.46875 -3.046875 Z M -6.28125 -3.046875 "/>
</symbol>
<symbol overflow="visible" id="glyph1-4">
<path style="stroke:none;" d="M -4.53125 -5.25 C -5.765625 -5.25 -6.46875 -4.421875 -6.46875 -2.96875 C -6.46875 -1.515625 -5.71875 -0.5625 -4.546875 -0.5625 C -3.5625 -0.5625 -3.09375 -1.0625 -2.734375 -2.5625 L -2.515625 -3.484375 C -2.34375 -4.1875 -2.09375 -4.46875 -1.625 -4.46875 C -1.046875 -4.46875 -0.640625 -3.875 -0.640625 -3 C -0.640625 -2.453125 -0.796875 -2 -1.0625 -1.75 C -1.25 -1.59375 -1.421875 -1.53125 -1.875 -1.46875 L -1.875 -0.40625 C -0.421875 -0.453125 0.28125 -1.265625 0.28125 -2.921875 C 0.28125 -4.5 -0.5 -5.515625 -1.71875 -5.515625 C -2.65625 -5.515625 -3.171875 -4.984375 -3.46875 -3.734375 L -3.703125 -2.765625 C -3.890625 -1.953125 -4.15625 -1.609375 -4.59375 -1.609375 C -5.171875 -1.609375 -5.546875 -2.125 -5.546875 -2.9375 C -5.546875 -3.75 -5.203125 -4.171875 -4.53125 -4.203125 Z M -4.53125 -5.25 "/>
</symbol>
</g>
</defs>
<g id="surface14907">
<rect x="0" y="0" width="720" height="360" style="fill:rgb(100%,100%,100%);fill-opacity:1;stroke:none;"/>
<path style=" stroke:none;fill-rule:nonzero;fill:rgb(83.921569%,15.686275%,22.352941%);fill-opacity:1;" d="M 69.628906 20.664062 L 153.515625 20.664062 L 153.515625 52.101562 L 118.554688 52.378906 L 118.554688 314.371094 L 104.488281 314.371094 L 104.488281 52.652344 L 104.285156 52.101562 L 69.628906 52.101562 Z M 69.628906 20.664062 "/>
<path style=" stroke:none;fill-rule:nonzero;fill:rgb(96.862745%,70.196078%,16.862745%);fill-opacity:1;" d="M 157.933594 146.460938 L 158.035156 146.191406 L 158.035156 140.828125 L 158.445312 128.757812 L 159.46875 112.128906 L 160.796875 98.449219 L 162.230469 87.71875 L 163.148438 82.085938 L 164.683594 74.039062 L 166.015625 68.140625 L 169.390625 56.070312 L 173.6875 44.804688 L 176.039062 39.976562 L 178.699219 35.414062 L 182.484375 30.320312 L 184.222656 28.441406 L 189.542969 24.148438 L 195.578125 21.46875 L 202.230469 20.664062 L 205.296875 20.929688 L 209.492188 22.003906 L 215.222656 24.953125 L 218.496094 27.636719 L 221.054688 30.320312 L 223.714844 33.804688 L 226.988281 39.171875 L 230.054688 45.609375 L 232.511719 52.046875 L 234.964844 60.09375 L 237.011719 68.675781 L 238.75 78.0625 L 240.285156 89.328125 L 241.207031 98.714844 L 241.820312 108.105469 L 227.601562 108.105469 L 226.78125 98.714844 L 225.863281 91.476562 L 224.328125 82.625 L 222.792969 76.1875 L 221.257812 71.089844 L 218.394531 64.117188 L 215.9375 59.824219 L 212.867188 56.070312 L 209.902344 53.65625 L 206.527344 52.046875 L 204.480469 51.507812 L 199.058594 51.507812 L 194.148438 53.386719 L 191.285156 55.53125 L 189.238281 57.679688 L 186.371094 61.703125 L 184.632812 64.921875 L 183.609375 67.066406 L 180.542969 75.382812 L 178.496094 82.890625 L 177.371094 87.988281 L 175.9375 96.035156 L 174.914062 103.277344 L 173.789062 114.003906 L 173.175781 122.050781 L 172.355469 140.292969 L 172.253906 188.574219 L 172.5625 198.765625 L 173.175781 209.761719 L 173.992188 219.417969 L 175.222656 229.609375 L 176.449219 237.390625 L 178.597656 247.851562 L 180.4375 254.824219 L 181.871094 259.382812 L 184.632812 266.625 L 185.757812 269.039062 L 188.417969 273.867188 L 191.179688 277.625 L 194.558594 280.84375 L 197.113281 282.453125 L 201.207031 283.792969 L 206.425781 283.792969 L 212.5625 282.183594 L 216.449219 280.039062 L 219.109375 277.890625 L 220.847656 276.015625 L 222.996094 273.0625 L 224.53125 270.382812 L 225.964844 267.429688 L 227.703125 262.871094 L 227.703125 198.765625 L 202.433594 198.496094 L 202.433594 168.457031 L 241.71875 168.1875 L 241.820312 273.0625 L 239.671875 280.304688 L 237.011719 287.28125 L 234.453125 292.644531 L 231.796875 297.203125 L 228.011719 302.300781 L 224.941406 305.519531 L 220.234375 309.273438 L 215.9375 311.6875 L 211.4375 313.296875 L 207.445312 314.101562 L 202.742188 314.371094 L 198.546875 313.835938 L 194.046875 312.226562 L 190.464844 310.078125 L 187.191406 307.398438 L 183.917969 303.910156 L 179.824219 298.277344 L 177.164062 293.71875 L 174.402344 288.085938 L 171.640625 281.378906 L 169.1875 274.136719 L 167.550781 268.503906 L 165.914062 262.066406 L 164.171875 254.019531 L 162.535156 244.898438 L 161.308594 236.585938 L 160.183594 227.195312 L 159.363281 218.34375 L 158.546875 206.277344 L 158.136719 196.621094 L 157.933594 188.304688 Z M 157.933594 146.460938 "/>
<path style=" stroke:none;fill-rule:nonzero;fill:rgb(83.921569%,15.686275%,22.352941%);fill-opacity:1;" d="M 246.234375 20.664062 L 330.125 20.664062 L 330.125 52.101562 L 295.160156 52.378906 L 295.160156 314.371094 L 281.097656 314.371094 L 281.097656 52.652344 L 280.890625 52.101562 L 246.234375 52.101562 Z M 246.234375 20.664062 "/>
<path style=" stroke:none;fill-rule:nonzero;fill:rgb(83.921569%,15.686275%,22.352941%);fill-opacity:1;" d="M 334.539062 20.664062 L 418.425781 20.664062 L 418.425781 52.101562 L 383.464844 52.378906 L 383.464844 314.371094 L 369.398438 314.371094 L 369.398438 52.652344 L 369.195312 52.101562 L 334.539062 52.101562 Z M 334.539062 20.664062 "/>
<path style=" stroke:none;fill-rule:nonzero;fill:rgb(83.921569%,15.686275%,22.352941%);fill-opacity:1;" d="M 422.84375 20.664062 L 506.730469 20.664062 L 506.730469 52.101562 L 471.769531 52.378906 L 471.769531 314.371094 L 457.703125 314.371094 L 457.703125 52.652344 L 457.5 52.101562 L 422.84375 52.101562 Z M 422.84375 20.664062 "/>
<path style=" stroke:none;fill-rule:nonzero;fill:rgb(6.27451%,58.823529%,28.235294%);fill-opacity:1;" d="M 511.144531 314.09375 L 511.234375 313.820312 L 547.53125 20.664062 L 558.558594 20.664062 L 595.035156 314.371094 L 582.21875 314.371094 L 573.074219 237.703125 L 533.015625 237.703125 L 524.050781 314.09375 L 511.144531 314.09375 L 536.867188 205.988281 L 569.402344 205.710938 L 553.179688 68.648438 L 553 68.375 L 552.820312 69.199219 L 536.777344 205.710938 L 536.867188 205.988281 Z M 511.144531 314.09375 "/>
<path style=" stroke:none;fill-rule:nonzero;fill:rgb(14.509804%,36.078431%,60%);fill-opacity:1;" d="M 599.449219 182.648438 L 599.550781 182.480469 L 599.550781 178.429688 L 599.859375 172.019531 L 600.574219 163.917969 L 601.289062 158.351562 L 603.132812 148.394531 L 605.6875 138.777344 L 608.347656 131.355469 L 610.292969 126.96875 L 612.03125 123.59375 L 616.023438 117.347656 L 618.578125 114.144531 L 621.339844 111.273438 L 624.71875 108.40625 L 627.171875 106.71875 L 632.695312 104.019531 L 636.789062 102.835938 L 639.960938 102.332031 L 646.816406 102.332031 L 650.90625 103.007812 L 653.875 103.851562 L 657.148438 105.199219 L 659.910156 106.71875 L 664.71875 110.429688 L 669.015625 115.15625 L 670.957031 117.855469 L 674.027344 123.085938 L 676.378906 128.148438 L 678.015625 132.535156 L 679.859375 138.777344 L 681.496094 146.371094 L 682.722656 154.976562 L 683.335938 162.230469 L 669.015625 162.230469 L 668.296875 155.484375 L 667.480469 150.253906 L 665.945312 143.335938 L 664.410156 138.441406 L 662.261719 133.546875 L 660.320312 130.339844 L 657.660156 127.136719 L 655.304688 125.109375 L 652.851562 123.59375 L 650.496094 122.578125 L 645.996094 121.566406 L 640.777344 121.566406 L 638.835938 121.90625 L 634.84375 123.253906 L 632.695312 124.4375 L 629.628906 126.796875 L 627.480469 128.992188 L 624.921875 132.367188 L 623.183594 135.234375 L 621.035156 139.621094 L 619.5 143.503906 L 617.761719 149.070312 L 616.738281 153.289062 L 615.816406 158.015625 L 615 163.582031 L 614.386719 169.488281 L 613.976562 175.730469 L 613.769531 181.804688 L 613.769531 207.960938 L 613.976562 214.035156 L 614.488281 221.121094 L 615.816406 231.414062 L 617.761719 240.355469 L 620.011719 247.441406 L 622.160156 252.503906 L 623.386719 254.867188 L 625.023438 257.566406 L 627.582031 260.941406 L 631.265625 264.316406 L 633.414062 265.667969 L 636.6875 267.015625 L 640.0625 267.691406 L 644.5625 267.691406 L 648.554688 267.015625 L 651.214844 266.171875 L 653.976562 264.824219 L 657.761719 261.953125 L 660.113281 259.253906 L 662.160156 256.046875 L 663.695312 252.84375 L 664.71875 250.144531 L 666.253906 244.910156 L 667.480469 239.175781 L 668.402344 233.269531 L 669.015625 227.53125 L 683.335938 227.53125 L 682.722656 234.28125 L 681.800781 240.863281 L 680.882812 245.753906 L 679.449219 251.660156 L 677.8125 256.890625 L 675.460938 262.796875 L 673.515625 266.679688 L 670.957031 270.898438 L 668.605469 274.101562 L 666.046875 276.972656 L 662.261719 280.347656 L 659.808594 282.035156 L 657.148438 283.550781 L 653.976562 284.902344 L 649.988281 286.082031 L 645.691406 286.757812 L 641.699219 286.925781 L 637.402344 286.589844 L 634.230469 285.914062 L 630.039062 284.394531 L 624.820312 281.359375 L 621.035156 278.152344 L 618.066406 274.945312 L 615.511719 271.570312 L 612.644531 267.015625 L 608.964844 259.589844 L 606.710938 253.855469 L 605.179688 249.128906 L 603.4375 242.550781 L 602.210938 236.644531 L 600.777344 227.195312 L 599.753906 215.214844 L 599.449219 205.933594 Z M 599.449219 182.648438 "/>
<path style=" stroke:none;fill-rule:nonzero;fill:rgb(83.921569%,15.686275%,22.352941%);fill-opacity:1;" d="M 599.449219 288.105469 L 683.335938 288.105469 L 683.335938 290.917969 L 648.375 290.941406 L 648.375 314.371094 L 634.308594 314.371094 L 634.308594 290.96875 L 634.105469 290.917969 L 599.449219 290.917969 Z M 599.449219 288.105469 "/>
<g style="fill:rgb(0%,0%,0%);fill-opacity:1;">
  <use xlink:href="#glyph0-1" x="21.957031" y="318.198242"/>
  <use xlink:href="#glyph0-2" x="27.291016" y="318.198242"/>
  <use xlink:href="#glyph0-1" x="29.958008" y="318.198242"/>
</g>
<g style="fill:rgb(0%,0%,0%);fill-opacity:1;">
  <use xlink:href="#glyph0-1" x="21.957031" y="244.475586"/>
  <use xlink:href="#glyph0-2" x="27.291016" y="244.475586"/>
  <use xlink:href="#glyph0-3" x="29.958008" y="244.475586"/>
</g>
<g style="fill:rgb(0%,0%,0%);fill-opacity:1;">
  <use xlink:href="#glyph0-4" x="21.957031" y="170.75293"/>
  <use xlink:href="#glyph0-2" x="27.291016" y="170.75293"/>
  <use xlink:href="#glyph0-1" x="29.958008" y="170.75293"/>
</g>
<g style="fill:rgb(0%,0%,0%);fill-opacity:1;">
  <use xlink:href="#glyph0-4" x="21.957031" y="97.03418"/>
  <use xlink:href="#glyph0-2" x="27.291016" y="97.03418"/>
  <use xlink:href="#glyph0-3" x="29.958008" y="97.03418"/>
</g>
<g style="fill:rgb(0%,0%,0%);fill-opacity:1;">
  <use xlink:href="#glyph0-5" x="21.957031" y="23.311523"/>
  <use xlink:href="#glyph0-2" x="27.291016" y="23.311523"/>
  <use xlink:href="#glyph0-1" x="29.958008" y="23.311523"/>
</g>
<g style="fill:rgb(0%,0%,0%);fill-opacity:1;">
  <use xlink:href="#glyph0-4" x="108.574219" y="338.19043"/>
</g>
<g style="fill:rgb(0%,0%,0%);fill-opacity:1;">
  <use xlink:href="#glyph0-5" x="196.875" y="338.19043"/>
</g>
<g style="fill:rgb(0%,0%,0%);fill-opacity:1;">
  <use xlink:href="#glyph0-6" x="285.179688" y="338.19043"/>
</g>
<g style="fill:rgb(0%,0%,0%);fill-opacity:1;">
  <use xlink:href="#glyph0-7" x="373.484375" y="338.19043"/>
</g>
<g style="fill:rgb(0%,0%,0%);fill-opacity:1;">
  <use xlink:href="#glyph0-3" x="461.785156" y="338.19043"/>
</g>
<g style="fill:rgb(0%,0%,0%);fill-opacity:1;">
  <use xlink:href="#glyph0-8" x="550.089844" y="338.19043"/>
</g>
<g style="fill:rgb(0%,0%,0%);fill-opacity:1;">
  <use xlink:href="#glyph0-9" x="638.394531" y="338.19043"/>
</g>
<g style="fill:rgb(0%,0%,0%);fill-opacity:1;">
  <use xlink:href="#glyph1-1" x="14.412109" y="178.015625"/>
  <use xlink:href="#glyph1-2" x="14.412109" y="170.011719"/>
  <use xlink:href="#glyph1-3" x="14.412109" y="167.347656"/>
  <use xlink:href="#glyph1-4" x="14.412109" y="164.011719"/>
</g>
</g>
</svg>
