<?xml version="1.0" encoding="UTF-8"?>
<svg xmlns="http://www.w3.org/2000/svg" xmlns:xlink="http://www.w3.org/1999/xlink" width="720pt" height="360pt" viewBox="0 0 720 360" version="1.1">
<defs>
<g>
<symbol overflow="visible" id="glyph0-0">
<path style="stroke:none;" d=""/>
</symbol>
<symbol overflow="visible" id="glyph0-1">
<path style="stroke:none;" d="M 2.640625 -6.796875 C 2 -6.796875 1.421875 -6.53125 1.078125 -6.046875 C 0.640625 -5.453125 0.40625 -4.546875 0.40625 -3.296875 C 0.40625 -1 1.1875 0.21875 2.640625 0.21875 C 4.078125 0.21875 4.859375 -1 4.859375 -3.234375 C 4.859375 -4.5625 4.65625 -5.4375 4.203125 -6.046875 C 3.84375 -6.53125 3.28125 -6.796875 2.640625 -6.796875 Z M 2.640625 -6.046875 C 3.546875 -6.046875 4 -5.125 4 -3.3125 C 4 -1.375 3.5625 -0.484375 2.625 -0.484375 C 1.734375 -0.484375 1.28125 -1.421875 1.28125 -3.28125 C 1.28125 -5.140625 1.734375 -6.046875 2.640625 -6.046875 Z M 2.640625 -6.046875 "/>
</symbol>
<symbol overflow="visible" id="glyph0-2">
<path style="stroke:none;" d="M 1.828125 -1 L 0.828125 -1 L 0.828125 0 L 1.828125 0 Z M 1.828125 -1 "/>
</symbol>
<symbol overflow="visible" id="glyph0-3">
<path style="stroke:none;" d="M 4.5625 -6.796875 L 1.0625 -6.796875 L 0.546875 -3.09375 L 1.328125 -3.09375 C 1.71875 -3.5625 2.046875 -3.734375 2.578125 -3.734375 C 3.484375 -3.734375 4.0625 -3.109375 4.0625 -2.09375 C 4.0625 -1.125 3.484375 -0.53125 2.578125 -0.53125 C 1.828125 -0.53125 1.375 -0.90625 1.1875 -1.671875 L 0.328125 -1.671875 C 0.453125 -1.109375 0.546875 -0.84375 0.75 -0.59375 C 1.125 -0.078125 1.828125 0.21875 2.59375 0.21875 C 3.96875 0.21875 4.921875 -0.78125 4.921875 -2.21875 C 4.921875 -3.5625 4.03125 -4.484375 2.71875 -4.484375 C 2.25 -4.484375 1.859375 -4.359375 1.46875 -4.0625 L 1.734375 -5.96875 L 4.5625 -5.96875 Z M 4.5625 -6.796875 "/>
</symbol>
<symbol overflow="visible" id="glyph0-4">
<path style="stroke:none;" d="M 2.484375 -4.84375 L 2.484375 0 L 3.328125 0 L 3.328125 -6.796875 L 2.765625 -6.796875 C 2.46875 -5.75 2.28125 -5.609375 0.984375 -5.453125 L 0.984375 -4.84375 Z M 2.484375 -4.84375 "/>
</symbol>
<symbol overflow="visible" id="glyph0-5">
<path style="stroke:none;" d="M 4.859375 -0.828125 L 1.28125 -0.828125 C 1.359375 -1.390625 1.671875 -1.75 2.5 -2.234375 L 3.46875 -2.75 C 4.40625 -3.265625 4.90625 -3.96875 4.90625 -4.8125 C 4.90625 -5.375 4.671875 -5.90625 4.265625 -6.265625 C 3.859375 -6.625 3.375 -6.796875 2.71875 -6.796875 C 1.859375 -6.796875 1.21875 -6.5 0.84375 -5.921875 C 0.609375 -5.5625 0.5 -5.125 0.484375 -4.4375 L 1.328125 -4.4375 C 1.359375 -4.90625 1.40625 -5.1875 1.53125 -5.40625 C 1.75 -5.8125 2.1875 -6.0625 2.703125 -6.0625 C 3.46875 -6.0625 4.03125 -5.515625 4.03125 -4.78125 C 4.03125 -4.25 3.71875 -3.796875 3.125 -3.4375 L 2.234375 -2.9375 C 0.8125 -2.140625 0.40625 -1.5 0.328125 0 L 4.859375 0 Z M 4.859375 -0.828125 "/>
</symbol>
<symbol overflow="visible" id="glyph0-6">
<path style="stroke:none;" d="M 2.125 -3.125 L 2.578125 -3.125 C 3.515625 -3.125 3.984375 -2.703125 3.984375 -1.890625 C 3.984375 -1.03125 3.46875 -0.53125 2.578125 -0.53125 C 1.65625 -0.53125 1.203125 -0.984375 1.15625 -1.96875 L 0.3125 -1.96875 C 0.34375 -1.421875 0.4375 -1.078125 0.609375 -0.765625 C 0.953125 -0.109375 1.625 0.21875 2.546875 0.21875 C 3.953125 0.21875 4.859375 -0.609375 4.859375 -1.90625 C 4.859375 -2.765625 4.515625 -3.25 3.703125 -3.515625 C 4.34375 -3.765625 4.65625 -4.25 4.65625 -4.9375 C 4.65625 -6.109375 3.875 -6.796875 2.578125 -6.796875 C 1.203125 -6.796875 0.484375 -6.046875 0.453125 -4.609375 L 1.296875 -4.609375 C 1.3125 -5.015625 1.34375 -5.25 1.453125 -5.453125 C 1.640625 -5.828125 2.0625 -6.0625 2.59375 -6.0625 C 3.34375 -6.0625 3.796875 -5.625 3.796875 -4.90625 C 3.796875 -4.421875 3.609375 -4.140625 3.25 -3.984375 C 3.015625 -3.890625 2.71875 -3.84375 2.125 -3.84375 Z M 2.125 -3.125 "/>
</symbol>
<symbol overflow="visible" id="glyph0-7">
<path style="stroke:none;" d="M 3.140625 -1.625 L 3.140625 0 L 3.984375 0 L 3.984375 -1.625 L 4.984375 -1.625 L 4.984375 -2.390625 L 3.984375 -2.390625 L 3.984375 -6.796875 L 3.359375 -6.796875 L 0.265625 -2.515625 L 0.265625 -1.625 Z M 3.140625 -2.390625 L 1 -2.390625 L 3.140625 -5.359375 Z M 3.140625 -2.390625 "/>
</symbol>
<symbol overflow="visible" id="glyph0-8">
<path style="stroke:none;" d="M 4.78125 -5.03125 C 4.609375 -6.140625 3.890625 -6.796875 2.84375 -6.796875 C 2.09375 -6.796875 1.421875 -6.4375 1.03125 -5.828125 C 0.609375 -5.171875 0.40625 -4.34375 0.40625 -3.09375 C 0.40625 -1.953125 0.578125 -1.234375 0.984375 -0.625 C 1.359375 -0.078125 1.953125 0.21875 2.703125 0.21875 C 3.984375 0.21875 4.921875 -0.734375 4.921875 -2.078125 C 4.921875 -3.34375 4.0625 -4.234375 2.84375 -4.234375 C 2.171875 -4.234375 1.640625 -3.96875 1.28125 -3.46875 C 1.28125 -5.125 1.828125 -6.046875 2.796875 -6.046875 C 3.390625 -6.046875 3.796875 -5.671875 3.9375 -5.03125 Z M 2.734375 -3.484375 C 3.546875 -3.484375 4.0625 -2.921875 4.0625 -2 C 4.0625 -1.15625 3.484375 -0.53125 2.703125 -0.53125 C 1.921875 -0.53125 1.328125 -1.1875 1.328125 -2.046875 C 1.328125 -2.890625 1.90625 -3.484375 2.734375 -3.484375 Z M 2.734375 -3.484375 "/>
</symbol>
<symbol overflow="visible" id="glyph1-0">
<path style="stroke:none;" d=""/>
</symbol>
<symbol overflow="visible" id="glyph1-1">
<path style="stroke:none;" d="M 0 -0.953125 L 0 -4.890625 C 0 -5.71875 -0.234375 -6.34375 -0.734375 -6.796875 C -1.1875 -7.234375 -1.8125 -7.46875 -2.5 -7.46875 C -3.546875 -7.46875 -4.1875 -7 -4.625 -5.875 C -4.984375 -6.671875 -5.640625 -7.09375 -6.53125 -7.09375 C -7.15625 -7.09375 -7.734375 -6.859375 -8.140625 -6.390625 C -8.5625 -5.9375 -8.75 -5.34375 -8.75 -4.5 L -8.75 -0.953125 Z M -4.984375 -2.0625 L -7.765625 -2.0625 L -7.765625 -4.21875 C -7.765625 -4.84375 -7.6875 -5.203125 -7.453125 -5.5 C -7.21875 -5.8125 -6.859375 -5.96875 -6.375 -5.96875 C -5.90625 -5.96875 -5.53125 -5.8125 -5.296875 -5.5 C -5.0625 -5.203125 -4.984375 -4.84375 -4.984375 -4.21875 Z M -0.984375 -2.0625 L -4 -2.0625 L -4 -4.78125 C -4 -5.328125 -3.859375 -5.6875 -3.578125 -5.953125 C -3.296875 -6.21875 -2.921875 -6.359375 -2.484375 -6.359375 C -2.0625 -6.359375 -1.6875 -6.21875 -1.40625 -5.953125 C -1.109375 -5.6875 -0.984375 -5.328125 -0.984375 -4.78125 Z M -0.984375 -2.0625 "/>
</symbol>
<symbol overflow="visible" id="glyph1-2">
<path style="stroke:none;" d="M -6.28125 -1.796875 L -6.28125 -0.796875 L 0 -0.796875 L 0 -1.796875 Z M -8.75 -1.796875 L -8.75 -0.796875 L -7.484375 -0.796875 L -7.484375 -1.796875 Z M -8.75 -1.796875 "/>
</symbol>
<symbol overflow="visible" id="glyph1-3">
<path style="stroke:none;" d="M -6.28125 -3.046875 L -6.28125 -2.015625 L -8.015625 -2.015625 L -8.015625 -1.015625 L -6.28125 -1.015625 L -6.28125 -0.171875 L -5.46875 -0.171875 L -5.46875 -1.015625 L -0.71875 -1.015625 C -0.078125 -1.015625 0.28125 -1.453125 0.28125 -2.234375 C 0.28125 -2.46875 0.25 -2.71875 0.1875 -3.046875 L -0.640625 -3.046875 C -0.609375 -2.921875 -0.59375 -2.765625 -0.59375 -2.5625 C -0.59375 -2.140625 -0.71875 -2.015625 -1.15625 -2.015625 L -5.46875 -2.015625 L -5.46875 -3.046875 Z M -6.28125 -3.046875 "/>
</symbol>
<symbol overflow="visible" id="glyph1-4">
<path style="stroke:none;" d="M -4.53125 -5.25 C -5.765625 -5.25 -6.46875 -4.421875 -6.46875 -2.96875 C -6.46875 -1.515625 -5.71875 -0.5625 -4.546875 -0.5625 C -3.5625 -0.5625 -3.09375 -1.0625 -2.734375 -2.5625 L -2.515625 -3.484375 C -2.34375 -4.1875 -2.09375 -4.46875 -1.625 -4.46875 C -1.046875 -4.46875 -0.640625 -3.875 -0.640625 -3 C -0.640625 -2.453125 -0.796875 -2 -1.0625 -1.75 C -1.25 -1.59375 -1.421875 -1.53125 -1.875 -1.46875 L -1.875 -0.40625 C -0.421875 -0.453125 0.28125 -1.265625 0.28125 -2.921875 C 0.28125 -4.5 -0.5 -5.515625 -1.71875 -5.515625 C -2.65625 -5.515625 -3.171875 -4.984375 -3.46875 -3.734375 L -3.703125 -2.765625 C -3.890625 -1.953125 -4.15625 -1.609375 -4.59375 -1.609375 C -5.171875 -1.609375 -5.546875 -2.125 -5.546875 -2.9375 C -5.546875 -3.75 -5.203125 -4.171875 -4.53125 -4.203125 Z M -4.53125 -5.25 "/>
</symbol>
</g>
</defs>
<g id="surface10745">
<rect x="0" y="0" width="720" height="360" style="fill:rgb(100%,100%,100%);fill-opacity:1;stroke:none;"/>
<path style=" stroke:none;fill-rule:nonzero;fill:rgb(83.921569%,15.686275%,22.352941%);fill-opacity:1;" d="M 69.628906 20.664062 L 167.617188 20.664062 L 167.617188 52.101562 L 126.777344 52.378906 L 126.777344 314.371094 L 110.347656 314.371094 L 110.347656 52.652344 L 110.109375 52.101562 L 69.628906 52.101562 Z M 69.628906 20.664062 "/>
<path style=" stroke:none;fill-rule:nonzero;fill:rgb(96.862745%,70.196078%,16.862745%);fill-opacity:1;" d="M 172.773438 146.460938 L 172.894531 146.191406 L 172.894531 140.828125 L 173.371094 128.757812 L 174.566406 112.128906 L 176.121094 98.449219 L 177.792969 87.71875 L 178.867188 82.085938 L 180.660156 74.039062 L 182.214844 68.140625 L 186.15625 56.070312 L 191.175781 44.804688 L 193.925781 39.976562 L 197.03125 35.414062 L 201.453125 30.320312 L 203.484375 28.441406 L 209.699219 24.148438 L 216.75 21.46875 L 224.515625 20.664062 L 228.101562 20.929688 L 233 22.003906 L 239.691406 24.953125 L 243.515625 27.636719 L 246.503906 30.320312 L 249.609375 33.804688 L 253.433594 39.171875 L 257.019531 45.609375 L 259.886719 52.046875 L 262.753906 60.09375 L 265.144531 68.675781 L 267.175781 78.0625 L 268.96875 89.328125 L 270.042969 98.714844 L 270.761719 108.105469 L 254.152344 108.105469 L 253.195312 98.714844 L 252.117188 91.476562 L 250.328125 82.625 L 248.535156 76.1875 L 246.742188 71.089844 L 243.394531 64.117188 L 240.527344 59.824219 L 236.941406 56.070312 L 233.476562 53.65625 L 229.535156 52.046875 L 227.144531 51.507812 L 220.8125 51.507812 L 215.074219 53.386719 L 211.730469 55.53125 L 209.339844 57.679688 L 205.992188 61.703125 L 203.960938 64.921875 L 202.765625 67.066406 L 199.183594 75.382812 L 196.792969 82.890625 L 195.476562 87.988281 L 193.804688 96.035156 L 192.609375 103.277344 L 191.296875 114.003906 L 190.578125 122.050781 L 189.621094 140.292969 L 189.503906 188.574219 L 189.863281 198.765625 L 190.578125 209.761719 L 191.535156 219.417969 L 192.96875 229.609375 L 194.402344 237.390625 L 196.910156 247.851562 L 199.0625 254.824219 L 200.734375 259.382812 L 203.960938 266.625 L 205.277344 269.039062 L 208.382812 273.867188 L 211.609375 277.625 L 215.554688 280.84375 L 218.539062 282.453125 L 223.320312 283.792969 L 229.414062 283.792969 L 236.585938 282.183594 L 241.125 280.039062 L 244.230469 277.890625 L 246.265625 276.015625 L 248.773438 273.0625 L 250.566406 270.382812 L 252.238281 267.429688 L 254.269531 262.871094 L 254.269531 198.765625 L 224.753906 198.496094 L 224.753906 168.457031 L 270.640625 168.1875 L 270.761719 273.0625 L 268.25 280.304688 L 265.144531 287.28125 L 262.15625 292.644531 L 259.050781 297.203125 L 254.628906 302.300781 L 251.042969 305.519531 L 245.546875 309.273438 L 240.527344 311.6875 L 235.269531 313.296875 L 230.609375 314.101562 L 225.113281 314.371094 L 220.214844 313.835938 L 214.957031 312.226562 L 210.773438 310.078125 L 206.949219 307.398438 L 203.125 303.910156 L 198.34375 298.277344 L 195.238281 293.71875 L 192.011719 288.085938 L 188.785156 281.378906 L 185.917969 274.136719 L 184.007812 268.503906 L 182.09375 262.066406 L 180.0625 254.019531 L 178.152344 244.898438 L 176.71875 236.585938 L 175.402344 227.195312 L 174.445312 218.34375 L 173.492188 206.277344 L 173.011719 196.621094 L 172.773438 188.304688 Z M 172.773438 146.460938 "/>
<path style=" stroke:none;fill-rule:nonzero;fill:rgb(6.27451%,58.823529%,28.235294%);fill-opacity:1;" d="M 275.917969 314.09375 L 276.023438 313.820312 L 318.421875 20.664062 L 331.296875 20.664062 L 373.90625 314.371094 L 358.933594 314.371094 L 348.257812 237.703125 L 301.460938 237.703125 L 290.992188 314.09375 L 275.917969 314.09375 L 305.960938 205.988281 L 343.964844 205.710938 L 325.015625 68.648438 L 324.804688 68.375 L 324.597656 69.199219 L 305.859375 205.710938 L 305.960938 205.988281 Z M 275.917969 314.09375 "/>
<path style=" stroke:none;fill-rule:nonzero;fill:rgb(14.509804%,36.078431%,60%);fill-opacity:1;" d="M 379.0625 165.085938 L 379.179688 164.863281 L 379.179688 159.5 L 379.539062 151.007812 L 380.375 140.28125 L 381.210938 132.90625 L 383.363281 119.71875 L 386.351562 106.980469 L 389.457031 97.144531 L 391.726562 91.335938 L 393.761719 86.867188 L 398.421875 78.597656 L 401.40625 74.351562 L 404.632812 70.550781 L 408.578125 66.75 L 411.445312 64.515625 L 417.898438 60.941406 L 422.679688 59.375 L 426.382812 58.707031 L 434.386719 58.707031 L 439.167969 59.601562 L 442.632812 60.71875 L 446.457031 62.503906 L 449.683594 64.515625 L 455.300781 69.433594 L 460.320312 75.691406 L 462.589844 79.265625 L 466.175781 86.195312 L 468.921875 92.898438 L 470.835938 98.710938 L 472.984375 106.980469 L 474.898438 117.035156 L 476.332031 128.433594 L 477.046875 138.042969 L 460.320312 138.042969 L 459.484375 129.105469 L 458.527344 122.175781 L 456.734375 113.015625 L 454.941406 106.53125 L 452.433594 100.050781 L 450.160156 95.804688 L 447.054688 91.558594 L 444.308594 88.878906 L 441.4375 86.867188 L 438.691406 85.523438 L 433.433594 84.183594 L 427.339844 84.183594 L 425.066406 84.632812 L 420.40625 86.417969 L 417.898438 87.984375 L 414.3125 91.113281 L 411.804688 94.015625 L 408.816406 98.488281 L 406.785156 102.285156 L 404.277344 108.097656 L 402.484375 113.238281 L 400.453125 120.613281 L 399.257812 126.199219 L 398.179688 132.457031 L 397.226562 139.832031 L 396.507812 147.65625 L 396.03125 155.925781 L 395.792969 163.96875 L 395.792969 198.609375 L 396.03125 206.65625 L 396.628906 216.042969 L 398.179688 229.675781 L 400.453125 241.519531 L 403.082031 250.90625 L 405.589844 257.613281 L 407.023438 260.742188 L 408.9375 264.316406 L 411.921875 268.785156 L 416.226562 273.257812 L 418.734375 275.042969 L 422.558594 276.832031 L 426.5 277.726562 L 431.757812 277.726562 L 436.421875 276.832031 L 439.527344 275.714844 L 442.753906 273.925781 L 447.175781 270.128906 L 449.921875 266.550781 L 452.3125 262.304688 L 454.105469 258.058594 L 455.300781 254.484375 L 457.09375 247.554688 L 458.527344 239.957031 L 459.601562 232.132812 L 460.320312 224.535156 L 477.046875 224.535156 L 476.332031 233.476562 L 475.257812 242.191406 L 474.179688 248.671875 L 472.507812 256.496094 L 470.597656 263.421875 L 467.847656 271.246094 L 465.578125 276.386719 L 462.589844 281.972656 L 459.839844 286.21875 L 456.855469 290.019531 L 452.433594 294.488281 L 449.566406 296.722656 L 446.457031 298.734375 L 442.753906 300.523438 L 438.09375 302.085938 L 433.074219 302.980469 L 428.414062 303.203125 L 423.394531 302.757812 L 419.691406 301.863281 L 414.792969 299.851562 L 408.695312 295.828125 L 404.277344 291.582031 L 400.808594 287.335938 L 397.824219 282.867188 L 394.476562 276.832031 L 390.175781 267 L 387.546875 259.398438 L 385.753906 253.140625 L 383.722656 244.425781 L 382.289062 236.605469 L 380.617188 224.089844 L 379.421875 208.21875 L 379.0625 195.929688 Z M 379.0625 165.085938 "/>
<path style=" stroke:none;fill-rule:nonzero;fill:rgb(83.921569%,15.686275%,22.352941%);fill-opacity:1;" d="M 379.0625 304.382812 L 477.046875 304.382812 L 477.046875 305.453125 L 436.210938 305.460938 L 436.210938 314.371094 L 419.78125 314.371094 L 419.78125 305.472656 L 419.542969 305.453125 L 379.0625 305.453125 Z M 379.0625 304.382812 "/>
<path style=" stroke:none;fill-rule:nonzero;fill:rgb(6.27451%,58.823529%,28.235294%);fill-opacity:1;" d="M 482.207031 314.09375 L 482.3125 313.820312 L 524.707031 20.664062 L 537.585938 20.664062 L 580.191406 314.371094 L 565.222656 314.371094 L 554.542969 237.703125 L 507.75 237.703125 L 497.28125 314.09375 L 482.207031 314.09375 L 512.25 205.988281 L 550.253906 205.710938 L 531.304688 68.648438 L 531.09375 68.375 L 530.886719 69.199219 L 512.144531 205.710938 L 512.25 205.988281 Z M 482.207031 314.09375 "/>
<path style=" stroke:none;fill-rule:nonzero;fill:rgb(6.27451%,58.823529%,28.235294%);fill-opacity:1;" d="M 585.351562 299.773438 L 585.453125 299.753906 L 627.851562 279.105469 L 640.730469 279.105469 L 683.335938 299.792969 L 668.367188 299.792969 L 657.6875 294.390625 L 610.894531 294.390625 L 600.425781 299.773438 L 585.351562 299.773438 L 615.394531 292.15625 L 653.398438 292.136719 L 634.449219 282.484375 L 634.238281 282.464844 L 634.03125 282.523438 L 615.289062 292.136719 L 615.394531 292.15625 Z M 585.351562 299.773438 "/>
<path style=" stroke:none;fill-rule:nonzero;fill:rgb(96.862745%,70.196078%,16.862745%);fill-opacity:1;" d="M 585.351562 228.589844 L 585.46875 228.511719 L 585.46875 226.9375 L 585.949219 223.390625 L 587.140625 218.503906 L 588.695312 214.484375 L 590.367188 211.332031 L 591.445312 209.679688 L 593.238281 207.3125 L 594.789062 205.582031 L 598.734375 202.035156 L 603.753906 198.722656 L 606.5 197.304688 L 609.609375 195.964844 L 614.027344 194.46875 L 616.0625 193.917969 L 622.273438 192.65625 L 629.324219 191.867188 L 637.09375 191.632812 L 640.675781 191.710938 L 645.578125 192.027344 L 652.269531 192.894531 L 656.09375 193.679688 L 659.078125 194.46875 L 662.1875 195.492188 L 666.011719 197.070312 L 669.59375 198.960938 L 672.460938 200.851562 L 675.332031 203.214844 L 677.722656 205.738281 L 679.753906 208.496094 L 681.542969 211.804688 L 682.621094 214.5625 L 683.335938 217.324219 L 666.726562 217.324219 L 665.769531 214.5625 L 664.695312 212.4375 L 662.902344 209.835938 L 661.109375 207.945312 L 659.316406 206.449219 L 655.972656 204.398438 L 653.105469 203.136719 L 649.519531 202.035156 L 646.054688 201.324219 L 642.109375 200.851562 L 639.722656 200.695312 L 633.386719 200.695312 L 627.652344 201.246094 L 624.304688 201.875 L 621.914062 202.507812 L 618.570312 203.6875 L 616.539062 204.636719 L 615.34375 205.265625 L 611.757812 207.707031 L 609.367188 209.914062 L 608.054688 211.414062 L 606.382812 213.777344 L 605.1875 215.902344 L 603.871094 219.054688 L 603.15625 221.421875 L 602.199219 226.777344 L 602.078125 240.964844 L 602.4375 243.957031 L 603.15625 247.191406 L 604.109375 250.027344 L 605.546875 253.023438 L 606.980469 255.308594 L 609.488281 258.378906 L 611.640625 260.429688 L 613.3125 261.769531 L 616.539062 263.898438 L 617.851562 264.605469 L 620.960938 266.023438 L 624.1875 267.128906 L 628.128906 268.074219 L 631.117188 268.546875 L 635.898438 268.941406 L 641.992188 268.941406 L 649.160156 268.46875 L 653.703125 267.835938 L 656.808594 267.207031 L 658.839844 266.65625 L 661.351562 265.789062 L 663.140625 265 L 664.816406 264.132812 L 666.847656 262.792969 L 666.847656 243.957031 L 637.332031 243.878906 L 637.332031 235.054688 L 683.21875 234.976562 L 683.335938 265.789062 L 680.828125 267.914062 L 677.722656 269.964844 L 674.734375 271.539062 L 671.625 272.878906 L 667.203125 274.378906 L 663.621094 275.324219 L 658.125 276.425781 L 653.105469 277.136719 L 647.847656 277.609375 L 643.1875 277.84375 L 637.691406 277.925781 L 632.789062 277.765625 L 627.53125 277.292969 L 623.351562 276.664062 L 619.527344 275.875 L 615.703125 274.851562 L 610.921875 273.195312 L 607.816406 271.855469 L 604.589844 270.199219 L 601.363281 268.230469 L 598.496094 266.101562 L 596.582031 264.449219 L 594.671875 262.558594 L 592.640625 260.191406 L 590.726562 257.511719 L 589.292969 255.070312 L 587.980469 252.3125 L 587.023438 249.710938 L 586.066406 246.164062 L 585.589844 243.328125 L 585.351562 240.886719 Z M 585.351562 228.589844 "/>
<path style=" stroke:none;fill-rule:nonzero;fill:rgb(83.921569%,15.686275%,22.352941%);fill-opacity:1;" d="M 585.351562 300.972656 L 683.335938 300.972656 L 683.335938 302.40625 L 642.5 302.417969 L 642.5 314.371094 L 626.070312 314.371094 L 626.070312 302.429688 L 625.832031 302.40625 L 585.351562 302.40625 Z M 585.351562 300.972656 "/>
<g style="fill:rgb(0%,0%,0%);fill-opacity:1;">
  <use xlink:href="#glyph0-1" x="21.957031" y="318.198242"/>
  <use xlink:href="#glyph0-2" x="27.291016" y="318.198242"/>
  <use xlink:href="#glyph0-1" x="29.958008" y="318.198242"/>
</g>
<g style="fill:rgb(0%,0%,0%);fill-opacity:1;">
  <use xlink:href="#glyph0-1" x="21.957031" y="244.475586"/>
  <use xlink:href="#glyph0-2" x="27.291016" y="244.475586"/>
  <use xlink:href="#glyph0-3" x="29.958008" y="244.475586"/>
</g>
<g style="fill:rgb(0%,0%,0%);fill-opacity:1;">
  <use xlink:href="#glyph0-4" x="21.957031" y="170.75293"/>
  <use xlink:href="#glyph0-2" x="27.291016" y="170.75293"/>
  <use xlink:href="#glyph0-1" x="29.958008" y="170.75293"/>
</g>
<g style="fill:rgb(0%,0%,0%);fill-opacity:1;">
  <use xlink:href="#glyph0-4" x="21.957031" y="97.03418"/>
  <use xlink:href="#glyph0-2" x="27.291016" y="97.03418"/>
  <use xlink:href="#glyph0-3" x="29.958008" y="97.03418"/>
</g>
<g style="fill:rgb(0%,0%,0%);fill-opacity:1;">
  <use xlink:href="#glyph0-5" x="21.957031" y="23.311523"/>
  <use xlink:href="#glyph0-2" x="27.291016" y="23.311523"/>
  <use xlink:href="#glyph0-1" x="29.958008" y="23.311523"/>
</g>
<g style="fill:rgb(0%,0%,0%);fill-opacity:1;">
  <use xlink:href="#glyph0-4" x="115.621094" y="338.19043"/>
</g>
<g style="fill:rgb(0%,0%,0%);fill-opacity:1;">
  <use xlink:href="#glyph0-5" x="218.765625" y="338.19043"/>
</g>
<g style="fill:rgb(0%,0%,0%);fill-opacity:1;">
  <use xlink:href="#glyph0-6" x="321.910156" y="338.19043"/>
</g>
<g style="fill:rgb(0%,0%,0%);fill-opacity:1;">
  <use xlink:href="#glyph0-7" x="425.054688" y="338.19043"/>
</g>
<g style="fill:rgb(0%,0%,0%);fill-opacity:1;">
  <use xlink:href="#glyph0-3" x="528.199219" y="338.19043"/>
</g>
<g style="fill:rgb(0%,0%,0%);fill-opacity:1;">
  <use xlink:href="#glyph0-8" x="631.34375" y="338.19043"/>
</g>
<g style="fill:rgb(0%,0%,0%);fill-opacity:1;">
  <use xlink:href="#glyph1-1" x="14.412109" y="178.015625"/>
  <use xlink:href="#glyph1-2" x="14.412109" y="170.011719"/>
  <use xlink:href="#glyph1-3" x="14.412109" y="167.347656"/>
  <use xlink:href="#glyph1-4" x="14.412109" y="164.011719"/>
</g>
</g>
</svg>
