<?xml version="1.0" encoding="UTF-8"?>
<svg xmlns="http://www.w3.org/2000/svg" xmlns:xlink="http://www.w3.org/1999/xlink" width="720pt" height="360pt" viewBox="0 0 720 360" version="1.1">
<defs>
<g>
<symbol overflow="visible" id="glyph0-0">
<path style="stroke:none;" d=""/>
</symbol>
<symbol overflow="visible" id="glyph0-1">
<path style="stroke:none;" d="M 2.640625 -6.796875 C 2 -6.796875 1.421875 -6.53125 1.078125 -6.046875 C 0.640625 -5.453125 0.40625 -4.546875 0.40625 -3.296875 C 0.40625 -1 1.1875 0.21875 2.640625 0.21875 C 4.078125 0.21875 4.859375 -1 4.859375 -3.234375 C 4.859375 -4.5625 4.65625 -5.4375 4.203125 -6.046875 C 3.84375 -6.53125 3.28125 -6.796875 2.640625 -6.796875 Z M 2.640625 -6.046875 C 3.546875 -6.046875 4 -5.125 4 -3.3125 C 4 -1.375 3.5625 -0.484375 2.625 -0.484375 C 1.734375 -0.484375 1.28125 -1.421875 1.28125 -3.28125 C 1.28125 -5.140625 1.734375 -6.046875 2.640625 -6.046875 Z M 2.640625 -6.046875 "/>
</symbol>
<symbol overflow="visible" id="glyph0-2">
<path style="stroke:none;" d="M 1.828125 -1 L 0.828125 -1 L 0.828125 0 L 1.828125 0 Z M 1.828125 -1 "/>
</symbol>
<symbol overflow="visible" id="glyph0-3">
<path style="stroke:none;" d="M 4.5625 -6.796875 L 1.0625 -6.796875 L 0.546875 -3.09375 L 1.328125 -3.09375 C 1.71875 -3.5625 2.046875 -3.734375 2.578125 -3.734375 C 3.484375 -3.734375 4.0625 -3.109375 4.0625 -2.09375 C 4.0625 -1.125 3.484375 -0.53125 2.578125 -0.53125 C 1.828125 -0.53125 1.375 -0.90625 1.1875 -1.671875 L 0.328125 -1.671875 C 0.453125 -1.109375 0.546875 -0.84375 0.75 -0.59375 C 1.125 -0.078125 1.828125 0.21875 2.59375 0.21875 C 3.96875 0.21875 4.921875 -0.78125 4.921875 -2.21875 C 4.921875 -3.5625 4.03125 -4.484375 2.71875 -4.484375 C 2.25 -4.484375 1.859375 -4.359375 1.46875 -4.0625 L 1.734375 -5.96875 L 4.5625 -5.96875 Z M 4.5625 -6.796875 "/>
</symbol>
<symbol overflow="visible" id="glyph0-4">
<path style="stroke:none;" d="M 2.484375 -4.84375 L 2.484375 0 L 3.328125 0 L 3.328125 -6.796875 L 2.765625 -6.796875 C 2.46875 -5.75 2.28125 -5.609375 0.984375 -5.453125 L 0.984375 -4.84375 Z M 2.484375 -4.84375 "/>
</symbol>
<symbol overflow="visible" id="glyph0-5">
<path style="stroke:none;" d="M 4.859375 -0.828125 L 1.28125 -0.828125 C 1.359375 -1.390625 1.671875 -1.75 2.5 -2.234375 L 3.46875 -2.75 C 4.40625 -3.265625 4.90625 -3.96875 4.90625 -4.8125 C 4.90625 -5.375 4.671875 -5.90625 4.265625 -6.265625 C 3.859375 -6.625 3.375 -6.796875 2.71875 -6.796875 C 1.859375 -6.796875 1.21875 -6.5 0.84375 -5.921875 C 0.609375 -5.5625 0.5 -5.125 0.484375 -4.4375 L 1.328125 -4.4375 C 1.359375 -4.90625 1.40625 -5.1875 1.53125 -5.40625 C 1.75 -5.8125 2.1875 -6.0625 2.703125 -6.0625 C 3.46875 -6.0625 4.03125 -5.515625 4.03125 -4.78125 C 4.03125 -4.25 3.71875 -3.796875 3.125 -3.4375 L 2.234375 -2.9375 C 0.8125 -2.140625 0.40625 -1.5 0.328125 0 L 4.859375 0 Z M 4.859375 -0.828125 "/>
</symbol>
<symbol overflow="visible" id="glyph0-6">
<path style="stroke:none;" d="M 2.125 -3.125 L 2.578125 -3.125 C 3.515625 -3.125 3.984375 -2.703125 3.984375 -1.890625 C 3.984375 -1.03125 3.46875 -0.53125 2.578125 -0.53125 C 1.65625 -0.53125 1.203125 -0.984375 1.15625 -1.96875 L 0.3125 -1.96875 C 0.34375 -1.421875 0.4375 -1.078125 0.609375 -0.765625 C 0.953125 -0.109375 1.625 0.21875 2.546875 0.21875 C 3.953125 0.21875 4.859375 -0.609375 4.859375 -1.90625 C 4.859375 -2.765625 4.515625 -3.25 3.703125 -3.515625 C 4.34375 -3.765625 4.65625 -4.25 4.65625 -4.9375 C 4.65625 -6.109375 3.875 -6.796875 2.578125 -6.796875 C 1.203125 -6.796875 0.484375 -6.046875 0.453125 -4.609375 L 1.296875 -4.609375 C 1.3125 -5.015625 1.34375 -5.25 1.453125 -5.453125 C 1.640625 -5.828125 2.0625 -6.0625 2.59375 -6.0625 C 3.34375 -6.0625 3.796875 -5.625 3.796875 -4.90625 C 3.796875 -4.421875 3.609375 -4.140625 3.25 -3.984375 C 3.015625 -3.890625 2.71875 -3.84375 2.125 -3.84375 Z M 2.125 -3.125 "/>
</symbol>
<symbol overflow="visible" id="glyph0-7">
<path style="stroke:none;" d="M 3.140625 -1.625 L 3.140625 0 L 3.984375 0 L 3.984375 -1.625 L 4.984375 -1.625 L 4.984375 -2.390625 L 3.984375 -2.390625 L 3.984375 -6.796875 L 3.359375 -6.796875 L 0.265625 -2.515625 L 0.265625 -1.625 Z M 3.140625 -2.390625 L 1 -2.390625 L 3.140625 -5.359375 Z M 3.140625 -2.390625 "/>
</symbol>
<symbol overflow="visible" id="glyph0-8">
<path style="stroke:none;" d="M 4.78125 -5.03125 C 4.609375 -6.140625 3.890625 -6.796875 2.84375 -6.796875 C 2.09375 -6.796875 1.421875 -6.4375 1.03125 -5.828125 C 0.609375 -5.171875 0.40625 -4.34375 0.40625 -3.09375 C 0.40625 -1.953125 0.578125 -1.234375 0.984375 -0.625 C 1.359375 -0.078125 1.953125 0.21875 2.703125 0.21875 C 3.984375 0.21875 4.921875 -0.734375 4.921875 -2.078125 C 4.921875 -3.34375 4.0625 -4.234375 2.84375 -4.234375 C 2.171875 -4.234375 1.640625 -3.96875 1.28125 -3.46875 C 1.28125 -5.125 1.828125 -6.046875 2.796875 -6.046875 C 3.390625 -6.046875 3.796875 -5.671875 3.9375 -5.03125 Z M 2.734375 -3.484375 C 3.546875 -3.484375 4.0625 -2.921875 4.0625 -2 C 4.0625 -1.15625 3.484375 -0.53125 2.703125 -0.53125 C 1.921875 -0.53125 1.328125 -1.1875 1.328125 -2.046875 C 1.328125 -2.890625 1.90625 -3.484375 2.734375 -3.484375 Z M 2.734375 -3.484375 "/>
</symbol>
<symbol overflow="visible" id="glyph0-9">
<path style="stroke:none;" d="M 4.984375 -6.796875 L 0.4375 -6.796875 L 0.4375 -5.96875 L 4.109375 -5.96875 C 2.5 -3.65625 1.828125 -2.234375 1.328125 0 L 2.21875 0 C 2.59375 -2.171875 3.453125 -4.046875 4.984375 -6.09375 Z M 4.984375 -6.796875 "/>
</symbol>
<symbol overflow="visible" id="glyph0-10">
<path style="stroke:none;" d="M 3.75 -3.578125 C 4.453125 -4 4.6875 -4.34375 4.6875 -4.984375 C 4.6875 -6.046875 3.84375 -6.796875 2.640625 -6.796875 C 1.4375 -6.796875 0.59375 -6.046875 0.59375 -4.984375 C 0.59375 -4.359375 0.828125 -4.015625 1.515625 -3.578125 C 0.734375 -3.203125 0.359375 -2.640625 0.359375 -1.890625 C 0.359375 -0.640625 1.296875 0.21875 2.640625 0.21875 C 3.984375 0.21875 4.921875 -0.640625 4.921875 -1.875 C 4.921875 -2.640625 4.53125 -3.203125 3.75 -3.578125 Z M 2.640625 -6.046875 C 3.359375 -6.046875 3.8125 -5.625 3.8125 -4.96875 C 3.8125 -4.34375 3.34375 -3.921875 2.640625 -3.921875 C 1.921875 -3.921875 1.453125 -4.34375 1.453125 -4.984375 C 1.453125 -5.625 1.921875 -6.046875 2.640625 -6.046875 Z M 2.640625 -3.203125 C 3.484375 -3.203125 4.0625 -2.671875 4.0625 -1.875 C 4.0625 -1.0625 3.484375 -0.53125 2.625 -0.53125 C 1.796875 -0.53125 1.21875 -1.078125 1.21875 -1.875 C 1.21875 -2.671875 1.796875 -3.203125 2.640625 -3.203125 Z M 2.640625 -3.203125 "/>
</symbol>
<symbol overflow="visible" id="glyph0-11">
<path style="stroke:none;" d="M 0.515625 -1.546875 C 0.671875 -0.4375 1.40625 0.21875 2.4375 0.21875 C 3.1875 0.21875 3.859375 -0.140625 4.265625 -0.75 C 4.6875 -1.40625 4.890625 -2.25 4.890625 -3.484375 C 4.890625 -4.625 4.703125 -5.359375 4.3125 -5.953125 C 3.9375 -6.5 3.34375 -6.796875 2.59375 -6.796875 C 1.296875 -6.796875 0.359375 -5.84375 0.359375 -4.515625 C 0.359375 -3.25 1.234375 -2.34375 2.453125 -2.34375 C 3.09375 -2.34375 3.5625 -2.578125 4.015625 -3.109375 C 4 -1.453125 3.46875 -0.53125 2.5 -0.53125 C 1.90625 -0.53125 1.484375 -0.90625 1.359375 -1.546875 Z M 2.578125 -6.0625 C 3.375 -6.0625 3.96875 -5.40625 3.96875 -4.53125 C 3.96875 -3.6875 3.375 -3.09375 2.546875 -3.09375 C 1.734375 -3.09375 1.234375 -3.671875 1.234375 -4.578125 C 1.234375 -5.4375 1.796875 -6.0625 2.578125 -6.0625 Z M 2.578125 -6.0625 "/>
</symbol>
<symbol overflow="visible" id="glyph1-0">
<path style="stroke:none;" d=""/>
</symbol>
<symbol overflow="visible" id="glyph1-1">
<path style="stroke:none;" d="M 0 -0.953125 L 0 -4.890625 C 0 -5.71875 -0.234375 -6.34375 -0.734375 -6.796875 C -1.1875 -7.234375 -1.8125 -7.46875 -2.5 -7.46875 C -3.546875 -7.46875 -4.1875 -7 -4.625 -5.875 C -4.984375 -6.671875 -5.640625 -7.09375 -6.53125 -7.09375 C -7.15625 -7.09375 -7.734375 -6.859375 -8.140625 -6.390625 C -8.5625 -5.9375 -8.75 -5.34375 -8.75 -4.5 L -8.75 -0.953125 Z M -4.984375 -2.0625 L -7.765625 -2.0625 L -7.765625 -4.21875 C -7.765625 -4.84375 -7.6875 -5.203125 -7.453125 -5.5 C -7.21875 -5.8125 -6.859375 -5.96875 -6.375 -5.96875 C -5.90625 -5.96875 -5.53125 -5.8125 -5.296875 -5.5 C -5.0625 -5.203125 -4.984375 -4.84375 -4.984375 -4.21875 Z M -0.984375 -2.0625 L -4 -2.0625 L -4 -4.78125 C -4 -5.328125 -3.859375 -5.6875 -3.578125 -5.953125 C -3.296875 -6.21875 -2.921875 -6.359375 -2.484375 -6.359375 C -2.0625 -6.359375 -1.6875 -6.21875 -1.40625 -5.953125 C -1.109375 -5.6875 -0.984375 -5.328125 -0.984375 -4.78125 Z M -0.984375 -2.0625 "/>
</symbol>
<symbol overflow="visible" id="glyph1-2">
<path style="stroke:none;" d="M -6.28125 -1.796875 L -6.28125 -0.796875 L 0 -0.796875 L 0 -1.796875 Z M -8.75 -1.796875 L -8.75 -0.796875 L -7.484375 -0.796875 L -7.484375 -1.796875 Z M -8.75 -1.796875 "/>
</symbol>
<symbol overflow="visible" id="glyph1-3">
<path style="stroke:none;" d="M -6.28125 -3.046875 L -6.28125 -2.015625 L -8.015625 -2.015625 L -8.015625 -1.015625 L -6.28125 -1.015625 L -6.28125 -0.171875 L -5.46875 -0.171875 L -5.46875 -1.015625 L -0.71875 -1.015625 C -0.078125 -1.015625 0.28125 -1.453125 0.28125 -2.234375 C 0.28125 -2.46875 0.25 -2.71875 0.1875 -3.046875 L -0.640625 -3.046875 C -0.609375 -2.921875 -0.59375 -2.765625 -0.59375 -2.5625 C -0.59375 -2.140625 -0.71875 -2.015625 -1.15625 -2.015625 L -5.46875 -2.015625 L -5.46875 -3.046875 Z M -6.28125 -3.046875 "/>
</symbol>
<symbol overflow="visible" id="glyph1-4">
<path style="stroke:none;" d="M -4.53125 -5.25 C -5.765625 -5.25 -6.46875 -4.421875 -6.46875 -2.96875 C -6.46875 -1.515625 -5.71875 -0.5625 -4.546875 -0.5625 C -3.5625 -0.5625 -3.09375 -1.0625 -2.734375 -2.5625 L -2.515625 -3.484375 C -2.34375 -4.1875 -2.09375 -4.46875 -1.625 -4.46875 C -1.046875 -4.46875 -0.640625 -3.875 -0.640625 -3 C -0.640625 -2.453125 -0.796875 -2 -1.0625 -1.75 C -1.25 -1.59375 -1.421875 -1.53125 -1.875 -1.46875 L -1.875 -0.40625 C -0.421875 -0.453125 0.28125 -1.265625 0.28125 -2.921875 C 0.28125 -4.5 -0.5 -5.515625 -1.71875 -5.515625 C -2.65625 -5.515625 -3.171875 -4.984375 -3.46875 -3.734375 L -3.703125 -2.765625 C -3.890625 -1.953125 -4.15625 -1.609375 -4.59375 -1.609375 C -5.171875 -1.609375 -5.546875 -2.125 -5.546875 -2.9375 C -5.546875 -3.75 -5.203125 -4.171875 -4.53125 -4.203125 Z M -4.53125 -5.25 "/>
</symbol>
</g>
</defs>
<g id="surface12772">
<rect x="0" y="0" width="720" height="360" style="fill:rgb(100%,100%,100%);fill-opacity:1;stroke:none;"/>
<path style=" stroke:none;fill-rule:nonzero;fill:rgb(6.27451%,58.823529%,28.235294%);fill-opacity:1;" d="M 69.628906 303.925781 L 69.691406 303.914062 L 95.046875 290.777344 L 102.746094 290.777344 L 128.222656 303.9375 L 119.273438 303.9375 L 112.886719 300.503906 L 84.902344 300.503906 L 78.644531 303.925781 L 69.628906 303.925781 L 87.597656 299.082031 L 110.320312 299.070312 L 98.988281 292.925781 L 98.863281 292.914062 L 98.738281 292.949219 L 87.535156 299.070312 L 87.597656 299.082031 Z M 69.628906 303.925781 "/>
<path style=" stroke:none;fill-rule:nonzero;fill:rgb(14.509804%,36.078431%,60%);fill-opacity:1;" d="M 69.628906 312.828125 L 69.699219 312.824219 L 69.699219 312.765625 L 69.914062 312.667969 L 70.414062 312.550781 L 70.914062 312.46875 L 72.203125 312.320312 L 73.988281 312.179688 L 75.847656 312.066406 L 77.203125 312.003906 L 78.417969 311.953125 L 81.207031 311.859375 L 82.992188 311.8125 L 84.921875 311.769531 L 87.28125 311.726562 L 88.996094 311.703125 L 92.851562 311.664062 L 95.710938 311.644531 L 97.925781 311.636719 L 102.714844 311.636719 L 105.574219 311.648438 L 107.644531 311.660156 L 109.929688 311.679688 L 111.859375 311.703125 L 115.21875 311.757812 L 118.21875 311.828125 L 119.578125 311.867188 L 121.722656 311.945312 L 123.367188 312.019531 L 124.507812 312.085938 L 125.796875 312.179688 L 126.9375 312.289062 L 127.796875 312.417969 L 128.222656 312.523438 L 118.21875 312.523438 L 117.71875 312.425781 L 117.148438 312.347656 L 116.078125 312.246094 L 115.003906 312.171875 L 113.503906 312.101562 L 112.148438 312.054688 L 110.289062 312.003906 L 108.644531 311.976562 L 106.929688 311.953125 L 105.285156 311.9375 L 102.140625 311.921875 L 98.5 311.921875 L 97.140625 311.929688 L 94.355469 311.949219 L 92.851562 311.964844 L 90.710938 312 L 89.207031 312.03125 L 87.421875 312.082031 L 86.207031 312.125 L 84.707031 312.191406 L 83.636719 312.246094 L 82.421875 312.332031 L 81.707031 312.394531 L 81.0625 312.460938 L 80.492188 312.546875 L 80.0625 312.632812 L 79.777344 312.726562 L 79.632812 312.816406 L 79.632812 313.203125 L 79.777344 313.292969 L 80.132812 313.398438 L 81.0625 313.550781 L 82.421875 313.679688 L 83.992188 313.785156 L 85.492188 313.859375 L 86.351562 313.894531 L 87.492188 313.9375 L 89.28125 313.984375 L 91.851562 314.035156 L 93.351562 314.054688 L 95.640625 314.074219 L 97.996094 314.085938 L 101.140625 314.085938 L 103.929688 314.074219 L 105.785156 314.0625 L 107.714844 314.042969 L 110.359375 314 L 112.003906 313.960938 L 113.433594 313.914062 L 114.503906 313.867188 L 115.21875 313.828125 L 116.292969 313.75 L 117.148438 313.664062 L 117.792969 313.578125 L 118.21875 313.492188 L 128.222656 313.492188 L 127.796875 313.589844 L 127.152344 313.6875 L 126.507812 313.761719 L 125.507812 313.847656 L 124.367188 313.925781 L 122.722656 314.011719 L 121.363281 314.070312 L 119.578125 314.132812 L 117.933594 314.179688 L 116.148438 314.222656 L 113.503906 314.273438 L 111.789062 314.296875 L 109.929688 314.320312 L 107.714844 314.339844 L 104.929688 314.359375 L 101.929688 314.367188 L 99.140625 314.371094 L 96.140625 314.367188 L 93.925781 314.355469 L 90.996094 314.332031 L 87.351562 314.289062 L 84.707031 314.242188 L 82.632812 314.191406 L 80.847656 314.144531 L 78.847656 314.074219 L 76.273438 313.964844 L 74.703125 313.882812 L 73.632812 313.8125 L 72.417969 313.714844 L 71.558594 313.625 L 70.558594 313.488281 L 69.84375 313.308594 L 69.628906 313.171875 Z M 69.628906 312.828125 "/>
<path style=" stroke:none;fill-rule:nonzero;fill:rgb(96.862745%,70.196078%,16.862745%);fill-opacity:1;" d="M 69.628906 307.40625 L 69.699219 307.402344 L 69.699219 307.304688 L 69.988281 307.085938 L 70.703125 306.78125 L 71.628906 306.53125 L 72.628906 306.339844 L 73.273438 306.234375 L 74.34375 306.089844 L 75.273438 305.980469 L 77.632812 305.761719 L 80.632812 305.558594 L 82.277344 305.46875 L 84.136719 305.386719 L 86.777344 305.292969 L 87.992188 305.261719 L 91.710938 305.183594 L 95.925781 305.132812 L 100.570312 305.117188 L 102.714844 305.125 L 105.644531 305.144531 L 109.644531 305.195312 L 111.933594 305.246094 L 113.71875 305.292969 L 115.578125 305.359375 L 117.863281 305.457031 L 120.007812 305.570312 L 121.722656 305.6875 L 123.4375 305.835938 L 124.867188 305.992188 L 126.082031 306.164062 L 127.152344 306.367188 L 127.796875 306.539062 L 128.222656 306.707031 L 118.292969 306.707031 L 117.71875 306.539062 L 117.078125 306.40625 L 116.003906 306.246094 L 114.933594 306.128906 L 113.863281 306.035156 L 111.859375 305.910156 L 110.144531 305.832031 L 108.003906 305.761719 L 105.929688 305.71875 L 103.570312 305.6875 L 102.140625 305.679688 L 98.355469 305.679688 L 94.925781 305.714844 L 92.925781 305.753906 L 91.496094 305.792969 L 89.496094 305.863281 L 88.28125 305.921875 L 87.566406 305.960938 L 85.421875 306.113281 L 83.992188 306.25 L 83.207031 306.34375 L 82.207031 306.488281 L 81.492188 306.621094 L 80.707031 306.816406 L 80.277344 306.960938 L 79.703125 307.292969 L 79.632812 308.171875 L 79.847656 308.355469 L 80.277344 308.558594 L 80.847656 308.734375 L 81.707031 308.917969 L 82.5625 309.058594 L 84.0625 309.25 L 85.351562 309.375 L 86.351562 309.460938 L 88.28125 309.589844 L 89.066406 309.632812 L 90.921875 309.722656 L 92.851562 309.789062 L 95.210938 309.847656 L 96.996094 309.878906 L 99.855469 309.902344 L 103.5 309.902344 L 107.789062 309.875 L 110.503906 309.835938 L 112.359375 309.796875 L 113.574219 309.761719 L 115.078125 309.707031 L 116.148438 309.660156 L 117.148438 309.605469 L 118.363281 309.523438 L 118.363281 308.355469 L 100.714844 308.351562 L 100.714844 307.804688 L 128.152344 307.800781 L 128.222656 309.707031 L 126.722656 309.839844 L 124.867188 309.964844 L 123.078125 310.0625 L 121.222656 310.148438 L 118.578125 310.238281 L 116.433594 310.296875 L 113.148438 310.367188 L 110.144531 310.410156 L 107 310.4375 L 104.214844 310.453125 L 100.929688 310.457031 L 97.996094 310.449219 L 94.855469 310.417969 L 92.351562 310.378906 L 90.066406 310.332031 L 87.78125 310.269531 L 84.921875 310.167969 L 83.0625 310.082031 L 81.132812 309.980469 L 79.203125 309.859375 L 77.488281 309.726562 L 76.347656 309.625 L 75.203125 309.507812 L 73.988281 309.363281 L 72.84375 309.195312 L 71.988281 309.042969 L 71.203125 308.875 L 70.628906 308.714844 L 70.058594 308.492188 L 69.773438 308.316406 L 69.628906 308.167969 Z M 69.628906 307.40625 "/>
<path style=" stroke:none;fill-rule:nonzero;fill:rgb(83.921569%,15.686275%,22.352941%);fill-opacity:1;" d="M 69.628906 262.089844 L 128.222656 262.089844 L 128.222656 265.035156 L 103.804688 265.058594 L 103.804688 289.597656 L 93.980469 289.597656 L 93.980469 265.085938 L 93.835938 265.035156 L 69.628906 265.035156 Z M 69.628906 262.089844 "/>
<path style=" stroke:none;fill-rule:nonzero;fill:rgb(6.27451%,58.823529%,28.235294%);fill-opacity:1;" d="M 131.308594 314.367188 L 131.371094 314.367188 L 156.726562 312.570312 L 164.425781 312.570312 L 189.902344 314.371094 L 180.953125 314.371094 L 174.566406 313.902344 L 146.582031 313.902344 L 140.324219 314.367188 L 131.308594 314.367188 L 149.273438 313.707031 L 172 313.707031 L 160.667969 312.867188 L 160.542969 312.863281 L 160.417969 312.871094 L 149.210938 313.707031 L 149.273438 313.707031 Z M 131.308594 314.367188 "/>
<path style=" stroke:none;fill-rule:nonzero;fill:rgb(14.509804%,36.078431%,60%);fill-opacity:1;" d="M 131.308594 291.347656 L 131.378906 291.332031 L 131.378906 290.898438 L 131.59375 290.214844 L 132.09375 289.351562 L 132.59375 288.757812 L 133.882812 287.699219 L 135.667969 286.675781 L 137.523438 285.882812 L 138.882812 285.414062 L 140.097656 285.054688 L 142.882812 284.390625 L 144.671875 284.050781 L 146.601562 283.742188 L 148.957031 283.4375 L 150.671875 283.257812 L 154.53125 282.96875 L 157.390625 282.84375 L 159.605469 282.789062 L 164.394531 282.789062 L 167.25 282.863281 L 169.324219 282.953125 L 171.609375 283.097656 L 173.539062 283.257812 L 176.898438 283.652344 L 179.898438 284.15625 L 181.257812 284.445312 L 183.402344 285.003906 L 185.042969 285.542969 L 186.1875 286.007812 L 187.472656 286.675781 L 188.617188 287.484375 L 189.476562 288.398438 L 189.902344 289.171875 L 179.898438 289.171875 L 179.398438 288.453125 L 178.828125 287.894531 L 177.757812 287.160156 L 176.683594 286.636719 L 175.183594 286.117188 L 173.824219 285.773438 L 171.96875 285.433594 L 170.324219 285.21875 L 168.609375 285.054688 L 166.964844 284.949219 L 163.820312 284.839844 L 160.175781 284.839844 L 158.820312 284.875 L 156.03125 285.019531 L 154.53125 285.144531 L 152.386719 285.398438 L 150.886719 285.632812 L 149.101562 285.992188 L 147.886719 286.296875 L 146.386719 286.765625 L 145.3125 287.175781 L 144.097656 287.769531 L 143.386719 288.21875 L 142.742188 288.722656 L 142.171875 289.316406 L 141.742188 289.945312 L 141.457031 290.609375 L 141.3125 291.257812 L 141.3125 294.042969 L 141.457031 294.691406 L 141.8125 295.445312 L 142.742188 296.542969 L 144.097656 297.496094 L 145.671875 298.25 L 147.171875 298.789062 L 148.03125 299.042969 L 149.171875 299.332031 L 150.960938 299.691406 L 153.53125 300.050781 L 155.03125 300.191406 L 157.320312 300.335938 L 159.675781 300.410156 L 162.820312 300.410156 L 165.609375 300.335938 L 167.464844 300.246094 L 169.394531 300.101562 L 172.039062 299.796875 L 173.683594 299.511719 L 175.113281 299.167969 L 176.183594 298.828125 L 176.898438 298.539062 L 177.96875 297.980469 L 178.828125 297.371094 L 179.472656 296.742188 L 179.898438 296.128906 L 189.902344 296.128906 L 189.476562 296.847656 L 188.832031 297.550781 L 188.1875 298.070312 L 187.1875 298.699219 L 186.046875 299.257812 L 184.402344 299.886719 L 183.042969 300.300781 L 181.257812 300.75 L 179.613281 301.09375 L 177.828125 301.398438 L 175.183594 301.757812 L 173.46875 301.9375 L 171.609375 302.097656 L 169.394531 302.242188 L 166.609375 302.367188 L 163.605469 302.441406 L 160.820312 302.457031 L 157.820312 302.421875 L 155.605469 302.351562 L 152.675781 302.1875 L 149.03125 301.863281 L 146.386719 301.523438 L 144.3125 301.183594 L 142.527344 300.820312 L 140.527344 300.335938 L 137.953125 299.546875 L 136.382812 298.933594 L 135.308594 298.429688 L 134.09375 297.730469 L 133.238281 297.101562 L 132.238281 296.09375 L 131.523438 294.816406 L 131.308594 293.828125 Z M 131.308594 291.347656 "/>
<path style=" stroke:none;fill-rule:nonzero;fill:rgb(96.862745%,70.196078%,16.862745%);fill-opacity:1;" d="M 131.308594 306.960938 L 131.378906 306.953125 L 131.378906 306.808594 L 131.664062 306.492188 L 132.378906 306.050781 L 133.308594 305.691406 L 134.308594 305.410156 L 134.953125 305.257812 L 136.023438 305.046875 L 136.953125 304.890625 L 139.3125 304.574219 L 142.3125 304.273438 L 143.957031 304.148438 L 145.8125 304.027344 L 148.457031 303.894531 L 149.671875 303.84375 L 153.390625 303.730469 L 157.605469 303.660156 L 162.25 303.636719 L 164.394531 303.644531 L 167.324219 303.671875 L 171.324219 303.75 L 173.613281 303.820312 L 175.398438 303.894531 L 177.253906 303.984375 L 179.542969 304.125 L 181.6875 304.296875 L 183.402344 304.464844 L 185.117188 304.679688 L 186.546875 304.90625 L 187.761719 305.152344 L 188.832031 305.449219 L 189.476562 305.699219 L 189.902344 305.945312 L 179.972656 305.945312 L 179.398438 305.699219 L 178.757812 305.507812 L 177.683594 305.273438 L 176.613281 305.105469 L 175.539062 304.96875 L 173.539062 304.785156 L 171.824219 304.671875 L 169.679688 304.574219 L 167.609375 304.507812 L 165.25 304.464844 L 163.820312 304.453125 L 160.035156 304.453125 L 156.605469 304.5 L 154.605469 304.558594 L 153.175781 304.613281 L 151.171875 304.722656 L 149.957031 304.804688 L 149.246094 304.863281 L 147.101562 305.082031 L 145.671875 305.28125 L 144.886719 305.414062 L 143.886719 305.628906 L 143.171875 305.820312 L 142.382812 306.101562 L 141.957031 306.316406 L 141.382812 306.796875 L 141.3125 308.070312 L 141.527344 308.339844 L 141.957031 308.628906 L 142.527344 308.886719 L 143.386719 309.15625 L 144.242188 309.359375 L 145.742188 309.636719 L 147.027344 309.820312 L 148.03125 309.941406 L 149.957031 310.132812 L 150.746094 310.195312 L 152.601562 310.324219 L 154.53125 310.421875 L 156.890625 310.507812 L 158.675781 310.550781 L 161.535156 310.585938 L 165.179688 310.585938 L 169.46875 310.542969 L 172.183594 310.484375 L 174.039062 310.429688 L 175.253906 310.378906 L 176.753906 310.300781 L 177.828125 310.230469 L 178.828125 310.152344 L 180.042969 310.03125 L 180.042969 308.339844 L 162.390625 308.332031 L 162.390625 307.539062 L 189.832031 307.53125 L 189.902344 310.300781 L 188.402344 310.492188 L 186.546875 310.675781 L 184.757812 310.820312 L 182.902344 310.9375 L 180.257812 311.074219 L 178.113281 311.160156 L 174.824219 311.257812 L 171.824219 311.320312 L 168.679688 311.363281 L 165.894531 311.386719 L 162.605469 311.390625 L 159.675781 311.378906 L 156.53125 311.335938 L 154.03125 311.277344 L 151.746094 311.207031 L 149.457031 311.117188 L 146.601562 310.96875 L 144.742188 310.847656 L 142.8125 310.699219 L 140.882812 310.519531 L 139.167969 310.332031 L 138.027344 310.179688 L 136.882812 310.011719 L 135.667969 309.800781 L 134.523438 309.558594 L 133.667969 309.339844 L 132.878906 309.089844 L 132.308594 308.855469 L 131.738281 308.539062 L 131.453125 308.285156 L 131.308594 308.0625 Z M 131.308594 306.960938 "/>
<path style=" stroke:none;fill-rule:nonzero;fill:rgb(83.921569%,15.686275%,22.352941%);fill-opacity:1;" d="M 131.308594 193.445312 L 189.902344 193.445312 L 189.902344 202.882812 L 165.484375 202.96875 L 165.484375 281.613281 L 155.65625 281.613281 L 155.65625 203.050781 L 155.515625 202.882812 L 131.308594 202.882812 Z M 131.308594 193.445312 "/>
<path style=" stroke:none;fill-rule:nonzero;fill:rgb(6.27451%,58.823529%,28.235294%);fill-opacity:1;" d="M 192.988281 314.367188 L 193.050781 314.359375 L 218.402344 308.953125 L 226.105469 308.953125 L 251.582031 314.371094 L 242.628906 314.371094 L 236.246094 312.957031 L 208.261719 312.957031 L 202.003906 314.367188 L 192.988281 314.367188 L 210.953125 312.371094 L 233.679688 312.367188 L 222.347656 309.839844 L 222.222656 309.832031 L 222.097656 309.847656 L 210.890625 312.367188 L 210.953125 312.371094 Z M 192.988281 314.367188 "/>
<path style=" stroke:none;fill-rule:nonzero;fill:rgb(96.862745%,70.196078%,16.862745%);fill-opacity:1;" d="M 192.988281 157.578125 L 193.058594 157.339844 L 193.058594 152.539062 L 193.34375 141.746094 L 194.058594 126.867188 L 194.988281 114.632812 L 195.988281 105.035156 L 196.632812 99.996094 L 197.703125 92.800781 L 198.632812 87.519531 L 200.992188 76.722656 L 203.992188 66.648438 L 205.636719 62.328125 L 207.492188 58.25 L 210.136719 53.691406 L 211.351562 52.011719 L 215.066406 48.171875 L 219.285156 45.773438 L 223.929688 45.054688 L 226.074219 45.292969 L 229.003906 46.253906 L 233.003906 48.894531 L 235.289062 51.292969 L 237.078125 53.691406 L 238.933594 56.808594 L 241.222656 61.609375 L 243.367188 67.367188 L 245.082031 73.125 L 246.796875 80.324219 L 248.222656 88 L 249.4375 96.398438 L 250.511719 106.476562 L 251.152344 114.871094 L 251.582031 123.269531 L 241.648438 123.269531 L 241.078125 114.871094 L 240.433594 108.394531 L 239.363281 100.476562 L 238.292969 94.71875 L 237.21875 90.160156 L 235.21875 83.921875 L 233.503906 80.082031 L 231.359375 76.722656 L 229.289062 74.566406 L 226.929688 73.125 L 225.5 72.644531 L 221.714844 72.644531 L 218.285156 74.324219 L 216.28125 76.246094 L 214.855469 78.164062 L 212.851562 81.761719 L 211.636719 84.640625 L 210.921875 86.5625 L 208.78125 94 L 207.351562 100.71875 L 206.566406 105.277344 L 205.5625 112.472656 L 204.851562 118.953125 L 204.0625 128.546875 L 203.636719 135.746094 L 203.0625 152.0625 L 202.992188 195.246094 L 203.207031 204.363281 L 203.636719 214.203125 L 204.207031 222.839844 L 205.0625 231.957031 L 205.921875 238.914062 L 207.421875 248.273438 L 208.707031 254.507812 L 209.707031 258.589844 L 211.636719 265.066406 L 212.425781 267.226562 L 214.28125 271.542969 L 216.210938 274.902344 L 218.570312 277.78125 L 220.355469 279.222656 L 223.214844 280.421875 L 226.859375 280.421875 L 231.144531 278.980469 L 233.863281 277.0625 L 235.71875 275.144531 L 236.933594 273.464844 L 238.433594 270.824219 L 239.507812 268.425781 L 240.507812 265.785156 L 241.722656 261.707031 L 241.722656 204.363281 L 224.070312 204.125 L 224.070312 177.253906 L 251.511719 177.011719 L 251.582031 270.824219 L 250.082031 277.300781 L 248.222656 283.539062 L 246.4375 288.339844 L 244.578125 292.417969 L 241.9375 296.976562 L 239.792969 299.855469 L 236.503906 303.214844 L 233.503906 305.375 L 230.359375 306.8125 L 227.574219 307.535156 L 224.285156 307.773438 L 221.355469 307.292969 L 218.210938 305.855469 L 215.710938 303.933594 L 213.425781 301.535156 L 211.136719 298.417969 L 208.28125 293.378906 L 206.421875 289.300781 L 204.492188 284.261719 L 202.5625 278.261719 L 200.847656 271.785156 L 199.703125 266.746094 L 198.5625 260.988281 L 197.347656 253.789062 L 196.203125 245.632812 L 195.347656 238.195312 L 194.558594 229.796875 L 193.988281 221.878906 L 193.417969 211.082031 L 193.128906 202.445312 L 192.988281 195.007812 Z M 192.988281 157.578125 "/>
<path style=" stroke:none;fill-rule:nonzero;fill:rgb(6.27451%,58.823529%,28.235294%);fill-opacity:1;" d="M 254.667969 314.09375 L 254.730469 313.820312 L 280.082031 20.664062 L 287.78125 20.664062 L 313.261719 314.371094 L 304.308594 314.371094 L 297.925781 237.703125 L 269.941406 237.703125 L 263.679688 314.09375 L 254.667969 314.09375 L 272.632812 205.988281 L 295.359375 205.710938 L 284.027344 68.648438 L 283.902344 68.375 L 283.777344 69.199219 L 272.570312 205.710938 L 272.632812 205.988281 Z M 254.667969 314.09375 "/>
<path style=" stroke:none;fill-rule:nonzero;fill:rgb(6.27451%,58.823529%,28.235294%);fill-opacity:1;" d="M 316.347656 314.367188 L 316.410156 314.359375 L 341.761719 308.953125 L 349.460938 308.953125 L 374.941406 314.371094 L 365.988281 314.371094 L 359.605469 312.957031 L 331.621094 312.957031 L 325.359375 314.367188 L 316.347656 314.367188 L 334.3125 312.371094 L 357.039062 312.367188 L 345.707031 309.839844 L 345.582031 309.832031 L 345.457031 309.847656 L 334.25 312.367188 L 334.3125 312.371094 Z M 316.347656 314.367188 "/>
<path style=" stroke:none;fill-rule:nonzero;fill:rgb(96.862745%,70.196078%,16.862745%);fill-opacity:1;" d="M 316.347656 157.578125 L 316.417969 157.339844 L 316.417969 152.539062 L 316.703125 141.746094 L 317.417969 126.867188 L 318.347656 114.632812 L 319.347656 105.035156 L 319.992188 99.996094 L 321.0625 92.800781 L 321.992188 87.519531 L 324.347656 76.722656 L 327.351562 66.648438 L 328.992188 62.328125 L 330.851562 58.25 L 333.496094 53.691406 L 334.710938 52.011719 L 338.425781 48.171875 L 342.640625 45.773438 L 347.289062 45.054688 L 349.429688 45.292969 L 352.359375 46.253906 L 356.363281 48.894531 L 358.648438 51.292969 L 360.433594 53.691406 L 362.292969 56.808594 L 364.578125 61.609375 L 366.722656 67.367188 L 368.4375 73.125 L 370.152344 80.324219 L 371.582031 88 L 372.796875 96.398438 L 373.871094 106.476562 L 374.511719 114.871094 L 374.941406 123.269531 L 365.007812 123.269531 L 364.4375 114.871094 L 363.792969 108.394531 L 362.722656 100.476562 L 361.648438 94.71875 L 360.578125 90.160156 L 358.578125 83.921875 L 356.863281 80.082031 L 354.71875 76.722656 L 352.644531 74.566406 L 350.289062 73.125 L 348.859375 72.644531 L 345.070312 72.644531 L 341.640625 74.324219 L 339.640625 76.246094 L 338.210938 78.164062 L 336.210938 81.761719 L 334.996094 84.640625 L 334.28125 86.5625 L 332.136719 94 L 330.707031 100.71875 L 329.921875 105.277344 L 328.921875 112.472656 L 328.207031 118.953125 L 327.421875 128.546875 L 326.992188 135.746094 L 326.421875 152.0625 L 326.351562 195.246094 L 326.5625 204.363281 L 326.992188 214.203125 L 327.566406 222.839844 L 328.421875 231.957031 L 329.28125 238.914062 L 330.78125 248.273438 L 332.066406 254.507812 L 333.066406 258.589844 L 334.996094 265.066406 L 335.78125 267.226562 L 337.640625 271.542969 L 339.570312 274.902344 L 341.929688 277.78125 L 343.714844 279.222656 L 346.574219 280.421875 L 350.21875 280.421875 L 354.503906 278.980469 L 357.21875 277.0625 L 359.078125 275.144531 L 360.292969 273.464844 L 361.792969 270.824219 L 362.863281 268.425781 L 363.867188 265.785156 L 365.078125 261.707031 L 365.078125 204.363281 L 347.429688 204.125 L 347.429688 177.253906 L 374.871094 177.011719 L 374.941406 270.824219 L 373.441406 277.300781 L 371.582031 283.539062 L 369.796875 288.339844 L 367.9375 292.417969 L 365.292969 296.976562 L 363.152344 299.855469 L 359.863281 303.214844 L 356.863281 305.375 L 353.71875 306.8125 L 350.929688 307.535156 L 347.644531 307.773438 L 344.714844 307.292969 L 341.570312 305.855469 L 339.070312 303.933594 L 336.78125 301.535156 L 334.496094 298.417969 L 331.636719 293.378906 L 329.78125 289.300781 L 327.851562 284.261719 L 325.921875 278.261719 L 324.207031 271.785156 L 323.0625 266.746094 L 321.917969 260.988281 L 320.703125 253.789062 L 319.5625 245.632812 L 318.703125 238.195312 L 317.917969 229.796875 L 317.347656 221.878906 L 316.773438 211.082031 L 316.488281 202.445312 L 316.347656 195.007812 Z M 316.347656 157.578125 "/>
<path style=" stroke:none;fill-rule:nonzero;fill:rgb(6.27451%,58.823529%,28.235294%);fill-opacity:1;" d="M 378.023438 314.355469 L 378.085938 314.339844 L 403.441406 298.988281 L 411.140625 298.988281 L 436.621094 314.371094 L 427.667969 314.371094 L 421.28125 310.355469 L 393.300781 310.355469 L 387.039062 314.355469 L 378.023438 314.355469 L 395.992188 308.695312 L 418.714844 308.679688 L 407.386719 301.503906 L 407.261719 301.488281 L 407.136719 301.53125 L 395.929688 308.679688 L 395.992188 308.695312 Z M 378.023438 314.355469 "/>
<path style=" stroke:none;fill-rule:nonzero;fill:rgb(14.509804%,36.078431%,60%);fill-opacity:1;" d="M 378.023438 286.78125 L 378.097656 286.765625 L 378.097656 286.335938 L 378.3125 285.65625 L 378.8125 284.800781 L 379.3125 284.210938 L 380.597656 283.160156 L 382.382812 282.140625 L 384.242188 281.355469 L 385.601562 280.894531 L 386.8125 280.535156 L 389.601562 279.875 L 391.386719 279.535156 L 393.316406 279.234375 L 395.675781 278.929688 L 397.390625 278.75 L 401.25 278.464844 L 404.105469 278.339844 L 406.324219 278.289062 L 411.109375 278.289062 L 413.96875 278.359375 L 416.039062 278.449219 L 418.328125 278.589844 L 420.257812 278.75 L 423.613281 279.144531 L 426.617188 279.644531 L 427.972656 279.929688 L 430.117188 280.484375 L 431.761719 281.019531 L 432.90625 281.480469 L 434.191406 282.140625 L 435.335938 282.945312 L 436.191406 283.855469 L 436.621094 284.621094 L 426.617188 284.621094 L 426.117188 283.910156 L 425.542969 283.355469 L 424.472656 282.625 L 423.402344 282.105469 L 421.898438 281.589844 L 420.542969 281.25 L 418.683594 280.910156 L 417.039062 280.695312 L 415.324219 280.535156 L 413.683594 280.429688 L 410.539062 280.320312 L 406.894531 280.320312 L 405.535156 280.359375 L 402.75 280.5 L 401.25 280.625 L 399.105469 280.875 L 397.605469 281.105469 L 395.816406 281.464844 L 394.601562 281.765625 L 393.101562 282.230469 L 392.03125 282.640625 L 390.816406 283.230469 L 390.101562 283.675781 L 389.457031 284.175781 L 388.886719 284.765625 L 388.457031 285.390625 L 388.171875 286.050781 L 388.027344 286.691406 L 388.027344 289.457031 L 388.171875 290.101562 L 388.53125 290.851562 L 389.457031 291.9375 L 390.816406 292.882812 L 392.386719 293.632812 L 393.890625 294.167969 L 394.746094 294.417969 L 395.890625 294.703125 L 397.675781 295.0625 L 400.25 295.417969 L 401.75 295.5625 L 404.035156 295.703125 L 406.394531 295.773438 L 409.539062 295.773438 L 412.324219 295.703125 L 414.183594 295.613281 L 416.113281 295.472656 L 418.757812 295.167969 L 420.398438 294.882812 L 421.828125 294.542969 L 422.902344 294.203125 L 423.613281 293.917969 L 424.6875 293.367188 L 425.542969 292.757812 L 426.1875 292.136719 L 426.617188 291.527344 L 436.621094 291.527344 L 436.191406 292.242188 L 435.546875 292.9375 L 434.90625 293.457031 L 433.90625 294.078125 L 432.761719 294.632812 L 431.117188 295.257812 L 429.761719 295.667969 L 427.972656 296.113281 L 426.332031 296.453125 L 424.542969 296.757812 L 421.898438 297.113281 L 420.183594 297.292969 L 418.328125 297.453125 L 416.113281 297.59375 L 413.324219 297.71875 L 410.324219 297.792969 L 407.539062 297.808594 L 404.535156 297.773438 L 402.320312 297.703125 L 399.390625 297.542969 L 395.746094 297.21875 L 393.101562 296.882812 L 391.03125 296.542969 L 389.242188 296.1875 L 387.242188 295.703125 L 384.671875 294.917969 L 383.097656 294.3125 L 382.027344 293.8125 L 380.8125 293.117188 L 379.953125 292.492188 L 378.953125 291.492188 L 378.238281 290.226562 L 378.023438 289.246094 Z M 378.023438 286.78125 "/>
<path style=" stroke:none;fill-rule:nonzero;fill:rgb(83.921569%,15.686275%,22.352941%);fill-opacity:1;" d="M 378.023438 230.675781 L 436.621094 230.675781 L 436.621094 235.644531 L 412.199219 235.6875 L 412.199219 277.109375 L 402.375 277.109375 L 402.375 235.730469 L 402.230469 235.644531 L 378.023438 235.644531 Z M 378.023438 230.675781 "/>
<path style=" stroke:none;fill-rule:nonzero;fill:rgb(6.27451%,58.823529%,28.235294%);fill-opacity:1;" d="M 439.703125 314.367188 L 439.765625 314.363281 L 465.121094 310.511719 L 472.820312 310.511719 L 498.300781 314.371094 L 489.347656 314.371094 L 482.960938 313.363281 L 454.980469 313.363281 L 448.71875 314.367188 L 439.703125 314.367188 L 457.671875 312.945312 L 480.394531 312.941406 L 469.066406 311.140625 L 468.9375 311.136719 L 468.8125 311.148438 L 457.609375 312.941406 L 457.671875 312.945312 Z M 439.703125 314.367188 "/>
<path style=" stroke:none;fill-rule:nonzero;fill:rgb(14.509804%,36.078431%,60%);fill-opacity:1;" d="M 439.703125 291.375 L 439.777344 291.363281 L 439.777344 291.054688 L 439.988281 290.570312 L 440.492188 289.960938 L 440.992188 289.539062 L 442.277344 288.789062 L 444.0625 288.0625 L 445.921875 287.5 L 447.277344 287.167969 L 448.492188 286.914062 L 451.28125 286.441406 L 453.066406 286.199219 L 454.996094 285.984375 L 457.355469 285.769531 L 459.070312 285.640625 L 462.929688 285.4375 L 465.785156 285.347656 L 468 285.308594 L 472.789062 285.308594 L 475.648438 285.359375 L 477.71875 285.421875 L 480.007812 285.527344 L 481.9375 285.640625 L 485.292969 285.921875 L 488.296875 286.277344 L 489.652344 286.480469 L 491.796875 286.875 L 493.441406 287.257812 L 494.582031 287.589844 L 495.871094 288.0625 L 497.011719 288.636719 L 497.871094 289.285156 L 498.300781 289.832031 L 488.296875 289.832031 L 487.796875 289.324219 L 487.222656 288.929688 L 486.152344 288.40625 L 485.078125 288.035156 L 483.578125 287.667969 L 482.222656 287.425781 L 480.363281 287.183594 L 478.71875 287.03125 L 477.003906 286.914062 L 475.363281 286.839844 L 472.21875 286.761719 L 468.574219 286.761719 L 467.214844 286.789062 L 464.429688 286.890625 L 462.929688 286.976562 L 460.785156 287.15625 L 459.285156 287.324219 L 457.496094 287.578125 L 456.28125 287.792969 L 454.78125 288.125 L 453.710938 288.417969 L 452.496094 288.839844 L 451.78125 289.15625 L 451.136719 289.515625 L 450.566406 289.933594 L 450.136719 290.378906 L 449.851562 290.851562 L 449.707031 291.3125 L 449.707031 293.285156 L 449.851562 293.746094 L 450.207031 294.28125 L 451.136719 295.058594 L 452.496094 295.734375 L 454.066406 296.269531 L 455.566406 296.652344 L 456.425781 296.828125 L 457.570312 297.03125 L 459.355469 297.289062 L 461.925781 297.542969 L 463.429688 297.644531 L 465.714844 297.746094 L 468.074219 297.796875 L 471.21875 297.796875 L 474.003906 297.746094 L 475.863281 297.683594 L 477.792969 297.582031 L 480.433594 297.363281 L 482.078125 297.160156 L 483.507812 296.917969 L 484.578125 296.675781 L 485.292969 296.472656 L 486.367188 296.078125 L 487.222656 295.644531 L 487.867188 295.199219 L 488.296875 294.765625 L 498.300781 294.765625 L 497.871094 295.273438 L 497.226562 295.769531 L 496.585938 296.140625 L 495.585938 296.585938 L 494.441406 296.980469 L 492.796875 297.429688 L 491.441406 297.722656 L 489.652344 298.039062 L 488.007812 298.28125 L 486.222656 298.5 L 483.578125 298.753906 L 481.863281 298.878906 L 480.007812 298.996094 L 477.792969 299.097656 L 475.003906 299.1875 L 472.003906 299.238281 L 469.214844 299.25 L 466.214844 299.222656 L 464 299.171875 L 461.070312 299.058594 L 457.425781 298.828125 L 454.78125 298.585938 L 452.710938 298.34375 L 450.921875 298.089844 L 448.921875 297.746094 L 446.351562 297.1875 L 444.777344 296.753906 L 443.707031 296.394531 L 442.492188 295.898438 L 441.632812 295.453125 L 440.632812 294.738281 L 439.917969 293.835938 L 439.703125 293.132812 Z M 439.703125 291.375 "/>
<path style=" stroke:none;fill-rule:nonzero;fill:rgb(96.862745%,70.196078%,16.862745%);fill-opacity:1;" d="M 439.703125 243.023438 L 439.777344 242.957031 L 439.777344 241.644531 L 440.0625 238.6875 L 440.777344 234.617188 L 441.707031 231.269531 L 442.707031 228.640625 L 443.347656 227.261719 L 444.421875 225.292969 L 445.347656 223.847656 L 447.707031 220.894531 L 450.707031 218.136719 L 452.351562 216.953125 L 454.210938 215.835938 L 456.855469 214.589844 L 458.070312 214.128906 L 461.785156 213.078125 L 466 212.421875 L 470.644531 212.226562 L 472.789062 212.292969 L 475.71875 212.554688 L 479.71875 213.277344 L 482.007812 213.933594 L 483.792969 214.589844 L 485.652344 215.445312 L 487.9375 216.757812 L 490.082031 218.332031 L 491.796875 219.910156 L 493.511719 221.878906 L 494.941406 223.980469 L 496.15625 226.277344 L 497.226562 229.035156 L 497.871094 231.335938 L 498.300781 233.632812 L 488.367188 233.632812 L 487.796875 231.335938 L 487.152344 229.5625 L 486.082031 227.394531 L 485.007812 225.820312 L 483.9375 224.570312 L 481.9375 222.863281 L 480.222656 221.8125 L 478.078125 220.894531 L 476.003906 220.304688 L 473.648438 219.910156 L 472.21875 219.777344 L 468.429688 219.777344 L 465 220.238281 L 463 220.761719 L 461.570312 221.289062 L 459.570312 222.273438 L 458.355469 223.0625 L 457.640625 223.585938 L 455.496094 225.621094 L 454.066406 227.460938 L 453.28125 228.707031 L 452.28125 230.679688 L 451.566406 232.449219 L 450.78125 235.078125 L 450.351562 237.046875 L 449.78125 241.511719 L 449.707031 253.332031 L 449.921875 255.828125 L 450.351562 258.519531 L 450.921875 260.882812 L 451.78125 263.378906 L 452.636719 265.285156 L 454.140625 267.84375 L 455.425781 269.550781 L 456.425781 270.667969 L 458.355469 272.441406 L 459.140625 273.03125 L 461 274.214844 L 462.929688 275.132812 L 465.285156 275.921875 L 467.074219 276.316406 L 469.929688 276.644531 L 473.574219 276.644531 L 477.863281 276.25 L 480.578125 275.722656 L 482.4375 275.199219 L 483.652344 274.738281 L 485.152344 274.015625 L 486.222656 273.359375 L 487.222656 272.636719 L 488.4375 271.523438 L 488.4375 255.828125 L 470.789062 255.761719 L 470.789062 248.40625 L 498.226562 248.34375 L 498.300781 274.015625 L 496.800781 275.789062 L 494.941406 277.496094 L 493.15625 278.8125 L 491.296875 279.925781 L 488.652344 281.175781 L 486.507812 281.960938 L 483.222656 282.882812 L 480.222656 283.472656 L 477.078125 283.867188 L 474.289062 284.0625 L 471.003906 284.128906 L 468.074219 284 L 464.929688 283.605469 L 462.429688 283.078125 L 460.140625 282.421875 L 457.855469 281.570312 L 454.996094 280.191406 L 453.136719 279.074219 L 451.210938 277.695312 L 449.28125 276.050781 L 447.566406 274.28125 L 446.421875 272.902344 L 445.277344 271.324219 L 444.0625 269.355469 L 442.921875 267.121094 L 442.0625 265.085938 L 441.277344 262.789062 L 440.703125 260.621094 L 440.132812 257.667969 L 439.847656 255.300781 L 439.703125 253.265625 Z M 439.703125 243.023438 "/>
<path style=" stroke:none;fill-rule:nonzero;fill:rgb(83.921569%,15.686275%,22.352941%);fill-opacity:1;" d="M 439.703125 300.429688 L 498.300781 300.429688 L 498.300781 301.382812 L 473.878906 301.390625 L 473.878906 309.332031 L 464.054688 309.332031 L 464.054688 301.398438 L 463.910156 301.382812 L 439.703125 301.382812 Z M 439.703125 300.429688 "/>
<path style=" stroke:none;fill-rule:nonzero;fill:rgb(6.27451%,58.823529%,28.235294%);fill-opacity:1;" d="M 501.382812 300.816406 L 501.445312 300.808594 L 526.800781 291.40625 L 534.5 291.40625 L 559.980469 300.828125 L 551.027344 300.828125 L 544.640625 298.367188 L 516.660156 298.367188 L 510.398438 300.816406 L 501.382812 300.816406 L 519.351562 297.351562 L 542.074219 297.339844 L 530.742188 292.945312 L 530.617188 292.9375 L 530.492188 292.960938 L 519.289062 297.339844 L 519.351562 297.351562 Z M 501.382812 300.816406 "/>
<path style=" stroke:none;fill-rule:nonzero;fill:rgb(14.509804%,36.078431%,60%);fill-opacity:1;" d="M 501.382812 309.765625 L 501.453125 309.761719 L 501.453125 309.695312 L 501.667969 309.59375 L 502.167969 309.464844 L 502.667969 309.375 L 503.957031 309.21875 L 505.742188 309.066406 L 507.601562 308.945312 L 508.957031 308.875 L 510.171875 308.824219 L 512.960938 308.722656 L 514.746094 308.671875 L 516.675781 308.625 L 519.035156 308.582031 L 520.75 308.554688 L 524.605469 308.511719 L 527.464844 308.492188 L 529.679688 308.484375 L 534.46875 308.484375 L 537.328125 308.496094 L 539.398438 308.507812 L 541.6875 308.527344 L 543.613281 308.554688 L 546.972656 308.613281 L 549.976562 308.6875 L 551.332031 308.730469 L 553.476562 308.8125 L 555.121094 308.894531 L 556.261719 308.964844 L 557.550781 309.066406 L 558.691406 309.1875 L 559.550781 309.324219 L 559.980469 309.4375 L 549.976562 309.4375 L 549.472656 309.332031 L 548.902344 309.246094 L 547.832031 309.136719 L 546.757812 309.058594 L 545.257812 308.980469 L 543.902344 308.929688 L 542.042969 308.878906 L 540.398438 308.847656 L 538.683594 308.824219 L 537.039062 308.804688 L 533.898438 308.789062 L 530.253906 308.789062 L 528.894531 308.796875 L 526.109375 308.816406 L 524.605469 308.835938 L 522.464844 308.875 L 520.960938 308.910156 L 519.175781 308.960938 L 517.960938 309.007812 L 516.460938 309.078125 L 515.390625 309.140625 L 514.175781 309.230469 L 513.460938 309.296875 L 512.816406 309.371094 L 512.246094 309.460938 L 511.816406 309.554688 L 511.53125 309.652344 L 511.386719 309.75 L 511.386719 310.167969 L 511.53125 310.265625 L 511.886719 310.378906 L 512.816406 310.542969 L 514.175781 310.683594 L 515.746094 310.796875 L 517.246094 310.878906 L 518.105469 310.914062 L 519.246094 310.957031 L 521.035156 311.011719 L 523.605469 311.066406 L 525.105469 311.085938 L 527.394531 311.109375 L 529.753906 311.121094 L 532.894531 311.121094 L 535.683594 311.109375 L 537.542969 311.09375 L 539.46875 311.074219 L 542.113281 311.027344 L 543.757812 310.984375 L 545.1875 310.933594 L 546.257812 310.882812 L 546.972656 310.839844 L 548.046875 310.757812 L 548.902344 310.664062 L 549.546875 310.570312 L 549.976562 310.480469 L 559.980469 310.480469 L 559.550781 310.585938 L 558.90625 310.691406 L 558.265625 310.769531 L 557.261719 310.863281 L 556.121094 310.949219 L 554.476562 311.042969 L 553.117188 311.101562 L 551.332031 311.171875 L 549.6875 311.222656 L 547.902344 311.265625 L 545.257812 311.320312 L 543.542969 311.347656 L 541.6875 311.371094 L 539.46875 311.394531 L 536.683594 311.414062 L 533.683594 311.421875 L 530.894531 311.425781 L 527.894531 311.421875 L 525.679688 311.410156 L 522.75 311.386719 L 519.105469 311.335938 L 516.460938 311.285156 L 514.390625 311.234375 L 512.601562 311.179688 L 510.601562 311.109375 L 508.027344 310.992188 L 506.457031 310.898438 L 505.386719 310.824219 L 504.171875 310.71875 L 503.3125 310.625 L 502.3125 310.472656 L 501.597656 310.28125 L 501.382812 310.136719 Z M 501.382812 309.765625 "/>
<path style=" stroke:none;fill-rule:nonzero;fill:rgb(96.862745%,70.196078%,16.862745%);fill-opacity:1;" d="M 501.382812 304.273438 L 501.453125 304.269531 L 501.453125 304.171875 L 501.742188 303.957031 L 502.457031 303.65625 L 503.382812 303.410156 L 504.382812 303.214844 L 505.027344 303.113281 L 506.101562 302.96875 L 507.027344 302.863281 L 509.386719 302.644531 L 512.386719 302.441406 L 514.03125 302.355469 L 515.890625 302.273438 L 518.535156 302.179688 L 519.75 302.144531 L 523.464844 302.070312 L 527.679688 302.019531 L 532.324219 302.003906 L 534.46875 302.011719 L 537.398438 302.03125 L 541.398438 302.082031 L 543.6875 302.132812 L 545.472656 302.179688 L 547.332031 302.242188 L 549.617188 302.339844 L 551.761719 302.457031 L 553.476562 302.570312 L 555.191406 302.71875 L 556.621094 302.871094 L 557.835938 303.042969 L 558.90625 303.246094 L 559.550781 303.414062 L 559.980469 303.582031 L 550.046875 303.582031 L 549.472656 303.414062 L 548.832031 303.28125 L 547.757812 303.125 L 546.6875 303.007812 L 545.617188 302.914062 L 543.613281 302.789062 L 541.898438 302.710938 L 539.757812 302.644531 L 537.683594 302.601562 L 535.324219 302.570312 L 533.898438 302.5625 L 530.109375 302.5625 L 526.679688 302.597656 L 524.679688 302.636719 L 523.25 302.671875 L 521.25 302.746094 L 520.035156 302.804688 L 519.320312 302.84375 L 517.175781 302.992188 L 515.746094 303.128906 L 514.960938 303.21875 L 513.960938 303.367188 L 513.246094 303.496094 L 512.460938 303.691406 L 512.03125 303.835938 L 511.460938 304.164062 L 511.386719 305.035156 L 511.601562 305.21875 L 512.03125 305.417969 L 512.601562 305.589844 L 513.460938 305.773438 L 514.316406 305.914062 L 515.816406 306.105469 L 517.105469 306.230469 L 518.105469 306.3125 L 520.035156 306.441406 L 520.820312 306.484375 L 522.679688 306.574219 L 524.605469 306.640625 L 526.964844 306.699219 L 528.75 306.726562 L 531.609375 306.753906 L 535.253906 306.753906 L 539.542969 306.722656 L 542.257812 306.683594 L 544.113281 306.644531 L 545.328125 306.613281 L 546.832031 306.558594 L 547.902344 306.511719 L 548.902344 306.457031 L 550.117188 306.375 L 550.117188 305.21875 L 532.46875 305.214844 L 532.46875 304.671875 L 559.90625 304.667969 L 559.980469 306.558594 L 558.476562 306.691406 L 556.621094 306.816406 L 554.832031 306.910156 L 552.976562 306.996094 L 550.332031 307.085938 L 548.1875 307.144531 L 544.902344 307.210938 L 541.898438 307.253906 L 538.753906 307.285156 L 535.96875 307.300781 L 532.683594 307.304688 L 529.753906 307.292969 L 526.609375 307.265625 L 524.105469 307.226562 L 521.820312 307.179688 L 519.535156 307.117188 L 516.675781 307.015625 L 514.816406 306.929688 L 512.886719 306.828125 L 510.957031 306.707031 L 509.242188 306.578125 L 508.101562 306.476562 L 506.957031 306.359375 L 505.742188 306.214844 L 504.597656 306.050781 L 503.742188 305.902344 L 502.957031 305.730469 L 502.382812 305.570312 L 501.8125 305.355469 L 501.527344 305.179688 L 501.382812 305.03125 Z M 501.382812 304.273438 "/>
<path style=" stroke:none;fill-rule:nonzero;fill:rgb(83.921569%,15.686275%,22.352941%);fill-opacity:1;" d="M 501.382812 312.605469 L 559.980469 312.605469 L 559.980469 312.792969 L 535.558594 312.796875 L 535.558594 314.371094 L 525.734375 314.371094 L 525.734375 312.796875 L 525.589844 312.792969 L 501.382812 312.792969 Z M 501.382812 312.605469 "/>
<path style=" stroke:none;fill-rule:nonzero;fill:rgb(6.27451%,58.823529%,28.235294%);fill-opacity:1;" d="M 563.0625 312.835938 L 563.125 312.835938 L 588.480469 310.957031 L 596.179688 310.957031 L 621.65625 312.839844 L 612.707031 312.839844 L 606.320312 312.347656 L 578.335938 312.347656 L 572.078125 312.835938 L 563.0625 312.835938 L 581.03125 312.144531 L 603.753906 312.144531 L 592.421875 311.265625 L 592.296875 311.261719 L 592.171875 311.265625 L 580.964844 312.144531 L 581.03125 312.144531 Z M 563.0625 312.835938 "/>
<path style=" stroke:none;fill-rule:nonzero;fill:rgb(14.509804%,36.078431%,60%);fill-opacity:1;" d="M 563.0625 314.171875 L 563.132812 314.171875 L 563.132812 314.164062 L 563.347656 314.152344 L 563.847656 314.136719 L 564.347656 314.125 L 565.636719 314.105469 L 567.421875 314.089844 L 569.28125 314.074219 L 570.636719 314.066406 L 571.851562 314.058594 L 574.640625 314.046875 L 576.425781 314.042969 L 578.355469 314.035156 L 580.710938 314.03125 L 582.425781 314.027344 L 586.285156 314.023438 L 589.144531 314.019531 L 599.003906 314.019531 L 601.078125 314.023438 L 603.363281 314.023438 L 605.292969 314.027344 L 608.652344 314.035156 L 611.652344 314.042969 L 613.011719 314.046875 L 615.15625 314.058594 L 616.796875 314.066406 L 617.941406 314.078125 L 619.226562 314.089844 L 620.371094 314.101562 L 621.230469 314.121094 L 621.65625 314.132812 L 611.652344 314.132812 L 611.152344 314.121094 L 610.582031 314.109375 L 609.511719 314.097656 L 608.4375 314.085938 L 606.9375 314.078125 L 605.578125 314.070312 L 603.722656 314.066406 L 602.078125 314.0625 L 600.363281 314.058594 L 598.71875 314.058594 L 595.574219 314.054688 L 590.574219 314.054688 L 587.785156 314.058594 L 586.285156 314.0625 L 584.144531 314.066406 L 582.640625 314.070312 L 580.855469 314.074219 L 579.640625 314.082031 L 578.140625 314.089844 L 577.066406 314.097656 L 575.855469 314.109375 L 575.140625 314.117188 L 574.496094 314.125 L 573.925781 314.136719 L 573.496094 314.148438 L 573.210938 314.160156 L 573.066406 314.171875 L 573.066406 314.21875 L 573.210938 314.230469 L 573.566406 314.246094 L 574.496094 314.265625 L 575.855469 314.28125 L 577.425781 314.296875 L 578.925781 314.304688 L 579.785156 314.308594 L 580.925781 314.316406 L 582.714844 314.320312 L 585.285156 314.328125 L 586.785156 314.332031 L 589.074219 314.332031 L 591.429688 314.335938 L 594.574219 314.335938 L 597.363281 314.332031 L 599.21875 314.332031 L 601.148438 314.328125 L 603.792969 314.324219 L 605.4375 314.316406 L 606.867188 314.3125 L 607.9375 314.304688 L 608.652344 314.300781 L 609.722656 314.289062 L 610.582031 314.28125 L 611.226562 314.269531 L 611.652344 314.257812 L 621.65625 314.257812 L 621.230469 314.269531 L 619.941406 314.292969 L 618.941406 314.304688 L 617.800781 314.3125 L 616.15625 314.324219 L 614.796875 314.332031 L 613.011719 314.339844 L 611.367188 314.347656 L 609.582031 314.351562 L 606.9375 314.359375 L 605.222656 314.363281 L 603.363281 314.363281 L 601.148438 314.367188 L 598.363281 314.367188 L 595.363281 314.371094 L 589.574219 314.371094 L 587.359375 314.367188 L 584.429688 314.367188 L 580.785156 314.359375 L 578.140625 314.355469 L 576.066406 314.347656 L 574.28125 314.339844 L 572.28125 314.332031 L 569.707031 314.320312 L 568.136719 314.308594 L 567.0625 314.296875 L 565.847656 314.285156 L 564.992188 314.273438 L 563.992188 314.257812 L 563.277344 314.234375 L 563.0625 314.214844 Z M 563.0625 314.171875 "/>
<path style=" stroke:none;fill-rule:nonzero;fill:rgb(96.862745%,70.196078%,16.862745%);fill-opacity:1;" d="M 563.0625 308.351562 L 563.132812 308.347656 L 563.132812 308.300781 L 563.421875 308.199219 L 564.132812 308.058594 L 565.0625 307.941406 L 566.0625 307.851562 L 566.707031 307.804688 L 567.777344 307.734375 L 568.707031 307.683594 L 571.066406 307.582031 L 574.066406 307.484375 L 575.710938 307.445312 L 577.570312 307.40625 L 580.210938 307.363281 L 581.425781 307.347656 L 585.144531 307.308594 L 589.359375 307.289062 L 594.003906 307.28125 L 596.148438 307.28125 L 599.078125 307.292969 L 603.078125 307.316406 L 605.367188 307.339844 L 607.152344 307.363281 L 609.011719 307.390625 L 611.296875 307.4375 L 613.441406 307.492188 L 615.15625 307.546875 L 616.871094 307.617188 L 618.300781 307.6875 L 619.515625 307.769531 L 620.585938 307.863281 L 621.230469 307.945312 L 621.65625 308.023438 L 611.726562 308.023438 L 611.152344 307.945312 L 610.511719 307.882812 L 609.4375 307.808594 L 608.367188 307.753906 L 607.292969 307.710938 L 605.292969 307.648438 L 603.578125 307.613281 L 601.433594 307.582031 L 599.363281 307.5625 L 597.003906 307.546875 L 595.574219 307.542969 L 591.789062 307.542969 L 588.359375 307.558594 L 586.359375 307.578125 L 584.929688 307.59375 L 582.929688 307.628906 L 581.714844 307.65625 L 581 307.675781 L 578.855469 307.746094 L 577.425781 307.808594 L 576.640625 307.851562 L 575.640625 307.921875 L 574.925781 307.984375 L 574.136719 308.074219 L 573.710938 308.140625 L 573.136719 308.296875 L 573.066406 308.707031 L 573.28125 308.792969 L 573.710938 308.886719 L 574.28125 308.96875 L 575.140625 309.054688 L 575.996094 309.121094 L 577.496094 309.210938 L 578.785156 309.269531 L 579.785156 309.308594 L 581.714844 309.371094 L 582.5 309.390625 L 584.355469 309.433594 L 586.285156 309.464844 L 588.644531 309.492188 L 590.429688 309.503906 L 593.289062 309.515625 L 596.933594 309.515625 L 601.222656 309.503906 L 603.9375 309.484375 L 605.792969 309.464844 L 607.007812 309.449219 L 608.507812 309.425781 L 609.582031 309.402344 L 610.582031 309.378906 L 611.796875 309.339844 L 611.796875 308.792969 L 594.148438 308.792969 L 594.148438 308.535156 L 621.585938 308.535156 L 621.65625 309.425781 L 620.15625 309.488281 L 618.300781 309.546875 L 616.511719 309.59375 L 614.65625 309.628906 L 612.011719 309.675781 L 609.867188 309.703125 L 606.582031 309.734375 L 603.578125 309.753906 L 600.433594 309.765625 L 597.648438 309.773438 L 594.359375 309.777344 L 591.429688 309.773438 L 588.289062 309.757812 L 585.785156 309.738281 L 583.5 309.71875 L 581.210938 309.6875 L 578.355469 309.640625 L 576.496094 309.601562 L 574.566406 309.554688 L 572.636719 309.496094 L 570.921875 309.433594 L 569.78125 309.386719 L 568.636719 309.332031 L 567.421875 309.265625 L 566.277344 309.1875 L 565.421875 309.117188 L 564.632812 309.035156 L 564.0625 308.960938 L 563.492188 308.859375 L 563.207031 308.777344 L 563.0625 308.707031 Z M 563.0625 308.351562 "/>
<path style=" stroke:none;fill-rule:nonzero;fill:rgb(83.921569%,15.686275%,22.352941%);fill-opacity:1;" d="M 563.0625 302.992188 L 621.65625 302.992188 L 621.65625 303.324219 L 597.238281 303.328125 L 597.238281 306.101562 L 587.410156 306.101562 L 587.410156 303.332031 L 587.269531 303.324219 L 563.0625 303.324219 Z M 563.0625 302.992188 "/>
<path style=" stroke:none;fill-rule:nonzero;fill:rgb(6.27451%,58.823529%,28.235294%);fill-opacity:1;" d="M 624.742188 304.628906 L 624.804688 304.613281 L 650.15625 288.796875 L 657.859375 288.796875 L 683.335938 304.640625 L 674.386719 304.640625 L 668 300.507812 L 640.015625 300.507812 L 633.757812 304.628906 L 624.742188 304.628906 L 642.707031 298.796875 L 665.433594 298.78125 L 654.101562 291.386719 L 653.976562 291.371094 L 653.851562 291.417969 L 642.644531 298.78125 L 642.707031 298.796875 Z M 624.742188 304.628906 "/>
<path style=" stroke:none;fill-rule:nonzero;fill:rgb(14.509804%,36.078431%,60%);fill-opacity:1;" d="M 624.742188 308.484375 L 624.8125 308.476562 L 624.8125 308.34375 L 625.027344 308.132812 L 625.527344 307.863281 L 626.027344 307.679688 L 627.3125 307.347656 L 629.101562 307.03125 L 630.957031 306.785156 L 632.316406 306.636719 L 633.53125 306.527344 L 636.316406 306.320312 L 638.105469 306.214844 L 640.035156 306.117188 L 642.390625 306.023438 L 644.105469 305.96875 L 647.964844 305.878906 L 650.824219 305.839844 L 653.039062 305.820312 L 657.828125 305.820312 L 660.683594 305.84375 L 662.757812 305.871094 L 665.042969 305.917969 L 666.972656 305.96875 L 670.332031 306.089844 L 673.332031 306.246094 L 674.691406 306.335938 L 676.835938 306.511719 L 678.476562 306.675781 L 679.621094 306.824219 L 680.90625 307.03125 L 682.050781 307.28125 L 682.910156 307.566406 L 683.335938 307.808594 L 673.332031 307.808594 L 672.832031 307.582031 L 672.261719 307.410156 L 671.1875 307.179688 L 670.117188 307.019531 L 668.617188 306.855469 L 667.257812 306.75 L 665.402344 306.644531 L 663.757812 306.578125 L 662.042969 306.527344 L 660.398438 306.492188 L 657.253906 306.460938 L 653.609375 306.460938 L 652.253906 306.46875 L 649.464844 306.515625 L 647.964844 306.554688 L 645.820312 306.632812 L 644.320312 306.707031 L 642.535156 306.816406 L 641.320312 306.914062 L 639.820312 307.058594 L 638.746094 307.1875 L 637.53125 307.371094 L 636.816406 307.511719 L 636.175781 307.667969 L 635.601562 307.851562 L 635.175781 308.046875 L 634.890625 308.253906 L 634.746094 308.457031 L 634.746094 309.320312 L 634.890625 309.523438 L 635.246094 309.757812 L 636.175781 310.097656 L 637.53125 310.394531 L 639.105469 310.628906 L 640.605469 310.796875 L 641.464844 310.875 L 642.605469 310.964844 L 644.394531 311.078125 L 646.964844 311.1875 L 648.464844 311.234375 L 650.753906 311.277344 L 653.109375 311.300781 L 656.253906 311.300781 L 659.042969 311.277344 L 660.898438 311.25 L 662.828125 311.207031 L 665.472656 311.109375 L 667.117188 311.023438 L 668.546875 310.914062 L 669.617188 310.808594 L 670.332031 310.71875 L 671.402344 310.546875 L 672.261719 310.355469 L 672.902344 310.160156 L 673.332031 309.96875 L 683.335938 309.96875 L 682.910156 310.195312 L 682.265625 310.414062 L 681.621094 310.574219 L 680.621094 310.769531 L 679.476562 310.945312 L 677.835938 311.140625 L 676.476562 311.269531 L 674.691406 311.40625 L 673.046875 311.515625 L 671.261719 311.609375 L 668.617188 311.71875 L 666.902344 311.777344 L 665.042969 311.828125 L 662.828125 311.871094 L 660.042969 311.910156 L 657.039062 311.933594 L 654.253906 311.9375 L 651.253906 311.925781 L 649.039062 311.90625 L 646.109375 311.855469 L 642.464844 311.753906 L 639.820312 311.648438 L 637.746094 311.542969 L 635.960938 311.429688 L 633.960938 311.277344 L 631.386719 311.03125 L 629.816406 310.84375 L 628.742188 310.6875 L 627.527344 310.46875 L 626.671875 310.273438 L 625.671875 309.960938 L 624.957031 309.5625 L 624.742188 309.253906 Z M 624.742188 308.484375 "/>
<path style=" stroke:none;fill-rule:nonzero;fill:rgb(96.862745%,70.196078%,16.862745%);fill-opacity:1;" d="M 624.742188 313.65625 L 624.8125 313.652344 L 624.8125 313.628906 L 625.097656 313.578125 L 625.8125 313.507812 L 626.742188 313.449219 L 627.742188 313.402344 L 628.386719 313.378906 L 629.457031 313.347656 L 630.386719 313.320312 L 632.746094 313.269531 L 635.746094 313.222656 L 637.390625 313.199219 L 639.246094 313.179688 L 641.890625 313.160156 L 643.105469 313.152344 L 646.820312 313.132812 L 651.039062 313.121094 L 655.683594 313.117188 L 657.828125 313.121094 L 660.757812 313.125 L 664.757812 313.136719 L 667.042969 313.148438 L 668.832031 313.160156 L 670.6875 313.175781 L 672.976562 313.195312 L 675.121094 313.222656 L 678.550781 313.285156 L 679.980469 313.324219 L 681.191406 313.363281 L 682.265625 313.410156 L 682.910156 313.449219 L 683.335938 313.492188 L 673.40625 313.492188 L 672.832031 313.449219 L 672.191406 313.421875 L 671.117188 313.382812 L 670.046875 313.355469 L 668.972656 313.332031 L 666.972656 313.304688 L 665.257812 313.285156 L 663.113281 313.269531 L 661.042969 313.257812 L 658.683594 313.253906 L 657.253906 313.25 L 653.46875 313.25 L 650.039062 313.257812 L 648.035156 313.265625 L 646.609375 313.277344 L 644.605469 313.292969 L 643.390625 313.308594 L 642.675781 313.316406 L 640.535156 313.351562 L 639.105469 313.382812 L 638.320312 313.40625 L 637.316406 313.441406 L 636.605469 313.46875 L 635.816406 313.515625 L 635.390625 313.550781 L 634.816406 313.628906 L 634.746094 313.835938 L 634.960938 313.878906 L 635.390625 313.925781 L 635.960938 313.964844 L 636.816406 314.007812 L 637.675781 314.042969 L 639.175781 314.085938 L 640.460938 314.117188 L 641.464844 314.136719 L 643.390625 314.167969 L 644.179688 314.175781 L 646.035156 314.199219 L 647.964844 314.214844 L 650.324219 314.226562 L 652.109375 314.234375 L 654.96875 314.242188 L 658.613281 314.242188 L 662.898438 314.234375 L 665.617188 314.222656 L 667.472656 314.214844 L 668.6875 314.207031 L 670.1875 314.195312 L 671.261719 314.183594 L 672.261719 314.171875 L 673.476562 314.152344 L 673.476562 313.878906 L 655.824219 313.875 L 655.824219 313.75 L 683.265625 313.746094 L 683.335938 314.195312 L 681.835938 314.226562 L 679.980469 314.253906 L 678.191406 314.277344 L 676.335938 314.296875 L 673.691406 314.320312 L 671.546875 314.332031 L 668.257812 314.347656 L 665.257812 314.359375 L 662.113281 314.367188 L 659.328125 314.371094 L 656.039062 314.371094 L 653.109375 314.367188 L 649.964844 314.363281 L 647.464844 314.351562 L 645.179688 314.339844 L 642.890625 314.324219 L 640.035156 314.300781 L 638.175781 314.28125 L 636.246094 314.257812 L 634.316406 314.230469 L 632.601562 314.199219 L 631.457031 314.175781 L 630.316406 314.148438 L 629.101562 314.113281 L 627.957031 314.074219 L 627.101562 314.039062 L 626.3125 314 L 625.742188 313.960938 L 625.171875 313.910156 L 624.882812 313.867188 L 624.742188 313.832031 Z M 624.742188 313.65625 "/>
<path style=" stroke:none;fill-rule:nonzero;fill:rgb(83.921569%,15.686275%,22.352941%);fill-opacity:1;" d="M 624.742188 265.695312 L 683.335938 265.695312 L 683.335938 268.039062 L 658.917969 268.0625 L 658.917969 287.617188 L 649.089844 287.617188 L 649.089844 268.082031 L 648.949219 268.039062 L 624.742188 268.039062 Z M 624.742188 265.695312 "/>
<g style="fill:rgb(0%,0%,0%);fill-opacity:1;">
  <use xlink:href="#glyph0-1" x="21.957031" y="318.198242"/>
  <use xlink:href="#glyph0-2" x="27.291016" y="318.198242"/>
  <use xlink:href="#glyph0-1" x="29.958008" y="318.198242"/>
</g>
<g style="fill:rgb(0%,0%,0%);fill-opacity:1;">
  <use xlink:href="#glyph0-1" x="21.957031" y="244.475586"/>
  <use xlink:href="#glyph0-2" x="27.291016" y="244.475586"/>
  <use xlink:href="#glyph0-3" x="29.958008" y="244.475586"/>
</g>
<g style="fill:rgb(0%,0%,0%);fill-opacity:1;">
  <use xlink:href="#glyph0-4" x="21.957031" y="170.75293"/>
  <use xlink:href="#glyph0-2" x="27.291016" y="170.75293"/>
  <use xlink:href="#glyph0-1" x="29.958008" y="170.75293"/>
</g>
<g style="fill:rgb(0%,0%,0%);fill-opacity:1;">
  <use xlink:href="#glyph0-4" x="21.957031" y="97.03418"/>
  <use xlink:href="#glyph0-2" x="27.291016" y="97.03418"/>
  <use xlink:href="#glyph0-3" x="29.958008" y="97.03418"/>
</g>
<g style="fill:rgb(0%,0%,0%);fill-opacity:1;">
  <use xlink:href="#glyph0-5" x="21.957031" y="23.311523"/>
  <use xlink:href="#glyph0-2" x="27.291016" y="23.311523"/>
  <use xlink:href="#glyph0-1" x="29.958008" y="23.311523"/>
</g>
<g style="fill:rgb(0%,0%,0%);fill-opacity:1;">
  <use xlink:href="#glyph0-4" x="95.925781" y="338.19043"/>
</g>
<g style="fill:rgb(0%,0%,0%);fill-opacity:1;">
  <use xlink:href="#glyph0-5" x="157.605469" y="338.19043"/>
</g>
<g style="fill:rgb(0%,0%,0%);fill-opacity:1;">
  <use xlink:href="#glyph0-6" x="219.285156" y="338.19043"/>
</g>
<g style="fill:rgb(0%,0%,0%);fill-opacity:1;">
  <use xlink:href="#glyph0-7" x="280.964844" y="338.19043"/>
</g>
<g style="fill:rgb(0%,0%,0%);fill-opacity:1;">
  <use xlink:href="#glyph0-3" x="342.644531" y="338.19043"/>
</g>
<g style="fill:rgb(0%,0%,0%);fill-opacity:1;">
  <use xlink:href="#glyph0-8" x="404.324219" y="338.19043"/>
</g>
<g style="fill:rgb(0%,0%,0%);fill-opacity:1;">
  <use xlink:href="#glyph0-9" x="466" y="338.19043"/>
</g>
<g style="fill:rgb(0%,0%,0%);fill-opacity:1;">
  <use xlink:href="#glyph0-10" x="527.679688" y="338.19043"/>
</g>
<g style="fill:rgb(0%,0%,0%);fill-opacity:1;">
  <use xlink:href="#glyph0-11" x="589.359375" y="338.19043"/>
</g>
<g style="fill:rgb(0%,0%,0%);fill-opacity:1;">
  <use xlink:href="#glyph0-4" x="648.539062" y="338.19043"/>
  <use xlink:href="#glyph0-1" x="653.873047" y="338.19043"/>
</g>
<g style="fill:rgb(0%,0%,0%);fill-opacity:1;">
  <use xlink:href="#glyph1-1" x="14.412109" y="178.015625"/>
  <use xlink:href="#glyph1-2" x="14.412109" y="170.011719"/>
  <use xlink:href="#glyph1-3" x="14.412109" y="167.347656"/>
  <use xlink:href="#glyph1-4" x="14.412109" y="164.011719"/>
</g>
</g>
</svg>
