<?xml version="1.0" encoding="UTF-8"?>
<svg xmlns="http://www.w3.org/2000/svg" xmlns:xlink="http://www.w3.org/1999/xlink" width="720pt" height="360pt" viewBox="0 0 720 360" version="1.1">
<defs>
<g>
<symbol overflow="visible" id="glyph0-0">
<path style="stroke:none;" d=""/>
</symbol>
<symbol overflow="visible" id="glyph0-1">
<path style="stroke:none;" d="M 2.640625 -6.796875 C 2 -6.796875 1.421875 -6.53125 1.078125 -6.046875 C 0.640625 -5.453125 0.40625 -4.546875 0.40625 -3.296875 C 0.40625 -1 1.1875 0.21875 2.640625 0.21875 C 4.078125 0.21875 4.859375 -1 4.859375 -3.234375 C 4.859375 -4.5625 4.65625 -5.4375 4.203125 -6.046875 C 3.84375 -6.53125 3.28125 -6.796875 2.640625 -6.796875 Z M 2.640625 -6.046875 C 3.546875 -6.046875 4 -5.125 4 -3.3125 C 4 -1.375 3.5625 -0.484375 2.625 -0.484375 C 1.734375 -0.484375 1.28125 -1.421875 1.28125 -3.28125 C 1.28125 -5.140625 1.734375 -6.046875 2.640625 -6.046875 Z M 2.640625 -6.046875 "/>
</symbol>
<symbol overflow="visible" id="glyph0-2">
<path style="stroke:none;" d="M 1.828125 -1 L 0.828125 -1 L 0.828125 0 L 1.828125 0 Z M 1.828125 -1 "/>
</symbol>
<symbol overflow="visible" id="glyph0-3">
<path style="stroke:none;" d="M 4.5625 -6.796875 L 1.0625 -6.796875 L 0.546875 -3.09375 L 1.328125 -3.09375 C 1.71875 -3.5625 2.046875 -3.734375 2.578125 -3.734375 C 3.484375 -3.734375 4.0625 -3.109375 4.0625 -2.09375 C 4.0625 -1.125 3.484375 -0.53125 2.578125 -0.53125 C 1.828125 -0.53125 1.375 -0.90625 1.1875 -1.671875 L 0.328125 -1.671875 C 0.453125 -1.109375 0.546875 -0.84375 0.75 -0.59375 C 1.125 -0.078125 1.828125 0.21875 2.59375 0.21875 C 3.96875 0.21875 4.921875 -0.78125 4.921875 -2.21875 C 4.921875 -3.5625 4.03125 -4.484375 2.71875 -4.484375 C 2.25 -4.484375 1.859375 -4.359375 1.46875 -4.0625 L 1.734375 -5.96875 L 4.5625 -5.96875 Z M 4.5625 -6.796875 "/>
</symbol>
<symbol overflow="visible" id="glyph0-4">
<path style="stroke:none;" d="M 2.484375 -4.84375 L 2.484375 0 L 3.328125 0 L 3.328125 -6.796875 L 2.765625 -6.796875 C 2.46875 -5.75 2.28125 -5.609375 0.984375 -5.453125 L 0.984375 -4.84375 Z M 2.484375 -4.84375 "/>
</symbol>
<symbol overflow="visible" id="glyph0-5">
<path style="stroke:none;" d="M 4.859375 -0.828125 L 1.28125 -0.828125 C 1.359375 -1.390625 1.671875 -1.75 2.5 -2.234375 L 3.46875 -2.75 C 4.40625 -3.265625 4.90625 -3.96875 4.90625 -4.8125 C 4.90625 -5.375 4.671875 -5.90625 4.265625 -6.265625 C 3.859375 -6.625 3.375 -6.796875 2.71875 -6.796875 C 1.859375 -6.796875 1.21875 -6.5 0.84375 -5.921875 C 0.609375 -5.5625 0.5 -5.125 0.484375 -4.4375 L 1.328125 -4.4375 C 1.359375 -4.90625 1.40625 -5.1875 1.53125 -5.40625 C 1.75 -5.8125 2.1875 -6.0625 2.703125 -6.0625 C 3.46875 -6.0625 4.03125 -5.515625 4.03125 -4.78125 C 4.03125 -4.25 3.71875 -3.796875 3.125 -3.4375 L 2.234375 -2.9375 C 0.8125 -2.140625 0.40625 -1.5 0.328125 0 L 4.859375 0 Z M 4.859375 -0.828125 "/>
</symbol>
<symbol overflow="visible" id="glyph0-6">
<path style="stroke:none;" d="M 2.125 -3.125 L 2.578125 -3.125 C 3.515625 -3.125 3.984375 -2.703125 3.984375 -1.890625 C 3.984375 -1.03125 3.46875 -0.53125 2.578125 -0.53125 C 1.65625 -0.53125 1.203125 -0.984375 1.15625 -1.96875 L 0.3125 -1.96875 C 0.34375 -1.421875 0.4375 -1.078125 0.609375 -0.765625 C 0.953125 -0.109375 1.625 0.21875 2.546875 0.21875 C 3.953125 0.21875 4.859375 -0.609375 4.859375 -1.90625 C 4.859375 -2.765625 4.515625 -3.25 3.703125 -3.515625 C 4.34375 -3.765625 4.65625 -4.25 4.65625 -4.9375 C 4.65625 -6.109375 3.875 -6.796875 2.578125 -6.796875 C 1.203125 -6.796875 0.484375 -6.046875 0.453125 -4.609375 L 1.296875 -4.609375 C 1.3125 -5.015625 1.34375 -5.25 1.453125 -5.453125 C 1.640625 -5.828125 2.0625 -6.0625 2.59375 -6.0625 C 3.34375 -6.0625 3.796875 -5.625 3.796875 -4.90625 C 3.796875 -4.421875 3.609375 -4.140625 3.25 -3.984375 C 3.015625 -3.890625 2.71875 -3.84375 2.125 -3.84375 Z M 2.125 -3.125 "/>
</symbol>
<symbol overflow="visible" id="glyph0-7">
<path style="stroke:none;" d="M 3.140625 -1.625 L 3.140625 0 L 3.984375 0 L 3.984375 -1.625 L 4.984375 -1.625 L 4.984375 -2.390625 L 3.984375 -2.390625 L 3.984375 -6.796875 L 3.359375 -6.796875 L 0.265625 -2.515625 L 0.265625 -1.625 Z M 3.140625 -2.390625 L 1 -2.390625 L 3.140625 -5.359375 Z M 3.140625 -2.390625 "/>
</symbol>
<symbol overflow="visible" id="glyph0-8">
<path style="stroke:none;" d="M 4.78125 -5.03125 C 4.609375 -6.140625 3.890625 -6.796875 2.84375 -6.796875 C 2.09375 -6.796875 1.421875 -6.4375 1.03125 -5.828125 C 0.609375 -5.171875 0.40625 -4.34375 0.40625 -3.09375 C 0.40625 -1.953125 0.578125 -1.234375 0.984375 -0.625 C 1.359375 -0.078125 1.953125 0.21875 2.703125 0.21875 C 3.984375 0.21875 4.921875 -0.734375 4.921875 -2.078125 C 4.921875 -3.34375 4.0625 -4.234375 2.84375 -4.234375 C 2.171875 -4.234375 1.640625 -3.96875 1.28125 -3.46875 C 1.28125 -5.125 1.828125 -6.046875 2.796875 -6.046875 C 3.390625 -6.046875 3.796875 -5.671875 3.9375 -5.03125 Z M 2.734375 -3.484375 C 3.546875 -3.484375 4.0625 -2.921875 4.0625 -2 C 4.0625 -1.15625 3.484375 -0.53125 2.703125 -0.53125 C 1.921875 -0.53125 1.328125 -1.1875 1.328125 -2.046875 C 1.328125 -2.890625 1.90625 -3.484375 2.734375 -3.484375 Z M 2.734375 -3.484375 "/>
</symbol>
<symbol overflow="visible" id="glyph0-9">
<path style="stroke:none;" d="M 4.984375 -6.796875 L 0.4375 -6.796875 L 0.4375 -5.96875 L 4.109375 -5.96875 C 2.5 -3.65625 1.828125 -2.234375 1.328125 0 L 2.21875 0 C 2.59375 -2.171875 3.453125 -4.046875 4.984375 -6.09375 Z M 4.984375 -6.796875 "/>
</symbol>
<symbol overflow="visible" id="glyph0-10">
<path style="stroke:none;" d="M 3.75 -3.578125 C 4.453125 -4 4.6875 -4.34375 4.6875 -4.984375 C 4.6875 -6.046875 3.84375 -6.796875 2.640625 -6.796875 C 1.4375 -6.796875 0.59375 -6.046875 0.59375 -4.984375 C 0.59375 -4.359375 0.828125 -4.015625 1.515625 -3.578125 C 0.734375 -3.203125 0.359375 -2.640625 0.359375 -1.890625 C 0.359375 -0.640625 1.296875 0.21875 2.640625 0.21875 C 3.984375 0.21875 4.921875 -0.640625 4.921875 -1.875 C 4.921875 -2.640625 4.53125 -3.203125 3.75 -3.578125 Z M 2.640625 -6.046875 C 3.359375 -6.046875 3.8125 -5.625 3.8125 -4.96875 C 3.8125 -4.34375 3.34375 -3.921875 2.640625 -3.921875 C 1.921875 -3.921875 1.453125 -4.34375 1.453125 -4.984375 C 1.453125 -5.625 1.921875 -6.046875 2.640625 -6.046875 Z M 2.640625 -3.203125 C 3.484375 -3.203125 4.0625 -2.671875 4.0625 -1.875 C 4.0625 -1.0625 3.484375 -0.53125 2.625 -0.53125 C 1.796875 -0.53125 1.21875 -1.078125 1.21875 -1.875 C 1.21875 -2.671875 1.796875 -3.203125 2.640625 -3.203125 Z M 2.640625 -3.203125 "/>
</symbol>
<symbol overflow="visible" id="glyph0-11">
<path style="stroke:none;" d="M 0.515625 -1.546875 C 0.671875 -0.4375 1.40625 0.21875 2.4375 0.21875 C 3.1875 0.21875 3.859375 -0.140625 4.265625 -0.75 C 4.6875 -1.40625 4.890625 -2.25 4.890625 -3.484375 C 4.890625 -4.625 4.703125 -5.359375 4.3125 -5.953125 C 3.9375 -6.5 3.34375 -6.796875 2.59375 -6.796875 C 1.296875 -6.796875 0.359375 -5.84375 0.359375 -4.515625 C 0.359375 -3.25 1.234375 -2.34375 2.453125 -2.34375 C 3.09375 -2.34375 3.5625 -2.578125 4.015625 -3.109375 C 4 -1.453125 3.46875 -0.53125 2.5 -0.53125 C 1.90625 -0.53125 1.484375 -0.90625 1.359375 -1.546875 Z M 2.578125 -6.0625 C 3.375 -6.0625 3.96875 -5.40625 3.96875 -4.53125 C 3.96875 -3.6875 3.375 -3.09375 2.546875 -3.09375 C 1.734375 -3.09375 1.234375 -3.671875 1.234375 -4.578125 C 1.234375 -5.4375 1.796875 -6.0625 2.578125 -6.0625 Z M 2.578125 -6.0625 "/>
</symbol>
<symbol overflow="visible" id="glyph1-0">
<path style="stroke:none;" d=""/>
</symbol>
<symbol overflow="visible" id="glyph1-1">
<path style="stroke:none;" d="M 0 -0.953125 L 0 -4.890625 C 0 -5.71875 -0.234375 -6.34375 -0.734375 -6.796875 C -1.1875 -7.234375 -1.8125 -7.46875 -2.5 -7.46875 C -3.546875 -7.46875 -4.1875 -7 -4.625 -5.875 C -4.984375 -6.671875 -5.640625 -7.09375 -6.53125 -7.09375 C -7.15625 -7.09375 -7.734375 -6.859375 -8.140625 -6.390625 C -8.5625 -5.9375 -8.75 -5.34375 -8.75 -4.5 L -8.75 -0.953125 Z M -4.984375 -2.0625 L -7.765625 -2.0625 L -7.765625 -4.21875 C -7.765625 -4.84375 -7.6875 -5.203125 -7.453125 -5.5 C -7.21875 -5.8125 -6.859375 -5.96875 -6.375 -5.96875 C -5.90625 -5.96875 -5.53125 -5.8125 -5.296875 -5.5 C -5.0625 -5.203125 -4.984375 -4.84375 -4.984375 -4.21875 Z M -0.984375 -2.0625 L -4 -2.0625 L -4 -4.78125 C -4 -5.328125 -3.859375 -5.6875 -3.578125 -5.953125 C -3.296875 -6.21875 -2.921875 -6.359375 -2.484375 -6.359375 C -2.0625 -6.359375 -1.6875 -6.21875 -1.40625 -5.953125 C -1.109375 -5.6875 -0.984375 -5.328125 -0.984375 -4.78125 Z M -0.984375 -2.0625 "/>
</symbol>
<symbol overflow="visible" id="glyph1-2">
<path style="stroke:none;" d="M -6.28125 -1.796875 L -6.28125 -0.796875 L 0 -0.796875 L 0 -1.796875 Z M -8.75 -1.796875 L -8.75 -0.796875 L -7.484375 -0.796875 L -7.484375 -1.796875 Z M -8.75 -1.796875 "/>
</symbol>
<symbol overflow="visible" id="glyph1-3">
<path style="stroke:none;" d="M -6.28125 -3.046875 L -6.28125 -2.015625 L -8.015625 -2.015625 L -8.015625 -1.015625 L -6.28125 -1.015625 L -6.28125 -0.171875 L -5.46875 -0.171875 L -5.46875 -1.015625 L -0.71875 -1.015625 C -0.078125 -1.015625 0.28125 -1.453125 0.28125 -2.234375 C 0.28125 -2.46875 0.25 -2.71875 0.1875 -3.046875 L -0.640625 -3.046875 C -0.609375 -2.921875 -0.59375 -2.765625 -0.59375 -2.5625 C -0.59375 -2.140625 -0.71875 -2.015625 -1.15625 -2.015625 L -5.46875 -2.015625 L -5.46875 -3.046875 Z M -6.28125 -3.046875 "/>
</symbol>
<symbol overflow="visible" id="glyph1-4">
<path style="stroke:none;" d="M -4.53125 -5.25 C -5.765625 -5.25 -6.46875 -4.421875 -6.46875 -2.96875 C -6.46875 -1.515625 -5.71875 -0.5625 -4.546875 -0.5625 C -3.5625 -0.5625 -3.09375 -1.0625 -2.734375 -2.5625 L -2.515625 -3.484375 C -2.34375 -4.1875 -2.09375 -4.46875 -1.625 -4.46875 C -1.046875 -4.46875 -0.640625 -3.875 -0.640625 -3 C -0.640625 -2.453125 -0.796875 -2 -1.0625 -1.75 C -1.25 -1.59375 -1.421875 -1.53125 -1.875 -1.46875 L -1.875 -0.40625 C -0.421875 -0.453125 0.28125 -1.265625 0.28125 -2.921875 C 0.28125 -4.5 -0.5 -5.515625 -1.71875 -5.515625 C -2.65625 -5.515625 -3.171875 -4.984375 -3.46875 -3.734375 L -3.703125 -2.765625 C -3.890625 -1.953125 -4.15625 -1.609375 -4.59375 -1.609375 C -5.171875 -1.609375 -5.546875 -2.125 -5.546875 -2.9375 C -5.546875 -3.75 -5.203125 -4.171875 -4.53125 -4.203125 Z M -4.53125 -5.25 "/>
</symbol>
</g>
</defs>
<g id="surface16108">
<rect x="0" y="0" width="720" height="360" style="fill:rgb(100%,100%,100%);fill-opacity:1;stroke:none;"/>
<path style=" stroke:none;fill-rule:nonzero;fill:rgb(6.27451%,58.823529%,28.235294%);fill-opacity:1;" d="M 69.628906 314.351562 L 69.671875 314.328125 L 86.546875 292.453125 L 91.671875 292.453125 L 108.628906 314.371094 L 102.667969 314.371094 L 98.417969 308.648438 L 79.796875 308.648438 L 75.628906 314.351562 L 69.628906 314.351562 L 81.585938 306.28125 L 96.710938 306.261719 L 89.171875 296.035156 L 89.085938 296.011719 L 89.003906 296.074219 L 81.546875 306.261719 L 81.585938 306.28125 Z M 69.628906 314.351562 "/>
<path style=" stroke:none;fill-rule:nonzero;fill:rgb(14.509804%,36.078431%,60%);fill-opacity:1;" d="M 69.628906 178.238281 L 69.675781 178.058594 L 69.675781 173.667969 L 69.820312 166.714844 L 70.152344 157.9375 L 70.484375 151.902344 L 71.339844 141.109375 L 72.53125 130.683594 L 73.765625 122.636719 L 74.671875 117.882812 L 75.480469 114.222656 L 77.332031 107.457031 L 78.523438 103.980469 L 79.808594 100.871094 L 81.375 97.761719 L 82.519531 95.933594 L 85.085938 93.007812 L 86.988281 91.726562 L 88.460938 91.179688 L 91.648438 91.179688 L 93.550781 91.910156 L 94.929688 92.824219 L 96.453125 94.289062 L 97.738281 95.933594 L 99.972656 99.957031 L 101.96875 105.078125 L 102.871094 108.003906 L 104.300781 113.675781 L 105.394531 119.160156 L 106.15625 123.917969 L 107.011719 130.683594 L 107.769531 138.914062 L 108.34375 148.242188 L 108.628906 156.109375 L 101.96875 156.109375 L 101.636719 148.792969 L 101.257812 143.121094 L 100.542969 135.625 L 99.828125 130.320312 L 98.832031 125.015625 L 97.925781 121.539062 L 96.691406 118.066406 L 95.597656 115.871094 L 94.453125 114.222656 L 93.359375 113.125 L 91.269531 112.027344 L 88.84375 112.027344 L 87.9375 112.394531 L 86.085938 113.859375 L 85.085938 115.136719 L 83.660156 117.699219 L 82.660156 120.078125 L 81.472656 123.734375 L 80.664062 126.84375 L 79.664062 131.597656 L 78.949219 135.804688 L 78.140625 141.84375 L 77.667969 146.414062 L 77.238281 151.535156 L 76.859375 157.570312 L 76.574219 163.972656 L 76.382812 170.742188 L 76.289062 177.324219 L 76.289062 205.675781 L 76.382812 212.257812 L 76.621094 219.941406 L 77.238281 231.097656 L 78.140625 240.792969 L 79.1875 248.472656 L 80.1875 253.960938 L 80.757812 256.523438 L 81.519531 259.449219 L 82.707031 263.105469 L 84.421875 266.765625 L 85.417969 268.226562 L 86.941406 269.691406 L 88.511719 270.421875 L 90.601562 270.421875 L 92.457031 269.691406 L 93.695312 268.777344 L 94.976562 267.3125 L 96.738281 264.203125 L 97.832031 261.277344 L 98.78125 257.800781 L 99.496094 254.328125 L 99.972656 251.402344 L 100.683594 245.730469 L 101.257812 239.511719 L 101.683594 233.109375 L 101.96875 226.890625 L 108.628906 226.890625 L 108.34375 234.207031 L 107.914062 241.339844 L 107.484375 246.644531 L 106.820312 253.046875 L 106.058594 258.71875 L 104.964844 265.117188 L 104.0625 269.324219 L 102.871094 273.898438 L 101.777344 277.371094 L 100.589844 280.480469 L 98.832031 284.140625 L 97.6875 285.96875 L 96.453125 287.617188 L 94.976562 289.078125 L 93.125 290.359375 L 91.125 291.089844 L 89.269531 291.273438 L 87.273438 290.90625 L 85.800781 290.175781 L 83.847656 288.53125 L 81.425781 285.238281 L 79.664062 281.761719 L 78.285156 278.289062 L 77.097656 274.628906 L 75.765625 269.691406 L 74.050781 261.644531 L 73.007812 255.425781 L 72.292969 250.304688 L 71.484375 243.171875 L 70.914062 236.769531 L 70.246094 226.527344 L 69.773438 213.539062 L 69.628906 203.480469 Z M 69.628906 178.238281 "/>
<path style=" stroke:none;fill-rule:nonzero;fill:rgb(6.27451%,58.823529%,28.235294%);fill-opacity:1;" d="M 110.679688 314.304688 L 110.722656 314.242188 L 127.597656 246.179688 L 132.71875 246.179688 L 149.679688 314.371094 L 143.71875 314.371094 L 139.46875 296.570312 L 120.847656 296.570312 L 116.679688 314.304688 L 110.679688 314.304688 L 122.636719 289.207031 L 137.761719 289.144531 L 130.222656 257.320312 L 130.136719 257.257812 L 130.054688 257.449219 L 122.597656 289.144531 L 122.636719 289.207031 Z M 110.679688 314.304688 "/>
<path style=" stroke:none;fill-rule:nonzero;fill:rgb(14.509804%,36.078431%,60%);fill-opacity:1;" d="M 110.679688 201.335938 L 110.726562 201.265625 L 110.726562 199.570312 L 110.871094 196.882812 L 111.203125 193.492188 L 111.535156 191.160156 L 112.390625 186.992188 L 113.582031 182.964844 L 114.816406 179.855469 L 115.722656 178.019531 L 116.53125 176.605469 L 118.382812 173.992188 L 119.574219 172.648438 L 120.859375 171.449219 L 122.425781 170.246094 L 123.570312 169.539062 L 126.136719 168.410156 L 128.039062 167.914062 L 129.511719 167.703125 L 132.699219 167.703125 L 134.601562 167.984375 L 135.980469 168.339844 L 137.503906 168.902344 L 138.789062 169.539062 L 141.023438 171.09375 L 143.019531 173.074219 L 143.921875 174.203125 L 145.351562 176.394531 L 146.445312 178.511719 L 147.207031 180.351562 L 148.0625 182.964844 L 148.820312 186.144531 L 149.394531 189.746094 L 149.679688 192.785156 L 143.019531 192.785156 L 142.6875 189.960938 L 142.304688 187.769531 L 141.59375 184.871094 L 140.878906 182.824219 L 139.882812 180.773438 L 138.976562 179.433594 L 137.742188 178.089844 L 136.648438 177.242188 L 135.503906 176.605469 L 134.410156 176.179688 L 132.320312 175.757812 L 129.894531 175.757812 L 128.988281 175.898438 L 127.136719 176.464844 L 126.136719 176.957031 L 124.710938 177.949219 L 123.710938 178.867188 L 122.523438 180.28125 L 121.714844 181.480469 L 120.714844 183.316406 L 120 184.941406 L 119.191406 187.273438 L 118.71875 189.042969 L 118.289062 191.019531 L 117.910156 193.351562 L 117.625 195.824219 L 117.433594 198.4375 L 117.339844 200.980469 L 117.339844 211.933594 L 117.433594 214.476562 L 117.671875 217.445312 L 118.289062 221.753906 L 119.191406 225.5 L 120.238281 228.46875 L 121.238281 230.585938 L 121.808594 231.578125 L 122.570312 232.707031 L 123.757812 234.121094 L 125.472656 235.535156 L 126.46875 236.097656 L 127.992188 236.664062 L 129.5625 236.945312 L 131.652344 236.945312 L 133.507812 236.664062 L 134.746094 236.3125 L 136.027344 235.746094 L 137.789062 234.542969 L 138.882812 233.414062 L 139.832031 232.070312 L 140.546875 230.730469 L 141.023438 229.597656 L 141.734375 227.40625 L 142.304688 225.003906 L 142.734375 222.53125 L 143.019531 220.128906 L 149.679688 220.128906 L 149.394531 222.957031 L 148.964844 225.710938 L 148.535156 227.761719 L 147.871094 230.234375 L 147.109375 232.425781 L 146.015625 234.898438 L 145.113281 236.523438 L 143.921875 238.289062 L 142.828125 239.632812 L 141.640625 240.832031 L 139.882812 242.246094 L 138.738281 242.953125 L 137.503906 243.589844 L 136.027344 244.152344 L 134.175781 244.648438 L 132.175781 244.929688 L 130.320312 245 L 128.324219 244.859375 L 126.851562 244.578125 L 124.898438 243.941406 L 122.472656 242.667969 L 120.714844 241.328125 L 119.335938 239.984375 L 118.148438 238.570312 L 116.816406 236.664062 L 115.101562 233.554688 L 114.058594 231.152344 L 113.34375 229.175781 L 112.535156 226.417969 L 111.964844 223.945312 L 111.296875 219.988281 L 110.824219 214.972656 L 110.679688 211.085938 Z M 110.679688 201.335938 "/>
<path style=" stroke:none;fill-rule:nonzero;fill:rgb(14.509804%,36.078431%,60%);fill-opacity:1;" d="M 151.730469 158.070312 L 151.777344 157.828125 L 151.777344 151.976562 L 151.921875 142.710938 L 152.253906 131.011719 L 152.585938 122.964844 L 153.441406 108.582031 L 154.632812 94.6875 L 155.867188 83.957031 L 156.773438 77.621094 L 157.582031 72.746094 L 159.433594 63.722656 L 160.625 59.09375 L 161.910156 54.949219 L 163.476562 50.804688 L 164.617188 48.367188 L 167.1875 44.464844 L 169.089844 42.757812 L 170.5625 42.027344 L 173.75 42.027344 L 175.652344 43.003906 L 177.03125 44.222656 L 178.554688 46.171875 L 179.839844 48.367188 L 182.074219 53.730469 L 184.070312 60.554688 L 184.972656 64.457031 L 186.402344 72.011719 L 187.496094 79.328125 L 188.253906 85.664062 L 189.113281 94.6875 L 189.871094 105.65625 L 190.445312 118.089844 L 190.730469 128.570312 L 184.070312 128.570312 L 183.738281 118.820312 L 183.355469 111.261719 L 182.644531 101.269531 L 181.929688 94.199219 L 180.933594 87.128906 L 180.027344 82.496094 L 178.792969 77.863281 L 177.699219 74.9375 L 176.554688 72.746094 L 175.460938 71.28125 L 173.371094 69.820312 L 170.945312 69.820312 L 170.039062 70.308594 L 168.1875 72.257812 L 167.1875 73.964844 L 165.761719 77.375 L 164.761719 80.546875 L 163.574219 85.421875 L 162.765625 89.566406 L 161.765625 95.90625 L 161.050781 101.511719 L 160.242188 109.554688 L 159.769531 115.652344 L 159.339844 122.476562 L 158.960938 130.523438 L 158.675781 139.054688 L 158.484375 148.074219 L 158.390625 156.851562 L 158.390625 194.636719 L 158.484375 203.414062 L 158.722656 213.652344 L 159.339844 228.523438 L 160.242188 241.445312 L 161.289062 251.683594 L 162.289062 259 L 162.859375 262.410156 L 163.621094 266.3125 L 164.808594 271.1875 L 166.519531 276.0625 L 167.519531 278.015625 L 169.042969 279.964844 L 170.613281 280.9375 L 172.703125 280.9375 L 174.558594 279.964844 L 175.796875 278.746094 L 177.078125 276.792969 L 178.839844 272.652344 L 179.933594 268.75 L 180.882812 264.117188 L 181.597656 259.484375 L 182.074219 255.585938 L 182.785156 248.027344 L 183.355469 239.738281 L 183.785156 231.207031 L 184.070312 222.917969 L 190.730469 222.917969 L 190.445312 232.667969 L 190.015625 242.175781 L 189.585938 249.246094 L 188.921875 257.78125 L 188.160156 265.335938 L 187.066406 273.871094 L 186.164062 279.476562 L 184.972656 285.570312 L 183.878906 290.203125 L 182.691406 294.347656 L 180.933594 299.222656 L 179.789062 301.660156 L 178.554688 303.855469 L 177.078125 305.804688 L 175.226562 307.511719 L 173.226562 308.488281 L 171.371094 308.730469 L 169.375 308.242188 L 167.902344 307.269531 L 165.949219 305.074219 L 163.523438 300.6875 L 161.765625 296.054688 L 160.386719 291.421875 L 159.199219 286.546875 L 157.867188 279.964844 L 156.152344 269.238281 L 155.105469 260.949219 L 154.394531 254.121094 L 153.585938 244.613281 L 153.015625 236.082031 L 152.347656 222.429688 L 151.875 205.121094 L 151.730469 191.714844 Z M 151.730469 158.070312 "/>
<path style=" stroke:none;fill-rule:nonzero;fill:rgb(83.921569%,15.686275%,22.352941%);fill-opacity:1;" d="M 151.730469 309.910156 L 190.730469 309.910156 L 190.730469 310.386719 L 174.476562 310.390625 L 174.476562 314.371094 L 167.9375 314.371094 L 167.9375 310.394531 L 167.839844 310.386719 L 151.730469 310.386719 Z M 151.730469 309.910156 "/>
<path style=" stroke:none;fill-rule:nonzero;fill:rgb(14.509804%,36.078431%,60%);fill-opacity:1;" d="M 192.78125 178.238281 L 192.828125 178.058594 L 192.828125 173.667969 L 192.972656 166.714844 L 193.304688 157.9375 L 193.636719 151.902344 L 194.492188 141.109375 L 195.683594 130.683594 L 196.917969 122.636719 L 197.824219 117.882812 L 198.632812 114.222656 L 200.484375 107.457031 L 201.675781 103.980469 L 202.957031 100.871094 L 204.527344 97.761719 L 205.667969 95.933594 L 208.238281 93.007812 L 210.140625 91.726562 L 211.613281 91.179688 L 214.800781 91.179688 L 216.703125 91.910156 L 218.082031 92.824219 L 219.605469 94.289062 L 220.886719 95.933594 L 223.125 99.957031 L 225.121094 105.078125 L 226.023438 108.003906 L 227.453125 113.675781 L 228.546875 119.160156 L 229.304688 123.917969 L 230.164062 130.683594 L 230.921875 138.914062 L 231.496094 148.242188 L 231.78125 156.109375 L 225.121094 156.109375 L 224.789062 148.792969 L 224.40625 143.121094 L 223.695312 135.625 L 222.980469 130.320312 L 221.984375 125.015625 L 221.078125 121.539062 L 219.84375 118.066406 L 218.75 115.871094 L 217.605469 114.222656 L 216.511719 113.125 L 214.421875 112.027344 L 211.996094 112.027344 L 211.089844 112.394531 L 209.238281 113.859375 L 208.238281 115.136719 L 206.8125 117.699219 L 205.8125 120.078125 L 204.625 123.734375 L 203.816406 126.84375 L 202.816406 131.597656 L 202.101562 135.804688 L 201.292969 141.84375 L 200.820312 146.414062 L 200.390625 151.535156 L 200.011719 157.570312 L 199.726562 163.972656 L 199.535156 170.742188 L 199.441406 177.324219 L 199.441406 205.675781 L 199.535156 212.257812 L 199.773438 219.941406 L 200.390625 231.097656 L 201.292969 240.792969 L 202.339844 248.472656 L 203.339844 253.960938 L 203.910156 256.523438 L 204.671875 259.449219 L 205.859375 263.105469 L 207.570312 266.765625 L 208.570312 268.226562 L 210.09375 269.691406 L 211.664062 270.421875 L 213.753906 270.421875 L 215.609375 269.691406 L 216.847656 268.777344 L 218.128906 267.3125 L 219.890625 264.203125 L 220.984375 261.277344 L 221.933594 257.800781 L 222.648438 254.328125 L 223.125 251.402344 L 223.835938 245.730469 L 224.40625 239.511719 L 224.835938 233.109375 L 225.121094 226.890625 L 231.78125 226.890625 L 231.496094 234.207031 L 231.066406 241.339844 L 230.636719 246.644531 L 229.972656 253.046875 L 229.210938 258.71875 L 228.117188 265.117188 L 227.214844 269.324219 L 226.023438 273.898438 L 224.929688 277.371094 L 223.742188 280.480469 L 221.984375 284.140625 L 220.839844 285.96875 L 219.605469 287.617188 L 218.128906 289.078125 L 216.277344 290.359375 L 214.277344 291.089844 L 212.421875 291.273438 L 210.425781 290.90625 L 208.953125 290.175781 L 207 288.53125 L 204.574219 285.238281 L 202.816406 281.761719 L 201.4375 278.289062 L 200.25 274.628906 L 198.917969 269.691406 L 197.203125 261.644531 L 196.15625 255.425781 L 195.445312 250.304688 L 194.636719 243.171875 L 194.066406 236.769531 L 193.398438 226.527344 L 192.925781 213.539062 L 192.78125 203.480469 Z M 192.78125 178.238281 "/>
<path style=" stroke:none;fill-rule:nonzero;fill:rgb(83.921569%,15.686275%,22.352941%);fill-opacity:1;" d="M 192.78125 292.453125 L 231.78125 292.453125 L 231.78125 294.800781 L 215.527344 294.820312 L 215.527344 314.371094 L 208.988281 314.371094 L 208.988281 294.839844 L 208.890625 294.800781 L 192.78125 294.800781 Z M 192.78125 292.453125 "/>
<path style=" stroke:none;fill-rule:nonzero;fill:rgb(96.862745%,70.196078%,16.862745%);fill-opacity:1;" d="M 233.832031 146.460938 L 233.878906 146.191406 L 233.878906 140.828125 L 234.070312 128.757812 L 234.546875 112.128906 L 235.164062 98.449219 L 235.828125 87.71875 L 236.257812 82.085938 L 236.972656 74.039062 L 237.589844 68.140625 L 239.160156 56.070312 L 241.15625 44.804688 L 242.25 39.976562 L 243.488281 35.414062 L 245.246094 30.320312 L 246.054688 28.441406 L 248.527344 24.148438 L 251.332031 21.46875 L 254.425781 20.664062 L 255.851562 20.929688 L 257.800781 22.003906 L 260.464844 24.953125 L 261.988281 27.636719 L 263.175781 30.320312 L 264.414062 33.804688 L 265.933594 39.171875 L 267.359375 45.609375 L 268.503906 52.046875 L 269.644531 60.09375 L 270.59375 68.675781 L 271.402344 78.0625 L 272.117188 89.328125 L 272.542969 98.714844 L 272.832031 108.105469 L 266.21875 108.105469 L 265.839844 98.714844 L 265.410156 91.476562 L 264.699219 82.625 L 263.984375 76.1875 L 263.269531 71.089844 L 261.9375 64.117188 L 260.796875 59.824219 L 259.371094 56.070312 L 257.992188 53.65625 L 256.421875 52.046875 L 255.472656 51.507812 L 252.949219 51.507812 L 250.667969 53.386719 L 249.335938 55.53125 L 248.386719 57.679688 L 247.054688 61.703125 L 246.246094 64.921875 L 245.769531 67.066406 L 244.34375 75.382812 L 243.390625 82.890625 L 242.867188 87.988281 L 242.203125 96.035156 L 241.726562 103.277344 L 241.203125 114.003906 L 240.917969 122.050781 L 240.539062 140.292969 L 240.492188 188.574219 L 240.632812 198.765625 L 240.917969 209.761719 L 241.296875 219.417969 L 241.871094 229.609375 L 242.441406 237.390625 L 243.4375 247.851562 L 244.296875 254.824219 L 244.960938 259.382812 L 246.246094 266.625 L 246.769531 269.039062 L 248.003906 273.867188 L 249.289062 277.625 L 250.859375 280.84375 L 252.046875 282.453125 L 253.949219 283.792969 L 256.375 283.792969 L 259.226562 282.183594 L 261.035156 280.039062 L 262.273438 277.890625 L 263.082031 276.015625 L 264.078125 273.0625 L 264.792969 270.382812 L 265.457031 267.429688 L 266.265625 262.871094 L 266.265625 198.765625 L 254.519531 198.496094 L 254.519531 168.457031 L 272.78125 168.1875 L 272.832031 273.0625 L 271.832031 280.304688 L 270.59375 287.28125 L 269.40625 292.644531 L 268.167969 297.203125 L 266.410156 302.300781 L 264.984375 305.519531 L 262.796875 309.273438 L 260.796875 311.6875 L 258.707031 313.296875 L 256.851562 314.101562 L 254.664062 314.371094 L 252.710938 313.835938 L 250.621094 312.226562 L 248.957031 310.078125 L 247.433594 307.398438 L 245.910156 303.910156 L 244.007812 298.277344 L 242.773438 293.71875 L 241.488281 288.085938 L 240.203125 281.378906 L 239.0625 274.136719 L 238.300781 268.503906 L 237.542969 262.066406 L 236.734375 254.019531 L 235.972656 244.898438 L 235.402344 236.585938 L 234.878906 227.195312 L 234.496094 218.34375 L 234.117188 206.277344 L 233.925781 196.621094 L 233.832031 188.304688 Z M 233.832031 146.460938 "/>
<path style=" stroke:none;fill-rule:nonzero;fill:rgb(14.509804%,36.078431%,60%);fill-opacity:1;" d="M 274.882812 148.457031 L 274.929688 148.1875 L 274.929688 141.742188 L 275.074219 131.542969 L 275.40625 118.65625 L 275.738281 109.796875 L 276.59375 93.957031 L 277.785156 78.652344 L 279.019531 66.839844 L 279.925781 59.859375 L 280.734375 54.492188 L 282.585938 44.558594 L 283.777344 39.457031 L 285.058594 34.890625 L 286.628906 30.328125 L 287.769531 27.644531 L 290.339844 23.347656 L 292.242188 21.46875 L 293.714844 20.664062 L 296.902344 20.664062 L 298.804688 21.738281 L 300.183594 23.078125 L 301.707031 25.226562 L 302.988281 27.644531 L 305.226562 33.550781 L 307.222656 41.066406 L 308.125 45.363281 L 309.554688 53.683594 L 310.648438 61.738281 L 311.40625 68.71875 L 312.265625 78.652344 L 313.023438 90.734375 L 313.59375 104.425781 L 313.882812 115.96875 L 307.222656 115.96875 L 306.890625 105.230469 L 306.507812 96.910156 L 305.796875 85.902344 L 305.082031 78.117188 L 304.082031 70.332031 L 303.179688 65.230469 L 301.945312 60.128906 L 300.851562 56.90625 L 299.707031 54.492188 L 298.613281 52.878906 L 296.523438 51.269531 L 294.097656 51.269531 L 293.191406 51.804688 L 291.339844 53.953125 L 290.339844 55.832031 L 288.914062 59.589844 L 287.914062 63.082031 L 286.726562 68.449219 L 285.917969 73.015625 L 284.917969 79.996094 L 284.203125 86.171875 L 283.394531 95.03125 L 282.921875 101.742188 L 282.492188 109.257812 L 282.113281 118.117188 L 281.828125 127.515625 L 281.636719 137.449219 L 281.539062 147.113281 L 281.539062 188.726562 L 281.636719 198.390625 L 281.875 209.667969 L 282.492188 226.042969 L 283.394531 240.273438 L 284.441406 251.546875 L 285.441406 259.601562 L 286.011719 263.359375 L 286.773438 267.65625 L 287.960938 273.027344 L 289.671875 278.394531 L 290.671875 280.542969 L 292.195312 282.691406 L 293.761719 283.765625 L 295.855469 283.765625 L 297.710938 282.691406 L 298.949219 281.347656 L 300.230469 279.199219 L 301.992188 274.636719 L 303.085938 270.339844 L 304.035156 265.242188 L 304.75 260.140625 L 305.226562 255.84375 L 305.9375 247.519531 L 306.507812 238.394531 L 306.9375 228.996094 L 307.222656 219.867188 L 313.882812 219.867188 L 313.59375 230.609375 L 313.167969 241.078125 L 312.738281 248.863281 L 312.074219 258.261719 L 311.3125 266.582031 L 310.21875 275.980469 L 309.316406 282.152344 L 308.125 288.867188 L 307.03125 293.96875 L 305.84375 298.53125 L 304.082031 303.898438 L 302.941406 306.585938 L 301.707031 309 L 300.230469 311.148438 L 298.375 313.027344 L 296.378906 314.101562 L 294.523438 314.371094 L 292.527344 313.832031 L 291.050781 312.761719 L 289.101562 310.34375 L 286.675781 305.511719 L 284.917969 300.410156 L 283.539062 295.308594 L 282.347656 289.941406 L 281.019531 282.691406 L 279.304688 270.878906 L 278.257812 261.75 L 277.546875 254.234375 L 276.738281 243.761719 L 276.167969 234.367188 L 275.5 219.332031 L 275.027344 200.269531 L 274.882812 185.503906 Z M 274.882812 148.457031 "/>
<path style=" stroke:none;fill-rule:nonzero;fill:rgb(6.27451%,58.823529%,28.235294%);fill-opacity:1;" d="M 315.933594 314.332031 L 315.976562 314.292969 L 332.847656 273.605469 L 337.972656 273.605469 L 354.929688 314.371094 L 348.972656 314.371094 L 344.722656 303.730469 L 326.101562 303.730469 L 321.933594 314.332031 L 315.933594 314.332031 L 327.890625 299.328125 L 343.015625 299.289062 L 335.472656 280.265625 L 335.390625 280.226562 L 335.308594 280.34375 L 327.847656 299.289062 L 327.890625 299.328125 Z M 315.933594 314.332031 "/>
<path style=" stroke:none;fill-rule:nonzero;fill:rgb(83.921569%,15.686275%,22.352941%);fill-opacity:1;" d="M 315.933594 136.4375 L 354.929688 136.4375 L 354.929688 150.996094 L 338.679688 151.125 L 338.679688 272.425781 L 332.140625 272.425781 L 332.140625 151.25 L 332.042969 150.996094 L 315.933594 150.996094 Z M 315.933594 136.4375 "/>
<path style=" stroke:none;fill-rule:nonzero;fill:rgb(14.509804%,36.078431%,60%);fill-opacity:1;" d="M 356.984375 282.710938 L 357.03125 282.660156 L 357.03125 281.433594 L 357.175781 279.484375 L 357.507812 277.027344 L 357.839844 275.335938 L 358.695312 272.3125 L 359.886719 269.394531 L 361.121094 267.140625 L 362.023438 265.808594 L 362.832031 264.78125 L 364.6875 262.886719 L 365.878906 261.914062 L 367.160156 261.042969 L 368.730469 260.171875 L 369.871094 259.660156 L 372.441406 258.839844 L 374.34375 258.480469 L 375.816406 258.328125 L 379.003906 258.328125 L 380.90625 258.535156 L 382.285156 258.789062 L 383.808594 259.199219 L 385.089844 259.660156 L 387.328125 260.789062 L 389.324219 262.222656 L 390.226562 263.042969 L 391.65625 264.628906 L 392.75 266.167969 L 393.507812 267.5 L 394.367188 269.394531 L 395.125 271.699219 L 395.695312 274.3125 L 395.980469 276.515625 L 389.324219 276.515625 L 388.992188 274.464844 L 388.609375 272.875 L 387.898438 270.777344 L 387.183594 269.292969 L 386.183594 267.804688 L 385.28125 266.832031 L 384.046875 265.859375 L 382.953125 265.246094 L 381.808594 264.78125 L 380.714844 264.476562 L 378.625 264.167969 L 376.199219 264.167969 L 375.292969 264.269531 L 373.4375 264.679688 L 372.441406 265.039062 L 371.015625 265.757812 L 370.015625 266.421875 L 368.828125 267.445312 L 368.019531 268.316406 L 367.019531 269.648438 L 366.304688 270.828125 L 365.496094 272.519531 L 365.023438 273.800781 L 364.59375 275.234375 L 364.214844 276.925781 L 363.925781 278.71875 L 363.738281 280.613281 L 363.640625 282.457031 L 363.640625 290.398438 L 363.738281 292.242188 L 363.976562 294.390625 L 364.59375 297.515625 L 365.496094 300.230469 L 366.542969 302.382812 L 367.542969 303.921875 L 368.113281 304.636719 L 368.875 305.457031 L 370.0625 306.480469 L 371.773438 307.507812 L 372.773438 307.917969 L 374.296875 308.324219 L 375.863281 308.53125 L 377.957031 308.53125 L 379.8125 308.324219 L 381.046875 308.070312 L 382.332031 307.660156 L 384.09375 306.789062 L 385.1875 305.96875 L 386.136719 304.996094 L 386.851562 304.023438 L 387.328125 303.203125 L 388.039062 301.613281 L 388.609375 299.875 L 389.039062 298.082031 L 389.324219 296.339844 L 395.980469 296.339844 L 395.695312 298.386719 L 395.269531 300.386719 L 394.839844 301.871094 L 394.175781 303.664062 L 393.414062 305.253906 L 392.320312 307.046875 L 391.417969 308.222656 L 390.226562 309.503906 L 389.132812 310.476562 L 387.945312 311.347656 L 386.183594 312.371094 L 385.042969 312.886719 L 383.808594 313.347656 L 382.332031 313.757812 L 380.476562 314.113281 L 378.480469 314.320312 L 376.625 314.371094 L 374.628906 314.269531 L 373.152344 314.0625 L 371.203125 313.601562 L 368.777344 312.679688 L 367.019531 311.707031 L 365.640625 310.734375 L 364.449219 309.710938 L 363.121094 308.324219 L 361.40625 306.070312 L 360.359375 304.332031 L 359.648438 302.894531 L 358.839844 300.898438 L 358.269531 299.105469 L 357.601562 296.238281 L 357.125 292.597656 L 356.984375 289.78125 Z M 356.984375 282.710938 "/>
<path style=" stroke:none;fill-rule:nonzero;fill:rgb(83.921569%,15.686275%,22.352941%);fill-opacity:1;" d="M 356.984375 160.808594 L 395.980469 160.808594 L 395.980469 171.121094 L 379.730469 171.210938 L 379.730469 257.148438 L 373.191406 257.148438 L 373.191406 171.304688 L 373.09375 171.121094 L 356.984375 171.121094 Z M 356.984375 160.808594 "/>
<path style=" stroke:none;fill-rule:nonzero;fill:rgb(6.27451%,58.823529%,28.235294%);fill-opacity:1;" d="M 398.035156 298.9375 L 398.078125 298.921875 L 414.949219 279.769531 L 420.074219 279.769531 L 437.03125 298.957031 L 431.074219 298.957031 L 426.824219 293.949219 L 408.199219 293.949219 L 404.035156 298.9375 L 398.035156 298.9375 L 409.992188 291.875 L 425.117188 291.859375 L 417.574219 282.902344 L 417.492188 282.882812 L 417.410156 282.9375 L 409.949219 291.859375 L 409.992188 291.875 Z M 398.035156 298.9375 "/>
<path style=" stroke:none;fill-rule:nonzero;fill:rgb(14.509804%,36.078431%,60%);fill-opacity:1;" d="M 398.035156 226.699219 L 398.082031 226.617188 L 398.082031 224.601562 L 398.226562 221.410156 L 398.558594 217.378906 L 398.890625 214.609375 L 399.746094 209.65625 L 400.9375 204.867188 L 402.171875 201.175781 L 403.074219 198.992188 L 403.882812 197.3125 L 405.738281 194.207031 L 406.929688 192.609375 L 408.210938 191.183594 L 409.78125 189.753906 L 410.921875 188.917969 L 413.492188 187.574219 L 415.394531 186.984375 L 416.867188 186.734375 L 420.054688 186.734375 L 421.957031 187.070312 L 423.335938 187.488281 L 424.859375 188.160156 L 426.140625 188.917969 L 428.378906 190.761719 L 430.375 193.113281 L 431.277344 194.457031 L 432.707031 197.058594 L 433.800781 199.578125 L 434.558594 201.761719 L 435.414062 204.867188 L 436.175781 208.648438 L 436.746094 212.929688 L 437.03125 216.539062 L 430.375 216.539062 L 430.042969 213.179688 L 429.660156 210.578125 L 428.949219 207.136719 L 428.234375 204.699219 L 427.234375 202.265625 L 426.332031 200.671875 L 425.097656 199.074219 L 424 198.066406 L 422.859375 197.3125 L 421.765625 196.808594 L 419.675781 196.304688 L 417.25 196.304688 L 416.34375 196.472656 L 414.488281 197.144531 L 413.492188 197.730469 L 412.066406 198.90625 L 411.066406 200 L 409.875 201.679688 L 409.070312 203.105469 L 408.070312 205.289062 L 407.355469 207.21875 L 406.546875 209.992188 L 406.070312 212.089844 L 405.644531 214.441406 L 405.265625 217.210938 L 404.976562 220.148438 L 404.789062 223.257812 L 404.691406 226.28125 L 404.691406 239.292969 L 404.789062 242.316406 L 405.027344 245.84375 L 405.644531 250.964844 L 406.546875 255.414062 L 407.59375 258.941406 L 408.59375 261.460938 L 409.164062 262.636719 L 409.925781 263.980469 L 411.113281 265.65625 L 412.824219 267.335938 L 413.824219 268.007812 L 415.347656 268.679688 L 416.914062 269.015625 L 419.007812 269.015625 L 420.863281 268.679688 L 422.097656 268.261719 L 423.382812 267.589844 L 425.144531 266.160156 L 426.238281 264.816406 L 427.1875 263.222656 L 427.902344 261.628906 L 428.378906 260.285156 L 429.089844 257.679688 L 429.660156 254.828125 L 430.089844 251.886719 L 430.375 249.035156 L 437.03125 249.035156 L 436.746094 252.390625 L 436.320312 255.667969 L 435.890625 258.101562 L 435.226562 261.039062 L 434.464844 263.644531 L 433.371094 266.582031 L 432.46875 268.511719 L 431.277344 270.613281 L 430.183594 272.207031 L 428.996094 273.632812 L 427.234375 275.3125 L 426.09375 276.152344 L 424.859375 276.910156 L 423.382812 277.582031 L 421.527344 278.167969 L 419.53125 278.503906 L 417.675781 278.589844 L 415.679688 278.421875 L 414.203125 278.085938 L 412.253906 277.328125 L 409.828125 275.816406 L 408.070312 274.222656 L 406.691406 272.625 L 405.5 270.949219 L 404.167969 268.679688 L 402.457031 264.984375 L 401.410156 262.132812 L 400.699219 259.78125 L 399.890625 256.507812 L 399.320312 253.566406 L 398.652344 248.867188 L 398.175781 242.902344 L 398.035156 238.285156 Z M 398.035156 226.699219 "/>
<path style=" stroke:none;fill-rule:nonzero;fill:rgb(83.921569%,15.686275%,22.352941%);fill-opacity:1;" d="M 398.035156 300.136719 L 437.03125 300.136719 L 437.03125 301.660156 L 420.78125 301.671875 L 420.78125 314.371094 L 414.242188 314.371094 L 414.242188 301.6875 L 414.144531 301.660156 L 398.035156 301.660156 Z M 398.035156 300.136719 "/>
<path style=" stroke:none;fill-rule:nonzero;fill:rgb(14.509804%,36.078431%,60%);fill-opacity:1;" d="M 439.085938 196.109375 L 439.132812 195.984375 L 439.132812 193.046875 L 439.277344 188.398438 L 439.609375 182.523438 L 439.941406 178.484375 L 440.796875 171.261719 L 441.988281 164.285156 L 443.222656 158.898438 L 444.125 155.71875 L 444.933594 153.269531 L 446.789062 148.738281 L 447.980469 146.414062 L 449.261719 144.332031 L 450.832031 142.253906 L 451.972656 141.027344 L 454.542969 139.070312 L 456.445312 138.214844 L 457.917969 137.847656 L 461.105469 137.847656 L 463.007812 138.335938 L 464.386719 138.949219 L 465.910156 139.925781 L 467.191406 141.027344 L 469.429688 143.722656 L 471.425781 147.148438 L 472.328125 149.105469 L 473.753906 152.902344 L 474.851562 156.574219 L 475.609375 159.757812 L 476.464844 164.285156 L 477.226562 169.792969 L 477.796875 176.035156 L 478.082031 181.296875 L 471.425781 181.296875 L 471.09375 176.402344 L 470.710938 172.609375 L 470 167.589844 L 469.285156 164.039062 L 468.285156 160.492188 L 467.382812 158.164062 L 466.144531 155.839844 L 465.050781 154.371094 L 463.910156 153.269531 L 462.816406 152.535156 L 460.726562 151.800781 L 458.300781 151.800781 L 457.394531 152.046875 L 455.539062 153.023438 L 454.542969 153.882812 L 453.117188 155.59375 L 452.117188 157.1875 L 450.925781 159.632812 L 450.117188 161.714844 L 449.121094 164.898438 L 448.40625 167.710938 L 447.597656 171.75 L 447.121094 174.8125 L 446.695312 178.238281 L 446.3125 182.277344 L 446.027344 186.5625 L 445.839844 191.089844 L 445.742188 195.496094 L 445.742188 214.46875 L 445.839844 218.875 L 446.078125 224.015625 L 446.695312 231.480469 L 447.597656 237.96875 L 448.644531 243.109375 L 449.644531 246.78125 L 450.214844 248.496094 L 450.976562 250.453125 L 452.164062 252.902344 L 453.875 255.347656 L 454.875 256.328125 L 456.398438 257.308594 L 457.964844 257.796875 L 460.058594 257.796875 L 461.914062 257.308594 L 463.148438 256.695312 L 464.433594 255.714844 L 466.195312 253.636719 L 467.289062 251.675781 L 468.238281 249.351562 L 468.953125 247.027344 L 469.429688 245.066406 L 470.140625 241.273438 L 470.710938 237.113281 L 471.140625 232.828125 L 471.425781 228.667969 L 478.082031 228.667969 L 477.796875 233.5625 L 477.371094 238.335938 L 476.941406 241.886719 L 476.277344 246.167969 L 475.515625 249.964844 L 474.421875 254.246094 L 473.519531 257.0625 L 472.328125 260.121094 L 471.234375 262.449219 L 470.046875 264.527344 L 468.285156 266.976562 L 467.144531 268.199219 L 465.910156 269.304688 L 464.433594 270.28125 L 462.578125 271.140625 L 460.582031 271.628906 L 458.726562 271.75 L 456.730469 271.507812 L 455.253906 271.015625 L 453.304688 269.914062 L 450.878906 267.710938 L 449.121094 265.386719 L 447.742188 263.058594 L 446.550781 260.613281 L 445.21875 257.308594 L 443.507812 251.921875 L 442.460938 247.761719 L 441.75 244.332031 L 440.941406 239.558594 L 440.371094 235.277344 L 439.703125 228.421875 L 439.226562 219.730469 L 439.085938 213 Z M 439.085938 196.109375 "/>
<path style=" stroke:none;fill-rule:nonzero;fill:rgb(83.921569%,15.686275%,22.352941%);fill-opacity:1;" d="M 439.085938 272.929688 L 478.082031 272.929688 L 478.082031 277.367188 L 461.832031 277.40625 L 461.832031 314.371094 L 455.292969 314.371094 L 455.292969 277.445312 L 455.195312 277.367188 L 439.085938 277.367188 Z M 439.085938 272.929688 "/>
<path style=" stroke:none;fill-rule:nonzero;fill:rgb(96.862745%,70.196078%,16.862745%);fill-opacity:1;" d="M 480.136719 195.199219 L 480.183594 195.078125 L 480.183594 192.632812 L 480.375 187.128906 L 480.847656 179.546875 L 481.46875 173.308594 L 482.132812 168.417969 L 482.5625 165.851562 L 483.273438 162.183594 L 483.894531 159.492188 L 485.460938 153.988281 L 487.460938 148.851562 L 488.554688 146.652344 L 489.789062 144.574219 L 491.550781 142.25 L 492.359375 141.394531 L 494.832031 139.4375 L 497.636719 138.214844 L 500.730469 137.847656 L 502.15625 137.96875 L 504.105469 138.457031 L 506.769531 139.804688 L 508.289062 141.027344 L 509.480469 142.25 L 510.714844 143.839844 L 512.238281 146.285156 L 513.664062 149.21875 L 514.804688 152.152344 L 515.949219 155.824219 L 516.898438 159.734375 L 517.707031 164.015625 L 518.421875 169.152344 L 518.847656 173.433594 L 519.132812 177.710938 L 512.523438 177.710938 L 512.144531 173.433594 L 511.714844 170.128906 L 511 166.09375 L 510.289062 163.160156 L 509.574219 160.835938 L 508.242188 157.65625 L 507.101562 155.699219 L 505.675781 153.988281 L 504.296875 152.886719 L 502.726562 152.152344 L 501.773438 151.910156 L 499.253906 151.910156 L 496.972656 152.765625 L 495.640625 153.742188 L 494.6875 154.722656 L 493.359375 156.554688 L 492.550781 158.023438 L 492.074219 159.003906 L 490.648438 162.792969 L 489.695312 166.21875 L 489.171875 168.539062 L 488.507812 172.210938 L 488.03125 175.511719 L 487.507812 180.402344 L 487.222656 184.070312 L 486.84375 192.386719 L 486.792969 214.398438 L 486.9375 219.046875 L 487.222656 224.058594 L 487.601562 228.460938 L 488.171875 233.109375 L 488.746094 236.65625 L 489.742188 241.421875 L 490.597656 244.601562 L 491.265625 246.683594 L 492.550781 249.984375 L 493.070312 251.085938 L 494.308594 253.285156 L 495.59375 254.996094 L 497.164062 256.464844 L 498.351562 257.199219 L 500.253906 257.808594 L 502.679688 257.808594 L 505.53125 257.078125 L 507.339844 256.097656 L 508.578125 255.121094 L 509.386719 254.265625 L 510.382812 252.917969 L 511.097656 251.695312 L 511.761719 250.351562 L 512.570312 248.273438 L 512.570312 219.046875 L 500.824219 218.921875 L 500.824219 205.226562 L 519.085938 205.105469 L 519.132812 252.917969 L 518.136719 256.21875 L 516.898438 259.398438 L 515.710938 261.84375 L 514.472656 263.925781 L 512.714844 266.246094 L 511.289062 267.714844 L 509.097656 269.425781 L 507.101562 270.527344 L 505.007812 271.261719 L 503.15625 271.628906 L 500.96875 271.75 L 499.015625 271.507812 L 496.925781 270.773438 L 495.261719 269.792969 L 493.738281 268.570312 L 492.214844 266.980469 L 490.3125 264.414062 L 489.078125 262.335938 L 487.792969 259.765625 L 486.507812 256.710938 L 485.367188 253.40625 L 484.605469 250.839844 L 483.847656 247.90625 L 483.039062 244.234375 L 482.277344 240.078125 L 481.707031 236.289062 L 481.183594 232.007812 L 480.800781 227.972656 L 480.421875 222.46875 L 480.230469 218.066406 L 480.136719 214.277344 Z M 480.136719 195.199219 "/>
<path style=" stroke:none;fill-rule:nonzero;fill:rgb(83.921569%,15.686275%,22.352941%);fill-opacity:1;" d="M 480.136719 272.929688 L 519.132812 272.929688 L 519.132812 277.367188 L 502.882812 277.40625 L 502.882812 314.371094 L 496.34375 314.371094 L 496.34375 277.445312 L 496.246094 277.367188 L 480.136719 277.367188 Z M 480.136719 272.929688 "/>
<path style=" stroke:none;fill-rule:nonzero;fill:rgb(6.27451%,58.823529%,28.235294%);fill-opacity:1;" d="M 521.1875 314.367188 L 521.226562 314.363281 L 538.101562 310.972656 L 543.226562 310.972656 L 560.183594 314.371094 L 554.226562 314.371094 L 549.976562 313.484375 L 531.351562 313.484375 L 527.1875 314.367188 L 521.1875 314.367188 L 533.144531 313.117188 L 548.269531 313.113281 L 540.726562 311.527344 L 540.644531 311.523438 L 540.5625 311.535156 L 533.101562 313.113281 L 533.144531 313.117188 Z M 521.1875 314.367188 "/>
<path style=" stroke:none;fill-rule:nonzero;fill:rgb(96.862745%,70.196078%,16.862745%);fill-opacity:1;" d="M 521.1875 189.636719 L 521.234375 189.480469 L 521.234375 186.324219 L 521.425781 179.222656 L 521.898438 169.4375 L 522.519531 161.390625 L 523.183594 155.078125 L 523.613281 151.761719 L 524.324219 147.027344 L 524.945312 143.558594 L 526.511719 136.457031 L 528.511719 129.828125 L 529.605469 126.988281 L 530.839844 124.304688 L 532.601562 121.304688 L 533.410156 120.199219 L 535.882812 117.675781 L 538.6875 116.097656 L 541.78125 115.625 L 543.207031 115.78125 L 545.15625 116.414062 L 547.820312 118.148438 L 549.339844 119.726562 L 550.53125 121.304688 L 551.765625 123.355469 L 553.289062 126.511719 L 554.714844 130.300781 L 555.855469 134.089844 L 557 138.824219 L 557.949219 143.871094 L 558.757812 149.394531 L 559.472656 156.023438 L 559.898438 161.546875 L 560.183594 167.070312 L 553.574219 167.070312 L 553.195312 161.546875 L 552.765625 157.285156 L 552.050781 152.078125 L 551.339844 148.292969 L 550.625 145.292969 L 549.292969 141.191406 L 548.152344 138.664062 L 546.726562 136.457031 L 545.347656 135.035156 L 543.777344 134.089844 L 542.824219 133.773438 L 540.304688 133.773438 L 538.023438 134.878906 L 536.691406 136.140625 L 535.738281 137.402344 L 534.40625 139.769531 L 533.601562 141.664062 L 533.125 142.925781 L 531.699219 147.816406 L 530.746094 152.238281 L 530.222656 155.234375 L 529.558594 159.96875 L 529.082031 164.230469 L 528.558594 170.542969 L 528.273438 175.277344 L 527.894531 186.007812 L 527.84375 214.414062 L 527.988281 220.410156 L 528.273438 226.878906 L 528.652344 232.5625 L 529.222656 238.558594 L 529.796875 243.136719 L 530.792969 249.289062 L 531.648438 253.390625 L 532.316406 256.074219 L 533.601562 260.335938 L 534.121094 261.757812 L 535.359375 264.597656 L 536.644531 266.804688 L 538.210938 268.699219 L 539.402344 269.648438 L 541.304688 270.4375 L 543.730469 270.4375 L 546.582031 269.488281 L 548.390625 268.226562 L 549.625 266.964844 L 550.433594 265.859375 L 551.433594 264.125 L 552.148438 262.546875 L 552.8125 260.808594 L 553.621094 258.125 L 553.621094 220.410156 L 541.875 220.253906 L 541.875 202.578125 L 560.136719 202.417969 L 560.183594 264.125 L 559.1875 268.382812 L 557.949219 272.488281 L 556.761719 275.644531 L 555.523438 278.328125 L 553.765625 281.324219 L 552.335938 283.21875 L 550.148438 285.429688 L 548.152344 286.847656 L 546.058594 287.792969 L 544.207031 288.269531 L 542.015625 288.425781 L 540.066406 288.109375 L 537.976562 287.164062 L 536.308594 285.902344 L 534.789062 284.324219 L 533.265625 282.273438 L 531.363281 278.957031 L 530.128906 276.273438 L 528.84375 272.960938 L 527.558594 269.015625 L 526.417969 264.753906 L 525.65625 261.441406 L 524.894531 257.652344 L 524.089844 252.917969 L 523.328125 247.554688 L 522.757812 242.660156 L 522.234375 237.136719 L 521.851562 231.929688 L 521.472656 224.828125 L 521.28125 219.148438 L 521.1875 214.253906 Z M 521.1875 189.636719 "/>
<path style=" stroke:none;fill-rule:nonzero;fill:rgb(83.921569%,15.686275%,22.352941%);fill-opacity:1;" d="M 521.1875 289.605469 L 560.183594 289.605469 L 560.183594 291.765625 L 543.933594 291.785156 L 543.933594 309.792969 L 537.394531 309.792969 L 537.394531 291.804688 L 537.296875 291.765625 L 521.1875 291.765625 Z M 521.1875 289.605469 "/>
<path style=" stroke:none;fill-rule:nonzero;fill:rgb(6.27451%,58.823529%,28.235294%);fill-opacity:1;" d="M 562.238281 314.359375 L 562.277344 314.351562 L 579.152344 303.59375 L 584.277344 303.59375 L 601.234375 314.371094 L 595.277344 314.371094 L 591.027344 311.558594 L 572.402344 311.558594 L 568.238281 314.359375 L 562.238281 314.359375 L 574.195312 310.394531 L 589.320312 310.382812 L 581.777344 305.355469 L 581.695312 305.34375 L 581.613281 305.375 L 574.152344 310.382812 L 574.195312 310.394531 Z M 562.238281 314.359375 "/>
<path style=" stroke:none;fill-rule:nonzero;fill:rgb(14.509804%,36.078431%,60%);fill-opacity:1;" d="M 562.238281 247.035156 L 562.285156 246.992188 L 562.285156 245.96875 L 562.429688 244.347656 L 562.761719 242.300781 L 563.09375 240.894531 L 563.949219 238.378906 L 565.136719 235.949219 L 566.375 234.074219 L 567.277344 232.964844 L 568.085938 232.113281 L 569.941406 230.535156 L 571.132812 229.722656 L 572.414062 229 L 573.984375 228.273438 L 575.125 227.847656 L 577.695312 227.167969 L 579.597656 226.867188 L 581.070312 226.738281 L 584.257812 226.738281 L 586.160156 226.910156 L 587.539062 227.125 L 589.0625 227.464844 L 590.34375 227.847656 L 592.578125 228.785156 L 594.578125 229.980469 L 595.480469 230.660156 L 596.90625 231.984375 L 598 233.261719 L 598.761719 234.371094 L 599.617188 235.949219 L 600.378906 237.867188 L 600.949219 240.042969 L 601.234375 241.875 L 594.578125 241.875 L 594.246094 240.167969 L 593.863281 238.847656 L 593.152344 237.101562 L 592.4375 235.863281 L 591.4375 234.628906 L 590.535156 233.816406 L 589.296875 233.007812 L 588.203125 232.496094 L 587.0625 232.113281 L 585.96875 231.855469 L 583.875 231.601562 L 581.453125 231.601562 L 580.546875 231.683594 L 578.691406 232.027344 L 577.695312 232.324219 L 576.265625 232.921875 L 575.269531 233.476562 L 574.078125 234.328125 L 573.269531 235.054688 L 572.273438 236.160156 L 571.558594 237.140625 L 570.75 238.550781 L 570.273438 239.613281 L 569.847656 240.808594 L 569.464844 242.214844 L 569.179688 243.707031 L 568.992188 245.285156 L 568.894531 246.820312 L 568.894531 253.429688 L 568.992188 254.964844 L 569.230469 256.753906 L 569.847656 259.355469 L 570.75 261.613281 L 571.796875 263.40625 L 572.796875 264.683594 L 573.367188 265.28125 L 574.128906 265.964844 L 575.316406 266.816406 L 577.027344 267.667969 L 578.027344 268.007812 L 579.550781 268.351562 L 581.117188 268.519531 L 583.210938 268.519531 L 585.066406 268.351562 L 586.300781 268.136719 L 587.585938 267.796875 L 589.347656 267.070312 L 590.441406 266.390625 L 591.390625 265.578125 L 592.105469 264.769531 L 592.578125 264.085938 L 593.292969 262.765625 L 593.863281 261.316406 L 594.292969 259.824219 L 594.578125 258.375 L 601.234375 258.375 L 600.949219 260.078125 L 600.523438 261.742188 L 600.09375 262.980469 L 599.429688 264.472656 L 598.667969 265.792969 L 597.574219 267.285156 L 596.671875 268.265625 L 595.480469 269.332031 L 594.386719 270.140625 L 593.199219 270.867188 L 591.4375 271.71875 L 590.296875 272.144531 L 589.0625 272.527344 L 587.585938 272.871094 L 585.730469 273.167969 L 583.734375 273.339844 L 581.878906 273.382812 L 579.882812 273.296875 L 578.40625 273.125 L 576.457031 272.742188 L 574.03125 271.972656 L 572.273438 271.164062 L 570.894531 270.355469 L 569.703125 269.5 L 568.371094 268.351562 L 566.660156 266.472656 L 565.613281 265.023438 L 564.902344 263.832031 L 564.09375 262.167969 L 563.523438 260.675781 L 562.855469 258.289062 L 562.378906 255.261719 L 562.238281 252.917969 Z M 562.238281 247.035156 "/>
<path style=" stroke:none;fill-rule:nonzero;fill:rgb(83.921569%,15.686275%,22.352941%);fill-opacity:1;" d="M 562.238281 274.5625 L 601.234375 274.5625 L 601.234375 277.542969 L 584.984375 277.570312 L 584.984375 302.414062 L 578.441406 302.414062 L 578.441406 277.59375 L 578.347656 277.542969 L 562.238281 277.542969 Z M 562.238281 274.5625 "/>
<path style=" stroke:none;fill-rule:nonzero;fill:rgb(6.27451%,58.823529%,28.235294%);fill-opacity:1;" d="M 603.289062 314.332031 L 603.328125 314.292969 L 620.203125 273.605469 L 625.328125 273.605469 L 642.285156 314.371094 L 636.328125 314.371094 L 632.078125 303.730469 L 613.453125 303.730469 L 609.289062 314.332031 L 603.289062 314.332031 L 615.246094 299.328125 L 630.371094 299.289062 L 622.828125 280.265625 L 622.746094 280.226562 L 622.664062 280.34375 L 615.203125 299.289062 L 615.246094 299.328125 Z M 603.289062 314.332031 "/>
<path style=" stroke:none;fill-rule:nonzero;fill:rgb(83.921569%,15.686275%,22.352941%);fill-opacity:1;" d="M 603.289062 136.4375 L 642.285156 136.4375 L 642.285156 150.996094 L 626.03125 151.125 L 626.03125 272.425781 L 619.492188 272.425781 L 619.492188 151.25 L 619.398438 150.996094 L 603.289062 150.996094 Z M 603.289062 136.4375 "/>
<path style=" stroke:none;fill-rule:nonzero;fill:rgb(83.921569%,15.686275%,22.352941%);fill-opacity:1;" d="M 644.339844 20.664062 L 683.335938 20.664062 L 683.335938 52.101562 L 667.082031 52.378906 L 667.082031 314.371094 L 660.542969 314.371094 L 660.542969 52.652344 L 660.449219 52.101562 L 644.339844 52.101562 Z M 644.339844 20.664062 "/>
<g style="fill:rgb(0%,0%,0%);fill-opacity:1;">
  <use xlink:href="#glyph0-1" x="21.957031" y="318.198242"/>
  <use xlink:href="#glyph0-2" x="27.291016" y="318.198242"/>
  <use xlink:href="#glyph0-1" x="29.958008" y="318.198242"/>
</g>
<g style="fill:rgb(0%,0%,0%);fill-opacity:1;">
  <use xlink:href="#glyph0-1" x="21.957031" y="244.475586"/>
  <use xlink:href="#glyph0-2" x="27.291016" y="244.475586"/>
  <use xlink:href="#glyph0-3" x="29.958008" y="244.475586"/>
</g>
<g style="fill:rgb(0%,0%,0%);fill-opacity:1;">
  <use xlink:href="#glyph0-4" x="21.957031" y="170.75293"/>
  <use xlink:href="#glyph0-2" x="27.291016" y="170.75293"/>
  <use xlink:href="#glyph0-1" x="29.958008" y="170.75293"/>
</g>
<g style="fill:rgb(0%,0%,0%);fill-opacity:1;">
  <use xlink:href="#glyph0-4" x="21.957031" y="97.03418"/>
  <use xlink:href="#glyph0-2" x="27.291016" y="97.03418"/>
  <use xlink:href="#glyph0-3" x="29.958008" y="97.03418"/>
</g>
<g style="fill:rgb(0%,0%,0%);fill-opacity:1;">
  <use xlink:href="#glyph0-5" x="21.957031" y="23.311523"/>
  <use xlink:href="#glyph0-2" x="27.291016" y="23.311523"/>
  <use xlink:href="#glyph0-1" x="29.958008" y="23.311523"/>
</g>
<g style="fill:rgb(0%,0%,0%);fill-opacity:1;">
  <use xlink:href="#glyph0-4" x="86.128906" y="338.19043"/>
</g>
<g style="fill:rgb(0%,0%,0%);fill-opacity:1;">
  <use xlink:href="#glyph0-5" x="127.179688" y="338.19043"/>
</g>
<g style="fill:rgb(0%,0%,0%);fill-opacity:1;">
  <use xlink:href="#glyph0-6" x="168.230469" y="338.19043"/>
</g>
<g style="fill:rgb(0%,0%,0%);fill-opacity:1;">
  <use xlink:href="#glyph0-7" x="209.28125" y="338.19043"/>
</g>
<g style="fill:rgb(0%,0%,0%);fill-opacity:1;">
  <use xlink:href="#glyph0-3" x="250.332031" y="338.19043"/>
</g>
<g style="fill:rgb(0%,0%,0%);fill-opacity:1;">
  <use xlink:href="#glyph0-8" x="291.382812" y="338.19043"/>
</g>
<g style="fill:rgb(0%,0%,0%);fill-opacity:1;">
  <use xlink:href="#glyph0-9" x="332.433594" y="338.19043"/>
</g>
<g style="fill:rgb(0%,0%,0%);fill-opacity:1;">
  <use xlink:href="#glyph0-10" x="373.484375" y="338.19043"/>
</g>
<g style="fill:rgb(0%,0%,0%);fill-opacity:1;">
  <use xlink:href="#glyph0-11" x="414.535156" y="338.19043"/>
</g>
<g style="fill:rgb(0%,0%,0%);fill-opacity:1;">
  <use xlink:href="#glyph0-4" x="453.085938" y="338.19043"/>
  <use xlink:href="#glyph0-1" x="458.419922" y="338.19043"/>
</g>
<g style="fill:rgb(0%,0%,0%);fill-opacity:1;">
  <use xlink:href="#glyph0-4" x="494.136719" y="338.19043"/>
  <use xlink:href="#glyph0-4" x="499.470703" y="338.19043"/>
</g>
<g style="fill:rgb(0%,0%,0%);fill-opacity:1;">
  <use xlink:href="#glyph0-4" x="535.1875" y="338.19043"/>
  <use xlink:href="#glyph0-5" x="540.521484" y="338.19043"/>
</g>
<g style="fill:rgb(0%,0%,0%);fill-opacity:1;">
  <use xlink:href="#glyph0-4" x="576.238281" y="338.19043"/>
  <use xlink:href="#glyph0-6" x="581.572266" y="338.19043"/>
</g>
<g style="fill:rgb(0%,0%,0%);fill-opacity:1;">
  <use xlink:href="#glyph0-4" x="617.289062" y="338.19043"/>
  <use xlink:href="#glyph0-7" x="622.623047" y="338.19043"/>
</g>
<g style="fill:rgb(0%,0%,0%);fill-opacity:1;">
  <use xlink:href="#glyph0-4" x="658.339844" y="338.19043"/>
  <use xlink:href="#glyph0-3" x="663.673828" y="338.19043"/>
</g>
<g style="fill:rgb(0%,0%,0%);fill-opacity:1;">
  <use xlink:href="#glyph1-1" x="14.412109" y="178.015625"/>
  <use xlink:href="#glyph1-2" x="14.412109" y="170.011719"/>
  <use xlink:href="#glyph1-3" x="14.412109" y="167.347656"/>
  <use xlink:href="#glyph1-4" x="14.412109" y="164.011719"/>
</g>
</g>
</svg>
