<?xml version="1.0" encoding="UTF-8"?>
<svg xmlns="http://www.w3.org/2000/svg" xmlns:xlink="http://www.w3.org/1999/xlink" width="720pt" height="360pt" viewBox="0 0 720 360" version="1.1">
<defs>
<g>
<symbol overflow="visible" id="glyph0-0">
<path style="stroke:none;" d=""/>
</symbol>
<symbol overflow="visible" id="glyph0-1">
<path style="stroke:none;" d="M 2.640625 -6.796875 C 2 -6.796875 1.421875 -6.53125 1.078125 -6.046875 C 0.640625 -5.453125 0.40625 -4.546875 0.40625 -3.296875 C 0.40625 -1 1.1875 0.21875 2.640625 0.21875 C 4.078125 0.21875 4.859375 -1 4.859375 -3.234375 C 4.859375 -4.5625 4.65625 -5.4375 4.203125 -6.046875 C 3.84375 -6.53125 3.28125 -6.796875 2.640625 -6.796875 Z M 2.640625 -6.046875 C 3.546875 -6.046875 4 -5.125 4 -3.3125 C 4 -1.375 3.5625 -0.484375 2.625 -0.484375 C 1.734375 -0.484375 1.28125 -1.421875 1.28125 -3.28125 C 1.28125 -5.140625 1.734375 -6.046875 2.640625 -6.046875 Z M 2.640625 -6.046875 "/>
</symbol>
<symbol overflow="visible" id="glyph0-2">
<path style="stroke:none;" d="M 1.828125 -1 L 0.828125 -1 L 0.828125 0 L 1.828125 0 Z M 1.828125 -1 "/>
</symbol>
<symbol overflow="visible" id="glyph0-3">
<path style="stroke:none;" d="M 4.5625 -6.796875 L 1.0625 -6.796875 L 0.546875 -3.09375 L 1.328125 -3.09375 C 1.71875 -3.5625 2.046875 -3.734375 2.578125 -3.734375 C 3.484375 -3.734375 4.0625 -3.109375 4.0625 -2.09375 C 4.0625 -1.125 3.484375 -0.53125 2.578125 -0.53125 C 1.828125 -0.53125 1.375 -0.90625 1.1875 -1.671875 L 0.328125 -1.671875 C 0.453125 -1.109375 0.546875 -0.84375 0.75 -0.59375 C 1.125 -0.078125 1.828125 0.21875 2.59375 0.21875 C 3.96875 0.21875 4.921875 -0.78125 4.921875 -2.21875 C 4.921875 -3.5625 4.03125 -4.484375 2.71875 -4.484375 C 2.25 -4.484375 1.859375 -4.359375 1.46875 -4.0625 L 1.734375 -5.96875 L 4.5625 -5.96875 Z M 4.5625 -6.796875 "/>
</symbol>
<symbol overflow="visible" id="glyph0-4">
<path style="stroke:none;" d="M 2.484375 -4.84375 L 2.484375 0 L 3.328125 0 L 3.328125 -6.796875 L 2.765625 -6.796875 C 2.46875 -5.75 2.28125 -5.609375 0.984375 -5.453125 L 0.984375 -4.84375 Z M 2.484375 -4.84375 "/>
</symbol>
<symbol overflow="visible" id="glyph0-5">
<path style="stroke:none;" d="M 4.859375 -0.828125 L 1.28125 -0.828125 C 1.359375 -1.390625 1.671875 -1.75 2.5 -2.234375 L 3.46875 -2.75 C 4.40625 -3.265625 4.90625 -3.96875 4.90625 -4.8125 C 4.90625 -5.375 4.671875 -5.90625 4.265625 -6.265625 C 3.859375 -6.625 3.375 -6.796875 2.71875 -6.796875 C 1.859375 -6.796875 1.21875 -6.5 0.84375 -5.921875 C 0.609375 -5.5625 0.5 -5.125 0.484375 -4.4375 L 1.328125 -4.4375 C 1.359375 -4.90625 1.40625 -5.1875 1.53125 -5.40625 C 1.75 -5.8125 2.1875 -6.0625 2.703125 -6.0625 C 3.46875 -6.0625 4.03125 -5.515625 4.03125 -4.78125 C 4.03125 -4.25 3.71875 -3.796875 3.125 -3.4375 L 2.234375 -2.9375 C 0.8125 -2.140625 0.40625 -1.5 0.328125 0 L 4.859375 0 Z M 4.859375 -0.828125 "/>
</symbol>
<symbol overflow="visible" id="glyph0-6">
<path style="stroke:none;" d="M 2.125 -3.125 L 2.578125 -3.125 C 3.515625 -3.125 3.984375 -2.703125 3.984375 -1.890625 C 3.984375 -1.03125 3.46875 -0.53125 2.578125 -0.53125 C 1.65625 -0.53125 1.203125 -0.984375 1.15625 -1.96875 L 0.3125 -1.96875 C 0.34375 -1.421875 0.4375 -1.078125 0.609375 -0.765625 C 0.953125 -0.109375 1.625 0.21875 2.546875 0.21875 C 3.953125 0.21875 4.859375 -0.609375 4.859375 -1.90625 C 4.859375 -2.765625 4.515625 -3.25 3.703125 -3.515625 C 4.34375 -3.765625 4.65625 -4.25 4.65625 -4.9375 C 4.65625 -6.109375 3.875 -6.796875 2.578125 -6.796875 C 1.203125 -6.796875 0.484375 -6.046875 0.453125 -4.609375 L 1.296875 -4.609375 C 1.3125 -5.015625 1.34375 -5.25 1.453125 -5.453125 C 1.640625 -5.828125 2.0625 -6.0625 2.59375 -6.0625 C 3.34375 -6.0625 3.796875 -5.625 3.796875 -4.90625 C 3.796875 -4.421875 3.609375 -4.140625 3.25 -3.984375 C 3.015625 -3.890625 2.71875 -3.84375 2.125 -3.84375 Z M 2.125 -3.125 "/>
</symbol>
<symbol overflow="visible" id="glyph0-7">
<path style="stroke:none;" d="M 3.140625 -1.625 L 3.140625 0 L 3.984375 0 L 3.984375 -1.625 L 4.984375 -1.625 L 4.984375 -2.390625 L 3.984375 -2.390625 L 3.984375 -6.796875 L 3.359375 -6.796875 L 0.265625 -2.515625 L 0.265625 -1.625 Z M 3.140625 -2.390625 L 1 -2.390625 L 3.140625 -5.359375 Z M 3.140625 -2.390625 "/>
</symbol>
<symbol overflow="visible" id="glyph1-0">
<path style="stroke:none;" d=""/>
</symbol>
<symbol overflow="visible" id="glyph1-1">
<path style="stroke:none;" d="M 0 -0.953125 L 0 -4.890625 C 0 -5.71875 -0.234375 -6.34375 -0.734375 -6.796875 C -1.1875 -7.234375 -1.8125 -7.46875 -2.5 -7.46875 C -3.546875 -7.46875 -4.1875 -7 -4.625 -5.875 C -4.984375 -6.671875 -5.640625 -7.09375 -6.53125 -7.09375 C -7.15625 -7.09375 -7.734375 -6.859375 -8.140625 -6.390625 C -8.5625 -5.9375 -8.75 -5.34375 -8.75 -4.5 L -8.75 -0.953125 Z M -4.984375 -2.0625 L -7.765625 -2.0625 L -7.765625 -4.21875 C -7.765625 -4.84375 -7.6875 -5.203125 -7.453125 -5.5 C -7.21875 -5.8125 -6.859375 -5.96875 -6.375 -5.96875 C -5.90625 -5.96875 -5.53125 -5.8125 -5.296875 -5.5 C -5.0625 -5.203125 -4.984375 -4.84375 -4.984375 -4.21875 Z M -0.984375 -2.0625 L -4 -2.0625 L -4 -4.78125 C -4 -5.328125 -3.859375 -5.6875 -3.578125 -5.953125 C -3.296875 -6.21875 -2.921875 -6.359375 -2.484375 -6.359375 C -2.0625 -6.359375 -1.6875 -6.21875 -1.40625 -5.953125 C -1.109375 -5.6875 -0.984375 -5.328125 -0.984375 -4.78125 Z M -0.984375 -2.0625 "/>
</symbol>
<symbol overflow="visible" id="glyph1-2">
<path style="stroke:none;" d="M -6.28125 -1.796875 L -6.28125 -0.796875 L 0 -0.796875 L 0 -1.796875 Z M -8.75 -1.796875 L -8.75 -0.796875 L -7.484375 -0.796875 L -7.484375 -1.796875 Z M -8.75 -1.796875 "/>
</symbol>
<symbol overflow="visible" id="glyph1-3">
<path style="stroke:none;" d="M -6.28125 -3.046875 L -6.28125 -2.015625 L -8.015625 -2.015625 L -8.015625 -1.015625 L -6.28125 -1.015625 L -6.28125 -0.171875 L -5.46875 -0.171875 L -5.46875 -1.015625 L -0.71875 -1.015625 C -0.078125 -1.015625 0.28125 -1.453125 0.28125 -2.234375 C 0.28125 -2.46875 0.25 -2.71875 0.1875 -3.046875 L -0.640625 -3.046875 C -0.609375 -2.921875 -0.59375 -2.765625 -0.59375 -2.5625 C -0.59375 -2.140625 -0.71875 -2.015625 -1.15625 -2.015625 L -5.46875 -2.015625 L -5.46875 -3.046875 Z M -6.28125 -3.046875 "/>
</symbol>
<symbol overflow="visible" id="glyph1-4">
<path style="stroke:none;" d="M -4.53125 -5.25 C -5.765625 -5.25 -6.46875 -4.421875 -6.46875 -2.96875 C -6.46875 -1.515625 -5.71875 -0.5625 -4.546875 -0.5625 C -3.5625 -0.5625 -3.09375 -1.0625 -2.734375 -2.5625 L -2.515625 -3.484375 C -2.34375 -4.1875 -2.09375 -4.46875 -1.625 -4.46875 C -1.046875 -4.46875 -0.640625 -3.875 -0.640625 -3 C -0.640625 -2.453125 -0.796875 -2 -1.0625 -1.75 C -1.25 -1.59375 -1.421875 -1.53125 -1.875 -1.46875 L -1.875 -0.40625 C -0.421875 -0.453125 0.28125 -1.265625 0.28125 -2.921875 C 0.28125 -4.5 -0.5 -5.515625 -1.71875 -5.515625 C -2.65625 -5.515625 -3.171875 -4.984375 -3.46875 -3.734375 L -3.703125 -2.765625 C -3.890625 -1.953125 -4.15625 -1.609375 -4.59375 -1.609375 C -5.171875 -1.609375 -5.546875 -2.125 -5.546875 -2.9375 C -5.546875 -3.75 -5.203125 -4.171875 -4.53125 -4.203125 Z M -4.53125 -5.25 "/>
</symbol>
</g>
</defs>
<g id="surface18205">
<rect x="0" y="0" width="720" height="360" style="fill:rgb(100%,100%,100%);fill-opacity:1;stroke:none;"/>
<path style=" stroke:none;fill-rule:nonzero;fill:rgb(14.509804%,36.078431%,60%);fill-opacity:1;" d="M 69.628906 217.746094 L 69.773438 217.644531 L 69.773438 215.199219 L 70.203125 211.324219 L 71.210938 206.433594 L 72.214844 203.070312 L 74.800781 197.058594 L 78.390625 191.25 L 82.125 186.769531 L 84.855469 184.117188 L 87.296875 182.082031 L 92.898438 178.3125 L 96.488281 176.375 L 100.367188 174.640625 L 105.109375 172.910156 L 108.554688 171.890625 L 116.3125 170.261719 L 122.058594 169.546875 L 126.507812 169.242188 L 136.132812 169.242188 L 141.878906 169.648438 L 146.042969 170.160156 L 150.640625 170.972656 L 154.519531 171.890625 L 161.269531 174.132812 L 167.300781 176.984375 L 170.03125 178.617188 L 174.339844 181.773438 L 177.644531 184.832031 L 179.941406 187.480469 L 182.527344 191.25 L 184.824219 195.835938 L 186.550781 201.035156 L 187.410156 205.414062 L 167.300781 205.414062 L 166.296875 201.339844 L 165.148438 198.179688 L 162.992188 194.003906 L 160.839844 191.046875 L 157.824219 188.09375 L 155.09375 186.15625 L 151.359375 184.222656 L 148.054688 182.996094 L 144.609375 182.082031 L 141.304688 181.46875 L 134.984375 180.859375 L 127.660156 180.859375 L 124.929688 181.0625 L 119.328125 181.878906 L 116.3125 182.589844 L 112.003906 184.015625 L 108.984375 185.339844 L 105.394531 187.378906 L 102.953125 189.113281 L 99.9375 191.761719 L 97.78125 194.105469 L 95.339844 197.46875 L 93.902344 200.015625 L 92.609375 202.867188 L 91.460938 206.230469 L 90.601562 209.796875 L 90.027344 213.566406 L 89.738281 217.234375 L 89.738281 233.03125 L 90.027344 236.699219 L 90.742188 240.980469 L 92.609375 247.195312 L 95.339844 252.59375 L 98.5 256.875 L 101.515625 259.933594 L 103.242188 261.359375 L 105.539062 262.988281 L 109.128906 265.027344 L 114.300781 267.066406 L 117.316406 267.878906 L 121.914062 268.695312 L 126.652344 269.101562 L 132.972656 269.101562 L 138.574219 268.695312 L 142.308594 268.1875 L 146.1875 267.371094 L 151.503906 265.636719 L 154.804688 264.007812 L 157.679688 262.070312 L 159.832031 260.136719 L 161.269531 258.503906 L 163.425781 255.347656 L 165.148438 251.882812 L 166.441406 248.316406 L 167.300781 244.851562 L 187.410156 244.851562 L 186.550781 248.925781 L 185.257812 252.902344 L 183.964844 255.855469 L 181.953125 259.421875 L 179.65625 262.582031 L 176.351562 266.148438 L 173.621094 268.492188 L 170.03125 271.039062 L 166.726562 272.976562 L 163.136719 274.707031 L 157.824219 276.746094 L 154.375 277.765625 L 150.640625 278.683594 L 146.1875 279.496094 L 140.585938 280.210938 L 134.554688 280.617188 L 128.953125 280.71875 L 122.917969 280.515625 L 118.464844 280.109375 L 112.578125 279.191406 L 105.25 277.355469 L 99.9375 275.421875 L 95.769531 273.484375 L 92.179688 271.445312 L 88.160156 268.695312 L 82.988281 264.210938 L 79.828125 260.746094 L 77.671875 257.894531 L 75.230469 253.921875 L 73.507812 250.355469 L 71.496094 244.648438 L 70.058594 237.414062 L 69.628906 231.808594 Z M 69.628906 217.746094 "/>
<path style=" stroke:none;fill-rule:nonzero;fill:rgb(96.862745%,70.196078%,16.862745%);fill-opacity:1;" d="M 69.628906 288.914062 L 69.773438 288.898438 L 69.773438 288.601562 L 70.347656 287.925781 L 71.785156 287 L 73.652344 286.238281 L 75.660156 285.636719 L 76.953125 285.324219 L 79.109375 284.875 L 80.976562 284.546875 L 85.714844 283.875 L 91.75 283.246094 L 95.054688 282.976562 L 98.789062 282.722656 L 104.101562 282.4375 L 106.542969 282.332031 L 114.011719 282.09375 L 122.488281 281.945312 L 131.824219 281.898438 L 136.132812 281.914062 L 142.023438 281.972656 L 150.066406 282.136719 L 154.664062 282.289062 L 158.253906 282.4375 L 161.988281 282.632812 L 166.585938 282.929688 L 170.894531 283.289062 L 174.339844 283.648438 L 177.789062 284.097656 L 180.660156 284.578125 L 183.101562 285.101562 L 185.257812 285.726562 L 186.550781 286.25 L 187.410156 286.773438 L 167.445312 286.773438 L 166.296875 286.25 L 165.003906 285.847656 L 162.851562 285.355469 L 160.695312 284.996094 L 158.539062 284.710938 L 154.519531 284.320312 L 151.070312 284.082031 L 146.761719 283.875 L 142.597656 283.738281 L 137.855469 283.648438 L 134.984375 283.621094 L 127.371094 283.621094 L 120.476562 283.722656 L 116.453125 283.84375 L 113.582031 283.964844 L 109.558594 284.1875 L 107.117188 284.367188 L 105.683594 284.488281 L 101.375 284.949219 L 98.5 285.371094 L 96.921875 285.652344 L 94.910156 286.101562 L 93.472656 286.503906 L 91.894531 287.105469 L 91.03125 287.554688 L 89.882812 288.570312 L 89.738281 291.261719 L 90.167969 291.832031 L 91.03125 292.445312 L 92.179688 292.980469 L 93.902344 293.550781 L 95.628906 293.984375 L 98.644531 294.566406 L 101.230469 294.957031 L 103.242188 295.210938 L 107.117188 295.613281 L 108.699219 295.75 L 112.433594 296.019531 L 116.3125 296.226562 L 121.050781 296.40625 L 124.640625 296.496094 L 130.386719 296.570312 L 137.714844 296.570312 L 146.332031 296.480469 L 151.789062 296.363281 L 155.523438 296.242188 L 157.964844 296.136719 L 160.984375 295.972656 L 163.136719 295.824219 L 165.148438 295.660156 L 167.589844 295.40625 L 167.589844 291.832031 L 132.113281 291.816406 L 132.113281 290.140625 L 187.269531 290.125 L 187.410156 295.972656 L 184.394531 296.378906 L 180.660156 296.765625 L 177.070312 297.066406 L 173.335938 297.320312 L 168.019531 297.605469 L 163.710938 297.78125 L 157.105469 297.992188 L 151.070312 298.128906 L 144.75 298.21875 L 139.148438 298.261719 L 132.542969 298.277344 L 126.652344 298.246094 L 120.332031 298.15625 L 115.304688 298.039062 L 110.710938 297.886719 L 106.113281 297.695312 L 100.367188 297.378906 L 96.632812 297.125 L 92.753906 296.8125 L 88.875 296.4375 L 85.429688 296.035156 L 83.132812 295.71875 L 80.832031 295.359375 L 78.390625 294.910156 L 76.09375 294.402344 L 74.371094 293.9375 L 72.789062 293.414062 L 71.640625 292.921875 L 70.492188 292.25 L 69.917969 291.710938 L 69.628906 291.246094 Z M 69.628906 288.914062 "/>
<path style=" stroke:none;fill-rule:nonzero;fill:rgb(83.921569%,15.686275%,22.352941%);fill-opacity:1;" d="M 69.628906 299.457031 L 187.410156 299.457031 L 187.410156 301.050781 L 138.324219 301.066406 L 138.324219 314.371094 L 118.574219 314.371094 L 118.574219 301.082031 L 118.289062 301.050781 L 69.628906 301.050781 Z M 69.628906 299.457031 "/>
<path style=" stroke:none;fill-rule:nonzero;fill:rgb(14.509804%,36.078431%,60%);fill-opacity:1;" d="M 193.609375 148.457031 L 193.753906 148.1875 L 193.753906 141.742188 L 194.183594 131.542969 L 195.191406 118.65625 L 196.195312 109.796875 L 198.78125 93.957031 L 202.371094 78.652344 L 206.105469 66.839844 L 208.835938 59.859375 L 211.277344 54.492188 L 216.878906 44.558594 L 220.472656 39.457031 L 224.347656 34.890625 L 229.089844 30.328125 L 232.535156 27.644531 L 240.292969 23.347656 L 246.039062 21.46875 L 250.492188 20.664062 L 260.113281 20.664062 L 265.859375 21.738281 L 270.027344 23.078125 L 274.621094 25.226562 L 278.5 27.644531 L 285.25 33.550781 L 291.285156 41.066406 L 294.011719 45.363281 L 298.320312 53.683594 L 301.625 61.738281 L 303.925781 68.71875 L 306.507812 78.652344 L 308.808594 90.734375 L 310.53125 104.425781 L 311.394531 115.96875 L 291.285156 115.96875 L 290.277344 105.230469 L 289.128906 96.910156 L 286.976562 85.902344 L 284.820312 78.117188 L 281.804688 70.332031 L 279.074219 65.230469 L 275.339844 60.128906 L 272.035156 56.90625 L 268.589844 54.492188 L 265.285156 52.878906 L 258.964844 51.269531 L 251.640625 51.269531 L 248.910156 51.804688 L 243.308594 53.953125 L 240.292969 55.832031 L 235.984375 59.589844 L 232.96875 63.082031 L 229.375 68.449219 L 226.933594 73.015625 L 223.917969 79.996094 L 221.761719 86.171875 L 219.320312 95.03125 L 217.886719 101.742188 L 216.59375 109.257812 L 215.445312 118.117188 L 214.582031 127.515625 L 214.007812 137.449219 L 213.71875 147.113281 L 213.71875 188.726562 L 214.007812 198.390625 L 214.726562 209.667969 L 216.59375 226.042969 L 219.320312 240.273438 L 222.480469 251.546875 L 225.5 259.601562 L 227.222656 263.359375 L 229.519531 267.65625 L 233.109375 273.027344 L 238.28125 278.394531 L 241.296875 280.542969 L 245.894531 282.691406 L 250.632812 283.765625 L 256.953125 283.765625 L 262.554688 282.691406 L 266.289062 281.347656 L 270.167969 279.199219 L 275.484375 274.636719 L 278.789062 270.339844 L 281.660156 265.242188 L 283.816406 260.140625 L 285.25 255.84375 L 287.40625 247.519531 L 289.128906 238.394531 L 290.421875 228.996094 L 291.285156 219.867188 L 311.394531 219.867188 L 310.53125 230.609375 L 309.238281 241.078125 L 307.945312 248.863281 L 305.933594 258.261719 L 303.636719 266.582031 L 300.332031 275.980469 L 297.605469 282.152344 L 294.011719 288.867188 L 290.710938 293.96875 L 287.117188 298.53125 L 281.804688 303.898438 L 278.355469 306.585938 L 274.621094 309 L 270.167969 311.148438 L 264.566406 313.027344 L 258.535156 314.101562 L 252.933594 314.371094 L 246.898438 313.832031 L 242.445312 312.761719 L 236.558594 310.34375 L 229.234375 305.511719 L 223.917969 300.410156 L 219.753906 295.308594 L 216.160156 289.941406 L 212.140625 282.691406 L 206.96875 270.878906 L 203.808594 261.75 L 201.65625 254.234375 L 199.210938 243.761719 L 197.488281 234.367188 L 195.476562 219.332031 L 194.042969 200.269531 L 193.609375 185.503906 Z M 193.609375 148.457031 "/>
<path style=" stroke:none;fill-rule:nonzero;fill:rgb(14.509804%,36.078431%,60%);fill-opacity:1;" d="M 317.59375 148.457031 L 317.734375 148.1875 L 317.734375 141.742188 L 318.167969 131.542969 L 319.171875 118.65625 L 320.175781 109.796875 L 322.761719 93.957031 L 326.355469 78.652344 L 330.089844 66.839844 L 332.816406 59.859375 L 335.257812 54.492188 L 340.859375 44.558594 L 344.453125 39.457031 L 348.332031 34.890625 L 353.070312 30.328125 L 356.519531 27.644531 L 364.273438 23.347656 L 370.019531 21.46875 L 374.472656 20.664062 L 384.097656 20.664062 L 389.839844 21.738281 L 394.007812 23.078125 L 398.601562 25.226562 L 402.480469 27.644531 L 409.230469 33.550781 L 415.265625 41.066406 L 417.996094 45.363281 L 422.304688 53.683594 L 425.605469 61.738281 L 427.90625 68.71875 L 430.492188 78.652344 L 432.789062 90.734375 L 434.511719 104.425781 L 435.375 115.96875 L 415.265625 115.96875 L 414.257812 105.230469 L 413.109375 96.910156 L 410.957031 85.902344 L 408.800781 78.117188 L 405.785156 70.332031 L 403.054688 65.230469 L 399.320312 60.128906 L 396.019531 56.90625 L 392.570312 54.492188 L 389.265625 52.878906 L 382.945312 51.269531 L 375.621094 51.269531 L 372.890625 51.804688 L 367.289062 53.953125 L 364.273438 55.832031 L 359.964844 59.589844 L 356.949219 63.082031 L 353.359375 68.449219 L 350.914062 73.015625 L 347.898438 79.996094 L 345.746094 86.171875 L 343.304688 95.03125 L 341.867188 101.742188 L 340.574219 109.257812 L 339.425781 118.117188 L 338.5625 127.515625 L 337.988281 137.449219 L 337.703125 147.113281 L 337.703125 188.726562 L 337.988281 198.390625 L 338.707031 209.667969 L 340.574219 226.042969 L 343.304688 240.273438 L 346.464844 251.546875 L 349.480469 259.601562 L 351.203125 263.359375 L 353.5 267.65625 L 357.09375 273.027344 L 362.261719 278.394531 L 365.28125 280.542969 L 369.875 282.691406 L 374.617188 283.765625 L 380.9375 283.765625 L 386.539062 282.691406 L 390.273438 281.347656 L 394.152344 279.199219 L 399.464844 274.636719 L 402.769531 270.339844 L 405.640625 265.242188 L 407.796875 260.140625 L 409.230469 255.84375 L 411.386719 247.519531 L 413.109375 238.394531 L 414.402344 228.996094 L 415.265625 219.867188 L 435.375 219.867188 L 434.511719 230.609375 L 433.21875 241.078125 L 431.925781 248.863281 L 429.917969 258.261719 L 427.617188 266.582031 L 424.3125 275.980469 L 421.585938 282.152344 L 417.996094 288.867188 L 414.691406 293.96875 L 411.101562 298.53125 L 405.785156 303.898438 L 402.335938 306.585938 L 398.601562 309 L 394.152344 311.148438 L 388.546875 313.027344 L 382.515625 314.101562 L 376.914062 314.371094 L 370.882812 313.832031 L 366.429688 312.761719 L 360.539062 310.34375 L 353.214844 305.511719 L 347.898438 300.410156 L 343.734375 295.308594 L 340.144531 289.941406 L 336.121094 282.691406 L 330.949219 270.878906 L 327.789062 261.75 L 325.636719 254.234375 L 323.195312 243.761719 L 321.46875 234.367188 L 319.460938 219.332031 L 318.023438 200.269531 L 317.59375 185.503906 Z M 317.59375 148.457031 "/>
<path style=" stroke:none;fill-rule:nonzero;fill:rgb(14.509804%,36.078431%,60%);fill-opacity:1;" d="M 441.574219 148.457031 L 441.71875 148.1875 L 441.71875 141.742188 L 442.148438 131.542969 L 443.152344 118.65625 L 444.160156 109.796875 L 446.746094 93.957031 L 450.335938 78.652344 L 454.070312 66.839844 L 456.800781 59.859375 L 459.242188 54.492188 L 464.84375 44.558594 L 468.433594 39.457031 L 472.3125 34.890625 L 477.050781 30.328125 L 480.5 27.644531 L 488.253906 23.347656 L 494 21.46875 L 498.453125 20.664062 L 508.078125 20.664062 L 513.824219 21.738281 L 517.988281 23.078125 L 522.585938 25.226562 L 526.460938 27.644531 L 533.214844 33.550781 L 539.246094 41.066406 L 541.976562 45.363281 L 546.285156 53.683594 L 549.589844 61.738281 L 551.886719 68.71875 L 554.472656 78.652344 L 556.769531 90.734375 L 558.492188 104.425781 L 559.355469 115.96875 L 539.246094 115.96875 L 538.242188 105.230469 L 537.09375 96.910156 L 534.9375 85.902344 L 532.78125 78.117188 L 529.765625 70.332031 L 527.039062 65.230469 L 523.304688 60.128906 L 520 56.90625 L 516.550781 54.492188 L 513.25 52.878906 L 506.929688 51.269531 L 499.601562 51.269531 L 496.875 51.804688 L 491.273438 53.953125 L 488.253906 55.832031 L 483.945312 59.589844 L 480.929688 63.082031 L 477.339844 68.449219 L 474.898438 73.015625 L 471.878906 79.996094 L 469.726562 86.171875 L 467.285156 95.03125 L 465.847656 101.742188 L 464.554688 109.257812 L 463.40625 118.117188 L 462.542969 127.515625 L 461.96875 137.449219 L 461.683594 147.113281 L 461.683594 188.726562 L 461.96875 198.390625 L 462.6875 209.667969 L 464.554688 226.042969 L 467.285156 240.273438 L 470.445312 251.546875 L 473.460938 259.601562 L 475.183594 263.359375 L 477.484375 267.65625 L 481.074219 273.027344 L 486.246094 278.394531 L 489.261719 280.542969 L 493.855469 282.691406 L 498.597656 283.765625 L 504.917969 283.765625 L 510.519531 282.691406 L 514.253906 281.347656 L 518.132812 279.199219 L 523.445312 274.636719 L 526.75 270.339844 L 529.621094 265.242188 L 531.777344 260.140625 L 533.214844 255.84375 L 535.367188 247.519531 L 537.09375 238.394531 L 538.382812 228.996094 L 539.246094 219.867188 L 559.355469 219.867188 L 558.492188 230.609375 L 557.199219 241.078125 L 555.910156 248.863281 L 553.898438 258.261719 L 551.597656 266.582031 L 548.296875 275.980469 L 545.566406 282.152344 L 541.976562 288.867188 L 538.671875 293.96875 L 535.082031 298.53125 L 529.765625 303.898438 L 526.320312 306.585938 L 522.585938 309 L 518.132812 311.148438 L 512.53125 313.027344 L 506.496094 314.101562 L 500.894531 314.371094 L 494.863281 313.832031 L 490.410156 312.761719 L 484.519531 310.34375 L 477.195312 305.511719 L 471.878906 300.410156 L 467.714844 295.308594 L 464.125 289.941406 L 460.101562 282.691406 L 454.929688 270.878906 L 451.773438 261.75 L 449.617188 254.234375 L 447.175781 243.761719 L 445.453125 234.367188 L 443.441406 219.332031 L 442.003906 200.269531 L 441.574219 185.503906 Z M 441.574219 148.457031 "/>
<path style=" stroke:none;fill-rule:nonzero;fill:rgb(83.921569%,15.686275%,22.352941%);fill-opacity:1;" d="M 565.554688 20.664062 L 683.335938 20.664062 L 683.335938 52.101562 L 634.25 52.378906 L 634.25 314.371094 L 614.5 314.371094 L 614.5 52.652344 L 614.214844 52.101562 L 565.554688 52.101562 Z M 565.554688 20.664062 "/>
<g style="fill:rgb(0%,0%,0%);fill-opacity:1;">
  <use xlink:href="#glyph0-1" x="21.957031" y="318.198242"/>
  <use xlink:href="#glyph0-2" x="27.291016" y="318.198242"/>
  <use xlink:href="#glyph0-1" x="29.958008" y="318.198242"/>
</g>
<g style="fill:rgb(0%,0%,0%);fill-opacity:1;">
  <use xlink:href="#glyph0-1" x="21.957031" y="244.475586"/>
  <use xlink:href="#glyph0-2" x="27.291016" y="244.475586"/>
  <use xlink:href="#glyph0-3" x="29.958008" y="244.475586"/>
</g>
<g style="fill:rgb(0%,0%,0%);fill-opacity:1;">
  <use xlink:href="#glyph0-4" x="21.957031" y="170.75293"/>
  <use xlink:href="#glyph0-2" x="27.291016" y="170.75293"/>
  <use xlink:href="#glyph0-1" x="29.958008" y="170.75293"/>
</g>
<g style="fill:rgb(0%,0%,0%);fill-opacity:1;">
  <use xlink:href="#glyph0-4" x="21.957031" y="97.03418"/>
  <use xlink:href="#glyph0-2" x="27.291016" y="97.03418"/>
  <use xlink:href="#glyph0-3" x="29.958008" y="97.03418"/>
</g>
<g style="fill:rgb(0%,0%,0%);fill-opacity:1;">
  <use xlink:href="#glyph0-5" x="21.957031" y="23.311523"/>
  <use xlink:href="#glyph0-2" x="27.291016" y="23.311523"/>
  <use xlink:href="#glyph0-1" x="29.958008" y="23.311523"/>
</g>
<g style="fill:rgb(0%,0%,0%);fill-opacity:1;">
  <use xlink:href="#glyph0-4" x="125.519531" y="338.19043"/>
</g>
<g style="fill:rgb(0%,0%,0%);fill-opacity:1;">
  <use xlink:href="#glyph0-5" x="249.5" y="338.19043"/>
</g>
<g style="fill:rgb(0%,0%,0%);fill-opacity:1;">
  <use xlink:href="#glyph0-6" x="373.484375" y="338.19043"/>
</g>
<g style="fill:rgb(0%,0%,0%);fill-opacity:1;">
  <use xlink:href="#glyph0-7" x="497.464844" y="338.19043"/>
</g>
<g style="fill:rgb(0%,0%,0%);fill-opacity:1;">
  <use xlink:href="#glyph0-3" x="621.445312" y="338.19043"/>
</g>
<g style="fill:rgb(0%,0%,0%);fill-opacity:1;">
  <use xlink:href="#glyph1-1" x="14.412109" y="178.015625"/>
  <use xlink:href="#glyph1-2" x="14.412109" y="170.011719"/>
  <use xlink:href="#glyph1-3" x="14.412109" y="167.347656"/>
  <use xlink:href="#glyph1-4" x="14.412109" y="164.011719"/>
</g>
</g>
</svg>
