<?xml version="1.0" encoding="UTF-8"?>
<svg xmlns="http://www.w3.org/2000/svg" xmlns:xlink="http://www.w3.org/1999/xlink" width="720pt" height="360pt" viewBox="0 0 720 360" version="1.1">
<defs>
<g>
<symbol overflow="visible" id="glyph0-0">
<path style="stroke:none;" d=""/>
</symbol>
<symbol overflow="visible" id="glyph0-1">
<path style="stroke:none;" d="M 2.640625 -6.796875 C 2 -6.796875 1.421875 -6.53125 1.078125 -6.046875 C 0.640625 -5.453125 0.40625 -4.546875 0.40625 -3.296875 C 0.40625 -1 1.1875 0.21875 2.640625 0.21875 C 4.078125 0.21875 4.859375 -1 4.859375 -3.234375 C 4.859375 -4.5625 4.65625 -5.4375 4.203125 -6.046875 C 3.84375 -6.53125 3.28125 -6.796875 2.640625 -6.796875 Z M 2.640625 -6.046875 C 3.546875 -6.046875 4 -5.125 4 -3.3125 C 4 -1.375 3.5625 -0.484375 2.625 -0.484375 C 1.734375 -0.484375 1.28125 -1.421875 1.28125 -3.28125 C 1.28125 -5.140625 1.734375 -6.046875 2.640625 -6.046875 Z M 2.640625 -6.046875 "/>
</symbol>
<symbol overflow="visible" id="glyph0-2">
<path style="stroke:none;" d="M 1.828125 -1 L 0.828125 -1 L 0.828125 0 L 1.828125 0 Z M 1.828125 -1 "/>
</symbol>
<symbol overflow="visible" id="glyph0-3">
<path style="stroke:none;" d="M 4.5625 -6.796875 L 1.0625 -6.796875 L 0.546875 -3.09375 L 1.328125 -3.09375 C 1.71875 -3.5625 2.046875 -3.734375 2.578125 -3.734375 C 3.484375 -3.734375 4.0625 -3.109375 4.0625 -2.09375 C 4.0625 -1.125 3.484375 -0.53125 2.578125 -0.53125 C 1.828125 -0.53125 1.375 -0.90625 1.1875 -1.671875 L 0.328125 -1.671875 C 0.453125 -1.109375 0.546875 -0.84375 0.75 -0.59375 C 1.125 -0.078125 1.828125 0.21875 2.59375 0.21875 C 3.96875 0.21875 4.921875 -0.78125 4.921875 -2.21875 C 4.921875 -3.5625 4.03125 -4.484375 2.71875 -4.484375 C 2.25 -4.484375 1.859375 -4.359375 1.46875 -4.0625 L 1.734375 -5.96875 L 4.5625 -5.96875 Z M 4.5625 -6.796875 "/>
</symbol>
<symbol overflow="visible" id="glyph0-4">
<path style="stroke:none;" d="M 2.484375 -4.84375 L 2.484375 0 L 3.328125 0 L 3.328125 -6.796875 L 2.765625 -6.796875 C 2.46875 -5.75 2.28125 -5.609375 0.984375 -5.453125 L 0.984375 -4.84375 Z M 2.484375 -4.84375 "/>
</symbol>
<symbol overflow="visible" id="glyph0-5">
<path style="stroke:none;" d="M 4.859375 -0.828125 L 1.28125 -0.828125 C 1.359375 -1.390625 1.671875 -1.75 2.5 -2.234375 L 3.46875 -2.75 C 4.40625 -3.265625 4.90625 -3.96875 4.90625 -4.8125 C 4.90625 -5.375 4.671875 -5.90625 4.265625 -6.265625 C 3.859375 -6.625 3.375 -6.796875 2.71875 -6.796875 C 1.859375 -6.796875 1.21875 -6.5 0.84375 -5.921875 C 0.609375 -5.5625 0.5 -5.125 0.484375 -4.4375 L 1.328125 -4.4375 C 1.359375 -4.90625 1.40625 -5.1875 1.53125 -5.40625 C 1.75 -5.8125 2.1875 -6.0625 2.703125 -6.0625 C 3.46875 -6.0625 4.03125 -5.515625 4.03125 -4.78125 C 4.03125 -4.25 3.71875 -3.796875 3.125 -3.4375 L 2.234375 -2.9375 C 0.8125 -2.140625 0.40625 -1.5 0.328125 0 L 4.859375 0 Z M 4.859375 -0.828125 "/>
</symbol>
<symbol overflow="visible" id="glyph0-6">
<path style="stroke:none;" d="M 2.125 -3.125 L 2.578125 -3.125 C 3.515625 -3.125 3.984375 -2.703125 3.984375 -1.890625 C 3.984375 -1.03125 3.46875 -0.53125 2.578125 -0.53125 C 1.65625 -0.53125 1.203125 -0.984375 1.15625 -1.96875 L 0.3125 -1.96875 C 0.34375 -1.421875 0.4375 -1.078125 0.609375 -0.765625 C 0.953125 -0.109375 1.625 0.21875 2.546875 0.21875 C 3.953125 0.21875 4.859375 -0.609375 4.859375 -1.90625 C 4.859375 -2.765625 4.515625 -3.25 3.703125 -3.515625 C 4.34375 -3.765625 4.65625 -4.25 4.65625 -4.9375 C 4.65625 -6.109375 3.875 -6.796875 2.578125 -6.796875 C 1.203125 -6.796875 0.484375 -6.046875 0.453125 -4.609375 L 1.296875 -4.609375 C 1.3125 -5.015625 1.34375 -5.25 1.453125 -5.453125 C 1.640625 -5.828125 2.0625 -6.0625 2.59375 -6.0625 C 3.34375 -6.0625 3.796875 -5.625 3.796875 -4.90625 C 3.796875 -4.421875 3.609375 -4.140625 3.25 -3.984375 C 3.015625 -3.890625 2.71875 -3.84375 2.125 -3.84375 Z M 2.125 -3.125 "/>
</symbol>
<symbol overflow="visible" id="glyph0-7">
<path style="stroke:none;" d="M 3.140625 -1.625 L 3.140625 0 L 3.984375 0 L 3.984375 -1.625 L 4.984375 -1.625 L 4.984375 -2.390625 L 3.984375 -2.390625 L 3.984375 -6.796875 L 3.359375 -6.796875 L 0.265625 -2.515625 L 0.265625 -1.625 Z M 3.140625 -2.390625 L 1 -2.390625 L 3.140625 -5.359375 Z M 3.140625 -2.390625 "/>
</symbol>
<symbol overflow="visible" id="glyph0-8">
<path style="stroke:none;" d="M 4.78125 -5.03125 C 4.609375 -6.140625 3.890625 -6.796875 2.84375 -6.796875 C 2.09375 -6.796875 1.421875 -6.4375 1.03125 -5.828125 C 0.609375 -5.171875 0.40625 -4.34375 0.40625 -3.09375 C 0.40625 -1.953125 0.578125 -1.234375 0.984375 -0.625 C 1.359375 -0.078125 1.953125 0.21875 2.703125 0.21875 C 3.984375 0.21875 4.921875 -0.734375 4.921875 -2.078125 C 4.921875 -3.34375 4.0625 -4.234375 2.84375 -4.234375 C 2.171875 -4.234375 1.640625 -3.96875 1.28125 -3.46875 C 1.28125 -5.125 1.828125 -6.046875 2.796875 -6.046875 C 3.390625 -6.046875 3.796875 -5.671875 3.9375 -5.03125 Z M 2.734375 -3.484375 C 3.546875 -3.484375 4.0625 -2.921875 4.0625 -2 C 4.0625 -1.15625 3.484375 -0.53125 2.703125 -0.53125 C 1.921875 -0.53125 1.328125 -1.1875 1.328125 -2.046875 C 1.328125 -2.890625 1.90625 -3.484375 2.734375 -3.484375 Z M 2.734375 -3.484375 "/>
</symbol>
<symbol overflow="visible" id="glyph0-9">
<path style="stroke:none;" d="M 4.984375 -6.796875 L 0.4375 -6.796875 L 0.4375 -5.96875 L 4.109375 -5.96875 C 2.5 -3.65625 1.828125 -2.234375 1.328125 0 L 2.21875 0 C 2.59375 -2.171875 3.453125 -4.046875 4.984375 -6.09375 Z M 4.984375 -6.796875 "/>
</symbol>
<symbol overflow="visible" id="glyph0-10">
<path style="stroke:none;" d="M 3.75 -3.578125 C 4.453125 -4 4.6875 -4.34375 4.6875 -4.984375 C 4.6875 -6.046875 3.84375 -6.796875 2.640625 -6.796875 C 1.4375 -6.796875 0.59375 -6.046875 0.59375 -4.984375 C 0.59375 -4.359375 0.828125 -4.015625 1.515625 -3.578125 C 0.734375 -3.203125 0.359375 -2.640625 0.359375 -1.890625 C 0.359375 -0.640625 1.296875 0.21875 2.640625 0.21875 C 3.984375 0.21875 4.921875 -0.640625 4.921875 -1.875 C 4.921875 -2.640625 4.53125 -3.203125 3.75 -3.578125 Z M 2.640625 -6.046875 C 3.359375 -6.046875 3.8125 -5.625 3.8125 -4.96875 C 3.8125 -4.34375 3.34375 -3.921875 2.640625 -3.921875 C 1.921875 -3.921875 1.453125 -4.34375 1.453125 -4.984375 C 1.453125 -5.625 1.921875 -6.046875 2.640625 -6.046875 Z M 2.640625 -3.203125 C 3.484375 -3.203125 4.0625 -2.671875 4.0625 -1.875 C 4.0625 -1.0625 3.484375 -0.53125 2.625 -0.53125 C 1.796875 -0.53125 1.21875 -1.078125 1.21875 -1.875 C 1.21875 -2.671875 1.796875 -3.203125 2.640625 -3.203125 Z M 2.640625 -3.203125 "/>
</symbol>
<symbol overflow="visible" id="glyph0-11">
<path style="stroke:none;" d="M 0.515625 -1.546875 C 0.671875 -0.4375 1.40625 0.21875 2.4375 0.21875 C 3.1875 0.21875 3.859375 -0.140625 4.265625 -0.75 C 4.6875 -1.40625 4.890625 -2.25 4.890625 -3.484375 C 4.890625 -4.625 4.703125 -5.359375 4.3125 -5.953125 C 3.9375 -6.5 3.34375 -6.796875 2.59375 -6.796875 C 1.296875 -6.796875 0.359375 -5.84375 0.359375 -4.515625 C 0.359375 -3.25 1.234375 -2.34375 2.453125 -2.34375 C 3.09375 -2.34375 3.5625 -2.578125 4.015625 -3.109375 C 4 -1.453125 3.46875 -0.53125 2.5 -0.53125 C 1.90625 -0.53125 1.484375 -0.90625 1.359375 -1.546875 Z M 2.578125 -6.0625 C 3.375 -6.0625 3.96875 -5.40625 3.96875 -4.53125 C 3.96875 -3.6875 3.375 -3.09375 2.546875 -3.09375 C 1.734375 -3.09375 1.234375 -3.671875 1.234375 -4.578125 C 1.234375 -5.4375 1.796875 -6.0625 2.578125 -6.0625 Z M 2.578125 -6.0625 "/>
</symbol>
<symbol overflow="visible" id="glyph1-0">
<path style="stroke:none;" d=""/>
</symbol>
<symbol overflow="visible" id="glyph1-1">
<path style="stroke:none;" d="M 0 -0.953125 L 0 -4.890625 C 0 -5.71875 -0.234375 -6.34375 -0.734375 -6.796875 C -1.1875 -7.234375 -1.8125 -7.46875 -2.5 -7.46875 C -3.546875 -7.46875 -4.1875 -7 -4.625 -5.875 C -4.984375 -6.671875 -5.640625 -7.09375 -6.53125 -7.09375 C -7.15625 -7.09375 -7.734375 -6.859375 -8.140625 -6.390625 C -8.5625 -5.9375 -8.75 -5.34375 -8.75 -4.5 L -8.75 -0.953125 Z M -4.984375 -2.0625 L -7.765625 -2.0625 L -7.765625 -4.21875 C -7.765625 -4.84375 -7.6875 -5.203125 -7.453125 -5.5 C -7.21875 -5.8125 -6.859375 -5.96875 -6.375 -5.96875 C -5.90625 -5.96875 -5.53125 -5.8125 -5.296875 -5.5 C -5.0625 -5.203125 -4.984375 -4.84375 -4.984375 -4.21875 Z M -0.984375 -2.0625 L -4 -2.0625 L -4 -4.78125 C -4 -5.328125 -3.859375 -5.6875 -3.578125 -5.953125 C -3.296875 -6.21875 -2.921875 -6.359375 -2.484375 -6.359375 C -2.0625 -6.359375 -1.6875 -6.21875 -1.40625 -5.953125 C -1.109375 -5.6875 -0.984375 -5.328125 -0.984375 -4.78125 Z M -0.984375 -2.0625 "/>
</symbol>
<symbol overflow="visible" id="glyph1-2">
<path style="stroke:none;" d="M -6.28125 -1.796875 L -6.28125 -0.796875 L 0 -0.796875 L 0 -1.796875 Z M -8.75 -1.796875 L -8.75 -0.796875 L -7.484375 -0.796875 L -7.484375 -1.796875 Z M -8.75 -1.796875 "/>
</symbol>
<symbol overflow="visible" id="glyph1-3">
<path style="stroke:none;" d="M -6.28125 -3.046875 L -6.28125 -2.015625 L -8.015625 -2.015625 L -8.015625 -1.015625 L -6.28125 -1.015625 L -6.28125 -0.171875 L -5.46875 -0.171875 L -5.46875 -1.015625 L -0.71875 -1.015625 C -0.078125 -1.015625 0.28125 -1.453125 0.28125 -2.234375 C 0.28125 -2.46875 0.25 -2.71875 0.1875 -3.046875 L -0.640625 -3.046875 C -0.609375 -2.921875 -0.59375 -2.765625 -0.59375 -2.5625 C -0.59375 -2.140625 -0.71875 -2.015625 -1.15625 -2.015625 L -5.46875 -2.015625 L -5.46875 -3.046875 Z M -6.28125 -3.046875 "/>
</symbol>
<symbol overflow="visible" id="glyph1-4">
<path style="stroke:none;" d="M -4.53125 -5.25 C -5.765625 -5.25 -6.46875 -4.421875 -6.46875 -2.96875 C -6.46875 -1.515625 -5.71875 -0.5625 -4.546875 -0.5625 C -3.5625 -0.5625 -3.09375 -1.0625 -2.734375 -2.5625 L -2.515625 -3.484375 C -2.34375 -4.1875 -2.09375 -4.46875 -1.625 -4.46875 C -1.046875 -4.46875 -0.640625 -3.875 -0.640625 -3 C -0.640625 -2.453125 -0.796875 -2 -1.0625 -1.75 C -1.25 -1.59375 -1.421875 -1.53125 -1.875 -1.46875 L -1.875 -0.40625 C -0.421875 -0.453125 0.28125 -1.265625 0.28125 -2.921875 C 0.28125 -4.5 -0.5 -5.515625 -1.71875 -5.515625 C -2.65625 -5.515625 -3.171875 -4.984375 -3.46875 -3.734375 L -3.703125 -2.765625 C -3.890625 -1.953125 -4.15625 -1.609375 -4.59375 -1.609375 C -5.171875 -1.609375 -5.546875 -2.125 -5.546875 -2.9375 C -5.546875 -3.75 -5.203125 -4.171875 -4.53125 -4.203125 Z M -4.53125 -5.25 "/>
</symbol>
</g>
</defs>
<g id="surface16157">
<rect x="0" y="0" width="720" height="360" style="fill:rgb(100%,100%,100%);fill-opacity:1;stroke:none;"/>
<path style=" stroke:none;fill-rule:nonzero;fill:rgb(14.509804%,36.078431%,60%);fill-opacity:1;" d="M 69.628906 148.457031 L 69.699219 148.1875 L 69.699219 141.742188 L 69.914062 131.542969 L 70.414062 118.65625 L 70.914062 109.796875 L 72.203125 93.957031 L 73.988281 78.652344 L 75.847656 66.839844 L 77.203125 59.859375 L 78.417969 54.492188 L 81.207031 44.558594 L 82.992188 39.457031 L 84.921875 34.890625 L 87.28125 30.328125 L 88.996094 27.644531 L 92.851562 23.347656 L 95.710938 21.46875 L 97.925781 20.664062 L 102.714844 20.664062 L 105.574219 21.738281 L 107.644531 23.078125 L 109.929688 25.226562 L 111.859375 27.644531 L 115.21875 33.550781 L 118.21875 41.066406 L 119.578125 45.363281 L 121.722656 53.683594 L 123.367188 61.738281 L 124.507812 68.71875 L 125.796875 78.652344 L 126.9375 90.734375 L 127.796875 104.425781 L 128.222656 115.96875 L 118.21875 115.96875 L 117.71875 105.230469 L 117.148438 96.910156 L 116.078125 85.902344 L 115.003906 78.117188 L 113.503906 70.332031 L 112.148438 65.230469 L 110.289062 60.128906 L 108.644531 56.90625 L 106.929688 54.492188 L 105.285156 52.878906 L 102.140625 51.269531 L 98.5 51.269531 L 97.140625 51.804688 L 94.355469 53.953125 L 92.851562 55.832031 L 90.710938 59.589844 L 89.207031 63.082031 L 87.421875 68.449219 L 86.207031 73.015625 L 84.707031 79.996094 L 83.636719 86.171875 L 82.421875 95.03125 L 81.707031 101.742188 L 81.0625 109.257812 L 80.492188 118.117188 L 80.0625 127.515625 L 79.777344 137.449219 L 79.632812 147.113281 L 79.632812 188.726562 L 79.777344 198.390625 L 80.132812 209.667969 L 81.0625 226.042969 L 82.421875 240.273438 L 83.992188 251.546875 L 85.492188 259.601562 L 86.351562 263.359375 L 87.492188 267.65625 L 89.28125 273.027344 L 91.851562 278.394531 L 93.351562 280.542969 L 95.640625 282.691406 L 97.996094 283.765625 L 101.140625 283.765625 L 103.929688 282.691406 L 105.785156 281.347656 L 107.714844 279.199219 L 110.359375 274.636719 L 112.003906 270.339844 L 113.433594 265.242188 L 114.503906 260.140625 L 115.21875 255.84375 L 116.292969 247.519531 L 117.148438 238.394531 L 117.792969 228.996094 L 118.21875 219.867188 L 128.222656 219.867188 L 127.796875 230.609375 L 127.152344 241.078125 L 126.507812 248.863281 L 125.507812 258.261719 L 124.367188 266.582031 L 122.722656 275.980469 L 121.363281 282.152344 L 119.578125 288.867188 L 117.933594 293.96875 L 116.148438 298.53125 L 113.503906 303.898438 L 111.789062 306.585938 L 109.929688 309 L 107.714844 311.148438 L 104.929688 313.027344 L 101.929688 314.101562 L 99.140625 314.371094 L 96.140625 313.832031 L 93.925781 312.761719 L 90.996094 310.34375 L 87.351562 305.511719 L 84.707031 300.410156 L 82.632812 295.308594 L 80.847656 289.941406 L 78.847656 282.691406 L 76.273438 270.878906 L 74.703125 261.75 L 73.632812 254.234375 L 72.417969 243.761719 L 71.558594 234.367188 L 70.558594 219.332031 L 69.84375 200.269531 L 69.628906 185.503906 Z M 69.628906 148.457031 "/>
<path style=" stroke:none;fill-rule:nonzero;fill:rgb(14.509804%,36.078431%,60%);fill-opacity:1;" d="M 131.308594 148.457031 L 131.378906 148.1875 L 131.378906 141.742188 L 131.59375 131.542969 L 132.09375 118.65625 L 132.59375 109.796875 L 133.882812 93.957031 L 135.667969 78.652344 L 137.523438 66.839844 L 138.882812 59.859375 L 140.097656 54.492188 L 142.882812 44.558594 L 144.671875 39.457031 L 146.601562 34.890625 L 148.957031 30.328125 L 150.671875 27.644531 L 154.53125 23.347656 L 157.390625 21.46875 L 159.605469 20.664062 L 164.394531 20.664062 L 167.25 21.738281 L 169.324219 23.078125 L 171.609375 25.226562 L 173.539062 27.644531 L 176.898438 33.550781 L 179.898438 41.066406 L 181.257812 45.363281 L 183.402344 53.683594 L 185.042969 61.738281 L 186.1875 68.71875 L 187.472656 78.652344 L 188.617188 90.734375 L 189.476562 104.425781 L 189.902344 115.96875 L 179.898438 115.96875 L 179.398438 105.230469 L 178.828125 96.910156 L 177.757812 85.902344 L 176.683594 78.117188 L 175.183594 70.332031 L 173.824219 65.230469 L 171.96875 60.128906 L 170.324219 56.90625 L 168.609375 54.492188 L 166.964844 52.878906 L 163.820312 51.269531 L 160.175781 51.269531 L 158.820312 51.804688 L 156.03125 53.953125 L 154.53125 55.832031 L 152.386719 59.589844 L 150.886719 63.082031 L 149.101562 68.449219 L 147.886719 73.015625 L 146.386719 79.996094 L 145.3125 86.171875 L 144.097656 95.03125 L 143.386719 101.742188 L 142.742188 109.257812 L 142.171875 118.117188 L 141.742188 127.515625 L 141.457031 137.449219 L 141.3125 147.113281 L 141.3125 188.726562 L 141.457031 198.390625 L 141.8125 209.667969 L 142.742188 226.042969 L 144.097656 240.273438 L 145.671875 251.546875 L 147.171875 259.601562 L 148.03125 263.359375 L 149.171875 267.65625 L 150.960938 273.027344 L 153.53125 278.394531 L 155.03125 280.542969 L 157.320312 282.691406 L 159.675781 283.765625 L 162.820312 283.765625 L 165.609375 282.691406 L 167.464844 281.347656 L 169.394531 279.199219 L 172.039062 274.636719 L 173.683594 270.339844 L 175.113281 265.242188 L 176.183594 260.140625 L 176.898438 255.84375 L 177.96875 247.519531 L 178.828125 238.394531 L 179.472656 228.996094 L 179.898438 219.867188 L 189.902344 219.867188 L 189.476562 230.609375 L 188.832031 241.078125 L 188.1875 248.863281 L 187.1875 258.261719 L 186.046875 266.582031 L 184.402344 275.980469 L 183.042969 282.152344 L 181.257812 288.867188 L 179.613281 293.96875 L 177.828125 298.53125 L 175.183594 303.898438 L 173.46875 306.585938 L 171.609375 309 L 169.394531 311.148438 L 166.609375 313.027344 L 163.605469 314.101562 L 160.820312 314.371094 L 157.820312 313.832031 L 155.605469 312.761719 L 152.675781 310.34375 L 149.03125 305.511719 L 146.386719 300.410156 L 144.3125 295.308594 L 142.527344 289.941406 L 140.527344 282.691406 L 137.953125 270.878906 L 136.382812 261.75 L 135.308594 254.234375 L 134.09375 243.761719 L 133.238281 234.367188 L 132.238281 219.332031 L 131.523438 200.269531 L 131.308594 185.503906 Z M 131.308594 148.457031 "/>
<path style=" stroke:none;fill-rule:nonzero;fill:rgb(96.862745%,70.196078%,16.862745%);fill-opacity:1;" d="M 192.988281 201.929688 L 193.058594 201.855469 L 193.058594 200.332031 L 193.34375 196.910156 L 194.058594 192.195312 L 194.988281 188.320312 L 195.988281 185.277344 L 196.632812 183.679688 L 197.703125 181.398438 L 198.632812 179.726562 L 200.992188 176.304688 L 203.992188 173.109375 L 205.636719 171.742188 L 207.492188 170.449219 L 210.136719 169.003906 L 211.351562 168.472656 L 215.066406 167.253906 L 219.285156 166.496094 L 223.929688 166.265625 L 226.074219 166.34375 L 229.003906 166.648438 L 233.003906 167.484375 L 235.289062 168.246094 L 237.078125 169.003906 L 238.933594 169.992188 L 241.222656 171.515625 L 243.367188 173.339844 L 245.082031 175.164062 L 246.796875 177.445312 L 248.222656 179.878906 L 249.4375 182.539062 L 250.511719 185.734375 L 251.152344 188.394531 L 251.582031 191.054688 L 241.648438 191.054688 L 241.078125 188.394531 L 240.433594 186.339844 L 239.363281 183.832031 L 238.292969 182.007812 L 237.21875 180.5625 L 235.21875 178.585938 L 233.503906 177.367188 L 231.359375 176.304688 L 229.289062 175.621094 L 226.929688 175.164062 L 225.5 175.011719 L 221.714844 175.011719 L 218.285156 175.542969 L 216.28125 176.152344 L 214.855469 176.761719 L 212.851562 177.902344 L 211.636719 178.8125 L 210.921875 179.421875 L 208.78125 181.78125 L 207.351562 183.910156 L 206.566406 185.351562 L 205.5625 187.632812 L 204.851562 189.6875 L 204.0625 192.730469 L 203.636719 195.011719 L 203.0625 200.179688 L 202.992188 213.867188 L 203.207031 216.757812 L 203.636719 219.875 L 204.207031 222.613281 L 205.0625 225.503906 L 205.921875 227.707031 L 207.421875 230.671875 L 208.707031 232.648438 L 209.707031 233.941406 L 211.636719 235.996094 L 212.425781 236.679688 L 214.28125 238.046875 L 216.210938 239.113281 L 218.570312 240.027344 L 220.355469 240.480469 L 223.214844 240.863281 L 226.859375 240.863281 L 231.144531 240.40625 L 233.863281 239.796875 L 235.71875 239.1875 L 236.933594 238.65625 L 238.433594 237.820312 L 239.507812 237.058594 L 240.507812 236.222656 L 241.722656 234.929688 L 241.722656 216.757812 L 224.070312 216.679688 L 224.070312 208.164062 L 251.511719 208.089844 L 251.582031 237.820312 L 250.082031 239.875 L 248.222656 241.851562 L 246.4375 243.371094 L 244.578125 244.664062 L 241.9375 246.109375 L 239.792969 247.019531 L 236.503906 248.085938 L 233.503906 248.769531 L 230.359375 249.226562 L 227.574219 249.453125 L 224.285156 249.53125 L 221.355469 249.378906 L 218.210938 248.921875 L 215.710938 248.3125 L 213.425781 247.554688 L 211.136719 246.566406 L 208.28125 244.96875 L 206.421875 243.675781 L 204.492188 242.078125 L 202.5625 240.179688 L 200.847656 238.125 L 199.703125 236.527344 L 198.5625 234.703125 L 197.347656 232.421875 L 196.203125 229.835938 L 195.347656 227.480469 L 194.558594 224.816406 L 193.988281 222.308594 L 193.417969 218.886719 L 193.128906 216.148438 L 192.988281 213.792969 Z M 192.988281 201.929688 "/>
<path style=" stroke:none;fill-rule:nonzero;fill:rgb(83.921569%,15.686275%,22.352941%);fill-opacity:1;" d="M 192.988281 250.710938 L 251.582031 250.710938 L 251.582031 257.523438 L 227.164062 257.585938 L 227.164062 314.371094 L 217.335938 314.371094 L 217.335938 257.644531 L 217.195312 257.523438 L 192.988281 257.523438 Z M 192.988281 250.710938 "/>
<path style=" stroke:none;fill-rule:nonzero;fill:rgb(6.27451%,58.823529%,28.235294%);fill-opacity:1;" d="M 254.667969 314.359375 L 254.730469 314.347656 L 280.082031 301.1875 L 287.78125 301.1875 L 313.261719 314.371094 L 304.308594 314.371094 L 297.925781 310.929688 L 269.941406 310.929688 L 263.679688 314.359375 L 254.667969 314.359375 L 272.632812 309.503906 L 295.359375 309.492188 L 284.027344 303.339844 L 283.902344 303.328125 L 283.777344 303.363281 L 272.570312 309.492188 L 272.632812 309.503906 Z M 254.667969 314.359375 "/>
<path style=" stroke:none;fill-rule:nonzero;fill:rgb(96.862745%,70.196078%,16.862745%);fill-opacity:1;" d="M 254.667969 286.308594 L 254.738281 286.289062 L 254.738281 285.851562 L 255.023438 284.867188 L 255.738281 283.507812 L 256.667969 282.394531 L 257.667969 281.519531 L 258.3125 281.058594 L 259.382812 280.402344 L 260.3125 279.921875 L 262.671875 278.9375 L 265.671875 278.015625 L 267.316406 277.625 L 269.171875 277.25 L 271.816406 276.835938 L 273.03125 276.683594 L 276.746094 276.332031 L 280.964844 276.113281 L 285.609375 276.046875 L 287.75 276.070312 L 290.679688 276.15625 L 294.683594 276.398438 L 296.96875 276.617188 L 298.757812 276.835938 L 300.613281 277.121094 L 302.902344 277.558594 L 305.042969 278.082031 L 306.757812 278.609375 L 308.472656 279.265625 L 309.902344 279.964844 L 311.117188 280.730469 L 312.191406 281.648438 L 312.832031 282.414062 L 313.261719 283.179688 L 303.328125 283.179688 L 302.757812 282.414062 L 302.113281 281.824219 L 301.042969 281.101562 L 299.972656 280.578125 L 298.898438 280.160156 L 296.898438 279.59375 L 295.183594 279.242188 L 293.039062 278.9375 L 290.96875 278.738281 L 288.609375 278.609375 L 287.179688 278.566406 L 283.394531 278.566406 L 279.960938 278.71875 L 277.960938 278.894531 L 276.53125 279.066406 L 274.53125 279.394531 L 273.316406 279.660156 L 272.601562 279.832031 L 270.457031 280.511719 L 269.03125 281.125 L 268.242188 281.539062 L 267.242188 282.195312 L 266.527344 282.789062 L 265.742188 283.664062 L 265.3125 284.320312 L 264.742188 285.804688 L 264.671875 289.746094 L 264.886719 290.578125 L 265.3125 291.472656 L 265.886719 292.261719 L 266.742188 293.09375 L 267.601562 293.726562 L 269.101562 294.582031 L 270.386719 295.148438 L 271.386719 295.519531 L 273.316406 296.113281 L 274.101562 296.308594 L 275.960938 296.703125 L 277.890625 297.007812 L 280.25 297.269531 L 282.035156 297.402344 L 284.894531 297.511719 L 288.539062 297.511719 L 292.824219 297.378906 L 295.539062 297.207031 L 297.398438 297.03125 L 298.613281 296.878906 L 300.113281 296.636719 L 301.1875 296.417969 L 302.1875 296.175781 L 303.402344 295.804688 L 303.402344 290.578125 L 285.75 290.554688 L 285.75 288.105469 L 313.191406 288.082031 L 313.261719 296.636719 L 311.761719 297.226562 L 309.902344 297.796875 L 308.117188 298.234375 L 306.257812 298.605469 L 303.617188 299.023438 L 301.472656 299.285156 L 298.183594 299.589844 L 295.183594 299.789062 L 292.039062 299.917969 L 289.253906 299.984375 L 285.964844 300.007812 L 283.035156 299.960938 L 279.890625 299.832031 L 277.390625 299.65625 L 275.105469 299.4375 L 272.816406 299.152344 L 269.957031 298.695312 L 268.101562 298.320312 L 266.171875 297.863281 L 264.242188 297.316406 L 262.527344 296.722656 L 261.382812 296.265625 L 260.242188 295.738281 L 259.027344 295.082031 L 257.882812 294.339844 L 257.023438 293.660156 L 256.238281 292.894531 L 255.667969 292.171875 L 255.09375 291.1875 L 254.808594 290.402344 L 254.667969 289.722656 Z M 254.667969 286.308594 "/>
<path style=" stroke:none;fill-rule:nonzero;fill:rgb(83.921569%,15.686275%,22.352941%);fill-opacity:1;" d="M 254.667969 243.730469 L 313.261719 243.730469 L 313.261719 247.0625 L 288.839844 247.089844 L 288.839844 274.867188 L 279.015625 274.867188 L 279.015625 247.121094 L 278.875 247.0625 L 254.667969 247.0625 Z M 254.667969 243.730469 "/>
<path style=" stroke:none;fill-rule:nonzero;fill:rgb(6.27451%,58.823529%,28.235294%);fill-opacity:1;" d="M 316.347656 314.355469 L 316.410156 314.339844 L 341.761719 298.878906 L 349.460938 298.878906 L 374.941406 314.371094 L 365.988281 314.371094 L 359.605469 310.328125 L 331.621094 310.328125 L 325.359375 314.355469 L 316.347656 314.355469 L 334.3125 308.652344 L 357.039062 308.640625 L 345.707031 301.410156 L 345.582031 301.394531 L 345.457031 301.4375 L 334.25 308.640625 L 334.3125 308.652344 Z M 316.347656 314.355469 "/>
<path style=" stroke:none;fill-rule:nonzero;fill:rgb(14.509804%,36.078431%,60%);fill-opacity:1;" d="M 316.347656 286.046875 L 316.417969 286.03125 L 316.417969 285.578125 L 316.632812 284.859375 L 317.132812 283.957031 L 317.632812 283.332031 L 318.917969 282.222656 L 320.703125 281.148438 L 322.5625 280.316406 L 323.921875 279.828125 L 325.136719 279.449219 L 327.921875 278.753906 L 329.707031 278.394531 L 331.636719 278.074219 L 333.996094 277.753906 L 335.710938 277.566406 L 339.570312 277.261719 L 342.429688 277.132812 L 344.644531 277.074219 L 349.429688 277.074219 L 352.289062 277.152344 L 354.363281 277.246094 L 356.648438 277.394531 L 358.578125 277.566406 L 361.9375 277.980469 L 364.9375 278.507812 L 366.292969 278.808594 L 368.4375 279.394531 L 370.082031 279.960938 L 371.226562 280.449219 L 372.511719 281.148438 L 373.65625 281.996094 L 374.511719 282.957031 L 374.941406 283.765625 L 364.9375 283.765625 L 364.4375 283.011719 L 363.867188 282.429688 L 362.792969 281.65625 L 361.722656 281.109375 L 360.222656 280.5625 L 358.863281 280.203125 L 357.003906 279.847656 L 355.363281 279.621094 L 353.648438 279.449219 L 352.003906 279.335938 L 348.859375 279.222656 L 345.214844 279.222656 L 343.855469 279.261719 L 341.070312 279.414062 L 339.570312 279.542969 L 337.425781 279.808594 L 335.925781 280.054688 L 334.140625 280.429688 L 332.925781 280.75 L 331.421875 281.242188 L 330.351562 281.675781 L 329.136719 282.296875 L 328.421875 282.769531 L 327.777344 283.296875 L 327.207031 283.917969 L 326.777344 284.578125 L 326.492188 285.273438 L 326.351562 285.953125 L 326.351562 288.875 L 326.492188 289.554688 L 326.851562 290.347656 L 327.777344 291.496094 L 329.136719 292.496094 L 330.707031 293.285156 L 332.210938 293.851562 L 333.066406 294.117188 L 334.210938 294.417969 L 335.996094 294.796875 L 338.570312 295.171875 L 340.070312 295.324219 L 342.355469 295.472656 L 344.714844 295.550781 L 347.859375 295.550781 L 350.644531 295.472656 L 352.503906 295.378906 L 354.433594 295.230469 L 357.078125 294.90625 L 358.71875 294.605469 L 360.148438 294.25 L 361.222656 293.890625 L 361.9375 293.589844 L 363.007812 293.003906 L 363.867188 292.363281 L 364.507812 291.703125 L 364.9375 291.0625 L 374.941406 291.0625 L 374.511719 291.816406 L 373.871094 292.550781 L 373.226562 293.097656 L 372.226562 293.757812 L 371.082031 294.34375 L 369.4375 295.003906 L 368.082031 295.4375 L 366.292969 295.90625 L 364.652344 296.265625 L 362.863281 296.585938 L 360.222656 296.964844 L 358.507812 297.152344 L 356.648438 297.320312 L 354.433594 297.472656 L 351.644531 297.605469 L 348.644531 297.679688 L 345.859375 297.699219 L 342.855469 297.660156 L 340.640625 297.585938 L 337.710938 297.414062 L 334.066406 297.074219 L 331.421875 296.71875 L 329.351562 296.359375 L 327.566406 295.984375 L 325.5625 295.472656 L 322.992188 294.644531 L 321.417969 294.003906 L 320.347656 293.476562 L 319.132812 292.742188 L 318.273438 292.082031 L 317.273438 291.023438 L 316.558594 289.6875 L 316.347656 288.648438 Z M 316.347656 286.046875 "/>
<path style=" stroke:none;fill-rule:nonzero;fill:rgb(83.921569%,15.686275%,22.352941%);fill-opacity:1;" d="M 316.347656 250.785156 L 374.941406 250.785156 L 374.941406 253.472656 L 350.519531 253.496094 L 350.519531 275.894531 L 340.695312 275.894531 L 340.695312 253.519531 L 340.554688 253.472656 L 316.347656 253.472656 Z M 316.347656 250.785156 "/>
<path style=" stroke:none;fill-rule:nonzero;fill:rgb(6.27451%,58.823529%,28.235294%);fill-opacity:1;" d="M 378.023438 298.890625 L 378.085938 298.878906 L 403.441406 286.363281 L 411.140625 286.363281 L 436.621094 298.902344 L 427.667969 298.902344 L 421.28125 295.628906 L 393.300781 295.628906 L 387.039062 298.890625 L 378.023438 298.890625 L 395.992188 294.273438 L 418.714844 294.261719 L 407.386719 288.410156 L 407.261719 288.398438 L 407.136719 288.433594 L 395.929688 294.261719 L 395.992188 294.273438 Z M 378.023438 298.890625 "/>
<path style=" stroke:none;fill-rule:nonzero;fill:rgb(14.509804%,36.078431%,60%);fill-opacity:1;" d="M 378.023438 313.058594 L 378.097656 313.054688 L 378.097656 313.003906 L 378.3125 312.925781 L 378.8125 312.824219 L 379.3125 312.753906 L 380.597656 312.628906 L 382.382812 312.507812 L 384.242188 312.414062 L 385.601562 312.359375 L 386.8125 312.316406 L 389.601562 312.238281 L 391.386719 312.195312 L 393.316406 312.160156 L 395.675781 312.125 L 397.390625 312.101562 L 401.25 312.070312 L 404.105469 312.054688 L 406.324219 312.046875 L 411.109375 312.046875 L 413.96875 312.054688 L 416.039062 312.066406 L 418.328125 312.082031 L 420.257812 312.101562 L 423.613281 312.148438 L 426.617188 312.210938 L 427.972656 312.242188 L 430.117188 312.308594 L 431.761719 312.371094 L 432.90625 312.429688 L 434.191406 312.507812 L 435.335938 312.601562 L 436.191406 312.710938 L 436.621094 312.800781 L 426.617188 312.800781 L 426.117188 312.714844 L 425.542969 312.652344 L 424.472656 312.5625 L 423.402344 312.503906 L 421.898438 312.441406 L 420.542969 312.398438 L 418.683594 312.359375 L 417.039062 312.335938 L 415.324219 312.316406 L 413.683594 312.300781 L 410.539062 312.289062 L 406.894531 312.289062 L 405.535156 312.292969 L 402.75 312.3125 L 401.25 312.324219 L 399.105469 312.355469 L 397.605469 312.382812 L 395.816406 312.425781 L 394.601562 312.460938 L 393.101562 312.515625 L 392.03125 312.566406 L 390.816406 312.636719 L 390.101562 312.6875 L 389.457031 312.75 L 388.886719 312.820312 L 388.457031 312.894531 L 388.171875 312.972656 L 388.027344 313.046875 L 388.027344 313.375 L 388.171875 313.453125 L 388.53125 313.542969 L 389.457031 313.671875 L 390.816406 313.785156 L 392.386719 313.875 L 393.890625 313.9375 L 394.746094 313.96875 L 395.890625 314 L 397.675781 314.042969 L 400.25 314.085938 L 401.75 314.101562 L 404.035156 314.121094 L 406.394531 314.128906 L 409.539062 314.128906 L 412.324219 314.121094 L 414.183594 314.109375 L 416.113281 314.09375 L 418.757812 314.054688 L 420.398438 314.023438 L 421.828125 313.980469 L 422.902344 313.941406 L 423.613281 313.90625 L 424.6875 313.84375 L 425.542969 313.769531 L 426.1875 313.695312 L 426.617188 313.625 L 436.621094 313.625 L 436.191406 313.707031 L 435.546875 313.789062 L 434.90625 313.851562 L 433.90625 313.925781 L 432.761719 313.992188 L 431.117188 314.066406 L 429.761719 314.117188 L 427.972656 314.167969 L 426.332031 314.210938 L 424.542969 314.246094 L 421.898438 314.289062 L 420.183594 314.308594 L 418.328125 314.328125 L 416.113281 314.34375 L 413.324219 314.359375 L 410.324219 314.367188 L 407.539062 314.371094 L 404.535156 314.367188 L 402.320312 314.359375 L 399.390625 314.339844 L 395.746094 314.300781 L 393.101562 314.261719 L 391.03125 314.21875 L 389.242188 314.175781 L 387.242188 314.121094 L 384.671875 314.027344 L 383.097656 313.953125 L 382.027344 313.894531 L 380.8125 313.8125 L 379.953125 313.738281 L 378.953125 313.617188 L 378.238281 313.46875 L 378.023438 313.351562 Z M 378.023438 313.058594 "/>
<path style=" stroke:none;fill-rule:nonzero;fill:rgb(96.862745%,70.196078%,16.862745%);fill-opacity:1;" d="M 378.023438 308.871094 L 378.097656 308.871094 L 378.097656 308.804688 L 378.382812 308.664062 L 379.097656 308.464844 L 380.027344 308.300781 L 381.027344 308.175781 L 381.667969 308.109375 L 382.742188 308.011719 L 383.671875 307.941406 L 386.027344 307.796875 L 389.03125 307.664062 L 390.671875 307.605469 L 392.53125 307.554688 L 395.175781 307.492188 L 396.390625 307.46875 L 400.105469 307.417969 L 404.320312 307.386719 L 408.964844 307.378906 L 411.109375 307.378906 L 414.039062 307.394531 L 418.042969 307.429688 L 420.328125 307.460938 L 422.113281 307.492188 L 423.972656 307.535156 L 426.257812 307.597656 L 428.402344 307.675781 L 430.117188 307.75 L 431.832031 307.847656 L 433.261719 307.949219 L 434.476562 308.058594 L 435.546875 308.195312 L 436.191406 308.304688 L 436.621094 308.417969 L 426.6875 308.417969 L 426.117188 308.304688 L 425.472656 308.21875 L 424.402344 308.113281 L 423.328125 308.039062 L 422.257812 307.976562 L 420.257812 307.894531 L 418.542969 307.84375 L 416.398438 307.796875 L 414.324219 307.769531 L 411.96875 307.75 L 410.539062 307.746094 L 406.75 307.746094 L 403.320312 307.765625 L 401.320312 307.792969 L 399.890625 307.816406 L 397.890625 307.867188 L 396.675781 307.902344 L 395.960938 307.929688 L 393.816406 308.027344 L 392.386719 308.117188 L 391.601562 308.175781 L 390.601562 308.273438 L 389.886719 308.359375 L 389.101562 308.488281 L 388.671875 308.582031 L 388.101562 308.800781 L 388.027344 309.375 L 388.242188 309.496094 L 388.671875 309.625 L 389.242188 309.738281 L 390.101562 309.859375 L 390.960938 309.953125 L 392.460938 310.078125 L 393.746094 310.160156 L 394.746094 310.214844 L 396.675781 310.300781 L 397.460938 310.328125 L 399.320312 310.386719 L 401.25 310.429688 L 403.605469 310.46875 L 405.394531 310.488281 L 408.25 310.503906 L 411.894531 310.503906 L 416.183594 310.484375 L 418.898438 310.460938 L 420.757812 310.433594 L 421.972656 310.414062 L 423.472656 310.378906 L 424.542969 310.34375 L 425.542969 310.308594 L 426.757812 310.257812 L 426.757812 309.496094 L 409.109375 309.492188 L 409.109375 309.132812 L 436.550781 309.128906 L 436.621094 310.378906 L 435.121094 310.464844 L 433.261719 310.546875 L 431.476562 310.609375 L 429.617188 310.664062 L 426.972656 310.726562 L 424.828125 310.761719 L 421.542969 310.808594 L 418.542969 310.835938 L 415.398438 310.855469 L 412.609375 310.863281 L 409.324219 310.867188 L 406.394531 310.863281 L 403.25 310.84375 L 400.75 310.816406 L 398.460938 310.785156 L 396.175781 310.742188 L 393.316406 310.675781 L 391.460938 310.621094 L 389.53125 310.554688 L 387.601562 310.476562 L 385.886719 310.390625 L 384.742188 310.324219 L 383.597656 310.246094 L 382.382812 310.152344 L 381.242188 310.042969 L 380.382812 309.945312 L 379.597656 309.832031 L 379.027344 309.726562 L 378.453125 309.582031 L 378.167969 309.46875 L 378.023438 309.371094 Z M 378.023438 308.871094 "/>
<path style=" stroke:none;fill-rule:nonzero;fill:rgb(83.921569%,15.686275%,22.352941%);fill-opacity:1;" d="M 378.023438 300.082031 L 436.621094 300.082031 L 436.621094 300.734375 L 412.199219 300.742188 L 412.199219 306.199219 L 402.375 306.199219 L 402.375 300.746094 L 402.230469 300.734375 L 378.023438 300.734375 Z M 378.023438 300.082031 "/>
<path style=" stroke:none;fill-rule:nonzero;fill:rgb(14.509804%,36.078431%,60%);fill-opacity:1;" d="M 439.703125 202.914062 L 439.777344 202.828125 L 439.777344 200.8125 L 439.988281 197.621094 L 440.492188 193.585938 L 440.992188 190.8125 L 442.277344 185.855469 L 444.0625 181.066406 L 445.921875 177.371094 L 447.277344 175.183594 L 448.492188 173.503906 L 451.28125 170.394531 L 453.066406 168.796875 L 454.996094 167.371094 L 457.355469 165.941406 L 459.070312 165.101562 L 462.929688 163.757812 L 465.785156 163.167969 L 468 162.917969 L 472.789062 162.917969 L 475.648438 163.253906 L 477.71875 163.671875 L 480.007812 164.34375 L 481.9375 165.101562 L 485.292969 166.949219 L 488.296875 169.300781 L 489.652344 170.648438 L 491.796875 173.253906 L 493.441406 175.773438 L 494.582031 177.957031 L 495.871094 181.066406 L 497.011719 184.847656 L 497.871094 189.132812 L 498.300781 192.746094 L 488.296875 192.746094 L 487.796875 189.386719 L 487.222656 186.78125 L 486.152344 183.335938 L 485.078125 180.898438 L 483.578125 178.460938 L 482.222656 176.863281 L 480.363281 175.269531 L 478.71875 174.261719 L 477.003906 173.503906 L 475.363281 173 L 472.21875 172.496094 L 468.574219 172.496094 L 467.214844 172.664062 L 464.429688 173.335938 L 462.929688 173.925781 L 460.785156 175.101562 L 459.285156 176.191406 L 457.496094 177.875 L 456.28125 179.300781 L 454.78125 181.488281 L 453.710938 183.417969 L 452.496094 186.191406 L 451.78125 188.292969 L 451.136719 190.644531 L 450.566406 193.417969 L 450.136719 196.359375 L 449.851562 199.46875 L 449.707031 202.492188 L 449.707031 215.519531 L 449.851562 218.542969 L 450.207031 222.074219 L 451.136719 227.199219 L 452.496094 231.652344 L 454.066406 235.179688 L 455.566406 237.703125 L 456.425781 238.878906 L 457.570312 240.222656 L 459.355469 241.902344 L 461.925781 243.582031 L 463.429688 244.257812 L 465.714844 244.929688 L 468.074219 245.265625 L 471.21875 245.265625 L 474.003906 244.929688 L 475.863281 244.507812 L 477.792969 243.835938 L 480.433594 242.40625 L 482.078125 241.0625 L 483.507812 239.464844 L 484.578125 237.871094 L 485.292969 236.523438 L 486.367188 233.921875 L 487.222656 231.0625 L 487.867188 228.121094 L 488.296875 225.265625 L 498.300781 225.265625 L 497.871094 228.625 L 497.226562 231.902344 L 496.585938 234.339844 L 495.585938 237.28125 L 494.441406 239.886719 L 492.796875 242.828125 L 491.441406 244.761719 L 489.652344 246.859375 L 488.007812 248.457031 L 486.222656 249.886719 L 483.578125 251.566406 L 481.863281 252.40625 L 480.007812 253.164062 L 477.792969 253.835938 L 475.003906 254.421875 L 472.003906 254.757812 L 469.214844 254.84375 L 466.214844 254.675781 L 464 254.339844 L 461.070312 253.582031 L 457.425781 252.070312 L 454.78125 250.472656 L 452.710938 248.878906 L 450.921875 247.195312 L 448.921875 244.929688 L 446.351562 241.230469 L 444.777344 238.375 L 443.707031 236.019531 L 442.492188 232.742188 L 441.632812 229.804688 L 440.632812 225.097656 L 439.917969 219.132812 L 439.703125 214.511719 Z M 439.703125 202.914062 "/>
<path style=" stroke:none;fill-rule:nonzero;fill:rgb(96.862745%,70.196078%,16.862745%);fill-opacity:1;" d="M 439.703125 281.015625 L 439.777344 280.960938 L 439.777344 279.894531 L 440.0625 277.496094 L 440.777344 274.195312 L 441.707031 271.476562 L 442.707031 269.34375 L 443.347656 268.226562 L 444.421875 266.625 L 445.347656 265.453125 L 447.707031 263.058594 L 450.707031 260.820312 L 452.351562 259.859375 L 454.210938 258.953125 L 456.855469 257.941406 L 458.070312 257.566406 L 461.785156 256.714844 L 466 256.183594 L 470.644531 256.023438 L 472.789062 256.078125 L 475.71875 256.289062 L 479.71875 256.875 L 482.007812 257.410156 L 483.792969 257.941406 L 485.652344 258.632812 L 487.9375 259.699219 L 490.082031 260.980469 L 491.796875 262.257812 L 493.511719 263.855469 L 494.941406 265.5625 L 496.15625 267.425781 L 497.226562 269.664062 L 497.871094 271.527344 L 498.300781 273.394531 L 488.367188 273.394531 L 487.796875 271.527344 L 487.152344 270.089844 L 486.082031 268.332031 L 485.007812 267.054688 L 483.9375 266.039062 L 481.9375 264.65625 L 480.222656 263.804688 L 478.078125 263.058594 L 476.003906 262.578125 L 473.648438 262.257812 L 472.21875 262.152344 L 468.429688 262.152344 L 465 262.523438 L 463 262.949219 L 461.570312 263.375 L 459.570312 264.175781 L 458.355469 264.816406 L 457.640625 265.242188 L 455.496094 266.894531 L 454.066406 268.386719 L 453.28125 269.398438 L 452.28125 270.996094 L 451.566406 272.433594 L 450.78125 274.566406 L 450.351562 276.164062 L 449.78125 279.789062 L 449.707031 289.378906 L 449.921875 291.40625 L 450.351562 293.589844 L 450.921875 295.507812 L 451.78125 297.53125 L 452.636719 299.078125 L 454.140625 301.15625 L 455.425781 302.542969 L 456.425781 303.445312 L 458.355469 304.886719 L 459.140625 305.367188 L 461 306.324219 L 462.929688 307.070312 L 465.285156 307.710938 L 467.074219 308.03125 L 469.929688 308.296875 L 473.574219 308.296875 L 477.863281 307.976562 L 480.578125 307.550781 L 482.4375 307.125 L 483.652344 306.75 L 485.152344 306.164062 L 486.222656 305.632812 L 487.222656 305.046875 L 488.4375 304.140625 L 488.4375 291.40625 L 470.789062 291.351562 L 470.789062 285.382812 L 498.226562 285.328125 L 498.300781 306.164062 L 496.800781 307.601562 L 494.941406 308.988281 L 493.15625 310.054688 L 491.296875 310.960938 L 488.652344 311.972656 L 486.507812 312.613281 L 483.222656 313.359375 L 480.222656 313.835938 L 477.078125 314.15625 L 474.289062 314.316406 L 471.003906 314.371094 L 468.074219 314.265625 L 464.929688 313.945312 L 462.429688 313.519531 L 460.140625 312.984375 L 457.855469 312.292969 L 454.996094 311.171875 L 453.136719 310.269531 L 451.210938 309.148438 L 449.28125 307.816406 L 447.566406 306.378906 L 446.421875 305.257812 L 445.277344 303.980469 L 444.0625 302.382812 L 442.921875 300.570312 L 442.0625 298.917969 L 441.277344 297.054688 L 440.703125 295.292969 L 440.132812 292.898438 L 439.847656 290.976562 L 439.703125 289.328125 Z M 439.703125 281.015625 "/>
<path style=" stroke:none;fill-rule:nonzero;fill:rgb(14.509804%,36.078431%,60%);fill-opacity:1;" d="M 501.382812 148.457031 L 501.453125 148.1875 L 501.453125 141.742188 L 501.667969 131.542969 L 502.167969 118.65625 L 502.667969 109.796875 L 503.957031 93.957031 L 505.742188 78.652344 L 507.601562 66.839844 L 508.957031 59.859375 L 510.171875 54.492188 L 512.960938 44.558594 L 514.746094 39.457031 L 516.675781 34.890625 L 519.035156 30.328125 L 520.75 27.644531 L 524.605469 23.347656 L 527.464844 21.46875 L 529.679688 20.664062 L 534.46875 20.664062 L 537.328125 21.738281 L 539.398438 23.078125 L 541.6875 25.226562 L 543.613281 27.644531 L 546.972656 33.550781 L 549.976562 41.066406 L 551.332031 45.363281 L 553.476562 53.683594 L 555.121094 61.738281 L 556.261719 68.71875 L 557.550781 78.652344 L 558.691406 90.734375 L 559.550781 104.425781 L 559.980469 115.96875 L 549.976562 115.96875 L 549.472656 105.230469 L 548.902344 96.910156 L 547.832031 85.902344 L 546.757812 78.117188 L 545.257812 70.332031 L 543.902344 65.230469 L 542.042969 60.128906 L 540.398438 56.90625 L 538.683594 54.492188 L 537.039062 52.878906 L 533.898438 51.269531 L 530.253906 51.269531 L 528.894531 51.804688 L 526.109375 53.953125 L 524.605469 55.832031 L 522.464844 59.589844 L 520.960938 63.082031 L 519.175781 68.449219 L 517.960938 73.015625 L 516.460938 79.996094 L 515.390625 86.171875 L 514.175781 95.03125 L 513.460938 101.742188 L 512.816406 109.257812 L 512.246094 118.117188 L 511.816406 127.515625 L 511.53125 137.449219 L 511.386719 147.113281 L 511.386719 188.726562 L 511.53125 198.390625 L 511.886719 209.667969 L 512.816406 226.042969 L 514.175781 240.273438 L 515.746094 251.546875 L 517.246094 259.601562 L 518.105469 263.359375 L 519.246094 267.65625 L 521.035156 273.027344 L 523.605469 278.394531 L 525.105469 280.542969 L 527.394531 282.691406 L 529.753906 283.765625 L 532.894531 283.765625 L 535.683594 282.691406 L 537.542969 281.347656 L 539.46875 279.199219 L 542.113281 274.636719 L 543.757812 270.339844 L 545.1875 265.242188 L 546.257812 260.140625 L 546.972656 255.84375 L 548.046875 247.519531 L 548.902344 238.394531 L 549.546875 228.996094 L 549.976562 219.867188 L 559.980469 219.867188 L 559.550781 230.609375 L 558.90625 241.078125 L 558.265625 248.863281 L 557.261719 258.261719 L 556.121094 266.582031 L 554.476562 275.980469 L 553.117188 282.152344 L 551.332031 288.867188 L 549.6875 293.96875 L 547.902344 298.53125 L 545.257812 303.898438 L 543.542969 306.585938 L 541.6875 309 L 539.46875 311.148438 L 536.683594 313.027344 L 533.683594 314.101562 L 530.894531 314.371094 L 527.894531 313.832031 L 525.679688 312.761719 L 522.75 310.34375 L 519.105469 305.511719 L 516.460938 300.410156 L 514.390625 295.308594 L 512.601562 289.941406 L 510.601562 282.691406 L 508.027344 270.878906 L 506.457031 261.75 L 505.386719 254.234375 L 504.171875 243.761719 L 503.3125 234.367188 L 502.3125 219.332031 L 501.597656 200.269531 L 501.382812 185.503906 Z M 501.382812 148.457031 "/>
<path style=" stroke:none;fill-rule:nonzero;fill:rgb(96.862745%,70.196078%,16.862745%);fill-opacity:1;" d="M 563.0625 146.460938 L 563.132812 146.191406 L 563.132812 140.828125 L 563.421875 128.757812 L 564.132812 112.128906 L 565.0625 98.449219 L 566.0625 87.71875 L 566.707031 82.085938 L 567.777344 74.039062 L 568.707031 68.140625 L 571.066406 56.070312 L 574.066406 44.804688 L 575.710938 39.976562 L 577.570312 35.414062 L 580.210938 30.320312 L 581.425781 28.441406 L 585.144531 24.148438 L 589.359375 21.46875 L 594.003906 20.664062 L 596.148438 20.929688 L 599.078125 22.003906 L 603.078125 24.953125 L 605.367188 27.636719 L 607.152344 30.320312 L 609.011719 33.804688 L 611.296875 39.171875 L 613.441406 45.609375 L 615.15625 52.046875 L 616.871094 60.09375 L 618.300781 68.675781 L 619.515625 78.0625 L 620.585938 89.328125 L 621.230469 98.714844 L 621.65625 108.105469 L 611.726562 108.105469 L 611.152344 98.714844 L 610.511719 91.476562 L 609.4375 82.625 L 608.367188 76.1875 L 607.292969 71.089844 L 605.292969 64.117188 L 603.578125 59.824219 L 601.433594 56.070312 L 599.363281 53.65625 L 597.003906 52.046875 L 595.574219 51.507812 L 591.789062 51.507812 L 588.359375 53.386719 L 586.359375 55.53125 L 584.929688 57.679688 L 582.929688 61.703125 L 581.714844 64.921875 L 581 67.066406 L 578.855469 75.382812 L 577.425781 82.890625 L 576.640625 87.988281 L 575.640625 96.035156 L 574.925781 103.277344 L 574.136719 114.003906 L 573.710938 122.050781 L 573.136719 140.292969 L 573.066406 188.574219 L 573.28125 198.765625 L 573.710938 209.761719 L 574.28125 219.417969 L 575.140625 229.609375 L 575.996094 237.390625 L 577.496094 247.851562 L 578.785156 254.824219 L 579.785156 259.382812 L 581.714844 266.625 L 582.5 269.039062 L 584.355469 273.867188 L 586.285156 277.625 L 588.644531 280.84375 L 590.429688 282.453125 L 593.289062 283.792969 L 596.933594 283.792969 L 601.222656 282.183594 L 603.9375 280.039062 L 605.792969 277.890625 L 607.007812 276.015625 L 608.507812 273.0625 L 609.582031 270.382812 L 610.582031 267.429688 L 611.796875 262.871094 L 611.796875 198.765625 L 594.148438 198.496094 L 594.148438 168.457031 L 621.585938 168.1875 L 621.65625 273.0625 L 620.15625 280.304688 L 618.300781 287.28125 L 616.511719 292.644531 L 614.65625 297.203125 L 612.011719 302.300781 L 609.867188 305.519531 L 606.582031 309.273438 L 603.578125 311.6875 L 600.433594 313.296875 L 597.648438 314.101562 L 594.359375 314.371094 L 591.429688 313.835938 L 588.289062 312.226562 L 585.785156 310.078125 L 583.5 307.398438 L 581.210938 303.910156 L 578.355469 298.277344 L 576.496094 293.71875 L 574.566406 288.085938 L 572.636719 281.378906 L 570.921875 274.136719 L 569.78125 268.503906 L 568.636719 262.066406 L 567.421875 254.019531 L 566.277344 244.898438 L 565.421875 236.585938 L 564.632812 227.195312 L 564.0625 218.34375 L 563.492188 206.277344 L 563.207031 196.621094 L 563.0625 188.304688 Z M 563.0625 146.460938 "/>
<path style=" stroke:none;fill-rule:nonzero;fill:rgb(14.509804%,36.078431%,60%);fill-opacity:1;" d="M 624.742188 285.835938 L 624.8125 285.789062 L 624.8125 284.679688 L 625.027344 282.925781 L 625.527344 280.710938 L 626.027344 279.1875 L 627.3125 276.460938 L 629.101562 273.832031 L 630.957031 271.796875 L 632.316406 270.597656 L 633.53125 269.675781 L 636.316406 267.964844 L 638.105469 267.089844 L 640.035156 266.304688 L 642.390625 265.519531 L 644.105469 265.058594 L 647.964844 264.320312 L 650.824219 263.996094 L 653.039062 263.855469 L 657.828125 263.855469 L 660.683594 264.042969 L 662.757812 264.273438 L 665.042969 264.640625 L 666.972656 265.058594 L 670.332031 266.074219 L 673.332031 267.367188 L 674.691406 268.105469 L 676.835938 269.535156 L 678.476562 270.921875 L 679.621094 272.121094 L 680.90625 273.832031 L 682.050781 275.90625 L 682.910156 278.261719 L 683.335938 280.25 L 673.332031 280.25 L 672.832031 278.402344 L 672.261719 276.96875 L 671.1875 275.078125 L 670.117188 273.738281 L 668.617188 272.398438 L 667.257812 271.523438 L 665.402344 270.644531 L 663.757812 270.089844 L 662.042969 269.675781 L 660.398438 269.398438 L 657.253906 269.121094 L 653.609375 269.121094 L 652.253906 269.214844 L 649.464844 269.582031 L 647.964844 269.90625 L 645.820312 270.550781 L 644.320312 271.152344 L 642.535156 272.074219 L 641.320312 272.859375 L 639.820312 274.0625 L 638.746094 275.125 L 637.53125 276.648438 L 636.816406 277.800781 L 636.175781 279.09375 L 635.601562 280.617188 L 635.175781 282.234375 L 634.890625 283.941406 L 634.746094 285.605469 L 634.746094 292.761719 L 634.890625 294.421875 L 635.246094 296.363281 L 636.175781 299.179688 L 637.53125 301.625 L 639.105469 303.566406 L 640.605469 304.953125 L 641.464844 305.597656 L 642.605469 306.335938 L 644.394531 307.261719 L 646.964844 308.183594 L 648.464844 308.554688 L 650.753906 308.921875 L 653.109375 309.105469 L 656.253906 309.105469 L 659.042969 308.921875 L 660.898438 308.691406 L 662.828125 308.320312 L 665.472656 307.535156 L 667.117188 306.796875 L 668.546875 305.921875 L 669.617188 305.042969 L 670.332031 304.304688 L 671.402344 302.875 L 672.261719 301.304688 L 672.902344 299.6875 L 673.332031 298.117188 L 683.335938 298.117188 L 682.910156 299.964844 L 682.265625 301.765625 L 681.621094 303.105469 L 680.621094 304.71875 L 679.476562 306.152344 L 677.835938 307.769531 L 676.476562 308.828125 L 674.691406 309.984375 L 673.046875 310.863281 L 671.261719 311.644531 L 668.617188 312.570312 L 666.902344 313.03125 L 665.042969 313.445312 L 662.828125 313.816406 L 660.042969 314.140625 L 657.039062 314.324219 L 654.253906 314.371094 L 651.253906 314.277344 L 649.039062 314.09375 L 646.109375 313.679688 L 642.464844 312.847656 L 639.820312 311.96875 L 637.746094 311.09375 L 635.960938 310.167969 L 633.960938 308.921875 L 631.386719 306.890625 L 629.816406 305.320312 L 628.742188 304.027344 L 627.527344 302.226562 L 626.671875 300.609375 L 625.671875 298.023438 L 624.957031 294.746094 L 624.742188 292.207031 Z M 624.742188 285.835938 "/>
<path style=" stroke:none;fill-rule:nonzero;fill:rgb(96.862745%,70.196078%,16.862745%);fill-opacity:1;" d="M 624.742188 200.550781 L 624.8125 200.453125 L 624.8125 198.46875 L 625.097656 194.003906 L 625.8125 187.847656 L 626.742188 182.789062 L 627.742188 178.820312 L 628.386719 176.734375 L 629.457031 173.757812 L 630.386719 171.574219 L 632.746094 167.109375 L 635.746094 162.941406 L 637.390625 161.152344 L 639.246094 159.464844 L 641.890625 157.582031 L 643.105469 156.886719 L 646.820312 155.296875 L 651.039062 154.304688 L 655.683594 154.007812 L 657.828125 154.109375 L 660.757812 154.503906 L 664.757812 155.597656 L 667.042969 156.589844 L 668.832031 157.582031 L 670.6875 158.871094 L 672.976562 160.855469 L 675.121094 163.238281 L 676.835938 165.621094 L 678.550781 168.597656 L 679.980469 171.773438 L 681.191406 175.246094 L 682.265625 179.414062 L 682.910156 182.886719 L 683.335938 186.359375 L 673.40625 186.359375 L 672.832031 182.886719 L 672.191406 180.207031 L 671.117188 176.933594 L 670.046875 174.550781 L 668.972656 172.664062 L 666.972656 170.085938 L 665.257812 168.496094 L 663.113281 167.109375 L 661.042969 166.214844 L 658.683594 165.621094 L 657.253906 165.421875 L 653.46875 165.421875 L 650.039062 166.117188 L 648.035156 166.910156 L 646.609375 167.703125 L 644.605469 169.191406 L 643.390625 170.382812 L 642.675781 171.175781 L 640.535156 174.253906 L 639.105469 177.03125 L 638.320312 178.917969 L 637.316406 181.894531 L 636.605469 184.574219 L 635.816406 188.542969 L 635.390625 191.519531 L 634.816406 198.269531 L 634.746094 216.132812 L 634.960938 219.90625 L 635.390625 223.972656 L 635.960938 227.546875 L 636.816406 231.316406 L 637.675781 234.195312 L 639.175781 238.066406 L 640.460938 240.644531 L 641.464844 242.332031 L 643.390625 245.011719 L 644.179688 245.90625 L 646.035156 247.691406 L 647.964844 249.082031 L 650.324219 250.273438 L 652.109375 250.867188 L 654.96875 251.363281 L 658.613281 251.363281 L 662.898438 250.769531 L 665.617188 249.972656 L 667.472656 249.179688 L 668.6875 248.484375 L 670.1875 247.394531 L 671.261719 246.402344 L 672.261719 245.308594 L 673.476562 243.621094 L 673.476562 219.90625 L 655.824219 219.804688 L 655.824219 208.691406 L 683.265625 208.589844 L 683.335938 247.394531 L 681.835938 250.074219 L 679.980469 252.652344 L 678.191406 254.640625 L 676.335938 256.324219 L 673.691406 258.210938 L 671.546875 259.402344 L 668.257812 260.792969 L 665.257812 261.683594 L 662.113281 262.28125 L 659.328125 262.578125 L 656.039062 262.675781 L 653.109375 262.480469 L 649.964844 261.882812 L 647.464844 261.089844 L 645.179688 260.097656 L 642.890625 258.808594 L 640.035156 256.722656 L 638.175781 255.035156 L 636.246094 252.953125 L 634.316406 250.46875 L 632.601562 247.792969 L 631.457031 245.707031 L 630.316406 243.324219 L 629.101562 240.347656 L 627.957031 236.972656 L 627.101562 233.898438 L 626.3125 230.425781 L 625.742188 227.148438 L 625.171875 222.683594 L 624.882812 219.109375 L 624.742188 216.035156 Z M 624.742188 200.550781 "/>
<g style="fill:rgb(0%,0%,0%);fill-opacity:1;">
  <use xlink:href="#glyph0-1" x="21.957031" y="318.198242"/>
  <use xlink:href="#glyph0-2" x="27.291016" y="318.198242"/>
  <use xlink:href="#glyph0-1" x="29.958008" y="318.198242"/>
</g>
<g style="fill:rgb(0%,0%,0%);fill-opacity:1;">
  <use xlink:href="#glyph0-1" x="21.957031" y="244.475586"/>
  <use xlink:href="#glyph0-2" x="27.291016" y="244.475586"/>
  <use xlink:href="#glyph0-3" x="29.958008" y="244.475586"/>
</g>
<g style="fill:rgb(0%,0%,0%);fill-opacity:1;">
  <use xlink:href="#glyph0-4" x="21.957031" y="170.75293"/>
  <use xlink:href="#glyph0-2" x="27.291016" y="170.75293"/>
  <use xlink:href="#glyph0-1" x="29.958008" y="170.75293"/>
</g>
<g style="fill:rgb(0%,0%,0%);fill-opacity:1;">
  <use xlink:href="#glyph0-4" x="21.957031" y="97.03418"/>
  <use xlink:href="#glyph0-2" x="27.291016" y="97.03418"/>
  <use xlink:href="#glyph0-3" x="29.958008" y="97.03418"/>
</g>
<g style="fill:rgb(0%,0%,0%);fill-opacity:1;">
  <use xlink:href="#glyph0-5" x="21.957031" y="23.311523"/>
  <use xlink:href="#glyph0-2" x="27.291016" y="23.311523"/>
  <use xlink:href="#glyph0-1" x="29.958008" y="23.311523"/>
</g>
<g style="fill:rgb(0%,0%,0%);fill-opacity:1;">
  <use xlink:href="#glyph0-4" x="95.925781" y="338.19043"/>
</g>
<g style="fill:rgb(0%,0%,0%);fill-opacity:1;">
  <use xlink:href="#glyph0-5" x="157.605469" y="338.19043"/>
</g>
<g style="fill:rgb(0%,0%,0%);fill-opacity:1;">
  <use xlink:href="#glyph0-6" x="219.285156" y="338.19043"/>
</g>
<g style="fill:rgb(0%,0%,0%);fill-opacity:1;">
  <use xlink:href="#glyph0-7" x="280.964844" y="338.19043"/>
</g>
<g style="fill:rgb(0%,0%,0%);fill-opacity:1;">
  <use xlink:href="#glyph0-3" x="342.644531" y="338.19043"/>
</g>
<g style="fill:rgb(0%,0%,0%);fill-opacity:1;">
  <use xlink:href="#glyph0-8" x="404.324219" y="338.19043"/>
</g>
<g style="fill:rgb(0%,0%,0%);fill-opacity:1;">
  <use xlink:href="#glyph0-9" x="466" y="338.19043"/>
</g>
<g style="fill:rgb(0%,0%,0%);fill-opacity:1;">
  <use xlink:href="#glyph0-10" x="527.679688" y="338.19043"/>
</g>
<g style="fill:rgb(0%,0%,0%);fill-opacity:1;">
  <use xlink:href="#glyph0-11" x="589.359375" y="338.19043"/>
</g>
<g style="fill:rgb(0%,0%,0%);fill-opacity:1;">
  <use xlink:href="#glyph0-4" x="648.539062" y="338.19043"/>
  <use xlink:href="#glyph0-1" x="653.873047" y="338.19043"/>
</g>
<g style="fill:rgb(0%,0%,0%);fill-opacity:1;">
  <use xlink:href="#glyph1-1" x="14.412109" y="178.015625"/>
  <use xlink:href="#glyph1-2" x="14.412109" y="170.011719"/>
  <use xlink:href="#glyph1-3" x="14.412109" y="167.347656"/>
  <use xlink:href="#glyph1-4" x="14.412109" y="164.011719"/>
</g>
</g>
</svg>
