<?xml version="1.0" encoding="UTF-8"?>
<svg xmlns="http://www.w3.org/2000/svg" xmlns:xlink="http://www.w3.org/1999/xlink" width="720pt" height="360pt" viewBox="0 0 720 360" version="1.1">
<defs>
<g>
<symbol overflow="visible" id="glyph0-0">
<path style="stroke:none;" d=""/>
</symbol>
<symbol overflow="visible" id="glyph0-1">
<path style="stroke:none;" d="M 2.640625 -6.796875 C 2 -6.796875 1.421875 -6.53125 1.078125 -6.046875 C 0.640625 -5.453125 0.40625 -4.546875 0.40625 -3.296875 C 0.40625 -1 1.1875 0.21875 2.640625 0.21875 C 4.078125 0.21875 4.859375 -1 4.859375 -3.234375 C 4.859375 -4.5625 4.65625 -5.4375 4.203125 -6.046875 C 3.84375 -6.53125 3.28125 -6.796875 2.640625 -6.796875 Z M 2.640625 -6.046875 C 3.546875 -6.046875 4 -5.125 4 -3.3125 C 4 -1.375 3.5625 -0.484375 2.625 -0.484375 C 1.734375 -0.484375 1.28125 -1.421875 1.28125 -3.28125 C 1.28125 -5.140625 1.734375 -6.046875 2.640625 -6.046875 Z M 2.640625 -6.046875 "/>
</symbol>
<symbol overflow="visible" id="glyph0-2">
<path style="stroke:none;" d="M 1.828125 -1 L 0.828125 -1 L 0.828125 0 L 1.828125 0 Z M 1.828125 -1 "/>
</symbol>
<symbol overflow="visible" id="glyph0-3">
<path style="stroke:none;" d="M 4.5625 -6.796875 L 1.0625 -6.796875 L 0.546875 -3.09375 L 1.328125 -3.09375 C 1.71875 -3.5625 2.046875 -3.734375 2.578125 -3.734375 C 3.484375 -3.734375 4.0625 -3.109375 4.0625 -2.09375 C 4.0625 -1.125 3.484375 -0.53125 2.578125 -0.53125 C 1.828125 -0.53125 1.375 -0.90625 1.1875 -1.671875 L 0.328125 -1.671875 C 0.453125 -1.109375 0.546875 -0.84375 0.75 -0.59375 C 1.125 -0.078125 1.828125 0.21875 2.59375 0.21875 C 3.96875 0.21875 4.921875 -0.78125 4.921875 -2.21875 C 4.921875 -3.5625 4.03125 -4.484375 2.71875 -4.484375 C 2.25 -4.484375 1.859375 -4.359375 1.46875 -4.0625 L 1.734375 -5.96875 L 4.5625 -5.96875 Z M 4.5625 -6.796875 "/>
</symbol>
<symbol overflow="visible" id="glyph0-4">
<path style="stroke:none;" d="M 2.484375 -4.84375 L 2.484375 0 L 3.328125 0 L 3.328125 -6.796875 L 2.765625 -6.796875 C 2.46875 -5.75 2.28125 -5.609375 0.984375 -5.453125 L 0.984375 -4.84375 Z M 2.484375 -4.84375 "/>
</symbol>
<symbol overflow="visible" id="glyph0-5">
<path style="stroke:none;" d="M 4.859375 -0.828125 L 1.28125 -0.828125 C 1.359375 -1.390625 1.671875 -1.75 2.5 -2.234375 L 3.46875 -2.75 C 4.40625 -3.265625 4.90625 -3.96875 4.90625 -4.8125 C 4.90625 -5.375 4.671875 -5.90625 4.265625 -6.265625 C 3.859375 -6.625 3.375 -6.796875 2.71875 -6.796875 C 1.859375 -6.796875 1.21875 -6.5 0.84375 -5.921875 C 0.609375 -5.5625 0.5 -5.125 0.484375 -4.4375 L 1.328125 -4.4375 C 1.359375 -4.90625 1.40625 -5.1875 1.53125 -5.40625 C 1.75 -5.8125 2.1875 -6.0625 2.703125 -6.0625 C 3.46875 -6.0625 4.03125 -5.515625 4.03125 -4.78125 C 4.03125 -4.25 3.71875 -3.796875 3.125 -3.4375 L 2.234375 -2.9375 C 0.8125 -2.140625 0.40625 -1.5 0.328125 0 L 4.859375 0 Z M 4.859375 -0.828125 "/>
</symbol>
<symbol overflow="visible" id="glyph0-6">
<path style="stroke:none;" d="M 2.125 -3.125 L 2.578125 -3.125 C 3.515625 -3.125 3.984375 -2.703125 3.984375 -1.890625 C 3.984375 -1.03125 3.46875 -0.53125 2.578125 -0.53125 C 1.65625 -0.53125 1.203125 -0.984375 1.15625 -1.96875 L 0.3125 -1.96875 C 0.34375 -1.421875 0.4375 -1.078125 0.609375 -0.765625 C 0.953125 -0.109375 1.625 0.21875 2.546875 0.21875 C 3.953125 0.21875 4.859375 -0.609375 4.859375 -1.90625 C 4.859375 -2.765625 4.515625 -3.25 3.703125 -3.515625 C 4.34375 -3.765625 4.65625 -4.25 4.65625 -4.9375 C 4.65625 -6.109375 3.875 -6.796875 2.578125 -6.796875 C 1.203125 -6.796875 0.484375 -6.046875 0.453125 -4.609375 L 1.296875 -4.609375 C 1.3125 -5.015625 1.34375 -5.25 1.453125 -5.453125 C 1.640625 -5.828125 2.0625 -6.0625 2.59375 -6.0625 C 3.34375 -6.0625 3.796875 -5.625 3.796875 -4.90625 C 3.796875 -4.421875 3.609375 -4.140625 3.25 -3.984375 C 3.015625 -3.890625 2.71875 -3.84375 2.125 -3.84375 Z M 2.125 -3.125 "/>
</symbol>
<symbol overflow="visible" id="glyph0-7">
<path style="stroke:none;" d="M 3.140625 -1.625 L 3.140625 0 L 3.984375 0 L 3.984375 -1.625 L 4.984375 -1.625 L 4.984375 -2.390625 L 3.984375 -2.390625 L 3.984375 -6.796875 L 3.359375 -6.796875 L 0.265625 -2.515625 L 0.265625 -1.625 Z M 3.140625 -2.390625 L 1 -2.390625 L 3.140625 -5.359375 Z M 3.140625 -2.390625 "/>
</symbol>
<symbol overflow="visible" id="glyph0-8">
<path style="stroke:none;" d="M 4.78125 -5.03125 C 4.609375 -6.140625 3.890625 -6.796875 2.84375 -6.796875 C 2.09375 -6.796875 1.421875 -6.4375 1.03125 -5.828125 C 0.609375 -5.171875 0.40625 -4.34375 0.40625 -3.09375 C 0.40625 -1.953125 0.578125 -1.234375 0.984375 -0.625 C 1.359375 -0.078125 1.953125 0.21875 2.703125 0.21875 C 3.984375 0.21875 4.921875 -0.734375 4.921875 -2.078125 C 4.921875 -3.34375 4.0625 -4.234375 2.84375 -4.234375 C 2.171875 -4.234375 1.640625 -3.96875 1.28125 -3.46875 C 1.28125 -5.125 1.828125 -6.046875 2.796875 -6.046875 C 3.390625 -6.046875 3.796875 -5.671875 3.9375 -5.03125 Z M 2.734375 -3.484375 C 3.546875 -3.484375 4.0625 -2.921875 4.0625 -2 C 4.0625 -1.15625 3.484375 -0.53125 2.703125 -0.53125 C 1.921875 -0.53125 1.328125 -1.1875 1.328125 -2.046875 C 1.328125 -2.890625 1.90625 -3.484375 2.734375 -3.484375 Z M 2.734375 -3.484375 "/>
</symbol>
<symbol overflow="visible" id="glyph0-9">
<path style="stroke:none;" d="M 4.984375 -6.796875 L 0.4375 -6.796875 L 0.4375 -5.96875 L 4.109375 -5.96875 C 2.5 -3.65625 1.828125 -2.234375 1.328125 0 L 2.21875 0 C 2.59375 -2.171875 3.453125 -4.046875 4.984375 -6.09375 Z M 4.984375 -6.796875 "/>
</symbol>
<symbol overflow="visible" id="glyph1-0">
<path style="stroke:none;" d=""/>
</symbol>
<symbol overflow="visible" id="glyph1-1">
<path style="stroke:none;" d="M 0 -0.953125 L 0 -4.890625 C 0 -5.71875 -0.234375 -6.34375 -0.734375 -6.796875 C -1.1875 -7.234375 -1.8125 -7.46875 -2.5 -7.46875 C -3.546875 -7.46875 -4.1875 -7 -4.625 -5.875 C -4.984375 -6.671875 -5.640625 -7.09375 -6.53125 -7.09375 C -7.15625 -7.09375 -7.734375 -6.859375 -8.140625 -6.390625 C -8.5625 -5.9375 -8.75 -5.34375 -8.75 -4.5 L -8.75 -0.953125 Z M -4.984375 -2.0625 L -7.765625 -2.0625 L -7.765625 -4.21875 C -7.765625 -4.84375 -7.6875 -5.203125 -7.453125 -5.5 C -7.21875 -5.8125 -6.859375 -5.96875 -6.375 -5.96875 C -5.90625 -5.96875 -5.53125 -5.8125 -5.296875 -5.5 C -5.0625 -5.203125 -4.984375 -4.84375 -4.984375 -4.21875 Z M -0.984375 -2.0625 L -4 -2.0625 L -4 -4.78125 C -4 -5.328125 -3.859375 -5.6875 -3.578125 -5.953125 C -3.296875 -6.21875 -2.921875 -6.359375 -2.484375 -6.359375 C -2.0625 -6.359375 -1.6875 -6.21875 -1.40625 -5.953125 C -1.109375 -5.6875 -0.984375 -5.328125 -0.984375 -4.78125 Z M -0.984375 -2.0625 "/>
</symbol>
<symbol overflow="visible" id="glyph1-2">
<path style="stroke:none;" d="M -6.28125 -1.796875 L -6.28125 -0.796875 L 0 -0.796875 L 0 -1.796875 Z M -8.75 -1.796875 L -8.75 -0.796875 L -7.484375 -0.796875 L -7.484375 -1.796875 Z M -8.75 -1.796875 "/>
</symbol>
<symbol overflow="visible" id="glyph1-3">
<path style="stroke:none;" d="M -6.28125 -3.046875 L -6.28125 -2.015625 L -8.015625 -2.015625 L -8.015625 -1.015625 L -6.28125 -1.015625 L -6.28125 -0.171875 L -5.46875 -0.171875 L -5.46875 -1.015625 L -0.71875 -1.015625 C -0.078125 -1.015625 0.28125 -1.453125 0.28125 -2.234375 C 0.28125 -2.46875 0.25 -2.71875 0.1875 -3.046875 L -0.640625 -3.046875 C -0.609375 -2.921875 -0.59375 -2.765625 -0.59375 -2.5625 C -0.59375 -2.140625 -0.71875 -2.015625 -1.15625 -2.015625 L -5.46875 -2.015625 L -5.46875 -3.046875 Z M -6.28125 -3.046875 "/>
</symbol>
<symbol overflow="visible" id="glyph1-4">
<path style="stroke:none;" d="M -4.53125 -5.25 C -5.765625 -5.25 -6.46875 -4.421875 -6.46875 -2.96875 C -6.46875 -1.515625 -5.71875 -0.5625 -4.546875 -0.5625 C -3.5625 -0.5625 -3.09375 -1.0625 -2.734375 -2.5625 L -2.515625 -3.484375 C -2.34375 -4.1875 -2.09375 -4.46875 -1.625 -4.46875 C -1.046875 -4.46875 -0.640625 -3.875 -0.640625 -3 C -0.640625 -2.453125 -0.796875 -2 -1.0625 -1.75 C -1.25 -1.59375 -1.421875 -1.53125 -1.875 -1.46875 L -1.875 -0.40625 C -0.421875 -0.453125 0.28125 -1.265625 0.28125 -2.921875 C 0.28125 -4.5 -0.5 -5.515625 -1.71875 -5.515625 C -2.65625 -5.515625 -3.171875 -4.984375 -3.46875 -3.734375 L -3.703125 -2.765625 C -3.890625 -1.953125 -4.15625 -1.609375 -4.59375 -1.609375 C -5.171875 -1.609375 -5.546875 -2.125 -5.546875 -2.9375 C -5.546875 -3.75 -5.203125 -4.171875 -4.53125 -4.203125 Z M -4.53125 -5.25 "/>
</symbol>
</g>
</defs>
<g id="surface18583">
<rect x="0" y="0" width="720" height="360" style="fill:rgb(100%,100%,100%);fill-opacity:1;stroke:none;"/>
<path style=" stroke:none;fill-rule:nonzero;fill:rgb(14.509804%,36.078431%,60%);fill-opacity:1;" d="M 69.628906 183.726562 L 69.730469 183.546875 L 69.730469 179.234375 L 70.039062 172.402344 L 70.753906 163.773438 L 71.472656 157.84375 L 73.3125 147.238281 L 75.871094 136.992188 L 78.53125 129.085938 L 80.472656 124.410156 L 82.210938 120.816406 L 86.203125 114.167969 L 88.761719 110.75 L 91.523438 107.695312 L 94.898438 104.640625 L 97.351562 102.84375 L 102.878906 99.964844 L 106.96875 98.707031 L 110.140625 98.167969 L 116.996094 98.167969 L 121.085938 98.886719 L 124.054688 99.785156 L 127.328125 101.226562 L 130.089844 102.84375 L 134.898438 106.796875 L 139.195312 111.828125 L 141.140625 114.707031 L 144.207031 120.277344 L 146.5625 125.667969 L 148.199219 130.34375 L 150.039062 136.992188 L 151.675781 145.082031 L 152.902344 154.25 L 153.515625 161.976562 L 139.195312 161.976562 L 138.480469 154.789062 L 137.660156 149.214844 L 136.125 141.847656 L 134.589844 136.632812 L 132.441406 131.421875 L 130.5 128.007812 L 127.839844 124.589844 L 125.488281 122.433594 L 123.03125 120.816406 L 120.679688 119.738281 L 116.175781 118.660156 L 110.960938 118.660156 L 109.015625 119.019531 L 105.027344 120.457031 L 102.878906 121.714844 L 99.808594 124.230469 L 97.660156 126.566406 L 95.101562 130.164062 L 93.363281 133.21875 L 91.214844 137.890625 L 89.679688 142.027344 L 87.941406 147.957031 L 86.917969 152.449219 L 85.996094 157.484375 L 85.179688 163.414062 L 84.566406 169.707031 L 84.15625 176.355469 L 83.953125 182.828125 L 83.953125 210.6875 L 84.15625 217.15625 L 84.667969 224.707031 L 85.996094 235.671875 L 87.941406 245.199219 L 90.191406 252.746094 L 92.339844 258.140625 L 93.566406 260.65625 L 95.203125 263.53125 L 97.761719 267.125 L 101.445312 270.722656 L 103.59375 272.160156 L 106.867188 273.597656 L 110.242188 274.316406 L 114.746094 274.316406 L 118.734375 273.597656 L 121.394531 272.699219 L 124.15625 271.261719 L 127.941406 268.203125 L 130.292969 265.328125 L 132.339844 261.914062 L 133.875 258.5 L 134.898438 255.621094 L 136.433594 250.050781 L 137.660156 243.941406 L 138.582031 237.648438 L 139.195312 231.539062 L 153.515625 231.539062 L 152.902344 238.726562 L 151.984375 245.738281 L 151.0625 250.949219 L 149.628906 257.242188 L 147.992188 262.8125 L 145.640625 269.101562 L 143.695312 273.238281 L 141.140625 277.730469 L 138.785156 281.144531 L 136.226562 284.203125 L 132.441406 287.796875 L 129.988281 289.59375 L 127.328125 291.210938 L 124.15625 292.648438 L 120.167969 293.90625 L 115.871094 294.625 L 111.878906 294.804688 L 107.582031 294.445312 L 104.414062 293.726562 L 100.21875 292.109375 L 95 288.875 L 91.214844 285.460938 L 88.25 282.042969 L 85.691406 278.449219 L 82.828125 273.597656 L 79.144531 265.6875 L 76.894531 259.578125 L 75.359375 254.542969 L 73.621094 247.535156 L 72.390625 241.242188 L 70.960938 231.179688 L 69.9375 218.417969 L 69.628906 208.53125 Z M 69.628906 183.726562 "/>
<path style=" stroke:none;fill-rule:nonzero;fill:rgb(96.862745%,70.196078%,16.862745%);fill-opacity:1;" d="M 69.628906 300.136719 L 69.730469 300.128906 L 69.730469 299.949219 L 70.140625 299.550781 L 71.164062 299.003906 L 72.492188 298.550781 L 73.925781 298.199219 L 74.847656 298.011719 L 76.382812 297.746094 L 77.710938 297.550781 L 81.085938 297.152344 L 85.382812 296.78125 L 87.738281 296.621094 L 90.398438 296.472656 L 94.183594 296.304688 L 95.921875 296.242188 L 101.242188 296.101562 L 107.277344 296.011719 L 113.925781 295.984375 L 116.996094 295.996094 L 121.191406 296.03125 L 126.917969 296.128906 L 130.191406 296.214844 L 132.75 296.304688 L 135.410156 296.417969 L 138.683594 296.597656 L 141.753906 296.808594 L 144.207031 297.019531 L 146.664062 297.285156 L 148.710938 297.570312 L 150.449219 297.878906 L 151.984375 298.25 L 152.902344 298.5625 L 153.515625 298.871094 L 139.296875 298.871094 L 138.480469 298.5625 L 137.558594 298.320312 L 136.023438 298.03125 L 134.488281 297.816406 L 132.953125 297.648438 L 130.089844 297.417969 L 127.636719 297.277344 L 124.566406 297.152344 L 121.597656 297.074219 L 118.222656 297.019531 L 116.175781 297.003906 L 110.753906 297.003906 L 105.84375 297.066406 L 102.980469 297.136719 L 100.933594 297.207031 L 98.070312 297.339844 L 96.332031 297.445312 L 95.308594 297.515625 L 92.238281 297.792969 L 90.191406 298.039062 L 89.066406 298.207031 L 87.632812 298.472656 L 86.613281 298.710938 L 85.484375 299.066406 L 84.871094 299.332031 L 84.054688 299.933594 L 83.953125 301.523438 L 84.257812 301.863281 L 84.871094 302.222656 L 85.691406 302.542969 L 86.917969 302.878906 L 88.144531 303.136719 L 90.292969 303.480469 L 92.136719 303.710938 L 93.566406 303.863281 L 96.332031 304.101562 L 97.457031 304.179688 L 100.117188 304.339844 L 102.878906 304.464844 L 106.253906 304.570312 L 108.8125 304.621094 L 112.902344 304.667969 L 118.121094 304.667969 L 124.257812 304.613281 L 128.144531 304.542969 L 130.804688 304.472656 L 132.546875 304.410156 L 134.695312 304.3125 L 136.226562 304.222656 L 137.660156 304.125 L 139.398438 303.976562 L 139.398438 301.863281 L 114.132812 301.851562 L 114.132812 300.863281 L 153.414062 300.851562 L 153.515625 304.3125 L 151.367188 304.550781 L 148.710938 304.78125 L 146.152344 304.957031 L 143.492188 305.109375 L 139.707031 305.277344 L 136.636719 305.382812 L 131.929688 305.507812 L 127.636719 305.585938 L 123.132812 305.640625 L 119.144531 305.667969 L 114.4375 305.675781 L 110.242188 305.65625 L 105.742188 305.605469 L 102.160156 305.535156 L 98.886719 305.445312 L 95.613281 305.332031 L 91.523438 305.144531 L 88.863281 304.992188 L 86.101562 304.808594 L 83.335938 304.585938 L 80.882812 304.347656 L 79.246094 304.164062 L 77.609375 303.949219 L 75.871094 303.683594 L 74.234375 303.382812 L 73.003906 303.109375 L 71.878906 302.800781 L 71.0625 302.507812 L 70.242188 302.109375 L 69.832031 301.789062 L 69.628906 301.515625 Z M 69.628906 300.136719 "/>
<path style=" stroke:none;fill-rule:nonzero;fill:rgb(83.921569%,15.686275%,22.352941%);fill-opacity:1;" d="M 69.628906 306.855469 L 153.515625 306.855469 L 153.515625 307.660156 L 118.554688 307.667969 L 118.554688 314.371094 L 104.488281 314.371094 L 104.488281 307.671875 L 104.285156 307.660156 L 69.628906 307.660156 Z M 69.628906 306.855469 "/>
<path style=" stroke:none;fill-rule:nonzero;fill:rgb(96.862745%,70.196078%,16.862745%);fill-opacity:1;" d="M 157.933594 146.460938 L 158.035156 146.191406 L 158.035156 140.828125 L 158.445312 128.757812 L 159.46875 112.128906 L 160.796875 98.449219 L 162.230469 87.71875 L 163.148438 82.085938 L 164.683594 74.039062 L 166.015625 68.140625 L 169.390625 56.070312 L 173.6875 44.804688 L 176.039062 39.976562 L 178.699219 35.414062 L 182.484375 30.320312 L 184.222656 28.441406 L 189.542969 24.148438 L 195.578125 21.46875 L 202.230469 20.664062 L 205.296875 20.929688 L 209.492188 22.003906 L 215.222656 24.953125 L 218.496094 27.636719 L 221.054688 30.320312 L 223.714844 33.804688 L 226.988281 39.171875 L 230.054688 45.609375 L 232.511719 52.046875 L 234.964844 60.09375 L 237.011719 68.675781 L 238.75 78.0625 L 240.285156 89.328125 L 241.207031 98.714844 L 241.820312 108.105469 L 227.601562 108.105469 L 226.78125 98.714844 L 225.863281 91.476562 L 224.328125 82.625 L 222.792969 76.1875 L 221.257812 71.089844 L 218.394531 64.117188 L 215.9375 59.824219 L 212.867188 56.070312 L 209.902344 53.65625 L 206.527344 52.046875 L 204.480469 51.507812 L 199.058594 51.507812 L 194.148438 53.386719 L 191.285156 55.53125 L 189.238281 57.679688 L 186.371094 61.703125 L 184.632812 64.921875 L 183.609375 67.066406 L 180.542969 75.382812 L 178.496094 82.890625 L 177.371094 87.988281 L 175.9375 96.035156 L 174.914062 103.277344 L 173.789062 114.003906 L 173.175781 122.050781 L 172.355469 140.292969 L 172.253906 188.574219 L 172.5625 198.765625 L 173.175781 209.761719 L 173.992188 219.417969 L 175.222656 229.609375 L 176.449219 237.390625 L 178.597656 247.851562 L 180.4375 254.824219 L 181.871094 259.382812 L 184.632812 266.625 L 185.757812 269.039062 L 188.417969 273.867188 L 191.179688 277.625 L 194.558594 280.84375 L 197.113281 282.453125 L 201.207031 283.792969 L 206.425781 283.792969 L 212.5625 282.183594 L 216.449219 280.039062 L 219.109375 277.890625 L 220.847656 276.015625 L 222.996094 273.0625 L 224.53125 270.382812 L 225.964844 267.429688 L 227.703125 262.871094 L 227.703125 198.765625 L 202.433594 198.496094 L 202.433594 168.457031 L 241.71875 168.1875 L 241.820312 273.0625 L 239.671875 280.304688 L 237.011719 287.28125 L 234.453125 292.644531 L 231.796875 297.203125 L 228.011719 302.300781 L 224.941406 305.519531 L 220.234375 309.273438 L 215.9375 311.6875 L 211.4375 313.296875 L 207.445312 314.101562 L 202.742188 314.371094 L 198.546875 313.835938 L 194.046875 312.226562 L 190.464844 310.078125 L 187.191406 307.398438 L 183.917969 303.910156 L 179.824219 298.277344 L 177.164062 293.71875 L 174.402344 288.085938 L 171.640625 281.378906 L 169.1875 274.136719 L 167.550781 268.503906 L 165.914062 262.066406 L 164.171875 254.019531 L 162.535156 244.898438 L 161.308594 236.585938 L 160.183594 227.195312 L 159.363281 218.34375 L 158.546875 206.277344 L 158.136719 196.621094 L 157.933594 188.304688 Z M 157.933594 146.460938 "/>
<path style=" stroke:none;fill-rule:nonzero;fill:rgb(14.509804%,36.078431%,60%);fill-opacity:1;" d="M 246.234375 148.457031 L 246.339844 148.1875 L 246.339844 141.742188 L 246.644531 131.542969 L 247.359375 118.65625 L 248.078125 109.796875 L 249.917969 93.957031 L 252.476562 78.652344 L 255.136719 66.839844 L 257.078125 59.859375 L 258.820312 54.492188 L 262.808594 44.558594 L 265.367188 39.457031 L 268.128906 34.890625 L 271.503906 30.328125 L 273.960938 27.644531 L 279.484375 23.347656 L 283.578125 21.46875 L 286.746094 20.664062 L 293.601562 20.664062 L 297.695312 21.738281 L 300.660156 23.078125 L 303.933594 25.226562 L 306.695312 27.644531 L 311.503906 33.550781 L 315.800781 41.066406 L 317.746094 45.363281 L 320.8125 53.683594 L 323.167969 61.738281 L 324.804688 68.71875 L 326.644531 78.652344 L 328.28125 90.734375 L 329.511719 104.425781 L 330.125 115.96875 L 315.800781 115.96875 L 315.085938 105.230469 L 314.265625 96.910156 L 312.734375 85.902344 L 311.199219 78.117188 L 309.050781 70.332031 L 307.105469 65.230469 L 304.445312 60.128906 L 302.09375 56.90625 L 299.636719 54.492188 L 297.285156 52.878906 L 292.785156 51.269531 L 287.566406 51.269531 L 285.621094 51.804688 L 281.632812 53.953125 L 279.484375 55.832031 L 276.414062 59.589844 L 274.265625 63.082031 L 271.710938 68.449219 L 269.96875 73.015625 L 267.820312 79.996094 L 266.289062 86.171875 L 264.546875 95.03125 L 263.523438 101.742188 L 262.605469 109.257812 L 261.785156 118.117188 L 261.171875 127.515625 L 260.761719 137.449219 L 260.558594 147.113281 L 260.558594 188.726562 L 260.761719 198.390625 L 261.273438 209.667969 L 262.605469 226.042969 L 264.546875 240.273438 L 266.796875 251.546875 L 268.945312 259.601562 L 270.175781 263.359375 L 271.8125 267.65625 L 274.367188 273.027344 L 278.050781 278.394531 L 280.199219 280.542969 L 283.472656 282.691406 L 286.851562 283.765625 L 291.351562 283.765625 L 295.339844 282.691406 L 298 281.347656 L 300.761719 279.199219 L 304.546875 274.636719 L 306.902344 270.339844 L 308.949219 265.242188 L 310.480469 260.140625 L 311.503906 255.84375 L 313.039062 247.519531 L 314.265625 238.394531 L 315.1875 228.996094 L 315.800781 219.867188 L 330.125 219.867188 L 329.511719 230.609375 L 328.589844 241.078125 L 327.667969 248.863281 L 326.238281 258.261719 L 324.601562 266.582031 L 322.246094 275.980469 L 320.304688 282.152344 L 317.746094 288.867188 L 315.390625 293.96875 L 312.835938 298.53125 L 309.050781 303.898438 L 306.59375 306.585938 L 303.933594 309 L 300.761719 311.148438 L 296.773438 313.027344 L 292.476562 314.101562 L 288.488281 314.371094 L 284.191406 313.832031 L 281.019531 312.761719 L 276.824219 310.34375 L 271.605469 305.511719 L 267.820312 300.410156 L 264.855469 295.308594 L 262.296875 289.941406 L 259.433594 282.691406 L 255.75 270.878906 L 253.5 261.75 L 251.964844 254.234375 L 250.226562 243.761719 L 248.996094 234.367188 L 247.566406 219.332031 L 246.542969 200.269531 L 246.234375 185.503906 Z M 246.234375 148.457031 "/>
<path style=" stroke:none;fill-rule:nonzero;fill:rgb(96.862745%,70.196078%,16.862745%);fill-opacity:1;" d="M 334.539062 146.460938 L 334.640625 146.191406 L 334.640625 140.828125 L 335.050781 128.757812 L 336.074219 112.128906 L 337.402344 98.449219 L 338.835938 87.71875 L 339.757812 82.085938 L 341.292969 74.039062 L 342.621094 68.140625 L 345.996094 56.070312 L 350.292969 44.804688 L 352.648438 39.976562 L 355.304688 35.414062 L 359.089844 30.320312 L 360.832031 28.441406 L 366.152344 24.148438 L 372.1875 21.46875 L 378.835938 20.664062 L 381.90625 20.929688 L 386.101562 22.003906 L 391.828125 24.953125 L 395.101562 27.636719 L 397.660156 30.320312 L 400.320312 33.804688 L 403.59375 39.171875 L 406.664062 45.609375 L 409.117188 52.046875 L 411.574219 60.09375 L 413.617188 68.675781 L 415.359375 78.0625 L 416.894531 89.328125 L 417.8125 98.714844 L 418.425781 108.105469 L 404.207031 108.105469 L 403.390625 98.714844 L 402.46875 91.476562 L 400.933594 82.625 L 399.398438 76.1875 L 397.863281 71.089844 L 395 64.117188 L 392.542969 59.824219 L 389.476562 56.070312 L 386.507812 53.65625 L 383.132812 52.046875 L 381.085938 51.507812 L 375.664062 51.507812 L 370.753906 53.386719 L 367.890625 55.53125 L 365.84375 57.679688 L 362.980469 61.703125 L 361.238281 64.921875 L 360.21875 67.066406 L 357.148438 75.382812 L 355.101562 82.890625 L 353.976562 87.988281 L 352.542969 96.035156 L 351.519531 103.277344 L 350.394531 114.003906 L 349.78125 122.050781 L 348.964844 140.292969 L 348.863281 188.574219 L 349.167969 198.765625 L 349.78125 209.761719 L 350.601562 219.417969 L 351.828125 229.609375 L 353.054688 237.390625 L 355.203125 247.851562 L 357.046875 254.824219 L 358.476562 259.382812 L 361.238281 266.625 L 362.367188 269.039062 L 365.023438 273.867188 L 367.789062 277.625 L 371.164062 280.84375 L 373.722656 282.453125 L 377.8125 283.792969 L 383.03125 283.792969 L 389.167969 282.183594 L 393.054688 280.039062 L 395.714844 277.890625 L 397.457031 276.015625 L 399.605469 273.0625 L 401.136719 270.382812 L 402.570312 267.429688 L 404.308594 262.871094 L 404.308594 198.765625 L 379.039062 198.496094 L 379.039062 168.457031 L 418.324219 168.1875 L 418.425781 273.0625 L 416.277344 280.304688 L 413.617188 287.28125 L 411.0625 292.644531 L 408.402344 297.203125 L 404.617188 302.300781 L 401.546875 305.519531 L 396.839844 309.273438 L 392.542969 311.6875 L 388.042969 313.296875 L 384.054688 314.101562 L 379.347656 314.371094 L 375.152344 313.835938 L 370.652344 312.226562 L 367.070312 310.078125 L 363.796875 307.398438 L 360.523438 303.910156 L 356.433594 298.277344 L 353.773438 293.71875 L 351.011719 288.085938 L 348.246094 281.378906 L 345.792969 274.136719 L 344.15625 268.503906 L 342.519531 262.066406 L 340.78125 254.019531 L 339.144531 244.898438 L 337.914062 236.585938 L 336.789062 227.195312 L 335.972656 218.34375 L 335.152344 206.277344 L 334.742188 196.621094 L 334.539062 188.304688 Z M 334.539062 146.460938 "/>
<path style=" stroke:none;fill-rule:nonzero;fill:rgb(6.27451%,58.823529%,28.235294%);fill-opacity:1;" d="M 422.84375 314.367188 L 422.933594 314.367188 L 459.230469 312.238281 L 470.253906 312.238281 L 506.730469 314.371094 L 493.914062 314.371094 L 484.773438 313.8125 L 444.710938 313.8125 L 435.75 314.367188 L 422.84375 314.367188 L 448.566406 313.585938 L 481.097656 313.582031 L 464.875 312.589844 L 464.695312 312.585938 L 464.519531 312.59375 L 448.476562 313.582031 L 448.566406 313.585938 Z M 422.84375 314.367188 "/>
<path style=" stroke:none;fill-rule:nonzero;fill:rgb(14.509804%,36.078431%,60%);fill-opacity:1;" d="M 422.84375 273.617188 L 422.945312 273.59375 L 422.945312 272.953125 L 423.25 271.9375 L 423.96875 270.660156 L 424.683594 269.78125 L 426.523438 268.207031 L 429.082031 266.6875 L 431.742188 265.515625 L 433.6875 264.820312 L 435.425781 264.289062 L 439.414062 263.300781 L 441.972656 262.792969 L 444.734375 262.339844 L 448.109375 261.886719 L 450.566406 261.621094 L 456.089844 261.195312 L 460.183594 261.007812 L 463.355469 260.929688 L 470.207031 260.929688 L 474.300781 261.035156 L 477.265625 261.167969 L 480.542969 261.382812 L 483.304688 261.621094 L 488.113281 262.207031 L 492.40625 262.953125 L 494.351562 263.382812 L 497.421875 264.207031 L 499.773438 265.007812 L 501.410156 265.699219 L 503.253906 266.6875 L 504.890625 267.886719 L 506.117188 269.246094 L 506.730469 270.394531 L 492.40625 270.394531 L 491.691406 269.328125 L 490.875 268.5 L 489.339844 267.40625 L 487.804688 266.632812 L 485.65625 265.859375 L 483.710938 265.355469 L 481.050781 264.847656 L 478.699219 264.527344 L 476.246094 264.289062 L 473.890625 264.128906 L 469.390625 263.96875 L 464.171875 263.96875 L 462.230469 264.019531 L 458.238281 264.234375 L 456.089844 264.421875 L 453.023438 264.792969 L 450.875 265.140625 L 448.316406 265.671875 L 446.578125 266.128906 L 444.429688 266.820312 L 442.894531 267.433594 L 441.15625 268.3125 L 440.132812 268.980469 L 439.210938 269.726562 L 438.390625 270.605469 L 437.777344 271.539062 L 437.371094 272.527344 L 437.164062 273.484375 L 437.164062 277.617188 L 437.371094 278.578125 L 437.882812 279.695312 L 439.210938 281.324219 L 441.15625 282.734375 L 443.40625 283.855469 L 445.554688 284.65625 L 446.78125 285.027344 L 448.417969 285.457031 L 450.976562 285.988281 L 454.660156 286.523438 L 456.808594 286.734375 L 460.082031 286.949219 L 463.457031 287.054688 L 467.957031 287.054688 L 471.949219 286.949219 L 474.609375 286.816406 L 477.371094 286.601562 L 481.15625 286.148438 L 483.507812 285.722656 L 485.554688 285.214844 L 487.089844 284.707031 L 488.113281 284.28125 L 489.644531 283.457031 L 490.875 282.550781 L 491.792969 281.617188 L 492.40625 280.710938 L 506.730469 280.710938 L 506.117188 281.777344 L 505.195312 282.816406 L 504.273438 283.589844 L 502.84375 284.523438 L 501.207031 285.347656 L 498.851562 286.28125 L 496.910156 286.894531 L 494.351562 287.5625 L 492 288.066406 L 489.441406 288.519531 L 485.65625 289.054688 L 483.199219 289.320312 L 480.542969 289.5625 L 477.371094 289.773438 L 473.378906 289.960938 L 469.082031 290.066406 L 465.09375 290.09375 L 460.796875 290.039062 L 457.625 289.933594 L 453.429688 289.695312 L 448.214844 289.214844 L 444.429688 288.707031 L 441.460938 288.203125 L 438.902344 287.667969 L 436.039062 286.949219 L 432.355469 285.773438 L 430.105469 284.867188 L 428.570312 284.121094 L 426.832031 283.082031 L 425.605469 282.148438 L 424.171875 280.65625 L 423.148438 278.765625 L 422.84375 277.296875 Z M 422.84375 273.617188 "/>
<path style=" stroke:none;fill-rule:nonzero;fill:rgb(96.862745%,70.196078%,16.862745%);fill-opacity:1;" d="M 422.84375 306.058594 L 422.945312 306.050781 L 422.945312 305.890625 L 423.355469 305.53125 L 424.375 305.035156 L 425.707031 304.625 L 427.140625 304.308594 L 428.058594 304.140625 L 429.59375 303.898438 L 430.925781 303.722656 L 434.300781 303.363281 L 438.597656 303.027344 L 440.949219 302.882812 L 443.609375 302.75 L 447.394531 302.597656 L 449.132812 302.539062 L 454.453125 302.414062 L 460.488281 302.332031 L 467.140625 302.308594 L 470.207031 302.316406 L 474.402344 302.347656 L 480.132812 302.4375 L 483.40625 302.515625 L 485.964844 302.597656 L 488.621094 302.699219 L 491.898438 302.859375 L 494.964844 303.050781 L 497.421875 303.242188 L 499.875 303.484375 L 501.921875 303.738281 L 503.660156 304.019531 L 505.195312 304.355469 L 506.117188 304.632812 L 506.730469 304.914062 L 492.511719 304.914062 L 491.691406 304.632812 L 490.769531 304.417969 L 489.238281 304.15625 L 487.703125 303.964844 L 486.167969 303.8125 L 483.304688 303.601562 L 480.847656 303.476562 L 477.777344 303.363281 L 474.8125 303.292969 L 471.4375 303.242188 L 469.390625 303.226562 L 463.96875 303.226562 L 459.058594 303.285156 L 456.191406 303.347656 L 454.148438 303.410156 L 451.28125 303.53125 L 449.542969 303.628906 L 448.519531 303.691406 L 445.453125 303.9375 L 443.40625 304.164062 L 442.28125 304.316406 L 440.847656 304.554688 L 439.824219 304.769531 L 438.699219 305.089844 L 438.085938 305.328125 L 437.265625 305.875 L 437.164062 307.3125 L 437.472656 307.617188 L 438.085938 307.941406 L 438.902344 308.230469 L 440.132812 308.535156 L 441.359375 308.765625 L 443.507812 309.078125 L 445.347656 309.285156 L 446.78125 309.421875 L 449.542969 309.636719 L 450.667969 309.710938 L 453.328125 309.851562 L 456.089844 309.964844 L 459.464844 310.0625 L 462.023438 310.109375 L 466.117188 310.148438 L 471.332031 310.148438 L 477.472656 310.101562 L 481.359375 310.039062 L 484.019531 309.972656 L 485.757812 309.917969 L 487.90625 309.828125 L 489.441406 309.75 L 490.875 309.660156 L 492.613281 309.527344 L 492.613281 307.617188 L 467.34375 307.609375 L 467.34375 306.710938 L 506.628906 306.703125 L 506.730469 309.828125 L 504.582031 310.046875 L 501.921875 310.253906 L 499.363281 310.414062 L 496.703125 310.546875 L 492.917969 310.699219 L 489.851562 310.796875 L 485.144531 310.910156 L 480.847656 310.980469 L 476.347656 311.027344 L 472.355469 311.050781 L 467.652344 311.058594 L 463.457031 311.042969 L 458.957031 310.996094 L 455.375 310.933594 L 452.101562 310.851562 L 448.828125 310.75 L 444.734375 310.582031 L 442.074219 310.445312 L 439.3125 310.277344 L 436.550781 310.078125 L 434.09375 309.863281 L 432.457031 309.695312 L 430.820312 309.5 L 429.082031 309.261719 L 427.445312 308.988281 L 426.21875 308.742188 L 425.09375 308.460938 L 424.273438 308.199219 L 423.457031 307.839844 L 423.046875 307.550781 L 422.84375 307.304688 Z M 422.84375 306.058594 "/>
<path style=" stroke:none;fill-rule:nonzero;fill:rgb(83.921569%,15.686275%,22.352941%);fill-opacity:1;" d="M 422.84375 291.273438 L 506.730469 291.273438 L 506.730469 292.328125 L 471.769531 292.339844 L 471.769531 301.128906 L 457.703125 301.128906 L 457.703125 292.347656 L 457.5 292.328125 L 422.84375 292.328125 Z M 422.84375 291.273438 "/>
<path style=" stroke:none;fill-rule:nonzero;fill:rgb(6.27451%,58.823529%,28.235294%);fill-opacity:1;" d="M 511.144531 312.390625 L 511.234375 312.390625 L 547.53125 310.886719 L 558.558594 310.886719 L 595.035156 312.390625 L 582.21875 312.390625 L 573.074219 312 L 533.015625 312 L 524.050781 312.390625 L 511.144531 312.390625 L 536.867188 311.835938 L 569.402344 311.835938 L 553.179688 311.132812 L 553 311.132812 L 552.820312 311.136719 L 536.777344 311.835938 L 536.867188 311.835938 Z M 511.144531 312.390625 "/>
<path style=" stroke:none;fill-rule:nonzero;fill:rgb(14.509804%,36.078431%,60%);fill-opacity:1;" d="M 511.144531 307.980469 L 511.246094 307.976562 L 511.246094 307.910156 L 511.554688 307.800781 L 512.269531 307.667969 L 512.988281 307.574219 L 514.828125 307.410156 L 517.386719 307.25 L 520.046875 307.128906 L 521.988281 307.054688 L 523.730469 307 L 527.71875 306.894531 L 530.277344 306.84375 L 533.039062 306.796875 L 536.414062 306.746094 L 538.871094 306.71875 L 544.394531 306.675781 L 548.484375 306.65625 L 551.65625 306.648438 L 558.511719 306.648438 L 562.605469 306.660156 L 565.570312 306.671875 L 568.84375 306.695312 L 571.605469 306.71875 L 576.414062 306.78125 L 580.710938 306.859375 L 582.65625 306.90625 L 585.722656 306.992188 L 588.078125 307.074219 L 589.714844 307.148438 L 591.554688 307.25 L 593.191406 307.378906 L 594.421875 307.519531 L 595.035156 307.640625 L 580.710938 307.640625 L 579.996094 307.527344 L 579.175781 307.441406 L 577.640625 307.328125 L 576.109375 307.246094 L 573.960938 307.164062 L 572.015625 307.113281 L 569.355469 307.058594 L 567.003906 307.023438 L 564.546875 307 L 562.195312 306.984375 L 557.691406 306.964844 L 552.476562 306.964844 L 550.53125 306.972656 L 546.542969 306.992188 L 544.394531 307.011719 L 541.324219 307.054688 L 539.175781 307.089844 L 536.617188 307.144531 L 534.878906 307.191406 L 532.730469 307.265625 L 531.195312 307.328125 L 529.457031 307.421875 L 528.433594 307.492188 L 527.515625 307.570312 L 526.695312 307.664062 L 526.082031 307.761719 L 525.671875 307.863281 L 525.46875 307.964844 L 525.46875 308.398438 L 525.671875 308.5 L 526.183594 308.617188 L 527.515625 308.785156 L 529.457031 308.933594 L 531.707031 309.050781 L 533.855469 309.136719 L 535.085938 309.175781 L 536.722656 309.21875 L 539.277344 309.277344 L 542.960938 309.332031 L 545.109375 309.355469 L 548.382812 309.378906 L 551.761719 309.386719 L 556.261719 309.386719 L 560.25 309.378906 L 562.910156 309.363281 L 565.671875 309.339844 L 569.457031 309.292969 L 571.8125 309.25 L 573.855469 309.195312 L 575.390625 309.140625 L 576.414062 309.097656 L 577.949219 309.011719 L 579.175781 308.914062 L 580.097656 308.816406 L 580.710938 308.722656 L 595.035156 308.722656 L 594.421875 308.835938 L 593.5 308.945312 L 592.578125 309.023438 L 591.144531 309.121094 L 589.507812 309.210938 L 587.15625 309.308594 L 585.210938 309.371094 L 582.65625 309.441406 L 580.300781 309.496094 L 577.746094 309.542969 L 573.960938 309.597656 L 571.503906 309.625 L 568.84375 309.652344 L 565.671875 309.671875 L 561.683594 309.691406 L 557.386719 309.703125 L 553.398438 309.707031 L 549.101562 309.703125 L 545.929688 309.691406 L 541.734375 309.664062 L 536.515625 309.613281 L 532.730469 309.5625 L 529.765625 309.507812 L 527.207031 309.453125 L 524.34375 309.378906 L 520.660156 309.253906 L 518.410156 309.160156 L 516.875 309.082031 L 515.136719 308.972656 L 513.90625 308.875 L 512.476562 308.71875 L 511.453125 308.519531 L 511.144531 308.363281 Z M 511.144531 307.980469 "/>
<path style=" stroke:none;fill-rule:nonzero;fill:rgb(96.862745%,70.196078%,16.862745%);fill-opacity:1;" d="M 511.144531 303.152344 L 511.246094 303.148438 L 511.246094 303.074219 L 511.65625 302.910156 L 512.679688 302.679688 L 514.011719 302.492188 L 515.441406 302.34375 L 516.363281 302.265625 L 517.898438 302.15625 L 519.226562 302.074219 L 522.605469 301.90625 L 526.898438 301.75 L 529.253906 301.683594 L 531.914062 301.621094 L 535.699219 301.550781 L 537.4375 301.527344 L 542.757812 301.464844 L 548.792969 301.429688 L 555.441406 301.417969 L 558.511719 301.421875 L 562.707031 301.4375 L 568.433594 301.476562 L 571.707031 301.515625 L 574.265625 301.550781 L 576.925781 301.601562 L 580.199219 301.671875 L 583.269531 301.761719 L 585.722656 301.851562 L 588.179688 301.960938 L 590.226562 302.082031 L 591.964844 302.210938 L 593.5 302.363281 L 594.421875 302.496094 L 595.035156 302.625 L 580.8125 302.625 L 579.996094 302.496094 L 579.074219 302.394531 L 577.539062 302.273438 L 576.003906 302.183594 L 574.472656 302.113281 L 571.605469 302.019531 L 569.152344 301.957031 L 566.082031 301.90625 L 563.117188 301.875 L 559.738281 301.851562 L 557.691406 301.84375 L 552.269531 301.84375 L 547.359375 301.871094 L 544.496094 301.898438 L 542.449219 301.929688 L 539.585938 301.984375 L 537.847656 302.027344 L 536.824219 302.058594 L 533.753906 302.171875 L 531.707031 302.277344 L 530.582031 302.347656 L 529.152344 302.457031 L 528.128906 302.558594 L 527.003906 302.707031 L 526.390625 302.816406 L 525.570312 303.066406 L 525.46875 303.734375 L 525.773438 303.875 L 526.390625 304.027344 L 527.207031 304.160156 L 528.433594 304.300781 L 529.664062 304.40625 L 531.8125 304.550781 L 533.652344 304.648438 L 535.085938 304.710938 L 537.847656 304.808594 L 538.972656 304.84375 L 541.632812 304.910156 L 544.394531 304.960938 L 547.769531 305.003906 L 550.328125 305.027344 L 554.417969 305.046875 L 559.636719 305.046875 L 565.773438 305.023438 L 569.664062 304.996094 L 572.324219 304.964844 L 574.0625 304.9375 L 576.210938 304.898438 L 577.746094 304.859375 L 579.175781 304.820312 L 580.914062 304.757812 L 580.914062 303.875 L 555.648438 303.871094 L 555.648438 303.457031 L 594.929688 303.453125 L 595.035156 304.898438 L 592.886719 305 L 590.226562 305.09375 L 587.667969 305.167969 L 585.007812 305.230469 L 581.222656 305.300781 L 578.152344 305.34375 L 573.449219 305.398438 L 569.152344 305.429688 L 564.648438 305.453125 L 560.660156 305.464844 L 555.953125 305.46875 L 551.761719 305.460938 L 547.257812 305.4375 L 543.679688 305.410156 L 540.402344 305.371094 L 537.128906 305.324219 L 533.039062 305.246094 L 530.378906 305.183594 L 527.617188 305.105469 L 524.855469 305.011719 L 522.398438 304.914062 L 520.761719 304.835938 L 519.125 304.746094 L 517.386719 304.636719 L 515.75 304.511719 L 514.523438 304.394531 L 513.394531 304.265625 L 512.578125 304.144531 L 511.757812 303.976562 L 511.351562 303.84375 L 511.144531 303.730469 Z M 511.144531 303.152344 "/>
<path style=" stroke:none;fill-rule:nonzero;fill:rgb(83.921569%,15.686275%,22.352941%);fill-opacity:1;" d="M 511.144531 313.570312 L 595.035156 313.570312 L 595.035156 313.65625 L 560.070312 313.65625 L 560.070312 314.371094 L 546.003906 314.371094 L 546.003906 313.660156 L 545.800781 313.65625 L 511.144531 313.65625 Z M 511.144531 313.570312 "/>
<path style=" stroke:none;fill-rule:nonzero;fill:rgb(6.27451%,58.823529%,28.235294%);fill-opacity:1;" d="M 599.449219 313.378906 L 599.539062 313.378906 L 635.835938 313.292969 L 646.859375 313.292969 L 683.335938 313.378906 L 670.519531 313.378906 L 661.378906 313.359375 L 621.316406 313.359375 L 612.355469 313.378906 L 599.449219 313.378906 L 625.171875 313.347656 L 657.703125 313.347656 L 641.484375 313.308594 L 641.125 313.308594 L 625.082031 313.347656 L 625.171875 313.347656 Z M 599.449219 313.378906 "/>
<path style=" stroke:none;fill-rule:nonzero;fill:rgb(14.509804%,36.078431%,60%);fill-opacity:1;" d="M 599.449219 311.972656 L 599.550781 311.972656 L 599.550781 311.96875 L 599.859375 311.957031 L 601.289062 311.941406 L 603.132812 311.925781 L 605.6875 311.914062 L 608.347656 311.902344 L 610.292969 311.898438 L 612.03125 311.894531 L 616.023438 311.882812 L 618.578125 311.878906 L 621.339844 311.875 L 624.71875 311.871094 L 627.171875 311.871094 L 632.695312 311.867188 L 636.789062 311.863281 L 650.90625 311.863281 L 653.875 311.867188 L 657.148438 311.867188 L 659.910156 311.871094 L 664.71875 311.875 L 669.015625 311.882812 L 670.957031 311.886719 L 674.027344 311.890625 L 676.378906 311.898438 L 678.015625 311.90625 L 679.859375 311.914062 L 681.496094 311.925781 L 682.722656 311.9375 L 683.335938 311.945312 L 669.015625 311.945312 L 668.296875 311.9375 L 667.480469 311.929688 L 665.945312 311.917969 L 664.410156 311.914062 L 662.261719 311.90625 L 660.320312 311.902344 L 657.660156 311.898438 L 655.304688 311.894531 L 652.851562 311.894531 L 650.496094 311.890625 L 634.84375 311.890625 L 632.695312 311.894531 L 629.628906 311.898438 L 627.480469 311.898438 L 624.921875 311.90625 L 623.183594 311.910156 L 621.035156 311.914062 L 619.5 311.921875 L 617.761719 311.925781 L 616.738281 311.933594 L 615.816406 311.941406 L 615 311.949219 L 614.386719 311.957031 L 613.976562 311.964844 L 613.769531 311.972656 L 613.769531 312.007812 L 613.976562 312.015625 L 614.488281 312.027344 L 615.816406 312.039062 L 617.761719 312.050781 L 620.011719 312.0625 L 622.160156 312.066406 L 623.386719 312.070312 L 625.023438 312.074219 L 627.582031 312.078125 L 631.265625 312.085938 L 633.414062 312.085938 L 636.6875 312.089844 L 648.554688 312.089844 L 651.214844 312.085938 L 653.976562 312.085938 L 657.761719 312.082031 L 660.113281 312.078125 L 662.160156 312.074219 L 663.695312 312.070312 L 664.71875 312.066406 L 666.253906 312.058594 L 667.480469 312.050781 L 668.402344 312.042969 L 669.015625 312.035156 L 683.335938 312.035156 L 682.722656 312.042969 L 681.800781 312.050781 L 680.882812 312.058594 L 679.449219 312.066406 L 677.8125 312.074219 L 675.460938 312.082031 L 673.515625 312.085938 L 670.957031 312.09375 L 668.605469 312.097656 L 666.046875 312.101562 L 662.261719 312.105469 L 659.808594 312.109375 L 657.148438 312.109375 L 653.976562 312.113281 L 630.039062 312.113281 L 624.820312 312.105469 L 621.035156 312.101562 L 618.066406 312.097656 L 615.511719 312.09375 L 612.644531 312.089844 L 608.964844 312.078125 L 606.710938 312.070312 L 605.179688 312.0625 L 603.4375 312.054688 L 602.210938 312.046875 L 600.777344 312.035156 L 599.753906 312.015625 L 599.449219 312.003906 Z M 599.449219 311.972656 "/>
<path style=" stroke:none;fill-rule:nonzero;fill:rgb(96.862745%,70.196078%,16.862745%);fill-opacity:1;" d="M 599.449219 310.289062 L 599.550781 310.289062 L 599.550781 310.277344 L 599.960938 310.246094 L 600.984375 310.207031 L 602.3125 310.175781 L 603.746094 310.152344 L 604.667969 310.136719 L 606.199219 310.117188 L 607.53125 310.105469 L 610.90625 310.078125 L 615.203125 310.050781 L 617.554688 310.039062 L 620.214844 310.027344 L 624 310.015625 L 625.742188 310.011719 L 631.058594 310 L 637.097656 309.996094 L 643.746094 309.992188 L 646.816406 309.992188 L 651.007812 309.996094 L 656.738281 310.003906 L 660.011719 310.011719 L 662.570312 310.015625 L 665.230469 310.023438 L 668.503906 310.035156 L 671.570312 310.050781 L 674.027344 310.066406 L 676.484375 310.085938 L 678.527344 310.105469 L 680.269531 310.128906 L 681.800781 310.15625 L 682.722656 310.175781 L 683.335938 310.199219 L 669.117188 310.199219 L 668.296875 310.175781 L 667.378906 310.160156 L 665.84375 310.140625 L 664.308594 310.125 L 662.773438 310.113281 L 659.910156 310.097656 L 657.453125 310.085938 L 654.386719 310.078125 L 651.417969 310.070312 L 648.042969 310.066406 L 640.574219 310.066406 L 635.664062 310.070312 L 632.800781 310.074219 L 630.753906 310.082031 L 627.890625 310.089844 L 626.148438 310.097656 L 625.125 310.101562 L 622.058594 310.121094 L 620.011719 310.140625 L 618.886719 310.152344 L 617.453125 310.171875 L 616.429688 310.1875 L 615.304688 310.214844 L 614.691406 310.230469 L 613.875 310.273438 L 613.769531 310.386719 L 614.078125 310.414062 L 614.691406 310.4375 L 615.511719 310.460938 L 616.738281 310.484375 L 617.964844 310.503906 L 620.113281 310.527344 L 621.957031 310.542969 L 623.386719 310.554688 L 626.148438 310.570312 L 627.273438 310.578125 L 629.933594 310.589844 L 632.695312 310.597656 L 636.074219 310.605469 L 638.628906 310.609375 L 642.722656 310.613281 L 647.941406 310.613281 L 654.078125 310.609375 L 657.964844 310.605469 L 660.625 310.597656 L 662.363281 310.59375 L 664.511719 310.585938 L 666.046875 310.582031 L 667.480469 310.574219 L 669.21875 310.5625 L 669.21875 310.414062 L 643.949219 310.410156 L 643.949219 310.339844 L 683.234375 310.339844 L 683.335938 310.585938 L 681.1875 310.605469 L 678.527344 310.621094 L 675.972656 310.632812 L 673.3125 310.644531 L 669.527344 310.65625 L 666.457031 310.664062 L 661.75 310.671875 L 657.453125 310.679688 L 652.953125 310.683594 L 640.0625 310.683594 L 635.5625 310.679688 L 631.980469 310.675781 L 625.433594 310.660156 L 621.339844 310.648438 L 618.683594 310.636719 L 615.917969 310.621094 L 613.15625 310.605469 L 610.703125 310.589844 L 609.066406 310.578125 L 607.429688 310.5625 L 605.6875 310.542969 L 604.050781 310.519531 L 602.824219 310.5 L 601.699219 310.480469 L 600.882812 310.457031 L 600.0625 310.429688 L 599.652344 310.40625 L 599.449219 310.386719 Z M 599.449219 310.289062 "/>
<g style="fill:rgb(0%,0%,0%);fill-opacity:1;">
  <use xlink:href="#glyph0-1" x="21.957031" y="318.198242"/>
  <use xlink:href="#glyph0-2" x="27.291016" y="318.198242"/>
  <use xlink:href="#glyph0-1" x="29.958008" y="318.198242"/>
</g>
<g style="fill:rgb(0%,0%,0%);fill-opacity:1;">
  <use xlink:href="#glyph0-1" x="21.957031" y="244.475586"/>
  <use xlink:href="#glyph0-2" x="27.291016" y="244.475586"/>
  <use xlink:href="#glyph0-3" x="29.958008" y="244.475586"/>
</g>
<g style="fill:rgb(0%,0%,0%);fill-opacity:1;">
  <use xlink:href="#glyph0-4" x="21.957031" y="170.75293"/>
  <use xlink:href="#glyph0-2" x="27.291016" y="170.75293"/>
  <use xlink:href="#glyph0-1" x="29.958008" y="170.75293"/>
</g>
<g style="fill:rgb(0%,0%,0%);fill-opacity:1;">
  <use xlink:href="#glyph0-4" x="21.957031" y="97.03418"/>
  <use xlink:href="#glyph0-2" x="27.291016" y="97.03418"/>
  <use xlink:href="#glyph0-3" x="29.958008" y="97.03418"/>
</g>
<g style="fill:rgb(0%,0%,0%);fill-opacity:1;">
  <use xlink:href="#glyph0-5" x="21.957031" y="23.311523"/>
  <use xlink:href="#glyph0-2" x="27.291016" y="23.311523"/>
  <use xlink:href="#glyph0-1" x="29.958008" y="23.311523"/>
</g>
<g style="fill:rgb(0%,0%,0%);fill-opacity:1;">
  <use xlink:href="#glyph0-4" x="108.574219" y="338.19043"/>
</g>
<g style="fill:rgb(0%,0%,0%);fill-opacity:1;">
  <use xlink:href="#glyph0-5" x="196.875" y="338.19043"/>
</g>
<g style="fill:rgb(0%,0%,0%);fill-opacity:1;">
  <use xlink:href="#glyph0-6" x="285.179688" y="338.19043"/>
</g>
<g style="fill:rgb(0%,0%,0%);fill-opacity:1;">
  <use xlink:href="#glyph0-7" x="373.484375" y="338.19043"/>
</g>
<g style="fill:rgb(0%,0%,0%);fill-opacity:1;">
  <use xlink:href="#glyph0-3" x="461.785156" y="338.19043"/>
</g>
<g style="fill:rgb(0%,0%,0%);fill-opacity:1;">
  <use xlink:href="#glyph0-8" x="550.089844" y="338.19043"/>
</g>
<g style="fill:rgb(0%,0%,0%);fill-opacity:1;">
  <use xlink:href="#glyph0-9" x="638.394531" y="338.19043"/>
</g>
<g style="fill:rgb(0%,0%,0%);fill-opacity:1;">
  <use xlink:href="#glyph1-1" x="14.412109" y="178.015625"/>
  <use xlink:href="#glyph1-2" x="14.412109" y="170.011719"/>
  <use xlink:href="#glyph1-3" x="14.412109" y="167.347656"/>
  <use xlink:href="#glyph1-4" x="14.412109" y="164.011719"/>
</g>
</g>
</svg>
