<?xml version="1.0" encoding="UTF-8"?>
<svg xmlns="http://www.w3.org/2000/svg" xmlns:xlink="http://www.w3.org/1999/xlink" width="720pt" height="360pt" viewBox="0 0 720 360" version="1.1">
<defs>
<g>
<symbol overflow="visible" id="glyph0-0">
<path style="stroke:none;" d=""/>
</symbol>
<symbol overflow="visible" id="glyph0-1">
<path style="stroke:none;" d="M 2.640625 -6.796875 C 2 -6.796875 1.421875 -6.53125 1.078125 -6.046875 C 0.640625 -5.453125 0.40625 -4.546875 0.40625 -3.296875 C 0.40625 -1 1.1875 0.21875 2.640625 0.21875 C 4.078125 0.21875 4.859375 -1 4.859375 -3.234375 C 4.859375 -4.5625 4.65625 -5.4375 4.203125 -6.046875 C 3.84375 -6.53125 3.28125 -6.796875 2.640625 -6.796875 Z M 2.640625 -6.046875 C 3.546875 -6.046875 4 -5.125 4 -3.3125 C 4 -1.375 3.5625 -0.484375 2.625 -0.484375 C 1.734375 -0.484375 1.28125 -1.421875 1.28125 -3.28125 C 1.28125 -5.140625 1.734375 -6.046875 2.640625 -6.046875 Z M 2.640625 -6.046875 "/>
</symbol>
<symbol overflow="visible" id="glyph0-2">
<path style="stroke:none;" d="M 1.828125 -1 L 0.828125 -1 L 0.828125 0 L 1.828125 0 Z M 1.828125 -1 "/>
</symbol>
<symbol overflow="visible" id="glyph0-3">
<path style="stroke:none;" d="M 4.5625 -6.796875 L 1.0625 -6.796875 L 0.546875 -3.09375 L 1.328125 -3.09375 C 1.71875 -3.5625 2.046875 -3.734375 2.578125 -3.734375 C 3.484375 -3.734375 4.0625 -3.109375 4.0625 -2.09375 C 4.0625 -1.125 3.484375 -0.53125 2.578125 -0.53125 C 1.828125 -0.53125 1.375 -0.90625 1.1875 -1.671875 L 0.328125 -1.671875 C 0.453125 -1.109375 0.546875 -0.84375 0.75 -0.59375 C 1.125 -0.078125 1.828125 0.21875 2.59375 0.21875 C 3.96875 0.21875 4.921875 -0.78125 4.921875 -2.21875 C 4.921875 -3.5625 4.03125 -4.484375 2.71875 -4.484375 C 2.25 -4.484375 1.859375 -4.359375 1.46875 -4.0625 L 1.734375 -5.96875 L 4.5625 -5.96875 Z M 4.5625 -6.796875 "/>
</symbol>
<symbol overflow="visible" id="glyph0-4">
<path style="stroke:none;" d="M 2.484375 -4.84375 L 2.484375 0 L 3.328125 0 L 3.328125 -6.796875 L 2.765625 -6.796875 C 2.46875 -5.75 2.28125 -5.609375 0.984375 -5.453125 L 0.984375 -4.84375 Z M 2.484375 -4.84375 "/>
</symbol>
<symbol overflow="visible" id="glyph0-5">
<path style="stroke:none;" d="M 4.859375 -0.828125 L 1.28125 -0.828125 C 1.359375 -1.390625 1.671875 -1.75 2.5 -2.234375 L 3.46875 -2.75 C 4.40625 -3.265625 4.90625 -3.96875 4.90625 -4.8125 C 4.90625 -5.375 4.671875 -5.90625 4.265625 -6.265625 C 3.859375 -6.625 3.375 -6.796875 2.71875 -6.796875 C 1.859375 -6.796875 1.21875 -6.5 0.84375 -5.921875 C 0.609375 -5.5625 0.5 -5.125 0.484375 -4.4375 L 1.328125 -4.4375 C 1.359375 -4.90625 1.40625 -5.1875 1.53125 -5.40625 C 1.75 -5.8125 2.1875 -6.0625 2.703125 -6.0625 C 3.46875 -6.0625 4.03125 -5.515625 4.03125 -4.78125 C 4.03125 -4.25 3.71875 -3.796875 3.125 -3.4375 L 2.234375 -2.9375 C 0.8125 -2.140625 0.40625 -1.5 0.328125 0 L 4.859375 0 Z M 4.859375 -0.828125 "/>
</symbol>
<symbol overflow="visible" id="glyph0-6">
<path style="stroke:none;" d="M 2.125 -3.125 L 2.578125 -3.125 C 3.515625 -3.125 3.984375 -2.703125 3.984375 -1.890625 C 3.984375 -1.03125 3.46875 -0.53125 2.578125 -0.53125 C 1.65625 -0.53125 1.203125 -0.984375 1.15625 -1.96875 L 0.3125 -1.96875 C 0.34375 -1.421875 0.4375 -1.078125 0.609375 -0.765625 C 0.953125 -0.109375 1.625 0.21875 2.546875 0.21875 C 3.953125 0.21875 4.859375 -0.609375 4.859375 -1.90625 C 4.859375 -2.765625 4.515625 -3.25 3.703125 -3.515625 C 4.34375 -3.765625 4.65625 -4.25 4.65625 -4.9375 C 4.65625 -6.109375 3.875 -6.796875 2.578125 -6.796875 C 1.203125 -6.796875 0.484375 -6.046875 0.453125 -4.609375 L 1.296875 -4.609375 C 1.3125 -5.015625 1.34375 -5.25 1.453125 -5.453125 C 1.640625 -5.828125 2.0625 -6.0625 2.59375 -6.0625 C 3.34375 -6.0625 3.796875 -5.625 3.796875 -4.90625 C 3.796875 -4.421875 3.609375 -4.140625 3.25 -3.984375 C 3.015625 -3.890625 2.71875 -3.84375 2.125 -3.84375 Z M 2.125 -3.125 "/>
</symbol>
<symbol overflow="visible" id="glyph0-7">
<path style="stroke:none;" d="M 3.140625 -1.625 L 3.140625 0 L 3.984375 0 L 3.984375 -1.625 L 4.984375 -1.625 L 4.984375 -2.390625 L 3.984375 -2.390625 L 3.984375 -6.796875 L 3.359375 -6.796875 L 0.265625 -2.515625 L 0.265625 -1.625 Z M 3.140625 -2.390625 L 1 -2.390625 L 3.140625 -5.359375 Z M 3.140625 -2.390625 "/>
</symbol>
<symbol overflow="visible" id="glyph0-8">
<path style="stroke:none;" d="M 4.78125 -5.03125 C 4.609375 -6.140625 3.890625 -6.796875 2.84375 -6.796875 C 2.09375 -6.796875 1.421875 -6.4375 1.03125 -5.828125 C 0.609375 -5.171875 0.40625 -4.34375 0.40625 -3.09375 C 0.40625 -1.953125 0.578125 -1.234375 0.984375 -0.625 C 1.359375 -0.078125 1.953125 0.21875 2.703125 0.21875 C 3.984375 0.21875 4.921875 -0.734375 4.921875 -2.078125 C 4.921875 -3.34375 4.0625 -4.234375 2.84375 -4.234375 C 2.171875 -4.234375 1.640625 -3.96875 1.28125 -3.46875 C 1.28125 -5.125 1.828125 -6.046875 2.796875 -6.046875 C 3.390625 -6.046875 3.796875 -5.671875 3.9375 -5.03125 Z M 2.734375 -3.484375 C 3.546875 -3.484375 4.0625 -2.921875 4.0625 -2 C 4.0625 -1.15625 3.484375 -0.53125 2.703125 -0.53125 C 1.921875 -0.53125 1.328125 -1.1875 1.328125 -2.046875 C 1.328125 -2.890625 1.90625 -3.484375 2.734375 -3.484375 Z M 2.734375 -3.484375 "/>
</symbol>
<symbol overflow="visible" id="glyph1-0">
<path style="stroke:none;" d=""/>
</symbol>
<symbol overflow="visible" id="glyph1-1">
<path style="stroke:none;" d="M 0 -0.953125 L 0 -4.890625 C 0 -5.71875 -0.234375 -6.34375 -0.734375 -6.796875 C -1.1875 -7.234375 -1.8125 -7.46875 -2.5 -7.46875 C -3.546875 -7.46875 -4.1875 -7 -4.625 -5.875 C -4.984375 -6.671875 -5.640625 -7.09375 -6.53125 -7.09375 C -7.15625 -7.09375 -7.734375 -6.859375 -8.140625 -6.390625 C -8.5625 -5.9375 -8.75 -5.34375 -8.75 -4.5 L -8.75 -0.953125 Z M -4.984375 -2.0625 L -7.765625 -2.0625 L -7.765625 -4.21875 C -7.765625 -4.84375 -7.6875 -5.203125 -7.453125 -5.5 C -7.21875 -5.8125 -6.859375 -5.96875 -6.375 -5.96875 C -5.90625 -5.96875 -5.53125 -5.8125 -5.296875 -5.5 C -5.0625 -5.203125 -4.984375 -4.84375 -4.984375 -4.21875 Z M -0.984375 -2.0625 L -4 -2.0625 L -4 -4.78125 C -4 -5.328125 -3.859375 -5.6875 -3.578125 -5.953125 C -3.296875 -6.21875 -2.921875 -6.359375 -2.484375 -6.359375 C -2.0625 -6.359375 -1.6875 -6.21875 -1.40625 -5.953125 C -1.109375 -5.6875 -0.984375 -5.328125 -0.984375 -4.78125 Z M -0.984375 -2.0625 "/>
</symbol>
<symbol overflow="visible" id="glyph1-2">
<path style="stroke:none;" d="M -6.28125 -1.796875 L -6.28125 -0.796875 L 0 -0.796875 L 0 -1.796875 Z M -8.75 -1.796875 L -8.75 -0.796875 L -7.484375 -0.796875 L -7.484375 -1.796875 Z M -8.75 -1.796875 "/>
</symbol>
<symbol overflow="visible" id="glyph1-3">
<path style="stroke:none;" d="M -6.28125 -3.046875 L -6.28125 -2.015625 L -8.015625 -2.015625 L -8.015625 -1.015625 L -6.28125 -1.015625 L -6.28125 -0.171875 L -5.46875 -0.171875 L -5.46875 -1.015625 L -0.71875 -1.015625 C -0.078125 -1.015625 0.28125 -1.453125 0.28125 -2.234375 C 0.28125 -2.46875 0.25 -2.71875 0.1875 -3.046875 L -0.640625 -3.046875 C -0.609375 -2.921875 -0.59375 -2.765625 -0.59375 -2.5625 C -0.59375 -2.140625 -0.71875 -2.015625 -1.15625 -2.015625 L -5.46875 -2.015625 L -5.46875 -3.046875 Z M -6.28125 -3.046875 "/>
</symbol>
<symbol overflow="visible" id="glyph1-4">
<path style="stroke:none;" d="M -4.53125 -5.25 C -5.765625 -5.25 -6.46875 -4.421875 -6.46875 -2.96875 C -6.46875 -1.515625 -5.71875 -0.5625 -4.546875 -0.5625 C -3.5625 -0.5625 -3.09375 -1.0625 -2.734375 -2.5625 L -2.515625 -3.484375 C -2.34375 -4.1875 -2.09375 -4.46875 -1.625 -4.46875 C -1.046875 -4.46875 -0.640625 -3.875 -0.640625 -3 C -0.640625 -2.453125 -0.796875 -2 -1.0625 -1.75 C -1.25 -1.59375 -1.421875 -1.53125 -1.875 -1.46875 L -1.875 -0.40625 C -0.421875 -0.453125 0.28125 -1.265625 0.28125 -2.921875 C 0.28125 -4.5 -0.5 -5.515625 -1.71875 -5.515625 C -2.65625 -5.515625 -3.171875 -4.984375 -3.46875 -3.734375 L -3.703125 -2.765625 C -3.890625 -1.953125 -4.15625 -1.609375 -4.59375 -1.609375 C -5.171875 -1.609375 -5.546875 -2.125 -5.546875 -2.9375 C -5.546875 -3.75 -5.203125 -4.171875 -4.53125 -4.203125 Z M -4.53125 -5.25 "/>
</symbol>
</g>
</defs>
<g id="surface16907">
<rect x="0" y="0" width="720" height="360" style="fill:rgb(100%,100%,100%);fill-opacity:1;stroke:none;"/>
<path style=" stroke:none;fill-rule:nonzero;fill:rgb(83.921569%,15.686275%,22.352941%);fill-opacity:1;" d="M 69.628906 20.664062 L 167.617188 20.664062 L 167.617188 52.101562 L 126.777344 52.378906 L 126.777344 314.371094 L 110.347656 314.371094 L 110.347656 52.652344 L 110.109375 52.101562 L 69.628906 52.101562 Z M 69.628906 20.664062 "/>
<path style=" stroke:none;fill-rule:nonzero;fill:rgb(6.27451%,58.823529%,28.235294%);fill-opacity:1;" d="M 172.773438 314.300781 L 172.878906 314.234375 L 215.277344 241.828125 L 228.152344 241.828125 L 270.761719 314.371094 L 255.789062 314.371094 L 245.113281 295.433594 L 198.316406 295.433594 L 187.847656 314.300781 L 172.773438 314.300781 L 202.820312 287.601562 L 240.820312 287.535156 L 221.871094 253.679688 L 221.664062 253.613281 L 221.453125 253.816406 L 202.714844 287.535156 L 202.820312 287.601562 Z M 172.773438 314.300781 "/>
<path style=" stroke:none;fill-rule:nonzero;fill:rgb(96.862745%,70.196078%,16.862745%);fill-opacity:1;" d="M 172.773438 199.175781 L 172.894531 199.109375 L 172.894531 197.785156 L 173.371094 194.804688 L 174.566406 190.699219 L 176.121094 187.320312 L 177.792969 184.667969 L 178.867188 183.277344 L 180.660156 181.289062 L 182.214844 179.832031 L 186.15625 176.851562 L 191.175781 174.070312 L 193.925781 172.875 L 197.03125 171.75 L 201.453125 170.492188 L 203.484375 170.027344 L 209.699219 168.96875 L 216.75 168.304688 L 224.515625 168.105469 L 228.101562 168.171875 L 233 168.4375 L 239.691406 169.167969 L 243.515625 169.828125 L 246.503906 170.492188 L 249.609375 171.351562 L 253.433594 172.679688 L 257.019531 174.269531 L 259.886719 175.859375 L 262.753906 177.84375 L 265.144531 179.964844 L 267.175781 182.285156 L 268.96875 185.066406 L 270.042969 187.386719 L 270.761719 189.703125 L 254.152344 189.703125 L 253.195312 187.386719 L 252.117188 185.597656 L 250.328125 183.410156 L 248.535156 181.820312 L 246.742188 180.5625 L 243.394531 178.839844 L 240.527344 177.777344 L 236.941406 176.851562 L 233.476562 176.253906 L 229.535156 175.859375 L 227.144531 175.726562 L 220.8125 175.726562 L 215.074219 176.1875 L 211.730469 176.71875 L 209.339844 177.25 L 205.992188 178.242188 L 203.960938 179.039062 L 202.765625 179.566406 L 199.183594 181.621094 L 196.792969 183.476562 L 195.476562 184.734375 L 193.804688 186.722656 L 192.609375 188.511719 L 191.296875 191.160156 L 190.578125 193.148438 L 189.621094 197.652344 L 189.503906 209.578125 L 189.863281 212.09375 L 190.578125 214.8125 L 191.535156 217.195312 L 192.96875 219.714844 L 194.402344 221.636719 L 196.910156 224.21875 L 199.0625 225.941406 L 200.734375 227.066406 L 203.960938 228.855469 L 205.277344 229.453125 L 208.382812 230.644531 L 211.609375 231.574219 L 215.554688 232.367188 L 218.539062 232.765625 L 223.320312 233.097656 L 229.414062 233.097656 L 236.585938 232.699219 L 241.125 232.167969 L 244.230469 231.640625 L 246.265625 231.175781 L 248.773438 230.445312 L 250.566406 229.785156 L 252.238281 229.054688 L 254.269531 227.929688 L 254.269531 212.09375 L 224.753906 212.03125 L 224.753906 204.609375 L 270.640625 204.542969 L 270.761719 230.445312 L 268.25 232.234375 L 265.144531 233.957031 L 262.15625 235.28125 L 259.050781 236.410156 L 254.628906 237.667969 L 251.042969 238.460938 L 245.546875 239.390625 L 240.527344 239.988281 L 235.269531 240.382812 L 230.609375 240.582031 L 225.113281 240.648438 L 220.214844 240.515625 L 214.957031 240.117188 L 210.773438 239.589844 L 206.949219 238.925781 L 203.125 238.066406 L 198.34375 236.675781 L 195.238281 235.546875 L 192.011719 234.15625 L 188.785156 232.5 L 185.917969 230.710938 L 184.007812 229.320312 L 182.09375 227.730469 L 180.0625 225.742188 L 178.152344 223.492188 L 176.71875 221.4375 L 175.402344 219.117188 L 174.445312 216.933594 L 173.492188 213.949219 L 173.011719 211.566406 L 172.773438 209.511719 Z M 172.773438 199.175781 "/>
<path style=" stroke:none;fill-rule:nonzero;fill:rgb(14.509804%,36.078431%,60%);fill-opacity:1;" d="M 275.917969 148.457031 L 276.039062 148.1875 L 276.039062 141.742188 L 276.394531 131.542969 L 277.230469 118.65625 L 278.070312 109.796875 L 280.21875 93.957031 L 283.207031 78.652344 L 286.3125 66.839844 L 288.585938 59.859375 L 290.617188 54.492188 L 295.277344 44.558594 L 298.261719 39.457031 L 301.488281 34.890625 L 305.433594 30.328125 L 308.300781 27.644531 L 314.753906 23.347656 L 319.535156 21.46875 L 323.238281 20.664062 L 331.246094 20.664062 L 336.023438 21.738281 L 339.488281 23.078125 L 343.3125 25.226562 L 346.539062 27.644531 L 352.15625 33.550781 L 357.175781 41.066406 L 359.445312 45.363281 L 363.03125 53.683594 L 365.777344 61.738281 L 367.691406 68.71875 L 369.839844 78.652344 L 371.753906 90.734375 L 373.1875 104.425781 L 373.90625 115.96875 L 357.175781 115.96875 L 356.339844 105.230469 L 355.382812 96.910156 L 353.589844 85.902344 L 351.796875 78.117188 L 349.289062 70.332031 L 347.019531 65.230469 L 343.910156 60.128906 L 341.164062 56.90625 L 338.292969 54.492188 L 335.546875 52.878906 L 330.289062 51.269531 L 324.195312 51.269531 L 321.921875 51.804688 L 317.261719 53.953125 L 314.753906 55.832031 L 311.167969 59.589844 L 308.660156 63.082031 L 305.671875 68.449219 L 303.640625 73.015625 L 301.132812 79.996094 L 299.339844 86.171875 L 297.308594 95.03125 L 296.113281 101.742188 L 295.035156 109.257812 L 294.082031 118.117188 L 293.363281 127.515625 L 292.886719 137.449219 L 292.648438 147.113281 L 292.648438 188.726562 L 292.886719 198.390625 L 293.484375 209.667969 L 295.035156 226.042969 L 297.308594 240.273438 L 299.9375 251.546875 L 302.445312 259.601562 L 303.878906 263.359375 L 305.792969 267.65625 L 308.777344 273.027344 L 313.082031 278.394531 L 315.589844 280.542969 L 319.414062 282.691406 L 323.359375 283.765625 L 328.617188 283.765625 L 333.277344 282.691406 L 336.382812 281.347656 L 339.609375 279.199219 L 344.03125 274.636719 L 346.777344 270.339844 L 349.167969 265.242188 L 350.960938 260.140625 L 352.15625 255.84375 L 353.949219 247.519531 L 355.382812 238.394531 L 356.457031 228.996094 L 357.175781 219.867188 L 373.90625 219.867188 L 373.1875 230.609375 L 372.113281 241.078125 L 371.035156 248.863281 L 369.363281 258.261719 L 367.453125 266.582031 L 364.703125 275.980469 L 362.433594 282.152344 L 359.445312 288.867188 L 356.695312 293.96875 L 353.710938 298.53125 L 349.289062 303.898438 L 346.421875 306.585938 L 343.3125 309 L 339.609375 311.148438 L 334.949219 313.027344 L 329.929688 314.101562 L 325.269531 314.371094 L 320.25 313.832031 L 316.546875 312.761719 L 311.648438 310.34375 L 305.550781 305.511719 L 301.132812 300.410156 L 297.664062 295.308594 L 294.679688 289.941406 L 291.332031 282.691406 L 287.03125 270.878906 L 284.402344 261.75 L 282.609375 254.234375 L 280.578125 243.761719 L 279.144531 234.367188 L 277.472656 219.332031 L 276.277344 200.269531 L 275.917969 185.503906 Z M 275.917969 148.457031 "/>
<path style=" stroke:none;fill-rule:nonzero;fill:rgb(14.509804%,36.078431%,60%);fill-opacity:1;" d="M 379.0625 148.457031 L 379.179688 148.1875 L 379.179688 141.742188 L 379.539062 131.542969 L 380.375 118.65625 L 381.210938 109.796875 L 383.363281 93.957031 L 386.351562 78.652344 L 389.457031 66.839844 L 391.726562 59.859375 L 393.761719 54.492188 L 398.421875 44.558594 L 401.40625 39.457031 L 404.632812 34.890625 L 408.578125 30.328125 L 411.445312 27.644531 L 417.898438 23.347656 L 422.679688 21.46875 L 426.382812 20.664062 L 434.386719 20.664062 L 439.167969 21.738281 L 442.632812 23.078125 L 446.457031 25.226562 L 449.683594 27.644531 L 455.300781 33.550781 L 460.320312 41.066406 L 462.589844 45.363281 L 466.175781 53.683594 L 468.921875 61.738281 L 470.835938 68.71875 L 472.984375 78.652344 L 474.898438 90.734375 L 476.332031 104.425781 L 477.046875 115.96875 L 460.320312 115.96875 L 459.484375 105.230469 L 458.527344 96.910156 L 456.734375 85.902344 L 454.941406 78.117188 L 452.433594 70.332031 L 450.160156 65.230469 L 447.054688 60.128906 L 444.308594 56.90625 L 441.4375 54.492188 L 438.691406 52.878906 L 433.433594 51.269531 L 427.339844 51.269531 L 425.066406 51.804688 L 420.40625 53.953125 L 417.898438 55.832031 L 414.3125 59.589844 L 411.804688 63.082031 L 408.816406 68.449219 L 406.785156 73.015625 L 404.277344 79.996094 L 402.484375 86.171875 L 400.453125 95.03125 L 399.257812 101.742188 L 398.179688 109.257812 L 397.226562 118.117188 L 396.507812 127.515625 L 396.03125 137.449219 L 395.792969 147.113281 L 395.792969 188.726562 L 396.03125 198.390625 L 396.628906 209.667969 L 398.179688 226.042969 L 400.453125 240.273438 L 403.082031 251.546875 L 405.589844 259.601562 L 407.023438 263.359375 L 408.9375 267.65625 L 411.921875 273.027344 L 416.226562 278.394531 L 418.734375 280.542969 L 422.558594 282.691406 L 426.5 283.765625 L 431.757812 283.765625 L 436.421875 282.691406 L 439.527344 281.347656 L 442.753906 279.199219 L 447.175781 274.636719 L 449.921875 270.339844 L 452.3125 265.242188 L 454.105469 260.140625 L 455.300781 255.84375 L 457.09375 247.519531 L 458.527344 238.394531 L 459.601562 228.996094 L 460.320312 219.867188 L 477.046875 219.867188 L 476.332031 230.609375 L 475.257812 241.078125 L 474.179688 248.863281 L 472.507812 258.261719 L 470.597656 266.582031 L 467.847656 275.980469 L 465.578125 282.152344 L 462.589844 288.867188 L 459.839844 293.96875 L 456.855469 298.53125 L 452.433594 303.898438 L 449.566406 306.585938 L 446.457031 309 L 442.753906 311.148438 L 438.09375 313.027344 L 433.074219 314.101562 L 428.414062 314.371094 L 423.394531 313.832031 L 419.691406 312.761719 L 414.792969 310.34375 L 408.695312 305.511719 L 404.277344 300.410156 L 400.808594 295.308594 L 397.824219 289.941406 L 394.476562 282.691406 L 390.175781 270.878906 L 387.546875 261.75 L 385.753906 254.234375 L 383.722656 243.761719 L 382.289062 234.367188 L 380.617188 219.332031 L 379.421875 200.269531 L 379.0625 185.503906 Z M 379.0625 148.457031 "/>
<path style=" stroke:none;fill-rule:nonzero;fill:rgb(83.921569%,15.686275%,22.352941%);fill-opacity:1;" d="M 482.207031 20.664062 L 580.191406 20.664062 L 580.191406 52.101562 L 539.355469 52.378906 L 539.355469 314.371094 L 522.925781 314.371094 L 522.925781 52.652344 L 522.6875 52.101562 L 482.207031 52.101562 Z M 482.207031 20.664062 "/>
<path style=" stroke:none;fill-rule:nonzero;fill:rgb(6.27451%,58.823529%,28.235294%);fill-opacity:1;" d="M 585.351562 314.351562 L 585.453125 314.335938 L 627.851562 295.152344 L 640.730469 295.152344 L 683.335938 314.371094 L 668.367188 314.371094 L 657.6875 309.355469 L 610.894531 309.355469 L 600.425781 314.351562 L 585.351562 314.351562 L 615.394531 307.277344 L 653.398438 307.261719 L 634.449219 298.292969 L 634.238281 298.273438 L 634.03125 298.328125 L 615.289062 307.261719 L 615.394531 307.277344 Z M 585.351562 314.351562 "/>
<path style=" stroke:none;fill-rule:nonzero;fill:rgb(96.862745%,70.196078%,16.862745%);fill-opacity:1;" d="M 585.351562 262.585938 L 585.46875 262.570312 L 585.46875 262.21875 L 585.949219 261.429688 L 587.140625 260.339844 L 588.695312 259.445312 L 590.367188 258.742188 L 591.445312 258.375 L 593.238281 257.847656 L 594.789062 257.460938 L 598.734375 256.671875 L 603.753906 255.933594 L 606.5 255.621094 L 609.609375 255.320312 L 614.027344 254.988281 L 616.0625 254.863281 L 622.273438 254.582031 L 629.324219 254.410156 L 637.09375 254.355469 L 640.675781 254.375 L 645.578125 254.441406 L 652.269531 254.636719 L 656.09375 254.8125 L 659.078125 254.988281 L 662.1875 255.214844 L 666.011719 255.566406 L 669.59375 255.988281 L 672.460938 256.410156 L 675.332031 256.9375 L 677.722656 257.496094 L 679.753906 258.113281 L 681.542969 258.847656 L 682.621094 259.464844 L 683.335938 260.078125 L 666.726562 260.078125 L 665.769531 259.464844 L 664.695312 258.988281 L 662.902344 258.410156 L 661.109375 257.988281 L 659.316406 257.65625 L 655.972656 257.199219 L 653.105469 256.917969 L 649.519531 256.671875 L 646.054688 256.515625 L 642.109375 256.410156 L 639.722656 256.375 L 633.386719 256.375 L 627.652344 256.496094 L 624.304688 256.636719 L 621.914062 256.777344 L 618.570312 257.039062 L 616.539062 257.25 L 615.34375 257.390625 L 611.757812 257.9375 L 609.367188 258.425781 L 608.054688 258.761719 L 606.382812 259.289062 L 605.1875 259.761719 L 603.871094 260.464844 L 603.15625 260.988281 L 602.199219 262.183594 L 602.078125 265.34375 L 602.4375 266.007812 L 603.15625 266.730469 L 604.109375 267.359375 L 605.546875 268.027344 L 606.980469 268.535156 L 609.488281 269.222656 L 611.640625 269.679688 L 613.3125 269.976562 L 616.539062 270.449219 L 617.851562 270.609375 L 620.960938 270.925781 L 624.1875 271.167969 L 628.128906 271.378906 L 631.117188 271.484375 L 635.898438 271.574219 L 641.992188 271.574219 L 649.160156 271.46875 L 653.703125 271.328125 L 656.808594 271.1875 L 658.839844 271.0625 L 661.351562 270.871094 L 663.140625 270.695312 L 664.816406 270.503906 L 666.847656 270.203125 L 666.847656 266.007812 L 637.332031 265.992188 L 637.332031 264.027344 L 683.21875 264.007812 L 683.335938 270.871094 L 680.828125 271.34375 L 677.722656 271.800781 L 674.734375 272.152344 L 671.625 272.449219 L 667.203125 272.785156 L 663.621094 272.996094 L 658.125 273.242188 L 653.105469 273.398438 L 647.847656 273.503906 L 643.1875 273.558594 L 637.691406 273.574219 L 632.789062 273.539062 L 627.53125 273.433594 L 623.351562 273.292969 L 619.527344 273.117188 L 615.703125 272.890625 L 610.921875 272.519531 L 607.816406 272.222656 L 604.589844 271.855469 L 601.363281 271.414062 L 598.496094 270.941406 L 596.582031 270.574219 L 594.671875 270.152344 L 592.640625 269.625 L 590.726562 269.027344 L 589.292969 268.484375 L 587.980469 267.871094 L 587.023438 267.289062 L 586.066406 266.5 L 585.589844 265.871094 L 585.351562 265.324219 Z M 585.351562 262.585938 "/>
<path style=" stroke:none;fill-rule:nonzero;fill:rgb(83.921569%,15.686275%,22.352941%);fill-opacity:1;" d="M 585.351562 274.753906 L 683.335938 274.753906 L 683.335938 276.8125 L 642.5 276.828125 L 642.5 293.972656 L 626.070312 293.972656 L 626.070312 276.847656 L 625.832031 276.8125 L 585.351562 276.8125 Z M 585.351562 274.753906 "/>
<g style="fill:rgb(0%,0%,0%);fill-opacity:1;">
  <use xlink:href="#glyph0-1" x="21.957031" y="318.198242"/>
  <use xlink:href="#glyph0-2" x="27.291016" y="318.198242"/>
  <use xlink:href="#glyph0-1" x="29.958008" y="318.198242"/>
</g>
<g style="fill:rgb(0%,0%,0%);fill-opacity:1;">
  <use xlink:href="#glyph0-1" x="21.957031" y="244.475586"/>
  <use xlink:href="#glyph0-2" x="27.291016" y="244.475586"/>
  <use xlink:href="#glyph0-3" x="29.958008" y="244.475586"/>
</g>
<g style="fill:rgb(0%,0%,0%);fill-opacity:1;">
  <use xlink:href="#glyph0-4" x="21.957031" y="170.75293"/>
  <use xlink:href="#glyph0-2" x="27.291016" y="170.75293"/>
  <use xlink:href="#glyph0-1" x="29.958008" y="170.75293"/>
</g>
<g style="fill:rgb(0%,0%,0%);fill-opacity:1;">
  <use xlink:href="#glyph0-4" x="21.957031" y="97.03418"/>
  <use xlink:href="#glyph0-2" x="27.291016" y="97.03418"/>
  <use xlink:href="#glyph0-3" x="29.958008" y="97.03418"/>
</g>
<g style="fill:rgb(0%,0%,0%);fill-opacity:1;">
  <use xlink:href="#glyph0-5" x="21.957031" y="23.311523"/>
  <use xlink:href="#glyph0-2" x="27.291016" y="23.311523"/>
  <use xlink:href="#glyph0-1" x="29.958008" y="23.311523"/>
</g>
<g style="fill:rgb(0%,0%,0%);fill-opacity:1;">
  <use xlink:href="#glyph0-4" x="115.621094" y="338.19043"/>
</g>
<g style="fill:rgb(0%,0%,0%);fill-opacity:1;">
  <use xlink:href="#glyph0-5" x="218.765625" y="338.19043"/>
</g>
<g style="fill:rgb(0%,0%,0%);fill-opacity:1;">
  <use xlink:href="#glyph0-6" x="321.910156" y="338.19043"/>
</g>
<g style="fill:rgb(0%,0%,0%);fill-opacity:1;">
  <use xlink:href="#glyph0-7" x="425.054688" y="338.19043"/>
</g>
<g style="fill:rgb(0%,0%,0%);fill-opacity:1;">
  <use xlink:href="#glyph0-3" x="528.199219" y="338.19043"/>
</g>
<g style="fill:rgb(0%,0%,0%);fill-opacity:1;">
  <use xlink:href="#glyph0-8" x="631.34375" y="338.19043"/>
</g>
<g style="fill:rgb(0%,0%,0%);fill-opacity:1;">
  <use xlink:href="#glyph1-1" x="14.412109" y="178.015625"/>
  <use xlink:href="#glyph1-2" x="14.412109" y="170.011719"/>
  <use xlink:href="#glyph1-3" x="14.412109" y="167.347656"/>
  <use xlink:href="#glyph1-4" x="14.412109" y="164.011719"/>
</g>
</g>
</svg>
