<?xml version="1.0" encoding="UTF-8"?>
<svg xmlns="http://www.w3.org/2000/svg" xmlns:xlink="http://www.w3.org/1999/xlink" width="720pt" height="360pt" viewBox="0 0 720 360" version="1.1">
<defs>
<g>
<symbol overflow="visible" id="glyph0-0">
<path style="stroke:none;" d=""/>
</symbol>
<symbol overflow="visible" id="glyph0-1">
<path style="stroke:none;" d="M 2.640625 -6.796875 C 2 -6.796875 1.421875 -6.53125 1.078125 -6.046875 C 0.640625 -5.453125 0.40625 -4.546875 0.40625 -3.296875 C 0.40625 -1 1.1875 0.21875 2.640625 0.21875 C 4.078125 0.21875 4.859375 -1 4.859375 -3.234375 C 4.859375 -4.5625 4.65625 -5.4375 4.203125 -6.046875 C 3.84375 -6.53125 3.28125 -6.796875 2.640625 -6.796875 Z M 2.640625 -6.046875 C 3.546875 -6.046875 4 -5.125 4 -3.3125 C 4 -1.375 3.5625 -0.484375 2.625 -0.484375 C 1.734375 -0.484375 1.28125 -1.421875 1.28125 -3.28125 C 1.28125 -5.140625 1.734375 -6.046875 2.640625 -6.046875 Z M 2.640625 -6.046875 "/>
</symbol>
<symbol overflow="visible" id="glyph0-2">
<path style="stroke:none;" d="M 1.828125 -1 L 0.828125 -1 L 0.828125 0 L 1.828125 0 Z M 1.828125 -1 "/>
</symbol>
<symbol overflow="visible" id="glyph0-3">
<path style="stroke:none;" d="M 4.5625 -6.796875 L 1.0625 -6.796875 L 0.546875 -3.09375 L 1.328125 -3.09375 C 1.71875 -3.5625 2.046875 -3.734375 2.578125 -3.734375 C 3.484375 -3.734375 4.0625 -3.109375 4.0625 -2.09375 C 4.0625 -1.125 3.484375 -0.53125 2.578125 -0.53125 C 1.828125 -0.53125 1.375 -0.90625 1.1875 -1.671875 L 0.328125 -1.671875 C 0.453125 -1.109375 0.546875 -0.84375 0.75 -0.59375 C 1.125 -0.078125 1.828125 0.21875 2.59375 0.21875 C 3.96875 0.21875 4.921875 -0.78125 4.921875 -2.21875 C 4.921875 -3.5625 4.03125 -4.484375 2.71875 -4.484375 C 2.25 -4.484375 1.859375 -4.359375 1.46875 -4.0625 L 1.734375 -5.96875 L 4.5625 -5.96875 Z M 4.5625 -6.796875 "/>
</symbol>
<symbol overflow="visible" id="glyph0-4">
<path style="stroke:none;" d="M 2.484375 -4.84375 L 2.484375 0 L 3.328125 0 L 3.328125 -6.796875 L 2.765625 -6.796875 C 2.46875 -5.75 2.28125 -5.609375 0.984375 -5.453125 L 0.984375 -4.84375 Z M 2.484375 -4.84375 "/>
</symbol>
<symbol overflow="visible" id="glyph0-5">
<path style="stroke:none;" d="M 4.859375 -0.828125 L 1.28125 -0.828125 C 1.359375 -1.390625 1.671875 -1.75 2.5 -2.234375 L 3.46875 -2.75 C 4.40625 -3.265625 4.90625 -3.96875 4.90625 -4.8125 C 4.90625 -5.375 4.671875 -5.90625 4.265625 -6.265625 C 3.859375 -6.625 3.375 -6.796875 2.71875 -6.796875 C 1.859375 -6.796875 1.21875 -6.5 0.84375 -5.921875 C 0.609375 -5.5625 0.5 -5.125 0.484375 -4.4375 L 1.328125 -4.4375 C 1.359375 -4.90625 1.40625 -5.1875 1.53125 -5.40625 C 1.75 -5.8125 2.1875 -6.0625 2.703125 -6.0625 C 3.46875 -6.0625 4.03125 -5.515625 4.03125 -4.78125 C 4.03125 -4.25 3.71875 -3.796875 3.125 -3.4375 L 2.234375 -2.9375 C 0.8125 -2.140625 0.40625 -1.5 0.328125 0 L 4.859375 0 Z M 4.859375 -0.828125 "/>
</symbol>
<symbol overflow="visible" id="glyph0-6">
<path style="stroke:none;" d="M 2.125 -3.125 L 2.578125 -3.125 C 3.515625 -3.125 3.984375 -2.703125 3.984375 -1.890625 C 3.984375 -1.03125 3.46875 -0.53125 2.578125 -0.53125 C 1.65625 -0.53125 1.203125 -0.984375 1.15625 -1.96875 L 0.3125 -1.96875 C 0.34375 -1.421875 0.4375 -1.078125 0.609375 -0.765625 C 0.953125 -0.109375 1.625 0.21875 2.546875 0.21875 C 3.953125 0.21875 4.859375 -0.609375 4.859375 -1.90625 C 4.859375 -2.765625 4.515625 -3.25 3.703125 -3.515625 C 4.34375 -3.765625 4.65625 -4.25 4.65625 -4.9375 C 4.65625 -6.109375 3.875 -6.796875 2.578125 -6.796875 C 1.203125 -6.796875 0.484375 -6.046875 0.453125 -4.609375 L 1.296875 -4.609375 C 1.3125 -5.015625 1.34375 -5.25 1.453125 -5.453125 C 1.640625 -5.828125 2.0625 -6.0625 2.59375 -6.0625 C 3.34375 -6.0625 3.796875 -5.625 3.796875 -4.90625 C 3.796875 -4.421875 3.609375 -4.140625 3.25 -3.984375 C 3.015625 -3.890625 2.71875 -3.84375 2.125 -3.84375 Z M 2.125 -3.125 "/>
</symbol>
<symbol overflow="visible" id="glyph0-7">
<path style="stroke:none;" d="M 3.140625 -1.625 L 3.140625 0 L 3.984375 0 L 3.984375 -1.625 L 4.984375 -1.625 L 4.984375 -2.390625 L 3.984375 -2.390625 L 3.984375 -6.796875 L 3.359375 -6.796875 L 0.265625 -2.515625 L 0.265625 -1.625 Z M 3.140625 -2.390625 L 1 -2.390625 L 3.140625 -5.359375 Z M 3.140625 -2.390625 "/>
</symbol>
<symbol overflow="visible" id="glyph0-8">
<path style="stroke:none;" d="M 4.78125 -5.03125 C 4.609375 -6.140625 3.890625 -6.796875 2.84375 -6.796875 C 2.09375 -6.796875 1.421875 -6.4375 1.03125 -5.828125 C 0.609375 -5.171875 0.40625 -4.34375 0.40625 -3.09375 C 0.40625 -1.953125 0.578125 -1.234375 0.984375 -0.625 C 1.359375 -0.078125 1.953125 0.21875 2.703125 0.21875 C 3.984375 0.21875 4.921875 -0.734375 4.921875 -2.078125 C 4.921875 -3.34375 4.0625 -4.234375 2.84375 -4.234375 C 2.171875 -4.234375 1.640625 -3.96875 1.28125 -3.46875 C 1.28125 -5.125 1.828125 -6.046875 2.796875 -6.046875 C 3.390625 -6.046875 3.796875 -5.671875 3.9375 -5.03125 Z M 2.734375 -3.484375 C 3.546875 -3.484375 4.0625 -2.921875 4.0625 -2 C 4.0625 -1.15625 3.484375 -0.53125 2.703125 -0.53125 C 1.921875 -0.53125 1.328125 -1.1875 1.328125 -2.046875 C 1.328125 -2.890625 1.90625 -3.484375 2.734375 -3.484375 Z M 2.734375 -3.484375 "/>
</symbol>
<symbol overflow="visible" id="glyph0-9">
<path style="stroke:none;" d="M 4.984375 -6.796875 L 0.4375 -6.796875 L 0.4375 -5.96875 L 4.109375 -5.96875 C 2.5 -3.65625 1.828125 -2.234375 1.328125 0 L 2.21875 0 C 2.59375 -2.171875 3.453125 -4.046875 4.984375 -6.09375 Z M 4.984375 -6.796875 "/>
</symbol>
<symbol overflow="visible" id="glyph0-10">
<path style="stroke:none;" d="M 3.75 -3.578125 C 4.453125 -4 4.6875 -4.34375 4.6875 -4.984375 C 4.6875 -6.046875 3.84375 -6.796875 2.640625 -6.796875 C 1.4375 -6.796875 0.59375 -6.046875 0.59375 -4.984375 C 0.59375 -4.359375 0.828125 -4.015625 1.515625 -3.578125 C 0.734375 -3.203125 0.359375 -2.640625 0.359375 -1.890625 C 0.359375 -0.640625 1.296875 0.21875 2.640625 0.21875 C 3.984375 0.21875 4.921875 -0.640625 4.921875 -1.875 C 4.921875 -2.640625 4.53125 -3.203125 3.75 -3.578125 Z M 2.640625 -6.046875 C 3.359375 -6.046875 3.8125 -5.625 3.8125 -4.96875 C 3.8125 -4.34375 3.34375 -3.921875 2.640625 -3.921875 C 1.921875 -3.921875 1.453125 -4.34375 1.453125 -4.984375 C 1.453125 -5.625 1.921875 -6.046875 2.640625 -6.046875 Z M 2.640625 -3.203125 C 3.484375 -3.203125 4.0625 -2.671875 4.0625 -1.875 C 4.0625 -1.0625 3.484375 -0.53125 2.625 -0.53125 C 1.796875 -0.53125 1.21875 -1.078125 1.21875 -1.875 C 1.21875 -2.671875 1.796875 -3.203125 2.640625 -3.203125 Z M 2.640625 -3.203125 "/>
</symbol>
<symbol overflow="visible" id="glyph1-0">
<path style="stroke:none;" d=""/>
</symbol>
<symbol overflow="visible" id="glyph1-1">
<path style="stroke:none;" d="M 0 -0.953125 L 0 -4.890625 C 0 -5.71875 -0.234375 -6.34375 -0.734375 -6.796875 C -1.1875 -7.234375 -1.8125 -7.46875 -2.5 -7.46875 C -3.546875 -7.46875 -4.1875 -7 -4.625 -5.875 C -4.984375 -6.671875 -5.640625 -7.09375 -6.53125 -7.09375 C -7.15625 -7.09375 -7.734375 -6.859375 -8.140625 -6.390625 C -8.5625 -5.9375 -8.75 -5.34375 -8.75 -4.5 L -8.75 -0.953125 Z M -4.984375 -2.0625 L -7.765625 -2.0625 L -7.765625 -4.21875 C -7.765625 -4.84375 -7.6875 -5.203125 -7.453125 -5.5 C -7.21875 -5.8125 -6.859375 -5.96875 -6.375 -5.96875 C -5.90625 -5.96875 -5.53125 -5.8125 -5.296875 -5.5 C -5.0625 -5.203125 -4.984375 -4.84375 -4.984375 -4.21875 Z M -0.984375 -2.0625 L -4 -2.0625 L -4 -4.78125 C -4 -5.328125 -3.859375 -5.6875 -3.578125 -5.953125 C -3.296875 -6.21875 -2.921875 -6.359375 -2.484375 -6.359375 C -2.0625 -6.359375 -1.6875 -6.21875 -1.40625 -5.953125 C -1.109375 -5.6875 -0.984375 -5.328125 -0.984375 -4.78125 Z M -0.984375 -2.0625 "/>
</symbol>
<symbol overflow="visible" id="glyph1-2">
<path style="stroke:none;" d="M -6.28125 -1.796875 L -6.28125 -0.796875 L 0 -0.796875 L 0 -1.796875 Z M -8.75 -1.796875 L -8.75 -0.796875 L -7.484375 -0.796875 L -7.484375 -1.796875 Z M -8.75 -1.796875 "/>
</symbol>
<symbol overflow="visible" id="glyph1-3">
<path style="stroke:none;" d="M -6.28125 -3.046875 L -6.28125 -2.015625 L -8.015625 -2.015625 L -8.015625 -1.015625 L -6.28125 -1.015625 L -6.28125 -0.171875 L -5.46875 -0.171875 L -5.46875 -1.015625 L -0.71875 -1.015625 C -0.078125 -1.015625 0.28125 -1.453125 0.28125 -2.234375 C 0.28125 -2.46875 0.25 -2.71875 0.1875 -3.046875 L -0.640625 -3.046875 C -0.609375 -2.921875 -0.59375 -2.765625 -0.59375 -2.5625 C -0.59375 -2.140625 -0.71875 -2.015625 -1.15625 -2.015625 L -5.46875 -2.015625 L -5.46875 -3.046875 Z M -6.28125 -3.046875 "/>
</symbol>
<symbol overflow="visible" id="glyph1-4">
<path style="stroke:none;" d="M -4.53125 -5.25 C -5.765625 -5.25 -6.46875 -4.421875 -6.46875 -2.96875 C -6.46875 -1.515625 -5.71875 -0.5625 -4.546875 -0.5625 C -3.5625 -0.5625 -3.09375 -1.0625 -2.734375 -2.5625 L -2.515625 -3.484375 C -2.34375 -4.1875 -2.09375 -4.46875 -1.625 -4.46875 C -1.046875 -4.46875 -0.640625 -3.875 -0.640625 -3 C -0.640625 -2.453125 -0.796875 -2 -1.0625 -1.75 C -1.25 -1.59375 -1.421875 -1.53125 -1.875 -1.46875 L -1.875 -0.40625 C -0.421875 -0.453125 0.28125 -1.265625 0.28125 -2.921875 C 0.28125 -4.5 -0.5 -5.515625 -1.71875 -5.515625 C -2.65625 -5.515625 -3.171875 -4.984375 -3.46875 -3.734375 L -3.703125 -2.765625 C -3.890625 -1.953125 -4.15625 -1.609375 -4.59375 -1.609375 C -5.171875 -1.609375 -5.546875 -2.125 -5.546875 -2.9375 C -5.546875 -3.75 -5.203125 -4.171875 -4.53125 -4.203125 Z M -4.53125 -5.25 "/>
</symbol>
</g>
</defs>
<g id="surface79918">
<rect x="0" y="0" width="720" height="360" style="fill:rgb(100%,100%,100%);fill-opacity:1;stroke:none;"/>
<path style=" stroke:none;fill-rule:nonzero;fill:rgb(6.27451%,58.823529%,28.235294%);fill-opacity:1;" d="M 69.628906 301.589844 L 69.707031 301.570312 L 101.441406 281.089844 L 111.078125 281.089844 L 142.964844 301.605469 L 131.761719 301.605469 L 123.769531 296.25 L 88.746094 296.25 L 80.910156 301.589844 L 69.628906 301.589844 L 92.117188 294.035156 L 120.558594 294.015625 L 106.375 284.441406 L 106.21875 284.421875 L 106.0625 284.480469 L 92.039062 294.015625 L 92.117188 294.035156 Z M 69.628906 301.589844 "/>
<path style=" stroke:none;fill-rule:nonzero;fill:rgb(14.509804%,36.078431%,60%);fill-opacity:1;" d="M 69.628906 306.714844 L 69.71875 306.707031 L 69.71875 306.511719 L 69.988281 306.195312 L 70.613281 305.800781 L 71.238281 305.527344 L 72.847656 305.039062 L 75.085938 304.570312 L 77.410156 304.207031 L 79.109375 303.992188 L 80.628906 303.828125 L 84.117188 303.519531 L 86.355469 303.363281 L 88.769531 303.222656 L 91.71875 303.082031 L 93.867188 303 L 98.695312 302.871094 L 102.273438 302.8125 L 105.046875 302.785156 L 111.039062 302.785156 L 114.613281 302.820312 L 117.207031 302.859375 L 120.070312 302.925781 L 122.484375 303 L 126.6875 303.183594 L 130.445312 303.414062 L 132.144531 303.546875 L 134.828125 303.800781 L 136.882812 304.050781 L 138.316406 304.265625 L 139.925781 304.570312 L 141.355469 304.941406 L 142.429688 305.363281 L 142.964844 305.71875 L 130.445312 305.71875 L 129.820312 305.386719 L 129.101562 305.132812 L 127.761719 304.792969 L 126.421875 304.554688 L 124.542969 304.3125 L 122.84375 304.15625 L 120.515625 304 L 118.460938 303.902344 L 116.3125 303.828125 L 114.257812 303.777344 L 110.320312 303.726562 L 105.761719 303.726562 L 104.0625 303.746094 L 100.574219 303.808594 L 98.695312 303.867188 L 96.011719 303.984375 L 94.132812 304.089844 L 91.898438 304.257812 L 90.378906 304.398438 L 88.5 304.609375 L 87.160156 304.800781 L 85.636719 305.074219 L 84.742188 305.28125 L 83.9375 305.511719 L 83.222656 305.785156 L 82.6875 306.074219 L 82.328125 306.378906 L 82.148438 306.675781 L 82.148438 307.953125 L 82.328125 308.25 L 82.777344 308.597656 L 83.9375 309.101562 L 85.636719 309.539062 L 87.605469 309.886719 L 89.484375 310.132812 L 90.558594 310.25 L 91.988281 310.382812 L 94.222656 310.546875 L 97.445312 310.710938 L 99.320312 310.777344 L 102.183594 310.84375 L 105.136719 310.875 L 109.070312 310.875 L 112.558594 310.84375 L 114.882812 310.800781 L 117.296875 310.738281 L 120.605469 310.597656 L 122.664062 310.464844 L 124.453125 310.308594 L 125.792969 310.152344 L 126.6875 310.019531 L 128.03125 309.761719 L 129.101562 309.480469 L 129.90625 309.191406 L 130.445312 308.914062 L 142.964844 308.914062 L 142.429688 309.242188 L 141.625 309.5625 L 140.820312 309.804688 L 139.566406 310.09375 L 138.136719 310.347656 L 136.078125 310.636719 L 134.378906 310.828125 L 132.144531 311.035156 L 130.085938 311.191406 L 127.851562 311.332031 L 124.542969 311.496094 L 122.394531 311.578125 L 120.070312 311.652344 L 117.296875 311.71875 L 113.808594 311.777344 L 110.054688 311.808594 L 106.566406 311.816406 L 102.808594 311.800781 L 100.035156 311.769531 L 96.371094 311.695312 L 91.808594 311.546875 L 88.5 311.390625 L 85.90625 311.230469 L 83.671875 311.066406 L 81.167969 310.84375 L 77.945312 310.480469 L 75.980469 310.199219 L 74.636719 309.96875 L 73.117188 309.648438 L 72.042969 309.359375 L 70.792969 308.894531 L 69.898438 308.308594 L 69.628906 307.855469 Z M 69.628906 306.714844 "/>
<path style=" stroke:none;fill-rule:nonzero;fill:rgb(96.862745%,70.196078%,16.862745%);fill-opacity:1;" d="M 69.628906 228.046875 L 69.71875 227.964844 L 69.71875 226.308594 L 70.078125 222.578125 L 70.972656 217.441406 L 72.132812 213.21875 L 73.386719 209.902344 L 74.191406 208.164062 L 75.53125 205.679688 L 76.695312 203.855469 L 79.644531 200.128906 L 83.402344 196.648438 L 85.460938 195.15625 L 87.785156 193.75 L 91.09375 192.175781 L 92.613281 191.59375 L 97.265625 190.269531 L 102.542969 189.441406 L 108.355469 189.191406 L 111.039062 189.273438 L 114.703125 189.605469 L 119.710938 190.515625 L 122.574219 191.347656 L 124.808594 192.175781 L 127.136719 193.25 L 129.996094 194.90625 L 132.679688 196.898438 L 134.828125 198.886719 L 136.972656 201.371094 L 138.761719 204.019531 L 140.28125 206.921875 L 141.625 210.402344 L 142.429688 213.300781 L 142.964844 216.199219 L 130.535156 216.199219 L 129.820312 213.300781 L 129.015625 211.0625 L 127.671875 208.328125 L 126.332031 206.339844 L 124.988281 204.765625 L 122.484375 202.613281 L 120.339844 201.289062 L 117.65625 200.128906 L 115.0625 199.382812 L 112.109375 198.886719 L 110.320312 198.71875 L 105.582031 198.71875 L 101.289062 199.300781 L 98.785156 199.960938 L 96.996094 200.625 L 94.492188 201.867188 L 92.972656 202.863281 L 92.078125 203.523438 L 89.394531 206.09375 L 87.605469 208.414062 L 86.621094 209.988281 L 85.371094 212.472656 L 84.476562 214.707031 L 83.492188 218.023438 L 82.953125 220.507812 L 82.238281 226.140625 L 82.148438 241.054688 L 82.417969 244.203125 L 82.953125 247.597656 L 83.671875 250.582031 L 84.742188 253.730469 L 85.816406 256.132812 L 87.695312 259.363281 L 89.304688 261.515625 L 90.558594 262.925781 L 92.972656 265.164062 L 93.957031 265.90625 L 96.28125 267.398438 L 98.695312 268.558594 L 101.648438 269.554688 L 103.882812 270.050781 L 107.460938 270.464844 L 112.019531 270.464844 L 117.386719 269.96875 L 120.785156 269.304688 L 123.109375 268.640625 L 124.632812 268.0625 L 126.507812 267.152344 L 127.851562 266.324219 L 129.101562 265.410156 L 130.625 264.003906 L 130.625 244.203125 L 108.535156 244.121094 L 108.535156 234.839844 L 142.875 234.757812 L 142.964844 267.152344 L 141.085938 269.386719 L 138.761719 271.542969 L 136.527344 273.199219 L 134.199219 274.605469 L 130.890625 276.179688 L 128.207031 277.175781 L 124.09375 278.335938 L 120.339844 279.082031 L 116.402344 279.578125 L 112.914062 279.828125 L 108.800781 279.910156 L 105.136719 279.742188 L 101.199219 279.246094 L 98.070312 278.582031 L 95.207031 277.753906 L 92.34375 276.679688 L 88.769531 274.9375 L 86.441406 273.53125 L 84.027344 271.789062 L 81.613281 269.71875 L 79.46875 267.480469 L 78.035156 265.742188 L 76.605469 263.753906 L 75.085938 261.269531 L 73.652344 258.453125 L 72.582031 255.882812 L 71.597656 252.984375 L 70.882812 250.25 L 70.164062 246.523438 L 69.808594 243.539062 L 69.628906 240.972656 Z M 69.628906 228.046875 "/>
<path style=" stroke:none;fill-rule:nonzero;fill:rgb(83.921569%,15.686275%,22.352941%);fill-opacity:1;" d="M 69.628906 312.996094 L 142.964844 312.996094 L 142.964844 313.144531 L 112.402344 313.144531 L 112.402344 314.371094 L 100.105469 314.371094 L 100.105469 313.148438 L 99.925781 313.144531 L 69.628906 313.144531 Z M 69.628906 312.996094 "/>
<path style=" stroke:none;fill-rule:nonzero;fill:rgb(6.27451%,58.823529%,28.235294%);fill-opacity:1;" d="M 146.824219 314.367188 L 146.902344 314.363281 L 178.636719 309.839844 L 188.273438 309.839844 L 220.160156 314.371094 L 208.957031 314.371094 L 200.964844 313.1875 L 165.941406 313.1875 L 158.109375 314.367188 L 146.824219 314.367188 L 169.3125 312.699219 L 197.753906 312.695312 L 183.570312 310.578125 L 183.414062 310.574219 L 183.257812 310.585938 L 169.234375 312.695312 L 169.3125 312.699219 Z M 146.824219 314.367188 "/>
<path style=" stroke:none;fill-rule:nonzero;fill:rgb(14.509804%,36.078431%,60%);fill-opacity:1;" d="M 146.824219 151.234375 L 146.914062 150.980469 L 146.914062 144.867188 L 147.183594 135.1875 L 147.808594 122.960938 L 148.433594 114.554688 L 150.042969 99.523438 L 152.28125 85.003906 L 154.605469 73.796875 L 156.304688 67.171875 L 157.824219 62.078125 L 161.3125 52.652344 L 163.550781 47.8125 L 165.964844 43.480469 L 168.914062 39.152344 L 171.0625 36.605469 L 175.890625 32.527344 L 179.46875 30.746094 L 182.242188 29.980469 L 188.234375 29.980469 L 191.8125 31 L 194.40625 32.273438 L 197.265625 34.3125 L 199.679688 36.605469 L 203.882812 42.207031 L 207.640625 49.339844 L 209.339844 53.417969 L 212.023438 61.3125 L 214.078125 68.957031 L 215.511719 75.578125 L 217.121094 85.003906 L 218.550781 96.464844 L 219.625 109.457031 L 220.160156 120.410156 L 207.640625 120.410156 L 207.015625 110.222656 L 206.300781 102.324219 L 204.957031 91.882812 L 203.617188 84.496094 L 201.738281 77.105469 L 200.039062 72.265625 L 197.714844 67.425781 L 195.65625 64.371094 L 193.511719 62.078125 L 191.453125 60.550781 L 187.519531 59.019531 L 182.957031 59.019531 L 181.257812 59.53125 L 177.769531 61.566406 L 175.890625 63.351562 L 173.207031 66.917969 L 171.332031 70.230469 L 169.09375 75.324219 L 167.574219 79.65625 L 165.695312 86.277344 L 164.355469 92.136719 L 162.835938 100.542969 L 161.941406 106.910156 L 161.136719 114.042969 L 160.417969 122.449219 L 159.882812 131.363281 L 159.523438 140.789062 L 159.347656 149.960938 L 159.347656 189.445312 L 159.523438 198.613281 L 159.972656 209.3125 L 161.136719 224.851562 L 162.835938 238.351562 L 164.800781 249.050781 L 166.679688 256.695312 L 167.753906 260.261719 L 169.183594 264.335938 L 171.417969 269.429688 L 174.640625 274.523438 L 176.515625 276.5625 L 179.378906 278.601562 L 182.332031 279.621094 L 186.265625 279.621094 L 189.753906 278.601562 L 192.078125 277.328125 L 194.492188 275.289062 L 197.804688 270.957031 L 199.859375 266.882812 L 201.648438 262.042969 L 202.988281 257.203125 L 203.882812 253.128906 L 205.226562 245.230469 L 206.300781 236.570312 L 207.105469 227.652344 L 207.640625 218.992188 L 220.160156 218.992188 L 219.625 229.183594 L 218.820312 239.117188 L 218.015625 246.503906 L 216.761719 255.421875 L 215.332031 263.316406 L 213.273438 272.234375 L 211.574219 278.089844 L 209.339844 284.460938 L 207.28125 289.300781 L 205.046875 293.628906 L 201.738281 298.726562 L 199.589844 301.273438 L 197.265625 303.566406 L 194.492188 305.601562 L 191.003906 307.386719 L 187.25 308.40625 L 183.761719 308.660156 L 180.003906 308.148438 L 177.234375 307.132812 L 173.566406 304.839844 L 169.003906 300.253906 L 165.695312 295.414062 L 163.101562 290.574219 L 160.867188 285.480469 L 158.363281 278.601562 L 155.144531 267.390625 L 153.175781 258.730469 L 151.832031 251.597656 L 150.3125 241.664062 L 149.238281 232.75 L 147.988281 218.484375 L 147.09375 200.398438 L 146.824219 186.386719 Z M 146.824219 151.234375 "/>
<path style=" stroke:none;fill-rule:nonzero;fill:rgb(6.27451%,58.823529%,28.235294%);fill-opacity:1;" d="M 224.019531 311.148438 L 224.097656 310.875 L 255.832031 20.664062 L 265.46875 20.664062 L 297.355469 311.421875 L 286.152344 311.421875 L 278.160156 235.523438 L 243.140625 235.523438 L 235.304688 311.148438 L 224.019531 311.148438 L 246.507812 204.128906 L 274.949219 203.855469 L 260.769531 68.167969 L 260.609375 67.894531 L 260.453125 68.714844 L 246.429688 203.855469 L 246.507812 204.128906 Z M 224.019531 311.148438 "/>
<path style=" stroke:none;fill-rule:nonzero;fill:rgb(96.862745%,70.196078%,16.862745%);fill-opacity:1;" d="M 224.019531 313.359375 L 224.109375 313.359375 L 224.109375 313.324219 L 224.46875 313.253906 L 225.363281 313.152344 L 226.523438 313.070312 L 227.777344 313.003906 L 228.582031 312.972656 L 229.925781 312.921875 L 231.085938 312.886719 L 234.039062 312.816406 L 237.792969 312.746094 L 239.851562 312.71875 L 242.175781 312.691406 L 245.484375 312.660156 L 247.003906 312.648438 L 251.65625 312.621094 L 256.933594 312.605469 L 262.746094 312.601562 L 265.429688 312.601562 L 269.097656 312.609375 L 274.105469 312.628906 L 276.964844 312.644531 L 279.203125 312.660156 L 281.527344 312.679688 L 284.390625 312.710938 L 287.074219 312.75 L 289.21875 312.789062 L 291.367188 312.839844 L 293.152344 312.890625 L 294.675781 312.945312 L 296.015625 313.015625 L 296.820312 313.070312 L 297.355469 313.128906 L 284.925781 313.128906 L 284.210938 313.070312 L 283.40625 313.027344 L 282.0625 312.972656 L 280.722656 312.9375 L 279.382812 312.90625 L 276.875 312.863281 L 274.730469 312.835938 L 272.046875 312.816406 L 269.453125 312.800781 L 266.503906 312.789062 L 259.972656 312.789062 L 255.679688 312.796875 L 253.175781 312.8125 L 251.386719 312.824219 L 248.882812 312.847656 L 247.363281 312.867188 L 243.785156 312.929688 L 241.996094 312.976562 L 241.015625 313.007812 L 239.761719 313.054688 L 238.867188 313.097656 L 237.882812 313.164062 L 237.347656 313.210938 L 236.632812 313.320312 L 236.542969 313.613281 L 236.808594 313.675781 L 237.347656 313.742188 L 238.0625 313.796875 L 239.136719 313.859375 L 240.207031 313.90625 L 242.085938 313.96875 L 243.695312 314.011719 L 244.949219 314.039062 L 247.363281 314.082031 L 248.347656 314.097656 L 250.671875 314.125 L 253.085938 314.148438 L 256.039062 314.167969 L 258.273438 314.179688 L 261.851562 314.1875 L 266.414062 314.1875 L 271.777344 314.175781 L 275.175781 314.164062 L 277.503906 314.152344 L 279.023438 314.140625 L 280.902344 314.121094 L 282.242188 314.105469 L 283.496094 314.085938 L 285.015625 314.058594 L 285.015625 313.675781 L 262.925781 313.671875 L 262.925781 313.492188 L 297.269531 313.488281 L 297.355469 314.121094 L 295.480469 314.164062 L 293.152344 314.207031 L 290.917969 314.238281 L 288.59375 314.265625 L 285.285156 314.296875 L 282.601562 314.316406 L 278.488281 314.339844 L 274.730469 314.355469 L 270.796875 314.363281 L 267.308594 314.367188 L 263.195312 314.371094 L 259.527344 314.367188 L 255.589844 314.359375 L 252.460938 314.34375 L 249.597656 314.328125 L 246.738281 314.308594 L 243.160156 314.273438 L 240.835938 314.246094 L 238.421875 314.210938 L 236.003906 314.171875 L 233.859375 314.128906 L 232.429688 314.09375 L 230.996094 314.054688 L 229.476562 314.007812 L 228.046875 313.953125 L 226.972656 313.902344 L 225.988281 313.84375 L 225.273438 313.792969 L 224.558594 313.71875 L 224.199219 313.660156 L 224.019531 313.609375 Z M 224.019531 313.359375 "/>
<path style=" stroke:none;fill-rule:nonzero;fill:rgb(14.509804%,36.078431%,60%);fill-opacity:1;" d="M 301.21875 151.234375 L 301.304688 150.980469 L 301.304688 144.867188 L 301.574219 135.1875 L 302.199219 122.960938 L 302.828125 114.554688 L 304.4375 99.523438 L 306.671875 85.003906 L 308.996094 73.796875 L 310.695312 67.171875 L 312.21875 62.078125 L 315.707031 52.652344 L 317.941406 47.8125 L 320.355469 43.480469 L 323.308594 39.152344 L 325.453125 36.605469 L 330.285156 32.527344 L 333.859375 30.746094 L 336.632812 29.980469 L 342.625 29.980469 L 346.203125 31 L 348.796875 32.273438 L 351.65625 34.3125 L 354.074219 36.605469 L 358.277344 42.207031 L 362.03125 49.339844 L 363.730469 53.417969 L 366.414062 61.3125 L 368.472656 68.957031 L 369.902344 75.578125 L 371.511719 85.003906 L 372.945312 96.464844 L 374.015625 109.457031 L 374.554688 120.410156 L 362.03125 120.410156 L 361.40625 110.222656 L 360.691406 102.324219 L 359.347656 91.882812 L 358.007812 84.496094 L 356.128906 77.105469 L 354.429688 72.265625 L 352.105469 67.425781 L 350.046875 64.371094 L 347.902344 62.078125 L 345.84375 60.550781 L 341.910156 59.019531 L 337.347656 59.019531 L 335.648438 59.53125 L 332.160156 61.566406 L 330.285156 63.351562 L 327.601562 66.917969 L 325.722656 70.230469 L 323.484375 75.324219 L 321.964844 79.65625 L 320.085938 86.277344 L 318.746094 92.136719 L 317.226562 100.542969 L 316.332031 106.910156 L 315.527344 114.042969 L 314.8125 122.449219 L 314.273438 131.363281 L 313.917969 140.789062 L 313.738281 149.960938 L 313.738281 189.445312 L 313.917969 198.613281 L 314.363281 209.3125 L 315.527344 224.851562 L 317.226562 238.351562 L 319.195312 249.050781 L 321.070312 256.695312 L 322.144531 260.261719 L 323.574219 264.335938 L 325.8125 269.429688 L 329.03125 274.523438 L 330.910156 276.5625 L 333.769531 278.601562 L 336.722656 279.621094 L 340.65625 279.621094 L 344.144531 278.601562 L 346.472656 277.328125 L 348.886719 275.289062 L 352.195312 270.957031 L 354.25 266.882812 L 356.039062 262.042969 L 357.382812 257.203125 L 358.277344 253.128906 L 359.617188 245.230469 L 360.691406 236.570312 L 361.496094 227.652344 L 362.03125 218.992188 L 374.554688 218.992188 L 374.015625 229.183594 L 373.210938 239.117188 L 372.40625 246.503906 L 371.15625 255.421875 L 369.722656 263.316406 L 367.667969 272.234375 L 365.96875 278.089844 L 363.730469 284.460938 L 361.675781 289.300781 L 359.4375 293.628906 L 356.128906 298.726562 L 353.984375 301.273438 L 351.65625 303.566406 L 348.886719 305.601562 L 345.398438 307.386719 L 341.640625 308.40625 L 338.152344 308.660156 L 334.398438 308.148438 L 331.625 307.132812 L 327.957031 304.839844 L 323.398438 300.253906 L 320.085938 295.414062 L 317.496094 290.574219 L 315.257812 285.480469 L 312.753906 278.601562 L 309.535156 267.390625 L 307.566406 258.730469 L 306.226562 251.597656 L 304.707031 241.664062 L 303.632812 232.75 L 302.378906 218.484375 L 301.484375 200.398438 L 301.21875 186.386719 Z M 301.21875 151.234375 "/>
<path style=" stroke:none;fill-rule:nonzero;fill:rgb(83.921569%,15.686275%,22.352941%);fill-opacity:1;" d="M 301.21875 309.839844 L 374.554688 309.839844 L 374.554688 310.324219 L 343.988281 310.328125 L 343.988281 314.371094 L 331.691406 314.371094 L 331.691406 310.332031 L 331.515625 310.324219 L 301.21875 310.324219 Z M 301.21875 309.839844 "/>
<path style=" stroke:none;fill-rule:nonzero;fill:rgb(6.27451%,58.823529%,28.235294%);fill-opacity:1;" d="M 378.414062 314.355469 L 378.492188 314.34375 L 410.222656 300.132812 L 419.859375 300.132812 L 451.75 314.371094 L 440.546875 314.371094 L 432.554688 310.652344 L 397.53125 310.652344 L 389.695312 314.355469 L 378.414062 314.355469 L 400.898438 309.117188 L 429.339844 309.101562 L 415.160156 302.457031 L 415.003906 302.445312 L 414.847656 302.484375 L 400.820312 309.101562 L 400.898438 309.117188 Z M 378.414062 314.355469 "/>
<path style=" stroke:none;fill-rule:nonzero;fill:rgb(96.862745%,70.196078%,16.862745%);fill-opacity:1;" d="M 378.414062 161.523438 L 378.503906 161.304688 L 378.503906 156.914062 L 378.859375 147.035156 L 379.753906 133.421875 L 380.917969 122.226562 L 382.167969 113.445312 L 382.972656 108.835938 L 384.316406 102.25 L 385.476562 97.417969 L 388.429688 87.539062 L 392.1875 78.320312 L 394.242188 74.367188 L 396.566406 70.636719 L 399.878906 66.464844 L 401.398438 64.925781 L 406.046875 61.414062 L 411.324219 59.21875 L 417.136719 58.5625 L 419.820312 58.78125 L 423.488281 59.660156 L 428.496094 62.074219 L 431.359375 64.269531 L 433.59375 66.464844 L 435.917969 69.316406 L 438.78125 73.710938 L 441.464844 78.976562 L 443.609375 84.246094 L 445.757812 90.832031 L 447.546875 97.859375 L 449.066406 105.542969 L 450.40625 114.761719 L 451.210938 122.445312 L 451.75 130.128906 L 439.316406 130.128906 L 438.601562 122.445312 L 437.796875 116.519531 L 436.457031 109.273438 L 435.113281 104.003906 L 433.773438 99.832031 L 431.269531 94.125 L 429.121094 90.613281 L 426.4375 87.539062 L 423.847656 85.5625 L 420.894531 84.246094 L 419.105469 83.808594 L 414.367188 83.808594 L 410.074219 85.34375 L 407.570312 87.101562 L 405.78125 88.855469 L 403.277344 92.148438 L 401.753906 94.785156 L 400.859375 96.539062 L 398.179688 103.347656 L 396.390625 109.492188 L 395.40625 113.664062 L 394.152344 120.25 L 393.257812 126.179688 L 392.277344 134.960938 L 391.738281 141.546875 L 391.023438 156.472656 L 390.933594 195.988281 L 391.203125 204.332031 L 391.738281 213.332031 L 392.453125 221.234375 L 393.527344 229.578125 L 394.601562 235.945312 L 396.480469 244.507812 L 398.089844 250.214844 L 399.339844 253.945312 L 401.753906 259.875 L 402.738281 261.851562 L 405.066406 265.800781 L 407.480469 268.875 L 410.429688 271.507812 L 412.667969 272.828125 L 416.242188 273.925781 L 420.804688 273.925781 L 426.171875 272.605469 L 429.570312 270.851562 L 431.894531 269.09375 L 433.414062 267.558594 L 435.292969 265.144531 L 436.636719 262.949219 L 437.886719 260.53125 L 439.40625 256.800781 L 439.40625 204.332031 L 417.316406 204.113281 L 417.316406 179.523438 L 451.660156 179.304688 L 451.75 265.144531 L 449.871094 271.070312 L 447.546875 276.777344 L 445.308594 281.167969 L 442.984375 284.902344 L 439.675781 289.070312 L 436.992188 291.707031 L 432.878906 294.78125 L 429.121094 296.757812 L 425.1875 298.074219 L 421.699219 298.730469 L 417.585938 298.953125 L 413.917969 298.511719 L 409.984375 297.195312 L 406.851562 295.4375 L 403.992188 293.242188 L 401.128906 290.390625 L 397.550781 285.777344 L 395.226562 282.046875 L 392.8125 277.4375 L 390.398438 271.949219 L 388.25 266.019531 L 386.820312 261.410156 L 385.390625 256.140625 L 383.867188 249.554688 L 382.4375 242.09375 L 381.363281 235.285156 L 380.378906 227.601562 L 379.664062 220.359375 L 378.949219 210.480469 L 378.59375 202.574219 L 378.414062 195.769531 Z M 378.414062 161.523438 "/>
<path style=" stroke:none;fill-rule:nonzero;fill:rgb(6.27451%,58.823529%,28.235294%);fill-opacity:1;" d="M 455.609375 314.367188 L 455.6875 314.367188 L 487.417969 312.601562 L 497.054688 312.601562 L 528.945312 314.371094 L 517.742188 314.371094 L 509.75 313.910156 L 474.726562 313.910156 L 466.890625 314.367188 L 455.609375 314.367188 L 478.09375 313.71875 L 506.535156 313.714844 L 492.355469 312.890625 L 492.199219 312.890625 L 492.042969 312.894531 L 478.015625 313.714844 L 478.09375 313.71875 Z M 455.609375 314.367188 "/>
<path style=" stroke:none;fill-rule:nonzero;fill:rgb(83.921569%,15.686275%,22.352941%);fill-opacity:1;" d="M 455.609375 20.664062 L 528.945312 20.664062 L 528.945312 51.785156 L 498.382812 52.058594 L 498.382812 311.421875 L 486.085938 311.421875 L 486.085938 52.332031 L 485.90625 51.785156 L 455.609375 51.785156 Z M 455.609375 20.664062 "/>
<path style=" stroke:none;fill-rule:nonzero;fill:rgb(96.862745%,70.196078%,16.862745%);fill-opacity:1;" d="M 532.804688 158.882812 L 532.894531 158.65625 L 532.894531 154.109375 L 533.253906 143.878906 L 534.144531 129.78125 L 535.308594 118.1875 L 536.5625 109.09375 L 537.367188 104.316406 L 538.707031 97.496094 L 539.871094 92.496094 L 542.820312 82.265625 L 546.578125 72.714844 L 548.636719 68.625 L 550.960938 64.757812 L 554.269531 60.4375 L 555.789062 58.847656 L 560.441406 55.210938 L 565.714844 52.9375 L 571.53125 52.253906 L 574.214844 52.480469 L 577.878906 53.390625 L 582.886719 55.890625 L 585.75 58.164062 L 587.984375 60.4375 L 590.3125 63.394531 L 593.171875 67.941406 L 595.855469 73.398438 L 598.003906 78.855469 L 600.148438 85.675781 L 601.9375 92.949219 L 603.457031 100.90625 L 604.800781 110.457031 L 605.605469 118.414062 L 606.140625 126.371094 L 593.710938 126.371094 L 592.996094 118.414062 L 592.1875 112.273438 L 590.847656 104.773438 L 589.507812 99.316406 L 588.164062 94.996094 L 585.660156 89.085938 L 583.515625 85.449219 L 580.832031 82.265625 L 578.238281 80.21875 L 575.285156 78.855469 L 573.496094 78.398438 L 568.757812 78.398438 L 564.464844 79.992188 L 561.960938 81.808594 L 560.171875 83.628906 L 557.667969 87.039062 L 556.148438 89.765625 L 555.253906 91.585938 L 552.570312 98.632812 L 550.78125 105 L 549.796875 109.320312 L 548.546875 116.140625 L 547.652344 122.277344 L 546.667969 131.371094 L 546.128906 138.195312 L 545.414062 153.652344 L 545.324219 194.578125 L 545.59375 203.214844 L 546.128906 212.539062 L 546.847656 220.722656 L 547.917969 229.363281 L 548.992188 235.957031 L 550.871094 244.820312 L 552.480469 250.734375 L 553.734375 254.597656 L 556.148438 260.738281 L 557.132812 262.78125 L 559.457031 266.875 L 561.871094 270.058594 L 564.824219 272.785156 L 567.058594 274.152344 L 570.636719 275.289062 L 575.195312 275.289062 L 580.5625 273.921875 L 583.960938 272.105469 L 586.285156 270.285156 L 587.808594 268.695312 L 589.683594 266.195312 L 591.027344 263.921875 L 592.277344 261.417969 L 593.800781 257.554688 L 593.800781 203.214844 L 571.707031 202.988281 L 571.707031 177.527344 L 606.050781 177.296875 L 606.140625 266.195312 L 604.261719 272.332031 L 601.9375 278.242188 L 599.703125 282.789062 L 597.375 286.65625 L 594.066406 290.976562 L 591.382812 293.703125 L 587.269531 296.886719 L 583.515625 298.933594 L 579.578125 300.296875 L 576.089844 300.976562 L 571.976562 301.207031 L 568.308594 300.75 L 564.375 299.386719 L 561.246094 297.566406 L 558.382812 295.292969 L 555.519531 292.339844 L 551.945312 287.566406 L 549.617188 283.699219 L 547.203125 278.925781 L 544.789062 273.242188 L 542.644531 267.101562 L 541.210938 262.328125 L 539.78125 256.871094 L 538.261719 250.050781 L 536.828125 242.320312 L 535.757812 235.273438 L 534.773438 227.316406 L 534.058594 219.8125 L 533.339844 209.582031 L 532.984375 201.398438 L 532.804688 194.351562 Z M 532.804688 158.882812 "/>
<path style=" stroke:none;fill-rule:nonzero;fill:rgb(83.921569%,15.686275%,22.352941%);fill-opacity:1;" d="M 532.804688 302.386719 L 606.140625 302.386719 L 606.140625 303.667969 L 575.578125 303.679688 L 575.578125 314.371094 L 563.28125 314.371094 L 563.28125 303.691406 L 563.101562 303.667969 L 532.804688 303.667969 Z M 532.804688 302.386719 "/>
<path style=" stroke:none;fill-rule:nonzero;fill:rgb(6.27451%,58.823529%,28.235294%);fill-opacity:1;" d="M 610 314.371094 L 610.078125 314.367188 L 641.8125 313.066406 L 651.449219 313.066406 L 683.335938 314.371094 L 672.132812 314.371094 L 664.140625 314.03125 L 629.117188 314.03125 L 621.285156 314.371094 L 610 314.371094 L 632.488281 313.890625 L 660.929688 313.886719 L 646.746094 313.277344 L 646.589844 313.277344 L 646.433594 313.28125 L 632.410156 313.886719 L 632.488281 313.890625 Z M 610 314.371094 "/>
<path style=" stroke:none;fill-rule:nonzero;fill:rgb(14.509804%,36.078431%,60%);fill-opacity:1;" d="M 610 300.648438 L 610.089844 300.636719 L 610.089844 300.417969 L 610.359375 300.070312 L 610.984375 299.632812 L 611.609375 299.332031 L 613.21875 298.792969 L 615.457031 298.269531 L 617.78125 297.867188 L 619.480469 297.628906 L 621 297.449219 L 624.488281 297.109375 L 626.726562 296.9375 L 629.140625 296.78125 L 632.089844 296.625 L 634.238281 296.535156 L 639.066406 296.386719 L 642.644531 296.324219 L 645.417969 296.296875 L 651.410156 296.296875 L 654.988281 296.332031 L 657.578125 296.378906 L 660.441406 296.453125 L 662.855469 296.535156 L 667.058594 296.734375 L 670.816406 296.992188 L 672.515625 297.136719 L 675.199219 297.421875 L 677.253906 297.695312 L 678.6875 297.933594 L 680.296875 298.269531 L 681.726562 298.683594 L 682.800781 299.148438 L 683.335938 299.542969 L 670.816406 299.542969 L 670.191406 299.175781 L 669.476562 298.890625 L 668.132812 298.515625 L 666.792969 298.253906 L 664.914062 297.988281 L 663.214844 297.8125 L 660.890625 297.640625 L 658.832031 297.53125 L 656.6875 297.449219 L 654.628906 297.394531 L 650.695312 297.339844 L 646.132812 297.339844 L 644.433594 297.355469 L 640.945312 297.429688 L 639.066406 297.492188 L 636.382812 297.621094 L 634.507812 297.742188 L 632.269531 297.921875 L 630.75 298.078125 L 628.871094 298.316406 L 627.53125 298.527344 L 626.007812 298.828125 L 625.117188 299.054688 L 624.308594 299.3125 L 623.59375 299.613281 L 623.058594 299.933594 L 622.699219 300.273438 L 622.523438 300.601562 L 622.523438 302.019531 L 622.699219 302.347656 L 623.148438 302.730469 L 624.308594 303.289062 L 626.007812 303.773438 L 627.976562 304.15625 L 629.855469 304.429688 L 630.929688 304.558594 L 632.359375 304.707031 L 634.59375 304.886719 L 637.816406 305.070312 L 639.691406 305.144531 L 642.554688 305.21875 L 645.507812 305.253906 L 649.441406 305.253906 L 652.929688 305.21875 L 655.253906 305.171875 L 657.667969 305.097656 L 660.976562 304.945312 L 663.035156 304.796875 L 664.824219 304.625 L 666.164062 304.449219 L 667.058594 304.304688 L 668.402344 304.019531 L 669.476562 303.710938 L 670.28125 303.390625 L 670.816406 303.078125 L 683.335938 303.078125 L 682.800781 303.445312 L 681.996094 303.800781 L 681.191406 304.066406 L 679.9375 304.386719 L 678.507812 304.667969 L 676.449219 304.988281 L 674.75 305.199219 L 672.515625 305.429688 L 670.457031 305.601562 L 668.222656 305.757812 L 664.914062 305.941406 L 662.765625 306.03125 L 660.441406 306.113281 L 657.667969 306.1875 L 654.179688 306.25 L 650.425781 306.289062 L 646.9375 306.296875 L 643.179688 306.277344 L 640.410156 306.242188 L 636.742188 306.160156 L 632.179688 305.996094 L 628.871094 305.820312 L 626.277344 305.648438 L 624.042969 305.464844 L 621.539062 305.21875 L 618.316406 304.816406 L 616.351562 304.503906 L 615.007812 304.25 L 613.488281 303.890625 L 612.414062 303.570312 L 611.164062 303.058594 L 610.269531 302.410156 L 610 301.910156 Z M 610 300.648438 "/>
<path style=" stroke:none;fill-rule:nonzero;fill:rgb(96.862745%,70.196078%,16.862745%);fill-opacity:1;" d="M 610 309.363281 L 610.089844 309.359375 L 610.089844 309.28125 L 610.449219 309.097656 L 611.34375 308.847656 L 612.503906 308.644531 L 613.757812 308.484375 L 614.5625 308.398438 L 615.902344 308.277344 L 617.066406 308.1875 L 620.015625 308.007812 L 623.773438 307.839844 L 625.832031 307.765625 L 628.15625 307.699219 L 631.464844 307.621094 L 632.984375 307.59375 L 637.636719 307.527344 L 642.914062 307.488281 L 648.726562 307.476562 L 651.410156 307.480469 L 655.074219 307.496094 L 660.085938 307.539062 L 662.945312 307.582031 L 665.183594 307.621094 L 667.507812 307.671875 L 670.367188 307.753906 L 673.050781 307.851562 L 675.199219 307.945312 L 677.34375 308.066406 L 679.132812 308.195312 L 680.652344 308.335938 L 681.996094 308.507812 L 682.800781 308.648438 L 683.335938 308.789062 L 670.90625 308.789062 L 670.191406 308.648438 L 669.386719 308.539062 L 668.042969 308.40625 L 666.703125 308.308594 L 665.359375 308.234375 L 662.855469 308.128906 L 660.710938 308.0625 L 658.027344 308.007812 L 655.433594 307.972656 L 652.480469 307.945312 L 650.695312 307.9375 L 645.953125 307.9375 L 641.660156 307.96875 L 639.15625 308 L 637.367188 308.03125 L 634.863281 308.09375 L 633.34375 308.140625 L 632.449219 308.171875 L 629.765625 308.296875 L 627.976562 308.410156 L 626.992188 308.488281 L 625.742188 308.609375 L 624.847656 308.714844 L 623.863281 308.878906 L 623.328125 309 L 622.609375 309.273438 L 622.523438 309.996094 L 622.789062 310.148438 L 623.328125 310.316406 L 624.042969 310.460938 L 625.117188 310.613281 L 626.1875 310.730469 L 628.066406 310.886719 L 629.675781 310.992188 L 630.929688 311.0625 L 633.34375 311.167969 L 634.328125 311.207031 L 636.652344 311.277344 L 639.066406 311.335938 L 642.019531 311.382812 L 644.253906 311.40625 L 647.832031 311.425781 L 652.394531 311.425781 L 657.757812 311.402344 L 661.15625 311.371094 L 663.484375 311.339844 L 665.003906 311.308594 L 666.882812 311.265625 L 668.222656 311.226562 L 669.476562 311.179688 L 670.996094 311.113281 L 670.996094 310.148438 L 648.90625 310.144531 L 648.90625 309.695312 L 683.246094 309.691406 L 683.335938 311.265625 L 681.457031 311.375 L 679.132812 311.480469 L 676.898438 311.558594 L 674.574219 311.628906 L 671.261719 311.703125 L 668.582031 311.753906 L 664.464844 311.808594 L 660.710938 311.847656 L 656.773438 311.871094 L 653.285156 311.882812 L 649.171875 311.886719 L 645.507812 311.878906 L 641.570312 311.855469 L 638.441406 311.820312 L 635.578125 311.78125 L 632.71875 311.730469 L 629.140625 311.644531 L 626.816406 311.574219 L 624.398438 311.492188 L 621.984375 311.390625 L 619.839844 311.28125 L 618.40625 311.199219 L 616.976562 311.101562 L 615.457031 310.980469 L 614.027344 310.84375 L 612.953125 310.71875 L 611.96875 310.578125 L 611.253906 310.445312 L 610.539062 310.261719 L 610.179688 310.117188 L 610 309.992188 Z M 610 309.363281 "/>
<path style=" stroke:none;fill-rule:nonzero;fill:rgb(83.921569%,15.686275%,22.352941%);fill-opacity:1;" d="M 610 284.496094 L 683.335938 284.496094 L 683.335938 285.632812 L 652.773438 285.640625 L 652.773438 295.117188 L 640.476562 295.117188 L 640.476562 285.652344 L 640.296875 285.632812 L 610 285.632812 Z M 610 284.496094 "/>
<g style="fill:rgb(0%,0%,0%);fill-opacity:1;">
  <use xlink:href="#glyph0-1" x="21.957031" y="318.198242"/>
  <use xlink:href="#glyph0-2" x="27.291016" y="318.198242"/>
  <use xlink:href="#glyph0-1" x="29.958008" y="318.198242"/>
</g>
<g style="fill:rgb(0%,0%,0%);fill-opacity:1;">
  <use xlink:href="#glyph0-1" x="21.957031" y="241.374023"/>
  <use xlink:href="#glyph0-2" x="27.291016" y="241.374023"/>
  <use xlink:href="#glyph0-3" x="29.958008" y="241.374023"/>
</g>
<g style="fill:rgb(0%,0%,0%);fill-opacity:1;">
  <use xlink:href="#glyph0-4" x="21.957031" y="164.545898"/>
  <use xlink:href="#glyph0-2" x="27.291016" y="164.545898"/>
  <use xlink:href="#glyph0-1" x="29.958008" y="164.545898"/>
</g>
<g style="fill:rgb(0%,0%,0%);fill-opacity:1;">
  <use xlink:href="#glyph0-4" x="21.957031" y="87.72168"/>
  <use xlink:href="#glyph0-2" x="27.291016" y="87.72168"/>
  <use xlink:href="#glyph0-3" x="29.958008" y="87.72168"/>
</g>
<g style="fill:rgb(0%,0%,0%);fill-opacity:1;">
  <use xlink:href="#glyph0-5" x="21.957031" y="10.897461"/>
  <use xlink:href="#glyph0-2" x="27.291016" y="10.897461"/>
  <use xlink:href="#glyph0-1" x="29.958008" y="10.897461"/>
</g>
<g style="fill:rgb(0%,0%,0%);fill-opacity:1;">
  <use xlink:href="#glyph0-4" x="103.296875" y="338.19043"/>
</g>
<g style="fill:rgb(0%,0%,0%);fill-opacity:1;">
  <use xlink:href="#glyph0-5" x="180.492188" y="338.19043"/>
</g>
<g style="fill:rgb(0%,0%,0%);fill-opacity:1;">
  <use xlink:href="#glyph0-6" x="257.6875" y="338.19043"/>
</g>
<g style="fill:rgb(0%,0%,0%);fill-opacity:1;">
  <use xlink:href="#glyph0-7" x="334.886719" y="338.19043"/>
</g>
<g style="fill:rgb(0%,0%,0%);fill-opacity:1;">
  <use xlink:href="#glyph0-3" x="412.082031" y="338.19043"/>
</g>
<g style="fill:rgb(0%,0%,0%);fill-opacity:1;">
  <use xlink:href="#glyph0-8" x="489.277344" y="338.19043"/>
</g>
<g style="fill:rgb(0%,0%,0%);fill-opacity:1;">
  <use xlink:href="#glyph0-9" x="566.472656" y="338.19043"/>
</g>
<g style="fill:rgb(0%,0%,0%);fill-opacity:1;">
  <use xlink:href="#glyph0-10" x="643.667969" y="338.19043"/>
</g>
<g style="fill:rgb(0%,0%,0%);fill-opacity:1;">
  <use xlink:href="#glyph1-1" x="14.412109" y="178.015625"/>
  <use xlink:href="#glyph1-2" x="14.412109" y="170.011719"/>
  <use xlink:href="#glyph1-3" x="14.412109" y="167.347656"/>
  <use xlink:href="#glyph1-4" x="14.412109" y="164.011719"/>
</g>
</g>
</svg>
