<?xml version="1.0" encoding="UTF-8"?>
<svg xmlns="http://www.w3.org/2000/svg" xmlns:xlink="http://www.w3.org/1999/xlink" width="720pt" height="360pt" viewBox="0 0 720 360" version="1.1">
<defs>
<g>
<symbol overflow="visible" id="glyph0-0">
<path style="stroke:none;" d=""/>
</symbol>
<symbol overflow="visible" id="glyph0-1">
<path style="stroke:none;" d="M 2.640625 -6.796875 C 2 -6.796875 1.421875 -6.53125 1.078125 -6.046875 C 0.640625 -5.453125 0.40625 -4.546875 0.40625 -3.296875 C 0.40625 -1 1.1875 0.21875 2.640625 0.21875 C 4.078125 0.21875 4.859375 -1 4.859375 -3.234375 C 4.859375 -4.5625 4.65625 -5.4375 4.203125 -6.046875 C 3.84375 -6.53125 3.28125 -6.796875 2.640625 -6.796875 Z M 2.640625 -6.046875 C 3.546875 -6.046875 4 -5.125 4 -3.3125 C 4 -1.375 3.5625 -0.484375 2.625 -0.484375 C 1.734375 -0.484375 1.28125 -1.421875 1.28125 -3.28125 C 1.28125 -5.140625 1.734375 -6.046875 2.640625 -6.046875 Z M 2.640625 -6.046875 "/>
</symbol>
<symbol overflow="visible" id="glyph0-2">
<path style="stroke:none;" d="M 1.828125 -1 L 0.828125 -1 L 0.828125 0 L 1.828125 0 Z M 1.828125 -1 "/>
</symbol>
<symbol overflow="visible" id="glyph0-3">
<path style="stroke:none;" d="M 4.5625 -6.796875 L 1.0625 -6.796875 L 0.546875 -3.09375 L 1.328125 -3.09375 C 1.71875 -3.5625 2.046875 -3.734375 2.578125 -3.734375 C 3.484375 -3.734375 4.0625 -3.109375 4.0625 -2.09375 C 4.0625 -1.125 3.484375 -0.53125 2.578125 -0.53125 C 1.828125 -0.53125 1.375 -0.90625 1.1875 -1.671875 L 0.328125 -1.671875 C 0.453125 -1.109375 0.546875 -0.84375 0.75 -0.59375 C 1.125 -0.078125 1.828125 0.21875 2.59375 0.21875 C 3.96875 0.21875 4.921875 -0.78125 4.921875 -2.21875 C 4.921875 -3.5625 4.03125 -4.484375 2.71875 -4.484375 C 2.25 -4.484375 1.859375 -4.359375 1.46875 -4.0625 L 1.734375 -5.96875 L 4.5625 -5.96875 Z M 4.5625 -6.796875 "/>
</symbol>
<symbol overflow="visible" id="glyph0-4">
<path style="stroke:none;" d="M 2.484375 -4.84375 L 2.484375 0 L 3.328125 0 L 3.328125 -6.796875 L 2.765625 -6.796875 C 2.46875 -5.75 2.28125 -5.609375 0.984375 -5.453125 L 0.984375 -4.84375 Z M 2.484375 -4.84375 "/>
</symbol>
<symbol overflow="visible" id="glyph0-5">
<path style="stroke:none;" d="M 4.859375 -0.828125 L 1.28125 -0.828125 C 1.359375 -1.390625 1.671875 -1.75 2.5 -2.234375 L 3.46875 -2.75 C 4.40625 -3.265625 4.90625 -3.96875 4.90625 -4.8125 C 4.90625 -5.375 4.671875 -5.90625 4.265625 -6.265625 C 3.859375 -6.625 3.375 -6.796875 2.71875 -6.796875 C 1.859375 -6.796875 1.21875 -6.5 0.84375 -5.921875 C 0.609375 -5.5625 0.5 -5.125 0.484375 -4.4375 L 1.328125 -4.4375 C 1.359375 -4.90625 1.40625 -5.1875 1.53125 -5.40625 C 1.75 -5.8125 2.1875 -6.0625 2.703125 -6.0625 C 3.46875 -6.0625 4.03125 -5.515625 4.03125 -4.78125 C 4.03125 -4.25 3.71875 -3.796875 3.125 -3.4375 L 2.234375 -2.9375 C 0.8125 -2.140625 0.40625 -1.5 0.328125 0 L 4.859375 0 Z M 4.859375 -0.828125 "/>
</symbol>
<symbol overflow="visible" id="glyph0-6">
<path style="stroke:none;" d="M 2.125 -3.125 L 2.578125 -3.125 C 3.515625 -3.125 3.984375 -2.703125 3.984375 -1.890625 C 3.984375 -1.03125 3.46875 -0.53125 2.578125 -0.53125 C 1.65625 -0.53125 1.203125 -0.984375 1.15625 -1.96875 L 0.3125 -1.96875 C 0.34375 -1.421875 0.4375 -1.078125 0.609375 -0.765625 C 0.953125 -0.109375 1.625 0.21875 2.546875 0.21875 C 3.953125 0.21875 4.859375 -0.609375 4.859375 -1.90625 C 4.859375 -2.765625 4.515625 -3.25 3.703125 -3.515625 C 4.34375 -3.765625 4.65625 -4.25 4.65625 -4.9375 C 4.65625 -6.109375 3.875 -6.796875 2.578125 -6.796875 C 1.203125 -6.796875 0.484375 -6.046875 0.453125 -4.609375 L 1.296875 -4.609375 C 1.3125 -5.015625 1.34375 -5.25 1.453125 -5.453125 C 1.640625 -5.828125 2.0625 -6.0625 2.59375 -6.0625 C 3.34375 -6.0625 3.796875 -5.625 3.796875 -4.90625 C 3.796875 -4.421875 3.609375 -4.140625 3.25 -3.984375 C 3.015625 -3.890625 2.71875 -3.84375 2.125 -3.84375 Z M 2.125 -3.125 "/>
</symbol>
<symbol overflow="visible" id="glyph0-7">
<path style="stroke:none;" d="M 3.140625 -1.625 L 3.140625 0 L 3.984375 0 L 3.984375 -1.625 L 4.984375 -1.625 L 4.984375 -2.390625 L 3.984375 -2.390625 L 3.984375 -6.796875 L 3.359375 -6.796875 L 0.265625 -2.515625 L 0.265625 -1.625 Z M 3.140625 -2.390625 L 1 -2.390625 L 3.140625 -5.359375 Z M 3.140625 -2.390625 "/>
</symbol>
<symbol overflow="visible" id="glyph0-8">
<path style="stroke:none;" d="M 4.78125 -5.03125 C 4.609375 -6.140625 3.890625 -6.796875 2.84375 -6.796875 C 2.09375 -6.796875 1.421875 -6.4375 1.03125 -5.828125 C 0.609375 -5.171875 0.40625 -4.34375 0.40625 -3.09375 C 0.40625 -1.953125 0.578125 -1.234375 0.984375 -0.625 C 1.359375 -0.078125 1.953125 0.21875 2.703125 0.21875 C 3.984375 0.21875 4.921875 -0.734375 4.921875 -2.078125 C 4.921875 -3.34375 4.0625 -4.234375 2.84375 -4.234375 C 2.171875 -4.234375 1.640625 -3.96875 1.28125 -3.46875 C 1.28125 -5.125 1.828125 -6.046875 2.796875 -6.046875 C 3.390625 -6.046875 3.796875 -5.671875 3.9375 -5.03125 Z M 2.734375 -3.484375 C 3.546875 -3.484375 4.0625 -2.921875 4.0625 -2 C 4.0625 -1.15625 3.484375 -0.53125 2.703125 -0.53125 C 1.921875 -0.53125 1.328125 -1.1875 1.328125 -2.046875 C 1.328125 -2.890625 1.90625 -3.484375 2.734375 -3.484375 Z M 2.734375 -3.484375 "/>
</symbol>
<symbol overflow="visible" id="glyph0-9">
<path style="stroke:none;" d="M 4.984375 -6.796875 L 0.4375 -6.796875 L 0.4375 -5.96875 L 4.109375 -5.96875 C 2.5 -3.65625 1.828125 -2.234375 1.328125 0 L 2.21875 0 C 2.59375 -2.171875 3.453125 -4.046875 4.984375 -6.09375 Z M 4.984375 -6.796875 "/>
</symbol>
<symbol overflow="visible" id="glyph0-10">
<path style="stroke:none;" d="M 3.75 -3.578125 C 4.453125 -4 4.6875 -4.34375 4.6875 -4.984375 C 4.6875 -6.046875 3.84375 -6.796875 2.640625 -6.796875 C 1.4375 -6.796875 0.59375 -6.046875 0.59375 -4.984375 C 0.59375 -4.359375 0.828125 -4.015625 1.515625 -3.578125 C 0.734375 -3.203125 0.359375 -2.640625 0.359375 -1.890625 C 0.359375 -0.640625 1.296875 0.21875 2.640625 0.21875 C 3.984375 0.21875 4.921875 -0.640625 4.921875 -1.875 C 4.921875 -2.640625 4.53125 -3.203125 3.75 -3.578125 Z M 2.640625 -6.046875 C 3.359375 -6.046875 3.8125 -5.625 3.8125 -4.96875 C 3.8125 -4.34375 3.34375 -3.921875 2.640625 -3.921875 C 1.921875 -3.921875 1.453125 -4.34375 1.453125 -4.984375 C 1.453125 -5.625 1.921875 -6.046875 2.640625 -6.046875 Z M 2.640625 -3.203125 C 3.484375 -3.203125 4.0625 -2.671875 4.0625 -1.875 C 4.0625 -1.0625 3.484375 -0.53125 2.625 -0.53125 C 1.796875 -0.53125 1.21875 -1.078125 1.21875 -1.875 C 1.21875 -2.671875 1.796875 -3.203125 2.640625 -3.203125 Z M 2.640625 -3.203125 "/>
</symbol>
<symbol overflow="visible" id="glyph0-11">
<path style="stroke:none;" d="M 0.515625 -1.546875 C 0.671875 -0.4375 1.40625 0.21875 2.4375 0.21875 C 3.1875 0.21875 3.859375 -0.140625 4.265625 -0.75 C 4.6875 -1.40625 4.890625 -2.25 4.890625 -3.484375 C 4.890625 -4.625 4.703125 -5.359375 4.3125 -5.953125 C 3.9375 -6.5 3.34375 -6.796875 2.59375 -6.796875 C 1.296875 -6.796875 0.359375 -5.84375 0.359375 -4.515625 C 0.359375 -3.25 1.234375 -2.34375 2.453125 -2.34375 C 3.09375 -2.34375 3.5625 -2.578125 4.015625 -3.109375 C 4 -1.453125 3.46875 -0.53125 2.5 -0.53125 C 1.90625 -0.53125 1.484375 -0.90625 1.359375 -1.546875 Z M 2.578125 -6.0625 C 3.375 -6.0625 3.96875 -5.40625 3.96875 -4.53125 C 3.96875 -3.6875 3.375 -3.09375 2.546875 -3.09375 C 1.734375 -3.09375 1.234375 -3.671875 1.234375 -4.578125 C 1.234375 -5.4375 1.796875 -6.0625 2.578125 -6.0625 Z M 2.578125 -6.0625 "/>
</symbol>
<symbol overflow="visible" id="glyph1-0">
<path style="stroke:none;" d=""/>
</symbol>
<symbol overflow="visible" id="glyph1-1">
<path style="stroke:none;" d="M 0 -0.953125 L 0 -4.890625 C 0 -5.71875 -0.234375 -6.34375 -0.734375 -6.796875 C -1.1875 -7.234375 -1.8125 -7.46875 -2.5 -7.46875 C -3.546875 -7.46875 -4.1875 -7 -4.625 -5.875 C -4.984375 -6.671875 -5.640625 -7.09375 -6.53125 -7.09375 C -7.15625 -7.09375 -7.734375 -6.859375 -8.140625 -6.390625 C -8.5625 -5.9375 -8.75 -5.34375 -8.75 -4.5 L -8.75 -0.953125 Z M -4.984375 -2.0625 L -7.765625 -2.0625 L -7.765625 -4.21875 C -7.765625 -4.84375 -7.6875 -5.203125 -7.453125 -5.5 C -7.21875 -5.8125 -6.859375 -5.96875 -6.375 -5.96875 C -5.90625 -5.96875 -5.53125 -5.8125 -5.296875 -5.5 C -5.0625 -5.203125 -4.984375 -4.84375 -4.984375 -4.21875 Z M -0.984375 -2.0625 L -4 -2.0625 L -4 -4.78125 C -4 -5.328125 -3.859375 -5.6875 -3.578125 -5.953125 C -3.296875 -6.21875 -2.921875 -6.359375 -2.484375 -6.359375 C -2.0625 -6.359375 -1.6875 -6.21875 -1.40625 -5.953125 C -1.109375 -5.6875 -0.984375 -5.328125 -0.984375 -4.78125 Z M -0.984375 -2.0625 "/>
</symbol>
<symbol overflow="visible" id="glyph1-2">
<path style="stroke:none;" d="M -6.28125 -1.796875 L -6.28125 -0.796875 L 0 -0.796875 L 0 -1.796875 Z M -8.75 -1.796875 L -8.75 -0.796875 L -7.484375 -0.796875 L -7.484375 -1.796875 Z M -8.75 -1.796875 "/>
</symbol>
<symbol overflow="visible" id="glyph1-3">
<path style="stroke:none;" d="M -6.28125 -3.046875 L -6.28125 -2.015625 L -8.015625 -2.015625 L -8.015625 -1.015625 L -6.28125 -1.015625 L -6.28125 -0.171875 L -5.46875 -0.171875 L -5.46875 -1.015625 L -0.71875 -1.015625 C -0.078125 -1.015625 0.28125 -1.453125 0.28125 -2.234375 C 0.28125 -2.46875 0.25 -2.71875 0.1875 -3.046875 L -0.640625 -3.046875 C -0.609375 -2.921875 -0.59375 -2.765625 -0.59375 -2.5625 C -0.59375 -2.140625 -0.71875 -2.015625 -1.15625 -2.015625 L -5.46875 -2.015625 L -5.46875 -3.046875 Z M -6.28125 -3.046875 "/>
</symbol>
<symbol overflow="visible" id="glyph1-4">
<path style="stroke:none;" d="M -4.53125 -5.25 C -5.765625 -5.25 -6.46875 -4.421875 -6.46875 -2.96875 C -6.46875 -1.515625 -5.71875 -0.5625 -4.546875 -0.5625 C -3.5625 -0.5625 -3.09375 -1.0625 -2.734375 -2.5625 L -2.515625 -3.484375 C -2.34375 -4.1875 -2.09375 -4.46875 -1.625 -4.46875 C -1.046875 -4.46875 -0.640625 -3.875 -0.640625 -3 C -0.640625 -2.453125 -0.796875 -2 -1.0625 -1.75 C -1.25 -1.59375 -1.421875 -1.53125 -1.875 -1.46875 L -1.875 -0.40625 C -0.421875 -0.453125 0.28125 -1.265625 0.28125 -2.921875 C 0.28125 -4.5 -0.5 -5.515625 -1.71875 -5.515625 C -2.65625 -5.515625 -3.171875 -4.984375 -3.46875 -3.734375 L -3.703125 -2.765625 C -3.890625 -1.953125 -4.15625 -1.609375 -4.59375 -1.609375 C -5.171875 -1.609375 -5.546875 -2.125 -5.546875 -2.9375 C -5.546875 -3.75 -5.203125 -4.171875 -4.53125 -4.203125 Z M -4.53125 -5.25 "/>
</symbol>
</g>
</defs>
<g id="surface92283">
<rect x="0" y="0" width="720" height="360" style="fill:rgb(100%,100%,100%);fill-opacity:1;stroke:none;"/>
<path style=" stroke:none;fill-rule:nonzero;fill:rgb(6.27451%,58.823529%,28.235294%);fill-opacity:1;" d="M 69.628906 294.726562 L 69.691406 294.707031 L 95.046875 277.738281 L 102.746094 277.738281 L 128.222656 294.742188 L 119.273438 294.742188 L 112.886719 290.300781 L 84.902344 290.300781 L 78.644531 294.726562 L 69.628906 294.726562 L 87.597656 288.464844 L 110.320312 288.449219 L 98.988281 280.515625 L 98.863281 280.5 L 98.738281 280.546875 L 87.535156 288.449219 L 87.597656 288.464844 Z M 69.628906 294.726562 "/>
<path style=" stroke:none;fill-rule:nonzero;fill:rgb(14.509804%,36.078431%,60%);fill-opacity:1;" d="M 69.628906 311.855469 L 69.699219 311.851562 L 69.699219 311.800781 L 69.914062 311.71875 L 70.414062 311.613281 L 70.914062 311.542969 L 72.203125 311.414062 L 73.988281 311.289062 L 75.847656 311.195312 L 77.203125 311.136719 L 78.417969 311.09375 L 81.207031 311.015625 L 82.992188 310.972656 L 84.921875 310.9375 L 87.28125 310.898438 L 88.996094 310.878906 L 92.851562 310.84375 L 95.710938 310.828125 L 97.925781 310.820312 L 102.714844 310.820312 L 105.574219 310.828125 L 107.644531 310.839844 L 109.929688 310.859375 L 111.859375 310.878906 L 115.21875 310.925781 L 118.21875 310.984375 L 119.578125 311.019531 L 121.722656 311.085938 L 123.367188 311.152344 L 124.507812 311.210938 L 125.796875 311.289062 L 126.9375 311.386719 L 127.796875 311.5 L 128.222656 311.589844 L 118.21875 311.589844 L 117.71875 311.503906 L 117.148438 311.4375 L 116.078125 311.347656 L 115.003906 311.285156 L 113.503906 311.222656 L 112.148438 311.179688 L 110.289062 311.140625 L 108.644531 311.113281 L 106.929688 311.09375 L 105.285156 311.082031 L 102.140625 311.066406 L 98.5 311.066406 L 97.140625 311.074219 L 94.355469 311.089844 L 92.851562 311.105469 L 90.710938 311.136719 L 89.207031 311.164062 L 87.421875 311.207031 L 86.207031 311.242188 L 84.707031 311.300781 L 83.636719 311.351562 L 82.421875 311.421875 L 81.707031 311.476562 L 81.0625 311.539062 L 80.492188 311.609375 L 80.0625 311.683594 L 79.777344 311.765625 L 79.632812 311.84375 L 79.632812 312.179688 L 79.777344 312.257812 L 80.132812 312.347656 L 81.0625 312.480469 L 82.421875 312.597656 L 83.992188 312.6875 L 85.492188 312.753906 L 86.351562 312.785156 L 87.492188 312.816406 L 89.28125 312.863281 L 91.851562 312.90625 L 93.351562 312.921875 L 95.640625 312.941406 L 97.996094 312.949219 L 101.140625 312.949219 L 103.929688 312.941406 L 105.785156 312.929688 L 107.714844 312.910156 L 110.359375 312.875 L 112.003906 312.839844 L 113.433594 312.796875 L 114.503906 312.757812 L 115.21875 312.722656 L 116.292969 312.65625 L 117.148438 312.582031 L 117.792969 312.503906 L 118.21875 312.433594 L 128.222656 312.433594 L 127.796875 312.519531 L 127.152344 312.601562 L 126.507812 312.667969 L 125.507812 312.742188 L 124.367188 312.808594 L 122.722656 312.886719 L 121.363281 312.933594 L 119.578125 312.988281 L 117.933594 313.03125 L 116.148438 313.066406 L 113.503906 313.109375 L 111.789062 313.132812 L 109.929688 313.152344 L 107.714844 313.167969 L 104.929688 313.183594 L 101.929688 313.195312 L 99.140625 313.195312 L 96.140625 313.191406 L 93.925781 313.183594 L 90.996094 313.164062 L 87.351562 313.125 L 84.707031 313.082031 L 82.632812 313.042969 L 80.847656 313 L 78.847656 312.941406 L 76.273438 312.84375 L 74.703125 312.769531 L 73.632812 312.710938 L 72.417969 312.625 L 71.558594 312.550781 L 70.558594 312.425781 L 69.84375 312.273438 L 69.628906 312.152344 Z M 69.628906 311.855469 "/>
<path style=" stroke:none;fill-rule:nonzero;fill:rgb(96.862745%,70.196078%,16.862745%);fill-opacity:1;" d="M 69.628906 299.121094 L 69.699219 299.117188 L 69.699219 298.980469 L 69.988281 298.671875 L 70.703125 298.246094 L 71.628906 297.898438 L 72.628906 297.625 L 73.273438 297.480469 L 74.34375 297.277344 L 75.273438 297.125 L 77.632812 296.816406 L 80.632812 296.53125 L 82.277344 296.40625 L 84.136719 296.292969 L 86.777344 296.160156 L 87.992188 296.113281 L 91.710938 296.003906 L 95.925781 295.9375 L 100.570312 295.914062 L 102.714844 295.921875 L 105.644531 295.949219 L 109.644531 296.023438 L 111.933594 296.09375 L 113.71875 296.160156 L 115.578125 296.25 L 117.863281 296.386719 L 120.007812 296.550781 L 121.722656 296.714844 L 123.4375 296.921875 L 124.867188 297.140625 L 126.082031 297.378906 L 127.152344 297.667969 L 127.796875 297.90625 L 128.222656 298.144531 L 118.292969 298.144531 L 117.71875 297.90625 L 117.078125 297.722656 L 116.003906 297.496094 L 114.933594 297.332031 L 113.863281 297.199219 L 111.859375 297.023438 L 110.144531 296.914062 L 108.003906 296.816406 L 105.929688 296.757812 L 103.570312 296.714844 L 102.140625 296.703125 L 98.355469 296.703125 L 94.925781 296.75 L 92.925781 296.804688 L 91.496094 296.859375 L 89.496094 296.960938 L 88.28125 297.042969 L 87.566406 297.097656 L 85.421875 297.308594 L 83.992188 297.503906 L 83.207031 297.632812 L 82.207031 297.835938 L 81.492188 298.023438 L 80.707031 298.296875 L 80.277344 298.5 L 79.703125 298.964844 L 79.632812 300.195312 L 79.847656 300.457031 L 80.277344 300.738281 L 80.847656 300.984375 L 81.707031 301.242188 L 82.5625 301.441406 L 84.0625 301.707031 L 85.351562 301.886719 L 86.351562 302 L 88.28125 302.1875 L 89.066406 302.246094 L 90.921875 302.371094 L 92.851562 302.464844 L 95.210938 302.546875 L 96.996094 302.589844 L 99.855469 302.625 L 103.5 302.625 L 107.789062 302.582031 L 110.503906 302.527344 L 112.359375 302.472656 L 113.574219 302.425781 L 115.078125 302.351562 L 116.148438 302.28125 L 117.148438 302.207031 L 118.363281 302.089844 L 118.363281 300.457031 L 100.714844 300.449219 L 100.714844 299.683594 L 128.152344 299.675781 L 128.222656 302.351562 L 126.722656 302.535156 L 124.867188 302.710938 L 123.078125 302.847656 L 121.222656 302.964844 L 118.578125 303.09375 L 116.433594 303.175781 L 113.148438 303.273438 L 110.144531 303.335938 L 107 303.375 L 104.214844 303.394531 L 100.929688 303.402344 L 97.996094 303.390625 L 94.855469 303.347656 L 92.351562 303.292969 L 90.066406 303.226562 L 87.78125 303.136719 L 84.921875 302.992188 L 83.0625 302.875 L 81.132812 302.734375 L 79.203125 302.5625 L 77.488281 302.378906 L 76.347656 302.234375 L 75.203125 302.070312 L 73.988281 301.863281 L 72.84375 301.632812 L 71.988281 301.421875 L 71.203125 301.179688 L 70.628906 300.957031 L 70.058594 300.648438 L 69.773438 300.402344 L 69.628906 300.1875 Z M 69.628906 299.121094 "/>
<path style=" stroke:none;fill-rule:nonzero;fill:rgb(83.921569%,15.686275%,22.352941%);fill-opacity:1;" d="M 69.628906 304.578125 L 128.222656 304.578125 L 128.222656 305.121094 L 103.804688 305.125 L 103.804688 309.644531 L 93.980469 309.644531 L 93.980469 305.128906 L 93.835938 305.121094 L 69.628906 305.121094 Z M 69.628906 304.578125 "/>
<path style=" stroke:none;fill-rule:nonzero;fill:rgb(6.27451%,58.823529%,28.235294%);fill-opacity:1;" d="M 131.308594 307.582031 L 131.371094 307.578125 L 156.726562 302.203125 L 164.425781 302.203125 L 189.902344 307.585938 L 180.953125 307.585938 L 174.566406 306.183594 L 146.582031 306.183594 L 140.324219 307.582031 L 131.308594 307.582031 L 149.273438 305.601562 L 172 305.597656 L 160.667969 303.082031 L 160.542969 303.078125 L 160.417969 303.09375 L 149.210938 305.597656 L 149.273438 305.601562 Z M 131.308594 307.582031 "/>
<path style=" stroke:none;fill-rule:nonzero;fill:rgb(14.509804%,36.078431%,60%);fill-opacity:1;" d="M 131.308594 275.8125 L 131.378906 275.785156 L 131.378906 275.191406 L 131.59375 274.246094 L 132.09375 273.054688 L 132.59375 272.234375 L 133.882812 270.769531 L 135.667969 269.351562 L 137.523438 268.257812 L 138.882812 267.613281 L 140.097656 267.117188 L 142.882812 266.199219 L 144.671875 265.726562 L 146.601562 265.304688 L 148.957031 264.882812 L 150.671875 264.632812 L 154.53125 264.234375 L 157.390625 264.0625 L 159.605469 263.988281 L 164.394531 263.988281 L 167.25 264.085938 L 169.324219 264.210938 L 171.609375 264.410156 L 173.539062 264.632812 L 176.898438 265.179688 L 179.898438 265.875 L 181.257812 266.273438 L 183.402344 267.042969 L 185.042969 267.789062 L 186.1875 268.433594 L 187.472656 269.351562 L 188.617188 270.46875 L 189.476562 271.738281 L 189.902344 272.804688 L 179.898438 272.804688 L 179.398438 271.8125 L 178.828125 271.042969 L 177.757812 270.023438 L 176.683594 269.304688 L 175.183594 268.582031 L 173.824219 268.109375 L 171.96875 267.636719 L 170.324219 267.339844 L 168.609375 267.117188 L 166.964844 266.96875 L 163.820312 266.820312 L 160.175781 266.820312 L 158.820312 266.867188 L 156.03125 267.066406 L 154.53125 267.242188 L 152.386719 267.589844 L 150.886719 267.910156 L 149.101562 268.410156 L 147.886719 268.832031 L 146.386719 269.476562 L 145.3125 270.046875 L 144.097656 270.867188 L 143.386719 271.488281 L 142.742188 272.183594 L 142.171875 273.003906 L 141.742188 273.875 L 141.457031 274.792969 L 141.3125 275.6875 L 141.3125 279.535156 L 141.457031 280.429688 L 141.8125 281.472656 L 142.742188 282.988281 L 144.097656 284.304688 L 145.671875 285.347656 L 147.171875 286.09375 L 148.03125 286.441406 L 149.171875 286.839844 L 150.960938 287.335938 L 153.53125 287.832031 L 155.03125 288.03125 L 157.320312 288.230469 L 159.675781 288.332031 L 162.820312 288.332031 L 165.609375 288.230469 L 167.464844 288.105469 L 169.394531 287.90625 L 172.039062 287.484375 L 173.683594 287.089844 L 175.113281 286.617188 L 176.183594 286.144531 L 176.898438 285.746094 L 177.96875 284.976562 L 178.828125 284.132812 L 179.472656 283.261719 L 179.898438 282.417969 L 189.902344 282.417969 L 189.476562 283.410156 L 188.832031 284.378906 L 188.1875 285.101562 L 187.1875 285.96875 L 186.046875 286.742188 L 184.402344 287.609375 L 183.042969 288.179688 L 181.257812 288.800781 L 179.613281 289.273438 L 177.828125 289.695312 L 175.183594 290.191406 L 173.46875 290.441406 L 171.609375 290.664062 L 169.394531 290.863281 L 166.609375 291.039062 L 163.605469 291.136719 L 160.820312 291.160156 L 157.820312 291.113281 L 155.605469 291.011719 L 152.675781 290.789062 L 149.03125 290.34375 L 146.386719 289.871094 L 144.3125 289.398438 L 142.527344 288.902344 L 140.527344 288.230469 L 137.953125 287.136719 L 136.382812 286.292969 L 135.308594 285.597656 L 134.09375 284.628906 L 133.238281 283.757812 L 132.238281 282.367188 L 131.523438 280.605469 L 131.308594 279.238281 Z M 131.308594 275.8125 "/>
<path style=" stroke:none;fill-rule:nonzero;fill:rgb(96.862745%,70.196078%,16.862745%);fill-opacity:1;" d="M 131.308594 296.058594 L 131.378906 296.050781 L 131.378906 295.894531 L 131.664062 295.535156 L 132.378906 295.042969 L 133.308594 294.640625 L 134.308594 294.320312 L 134.953125 294.15625 L 136.023438 293.917969 L 136.953125 293.742188 L 139.3125 293.382812 L 142.3125 293.050781 L 143.957031 292.910156 L 145.8125 292.773438 L 148.457031 292.621094 L 149.671875 292.566406 L 153.390625 292.441406 L 157.605469 292.359375 L 162.25 292.335938 L 164.394531 292.34375 L 167.324219 292.375 L 171.324219 292.464844 L 173.613281 292.542969 L 175.398438 292.621094 L 177.253906 292.726562 L 179.542969 292.882812 L 181.6875 293.074219 L 183.402344 293.265625 L 185.117188 293.503906 L 186.546875 293.757812 L 187.761719 294.035156 L 188.832031 294.367188 L 189.476562 294.648438 L 189.902344 294.925781 L 179.972656 294.925781 L 179.398438 294.648438 L 178.757812 294.433594 L 177.683594 294.171875 L 176.613281 293.980469 L 175.539062 293.828125 L 173.539062 293.621094 L 171.824219 293.496094 L 169.679688 293.382812 L 167.609375 293.3125 L 165.25 293.265625 L 163.820312 293.25 L 160.035156 293.25 L 156.605469 293.304688 L 154.605469 293.367188 L 153.175781 293.433594 L 151.171875 293.550781 L 149.957031 293.648438 L 149.246094 293.710938 L 147.101562 293.957031 L 145.671875 294.179688 L 144.886719 294.328125 L 143.886719 294.566406 L 143.171875 294.78125 L 142.382812 295.097656 L 141.957031 295.335938 L 141.382812 295.878906 L 141.3125 297.304688 L 141.527344 297.609375 L 141.957031 297.933594 L 142.527344 298.21875 L 143.386719 298.519531 L 144.242188 298.75 L 145.742188 299.058594 L 147.027344 299.265625 L 148.03125 299.402344 L 149.957031 299.617188 L 150.746094 299.6875 L 152.601562 299.832031 L 154.53125 299.941406 L 156.890625 300.035156 L 158.675781 300.085938 L 161.535156 300.125 L 165.179688 300.125 L 169.46875 300.078125 L 172.183594 300.011719 L 174.039062 299.949219 L 175.253906 299.894531 L 176.753906 299.804688 L 177.828125 299.726562 L 178.828125 299.640625 L 180.042969 299.503906 L 180.042969 297.609375 L 162.390625 297.601562 L 162.390625 296.710938 L 189.832031 296.703125 L 189.902344 299.804688 L 188.402344 300.019531 L 186.546875 300.226562 L 184.757812 300.386719 L 182.902344 300.519531 L 180.257812 300.671875 L 178.113281 300.765625 L 174.824219 300.878906 L 171.824219 300.949219 L 168.679688 300.996094 L 165.894531 301.019531 L 162.605469 301.027344 L 159.675781 301.011719 L 156.53125 300.964844 L 154.03125 300.902344 L 151.746094 300.824219 L 149.457031 300.71875 L 146.601562 300.554688 L 144.742188 300.417969 L 142.8125 300.25 L 140.882812 300.050781 L 139.167969 299.839844 L 138.027344 299.671875 L 136.882812 299.480469 L 135.667969 299.242188 L 134.523438 298.972656 L 133.667969 298.726562 L 132.878906 298.449219 L 132.308594 298.1875 L 131.738281 297.828125 L 131.453125 297.542969 L 131.308594 297.296875 Z M 131.308594 296.058594 "/>
<path style=" stroke:none;fill-rule:nonzero;fill:rgb(83.921569%,15.686275%,22.352941%);fill-opacity:1;" d="M 131.308594 308.761719 L 189.902344 308.761719 L 189.902344 309.238281 L 165.484375 309.242188 L 165.484375 313.195312 L 155.65625 313.195312 L 155.65625 309.246094 L 155.515625 309.238281 L 131.308594 309.238281 Z M 131.308594 308.761719 "/>
<path style=" stroke:none;fill-rule:nonzero;fill:rgb(6.27451%,58.823529%,28.235294%);fill-opacity:1;" d="M 192.988281 309.949219 L 193.050781 309.929688 L 218.402344 292.613281 L 226.105469 292.613281 L 251.582031 309.964844 L 242.628906 309.964844 L 236.246094 305.433594 L 208.261719 305.433594 L 202.003906 309.949219 L 192.988281 309.949219 L 210.953125 303.5625 L 233.679688 303.546875 L 222.347656 295.449219 L 222.222656 295.433594 L 222.097656 295.480469 L 210.890625 303.546875 L 210.953125 303.5625 Z M 192.988281 309.949219 "/>
<path style=" stroke:none;fill-rule:nonzero;fill:rgb(14.509804%,36.078431%,60%);fill-opacity:1;" d="M 192.988281 180.84375 L 193.058594 180.664062 L 193.058594 176.371094 L 193.273438 169.570312 L 193.773438 160.980469 L 194.273438 155.074219 L 195.558594 144.515625 L 197.347656 134.316406 L 199.203125 126.441406 L 200.5625 121.789062 L 201.777344 118.210938 L 204.5625 111.589844 L 206.351562 108.1875 L 208.28125 105.148438 L 210.636719 102.105469 L 212.351562 100.316406 L 216.210938 97.453125 L 219.070312 96.199219 L 221.285156 95.664062 L 226.074219 95.664062 L 228.929688 96.378906 L 231.003906 97.273438 L 233.289062 98.703125 L 235.21875 100.316406 L 238.578125 104.253906 L 241.578125 109.261719 L 242.9375 112.125 L 245.082031 117.671875 L 246.722656 123.042969 L 247.867188 127.695312 L 249.152344 134.316406 L 250.296875 142.371094 L 251.152344 151.496094 L 251.582031 159.191406 L 241.578125 159.191406 L 241.078125 152.03125 L 240.507812 146.484375 L 239.433594 139.148438 L 238.363281 133.957031 L 236.863281 128.769531 L 235.503906 125.367188 L 233.648438 121.96875 L 232.003906 119.820312 L 230.289062 118.210938 L 228.644531 117.136719 L 225.5 116.0625 L 221.855469 116.0625 L 220.5 116.421875 L 217.710938 117.851562 L 216.210938 119.105469 L 214.066406 121.609375 L 212.566406 123.9375 L 210.78125 127.515625 L 209.566406 130.558594 L 208.066406 135.210938 L 206.992188 139.328125 L 205.777344 145.234375 L 205.0625 149.707031 L 204.421875 154.71875 L 203.847656 160.621094 L 203.421875 166.886719 L 203.132812 173.507812 L 202.992188 179.949219 L 202.992188 207.6875 L 203.132812 214.128906 L 203.492188 221.644531 L 204.421875 232.5625 L 205.777344 242.046875 L 207.351562 249.5625 L 208.851562 254.933594 L 209.707031 257.4375 L 210.851562 260.300781 L 212.636719 263.878906 L 215.210938 267.457031 L 216.710938 268.890625 L 219 270.320312 L 221.355469 271.039062 L 224.5 271.039062 L 227.289062 270.320312 L 229.144531 269.425781 L 231.074219 267.996094 L 233.71875 264.953125 L 235.363281 262.089844 L 236.792969 258.691406 L 237.863281 255.289062 L 238.578125 252.425781 L 239.648438 246.878906 L 240.507812 240.792969 L 241.148438 234.53125 L 241.578125 228.445312 L 251.582031 228.445312 L 251.152344 235.605469 L 250.511719 242.585938 L 249.867188 247.773438 L 248.867188 254.039062 L 247.722656 259.585938 L 246.082031 265.847656 L 244.722656 269.964844 L 242.9375 274.4375 L 241.292969 277.839844 L 239.507812 280.878906 L 236.863281 284.460938 L 235.148438 286.25 L 233.289062 287.859375 L 231.074219 289.292969 L 228.289062 290.542969 L 225.285156 291.261719 L 222.5 291.4375 L 219.5 291.082031 L 217.285156 290.363281 L 214.351562 288.753906 L 210.710938 285.535156 L 208.066406 282.132812 L 205.992188 278.734375 L 204.207031 275.152344 L 202.207031 270.320312 L 199.632812 262.449219 L 198.0625 256.363281 L 196.988281 251.351562 L 195.773438 244.375 L 194.917969 238.109375 L 193.917969 228.089844 L 193.203125 215.382812 L 192.988281 205.539062 Z M 192.988281 180.84375 "/>
<path style=" stroke:none;fill-rule:nonzero;fill:rgb(96.862745%,70.196078%,16.862745%);fill-opacity:1;" d="M 192.988281 311.804688 L 193.058594 311.804688 L 193.058594 311.777344 L 193.34375 311.710938 L 194.058594 311.625 L 194.988281 311.550781 L 195.988281 311.496094 L 196.632812 311.464844 L 197.703125 311.421875 L 198.632812 311.390625 L 200.992188 311.328125 L 203.992188 311.265625 L 205.636719 311.242188 L 207.492188 311.21875 L 210.136719 311.191406 L 211.351562 311.179688 L 215.066406 311.15625 L 219.285156 311.144531 L 223.929688 311.140625 L 226.074219 311.140625 L 229.003906 311.144531 L 233.003906 311.160156 L 235.289062 311.175781 L 237.078125 311.191406 L 238.933594 311.207031 L 241.222656 311.238281 L 243.367188 311.269531 L 245.082031 311.304688 L 246.796875 311.347656 L 248.222656 311.394531 L 249.4375 311.441406 L 250.511719 311.503906 L 251.152344 311.550781 L 251.582031 311.601562 L 241.648438 311.601562 L 241.078125 311.550781 L 240.433594 311.515625 L 239.363281 311.46875 L 238.292969 311.433594 L 237.21875 311.40625 L 235.21875 311.371094 L 233.503906 311.347656 L 231.359375 311.328125 L 229.289062 311.3125 L 226.929688 311.304688 L 225.5 311.300781 L 221.714844 311.300781 L 218.285156 311.3125 L 216.28125 311.324219 L 214.855469 311.335938 L 212.851562 311.355469 L 211.636719 311.375 L 210.921875 311.386719 L 208.78125 311.429688 L 207.351562 311.46875 L 206.566406 311.496094 L 205.5625 311.539062 L 204.851562 311.578125 L 204.0625 311.632812 L 203.636719 311.675781 L 203.0625 311.773438 L 202.992188 312.027344 L 203.207031 312.082031 L 203.636719 312.140625 L 204.207031 312.191406 L 205.0625 312.246094 L 205.921875 312.289062 L 207.421875 312.34375 L 208.707031 312.378906 L 209.707031 312.402344 L 211.636719 312.441406 L 212.425781 312.453125 L 214.28125 312.480469 L 216.210938 312.5 L 218.570312 312.515625 L 220.355469 312.527344 L 223.214844 312.53125 L 226.859375 312.53125 L 231.144531 312.523438 L 233.863281 312.511719 L 235.71875 312.5 L 236.933594 312.492188 L 238.433594 312.476562 L 239.507812 312.460938 L 240.507812 312.445312 L 241.722656 312.421875 L 241.722656 312.082031 L 224.070312 312.082031 L 224.070312 311.921875 L 251.511719 311.921875 L 251.582031 312.476562 L 250.082031 312.515625 L 248.222656 312.550781 L 246.4375 312.578125 L 244.578125 312.605469 L 241.9375 312.632812 L 239.792969 312.648438 L 236.503906 312.667969 L 233.503906 312.679688 L 230.359375 312.691406 L 227.574219 312.695312 L 224.285156 312.695312 L 221.355469 312.691406 L 218.210938 312.683594 L 215.710938 312.671875 L 213.425781 312.65625 L 211.136719 312.640625 L 208.28125 312.609375 L 206.421875 312.585938 L 204.492188 312.554688 L 202.5625 312.519531 L 200.847656 312.480469 L 199.703125 312.453125 L 198.5625 312.417969 L 197.347656 312.375 L 196.203125 312.328125 L 195.347656 312.28125 L 194.558594 312.234375 L 193.988281 312.1875 L 193.417969 312.121094 L 193.128906 312.070312 L 192.988281 312.027344 Z M 192.988281 311.804688 "/>
<path style=" stroke:none;fill-rule:nonzero;fill:rgb(96.862745%,70.196078%,16.862745%);fill-opacity:1;" d="M 254.667969 145.496094 L 254.738281 145.226562 L 254.738281 139.90625 L 255.023438 127.925781 L 255.738281 111.425781 L 256.667969 97.851562 L 257.667969 87.203125 L 258.3125 81.613281 L 259.382812 73.628906 L 260.3125 67.773438 L 262.671875 55.796875 L 265.671875 44.617188 L 267.316406 39.828125 L 269.171875 35.300781 L 271.816406 30.246094 L 273.03125 28.382812 L 276.746094 24.125 L 280.964844 21.460938 L 285.609375 20.664062 L 287.75 20.929688 L 290.679688 21.992188 L 294.683594 24.921875 L 296.96875 27.582031 L 298.757812 30.246094 L 300.613281 33.703125 L 302.902344 39.027344 L 305.042969 45.417969 L 306.757812 51.804688 L 308.472656 59.789062 L 309.902344 68.304688 L 311.117188 77.621094 L 312.191406 88.800781 L 312.832031 98.117188 L 313.261719 107.433594 L 303.328125 107.433594 L 302.757812 98.117188 L 302.113281 90.929688 L 301.042969 82.148438 L 299.972656 75.757812 L 298.898438 70.703125 L 296.898438 63.78125 L 295.183594 59.523438 L 293.039062 55.796875 L 290.96875 53.402344 L 288.609375 51.804688 L 287.179688 51.273438 L 283.394531 51.273438 L 279.960938 53.136719 L 277.960938 55.265625 L 276.53125 57.394531 L 274.53125 61.386719 L 273.316406 64.582031 L 272.601562 66.710938 L 270.457031 74.960938 L 269.03125 82.414062 L 268.242188 87.46875 L 267.242188 95.457031 L 266.527344 102.640625 L 265.742188 113.289062 L 265.3125 121.273438 L 264.742188 139.371094 L 264.671875 187.28125 L 264.886719 197.398438 L 265.3125 208.308594 L 265.886719 217.890625 L 266.742188 228.003906 L 267.601562 235.722656 L 269.101562 246.105469 L 270.386719 253.023438 L 271.386719 257.550781 L 273.316406 264.738281 L 274.101562 267.132812 L 275.960938 271.921875 L 277.890625 275.648438 L 280.25 278.84375 L 282.035156 280.441406 L 284.894531 281.769531 L 288.539062 281.769531 L 292.824219 280.175781 L 295.539062 278.042969 L 297.398438 275.914062 L 298.613281 274.050781 L 300.113281 271.125 L 301.1875 268.460938 L 302.1875 265.535156 L 303.402344 261.011719 L 303.402344 197.398438 L 285.75 197.128906 L 285.75 167.320312 L 313.191406 167.054688 L 313.261719 271.125 L 311.761719 278.3125 L 309.902344 285.230469 L 308.117188 290.554688 L 306.257812 295.078125 L 303.617188 300.136719 L 301.472656 303.332031 L 298.183594 307.058594 L 295.183594 309.453125 L 292.039062 311.050781 L 289.253906 311.847656 L 285.964844 312.113281 L 283.035156 311.582031 L 279.890625 309.984375 L 277.390625 307.855469 L 275.105469 305.195312 L 272.816406 301.734375 L 269.957031 296.144531 L 268.101562 291.617188 L 266.171875 286.03125 L 264.242188 279.375 L 262.527344 272.1875 L 261.382812 266.597656 L 260.242188 260.210938 L 259.027344 252.226562 L 257.882812 243.175781 L 257.023438 234.925781 L 256.238281 225.609375 L 255.667969 216.828125 L 255.09375 204.847656 L 254.808594 195.265625 L 254.667969 187.015625 Z M 254.667969 145.496094 "/>
<path style=" stroke:none;fill-rule:nonzero;fill:rgb(96.862745%,70.196078%,16.862745%);fill-opacity:1;" d="M 316.347656 148.664062 L 316.417969 148.40625 L 316.417969 143.242188 L 316.703125 131.621094 L 317.417969 115.613281 L 318.347656 102.445312 L 319.347656 92.113281 L 319.992188 86.691406 L 321.0625 78.945312 L 321.992188 73.265625 L 324.347656 61.644531 L 327.351562 50.800781 L 328.992188 46.152344 L 330.851562 41.761719 L 333.496094 36.855469 L 334.710938 35.046875 L 338.425781 30.917969 L 342.640625 28.335938 L 347.289062 27.558594 L 349.429688 27.820312 L 352.359375 28.851562 L 356.363281 31.691406 L 358.648438 34.273438 L 360.433594 36.855469 L 362.292969 40.214844 L 364.578125 45.378906 L 366.722656 51.574219 L 368.4375 57.773438 L 370.152344 65.519531 L 371.582031 73.78125 L 372.796875 82.820312 L 373.871094 93.664062 L 374.511719 102.703125 L 374.941406 111.738281 L 365.007812 111.738281 L 364.4375 102.703125 L 363.792969 95.730469 L 362.722656 87.207031 L 361.648438 81.011719 L 360.578125 76.105469 L 358.578125 69.390625 L 356.863281 65.261719 L 354.71875 61.644531 L 352.644531 59.320312 L 350.289062 57.773438 L 348.859375 57.253906 L 345.070312 57.253906 L 341.640625 59.0625 L 339.640625 61.128906 L 338.210938 63.195312 L 336.210938 67.066406 L 334.996094 70.167969 L 334.28125 72.230469 L 332.136719 80.238281 L 330.707031 87.46875 L 329.921875 92.371094 L 328.921875 100.121094 L 328.207031 107.089844 L 327.421875 117.421875 L 326.992188 125.167969 L 326.421875 142.726562 L 326.351562 189.203125 L 326.5625 199.015625 L 326.992188 209.605469 L 327.566406 218.898438 L 328.421875 228.710938 L 329.28125 236.199219 L 330.78125 246.269531 L 332.066406 252.984375 L 333.066406 257.375 L 334.996094 264.347656 L 335.78125 266.667969 L 337.640625 271.316406 L 339.570312 274.933594 L 341.929688 278.03125 L 343.714844 279.582031 L 346.574219 280.871094 L 350.21875 280.871094 L 354.503906 279.324219 L 357.21875 277.257812 L 359.078125 275.191406 L 360.292969 273.382812 L 361.792969 270.542969 L 362.863281 267.960938 L 363.867188 265.121094 L 365.078125 260.730469 L 365.078125 199.015625 L 347.429688 198.757812 L 347.429688 169.839844 L 374.871094 169.578125 L 374.941406 270.542969 L 373.441406 277.515625 L 371.582031 284.230469 L 369.796875 289.394531 L 367.9375 293.78125 L 365.292969 298.6875 L 363.152344 301.789062 L 359.863281 305.402344 L 356.863281 307.726562 L 353.71875 309.277344 L 350.929688 310.050781 L 347.644531 310.308594 L 344.714844 309.792969 L 341.570312 308.242188 L 339.070312 306.175781 L 336.78125 303.59375 L 334.496094 300.238281 L 331.636719 294.816406 L 329.78125 290.425781 L 327.851562 285.003906 L 325.921875 278.546875 L 324.207031 271.574219 L 323.0625 266.152344 L 321.917969 259.957031 L 320.703125 252.210938 L 319.5625 243.429688 L 318.703125 235.425781 L 317.917969 226.386719 L 317.347656 217.867188 L 316.773438 206.246094 L 316.488281 196.949219 L 316.347656 188.945312 Z M 316.347656 148.664062 "/>
<path style=" stroke:none;fill-rule:nonzero;fill:rgb(83.921569%,15.686275%,22.352941%);fill-opacity:1;" d="M 316.347656 311.484375 L 374.941406 311.484375 L 374.941406 311.667969 L 350.519531 311.667969 L 350.519531 313.195312 L 340.695312 313.195312 L 340.695312 311.671875 L 340.554688 311.667969 L 316.347656 311.667969 Z M 316.347656 311.484375 "/>
<path style=" stroke:none;fill-rule:nonzero;fill:rgb(6.27451%,58.823529%,28.235294%);fill-opacity:1;" d="M 378.023438 305.484375 L 378.085938 305.242188 L 403.441406 48.355469 L 411.140625 48.355469 L 436.621094 305.726562 L 427.667969 305.726562 L 421.28125 238.542969 L 393.300781 238.542969 L 387.039062 305.484375 L 378.023438 305.484375 L 395.992188 210.753906 L 418.714844 210.511719 L 407.386719 90.40625 L 407.261719 90.164062 L 407.136719 90.886719 L 395.929688 210.511719 L 395.992188 210.753906 Z M 378.023438 305.484375 "/>
<path style=" stroke:none;fill-rule:nonzero;fill:rgb(14.509804%,36.078431%,60%);fill-opacity:1;" d="M 378.023438 311.886719 L 378.097656 311.886719 L 378.097656 311.882812 L 378.3125 311.875 L 378.8125 311.867188 L 379.3125 311.863281 L 380.597656 311.851562 L 382.382812 311.839844 L 384.242188 311.832031 L 385.601562 311.828125 L 386.8125 311.824219 L 389.601562 311.816406 L 391.386719 311.8125 L 393.316406 311.8125 L 395.675781 311.808594 L 397.390625 311.804688 L 401.25 311.804688 L 404.105469 311.800781 L 413.96875 311.800781 L 416.039062 311.804688 L 420.257812 311.804688 L 423.613281 311.808594 L 426.617188 311.816406 L 427.972656 311.816406 L 430.117188 311.824219 L 431.761719 311.828125 L 432.90625 311.832031 L 434.191406 311.839844 L 435.335938 311.847656 L 436.191406 311.859375 L 436.621094 311.867188 L 426.617188 311.867188 L 426.117188 311.859375 L 425.542969 311.851562 L 424.472656 311.84375 L 423.402344 311.839844 L 421.898438 311.835938 L 420.542969 311.832031 L 418.683594 311.828125 L 417.039062 311.824219 L 413.683594 311.824219 L 410.539062 311.820312 L 406.894531 311.820312 L 405.535156 311.824219 L 401.25 311.824219 L 399.105469 311.828125 L 397.605469 311.832031 L 395.816406 311.832031 L 394.601562 311.835938 L 393.101562 311.839844 L 392.03125 311.847656 L 390.816406 311.851562 L 390.101562 311.855469 L 389.457031 311.863281 L 388.886719 311.867188 L 388.457031 311.875 L 388.171875 311.878906 L 388.027344 311.886719 L 388.027344 311.914062 L 388.171875 311.921875 L 388.53125 311.929688 L 389.457031 311.941406 L 390.816406 311.949219 L 392.386719 311.957031 L 393.890625 311.964844 L 394.746094 311.964844 L 395.890625 311.96875 L 397.675781 311.972656 L 400.25 311.976562 L 401.75 311.976562 L 404.035156 311.980469 L 412.324219 311.980469 L 414.183594 311.976562 L 416.113281 311.976562 L 418.757812 311.972656 L 420.398438 311.972656 L 421.828125 311.96875 L 422.902344 311.964844 L 423.613281 311.960938 L 424.6875 311.957031 L 425.542969 311.949219 L 426.1875 311.941406 L 426.617188 311.9375 L 436.621094 311.9375 L 436.191406 311.945312 L 435.546875 311.949219 L 434.90625 311.957031 L 433.90625 311.960938 L 432.761719 311.96875 L 431.117188 311.976562 L 429.761719 311.980469 L 427.972656 311.984375 L 426.332031 311.988281 L 424.542969 311.988281 L 421.898438 311.992188 L 420.183594 311.996094 L 418.328125 311.996094 L 416.113281 312 L 399.390625 312 L 395.746094 311.996094 L 393.101562 311.992188 L 391.03125 311.988281 L 389.242188 311.984375 L 387.242188 311.980469 L 384.671875 311.972656 L 383.097656 311.964844 L 382.027344 311.960938 L 380.8125 311.953125 L 379.953125 311.945312 L 378.953125 311.9375 L 378.238281 311.921875 L 378.023438 311.914062 Z M 378.023438 311.886719 "/>
<path style=" stroke:none;fill-rule:nonzero;fill:rgb(96.862745%,70.196078%,16.862745%);fill-opacity:1;" d="M 378.023438 313.183594 L 379.097656 313.183594 L 380.027344 313.179688 L 386.027344 313.179688 L 389.03125 313.175781 L 428.402344 313.175781 L 430.117188 313.179688 L 436.621094 313.179688 L 389.886719 313.179688 L 389.101562 313.183594 L 388.101562 313.183594 L 388.027344 313.1875 L 389.242188 313.1875 L 390.101562 313.191406 L 401.25 313.191406 L 403.605469 313.195312 L 418.898438 313.195312 L 420.757812 313.191406 L 426.757812 313.191406 L 426.757812 313.1875 L 409.109375 313.1875 L 436.550781 313.1875 L 436.621094 313.191406 L 435.121094 313.195312 L 387.601562 313.195312 L 385.886719 313.191406 L 379.597656 313.191406 L 379.027344 313.1875 L 378.023438 313.1875 Z M 378.023438 313.183594 "/>
<path style=" stroke:none;fill-rule:nonzero;fill:rgb(83.921569%,15.686275%,22.352941%);fill-opacity:1;" d="M 378.023438 306.902344 L 436.621094 306.902344 L 436.621094 307.300781 L 412.199219 307.304688 L 412.199219 310.625 L 402.375 310.625 L 402.375 307.308594 L 402.230469 307.300781 L 378.023438 307.300781 Z M 378.023438 306.902344 "/>
<path style=" stroke:none;fill-rule:nonzero;fill:rgb(6.27451%,58.823529%,28.235294%);fill-opacity:1;" d="M 439.703125 266.199219 L 439.765625 266.144531 L 465.121094 210.332031 L 472.820312 210.332031 L 498.300781 266.25 L 489.347656 266.25 L 482.960938 251.652344 L 454.980469 251.652344 L 448.71875 266.199219 L 439.703125 266.199219 L 457.671875 245.617188 L 480.394531 245.5625 L 469.066406 219.46875 L 468.9375 219.414062 L 468.8125 219.574219 L 457.609375 245.5625 L 457.671875 245.617188 Z M 439.703125 266.199219 "/>
<path style=" stroke:none;fill-rule:nonzero;fill:rgb(14.509804%,36.078431%,60%);fill-opacity:1;" d="M 439.703125 309.417969 L 439.777344 309.414062 L 439.777344 309.347656 L 439.988281 309.246094 L 440.492188 309.113281 L 440.992188 309.023438 L 442.277344 308.859375 L 444.0625 308.703125 L 445.921875 308.582031 L 447.277344 308.511719 L 448.492188 308.457031 L 451.28125 308.355469 L 453.066406 308.300781 L 454.996094 308.253906 L 457.355469 308.207031 L 459.070312 308.179688 L 462.929688 308.136719 L 465.785156 308.117188 L 468 308.109375 L 472.789062 308.109375 L 475.648438 308.121094 L 477.71875 308.132812 L 480.007812 308.15625 L 481.9375 308.179688 L 485.292969 308.242188 L 488.296875 308.320312 L 489.652344 308.363281 L 491.796875 308.449219 L 493.441406 308.53125 L 494.582031 308.601562 L 495.871094 308.703125 L 497.011719 308.828125 L 497.871094 308.96875 L 498.300781 309.085938 L 488.296875 309.085938 L 487.796875 308.976562 L 487.222656 308.890625 L 486.152344 308.777344 L 485.078125 308.699219 L 483.578125 308.617188 L 482.222656 308.566406 L 480.363281 308.515625 L 478.71875 308.480469 L 477.003906 308.457031 L 475.363281 308.441406 L 472.21875 308.421875 L 468.574219 308.421875 L 467.214844 308.429688 L 464.429688 308.449219 L 462.929688 308.46875 L 460.785156 308.507812 L 459.285156 308.542969 L 457.496094 308.597656 L 456.28125 308.644531 L 454.78125 308.71875 L 453.710938 308.78125 L 452.496094 308.871094 L 451.78125 308.941406 L 451.136719 309.015625 L 450.566406 309.105469 L 450.136719 309.203125 L 449.851562 309.304688 L 449.707031 309.402344 L 449.707031 309.832031 L 449.851562 309.929688 L 450.207031 310.042969 L 451.136719 310.210938 L 452.496094 310.359375 L 454.066406 310.472656 L 455.566406 310.554688 L 456.425781 310.59375 L 457.570312 310.636719 L 459.355469 310.691406 L 461.925781 310.75 L 463.429688 310.769531 L 465.714844 310.792969 L 468.074219 310.804688 L 471.21875 310.804688 L 474.003906 310.792969 L 475.863281 310.777344 L 477.792969 310.757812 L 480.433594 310.710938 L 482.078125 310.664062 L 483.507812 310.613281 L 484.578125 310.5625 L 485.292969 310.515625 L 486.367188 310.433594 L 487.222656 310.339844 L 487.867188 310.242188 L 488.296875 310.148438 L 498.300781 310.148438 L 497.871094 310.257812 L 497.226562 310.367188 L 496.585938 310.445312 L 495.585938 310.542969 L 494.441406 310.628906 L 492.796875 310.722656 L 491.441406 310.785156 L 489.652344 310.855469 L 488.007812 310.90625 L 486.222656 310.953125 L 483.578125 311.007812 L 481.863281 311.035156 L 480.007812 311.0625 L 477.792969 311.082031 L 475.003906 311.101562 L 472.003906 311.113281 L 469.214844 311.117188 L 466.214844 311.109375 L 464 311.101562 L 461.070312 311.074219 L 457.425781 311.027344 L 454.78125 310.972656 L 452.710938 310.921875 L 450.921875 310.867188 L 448.921875 310.792969 L 446.351562 310.671875 L 444.777344 310.578125 L 443.707031 310.5 L 442.492188 310.394531 L 441.632812 310.296875 L 440.632812 310.144531 L 439.917969 309.949219 L 439.703125 309.796875 Z M 439.703125 309.417969 "/>
<path style=" stroke:none;fill-rule:nonzero;fill:rgb(96.862745%,70.196078%,16.862745%);fill-opacity:1;" d="M 439.703125 312.679688 L 439.777344 312.679688 L 439.777344 312.660156 L 440.0625 312.625 L 440.777344 312.574219 L 441.707031 312.53125 L 442.707031 312.496094 L 443.347656 312.480469 L 444.421875 312.457031 L 445.347656 312.4375 L 447.707031 312.398438 L 450.707031 312.367188 L 452.351562 312.351562 L 454.210938 312.335938 L 456.855469 312.320312 L 458.070312 312.316406 L 461.785156 312.300781 L 466 312.292969 L 472.789062 312.292969 L 475.71875 312.296875 L 479.71875 312.304688 L 482.007812 312.3125 L 483.792969 312.320312 L 485.652344 312.332031 L 487.9375 312.347656 L 490.082031 312.367188 L 491.796875 312.386719 L 493.511719 312.414062 L 494.941406 312.4375 L 496.15625 312.46875 L 497.226562 312.503906 L 497.871094 312.53125 L 498.300781 312.558594 L 488.367188 312.558594 L 487.796875 312.53125 L 487.152344 312.507812 L 486.082031 312.480469 L 485.007812 312.460938 L 483.9375 312.445312 L 481.9375 312.425781 L 480.222656 312.410156 L 478.078125 312.398438 L 476.003906 312.394531 L 473.648438 312.386719 L 468.429688 312.386719 L 465 312.390625 L 463 312.398438 L 461.570312 312.40625 L 459.570312 312.417969 L 458.355469 312.425781 L 457.640625 312.433594 L 455.496094 312.460938 L 454.066406 312.484375 L 453.28125 312.5 L 452.28125 312.523438 L 451.566406 312.546875 L 450.78125 312.578125 L 450.351562 312.601562 L 449.78125 312.660156 L 449.707031 312.808594 L 449.921875 312.839844 L 450.351562 312.875 L 450.921875 312.902344 L 451.78125 312.933594 L 452.636719 312.957031 L 454.140625 312.992188 L 455.425781 313.011719 L 456.425781 313.027344 L 458.355469 313.046875 L 459.140625 313.054688 L 461 313.070312 L 462.929688 313.082031 L 465.285156 313.09375 L 467.074219 313.097656 L 469.929688 313.101562 L 473.574219 313.101562 L 477.863281 313.097656 L 480.578125 313.089844 L 482.4375 313.082031 L 483.652344 313.078125 L 485.152344 313.070312 L 486.222656 313.058594 L 487.222656 313.050781 L 488.4375 313.039062 L 488.4375 312.839844 L 470.789062 312.839844 L 470.789062 312.746094 L 498.226562 312.746094 L 498.300781 313.070312 L 496.800781 313.089844 L 494.941406 313.113281 L 493.15625 313.128906 L 491.296875 313.144531 L 488.652344 313.160156 L 486.507812 313.167969 L 483.222656 313.179688 L 480.222656 313.1875 L 477.078125 313.191406 L 474.289062 313.195312 L 468.074219 313.195312 L 464.929688 313.1875 L 462.429688 313.183594 L 460.140625 313.175781 L 457.855469 313.164062 L 454.996094 313.144531 L 453.136719 313.132812 L 451.210938 313.113281 L 449.28125 313.09375 L 447.566406 313.070312 L 446.421875 313.054688 L 445.277344 313.035156 L 444.0625 313.011719 L 442.921875 312.980469 L 442.0625 312.957031 L 441.277344 312.925781 L 440.703125 312.898438 L 440.132812 312.863281 L 439.847656 312.832031 L 439.703125 312.808594 Z M 439.703125 312.679688 "/>
<path style=" stroke:none;fill-rule:nonzero;fill:rgb(83.921569%,15.686275%,22.352941%);fill-opacity:1;" d="M 439.703125 267.425781 L 498.300781 267.425781 L 498.300781 271.65625 L 473.878906 271.691406 L 473.878906 306.933594 L 464.054688 306.933594 L 464.054688 271.730469 L 463.910156 271.65625 L 439.703125 271.65625 Z M 439.703125 267.425781 "/>
<path style=" stroke:none;fill-rule:nonzero;fill:rgb(6.27451%,58.823529%,28.235294%);fill-opacity:1;" d="M 501.382812 300.285156 L 501.445312 300.269531 L 526.800781 281.601562 L 534.5 281.601562 L 559.980469 300.304688 L 551.027344 300.304688 L 544.640625 295.421875 L 516.660156 295.421875 L 510.398438 300.285156 L 501.382812 300.285156 L 519.351562 293.402344 L 542.074219 293.382812 L 530.742188 284.65625 L 530.617188 284.640625 L 530.492188 284.691406 L 519.289062 293.382812 L 519.351562 293.402344 Z M 501.382812 300.285156 "/>
<path style=" stroke:none;fill-rule:nonzero;fill:rgb(14.509804%,36.078431%,60%);fill-opacity:1;" d="M 501.382812 305.335938 L 501.453125 305.328125 L 501.453125 305.132812 L 501.667969 304.824219 L 502.167969 304.4375 L 502.667969 304.167969 L 503.957031 303.691406 L 505.742188 303.230469 L 507.601562 302.871094 L 508.957031 302.660156 L 510.171875 302.5 L 512.960938 302.199219 L 514.746094 302.046875 L 516.675781 301.90625 L 519.035156 301.769531 L 520.75 301.6875 L 524.605469 301.558594 L 527.464844 301.503906 L 529.679688 301.476562 L 534.46875 301.476562 L 537.328125 301.511719 L 539.398438 301.550781 L 541.6875 301.617188 L 543.613281 301.6875 L 546.972656 301.867188 L 549.976562 302.09375 L 551.332031 302.222656 L 553.476562 302.476562 L 555.121094 302.71875 L 556.261719 302.929688 L 557.550781 303.230469 L 558.691406 303.59375 L 559.550781 304.007812 L 559.980469 304.355469 L 549.976562 304.355469 L 549.472656 304.03125 L 548.902344 303.78125 L 547.832031 303.449219 L 546.757812 303.214844 L 545.257812 302.976562 L 543.902344 302.824219 L 542.042969 302.667969 L 540.398438 302.574219 L 538.683594 302.5 L 537.039062 302.449219 L 533.898438 302.402344 L 530.253906 302.402344 L 528.894531 302.417969 L 526.109375 302.484375 L 524.605469 302.539062 L 522.464844 302.652344 L 520.960938 302.757812 L 519.175781 302.921875 L 517.960938 303.058594 L 516.460938 303.269531 L 515.390625 303.457031 L 514.175781 303.722656 L 513.460938 303.925781 L 512.816406 304.152344 L 512.246094 304.421875 L 511.816406 304.703125 L 511.53125 305.003906 L 511.386719 305.296875 L 511.386719 306.550781 L 511.53125 306.84375 L 511.886719 307.183594 L 512.816406 307.679688 L 514.175781 308.109375 L 515.746094 308.449219 L 517.246094 308.691406 L 518.105469 308.804688 L 519.246094 308.933594 L 521.035156 309.097656 L 523.605469 309.257812 L 525.105469 309.324219 L 527.394531 309.390625 L 529.753906 309.421875 L 532.894531 309.421875 L 535.683594 309.390625 L 537.542969 309.347656 L 539.46875 309.285156 L 542.113281 309.144531 L 543.757812 309.015625 L 545.1875 308.863281 L 546.257812 308.707031 L 546.972656 308.578125 L 548.046875 308.328125 L 548.902344 308.050781 L 549.546875 307.769531 L 549.976562 307.492188 L 559.980469 307.492188 L 559.550781 307.816406 L 558.90625 308.132812 L 558.265625 308.367188 L 557.261719 308.652344 L 556.121094 308.902344 L 554.476562 309.1875 L 553.117188 309.371094 L 551.332031 309.574219 L 549.6875 309.730469 L 547.902344 309.867188 L 545.257812 310.03125 L 543.542969 310.109375 L 541.6875 310.183594 L 539.46875 310.25 L 536.683594 310.304688 L 533.683594 310.335938 L 530.894531 310.34375 L 527.894531 310.328125 L 525.679688 310.296875 L 522.75 310.222656 L 519.105469 310.078125 L 516.460938 309.925781 L 514.390625 309.769531 L 512.601562 309.609375 L 510.601562 309.390625 L 508.027344 309.03125 L 506.457031 308.757812 L 505.386719 308.53125 L 504.171875 308.214844 L 503.3125 307.929688 L 502.3125 307.476562 L 501.597656 306.902344 L 501.382812 306.453125 Z M 501.382812 305.335938 "/>
<path style=" stroke:none;fill-rule:nonzero;fill:rgb(96.862745%,70.196078%,16.862745%);fill-opacity:1;" d="M 501.382812 244.566406 L 501.453125 244.507812 L 501.453125 243.363281 L 501.742188 240.785156 L 502.457031 237.234375 L 503.382812 234.3125 L 504.382812 232.019531 L 505.027344 230.820312 L 506.101562 229.101562 L 507.027344 227.839844 L 509.386719 225.261719 L 512.386719 222.855469 L 514.03125 221.824219 L 515.890625 220.851562 L 518.535156 219.761719 L 519.75 219.363281 L 523.464844 218.445312 L 527.679688 217.871094 L 532.324219 217.699219 L 534.46875 217.757812 L 537.398438 217.988281 L 541.398438 218.617188 L 543.6875 219.191406 L 545.472656 219.761719 L 547.332031 220.507812 L 549.617188 221.652344 L 551.761719 223.027344 L 553.476562 224.402344 L 555.191406 226.121094 L 556.621094 227.953125 L 557.835938 229.960938 L 558.90625 232.363281 L 559.550781 234.371094 L 559.980469 236.375 L 550.046875 236.375 L 549.472656 234.371094 L 548.832031 232.824219 L 547.757812 230.933594 L 546.6875 229.558594 L 545.617188 228.46875 L 543.613281 226.980469 L 541.898438 226.0625 L 539.757812 225.261719 L 537.683594 224.746094 L 535.324219 224.402344 L 533.898438 224.289062 L 530.109375 224.289062 L 526.679688 224.6875 L 524.679688 225.148438 L 523.25 225.605469 L 521.25 226.464844 L 520.035156 227.152344 L 519.320312 227.609375 L 517.175781 229.386719 L 515.746094 230.992188 L 514.960938 232.078125 L 513.960938 233.796875 L 513.246094 235.34375 L 512.460938 237.636719 L 512.03125 239.355469 L 511.460938 243.25 L 511.386719 253.558594 L 511.601562 255.738281 L 512.03125 258.085938 L 512.601562 260.148438 L 513.460938 262.324219 L 514.316406 263.984375 L 515.816406 266.21875 L 517.105469 267.710938 L 518.105469 268.683594 L 520.035156 270.230469 L 520.820312 270.746094 L 522.679688 271.777344 L 524.605469 272.578125 L 526.964844 273.265625 L 528.75 273.609375 L 531.609375 273.894531 L 535.253906 273.894531 L 539.542969 273.550781 L 542.257812 273.09375 L 544.113281 272.636719 L 545.328125 272.234375 L 546.832031 271.605469 L 547.902344 271.03125 L 548.902344 270.402344 L 550.117188 269.425781 L 550.117188 255.738281 L 532.46875 255.679688 L 532.46875 249.265625 L 559.90625 249.207031 L 559.980469 271.605469 L 558.476562 273.152344 L 556.621094 274.640625 L 554.832031 275.785156 L 552.976562 276.761719 L 550.332031 277.847656 L 548.1875 278.535156 L 544.902344 279.335938 L 541.898438 279.851562 L 538.753906 280.195312 L 535.96875 280.367188 L 532.683594 280.425781 L 529.753906 280.3125 L 526.609375 279.96875 L 524.105469 279.507812 L 521.820312 278.9375 L 519.535156 278.191406 L 516.675781 276.988281 L 514.816406 276.015625 L 512.886719 274.8125 L 510.957031 273.378906 L 509.242188 271.832031 L 508.101562 270.628906 L 506.957031 269.253906 L 505.742188 267.539062 L 504.597656 265.589844 L 503.742188 263.8125 L 502.957031 261.808594 L 502.382812 259.917969 L 501.8125 257.339844 L 501.527344 255.277344 L 501.382812 253.503906 Z M 501.382812 244.566406 "/>
<path style=" stroke:none;fill-rule:nonzero;fill:rgb(83.921569%,15.686275%,22.352941%);fill-opacity:1;" d="M 501.382812 311.519531 L 559.980469 311.519531 L 559.980469 311.699219 L 535.558594 311.703125 L 535.558594 313.195312 L 525.734375 313.195312 L 525.734375 311.703125 L 525.589844 311.699219 L 501.382812 311.699219 Z M 501.382812 311.519531 "/>
<path style=" stroke:none;fill-rule:nonzero;fill:rgb(6.27451%,58.823529%,28.235294%);fill-opacity:1;" d="M 563.0625 313.191406 L 563.125 313.191406 L 588.480469 310.351562 L 596.179688 310.351562 L 621.65625 313.195312 L 612.707031 313.195312 L 606.320312 312.453125 L 578.335938 312.453125 L 572.078125 313.191406 L 563.0625 313.191406 L 581.03125 312.148438 L 603.753906 312.144531 L 592.421875 310.816406 L 592.296875 310.8125 L 592.171875 310.824219 L 580.964844 312.144531 L 581.03125 312.148438 Z M 563.0625 313.191406 "/>
<path style=" stroke:none;fill-rule:nonzero;fill:rgb(14.509804%,36.078431%,60%);fill-opacity:1;" d="M 563.0625 294.121094 L 563.132812 294.105469 L 563.132812 293.757812 L 563.347656 293.199219 L 563.847656 292.496094 L 564.347656 292.015625 L 565.636719 291.152344 L 567.421875 290.320312 L 569.28125 289.675781 L 570.636719 289.292969 L 571.851562 289.003906 L 574.640625 288.460938 L 576.425781 288.183594 L 578.355469 287.933594 L 580.710938 287.6875 L 582.425781 287.539062 L 586.285156 287.304688 L 589.144531 287.203125 L 591.359375 287.160156 L 596.148438 287.160156 L 599.003906 287.21875 L 601.078125 287.289062 L 603.363281 287.40625 L 605.292969 287.539062 L 608.652344 287.859375 L 611.652344 288.269531 L 613.011719 288.503906 L 615.15625 288.957031 L 616.796875 289.398438 L 617.941406 289.777344 L 619.226562 290.320312 L 620.371094 290.976562 L 621.230469 291.722656 L 621.65625 292.351562 L 611.652344 292.351562 L 611.152344 291.765625 L 610.582031 291.3125 L 609.511719 290.714844 L 608.4375 290.289062 L 606.9375 289.863281 L 605.578125 289.585938 L 603.722656 289.308594 L 602.078125 289.132812 L 600.363281 289.003906 L 598.71875 288.914062 L 595.574219 288.828125 L 591.929688 288.828125 L 590.574219 288.855469 L 587.785156 288.972656 L 586.285156 289.074219 L 584.144531 289.28125 L 582.640625 289.46875 L 580.855469 289.761719 L 579.640625 290.011719 L 578.140625 290.390625 L 577.066406 290.726562 L 575.855469 291.210938 L 575.140625 291.578125 L 574.496094 291.984375 L 573.925781 292.46875 L 573.496094 292.980469 L 573.210938 293.523438 L 573.066406 294.046875 L 573.066406 296.316406 L 573.210938 296.84375 L 573.566406 297.457031 L 574.496094 298.347656 L 575.855469 299.125 L 577.425781 299.738281 L 578.925781 300.175781 L 579.785156 300.382812 L 580.925781 300.617188 L 582.714844 300.910156 L 585.285156 301.199219 L 586.785156 301.316406 L 589.074219 301.433594 L 591.429688 301.492188 L 594.574219 301.492188 L 597.363281 301.433594 L 599.21875 301.363281 L 601.148438 301.246094 L 603.792969 300.996094 L 605.4375 300.761719 L 606.867188 300.484375 L 607.9375 300.207031 L 608.652344 299.972656 L 609.722656 299.519531 L 610.582031 299.023438 L 611.226562 298.507812 L 611.652344 298.011719 L 621.65625 298.011719 L 621.230469 298.597656 L 620.585938 299.167969 L 619.941406 299.59375 L 618.941406 300.105469 L 617.800781 300.558594 L 616.15625 301.070312 L 614.796875 301.40625 L 613.011719 301.773438 L 611.367188 302.050781 L 609.582031 302.296875 L 606.9375 302.589844 L 605.222656 302.738281 L 603.363281 302.867188 L 601.148438 302.984375 L 598.363281 303.089844 L 595.363281 303.148438 L 592.574219 303.160156 L 589.574219 303.132812 L 587.359375 303.074219 L 584.429688 302.941406 L 580.785156 302.679688 L 578.140625 302.402344 L 576.066406 302.121094 L 574.28125 301.832031 L 572.28125 301.433594 L 569.707031 300.792969 L 568.136719 300.292969 L 567.0625 299.882812 L 565.847656 299.3125 L 564.992188 298.800781 L 563.992188 297.984375 L 563.277344 296.945312 L 563.0625 296.140625 Z M 563.0625 294.121094 "/>
<path style=" stroke:none;fill-rule:nonzero;fill:rgb(96.862745%,70.196078%,16.862745%);fill-opacity:1;" d="M 563.0625 306.410156 L 563.132812 306.40625 L 563.132812 306.316406 L 563.421875 306.117188 L 564.132812 305.84375 L 565.0625 305.617188 L 566.0625 305.441406 L 566.707031 305.347656 L 567.777344 305.214844 L 568.707031 305.117188 L 571.066406 304.917969 L 574.066406 304.734375 L 575.710938 304.65625 L 577.570312 304.578125 L 580.210938 304.496094 L 581.425781 304.464844 L 585.144531 304.394531 L 589.359375 304.347656 L 594.003906 304.335938 L 596.148438 304.339844 L 599.078125 304.359375 L 603.078125 304.40625 L 605.367188 304.449219 L 607.152344 304.496094 L 609.011719 304.550781 L 611.296875 304.640625 L 613.441406 304.746094 L 615.15625 304.851562 L 616.871094 304.984375 L 618.300781 305.128906 L 619.515625 305.28125 L 620.585938 305.46875 L 621.230469 305.621094 L 621.65625 305.777344 L 611.726562 305.777344 L 611.152344 305.621094 L 610.511719 305.503906 L 609.4375 305.355469 L 608.367188 305.25 L 607.292969 305.167969 L 605.292969 305.050781 L 603.578125 304.980469 L 601.433594 304.917969 L 599.363281 304.878906 L 597.003906 304.851562 L 595.574219 304.84375 L 591.789062 304.84375 L 588.359375 304.875 L 586.359375 304.910156 L 584.929688 304.945312 L 582.929688 305.011719 L 581.714844 305.066406 L 581 305.101562 L 578.855469 305.238281 L 577.425781 305.363281 L 576.640625 305.445312 L 575.640625 305.578125 L 574.925781 305.699219 L 574.136719 305.875 L 573.710938 306.007812 L 573.136719 306.308594 L 573.066406 307.105469 L 573.28125 307.273438 L 573.710938 307.453125 L 574.28125 307.613281 L 575.140625 307.78125 L 575.996094 307.910156 L 577.496094 308.082031 L 578.785156 308.195312 L 579.785156 308.269531 L 581.714844 308.390625 L 582.5 308.429688 L 584.355469 308.511719 L 586.285156 308.570312 L 588.644531 308.625 L 590.429688 308.652344 L 593.289062 308.671875 L 596.933594 308.671875 L 601.222656 308.648438 L 603.9375 308.613281 L 605.792969 308.578125 L 607.007812 308.546875 L 608.507812 308.496094 L 609.582031 308.453125 L 610.582031 308.402344 L 611.796875 308.328125 L 611.796875 307.273438 L 594.148438 307.265625 L 594.148438 306.773438 L 621.585938 306.769531 L 621.65625 308.496094 L 620.15625 308.617188 L 618.300781 308.730469 L 616.511719 308.820312 L 614.65625 308.894531 L 612.011719 308.980469 L 609.867188 309.03125 L 606.582031 309.09375 L 603.578125 309.132812 L 600.433594 309.160156 L 597.648438 309.171875 L 594.359375 309.175781 L 591.429688 309.167969 L 588.289062 309.140625 L 585.785156 309.105469 L 583.5 309.0625 L 581.210938 309.003906 L 578.355469 308.914062 L 576.496094 308.835938 L 574.566406 308.746094 L 572.636719 308.632812 L 570.921875 308.515625 L 569.78125 308.421875 L 568.636719 308.316406 L 567.421875 308.183594 L 566.277344 308.03125 L 565.421875 307.894531 L 564.632812 307.742188 L 564.0625 307.59375 L 563.492188 307.394531 L 563.207031 307.238281 L 563.0625 307.097656 Z M 563.0625 306.410156 "/>
<path style=" stroke:none;fill-rule:nonzero;fill:rgb(83.921569%,15.686275%,22.352941%);fill-opacity:1;" d="M 563.0625 256.582031 L 621.65625 256.582031 L 621.65625 259.726562 L 597.238281 259.753906 L 597.238281 285.984375 L 587.410156 285.984375 L 587.410156 259.78125 L 587.269531 259.726562 L 563.0625 259.726562 Z M 563.0625 256.582031 "/>
<g style="fill:rgb(0%,0%,0%);fill-opacity:1;">
  <use xlink:href="#glyph0-1" x="21.957031" y="317.018555"/>
  <use xlink:href="#glyph0-2" x="27.291016" y="317.018555"/>
  <use xlink:href="#glyph0-1" x="29.958008" y="317.018555"/>
</g>
<g style="fill:rgb(0%,0%,0%);fill-opacity:1;">
  <use xlink:href="#glyph0-1" x="21.957031" y="242.280273"/>
  <use xlink:href="#glyph0-2" x="27.291016" y="242.280273"/>
  <use xlink:href="#glyph0-3" x="29.958008" y="242.280273"/>
</g>
<g style="fill:rgb(0%,0%,0%);fill-opacity:1;">
  <use xlink:href="#glyph0-4" x="21.957031" y="167.541992"/>
  <use xlink:href="#glyph0-2" x="27.291016" y="167.541992"/>
  <use xlink:href="#glyph0-1" x="29.958008" y="167.541992"/>
</g>
<g style="fill:rgb(0%,0%,0%);fill-opacity:1;">
  <use xlink:href="#glyph0-4" x="21.957031" y="92.803711"/>
  <use xlink:href="#glyph0-2" x="27.291016" y="92.803711"/>
  <use xlink:href="#glyph0-3" x="29.958008" y="92.803711"/>
</g>
<g style="fill:rgb(0%,0%,0%);fill-opacity:1;">
  <use xlink:href="#glyph0-5" x="21.957031" y="18.06543"/>
  <use xlink:href="#glyph0-2" x="27.291016" y="18.06543"/>
  <use xlink:href="#glyph0-1" x="29.958008" y="18.06543"/>
</g>
<g style="fill:rgb(0%,0%,0%);fill-opacity:1;">
  <use xlink:href="#glyph0-4" x="95.925781" y="338.19043"/>
</g>
<g style="fill:rgb(0%,0%,0%);fill-opacity:1;">
  <use xlink:href="#glyph0-5" x="157.605469" y="338.19043"/>
</g>
<g style="fill:rgb(0%,0%,0%);fill-opacity:1;">
  <use xlink:href="#glyph0-6" x="219.285156" y="338.19043"/>
</g>
<g style="fill:rgb(0%,0%,0%);fill-opacity:1;">
  <use xlink:href="#glyph0-7" x="280.964844" y="338.19043"/>
</g>
<g style="fill:rgb(0%,0%,0%);fill-opacity:1;">
  <use xlink:href="#glyph0-3" x="342.644531" y="338.19043"/>
</g>
<g style="fill:rgb(0%,0%,0%);fill-opacity:1;">
  <use xlink:href="#glyph0-8" x="404.324219" y="338.19043"/>
</g>
<g style="fill:rgb(0%,0%,0%);fill-opacity:1;">
  <use xlink:href="#glyph0-9" x="466" y="338.19043"/>
</g>
<g style="fill:rgb(0%,0%,0%);fill-opacity:1;">
  <use xlink:href="#glyph0-10" x="527.679688" y="338.19043"/>
</g>
<g style="fill:rgb(0%,0%,0%);fill-opacity:1;">
  <use xlink:href="#glyph0-11" x="589.359375" y="338.19043"/>
</g>
<g style="fill:rgb(0%,0%,0%);fill-opacity:1;">
  <use xlink:href="#glyph0-4" x="648.539062" y="338.19043"/>
  <use xlink:href="#glyph0-1" x="653.873047" y="338.19043"/>
</g>
<g style="fill:rgb(0%,0%,0%);fill-opacity:1;">
  <use xlink:href="#glyph1-1" x="14.412109" y="178.015625"/>
  <use xlink:href="#glyph1-2" x="14.412109" y="170.011719"/>
  <use xlink:href="#glyph1-3" x="14.412109" y="167.347656"/>
  <use xlink:href="#glyph1-4" x="14.412109" y="164.011719"/>
</g>
</g>
</svg>
