<?xml version="1.0" encoding="UTF-8"?>
<svg xmlns="http://www.w3.org/2000/svg" xmlns:xlink="http://www.w3.org/1999/xlink" width="720pt" height="360pt" viewBox="0 0 720 360" version="1.1">
<defs>
<g>
<symbol overflow="visible" id="glyph0-0">
<path style="stroke:none;" d=""/>
</symbol>
<symbol overflow="visible" id="glyph0-1">
<path style="stroke:none;" d="M 2.640625 -6.796875 C 2 -6.796875 1.421875 -6.53125 1.078125 -6.046875 C 0.640625 -5.453125 0.40625 -4.546875 0.40625 -3.296875 C 0.40625 -1 1.1875 0.21875 2.640625 0.21875 C 4.078125 0.21875 4.859375 -1 4.859375 -3.234375 C 4.859375 -4.5625 4.65625 -5.4375 4.203125 -6.046875 C 3.84375 -6.53125 3.28125 -6.796875 2.640625 -6.796875 Z M 2.640625 -6.046875 C 3.546875 -6.046875 4 -5.125 4 -3.3125 C 4 -1.375 3.5625 -0.484375 2.625 -0.484375 C 1.734375 -0.484375 1.28125 -1.421875 1.28125 -3.28125 C 1.28125 -5.140625 1.734375 -6.046875 2.640625 -6.046875 Z M 2.640625 -6.046875 "/>
</symbol>
<symbol overflow="visible" id="glyph0-2">
<path style="stroke:none;" d="M 1.828125 -1 L 0.828125 -1 L 0.828125 0 L 1.828125 0 Z M 1.828125 -1 "/>
</symbol>
<symbol overflow="visible" id="glyph0-3">
<path style="stroke:none;" d="M 4.5625 -6.796875 L 1.0625 -6.796875 L 0.546875 -3.09375 L 1.328125 -3.09375 C 1.71875 -3.5625 2.046875 -3.734375 2.578125 -3.734375 C 3.484375 -3.734375 4.0625 -3.109375 4.0625 -2.09375 C 4.0625 -1.125 3.484375 -0.53125 2.578125 -0.53125 C 1.828125 -0.53125 1.375 -0.90625 1.1875 -1.671875 L 0.328125 -1.671875 C 0.453125 -1.109375 0.546875 -0.84375 0.75 -0.59375 C 1.125 -0.078125 1.828125 0.21875 2.59375 0.21875 C 3.96875 0.21875 4.921875 -0.78125 4.921875 -2.21875 C 4.921875 -3.5625 4.03125 -4.484375 2.71875 -4.484375 C 2.25 -4.484375 1.859375 -4.359375 1.46875 -4.0625 L 1.734375 -5.96875 L 4.5625 -5.96875 Z M 4.5625 -6.796875 "/>
</symbol>
<symbol overflow="visible" id="glyph0-4">
<path style="stroke:none;" d="M 2.484375 -4.84375 L 2.484375 0 L 3.328125 0 L 3.328125 -6.796875 L 2.765625 -6.796875 C 2.46875 -5.75 2.28125 -5.609375 0.984375 -5.453125 L 0.984375 -4.84375 Z M 2.484375 -4.84375 "/>
</symbol>
<symbol overflow="visible" id="glyph0-5">
<path style="stroke:none;" d="M 4.859375 -0.828125 L 1.28125 -0.828125 C 1.359375 -1.390625 1.671875 -1.75 2.5 -2.234375 L 3.46875 -2.75 C 4.40625 -3.265625 4.90625 -3.96875 4.90625 -4.8125 C 4.90625 -5.375 4.671875 -5.90625 4.265625 -6.265625 C 3.859375 -6.625 3.375 -6.796875 2.71875 -6.796875 C 1.859375 -6.796875 1.21875 -6.5 0.84375 -5.921875 C 0.609375 -5.5625 0.5 -5.125 0.484375 -4.4375 L 1.328125 -4.4375 C 1.359375 -4.90625 1.40625 -5.1875 1.53125 -5.40625 C 1.75 -5.8125 2.1875 -6.0625 2.703125 -6.0625 C 3.46875 -6.0625 4.03125 -5.515625 4.03125 -4.78125 C 4.03125 -4.25 3.71875 -3.796875 3.125 -3.4375 L 2.234375 -2.9375 C 0.8125 -2.140625 0.40625 -1.5 0.328125 0 L 4.859375 0 Z M 4.859375 -0.828125 "/>
</symbol>
<symbol overflow="visible" id="glyph0-6">
<path style="stroke:none;" d="M 2.125 -3.125 L 2.578125 -3.125 C 3.515625 -3.125 3.984375 -2.703125 3.984375 -1.890625 C 3.984375 -1.03125 3.46875 -0.53125 2.578125 -0.53125 C 1.65625 -0.53125 1.203125 -0.984375 1.15625 -1.96875 L 0.3125 -1.96875 C 0.34375 -1.421875 0.4375 -1.078125 0.609375 -0.765625 C 0.953125 -0.109375 1.625 0.21875 2.546875 0.21875 C 3.953125 0.21875 4.859375 -0.609375 4.859375 -1.90625 C 4.859375 -2.765625 4.515625 -3.25 3.703125 -3.515625 C 4.34375 -3.765625 4.65625 -4.25 4.65625 -4.9375 C 4.65625 -6.109375 3.875 -6.796875 2.578125 -6.796875 C 1.203125 -6.796875 0.484375 -6.046875 0.453125 -4.609375 L 1.296875 -4.609375 C 1.3125 -5.015625 1.34375 -5.25 1.453125 -5.453125 C 1.640625 -5.828125 2.0625 -6.0625 2.59375 -6.0625 C 3.34375 -6.0625 3.796875 -5.625 3.796875 -4.90625 C 3.796875 -4.421875 3.609375 -4.140625 3.25 -3.984375 C 3.015625 -3.890625 2.71875 -3.84375 2.125 -3.84375 Z M 2.125 -3.125 "/>
</symbol>
<symbol overflow="visible" id="glyph0-7">
<path style="stroke:none;" d="M 3.140625 -1.625 L 3.140625 0 L 3.984375 0 L 3.984375 -1.625 L 4.984375 -1.625 L 4.984375 -2.390625 L 3.984375 -2.390625 L 3.984375 -6.796875 L 3.359375 -6.796875 L 0.265625 -2.515625 L 0.265625 -1.625 Z M 3.140625 -2.390625 L 1 -2.390625 L 3.140625 -5.359375 Z M 3.140625 -2.390625 "/>
</symbol>
<symbol overflow="visible" id="glyph0-8">
<path style="stroke:none;" d="M 4.78125 -5.03125 C 4.609375 -6.140625 3.890625 -6.796875 2.84375 -6.796875 C 2.09375 -6.796875 1.421875 -6.4375 1.03125 -5.828125 C 0.609375 -5.171875 0.40625 -4.34375 0.40625 -3.09375 C 0.40625 -1.953125 0.578125 -1.234375 0.984375 -0.625 C 1.359375 -0.078125 1.953125 0.21875 2.703125 0.21875 C 3.984375 0.21875 4.921875 -0.734375 4.921875 -2.078125 C 4.921875 -3.34375 4.0625 -4.234375 2.84375 -4.234375 C 2.171875 -4.234375 1.640625 -3.96875 1.28125 -3.46875 C 1.28125 -5.125 1.828125 -6.046875 2.796875 -6.046875 C 3.390625 -6.046875 3.796875 -5.671875 3.9375 -5.03125 Z M 2.734375 -3.484375 C 3.546875 -3.484375 4.0625 -2.921875 4.0625 -2 C 4.0625 -1.15625 3.484375 -0.53125 2.703125 -0.53125 C 1.921875 -0.53125 1.328125 -1.1875 1.328125 -2.046875 C 1.328125 -2.890625 1.90625 -3.484375 2.734375 -3.484375 Z M 2.734375 -3.484375 "/>
</symbol>
<symbol overflow="visible" id="glyph0-9">
<path style="stroke:none;" d="M 4.984375 -6.796875 L 0.4375 -6.796875 L 0.4375 -5.96875 L 4.109375 -5.96875 C 2.5 -3.65625 1.828125 -2.234375 1.328125 0 L 2.21875 0 C 2.59375 -2.171875 3.453125 -4.046875 4.984375 -6.09375 Z M 4.984375 -6.796875 "/>
</symbol>
<symbol overflow="visible" id="glyph0-10">
<path style="stroke:none;" d="M 3.75 -3.578125 C 4.453125 -4 4.6875 -4.34375 4.6875 -4.984375 C 4.6875 -6.046875 3.84375 -6.796875 2.640625 -6.796875 C 1.4375 -6.796875 0.59375 -6.046875 0.59375 -4.984375 C 0.59375 -4.359375 0.828125 -4.015625 1.515625 -3.578125 C 0.734375 -3.203125 0.359375 -2.640625 0.359375 -1.890625 C 0.359375 -0.640625 1.296875 0.21875 2.640625 0.21875 C 3.984375 0.21875 4.921875 -0.640625 4.921875 -1.875 C 4.921875 -2.640625 4.53125 -3.203125 3.75 -3.578125 Z M 2.640625 -6.046875 C 3.359375 -6.046875 3.8125 -5.625 3.8125 -4.96875 C 3.8125 -4.34375 3.34375 -3.921875 2.640625 -3.921875 C 1.921875 -3.921875 1.453125 -4.34375 1.453125 -4.984375 C 1.453125 -5.625 1.921875 -6.046875 2.640625 -6.046875 Z M 2.640625 -3.203125 C 3.484375 -3.203125 4.0625 -2.671875 4.0625 -1.875 C 4.0625 -1.0625 3.484375 -0.53125 2.625 -0.53125 C 1.796875 -0.53125 1.21875 -1.078125 1.21875 -1.875 C 1.21875 -2.671875 1.796875 -3.203125 2.640625 -3.203125 Z M 2.640625 -3.203125 "/>
</symbol>
<symbol overflow="visible" id="glyph1-0">
<path style="stroke:none;" d=""/>
</symbol>
<symbol overflow="visible" id="glyph1-1">
<path style="stroke:none;" d="M 0 -0.953125 L 0 -4.890625 C 0 -5.71875 -0.234375 -6.34375 -0.734375 -6.796875 C -1.1875 -7.234375 -1.8125 -7.46875 -2.5 -7.46875 C -3.546875 -7.46875 -4.1875 -7 -4.625 -5.875 C -4.984375 -6.671875 -5.640625 -7.09375 -6.53125 -7.09375 C -7.15625 -7.09375 -7.734375 -6.859375 -8.140625 -6.390625 C -8.5625 -5.9375 -8.75 -5.34375 -8.75 -4.5 L -8.75 -0.953125 Z M -4.984375 -2.0625 L -7.765625 -2.0625 L -7.765625 -4.21875 C -7.765625 -4.84375 -7.6875 -5.203125 -7.453125 -5.5 C -7.21875 -5.8125 -6.859375 -5.96875 -6.375 -5.96875 C -5.90625 -5.96875 -5.53125 -5.8125 -5.296875 -5.5 C -5.0625 -5.203125 -4.984375 -4.84375 -4.984375 -4.21875 Z M -0.984375 -2.0625 L -4 -2.0625 L -4 -4.78125 C -4 -5.328125 -3.859375 -5.6875 -3.578125 -5.953125 C -3.296875 -6.21875 -2.921875 -6.359375 -2.484375 -6.359375 C -2.0625 -6.359375 -1.6875 -6.21875 -1.40625 -5.953125 C -1.109375 -5.6875 -0.984375 -5.328125 -0.984375 -4.78125 Z M -0.984375 -2.0625 "/>
</symbol>
<symbol overflow="visible" id="glyph1-2">
<path style="stroke:none;" d="M -6.28125 -1.796875 L -6.28125 -0.796875 L 0 -0.796875 L 0 -1.796875 Z M -8.75 -1.796875 L -8.75 -0.796875 L -7.484375 -0.796875 L -7.484375 -1.796875 Z M -8.75 -1.796875 "/>
</symbol>
<symbol overflow="visible" id="glyph1-3">
<path style="stroke:none;" d="M -6.28125 -3.046875 L -6.28125 -2.015625 L -8.015625 -2.015625 L -8.015625 -1.015625 L -6.28125 -1.015625 L -6.28125 -0.171875 L -5.46875 -0.171875 L -5.46875 -1.015625 L -0.71875 -1.015625 C -0.078125 -1.015625 0.28125 -1.453125 0.28125 -2.234375 C 0.28125 -2.46875 0.25 -2.71875 0.1875 -3.046875 L -0.640625 -3.046875 C -0.609375 -2.921875 -0.59375 -2.765625 -0.59375 -2.5625 C -0.59375 -2.140625 -0.71875 -2.015625 -1.15625 -2.015625 L -5.46875 -2.015625 L -5.46875 -3.046875 Z M -6.28125 -3.046875 "/>
</symbol>
<symbol overflow="visible" id="glyph1-4">
<path style="stroke:none;" d="M -4.53125 -5.25 C -5.765625 -5.25 -6.46875 -4.421875 -6.46875 -2.96875 C -6.46875 -1.515625 -5.71875 -0.5625 -4.546875 -0.5625 C -3.5625 -0.5625 -3.09375 -1.0625 -2.734375 -2.5625 L -2.515625 -3.484375 C -2.34375 -4.1875 -2.09375 -4.46875 -1.625 -4.46875 C -1.046875 -4.46875 -0.640625 -3.875 -0.640625 -3 C -0.640625 -2.453125 -0.796875 -2 -1.0625 -1.75 C -1.25 -1.59375 -1.421875 -1.53125 -1.875 -1.46875 L -1.875 -0.40625 C -0.421875 -0.453125 0.28125 -1.265625 0.28125 -2.921875 C 0.28125 -4.5 -0.5 -5.515625 -1.71875 -5.515625 C -2.65625 -5.515625 -3.171875 -4.984375 -3.46875 -3.734375 L -3.703125 -2.765625 C -3.890625 -1.953125 -4.15625 -1.609375 -4.59375 -1.609375 C -5.171875 -1.609375 -5.546875 -2.125 -5.546875 -2.9375 C -5.546875 -3.75 -5.203125 -4.171875 -4.53125 -4.203125 Z M -4.53125 -5.25 "/>
</symbol>
</g>
</defs>
<g id="surface89502">
<rect x="0" y="0" width="720" height="360" style="fill:rgb(100%,100%,100%);fill-opacity:1;stroke:none;"/>
<path style=" stroke:none;fill-rule:nonzero;fill:rgb(6.27451%,58.823529%,28.235294%);fill-opacity:1;" d="M 69.628906 313.195312 L 69.707031 313.191406 L 101.441406 310.710938 L 111.078125 310.710938 L 142.964844 313.195312 L 131.761719 313.195312 L 123.769531 312.546875 L 88.746094 312.546875 L 80.910156 313.195312 L 69.628906 313.195312 L 92.117188 312.277344 L 120.558594 312.277344 L 106.375 311.117188 L 106.21875 311.113281 L 106.0625 311.121094 L 92.039062 312.277344 L 92.117188 312.277344 Z M 69.628906 313.195312 "/>
<path style=" stroke:none;fill-rule:nonzero;fill:rgb(14.509804%,36.078431%,60%);fill-opacity:1;" d="M 69.628906 223.628906 L 69.71875 223.554688 L 69.71875 221.785156 L 69.988281 218.980469 L 70.613281 215.4375 L 71.238281 213.003906 L 72.847656 208.648438 L 75.085938 204.441406 L 77.410156 201.195312 L 79.109375 199.277344 L 80.628906 197.800781 L 84.117188 195.070312 L 86.355469 193.667969 L 88.769531 192.414062 L 91.71875 191.15625 L 93.867188 190.417969 L 98.695312 189.238281 L 102.273438 188.722656 L 105.046875 188.5 L 111.039062 188.5 L 114.613281 188.796875 L 117.207031 189.164062 L 120.070312 189.753906 L 122.484375 190.417969 L 126.6875 192.042969 L 130.445312 194.109375 L 132.144531 195.289062 L 134.828125 197.578125 L 136.882812 199.792969 L 138.316406 201.710938 L 139.925781 204.441406 L 141.355469 207.761719 L 142.429688 211.527344 L 142.964844 214.699219 L 130.445312 214.699219 L 129.820312 211.75 L 129.101562 209.460938 L 127.761719 206.433594 L 126.421875 204.292969 L 124.542969 202.152344 L 122.84375 200.753906 L 120.515625 199.351562 L 118.460938 198.464844 L 116.3125 197.800781 L 114.257812 197.355469 L 110.320312 196.914062 L 105.761719 196.914062 L 104.0625 197.0625 L 100.574219 197.652344 L 98.695312 198.167969 L 96.011719 199.203125 L 94.132812 200.160156 L 91.898438 201.636719 L 90.378906 202.890625 L 88.5 204.8125 L 87.160156 206.507812 L 85.636719 208.945312 L 84.742188 210.789062 L 83.9375 212.855469 L 83.222656 215.289062 L 82.6875 217.875 L 82.328125 220.605469 L 82.148438 223.261719 L 82.148438 234.699219 L 82.328125 237.355469 L 82.777344 240.457031 L 83.9375 244.957031 L 85.636719 248.871094 L 87.605469 251.96875 L 89.484375 254.183594 L 90.558594 255.214844 L 91.988281 256.398438 L 94.222656 257.875 L 97.445312 259.347656 L 99.320312 259.941406 L 102.183594 260.53125 L 105.136719 260.824219 L 109.070312 260.824219 L 112.558594 260.53125 L 114.882812 260.160156 L 117.296875 259.570312 L 120.605469 258.316406 L 122.664062 257.136719 L 124.453125 255.734375 L 125.792969 254.332031 L 126.6875 253.148438 L 128.03125 250.863281 L 129.101562 248.351562 L 129.90625 245.769531 L 130.445312 243.261719 L 142.964844 243.261719 L 142.429688 246.214844 L 141.625 249.089844 L 140.820312 251.230469 L 139.566406 253.816406 L 138.136719 256.101562 L 136.078125 258.683594 L 134.378906 260.382812 L 132.144531 262.226562 L 130.085938 263.628906 L 127.851562 264.882812 L 124.542969 266.359375 L 122.394531 267.097656 L 120.070312 267.761719 L 117.296875 268.351562 L 113.808594 268.871094 L 110.054688 269.164062 L 106.566406 269.238281 L 102.808594 269.089844 L 100.035156 268.796875 L 96.371094 268.132812 L 91.808594 266.804688 L 88.5 265.402344 L 85.90625 264 L 83.671875 262.523438 L 81.167969 260.53125 L 77.945312 257.28125 L 75.980469 254.773438 L 74.636719 252.707031 L 73.117188 249.828125 L 72.042969 247.246094 L 70.792969 243.113281 L 69.898438 237.875 L 69.628906 233.816406 Z M 69.628906 223.628906 "/>
<path style=" stroke:none;fill-rule:nonzero;fill:rgb(96.862745%,70.196078%,16.862745%);fill-opacity:1;" d="M 69.628906 308.023438 L 69.71875 308.023438 L 69.71875 307.976562 L 70.078125 307.867188 L 70.972656 307.714844 L 72.132812 307.59375 L 73.386719 307.496094 L 74.191406 307.445312 L 75.53125 307.375 L 76.695312 307.320312 L 79.644531 307.210938 L 83.402344 307.113281 L 85.460938 307.066406 L 87.785156 307.027344 L 91.09375 306.980469 L 92.613281 306.964844 L 97.265625 306.925781 L 102.542969 306.902344 L 108.355469 306.894531 L 111.039062 306.898438 L 114.703125 306.90625 L 119.710938 306.933594 L 122.574219 306.957031 L 124.808594 306.980469 L 127.136719 307.011719 L 129.996094 307.0625 L 132.679688 307.117188 L 134.828125 307.175781 L 136.972656 307.25 L 138.761719 307.324219 L 140.28125 307.410156 L 141.625 307.511719 L 142.429688 307.597656 L 142.964844 307.679688 L 130.535156 307.679688 L 129.820312 307.597656 L 129.015625 307.53125 L 127.671875 307.453125 L 126.332031 307.394531 L 124.988281 307.347656 L 122.484375 307.285156 L 120.339844 307.246094 L 117.65625 307.210938 L 115.0625 307.191406 L 112.109375 307.175781 L 110.320312 307.171875 L 105.582031 307.171875 L 101.289062 307.1875 L 98.785156 307.207031 L 96.996094 307.226562 L 94.492188 307.261719 L 92.972656 307.292969 L 92.078125 307.3125 L 89.394531 307.386719 L 87.605469 307.453125 L 86.621094 307.5 L 85.371094 307.570312 L 84.476562 307.636719 L 83.492188 307.734375 L 82.953125 307.804688 L 82.238281 307.96875 L 82.148438 308.402344 L 82.417969 308.496094 L 82.953125 308.59375 L 83.671875 308.679688 L 84.742188 308.773438 L 85.816406 308.84375 L 87.695312 308.9375 L 89.304688 309 L 90.558594 309.039062 L 92.972656 309.105469 L 93.957031 309.128906 L 96.28125 309.171875 L 98.695312 309.203125 L 101.648438 309.234375 L 103.882812 309.246094 L 107.460938 309.261719 L 112.019531 309.261719 L 117.386719 309.246094 L 120.785156 309.226562 L 123.109375 309.207031 L 124.632812 309.191406 L 126.507812 309.164062 L 127.851562 309.140625 L 129.101562 309.113281 L 130.625 309.070312 L 130.625 308.496094 L 108.535156 308.492188 L 108.535156 308.222656 L 142.875 308.21875 L 142.964844 309.164062 L 141.085938 309.230469 L 138.761719 309.292969 L 136.527344 309.339844 L 134.199219 309.378906 L 130.890625 309.425781 L 128.207031 309.457031 L 124.09375 309.488281 L 120.339844 309.511719 L 116.402344 309.523438 L 112.914062 309.53125 L 108.800781 309.535156 L 105.136719 309.53125 L 101.199219 309.515625 L 98.070312 309.496094 L 95.207031 309.472656 L 92.34375 309.441406 L 88.769531 309.390625 L 86.441406 309.347656 L 84.027344 309.296875 L 81.613281 309.238281 L 79.46875 309.171875 L 78.035156 309.121094 L 76.605469 309.066406 L 75.085938 308.992188 L 73.652344 308.910156 L 72.582031 308.835938 L 71.597656 308.75 L 70.882812 308.671875 L 70.164062 308.5625 L 69.808594 308.476562 L 69.628906 308.402344 Z M 69.628906 308.023438 "/>
<path style=" stroke:none;fill-rule:nonzero;fill:rgb(83.921569%,15.686275%,22.352941%);fill-opacity:1;" d="M 69.628906 270.414062 L 142.964844 270.414062 L 142.964844 274.191406 L 112.402344 274.226562 L 112.402344 305.71875 L 100.105469 305.71875 L 100.105469 274.257812 L 99.925781 274.191406 L 69.628906 274.191406 Z M 69.628906 270.414062 "/>
<path style=" stroke:none;fill-rule:nonzero;fill:rgb(6.27451%,58.823529%,28.235294%);fill-opacity:1;" d="M 146.824219 310.125 L 146.902344 310.117188 L 178.636719 302.183594 L 188.273438 302.183594 L 220.160156 310.128906 L 208.957031 310.128906 L 200.964844 308.054688 L 165.941406 308.054688 L 158.109375 310.125 L 146.824219 310.125 L 169.3125 307.199219 L 197.753906 307.191406 L 183.570312 303.484375 L 183.414062 303.476562 L 183.257812 303.5 L 169.234375 307.191406 L 169.3125 307.199219 Z M 146.824219 310.125 "/>
<path style=" stroke:none;fill-rule:nonzero;fill:rgb(14.509804%,36.078431%,60%);fill-opacity:1;" d="M 146.824219 288.675781 L 146.914062 288.65625 L 146.914062 288.175781 L 147.183594 287.417969 L 147.808594 286.460938 L 148.433594 285.800781 L 150.042969 284.625 L 152.28125 283.484375 L 154.605469 282.609375 L 156.304688 282.089844 L 157.824219 281.691406 L 161.3125 280.953125 L 163.550781 280.570312 L 165.964844 280.234375 L 168.914062 279.894531 L 171.0625 279.695312 L 175.890625 279.375 L 179.46875 279.234375 L 182.242188 279.175781 L 188.234375 279.175781 L 191.8125 279.253906 L 194.40625 279.355469 L 197.265625 279.515625 L 199.679688 279.695312 L 203.882812 280.132812 L 207.640625 280.691406 L 209.339844 281.011719 L 212.023438 281.628906 L 214.078125 282.230469 L 215.511719 282.746094 L 217.121094 283.484375 L 218.550781 284.382812 L 219.625 285.402344 L 220.160156 286.261719 L 207.640625 286.261719 L 207.015625 285.460938 L 206.300781 284.84375 L 204.957031 284.023438 L 203.617188 283.445312 L 201.738281 282.867188 L 200.039062 282.488281 L 197.714844 282.109375 L 195.65625 281.871094 L 193.511719 281.691406 L 191.453125 281.570312 L 187.519531 281.449219 L 182.957031 281.449219 L 181.257812 281.488281 L 177.769531 281.648438 L 175.890625 281.789062 L 173.207031 282.070312 L 171.332031 282.328125 L 169.09375 282.726562 L 167.574219 283.066406 L 165.695312 283.585938 L 164.355469 284.046875 L 162.835938 284.703125 L 161.941406 285.203125 L 161.136719 285.761719 L 160.417969 286.421875 L 159.882812 287.117188 L 159.523438 287.855469 L 159.347656 288.574219 L 159.347656 291.667969 L 159.523438 292.386719 L 159.972656 293.226562 L 161.136719 294.445312 L 162.835938 295.5 L 164.800781 296.339844 L 166.679688 296.9375 L 167.753906 297.21875 L 169.183594 297.539062 L 171.417969 297.9375 L 174.640625 298.335938 L 176.515625 298.496094 L 179.378906 298.65625 L 182.332031 298.734375 L 186.265625 298.734375 L 189.753906 298.65625 L 192.078125 298.554688 L 194.492188 298.394531 L 197.804688 298.058594 L 199.859375 297.738281 L 201.648438 297.359375 L 202.988281 296.980469 L 203.882812 296.660156 L 205.226562 296.039062 L 206.300781 295.363281 L 207.105469 294.664062 L 207.640625 293.984375 L 220.160156 293.984375 L 219.625 294.785156 L 218.820312 295.5625 L 218.015625 296.140625 L 216.761719 296.839844 L 215.332031 297.457031 L 213.273438 298.15625 L 211.574219 298.617188 L 209.339844 299.113281 L 207.28125 299.492188 L 205.046875 299.832031 L 201.738281 300.230469 L 199.589844 300.433594 L 197.265625 300.613281 L 194.492188 300.769531 L 191.003906 300.910156 L 187.25 300.992188 L 183.761719 301.011719 L 180.003906 300.972656 L 177.234375 300.890625 L 173.566406 300.710938 L 169.003906 300.351562 L 165.695312 299.972656 L 163.101562 299.59375 L 160.867188 299.195312 L 158.363281 298.65625 L 155.144531 297.777344 L 153.175781 297.097656 L 151.832031 296.539062 L 150.3125 295.761719 L 149.238281 295.0625 L 147.988281 293.945312 L 147.09375 292.527344 L 146.824219 291.429688 Z M 146.824219 288.675781 "/>
<path style=" stroke:none;fill-rule:nonzero;fill:rgb(96.862745%,70.196078%,16.862745%);fill-opacity:1;" d="M 146.824219 312.113281 L 146.914062 312.113281 L 146.914062 312.078125 L 147.273438 312 L 148.167969 311.894531 L 149.328125 311.804688 L 150.582031 311.738281 L 151.386719 311.699219 L 152.726562 311.648438 L 153.890625 311.609375 L 156.84375 311.535156 L 160.597656 311.460938 L 162.65625 311.429688 L 164.980469 311.398438 L 168.289062 311.367188 L 169.808594 311.355469 L 174.460938 311.328125 L 179.738281 311.3125 L 185.550781 311.304688 L 188.234375 311.308594 L 191.898438 311.3125 L 196.910156 311.332031 L 199.769531 311.351562 L 202.007812 311.367188 L 204.332031 311.390625 L 207.195312 311.425781 L 209.875 311.464844 L 212.023438 311.507812 L 214.167969 311.558594 L 215.957031 311.613281 L 217.476562 311.675781 L 218.820312 311.746094 L 219.625 311.808594 L 220.160156 311.867188 L 207.730469 311.867188 L 207.015625 311.808594 L 206.210938 311.761719 L 204.867188 311.703125 L 203.527344 311.664062 L 202.183594 311.628906 L 199.679688 311.585938 L 197.535156 311.558594 L 194.851562 311.535156 L 192.257812 311.519531 L 189.304688 311.507812 L 187.519531 311.503906 L 182.777344 311.503906 L 178.484375 311.515625 L 175.980469 311.53125 L 174.191406 311.542969 L 171.6875 311.570312 L 170.167969 311.589844 L 169.273438 311.605469 L 166.589844 311.65625 L 164.800781 311.707031 L 163.816406 311.738281 L 162.566406 311.789062 L 161.671875 311.835938 L 160.6875 311.90625 L 160.152344 311.957031 L 159.433594 312.074219 L 159.347656 312.386719 L 159.613281 312.453125 L 160.152344 312.523438 L 160.867188 312.585938 L 161.941406 312.648438 L 163.011719 312.699219 L 164.890625 312.769531 L 166.5 312.8125 L 167.753906 312.84375 L 170.167969 312.886719 L 171.152344 312.902344 L 173.476562 312.933594 L 175.890625 312.960938 L 178.84375 312.980469 L 181.078125 312.992188 L 184.65625 313 L 189.21875 313 L 194.582031 312.988281 L 197.980469 312.976562 L 200.308594 312.960938 L 201.828125 312.949219 L 203.707031 312.929688 L 205.046875 312.914062 L 206.300781 312.894531 L 207.820312 312.863281 L 207.820312 312.453125 L 185.730469 312.449219 L 185.730469 312.257812 L 220.070312 312.253906 L 220.160156 312.929688 L 218.285156 312.976562 L 215.957031 313.019531 L 213.722656 313.054688 L 211.398438 313.085938 L 208.085938 313.117188 L 205.40625 313.140625 L 201.289062 313.164062 L 197.535156 313.179688 L 193.597656 313.1875 L 190.113281 313.195312 L 185.996094 313.195312 L 182.332031 313.191406 L 178.394531 313.183594 L 175.265625 313.167969 L 172.402344 313.152344 L 169.542969 313.128906 L 165.964844 313.09375 L 163.640625 313.0625 L 161.222656 313.027344 L 158.808594 312.984375 L 156.664062 312.9375 L 155.230469 312.902344 L 153.800781 312.859375 L 152.28125 312.808594 L 150.851562 312.75 L 149.777344 312.695312 L 148.792969 312.632812 L 148.078125 312.578125 L 147.363281 312.5 L 147.003906 312.4375 L 146.824219 312.382812 Z M 146.824219 312.113281 "/>
<path style=" stroke:none;fill-rule:nonzero;fill:rgb(83.921569%,15.686275%,22.352941%);fill-opacity:1;" d="M 146.824219 162.566406 L 220.160156 162.566406 L 220.160156 174.921875 L 189.597656 175.03125 L 189.597656 278 L 177.300781 278 L 177.300781 175.140625 L 177.121094 174.921875 L 146.824219 174.921875 Z M 146.824219 162.566406 "/>
<path style=" stroke:none;fill-rule:nonzero;fill:rgb(6.27451%,58.823529%,28.235294%);fill-opacity:1;" d="M 224.019531 294.5625 L 224.097656 294.355469 L 255.832031 73.167969 L 265.46875 73.167969 L 297.355469 294.773438 L 286.152344 294.773438 L 278.160156 236.925781 L 243.140625 236.925781 L 235.304688 294.5625 L 224.019531 294.5625 L 246.507812 212.996094 L 274.949219 212.789062 L 260.769531 109.375 L 260.609375 109.164062 L 260.453125 109.789062 L 246.429688 212.789062 L 246.507812 212.996094 Z M 224.019531 294.5625 "/>
<path style=" stroke:none;fill-rule:nonzero;fill:rgb(14.509804%,36.078431%,60%);fill-opacity:1;" d="M 224.019531 304.707031 L 224.109375 304.703125 L 224.109375 304.589844 L 224.378906 304.40625 L 225.003906 304.175781 L 225.632812 304.019531 L 227.242188 303.738281 L 229.476562 303.464844 L 231.800781 303.253906 L 233.5 303.128906 L 235.023438 303.035156 L 238.507812 302.859375 L 240.746094 302.765625 L 243.160156 302.6875 L 246.113281 302.605469 L 248.257812 302.554688 L 253.085938 302.480469 L 256.664062 302.445312 L 259.4375 302.433594 L 265.429688 302.433594 L 269.007812 302.453125 L 271.601562 302.476562 L 274.460938 302.511719 L 276.875 302.554688 L 281.082031 302.660156 L 284.835938 302.796875 L 286.535156 302.871094 L 289.21875 303.019531 L 291.277344 303.164062 L 292.707031 303.289062 L 294.316406 303.464844 L 295.746094 303.679688 L 296.820312 303.925781 L 297.355469 304.128906 L 284.835938 304.128906 L 284.210938 303.9375 L 283.496094 303.789062 L 282.152344 303.59375 L 280.8125 303.457031 L 278.933594 303.316406 L 277.234375 303.226562 L 274.910156 303.136719 L 272.851562 303.078125 L 270.707031 303.035156 L 268.648438 303.007812 L 264.714844 302.976562 L 260.152344 302.976562 L 258.453125 302.988281 L 254.964844 303.023438 L 253.085938 303.058594 L 250.40625 303.125 L 248.527344 303.1875 L 246.289062 303.285156 L 244.769531 303.363281 L 242.890625 303.488281 L 241.550781 303.597656 L 240.03125 303.757812 L 239.136719 303.875 L 238.332031 304.011719 L 237.613281 304.167969 L 237.078125 304.335938 L 236.722656 304.511719 L 236.542969 304.683594 L 236.542969 305.425781 L 236.722656 305.597656 L 237.167969 305.796875 L 238.332031 306.089844 L 240.03125 306.34375 L 241.996094 306.542969 L 243.875 306.6875 L 244.949219 306.753906 L 246.378906 306.832031 L 248.617188 306.925781 L 251.835938 307.023438 L 253.714844 307.058594 L 256.574219 307.097656 L 259.527344 307.117188 L 263.460938 307.117188 L 266.949219 307.097656 L 269.273438 307.074219 L 271.691406 307.035156 L 275 306.953125 L 277.054688 306.878906 L 278.84375 306.789062 L 280.1875 306.695312 L 281.082031 306.621094 L 282.421875 306.472656 L 283.496094 306.308594 L 284.300781 306.140625 L 284.835938 305.980469 L 297.355469 305.980469 L 296.820312 306.171875 L 296.015625 306.355469 L 295.210938 306.496094 L 293.957031 306.664062 L 292.527344 306.8125 L 290.472656 306.980469 L 288.773438 307.089844 L 286.535156 307.207031 L 284.480469 307.300781 L 282.242188 307.378906 L 278.933594 307.476562 L 276.789062 307.523438 L 274.460938 307.566406 L 271.691406 307.605469 L 268.203125 307.636719 L 264.445312 307.65625 L 260.957031 307.664062 L 257.203125 307.652344 L 254.429688 307.632812 L 250.761719 307.589844 L 246.199219 307.503906 L 242.890625 307.414062 L 240.296875 307.324219 L 238.0625 307.226562 L 235.558594 307.097656 L 232.339844 306.886719 L 230.371094 306.726562 L 229.03125 306.589844 L 227.507812 306.40625 L 226.4375 306.238281 L 225.183594 305.96875 L 224.289062 305.628906 L 224.019531 305.367188 Z M 224.019531 304.707031 "/>
<path style=" stroke:none;fill-rule:nonzero;fill:rgb(96.862745%,70.196078%,16.862745%);fill-opacity:1;" d="M 224.019531 310.703125 L 224.109375 310.699219 L 224.109375 310.621094 L 224.46875 310.441406 L 225.363281 310.195312 L 226.523438 309.992188 L 227.777344 309.832031 L 228.582031 309.75 L 229.925781 309.628906 L 231.085938 309.542969 L 234.039062 309.363281 L 237.792969 309.195312 L 239.851562 309.125 L 242.175781 309.054688 L 245.484375 308.980469 L 247.003906 308.953125 L 251.65625 308.890625 L 256.933594 308.847656 L 262.746094 308.835938 L 265.429688 308.839844 L 269.097656 308.855469 L 274.105469 308.902344 L 276.964844 308.941406 L 279.203125 308.980469 L 281.527344 309.03125 L 284.390625 309.113281 L 287.074219 309.207031 L 289.21875 309.304688 L 291.367188 309.421875 L 293.152344 309.550781 L 294.675781 309.6875 L 296.015625 309.855469 L 296.820312 309.996094 L 297.355469 310.132812 L 284.925781 310.132812 L 284.210938 309.996094 L 283.40625 309.886719 L 282.0625 309.757812 L 280.722656 309.660156 L 279.382812 309.585938 L 276.875 309.480469 L 274.730469 309.417969 L 272.046875 309.363281 L 269.453125 309.328125 L 266.503906 309.304688 L 264.714844 309.292969 L 259.972656 309.292969 L 255.679688 309.324219 L 253.175781 309.355469 L 251.386719 309.386719 L 248.882812 309.445312 L 247.363281 309.492188 L 246.46875 309.527344 L 243.785156 309.648438 L 241.996094 309.761719 L 241.015625 309.835938 L 239.761719 309.957031 L 238.867188 310.0625 L 237.882812 310.222656 L 237.347656 310.339844 L 236.632812 310.613281 L 236.542969 311.328125 L 236.808594 311.480469 L 237.347656 311.644531 L 238.0625 311.785156 L 239.136719 311.9375 L 240.207031 312.054688 L 242.085938 312.207031 L 243.695312 312.3125 L 244.949219 312.378906 L 247.363281 312.488281 L 248.347656 312.523438 L 250.671875 312.59375 L 253.085938 312.652344 L 256.039062 312.699219 L 258.273438 312.722656 L 261.851562 312.742188 L 266.414062 312.742188 L 271.777344 312.71875 L 275.175781 312.6875 L 277.503906 312.65625 L 279.023438 312.625 L 280.902344 312.582031 L 282.242188 312.542969 L 283.496094 312.5 L 285.015625 312.429688 L 285.015625 311.480469 L 262.925781 311.476562 L 262.925781 311.03125 L 297.269531 311.027344 L 297.355469 312.582031 L 295.480469 312.691406 L 293.152344 312.792969 L 290.917969 312.875 L 288.59375 312.941406 L 285.285156 313.015625 L 282.601562 313.066406 L 278.488281 313.121094 L 274.730469 313.15625 L 270.796875 313.179688 L 267.308594 313.191406 L 263.195312 313.195312 L 259.527344 313.1875 L 255.589844 313.164062 L 252.460938 313.132812 L 249.597656 313.09375 L 246.738281 313.039062 L 243.160156 312.957031 L 240.835938 312.890625 L 238.421875 312.804688 L 236.003906 312.707031 L 233.859375 312.597656 L 232.429688 312.515625 L 230.996094 312.417969 L 229.476562 312.300781 L 228.046875 312.164062 L 226.972656 312.042969 L 225.988281 311.902344 L 225.273438 311.769531 L 224.558594 311.589844 L 224.199219 311.449219 L 224.019531 311.324219 Z M 224.019531 310.703125 "/>
<path style=" stroke:none;fill-rule:nonzero;fill:rgb(83.921569%,15.686275%,22.352941%);fill-opacity:1;" d="M 224.019531 295.945312 L 297.355469 295.945312 L 297.355469 296.515625 L 266.792969 296.519531 L 266.792969 301.257812 L 254.496094 301.257812 L 254.496094 296.523438 L 254.316406 296.515625 L 224.019531 296.515625 Z M 224.019531 295.945312 "/>
<path style=" stroke:none;fill-rule:nonzero;fill:rgb(6.27451%,58.823529%,28.235294%);fill-opacity:1;" d="M 301.21875 306.476562 L 301.296875 306.210938 L 333.027344 20.664062 L 342.664062 20.664062 L 374.554688 306.746094 L 363.347656 306.746094 L 355.355469 232.070312 L 320.335938 232.070312 L 312.5 306.476562 L 301.21875 306.476562 L 323.703125 201.179688 L 352.144531 200.910156 L 337.964844 67.402344 L 337.808594 67.136719 L 337.648438 67.941406 L 323.625 200.910156 L 323.703125 201.179688 Z M 301.21875 306.476562 "/>
<path style=" stroke:none;fill-rule:nonzero;fill:rgb(14.509804%,36.078431%,60%);fill-opacity:1;" d="M 301.21875 308.53125 L 301.304688 308.53125 L 301.304688 308.5 L 301.574219 308.453125 L 302.199219 308.390625 L 302.828125 308.347656 L 304.4375 308.273438 L 306.671875 308.199219 L 308.996094 308.144531 L 310.695312 308.109375 L 312.21875 308.082031 L 315.707031 308.035156 L 317.941406 308.011719 L 320.355469 307.988281 L 323.308594 307.96875 L 325.453125 307.957031 L 330.285156 307.933594 L 333.859375 307.925781 L 336.632812 307.921875 L 342.625 307.921875 L 346.203125 307.925781 L 348.796875 307.933594 L 351.65625 307.945312 L 354.074219 307.957031 L 358.277344 307.984375 L 362.03125 308.019531 L 363.730469 308.039062 L 366.414062 308.078125 L 368.472656 308.117188 L 369.902344 308.152344 L 371.511719 308.199219 L 372.945312 308.257812 L 374.015625 308.324219 L 374.554688 308.378906 L 362.03125 308.378906 L 361.40625 308.328125 L 360.691406 308.285156 L 359.347656 308.234375 L 358.007812 308.195312 L 356.128906 308.160156 L 354.429688 308.136719 L 352.105469 308.109375 L 350.046875 308.09375 L 347.902344 308.082031 L 345.84375 308.074219 L 341.910156 308.066406 L 337.347656 308.066406 L 335.648438 308.070312 L 332.160156 308.082031 L 330.285156 308.089844 L 327.601562 308.109375 L 325.722656 308.125 L 323.484375 308.152344 L 321.964844 308.171875 L 320.085938 308.207031 L 318.746094 308.234375 L 317.226562 308.277344 L 316.332031 308.308594 L 315.527344 308.34375 L 314.8125 308.386719 L 314.273438 308.433594 L 313.917969 308.480469 L 313.738281 308.527344 L 313.738281 308.726562 L 313.917969 308.773438 L 314.363281 308.824219 L 315.527344 308.902344 L 317.226562 308.972656 L 319.195312 309.027344 L 321.070312 309.066406 L 322.144531 309.082031 L 323.574219 309.101562 L 325.8125 309.128906 L 329.03125 309.15625 L 330.910156 309.164062 L 333.769531 309.175781 L 336.722656 309.179688 L 340.65625 309.179688 L 344.144531 309.175781 L 346.472656 309.167969 L 348.886719 309.160156 L 352.195312 309.136719 L 354.25 309.117188 L 356.039062 309.089844 L 357.382812 309.066406 L 358.277344 309.046875 L 359.617188 309.007812 L 360.691406 308.964844 L 361.496094 308.917969 L 362.03125 308.875 L 374.554688 308.875 L 374.015625 308.925781 L 373.210938 308.976562 L 372.40625 309.011719 L 371.15625 309.058594 L 369.722656 309.097656 L 367.667969 309.144531 L 365.96875 309.171875 L 363.730469 309.203125 L 361.675781 309.230469 L 359.4375 309.25 L 356.128906 309.277344 L 353.984375 309.289062 L 351.65625 309.300781 L 348.886719 309.3125 L 345.398438 309.320312 L 341.640625 309.324219 L 338.152344 309.328125 L 334.398438 309.324219 L 331.625 309.320312 L 327.957031 309.308594 L 323.398438 309.285156 L 320.085938 309.261719 L 317.496094 309.234375 L 315.257812 309.210938 L 312.753906 309.175781 L 309.535156 309.117188 L 307.566406 309.074219 L 306.226562 309.039062 L 304.707031 308.988281 L 303.632812 308.945312 L 302.378906 308.871094 L 301.484375 308.78125 L 301.21875 308.710938 Z M 301.21875 308.53125 "/>
<path style=" stroke:none;fill-rule:nonzero;fill:rgb(96.862745%,70.196078%,16.862745%);fill-opacity:1;" d="M 301.21875 311.09375 L 301.304688 311.09375 L 301.304688 311.066406 L 301.664062 311.011719 L 302.558594 310.933594 L 303.722656 310.867188 L 304.972656 310.816406 L 305.777344 310.789062 L 307.121094 310.753906 L 308.28125 310.726562 L 311.234375 310.667969 L 314.988281 310.613281 L 317.046875 310.59375 L 319.371094 310.570312 L 322.679688 310.546875 L 324.203125 310.539062 L 328.851562 310.519531 L 334.128906 310.503906 L 339.941406 310.5 L 342.625 310.503906 L 346.292969 310.507812 L 351.300781 310.523438 L 354.164062 310.535156 L 356.398438 310.546875 L 358.722656 310.5625 L 361.585938 310.589844 L 364.269531 310.617188 L 366.414062 310.648438 L 368.5625 310.6875 L 370.351562 310.726562 L 371.871094 310.773438 L 373.210938 310.824219 L 374.015625 310.871094 L 374.554688 310.914062 L 362.121094 310.914062 L 361.40625 310.871094 L 360.601562 310.835938 L 359.261719 310.792969 L 357.917969 310.761719 L 356.578125 310.738281 L 354.074219 310.707031 L 351.925781 310.6875 L 349.242188 310.667969 L 346.648438 310.65625 L 343.699219 310.648438 L 337.167969 310.648438 L 332.875 310.65625 L 330.371094 310.664062 L 328.585938 310.675781 L 326.078125 310.695312 L 324.558594 310.710938 L 323.664062 310.71875 L 320.980469 310.757812 L 319.195312 310.792969 L 318.210938 310.820312 L 316.957031 310.855469 L 316.0625 310.890625 L 315.078125 310.941406 L 314.542969 310.980469 L 313.828125 311.066406 L 313.738281 311.292969 L 314.007812 311.339844 L 314.542969 311.390625 L 315.257812 311.4375 L 316.332031 311.484375 L 317.40625 311.523438 L 319.28125 311.570312 L 320.894531 311.605469 L 322.144531 311.625 L 324.558594 311.660156 L 325.542969 311.671875 L 327.867188 311.695312 L 330.285156 311.710938 L 333.234375 311.726562 L 335.46875 311.734375 L 339.046875 311.742188 L 343.609375 311.742188 L 348.976562 311.734375 L 352.375 311.722656 L 354.699219 311.714844 L 356.21875 311.703125 L 358.097656 311.691406 L 359.4375 311.679688 L 360.691406 311.664062 L 362.210938 311.644531 L 362.210938 311.339844 L 340.121094 311.339844 L 340.121094 311.199219 L 374.464844 311.195312 L 374.554688 311.691406 L 372.675781 311.726562 L 370.351562 311.757812 L 368.113281 311.78125 L 365.789062 311.804688 L 362.480469 311.828125 L 359.796875 311.84375 L 355.683594 311.859375 L 351.925781 311.871094 L 347.992188 311.878906 L 344.503906 311.882812 L 340.390625 311.886719 L 336.722656 311.882812 L 332.789062 311.875 L 329.65625 311.863281 L 326.796875 311.851562 L 323.933594 311.835938 L 320.355469 311.808594 L 318.03125 311.789062 L 315.617188 311.761719 L 313.203125 311.730469 L 311.054688 311.695312 L 309.625 311.667969 L 308.191406 311.640625 L 306.671875 311.601562 L 305.242188 311.558594 L 304.167969 311.519531 L 303.183594 311.472656 L 302.46875 311.433594 L 301.753906 311.375 L 301.394531 311.332031 L 301.21875 311.292969 Z M 301.21875 311.09375 "/>
<path style=" stroke:none;fill-rule:nonzero;fill:rgb(83.921569%,15.686275%,22.352941%);fill-opacity:1;" d="M 301.21875 313.058594 L 374.554688 313.058594 L 374.554688 313.074219 L 343.988281 313.074219 L 343.988281 313.195312 L 331.691406 313.195312 L 331.691406 313.074219 L 301.21875 313.074219 Z M 301.21875 313.058594 "/>
<path style=" stroke:none;fill-rule:nonzero;fill:rgb(6.27451%,58.823529%,28.235294%);fill-opacity:1;" d="M 378.414062 311.335938 L 378.492188 311.332031 L 410.222656 310.125 L 419.859375 310.125 L 451.75 311.335938 L 440.546875 311.335938 L 432.554688 311.019531 L 397.53125 311.019531 L 389.695312 311.335938 L 378.414062 311.335938 L 400.898438 310.890625 L 429.339844 310.886719 L 415.160156 310.324219 L 415.003906 310.320312 L 414.847656 310.324219 L 400.820312 310.886719 L 400.898438 310.890625 Z M 378.414062 311.335938 "/>
<path style=" stroke:none;fill-rule:nonzero;fill:rgb(14.509804%,36.078431%,60%);fill-opacity:1;" d="M 378.414062 307.488281 L 378.503906 307.488281 L 378.503906 307.429688 L 378.769531 307.339844 L 379.398438 307.226562 L 380.023438 307.148438 L 381.632812 307.011719 L 383.867188 306.875 L 386.195312 306.769531 L 387.894531 306.710938 L 389.414062 306.664062 L 392.902344 306.574219 L 395.136719 306.53125 L 397.550781 306.488281 L 400.503906 306.449219 L 402.648438 306.425781 L 407.480469 306.386719 L 411.054688 306.371094 L 413.828125 306.363281 L 419.820312 306.363281 L 423.398438 306.375 L 425.992188 306.386719 L 428.855469 306.40625 L 431.269531 306.425781 L 435.472656 306.476562 L 439.226562 306.542969 L 440.925781 306.582031 L 443.609375 306.65625 L 445.667969 306.726562 L 447.097656 306.789062 L 448.707031 306.875 L 450.140625 306.980469 L 451.210938 307.101562 L 451.75 307.203125 L 439.226562 307.203125 L 438.601562 307.109375 L 437.886719 307.035156 L 436.546875 306.9375 L 435.203125 306.871094 L 433.324219 306.800781 L 431.625 306.757812 L 429.300781 306.710938 L 427.246094 306.683594 L 425.097656 306.664062 L 423.039062 306.648438 L 419.105469 306.632812 L 414.542969 306.632812 L 412.84375 306.640625 L 409.355469 306.65625 L 407.480469 306.675781 L 404.796875 306.707031 L 402.917969 306.738281 L 400.683594 306.785156 L 399.160156 306.824219 L 397.285156 306.886719 L 395.941406 306.941406 L 394.421875 307.019531 L 393.527344 307.078125 L 392.722656 307.144531 L 392.007812 307.222656 L 391.46875 307.304688 L 391.113281 307.394531 L 390.933594 307.476562 L 390.933594 307.84375 L 391.113281 307.929688 L 391.558594 308.027344 L 392.722656 308.171875 L 394.421875 308.296875 L 396.390625 308.398438 L 398.265625 308.46875 L 399.339844 308.5 L 400.773438 308.539062 L 403.007812 308.585938 L 406.226562 308.632812 L 408.105469 308.652344 L 410.96875 308.671875 L 413.917969 308.679688 L 417.855469 308.679688 L 421.339844 308.671875 L 423.667969 308.660156 L 426.082031 308.640625 L 429.390625 308.601562 L 431.449219 308.5625 L 433.234375 308.519531 L 434.578125 308.472656 L 435.472656 308.433594 L 436.8125 308.363281 L 437.886719 308.28125 L 438.691406 308.199219 L 439.226562 308.117188 L 451.75 308.117188 L 451.210938 308.210938 L 450.40625 308.304688 L 449.601562 308.375 L 448.351562 308.457031 L 446.917969 308.53125 L 444.863281 308.613281 L 443.164062 308.667969 L 440.925781 308.726562 L 438.871094 308.769531 L 436.636719 308.8125 L 433.324219 308.859375 L 431.179688 308.882812 L 428.855469 308.902344 L 426.082031 308.921875 L 422.59375 308.9375 L 418.835938 308.949219 L 415.347656 308.949219 L 411.59375 308.945312 L 408.820312 308.9375 L 405.152344 308.914062 L 400.59375 308.871094 L 397.285156 308.828125 L 394.691406 308.78125 L 392.453125 308.734375 L 389.949219 308.671875 L 386.730469 308.566406 L 384.761719 308.488281 L 383.421875 308.421875 L 381.902344 308.328125 L 380.828125 308.246094 L 379.574219 308.113281 L 378.679688 307.945312 L 378.414062 307.816406 Z M 378.414062 307.488281 "/>
<path style=" stroke:none;fill-rule:nonzero;fill:rgb(96.862745%,70.196078%,16.862745%);fill-opacity:1;" d="M 378.414062 312.804688 L 378.503906 312.804688 L 378.503906 312.789062 L 378.859375 312.761719 L 379.753906 312.722656 L 380.917969 312.691406 L 382.167969 312.667969 L 382.972656 312.652344 L 384.316406 312.636719 L 385.476562 312.621094 L 388.429688 312.59375 L 392.1875 312.566406 L 394.242188 312.554688 L 396.566406 312.546875 L 399.878906 312.53125 L 401.398438 312.527344 L 406.046875 312.519531 L 411.324219 312.511719 L 419.820312 312.511719 L 423.488281 312.515625 L 428.496094 312.519531 L 431.359375 312.527344 L 433.59375 312.53125 L 435.917969 312.542969 L 438.78125 312.554688 L 441.464844 312.570312 L 443.609375 312.582031 L 445.757812 312.601562 L 447.546875 312.621094 L 449.066406 312.644531 L 450.40625 312.671875 L 451.210938 312.691406 L 451.75 312.714844 L 439.316406 312.714844 L 438.601562 312.691406 L 437.796875 312.675781 L 436.457031 312.65625 L 435.113281 312.640625 L 433.773438 312.628906 L 431.269531 312.613281 L 429.121094 312.601562 L 426.4375 312.59375 L 423.847656 312.585938 L 420.894531 312.582031 L 414.367188 312.582031 L 410.074219 312.585938 L 407.570312 312.59375 L 405.78125 312.597656 L 403.277344 312.605469 L 401.753906 312.613281 L 400.859375 312.617188 L 398.179688 312.636719 L 396.390625 312.65625 L 395.40625 312.667969 L 394.152344 312.6875 L 393.257812 312.703125 L 392.277344 312.726562 L 391.738281 312.746094 L 391.023438 312.789062 L 390.933594 312.902344 L 391.203125 312.925781 L 391.738281 312.953125 L 392.453125 312.972656 L 393.527344 313 L 394.601562 313.015625 L 396.480469 313.039062 L 398.089844 313.058594 L 399.339844 313.066406 L 401.753906 313.085938 L 402.738281 313.089844 L 405.066406 313.101562 L 407.480469 313.109375 L 410.429688 313.117188 L 412.667969 313.121094 L 416.242188 313.125 L 420.804688 313.125 L 426.171875 313.121094 L 429.570312 313.117188 L 431.894531 313.109375 L 433.414062 313.105469 L 435.292969 313.097656 L 436.636719 313.09375 L 437.886719 313.085938 L 439.40625 313.074219 L 439.40625 312.925781 L 417.316406 312.925781 L 417.316406 312.855469 L 451.660156 312.855469 L 451.75 313.097656 L 449.871094 313.117188 L 447.546875 313.132812 L 445.308594 313.144531 L 442.984375 313.15625 L 439.675781 313.167969 L 436.992188 313.175781 L 432.878906 313.183594 L 429.121094 313.191406 L 425.1875 313.191406 L 421.699219 313.195312 L 413.917969 313.195312 L 409.984375 313.191406 L 406.851562 313.1875 L 403.992188 313.179688 L 401.128906 313.171875 L 397.550781 313.160156 L 395.226562 313.148438 L 390.398438 313.117188 L 388.25 313.101562 L 386.820312 313.089844 L 385.390625 313.074219 L 383.867188 313.054688 L 382.4375 313.035156 L 381.363281 313.015625 L 380.378906 312.992188 L 379.664062 312.972656 L 378.949219 312.945312 L 378.59375 312.921875 L 378.414062 312.902344 Z M 378.414062 312.804688 "/>
<path style=" stroke:none;fill-rule:nonzero;fill:rgb(83.921569%,15.686275%,22.352941%);fill-opacity:1;" d="M 378.414062 27.183594 L 451.75 27.183594 L 451.75 56.941406 L 421.183594 57.203125 L 421.183594 305.191406 L 408.886719 305.191406 L 408.886719 57.464844 L 408.710938 56.941406 L 378.414062 56.941406 Z M 378.414062 27.183594 "/>
<path style=" stroke:none;fill-rule:nonzero;fill:rgb(6.27451%,58.823529%,28.235294%);fill-opacity:1;" d="M 455.609375 298.898438 L 455.6875 298.890625 L 487.417969 291.257812 L 497.054688 291.257812 L 528.945312 298.902344 L 517.742188 298.902344 L 509.75 296.90625 L 474.726562 296.90625 L 466.890625 298.898438 L 455.609375 298.898438 L 478.09375 296.082031 L 506.535156 296.074219 L 492.355469 292.503906 L 492.199219 292.5 L 492.042969 292.519531 L 478.015625 296.074219 L 478.09375 296.082031 Z M 455.609375 298.898438 "/>
<path style=" stroke:none;fill-rule:nonzero;fill:rgb(14.509804%,36.078431%,60%);fill-opacity:1;" d="M 455.609375 303.046875 L 455.699219 303.039062 L 455.699219 302.890625 L 455.964844 302.652344 L 456.59375 302.351562 L 457.21875 302.148438 L 458.828125 301.78125 L 461.066406 301.425781 L 463.390625 301.152344 L 465.089844 300.988281 L 466.609375 300.863281 L 470.097656 300.632812 L 472.332031 300.515625 L 474.746094 300.410156 L 477.699219 300.304688 L 479.847656 300.242188 L 484.675781 300.140625 L 488.253906 300.097656 L 491.023438 300.078125 L 497.015625 300.078125 L 500.59375 300.105469 L 503.1875 300.136719 L 506.050781 300.183594 L 508.464844 300.242188 L 512.667969 300.378906 L 516.425781 300.550781 L 518.125 300.652344 L 520.804688 300.84375 L 522.863281 301.03125 L 524.292969 301.195312 L 525.90625 301.425781 L 527.335938 301.707031 L 528.410156 302.023438 L 528.945312 302.292969 L 516.425781 302.292969 L 515.796875 302.042969 L 515.082031 301.847656 L 513.742188 301.59375 L 512.398438 301.414062 L 510.523438 301.230469 L 508.824219 301.113281 L 506.496094 300.996094 L 504.441406 300.921875 L 502.292969 300.863281 L 500.238281 300.828125 L 496.300781 300.789062 L 491.742188 300.789062 L 490.042969 300.800781 L 486.554688 300.851562 L 484.675781 300.894531 L 481.992188 300.984375 L 480.113281 301.0625 L 477.878906 301.1875 L 476.359375 301.292969 L 474.480469 301.457031 L 473.136719 301.597656 L 471.617188 301.804688 L 470.722656 301.960938 L 469.917969 302.136719 L 469.203125 302.339844 L 468.667969 302.558594 L 468.308594 302.789062 L 468.128906 303.015625 L 468.128906 303.980469 L 468.308594 304.203125 L 468.757812 304.464844 L 469.917969 304.847656 L 471.617188 305.175781 L 473.585938 305.4375 L 475.464844 305.625 L 476.535156 305.710938 L 477.96875 305.8125 L 480.203125 305.9375 L 483.421875 306.0625 L 485.300781 306.109375 L 488.164062 306.160156 L 491.113281 306.183594 L 495.050781 306.183594 L 498.539062 306.160156 L 500.863281 306.128906 L 503.277344 306.078125 L 506.585938 305.972656 L 508.644531 305.875 L 510.433594 305.753906 L 511.773438 305.636719 L 512.667969 305.539062 L 514.007812 305.34375 L 515.082031 305.132812 L 515.886719 304.914062 L 516.425781 304.703125 L 528.945312 304.703125 L 528.410156 304.953125 L 527.605469 305.195312 L 526.796875 305.375 L 525.546875 305.59375 L 524.117188 305.785156 L 522.058594 306.003906 L 520.359375 306.148438 L 518.125 306.304688 L 516.066406 306.421875 L 513.832031 306.527344 L 510.523438 306.652344 L 508.375 306.714844 L 506.050781 306.769531 L 503.277344 306.820312 L 499.789062 306.863281 L 496.035156 306.890625 L 492.546875 306.894531 L 488.789062 306.882812 L 486.015625 306.859375 L 482.351562 306.800781 L 477.789062 306.691406 L 474.480469 306.570312 L 471.886719 306.453125 L 469.648438 306.328125 L 467.144531 306.160156 L 463.925781 305.886719 L 461.957031 305.675781 L 460.617188 305.5 L 459.097656 305.257812 L 458.023438 305.039062 L 456.773438 304.691406 L 455.878906 304.246094 L 455.609375 303.90625 Z M 455.609375 303.046875 "/>
<path style=" stroke:none;fill-rule:nonzero;fill:rgb(96.862745%,70.196078%,16.862745%);fill-opacity:1;" d="M 455.609375 310.265625 L 455.699219 310.261719 L 455.699219 310.167969 L 456.054688 309.957031 L 456.949219 309.667969 L 458.113281 309.429688 L 459.367188 309.242188 L 460.171875 309.140625 L 461.511719 309.003906 L 462.675781 308.898438 L 465.625 308.6875 L 469.382812 308.492188 L 471.4375 308.40625 L 473.765625 308.328125 L 477.074219 308.238281 L 478.59375 308.207031 L 483.246094 308.132812 L 488.519531 308.085938 L 494.335938 308.070312 L 497.015625 308.074219 L 500.683594 308.09375 L 505.691406 308.144531 L 508.554688 308.191406 L 510.789062 308.238281 L 513.117188 308.300781 L 515.976562 308.394531 L 518.660156 308.503906 L 520.804688 308.617188 L 522.953125 308.757812 L 524.742188 308.910156 L 526.261719 309.070312 L 527.605469 309.269531 L 528.410156 309.433594 L 528.945312 309.597656 L 516.515625 309.597656 L 515.796875 309.433594 L 514.992188 309.304688 L 513.652344 309.152344 L 512.308594 309.039062 L 510.96875 308.949219 L 508.464844 308.828125 L 506.316406 308.753906 L 503.636719 308.6875 L 501.042969 308.644531 L 498.089844 308.617188 L 496.300781 308.609375 L 491.5625 308.609375 L 487.269531 308.640625 L 484.765625 308.679688 L 482.976562 308.714844 L 480.472656 308.785156 L 478.953125 308.84375 L 478.058594 308.878906 L 475.375 309.023438 L 473.585938 309.15625 L 472.601562 309.246094 L 471.347656 309.386719 L 470.457031 309.511719 L 469.472656 309.699219 L 468.933594 309.839844 L 468.21875 310.15625 L 468.128906 311 L 468.398438 311.179688 L 468.933594 311.371094 L 469.648438 311.539062 L 470.722656 311.714844 L 471.796875 311.851562 L 473.675781 312.035156 L 475.285156 312.15625 L 476.535156 312.234375 L 478.953125 312.363281 L 479.933594 312.40625 L 482.261719 312.488281 L 484.675781 312.554688 L 487.625 312.609375 L 489.863281 312.640625 L 493.441406 312.664062 L 498 312.664062 L 503.367188 312.632812 L 506.765625 312.597656 L 509.089844 312.558594 L 510.609375 312.527344 L 512.488281 312.476562 L 513.832031 312.429688 L 515.082031 312.375 L 516.601562 312.296875 L 516.601562 311.179688 L 494.511719 311.171875 L 494.511719 310.648438 L 528.855469 310.644531 L 528.945312 312.476562 L 527.066406 312.601562 L 524.742188 312.722656 L 522.507812 312.816406 L 520.179688 312.894531 L 516.871094 312.984375 L 514.1875 313.042969 L 510.074219 313.105469 L 506.316406 313.148438 L 502.382812 313.175781 L 498.894531 313.191406 L 494.78125 313.195312 L 491.113281 313.1875 L 487.179688 313.160156 L 484.050781 313.121094 L 481.1875 313.074219 L 478.324219 313.011719 L 474.746094 312.914062 L 472.421875 312.835938 L 470.007812 312.738281 L 467.59375 312.621094 L 465.445312 312.492188 L 464.015625 312.394531 L 462.585938 312.28125 L 461.066406 312.144531 L 459.632812 311.984375 L 458.558594 311.839844 L 457.578125 311.675781 L 456.859375 311.519531 L 456.144531 311.308594 L 455.789062 311.140625 L 455.609375 310.996094 Z M 455.609375 310.265625 "/>
<path style=" stroke:none;fill-rule:nonzero;fill:rgb(83.921569%,15.686275%,22.352941%);fill-opacity:1;" d="M 455.609375 96.628906 L 528.945312 96.628906 L 528.945312 117.335938 L 498.382812 117.519531 L 498.382812 290.082031 L 486.085938 290.082031 L 486.085938 117.699219 L 485.90625 117.335938 L 455.609375 117.335938 Z M 455.609375 96.628906 "/>
<path style=" stroke:none;fill-rule:nonzero;fill:rgb(6.27451%,58.823529%,28.235294%);fill-opacity:1;" d="M 532.804688 279.949219 L 532.882812 279.824219 L 564.617188 148.433594 L 574.253906 148.433594 L 606.140625 280.070312 L 594.9375 280.070312 L 586.945312 245.710938 L 551.921875 245.710938 L 544.085938 279.949219 L 532.804688 279.949219 L 555.292969 231.496094 L 583.734375 231.371094 L 569.550781 169.941406 L 569.394531 169.820312 L 569.238281 170.1875 L 555.214844 231.371094 L 555.292969 231.496094 Z M 532.804688 279.949219 "/>
<path style=" stroke:none;fill-rule:nonzero;fill:rgb(14.509804%,36.078431%,60%);fill-opacity:1;" d="M 532.804688 312.117188 L 532.894531 312.113281 L 532.894531 312.070312 L 533.164062 312.003906 L 533.789062 311.921875 L 534.414062 311.863281 L 536.023438 311.761719 L 538.261719 311.660156 L 540.585938 311.585938 L 542.285156 311.539062 L 543.804688 311.503906 L 547.292969 311.4375 L 549.527344 311.40625 L 551.945312 311.375 L 554.894531 311.347656 L 557.042969 311.328125 L 561.871094 311.300781 L 565.449219 311.289062 L 568.222656 311.285156 L 574.214844 311.285156 L 577.789062 311.289062 L 580.382812 311.300781 L 583.246094 311.3125 L 585.660156 311.328125 L 589.863281 311.367188 L 593.621094 311.417969 L 595.320312 311.445312 L 598.003906 311.5 L 600.058594 311.550781 L 601.492188 311.597656 L 603.101562 311.660156 L 604.53125 311.738281 L 605.605469 311.828125 L 606.140625 311.902344 L 593.621094 311.902344 L 592.996094 311.835938 L 592.277344 311.78125 L 590.9375 311.707031 L 589.597656 311.65625 L 587.71875 311.605469 L 586.019531 311.574219 L 583.691406 311.539062 L 581.636719 311.519531 L 579.488281 311.503906 L 577.433594 311.492188 L 573.496094 311.484375 L 567.238281 311.484375 L 563.75 311.5 L 561.871094 311.511719 L 559.1875 311.535156 L 557.308594 311.558594 L 555.074219 311.59375 L 553.554688 311.625 L 551.675781 311.667969 L 550.335938 311.710938 L 548.8125 311.769531 L 547.917969 311.8125 L 547.113281 311.859375 L 546.398438 311.917969 L 545.863281 311.980469 L 545.503906 312.042969 L 545.324219 312.105469 L 545.324219 312.378906 L 545.503906 312.441406 L 545.953125 312.515625 L 547.113281 312.621094 L 548.8125 312.714844 L 550.78125 312.785156 L 552.660156 312.839844 L 553.734375 312.863281 L 555.164062 312.890625 L 557.398438 312.925781 L 560.617188 312.960938 L 562.496094 312.976562 L 565.359375 312.988281 L 568.308594 312.996094 L 572.246094 312.996094 L 575.734375 312.988281 L 578.058594 312.980469 L 580.472656 312.96875 L 583.78125 312.9375 L 585.839844 312.910156 L 587.628906 312.875 L 588.96875 312.84375 L 589.863281 312.816406 L 591.207031 312.761719 L 592.277344 312.699219 L 593.082031 312.640625 L 593.621094 312.582031 L 606.140625 312.582031 L 605.605469 312.652344 L 604.800781 312.71875 L 603.996094 312.769531 L 602.742188 312.832031 L 601.3125 312.882812 L 599.253906 312.945312 L 597.554688 312.984375 L 595.320312 313.03125 L 593.261719 313.0625 L 591.027344 313.09375 L 587.71875 313.128906 L 585.570312 313.144531 L 583.246094 313.160156 L 580.472656 313.175781 L 576.984375 313.1875 L 573.230469 313.195312 L 569.742188 313.195312 L 565.984375 313.191406 L 563.210938 313.183594 L 559.546875 313.167969 L 554.984375 313.136719 L 551.675781 313.105469 L 549.082031 313.070312 L 546.847656 313.035156 L 544.34375 312.988281 L 541.121094 312.914062 L 539.15625 312.851562 L 537.8125 312.804688 L 536.292969 312.734375 L 535.21875 312.675781 L 533.96875 312.578125 L 533.074219 312.453125 L 532.804688 312.355469 Z M 532.804688 312.117188 "/>
<path style=" stroke:none;fill-rule:nonzero;fill:rgb(96.862745%,70.196078%,16.862745%);fill-opacity:1;" d="M 532.804688 289.433594 L 532.894531 289.414062 L 532.894531 289.066406 L 533.253906 288.28125 L 534.144531 287.199219 L 535.308594 286.308594 L 536.5625 285.609375 L 537.367188 285.242188 L 538.707031 284.71875 L 539.871094 284.335938 L 542.820312 283.550781 L 546.578125 282.816406 L 548.636719 282.503906 L 550.960938 282.207031 L 554.269531 281.875 L 555.789062 281.753906 L 560.441406 281.472656 L 565.714844 281.300781 L 571.53125 281.246094 L 574.214844 281.265625 L 577.878906 281.335938 L 582.886719 281.527344 L 585.75 281.699219 L 587.984375 281.875 L 590.3125 282.101562 L 593.171875 282.453125 L 595.855469 282.871094 L 598.003906 283.289062 L 600.148438 283.8125 L 601.9375 284.371094 L 603.457031 284.980469 L 604.800781 285.714844 L 605.605469 286.324219 L 606.140625 286.9375 L 593.710938 286.9375 L 592.996094 286.324219 L 592.1875 285.855469 L 590.847656 285.277344 L 589.507812 284.859375 L 588.164062 284.527344 L 585.660156 284.074219 L 583.515625 283.796875 L 580.832031 283.550781 L 578.238281 283.394531 L 575.285156 283.289062 L 573.496094 283.253906 L 568.757812 283.253906 L 564.464844 283.375 L 561.960938 283.515625 L 560.171875 283.65625 L 557.667969 283.917969 L 556.148438 284.125 L 555.253906 284.265625 L 552.570312 284.808594 L 550.78125 285.296875 L 549.796875 285.628906 L 548.546875 286.152344 L 547.652344 286.621094 L 546.667969 287.320312 L 546.128906 287.84375 L 545.414062 289.03125 L 545.324219 292.171875 L 545.59375 292.835938 L 546.128906 293.550781 L 546.847656 294.179688 L 547.917969 294.839844 L 548.992188 295.347656 L 550.871094 296.027344 L 552.480469 296.480469 L 553.734375 296.777344 L 556.148438 297.25 L 557.132812 297.40625 L 559.457031 297.722656 L 561.871094 297.964844 L 564.824219 298.175781 L 567.058594 298.28125 L 570.636719 298.367188 L 575.195312 298.367188 L 580.5625 298.261719 L 583.960938 298.121094 L 586.285156 297.984375 L 587.808594 297.859375 L 589.683594 297.667969 L 591.027344 297.492188 L 592.277344 297.300781 L 593.800781 297.003906 L 593.800781 292.835938 L 571.707031 292.816406 L 571.707031 290.863281 L 606.050781 290.84375 L 606.140625 297.667969 L 604.261719 298.140625 L 601.9375 298.59375 L 599.703125 298.941406 L 597.375 299.238281 L 594.066406 299.570312 L 591.382812 299.78125 L 587.269531 300.023438 L 583.515625 300.179688 L 579.578125 300.285156 L 576.089844 300.339844 L 571.976562 300.355469 L 568.308594 300.320312 L 564.375 300.214844 L 561.246094 300.078125 L 558.382812 299.902344 L 555.519531 299.675781 L 551.945312 299.308594 L 549.617188 299.011719 L 547.203125 298.644531 L 544.789062 298.210938 L 542.644531 297.738281 L 541.210938 297.371094 L 539.78125 296.953125 L 538.261719 296.429688 L 536.828125 295.835938 L 535.757812 295.296875 L 534.773438 294.683594 L 534.058594 294.109375 L 533.339844 293.324219 L 532.984375 292.695312 L 532.804688 292.152344 Z M 532.804688 289.433594 "/>
<path style=" stroke:none;fill-rule:nonzero;fill:rgb(83.921569%,15.686275%,22.352941%);fill-opacity:1;" d="M 532.804688 301.53125 L 606.140625 301.53125 L 606.140625 302.449219 L 575.578125 302.457031 L 575.578125 310.109375 L 563.28125 310.109375 L 563.28125 302.464844 L 563.101562 302.449219 L 532.804688 302.449219 Z M 532.804688 301.53125 "/>
<g style="fill:rgb(0%,0%,0%);fill-opacity:1;">
  <use xlink:href="#glyph0-1" x="21.957031" y="317.018555"/>
  <use xlink:href="#glyph0-2" x="27.291016" y="317.018555"/>
  <use xlink:href="#glyph0-1" x="29.958008" y="317.018555"/>
</g>
<g style="fill:rgb(0%,0%,0%);fill-opacity:1;">
  <use xlink:href="#glyph0-1" x="21.957031" y="236.073242"/>
  <use xlink:href="#glyph0-2" x="27.291016" y="236.073242"/>
  <use xlink:href="#glyph0-3" x="29.958008" y="236.073242"/>
</g>
<g style="fill:rgb(0%,0%,0%);fill-opacity:1;">
  <use xlink:href="#glyph0-4" x="21.957031" y="155.12793"/>
  <use xlink:href="#glyph0-2" x="27.291016" y="155.12793"/>
  <use xlink:href="#glyph0-1" x="29.958008" y="155.12793"/>
</g>
<g style="fill:rgb(0%,0%,0%);fill-opacity:1;">
  <use xlink:href="#glyph0-4" x="21.957031" y="74.182617"/>
  <use xlink:href="#glyph0-2" x="27.291016" y="74.182617"/>
  <use xlink:href="#glyph0-3" x="29.958008" y="74.182617"/>
</g>
<g style="fill:rgb(0%,0%,0%);fill-opacity:1;">
  <use xlink:href="#glyph0-4" x="103.296875" y="338.19043"/>
</g>
<g style="fill:rgb(0%,0%,0%);fill-opacity:1;">
  <use xlink:href="#glyph0-5" x="180.492188" y="338.19043"/>
</g>
<g style="fill:rgb(0%,0%,0%);fill-opacity:1;">
  <use xlink:href="#glyph0-6" x="257.6875" y="338.19043"/>
</g>
<g style="fill:rgb(0%,0%,0%);fill-opacity:1;">
  <use xlink:href="#glyph0-7" x="334.886719" y="338.19043"/>
</g>
<g style="fill:rgb(0%,0%,0%);fill-opacity:1;">
  <use xlink:href="#glyph0-3" x="412.082031" y="338.19043"/>
</g>
<g style="fill:rgb(0%,0%,0%);fill-opacity:1;">
  <use xlink:href="#glyph0-8" x="489.277344" y="338.19043"/>
</g>
<g style="fill:rgb(0%,0%,0%);fill-opacity:1;">
  <use xlink:href="#glyph0-9" x="566.472656" y="338.19043"/>
</g>
<g style="fill:rgb(0%,0%,0%);fill-opacity:1;">
  <use xlink:href="#glyph0-10" x="643.667969" y="338.19043"/>
</g>
<g style="fill:rgb(0%,0%,0%);fill-opacity:1;">
  <use xlink:href="#glyph1-1" x="14.412109" y="178.015625"/>
  <use xlink:href="#glyph1-2" x="14.412109" y="170.011719"/>
  <use xlink:href="#glyph1-3" x="14.412109" y="167.347656"/>
  <use xlink:href="#glyph1-4" x="14.412109" y="164.011719"/>
</g>
</g>
</svg>
