<?xml version="1.0" encoding="UTF-8"?>
<svg xmlns="http://www.w3.org/2000/svg" xmlns:xlink="http://www.w3.org/1999/xlink" width="720pt" height="360pt" viewBox="0 0 720 360" version="1.1">
<defs>
<g>
<symbol overflow="visible" id="glyph0-0">
<path style="stroke:none;" d=""/>
</symbol>
<symbol overflow="visible" id="glyph0-1">
<path style="stroke:none;" d="M 2.640625 -6.796875 C 2 -6.796875 1.421875 -6.53125 1.078125 -6.046875 C 0.640625 -5.453125 0.40625 -4.546875 0.40625 -3.296875 C 0.40625 -1 1.1875 0.21875 2.640625 0.21875 C 4.078125 0.21875 4.859375 -1 4.859375 -3.234375 C 4.859375 -4.5625 4.65625 -5.4375 4.203125 -6.046875 C 3.84375 -6.53125 3.28125 -6.796875 2.640625 -6.796875 Z M 2.640625 -6.046875 C 3.546875 -6.046875 4 -5.125 4 -3.3125 C 4 -1.375 3.5625 -0.484375 2.625 -0.484375 C 1.734375 -0.484375 1.28125 -1.421875 1.28125 -3.28125 C 1.28125 -5.140625 1.734375 -6.046875 2.640625 -6.046875 Z M 2.640625 -6.046875 "/>
</symbol>
<symbol overflow="visible" id="glyph0-2">
<path style="stroke:none;" d="M 1.828125 -1 L 0.828125 -1 L 0.828125 0 L 1.828125 0 Z M 1.828125 -1 "/>
</symbol>
<symbol overflow="visible" id="glyph0-3">
<path style="stroke:none;" d="M 4.5625 -6.796875 L 1.0625 -6.796875 L 0.546875 -3.09375 L 1.328125 -3.09375 C 1.71875 -3.5625 2.046875 -3.734375 2.578125 -3.734375 C 3.484375 -3.734375 4.0625 -3.109375 4.0625 -2.09375 C 4.0625 -1.125 3.484375 -0.53125 2.578125 -0.53125 C 1.828125 -0.53125 1.375 -0.90625 1.1875 -1.671875 L 0.328125 -1.671875 C 0.453125 -1.109375 0.546875 -0.84375 0.75 -0.59375 C 1.125 -0.078125 1.828125 0.21875 2.59375 0.21875 C 3.96875 0.21875 4.921875 -0.78125 4.921875 -2.21875 C 4.921875 -3.5625 4.03125 -4.484375 2.71875 -4.484375 C 2.25 -4.484375 1.859375 -4.359375 1.46875 -4.0625 L 1.734375 -5.96875 L 4.5625 -5.96875 Z M 4.5625 -6.796875 "/>
</symbol>
<symbol overflow="visible" id="glyph0-4">
<path style="stroke:none;" d="M 2.484375 -4.84375 L 2.484375 0 L 3.328125 0 L 3.328125 -6.796875 L 2.765625 -6.796875 C 2.46875 -5.75 2.28125 -5.609375 0.984375 -5.453125 L 0.984375 -4.84375 Z M 2.484375 -4.84375 "/>
</symbol>
<symbol overflow="visible" id="glyph0-5">
<path style="stroke:none;" d="M 4.859375 -0.828125 L 1.28125 -0.828125 C 1.359375 -1.390625 1.671875 -1.75 2.5 -2.234375 L 3.46875 -2.75 C 4.40625 -3.265625 4.90625 -3.96875 4.90625 -4.8125 C 4.90625 -5.375 4.671875 -5.90625 4.265625 -6.265625 C 3.859375 -6.625 3.375 -6.796875 2.71875 -6.796875 C 1.859375 -6.796875 1.21875 -6.5 0.84375 -5.921875 C 0.609375 -5.5625 0.5 -5.125 0.484375 -4.4375 L 1.328125 -4.4375 C 1.359375 -4.90625 1.40625 -5.1875 1.53125 -5.40625 C 1.75 -5.8125 2.1875 -6.0625 2.703125 -6.0625 C 3.46875 -6.0625 4.03125 -5.515625 4.03125 -4.78125 C 4.03125 -4.25 3.71875 -3.796875 3.125 -3.4375 L 2.234375 -2.9375 C 0.8125 -2.140625 0.40625 -1.5 0.328125 0 L 4.859375 0 Z M 4.859375 -0.828125 "/>
</symbol>
<symbol overflow="visible" id="glyph0-6">
<path style="stroke:none;" d="M 2.125 -3.125 L 2.578125 -3.125 C 3.515625 -3.125 3.984375 -2.703125 3.984375 -1.890625 C 3.984375 -1.03125 3.46875 -0.53125 2.578125 -0.53125 C 1.65625 -0.53125 1.203125 -0.984375 1.15625 -1.96875 L 0.3125 -1.96875 C 0.34375 -1.421875 0.4375 -1.078125 0.609375 -0.765625 C 0.953125 -0.109375 1.625 0.21875 2.546875 0.21875 C 3.953125 0.21875 4.859375 -0.609375 4.859375 -1.90625 C 4.859375 -2.765625 4.515625 -3.25 3.703125 -3.515625 C 4.34375 -3.765625 4.65625 -4.25 4.65625 -4.9375 C 4.65625 -6.109375 3.875 -6.796875 2.578125 -6.796875 C 1.203125 -6.796875 0.484375 -6.046875 0.453125 -4.609375 L 1.296875 -4.609375 C 1.3125 -5.015625 1.34375 -5.25 1.453125 -5.453125 C 1.640625 -5.828125 2.0625 -6.0625 2.59375 -6.0625 C 3.34375 -6.0625 3.796875 -5.625 3.796875 -4.90625 C 3.796875 -4.421875 3.609375 -4.140625 3.25 -3.984375 C 3.015625 -3.890625 2.71875 -3.84375 2.125 -3.84375 Z M 2.125 -3.125 "/>
</symbol>
<symbol overflow="visible" id="glyph0-7">
<path style="stroke:none;" d="M 3.140625 -1.625 L 3.140625 0 L 3.984375 0 L 3.984375 -1.625 L 4.984375 -1.625 L 4.984375 -2.390625 L 3.984375 -2.390625 L 3.984375 -6.796875 L 3.359375 -6.796875 L 0.265625 -2.515625 L 0.265625 -1.625 Z M 3.140625 -2.390625 L 1 -2.390625 L 3.140625 -5.359375 Z M 3.140625 -2.390625 "/>
</symbol>
<symbol overflow="visible" id="glyph0-8">
<path style="stroke:none;" d="M 4.78125 -5.03125 C 4.609375 -6.140625 3.890625 -6.796875 2.84375 -6.796875 C 2.09375 -6.796875 1.421875 -6.4375 1.03125 -5.828125 C 0.609375 -5.171875 0.40625 -4.34375 0.40625 -3.09375 C 0.40625 -1.953125 0.578125 -1.234375 0.984375 -0.625 C 1.359375 -0.078125 1.953125 0.21875 2.703125 0.21875 C 3.984375 0.21875 4.921875 -0.734375 4.921875 -2.078125 C 4.921875 -3.34375 4.0625 -4.234375 2.84375 -4.234375 C 2.171875 -4.234375 1.640625 -3.96875 1.28125 -3.46875 C 1.28125 -5.125 1.828125 -6.046875 2.796875 -6.046875 C 3.390625 -6.046875 3.796875 -5.671875 3.9375 -5.03125 Z M 2.734375 -3.484375 C 3.546875 -3.484375 4.0625 -2.921875 4.0625 -2 C 4.0625 -1.15625 3.484375 -0.53125 2.703125 -0.53125 C 1.921875 -0.53125 1.328125 -1.1875 1.328125 -2.046875 C 1.328125 -2.890625 1.90625 -3.484375 2.734375 -3.484375 Z M 2.734375 -3.484375 "/>
</symbol>
<symbol overflow="visible" id="glyph0-9">
<path style="stroke:none;" d="M 4.984375 -6.796875 L 0.4375 -6.796875 L 0.4375 -5.96875 L 4.109375 -5.96875 C 2.5 -3.65625 1.828125 -2.234375 1.328125 0 L 2.21875 0 C 2.59375 -2.171875 3.453125 -4.046875 4.984375 -6.09375 Z M 4.984375 -6.796875 "/>
</symbol>
<symbol overflow="visible" id="glyph0-10">
<path style="stroke:none;" d="M 3.75 -3.578125 C 4.453125 -4 4.6875 -4.34375 4.6875 -4.984375 C 4.6875 -6.046875 3.84375 -6.796875 2.640625 -6.796875 C 1.4375 -6.796875 0.59375 -6.046875 0.59375 -4.984375 C 0.59375 -4.359375 0.828125 -4.015625 1.515625 -3.578125 C 0.734375 -3.203125 0.359375 -2.640625 0.359375 -1.890625 C 0.359375 -0.640625 1.296875 0.21875 2.640625 0.21875 C 3.984375 0.21875 4.921875 -0.640625 4.921875 -1.875 C 4.921875 -2.640625 4.53125 -3.203125 3.75 -3.578125 Z M 2.640625 -6.046875 C 3.359375 -6.046875 3.8125 -5.625 3.8125 -4.96875 C 3.8125 -4.34375 3.34375 -3.921875 2.640625 -3.921875 C 1.921875 -3.921875 1.453125 -4.34375 1.453125 -4.984375 C 1.453125 -5.625 1.921875 -6.046875 2.640625 -6.046875 Z M 2.640625 -3.203125 C 3.484375 -3.203125 4.0625 -2.671875 4.0625 -1.875 C 4.0625 -1.0625 3.484375 -0.53125 2.625 -0.53125 C 1.796875 -0.53125 1.21875 -1.078125 1.21875 -1.875 C 1.21875 -2.671875 1.796875 -3.203125 2.640625 -3.203125 Z M 2.640625 -3.203125 "/>
</symbol>
<symbol overflow="visible" id="glyph0-11">
<path style="stroke:none;" d="M 0.515625 -1.546875 C 0.671875 -0.4375 1.40625 0.21875 2.4375 0.21875 C 3.1875 0.21875 3.859375 -0.140625 4.265625 -0.75 C 4.6875 -1.40625 4.890625 -2.25 4.890625 -3.484375 C 4.890625 -4.625 4.703125 -5.359375 4.3125 -5.953125 C 3.9375 -6.5 3.34375 -6.796875 2.59375 -6.796875 C 1.296875 -6.796875 0.359375 -5.84375 0.359375 -4.515625 C 0.359375 -3.25 1.234375 -2.34375 2.453125 -2.34375 C 3.09375 -2.34375 3.5625 -2.578125 4.015625 -3.109375 C 4 -1.453125 3.46875 -0.53125 2.5 -0.53125 C 1.90625 -0.53125 1.484375 -0.90625 1.359375 -1.546875 Z M 2.578125 -6.0625 C 3.375 -6.0625 3.96875 -5.40625 3.96875 -4.53125 C 3.96875 -3.6875 3.375 -3.09375 2.546875 -3.09375 C 1.734375 -3.09375 1.234375 -3.671875 1.234375 -4.578125 C 1.234375 -5.4375 1.796875 -6.0625 2.578125 -6.0625 Z M 2.578125 -6.0625 "/>
</symbol>
<symbol overflow="visible" id="glyph1-0">
<path style="stroke:none;" d=""/>
</symbol>
<symbol overflow="visible" id="glyph1-1">
<path style="stroke:none;" d="M 0 -0.953125 L 0 -4.890625 C 0 -5.71875 -0.234375 -6.34375 -0.734375 -6.796875 C -1.1875 -7.234375 -1.8125 -7.46875 -2.5 -7.46875 C -3.546875 -7.46875 -4.1875 -7 -4.625 -5.875 C -4.984375 -6.671875 -5.640625 -7.09375 -6.53125 -7.09375 C -7.15625 -7.09375 -7.734375 -6.859375 -8.140625 -6.390625 C -8.5625 -5.9375 -8.75 -5.34375 -8.75 -4.5 L -8.75 -0.953125 Z M -4.984375 -2.0625 L -7.765625 -2.0625 L -7.765625 -4.21875 C -7.765625 -4.84375 -7.6875 -5.203125 -7.453125 -5.5 C -7.21875 -5.8125 -6.859375 -5.96875 -6.375 -5.96875 C -5.90625 -5.96875 -5.53125 -5.8125 -5.296875 -5.5 C -5.0625 -5.203125 -4.984375 -4.84375 -4.984375 -4.21875 Z M -0.984375 -2.0625 L -4 -2.0625 L -4 -4.78125 C -4 -5.328125 -3.859375 -5.6875 -3.578125 -5.953125 C -3.296875 -6.21875 -2.921875 -6.359375 -2.484375 -6.359375 C -2.0625 -6.359375 -1.6875 -6.21875 -1.40625 -5.953125 C -1.109375 -5.6875 -0.984375 -5.328125 -0.984375 -4.78125 Z M -0.984375 -2.0625 "/>
</symbol>
<symbol overflow="visible" id="glyph1-2">
<path style="stroke:none;" d="M -6.28125 -1.796875 L -6.28125 -0.796875 L 0 -0.796875 L 0 -1.796875 Z M -8.75 -1.796875 L -8.75 -0.796875 L -7.484375 -0.796875 L -7.484375 -1.796875 Z M -8.75 -1.796875 "/>
</symbol>
<symbol overflow="visible" id="glyph1-3">
<path style="stroke:none;" d="M -6.28125 -3.046875 L -6.28125 -2.015625 L -8.015625 -2.015625 L -8.015625 -1.015625 L -6.28125 -1.015625 L -6.28125 -0.171875 L -5.46875 -0.171875 L -5.46875 -1.015625 L -0.71875 -1.015625 C -0.078125 -1.015625 0.28125 -1.453125 0.28125 -2.234375 C 0.28125 -2.46875 0.25 -2.71875 0.1875 -3.046875 L -0.640625 -3.046875 C -0.609375 -2.921875 -0.59375 -2.765625 -0.59375 -2.5625 C -0.59375 -2.140625 -0.71875 -2.015625 -1.15625 -2.015625 L -5.46875 -2.015625 L -5.46875 -3.046875 Z M -6.28125 -3.046875 "/>
</symbol>
<symbol overflow="visible" id="glyph1-4">
<path style="stroke:none;" d="M -4.53125 -5.25 C -5.765625 -5.25 -6.46875 -4.421875 -6.46875 -2.96875 C -6.46875 -1.515625 -5.71875 -0.5625 -4.546875 -0.5625 C -3.5625 -0.5625 -3.09375 -1.0625 -2.734375 -2.5625 L -2.515625 -3.484375 C -2.34375 -4.1875 -2.09375 -4.46875 -1.625 -4.46875 C -1.046875 -4.46875 -0.640625 -3.875 -0.640625 -3 C -0.640625 -2.453125 -0.796875 -2 -1.0625 -1.75 C -1.25 -1.59375 -1.421875 -1.53125 -1.875 -1.46875 L -1.875 -0.40625 C -0.421875 -0.453125 0.28125 -1.265625 0.28125 -2.921875 C 0.28125 -4.5 -0.5 -5.515625 -1.71875 -5.515625 C -2.65625 -5.515625 -3.171875 -4.984375 -3.46875 -3.734375 L -3.703125 -2.765625 C -3.890625 -1.953125 -4.15625 -1.609375 -4.59375 -1.609375 C -5.171875 -1.609375 -5.546875 -2.125 -5.546875 -2.9375 C -5.546875 -3.75 -5.203125 -4.171875 -4.53125 -4.203125 Z M -4.53125 -5.25 "/>
</symbol>
</g>
</defs>
<g id="surface91553">
<rect x="0" y="0" width="720" height="360" style="fill:rgb(100%,100%,100%);fill-opacity:1;stroke:none;"/>
<path style=" stroke:none;fill-rule:nonzero;fill:rgb(6.27451%,58.823529%,28.235294%);fill-opacity:1;" d="M 69.628906 298.117188 L 69.691406 298.105469 L 95.046875 284.378906 L 102.746094 284.378906 L 128.222656 298.132812 L 119.273438 298.132812 L 112.886719 294.542969 L 84.902344 294.542969 L 78.644531 298.117188 L 69.628906 298.117188 L 87.597656 293.054688 L 110.320312 293.042969 L 98.988281 286.625 L 98.863281 286.613281 L 98.738281 286.652344 L 87.535156 293.042969 L 87.597656 293.054688 Z M 69.628906 298.117188 "/>
<path style=" stroke:none;fill-rule:nonzero;fill:rgb(14.509804%,36.078431%,60%);fill-opacity:1;" d="M 69.628906 302.460938 L 69.699219 302.453125 L 69.699219 302.296875 L 69.914062 302.042969 L 70.414062 301.726562 L 70.914062 301.507812 L 72.203125 301.117188 L 73.988281 300.742188 L 75.847656 300.449219 L 77.203125 300.277344 L 78.417969 300.144531 L 81.207031 299.898438 L 82.992188 299.773438 L 84.921875 299.660156 L 87.28125 299.550781 L 88.996094 299.484375 L 92.851562 299.378906 L 95.710938 299.332031 L 97.925781 299.3125 L 102.714844 299.3125 L 105.574219 299.335938 L 107.644531 299.371094 L 109.929688 299.425781 L 111.859375 299.484375 L 115.21875 299.628906 L 118.21875 299.8125 L 119.578125 299.921875 L 121.722656 300.125 L 123.367188 300.324219 L 124.507812 300.496094 L 125.796875 300.742188 L 126.9375 301.039062 L 127.796875 301.375 L 128.222656 301.660156 L 118.21875 301.660156 L 117.71875 301.394531 L 117.148438 301.191406 L 116.078125 300.917969 L 115.003906 300.726562 L 113.503906 300.535156 L 112.148438 300.410156 L 110.289062 300.285156 L 108.644531 300.203125 L 106.929688 300.144531 L 105.285156 300.105469 L 102.140625 300.066406 L 98.5 300.066406 L 97.140625 300.078125 L 94.355469 300.132812 L 92.851562 300.179688 L 90.710938 300.269531 L 89.207031 300.355469 L 87.421875 300.488281 L 86.207031 300.601562 L 84.707031 300.773438 L 83.636719 300.925781 L 82.421875 301.144531 L 81.707031 301.308594 L 81.0625 301.496094 L 80.492188 301.714844 L 80.0625 301.945312 L 79.777344 302.191406 L 79.632812 302.429688 L 79.632812 303.453125 L 79.777344 303.691406 L 80.132812 303.96875 L 81.0625 304.375 L 82.421875 304.726562 L 83.992188 305.003906 L 85.492188 305.203125 L 86.351562 305.292969 L 87.492188 305.398438 L 89.28125 305.53125 L 91.851562 305.664062 L 93.351562 305.71875 L 95.640625 305.769531 L 97.996094 305.796875 L 101.140625 305.796875 L 103.929688 305.769531 L 105.785156 305.738281 L 107.714844 305.683594 L 110.359375 305.570312 L 112.003906 305.464844 L 113.433594 305.339844 L 114.503906 305.214844 L 115.21875 305.109375 L 116.292969 304.902344 L 117.148438 304.679688 L 117.792969 304.445312 L 118.21875 304.222656 L 128.222656 304.222656 L 127.796875 304.488281 L 127.152344 304.746094 L 126.507812 304.9375 L 125.507812 305.167969 L 124.367188 305.375 L 122.722656 305.605469 L 121.363281 305.757812 L 119.578125 305.921875 L 117.933594 306.046875 L 116.148438 306.160156 L 113.503906 306.292969 L 111.789062 306.359375 L 109.929688 306.417969 L 107.714844 306.472656 L 104.929688 306.519531 L 101.929688 306.542969 L 99.140625 306.550781 L 96.140625 306.539062 L 93.925781 306.511719 L 90.996094 306.453125 L 87.351562 306.332031 L 84.707031 306.207031 L 82.632812 306.082031 L 80.847656 305.949219 L 78.847656 305.769531 L 76.273438 305.480469 L 74.703125 305.253906 L 73.632812 305.070312 L 72.417969 304.8125 L 71.558594 304.578125 L 70.558594 304.207031 L 69.84375 303.738281 L 69.628906 303.375 Z M 69.628906 302.460938 "/>
<path style=" stroke:none;fill-rule:nonzero;fill:rgb(96.862745%,70.196078%,16.862745%);fill-opacity:1;" d="M 69.628906 310.574219 L 69.699219 310.570312 L 69.699219 310.449219 L 69.988281 310.175781 L 70.703125 309.796875 L 71.628906 309.488281 L 72.628906 309.246094 L 73.273438 309.121094 L 74.34375 308.9375 L 75.273438 308.804688 L 77.632812 308.53125 L 80.632812 308.277344 L 82.277344 308.167969 L 84.136719 308.0625 L 86.777344 307.949219 L 87.992188 307.90625 L 91.710938 307.808594 L 95.925781 307.75 L 100.570312 307.730469 L 102.714844 307.738281 L 105.644531 307.761719 L 109.644531 307.828125 L 111.933594 307.886719 L 113.71875 307.949219 L 115.578125 308.027344 L 117.863281 308.148438 L 120.007812 308.292969 L 121.722656 308.441406 L 123.4375 308.621094 L 124.867188 308.816406 L 126.082031 309.027344 L 127.152344 309.28125 L 127.796875 309.496094 L 128.222656 309.707031 L 118.292969 309.707031 L 117.71875 309.496094 L 117.078125 309.332031 L 116.003906 309.132812 L 114.933594 308.984375 L 113.863281 308.871094 L 111.859375 308.714844 L 110.144531 308.617188 L 108.003906 308.53125 L 105.929688 308.476562 L 103.570312 308.441406 L 102.140625 308.429688 L 98.355469 308.429688 L 94.925781 308.46875 L 92.925781 308.519531 L 91.496094 308.566406 L 89.496094 308.660156 L 88.28125 308.730469 L 87.566406 308.78125 L 85.421875 308.96875 L 83.992188 309.136719 L 83.207031 309.253906 L 82.207031 309.433594 L 81.492188 309.597656 L 80.707031 309.839844 L 80.277344 310.023438 L 79.703125 310.433594 L 79.632812 311.527344 L 79.847656 311.757812 L 80.277344 312.003906 L 80.847656 312.222656 L 81.707031 312.453125 L 82.5625 312.628906 L 84.0625 312.867188 L 85.351562 313.023438 L 86.351562 313.128906 L 88.28125 313.292969 L 89.066406 313.347656 L 90.921875 313.453125 L 92.851562 313.539062 L 95.210938 313.613281 L 96.996094 313.648438 L 99.855469 313.679688 L 103.5 313.679688 L 107.789062 313.644531 L 110.503906 313.59375 L 112.359375 313.546875 L 113.574219 313.503906 L 115.078125 313.4375 L 116.148438 313.375 L 117.148438 313.308594 L 118.363281 313.207031 L 118.363281 311.757812 L 100.714844 311.75 L 100.714844 311.070312 L 128.152344 311.066406 L 128.222656 313.4375 L 126.722656 313.601562 L 124.867188 313.757812 L 123.078125 313.878906 L 121.222656 313.984375 L 118.578125 314.097656 L 116.433594 314.171875 L 113.148438 314.253906 L 110.144531 314.308594 L 107 314.347656 L 104.214844 314.363281 L 100.929688 314.371094 L 97.996094 314.359375 L 94.855469 314.320312 L 92.351562 314.273438 L 90.066406 314.214844 L 87.78125 314.132812 L 84.921875 314.007812 L 83.0625 313.902344 L 81.132812 313.777344 L 79.203125 313.625 L 77.488281 313.460938 L 76.347656 313.332031 L 75.203125 313.1875 L 73.988281 313.007812 L 72.84375 312.800781 L 71.988281 312.613281 L 71.203125 312.398438 L 70.628906 312.199219 L 70.058594 311.925781 L 69.773438 311.707031 L 69.628906 311.519531 Z M 69.628906 310.574219 "/>
<path style=" stroke:none;fill-rule:nonzero;fill:rgb(83.921569%,15.686275%,22.352941%);fill-opacity:1;" d="M 69.628906 200.480469 L 128.222656 200.480469 L 128.222656 209.332031 L 103.804688 209.410156 L 103.804688 283.199219 L 93.980469 283.199219 L 93.980469 209.488281 L 93.835938 209.332031 L 69.628906 209.332031 Z M 69.628906 200.480469 "/>
<path style=" stroke:none;fill-rule:nonzero;fill:rgb(6.27451%,58.823529%,28.235294%);fill-opacity:1;" d="M 131.308594 287.855469 L 131.371094 287.828125 L 156.726562 259.46875 L 164.425781 259.46875 L 189.902344 287.878906 L 180.953125 287.878906 L 174.566406 280.464844 L 146.582031 280.464844 L 140.324219 287.855469 L 131.308594 287.855469 L 149.273438 277.394531 L 172 277.371094 L 160.667969 264.109375 L 160.542969 264.082031 L 160.417969 264.164062 L 149.210938 277.371094 L 149.273438 277.394531 Z M 131.308594 287.855469 "/>
<path style=" stroke:none;fill-rule:nonzero;fill:rgb(14.509804%,36.078431%,60%);fill-opacity:1;" d="M 131.308594 313.179688 L 131.378906 313.175781 L 131.378906 313.128906 L 131.59375 313.054688 L 132.09375 312.964844 L 132.59375 312.898438 L 133.882812 312.785156 L 135.667969 312.675781 L 137.523438 312.589844 L 138.882812 312.542969 L 140.097656 312.503906 L 142.882812 312.429688 L 144.671875 312.394531 L 146.601562 312.363281 L 148.957031 312.328125 L 150.671875 312.308594 L 154.53125 312.277344 L 157.390625 312.265625 L 159.605469 312.257812 L 164.394531 312.257812 L 167.25 312.265625 L 169.324219 312.277344 L 171.609375 312.292969 L 173.539062 312.308594 L 176.898438 312.351562 L 179.898438 312.40625 L 181.257812 312.4375 L 183.402344 312.496094 L 185.042969 312.554688 L 186.1875 312.605469 L 187.472656 312.675781 L 188.617188 312.761719 L 189.476562 312.863281 L 189.902344 312.945312 L 179.898438 312.945312 L 179.398438 312.867188 L 178.828125 312.808594 L 177.757812 312.730469 L 176.683594 312.671875 L 175.183594 312.617188 L 173.824219 312.578125 L 171.96875 312.542969 L 170.324219 312.519531 L 168.609375 312.503906 L 166.964844 312.492188 L 163.820312 312.480469 L 160.175781 312.480469 L 158.820312 312.484375 L 156.03125 312.5 L 154.53125 312.511719 L 152.386719 312.539062 L 150.886719 312.566406 L 149.101562 312.601562 L 147.886719 312.636719 L 146.386719 312.6875 L 145.3125 312.730469 L 144.097656 312.792969 L 143.386719 312.84375 L 142.742188 312.894531 L 142.171875 312.960938 L 141.742188 313.027344 L 141.457031 313.097656 L 141.3125 313.167969 L 141.3125 313.46875 L 141.457031 313.535156 L 141.8125 313.617188 L 142.742188 313.734375 L 144.097656 313.839844 L 145.671875 313.917969 L 147.171875 313.976562 L 148.03125 314.003906 L 149.171875 314.035156 L 150.960938 314.074219 L 153.53125 314.113281 L 155.03125 314.128906 L 157.320312 314.144531 L 159.675781 314.152344 L 162.820312 314.152344 L 165.609375 314.144531 L 167.464844 314.132812 L 169.394531 314.117188 L 172.039062 314.085938 L 173.683594 314.054688 L 175.113281 314.015625 L 176.183594 313.980469 L 176.898438 313.949219 L 177.96875 313.890625 L 178.828125 313.824219 L 179.472656 313.757812 L 179.898438 313.691406 L 189.902344 313.691406 L 189.476562 313.769531 L 188.832031 313.84375 L 188.1875 313.898438 L 187.1875 313.96875 L 186.046875 314.027344 L 184.402344 314.09375 L 183.042969 314.140625 L 181.257812 314.1875 L 179.613281 314.222656 L 177.828125 314.257812 L 175.183594 314.296875 L 173.46875 314.316406 L 171.609375 314.332031 L 169.394531 314.347656 L 166.609375 314.359375 L 163.605469 314.367188 L 160.820312 314.371094 L 157.820312 314.367188 L 155.605469 314.359375 L 152.675781 314.339844 L 149.03125 314.308594 L 146.386719 314.269531 L 144.3125 314.234375 L 142.527344 314.195312 L 140.527344 314.144531 L 137.953125 314.058594 L 136.382812 313.992188 L 135.308594 313.9375 L 134.09375 313.863281 L 133.238281 313.796875 L 132.238281 313.6875 L 131.523438 313.550781 L 131.308594 313.445312 Z M 131.308594 313.179688 "/>
<path style=" stroke:none;fill-rule:nonzero;fill:rgb(96.862745%,70.196078%,16.862745%);fill-opacity:1;" d="M 131.308594 295.101562 L 131.378906 295.085938 L 131.378906 294.832031 L 131.664062 294.25 L 132.378906 293.453125 L 133.308594 292.796875 L 134.308594 292.28125 L 134.953125 292.007812 L 136.023438 291.625 L 136.953125 291.339844 L 139.3125 290.761719 L 142.3125 290.21875 L 143.957031 289.988281 L 145.8125 289.769531 L 148.457031 289.523438 L 149.671875 289.433594 L 153.390625 289.226562 L 157.605469 289.097656 L 162.25 289.058594 L 164.394531 289.074219 L 167.324219 289.125 L 171.324219 289.265625 L 173.613281 289.394531 L 175.398438 289.523438 L 177.253906 289.691406 L 179.542969 289.949219 L 181.6875 290.257812 L 183.402344 290.566406 L 185.117188 290.953125 L 186.546875 291.367188 L 187.761719 291.816406 L 188.832031 292.355469 L 189.476562 292.808594 L 189.902344 293.257812 L 179.972656 293.257812 L 179.398438 292.808594 L 178.757812 292.460938 L 177.683594 292.035156 L 176.613281 291.726562 L 175.539062 291.480469 L 173.539062 291.148438 L 171.824219 290.941406 L 169.679688 290.761719 L 167.609375 290.644531 L 165.25 290.566406 L 163.820312 290.542969 L 160.035156 290.542969 L 156.605469 290.632812 L 154.605469 290.734375 L 153.175781 290.835938 L 151.171875 291.03125 L 149.957031 291.183594 L 149.246094 291.289062 L 147.101562 291.6875 L 145.671875 292.046875 L 144.886719 292.292969 L 143.886719 292.679688 L 143.171875 293.027344 L 142.382812 293.542969 L 141.957031 293.929688 L 141.382812 294.804688 L 141.3125 297.121094 L 141.527344 297.613281 L 141.957031 298.140625 L 142.527344 298.605469 L 143.386719 299.09375 L 144.242188 299.46875 L 145.742188 299.96875 L 147.027344 300.304688 L 148.03125 300.523438 L 149.957031 300.871094 L 150.746094 300.988281 L 152.601562 301.21875 L 154.53125 301.398438 L 156.890625 301.554688 L 158.675781 301.628906 L 161.535156 301.695312 L 165.179688 301.695312 L 169.46875 301.617188 L 172.183594 301.515625 L 174.039062 301.410156 L 175.253906 301.320312 L 176.753906 301.179688 L 177.828125 301.050781 L 178.828125 300.910156 L 180.042969 300.691406 L 180.042969 297.613281 L 162.390625 297.597656 L 162.390625 296.15625 L 189.832031 296.144531 L 189.902344 301.179688 L 188.402344 301.527344 L 186.546875 301.863281 L 184.757812 302.121094 L 182.902344 302.339844 L 180.257812 302.582031 L 178.113281 302.738281 L 174.824219 302.917969 L 171.824219 303.035156 L 168.679688 303.113281 L 165.894531 303.152344 L 162.605469 303.164062 L 159.675781 303.136719 L 156.53125 303.058594 L 154.03125 302.957031 L 151.746094 302.828125 L 149.457031 302.660156 L 146.601562 302.390625 L 144.742188 302.171875 L 142.8125 301.902344 L 140.882812 301.578125 L 139.167969 301.230469 L 138.027344 300.960938 L 136.882812 300.652344 L 135.667969 300.265625 L 134.523438 299.828125 L 133.667969 299.429688 L 132.878906 298.976562 L 132.308594 298.550781 L 131.738281 297.972656 L 131.453125 297.507812 L 131.308594 297.109375 Z M 131.308594 295.101562 "/>
<path style=" stroke:none;fill-rule:nonzero;fill:rgb(83.921569%,15.686275%,22.352941%);fill-opacity:1;" d="M 131.308594 304.34375 L 189.902344 304.34375 L 189.902344 305.0625 L 165.484375 305.070312 L 165.484375 311.082031 L 155.65625 311.082031 L 155.65625 305.078125 L 155.515625 305.0625 L 131.308594 305.0625 Z M 131.308594 304.34375 "/>
<path style=" stroke:none;fill-rule:nonzero;fill:rgb(6.27451%,58.823529%,28.235294%);fill-opacity:1;" d="M 192.988281 307.375 L 193.050781 307.121094 L 218.402344 38.058594 L 226.105469 38.058594 L 251.582031 307.628906 L 242.628906 307.628906 L 236.246094 237.261719 L 208.261719 237.261719 L 202.003906 307.375 L 192.988281 307.375 L 210.953125 208.152344 L 233.679688 207.898438 L 222.347656 82.101562 L 222.222656 81.847656 L 222.097656 82.605469 L 210.890625 207.898438 L 210.953125 208.152344 Z M 192.988281 307.375 "/>
<path style=" stroke:none;fill-rule:nonzero;fill:rgb(14.509804%,36.078431%,60%);fill-opacity:1;" d="M 192.988281 314.199219 L 193.058594 314.199219 L 193.058594 314.191406 L 193.273438 314.179688 L 194.273438 314.15625 L 195.558594 314.140625 L 197.347656 314.125 L 199.203125 314.113281 L 200.5625 314.105469 L 201.777344 314.101562 L 204.5625 314.089844 L 206.351562 314.085938 L 208.28125 314.078125 L 210.636719 314.074219 L 212.351562 314.070312 L 216.210938 314.066406 L 231.003906 314.066406 L 233.289062 314.070312 L 235.21875 314.070312 L 238.578125 314.078125 L 241.578125 314.085938 L 242.9375 314.089844 L 245.082031 314.097656 L 246.722656 314.109375 L 247.867188 314.113281 L 249.152344 314.125 L 250.296875 314.136719 L 251.152344 314.152344 L 251.582031 314.164062 L 241.578125 314.164062 L 241.078125 314.152344 L 240.507812 314.144531 L 239.433594 314.132812 L 238.363281 314.125 L 236.863281 314.117188 L 235.503906 314.109375 L 233.648438 314.105469 L 232.003906 314.101562 L 230.289062 314.101562 L 228.644531 314.097656 L 217.710938 314.097656 L 216.210938 314.101562 L 214.066406 314.105469 L 212.566406 314.109375 L 210.78125 314.113281 L 209.566406 314.121094 L 208.066406 314.125 L 206.992188 314.132812 L 205.777344 314.140625 L 205.0625 314.148438 L 204.421875 314.15625 L 203.847656 314.167969 L 203.421875 314.175781 L 203.132812 314.1875 L 202.992188 314.195312 L 202.992188 314.238281 L 203.132812 314.25 L 203.492188 314.261719 L 204.421875 314.277344 L 205.777344 314.292969 L 207.351562 314.304688 L 208.851562 314.3125 L 209.707031 314.316406 L 210.851562 314.320312 L 212.636719 314.328125 L 215.210938 314.332031 L 216.710938 314.335938 L 219 314.335938 L 221.355469 314.339844 L 224.5 314.339844 L 227.289062 314.335938 L 231.074219 314.335938 L 233.71875 314.328125 L 235.363281 314.324219 L 236.792969 314.320312 L 237.863281 314.3125 L 238.578125 314.308594 L 239.648438 314.300781 L 240.507812 314.292969 L 241.148438 314.28125 L 241.578125 314.273438 L 251.582031 314.273438 L 251.152344 314.285156 L 250.511719 314.292969 L 249.867188 314.300781 L 248.867188 314.3125 L 247.722656 314.320312 L 246.082031 314.332031 L 244.722656 314.335938 L 242.9375 314.34375 L 241.292969 314.347656 L 239.507812 314.355469 L 236.863281 314.359375 L 235.148438 314.363281 L 233.289062 314.363281 L 231.074219 314.367188 L 228.289062 314.371094 L 219.5 314.371094 L 217.285156 314.367188 L 214.351562 314.367188 L 210.710938 314.363281 L 208.066406 314.355469 L 205.992188 314.351562 L 204.207031 314.34375 L 202.207031 314.335938 L 199.632812 314.324219 L 198.0625 314.316406 L 196.988281 314.308594 L 195.773438 314.296875 L 194.917969 314.289062 L 193.917969 314.273438 L 193.203125 314.25 L 192.988281 314.238281 Z M 192.988281 314.199219 "/>
<path style=" stroke:none;fill-rule:nonzero;fill:rgb(96.862745%,70.196078%,16.862745%);fill-opacity:1;" d="M 192.988281 309.675781 L 193.058594 309.671875 L 193.058594 309.636719 L 193.34375 309.554688 L 194.058594 309.4375 L 194.988281 309.34375 L 195.988281 309.269531 L 196.632812 309.230469 L 197.703125 309.175781 L 198.632812 309.132812 L 200.992188 309.050781 L 203.992188 308.972656 L 205.636719 308.941406 L 207.492188 308.910156 L 210.136719 308.875 L 211.351562 308.859375 L 215.066406 308.832031 L 219.285156 308.8125 L 223.929688 308.804688 L 226.074219 308.808594 L 229.003906 308.816406 L 233.003906 308.835938 L 235.289062 308.855469 L 237.078125 308.875 L 238.933594 308.898438 L 241.222656 308.933594 L 243.367188 308.980469 L 245.082031 309.023438 L 246.796875 309.078125 L 248.222656 309.136719 L 249.4375 309.203125 L 250.511719 309.28125 L 251.152344 309.347656 L 251.582031 309.410156 L 241.648438 309.410156 L 241.078125 309.347656 L 240.433594 309.296875 L 239.363281 309.234375 L 238.292969 309.191406 L 237.21875 309.15625 L 235.21875 309.105469 L 233.503906 309.078125 L 231.359375 309.050781 L 229.289062 309.035156 L 226.929688 309.023438 L 225.5 309.019531 L 221.714844 309.019531 L 218.285156 309.03125 L 216.28125 309.046875 L 214.855469 309.0625 L 212.851562 309.089844 L 211.636719 309.113281 L 210.921875 309.128906 L 208.78125 309.183594 L 207.351562 309.238281 L 206.566406 309.273438 L 205.5625 309.328125 L 204.851562 309.378906 L 204.0625 309.453125 L 203.636719 309.507812 L 203.0625 309.632812 L 202.992188 309.964844 L 203.207031 310.035156 L 203.636719 310.113281 L 204.207031 310.179688 L 205.0625 310.25 L 205.921875 310.304688 L 207.421875 310.375 L 208.707031 310.425781 L 209.707031 310.457031 L 211.636719 310.503906 L 212.425781 310.523438 L 214.28125 310.554688 L 216.210938 310.582031 L 218.570312 310.605469 L 220.355469 310.613281 L 223.214844 310.625 L 226.859375 310.625 L 231.144531 310.613281 L 233.863281 310.597656 L 235.71875 310.582031 L 236.933594 310.570312 L 238.433594 310.550781 L 239.507812 310.53125 L 240.507812 310.511719 L 241.722656 310.480469 L 241.722656 310.035156 L 224.070312 310.035156 L 224.070312 309.828125 L 251.511719 309.824219 L 251.582031 310.550781 L 250.082031 310.601562 L 248.222656 310.648438 L 246.4375 310.683594 L 244.578125 310.71875 L 241.9375 310.753906 L 239.792969 310.773438 L 236.503906 310.800781 L 233.503906 310.816406 L 230.359375 310.828125 L 227.574219 310.832031 L 224.285156 310.835938 L 221.355469 310.832031 L 218.210938 310.820312 L 215.710938 310.804688 L 213.425781 310.789062 L 211.136719 310.761719 L 208.28125 310.722656 L 206.421875 310.691406 L 204.492188 310.652344 L 202.5625 310.609375 L 200.847656 310.558594 L 199.703125 310.519531 L 198.5625 310.472656 L 197.347656 310.417969 L 196.203125 310.355469 L 195.347656 310.296875 L 194.558594 310.234375 L 193.988281 310.171875 L 193.417969 310.089844 L 193.128906 310.023438 L 192.988281 309.964844 Z M 192.988281 309.675781 "/>
<path style=" stroke:none;fill-rule:nonzero;fill:rgb(83.921569%,15.686275%,22.352941%);fill-opacity:1;" d="M 192.988281 312.015625 L 251.582031 312.015625 L 251.582031 312.109375 L 227.164062 312.109375 L 227.164062 312.886719 L 217.335938 312.886719 L 217.335938 312.109375 L 192.988281 312.109375 Z M 192.988281 312.015625 "/>
<path style=" stroke:none;fill-rule:nonzero;fill:rgb(6.27451%,58.823529%,28.235294%);fill-opacity:1;" d="M 254.667969 314.371094 L 254.730469 314.367188 L 280.082031 313.09375 L 287.78125 313.09375 L 313.261719 314.371094 L 304.308594 314.371094 L 297.925781 314.039062 L 269.941406 314.039062 L 263.679688 314.371094 L 254.667969 314.371094 L 272.632812 313.898438 L 295.359375 313.898438 L 284.027344 313.304688 L 283.902344 313.300781 L 283.777344 313.304688 L 272.570312 313.898438 L 272.632812 313.898438 Z M 254.667969 314.371094 "/>
<path style=" stroke:none;fill-rule:nonzero;fill:rgb(14.509804%,36.078431%,60%);fill-opacity:1;" d="M 254.667969 304.765625 L 254.738281 304.757812 L 254.738281 304.578125 L 254.953125 304.289062 L 255.453125 303.925781 L 255.953125 303.679688 L 257.238281 303.234375 L 259.027344 302.804688 L 260.882812 302.472656 L 262.242188 302.273438 L 263.457031 302.125 L 266.242188 301.84375 L 268.03125 301.699219 L 269.957031 301.574219 L 272.316406 301.445312 L 274.03125 301.367188 L 277.890625 301.246094 L 280.75 301.195312 L 282.964844 301.171875 L 287.75 301.171875 L 290.609375 301.203125 L 292.683594 301.242188 L 294.96875 301.300781 L 296.898438 301.367188 L 300.257812 301.535156 L 303.257812 301.746094 L 304.617188 301.867188 L 306.757812 302.101562 L 308.402344 302.328125 L 309.546875 302.523438 L 310.832031 302.804688 L 311.976562 303.140625 L 312.832031 303.527344 L 313.261719 303.851562 L 303.257812 303.851562 L 302.757812 303.550781 L 302.1875 303.316406 L 301.113281 303.007812 L 300.042969 302.789062 L 298.542969 302.570312 L 297.183594 302.425781 L 295.328125 302.28125 L 293.683594 302.191406 L 291.96875 302.125 L 290.324219 302.078125 L 287.179688 302.03125 L 283.535156 302.03125 L 282.179688 302.046875 L 279.390625 302.109375 L 277.890625 302.160156 L 275.746094 302.265625 L 274.246094 302.363281 L 272.460938 302.515625 L 271.246094 302.644531 L 269.746094 302.839844 L 268.671875 303.015625 L 267.457031 303.261719 L 266.742188 303.453125 L 266.101562 303.664062 L 265.527344 303.914062 L 265.101562 304.175781 L 264.8125 304.457031 L 264.671875 304.726562 L 264.671875 305.898438 L 264.8125 306.167969 L 265.171875 306.484375 L 266.101562 306.945312 L 267.457031 307.347656 L 269.03125 307.664062 L 270.53125 307.890625 L 271.386719 307.996094 L 272.53125 308.117188 L 274.316406 308.265625 L 276.890625 308.417969 L 278.390625 308.476562 L 280.675781 308.539062 L 283.035156 308.570312 L 286.179688 308.570312 L 288.964844 308.539062 L 290.824219 308.5 L 292.753906 308.441406 L 295.398438 308.3125 L 297.042969 308.191406 L 298.46875 308.046875 L 299.542969 307.90625 L 300.257812 307.785156 L 301.328125 307.550781 L 302.1875 307.292969 L 302.828125 307.03125 L 303.257812 306.773438 L 313.261719 306.773438 L 312.832031 307.074219 L 312.191406 307.367188 L 311.546875 307.585938 L 310.546875 307.851562 L 309.402344 308.085938 L 307.761719 308.351562 L 306.402344 308.523438 L 304.617188 308.710938 L 302.972656 308.855469 L 301.1875 308.984375 L 298.542969 309.136719 L 296.828125 309.210938 L 294.96875 309.277344 L 292.753906 309.339844 L 289.96875 309.390625 L 286.964844 309.421875 L 284.179688 309.429688 L 281.175781 309.414062 L 278.960938 309.382812 L 276.03125 309.316406 L 272.386719 309.179688 L 269.746094 309.035156 L 267.671875 308.894531 L 265.886719 308.742188 L 263.886719 308.539062 L 261.3125 308.207031 L 259.742188 307.949219 L 258.667969 307.738281 L 257.453125 307.445312 L 256.597656 307.179688 L 255.597656 306.757812 L 254.882812 306.222656 L 254.667969 305.808594 Z M 254.667969 304.765625 "/>
<path style=" stroke:none;fill-rule:nonzero;fill:rgb(96.862745%,70.196078%,16.862745%);fill-opacity:1;" d="M 254.667969 311.167969 L 254.738281 311.167969 L 254.738281 311.144531 L 255.023438 311.089844 L 255.738281 311.015625 L 256.667969 310.953125 L 257.667969 310.90625 L 258.3125 310.882812 L 259.382812 310.847656 L 260.3125 310.820312 L 262.671875 310.765625 L 265.671875 310.714844 L 267.316406 310.695312 L 269.171875 310.675781 L 271.816406 310.652344 L 273.03125 310.644531 L 276.746094 310.625 L 280.964844 310.613281 L 285.609375 310.609375 L 287.75 310.609375 L 290.679688 310.613281 L 294.683594 310.628906 L 296.96875 310.640625 L 298.757812 310.652344 L 300.613281 310.667969 L 302.902344 310.691406 L 305.042969 310.71875 L 306.757812 310.75 L 308.472656 310.785156 L 309.902344 310.824219 L 311.117188 310.863281 L 312.191406 310.914062 L 312.832031 310.957031 L 313.261719 310.996094 L 303.328125 310.996094 L 302.757812 310.957031 L 302.113281 310.925781 L 301.042969 310.882812 L 299.972656 310.855469 L 298.898438 310.832031 L 296.898438 310.800781 L 295.183594 310.78125 L 293.039062 310.765625 L 290.96875 310.753906 L 288.609375 310.75 L 287.179688 310.746094 L 283.394531 310.746094 L 279.960938 310.753906 L 277.960938 310.765625 L 276.53125 310.773438 L 274.53125 310.792969 L 273.316406 310.804688 L 270.457031 310.851562 L 269.03125 310.886719 L 268.242188 310.910156 L 267.242188 310.945312 L 266.527344 310.976562 L 265.742188 311.023438 L 265.3125 311.058594 L 264.742188 311.140625 L 264.671875 311.355469 L 264.886719 311.402344 L 265.3125 311.449219 L 265.886719 311.492188 L 266.742188 311.539062 L 267.601562 311.574219 L 269.101562 311.621094 L 270.386719 311.652344 L 271.386719 311.671875 L 273.316406 311.703125 L 274.101562 311.714844 L 275.960938 311.734375 L 277.890625 311.753906 L 280.25 311.765625 L 282.035156 311.773438 L 284.894531 311.78125 L 288.539062 311.78125 L 292.824219 311.773438 L 295.539062 311.761719 L 297.398438 311.753906 L 298.613281 311.746094 L 300.113281 311.730469 L 301.1875 311.71875 L 302.1875 311.707031 L 303.402344 311.6875 L 303.402344 311.402344 L 285.75 311.398438 L 285.75 311.265625 L 313.191406 311.265625 L 313.261719 311.730469 L 311.761719 311.765625 L 309.902344 311.796875 L 308.117188 311.820312 L 306.257812 311.839844 L 303.617188 311.863281 L 301.472656 311.875 L 298.183594 311.894531 L 295.183594 311.902344 L 292.039062 311.910156 L 289.253906 311.914062 L 283.035156 311.914062 L 279.890625 311.90625 L 277.390625 311.894531 L 275.105469 311.882812 L 272.816406 311.867188 L 269.957031 311.84375 L 268.101562 311.824219 L 264.242188 311.769531 L 262.527344 311.738281 L 261.382812 311.710938 L 260.242188 311.683594 L 259.027344 311.648438 L 257.882812 311.605469 L 257.023438 311.570312 L 256.238281 311.527344 L 255.667969 311.488281 L 255.09375 311.433594 L 254.808594 311.390625 L 254.667969 311.355469 Z M 254.667969 311.167969 "/>
<path style=" stroke:none;fill-rule:nonzero;fill:rgb(83.921569%,15.686275%,22.352941%);fill-opacity:1;" d="M 254.667969 67.597656 L 313.261719 67.597656 L 313.261719 92.472656 L 288.839844 92.691406 L 288.839844 299.992188 L 279.015625 299.992188 L 279.015625 92.910156 L 278.875 92.472656 L 254.667969 92.472656 Z M 254.667969 67.597656 "/>
<path style=" stroke:none;fill-rule:nonzero;fill:rgb(14.509804%,36.078431%,60%);fill-opacity:1;" d="M 316.347656 151.835938 L 316.417969 151.582031 L 316.417969 145.484375 L 316.632812 135.832031 L 317.132812 123.636719 L 317.632812 115.253906 L 318.917969 100.265625 L 320.703125 85.785156 L 322.5625 74.605469 L 323.921875 68.003906 L 325.136719 62.921875 L 327.921875 53.523438 L 329.707031 48.695312 L 331.636719 44.375 L 333.996094 40.058594 L 335.710938 37.515625 L 339.570312 33.453125 L 342.429688 31.675781 L 344.644531 30.910156 L 349.429688 30.910156 L 352.289062 31.929688 L 354.363281 33.199219 L 356.648438 35.230469 L 358.578125 37.515625 L 361.9375 43.105469 L 364.9375 50.21875 L 366.292969 54.285156 L 368.4375 62.160156 L 370.082031 69.78125 L 371.226562 76.386719 L 372.511719 85.785156 L 373.65625 97.21875 L 374.511719 110.171875 L 374.941406 121.097656 L 364.9375 121.097656 L 364.4375 110.933594 L 363.867188 103.058594 L 362.792969 92.644531 L 361.722656 85.277344 L 360.222656 77.910156 L 358.863281 73.082031 L 357.003906 68.257812 L 355.363281 65.207031 L 353.648438 62.921875 L 352.003906 61.398438 L 348.859375 59.871094 L 345.214844 59.871094 L 343.855469 60.378906 L 341.070312 62.414062 L 339.570312 64.191406 L 337.425781 67.746094 L 335.925781 71.050781 L 334.140625 76.132812 L 332.925781 80.449219 L 331.421875 87.054688 L 330.351562 92.898438 L 329.136719 101.28125 L 328.421875 107.632812 L 327.777344 114.746094 L 327.207031 123.128906 L 326.777344 132.019531 L 326.492188 141.421875 L 326.351562 150.566406 L 326.351562 189.941406 L 326.492188 199.085938 L 326.851562 209.757812 L 327.777344 225.253906 L 329.136719 238.71875 L 330.707031 249.386719 L 332.210938 257.007812 L 333.066406 260.566406 L 334.210938 264.628906 L 335.996094 269.710938 L 338.570312 274.792969 L 340.070312 276.824219 L 342.355469 278.855469 L 344.714844 279.871094 L 347.859375 279.871094 L 350.644531 278.855469 L 352.503906 277.585938 L 354.433594 275.554688 L 357.078125 271.234375 L 358.71875 267.171875 L 360.148438 262.34375 L 361.222656 257.515625 L 361.9375 253.453125 L 363.007812 245.578125 L 363.867188 236.941406 L 364.507812 228.046875 L 364.9375 219.410156 L 374.941406 219.410156 L 374.511719 229.574219 L 373.871094 239.480469 L 373.226562 246.847656 L 372.226562 255.738281 L 371.082031 263.613281 L 369.4375 272.503906 L 368.082031 278.347656 L 366.292969 284.699219 L 364.652344 289.527344 L 362.863281 293.84375 L 360.222656 298.925781 L 358.507812 301.464844 L 356.648438 303.753906 L 354.433594 305.785156 L 351.644531 307.5625 L 348.644531 308.578125 L 345.859375 308.832031 L 342.855469 308.324219 L 340.640625 307.308594 L 337.710938 305.023438 L 334.066406 300.449219 L 331.421875 295.625 L 329.351562 290.796875 L 327.566406 285.714844 L 325.5625 278.855469 L 322.992188 267.679688 L 321.417969 259.042969 L 320.347656 251.929688 L 319.132812 242.019531 L 318.273438 233.128906 L 317.273438 218.902344 L 316.558594 200.867188 L 316.347656 186.894531 Z M 316.347656 151.835938 "/>
<path style=" stroke:none;fill-rule:nonzero;fill:rgb(83.921569%,15.686275%,22.352941%);fill-opacity:1;" d="M 316.347656 310.011719 L 374.941406 310.011719 L 374.941406 310.371094 L 350.519531 310.371094 L 350.519531 313.339844 L 340.695312 313.339844 L 340.695312 310.375 L 340.554688 310.371094 L 316.347656 310.371094 Z M 316.347656 310.011719 "/>
<path style=" stroke:none;fill-rule:nonzero;fill:rgb(6.27451%,58.823529%,28.235294%);fill-opacity:1;" d="M 378.023438 312.28125 L 378.085938 312.238281 L 403.441406 266.800781 L 411.140625 266.800781 L 436.621094 312.324219 L 427.667969 312.324219 L 421.28125 300.441406 L 393.300781 300.441406 L 387.039062 312.28125 L 378.023438 312.28125 L 395.992188 295.527344 L 418.714844 295.484375 L 407.386719 274.238281 L 407.261719 274.195312 L 407.136719 274.324219 L 395.929688 295.484375 L 395.992188 295.527344 Z M 378.023438 312.28125 "/>
<path style=" stroke:none;fill-rule:nonzero;fill:rgb(96.862745%,70.196078%,16.862745%);fill-opacity:1;" d="M 378.023438 204.617188 L 378.097656 204.519531 L 378.097656 202.570312 L 378.382812 198.183594 L 379.097656 192.140625 L 380.027344 187.171875 L 381.027344 183.273438 L 381.667969 181.226562 L 382.742188 178.304688 L 383.671875 176.160156 L 386.027344 171.773438 L 389.03125 167.679688 L 390.671875 165.925781 L 392.53125 164.269531 L 395.175781 162.417969 L 396.390625 161.738281 L 400.105469 160.175781 L 404.320312 159.203125 L 408.964844 158.910156 L 411.109375 159.007812 L 414.039062 159.398438 L 418.042969 160.46875 L 420.328125 161.445312 L 422.113281 162.417969 L 423.972656 163.6875 L 426.257812 165.636719 L 428.402344 167.972656 L 430.117188 170.3125 L 431.832031 173.234375 L 433.261719 176.355469 L 434.476562 179.765625 L 435.546875 183.859375 L 436.191406 187.269531 L 436.621094 190.679688 L 426.6875 190.679688 L 426.117188 187.269531 L 425.472656 184.636719 L 424.402344 181.421875 L 423.328125 179.082031 L 422.257812 177.230469 L 420.257812 174.699219 L 418.542969 173.140625 L 416.398438 171.773438 L 414.324219 170.898438 L 411.96875 170.3125 L 410.539062 170.117188 L 406.75 170.117188 L 403.320312 170.800781 L 401.320312 171.578125 L 399.890625 172.359375 L 397.890625 173.820312 L 396.675781 174.992188 L 395.960938 175.769531 L 393.816406 178.792969 L 392.386719 181.519531 L 391.601562 183.371094 L 390.601562 186.296875 L 389.886719 188.925781 L 389.101562 192.824219 L 388.671875 195.746094 L 388.101562 202.375 L 388.027344 219.917969 L 388.242188 223.621094 L 388.671875 227.613281 L 389.242188 231.125 L 390.101562 234.828125 L 390.960938 237.652344 L 392.460938 241.453125 L 393.746094 243.988281 L 394.746094 245.644531 L 396.675781 248.273438 L 397.460938 249.152344 L 399.320312 250.90625 L 401.25 252.269531 L 403.605469 253.441406 L 405.394531 254.023438 L 408.25 254.511719 L 411.894531 254.511719 L 416.183594 253.925781 L 418.898438 253.148438 L 420.757812 252.367188 L 421.972656 251.683594 L 423.472656 250.613281 L 424.542969 249.640625 L 425.542969 248.566406 L 426.757812 246.910156 L 426.757812 223.621094 L 409.109375 223.523438 L 409.109375 212.605469 L 436.550781 212.507812 L 436.621094 250.613281 L 435.121094 253.246094 L 433.261719 255.777344 L 431.476562 257.726562 L 429.617188 259.382812 L 426.972656 261.234375 L 424.828125 262.40625 L 421.542969 263.769531 L 418.542969 264.648438 L 415.398438 265.230469 L 412.609375 265.523438 L 409.324219 265.621094 L 406.394531 265.425781 L 403.25 264.839844 L 400.75 264.0625 L 398.460938 263.085938 L 396.175781 261.820312 L 393.316406 259.773438 L 391.460938 258.117188 L 389.53125 256.070312 L 387.601562 253.632812 L 385.886719 251.003906 L 384.742188 248.957031 L 383.597656 246.617188 L 382.382812 243.695312 L 381.242188 240.382812 L 380.382812 237.359375 L 379.597656 233.949219 L 379.027344 230.734375 L 378.453125 226.347656 L 378.167969 222.839844 L 378.023438 219.820312 Z M 378.023438 204.617188 "/>
<path style=" stroke:none;fill-rule:nonzero;fill:rgb(83.921569%,15.686275%,22.352941%);fill-opacity:1;" d="M 378.023438 313.503906 L 436.621094 313.503906 L 436.621094 313.523438 L 412.199219 313.523438 L 412.199219 313.664062 L 402.375 313.664062 L 402.375 313.523438 L 378.023438 313.523438 Z M 378.023438 313.503906 "/>
<path style=" stroke:none;fill-rule:nonzero;fill:rgb(6.27451%,58.823529%,28.235294%);fill-opacity:1;" d="M 439.703125 311.386719 L 439.765625 311.113281 L 465.121094 20.664062 L 472.820312 20.664062 L 498.300781 311.660156 L 489.347656 311.660156 L 482.960938 235.699219 L 454.980469 235.699219 L 448.71875 311.386719 L 439.703125 311.386719 L 457.671875 204.277344 L 480.394531 204.003906 L 469.066406 68.207031 L 468.9375 67.933594 L 468.8125 68.753906 L 457.609375 204.003906 L 457.671875 204.277344 Z M 439.703125 311.386719 "/>
<path style=" stroke:none;fill-rule:nonzero;fill:rgb(83.921569%,15.686275%,22.352941%);fill-opacity:1;" d="M 439.703125 312.839844 L 498.300781 312.839844 L 498.300781 312.84375 L 473.878906 312.84375 L 473.878906 312.882812 L 464.054688 312.882812 L 464.054688 312.84375 L 439.703125 312.84375 Z M 439.703125 312.839844 "/>
<path style=" stroke:none;fill-rule:nonzero;fill:rgb(6.27451%,58.823529%,28.235294%);fill-opacity:1;" d="M 501.382812 312.238281 L 501.445312 312.234375 L 526.800781 310.960938 L 534.5 310.960938 L 559.980469 312.238281 L 551.027344 312.238281 L 544.640625 311.90625 L 516.660156 311.90625 L 510.398438 312.238281 L 501.382812 312.238281 L 519.351562 311.765625 L 542.074219 311.765625 L 530.742188 311.171875 L 530.617188 311.167969 L 530.492188 311.171875 L 519.289062 311.765625 L 519.351562 311.765625 Z M 501.382812 312.238281 "/>
<path style=" stroke:none;fill-rule:nonzero;fill:rgb(14.509804%,36.078431%,60%);fill-opacity:1;" d="M 501.382812 313.652344 L 501.453125 313.652344 L 501.453125 313.640625 L 501.667969 313.621094 L 502.167969 313.597656 L 502.667969 313.582031 L 503.957031 313.554688 L 505.742188 313.523438 L 507.601562 313.503906 L 508.957031 313.488281 L 510.171875 313.480469 L 512.960938 313.460938 L 514.746094 313.453125 L 516.675781 313.445312 L 519.035156 313.433594 L 520.75 313.429688 L 524.605469 313.421875 L 527.464844 313.417969 L 537.328125 313.417969 L 539.398438 313.421875 L 541.6875 313.425781 L 543.613281 313.429688 L 546.972656 313.441406 L 549.976562 313.457031 L 551.332031 313.464844 L 553.476562 313.480469 L 555.121094 313.492188 L 556.261719 313.507812 L 557.550781 313.523438 L 558.691406 313.546875 L 559.550781 313.574219 L 559.980469 313.59375 L 549.976562 313.59375 L 549.472656 313.574219 L 548.902344 313.558594 L 547.832031 313.539062 L 546.757812 313.523438 L 545.257812 313.507812 L 543.902344 313.5 L 542.042969 313.492188 L 540.398438 313.484375 L 538.683594 313.480469 L 537.039062 313.476562 L 533.898438 313.472656 L 530.253906 313.472656 L 528.894531 313.476562 L 526.109375 313.480469 L 524.605469 313.484375 L 522.464844 313.488281 L 520.960938 313.496094 L 519.175781 313.507812 L 517.960938 313.515625 L 516.460938 313.527344 L 515.390625 313.539062 L 514.175781 313.554688 L 513.460938 313.566406 L 512.816406 313.582031 L 512.246094 313.597656 L 511.816406 313.617188 L 511.53125 313.632812 L 511.386719 313.652344 L 511.386719 313.730469 L 511.53125 313.746094 L 511.886719 313.765625 L 512.816406 313.796875 L 514.175781 313.824219 L 515.746094 313.84375 L 517.246094 313.859375 L 518.105469 313.867188 L 519.246094 313.875 L 521.035156 313.886719 L 523.605469 313.894531 L 525.105469 313.898438 L 527.394531 313.902344 L 529.753906 313.90625 L 532.894531 313.90625 L 535.683594 313.902344 L 537.542969 313.898438 L 539.46875 313.894531 L 542.113281 313.886719 L 543.757812 313.878906 L 545.1875 313.871094 L 546.257812 313.859375 L 546.972656 313.851562 L 548.046875 313.835938 L 548.902344 313.820312 L 549.546875 313.804688 L 549.976562 313.785156 L 559.980469 313.785156 L 559.550781 313.804688 L 558.90625 313.824219 L 558.265625 313.839844 L 557.261719 313.859375 L 556.121094 313.871094 L 554.476562 313.890625 L 553.117188 313.902344 L 551.332031 313.914062 L 549.6875 313.921875 L 547.902344 313.933594 L 545.257812 313.941406 L 543.542969 313.945312 L 541.6875 313.953125 L 539.46875 313.957031 L 536.683594 313.957031 L 533.683594 313.960938 L 527.894531 313.960938 L 525.679688 313.957031 L 522.75 313.953125 L 519.105469 313.945312 L 516.460938 313.9375 L 514.390625 313.925781 L 512.601562 313.917969 L 510.601562 313.902344 L 508.027344 313.882812 L 506.457031 313.863281 L 505.386719 313.851562 L 504.171875 313.832031 L 503.3125 313.8125 L 502.3125 313.785156 L 501.597656 313.75 L 501.382812 313.722656 Z M 501.382812 313.652344 "/>
<path style=" stroke:none;fill-rule:nonzero;fill:rgb(83.921569%,15.686275%,22.352941%);fill-opacity:1;" d="M 501.382812 28.441406 L 559.980469 28.441406 L 559.980469 58.554688 L 535.558594 58.820312 L 535.558594 309.78125 L 525.734375 309.78125 L 525.734375 59.085938 L 525.589844 58.554688 L 501.382812 58.554688 Z M 501.382812 28.441406 "/>
<path style=" stroke:none;fill-rule:nonzero;fill:rgb(6.27451%,58.823529%,28.235294%);fill-opacity:1;" d="M 563.0625 289.804688 L 563.125 289.773438 L 588.480469 255.429688 L 596.179688 255.429688 L 621.65625 289.835938 L 612.707031 289.835938 L 606.320312 280.855469 L 578.335938 280.855469 L 572.078125 289.804688 L 563.0625 289.804688 L 581.03125 277.140625 L 603.753906 277.109375 L 592.421875 261.050781 L 592.296875 261.019531 L 592.171875 261.113281 L 580.964844 277.109375 L 581.03125 277.140625 Z M 563.0625 289.804688 "/>
<path style=" stroke:none;fill-rule:nonzero;fill:rgb(14.509804%,36.078431%,60%);fill-opacity:1;" d="M 563.0625 303.9375 L 563.132812 303.929688 L 563.132812 303.753906 L 563.347656 303.476562 L 563.847656 303.128906 L 564.347656 302.886719 L 565.636719 302.457031 L 567.421875 302.039062 L 569.28125 301.71875 L 570.636719 301.527344 L 571.851562 301.382812 L 574.640625 301.113281 L 576.425781 300.976562 L 578.355469 300.851562 L 580.710938 300.726562 L 582.425781 300.652344 L 586.285156 300.535156 L 589.144531 300.484375 L 591.359375 300.464844 L 596.148438 300.464844 L 599.003906 300.492188 L 601.078125 300.53125 L 603.363281 300.589844 L 605.292969 300.652344 L 608.652344 300.8125 L 611.652344 301.019531 L 613.011719 301.136719 L 615.15625 301.363281 L 616.796875 301.582031 L 617.941406 301.769531 L 619.226562 302.039062 L 620.371094 302.367188 L 621.230469 302.742188 L 621.65625 303.054688 L 611.652344 303.054688 L 611.152344 302.761719 L 610.582031 302.535156 L 609.511719 302.238281 L 608.4375 302.023438 L 606.9375 301.8125 L 605.578125 301.675781 L 603.722656 301.535156 L 602.078125 301.449219 L 600.363281 301.382812 L 598.71875 301.339844 L 595.574219 301.296875 L 591.929688 301.296875 L 590.574219 301.308594 L 587.785156 301.367188 L 586.285156 301.417969 L 584.144531 301.523438 L 582.640625 301.617188 L 580.855469 301.761719 L 579.640625 301.886719 L 578.140625 302.078125 L 577.066406 302.246094 L 575.855469 302.484375 L 575.140625 302.667969 L 574.496094 302.871094 L 573.925781 303.113281 L 573.496094 303.367188 L 573.210938 303.636719 L 573.066406 303.898438 L 573.066406 305.03125 L 573.210938 305.292969 L 573.566406 305.601562 L 574.496094 306.046875 L 575.855469 306.433594 L 577.425781 306.738281 L 578.925781 306.957031 L 579.785156 307.058594 L 580.925781 307.175781 L 582.714844 307.320312 L 585.285156 307.46875 L 586.785156 307.527344 L 589.074219 307.585938 L 591.429688 307.613281 L 594.574219 307.613281 L 597.363281 307.585938 L 599.21875 307.546875 L 601.148438 307.488281 L 603.792969 307.367188 L 605.4375 307.25 L 606.867188 307.109375 L 607.9375 306.972656 L 608.652344 306.855469 L 609.722656 306.628906 L 610.582031 306.378906 L 611.226562 306.125 L 611.652344 305.878906 L 621.65625 305.878906 L 621.230469 306.167969 L 620.585938 306.453125 L 619.941406 306.664062 L 618.941406 306.921875 L 617.800781 307.148438 L 616.15625 307.402344 L 614.796875 307.570312 L 613.011719 307.753906 L 611.367188 307.890625 L 609.582031 308.015625 L 606.9375 308.160156 L 605.222656 308.234375 L 603.363281 308.300781 L 601.148438 308.359375 L 598.363281 308.410156 L 595.363281 308.4375 L 592.574219 308.445312 L 589.574219 308.429688 L 587.359375 308.402344 L 584.429688 308.335938 L 580.785156 308.203125 L 578.140625 308.066406 L 576.066406 307.925781 L 574.28125 307.78125 L 572.28125 307.585938 L 569.707031 307.261719 L 568.136719 307.015625 L 567.0625 306.8125 L 565.847656 306.527344 L 564.992188 306.269531 L 563.992188 305.863281 L 563.277344 305.34375 L 563.0625 304.945312 Z M 563.0625 303.9375 "/>
<path style=" stroke:none;fill-rule:nonzero;fill:rgb(96.862745%,70.196078%,16.862745%);fill-opacity:1;" d="M 563.0625 311.65625 L 563.132812 311.652344 L 563.132812 311.566406 L 563.421875 311.371094 L 564.132812 311.101562 L 565.0625 310.882812 L 566.0625 310.707031 L 566.707031 310.617188 L 567.777344 310.488281 L 568.707031 310.390625 L 571.066406 310.195312 L 574.066406 310.015625 L 575.710938 309.9375 L 577.570312 309.863281 L 580.210938 309.78125 L 581.425781 309.75 L 585.144531 309.679688 L 589.359375 309.636719 L 594.003906 309.625 L 596.148438 309.628906 L 599.078125 309.648438 L 603.078125 309.695312 L 605.367188 309.738281 L 607.152344 309.78125 L 609.011719 309.835938 L 611.296875 309.925781 L 613.441406 310.027344 L 615.15625 310.132812 L 616.871094 310.261719 L 618.300781 310.402344 L 619.515625 310.550781 L 620.585938 310.734375 L 621.230469 310.886719 L 621.65625 311.039062 L 611.726562 311.039062 L 611.152344 310.886719 L 610.511719 310.769531 L 609.4375 310.625 L 608.367188 310.523438 L 607.292969 310.441406 L 605.292969 310.328125 L 603.578125 310.257812 L 601.433594 310.195312 L 599.363281 310.15625 L 597.003906 310.132812 L 595.574219 310.125 L 591.789062 310.125 L 588.359375 310.152344 L 586.359375 310.1875 L 584.929688 310.222656 L 582.929688 310.289062 L 581.714844 310.339844 L 581 310.375 L 578.855469 310.507812 L 577.425781 310.628906 L 576.640625 310.710938 L 575.640625 310.84375 L 574.925781 310.960938 L 574.136719 311.132812 L 573.710938 311.261719 L 573.136719 311.558594 L 573.066406 312.339844 L 573.28125 312.503906 L 573.710938 312.679688 L 574.28125 312.835938 L 575.140625 313 L 575.996094 313.125 L 577.496094 313.296875 L 578.785156 313.410156 L 579.785156 313.480469 L 581.714844 313.597656 L 582.5 313.636719 L 584.355469 313.714844 L 586.285156 313.777344 L 588.644531 313.828125 L 590.429688 313.855469 L 593.289062 313.875 L 596.933594 313.875 L 601.222656 313.851562 L 603.9375 313.816406 L 605.792969 313.78125 L 607.007812 313.75 L 608.507812 313.703125 L 609.582031 313.660156 L 610.582031 313.613281 L 611.796875 313.539062 L 611.796875 312.503906 L 594.148438 312.5 L 594.148438 312.011719 L 621.585938 312.007812 L 621.65625 313.703125 L 620.15625 313.820312 L 618.300781 313.933594 L 616.511719 314.019531 L 614.65625 314.09375 L 612.011719 314.175781 L 609.867188 314.226562 L 606.582031 314.289062 L 603.578125 314.328125 L 600.433594 314.351562 L 597.648438 314.367188 L 594.359375 314.371094 L 591.429688 314.363281 L 588.289062 314.335938 L 585.785156 314.300781 L 583.5 314.257812 L 581.210938 314.203125 L 578.355469 314.109375 L 576.496094 314.035156 L 574.566406 313.945312 L 572.636719 313.835938 L 570.921875 313.71875 L 569.78125 313.628906 L 568.636719 313.527344 L 567.421875 313.394531 L 566.277344 313.25 L 565.421875 313.113281 L 564.632812 312.960938 L 564.0625 312.820312 L 563.492188 312.625 L 563.207031 312.46875 L 563.0625 312.332031 Z M 563.0625 311.65625 "/>
<path style=" stroke:none;fill-rule:nonzero;fill:rgb(83.921569%,15.686275%,22.352941%);fill-opacity:1;" d="M 563.0625 291.015625 L 621.65625 291.015625 L 621.65625 291.902344 L 597.238281 291.910156 L 597.238281 299.285156 L 587.410156 299.285156 L 587.410156 291.917969 L 587.269531 291.902344 L 563.0625 291.902344 Z M 563.0625 291.015625 "/>
<path style=" stroke:none;fill-rule:nonzero;fill:rgb(6.27451%,58.823529%,28.235294%);fill-opacity:1;" d="M 624.742188 300.738281 L 624.804688 300.730469 L 650.15625 291.449219 L 657.859375 291.449219 L 683.335938 300.746094 L 674.386719 300.746094 L 668 298.320312 L 640.015625 298.320312 L 633.757812 300.738281 L 624.742188 300.738281 L 642.707031 297.316406 L 665.433594 297.308594 L 654.101562 292.96875 L 653.976562 292.960938 L 653.851562 292.984375 L 642.644531 297.308594 L 642.707031 297.316406 Z M 624.742188 300.738281 "/>
<path style=" stroke:none;fill-rule:nonzero;fill:rgb(14.509804%,36.078431%,60%);fill-opacity:1;" d="M 624.742188 309.515625 L 624.8125 309.511719 L 624.8125 309.425781 L 625.027344 309.292969 L 625.527344 309.121094 L 626.027344 309.007812 L 627.3125 308.796875 L 629.101562 308.597656 L 630.957031 308.441406 L 632.316406 308.347656 L 633.53125 308.277344 L 636.316406 308.148438 L 638.105469 308.082031 L 640.035156 308.019531 L 642.390625 307.960938 L 644.105469 307.925781 L 647.964844 307.871094 L 650.824219 307.84375 L 653.039062 307.835938 L 657.828125 307.835938 L 660.683594 307.847656 L 662.757812 307.867188 L 665.042969 307.894531 L 666.972656 307.925781 L 670.332031 308.003906 L 673.332031 308.101562 L 674.691406 308.160156 L 676.835938 308.269531 L 678.476562 308.375 L 679.621094 308.464844 L 680.90625 308.597656 L 682.050781 308.753906 L 682.910156 308.9375 L 683.335938 309.085938 L 673.332031 309.085938 L 672.832031 308.945312 L 672.261719 308.835938 L 671.1875 308.691406 L 670.117188 308.589844 L 668.617188 308.488281 L 667.257812 308.421875 L 665.402344 308.351562 L 663.757812 308.3125 L 662.042969 308.277344 L 660.398438 308.257812 L 657.253906 308.238281 L 653.609375 308.238281 L 652.253906 308.242188 L 649.464844 308.273438 L 647.964844 308.296875 L 645.820312 308.347656 L 644.320312 308.390625 L 642.535156 308.460938 L 641.320312 308.523438 L 639.820312 308.613281 L 638.746094 308.695312 L 637.53125 308.8125 L 636.816406 308.898438 L 636.175781 309 L 635.601562 309.117188 L 635.175781 309.238281 L 634.890625 309.371094 L 634.746094 309.496094 L 634.746094 310.042969 L 634.890625 310.171875 L 635.246094 310.320312 L 636.175781 310.535156 L 637.53125 310.722656 L 639.105469 310.871094 L 640.605469 310.976562 L 641.464844 311.027344 L 642.605469 311.082031 L 644.394531 311.152344 L 646.964844 311.222656 L 648.464844 311.25 L 650.753906 311.28125 L 653.109375 311.292969 L 656.253906 311.292969 L 659.042969 311.28125 L 660.898438 311.261719 L 662.828125 311.234375 L 665.472656 311.175781 L 667.117188 311.117188 L 668.546875 311.050781 L 669.617188 310.984375 L 670.332031 310.925781 L 671.402344 310.816406 L 672.261719 310.699219 L 672.902344 310.574219 L 673.332031 310.453125 L 683.335938 310.453125 L 682.910156 310.59375 L 682.265625 310.734375 L 681.621094 310.835938 L 680.621094 310.957031 L 679.476562 311.066406 L 677.835938 311.191406 L 676.476562 311.273438 L 674.691406 311.359375 L 673.046875 311.429688 L 671.261719 311.488281 L 668.617188 311.558594 L 666.902344 311.59375 L 665.042969 311.625 L 662.828125 311.65625 L 660.042969 311.679688 L 657.039062 311.691406 L 654.253906 311.695312 L 651.253906 311.691406 L 649.039062 311.675781 L 646.109375 311.644531 L 642.464844 311.582031 L 639.820312 311.511719 L 637.746094 311.445312 L 635.960938 311.375 L 633.960938 311.28125 L 631.386719 311.125 L 629.816406 311.003906 L 628.742188 310.90625 L 627.527344 310.769531 L 626.671875 310.644531 L 625.671875 310.445312 L 624.957031 310.195312 L 624.742188 310 Z M 624.742188 309.515625 "/>
<path style=" stroke:none;fill-rule:nonzero;fill:rgb(96.862745%,70.196078%,16.862745%);fill-opacity:1;" d="M 624.742188 313.515625 L 624.8125 313.515625 L 624.8125 313.488281 L 625.097656 313.425781 L 625.8125 313.339844 L 626.742188 313.273438 L 627.742188 313.21875 L 628.386719 313.1875 L 629.457031 313.148438 L 630.386719 313.117188 L 632.746094 313.054688 L 635.746094 313 L 637.390625 312.972656 L 639.246094 312.953125 L 641.890625 312.925781 L 643.105469 312.914062 L 646.820312 312.894531 L 651.039062 312.878906 L 655.683594 312.875 L 657.828125 312.878906 L 660.757812 312.882812 L 664.757812 312.898438 L 667.042969 312.910156 L 668.832031 312.925781 L 670.6875 312.941406 L 672.976562 312.96875 L 675.121094 313.003906 L 676.835938 313.035156 L 678.550781 313.078125 L 679.980469 313.121094 L 681.191406 313.167969 L 682.265625 313.226562 L 682.910156 313.273438 L 683.335938 313.320312 L 673.40625 313.320312 L 672.832031 313.273438 L 672.191406 313.238281 L 671.117188 313.191406 L 670.046875 313.160156 L 668.972656 313.132812 L 666.972656 313.097656 L 665.257812 313.074219 L 663.113281 313.054688 L 661.042969 313.042969 L 658.683594 313.035156 L 657.253906 313.03125 L 653.46875 313.03125 L 650.039062 313.042969 L 648.035156 313.054688 L 646.609375 313.066406 L 644.605469 313.085938 L 643.390625 313.101562 L 642.675781 313.113281 L 640.535156 313.15625 L 639.105469 313.191406 L 638.320312 313.21875 L 637.316406 313.257812 L 636.605469 313.296875 L 635.816406 313.351562 L 635.390625 313.390625 L 634.816406 313.484375 L 634.746094 313.730469 L 634.960938 313.78125 L 635.390625 313.839844 L 635.960938 313.886719 L 636.816406 313.9375 L 637.675781 313.980469 L 639.175781 314.03125 L 640.460938 314.066406 L 641.464844 314.089844 L 643.390625 314.128906 L 644.179688 314.140625 L 646.035156 314.164062 L 647.964844 314.183594 L 650.324219 314.199219 L 652.109375 314.207031 L 654.96875 314.214844 L 658.613281 314.214844 L 662.898438 314.207031 L 665.617188 314.195312 L 667.472656 314.183594 L 668.6875 314.175781 L 670.1875 314.160156 L 671.261719 314.148438 L 672.261719 314.132812 L 673.476562 314.109375 L 673.476562 313.78125 L 655.824219 313.78125 L 655.824219 313.628906 L 683.265625 313.625 L 683.335938 314.160156 L 681.835938 314.199219 L 679.980469 314.234375 L 678.191406 314.261719 L 676.335938 314.285156 L 673.691406 314.308594 L 671.546875 314.324219 L 668.257812 314.34375 L 665.257812 314.355469 L 662.113281 314.363281 L 659.328125 314.371094 L 656.039062 314.371094 L 653.109375 314.367188 L 649.964844 314.359375 L 647.464844 314.347656 L 645.179688 314.335938 L 642.890625 314.316406 L 640.035156 314.289062 L 638.175781 314.265625 L 636.246094 314.238281 L 634.316406 314.203125 L 632.601562 314.164062 L 631.457031 314.136719 L 630.316406 314.105469 L 629.101562 314.0625 L 627.957031 314.015625 L 627.101562 313.976562 L 626.3125 313.925781 L 625.742188 313.882812 L 625.171875 313.820312 L 624.882812 313.773438 L 624.742188 313.730469 Z M 624.742188 313.515625 "/>
<path style=" stroke:none;fill-rule:nonzero;fill:rgb(83.921569%,15.686275%,22.352941%);fill-opacity:1;" d="M 624.742188 301.925781 L 683.335938 301.925781 L 683.335938 302.433594 L 658.917969 302.4375 L 658.917969 306.65625 L 649.089844 306.65625 L 649.089844 302.441406 L 648.949219 302.433594 L 624.742188 302.433594 Z M 624.742188 301.925781 "/>
<g style="fill:rgb(0%,0%,0%);fill-opacity:1;">
  <use xlink:href="#glyph0-1" x="21.957031" y="318.198242"/>
  <use xlink:href="#glyph0-2" x="27.291016" y="318.198242"/>
  <use xlink:href="#glyph0-1" x="29.958008" y="318.198242"/>
</g>
<g style="fill:rgb(0%,0%,0%);fill-opacity:1;">
  <use xlink:href="#glyph0-1" x="21.957031" y="241.041992"/>
  <use xlink:href="#glyph0-2" x="27.291016" y="241.041992"/>
  <use xlink:href="#glyph0-3" x="29.958008" y="241.041992"/>
</g>
<g style="fill:rgb(0%,0%,0%);fill-opacity:1;">
  <use xlink:href="#glyph0-4" x="21.957031" y="163.889648"/>
  <use xlink:href="#glyph0-2" x="27.291016" y="163.889648"/>
  <use xlink:href="#glyph0-1" x="29.958008" y="163.889648"/>
</g>
<g style="fill:rgb(0%,0%,0%);fill-opacity:1;">
  <use xlink:href="#glyph0-4" x="21.957031" y="86.733398"/>
  <use xlink:href="#glyph0-2" x="27.291016" y="86.733398"/>
  <use xlink:href="#glyph0-3" x="29.958008" y="86.733398"/>
</g>
<g style="fill:rgb(0%,0%,0%);fill-opacity:1;">
  <use xlink:href="#glyph0-5" x="21.957031" y="9.577148"/>
  <use xlink:href="#glyph0-2" x="27.291016" y="9.577148"/>
  <use xlink:href="#glyph0-1" x="29.958008" y="9.577148"/>
</g>
<g style="fill:rgb(0%,0%,0%);fill-opacity:1;">
  <use xlink:href="#glyph0-4" x="95.925781" y="338.19043"/>
</g>
<g style="fill:rgb(0%,0%,0%);fill-opacity:1;">
  <use xlink:href="#glyph0-5" x="157.605469" y="338.19043"/>
</g>
<g style="fill:rgb(0%,0%,0%);fill-opacity:1;">
  <use xlink:href="#glyph0-6" x="219.285156" y="338.19043"/>
</g>
<g style="fill:rgb(0%,0%,0%);fill-opacity:1;">
  <use xlink:href="#glyph0-7" x="280.964844" y="338.19043"/>
</g>
<g style="fill:rgb(0%,0%,0%);fill-opacity:1;">
  <use xlink:href="#glyph0-3" x="342.644531" y="338.19043"/>
</g>
<g style="fill:rgb(0%,0%,0%);fill-opacity:1;">
  <use xlink:href="#glyph0-8" x="404.324219" y="338.19043"/>
</g>
<g style="fill:rgb(0%,0%,0%);fill-opacity:1;">
  <use xlink:href="#glyph0-9" x="466" y="338.19043"/>
</g>
<g style="fill:rgb(0%,0%,0%);fill-opacity:1;">
  <use xlink:href="#glyph0-10" x="527.679688" y="338.19043"/>
</g>
<g style="fill:rgb(0%,0%,0%);fill-opacity:1;">
  <use xlink:href="#glyph0-11" x="589.359375" y="338.19043"/>
</g>
<g style="fill:rgb(0%,0%,0%);fill-opacity:1;">
  <use xlink:href="#glyph0-4" x="648.539062" y="338.19043"/>
  <use xlink:href="#glyph0-1" x="653.873047" y="338.19043"/>
</g>
<g style="fill:rgb(0%,0%,0%);fill-opacity:1;">
  <use xlink:href="#glyph1-1" x="14.412109" y="178.015625"/>
  <use xlink:href="#glyph1-2" x="14.412109" y="170.011719"/>
  <use xlink:href="#glyph1-3" x="14.412109" y="167.347656"/>
  <use xlink:href="#glyph1-4" x="14.412109" y="164.011719"/>
</g>
</g>
</svg>
