<?xml version="1.0" encoding="UTF-8"?>
<svg xmlns="http://www.w3.org/2000/svg" xmlns:xlink="http://www.w3.org/1999/xlink" width="720pt" height="360pt" viewBox="0 0 720 360" version="1.1">
<defs>
<g>
<symbol overflow="visible" id="glyph0-0">
<path style="stroke:none;" d=""/>
</symbol>
<symbol overflow="visible" id="glyph0-1">
<path style="stroke:none;" d="M 2.640625 -6.796875 C 2 -6.796875 1.421875 -6.53125 1.078125 -6.046875 C 0.640625 -5.453125 0.40625 -4.546875 0.40625 -3.296875 C 0.40625 -1 1.1875 0.21875 2.640625 0.21875 C 4.078125 0.21875 4.859375 -1 4.859375 -3.234375 C 4.859375 -4.5625 4.65625 -5.4375 4.203125 -6.046875 C 3.84375 -6.53125 3.28125 -6.796875 2.640625 -6.796875 Z M 2.640625 -6.046875 C 3.546875 -6.046875 4 -5.125 4 -3.3125 C 4 -1.375 3.5625 -0.484375 2.625 -0.484375 C 1.734375 -0.484375 1.28125 -1.421875 1.28125 -3.28125 C 1.28125 -5.140625 1.734375 -6.046875 2.640625 -6.046875 Z M 2.640625 -6.046875 "/>
</symbol>
<symbol overflow="visible" id="glyph0-2">
<path style="stroke:none;" d="M 1.828125 -1 L 0.828125 -1 L 0.828125 0 L 1.828125 0 Z M 1.828125 -1 "/>
</symbol>
<symbol overflow="visible" id="glyph0-3">
<path style="stroke:none;" d="M 4.5625 -6.796875 L 1.0625 -6.796875 L 0.546875 -3.09375 L 1.328125 -3.09375 C 1.71875 -3.5625 2.046875 -3.734375 2.578125 -3.734375 C 3.484375 -3.734375 4.0625 -3.109375 4.0625 -2.09375 C 4.0625 -1.125 3.484375 -0.53125 2.578125 -0.53125 C 1.828125 -0.53125 1.375 -0.90625 1.1875 -1.671875 L 0.328125 -1.671875 C 0.453125 -1.109375 0.546875 -0.84375 0.75 -0.59375 C 1.125 -0.078125 1.828125 0.21875 2.59375 0.21875 C 3.96875 0.21875 4.921875 -0.78125 4.921875 -2.21875 C 4.921875 -3.5625 4.03125 -4.484375 2.71875 -4.484375 C 2.25 -4.484375 1.859375 -4.359375 1.46875 -4.0625 L 1.734375 -5.96875 L 4.5625 -5.96875 Z M 4.5625 -6.796875 "/>
</symbol>
<symbol overflow="visible" id="glyph0-4">
<path style="stroke:none;" d="M 2.484375 -4.84375 L 2.484375 0 L 3.328125 0 L 3.328125 -6.796875 L 2.765625 -6.796875 C 2.46875 -5.75 2.28125 -5.609375 0.984375 -5.453125 L 0.984375 -4.84375 Z M 2.484375 -4.84375 "/>
</symbol>
<symbol overflow="visible" id="glyph0-5">
<path style="stroke:none;" d="M 4.859375 -0.828125 L 1.28125 -0.828125 C 1.359375 -1.390625 1.671875 -1.75 2.5 -2.234375 L 3.46875 -2.75 C 4.40625 -3.265625 4.90625 -3.96875 4.90625 -4.8125 C 4.90625 -5.375 4.671875 -5.90625 4.265625 -6.265625 C 3.859375 -6.625 3.375 -6.796875 2.71875 -6.796875 C 1.859375 -6.796875 1.21875 -6.5 0.84375 -5.921875 C 0.609375 -5.5625 0.5 -5.125 0.484375 -4.4375 L 1.328125 -4.4375 C 1.359375 -4.90625 1.40625 -5.1875 1.53125 -5.40625 C 1.75 -5.8125 2.1875 -6.0625 2.703125 -6.0625 C 3.46875 -6.0625 4.03125 -5.515625 4.03125 -4.78125 C 4.03125 -4.25 3.71875 -3.796875 3.125 -3.4375 L 2.234375 -2.9375 C 0.8125 -2.140625 0.40625 -1.5 0.328125 0 L 4.859375 0 Z M 4.859375 -0.828125 "/>
</symbol>
<symbol overflow="visible" id="glyph0-6">
<path style="stroke:none;" d="M 2.125 -3.125 L 2.578125 -3.125 C 3.515625 -3.125 3.984375 -2.703125 3.984375 -1.890625 C 3.984375 -1.03125 3.46875 -0.53125 2.578125 -0.53125 C 1.65625 -0.53125 1.203125 -0.984375 1.15625 -1.96875 L 0.3125 -1.96875 C 0.34375 -1.421875 0.4375 -1.078125 0.609375 -0.765625 C 0.953125 -0.109375 1.625 0.21875 2.546875 0.21875 C 3.953125 0.21875 4.859375 -0.609375 4.859375 -1.90625 C 4.859375 -2.765625 4.515625 -3.25 3.703125 -3.515625 C 4.34375 -3.765625 4.65625 -4.25 4.65625 -4.9375 C 4.65625 -6.109375 3.875 -6.796875 2.578125 -6.796875 C 1.203125 -6.796875 0.484375 -6.046875 0.453125 -4.609375 L 1.296875 -4.609375 C 1.3125 -5.015625 1.34375 -5.25 1.453125 -5.453125 C 1.640625 -5.828125 2.0625 -6.0625 2.59375 -6.0625 C 3.34375 -6.0625 3.796875 -5.625 3.796875 -4.90625 C 3.796875 -4.421875 3.609375 -4.140625 3.25 -3.984375 C 3.015625 -3.890625 2.71875 -3.84375 2.125 -3.84375 Z M 2.125 -3.125 "/>
</symbol>
<symbol overflow="visible" id="glyph0-7">
<path style="stroke:none;" d="M 3.140625 -1.625 L 3.140625 0 L 3.984375 0 L 3.984375 -1.625 L 4.984375 -1.625 L 4.984375 -2.390625 L 3.984375 -2.390625 L 3.984375 -6.796875 L 3.359375 -6.796875 L 0.265625 -2.515625 L 0.265625 -1.625 Z M 3.140625 -2.390625 L 1 -2.390625 L 3.140625 -5.359375 Z M 3.140625 -2.390625 "/>
</symbol>
<symbol overflow="visible" id="glyph0-8">
<path style="stroke:none;" d="M 4.78125 -5.03125 C 4.609375 -6.140625 3.890625 -6.796875 2.84375 -6.796875 C 2.09375 -6.796875 1.421875 -6.4375 1.03125 -5.828125 C 0.609375 -5.171875 0.40625 -4.34375 0.40625 -3.09375 C 0.40625 -1.953125 0.578125 -1.234375 0.984375 -0.625 C 1.359375 -0.078125 1.953125 0.21875 2.703125 0.21875 C 3.984375 0.21875 4.921875 -0.734375 4.921875 -2.078125 C 4.921875 -3.34375 4.0625 -4.234375 2.84375 -4.234375 C 2.171875 -4.234375 1.640625 -3.96875 1.28125 -3.46875 C 1.28125 -5.125 1.828125 -6.046875 2.796875 -6.046875 C 3.390625 -6.046875 3.796875 -5.671875 3.9375 -5.03125 Z M 2.734375 -3.484375 C 3.546875 -3.484375 4.0625 -2.921875 4.0625 -2 C 4.0625 -1.15625 3.484375 -0.53125 2.703125 -0.53125 C 1.921875 -0.53125 1.328125 -1.1875 1.328125 -2.046875 C 1.328125 -2.890625 1.90625 -3.484375 2.734375 -3.484375 Z M 2.734375 -3.484375 "/>
</symbol>
<symbol overflow="visible" id="glyph0-9">
<path style="stroke:none;" d="M 4.984375 -6.796875 L 0.4375 -6.796875 L 0.4375 -5.96875 L 4.109375 -5.96875 C 2.5 -3.65625 1.828125 -2.234375 1.328125 0 L 2.21875 0 C 2.59375 -2.171875 3.453125 -4.046875 4.984375 -6.09375 Z M 4.984375 -6.796875 "/>
</symbol>
<symbol overflow="visible" id="glyph0-10">
<path style="stroke:none;" d="M 3.75 -3.578125 C 4.453125 -4 4.6875 -4.34375 4.6875 -4.984375 C 4.6875 -6.046875 3.84375 -6.796875 2.640625 -6.796875 C 1.4375 -6.796875 0.59375 -6.046875 0.59375 -4.984375 C 0.59375 -4.359375 0.828125 -4.015625 1.515625 -3.578125 C 0.734375 -3.203125 0.359375 -2.640625 0.359375 -1.890625 C 0.359375 -0.640625 1.296875 0.21875 2.640625 0.21875 C 3.984375 0.21875 4.921875 -0.640625 4.921875 -1.875 C 4.921875 -2.640625 4.53125 -3.203125 3.75 -3.578125 Z M 2.640625 -6.046875 C 3.359375 -6.046875 3.8125 -5.625 3.8125 -4.96875 C 3.8125 -4.34375 3.34375 -3.921875 2.640625 -3.921875 C 1.921875 -3.921875 1.453125 -4.34375 1.453125 -4.984375 C 1.453125 -5.625 1.921875 -6.046875 2.640625 -6.046875 Z M 2.640625 -3.203125 C 3.484375 -3.203125 4.0625 -2.671875 4.0625 -1.875 C 4.0625 -1.0625 3.484375 -0.53125 2.625 -0.53125 C 1.796875 -0.53125 1.21875 -1.078125 1.21875 -1.875 C 1.21875 -2.671875 1.796875 -3.203125 2.640625 -3.203125 Z M 2.640625 -3.203125 "/>
</symbol>
<symbol overflow="visible" id="glyph1-0">
<path style="stroke:none;" d=""/>
</symbol>
<symbol overflow="visible" id="glyph1-1">
<path style="stroke:none;" d="M 0 -0.953125 L 0 -4.890625 C 0 -5.71875 -0.234375 -6.34375 -0.734375 -6.796875 C -1.1875 -7.234375 -1.8125 -7.46875 -2.5 -7.46875 C -3.546875 -7.46875 -4.1875 -7 -4.625 -5.875 C -4.984375 -6.671875 -5.640625 -7.09375 -6.53125 -7.09375 C -7.15625 -7.09375 -7.734375 -6.859375 -8.140625 -6.390625 C -8.5625 -5.9375 -8.75 -5.34375 -8.75 -4.5 L -8.75 -0.953125 Z M -4.984375 -2.0625 L -7.765625 -2.0625 L -7.765625 -4.21875 C -7.765625 -4.84375 -7.6875 -5.203125 -7.453125 -5.5 C -7.21875 -5.8125 -6.859375 -5.96875 -6.375 -5.96875 C -5.90625 -5.96875 -5.53125 -5.8125 -5.296875 -5.5 C -5.0625 -5.203125 -4.984375 -4.84375 -4.984375 -4.21875 Z M -0.984375 -2.0625 L -4 -2.0625 L -4 -4.78125 C -4 -5.328125 -3.859375 -5.6875 -3.578125 -5.953125 C -3.296875 -6.21875 -2.921875 -6.359375 -2.484375 -6.359375 C -2.0625 -6.359375 -1.6875 -6.21875 -1.40625 -5.953125 C -1.109375 -5.6875 -0.984375 -5.328125 -0.984375 -4.78125 Z M -0.984375 -2.0625 "/>
</symbol>
<symbol overflow="visible" id="glyph1-2">
<path style="stroke:none;" d="M -6.28125 -1.796875 L -6.28125 -0.796875 L 0 -0.796875 L 0 -1.796875 Z M -8.75 -1.796875 L -8.75 -0.796875 L -7.484375 -0.796875 L -7.484375 -1.796875 Z M -8.75 -1.796875 "/>
</symbol>
<symbol overflow="visible" id="glyph1-3">
<path style="stroke:none;" d="M -6.28125 -3.046875 L -6.28125 -2.015625 L -8.015625 -2.015625 L -8.015625 -1.015625 L -6.28125 -1.015625 L -6.28125 -0.171875 L -5.46875 -0.171875 L -5.46875 -1.015625 L -0.71875 -1.015625 C -0.078125 -1.015625 0.28125 -1.453125 0.28125 -2.234375 C 0.28125 -2.46875 0.25 -2.71875 0.1875 -3.046875 L -0.640625 -3.046875 C -0.609375 -2.921875 -0.59375 -2.765625 -0.59375 -2.5625 C -0.59375 -2.140625 -0.71875 -2.015625 -1.15625 -2.015625 L -5.46875 -2.015625 L -5.46875 -3.046875 Z M -6.28125 -3.046875 "/>
</symbol>
<symbol overflow="visible" id="glyph1-4">
<path style="stroke:none;" d="M -4.53125 -5.25 C -5.765625 -5.25 -6.46875 -4.421875 -6.46875 -2.96875 C -6.46875 -1.515625 -5.71875 -0.5625 -4.546875 -0.5625 C -3.5625 -0.5625 -3.09375 -1.0625 -2.734375 -2.5625 L -2.515625 -3.484375 C -2.34375 -4.1875 -2.09375 -4.46875 -1.625 -4.46875 C -1.046875 -4.46875 -0.640625 -3.875 -0.640625 -3 C -0.640625 -2.453125 -0.796875 -2 -1.0625 -1.75 C -1.25 -1.59375 -1.421875 -1.53125 -1.875 -1.46875 L -1.875 -0.40625 C -0.421875 -0.453125 0.28125 -1.265625 0.28125 -2.921875 C 0.28125 -4.5 -0.5 -5.515625 -1.71875 -5.515625 C -2.65625 -5.515625 -3.171875 -4.984375 -3.46875 -3.734375 L -3.703125 -2.765625 C -3.890625 -1.953125 -4.15625 -1.609375 -4.59375 -1.609375 C -5.171875 -1.609375 -5.546875 -2.125 -5.546875 -2.9375 C -5.546875 -3.75 -5.203125 -4.171875 -4.53125 -4.203125 Z M -4.53125 -5.25 "/>
</symbol>
</g>
</defs>
<g id="surface94766">
<rect x="0" y="0" width="720" height="360" style="fill:rgb(100%,100%,100%);fill-opacity:1;stroke:none;"/>
<path style=" stroke:none;fill-rule:nonzero;fill:rgb(6.27451%,58.823529%,28.235294%);fill-opacity:1;" d="M 69.628906 290.367188 L 69.707031 290.210938 L 101.441406 122.761719 L 111.078125 122.761719 L 142.964844 290.523438 L 131.761719 290.523438 L 123.769531 246.734375 L 88.746094 246.734375 L 80.910156 290.367188 L 69.628906 290.367188 L 92.117188 228.617188 L 120.558594 228.460938 L 106.375 150.171875 L 106.21875 150.011719 L 106.0625 150.484375 L 92.039062 228.460938 L 92.117188 228.617188 Z M 69.628906 290.367188 "/>
<path style=" stroke:none;fill-rule:nonzero;fill:rgb(14.509804%,36.078431%,60%);fill-opacity:1;" d="M 69.628906 314.132812 L 69.71875 314.132812 L 69.71875 314.125 L 69.988281 314.109375 L 70.613281 314.089844 L 71.238281 314.078125 L 72.847656 314.054688 L 75.085938 314.03125 L 77.410156 314.015625 L 79.109375 314.007812 L 80.628906 314 L 84.117188 313.984375 L 86.355469 313.976562 L 88.769531 313.96875 L 91.71875 313.964844 L 93.867188 313.960938 L 98.695312 313.953125 L 102.273438 313.953125 L 105.046875 313.949219 L 111.039062 313.949219 L 114.613281 313.953125 L 117.207031 313.953125 L 120.070312 313.957031 L 122.484375 313.960938 L 126.6875 313.96875 L 130.445312 313.980469 L 132.144531 313.984375 L 134.828125 313.996094 L 136.882812 314.007812 L 138.316406 314.019531 L 139.925781 314.03125 L 141.355469 314.050781 L 142.429688 314.070312 L 142.964844 314.085938 L 130.445312 314.085938 L 129.820312 314.070312 L 129.101562 314.058594 L 127.761719 314.042969 L 126.421875 314.03125 L 124.542969 314.019531 L 122.84375 314.015625 L 120.515625 314.007812 L 118.460938 314.003906 L 116.3125 314 L 114.257812 313.996094 L 110.320312 313.992188 L 105.761719 313.992188 L 104.0625 313.996094 L 100.574219 313.996094 L 98.695312 314 L 96.011719 314.003906 L 94.132812 314.011719 L 91.898438 314.019531 L 90.378906 314.023438 L 88.5 314.035156 L 87.160156 314.042969 L 85.636719 314.054688 L 84.742188 314.066406 L 83.9375 314.078125 L 83.222656 314.089844 L 82.6875 314.101562 L 82.328125 314.117188 L 82.148438 314.132812 L 82.148438 314.191406 L 82.328125 314.203125 L 82.777344 314.222656 L 83.9375 314.246094 L 85.636719 314.265625 L 87.605469 314.28125 L 89.484375 314.292969 L 90.558594 314.296875 L 91.988281 314.304688 L 94.222656 314.3125 L 97.445312 314.320312 L 99.320312 314.320312 L 102.183594 314.324219 L 105.136719 314.328125 L 109.070312 314.328125 L 112.558594 314.324219 L 114.882812 314.324219 L 117.296875 314.320312 L 120.605469 314.3125 L 122.664062 314.308594 L 124.453125 314.300781 L 125.792969 314.292969 L 126.6875 314.285156 L 128.03125 314.273438 L 129.101562 314.261719 L 129.90625 314.25 L 130.445312 314.234375 L 142.964844 314.234375 L 142.429688 314.25 L 141.625 314.265625 L 140.820312 314.277344 L 139.566406 314.289062 L 138.136719 314.300781 L 136.078125 314.316406 L 134.378906 314.324219 L 132.144531 314.335938 L 130.085938 314.339844 L 127.851562 314.347656 L 124.542969 314.355469 L 122.394531 314.359375 L 120.070312 314.363281 L 117.296875 314.367188 L 113.808594 314.367188 L 110.054688 314.371094 L 102.808594 314.371094 L 100.035156 314.367188 L 96.371094 314.363281 L 91.808594 314.359375 L 88.5 314.351562 L 85.90625 314.34375 L 83.671875 314.335938 L 81.167969 314.324219 L 77.945312 314.308594 L 75.980469 314.296875 L 74.636719 314.285156 L 73.117188 314.269531 L 72.042969 314.257812 L 70.792969 314.234375 L 69.898438 314.207031 L 69.628906 314.1875 Z M 69.628906 314.132812 "/>
<path style=" stroke:none;fill-rule:nonzero;fill:rgb(96.862745%,70.196078%,16.862745%);fill-opacity:1;" d="M 69.628906 297.308594 L 69.71875 297.292969 L 69.71875 297.054688 L 70.078125 296.519531 L 70.972656 295.777344 L 72.132812 295.167969 L 73.386719 294.691406 L 74.191406 294.441406 L 75.53125 294.082031 L 76.695312 293.820312 L 79.644531 293.28125 L 83.402344 292.78125 L 85.460938 292.566406 L 87.785156 292.363281 L 91.09375 292.132812 L 92.613281 292.050781 L 97.265625 291.859375 L 102.542969 291.742188 L 108.355469 291.703125 L 111.039062 291.714844 L 114.703125 291.765625 L 119.710938 291.894531 L 122.574219 292.015625 L 124.808594 292.132812 L 127.136719 292.289062 L 129.996094 292.527344 L 132.679688 292.816406 L 134.828125 293.101562 L 136.972656 293.460938 L 138.761719 293.84375 L 140.28125 294.261719 L 141.625 294.761719 L 142.429688 295.179688 L 142.964844 295.597656 L 130.535156 295.597656 L 129.820312 295.179688 L 129.015625 294.859375 L 127.671875 294.464844 L 126.332031 294.175781 L 124.988281 293.949219 L 122.484375 293.640625 L 120.339844 293.449219 L 117.65625 293.28125 L 115.0625 293.175781 L 112.109375 293.101562 L 110.320312 293.078125 L 105.582031 293.078125 L 101.289062 293.160156 L 98.785156 293.257812 L 96.996094 293.351562 L 94.492188 293.53125 L 92.972656 293.675781 L 92.078125 293.769531 L 89.394531 294.140625 L 87.605469 294.476562 L 86.621094 294.703125 L 85.371094 295.0625 L 84.476562 295.382812 L 83.492188 295.863281 L 82.953125 296.21875 L 82.238281 297.03125 L 82.148438 299.183594 L 82.417969 299.636719 L 82.953125 300.125 L 83.671875 300.554688 L 84.742188 301.007812 L 85.816406 301.355469 L 87.695312 301.820312 L 89.304688 302.132812 L 90.558594 302.335938 L 92.972656 302.65625 L 93.957031 302.765625 L 96.28125 302.980469 L 98.695312 303.148438 L 101.648438 303.292969 L 103.882812 303.363281 L 107.460938 303.421875 L 112.019531 303.421875 L 117.386719 303.351562 L 120.785156 303.253906 L 123.109375 303.160156 L 124.632812 303.078125 L 126.507812 302.945312 L 127.851562 302.824219 L 129.101562 302.695312 L 130.625 302.492188 L 130.625 299.636719 L 108.535156 299.625 L 108.535156 298.285156 L 142.875 298.273438 L 142.964844 302.945312 L 141.085938 303.265625 L 138.761719 303.578125 L 136.527344 303.816406 L 134.199219 304.019531 L 130.890625 304.246094 L 128.207031 304.390625 L 124.09375 304.558594 L 120.339844 304.664062 L 116.402344 304.738281 L 112.914062 304.773438 L 108.800781 304.785156 L 105.136719 304.761719 L 101.199219 304.6875 L 98.070312 304.59375 L 95.207031 304.472656 L 92.34375 304.320312 L 88.769531 304.066406 L 86.441406 303.863281 L 84.027344 303.613281 L 81.613281 303.316406 L 79.46875 302.992188 L 78.035156 302.742188 L 76.605469 302.453125 L 75.085938 302.097656 L 73.652344 301.691406 L 72.582031 301.320312 L 71.597656 300.902344 L 70.882812 300.507812 L 70.164062 299.96875 L 69.808594 299.539062 L 69.628906 299.171875 Z M 69.628906 297.308594 "/>
<path style=" stroke:none;fill-rule:nonzero;fill:rgb(83.921569%,15.686275%,22.352941%);fill-opacity:1;" d="M 69.628906 305.964844 L 142.964844 305.964844 L 142.964844 306.691406 L 112.402344 306.699219 L 112.402344 312.769531 L 100.105469 312.769531 L 100.105469 306.707031 L 99.925781 306.691406 L 69.628906 306.691406 Z M 69.628906 305.964844 "/>
<path style=" stroke:none;fill-rule:nonzero;fill:rgb(6.27451%,58.823529%,28.235294%);fill-opacity:1;" d="M 146.824219 300.773438 L 146.902344 300.761719 L 178.636719 286.609375 L 188.273438 286.609375 L 220.160156 300.785156 L 208.957031 300.785156 L 200.964844 297.085938 L 165.941406 297.085938 L 158.109375 300.773438 L 146.824219 300.773438 L 169.3125 295.554688 L 197.753906 295.542969 L 183.570312 288.925781 L 183.414062 288.914062 L 183.257812 288.953125 L 169.234375 295.542969 L 169.3125 295.554688 Z M 146.824219 300.773438 "/>
<path style=" stroke:none;fill-rule:nonzero;fill:rgb(14.509804%,36.078431%,60%);fill-opacity:1;" d="M 146.824219 304.5 L 146.914062 304.492188 L 146.914062 304.367188 L 147.183594 304.164062 L 147.808594 303.90625 L 148.433594 303.730469 L 150.042969 303.417969 L 152.28125 303.117188 L 154.605469 302.882812 L 156.304688 302.742188 L 157.824219 302.636719 L 161.3125 302.441406 L 163.550781 302.339844 L 165.964844 302.25 L 168.914062 302.15625 L 171.0625 302.105469 L 175.890625 302.019531 L 179.46875 301.980469 L 182.242188 301.964844 L 188.234375 301.964844 L 191.8125 301.988281 L 194.40625 302.015625 L 197.265625 302.058594 L 199.679688 302.105469 L 203.882812 302.222656 L 207.640625 302.371094 L 209.339844 302.457031 L 212.023438 302.621094 L 214.078125 302.78125 L 215.511719 302.917969 L 217.121094 303.117188 L 218.550781 303.355469 L 219.625 303.625 L 220.160156 303.855469 L 207.640625 303.855469 L 207.015625 303.640625 L 206.300781 303.476562 L 204.957031 303.257812 L 203.617188 303.105469 L 201.738281 302.949219 L 200.039062 302.847656 L 197.714844 302.75 L 195.65625 302.683594 L 193.511719 302.636719 L 191.453125 302.605469 L 187.519531 302.574219 L 182.957031 302.574219 L 181.257812 302.582031 L 177.769531 302.625 L 175.890625 302.664062 L 173.207031 302.738281 L 171.332031 302.808594 L 169.09375 302.914062 L 167.574219 303.003906 L 165.695312 303.140625 L 164.355469 303.265625 L 162.835938 303.441406 L 161.941406 303.574219 L 161.136719 303.722656 L 160.417969 303.898438 L 159.882812 304.082031 L 159.523438 304.28125 L 159.347656 304.472656 L 159.347656 305.296875 L 159.523438 305.488281 L 159.972656 305.710938 L 161.136719 306.035156 L 162.835938 306.316406 L 164.800781 306.539062 L 166.679688 306.699219 L 167.753906 306.773438 L 169.183594 306.859375 L 171.417969 306.964844 L 174.640625 307.074219 L 176.515625 307.113281 L 179.378906 307.15625 L 182.332031 307.179688 L 186.265625 307.179688 L 189.753906 307.15625 L 192.078125 307.132812 L 194.492188 307.089844 L 197.804688 307 L 199.859375 306.914062 L 201.648438 306.8125 L 202.988281 306.710938 L 203.882812 306.625 L 205.226562 306.460938 L 206.300781 306.28125 L 207.105469 306.09375 L 207.640625 305.914062 L 220.160156 305.914062 L 219.625 306.125 L 218.820312 306.332031 L 218.015625 306.488281 L 216.761719 306.671875 L 215.332031 306.839844 L 213.273438 307.023438 L 211.574219 307.148438 L 209.339844 307.28125 L 207.28125 307.382812 L 205.046875 307.472656 L 201.738281 307.578125 L 199.589844 307.632812 L 197.265625 307.679688 L 194.492188 307.722656 L 191.003906 307.757812 L 187.25 307.78125 L 183.761719 307.785156 L 180.003906 307.773438 L 177.234375 307.753906 L 173.566406 307.707031 L 169.003906 307.609375 L 165.695312 307.507812 L 163.101562 307.40625 L 160.867188 307.300781 L 158.363281 307.15625 L 155.144531 306.921875 L 153.175781 306.742188 L 151.832031 306.59375 L 150.3125 306.386719 L 149.238281 306.199219 L 147.988281 305.902344 L 147.09375 305.523438 L 146.824219 305.230469 Z M 146.824219 304.5 "/>
<path style=" stroke:none;fill-rule:nonzero;fill:rgb(96.862745%,70.196078%,16.862745%);fill-opacity:1;" d="M 146.824219 218.964844 L 146.914062 218.859375 L 146.914062 216.734375 L 147.273438 211.957031 L 148.167969 205.375 L 149.328125 199.960938 L 150.582031 195.714844 L 151.386719 193.484375 L 152.726562 190.296875 L 153.890625 187.960938 L 156.84375 183.183594 L 160.597656 178.726562 L 162.65625 176.8125 L 164.980469 175.007812 L 168.289062 172.992188 L 169.808594 172.25 L 174.460938 170.550781 L 179.738281 169.488281 L 185.550781 169.167969 L 188.234375 169.273438 L 191.898438 169.699219 L 196.910156 170.867188 L 199.769531 171.929688 L 202.007812 172.992188 L 204.332031 174.371094 L 207.195312 176.496094 L 209.875 179.042969 L 212.023438 181.589844 L 214.167969 184.777344 L 215.957031 188.175781 L 217.476562 191.890625 L 218.820312 196.351562 L 219.625 200.066406 L 220.160156 203.78125 L 207.730469 203.78125 L 207.015625 200.066406 L 206.210938 197.199219 L 204.867188 193.695312 L 203.527344 191.148438 L 202.183594 189.128906 L 199.679688 186.371094 L 197.535156 184.671875 L 194.851562 183.183594 L 192.257812 182.230469 L 189.304688 181.589844 L 187.519531 181.378906 L 182.777344 181.378906 L 178.484375 182.121094 L 175.980469 182.972656 L 174.191406 183.820312 L 171.6875 185.414062 L 170.167969 186.6875 L 169.273438 187.539062 L 166.589844 190.828125 L 164.800781 193.800781 L 163.816406 195.820312 L 162.566406 199.003906 L 161.671875 201.871094 L 160.6875 206.117188 L 160.152344 209.304688 L 159.433594 216.523438 L 159.347656 235.636719 L 159.613281 239.667969 L 160.152344 244.023438 L 160.867188 247.84375 L 161.941406 251.878906 L 163.011719 254.957031 L 164.890625 259.097656 L 166.5 261.859375 L 167.753906 263.664062 L 170.167969 266.53125 L 171.152344 267.488281 L 173.476562 269.398438 L 175.890625 270.886719 L 178.84375 272.160156 L 181.078125 272.796875 L 184.65625 273.328125 L 189.21875 273.328125 L 194.582031 272.691406 L 197.980469 271.839844 L 200.308594 270.992188 L 201.828125 270.246094 L 203.707031 269.078125 L 205.046875 268.019531 L 206.300781 266.851562 L 207.820312 265.046875 L 207.820312 239.667969 L 185.730469 239.5625 L 185.730469 227.671875 L 220.070312 227.566406 L 220.160156 269.078125 L 218.285156 271.945312 L 215.957031 274.707031 L 213.722656 276.832031 L 211.398438 278.636719 L 208.085938 280.652344 L 205.40625 281.925781 L 201.289062 283.414062 L 197.535156 284.371094 L 193.597656 285.007812 L 190.113281 285.324219 L 185.996094 285.429688 L 182.332031 285.21875 L 178.394531 284.582031 L 175.265625 283.730469 L 172.402344 282.671875 L 169.542969 281.289062 L 165.964844 279.0625 L 163.640625 277.253906 L 161.222656 275.027344 L 158.808594 272.371094 L 156.664062 269.503906 L 155.230469 267.273438 L 153.800781 264.726562 L 152.28125 261.542969 L 150.851562 257.933594 L 149.777344 254.640625 L 148.792969 250.925781 L 148.078125 247.421875 L 147.363281 242.640625 L 147.003906 238.820312 L 146.824219 235.527344 Z M 146.824219 218.964844 "/>
<path style=" stroke:none;fill-rule:nonzero;fill:rgb(83.921569%,15.686275%,22.352941%);fill-opacity:1;" d="M 146.824219 308.964844 L 220.160156 308.964844 L 220.160156 309.542969 L 189.597656 309.546875 L 189.597656 314.371094 L 177.300781 314.371094 L 177.300781 309.554688 L 177.121094 309.542969 L 146.824219 309.542969 Z M 146.824219 308.964844 "/>
<path style=" stroke:none;fill-rule:nonzero;fill:rgb(96.862745%,70.196078%,16.862745%);fill-opacity:1;" d="M 224.019531 146.460938 L 224.109375 146.191406 L 224.109375 140.828125 L 224.46875 128.757812 L 225.363281 112.128906 L 226.523438 98.449219 L 227.777344 87.71875 L 228.582031 82.085938 L 229.925781 74.039062 L 231.085938 68.140625 L 234.039062 56.070312 L 237.792969 44.804688 L 239.851562 39.976562 L 242.175781 35.414062 L 245.484375 30.320312 L 247.003906 28.441406 L 251.65625 24.148438 L 256.933594 21.46875 L 262.746094 20.664062 L 265.429688 20.929688 L 269.097656 22.003906 L 274.105469 24.953125 L 276.964844 27.636719 L 279.203125 30.320312 L 281.527344 33.804688 L 284.390625 39.171875 L 287.074219 45.609375 L 289.21875 52.046875 L 291.367188 60.09375 L 293.152344 68.675781 L 294.675781 78.0625 L 296.015625 89.328125 L 296.820312 98.714844 L 297.355469 108.105469 L 284.925781 108.105469 L 284.210938 98.714844 L 283.40625 91.476562 L 282.0625 82.625 L 280.722656 76.1875 L 279.382812 71.089844 L 276.875 64.117188 L 274.730469 59.824219 L 272.046875 56.070312 L 269.453125 53.65625 L 266.503906 52.046875 L 264.714844 51.507812 L 259.972656 51.507812 L 255.679688 53.386719 L 253.175781 55.53125 L 251.386719 57.679688 L 248.882812 61.703125 L 247.363281 64.921875 L 246.46875 67.066406 L 243.785156 75.382812 L 241.996094 82.890625 L 241.015625 87.988281 L 239.761719 96.035156 L 238.867188 103.277344 L 237.882812 114.003906 L 237.347656 122.050781 L 236.632812 140.292969 L 236.542969 188.574219 L 236.808594 198.765625 L 237.347656 209.761719 L 238.0625 219.417969 L 239.136719 229.609375 L 240.207031 237.390625 L 242.085938 247.851562 L 243.695312 254.824219 L 244.949219 259.382812 L 247.363281 266.625 L 248.347656 269.039062 L 250.671875 273.867188 L 253.085938 277.625 L 256.039062 280.84375 L 258.273438 282.453125 L 261.851562 283.792969 L 266.414062 283.792969 L 271.777344 282.183594 L 275.175781 280.039062 L 277.503906 277.890625 L 279.023438 276.015625 L 280.902344 273.0625 L 282.242188 270.382812 L 283.496094 267.429688 L 285.015625 262.871094 L 285.015625 198.765625 L 262.925781 198.496094 L 262.925781 168.457031 L 297.269531 168.1875 L 297.355469 273.0625 L 295.480469 280.304688 L 293.152344 287.28125 L 290.917969 292.644531 L 288.59375 297.203125 L 285.285156 302.300781 L 282.601562 305.519531 L 278.488281 309.273438 L 274.730469 311.6875 L 270.796875 313.296875 L 267.308594 314.101562 L 263.195312 314.371094 L 259.527344 313.835938 L 255.589844 312.226562 L 252.460938 310.078125 L 249.597656 307.398438 L 246.738281 303.910156 L 243.160156 298.277344 L 240.835938 293.71875 L 238.421875 288.085938 L 236.003906 281.378906 L 233.859375 274.136719 L 232.429688 268.503906 L 230.996094 262.066406 L 229.476562 254.019531 L 228.046875 244.898438 L 226.972656 236.585938 L 225.988281 227.195312 L 225.273438 218.34375 L 224.558594 206.277344 L 224.199219 196.621094 L 224.019531 188.304688 Z M 224.019531 146.460938 "/>
<path style=" stroke:none;fill-rule:nonzero;fill:rgb(14.509804%,36.078431%,60%);fill-opacity:1;" d="M 301.21875 308.925781 L 301.304688 308.921875 L 301.304688 308.851562 L 301.574219 308.734375 L 302.199219 308.589844 L 302.828125 308.488281 L 304.4375 308.308594 L 306.671875 308.136719 L 308.996094 308 L 310.695312 307.921875 L 312.21875 307.859375 L 315.707031 307.75 L 317.941406 307.691406 L 320.355469 307.636719 L 323.308594 307.585938 L 325.453125 307.554688 L 330.285156 307.507812 L 333.859375 307.484375 L 336.632812 307.476562 L 342.625 307.476562 L 346.203125 307.488281 L 348.796875 307.503906 L 351.65625 307.527344 L 354.074219 307.554688 L 358.277344 307.625 L 362.03125 307.707031 L 363.730469 307.757812 L 366.414062 307.851562 L 368.472656 307.941406 L 369.902344 308.023438 L 371.511719 308.136719 L 372.945312 308.273438 L 374.015625 308.425781 L 374.554688 308.558594 L 362.03125 308.558594 L 361.40625 308.4375 L 360.691406 308.34375 L 359.347656 308.21875 L 358.007812 308.128906 L 356.128906 308.039062 L 354.429688 307.984375 L 352.105469 307.925781 L 350.046875 307.886719 L 347.902344 307.859375 L 345.84375 307.84375 L 341.910156 307.824219 L 337.347656 307.824219 L 335.648438 307.832031 L 332.160156 307.855469 L 330.285156 307.875 L 327.601562 307.917969 L 325.722656 307.957031 L 323.484375 308.019531 L 321.964844 308.070312 L 320.085938 308.148438 L 318.746094 308.21875 L 317.226562 308.320312 L 316.332031 308.398438 L 315.527344 308.480469 L 314.8125 308.582031 L 314.273438 308.6875 L 313.917969 308.800781 L 313.738281 308.910156 L 313.738281 309.382812 L 313.917969 309.492188 L 314.363281 309.621094 L 315.527344 309.804688 L 317.226562 309.96875 L 319.195312 310.097656 L 321.070312 310.1875 L 322.144531 310.230469 L 323.574219 310.277344 L 325.8125 310.339844 L 329.03125 310.398438 L 330.910156 310.425781 L 333.769531 310.449219 L 336.722656 310.460938 L 340.65625 310.460938 L 344.144531 310.449219 L 346.472656 310.433594 L 348.886719 310.410156 L 352.195312 310.359375 L 354.25 310.308594 L 356.039062 310.25 L 357.382812 310.191406 L 358.277344 310.144531 L 359.617188 310.050781 L 360.691406 309.945312 L 361.496094 309.839844 L 362.03125 309.738281 L 374.554688 309.738281 L 374.015625 309.859375 L 373.210938 309.976562 L 372.40625 310.066406 L 371.15625 310.171875 L 369.722656 310.265625 L 367.667969 310.371094 L 365.96875 310.441406 L 363.730469 310.519531 L 361.675781 310.578125 L 359.4375 310.628906 L 356.128906 310.691406 L 353.984375 310.71875 L 351.65625 310.746094 L 348.886719 310.773438 L 345.398438 310.792969 L 341.640625 310.804688 L 338.152344 310.808594 L 334.398438 310.800781 L 331.625 310.789062 L 327.957031 310.761719 L 323.398438 310.707031 L 320.085938 310.648438 L 317.496094 310.59375 L 315.257812 310.53125 L 312.753906 310.449219 L 309.535156 310.316406 L 307.566406 310.210938 L 306.226562 310.125 L 304.707031 310.007812 L 303.632812 309.902344 L 302.378906 309.730469 L 301.484375 309.515625 L 301.21875 309.347656 Z M 301.21875 308.925781 "/>
<path style=" stroke:none;fill-rule:nonzero;fill:rgb(96.862745%,70.196078%,16.862745%);fill-opacity:1;" d="M 301.21875 312.753906 L 301.304688 312.753906 L 301.304688 312.722656 L 301.664062 312.648438 L 302.558594 312.546875 L 303.722656 312.460938 L 304.972656 312.398438 L 305.777344 312.363281 L 307.121094 312.3125 L 308.28125 312.277344 L 311.234375 312.203125 L 314.988281 312.136719 L 317.046875 312.105469 L 319.371094 312.078125 L 322.679688 312.046875 L 324.203125 312.035156 L 328.851562 312.007812 L 334.128906 311.992188 L 339.941406 311.988281 L 342.625 311.988281 L 346.292969 311.996094 L 351.300781 312.015625 L 354.164062 312.03125 L 356.398438 312.046875 L 358.722656 312.066406 L 361.585938 312.101562 L 364.269531 312.140625 L 366.414062 312.179688 L 368.5625 312.230469 L 370.351562 312.28125 L 371.871094 312.339844 L 373.210938 312.40625 L 374.015625 312.464844 L 374.554688 312.523438 L 362.121094 312.523438 L 361.40625 312.464844 L 360.601562 312.421875 L 359.261719 312.367188 L 357.917969 312.328125 L 356.578125 312.296875 L 354.074219 312.253906 L 351.925781 312.226562 L 349.242188 312.203125 L 346.648438 312.1875 L 343.699219 312.179688 L 341.910156 312.175781 L 337.167969 312.175781 L 332.875 312.1875 L 330.371094 312.199219 L 328.585938 312.214844 L 326.078125 312.238281 L 324.558594 312.257812 L 323.664062 312.269531 L 320.980469 312.320312 L 319.195312 312.367188 L 318.210938 312.398438 L 316.957031 312.449219 L 316.0625 312.492188 L 315.078125 312.558594 L 314.542969 312.605469 L 313.828125 312.71875 L 313.738281 313.011719 L 314.007812 313.074219 L 314.542969 313.140625 L 315.257812 313.199219 L 316.332031 313.261719 L 317.40625 313.3125 L 319.28125 313.375 L 320.894531 313.417969 L 322.144531 313.445312 L 324.558594 313.488281 L 325.542969 313.503906 L 327.867188 313.535156 L 330.285156 313.554688 L 333.234375 313.574219 L 335.46875 313.585938 L 339.046875 313.59375 L 343.609375 313.59375 L 348.976562 313.585938 L 352.375 313.570312 L 354.699219 313.558594 L 356.21875 313.546875 L 358.097656 313.527344 L 359.4375 313.511719 L 360.691406 313.492188 L 362.210938 313.464844 L 362.210938 313.074219 L 340.121094 313.074219 L 340.121094 312.890625 L 374.464844 312.886719 L 374.554688 313.527344 L 372.675781 313.574219 L 370.351562 313.613281 L 368.113281 313.648438 L 365.789062 313.675781 L 362.480469 313.707031 L 359.796875 313.726562 L 355.683594 313.75 L 351.925781 313.765625 L 347.992188 313.773438 L 344.503906 313.777344 L 340.390625 313.78125 L 336.722656 313.777344 L 332.789062 313.765625 L 329.65625 313.753906 L 326.796875 313.738281 L 323.933594 313.714844 L 320.355469 313.683594 L 318.03125 313.65625 L 315.617188 313.621094 L 313.203125 313.578125 L 311.054688 313.535156 L 309.625 313.5 L 308.191406 313.460938 L 306.671875 313.414062 L 305.242188 313.355469 L 304.167969 313.304688 L 303.183594 313.25 L 302.46875 313.195312 L 301.753906 313.121094 L 301.394531 313.0625 L 301.21875 313.011719 Z M 301.21875 312.753906 "/>
<path style=" stroke:none;fill-rule:nonzero;fill:rgb(83.921569%,15.686275%,22.352941%);fill-opacity:1;" d="M 301.21875 55.988281 L 374.554688 55.988281 L 374.554688 82.78125 L 343.988281 83.015625 L 343.988281 306.296875 L 331.691406 306.296875 L 331.691406 83.25 L 331.515625 82.78125 L 301.21875 82.78125 Z M 301.21875 55.988281 "/>
<path style=" stroke:none;fill-rule:nonzero;fill:rgb(96.862745%,70.196078%,16.862745%);fill-opacity:1;" d="M 378.414062 146.855469 L 378.503906 146.589844 L 378.503906 141.238281 L 378.859375 129.207031 L 379.753906 112.628906 L 380.917969 98.992188 L 382.167969 88.296875 L 382.972656 82.679688 L 384.316406 74.65625 L 385.476562 68.773438 L 388.429688 56.742188 L 392.1875 45.511719 L 394.242188 40.699219 L 396.566406 36.152344 L 399.878906 31.070312 L 401.398438 29.199219 L 406.046875 24.921875 L 411.324219 22.246094 L 417.136719 21.445312 L 419.820312 21.710938 L 423.488281 22.78125 L 428.496094 25.722656 L 431.359375 28.398438 L 433.59375 31.070312 L 435.917969 34.546875 L 438.78125 39.894531 L 441.464844 46.3125 L 443.609375 52.730469 L 445.757812 60.753906 L 447.546875 69.308594 L 449.066406 78.667969 L 450.40625 89.898438 L 451.210938 99.257812 L 451.75 108.617188 L 439.316406 108.617188 L 438.601562 99.257812 L 437.796875 92.039062 L 436.457031 83.214844 L 435.113281 76.796875 L 433.773438 71.714844 L 431.269531 64.765625 L 429.121094 60.484375 L 426.4375 56.742188 L 423.847656 54.335938 L 420.894531 52.730469 L 419.105469 52.195312 L 414.367188 52.195312 L 410.074219 54.066406 L 407.570312 56.207031 L 405.78125 58.347656 L 403.277344 62.355469 L 401.753906 65.566406 L 400.859375 67.707031 L 398.179688 75.996094 L 396.390625 83.480469 L 395.40625 88.5625 L 394.152344 96.585938 L 393.257812 103.804688 L 392.277344 114.5 L 391.738281 122.523438 L 391.023438 140.707031 L 390.933594 188.835938 L 391.203125 199 L 391.738281 209.960938 L 392.453125 219.589844 L 393.527344 229.75 L 394.601562 237.503906 L 396.480469 247.933594 L 398.089844 254.886719 L 399.339844 259.429688 L 401.753906 266.648438 L 402.738281 269.058594 L 405.066406 273.871094 L 407.480469 277.613281 L 410.429688 280.824219 L 412.667969 282.425781 L 416.242188 283.765625 L 420.804688 283.765625 L 426.171875 282.160156 L 429.570312 280.019531 L 431.894531 277.882812 L 433.414062 276.007812 L 435.292969 273.066406 L 436.636719 270.394531 L 437.886719 267.453125 L 439.40625 262.90625 L 439.40625 199 L 417.316406 198.730469 L 417.316406 168.78125 L 451.660156 168.515625 L 451.75 273.066406 L 449.871094 280.289062 L 447.546875 287.238281 L 445.308594 292.589844 L 442.984375 297.132812 L 439.675781 302.214844 L 436.992188 305.421875 L 432.878906 309.167969 L 429.121094 311.574219 L 425.1875 313.179688 L 421.699219 313.980469 L 417.585938 314.246094 L 413.917969 313.710938 L 409.984375 312.109375 L 406.851562 309.96875 L 403.992188 307.296875 L 401.128906 303.820312 L 397.550781 298.203125 L 395.226562 293.65625 L 392.8125 288.042969 L 390.398438 281.355469 L 388.25 274.136719 L 386.820312 268.523438 L 385.390625 262.105469 L 383.867188 254.082031 L 382.4375 244.992188 L 381.363281 236.703125 L 380.378906 227.34375 L 379.664062 218.519531 L 378.949219 206.484375 L 378.59375 196.859375 L 378.414062 188.570312 Z M 378.414062 146.855469 "/>
<path style=" stroke:none;fill-rule:nonzero;fill:rgb(6.27451%,58.823529%,28.235294%);fill-opacity:1;" d="M 455.609375 312.402344 L 455.6875 312.402344 L 487.417969 311.023438 L 497.054688 311.023438 L 528.945312 312.40625 L 517.742188 312.40625 L 509.75 312.042969 L 474.726562 312.042969 L 466.890625 312.402344 L 455.609375 312.402344 L 478.09375 311.894531 L 506.535156 311.894531 L 492.355469 311.25 L 492.199219 311.246094 L 492.042969 311.25 L 478.015625 311.894531 L 478.09375 311.894531 Z M 455.609375 312.402344 "/>
<path style=" stroke:none;fill-rule:nonzero;fill:rgb(14.509804%,36.078431%,60%);fill-opacity:1;" d="M 455.609375 304.261719 L 455.699219 304.253906 L 455.699219 304.039062 L 455.964844 303.695312 L 456.59375 303.261719 L 457.21875 302.964844 L 458.828125 302.429688 L 461.066406 301.914062 L 463.390625 301.519531 L 465.089844 301.285156 L 466.609375 301.101562 L 470.097656 300.769531 L 472.332031 300.597656 L 474.746094 300.445312 L 477.699219 300.289062 L 479.847656 300.199219 L 484.675781 300.054688 L 488.253906 299.992188 L 491.023438 299.964844 L 497.015625 299.964844 L 500.59375 300 L 503.1875 300.046875 L 506.050781 300.117188 L 508.464844 300.199219 L 512.667969 300.398438 L 516.425781 300.652344 L 518.125 300.796875 L 520.804688 301.074219 L 522.863281 301.347656 L 524.292969 301.582031 L 525.90625 301.914062 L 527.335938 302.320312 L 528.410156 302.78125 L 528.945312 303.171875 L 516.425781 303.171875 L 515.796875 302.808594 L 515.082031 302.53125 L 513.742188 302.160156 L 512.398438 301.898438 L 510.523438 301.636719 L 508.824219 301.464844 L 506.496094 301.292969 L 504.441406 301.183594 L 502.292969 301.101562 L 500.238281 301.050781 L 496.300781 300.996094 L 491.742188 300.996094 L 490.042969 301.011719 L 486.554688 301.085938 L 484.675781 301.148438 L 481.992188 301.273438 L 480.113281 301.390625 L 477.878906 301.574219 L 476.359375 301.726562 L 474.480469 301.960938 L 473.136719 302.167969 L 471.617188 302.464844 L 470.722656 302.691406 L 469.917969 302.945312 L 469.203125 303.242188 L 468.667969 303.558594 L 468.308594 303.894531 L 468.128906 304.21875 L 468.128906 305.617188 L 468.308594 305.941406 L 468.757812 306.320312 L 469.917969 306.871094 L 471.617188 307.351562 L 473.585938 307.730469 L 475.464844 308 L 476.535156 308.128906 L 477.96875 308.273438 L 480.203125 308.453125 L 483.421875 308.632812 L 485.300781 308.707031 L 488.164062 308.777344 L 491.113281 308.8125 L 495.050781 308.8125 L 498.539062 308.777344 L 500.863281 308.734375 L 503.277344 308.660156 L 506.585938 308.507812 L 508.644531 308.363281 L 510.433594 308.191406 L 511.773438 308.019531 L 512.667969 307.875 L 514.007812 307.59375 L 515.082031 307.289062 L 515.886719 306.972656 L 516.425781 306.664062 L 528.945312 306.664062 L 528.410156 307.027344 L 527.605469 307.378906 L 526.796875 307.640625 L 525.546875 307.957031 L 524.117188 308.234375 L 522.058594 308.550781 L 520.359375 308.757812 L 518.125 308.984375 L 516.066406 309.15625 L 513.832031 309.308594 L 510.523438 309.492188 L 508.375 309.582031 L 506.050781 309.664062 L 503.277344 309.734375 L 499.789062 309.796875 L 496.035156 309.835938 L 492.546875 309.84375 L 488.789062 309.824219 L 486.015625 309.789062 L 482.351562 309.707031 L 477.789062 309.546875 L 474.480469 309.375 L 471.886719 309.203125 L 469.648438 309.023438 L 467.144531 308.777344 L 463.925781 308.378906 L 461.957031 308.074219 L 460.617188 307.820312 L 459.097656 307.46875 L 458.023438 307.152344 L 456.773438 306.648438 L 455.878906 306.007812 L 455.609375 305.507812 Z M 455.609375 304.261719 "/>
<path style=" stroke:none;fill-rule:nonzero;fill:rgb(96.862745%,70.196078%,16.862745%);fill-opacity:1;" d="M 455.609375 313.921875 L 455.699219 313.921875 L 455.699219 313.90625 L 456.054688 313.875 L 456.949219 313.828125 L 458.113281 313.792969 L 459.367188 313.761719 L 460.171875 313.75 L 461.511719 313.726562 L 462.675781 313.710938 L 465.625 313.679688 L 469.382812 313.648438 L 471.4375 313.636719 L 473.765625 313.625 L 477.074219 313.609375 L 478.59375 313.605469 L 483.246094 313.59375 L 488.519531 313.585938 L 500.683594 313.585938 L 505.691406 313.59375 L 508.554688 313.601562 L 510.789062 313.609375 L 513.117188 313.621094 L 515.976562 313.632812 L 518.660156 313.652344 L 520.804688 313.667969 L 522.953125 313.691406 L 524.742188 313.710938 L 526.261719 313.738281 L 527.605469 313.769531 L 528.410156 313.792969 L 528.945312 313.816406 L 516.515625 313.816406 L 515.796875 313.792969 L 514.992188 313.773438 L 513.652344 313.75 L 512.308594 313.734375 L 510.96875 313.71875 L 508.464844 313.699219 L 506.316406 313.6875 L 503.636719 313.679688 L 501.042969 313.671875 L 498.089844 313.667969 L 491.5625 313.667969 L 487.269531 313.671875 L 484.765625 313.675781 L 482.976562 313.683594 L 480.472656 313.695312 L 478.953125 313.703125 L 478.058594 313.707031 L 475.375 313.730469 L 473.585938 313.75 L 472.601562 313.765625 L 471.347656 313.785156 L 470.457031 313.804688 L 469.472656 313.835938 L 468.933594 313.855469 L 468.21875 313.90625 L 468.128906 314.035156 L 468.398438 314.0625 L 468.933594 314.089844 L 469.648438 314.117188 L 470.722656 314.144531 L 471.796875 314.164062 L 473.675781 314.191406 L 475.285156 314.210938 L 476.535156 314.222656 L 478.953125 314.242188 L 479.933594 314.25 L 482.261719 314.261719 L 484.675781 314.273438 L 487.625 314.28125 L 489.863281 314.285156 L 493.441406 314.289062 L 498 314.289062 L 503.367188 314.285156 L 506.765625 314.277344 L 509.089844 314.273438 L 510.609375 314.269531 L 512.488281 314.261719 L 513.832031 314.253906 L 515.082031 314.246094 L 516.601562 314.234375 L 516.601562 314.0625 L 494.511719 314.058594 L 494.511719 313.980469 L 528.855469 313.980469 L 528.945312 314.261719 L 527.066406 314.28125 L 524.742188 314.296875 L 522.507812 314.3125 L 520.179688 314.324219 L 516.871094 314.339844 L 514.1875 314.347656 L 510.074219 314.355469 L 506.316406 314.363281 L 502.382812 314.367188 L 498.894531 314.371094 L 491.113281 314.371094 L 487.179688 314.363281 L 484.050781 314.359375 L 478.324219 314.34375 L 474.746094 314.328125 L 472.421875 314.316406 L 470.007812 314.300781 L 467.59375 314.28125 L 465.445312 314.261719 L 462.585938 314.230469 L 461.066406 314.210938 L 459.632812 314.183594 L 458.558594 314.164062 L 457.578125 314.136719 L 456.859375 314.113281 L 456.144531 314.082031 L 455.789062 314.054688 L 455.609375 314.03125 Z M 455.609375 313.921875 "/>
<path style=" stroke:none;fill-rule:nonzero;fill:rgb(83.921569%,15.686275%,22.352941%);fill-opacity:1;" d="M 455.609375 84.757812 L 528.945312 84.757812 L 528.945312 107.667969 L 498.382812 107.867188 L 498.382812 298.785156 L 486.085938 298.785156 L 486.085938 108.070312 L 485.90625 107.667969 L 455.609375 107.667969 Z M 455.609375 84.757812 "/>
<path style=" stroke:none;fill-rule:nonzero;fill:rgb(6.27451%,58.823529%,28.235294%);fill-opacity:1;" d="M 532.804688 314.371094 L 532.882812 314.371094 L 564.617188 313.675781 L 574.253906 313.675781 L 606.140625 314.371094 L 594.9375 314.371094 L 586.945312 314.191406 L 551.921875 314.191406 L 544.085938 314.371094 L 532.804688 314.371094 L 555.292969 314.113281 L 583.734375 314.113281 L 569.550781 313.789062 L 569.394531 313.789062 L 569.238281 313.792969 L 555.214844 314.113281 L 555.292969 314.113281 Z M 532.804688 314.371094 "/>
<path style=" stroke:none;fill-rule:nonzero;fill:rgb(14.509804%,36.078431%,60%);fill-opacity:1;" d="M 532.804688 307.761719 L 532.894531 307.753906 L 532.894531 307.570312 L 533.164062 307.277344 L 533.789062 306.910156 L 534.414062 306.65625 L 536.023438 306.203125 L 538.261719 305.769531 L 540.585938 305.429688 L 542.285156 305.230469 L 543.804688 305.078125 L 547.292969 304.792969 L 549.527344 304.648438 L 551.945312 304.519531 L 554.894531 304.386719 L 557.042969 304.3125 L 561.871094 304.1875 L 565.449219 304.136719 L 568.222656 304.113281 L 574.214844 304.113281 L 577.789062 304.144531 L 580.382812 304.179688 L 583.246094 304.242188 L 585.660156 304.3125 L 589.863281 304.480469 L 593.621094 304.695312 L 595.320312 304.816406 L 598.003906 305.054688 L 600.058594 305.285156 L 601.492188 305.484375 L 603.101562 305.769531 L 604.53125 306.113281 L 605.605469 306.503906 L 606.140625 306.832031 L 593.621094 306.832031 L 592.996094 306.527344 L 592.277344 306.289062 L 590.9375 305.976562 L 589.597656 305.753906 L 587.71875 305.53125 L 586.019531 305.382812 L 583.691406 305.238281 L 581.636719 305.148438 L 579.488281 305.078125 L 577.433594 305.03125 L 573.496094 304.984375 L 568.9375 304.984375 L 567.238281 305 L 563.75 305.0625 L 561.871094 305.117188 L 559.1875 305.222656 L 557.308594 305.324219 L 555.074219 305.476562 L 553.554688 305.605469 L 551.675781 305.804688 L 550.335938 305.984375 L 548.8125 306.234375 L 547.917969 306.425781 L 547.113281 306.640625 L 546.398438 306.894531 L 545.863281 307.164062 L 545.503906 307.445312 L 545.324219 307.722656 L 545.324219 308.910156 L 545.503906 309.1875 L 545.953125 309.507812 L 547.113281 309.976562 L 548.8125 310.382812 L 550.78125 310.703125 L 552.660156 310.933594 L 553.734375 311.042969 L 555.164062 311.164062 L 557.398438 311.316406 L 560.617188 311.46875 L 562.496094 311.53125 L 565.359375 311.59375 L 568.308594 311.625 L 572.246094 311.625 L 575.734375 311.59375 L 578.058594 311.554688 L 580.472656 311.492188 L 583.78125 311.363281 L 585.839844 311.242188 L 587.628906 311.09375 L 588.96875 310.949219 L 589.863281 310.828125 L 591.207031 310.589844 L 592.277344 310.328125 L 593.082031 310.058594 L 593.621094 309.800781 L 606.140625 309.800781 L 605.605469 310.105469 L 604.800781 310.40625 L 603.996094 310.628906 L 602.742188 310.894531 L 601.3125 311.132812 L 599.253906 311.402344 L 597.554688 311.578125 L 595.320312 311.769531 L 593.261719 311.914062 L 591.027344 312.046875 L 587.71875 312.199219 L 585.570312 312.273438 L 583.246094 312.34375 L 580.472656 312.40625 L 576.984375 312.460938 L 573.230469 312.488281 L 569.742188 312.496094 L 565.984375 312.480469 L 563.210938 312.453125 L 559.546875 312.382812 L 554.984375 312.246094 L 551.675781 312.097656 L 549.082031 311.953125 L 546.847656 311.800781 L 544.34375 311.59375 L 541.121094 311.257812 L 539.15625 310.996094 L 537.8125 310.78125 L 536.292969 310.480469 L 535.21875 310.214844 L 533.96875 309.785156 L 533.074219 309.238281 L 532.804688 308.820312 Z M 532.804688 307.761719 "/>
<path style=" stroke:none;fill-rule:nonzero;fill:rgb(96.862745%,70.196078%,16.862745%);fill-opacity:1;" d="M 532.804688 199.195312 L 532.894531 199.050781 L 532.894531 196.179688 L 533.253906 189.710938 L 534.144531 180.804688 L 535.308594 173.476562 L 536.5625 167.730469 L 537.367188 164.714844 L 538.707031 160.40625 L 539.871094 157.242188 L 542.820312 150.777344 L 546.578125 144.746094 L 548.636719 142.160156 L 550.960938 139.714844 L 554.269531 136.988281 L 555.789062 135.980469 L 560.441406 133.683594 L 565.714844 132.246094 L 571.53125 131.816406 L 574.214844 131.957031 L 577.878906 132.53125 L 582.886719 134.113281 L 585.75 135.550781 L 587.984375 136.988281 L 590.3125 138.855469 L 593.171875 141.726562 L 595.855469 145.175781 L 598.003906 148.625 L 600.148438 152.933594 L 601.9375 157.53125 L 603.457031 162.558594 L 604.800781 168.59375 L 605.605469 173.621094 L 606.140625 178.648438 L 593.710938 178.648438 L 592.996094 173.621094 L 592.1875 169.742188 L 590.847656 165.003906 L 589.507812 161.554688 L 588.164062 158.824219 L 585.660156 155.089844 L 583.515625 152.789062 L 580.832031 150.777344 L 578.238281 149.484375 L 575.285156 148.625 L 573.496094 148.335938 L 568.757812 148.335938 L 564.464844 149.34375 L 561.960938 150.492188 L 560.171875 151.640625 L 557.667969 153.796875 L 556.148438 155.519531 L 555.253906 156.667969 L 552.570312 161.121094 L 550.78125 165.144531 L 549.796875 167.875 L 548.546875 172.183594 L 547.652344 176.0625 L 546.667969 181.8125 L 546.128906 186.121094 L 545.414062 195.890625 L 545.324219 221.75 L 545.59375 227.210938 L 546.128906 233.101562 L 546.847656 238.273438 L 547.917969 243.730469 L 548.992188 247.898438 L 550.871094 253.5 L 552.480469 257.238281 L 553.734375 259.679688 L 556.148438 263.558594 L 557.132812 264.851562 L 559.457031 267.4375 L 561.871094 269.449219 L 564.824219 271.171875 L 567.058594 272.035156 L 570.636719 272.753906 L 575.195312 272.753906 L 580.5625 271.890625 L 583.960938 270.742188 L 586.285156 269.589844 L 587.808594 268.585938 L 589.683594 267.003906 L 591.027344 265.570312 L 592.277344 263.988281 L 593.800781 261.546875 L 593.800781 227.210938 L 571.707031 227.066406 L 571.707031 210.976562 L 606.050781 210.832031 L 606.140625 267.003906 L 604.261719 270.882812 L 601.9375 274.621094 L 599.703125 277.492188 L 597.375 279.9375 L 594.066406 282.664062 L 591.382812 284.390625 L 587.269531 286.402344 L 583.515625 287.695312 L 579.578125 288.554688 L 576.089844 288.988281 L 571.976562 289.128906 L 568.308594 288.84375 L 564.375 287.980469 L 561.246094 286.832031 L 558.382812 285.394531 L 555.519531 283.527344 L 551.945312 280.511719 L 549.617188 278.066406 L 547.203125 275.050781 L 544.789062 271.460938 L 542.644531 267.582031 L 541.210938 264.5625 L 539.78125 261.117188 L 538.261719 256.804688 L 536.828125 251.921875 L 535.757812 247.46875 L 534.773438 242.4375 L 534.058594 237.699219 L 533.339844 231.234375 L 532.984375 226.058594 L 532.804688 221.605469 Z M 532.804688 199.195312 "/>
<path style=" stroke:none;fill-rule:nonzero;fill:rgb(83.921569%,15.686275%,22.352941%);fill-opacity:1;" d="M 532.804688 290.308594 L 606.140625 290.308594 L 606.140625 291.660156 L 575.578125 291.671875 L 575.578125 302.933594 L 563.28125 302.933594 L 563.28125 291.683594 L 563.101562 291.660156 L 532.804688 291.660156 Z M 532.804688 290.308594 "/>
<path style=" stroke:none;fill-rule:nonzero;fill:rgb(6.27451%,58.823529%,28.235294%);fill-opacity:1;" d="M 610 312.875 L 610.078125 312.605469 L 641.8125 27.097656 L 651.449219 27.097656 L 683.335938 313.144531 L 672.132812 313.144531 L 664.140625 238.476562 L 629.117188 238.476562 L 621.285156 312.875 L 610 312.875 L 632.488281 207.589844 L 660.929688 207.320312 L 646.746094 73.832031 L 646.589844 73.5625 L 646.433594 74.367188 L 632.410156 207.320312 L 632.488281 207.589844 Z M 610 312.875 "/>
<g style="fill:rgb(0%,0%,0%);fill-opacity:1;">
  <use xlink:href="#glyph0-1" x="21.957031" y="318.198242"/>
  <use xlink:href="#glyph0-2" x="27.291016" y="318.198242"/>
  <use xlink:href="#glyph0-1" x="29.958008" y="318.198242"/>
</g>
<g style="fill:rgb(0%,0%,0%);fill-opacity:1;">
  <use xlink:href="#glyph0-1" x="21.957031" y="244.475586"/>
  <use xlink:href="#glyph0-2" x="27.291016" y="244.475586"/>
  <use xlink:href="#glyph0-3" x="29.958008" y="244.475586"/>
</g>
<g style="fill:rgb(0%,0%,0%);fill-opacity:1;">
  <use xlink:href="#glyph0-4" x="21.957031" y="170.75293"/>
  <use xlink:href="#glyph0-2" x="27.291016" y="170.75293"/>
  <use xlink:href="#glyph0-1" x="29.958008" y="170.75293"/>
</g>
<g style="fill:rgb(0%,0%,0%);fill-opacity:1;">
  <use xlink:href="#glyph0-4" x="21.957031" y="97.03418"/>
  <use xlink:href="#glyph0-2" x="27.291016" y="97.03418"/>
  <use xlink:href="#glyph0-3" x="29.958008" y="97.03418"/>
</g>
<g style="fill:rgb(0%,0%,0%);fill-opacity:1;">
  <use xlink:href="#glyph0-5" x="21.957031" y="23.311523"/>
  <use xlink:href="#glyph0-2" x="27.291016" y="23.311523"/>
  <use xlink:href="#glyph0-1" x="29.958008" y="23.311523"/>
</g>
<g style="fill:rgb(0%,0%,0%);fill-opacity:1;">
  <use xlink:href="#glyph0-4" x="103.296875" y="338.19043"/>
</g>
<g style="fill:rgb(0%,0%,0%);fill-opacity:1;">
  <use xlink:href="#glyph0-5" x="180.492188" y="338.19043"/>
</g>
<g style="fill:rgb(0%,0%,0%);fill-opacity:1;">
  <use xlink:href="#glyph0-6" x="257.6875" y="338.19043"/>
</g>
<g style="fill:rgb(0%,0%,0%);fill-opacity:1;">
  <use xlink:href="#glyph0-7" x="334.886719" y="338.19043"/>
</g>
<g style="fill:rgb(0%,0%,0%);fill-opacity:1;">
  <use xlink:href="#glyph0-3" x="412.082031" y="338.19043"/>
</g>
<g style="fill:rgb(0%,0%,0%);fill-opacity:1;">
  <use xlink:href="#glyph0-8" x="489.277344" y="338.19043"/>
</g>
<g style="fill:rgb(0%,0%,0%);fill-opacity:1;">
  <use xlink:href="#glyph0-9" x="566.472656" y="338.19043"/>
</g>
<g style="fill:rgb(0%,0%,0%);fill-opacity:1;">
  <use xlink:href="#glyph0-10" x="643.667969" y="338.19043"/>
</g>
<g style="fill:rgb(0%,0%,0%);fill-opacity:1;">
  <use xlink:href="#glyph1-1" x="14.412109" y="178.015625"/>
  <use xlink:href="#glyph1-2" x="14.412109" y="170.011719"/>
  <use xlink:href="#glyph1-3" x="14.412109" y="167.347656"/>
  <use xlink:href="#glyph1-4" x="14.412109" y="164.011719"/>
</g>
</g>
</svg>
