<?xml version="1.0" encoding="UTF-8"?>
<svg xmlns="http://www.w3.org/2000/svg" xmlns:xlink="http://www.w3.org/1999/xlink" width="720pt" height="360pt" viewBox="0 0 720 360" version="1.1">
<defs>
<g>
<symbol overflow="visible" id="glyph0-0">
<path style="stroke:none;" d=""/>
</symbol>
<symbol overflow="visible" id="glyph0-1">
<path style="stroke:none;" d="M 2.640625 -6.796875 C 2 -6.796875 1.421875 -6.53125 1.078125 -6.046875 C 0.640625 -5.453125 0.40625 -4.546875 0.40625 -3.296875 C 0.40625 -1 1.1875 0.21875 2.640625 0.21875 C 4.078125 0.21875 4.859375 -1 4.859375 -3.234375 C 4.859375 -4.5625 4.65625 -5.4375 4.203125 -6.046875 C 3.84375 -6.53125 3.28125 -6.796875 2.640625 -6.796875 Z M 2.640625 -6.046875 C 3.546875 -6.046875 4 -5.125 4 -3.3125 C 4 -1.375 3.5625 -0.484375 2.625 -0.484375 C 1.734375 -0.484375 1.28125 -1.421875 1.28125 -3.28125 C 1.28125 -5.140625 1.734375 -6.046875 2.640625 -6.046875 Z M 2.640625 -6.046875 "/>
</symbol>
<symbol overflow="visible" id="glyph0-2">
<path style="stroke:none;" d="M 1.828125 -1 L 0.828125 -1 L 0.828125 0 L 1.828125 0 Z M 1.828125 -1 "/>
</symbol>
<symbol overflow="visible" id="glyph0-3">
<path style="stroke:none;" d="M 4.5625 -6.796875 L 1.0625 -6.796875 L 0.546875 -3.09375 L 1.328125 -3.09375 C 1.71875 -3.5625 2.046875 -3.734375 2.578125 -3.734375 C 3.484375 -3.734375 4.0625 -3.109375 4.0625 -2.09375 C 4.0625 -1.125 3.484375 -0.53125 2.578125 -0.53125 C 1.828125 -0.53125 1.375 -0.90625 1.1875 -1.671875 L 0.328125 -1.671875 C 0.453125 -1.109375 0.546875 -0.84375 0.75 -0.59375 C 1.125 -0.078125 1.828125 0.21875 2.59375 0.21875 C 3.96875 0.21875 4.921875 -0.78125 4.921875 -2.21875 C 4.921875 -3.5625 4.03125 -4.484375 2.71875 -4.484375 C 2.25 -4.484375 1.859375 -4.359375 1.46875 -4.0625 L 1.734375 -5.96875 L 4.5625 -5.96875 Z M 4.5625 -6.796875 "/>
</symbol>
<symbol overflow="visible" id="glyph0-4">
<path style="stroke:none;" d="M 2.484375 -4.84375 L 2.484375 0 L 3.328125 0 L 3.328125 -6.796875 L 2.765625 -6.796875 C 2.46875 -5.75 2.28125 -5.609375 0.984375 -5.453125 L 0.984375 -4.84375 Z M 2.484375 -4.84375 "/>
</symbol>
<symbol overflow="visible" id="glyph0-5">
<path style="stroke:none;" d="M 4.859375 -0.828125 L 1.28125 -0.828125 C 1.359375 -1.390625 1.671875 -1.75 2.5 -2.234375 L 3.46875 -2.75 C 4.40625 -3.265625 4.90625 -3.96875 4.90625 -4.8125 C 4.90625 -5.375 4.671875 -5.90625 4.265625 -6.265625 C 3.859375 -6.625 3.375 -6.796875 2.71875 -6.796875 C 1.859375 -6.796875 1.21875 -6.5 0.84375 -5.921875 C 0.609375 -5.5625 0.5 -5.125 0.484375 -4.4375 L 1.328125 -4.4375 C 1.359375 -4.90625 1.40625 -5.1875 1.53125 -5.40625 C 1.75 -5.8125 2.1875 -6.0625 2.703125 -6.0625 C 3.46875 -6.0625 4.03125 -5.515625 4.03125 -4.78125 C 4.03125 -4.25 3.71875 -3.796875 3.125 -3.4375 L 2.234375 -2.9375 C 0.8125 -2.140625 0.40625 -1.5 0.328125 0 L 4.859375 0 Z M 4.859375 -0.828125 "/>
</symbol>
<symbol overflow="visible" id="glyph0-6">
<path style="stroke:none;" d="M 2.125 -3.125 L 2.578125 -3.125 C 3.515625 -3.125 3.984375 -2.703125 3.984375 -1.890625 C 3.984375 -1.03125 3.46875 -0.53125 2.578125 -0.53125 C 1.65625 -0.53125 1.203125 -0.984375 1.15625 -1.96875 L 0.3125 -1.96875 C 0.34375 -1.421875 0.4375 -1.078125 0.609375 -0.765625 C 0.953125 -0.109375 1.625 0.21875 2.546875 0.21875 C 3.953125 0.21875 4.859375 -0.609375 4.859375 -1.90625 C 4.859375 -2.765625 4.515625 -3.25 3.703125 -3.515625 C 4.34375 -3.765625 4.65625 -4.25 4.65625 -4.9375 C 4.65625 -6.109375 3.875 -6.796875 2.578125 -6.796875 C 1.203125 -6.796875 0.484375 -6.046875 0.453125 -4.609375 L 1.296875 -4.609375 C 1.3125 -5.015625 1.34375 -5.25 1.453125 -5.453125 C 1.640625 -5.828125 2.0625 -6.0625 2.59375 -6.0625 C 3.34375 -6.0625 3.796875 -5.625 3.796875 -4.90625 C 3.796875 -4.421875 3.609375 -4.140625 3.25 -3.984375 C 3.015625 -3.890625 2.71875 -3.84375 2.125 -3.84375 Z M 2.125 -3.125 "/>
</symbol>
<symbol overflow="visible" id="glyph0-7">
<path style="stroke:none;" d="M 3.140625 -1.625 L 3.140625 0 L 3.984375 0 L 3.984375 -1.625 L 4.984375 -1.625 L 4.984375 -2.390625 L 3.984375 -2.390625 L 3.984375 -6.796875 L 3.359375 -6.796875 L 0.265625 -2.515625 L 0.265625 -1.625 Z M 3.140625 -2.390625 L 1 -2.390625 L 3.140625 -5.359375 Z M 3.140625 -2.390625 "/>
</symbol>
<symbol overflow="visible" id="glyph0-8">
<path style="stroke:none;" d="M 4.78125 -5.03125 C 4.609375 -6.140625 3.890625 -6.796875 2.84375 -6.796875 C 2.09375 -6.796875 1.421875 -6.4375 1.03125 -5.828125 C 0.609375 -5.171875 0.40625 -4.34375 0.40625 -3.09375 C 0.40625 -1.953125 0.578125 -1.234375 0.984375 -0.625 C 1.359375 -0.078125 1.953125 0.21875 2.703125 0.21875 C 3.984375 0.21875 4.921875 -0.734375 4.921875 -2.078125 C 4.921875 -3.34375 4.0625 -4.234375 2.84375 -4.234375 C 2.171875 -4.234375 1.640625 -3.96875 1.28125 -3.46875 C 1.28125 -5.125 1.828125 -6.046875 2.796875 -6.046875 C 3.390625 -6.046875 3.796875 -5.671875 3.9375 -5.03125 Z M 2.734375 -3.484375 C 3.546875 -3.484375 4.0625 -2.921875 4.0625 -2 C 4.0625 -1.15625 3.484375 -0.53125 2.703125 -0.53125 C 1.921875 -0.53125 1.328125 -1.1875 1.328125 -2.046875 C 1.328125 -2.890625 1.90625 -3.484375 2.734375 -3.484375 Z M 2.734375 -3.484375 "/>
</symbol>
<symbol overflow="visible" id="glyph0-9">
<path style="stroke:none;" d="M 4.984375 -6.796875 L 0.4375 -6.796875 L 0.4375 -5.96875 L 4.109375 -5.96875 C 2.5 -3.65625 1.828125 -2.234375 1.328125 0 L 2.21875 0 C 2.59375 -2.171875 3.453125 -4.046875 4.984375 -6.09375 Z M 4.984375 -6.796875 "/>
</symbol>
<symbol overflow="visible" id="glyph0-10">
<path style="stroke:none;" d="M 3.75 -3.578125 C 4.453125 -4 4.6875 -4.34375 4.6875 -4.984375 C 4.6875 -6.046875 3.84375 -6.796875 2.640625 -6.796875 C 1.4375 -6.796875 0.59375 -6.046875 0.59375 -4.984375 C 0.59375 -4.359375 0.828125 -4.015625 1.515625 -3.578125 C 0.734375 -3.203125 0.359375 -2.640625 0.359375 -1.890625 C 0.359375 -0.640625 1.296875 0.21875 2.640625 0.21875 C 3.984375 0.21875 4.921875 -0.640625 4.921875 -1.875 C 4.921875 -2.640625 4.53125 -3.203125 3.75 -3.578125 Z M 2.640625 -6.046875 C 3.359375 -6.046875 3.8125 -5.625 3.8125 -4.96875 C 3.8125 -4.34375 3.34375 -3.921875 2.640625 -3.921875 C 1.921875 -3.921875 1.453125 -4.34375 1.453125 -4.984375 C 1.453125 -5.625 1.921875 -6.046875 2.640625 -6.046875 Z M 2.640625 -3.203125 C 3.484375 -3.203125 4.0625 -2.671875 4.0625 -1.875 C 4.0625 -1.0625 3.484375 -0.53125 2.625 -0.53125 C 1.796875 -0.53125 1.21875 -1.078125 1.21875 -1.875 C 1.21875 -2.671875 1.796875 -3.203125 2.640625 -3.203125 Z M 2.640625 -3.203125 "/>
</symbol>
<symbol overflow="visible" id="glyph0-11">
<path style="stroke:none;" d="M 0.515625 -1.546875 C 0.671875 -0.4375 1.40625 0.21875 2.4375 0.21875 C 3.1875 0.21875 3.859375 -0.140625 4.265625 -0.75 C 4.6875 -1.40625 4.890625 -2.25 4.890625 -3.484375 C 4.890625 -4.625 4.703125 -5.359375 4.3125 -5.953125 C 3.9375 -6.5 3.34375 -6.796875 2.59375 -6.796875 C 1.296875 -6.796875 0.359375 -5.84375 0.359375 -4.515625 C 0.359375 -3.25 1.234375 -2.34375 2.453125 -2.34375 C 3.09375 -2.34375 3.5625 -2.578125 4.015625 -3.109375 C 4 -1.453125 3.46875 -0.53125 2.5 -0.53125 C 1.90625 -0.53125 1.484375 -0.90625 1.359375 -1.546875 Z M 2.578125 -6.0625 C 3.375 -6.0625 3.96875 -5.40625 3.96875 -4.53125 C 3.96875 -3.6875 3.375 -3.09375 2.546875 -3.09375 C 1.734375 -3.09375 1.234375 -3.671875 1.234375 -4.578125 C 1.234375 -5.4375 1.796875 -6.0625 2.578125 -6.0625 Z M 2.578125 -6.0625 "/>
</symbol>
<symbol overflow="visible" id="glyph1-0">
<path style="stroke:none;" d=""/>
</symbol>
<symbol overflow="visible" id="glyph1-1">
<path style="stroke:none;" d="M 0 -0.953125 L 0 -4.890625 C 0 -5.71875 -0.234375 -6.34375 -0.734375 -6.796875 C -1.1875 -7.234375 -1.8125 -7.46875 -2.5 -7.46875 C -3.546875 -7.46875 -4.1875 -7 -4.625 -5.875 C -4.984375 -6.671875 -5.640625 -7.09375 -6.53125 -7.09375 C -7.15625 -7.09375 -7.734375 -6.859375 -8.140625 -6.390625 C -8.5625 -5.9375 -8.75 -5.34375 -8.75 -4.5 L -8.75 -0.953125 Z M -4.984375 -2.0625 L -7.765625 -2.0625 L -7.765625 -4.21875 C -7.765625 -4.84375 -7.6875 -5.203125 -7.453125 -5.5 C -7.21875 -5.8125 -6.859375 -5.96875 -6.375 -5.96875 C -5.90625 -5.96875 -5.53125 -5.8125 -5.296875 -5.5 C -5.0625 -5.203125 -4.984375 -4.84375 -4.984375 -4.21875 Z M -0.984375 -2.0625 L -4 -2.0625 L -4 -4.78125 C -4 -5.328125 -3.859375 -5.6875 -3.578125 -5.953125 C -3.296875 -6.21875 -2.921875 -6.359375 -2.484375 -6.359375 C -2.0625 -6.359375 -1.6875 -6.21875 -1.40625 -5.953125 C -1.109375 -5.6875 -0.984375 -5.328125 -0.984375 -4.78125 Z M -0.984375 -2.0625 "/>
</symbol>
<symbol overflow="visible" id="glyph1-2">
<path style="stroke:none;" d="M -6.28125 -1.796875 L -6.28125 -0.796875 L 0 -0.796875 L 0 -1.796875 Z M -8.75 -1.796875 L -8.75 -0.796875 L -7.484375 -0.796875 L -7.484375 -1.796875 Z M -8.75 -1.796875 "/>
</symbol>
<symbol overflow="visible" id="glyph1-3">
<path style="stroke:none;" d="M -6.28125 -3.046875 L -6.28125 -2.015625 L -8.015625 -2.015625 L -8.015625 -1.015625 L -6.28125 -1.015625 L -6.28125 -0.171875 L -5.46875 -0.171875 L -5.46875 -1.015625 L -0.71875 -1.015625 C -0.078125 -1.015625 0.28125 -1.453125 0.28125 -2.234375 C 0.28125 -2.46875 0.25 -2.71875 0.1875 -3.046875 L -0.640625 -3.046875 C -0.609375 -2.921875 -0.59375 -2.765625 -0.59375 -2.5625 C -0.59375 -2.140625 -0.71875 -2.015625 -1.15625 -2.015625 L -5.46875 -2.015625 L -5.46875 -3.046875 Z M -6.28125 -3.046875 "/>
</symbol>
<symbol overflow="visible" id="glyph1-4">
<path style="stroke:none;" d="M -4.53125 -5.25 C -5.765625 -5.25 -6.46875 -4.421875 -6.46875 -2.96875 C -6.46875 -1.515625 -5.71875 -0.5625 -4.546875 -0.5625 C -3.5625 -0.5625 -3.09375 -1.0625 -2.734375 -2.5625 L -2.515625 -3.484375 C -2.34375 -4.1875 -2.09375 -4.46875 -1.625 -4.46875 C -1.046875 -4.46875 -0.640625 -3.875 -0.640625 -3 C -0.640625 -2.453125 -0.796875 -2 -1.0625 -1.75 C -1.25 -1.59375 -1.421875 -1.53125 -1.875 -1.46875 L -1.875 -0.40625 C -0.421875 -0.453125 0.28125 -1.265625 0.28125 -2.921875 C 0.28125 -4.5 -0.5 -5.515625 -1.71875 -5.515625 C -2.65625 -5.515625 -3.171875 -4.984375 -3.46875 -3.734375 L -3.703125 -2.765625 C -3.890625 -1.953125 -4.15625 -1.609375 -4.59375 -1.609375 C -5.171875 -1.609375 -5.546875 -2.125 -5.546875 -2.9375 C -5.546875 -3.75 -5.203125 -4.171875 -4.53125 -4.203125 Z M -4.53125 -5.25 "/>
</symbol>
</g>
</defs>
<g id="surface98817">
<rect x="0" y="0" width="720" height="360" style="fill:rgb(100%,100%,100%);fill-opacity:1;stroke:none;"/>
<path style=" stroke:none;fill-rule:nonzero;fill:rgb(6.27451%,58.823529%,28.235294%);fill-opacity:1;" d="M 69.628906 290.21875 L 69.671875 290.1875 L 86.546875 256.558594 L 91.671875 256.558594 L 108.628906 290.25 L 102.667969 290.25 L 98.417969 281.457031 L 79.796875 281.457031 L 75.628906 290.21875 L 69.628906 290.21875 L 81.585938 277.816406 L 96.710938 277.785156 L 89.171875 262.066406 L 89.085938 262.03125 L 89.003906 262.128906 L 81.546875 277.785156 L 81.585938 277.816406 Z M 69.628906 290.21875 "/>
<path style=" stroke:none;fill-rule:nonzero;fill:rgb(14.509804%,36.078431%,60%);fill-opacity:1;" d="M 69.628906 295.304688 L 69.675781 295.296875 L 69.675781 295.101562 L 69.820312 294.792969 L 70.152344 294.402344 L 70.484375 294.132812 L 71.339844 293.652344 L 72.53125 293.1875 L 73.765625 292.828125 L 74.671875 292.617188 L 75.480469 292.457031 L 77.332031 292.152344 L 78.523438 292 L 79.808594 291.859375 L 81.375 291.722656 L 82.519531 291.640625 L 85.085938 291.511719 L 86.988281 291.453125 L 88.460938 291.429688 L 91.648438 291.429688 L 93.550781 291.460938 L 94.929688 291.503906 L 96.453125 291.566406 L 97.738281 291.640625 L 99.972656 291.820312 L 101.96875 292.046875 L 102.871094 292.179688 L 104.300781 292.429688 L 105.394531 292.675781 L 106.15625 292.886719 L 107.011719 293.1875 L 107.769531 293.554688 L 108.34375 293.96875 L 108.628906 294.320312 L 101.96875 294.320312 L 101.636719 293.992188 L 101.257812 293.742188 L 100.542969 293.40625 L 99.828125 293.171875 L 98.832031 292.9375 L 97.925781 292.78125 L 96.691406 292.625 L 95.597656 292.527344 L 94.453125 292.457031 L 93.359375 292.40625 L 91.269531 292.359375 L 88.84375 292.359375 L 87.9375 292.375 L 86.085938 292.4375 L 85.085938 292.496094 L 83.660156 292.609375 L 82.660156 292.714844 L 81.472656 292.878906 L 80.664062 293.015625 L 79.664062 293.230469 L 78.949219 293.417969 L 78.140625 293.683594 L 77.667969 293.886719 L 77.238281 294.117188 L 76.859375 294.386719 L 76.574219 294.667969 L 76.382812 294.972656 L 76.289062 295.265625 L 76.289062 296.527344 L 76.382812 296.820312 L 76.621094 297.160156 L 77.238281 297.65625 L 78.140625 298.089844 L 79.1875 298.429688 L 80.1875 298.675781 L 80.757812 298.789062 L 81.519531 298.917969 L 82.707031 299.082031 L 84.421875 299.246094 L 85.417969 299.308594 L 86.941406 299.375 L 88.511719 299.410156 L 90.601562 299.410156 L 92.457031 299.375 L 93.695312 299.335938 L 94.976562 299.269531 L 96.738281 299.132812 L 97.832031 299 L 98.78125 298.847656 L 99.496094 298.691406 L 99.972656 298.5625 L 100.683594 298.308594 L 101.257812 298.03125 L 101.683594 297.746094 L 101.96875 297.46875 L 108.628906 297.46875 L 108.34375 297.796875 L 107.914062 298.113281 L 107.484375 298.351562 L 106.820312 298.636719 L 106.058594 298.886719 L 104.964844 299.171875 L 104.0625 299.359375 L 102.871094 299.5625 L 101.777344 299.71875 L 100.589844 299.855469 L 98.832031 300.019531 L 97.6875 300.101562 L 96.453125 300.171875 L 94.976562 300.238281 L 93.125 300.296875 L 91.125 300.328125 L 89.269531 300.335938 L 87.273438 300.320312 L 85.800781 300.289062 L 83.847656 300.214844 L 81.425781 300.066406 L 79.664062 299.914062 L 78.285156 299.757812 L 77.097656 299.59375 L 75.765625 299.375 L 74.050781 299.015625 L 73.007812 298.742188 L 72.292969 298.511719 L 71.484375 298.195312 L 70.914062 297.910156 L 70.246094 297.453125 L 69.773438 296.875 L 69.628906 296.429688 Z M 69.628906 295.304688 "/>
<path style=" stroke:none;fill-rule:nonzero;fill:rgb(96.862745%,70.196078%,16.862745%);fill-opacity:1;" d="M 69.628906 304.894531 L 69.675781 304.886719 L 69.675781 304.742188 L 69.867188 304.417969 L 70.34375 303.972656 L 70.960938 303.605469 L 71.625 303.316406 L 72.054688 303.164062 L 72.769531 302.949219 L 73.386719 302.789062 L 74.957031 302.464844 L 76.953125 302.164062 L 78.046875 302.035156 L 79.285156 301.910156 L 81.042969 301.773438 L 81.851562 301.726562 L 84.324219 301.609375 L 87.132812 301.539062 L 90.222656 301.515625 L 91.648438 301.523438 L 93.597656 301.550781 L 96.261719 301.632812 L 97.785156 301.703125 L 98.972656 301.773438 L 100.210938 301.867188 L 101.730469 302.011719 L 103.160156 302.1875 L 104.300781 302.359375 L 105.441406 302.574219 L 106.390625 302.804688 L 107.199219 303.058594 L 107.914062 303.359375 L 108.34375 303.613281 L 108.628906 303.863281 L 102.015625 303.863281 L 101.636719 303.613281 L 101.207031 303.417969 L 100.496094 303.179688 L 99.78125 303.007812 L 99.066406 302.871094 L 97.738281 302.683594 L 96.59375 302.566406 L 95.167969 302.464844 L 93.789062 302.402344 L 92.21875 302.359375 L 91.269531 302.34375 L 88.746094 302.34375 L 86.464844 302.394531 L 85.132812 302.453125 L 84.183594 302.511719 L 82.851562 302.617188 L 82.042969 302.703125 L 81.566406 302.761719 L 80.140625 302.984375 L 79.1875 303.1875 L 78.664062 303.324219 L 78 303.539062 L 77.523438 303.734375 L 77 304.023438 L 76.714844 304.238281 L 76.335938 304.730469 L 76.289062 306.023438 L 76.429688 306.300781 L 76.714844 306.59375 L 77.097656 306.855469 L 77.667969 307.128906 L 78.238281 307.335938 L 79.234375 307.617188 L 80.09375 307.804688 L 80.757812 307.925781 L 82.042969 308.121094 L 82.566406 308.1875 L 83.800781 308.316406 L 85.085938 308.417969 L 86.65625 308.503906 L 87.84375 308.546875 L 89.746094 308.582031 L 92.171875 308.582031 L 95.027344 308.539062 L 96.832031 308.480469 L 98.070312 308.425781 L 98.878906 308.375 L 99.875 308.292969 L 100.589844 308.222656 L 101.257812 308.144531 L 102.0625 308.019531 L 102.0625 306.300781 L 90.316406 306.292969 L 90.316406 305.484375 L 108.578125 305.476562 L 108.628906 308.292969 L 107.628906 308.488281 L 106.390625 308.675781 L 105.203125 308.820312 L 103.964844 308.941406 L 102.207031 309.078125 L 100.78125 309.167969 L 98.59375 309.265625 L 96.59375 309.332031 L 94.503906 309.375 L 92.648438 309.398438 L 90.460938 309.402344 L 88.511719 309.390625 L 86.417969 309.347656 L 84.753906 309.289062 L 83.230469 309.214844 L 81.710938 309.121094 L 79.808594 308.972656 L 78.570312 308.847656 L 77.285156 308.699219 L 76.003906 308.519531 L 74.859375 308.324219 L 74.101562 308.171875 L 73.339844 308 L 72.53125 307.78125 L 71.769531 307.539062 L 71.199219 307.316406 L 70.675781 307.0625 L 70.296875 306.824219 L 69.914062 306.5 L 69.722656 306.242188 L 69.628906 306.019531 Z M 69.628906 304.894531 "/>
<path style=" stroke:none;fill-rule:nonzero;fill:rgb(83.921569%,15.686275%,22.352941%);fill-opacity:1;" d="M 69.628906 310.582031 L 108.628906 310.582031 L 108.628906 310.988281 L 92.375 310.992188 L 92.375 314.371094 L 85.835938 314.371094 L 85.835938 310.996094 L 85.742188 310.988281 L 69.628906 310.988281 Z M 69.628906 310.582031 "/>
<path style=" stroke:none;fill-rule:nonzero;fill:rgb(6.27451%,58.823529%,28.235294%);fill-opacity:1;" d="M 110.679688 298.539062 L 110.722656 298.339844 L 127.597656 89.375 L 132.71875 89.375 L 149.679688 298.734375 L 143.71875 298.734375 L 139.46875 244.085938 L 120.847656 244.085938 L 116.679688 298.539062 L 110.679688 298.539062 L 122.636719 221.476562 L 137.761719 221.28125 L 130.222656 123.578125 L 130.136719 123.382812 L 130.054688 123.972656 L 122.597656 221.28125 L 122.636719 221.476562 Z M 110.679688 298.539062 "/>
<path style=" stroke:none;fill-rule:nonzero;fill:rgb(14.509804%,36.078431%,60%);fill-opacity:1;" d="M 110.679688 309.144531 L 110.726562 309.140625 L 110.726562 309.066406 L 110.871094 308.945312 L 111.203125 308.792969 L 111.535156 308.691406 L 112.390625 308.503906 L 113.582031 308.324219 L 114.816406 308.183594 L 115.722656 308.101562 L 116.53125 308.039062 L 118.382812 307.921875 L 119.574219 307.863281 L 120.859375 307.808594 L 122.425781 307.753906 L 123.570312 307.722656 L 126.136719 307.671875 L 128.039062 307.652344 L 129.511719 307.640625 L 132.699219 307.640625 L 134.601562 307.652344 L 135.980469 307.667969 L 137.503906 307.695312 L 138.789062 307.722656 L 141.023438 307.792969 L 143.019531 307.882812 L 143.921875 307.933594 L 145.351562 308.03125 L 146.445312 308.125 L 147.207031 308.207031 L 148.0625 308.324219 L 148.820312 308.464844 L 149.394531 308.628906 L 149.679688 308.761719 L 143.019531 308.761719 L 142.6875 308.636719 L 142.304688 308.539062 L 141.59375 308.410156 L 140.878906 308.316406 L 139.882812 308.226562 L 138.976562 308.164062 L 137.742188 308.105469 L 136.648438 308.066406 L 135.503906 308.039062 L 134.410156 308.019531 L 132.320312 308 L 129.894531 308 L 128.988281 308.007812 L 127.136719 308.03125 L 126.136719 308.054688 L 124.710938 308.097656 L 123.710938 308.140625 L 122.523438 308.203125 L 121.714844 308.257812 L 120.714844 308.339844 L 120 308.414062 L 119.191406 308.515625 L 118.71875 308.59375 L 118.289062 308.683594 L 117.910156 308.789062 L 117.625 308.898438 L 117.433594 309.015625 L 117.339844 309.128906 L 117.339844 309.621094 L 117.433594 309.734375 L 117.671875 309.867188 L 118.289062 310.058594 L 119.191406 310.226562 L 120.238281 310.359375 L 121.238281 310.453125 L 121.808594 310.496094 L 122.570312 310.546875 L 123.757812 310.613281 L 125.472656 310.675781 L 126.46875 310.699219 L 127.992188 310.726562 L 129.5625 310.738281 L 131.652344 310.738281 L 133.507812 310.726562 L 134.746094 310.710938 L 136.027344 310.683594 L 137.789062 310.628906 L 138.882812 310.578125 L 139.832031 310.519531 L 140.546875 310.460938 L 141.023438 310.410156 L 141.734375 310.3125 L 142.304688 310.203125 L 142.734375 310.09375 L 143.019531 309.984375 L 149.679688 309.984375 L 149.394531 310.113281 L 148.964844 310.234375 L 148.535156 310.328125 L 147.871094 310.4375 L 147.109375 310.535156 L 146.015625 310.644531 L 145.113281 310.71875 L 143.921875 310.796875 L 142.828125 310.859375 L 141.640625 310.910156 L 139.882812 310.976562 L 138.738281 311.007812 L 137.503906 311.035156 L 136.027344 311.058594 L 134.175781 311.082031 L 132.175781 311.09375 L 130.320312 311.097656 L 128.324219 311.089844 L 126.851562 311.078125 L 124.898438 311.050781 L 122.472656 310.992188 L 120.714844 310.933594 L 119.335938 310.875 L 118.148438 310.808594 L 116.816406 310.726562 L 115.101562 310.585938 L 114.058594 310.480469 L 113.34375 310.390625 L 112.535156 310.265625 L 111.964844 310.15625 L 111.296875 309.980469 L 110.824219 309.753906 L 110.679688 309.582031 Z M 110.679688 309.144531 "/>
<path style=" stroke:none;fill-rule:nonzero;fill:rgb(96.862745%,70.196078%,16.862745%);fill-opacity:1;" d="M 110.679688 313.175781 L 110.726562 313.171875 L 110.726562 313.132812 L 110.917969 313.046875 L 111.394531 312.929688 L 112.011719 312.832031 L 112.675781 312.753906 L 113.105469 312.714844 L 113.820312 312.65625 L 114.4375 312.617188 L 116.007812 312.53125 L 118.003906 312.449219 L 119.097656 312.414062 L 120.335938 312.382812 L 122.09375 312.347656 L 122.902344 312.332031 L 125.375 312.300781 L 128.179688 312.285156 L 131.273438 312.277344 L 132.699219 312.28125 L 134.648438 312.289062 L 137.3125 312.308594 L 138.835938 312.328125 L 140.023438 312.347656 L 141.261719 312.371094 L 142.78125 312.410156 L 144.207031 312.457031 L 145.351562 312.5 L 146.492188 312.558594 L 147.441406 312.621094 L 148.25 312.6875 L 148.964844 312.765625 L 149.394531 312.832031 L 149.679688 312.902344 L 143.066406 312.902344 L 142.6875 312.832031 L 142.257812 312.78125 L 141.546875 312.71875 L 140.832031 312.671875 L 140.117188 312.636719 L 138.789062 312.585938 L 137.644531 312.554688 L 136.21875 312.53125 L 134.839844 312.511719 L 133.269531 312.5 L 132.320312 312.496094 L 129.796875 312.496094 L 127.515625 312.511719 L 126.183594 312.527344 L 125.234375 312.542969 L 123.902344 312.570312 L 123.09375 312.59375 L 122.617188 312.609375 L 121.191406 312.667969 L 120.238281 312.722656 L 119.714844 312.757812 L 119.050781 312.816406 L 118.574219 312.867188 L 118.050781 312.941406 L 117.765625 313 L 117.386719 313.128906 L 117.339844 313.472656 L 117.480469 313.546875 L 117.765625 313.625 L 118.148438 313.695312 L 118.71875 313.765625 L 119.289062 313.820312 L 120.285156 313.898438 L 121.144531 313.945312 L 121.808594 313.980469 L 123.09375 314.03125 L 123.617188 314.046875 L 124.851562 314.082031 L 126.136719 314.109375 L 127.707031 314.132812 L 128.894531 314.144531 L 130.796875 314.152344 L 133.222656 314.152344 L 136.078125 314.140625 L 137.882812 314.125 L 139.121094 314.109375 L 139.929688 314.097656 L 140.925781 314.078125 L 141.640625 314.058594 L 142.304688 314.035156 L 143.113281 314.003906 L 143.113281 313.546875 L 131.367188 313.542969 L 131.367188 313.332031 L 149.628906 313.328125 L 149.679688 314.078125 L 148.679688 314.128906 L 147.441406 314.175781 L 146.253906 314.214844 L 145.015625 314.25 L 143.257812 314.285156 L 141.832031 314.308594 L 139.644531 314.335938 L 137.644531 314.351562 L 135.554688 314.363281 L 133.699219 314.367188 L 131.511719 314.371094 L 129.5625 314.367188 L 127.46875 314.355469 L 125.804688 314.339844 L 124.28125 314.320312 L 122.761719 314.296875 L 120.859375 314.257812 L 119.621094 314.222656 L 118.335938 314.183594 L 117.054688 314.136719 L 115.910156 314.082031 L 115.152344 314.042969 L 114.390625 313.996094 L 113.582031 313.941406 L 112.820312 313.875 L 112.25 313.816406 L 111.726562 313.75 L 111.347656 313.6875 L 110.964844 313.601562 L 110.773438 313.53125 L 110.679688 313.472656 Z M 110.679688 313.175781 "/>
<path style=" stroke:none;fill-rule:nonzero;fill:rgb(83.921569%,15.686275%,22.352941%);fill-opacity:1;" d="M 110.679688 299.914062 L 149.679688 299.914062 L 149.679688 300.613281 L 133.425781 300.621094 L 133.425781 306.460938 L 126.886719 306.460938 L 126.886719 300.628906 L 126.792969 300.613281 L 110.679688 300.613281 Z M 110.679688 299.914062 "/>
<path style=" stroke:none;fill-rule:nonzero;fill:rgb(14.509804%,36.078431%,60%);fill-opacity:1;" d="M 151.730469 148.457031 L 151.777344 148.1875 L 151.777344 141.742188 L 151.921875 131.542969 L 152.253906 118.65625 L 152.585938 109.796875 L 153.441406 93.957031 L 154.632812 78.652344 L 155.867188 66.839844 L 156.773438 59.859375 L 157.582031 54.492188 L 159.433594 44.558594 L 160.625 39.457031 L 161.910156 34.890625 L 163.476562 30.328125 L 164.617188 27.644531 L 167.1875 23.347656 L 169.089844 21.46875 L 170.5625 20.664062 L 173.75 20.664062 L 175.652344 21.738281 L 177.03125 23.078125 L 178.554688 25.226562 L 179.839844 27.644531 L 182.074219 33.550781 L 184.070312 41.066406 L 184.972656 45.363281 L 186.402344 53.683594 L 187.496094 61.738281 L 188.253906 68.71875 L 189.113281 78.652344 L 189.871094 90.734375 L 190.445312 104.425781 L 190.730469 115.96875 L 184.070312 115.96875 L 183.738281 105.230469 L 183.355469 96.910156 L 182.644531 85.902344 L 181.929688 78.117188 L 180.933594 70.332031 L 180.027344 65.230469 L 178.792969 60.128906 L 177.699219 56.90625 L 176.554688 54.492188 L 175.460938 52.878906 L 173.371094 51.269531 L 170.945312 51.269531 L 170.039062 51.804688 L 168.1875 53.953125 L 167.1875 55.832031 L 165.761719 59.589844 L 164.761719 63.082031 L 163.574219 68.449219 L 162.765625 73.015625 L 161.765625 79.996094 L 161.050781 86.171875 L 160.242188 95.03125 L 159.769531 101.742188 L 159.339844 109.257812 L 158.960938 118.117188 L 158.675781 127.515625 L 158.484375 137.449219 L 158.390625 147.113281 L 158.390625 188.726562 L 158.484375 198.390625 L 158.722656 209.667969 L 159.339844 226.042969 L 160.242188 240.273438 L 161.289062 251.546875 L 162.289062 259.601562 L 162.859375 263.359375 L 163.621094 267.65625 L 164.808594 273.027344 L 166.519531 278.394531 L 167.519531 280.542969 L 169.042969 282.691406 L 170.613281 283.765625 L 172.703125 283.765625 L 174.558594 282.691406 L 175.796875 281.347656 L 177.078125 279.199219 L 178.839844 274.636719 L 179.933594 270.339844 L 180.882812 265.242188 L 181.597656 260.140625 L 182.074219 255.84375 L 182.785156 247.519531 L 183.355469 238.394531 L 183.785156 228.996094 L 184.070312 219.867188 L 190.730469 219.867188 L 190.445312 230.609375 L 190.015625 241.078125 L 189.585938 248.863281 L 188.921875 258.261719 L 188.160156 266.582031 L 187.066406 275.980469 L 186.164062 282.152344 L 184.972656 288.867188 L 183.878906 293.96875 L 182.691406 298.53125 L 180.933594 303.898438 L 179.789062 306.585938 L 178.554688 309 L 177.078125 311.148438 L 175.226562 313.027344 L 173.226562 314.101562 L 171.371094 314.371094 L 169.375 313.832031 L 167.902344 312.761719 L 165.949219 310.34375 L 163.523438 305.511719 L 161.765625 300.410156 L 160.386719 295.308594 L 159.199219 289.941406 L 157.867188 282.691406 L 156.152344 270.878906 L 155.105469 261.75 L 154.394531 254.234375 L 153.585938 243.761719 L 153.015625 234.367188 L 152.347656 219.332031 L 151.875 200.269531 L 151.730469 185.503906 Z M 151.730469 148.457031 "/>
<path style=" stroke:none;fill-rule:nonzero;fill:rgb(6.27451%,58.823529%,28.235294%);fill-opacity:1;" d="M 192.78125 311.800781 L 192.824219 311.535156 L 209.695312 31.855469 L 214.820312 31.855469 L 231.78125 312.0625 L 225.820312 312.0625 L 221.570312 238.917969 L 202.949219 238.917969 L 198.78125 311.800781 L 192.78125 311.800781 L 204.738281 208.660156 L 219.863281 208.398438 L 212.320312 77.632812 L 212.238281 77.371094 L 212.15625 78.160156 L 204.699219 208.398438 L 204.738281 208.660156 Z M 192.78125 311.800781 "/>
<path style=" stroke:none;fill-rule:nonzero;fill:rgb(14.509804%,36.078431%,60%);fill-opacity:1;" d="M 192.78125 313.363281 L 192.828125 313.363281 L 192.828125 313.355469 L 192.972656 313.347656 L 193.304688 313.335938 L 193.636719 313.328125 L 194.492188 313.3125 L 195.683594 313.296875 L 196.917969 313.285156 L 197.824219 313.277344 L 198.632812 313.273438 L 200.484375 313.265625 L 201.675781 313.257812 L 202.957031 313.253906 L 204.527344 313.25 L 205.667969 313.25 L 208.238281 313.246094 L 210.140625 313.242188 L 218.082031 313.242188 L 219.605469 313.246094 L 220.886719 313.25 L 223.125 313.253906 L 225.121094 313.261719 L 226.023438 313.265625 L 227.453125 313.273438 L 228.546875 313.28125 L 229.304688 313.289062 L 230.164062 313.296875 L 230.921875 313.308594 L 231.496094 313.320312 L 231.78125 313.332031 L 225.121094 313.332031 L 224.789062 313.320312 L 224.40625 313.3125 L 223.695312 313.304688 L 222.980469 313.296875 L 221.984375 313.289062 L 221.078125 313.285156 L 219.84375 313.277344 L 218.75 313.277344 L 217.605469 313.273438 L 216.511719 313.273438 L 214.421875 313.269531 L 211.089844 313.269531 L 209.238281 313.273438 L 208.238281 313.273438 L 206.8125 313.277344 L 205.8125 313.28125 L 204.625 313.285156 L 203.816406 313.292969 L 202.816406 313.296875 L 202.101562 313.304688 L 201.292969 313.3125 L 200.820312 313.320312 L 200.390625 313.324219 L 200.011719 313.335938 L 199.726562 313.34375 L 199.535156 313.351562 L 199.441406 313.363281 L 199.441406 313.402344 L 199.535156 313.410156 L 199.773438 313.421875 L 200.390625 313.4375 L 201.292969 313.449219 L 202.339844 313.460938 L 203.339844 313.46875 L 203.910156 313.472656 L 204.671875 313.476562 L 205.859375 313.480469 L 207.570312 313.484375 L 208.570312 313.488281 L 210.09375 313.488281 L 211.664062 313.492188 L 213.753906 313.492188 L 215.609375 313.488281 L 218.128906 313.488281 L 219.890625 313.484375 L 220.984375 313.476562 L 221.933594 313.472656 L 222.648438 313.46875 L 223.125 313.464844 L 223.835938 313.457031 L 224.40625 313.449219 L 224.835938 313.4375 L 225.121094 313.429688 L 231.78125 313.429688 L 231.496094 313.441406 L 230.636719 313.457031 L 229.972656 313.46875 L 229.210938 313.476562 L 228.117188 313.484375 L 227.214844 313.488281 L 226.023438 313.496094 L 224.929688 313.5 L 223.742188 313.503906 L 221.984375 313.511719 L 220.839844 313.511719 L 219.605469 313.515625 L 218.128906 313.515625 L 216.277344 313.519531 L 208.953125 313.519531 L 207 313.515625 L 204.574219 313.511719 L 202.816406 313.507812 L 201.4375 313.503906 L 200.25 313.496094 L 198.917969 313.488281 L 197.203125 313.480469 L 196.15625 313.46875 L 195.445312 313.464844 L 194.636719 313.453125 L 194.066406 313.445312 L 193.398438 313.429688 L 192.925781 313.410156 L 192.78125 313.398438 Z M 192.78125 313.363281 "/>
<path style=" stroke:none;fill-rule:nonzero;fill:rgb(6.27451%,58.823529%,28.235294%);fill-opacity:1;" d="M 233.832031 287.667969 L 233.875 287.492188 L 250.746094 100 L 255.871094 100 L 272.832031 287.84375 L 266.871094 287.84375 L 262.621094 238.8125 L 244 238.8125 L 239.832031 287.667969 L 233.832031 287.667969 L 245.789062 218.527344 L 260.914062 218.351562 L 253.371094 130.691406 L 253.289062 130.515625 L 253.207031 131.042969 L 245.75 218.351562 L 245.789062 218.527344 Z M 233.832031 287.667969 "/>
<path style=" stroke:none;fill-rule:nonzero;fill:rgb(14.509804%,36.078431%,60%);fill-opacity:1;" d="M 233.832031 300.054688 L 233.878906 300.03125 L 233.878906 299.472656 L 234.023438 298.59375 L 234.355469 297.480469 L 234.6875 296.714844 L 235.542969 295.351562 L 236.734375 294.027344 L 237.96875 293.007812 L 238.875 292.40625 L 239.683594 291.945312 L 241.535156 291.085938 L 242.726562 290.648438 L 244.007812 290.253906 L 245.578125 289.859375 L 246.71875 289.628906 L 249.289062 289.257812 L 251.191406 289.09375 L 252.664062 289.023438 L 255.851562 289.023438 L 257.753906 289.117188 L 259.132812 289.234375 L 260.65625 289.417969 L 261.9375 289.628906 L 264.175781 290.136719 L 266.171875 290.785156 L 267.074219 291.15625 L 268.503906 291.875 L 269.597656 292.570312 L 270.355469 293.171875 L 271.214844 294.027344 L 271.972656 295.070312 L 272.542969 296.253906 L 272.832031 297.25 L 266.171875 297.25 L 265.839844 296.324219 L 265.457031 295.605469 L 264.746094 294.65625 L 264.03125 293.984375 L 263.03125 293.3125 L 262.128906 292.871094 L 260.894531 292.429688 L 259.800781 292.152344 L 258.65625 291.945312 L 257.5625 291.804688 L 255.472656 291.664062 L 253.046875 291.664062 L 252.140625 291.710938 L 250.289062 291.898438 L 249.289062 292.058594 L 247.863281 292.382812 L 246.863281 292.683594 L 245.675781 293.148438 L 244.867188 293.542969 L 243.867188 294.144531 L 243.152344 294.679688 L 242.34375 295.441406 L 241.871094 296.023438 L 241.441406 296.671875 L 241.0625 297.433594 L 240.777344 298.246094 L 240.585938 299.101562 L 240.492188 299.9375 L 240.492188 303.527344 L 240.585938 304.363281 L 240.824219 305.335938 L 241.441406 306.75 L 242.34375 307.976562 L 243.390625 308.949219 L 244.390625 309.644531 L 244.960938 309.96875 L 245.722656 310.339844 L 246.910156 310.804688 L 248.621094 311.265625 L 249.621094 311.453125 L 251.144531 311.636719 L 252.710938 311.730469 L 254.804688 311.730469 L 256.660156 311.636719 L 257.898438 311.519531 L 259.179688 311.335938 L 260.941406 310.941406 L 262.035156 310.570312 L 262.984375 310.132812 L 263.699219 309.691406 L 264.175781 309.320312 L 264.886719 308.601562 L 265.457031 307.8125 L 265.886719 307.003906 L 266.171875 306.214844 L 272.832031 306.214844 L 272.542969 307.140625 L 272.117188 308.046875 L 271.6875 308.71875 L 271.023438 309.527344 L 270.261719 310.246094 L 269.167969 311.058594 L 268.265625 311.589844 L 267.074219 312.167969 L 265.980469 312.609375 L 264.792969 313.003906 L 263.03125 313.46875 L 261.890625 313.699219 L 260.65625 313.90625 L 259.179688 314.09375 L 257.324219 314.253906 L 255.328125 314.347656 L 253.472656 314.371094 L 251.476562 314.324219 L 250.003906 314.230469 L 248.050781 314.023438 L 245.625 313.605469 L 243.867188 313.164062 L 242.488281 312.726562 L 241.296875 312.261719 L 239.96875 311.636719 L 238.253906 310.617188 L 237.207031 309.828125 L 236.496094 309.179688 L 235.6875 308.277344 L 235.117188 307.464844 L 234.449219 306.167969 L 233.976562 304.523438 L 233.832031 303.25 Z M 233.832031 300.054688 "/>
<path style=" stroke:none;fill-rule:nonzero;fill:rgb(6.27451%,58.823529%,28.235294%);fill-opacity:1;" d="M 274.882812 314.371094 L 274.925781 314.371094 L 291.796875 313.945312 L 296.921875 313.945312 L 313.882812 314.371094 L 307.921875 314.371094 L 303.671875 314.257812 L 285.050781 314.257812 L 280.882812 314.371094 L 274.882812 314.371094 L 286.839844 314.214844 L 301.964844 314.214844 L 294.421875 314.015625 L 294.257812 314.015625 L 286.800781 314.214844 L 286.839844 314.214844 Z M 274.882812 314.371094 "/>
<path style=" stroke:none;fill-rule:nonzero;fill:rgb(83.921569%,15.686275%,22.352941%);fill-opacity:1;" d="M 274.882812 28.007812 L 313.882812 28.007812 L 313.882812 58.488281 L 297.628906 58.753906 L 297.628906 312.765625 L 291.089844 312.765625 L 291.089844 59.023438 L 290.992188 58.488281 L 274.882812 58.488281 Z M 274.882812 28.007812 "/>
<path style=" stroke:none;fill-rule:nonzero;fill:rgb(6.27451%,58.823529%,28.235294%);fill-opacity:1;" d="M 315.933594 276.929688 L 315.976562 276.875 L 332.847656 215.167969 L 337.972656 215.167969 L 354.929688 276.988281 L 348.972656 276.988281 L 344.722656 260.851562 L 326.101562 260.851562 L 321.933594 276.929688 L 315.933594 276.929688 L 327.890625 254.175781 L 343.015625 254.117188 L 335.472656 225.269531 L 335.390625 225.210938 L 335.308594 225.382812 L 327.847656 254.117188 L 327.890625 254.175781 Z M 315.933594 276.929688 "/>
<path style=" stroke:none;fill-rule:nonzero;fill:rgb(96.862745%,70.196078%,16.862745%);fill-opacity:1;" d="M 315.933594 307.171875 L 315.980469 307.160156 L 315.980469 306.933594 L 316.171875 306.429688 L 316.648438 305.738281 L 317.265625 305.164062 L 317.929688 304.71875 L 318.359375 304.480469 L 319.074219 304.144531 L 319.691406 303.898438 L 321.261719 303.394531 L 323.257812 302.925781 L 324.351562 302.722656 L 325.585938 302.53125 L 327.347656 302.320312 L 328.15625 302.242188 L 330.628906 302.0625 L 333.433594 301.949219 L 336.527344 301.917969 L 337.953125 301.925781 L 339.902344 301.972656 L 342.566406 302.09375 L 344.089844 302.207031 L 345.277344 302.320312 L 346.515625 302.464844 L 348.035156 302.6875 L 349.460938 302.957031 L 350.605469 303.226562 L 351.746094 303.5625 L 352.695312 303.921875 L 353.503906 304.3125 L 354.21875 304.785156 L 354.644531 305.175781 L 354.929688 305.566406 L 348.320312 305.566406 L 347.941406 305.175781 L 347.511719 304.875 L 346.800781 304.503906 L 346.085938 304.234375 L 345.371094 304.023438 L 344.039062 303.730469 L 342.898438 303.550781 L 341.472656 303.394531 L 340.09375 303.292969 L 338.523438 303.226562 L 337.574219 303.203125 L 335.050781 303.203125 L 332.769531 303.28125 L 331.4375 303.371094 L 330.488281 303.460938 L 329.15625 303.628906 L 328.347656 303.765625 L 327.871094 303.855469 L 326.445312 304.203125 L 325.492188 304.515625 L 324.96875 304.726562 L 324.304688 305.0625 L 323.828125 305.367188 L 323.304688 305.816406 L 323.019531 306.152344 L 322.640625 306.914062 L 322.589844 308.929688 L 322.734375 309.355469 L 323.019531 309.8125 L 323.398438 310.21875 L 323.972656 310.644531 L 324.542969 310.96875 L 325.539062 311.40625 L 326.394531 311.695312 L 327.0625 311.886719 L 328.347656 312.1875 L 328.871094 312.289062 L 330.105469 312.492188 L 331.390625 312.648438 L 332.960938 312.78125 L 334.148438 312.851562 L 336.050781 312.90625 L 338.476562 312.90625 L 341.328125 312.839844 L 343.136719 312.75 L 344.375 312.660156 L 345.183594 312.582031 L 346.179688 312.457031 L 346.894531 312.347656 L 347.558594 312.222656 L 348.367188 312.03125 L 348.367188 309.355469 L 336.621094 309.34375 L 336.621094 308.089844 L 354.882812 308.078125 L 354.929688 312.457031 L 353.933594 312.761719 L 352.695312 313.050781 L 351.507812 313.277344 L 350.269531 313.464844 L 348.511719 313.679688 L 347.085938 313.8125 L 344.898438 313.96875 L 342.898438 314.070312 L 340.808594 314.136719 L 338.953125 314.171875 L 336.765625 314.183594 L 334.8125 314.160156 L 332.722656 314.09375 L 331.058594 314.003906 L 329.535156 313.890625 L 328.011719 313.746094 L 326.109375 313.511719 L 324.875 313.320312 L 323.589844 313.085938 L 322.304688 312.804688 L 321.164062 312.503906 L 320.402344 312.269531 L 319.644531 312 L 318.835938 311.664062 L 318.074219 311.28125 L 317.503906 310.933594 L 316.980469 310.542969 L 316.597656 310.171875 L 316.21875 309.667969 L 316.027344 309.265625 L 315.933594 308.917969 Z M 315.933594 307.171875 "/>
<path style=" stroke:none;fill-rule:nonzero;fill:rgb(83.921569%,15.686275%,22.352941%);fill-opacity:1;" d="M 315.933594 278.167969 L 354.929688 278.167969 L 354.929688 280.585938 L 338.679688 280.605469 L 338.679688 300.738281 L 332.140625 300.738281 L 332.140625 280.628906 L 332.042969 280.585938 L 315.933594 280.585938 Z M 315.933594 278.167969 "/>
<path style=" stroke:none;fill-rule:nonzero;fill:rgb(6.27451%,58.823529%,28.235294%);fill-opacity:1;" d="M 356.984375 311.660156 L 357.027344 311.660156 L 373.898438 311.460938 L 379.023438 311.460938 L 395.980469 311.660156 L 390.023438 311.660156 L 385.773438 311.609375 L 367.148438 311.609375 L 362.984375 311.660156 L 356.984375 311.660156 L 368.941406 311.585938 L 384.066406 311.585938 L 376.523438 311.492188 L 376.441406 311.492188 L 376.359375 311.496094 L 368.898438 311.585938 L 368.941406 311.585938 Z M 356.984375 311.660156 "/>
<path style=" stroke:none;fill-rule:nonzero;fill:rgb(14.509804%,36.078431%,60%);fill-opacity:1;" d="M 398.035156 166.886719 L 398.082031 166.660156 L 398.082031 161.296875 L 398.226562 152.800781 L 398.558594 142.070312 L 398.890625 134.695312 L 399.746094 121.507812 L 400.9375 108.765625 L 402.171875 98.929688 L 403.074219 93.117188 L 403.882812 88.644531 L 405.738281 80.375 L 406.929688 76.128906 L 408.210938 72.328125 L 409.78125 68.527344 L 410.921875 66.292969 L 413.492188 62.714844 L 415.394531 61.148438 L 416.867188 60.480469 L 420.054688 60.480469 L 421.957031 61.375 L 423.335938 62.492188 L 424.859375 64.28125 L 426.140625 66.292969 L 428.378906 71.210938 L 430.375 77.46875 L 431.277344 81.046875 L 432.707031 87.976562 L 433.800781 94.679688 L 434.558594 100.492188 L 435.414062 108.765625 L 436.175781 118.824219 L 436.746094 130.222656 L 437.03125 139.835938 L 430.375 139.835938 L 430.042969 130.894531 L 429.660156 123.964844 L 428.949219 114.800781 L 428.234375 108.316406 L 427.234375 101.835938 L 426.332031 97.585938 L 425.097656 93.339844 L 424 90.65625 L 422.859375 88.644531 L 421.765625 87.304688 L 419.675781 85.964844 L 417.25 85.964844 L 416.34375 86.410156 L 414.488281 88.199219 L 413.492188 89.761719 L 412.066406 92.894531 L 411.066406 95.800781 L 409.875 100.269531 L 409.070312 104.070312 L 408.070312 109.882812 L 407.355469 115.023438 L 406.546875 122.402344 L 406.070312 127.988281 L 405.644531 134.25 L 405.265625 141.625 L 404.976562 149.449219 L 404.789062 157.71875 L 404.691406 165.765625 L 404.691406 200.417969 L 404.789062 208.464844 L 405.027344 217.851562 L 405.644531 231.488281 L 406.546875 243.335938 L 407.59375 252.726562 L 408.59375 259.429688 L 409.164062 262.5625 L 409.925781 266.136719 L 411.113281 270.609375 L 412.824219 275.078125 L 413.824219 276.867188 L 415.347656 278.65625 L 416.914062 279.550781 L 419.007812 279.550781 L 420.863281 278.65625 L 422.097656 277.539062 L 423.382812 275.75 L 425.144531 271.949219 L 426.238281 268.371094 L 427.1875 264.125 L 427.902344 259.878906 L 428.378906 256.300781 L 429.089844 249.371094 L 429.660156 241.773438 L 430.089844 233.949219 L 430.375 226.347656 L 437.03125 226.347656 L 436.746094 235.289062 L 436.320312 244.007812 L 435.890625 250.488281 L 435.226562 258.3125 L 434.464844 265.242188 L 433.371094 273.066406 L 432.46875 278.207031 L 431.277344 283.796875 L 430.183594 288.042969 L 428.996094 291.84375 L 427.234375 296.316406 L 426.09375 298.550781 L 424.859375 300.5625 L 423.382812 302.351562 L 421.527344 303.914062 L 419.53125 304.808594 L 417.675781 305.035156 L 415.679688 304.585938 L 414.203125 303.691406 L 412.253906 301.679688 L 409.828125 297.65625 L 408.070312 293.410156 L 406.691406 289.164062 L 405.5 284.691406 L 404.167969 278.65625 L 402.457031 268.820312 L 401.410156 261.21875 L 400.699219 254.960938 L 399.890625 246.242188 L 399.320312 238.417969 L 398.652344 225.898438 L 398.175781 210.027344 L 398.035156 197.734375 Z M 398.035156 166.886719 "/>
<path style=" stroke:none;fill-rule:nonzero;fill:rgb(96.862745%,70.196078%,16.862745%);fill-opacity:1;" d="M 398.035156 308.027344 L 398.082031 308.023438 L 398.082031 307.945312 L 398.273438 307.769531 L 398.75 307.53125 L 399.367188 307.332031 L 400.03125 307.179688 L 400.460938 307.097656 L 401.171875 306.980469 L 401.792969 306.898438 L 403.363281 306.722656 L 405.359375 306.5625 L 406.453125 306.492188 L 407.6875 306.425781 L 409.449219 306.351562 L 410.257812 306.324219 L 412.730469 306.261719 L 415.535156 306.226562 L 418.628906 306.214844 L 420.054688 306.21875 L 422.003906 306.234375 L 424.667969 306.273438 L 426.191406 306.3125 L 427.378906 306.351562 L 428.613281 306.402344 L 430.136719 306.480469 L 431.5625 306.574219 L 432.707031 306.664062 L 433.847656 306.78125 L 434.796875 306.90625 L 435.605469 307.039062 L 436.320312 307.203125 L 436.746094 307.335938 L 437.03125 307.472656 L 430.421875 307.472656 L 430.042969 307.335938 L 429.613281 307.234375 L 428.902344 307.105469 L 428.1875 307.011719 L 427.472656 306.941406 L 426.140625 306.839844 L 425 306.777344 L 423.574219 306.722656 L 422.195312 306.6875 L 420.625 306.664062 L 419.675781 306.65625 L 417.152344 306.65625 L 414.871094 306.683594 L 413.539062 306.714844 L 412.585938 306.746094 L 411.257812 306.804688 L 410.449219 306.851562 L 409.972656 306.882812 L 408.546875 307 L 407.59375 307.109375 L 407.070312 307.183594 L 406.40625 307.300781 L 405.929688 307.402344 L 405.40625 307.558594 L 405.121094 307.675781 L 404.742188 307.9375 L 404.691406 308.632812 L 404.835938 308.777344 L 405.121094 308.9375 L 405.5 309.078125 L 406.070312 309.222656 L 406.644531 309.335938 L 407.640625 309.488281 L 408.496094 309.585938 L 409.164062 309.652344 L 410.449219 309.757812 L 410.972656 309.792969 L 412.207031 309.859375 L 413.492188 309.914062 L 415.0625 309.960938 L 416.25 309.984375 L 418.152344 310.003906 L 420.578125 310.003906 L 423.429688 309.980469 L 425.238281 309.949219 L 426.476562 309.917969 L 427.285156 309.890625 L 428.28125 309.851562 L 428.996094 309.8125 L 429.660156 309.769531 L 430.46875 309.703125 L 430.46875 308.777344 L 418.722656 308.773438 L 418.722656 308.34375 L 436.984375 308.339844 L 437.03125 309.851562 L 436.035156 309.953125 L 434.796875 310.054688 L 433.609375 310.132812 L 432.371094 310.199219 L 430.613281 310.269531 L 429.1875 310.316406 L 427 310.371094 L 425 310.40625 L 422.90625 310.429688 L 421.054688 310.441406 L 418.867188 310.445312 L 416.914062 310.4375 L 414.824219 310.414062 L 413.160156 310.382812 L 411.636719 310.34375 L 410.113281 310.292969 L 408.210938 310.214844 L 406.976562 310.148438 L 405.691406 310.066406 L 404.40625 309.96875 L 403.265625 309.863281 L 402.503906 309.785156 L 401.746094 309.691406 L 400.9375 309.574219 L 400.175781 309.445312 L 399.605469 309.324219 L 399.082031 309.1875 L 398.699219 309.0625 L 398.320312 308.886719 L 398.128906 308.75 L 398.035156 308.628906 Z M 398.035156 308.027344 "/>
<path style=" stroke:none;fill-rule:nonzero;fill:rgb(83.921569%,15.686275%,22.352941%);fill-opacity:1;" d="M 398.035156 311.625 L 437.03125 311.625 L 437.03125 311.871094 L 420.78125 311.875 L 420.78125 313.945312 L 414.242188 313.945312 L 414.242188 311.878906 L 414.144531 311.871094 L 398.035156 311.871094 Z M 398.035156 311.625 "/>
<path style=" stroke:none;fill-rule:nonzero;fill:rgb(6.27451%,58.823529%,28.235294%);fill-opacity:1;" d="M 439.085938 314.09375 L 439.128906 313.820312 L 456 20.664062 L 461.125 20.664062 L 478.082031 314.371094 L 472.125 314.371094 L 467.875 237.703125 L 449.25 237.703125 L 445.085938 314.09375 L 439.085938 314.09375 L 451.042969 205.988281 L 466.167969 205.710938 L 458.625 68.648438 L 458.542969 68.375 L 458.460938 69.199219 L 451 205.710938 L 451.042969 205.988281 Z M 439.085938 314.09375 "/>
<path style=" stroke:none;fill-rule:nonzero;fill:rgb(96.862745%,70.196078%,16.862745%);fill-opacity:1;" d="M 480.136719 302.625 L 480.183594 302.605469 L 480.183594 302.230469 L 480.375 301.386719 L 480.847656 300.222656 L 481.46875 299.265625 L 482.132812 298.515625 L 482.5625 298.121094 L 483.273438 297.558594 L 483.894531 297.144531 L 485.460938 296.300781 L 487.460938 295.511719 L 488.554688 295.175781 L 489.789062 294.855469 L 491.550781 294.5 L 492.359375 294.367188 L 494.832031 294.066406 L 497.636719 293.878906 L 500.730469 293.824219 L 502.15625 293.84375 L 504.105469 293.917969 L 506.769531 294.125 L 508.289062 294.3125 L 509.480469 294.5 L 510.714844 294.742188 L 512.238281 295.117188 L 513.664062 295.570312 L 514.804688 296.019531 L 515.949219 296.582031 L 516.898438 297.183594 L 517.707031 297.839844 L 518.421875 298.628906 L 518.847656 299.285156 L 519.132812 299.941406 L 512.523438 299.941406 L 512.144531 299.285156 L 511.714844 298.777344 L 511 298.15625 L 510.289062 297.707031 L 509.574219 297.351562 L 508.242188 296.863281 L 507.101562 296.5625 L 505.675781 296.300781 L 504.296875 296.132812 L 502.726562 296.019531 L 501.773438 295.980469 L 499.253906 295.980469 L 496.972656 296.113281 L 495.640625 296.261719 L 494.6875 296.414062 L 493.359375 296.695312 L 492.550781 296.917969 L 492.074219 297.070312 L 490.648438 297.652344 L 489.695312 298.175781 L 489.171875 298.535156 L 488.507812 299.097656 L 488.03125 299.601562 L 487.507812 300.351562 L 487.222656 300.917969 L 486.84375 302.191406 L 486.792969 305.570312 L 486.9375 306.28125 L 487.222656 307.050781 L 487.601562 307.726562 L 488.171875 308.441406 L 488.746094 308.984375 L 489.742188 309.71875 L 490.597656 310.203125 L 491.265625 310.523438 L 492.550781 311.03125 L 493.070312 311.199219 L 494.308594 311.539062 L 495.59375 311.800781 L 497.164062 312.023438 L 498.351562 312.136719 L 500.253906 312.230469 L 502.679688 312.230469 L 505.53125 312.117188 L 507.339844 311.96875 L 508.578125 311.820312 L 509.386719 311.6875 L 510.382812 311.480469 L 511.097656 311.292969 L 511.761719 311.085938 L 512.570312 310.769531 L 512.570312 306.28125 L 500.824219 306.265625 L 500.824219 304.164062 L 519.085938 304.144531 L 519.132812 311.480469 L 518.136719 311.988281 L 516.898438 312.476562 L 515.710938 312.851562 L 514.472656 313.167969 L 512.714844 313.527344 L 511.289062 313.75 L 509.097656 314.015625 L 507.101562 314.183594 L 505.007812 314.296875 L 503.15625 314.351562 L 500.96875 314.371094 L 499.015625 314.332031 L 496.925781 314.21875 L 495.261719 314.070312 L 493.738281 313.882812 L 492.214844 313.640625 L 490.3125 313.246094 L 489.078125 312.925781 L 487.792969 312.53125 L 486.507812 312.0625 L 485.367188 311.554688 L 484.605469 311.160156 L 483.847656 310.710938 L 483.039062 310.148438 L 482.277344 309.511719 L 481.707031 308.929688 L 481.183594 308.273438 L 480.800781 307.652344 L 480.421875 306.808594 L 480.230469 306.132812 L 480.136719 305.550781 Z M 480.136719 302.625 "/>
<path style=" stroke:none;fill-rule:nonzero;fill:rgb(83.921569%,15.686275%,22.352941%);fill-opacity:1;" d="M 480.136719 87.597656 L 519.132812 87.597656 L 519.132812 109.546875 L 502.882812 109.738281 L 502.882812 292.644531 L 496.34375 292.644531 L 496.34375 109.929688 L 496.246094 109.546875 L 480.136719 109.546875 Z M 480.136719 87.597656 "/>
<path style=" stroke:none;fill-rule:nonzero;fill:rgb(14.509804%,36.078431%,60%);fill-opacity:1;" d="M 521.1875 314.0625 L 521.234375 314.0625 L 521.234375 314.050781 L 521.378906 314.03125 L 521.710938 314.007812 L 522.042969 313.992188 L 522.898438 313.960938 L 524.089844 313.933594 L 525.324219 313.910156 L 526.226562 313.898438 L 527.035156 313.886719 L 528.890625 313.871094 L 530.082031 313.859375 L 531.363281 313.851562 L 532.933594 313.84375 L 534.074219 313.839844 L 536.644531 313.832031 L 538.546875 313.828125 L 540.019531 313.824219 L 543.207031 313.824219 L 545.109375 313.828125 L 546.488281 313.828125 L 548.011719 313.832031 L 549.292969 313.839844 L 551.53125 313.847656 L 553.527344 313.863281 L 554.429688 313.871094 L 555.855469 313.886719 L 556.949219 313.902344 L 557.710938 313.914062 L 558.566406 313.933594 L 559.328125 313.957031 L 559.898438 313.980469 L 560.183594 314.003906 L 553.527344 314.003906 L 553.195312 313.980469 L 552.8125 313.96875 L 552.101562 313.945312 L 551.386719 313.933594 L 550.386719 313.917969 L 549.484375 313.90625 L 548.246094 313.898438 L 547.152344 313.894531 L 546.011719 313.886719 L 544.917969 313.886719 L 542.824219 313.882812 L 539.496094 313.882812 L 537.640625 313.886719 L 536.644531 313.890625 L 535.214844 313.898438 L 534.21875 313.902344 L 533.027344 313.914062 L 532.21875 313.921875 L 531.222656 313.933594 L 530.507812 313.945312 L 529.699219 313.964844 L 529.222656 313.976562 L 528.796875 313.988281 L 528.414062 314.007812 L 528.128906 314.023438 L 527.941406 314.042969 L 527.84375 314.058594 L 527.84375 314.136719 L 527.941406 314.15625 L 528.179688 314.175781 L 528.796875 314.207031 L 529.699219 314.234375 L 530.746094 314.253906 L 531.746094 314.269531 L 532.316406 314.277344 L 533.078125 314.285156 L 534.265625 314.292969 L 535.976562 314.304688 L 536.976562 314.308594 L 538.5 314.3125 L 544.015625 314.3125 L 545.25 314.308594 L 546.535156 314.304688 L 548.296875 314.296875 L 549.390625 314.289062 L 550.339844 314.28125 L 551.53125 314.261719 L 552.242188 314.246094 L 552.8125 314.230469 L 553.242188 314.210938 L 553.527344 314.195312 L 560.183594 314.195312 L 559.898438 314.214844 L 559.472656 314.234375 L 559.042969 314.25 L 558.378906 314.265625 L 557.617188 314.28125 L 556.523438 314.300781 L 555.621094 314.3125 L 554.429688 314.324219 L 553.335938 314.332031 L 552.148438 314.339844 L 550.386719 314.351562 L 549.246094 314.355469 L 548.011719 314.359375 L 546.535156 314.363281 L 544.679688 314.367188 L 542.683594 314.371094 L 538.832031 314.371094 L 537.355469 314.367188 L 535.40625 314.363281 L 532.980469 314.355469 L 531.222656 314.34375 L 529.84375 314.335938 L 528.652344 314.324219 L 527.320312 314.3125 L 525.609375 314.289062 L 524.5625 314.273438 L 523.851562 314.257812 L 523.042969 314.238281 L 522.472656 314.222656 L 521.804688 314.195312 L 521.328125 314.160156 L 521.1875 314.132812 Z M 521.1875 314.0625 "/>
<path style=" stroke:none;fill-rule:nonzero;fill:rgb(83.921569%,15.686275%,22.352941%);fill-opacity:1;" d="M 521.1875 28.472656 L 560.183594 28.472656 L 560.183594 58.894531 L 543.933594 59.160156 L 543.933594 312.644531 L 537.394531 312.644531 L 537.394531 59.425781 L 537.296875 58.894531 L 521.1875 58.894531 Z M 521.1875 28.472656 "/>
<path style=" stroke:none;fill-rule:nonzero;fill:rgb(96.862745%,70.196078%,16.862745%);fill-opacity:1;" d="M 562.238281 146.460938 L 562.285156 146.191406 L 562.285156 140.828125 L 562.476562 128.757812 L 562.949219 112.128906 L 563.570312 98.449219 L 564.234375 87.71875 L 564.664062 82.085938 L 565.375 74.039062 L 565.996094 68.140625 L 567.5625 56.070312 L 569.5625 44.804688 L 570.65625 39.976562 L 571.890625 35.414062 L 573.652344 30.320312 L 574.460938 28.441406 L 576.933594 24.148438 L 579.738281 21.46875 L 582.832031 20.664062 L 584.257812 20.929688 L 586.207031 22.003906 L 588.871094 24.953125 L 590.390625 27.636719 L 591.582031 30.320312 L 592.816406 33.804688 L 594.339844 39.171875 L 595.765625 45.609375 L 596.90625 52.046875 L 598.050781 60.09375 L 599 68.675781 L 599.808594 78.0625 L 600.523438 89.328125 L 600.949219 98.714844 L 601.234375 108.105469 L 594.625 108.105469 L 594.246094 98.714844 L 593.816406 91.476562 L 593.101562 82.625 L 592.390625 76.1875 L 591.675781 71.089844 L 590.34375 64.117188 L 589.203125 59.824219 L 587.777344 56.070312 L 586.398438 53.65625 L 584.828125 52.046875 L 583.875 51.507812 L 581.355469 51.507812 L 579.074219 53.386719 L 577.742188 55.53125 L 576.789062 57.679688 L 575.457031 61.703125 L 574.648438 64.921875 L 574.175781 67.066406 L 572.746094 75.382812 L 571.796875 82.890625 L 571.273438 87.988281 L 570.609375 96.035156 L 570.132812 103.277344 L 569.609375 114.003906 L 569.324219 122.050781 L 568.941406 140.292969 L 568.894531 188.574219 L 569.039062 198.765625 L 569.324219 209.761719 L 569.703125 219.417969 L 570.273438 229.609375 L 570.84375 237.390625 L 571.84375 247.851562 L 572.699219 254.824219 L 573.367188 259.382812 L 574.648438 266.625 L 575.171875 269.039062 L 576.410156 273.867188 L 577.695312 277.625 L 579.261719 280.84375 L 580.453125 282.453125 L 582.355469 283.792969 L 584.78125 283.792969 L 587.632812 282.183594 L 589.441406 280.039062 L 590.675781 277.890625 L 591.484375 276.015625 L 592.484375 273.0625 L 593.199219 270.382812 L 593.863281 267.429688 L 594.671875 262.871094 L 594.671875 198.765625 L 582.925781 198.496094 L 582.925781 168.457031 L 601.1875 168.1875 L 601.234375 273.0625 L 600.238281 280.304688 L 599 287.28125 L 597.8125 292.644531 L 596.574219 297.203125 L 594.816406 302.300781 L 593.386719 305.519531 L 591.199219 309.273438 L 589.203125 311.6875 L 587.109375 313.296875 L 585.257812 314.101562 L 583.066406 314.371094 L 581.117188 313.835938 L 579.027344 312.226562 L 577.359375 310.078125 L 575.839844 307.398438 L 574.316406 303.910156 L 572.414062 298.277344 L 571.179688 293.71875 L 569.894531 288.085938 L 568.609375 281.378906 L 567.46875 274.136719 L 566.707031 268.503906 L 565.945312 262.066406 L 565.136719 254.019531 L 564.378906 244.898438 L 563.808594 236.585938 L 563.285156 227.195312 L 562.902344 218.34375 L 562.523438 206.277344 L 562.332031 196.621094 L 562.238281 188.304688 Z M 562.238281 146.460938 "/>
<path style=" stroke:none;fill-rule:nonzero;fill:rgb(6.27451%,58.823529%,28.235294%);fill-opacity:1;" d="M 603.289062 310.539062 L 603.328125 310.539062 L 620.203125 306.511719 L 625.328125 306.511719 L 642.285156 310.542969 L 636.328125 310.542969 L 632.078125 309.492188 L 613.453125 309.492188 L 609.289062 310.539062 L 603.289062 310.539062 L 615.246094 309.058594 L 630.371094 309.054688 L 622.828125 307.171875 L 622.746094 307.167969 L 622.664062 307.179688 L 615.203125 309.054688 L 615.246094 309.058594 Z M 603.289062 310.539062 "/>
<path style=" stroke:none;fill-rule:nonzero;fill:rgb(14.509804%,36.078431%,60%);fill-opacity:1;" d="M 603.289062 296.3125 L 603.335938 296.296875 L 603.335938 295.945312 L 603.476562 295.390625 L 603.8125 294.691406 L 604.144531 294.210938 L 605 293.347656 L 606.1875 292.515625 L 607.425781 291.875 L 608.328125 291.492188 L 609.136719 291.203125 L 610.992188 290.660156 L 612.183594 290.382812 L 613.464844 290.136719 L 615.035156 289.886719 L 616.175781 289.742188 L 618.746094 289.507812 L 620.648438 289.40625 L 622.121094 289.363281 L 625.308594 289.363281 L 627.210938 289.421875 L 628.589844 289.492188 L 630.109375 289.609375 L 631.394531 289.742188 L 633.628906 290.0625 L 635.628906 290.472656 L 636.53125 290.707031 L 637.957031 291.160156 L 639.050781 291.597656 L 639.8125 291.976562 L 640.667969 292.515625 L 641.429688 293.171875 L 642 293.917969 L 642.285156 294.546875 L 635.628906 294.546875 L 635.296875 293.960938 L 634.914062 293.507812 L 634.203125 292.910156 L 633.488281 292.488281 L 632.488281 292.0625 L 631.585938 291.785156 L 630.347656 291.507812 L 629.253906 291.332031 L 628.113281 291.203125 L 627.019531 291.113281 L 624.925781 291.027344 L 622.5 291.027344 L 621.597656 291.054688 L 619.742188 291.171875 L 618.746094 291.273438 L 617.316406 291.480469 L 616.320312 291.667969 L 615.128906 291.960938 L 614.320312 292.210938 L 613.324219 292.589844 L 612.609375 292.925781 L 611.800781 293.40625 L 611.324219 293.773438 L 610.898438 294.179688 L 610.515625 294.660156 L 610.230469 295.171875 L 610.042969 295.714844 L 609.945312 296.238281 L 609.945312 298.5 L 610.042969 299.027344 L 610.28125 299.640625 L 610.898438 300.53125 L 611.800781 301.304688 L 612.847656 301.917969 L 613.847656 302.355469 L 614.417969 302.558594 L 615.179688 302.792969 L 616.367188 303.085938 L 618.078125 303.378906 L 619.078125 303.496094 L 620.597656 303.609375 L 622.167969 303.667969 L 624.261719 303.667969 L 626.117188 303.609375 L 627.351562 303.539062 L 628.636719 303.421875 L 630.398438 303.171875 L 631.492188 302.941406 L 632.441406 302.660156 L 633.15625 302.382812 L 633.628906 302.152344 L 634.34375 301.699219 L 634.914062 301.203125 L 635.34375 300.691406 L 635.628906 300.195312 L 642.285156 300.195312 L 642 300.777344 L 641.574219 301.347656 L 641.144531 301.773438 L 640.480469 302.28125 L 639.71875 302.734375 L 638.625 303.246094 L 637.722656 303.582031 L 636.53125 303.945312 L 635.4375 304.222656 L 634.25 304.472656 L 632.488281 304.765625 L 631.347656 304.910156 L 630.109375 305.042969 L 628.636719 305.160156 L 626.78125 305.261719 L 624.785156 305.320312 L 622.929688 305.332031 L 620.933594 305.304688 L 619.457031 305.246094 L 617.507812 305.113281 L 615.082031 304.851562 L 613.324219 304.574219 L 611.945312 304.296875 L 610.753906 304.003906 L 609.421875 303.609375 L 607.710938 302.96875 L 606.664062 302.472656 L 605.953125 302.0625 L 605.144531 301.496094 L 604.574219 300.984375 L 603.90625 300.164062 L 603.429688 299.128906 L 603.289062 298.328125 Z M 603.289062 296.3125 "/>
<path style=" stroke:none;fill-rule:nonzero;fill:rgb(96.862745%,70.196078%,16.862745%);fill-opacity:1;" d="M 603.289062 312.859375 L 603.335938 312.855469 L 603.335938 312.808594 L 603.527344 312.699219 L 604 312.546875 L 604.621094 312.425781 L 605.285156 312.328125 L 605.714844 312.277344 L 606.425781 312.207031 L 607.046875 312.152344 L 608.613281 312.042969 L 610.613281 311.941406 L 611.707031 311.898438 L 612.941406 311.855469 L 614.703125 311.8125 L 615.511719 311.792969 L 617.984375 311.753906 L 620.789062 311.730469 L 623.882812 311.722656 L 625.308594 311.726562 L 627.257812 311.738281 L 629.921875 311.761719 L 631.441406 311.789062 L 632.632812 311.8125 L 633.867188 311.84375 L 635.390625 311.890625 L 636.816406 311.949219 L 637.957031 312.007812 L 639.101562 312.078125 L 640.050781 312.15625 L 640.859375 312.242188 L 641.574219 312.34375 L 642 312.425781 L 642.285156 312.511719 L 635.675781 312.511719 L 635.296875 312.425781 L 634.867188 312.363281 L 634.152344 312.28125 L 633.441406 312.222656 L 632.726562 312.179688 L 631.394531 312.117188 L 630.253906 312.078125 L 628.828125 312.042969 L 627.449219 312.023438 L 625.878906 312.007812 L 624.925781 312.003906 L 622.40625 312.003906 L 620.125 312.019531 L 618.792969 312.039062 L 617.839844 312.058594 L 616.507812 312.09375 L 615.699219 312.125 L 615.226562 312.140625 L 613.796875 312.21875 L 612.847656 312.285156 L 612.324219 312.332031 L 611.660156 312.402344 L 611.183594 312.46875 L 610.660156 312.566406 L 610.375 312.636719 L 609.992188 312.800781 L 609.945312 313.238281 L 610.089844 313.328125 L 610.375 313.429688 L 610.753906 313.515625 L 611.324219 313.605469 L 611.894531 313.675781 L 612.894531 313.769531 L 613.75 313.835938 L 614.417969 313.875 L 615.699219 313.941406 L 616.222656 313.960938 L 617.460938 314.003906 L 618.746094 314.039062 L 620.3125 314.070312 L 621.503906 314.082031 L 623.40625 314.09375 L 625.832031 314.09375 L 628.683594 314.082031 L 630.492188 314.0625 L 631.726562 314.042969 L 632.535156 314.023438 L 633.535156 314 L 634.25 313.972656 L 634.914062 313.949219 L 635.722656 313.90625 L 635.722656 313.328125 L 623.976562 313.328125 L 623.976562 313.054688 L 642.238281 313.054688 L 642.285156 314 L 641.289062 314.0625 L 640.050781 314.125 L 638.863281 314.175781 L 637.625 314.214844 L 635.867188 314.261719 L 634.4375 314.289062 L 632.25 314.324219 L 630.253906 314.347656 L 628.160156 314.359375 L 626.304688 314.367188 L 624.117188 314.371094 L 622.167969 314.367188 L 620.078125 314.351562 L 618.410156 314.332031 L 616.890625 314.308594 L 615.367188 314.277344 L 613.464844 314.226562 L 612.230469 314.183594 L 610.945312 314.132812 L 609.660156 314.074219 L 608.519531 314.007812 L 607.757812 313.957031 L 606.996094 313.898438 L 606.1875 313.828125 L 605.429688 313.746094 L 604.859375 313.667969 L 604.335938 313.585938 L 603.953125 313.503906 L 603.574219 313.398438 L 603.382812 313.308594 L 603.289062 313.234375 Z M 603.289062 312.859375 "/>
<path style=" stroke:none;fill-rule:nonzero;fill:rgb(83.921569%,15.686275%,22.352941%);fill-opacity:1;" d="M 603.289062 136.589844 L 642.285156 136.589844 L 642.285156 152.816406 L 626.03125 152.960938 L 626.03125 288.183594 L 619.492188 288.183594 L 619.492188 153.101562 L 619.398438 152.816406 L 603.289062 152.816406 Z M 603.289062 136.589844 "/>
<path style=" stroke:none;fill-rule:nonzero;fill:rgb(6.27451%,58.823529%,28.235294%);fill-opacity:1;" d="M 644.339844 314.363281 L 644.378906 314.359375 L 661.253906 308.316406 L 666.378906 308.316406 L 683.335938 314.371094 L 677.378906 314.371094 L 673.128906 312.789062 L 654.503906 312.789062 L 650.339844 314.363281 L 644.339844 314.363281 L 656.296875 312.136719 L 671.421875 312.128906 L 663.878906 309.304688 L 663.796875 309.300781 L 663.714844 309.316406 L 656.253906 312.128906 L 656.296875 312.136719 Z M 644.339844 314.363281 "/>
<path style=" stroke:none;fill-rule:nonzero;fill:rgb(14.509804%,36.078431%,60%);fill-opacity:1;" d="M 644.339844 293.109375 L 644.386719 293.101562 L 644.386719 292.890625 L 644.527344 292.5625 L 644.863281 292.140625 L 645.195312 291.855469 L 646.050781 291.339844 L 647.238281 290.84375 L 648.476562 290.457031 L 649.378906 290.230469 L 650.1875 290.058594 L 652.042969 289.734375 L 653.230469 289.570312 L 654.515625 289.421875 L 656.085938 289.273438 L 657.226562 289.183594 L 659.796875 289.046875 L 661.699219 288.984375 L 663.171875 288.957031 L 666.359375 288.957031 L 668.261719 288.992188 L 669.640625 289.035156 L 671.160156 289.105469 L 672.445312 289.183594 L 674.679688 289.378906 L 676.679688 289.621094 L 677.582031 289.761719 L 679.007812 290.03125 L 680.101562 290.292969 L 680.863281 290.519531 L 681.71875 290.84375 L 682.480469 291.234375 L 683.050781 291.679688 L 683.335938 292.054688 L 676.679688 292.054688 L 676.347656 291.707031 L 675.964844 291.433594 L 675.253906 291.078125 L 674.539062 290.824219 L 673.539062 290.570312 L 672.636719 290.40625 L 671.398438 290.242188 L 670.304688 290.136719 L 669.164062 290.058594 L 668.070312 290.003906 L 665.976562 289.953125 L 663.550781 289.953125 L 662.648438 289.96875 L 660.792969 290.039062 L 659.796875 290.101562 L 658.367188 290.222656 L 657.371094 290.335938 L 656.179688 290.511719 L 655.371094 290.660156 L 654.375 290.886719 L 653.660156 291.085938 L 652.851562 291.375 L 652.375 291.59375 L 651.949219 291.835938 L 651.566406 292.125 L 651.28125 292.429688 L 651.09375 292.753906 L 650.996094 293.066406 L 650.996094 294.417969 L 651.09375 294.734375 L 651.328125 295.097656 L 651.949219 295.628906 L 652.851562 296.09375 L 653.898438 296.460938 L 654.898438 296.722656 L 655.46875 296.84375 L 656.230469 296.984375 L 657.417969 297.15625 L 659.128906 297.332031 L 660.128906 297.402344 L 661.648438 297.472656 L 663.21875 297.507812 L 665.3125 297.507812 L 667.167969 297.472656 L 668.402344 297.425781 L 669.6875 297.359375 L 671.449219 297.210938 L 672.542969 297.070312 L 673.492188 296.902344 L 674.207031 296.738281 L 674.679688 296.597656 L 675.394531 296.328125 L 675.964844 296.03125 L 676.394531 295.726562 L 676.679688 295.429688 L 683.335938 295.429688 L 683.050781 295.777344 L 682.625 296.121094 L 682.195312 296.371094 L 681.53125 296.675781 L 680.769531 296.949219 L 679.675781 297.253906 L 678.769531 297.453125 L 677.582031 297.671875 L 676.488281 297.835938 L 675.300781 297.984375 L 673.539062 298.160156 L 672.398438 298.246094 L 671.160156 298.324219 L 669.6875 298.394531 L 667.832031 298.457031 L 665.835938 298.492188 L 663.980469 298.5 L 661.984375 298.484375 L 660.507812 298.449219 L 658.558594 298.371094 L 656.132812 298.210938 L 654.375 298.046875 L 652.996094 297.882812 L 651.804688 297.707031 L 650.472656 297.472656 L 648.761719 297.085938 L 647.714844 296.789062 L 647.003906 296.546875 L 646.195312 296.207031 L 645.621094 295.902344 L 644.957031 295.414062 L 644.480469 294.792969 L 644.339844 294.3125 Z M 644.339844 293.109375 "/>
<path style=" stroke:none;fill-rule:nonzero;fill:rgb(96.862745%,70.196078%,16.862745%);fill-opacity:1;" d="M 644.339844 302.875 L 644.386719 302.867188 L 644.386719 302.730469 L 644.578125 302.425781 L 645.050781 302 L 645.671875 301.65625 L 646.335938 301.382812 L 646.765625 301.238281 L 647.476562 301.035156 L 648.097656 300.886719 L 649.664062 300.578125 L 651.664062 300.292969 L 652.757812 300.171875 L 653.992188 300.054688 L 655.753906 299.925781 L 656.5625 299.878906 L 659.035156 299.769531 L 661.839844 299.699219 L 664.933594 299.679688 L 666.359375 299.6875 L 668.308594 299.714844 L 670.972656 299.789062 L 672.492188 299.855469 L 673.683594 299.925781 L 674.917969 300.011719 L 676.441406 300.148438 L 677.867188 300.3125 L 679.007812 300.476562 L 680.152344 300.679688 L 681.101562 300.898438 L 681.910156 301.136719 L 682.625 301.421875 L 683.050781 301.660156 L 683.335938 301.898438 L 676.726562 301.898438 L 676.347656 301.660156 L 675.917969 301.476562 L 675.203125 301.253906 L 674.492188 301.089844 L 673.777344 300.960938 L 672.445312 300.78125 L 671.304688 300.675781 L 669.878906 300.578125 L 668.5 300.515625 L 666.929688 300.476562 L 665.976562 300.464844 L 663.457031 300.464844 L 661.175781 300.511719 L 659.84375 300.566406 L 658.890625 300.621094 L 657.558594 300.722656 L 656.75 300.804688 L 656.277344 300.859375 L 654.847656 301.070312 L 653.898438 301.257812 L 653.375 301.390625 L 652.710938 301.59375 L 652.234375 301.777344 L 651.710938 302.050781 L 651.425781 302.253906 L 651.042969 302.71875 L 650.996094 303.941406 L 651.140625 304.203125 L 651.425781 304.480469 L 651.804688 304.726562 L 652.375 304.984375 L 652.945312 305.183594 L 653.945312 305.449219 L 654.800781 305.625 L 655.46875 305.738281 L 656.75 305.925781 L 657.273438 305.984375 L 658.511719 306.109375 L 659.796875 306.203125 L 661.363281 306.285156 L 662.554688 306.324219 L 664.457031 306.359375 L 666.882812 306.359375 L 669.734375 306.320312 L 671.542969 306.265625 L 672.777344 306.210938 L 673.585938 306.164062 L 674.585938 306.085938 L 675.300781 306.019531 L 675.964844 305.945312 L 676.773438 305.828125 L 676.773438 304.203125 L 665.027344 304.195312 L 665.027344 303.433594 L 683.289062 303.425781 L 683.335938 306.085938 L 682.339844 306.269531 L 681.101562 306.449219 L 679.914062 306.585938 L 678.675781 306.699219 L 676.917969 306.828125 L 675.488281 306.910156 L 673.300781 307.007812 L 671.304688 307.066406 L 669.210938 307.109375 L 667.355469 307.128906 L 665.167969 307.136719 L 663.21875 307.121094 L 661.128906 307.082031 L 659.460938 307.027344 L 657.941406 306.960938 L 656.417969 306.871094 L 654.515625 306.726562 L 653.28125 306.613281 L 651.996094 306.46875 L 650.710938 306.296875 L 649.570312 306.113281 L 648.808594 305.972656 L 648.046875 305.808594 L 647.238281 305.605469 L 646.480469 305.371094 L 645.910156 305.160156 L 645.386719 304.921875 L 645.003906 304.699219 L 644.625 304.390625 L 644.433594 304.148438 L 644.339844 303.9375 Z M 644.339844 302.875 "/>
<path style=" stroke:none;fill-rule:nonzero;fill:rgb(83.921569%,15.686275%,22.352941%);fill-opacity:1;" d="M 644.339844 240.109375 L 683.335938 240.109375 L 683.335938 245.210938 L 667.082031 245.257812 L 667.082031 287.777344 L 660.542969 287.777344 L 660.542969 245.300781 L 660.449219 245.210938 L 644.339844 245.210938 Z M 644.339844 240.109375 "/>
<g style="fill:rgb(0%,0%,0%);fill-opacity:1;">
  <use xlink:href="#glyph0-1" x="21.957031" y="318.198242"/>
  <use xlink:href="#glyph0-2" x="27.291016" y="318.198242"/>
  <use xlink:href="#glyph0-1" x="29.958008" y="318.198242"/>
</g>
<g style="fill:rgb(0%,0%,0%);fill-opacity:1;">
  <use xlink:href="#glyph0-1" x="21.957031" y="244.475586"/>
  <use xlink:href="#glyph0-2" x="27.291016" y="244.475586"/>
  <use xlink:href="#glyph0-3" x="29.958008" y="244.475586"/>
</g>
<g style="fill:rgb(0%,0%,0%);fill-opacity:1;">
  <use xlink:href="#glyph0-4" x="21.957031" y="170.75293"/>
  <use xlink:href="#glyph0-2" x="27.291016" y="170.75293"/>
  <use xlink:href="#glyph0-1" x="29.958008" y="170.75293"/>
</g>
<g style="fill:rgb(0%,0%,0%);fill-opacity:1;">
  <use xlink:href="#glyph0-4" x="21.957031" y="97.03418"/>
  <use xlink:href="#glyph0-2" x="27.291016" y="97.03418"/>
  <use xlink:href="#glyph0-3" x="29.958008" y="97.03418"/>
</g>
<g style="fill:rgb(0%,0%,0%);fill-opacity:1;">
  <use xlink:href="#glyph0-5" x="21.957031" y="23.311523"/>
  <use xlink:href="#glyph0-2" x="27.291016" y="23.311523"/>
  <use xlink:href="#glyph0-1" x="29.958008" y="23.311523"/>
</g>
<g style="fill:rgb(0%,0%,0%);fill-opacity:1;">
  <use xlink:href="#glyph0-4" x="86.128906" y="338.19043"/>
</g>
<g style="fill:rgb(0%,0%,0%);fill-opacity:1;">
  <use xlink:href="#glyph0-5" x="127.179688" y="338.19043"/>
</g>
<g style="fill:rgb(0%,0%,0%);fill-opacity:1;">
  <use xlink:href="#glyph0-6" x="168.230469" y="338.19043"/>
</g>
<g style="fill:rgb(0%,0%,0%);fill-opacity:1;">
  <use xlink:href="#glyph0-7" x="209.28125" y="338.19043"/>
</g>
<g style="fill:rgb(0%,0%,0%);fill-opacity:1;">
  <use xlink:href="#glyph0-3" x="250.332031" y="338.19043"/>
</g>
<g style="fill:rgb(0%,0%,0%);fill-opacity:1;">
  <use xlink:href="#glyph0-8" x="291.382812" y="338.19043"/>
</g>
<g style="fill:rgb(0%,0%,0%);fill-opacity:1;">
  <use xlink:href="#glyph0-9" x="332.433594" y="338.19043"/>
</g>
<g style="fill:rgb(0%,0%,0%);fill-opacity:1;">
  <use xlink:href="#glyph0-10" x="373.484375" y="338.19043"/>
</g>
<g style="fill:rgb(0%,0%,0%);fill-opacity:1;">
  <use xlink:href="#glyph0-11" x="414.535156" y="338.19043"/>
</g>
<g style="fill:rgb(0%,0%,0%);fill-opacity:1;">
  <use xlink:href="#glyph0-4" x="453.085938" y="338.19043"/>
  <use xlink:href="#glyph0-1" x="458.419922" y="338.19043"/>
</g>
<g style="fill:rgb(0%,0%,0%);fill-opacity:1;">
  <use xlink:href="#glyph0-4" x="494.136719" y="338.19043"/>
  <use xlink:href="#glyph0-4" x="499.470703" y="338.19043"/>
</g>
<g style="fill:rgb(0%,0%,0%);fill-opacity:1;">
  <use xlink:href="#glyph0-4" x="535.1875" y="338.19043"/>
  <use xlink:href="#glyph0-5" x="540.521484" y="338.19043"/>
</g>
<g style="fill:rgb(0%,0%,0%);fill-opacity:1;">
  <use xlink:href="#glyph0-4" x="576.238281" y="338.19043"/>
  <use xlink:href="#glyph0-6" x="581.572266" y="338.19043"/>
</g>
<g style="fill:rgb(0%,0%,0%);fill-opacity:1;">
  <use xlink:href="#glyph0-4" x="617.289062" y="338.19043"/>
  <use xlink:href="#glyph0-7" x="622.623047" y="338.19043"/>
</g>
<g style="fill:rgb(0%,0%,0%);fill-opacity:1;">
  <use xlink:href="#glyph0-4" x="658.339844" y="338.19043"/>
  <use xlink:href="#glyph0-3" x="663.673828" y="338.19043"/>
</g>
<g style="fill:rgb(0%,0%,0%);fill-opacity:1;">
  <use xlink:href="#glyph1-1" x="14.412109" y="178.015625"/>
  <use xlink:href="#glyph1-2" x="14.412109" y="170.011719"/>
  <use xlink:href="#glyph1-3" x="14.412109" y="167.347656"/>
  <use xlink:href="#glyph1-4" x="14.412109" y="164.011719"/>
</g>
</g>
</svg>
