<?xml version="1.0" encoding="UTF-8"?>
<svg xmlns="http://www.w3.org/2000/svg" xmlns:xlink="http://www.w3.org/1999/xlink" width="720pt" height="360pt" viewBox="0 0 720 360" version="1.1">
<defs>
<g>
<symbol overflow="visible" id="glyph0-0">
<path style="stroke:none;" d=""/>
</symbol>
<symbol overflow="visible" id="glyph0-1">
<path style="stroke:none;" d="M 2.640625 -6.796875 C 2 -6.796875 1.421875 -6.53125 1.078125 -6.046875 C 0.640625 -5.453125 0.40625 -4.546875 0.40625 -3.296875 C 0.40625 -1 1.1875 0.21875 2.640625 0.21875 C 4.078125 0.21875 4.859375 -1 4.859375 -3.234375 C 4.859375 -4.5625 4.65625 -5.4375 4.203125 -6.046875 C 3.84375 -6.53125 3.28125 -6.796875 2.640625 -6.796875 Z M 2.640625 -6.046875 C 3.546875 -6.046875 4 -5.125 4 -3.3125 C 4 -1.375 3.5625 -0.484375 2.625 -0.484375 C 1.734375 -0.484375 1.28125 -1.421875 1.28125 -3.28125 C 1.28125 -5.140625 1.734375 -6.046875 2.640625 -6.046875 Z M 2.640625 -6.046875 "/>
</symbol>
<symbol overflow="visible" id="glyph0-2">
<path style="stroke:none;" d="M 1.828125 -1 L 0.828125 -1 L 0.828125 0 L 1.828125 0 Z M 1.828125 -1 "/>
</symbol>
<symbol overflow="visible" id="glyph0-3">
<path style="stroke:none;" d="M 4.5625 -6.796875 L 1.0625 -6.796875 L 0.546875 -3.09375 L 1.328125 -3.09375 C 1.71875 -3.5625 2.046875 -3.734375 2.578125 -3.734375 C 3.484375 -3.734375 4.0625 -3.109375 4.0625 -2.09375 C 4.0625 -1.125 3.484375 -0.53125 2.578125 -0.53125 C 1.828125 -0.53125 1.375 -0.90625 1.1875 -1.671875 L 0.328125 -1.671875 C 0.453125 -1.109375 0.546875 -0.84375 0.75 -0.59375 C 1.125 -0.078125 1.828125 0.21875 2.59375 0.21875 C 3.96875 0.21875 4.921875 -0.78125 4.921875 -2.21875 C 4.921875 -3.5625 4.03125 -4.484375 2.71875 -4.484375 C 2.25 -4.484375 1.859375 -4.359375 1.46875 -4.0625 L 1.734375 -5.96875 L 4.5625 -5.96875 Z M 4.5625 -6.796875 "/>
</symbol>
<symbol overflow="visible" id="glyph0-4">
<path style="stroke:none;" d="M 2.484375 -4.84375 L 2.484375 0 L 3.328125 0 L 3.328125 -6.796875 L 2.765625 -6.796875 C 2.46875 -5.75 2.28125 -5.609375 0.984375 -5.453125 L 0.984375 -4.84375 Z M 2.484375 -4.84375 "/>
</symbol>
<symbol overflow="visible" id="glyph0-5">
<path style="stroke:none;" d="M 4.859375 -0.828125 L 1.28125 -0.828125 C 1.359375 -1.390625 1.671875 -1.75 2.5 -2.234375 L 3.46875 -2.75 C 4.40625 -3.265625 4.90625 -3.96875 4.90625 -4.8125 C 4.90625 -5.375 4.671875 -5.90625 4.265625 -6.265625 C 3.859375 -6.625 3.375 -6.796875 2.71875 -6.796875 C 1.859375 -6.796875 1.21875 -6.5 0.84375 -5.921875 C 0.609375 -5.5625 0.5 -5.125 0.484375 -4.4375 L 1.328125 -4.4375 C 1.359375 -4.90625 1.40625 -5.1875 1.53125 -5.40625 C 1.75 -5.8125 2.1875 -6.0625 2.703125 -6.0625 C 3.46875 -6.0625 4.03125 -5.515625 4.03125 -4.78125 C 4.03125 -4.25 3.71875 -3.796875 3.125 -3.4375 L 2.234375 -2.9375 C 0.8125 -2.140625 0.40625 -1.5 0.328125 0 L 4.859375 0 Z M 4.859375 -0.828125 "/>
</symbol>
<symbol overflow="visible" id="glyph0-6">
<path style="stroke:none;" d="M 2.125 -3.125 L 2.578125 -3.125 C 3.515625 -3.125 3.984375 -2.703125 3.984375 -1.890625 C 3.984375 -1.03125 3.46875 -0.53125 2.578125 -0.53125 C 1.65625 -0.53125 1.203125 -0.984375 1.15625 -1.96875 L 0.3125 -1.96875 C 0.34375 -1.421875 0.4375 -1.078125 0.609375 -0.765625 C 0.953125 -0.109375 1.625 0.21875 2.546875 0.21875 C 3.953125 0.21875 4.859375 -0.609375 4.859375 -1.90625 C 4.859375 -2.765625 4.515625 -3.25 3.703125 -3.515625 C 4.34375 -3.765625 4.65625 -4.25 4.65625 -4.9375 C 4.65625 -6.109375 3.875 -6.796875 2.578125 -6.796875 C 1.203125 -6.796875 0.484375 -6.046875 0.453125 -4.609375 L 1.296875 -4.609375 C 1.3125 -5.015625 1.34375 -5.25 1.453125 -5.453125 C 1.640625 -5.828125 2.0625 -6.0625 2.59375 -6.0625 C 3.34375 -6.0625 3.796875 -5.625 3.796875 -4.90625 C 3.796875 -4.421875 3.609375 -4.140625 3.25 -3.984375 C 3.015625 -3.890625 2.71875 -3.84375 2.125 -3.84375 Z M 2.125 -3.125 "/>
</symbol>
<symbol overflow="visible" id="glyph0-7">
<path style="stroke:none;" d="M 3.140625 -1.625 L 3.140625 0 L 3.984375 0 L 3.984375 -1.625 L 4.984375 -1.625 L 4.984375 -2.390625 L 3.984375 -2.390625 L 3.984375 -6.796875 L 3.359375 -6.796875 L 0.265625 -2.515625 L 0.265625 -1.625 Z M 3.140625 -2.390625 L 1 -2.390625 L 3.140625 -5.359375 Z M 3.140625 -2.390625 "/>
</symbol>
<symbol overflow="visible" id="glyph0-8">
<path style="stroke:none;" d="M 4.78125 -5.03125 C 4.609375 -6.140625 3.890625 -6.796875 2.84375 -6.796875 C 2.09375 -6.796875 1.421875 -6.4375 1.03125 -5.828125 C 0.609375 -5.171875 0.40625 -4.34375 0.40625 -3.09375 C 0.40625 -1.953125 0.578125 -1.234375 0.984375 -0.625 C 1.359375 -0.078125 1.953125 0.21875 2.703125 0.21875 C 3.984375 0.21875 4.921875 -0.734375 4.921875 -2.078125 C 4.921875 -3.34375 4.0625 -4.234375 2.84375 -4.234375 C 2.171875 -4.234375 1.640625 -3.96875 1.28125 -3.46875 C 1.28125 -5.125 1.828125 -6.046875 2.796875 -6.046875 C 3.390625 -6.046875 3.796875 -5.671875 3.9375 -5.03125 Z M 2.734375 -3.484375 C 3.546875 -3.484375 4.0625 -2.921875 4.0625 -2 C 4.0625 -1.15625 3.484375 -0.53125 2.703125 -0.53125 C 1.921875 -0.53125 1.328125 -1.1875 1.328125 -2.046875 C 1.328125 -2.890625 1.90625 -3.484375 2.734375 -3.484375 Z M 2.734375 -3.484375 "/>
</symbol>
<symbol overflow="visible" id="glyph0-9">
<path style="stroke:none;" d="M 4.984375 -6.796875 L 0.4375 -6.796875 L 0.4375 -5.96875 L 4.109375 -5.96875 C 2.5 -3.65625 1.828125 -2.234375 1.328125 0 L 2.21875 0 C 2.59375 -2.171875 3.453125 -4.046875 4.984375 -6.09375 Z M 4.984375 -6.796875 "/>
</symbol>
<symbol overflow="visible" id="glyph0-10">
<path style="stroke:none;" d="M 3.75 -3.578125 C 4.453125 -4 4.6875 -4.34375 4.6875 -4.984375 C 4.6875 -6.046875 3.84375 -6.796875 2.640625 -6.796875 C 1.4375 -6.796875 0.59375 -6.046875 0.59375 -4.984375 C 0.59375 -4.359375 0.828125 -4.015625 1.515625 -3.578125 C 0.734375 -3.203125 0.359375 -2.640625 0.359375 -1.890625 C 0.359375 -0.640625 1.296875 0.21875 2.640625 0.21875 C 3.984375 0.21875 4.921875 -0.640625 4.921875 -1.875 C 4.921875 -2.640625 4.53125 -3.203125 3.75 -3.578125 Z M 2.640625 -6.046875 C 3.359375 -6.046875 3.8125 -5.625 3.8125 -4.96875 C 3.8125 -4.34375 3.34375 -3.921875 2.640625 -3.921875 C 1.921875 -3.921875 1.453125 -4.34375 1.453125 -4.984375 C 1.453125 -5.625 1.921875 -6.046875 2.640625 -6.046875 Z M 2.640625 -3.203125 C 3.484375 -3.203125 4.0625 -2.671875 4.0625 -1.875 C 4.0625 -1.0625 3.484375 -0.53125 2.625 -0.53125 C 1.796875 -0.53125 1.21875 -1.078125 1.21875 -1.875 C 1.21875 -2.671875 1.796875 -3.203125 2.640625 -3.203125 Z M 2.640625 -3.203125 "/>
</symbol>
<symbol overflow="visible" id="glyph0-11">
<path style="stroke:none;" d="M 0.515625 -1.546875 C 0.671875 -0.4375 1.40625 0.21875 2.4375 0.21875 C 3.1875 0.21875 3.859375 -0.140625 4.265625 -0.75 C 4.6875 -1.40625 4.890625 -2.25 4.890625 -3.484375 C 4.890625 -4.625 4.703125 -5.359375 4.3125 -5.953125 C 3.9375 -6.5 3.34375 -6.796875 2.59375 -6.796875 C 1.296875 -6.796875 0.359375 -5.84375 0.359375 -4.515625 C 0.359375 -3.25 1.234375 -2.34375 2.453125 -2.34375 C 3.09375 -2.34375 3.5625 -2.578125 4.015625 -3.109375 C 4 -1.453125 3.46875 -0.53125 2.5 -0.53125 C 1.90625 -0.53125 1.484375 -0.90625 1.359375 -1.546875 Z M 2.578125 -6.0625 C 3.375 -6.0625 3.96875 -5.40625 3.96875 -4.53125 C 3.96875 -3.6875 3.375 -3.09375 2.546875 -3.09375 C 1.734375 -3.09375 1.234375 -3.671875 1.234375 -4.578125 C 1.234375 -5.4375 1.796875 -6.0625 2.578125 -6.0625 Z M 2.578125 -6.0625 "/>
</symbol>
<symbol overflow="visible" id="glyph1-0">
<path style="stroke:none;" d=""/>
</symbol>
<symbol overflow="visible" id="glyph1-1">
<path style="stroke:none;" d="M 0 -0.953125 L 0 -4.890625 C 0 -5.71875 -0.234375 -6.34375 -0.734375 -6.796875 C -1.1875 -7.234375 -1.8125 -7.46875 -2.5 -7.46875 C -3.546875 -7.46875 -4.1875 -7 -4.625 -5.875 C -4.984375 -6.671875 -5.640625 -7.09375 -6.53125 -7.09375 C -7.15625 -7.09375 -7.734375 -6.859375 -8.140625 -6.390625 C -8.5625 -5.9375 -8.75 -5.34375 -8.75 -4.5 L -8.75 -0.953125 Z M -4.984375 -2.0625 L -7.765625 -2.0625 L -7.765625 -4.21875 C -7.765625 -4.84375 -7.6875 -5.203125 -7.453125 -5.5 C -7.21875 -5.8125 -6.859375 -5.96875 -6.375 -5.96875 C -5.90625 -5.96875 -5.53125 -5.8125 -5.296875 -5.5 C -5.0625 -5.203125 -4.984375 -4.84375 -4.984375 -4.21875 Z M -0.984375 -2.0625 L -4 -2.0625 L -4 -4.78125 C -4 -5.328125 -3.859375 -5.6875 -3.578125 -5.953125 C -3.296875 -6.21875 -2.921875 -6.359375 -2.484375 -6.359375 C -2.0625 -6.359375 -1.6875 -6.21875 -1.40625 -5.953125 C -1.109375 -5.6875 -0.984375 -5.328125 -0.984375 -4.78125 Z M -0.984375 -2.0625 "/>
</symbol>
<symbol overflow="visible" id="glyph1-2">
<path style="stroke:none;" d="M -6.28125 -1.796875 L -6.28125 -0.796875 L 0 -0.796875 L 0 -1.796875 Z M -8.75 -1.796875 L -8.75 -0.796875 L -7.484375 -0.796875 L -7.484375 -1.796875 Z M -8.75 -1.796875 "/>
</symbol>
<symbol overflow="visible" id="glyph1-3">
<path style="stroke:none;" d="M -6.28125 -3.046875 L -6.28125 -2.015625 L -8.015625 -2.015625 L -8.015625 -1.015625 L -6.28125 -1.015625 L -6.28125 -0.171875 L -5.46875 -0.171875 L -5.46875 -1.015625 L -0.71875 -1.015625 C -0.078125 -1.015625 0.28125 -1.453125 0.28125 -2.234375 C 0.28125 -2.46875 0.25 -2.71875 0.1875 -3.046875 L -0.640625 -3.046875 C -0.609375 -2.921875 -0.59375 -2.765625 -0.59375 -2.5625 C -0.59375 -2.140625 -0.71875 -2.015625 -1.15625 -2.015625 L -5.46875 -2.015625 L -5.46875 -3.046875 Z M -6.28125 -3.046875 "/>
</symbol>
<symbol overflow="visible" id="glyph1-4">
<path style="stroke:none;" d="M -4.53125 -5.25 C -5.765625 -5.25 -6.46875 -4.421875 -6.46875 -2.96875 C -6.46875 -1.515625 -5.71875 -0.5625 -4.546875 -0.5625 C -3.5625 -0.5625 -3.09375 -1.0625 -2.734375 -2.5625 L -2.515625 -3.484375 C -2.34375 -4.1875 -2.09375 -4.46875 -1.625 -4.46875 C -1.046875 -4.46875 -0.640625 -3.875 -0.640625 -3 C -0.640625 -2.453125 -0.796875 -2 -1.0625 -1.75 C -1.25 -1.59375 -1.421875 -1.53125 -1.875 -1.46875 L -1.875 -0.40625 C -0.421875 -0.453125 0.28125 -1.265625 0.28125 -2.921875 C 0.28125 -4.5 -0.5 -5.515625 -1.71875 -5.515625 C -2.65625 -5.515625 -3.171875 -4.984375 -3.46875 -3.734375 L -3.703125 -2.765625 C -3.890625 -1.953125 -4.15625 -1.609375 -4.59375 -1.609375 C -5.171875 -1.609375 -5.546875 -2.125 -5.546875 -2.9375 C -5.546875 -3.75 -5.203125 -4.171875 -4.53125 -4.203125 Z M -4.53125 -5.25 "/>
</symbol>
</g>
</defs>
<g id="surface96342">
<rect x="0" y="0" width="720" height="360" style="fill:rgb(100%,100%,100%);fill-opacity:1;stroke:none;"/>
<path style=" stroke:none;fill-rule:nonzero;fill:rgb(6.27451%,58.823529%,28.235294%);fill-opacity:1;" d="M 69.628906 299.261719 L 69.691406 299.253906 L 95.046875 289.289062 L 102.746094 289.289062 L 128.222656 299.269531 L 119.273438 299.269531 L 112.886719 296.664062 L 84.902344 296.664062 L 78.644531 299.261719 L 69.628906 299.261719 L 87.597656 295.585938 L 110.320312 295.578125 L 98.988281 290.917969 L 98.863281 290.910156 L 98.738281 290.9375 L 87.535156 295.578125 L 87.597656 295.585938 Z M 69.628906 299.261719 "/>
<path style=" stroke:none;fill-rule:nonzero;fill:rgb(14.509804%,36.078431%,60%);fill-opacity:1;" d="M 69.628906 309.460938 L 69.699219 309.457031 L 69.699219 309.355469 L 69.914062 309.195312 L 70.414062 308.992188 L 70.914062 308.855469 L 72.203125 308.605469 L 73.988281 308.367188 L 75.847656 308.183594 L 77.203125 308.074219 L 78.417969 307.988281 L 81.207031 307.832031 L 82.992188 307.753906 L 84.921875 307.683594 L 87.28125 307.609375 L 88.996094 307.570312 L 92.851562 307.5 L 95.710938 307.472656 L 97.925781 307.460938 L 102.714844 307.460938 L 105.574219 307.476562 L 107.644531 307.496094 L 109.929688 307.53125 L 111.859375 307.570312 L 115.21875 307.660156 L 118.21875 307.777344 L 119.578125 307.847656 L 121.722656 307.976562 L 123.367188 308.101562 L 124.507812 308.210938 L 125.796875 308.367188 L 126.9375 308.554688 L 127.796875 308.769531 L 128.222656 308.953125 L 118.21875 308.953125 L 117.71875 308.785156 L 117.148438 308.652344 L 116.078125 308.480469 L 115.003906 308.359375 L 113.503906 308.238281 L 112.148438 308.15625 L 110.289062 308.078125 L 108.644531 308.027344 L 106.929688 307.988281 L 105.285156 307.964844 L 102.140625 307.9375 L 98.5 307.9375 L 97.140625 307.945312 L 94.355469 307.980469 L 92.851562 308.011719 L 90.710938 308.070312 L 89.207031 308.125 L 87.421875 308.207031 L 86.207031 308.277344 L 84.707031 308.386719 L 83.636719 308.484375 L 82.421875 308.625 L 81.707031 308.730469 L 81.0625 308.847656 L 80.492188 308.984375 L 80.0625 309.132812 L 79.777344 309.289062 L 79.632812 309.4375 L 79.632812 310.089844 L 79.777344 310.242188 L 80.132812 310.417969 L 81.0625 310.675781 L 82.421875 310.898438 L 83.992188 311.074219 L 85.492188 311.199219 L 86.351562 311.261719 L 87.492188 311.328125 L 89.28125 311.410156 L 91.851562 311.496094 L 93.351562 311.527344 L 95.640625 311.5625 L 97.996094 311.578125 L 101.140625 311.578125 L 103.929688 311.5625 L 105.785156 311.542969 L 107.714844 311.507812 L 110.359375 311.4375 L 112.003906 311.371094 L 113.433594 311.289062 L 114.503906 311.210938 L 115.21875 311.140625 L 116.292969 311.011719 L 117.148438 310.867188 L 117.792969 310.722656 L 118.21875 310.578125 L 128.222656 310.578125 L 127.796875 310.746094 L 127.152344 310.910156 L 126.507812 311.03125 L 125.507812 311.179688 L 124.367188 311.308594 L 122.722656 311.457031 L 121.363281 311.554688 L 119.578125 311.660156 L 117.933594 311.738281 L 116.148438 311.8125 L 113.503906 311.894531 L 111.789062 311.9375 L 109.929688 311.972656 L 107.714844 312.007812 L 104.929688 312.039062 L 101.929688 312.054688 L 99.140625 312.058594 L 96.140625 312.050781 L 93.925781 312.035156 L 90.996094 311.996094 L 87.351562 311.917969 L 84.707031 311.839844 L 82.632812 311.761719 L 80.847656 311.675781 L 78.847656 311.5625 L 76.273438 311.378906 L 74.703125 311.234375 L 73.632812 311.117188 L 72.417969 310.953125 L 71.558594 310.804688 L 70.558594 310.570312 L 69.84375 310.273438 L 69.628906 310.039062 Z M 69.628906 309.460938 "/>
<path style=" stroke:none;fill-rule:nonzero;fill:rgb(96.862745%,70.196078%,16.862745%);fill-opacity:1;" d="M 69.628906 302.945312 L 69.699219 302.941406 L 69.699219 302.835938 L 69.988281 302.597656 L 70.703125 302.265625 L 71.628906 301.996094 L 72.628906 301.78125 L 73.273438 301.667969 L 74.34375 301.511719 L 75.273438 301.394531 L 77.632812 301.152344 L 80.632812 300.929688 L 82.277344 300.832031 L 84.136719 300.742188 L 86.777344 300.640625 L 87.992188 300.605469 L 91.710938 300.519531 L 95.925781 300.464844 L 100.570312 300.449219 L 102.714844 300.457031 L 105.644531 300.476562 L 109.644531 300.535156 L 111.933594 300.589844 L 113.71875 300.640625 L 115.578125 300.710938 L 117.863281 300.816406 L 120.007812 300.945312 L 121.722656 301.074219 L 123.4375 301.234375 L 124.867188 301.402344 L 126.082031 301.589844 L 127.152344 301.8125 L 127.796875 302 L 128.222656 302.1875 L 118.292969 302.1875 L 117.71875 302 L 117.078125 301.855469 L 116.003906 301.679688 L 114.933594 301.550781 L 113.863281 301.453125 L 111.859375 301.3125 L 110.144531 301.226562 L 108.003906 301.152344 L 105.929688 301.105469 L 103.570312 301.074219 L 102.140625 301.0625 L 98.355469 301.0625 L 94.925781 301.101562 L 92.925781 301.140625 L 91.496094 301.183594 L 89.496094 301.265625 L 88.28125 301.328125 L 87.566406 301.371094 L 85.421875 301.535156 L 83.992188 301.683594 L 83.207031 301.785156 L 82.207031 301.945312 L 81.492188 302.089844 L 80.707031 302.304688 L 80.277344 302.460938 L 79.703125 302.824219 L 79.632812 303.78125 L 79.847656 303.984375 L 80.277344 304.203125 L 80.847656 304.394531 L 81.707031 304.597656 L 82.5625 304.75 L 84.0625 304.960938 L 85.351562 305.097656 L 86.351562 305.1875 L 88.28125 305.332031 L 89.066406 305.378906 L 90.921875 305.476562 L 92.851562 305.550781 L 95.210938 305.613281 L 96.996094 305.644531 L 99.855469 305.671875 L 103.5 305.671875 L 107.789062 305.640625 L 110.503906 305.597656 L 112.359375 305.554688 L 113.574219 305.519531 L 115.078125 305.460938 L 116.148438 305.40625 L 117.148438 305.347656 L 118.363281 305.257812 L 118.363281 303.984375 L 100.714844 303.980469 L 100.714844 303.382812 L 128.152344 303.378906 L 128.222656 305.460938 L 126.722656 305.601562 L 124.867188 305.742188 L 123.078125 305.847656 L 121.222656 305.9375 L 118.578125 306.039062 L 116.433594 306.105469 L 113.148438 306.179688 L 110.144531 306.226562 L 107 306.257812 L 104.214844 306.273438 L 100.929688 306.28125 L 97.996094 306.269531 L 94.855469 306.238281 L 92.351562 306.195312 L 90.066406 306.140625 L 87.78125 306.070312 L 84.921875 305.960938 L 83.0625 305.871094 L 81.132812 305.757812 L 79.203125 305.625 L 77.488281 305.480469 L 76.347656 305.371094 L 75.203125 305.242188 L 73.988281 305.082031 L 72.84375 304.902344 L 71.988281 304.734375 L 71.203125 304.550781 L 70.628906 304.375 L 70.058594 304.132812 L 69.773438 303.941406 L 69.628906 303.777344 Z M 69.628906 302.945312 "/>
<path style=" stroke:none;fill-rule:nonzero;fill:rgb(83.921569%,15.686275%,22.352941%);fill-opacity:1;" d="M 69.628906 313.238281 L 128.222656 313.238281 L 128.222656 313.359375 L 103.804688 313.359375 L 103.804688 314.371094 L 93.980469 314.371094 L 93.980469 313.363281 L 93.835938 313.359375 L 69.628906 313.359375 Z M 69.628906 313.238281 "/>
<path style=" stroke:none;fill-rule:nonzero;fill:rgb(6.27451%,58.823529%,28.235294%);fill-opacity:1;" d="M 131.308594 314.371094 L 131.371094 314.371094 L 156.726562 313.578125 L 164.425781 313.578125 L 189.902344 314.371094 L 180.953125 314.371094 L 174.566406 314.164062 L 146.582031 314.164062 L 140.324219 314.371094 L 131.308594 314.371094 L 149.273438 314.078125 L 172 314.078125 L 160.667969 313.707031 L 160.542969 313.707031 L 160.417969 313.710938 L 149.210938 314.078125 L 149.273438 314.078125 Z M 131.308594 314.371094 "/>
<path style=" stroke:none;fill-rule:nonzero;fill:rgb(14.509804%,36.078431%,60%);fill-opacity:1;" d="M 131.308594 309.054688 L 131.378906 309.054688 L 131.378906 309.007812 L 131.59375 308.941406 L 132.09375 308.851562 L 132.59375 308.792969 L 133.882812 308.683594 L 135.667969 308.582031 L 137.523438 308.5 L 138.882812 308.453125 L 140.097656 308.417969 L 142.882812 308.351562 L 144.671875 308.316406 L 146.601562 308.285156 L 148.957031 308.253906 L 150.671875 308.234375 L 154.53125 308.207031 L 157.390625 308.191406 L 159.605469 308.1875 L 164.394531 308.1875 L 167.25 308.195312 L 169.324219 308.203125 L 171.609375 308.21875 L 173.539062 308.234375 L 176.898438 308.273438 L 179.898438 308.328125 L 181.257812 308.355469 L 183.402344 308.410156 L 185.042969 308.464844 L 186.1875 308.515625 L 187.472656 308.582031 L 188.617188 308.664062 L 189.476562 308.757812 L 189.902344 308.835938 L 179.898438 308.835938 L 179.398438 308.761719 L 178.828125 308.703125 L 177.757812 308.628906 L 176.683594 308.578125 L 175.183594 308.523438 L 173.824219 308.488281 L 171.96875 308.457031 L 170.324219 308.433594 L 168.609375 308.417969 L 166.964844 308.40625 L 163.820312 308.394531 L 160.175781 308.394531 L 158.820312 308.398438 L 156.03125 308.414062 L 154.53125 308.425781 L 152.386719 308.453125 L 150.886719 308.476562 L 149.101562 308.511719 L 147.886719 308.542969 L 146.386719 308.589844 L 145.3125 308.632812 L 144.097656 308.691406 L 143.386719 308.738281 L 142.742188 308.789062 L 142.171875 308.847656 L 141.742188 308.914062 L 141.457031 308.980469 L 141.3125 309.046875 L 141.3125 309.328125 L 141.457031 309.394531 L 141.8125 309.46875 L 142.742188 309.582031 L 144.097656 309.675781 L 145.671875 309.753906 L 147.171875 309.808594 L 148.03125 309.835938 L 149.171875 309.863281 L 150.960938 309.898438 L 153.53125 309.9375 L 155.03125 309.949219 L 157.320312 309.964844 L 159.675781 309.972656 L 162.820312 309.972656 L 165.609375 309.964844 L 167.464844 309.957031 L 169.394531 309.941406 L 172.039062 309.910156 L 173.683594 309.882812 L 175.113281 309.847656 L 176.183594 309.8125 L 176.898438 309.785156 L 177.96875 309.726562 L 178.828125 309.664062 L 179.472656 309.601562 L 179.898438 309.539062 L 189.902344 309.539062 L 189.476562 309.613281 L 188.832031 309.683594 L 188.1875 309.734375 L 187.1875 309.800781 L 186.046875 309.855469 L 184.402344 309.917969 L 183.042969 309.960938 L 181.257812 310.007812 L 179.613281 310.042969 L 177.828125 310.074219 L 175.183594 310.109375 L 173.46875 310.128906 L 171.609375 310.144531 L 169.394531 310.160156 L 166.609375 310.171875 L 163.605469 310.179688 L 160.820312 310.179688 L 157.820312 310.175781 L 155.605469 310.167969 L 152.675781 310.152344 L 149.03125 310.121094 L 146.386719 310.085938 L 144.3125 310.050781 L 142.527344 310.015625 L 140.527344 309.964844 L 137.953125 309.886719 L 136.382812 309.824219 L 135.308594 309.773438 L 134.09375 309.703125 L 133.238281 309.636719 L 132.238281 309.535156 L 131.523438 309.40625 L 131.308594 309.304688 Z M 131.308594 309.054688 "/>
<path style=" stroke:none;fill-rule:nonzero;fill:rgb(96.862745%,70.196078%,16.862745%);fill-opacity:1;" d="M 131.308594 311.804688 L 131.378906 311.804688 L 131.378906 311.785156 L 131.664062 311.742188 L 132.378906 311.683594 L 133.308594 311.636719 L 134.308594 311.597656 L 134.953125 311.578125 L 136.023438 311.546875 L 136.953125 311.527344 L 139.3125 311.484375 L 142.3125 311.445312 L 143.957031 311.429688 L 145.8125 311.410156 L 148.457031 311.394531 L 149.671875 311.386719 L 153.390625 311.371094 L 157.605469 311.363281 L 162.25 311.359375 L 164.394531 311.359375 L 167.324219 311.363281 L 171.324219 311.375 L 173.613281 311.382812 L 175.398438 311.394531 L 177.253906 311.40625 L 179.542969 311.425781 L 181.6875 311.449219 L 183.402344 311.472656 L 185.117188 311.5 L 186.546875 311.53125 L 187.761719 311.5625 L 188.832031 311.601562 L 189.476562 311.636719 L 189.902344 311.667969 L 179.972656 311.667969 L 179.398438 311.636719 L 178.757812 311.609375 L 177.683594 311.578125 L 176.613281 311.554688 L 175.539062 311.539062 L 173.539062 311.511719 L 171.824219 311.5 L 169.679688 311.484375 L 167.609375 311.476562 L 165.25 311.472656 L 163.820312 311.46875 L 160.035156 311.46875 L 156.605469 311.476562 L 154.605469 311.484375 L 153.175781 311.492188 L 151.171875 311.503906 L 149.957031 311.515625 L 149.246094 311.523438 L 147.101562 311.554688 L 145.671875 311.578125 L 144.886719 311.597656 L 143.886719 311.625 L 143.171875 311.652344 L 142.382812 311.691406 L 141.957031 311.71875 L 141.382812 311.78125 L 141.3125 311.953125 L 141.527344 311.988281 L 141.957031 312.027344 L 142.527344 312.0625 L 143.386719 312.097656 L 144.242188 312.125 L 145.742188 312.164062 L 147.027344 312.1875 L 148.03125 312.203125 L 149.957031 312.230469 L 150.746094 312.238281 L 152.601562 312.253906 L 154.53125 312.269531 L 156.890625 312.28125 L 158.675781 312.285156 L 161.535156 312.289062 L 165.179688 312.289062 L 169.46875 312.285156 L 172.183594 312.277344 L 174.039062 312.269531 L 175.253906 312.261719 L 176.753906 312.253906 L 177.828125 312.242188 L 178.828125 312.234375 L 180.042969 312.214844 L 180.042969 311.988281 L 162.390625 311.988281 L 162.390625 311.882812 L 189.832031 311.882812 L 189.902344 312.253906 L 188.402344 312.277344 L 186.546875 312.304688 L 184.757812 312.320312 L 182.902344 312.339844 L 180.257812 312.355469 L 178.113281 312.367188 L 174.824219 312.378906 L 171.824219 312.390625 L 168.679688 312.394531 L 165.894531 312.398438 L 159.675781 312.398438 L 156.53125 312.390625 L 154.03125 312.382812 L 151.746094 312.375 L 149.457031 312.363281 L 146.601562 312.34375 L 144.742188 312.324219 L 142.8125 312.304688 L 140.882812 312.28125 L 139.167969 312.257812 L 138.027344 312.238281 L 136.882812 312.214844 L 135.667969 312.183594 L 134.523438 312.152344 L 133.667969 312.125 L 132.878906 312.089844 L 132.308594 312.058594 L 131.738281 312.015625 L 131.453125 311.980469 L 131.308594 311.953125 Z M 131.308594 311.804688 "/>
<path style=" stroke:none;fill-rule:nonzero;fill:rgb(83.921569%,15.686275%,22.352941%);fill-opacity:1;" d="M 131.308594 303.628906 L 189.902344 303.628906 L 189.902344 303.992188 L 165.484375 303.996094 L 165.484375 307.007812 L 155.65625 307.007812 L 155.65625 303.996094 L 155.515625 303.992188 L 131.308594 303.992188 Z M 131.308594 303.628906 "/>
<path style=" stroke:none;fill-rule:nonzero;fill:rgb(14.509804%,36.078431%,60%);fill-opacity:1;" d="M 192.988281 148.382812 L 193.058594 148.117188 L 193.058594 141.675781 L 193.273438 131.480469 L 193.773438 118.601562 L 194.273438 109.746094 L 195.558594 93.914062 L 197.347656 78.621094 L 199.203125 66.8125 L 200.5625 59.839844 L 201.777344 54.472656 L 204.5625 44.542969 L 206.351562 39.445312 L 208.28125 34.882812 L 210.636719 30.324219 L 212.351562 27.640625 L 216.210938 23.347656 L 219.070312 21.46875 L 221.285156 20.664062 L 226.074219 20.664062 L 228.929688 21.734375 L 231.003906 23.078125 L 233.289062 25.222656 L 235.21875 27.640625 L 238.578125 33.542969 L 241.578125 41.054688 L 242.9375 45.347656 L 245.082031 53.667969 L 246.722656 61.714844 L 247.867188 68.691406 L 249.152344 78.621094 L 250.296875 90.695312 L 251.152344 104.378906 L 251.582031 115.917969 L 241.578125 115.917969 L 241.078125 105.183594 L 240.507812 96.867188 L 239.433594 85.867188 L 238.363281 78.082031 L 236.863281 70.300781 L 235.503906 65.203125 L 233.648438 60.105469 L 232.003906 56.886719 L 230.289062 54.472656 L 228.644531 52.863281 L 225.5 51.25 L 221.855469 51.25 L 220.5 51.789062 L 217.710938 53.933594 L 216.210938 55.8125 L 214.066406 59.570312 L 212.566406 63.058594 L 210.78125 68.425781 L 209.566406 72.984375 L 208.066406 79.960938 L 206.992188 86.132812 L 205.777344 94.988281 L 205.0625 101.695312 L 204.421875 109.210938 L 203.847656 118.0625 L 203.421875 127.457031 L 203.132812 137.382812 L 202.992188 147.042969 L 202.992188 188.632812 L 203.132812 198.292969 L 203.492188 209.5625 L 204.421875 225.929688 L 205.777344 240.152344 L 207.351562 251.421875 L 208.851562 259.46875 L 209.707031 263.226562 L 210.851562 267.519531 L 212.636719 272.886719 L 215.210938 278.253906 L 216.710938 280.398438 L 219 282.546875 L 221.355469 283.617188 L 224.5 283.617188 L 227.289062 282.546875 L 229.144531 281.203125 L 231.074219 279.058594 L 233.71875 274.496094 L 235.363281 270.203125 L 236.792969 265.105469 L 237.863281 260.007812 L 238.578125 255.714844 L 239.648438 247.394531 L 240.507812 238.273438 L 241.148438 228.882812 L 241.578125 219.757812 L 251.582031 219.757812 L 251.152344 230.492188 L 250.511719 240.957031 L 249.867188 248.738281 L 248.867188 258.128906 L 247.722656 266.445312 L 246.082031 275.835938 L 244.722656 282.007812 L 242.9375 288.71875 L 241.292969 293.816406 L 239.507812 298.375 L 236.863281 303.742188 L 235.148438 306.425781 L 233.289062 308.839844 L 231.074219 310.988281 L 228.289062 312.867188 L 225.285156 313.9375 L 222.5 314.207031 L 219.5 313.671875 L 217.285156 312.597656 L 214.351562 310.183594 L 210.710938 305.351562 L 208.066406 300.253906 L 205.992188 295.15625 L 204.207031 289.789062 L 202.207031 282.546875 L 199.632812 270.738281 L 198.0625 261.617188 L 196.988281 254.101562 L 195.773438 243.640625 L 194.917969 234.246094 L 193.917969 219.222656 L 193.203125 200.171875 L 192.988281 185.414062 Z M 192.988281 148.382812 "/>
<path style=" stroke:none;fill-rule:nonzero;fill:rgb(6.27451%,58.823529%,28.235294%);fill-opacity:1;" d="M 254.667969 285.1875 L 254.730469 285.085938 L 280.082031 177.878906 L 287.78125 177.878906 L 313.261719 285.285156 L 304.308594 285.285156 L 297.925781 257.25 L 269.941406 257.25 L 263.679688 285.1875 L 254.667969 285.1875 L 272.632812 245.652344 L 295.359375 245.550781 L 284.027344 195.425781 L 283.902344 195.328125 L 283.777344 195.628906 L 272.570312 245.550781 L 272.632812 245.652344 Z M 254.667969 285.1875 "/>
<path style=" stroke:none;fill-rule:nonzero;fill:rgb(14.509804%,36.078431%,60%);fill-opacity:1;" d="M 254.667969 302.804688 L 254.738281 302.796875 L 254.738281 302.617188 L 254.953125 302.332031 L 255.453125 301.96875 L 255.953125 301.722656 L 257.238281 301.28125 L 259.027344 300.851562 L 260.882812 300.523438 L 262.242188 300.328125 L 263.457031 300.175781 L 266.242188 299.898438 L 268.03125 299.757812 L 269.957031 299.628906 L 272.316406 299.503906 L 274.03125 299.425781 L 277.890625 299.308594 L 280.75 299.253906 L 282.964844 299.230469 L 287.75 299.230469 L 290.609375 299.261719 L 292.683594 299.300781 L 294.96875 299.359375 L 296.898438 299.425781 L 300.257812 299.59375 L 303.257812 299.800781 L 304.617188 299.921875 L 306.757812 300.15625 L 308.402344 300.378906 L 309.546875 300.574219 L 310.832031 300.851562 L 311.976562 301.191406 L 312.832031 301.574219 L 313.261719 301.894531 L 303.257812 301.894531 L 302.757812 301.59375 L 302.1875 301.363281 L 301.113281 301.054688 L 300.042969 300.835938 L 298.542969 300.621094 L 297.183594 300.476562 L 295.328125 300.335938 L 293.683594 300.246094 L 291.96875 300.175781 L 290.324219 300.132812 L 287.179688 300.085938 L 283.535156 300.085938 L 282.179688 300.101562 L 279.390625 300.164062 L 277.890625 300.214844 L 275.746094 300.320312 L 274.246094 300.417969 L 272.460938 300.566406 L 271.246094 300.695312 L 269.746094 300.890625 L 268.671875 301.0625 L 267.457031 301.308594 L 266.742188 301.496094 L 266.101562 301.707031 L 265.527344 301.957031 L 265.101562 302.21875 L 264.8125 302.496094 L 264.671875 302.765625 L 264.671875 303.929688 L 264.8125 304.199219 L 265.171875 304.511719 L 266.101562 304.972656 L 267.457031 305.367188 L 269.03125 305.683594 L 270.53125 305.910156 L 271.386719 306.015625 L 272.53125 306.132812 L 274.316406 306.285156 L 276.890625 306.433594 L 278.390625 306.496094 L 280.675781 306.554688 L 283.035156 306.585938 L 286.179688 306.585938 L 288.964844 306.554688 L 290.824219 306.515625 L 292.753906 306.457031 L 295.398438 306.328125 L 297.042969 306.210938 L 298.46875 306.066406 L 299.542969 305.925781 L 300.257812 305.804688 L 301.328125 305.570312 L 302.1875 305.316406 L 302.828125 305.054688 L 303.257812 304.796875 L 313.261719 304.796875 L 312.832031 305.097656 L 312.191406 305.390625 L 311.546875 305.609375 L 310.546875 305.871094 L 309.402344 306.105469 L 307.761719 306.367188 L 306.402344 306.539062 L 304.617188 306.726562 L 302.972656 306.871094 L 301.1875 306.996094 L 298.542969 307.148438 L 296.828125 307.222656 L 294.96875 307.289062 L 292.753906 307.347656 L 289.96875 307.402344 L 286.964844 307.433594 L 284.179688 307.4375 L 281.175781 307.425781 L 278.960938 307.394531 L 276.03125 307.328125 L 272.386719 307.191406 L 269.746094 307.050781 L 267.671875 306.90625 L 265.886719 306.757812 L 263.886719 306.554688 L 261.3125 306.222656 L 259.742188 305.96875 L 258.667969 305.757812 L 257.453125 305.464844 L 256.597656 305.203125 L 255.597656 304.785156 L 254.882812 304.25 L 254.667969 303.839844 Z M 254.667969 302.804688 "/>
<path style=" stroke:none;fill-rule:nonzero;fill:rgb(96.862745%,70.196078%,16.862745%);fill-opacity:1;" d="M 254.667969 311.082031 L 254.738281 311.078125 L 254.738281 310.972656 L 255.023438 310.734375 L 255.738281 310.410156 L 256.667969 310.140625 L 257.667969 309.933594 L 258.3125 309.820312 L 259.382812 309.664062 L 260.3125 309.546875 L 262.671875 309.3125 L 265.671875 309.089844 L 267.316406 308.996094 L 269.171875 308.90625 L 271.816406 308.808594 L 273.03125 308.769531 L 276.746094 308.6875 L 280.964844 308.632812 L 285.609375 308.617188 L 287.75 308.625 L 290.679688 308.644531 L 294.683594 308.703125 L 296.96875 308.753906 L 298.757812 308.808594 L 300.613281 308.875 L 302.902344 308.980469 L 305.042969 309.109375 L 306.757812 309.234375 L 308.472656 309.390625 L 309.902344 309.558594 L 311.117188 309.742188 L 312.191406 309.964844 L 312.832031 310.148438 L 313.261719 310.332031 L 303.328125 310.332031 L 302.757812 310.148438 L 302.113281 310.003906 L 301.042969 309.832031 L 299.972656 309.707031 L 298.898438 309.605469 L 296.898438 309.46875 L 295.183594 309.386719 L 293.039062 309.3125 L 290.96875 309.265625 L 288.609375 309.234375 L 287.179688 309.222656 L 283.394531 309.222656 L 279.960938 309.261719 L 277.960938 309.300781 L 276.53125 309.34375 L 274.53125 309.421875 L 273.316406 309.484375 L 272.601562 309.527344 L 270.457031 309.691406 L 269.03125 309.835938 L 268.242188 309.9375 L 267.242188 310.09375 L 266.527344 310.238281 L 265.742188 310.445312 L 265.3125 310.605469 L 264.742188 310.960938 L 264.671875 311.90625 L 264.886719 312.105469 L 265.3125 312.320312 L 265.886719 312.511719 L 266.742188 312.710938 L 267.601562 312.863281 L 269.101562 313.066406 L 270.386719 313.203125 L 271.386719 313.292969 L 273.316406 313.4375 L 274.101562 313.484375 L 275.960938 313.578125 L 277.890625 313.652344 L 280.25 313.714844 L 282.035156 313.746094 L 284.894531 313.773438 L 288.539062 313.773438 L 292.824219 313.742188 L 295.539062 313.699219 L 297.398438 313.65625 L 298.613281 313.621094 L 300.113281 313.5625 L 301.1875 313.507812 L 302.1875 313.453125 L 303.402344 313.363281 L 303.402344 312.105469 L 285.75 312.101562 L 285.75 311.511719 L 313.191406 311.507812 L 313.261719 313.5625 L 311.761719 313.703125 L 309.902344 313.839844 L 308.117188 313.945312 L 306.257812 314.035156 L 303.617188 314.132812 L 301.472656 314.199219 L 298.183594 314.269531 L 295.183594 314.316406 L 292.039062 314.351562 L 289.253906 314.367188 L 285.964844 314.371094 L 283.035156 314.359375 L 279.890625 314.328125 L 277.390625 314.285156 L 275.105469 314.234375 L 272.816406 314.164062 L 269.957031 314.054688 L 268.101562 313.964844 L 266.171875 313.855469 L 264.242188 313.722656 L 262.527344 313.582031 L 261.382812 313.472656 L 260.242188 313.347656 L 259.027344 313.1875 L 257.882812 313.011719 L 257.023438 312.847656 L 256.238281 312.664062 L 255.667969 312.488281 L 255.09375 312.253906 L 254.808594 312.066406 L 254.667969 311.902344 Z M 254.667969 311.082031 "/>
<path style=" stroke:none;fill-rule:nonzero;fill:rgb(83.921569%,15.686275%,22.352941%);fill-opacity:1;" d="M 254.667969 286.464844 L 313.261719 286.464844 L 313.261719 287.707031 L 288.839844 287.71875 L 288.839844 298.050781 L 279.015625 298.050781 L 279.015625 287.726562 L 278.875 287.707031 L 254.667969 287.707031 Z M 254.667969 286.464844 "/>
<path style=" stroke:none;fill-rule:nonzero;fill:rgb(14.509804%,36.078431%,60%);fill-opacity:1;" d="M 316.347656 182.074219 L 316.417969 181.894531 L 316.417969 177.632812 L 316.632812 170.882812 L 317.132812 162.351562 L 317.632812 156.492188 L 318.917969 146.007812 L 320.703125 135.882812 L 322.5625 128.066406 L 323.921875 123.445312 L 325.136719 119.890625 L 327.921875 113.320312 L 329.707031 109.941406 L 331.636719 106.921875 L 333.996094 103.902344 L 335.710938 102.125 L 339.570312 99.285156 L 342.429688 98.039062 L 344.644531 97.507812 L 349.429688 97.507812 L 352.289062 98.21875 L 354.363281 99.105469 L 356.648438 100.527344 L 358.578125 102.125 L 361.9375 106.035156 L 364.9375 111.007812 L 366.292969 113.851562 L 368.4375 119.359375 L 370.082031 124.6875 L 371.226562 129.308594 L 372.511719 135.882812 L 373.65625 143.875 L 374.511719 152.9375 L 374.941406 160.578125 L 364.9375 160.578125 L 364.4375 153.46875 L 363.867188 147.960938 L 362.792969 140.679688 L 361.722656 135.527344 L 360.222656 130.375 L 358.863281 127 L 357.003906 123.625 L 355.363281 121.492188 L 353.648438 119.890625 L 352.003906 118.828125 L 348.859375 117.761719 L 345.214844 117.761719 L 343.855469 118.117188 L 341.070312 119.535156 L 339.570312 120.78125 L 337.425781 123.269531 L 335.925781 125.578125 L 334.140625 129.128906 L 332.925781 132.152344 L 331.421875 136.769531 L 330.351562 140.855469 L 329.136719 146.71875 L 328.421875 151.160156 L 327.777344 156.136719 L 327.207031 161.996094 L 326.777344 168.214844 L 326.492188 174.789062 L 326.351562 181.183594 L 326.351562 208.722656 L 326.492188 215.117188 L 326.851562 222.582031 L 327.777344 233.417969 L 329.136719 242.832031 L 330.707031 250.296875 L 332.210938 255.625 L 333.066406 258.113281 L 334.210938 260.957031 L 335.996094 264.507812 L 338.570312 268.0625 L 340.070312 269.484375 L 342.355469 270.90625 L 344.714844 271.613281 L 347.859375 271.613281 L 350.644531 270.90625 L 352.503906 270.015625 L 354.433594 268.59375 L 357.078125 265.574219 L 358.71875 262.730469 L 360.148438 259.355469 L 361.222656 255.980469 L 361.9375 253.136719 L 363.007812 247.628906 L 363.867188 241.589844 L 364.507812 235.371094 L 364.9375 229.332031 L 374.941406 229.332031 L 374.511719 236.4375 L 373.871094 243.367188 L 373.226562 248.519531 L 372.226562 254.738281 L 371.082031 260.246094 L 369.4375 266.464844 L 368.082031 270.550781 L 366.292969 274.992188 L 364.652344 278.367188 L 362.863281 281.386719 L 360.222656 284.941406 L 358.507812 286.714844 L 356.648438 288.316406 L 354.433594 289.738281 L 351.644531 290.980469 L 348.644531 291.691406 L 345.859375 291.867188 L 342.855469 291.511719 L 340.640625 290.800781 L 337.710938 289.203125 L 334.066406 286.003906 L 331.421875 282.628906 L 329.351562 279.253906 L 327.566406 275.703125 L 325.5625 270.90625 L 322.992188 263.085938 L 321.417969 257.046875 L 320.347656 252.074219 L 319.132812 245.144531 L 318.273438 238.925781 L 317.273438 228.976562 L 316.558594 216.363281 L 316.347656 206.589844 Z M 316.347656 182.074219 "/>
<path style=" stroke:none;fill-rule:nonzero;fill:rgb(96.862745%,70.196078%,16.862745%);fill-opacity:1;" d="M 316.347656 313.808594 L 316.417969 313.808594 L 316.417969 313.789062 L 316.703125 313.75 L 317.417969 313.691406 L 318.347656 313.648438 L 319.347656 313.609375 L 319.992188 313.59375 L 321.0625 313.566406 L 321.992188 313.546875 L 324.347656 313.503906 L 327.351562 313.46875 L 328.992188 313.453125 L 330.851562 313.4375 L 333.496094 313.417969 L 334.710938 313.414062 L 338.425781 313.398438 L 342.640625 313.390625 L 347.289062 313.386719 L 349.429688 313.386719 L 352.359375 313.390625 L 356.363281 313.402344 L 358.648438 313.410156 L 360.433594 313.417969 L 362.292969 313.429688 L 364.578125 313.449219 L 366.722656 313.46875 L 368.4375 313.492188 L 370.152344 313.519531 L 371.582031 313.546875 L 372.796875 313.578125 L 373.871094 313.617188 L 374.511719 313.648438 L 374.941406 313.679688 L 365.007812 313.679688 L 364.4375 313.648438 L 363.792969 313.625 L 362.722656 313.59375 L 361.648438 313.574219 L 360.578125 313.554688 L 358.578125 313.53125 L 356.863281 313.519531 L 354.71875 313.503906 L 352.644531 313.496094 L 350.289062 313.492188 L 348.859375 313.488281 L 345.070312 313.488281 L 341.640625 313.496094 L 339.640625 313.503906 L 338.210938 313.511719 L 336.210938 313.523438 L 334.996094 313.535156 L 334.28125 313.542969 L 332.136719 313.570312 L 330.707031 313.59375 L 329.921875 313.613281 L 328.921875 313.640625 L 328.207031 313.664062 L 327.421875 313.699219 L 326.992188 313.726562 L 326.421875 313.789062 L 326.351562 313.949219 L 326.5625 313.984375 L 326.992188 314.019531 L 327.566406 314.050781 L 328.421875 314.085938 L 329.28125 314.113281 L 330.78125 314.148438 L 332.066406 314.171875 L 333.066406 314.1875 L 334.996094 314.210938 L 335.78125 314.21875 L 337.640625 314.234375 L 339.570312 314.246094 L 341.929688 314.257812 L 343.714844 314.265625 L 346.574219 314.269531 L 350.21875 314.269531 L 354.503906 314.261719 L 357.21875 314.253906 L 359.078125 314.25 L 360.292969 314.242188 L 361.792969 314.230469 L 362.863281 314.222656 L 363.867188 314.214844 L 365.078125 314.199219 L 365.078125 313.984375 L 347.429688 313.980469 L 347.429688 313.882812 L 374.871094 313.878906 L 374.941406 314.230469 L 373.441406 314.257812 L 371.582031 314.28125 L 369.796875 314.296875 L 367.9375 314.3125 L 365.292969 314.332031 L 363.152344 314.339844 L 359.863281 314.355469 L 356.863281 314.363281 L 353.71875 314.367188 L 350.929688 314.371094 L 347.644531 314.371094 L 344.714844 314.367188 L 341.570312 314.363281 L 339.070312 314.355469 L 336.78125 314.347656 L 334.496094 314.335938 L 331.636719 314.316406 L 329.78125 314.300781 L 325.921875 314.261719 L 324.207031 314.234375 L 323.0625 314.21875 L 321.917969 314.195312 L 320.703125 314.167969 L 319.5625 314.136719 L 318.703125 314.109375 L 317.917969 314.078125 L 317.347656 314.050781 L 316.773438 314.007812 L 316.488281 313.976562 L 316.347656 313.949219 Z M 316.347656 313.808594 "/>
<path style=" stroke:none;fill-rule:nonzero;fill:rgb(83.921569%,15.686275%,22.352941%);fill-opacity:1;" d="M 316.347656 293.046875 L 374.941406 293.046875 L 374.941406 295.097656 L 350.519531 295.117188 L 350.519531 312.207031 L 340.695312 312.207031 L 340.695312 295.136719 L 340.554688 295.097656 L 316.347656 295.097656 Z M 316.347656 293.046875 "/>
<path style=" stroke:none;fill-rule:nonzero;fill:rgb(6.27451%,58.823529%,28.235294%);fill-opacity:1;" d="M 378.023438 308.316406 L 378.085938 308.292969 L 403.441406 282.390625 L 411.140625 282.390625 L 436.621094 308.34375 L 427.667969 308.34375 L 421.28125 301.566406 L 393.300781 301.566406 L 387.039062 308.316406 L 378.023438 308.316406 L 395.992188 298.765625 L 418.714844 298.742188 L 407.386719 286.632812 L 407.261719 286.605469 L 407.136719 286.679688 L 395.929688 298.742188 L 395.992188 298.765625 Z M 378.023438 308.316406 "/>
<path style=" stroke:none;fill-rule:nonzero;fill:rgb(14.509804%,36.078431%,60%);fill-opacity:1;" d="M 378.023438 311.632812 L 378.097656 311.625 L 378.097656 311.519531 L 378.3125 311.351562 L 378.8125 311.140625 L 379.3125 310.992188 L 380.597656 310.730469 L 382.382812 310.480469 L 384.242188 310.285156 L 385.601562 310.167969 L 386.8125 310.078125 L 389.601562 309.914062 L 391.386719 309.832031 L 393.316406 309.757812 L 395.675781 309.679688 L 397.390625 309.636719 L 401.25 309.566406 L 404.105469 309.535156 L 406.324219 309.519531 L 411.109375 309.519531 L 413.96875 309.539062 L 416.039062 309.5625 L 418.328125 309.597656 L 420.257812 309.636719 L 423.613281 309.734375 L 426.617188 309.859375 L 427.972656 309.929688 L 430.117188 310.066406 L 431.761719 310.199219 L 432.90625 310.316406 L 434.191406 310.480469 L 435.335938 310.679688 L 436.191406 310.90625 L 436.621094 311.09375 L 426.617188 311.09375 L 426.117188 310.917969 L 425.542969 310.78125 L 424.472656 310.597656 L 423.402344 310.46875 L 421.898438 310.339844 L 420.542969 310.257812 L 418.683594 310.171875 L 417.039062 310.121094 L 415.324219 310.078125 L 413.683594 310.054688 L 410.539062 310.027344 L 406.894531 310.027344 L 405.535156 310.035156 L 402.75 310.070312 L 401.25 310.101562 L 399.105469 310.164062 L 397.605469 310.222656 L 395.816406 310.308594 L 394.601562 310.386719 L 393.101562 310.5 L 392.03125 310.601562 L 390.816406 310.75 L 390.101562 310.859375 L 389.457031 310.984375 L 388.886719 311.128906 L 388.457031 311.285156 L 388.171875 311.449219 L 388.027344 311.609375 L 388.027344 312.296875 L 388.171875 312.457031 L 388.53125 312.640625 L 389.457031 312.914062 L 390.816406 313.148438 L 392.386719 313.332031 L 393.890625 313.464844 L 394.746094 313.527344 L 395.890625 313.597656 L 397.675781 313.6875 L 400.25 313.777344 L 401.75 313.8125 L 404.035156 313.847656 L 406.394531 313.867188 L 409.539062 313.867188 L 412.324219 313.847656 L 414.183594 313.824219 L 416.113281 313.789062 L 418.757812 313.714844 L 420.398438 313.644531 L 421.828125 313.558594 L 422.902344 313.476562 L 423.613281 313.40625 L 424.6875 313.265625 L 425.542969 313.117188 L 426.1875 312.960938 L 426.617188 312.808594 L 436.621094 312.808594 L 436.191406 312.988281 L 435.546875 313.160156 L 434.90625 313.289062 L 433.90625 313.445312 L 432.761719 313.582031 L 431.117188 313.738281 L 429.761719 313.839844 L 427.972656 313.949219 L 426.332031 314.035156 L 424.542969 314.109375 L 421.898438 314.199219 L 420.183594 314.242188 L 418.328125 314.28125 L 416.113281 314.316406 L 413.324219 314.347656 L 410.324219 314.367188 L 407.539062 314.371094 L 404.535156 314.363281 L 402.320312 314.34375 L 399.390625 314.304688 L 395.746094 314.222656 L 393.101562 314.140625 L 391.03125 314.054688 L 389.242188 313.96875 L 387.242188 313.847656 L 384.671875 313.652344 L 383.097656 313.5 L 382.027344 313.378906 L 380.8125 313.203125 L 379.953125 313.050781 L 378.953125 312.800781 L 378.238281 312.488281 L 378.023438 312.242188 Z M 378.023438 311.632812 "/>
<path style=" stroke:none;fill-rule:nonzero;fill:rgb(96.862745%,70.196078%,16.862745%);fill-opacity:1;" d="M 378.023438 202.78125 L 378.097656 202.652344 L 378.097656 200.148438 L 378.382812 194.511719 L 379.097656 186.742188 L 380.027344 180.351562 L 381.027344 175.339844 L 381.667969 172.710938 L 382.742188 168.949219 L 383.671875 166.195312 L 386.027344 160.554688 L 389.03125 155.292969 L 390.671875 153.039062 L 392.53125 150.910156 L 395.175781 148.527344 L 396.390625 147.652344 L 400.105469 145.644531 L 404.320312 144.394531 L 408.964844 144.015625 L 411.109375 144.140625 L 414.039062 144.644531 L 418.042969 146.023438 L 420.328125 147.273438 L 422.113281 148.527344 L 423.972656 150.15625 L 426.257812 152.664062 L 428.402344 155.667969 L 430.117188 158.675781 L 431.832031 162.433594 L 433.261719 166.445312 L 434.476562 170.828125 L 435.546875 176.09375 L 436.191406 180.476562 L 436.621094 184.863281 L 426.6875 184.863281 L 426.117188 180.476562 L 425.472656 177.09375 L 424.402344 172.960938 L 423.328125 169.953125 L 422.257812 167.570312 L 420.257812 164.316406 L 418.542969 162.308594 L 416.398438 160.554688 L 414.324219 159.429688 L 411.96875 158.675781 L 410.539062 158.425781 L 406.75 158.425781 L 403.320312 159.304688 L 401.320312 160.304688 L 399.890625 161.308594 L 397.890625 163.1875 L 396.675781 164.691406 L 395.960938 165.691406 L 393.816406 169.578125 L 392.386719 173.085938 L 391.601562 175.464844 L 390.601562 179.222656 L 389.886719 182.605469 L 389.101562 187.617188 L 388.671875 191.378906 L 388.101562 199.898438 L 388.027344 222.449219 L 388.242188 227.210938 L 388.671875 232.347656 L 389.242188 236.859375 L 390.101562 241.621094 L 390.960938 245.253906 L 392.460938 250.140625 L 393.746094 253.398438 L 394.746094 255.527344 L 396.675781 258.910156 L 397.460938 260.039062 L 399.320312 262.292969 L 401.25 264.046875 L 403.605469 265.550781 L 405.394531 266.300781 L 408.25 266.929688 L 411.894531 266.929688 L 416.183594 266.175781 L 418.898438 265.175781 L 420.757812 264.171875 L 421.972656 263.296875 L 423.472656 261.917969 L 424.542969 260.664062 L 425.542969 259.285156 L 426.757812 257.15625 L 426.757812 227.210938 L 409.109375 227.085938 L 409.109375 213.054688 L 436.550781 212.929688 L 436.621094 261.917969 L 435.121094 265.300781 L 433.261719 268.558594 L 431.476562 271.0625 L 429.617188 273.195312 L 426.972656 275.574219 L 424.828125 277.078125 L 421.542969 278.832031 L 418.542969 279.960938 L 415.398438 280.710938 L 412.609375 281.085938 L 409.324219 281.210938 L 406.394531 280.960938 L 403.25 280.210938 L 400.75 279.207031 L 398.460938 277.953125 L 396.175781 276.324219 L 393.316406 273.695312 L 391.460938 271.566406 L 389.53125 268.933594 L 387.601562 265.800781 L 385.886719 262.417969 L 384.742188 259.789062 L 383.597656 256.78125 L 382.382812 253.023438 L 381.242188 248.761719 L 380.382812 244.878906 L 379.597656 240.492188 L 379.027344 236.359375 L 378.453125 230.71875 L 378.167969 226.210938 L 378.023438 222.324219 Z M 378.023438 202.78125 "/>
<path style=" stroke:none;fill-rule:nonzero;fill:rgb(6.27451%,58.823529%,28.235294%);fill-opacity:1;" d="M 439.703125 300.609375 L 439.765625 300.597656 L 465.121094 285.308594 L 472.820312 285.308594 L 498.300781 300.625 L 489.347656 300.625 L 482.960938 296.628906 L 454.980469 296.628906 L 448.71875 300.609375 L 439.703125 300.609375 L 457.671875 294.972656 L 480.394531 294.957031 L 469.066406 287.808594 L 468.9375 287.796875 L 468.8125 287.839844 L 457.609375 294.957031 L 457.671875 294.972656 Z M 439.703125 300.609375 "/>
<path style=" stroke:none;fill-rule:nonzero;fill:rgb(14.509804%,36.078431%,60%);fill-opacity:1;" d="M 439.703125 305.460938 L 439.777344 305.453125 L 439.777344 305.269531 L 439.988281 304.976562 L 440.492188 304.609375 L 440.992188 304.355469 L 442.277344 303.902344 L 444.0625 303.464844 L 445.921875 303.125 L 447.277344 302.925781 L 448.492188 302.773438 L 451.28125 302.488281 L 453.066406 302.34375 L 454.996094 302.210938 L 457.355469 302.082031 L 459.070312 302.003906 L 462.929688 301.882812 L 465.785156 301.828125 L 468 301.804688 L 472.789062 301.804688 L 475.648438 301.835938 L 477.71875 301.875 L 480.007812 301.933594 L 481.9375 302.003906 L 485.292969 302.171875 L 488.296875 302.386719 L 489.652344 302.511719 L 491.796875 302.75 L 493.441406 302.980469 L 494.582031 303.179688 L 495.871094 303.464844 L 497.011719 303.808594 L 497.871094 304.199219 L 498.300781 304.53125 L 488.296875 304.53125 L 487.796875 304.222656 L 487.222656 303.984375 L 486.152344 303.671875 L 485.078125 303.449219 L 483.578125 303.226562 L 482.222656 303.078125 L 480.363281 302.933594 L 478.71875 302.839844 L 477.003906 302.773438 L 475.363281 302.726562 L 472.21875 302.679688 L 468.574219 302.679688 L 467.214844 302.695312 L 464.429688 302.757812 L 462.929688 302.8125 L 460.785156 302.917969 L 459.285156 303.019531 L 457.496094 303.171875 L 456.28125 303.300781 L 454.78125 303.5 L 453.710938 303.679688 L 452.496094 303.933594 L 451.78125 304.125 L 451.136719 304.339844 L 450.566406 304.59375 L 450.136719 304.859375 L 449.851562 305.144531 L 449.707031 305.421875 L 449.707031 306.613281 L 449.851562 306.886719 L 450.207031 307.210938 L 451.136719 307.679688 L 452.496094 308.085938 L 454.066406 308.40625 L 455.566406 308.636719 L 456.425781 308.746094 L 457.570312 308.867188 L 459.355469 309.023438 L 461.925781 309.175781 L 463.429688 309.238281 L 465.714844 309.296875 L 468.074219 309.328125 L 471.21875 309.328125 L 474.003906 309.296875 L 475.863281 309.261719 L 477.792969 309.199219 L 480.433594 309.070312 L 482.078125 308.945312 L 483.507812 308.800781 L 484.578125 308.652344 L 485.292969 308.53125 L 486.367188 308.292969 L 487.222656 308.03125 L 487.867188 307.761719 L 488.296875 307.503906 L 498.300781 307.503906 L 497.871094 307.808594 L 497.226562 308.109375 L 496.585938 308.332031 L 495.585938 308.601562 L 494.441406 308.839844 L 492.796875 309.105469 L 491.441406 309.285156 L 489.652344 309.476562 L 488.007812 309.621094 L 486.222656 309.75 L 483.578125 309.90625 L 481.863281 309.980469 L 480.007812 310.050781 L 477.792969 310.113281 L 475.003906 310.167969 L 472.003906 310.195312 L 469.214844 310.203125 L 466.214844 310.1875 L 464 310.160156 L 461.070312 310.089844 L 457.425781 309.953125 L 454.78125 309.804688 L 452.710938 309.660156 L 450.921875 309.507812 L 448.921875 309.296875 L 446.351562 308.960938 L 444.777344 308.699219 L 443.707031 308.484375 L 442.492188 308.183594 L 441.632812 307.917969 L 440.632812 307.488281 L 439.917969 306.941406 L 439.703125 306.519531 Z M 439.703125 305.460938 "/>
<path style=" stroke:none;fill-rule:nonzero;fill:rgb(96.862745%,70.196078%,16.862745%);fill-opacity:1;" d="M 439.703125 312.664062 L 439.777344 312.660156 L 439.777344 312.605469 L 440.0625 312.484375 L 440.777344 312.3125 L 441.707031 312.175781 L 442.707031 312.066406 L 443.347656 312.007812 L 444.421875 311.925781 L 445.347656 311.867188 L 447.707031 311.746094 L 450.707031 311.628906 L 452.351562 311.582031 L 454.210938 311.535156 L 456.855469 311.484375 L 458.070312 311.464844 L 461.785156 311.417969 L 466 311.390625 L 470.644531 311.382812 L 472.789062 311.386719 L 475.71875 311.398438 L 479.71875 311.429688 L 482.007812 311.457031 L 483.792969 311.484375 L 485.652344 311.519531 L 487.9375 311.574219 L 490.082031 311.636719 L 491.796875 311.703125 L 493.511719 311.785156 L 494.941406 311.871094 L 496.15625 311.96875 L 497.226562 312.082031 L 497.871094 312.179688 L 498.300781 312.273438 L 488.367188 312.273438 L 487.796875 312.179688 L 487.152344 312.105469 L 486.082031 312.015625 L 485.007812 311.949219 L 483.9375 311.898438 L 481.9375 311.824219 L 480.222656 311.78125 L 478.078125 311.746094 L 476.003906 311.71875 L 473.648438 311.703125 L 472.21875 311.699219 L 468.429688 311.699219 L 465 311.71875 L 463 311.738281 L 461.570312 311.761719 L 459.570312 311.800781 L 458.355469 311.835938 L 457.640625 311.855469 L 455.496094 311.941406 L 454.066406 312.015625 L 453.28125 312.070312 L 452.28125 312.152344 L 451.566406 312.222656 L 450.78125 312.332031 L 450.351562 312.414062 L 449.78125 312.601562 L 449.707031 313.089844 L 449.921875 313.195312 L 450.351562 313.308594 L 450.921875 313.40625 L 451.78125 313.507812 L 452.636719 313.589844 L 454.140625 313.695312 L 455.425781 313.765625 L 456.425781 313.8125 L 458.355469 313.886719 L 459.140625 313.910156 L 461 313.957031 L 462.929688 313.996094 L 465.285156 314.03125 L 467.074219 314.046875 L 469.929688 314.058594 L 473.574219 314.058594 L 477.863281 314.042969 L 480.578125 314.023438 L 482.4375 314 L 483.652344 313.980469 L 485.152344 313.949219 L 486.222656 313.921875 L 487.222656 313.894531 L 488.4375 313.847656 L 488.4375 313.195312 L 470.789062 313.191406 L 470.789062 312.886719 L 498.226562 312.882812 L 498.300781 313.949219 L 496.800781 314.023438 L 494.941406 314.09375 L 493.15625 314.148438 L 491.296875 314.195312 L 488.652344 314.246094 L 486.507812 314.28125 L 483.222656 314.320312 L 480.222656 314.34375 L 477.078125 314.359375 L 474.289062 314.367188 L 471.003906 314.371094 L 468.074219 314.363281 L 464.929688 314.347656 L 462.429688 314.328125 L 460.140625 314.300781 L 457.855469 314.265625 L 454.996094 314.207031 L 453.136719 314.160156 L 451.210938 314.101562 L 449.28125 314.035156 L 447.566406 313.960938 L 446.421875 313.902344 L 445.277344 313.839844 L 444.0625 313.757812 L 442.921875 313.664062 L 442.0625 313.578125 L 441.277344 313.484375 L 440.703125 313.394531 L 440.132812 313.273438 L 439.847656 313.171875 L 439.703125 313.089844 Z M 439.703125 312.664062 "/>
<path style=" stroke:none;fill-rule:nonzero;fill:rgb(83.921569%,15.686275%,22.352941%);fill-opacity:1;" d="M 439.703125 175.980469 L 498.300781 175.980469 L 498.300781 187.558594 L 473.878906 187.660156 L 473.878906 284.128906 L 464.054688 284.128906 L 464.054688 187.761719 L 463.910156 187.558594 L 439.703125 187.558594 Z M 439.703125 175.980469 "/>
<path style=" stroke:none;fill-rule:nonzero;fill:rgb(96.862745%,70.196078%,16.862745%);fill-opacity:1;" d="M 501.382812 153.109375 L 501.453125 152.859375 L 501.453125 147.8125 L 501.742188 136.457031 L 502.457031 120.816406 L 503.382812 107.949219 L 504.382812 97.855469 L 505.027344 92.558594 L 506.101562 84.988281 L 507.027344 79.4375 L 509.386719 68.085938 L 512.386719 57.488281 L 514.03125 52.945312 L 515.890625 48.65625 L 518.535156 43.863281 L 519.75 42.097656 L 523.464844 38.0625 L 527.679688 35.539062 L 532.324219 34.78125 L 534.46875 35.035156 L 537.398438 36.042969 L 541.398438 38.816406 L 543.6875 41.339844 L 545.472656 43.863281 L 547.332031 47.144531 L 549.617188 52.191406 L 551.761719 58.246094 L 553.476562 64.300781 L 555.191406 71.871094 L 556.621094 79.945312 L 557.835938 88.773438 L 558.90625 99.371094 L 559.550781 108.199219 L 559.980469 117.03125 L 550.046875 117.03125 L 549.472656 108.199219 L 548.832031 101.390625 L 547.757812 93.0625 L 546.6875 87.007812 L 545.617188 82.214844 L 543.613281 75.652344 L 541.898438 71.617188 L 539.757812 68.085938 L 537.683594 65.816406 L 535.324219 64.300781 L 533.898438 63.796875 L 530.109375 63.796875 L 526.679688 65.5625 L 524.679688 67.582031 L 523.25 69.597656 L 521.25 73.382812 L 520.035156 76.410156 L 519.320312 78.429688 L 517.175781 86.25 L 515.746094 93.316406 L 514.960938 98.109375 L 513.960938 105.679688 L 513.246094 112.488281 L 512.460938 122.582031 L 512.03125 130.152344 L 511.460938 147.308594 L 511.386719 192.722656 L 511.601562 202.308594 L 512.03125 212.652344 L 512.601562 221.738281 L 513.460938 231.324219 L 514.316406 238.640625 L 515.816406 248.480469 L 517.105469 255.039062 L 518.105469 259.328125 L 520.035156 266.140625 L 520.820312 268.414062 L 522.679688 272.953125 L 524.605469 276.484375 L 526.964844 279.511719 L 528.75 281.027344 L 531.609375 282.289062 L 535.253906 282.289062 L 539.542969 280.773438 L 542.257812 278.757812 L 544.113281 276.738281 L 545.328125 274.972656 L 546.832031 272.195312 L 547.902344 269.675781 L 548.902344 266.898438 L 550.117188 262.609375 L 550.117188 202.308594 L 532.46875 202.058594 L 532.46875 173.800781 L 559.90625 173.546875 L 559.980469 272.195312 L 558.476562 279.007812 L 556.621094 285.570312 L 554.832031 290.613281 L 552.976562 294.902344 L 550.332031 299.699219 L 548.1875 302.726562 L 544.902344 306.257812 L 541.898438 308.527344 L 538.753906 310.042969 L 535.96875 310.800781 L 532.683594 311.050781 L 529.753906 310.546875 L 526.609375 309.03125 L 524.105469 307.015625 L 521.820312 304.492188 L 519.535156 301.210938 L 516.675781 295.914062 L 514.816406 291.625 L 512.886719 286.324219 L 510.957031 280.019531 L 509.242188 273.207031 L 508.101562 267.90625 L 506.957031 261.851562 L 505.742188 254.285156 L 504.597656 245.707031 L 503.742188 237.882812 L 502.957031 229.054688 L 502.382812 220.726562 L 501.8125 209.375 L 501.527344 200.292969 L 501.382812 192.46875 Z M 501.382812 153.109375 "/>
<path style=" stroke:none;fill-rule:nonzero;fill:rgb(83.921569%,15.686275%,22.352941%);fill-opacity:1;" d="M 501.382812 312.230469 L 559.980469 312.230469 L 559.980469 312.371094 L 535.558594 312.371094 L 535.558594 313.546875 L 525.734375 313.546875 L 525.734375 312.375 L 525.589844 312.371094 L 501.382812 312.371094 Z M 501.382812 312.230469 "/>
<path style=" stroke:none;fill-rule:nonzero;fill:rgb(6.27451%,58.823529%,28.235294%);fill-opacity:1;" d="M 563.0625 287.21875 L 563.125 287.179688 L 588.480469 247.515625 L 596.179688 247.515625 L 621.65625 287.253906 L 612.707031 287.253906 L 606.320312 276.882812 L 578.335938 276.882812 L 572.078125 287.21875 L 563.0625 287.21875 L 581.03125 272.589844 L 603.753906 272.554688 L 592.421875 254.007812 L 592.296875 253.96875 L 592.171875 254.082031 L 580.964844 272.554688 L 581.03125 272.589844 Z M 563.0625 287.21875 "/>
<path style=" stroke:none;fill-rule:nonzero;fill:rgb(14.509804%,36.078431%,60%);fill-opacity:1;" d="M 563.0625 294.445312 L 563.132812 294.429688 L 563.132812 294.128906 L 563.347656 293.648438 L 563.847656 293.042969 L 564.347656 292.625 L 565.636719 291.882812 L 567.421875 291.160156 L 569.28125 290.605469 L 570.636719 290.277344 L 571.851562 290.027344 L 574.640625 289.558594 L 576.425781 289.320312 L 578.355469 289.105469 L 580.710938 288.890625 L 582.425781 288.761719 L 586.285156 288.5625 L 589.144531 288.472656 L 591.359375 288.433594 L 596.148438 288.433594 L 599.003906 288.484375 L 601.078125 288.546875 L 603.363281 288.648438 L 605.292969 288.761719 L 608.652344 289.039062 L 611.652344 289.394531 L 613.011719 289.597656 L 615.15625 289.988281 L 616.796875 290.367188 L 617.941406 290.695312 L 619.226562 291.160156 L 620.371094 291.730469 L 621.230469 292.375 L 621.65625 292.917969 L 611.652344 292.917969 L 611.152344 292.410156 L 610.582031 292.019531 L 609.511719 291.503906 L 608.4375 291.136719 L 606.9375 290.769531 L 605.578125 290.53125 L 603.722656 290.289062 L 602.078125 290.140625 L 600.363281 290.027344 L 598.71875 289.949219 L 595.574219 289.875 L 591.929688 289.875 L 590.574219 289.898438 L 587.785156 290 L 586.285156 290.089844 L 584.144531 290.265625 L 582.640625 290.429688 L 580.855469 290.683594 L 579.640625 290.894531 L 578.140625 291.226562 L 577.066406 291.515625 L 575.855469 291.933594 L 575.140625 292.246094 L 574.496094 292.601562 L 573.925781 293.015625 L 573.496094 293.460938 L 573.210938 293.925781 L 573.066406 294.378906 L 573.066406 296.335938 L 573.210938 296.792969 L 573.566406 297.320312 L 574.496094 298.09375 L 575.855469 298.761719 L 577.425781 299.292969 L 578.925781 299.671875 L 579.785156 299.847656 L 580.925781 300.050781 L 582.714844 300.300781 L 585.285156 300.554688 L 586.785156 300.65625 L 589.074219 300.757812 L 591.429688 300.804688 L 594.574219 300.804688 L 597.363281 300.757812 L 599.21875 300.691406 L 601.148438 300.59375 L 603.792969 300.378906 L 605.4375 300.175781 L 606.867188 299.933594 L 607.9375 299.695312 L 608.652344 299.492188 L 609.722656 299.101562 L 610.582031 298.671875 L 611.226562 298.230469 L 611.652344 297.800781 L 621.65625 297.800781 L 621.230469 298.308594 L 620.585938 298.800781 L 619.941406 299.164062 L 618.941406 299.605469 L 617.800781 300 L 616.15625 300.441406 L 614.796875 300.730469 L 613.011719 301.046875 L 611.367188 301.285156 L 609.582031 301.5 L 606.9375 301.753906 L 605.222656 301.878906 L 603.363281 301.992188 L 601.148438 302.09375 L 598.363281 302.183594 L 595.363281 302.234375 L 592.574219 302.246094 L 589.574219 302.21875 L 587.359375 302.167969 L 584.429688 302.054688 L 580.785156 301.828125 L 578.140625 301.589844 L 576.066406 301.347656 L 574.28125 301.097656 L 572.28125 300.757812 L 569.707031 300.199219 L 568.136719 299.769531 L 567.0625 299.417969 L 565.847656 298.925781 L 564.992188 298.484375 L 563.992188 297.777344 L 563.277344 296.878906 L 563.0625 296.1875 Z M 563.0625 294.445312 "/>
<path style=" stroke:none;fill-rule:nonzero;fill:rgb(96.862745%,70.196078%,16.862745%);fill-opacity:1;" d="M 563.0625 305.945312 L 563.132812 305.941406 L 563.132812 305.832031 L 563.421875 305.589844 L 564.132812 305.257812 L 565.0625 304.984375 L 566.0625 304.769531 L 566.707031 304.65625 L 567.777344 304.496094 L 568.707031 304.375 L 571.066406 304.132812 L 574.066406 303.910156 L 575.710938 303.8125 L 577.570312 303.71875 L 580.210938 303.617188 L 581.425781 303.582031 L 585.144531 303.496094 L 589.359375 303.441406 L 594.003906 303.425781 L 596.148438 303.429688 L 599.078125 303.453125 L 603.078125 303.511719 L 605.367188 303.566406 L 607.152344 303.617188 L 609.011719 303.6875 L 611.296875 303.796875 L 613.441406 303.925781 L 615.15625 304.054688 L 616.871094 304.214844 L 618.300781 304.386719 L 619.515625 304.574219 L 620.585938 304.800781 L 621.230469 304.988281 L 621.65625 305.175781 L 611.726562 305.175781 L 611.152344 304.988281 L 610.511719 304.84375 L 609.4375 304.667969 L 608.367188 304.539062 L 607.292969 304.433594 L 605.292969 304.296875 L 603.578125 304.210938 L 601.433594 304.132812 L 599.363281 304.085938 L 597.003906 304.054688 L 595.574219 304.042969 L 591.789062 304.042969 L 588.359375 304.082031 L 586.359375 304.125 L 584.929688 304.167969 L 582.929688 304.246094 L 581.714844 304.3125 L 581 304.355469 L 578.855469 304.519531 L 577.425781 304.671875 L 576.640625 304.773438 L 575.640625 304.933594 L 574.925781 305.078125 L 574.136719 305.292969 L 573.710938 305.457031 L 573.136719 305.820312 L 573.066406 306.789062 L 573.28125 306.992188 L 573.710938 307.210938 L 574.28125 307.40625 L 575.140625 307.609375 L 575.996094 307.765625 L 577.496094 307.976562 L 578.785156 308.117188 L 579.785156 308.207031 L 581.714844 308.351562 L 582.5 308.398438 L 584.355469 308.496094 L 586.285156 308.570312 L 588.644531 308.636719 L 590.429688 308.667969 L 593.289062 308.695312 L 596.933594 308.695312 L 601.222656 308.664062 L 603.9375 308.621094 L 605.792969 308.578125 L 607.007812 308.539062 L 608.507812 308.480469 L 609.582031 308.425781 L 610.582031 308.367188 L 611.796875 308.277344 L 611.796875 306.992188 L 594.148438 306.988281 L 594.148438 306.386719 L 621.585938 306.378906 L 621.65625 308.480469 L 620.15625 308.625 L 618.300781 308.765625 L 616.511719 308.871094 L 614.65625 308.964844 L 612.011719 309.066406 L 609.867188 309.128906 L 606.582031 309.207031 L 603.578125 309.253906 L 600.433594 309.285156 L 597.648438 309.300781 L 594.359375 309.308594 L 591.429688 309.296875 L 588.289062 309.265625 L 585.785156 309.222656 L 583.5 309.167969 L 581.210938 309.097656 L 578.355469 308.984375 L 576.496094 308.894531 L 574.566406 308.78125 L 572.636719 308.648438 L 570.921875 308.503906 L 569.78125 308.390625 L 568.636719 308.261719 L 567.421875 308.097656 L 566.277344 307.917969 L 565.421875 307.75 L 564.632812 307.5625 L 564.0625 307.382812 L 563.492188 307.144531 L 563.207031 306.949219 L 563.0625 306.78125 Z M 563.0625 305.945312 "/>
<path style=" stroke:none;fill-rule:nonzero;fill:rgb(83.921569%,15.686275%,22.352941%);fill-opacity:1;" d="M 563.0625 310.488281 L 621.65625 310.488281 L 621.65625 310.902344 L 597.238281 310.90625 L 597.238281 314.371094 L 587.410156 314.371094 L 587.410156 310.910156 L 587.269531 310.902344 L 563.0625 310.902344 Z M 563.0625 310.488281 "/>
<path style=" stroke:none;fill-rule:nonzero;fill:rgb(6.27451%,58.823529%,28.235294%);fill-opacity:1;" d="M 624.742188 309.605469 L 624.804688 309.601562 L 650.15625 305.808594 L 657.859375 305.808594 L 683.335938 309.609375 L 674.386719 309.609375 L 668 308.617188 L 640.015625 308.617188 L 633.757812 309.605469 L 624.742188 309.605469 L 642.707031 308.207031 L 665.433594 308.203125 L 654.101562 306.429688 L 653.976562 306.425781 L 653.851562 306.4375 L 642.644531 308.203125 L 642.707031 308.207031 Z M 624.742188 309.605469 "/>
<path style=" stroke:none;fill-rule:nonzero;fill:rgb(14.509804%,36.078431%,60%);fill-opacity:1;" d="M 624.742188 278.515625 L 624.8125 278.492188 L 624.8125 277.984375 L 625.027344 277.179688 L 625.527344 276.160156 L 626.027344 275.460938 L 627.3125 274.210938 L 629.101562 273.003906 L 630.957031 272.070312 L 632.316406 271.519531 L 633.53125 271.097656 L 636.316406 270.3125 L 638.105469 269.910156 L 640.035156 269.546875 L 642.390625 269.1875 L 644.105469 268.976562 L 647.964844 268.636719 L 650.824219 268.488281 L 653.039062 268.425781 L 657.828125 268.425781 L 660.683594 268.511719 L 662.757812 268.617188 L 665.042969 268.785156 L 666.972656 268.976562 L 670.332031 269.441406 L 673.332031 270.035156 L 674.691406 270.375 L 676.835938 271.03125 L 678.476562 271.667969 L 679.621094 272.21875 L 680.90625 273.003906 L 682.050781 273.957031 L 682.910156 275.039062 L 683.335938 275.949219 L 673.332031 275.949219 L 672.832031 275.101562 L 672.261719 274.445312 L 671.1875 273.574219 L 670.117188 272.960938 L 668.617188 272.347656 L 667.257812 271.945312 L 665.402344 271.539062 L 663.757812 271.285156 L 662.042969 271.097656 L 660.398438 270.96875 L 657.253906 270.839844 L 653.609375 270.839844 L 652.253906 270.882812 L 649.464844 271.054688 L 647.964844 271.203125 L 645.820312 271.5 L 644.320312 271.773438 L 642.535156 272.199219 L 641.320312 272.558594 L 639.820312 273.109375 L 638.746094 273.597656 L 637.53125 274.296875 L 636.816406 274.824219 L 636.175781 275.417969 L 635.601562 276.117188 L 635.175781 276.859375 L 634.890625 277.644531 L 634.746094 278.40625 L 634.746094 281.695312 L 634.890625 282.457031 L 635.246094 283.347656 L 636.175781 284.640625 L 637.53125 285.761719 L 639.105469 286.652344 L 640.605469 287.289062 L 641.464844 287.585938 L 642.605469 287.925781 L 644.394531 288.347656 L 646.964844 288.773438 L 648.464844 288.941406 L 650.753906 289.113281 L 653.109375 289.195312 L 656.253906 289.195312 L 659.042969 289.113281 L 660.898438 289.007812 L 662.828125 288.835938 L 665.472656 288.476562 L 667.117188 288.136719 L 668.546875 287.734375 L 669.617188 287.332031 L 670.332031 286.992188 L 671.402344 286.335938 L 672.261719 285.613281 L 672.902344 284.871094 L 673.332031 284.152344 L 683.335938 284.152344 L 682.910156 285 L 682.265625 285.828125 L 681.621094 286.441406 L 680.621094 287.183594 L 679.476562 287.839844 L 677.835938 288.582031 L 676.476562 289.070312 L 674.691406 289.597656 L 673.046875 290.003906 L 671.261719 290.363281 L 668.617188 290.785156 L 666.902344 291 L 665.042969 291.1875 L 662.828125 291.359375 L 660.042969 291.507812 L 657.039062 291.59375 L 654.253906 291.613281 L 651.253906 291.570312 L 649.039062 291.484375 L 646.109375 291.296875 L 642.464844 290.914062 L 639.820312 290.511719 L 637.746094 290.109375 L 635.960938 289.683594 L 633.960938 289.113281 L 631.386719 288.179688 L 629.816406 287.457031 L 628.742188 286.867188 L 627.527344 286.039062 L 626.671875 285.296875 L 625.671875 284.109375 L 624.957031 282.605469 L 624.742188 281.4375 Z M 624.742188 278.515625 "/>
<path style=" stroke:none;fill-rule:nonzero;fill:rgb(96.862745%,70.196078%,16.862745%);fill-opacity:1;" d="M 624.742188 312.324219 L 624.8125 312.320312 L 624.8125 312.253906 L 625.097656 312.105469 L 625.8125 311.902344 L 626.742188 311.738281 L 627.742188 311.605469 L 628.386719 311.539062 L 629.457031 311.441406 L 630.386719 311.367188 L 632.746094 311.21875 L 635.746094 311.082031 L 637.390625 311.023438 L 639.246094 310.96875 L 641.890625 310.90625 L 643.105469 310.882812 L 646.820312 310.832031 L 651.039062 310.796875 L 655.683594 310.789062 L 657.828125 310.792969 L 660.757812 310.804688 L 664.757812 310.839844 L 667.042969 310.875 L 668.832031 310.90625 L 670.6875 310.949219 L 672.976562 311.015625 L 675.121094 311.09375 L 676.835938 311.171875 L 678.550781 311.269531 L 679.980469 311.375 L 681.191406 311.488281 L 682.265625 311.625 L 682.910156 311.742188 L 683.335938 311.855469 L 673.40625 311.855469 L 672.832031 311.742188 L 672.191406 311.652344 L 671.117188 311.542969 L 670.046875 311.464844 L 668.972656 311.402344 L 666.972656 311.320312 L 665.257812 311.265625 L 663.113281 311.21875 L 661.042969 311.191406 L 658.683594 311.171875 L 657.253906 311.164062 L 653.46875 311.164062 L 650.039062 311.1875 L 648.035156 311.214844 L 646.609375 311.238281 L 644.605469 311.289062 L 643.390625 311.328125 L 642.675781 311.355469 L 640.535156 311.457031 L 639.105469 311.546875 L 638.320312 311.609375 L 637.316406 311.707031 L 636.605469 311.796875 L 635.816406 311.925781 L 635.390625 312.023438 L 634.816406 312.246094 L 634.746094 312.835938 L 634.960938 312.960938 L 635.390625 313.09375 L 635.960938 313.210938 L 636.816406 313.335938 L 637.675781 313.433594 L 639.175781 313.558594 L 640.460938 313.644531 L 641.464844 313.699219 L 643.390625 313.789062 L 644.179688 313.816406 L 646.035156 313.875 L 647.964844 313.921875 L 650.324219 313.960938 L 652.109375 313.980469 L 654.96875 313.996094 L 658.613281 313.996094 L 662.898438 313.976562 L 665.617188 313.953125 L 667.472656 313.925781 L 668.6875 313.902344 L 670.1875 313.867188 L 671.261719 313.835938 L 672.261719 313.796875 L 673.476562 313.742188 L 673.476562 312.960938 L 655.824219 312.957031 L 655.824219 312.589844 L 683.265625 312.589844 L 683.335938 313.867188 L 681.835938 313.957031 L 679.980469 314.039062 L 678.191406 314.105469 L 676.335938 314.160156 L 673.691406 314.222656 L 671.546875 314.261719 L 668.257812 314.308594 L 665.257812 314.339844 L 662.113281 314.359375 L 659.328125 314.367188 L 656.039062 314.371094 L 653.109375 314.363281 L 649.964844 314.34375 L 647.464844 314.316406 L 645.179688 314.285156 L 642.890625 314.242188 L 640.035156 314.175781 L 638.175781 314.117188 L 636.246094 314.050781 L 634.316406 313.96875 L 632.601562 313.878906 L 631.457031 313.8125 L 630.316406 313.734375 L 629.101562 313.632812 L 627.957031 313.523438 L 627.101562 313.421875 L 626.3125 313.308594 L 625.742188 313.199219 L 625.171875 313.050781 L 624.882812 312.933594 L 624.742188 312.832031 Z M 624.742188 312.324219 "/>
<path style=" stroke:none;fill-rule:nonzero;fill:rgb(83.921569%,15.686275%,22.352941%);fill-opacity:1;" d="M 624.742188 292.792969 L 683.335938 292.792969 L 683.335938 294.058594 L 658.917969 294.070312 L 658.917969 304.628906 L 649.089844 304.628906 L 649.089844 294.082031 L 648.949219 294.058594 L 624.742188 294.058594 Z M 624.742188 292.792969 "/>
<g style="fill:rgb(0%,0%,0%);fill-opacity:1;">
  <use xlink:href="#glyph0-1" x="21.957031" y="318.198242"/>
  <use xlink:href="#glyph0-2" x="27.291016" y="318.198242"/>
  <use xlink:href="#glyph0-1" x="29.958008" y="318.198242"/>
</g>
<g style="fill:rgb(0%,0%,0%);fill-opacity:1;">
  <use xlink:href="#glyph0-1" x="21.957031" y="244.225586"/>
  <use xlink:href="#glyph0-2" x="27.291016" y="244.225586"/>
  <use xlink:href="#glyph0-3" x="29.958008" y="244.225586"/>
</g>
<g style="fill:rgb(0%,0%,0%);fill-opacity:1;">
  <use xlink:href="#glyph0-4" x="21.957031" y="170.25293"/>
  <use xlink:href="#glyph0-2" x="27.291016" y="170.25293"/>
  <use xlink:href="#glyph0-1" x="29.958008" y="170.25293"/>
</g>
<g style="fill:rgb(0%,0%,0%);fill-opacity:1;">
  <use xlink:href="#glyph0-4" x="21.957031" y="96.280273"/>
  <use xlink:href="#glyph0-2" x="27.291016" y="96.280273"/>
  <use xlink:href="#glyph0-3" x="29.958008" y="96.280273"/>
</g>
<g style="fill:rgb(0%,0%,0%);fill-opacity:1;">
  <use xlink:href="#glyph0-5" x="21.957031" y="22.307617"/>
  <use xlink:href="#glyph0-2" x="27.291016" y="22.307617"/>
  <use xlink:href="#glyph0-1" x="29.958008" y="22.307617"/>
</g>
<g style="fill:rgb(0%,0%,0%);fill-opacity:1;">
  <use xlink:href="#glyph0-4" x="95.925781" y="338.19043"/>
</g>
<g style="fill:rgb(0%,0%,0%);fill-opacity:1;">
  <use xlink:href="#glyph0-5" x="157.605469" y="338.19043"/>
</g>
<g style="fill:rgb(0%,0%,0%);fill-opacity:1;">
  <use xlink:href="#glyph0-6" x="219.285156" y="338.19043"/>
</g>
<g style="fill:rgb(0%,0%,0%);fill-opacity:1;">
  <use xlink:href="#glyph0-7" x="280.964844" y="338.19043"/>
</g>
<g style="fill:rgb(0%,0%,0%);fill-opacity:1;">
  <use xlink:href="#glyph0-3" x="342.644531" y="338.19043"/>
</g>
<g style="fill:rgb(0%,0%,0%);fill-opacity:1;">
  <use xlink:href="#glyph0-8" x="404.324219" y="338.19043"/>
</g>
<g style="fill:rgb(0%,0%,0%);fill-opacity:1;">
  <use xlink:href="#glyph0-9" x="466" y="338.19043"/>
</g>
<g style="fill:rgb(0%,0%,0%);fill-opacity:1;">
  <use xlink:href="#glyph0-10" x="527.679688" y="338.19043"/>
</g>
<g style="fill:rgb(0%,0%,0%);fill-opacity:1;">
  <use xlink:href="#glyph0-11" x="589.359375" y="338.19043"/>
</g>
<g style="fill:rgb(0%,0%,0%);fill-opacity:1;">
  <use xlink:href="#glyph0-4" x="648.539062" y="338.19043"/>
  <use xlink:href="#glyph0-1" x="653.873047" y="338.19043"/>
</g>
<g style="fill:rgb(0%,0%,0%);fill-opacity:1;">
  <use xlink:href="#glyph1-1" x="14.412109" y="178.015625"/>
  <use xlink:href="#glyph1-2" x="14.412109" y="170.011719"/>
  <use xlink:href="#glyph1-3" x="14.412109" y="167.347656"/>
  <use xlink:href="#glyph1-4" x="14.412109" y="164.011719"/>
</g>
</g>
</svg>
