<?xml version="1.0" encoding="UTF-8"?>
<svg xmlns="http://www.w3.org/2000/svg" xmlns:xlink="http://www.w3.org/1999/xlink" width="720pt" height="360pt" viewBox="0 0 720 360" version="1.1">
<defs>
<g>
<symbol overflow="visible" id="glyph0-0">
<path style="stroke:none;" d=""/>
</symbol>
<symbol overflow="visible" id="glyph0-1">
<path style="stroke:none;" d="M 2.640625 -6.796875 C 2 -6.796875 1.421875 -6.53125 1.078125 -6.046875 C 0.640625 -5.453125 0.40625 -4.546875 0.40625 -3.296875 C 0.40625 -1 1.1875 0.21875 2.640625 0.21875 C 4.078125 0.21875 4.859375 -1 4.859375 -3.234375 C 4.859375 -4.5625 4.65625 -5.4375 4.203125 -6.046875 C 3.84375 -6.53125 3.28125 -6.796875 2.640625 -6.796875 Z M 2.640625 -6.046875 C 3.546875 -6.046875 4 -5.125 4 -3.3125 C 4 -1.375 3.5625 -0.484375 2.625 -0.484375 C 1.734375 -0.484375 1.28125 -1.421875 1.28125 -3.28125 C 1.28125 -5.140625 1.734375 -6.046875 2.640625 -6.046875 Z M 2.640625 -6.046875 "/>
</symbol>
<symbol overflow="visible" id="glyph0-2">
<path style="stroke:none;" d="M 1.828125 -1 L 0.828125 -1 L 0.828125 0 L 1.828125 0 Z M 1.828125 -1 "/>
</symbol>
<symbol overflow="visible" id="glyph0-3">
<path style="stroke:none;" d="M 4.5625 -6.796875 L 1.0625 -6.796875 L 0.546875 -3.09375 L 1.328125 -3.09375 C 1.71875 -3.5625 2.046875 -3.734375 2.578125 -3.734375 C 3.484375 -3.734375 4.0625 -3.109375 4.0625 -2.09375 C 4.0625 -1.125 3.484375 -0.53125 2.578125 -0.53125 C 1.828125 -0.53125 1.375 -0.90625 1.1875 -1.671875 L 0.328125 -1.671875 C 0.453125 -1.109375 0.546875 -0.84375 0.75 -0.59375 C 1.125 -0.078125 1.828125 0.21875 2.59375 0.21875 C 3.96875 0.21875 4.921875 -0.78125 4.921875 -2.21875 C 4.921875 -3.5625 4.03125 -4.484375 2.71875 -4.484375 C 2.25 -4.484375 1.859375 -4.359375 1.46875 -4.0625 L 1.734375 -5.96875 L 4.5625 -5.96875 Z M 4.5625 -6.796875 "/>
</symbol>
<symbol overflow="visible" id="glyph0-4">
<path style="stroke:none;" d="M 2.484375 -4.84375 L 2.484375 0 L 3.328125 0 L 3.328125 -6.796875 L 2.765625 -6.796875 C 2.46875 -5.75 2.28125 -5.609375 0.984375 -5.453125 L 0.984375 -4.84375 Z M 2.484375 -4.84375 "/>
</symbol>
<symbol overflow="visible" id="glyph0-5">
<path style="stroke:none;" d="M 4.859375 -0.828125 L 1.28125 -0.828125 C 1.359375 -1.390625 1.671875 -1.75 2.5 -2.234375 L 3.46875 -2.75 C 4.40625 -3.265625 4.90625 -3.96875 4.90625 -4.8125 C 4.90625 -5.375 4.671875 -5.90625 4.265625 -6.265625 C 3.859375 -6.625 3.375 -6.796875 2.71875 -6.796875 C 1.859375 -6.796875 1.21875 -6.5 0.84375 -5.921875 C 0.609375 -5.5625 0.5 -5.125 0.484375 -4.4375 L 1.328125 -4.4375 C 1.359375 -4.90625 1.40625 -5.1875 1.53125 -5.40625 C 1.75 -5.8125 2.1875 -6.0625 2.703125 -6.0625 C 3.46875 -6.0625 4.03125 -5.515625 4.03125 -4.78125 C 4.03125 -4.25 3.71875 -3.796875 3.125 -3.4375 L 2.234375 -2.9375 C 0.8125 -2.140625 0.40625 -1.5 0.328125 0 L 4.859375 0 Z M 4.859375 -0.828125 "/>
</symbol>
<symbol overflow="visible" id="glyph0-6">
<path style="stroke:none;" d="M 2.125 -3.125 L 2.578125 -3.125 C 3.515625 -3.125 3.984375 -2.703125 3.984375 -1.890625 C 3.984375 -1.03125 3.46875 -0.53125 2.578125 -0.53125 C 1.65625 -0.53125 1.203125 -0.984375 1.15625 -1.96875 L 0.3125 -1.96875 C 0.34375 -1.421875 0.4375 -1.078125 0.609375 -0.765625 C 0.953125 -0.109375 1.625 0.21875 2.546875 0.21875 C 3.953125 0.21875 4.859375 -0.609375 4.859375 -1.90625 C 4.859375 -2.765625 4.515625 -3.25 3.703125 -3.515625 C 4.34375 -3.765625 4.65625 -4.25 4.65625 -4.9375 C 4.65625 -6.109375 3.875 -6.796875 2.578125 -6.796875 C 1.203125 -6.796875 0.484375 -6.046875 0.453125 -4.609375 L 1.296875 -4.609375 C 1.3125 -5.015625 1.34375 -5.25 1.453125 -5.453125 C 1.640625 -5.828125 2.0625 -6.0625 2.59375 -6.0625 C 3.34375 -6.0625 3.796875 -5.625 3.796875 -4.90625 C 3.796875 -4.421875 3.609375 -4.140625 3.25 -3.984375 C 3.015625 -3.890625 2.71875 -3.84375 2.125 -3.84375 Z M 2.125 -3.125 "/>
</symbol>
<symbol overflow="visible" id="glyph0-7">
<path style="stroke:none;" d="M 3.140625 -1.625 L 3.140625 0 L 3.984375 0 L 3.984375 -1.625 L 4.984375 -1.625 L 4.984375 -2.390625 L 3.984375 -2.390625 L 3.984375 -6.796875 L 3.359375 -6.796875 L 0.265625 -2.515625 L 0.265625 -1.625 Z M 3.140625 -2.390625 L 1 -2.390625 L 3.140625 -5.359375 Z M 3.140625 -2.390625 "/>
</symbol>
<symbol overflow="visible" id="glyph0-8">
<path style="stroke:none;" d="M 4.78125 -5.03125 C 4.609375 -6.140625 3.890625 -6.796875 2.84375 -6.796875 C 2.09375 -6.796875 1.421875 -6.4375 1.03125 -5.828125 C 0.609375 -5.171875 0.40625 -4.34375 0.40625 -3.09375 C 0.40625 -1.953125 0.578125 -1.234375 0.984375 -0.625 C 1.359375 -0.078125 1.953125 0.21875 2.703125 0.21875 C 3.984375 0.21875 4.921875 -0.734375 4.921875 -2.078125 C 4.921875 -3.34375 4.0625 -4.234375 2.84375 -4.234375 C 2.171875 -4.234375 1.640625 -3.96875 1.28125 -3.46875 C 1.28125 -5.125 1.828125 -6.046875 2.796875 -6.046875 C 3.390625 -6.046875 3.796875 -5.671875 3.9375 -5.03125 Z M 2.734375 -3.484375 C 3.546875 -3.484375 4.0625 -2.921875 4.0625 -2 C 4.0625 -1.15625 3.484375 -0.53125 2.703125 -0.53125 C 1.921875 -0.53125 1.328125 -1.1875 1.328125 -2.046875 C 1.328125 -2.890625 1.90625 -3.484375 2.734375 -3.484375 Z M 2.734375 -3.484375 "/>
</symbol>
<symbol overflow="visible" id="glyph0-9">
<path style="stroke:none;" d="M 4.984375 -6.796875 L 0.4375 -6.796875 L 0.4375 -5.96875 L 4.109375 -5.96875 C 2.5 -3.65625 1.828125 -2.234375 1.328125 0 L 2.21875 0 C 2.59375 -2.171875 3.453125 -4.046875 4.984375 -6.09375 Z M 4.984375 -6.796875 "/>
</symbol>
<symbol overflow="visible" id="glyph0-10">
<path style="stroke:none;" d="M 3.75 -3.578125 C 4.453125 -4 4.6875 -4.34375 4.6875 -4.984375 C 4.6875 -6.046875 3.84375 -6.796875 2.640625 -6.796875 C 1.4375 -6.796875 0.59375 -6.046875 0.59375 -4.984375 C 0.59375 -4.359375 0.828125 -4.015625 1.515625 -3.578125 C 0.734375 -3.203125 0.359375 -2.640625 0.359375 -1.890625 C 0.359375 -0.640625 1.296875 0.21875 2.640625 0.21875 C 3.984375 0.21875 4.921875 -0.640625 4.921875 -1.875 C 4.921875 -2.640625 4.53125 -3.203125 3.75 -3.578125 Z M 2.640625 -6.046875 C 3.359375 -6.046875 3.8125 -5.625 3.8125 -4.96875 C 3.8125 -4.34375 3.34375 -3.921875 2.640625 -3.921875 C 1.921875 -3.921875 1.453125 -4.34375 1.453125 -4.984375 C 1.453125 -5.625 1.921875 -6.046875 2.640625 -6.046875 Z M 2.640625 -3.203125 C 3.484375 -3.203125 4.0625 -2.671875 4.0625 -1.875 C 4.0625 -1.0625 3.484375 -0.53125 2.625 -0.53125 C 1.796875 -0.53125 1.21875 -1.078125 1.21875 -1.875 C 1.21875 -2.671875 1.796875 -3.203125 2.640625 -3.203125 Z M 2.640625 -3.203125 "/>
</symbol>
<symbol overflow="visible" id="glyph0-11">
<path style="stroke:none;" d="M 0.515625 -1.546875 C 0.671875 -0.4375 1.40625 0.21875 2.4375 0.21875 C 3.1875 0.21875 3.859375 -0.140625 4.265625 -0.75 C 4.6875 -1.40625 4.890625 -2.25 4.890625 -3.484375 C 4.890625 -4.625 4.703125 -5.359375 4.3125 -5.953125 C 3.9375 -6.5 3.34375 -6.796875 2.59375 -6.796875 C 1.296875 -6.796875 0.359375 -5.84375 0.359375 -4.515625 C 0.359375 -3.25 1.234375 -2.34375 2.453125 -2.34375 C 3.09375 -2.34375 3.5625 -2.578125 4.015625 -3.109375 C 4 -1.453125 3.46875 -0.53125 2.5 -0.53125 C 1.90625 -0.53125 1.484375 -0.90625 1.359375 -1.546875 Z M 2.578125 -6.0625 C 3.375 -6.0625 3.96875 -5.40625 3.96875 -4.53125 C 3.96875 -3.6875 3.375 -3.09375 2.546875 -3.09375 C 1.734375 -3.09375 1.234375 -3.671875 1.234375 -4.578125 C 1.234375 -5.4375 1.796875 -6.0625 2.578125 -6.0625 Z M 2.578125 -6.0625 "/>
</symbol>
<symbol overflow="visible" id="glyph1-0">
<path style="stroke:none;" d=""/>
</symbol>
<symbol overflow="visible" id="glyph1-1">
<path style="stroke:none;" d="M 0 -0.953125 L 0 -4.890625 C 0 -5.71875 -0.234375 -6.34375 -0.734375 -6.796875 C -1.1875 -7.234375 -1.8125 -7.46875 -2.5 -7.46875 C -3.546875 -7.46875 -4.1875 -7 -4.625 -5.875 C -4.984375 -6.671875 -5.640625 -7.09375 -6.53125 -7.09375 C -7.15625 -7.09375 -7.734375 -6.859375 -8.140625 -6.390625 C -8.5625 -5.9375 -8.75 -5.34375 -8.75 -4.5 L -8.75 -0.953125 Z M -4.984375 -2.0625 L -7.765625 -2.0625 L -7.765625 -4.21875 C -7.765625 -4.84375 -7.6875 -5.203125 -7.453125 -5.5 C -7.21875 -5.8125 -6.859375 -5.96875 -6.375 -5.96875 C -5.90625 -5.96875 -5.53125 -5.8125 -5.296875 -5.5 C -5.0625 -5.203125 -4.984375 -4.84375 -4.984375 -4.21875 Z M -0.984375 -2.0625 L -4 -2.0625 L -4 -4.78125 C -4 -5.328125 -3.859375 -5.6875 -3.578125 -5.953125 C -3.296875 -6.21875 -2.921875 -6.359375 -2.484375 -6.359375 C -2.0625 -6.359375 -1.6875 -6.21875 -1.40625 -5.953125 C -1.109375 -5.6875 -0.984375 -5.328125 -0.984375 -4.78125 Z M -0.984375 -2.0625 "/>
</symbol>
<symbol overflow="visible" id="glyph1-2">
<path style="stroke:none;" d="M -6.28125 -1.796875 L -6.28125 -0.796875 L 0 -0.796875 L 0 -1.796875 Z M -8.75 -1.796875 L -8.75 -0.796875 L -7.484375 -0.796875 L -7.484375 -1.796875 Z M -8.75 -1.796875 "/>
</symbol>
<symbol overflow="visible" id="glyph1-3">
<path style="stroke:none;" d="M -6.28125 -3.046875 L -6.28125 -2.015625 L -8.015625 -2.015625 L -8.015625 -1.015625 L -6.28125 -1.015625 L -6.28125 -0.171875 L -5.46875 -0.171875 L -5.46875 -1.015625 L -0.71875 -1.015625 C -0.078125 -1.015625 0.28125 -1.453125 0.28125 -2.234375 C 0.28125 -2.46875 0.25 -2.71875 0.1875 -3.046875 L -0.640625 -3.046875 C -0.609375 -2.921875 -0.59375 -2.765625 -0.59375 -2.5625 C -0.59375 -2.140625 -0.71875 -2.015625 -1.15625 -2.015625 L -5.46875 -2.015625 L -5.46875 -3.046875 Z M -6.28125 -3.046875 "/>
</symbol>
<symbol overflow="visible" id="glyph1-4">
<path style="stroke:none;" d="M -4.53125 -5.25 C -5.765625 -5.25 -6.46875 -4.421875 -6.46875 -2.96875 C -6.46875 -1.515625 -5.71875 -0.5625 -4.546875 -0.5625 C -3.5625 -0.5625 -3.09375 -1.0625 -2.734375 -2.5625 L -2.515625 -3.484375 C -2.34375 -4.1875 -2.09375 -4.46875 -1.625 -4.46875 C -1.046875 -4.46875 -0.640625 -3.875 -0.640625 -3 C -0.640625 -2.453125 -0.796875 -2 -1.0625 -1.75 C -1.25 -1.59375 -1.421875 -1.53125 -1.875 -1.46875 L -1.875 -0.40625 C -0.421875 -0.453125 0.28125 -1.265625 0.28125 -2.921875 C 0.28125 -4.5 -0.5 -5.515625 -1.71875 -5.515625 C -2.65625 -5.515625 -3.171875 -4.984375 -3.46875 -3.734375 L -3.703125 -2.765625 C -3.890625 -1.953125 -4.15625 -1.609375 -4.59375 -1.609375 C -5.171875 -1.609375 -5.546875 -2.125 -5.546875 -2.9375 C -5.546875 -3.75 -5.203125 -4.171875 -4.53125 -4.203125 Z M -4.53125 -5.25 "/>
</symbol>
</g>
</defs>
<g id="surface96156">
<rect x="0" y="0" width="720" height="360" style="fill:rgb(100%,100%,100%);fill-opacity:1;stroke:none;"/>
<path style=" stroke:none;fill-rule:nonzero;fill:rgb(6.27451%,58.823529%,28.235294%);fill-opacity:1;" d="M 69.628906 310.542969 L 69.691406 310.488281 L 95.046875 255.628906 L 102.746094 255.628906 L 128.222656 310.59375 L 119.273438 310.59375 L 112.886719 296.246094 L 84.902344 296.246094 L 78.644531 310.542969 L 69.628906 310.542969 L 87.597656 290.3125 L 110.320312 290.257812 L 98.988281 264.609375 L 98.863281 264.558594 L 98.738281 264.710938 L 87.535156 290.257812 L 87.597656 290.3125 Z M 69.628906 310.542969 "/>
<path style=" stroke:none;fill-rule:nonzero;fill:rgb(14.509804%,36.078431%,60%);fill-opacity:1;" d="M 69.628906 312.636719 L 69.699219 312.636719 L 69.699219 312.59375 L 69.914062 312.523438 L 70.414062 312.4375 L 70.914062 312.375 L 72.203125 312.269531 L 73.988281 312.164062 L 75.847656 312.085938 L 77.203125 312.039062 L 78.417969 312 L 81.207031 311.933594 L 82.992188 311.898438 L 84.921875 311.867188 L 87.28125 311.839844 L 88.996094 311.820312 L 92.851562 311.789062 L 95.710938 311.777344 L 97.925781 311.773438 L 102.714844 311.773438 L 105.574219 311.78125 L 107.644531 311.789062 L 109.929688 311.804688 L 111.859375 311.820312 L 115.21875 311.859375 L 118.21875 311.910156 L 119.578125 311.941406 L 121.722656 311.996094 L 123.367188 312.050781 L 124.507812 312.097656 L 125.796875 312.164062 L 126.9375 312.246094 L 127.796875 312.339844 L 128.222656 312.417969 L 118.21875 312.417969 L 117.71875 312.34375 L 117.148438 312.289062 L 116.078125 312.214844 L 115.003906 312.160156 L 113.503906 312.109375 L 112.148438 312.074219 L 110.289062 312.039062 L 108.644531 312.019531 L 106.929688 312 L 105.285156 311.992188 L 102.140625 311.980469 L 98.5 311.980469 L 97.140625 311.984375 L 94.355469 312 L 92.851562 312.011719 L 90.710938 312.035156 L 89.207031 312.058594 L 87.421875 312.097656 L 86.207031 312.128906 L 84.707031 312.175781 L 83.636719 312.214844 L 82.421875 312.277344 L 81.707031 312.320312 L 81.0625 312.371094 L 80.492188 312.433594 L 80.0625 312.496094 L 79.777344 312.5625 L 79.632812 312.628906 L 79.632812 312.910156 L 79.777344 312.976562 L 80.132812 313.050781 L 81.0625 313.164062 L 82.421875 313.257812 L 83.992188 313.335938 L 85.492188 313.390625 L 86.351562 313.414062 L 87.492188 313.445312 L 89.28125 313.480469 L 91.851562 313.519531 L 93.351562 313.53125 L 95.640625 313.546875 L 97.996094 313.554688 L 101.140625 313.554688 L 103.929688 313.546875 L 105.785156 313.539062 L 107.714844 313.523438 L 110.359375 313.492188 L 112.003906 313.464844 L 113.433594 313.429688 L 114.503906 313.394531 L 115.21875 313.363281 L 116.292969 313.308594 L 117.148438 313.246094 L 117.792969 313.183594 L 118.21875 313.121094 L 128.222656 313.121094 L 127.796875 313.195312 L 127.152344 313.265625 L 126.507812 313.316406 L 125.507812 313.382812 L 124.367188 313.4375 L 122.722656 313.5 L 121.363281 313.542969 L 119.578125 313.589844 L 117.933594 313.625 L 116.148438 313.652344 L 113.503906 313.691406 L 111.789062 313.707031 L 109.929688 313.726562 L 107.714844 313.738281 L 104.929688 313.753906 L 101.929688 313.757812 L 99.140625 313.761719 L 96.140625 313.757812 L 93.925781 313.75 L 90.996094 313.734375 L 87.351562 313.703125 L 84.707031 313.667969 L 82.632812 313.632812 L 80.847656 313.597656 L 78.847656 313.546875 L 76.273438 313.46875 L 74.703125 313.40625 L 73.632812 313.355469 L 72.417969 313.285156 L 71.558594 313.21875 L 70.558594 313.117188 L 69.84375 312.988281 L 69.628906 312.890625 Z M 69.628906 312.636719 "/>
<path style=" stroke:none;fill-rule:nonzero;fill:rgb(96.862745%,70.196078%,16.862745%);fill-opacity:1;" d="M 69.628906 218.308594 L 69.699219 218.25 L 69.699219 217.09375 L 69.988281 214.496094 L 70.703125 210.917969 L 71.628906 207.972656 L 72.628906 205.664062 L 73.273438 204.449219 L 74.34375 202.71875 L 75.273438 201.449219 L 77.632812 198.851562 L 80.632812 196.425781 L 82.277344 195.386719 L 84.136719 194.40625 L 86.777344 193.308594 L 87.992188 192.902344 L 91.710938 191.980469 L 95.925781 191.402344 L 100.570312 191.230469 L 102.714844 191.289062 L 105.644531 191.519531 L 109.644531 192.152344 L 111.933594 192.730469 L 113.71875 193.308594 L 115.578125 194.058594 L 117.863281 195.214844 L 120.007812 196.597656 L 121.722656 197.984375 L 123.4375 199.714844 L 124.867188 201.5625 L 126.082031 203.585938 L 127.152344 206.007812 L 127.796875 208.03125 L 128.222656 210.050781 L 118.292969 210.050781 L 117.71875 208.03125 L 117.078125 206.472656 L 116.003906 204.566406 L 114.933594 203.179688 L 113.863281 202.082031 L 111.859375 200.582031 L 110.144531 199.660156 L 108.003906 198.851562 L 105.929688 198.332031 L 103.570312 197.984375 L 102.140625 197.867188 L 98.355469 197.867188 L 94.925781 198.273438 L 92.925781 198.734375 L 91.496094 199.195312 L 89.496094 200.0625 L 88.28125 200.753906 L 87.566406 201.21875 L 85.421875 203.007812 L 83.992188 204.625 L 83.207031 205.722656 L 82.207031 207.453125 L 81.492188 209.011719 L 80.707031 211.320312 L 80.277344 213.054688 L 79.703125 216.980469 L 79.632812 227.371094 L 79.847656 229.566406 L 80.277344 231.933594 L 80.847656 234.011719 L 81.707031 236.203125 L 82.5625 237.878906 L 84.0625 240.132812 L 85.351562 241.632812 L 86.351562 242.613281 L 88.28125 244.171875 L 89.066406 244.691406 L 90.921875 245.730469 L 92.851562 246.539062 L 95.210938 247.230469 L 96.996094 247.578125 L 99.855469 247.867188 L 103.5 247.867188 L 107.789062 247.519531 L 110.503906 247.058594 L 112.359375 246.597656 L 113.574219 246.191406 L 115.078125 245.558594 L 116.148438 244.980469 L 117.148438 244.34375 L 118.363281 243.363281 L 118.363281 229.566406 L 100.714844 229.507812 L 100.714844 223.042969 L 128.152344 222.984375 L 128.222656 245.558594 L 126.722656 247.117188 L 124.867188 248.617188 L 123.078125 249.773438 L 121.222656 250.753906 L 118.578125 251.851562 L 116.433594 252.542969 L 113.148438 253.351562 L 110.144531 253.871094 L 107 254.21875 L 104.214844 254.390625 L 100.929688 254.449219 L 97.996094 254.332031 L 94.855469 253.988281 L 92.351562 253.527344 L 90.066406 252.949219 L 87.78125 252.199219 L 84.921875 250.984375 L 83.0625 250.003906 L 81.132812 248.792969 L 79.203125 247.347656 L 77.488281 245.789062 L 76.347656 244.578125 L 75.203125 243.191406 L 73.988281 241.457031 L 72.84375 239.496094 L 71.988281 237.707031 L 71.203125 235.683594 L 70.628906 233.78125 L 70.058594 231.183594 L 69.773438 229.105469 L 69.628906 227.3125 Z M 69.628906 218.308594 "/>
<path style=" stroke:none;fill-rule:nonzero;fill:rgb(6.27451%,58.823529%,28.235294%);fill-opacity:1;" d="M 131.308594 311.402344 L 131.371094 311.394531 L 156.726562 304.898438 L 164.425781 304.898438 L 189.902344 311.410156 L 180.953125 311.410156 L 174.566406 309.710938 L 146.582031 309.710938 L 140.324219 311.402344 L 131.308594 311.402344 L 149.273438 309.007812 L 172 309 L 160.667969 305.964844 L 160.542969 305.957031 L 160.417969 305.976562 L 149.210938 309 L 149.273438 309.007812 Z M 131.308594 311.402344 "/>
<path style=" stroke:none;fill-rule:nonzero;fill:rgb(14.509804%,36.078431%,60%);fill-opacity:1;" d="M 131.308594 313.144531 L 131.378906 313.144531 L 131.378906 313.113281 L 131.59375 313.070312 L 132.09375 313.015625 L 132.59375 312.976562 L 133.882812 312.90625 L 135.667969 312.839844 L 137.523438 312.789062 L 138.882812 312.757812 L 140.097656 312.734375 L 142.882812 312.691406 L 144.671875 312.671875 L 146.601562 312.648438 L 148.957031 312.628906 L 150.671875 312.617188 L 154.53125 312.601562 L 157.390625 312.589844 L 164.394531 312.589844 L 167.25 312.59375 L 169.324219 312.597656 L 171.609375 312.609375 L 173.539062 312.617188 L 176.898438 312.644531 L 179.898438 312.675781 L 181.257812 312.695312 L 183.402344 312.730469 L 185.042969 312.765625 L 186.1875 312.796875 L 187.472656 312.839844 L 188.617188 312.894531 L 189.476562 312.953125 L 189.902344 313.003906 L 179.898438 313.003906 L 179.398438 312.957031 L 178.828125 312.921875 L 177.757812 312.871094 L 176.683594 312.839844 L 175.183594 312.804688 L 173.824219 312.78125 L 171.96875 312.761719 L 170.324219 312.746094 L 168.609375 312.734375 L 166.964844 312.726562 L 163.820312 312.722656 L 158.820312 312.722656 L 156.03125 312.734375 L 154.53125 312.742188 L 152.386719 312.757812 L 150.886719 312.773438 L 149.101562 312.796875 L 147.886719 312.816406 L 146.386719 312.847656 L 145.3125 312.875 L 144.097656 312.910156 L 143.386719 312.941406 L 142.742188 312.972656 L 142.171875 313.011719 L 141.742188 313.054688 L 141.457031 313.097656 L 141.3125 313.136719 L 141.3125 313.320312 L 141.457031 313.363281 L 141.8125 313.410156 L 142.742188 313.480469 L 144.097656 313.542969 L 145.671875 313.59375 L 147.171875 313.628906 L 148.03125 313.644531 L 149.171875 313.664062 L 150.960938 313.6875 L 153.53125 313.710938 L 155.03125 313.71875 L 157.320312 313.730469 L 159.675781 313.734375 L 162.820312 313.734375 L 165.609375 313.730469 L 167.464844 313.722656 L 169.394531 313.714844 L 172.039062 313.695312 L 173.683594 313.675781 L 175.113281 313.652344 L 176.183594 313.628906 L 176.898438 313.613281 L 177.96875 313.574219 L 178.828125 313.535156 L 179.472656 313.496094 L 179.898438 313.457031 L 189.902344 313.457031 L 189.476562 313.5 L 188.832031 313.546875 L 188.1875 313.582031 L 187.1875 313.621094 L 186.046875 313.660156 L 184.402344 313.699219 L 183.042969 313.726562 L 181.257812 313.753906 L 179.613281 313.777344 L 177.828125 313.796875 L 175.183594 313.820312 L 173.46875 313.832031 L 171.609375 313.84375 L 169.394531 313.851562 L 166.609375 313.859375 L 163.605469 313.867188 L 160.820312 313.867188 L 157.820312 313.863281 L 155.605469 313.859375 L 152.675781 313.847656 L 149.03125 313.828125 L 146.386719 313.804688 L 144.3125 313.785156 L 142.527344 313.761719 L 140.527344 313.730469 L 137.953125 313.675781 L 136.382812 313.636719 L 135.308594 313.605469 L 134.09375 313.558594 L 133.238281 313.519531 L 132.238281 313.453125 L 131.523438 313.371094 L 131.308594 313.304688 Z M 131.308594 313.144531 "/>
<path style=" stroke:none;fill-rule:nonzero;fill:rgb(83.921569%,15.686275%,22.352941%);fill-opacity:1;" d="M 131.308594 55.519531 L 189.902344 55.519531 L 189.902344 82.089844 L 165.484375 82.320312 L 165.484375 303.71875 L 155.65625 303.71875 L 155.65625 82.554688 L 155.515625 82.089844 L 131.308594 82.089844 Z M 131.308594 55.519531 "/>
<path style=" stroke:none;fill-rule:nonzero;fill:rgb(14.509804%,36.078431%,60%);fill-opacity:1;" d="M 192.988281 147.828125 L 193.058594 147.5625 L 193.058594 141.164062 L 193.273438 131.03125 L 193.773438 118.234375 L 194.273438 109.4375 L 195.558594 93.707031 L 197.347656 78.511719 L 199.203125 66.777344 L 200.5625 59.847656 L 201.777344 54.515625 L 204.5625 44.652344 L 206.351562 39.585938 L 208.28125 35.050781 L 210.636719 30.519531 L 212.351562 27.855469 L 216.210938 23.589844 L 219.070312 21.722656 L 221.285156 20.921875 L 226.074219 20.921875 L 228.929688 21.988281 L 231.003906 23.320312 L 233.289062 25.453125 L 235.21875 27.855469 L 238.578125 33.71875 L 241.578125 41.183594 L 242.9375 45.449219 L 245.082031 53.714844 L 246.722656 61.714844 L 247.867188 68.644531 L 249.152344 78.511719 L 250.296875 90.507812 L 251.152344 104.105469 L 251.582031 115.570312 L 241.578125 115.570312 L 241.078125 104.90625 L 240.507812 96.640625 L 239.433594 85.707031 L 238.363281 77.976562 L 236.863281 70.246094 L 235.503906 65.179688 L 233.648438 60.113281 L 232.003906 56.914062 L 230.289062 54.515625 L 228.644531 52.914062 L 225.5 51.316406 L 221.855469 51.316406 L 220.5 51.847656 L 217.710938 53.980469 L 216.210938 55.847656 L 214.066406 59.582031 L 212.566406 63.046875 L 210.78125 68.378906 L 209.566406 72.910156 L 208.066406 79.84375 L 206.992188 85.976562 L 205.777344 94.773438 L 205.0625 101.4375 L 204.421875 108.902344 L 203.847656 117.703125 L 203.421875 127.035156 L 203.132812 136.898438 L 202.992188 146.496094 L 202.992188 187.820312 L 203.132812 197.417969 L 203.492188 208.617188 L 204.421875 224.878906 L 205.777344 239.011719 L 207.351562 250.207031 L 208.851562 258.207031 L 209.707031 261.9375 L 210.851562 266.203125 L 212.636719 271.535156 L 215.210938 276.867188 L 216.710938 279 L 219 281.132812 L 221.355469 282.199219 L 224.5 282.199219 L 227.289062 281.132812 L 229.144531 279.800781 L 231.074219 277.667969 L 233.71875 273.136719 L 235.363281 268.871094 L 236.792969 263.804688 L 237.863281 258.738281 L 238.578125 254.472656 L 239.648438 246.207031 L 240.507812 237.144531 L 241.148438 227.8125 L 241.578125 218.746094 L 251.582031 218.746094 L 251.152344 229.410156 L 250.511719 239.808594 L 249.867188 247.542969 L 248.867188 256.871094 L 247.722656 265.136719 L 246.082031 274.46875 L 244.722656 280.601562 L 242.9375 287.265625 L 241.292969 292.332031 L 239.507812 296.863281 L 236.863281 302.195312 L 235.148438 304.863281 L 233.289062 307.261719 L 231.074219 309.394531 L 228.289062 311.261719 L 225.285156 312.328125 L 222.5 312.59375 L 219.5 312.0625 L 217.285156 310.996094 L 214.351562 308.59375 L 210.710938 303.796875 L 208.066406 298.730469 L 205.992188 293.664062 L 204.207031 288.332031 L 202.207031 281.132812 L 199.632812 269.402344 L 198.0625 260.339844 L 196.988281 252.875 L 195.773438 242.476562 L 194.917969 233.144531 L 193.917969 218.214844 L 193.203125 199.285156 L 192.988281 184.621094 Z M 192.988281 147.828125 "/>
<path style=" stroke:none;fill-rule:nonzero;fill:rgb(6.27451%,58.823529%,28.235294%);fill-opacity:1;" d="M 254.667969 297.835938 L 254.730469 297.621094 L 280.082031 71.789062 L 287.78125 71.789062 L 313.261719 298.046875 L 304.308594 298.046875 L 297.925781 238.988281 L 269.941406 238.988281 L 263.679688 297.835938 L 254.667969 297.835938 L 272.632812 214.554688 L 295.359375 214.34375 L 284.027344 108.757812 L 283.902344 108.542969 L 283.777344 109.179688 L 272.570312 214.34375 L 272.632812 214.554688 Z M 254.667969 297.835938 "/>
<path style=" stroke:none;fill-rule:nonzero;fill:rgb(96.862745%,70.196078%,16.862745%);fill-opacity:1;" d="M 254.667969 304.628906 L 254.738281 304.617188 L 254.738281 304.386719 L 255.023438 303.871094 L 255.738281 303.15625 L 256.667969 302.566406 L 257.667969 302.105469 L 258.3125 301.863281 L 259.382812 301.519531 L 260.3125 301.265625 L 262.671875 300.746094 L 265.671875 300.261719 L 267.316406 300.054688 L 269.171875 299.859375 L 271.816406 299.640625 L 273.03125 299.5625 L 276.746094 299.375 L 280.964844 299.261719 L 285.609375 299.226562 L 287.75 299.238281 L 290.679688 299.285156 L 294.683594 299.410156 L 296.96875 299.527344 L 298.757812 299.640625 L 300.613281 299.792969 L 302.902344 300.023438 L 305.042969 300.296875 L 306.757812 300.574219 L 308.472656 300.921875 L 309.902344 301.289062 L 311.117188 301.691406 L 312.191406 302.175781 L 312.832031 302.578125 L 313.261719 302.980469 L 303.328125 302.980469 L 302.757812 302.578125 L 302.113281 302.269531 L 301.042969 301.886719 L 299.972656 301.613281 L 298.898438 301.390625 L 296.898438 301.09375 L 295.183594 300.910156 L 293.039062 300.746094 L 290.96875 300.644531 L 288.609375 300.574219 L 287.179688 300.550781 L 283.394531 300.550781 L 279.960938 300.632812 L 277.960938 300.722656 L 276.53125 300.816406 L 274.53125 300.988281 L 273.316406 301.128906 L 272.601562 301.21875 L 270.457031 301.578125 L 269.03125 301.898438 L 268.242188 302.117188 L 267.242188 302.464844 L 266.527344 302.773438 L 265.742188 303.234375 L 265.3125 303.582031 L 264.742188 304.363281 L 264.671875 306.4375 L 264.886719 306.875 L 265.3125 307.347656 L 265.886719 307.761719 L 266.742188 308.203125 L 267.601562 308.535156 L 269.101562 308.984375 L 270.386719 309.285156 L 271.386719 309.480469 L 273.316406 309.789062 L 274.101562 309.894531 L 275.960938 310.101562 L 277.890625 310.261719 L 280.25 310.402344 L 282.035156 310.472656 L 284.894531 310.527344 L 288.539062 310.527344 L 292.824219 310.460938 L 295.539062 310.367188 L 297.398438 310.273438 L 298.613281 310.195312 L 300.113281 310.066406 L 301.1875 309.953125 L 302.1875 309.824219 L 303.402344 309.628906 L 303.402344 306.875 L 285.75 306.863281 L 285.75 305.574219 L 313.191406 305.5625 L 313.261719 310.066406 L 311.761719 310.378906 L 309.902344 310.679688 L 308.117188 310.910156 L 306.257812 311.105469 L 303.617188 311.324219 L 301.472656 311.460938 L 298.183594 311.621094 L 295.183594 311.726562 L 292.039062 311.796875 L 289.253906 311.832031 L 285.964844 311.839844 L 283.035156 311.820312 L 279.890625 311.75 L 277.390625 311.65625 L 275.105469 311.542969 L 272.816406 311.390625 L 269.957031 311.152344 L 268.101562 310.953125 L 266.171875 310.710938 L 264.242188 310.425781 L 262.527344 310.113281 L 261.382812 309.871094 L 260.242188 309.59375 L 259.027344 309.25 L 257.882812 308.859375 L 257.023438 308.5 L 256.238281 308.097656 L 255.667969 307.71875 L 255.09375 307.199219 L 254.808594 306.785156 L 254.667969 306.425781 Z M 254.667969 304.628906 "/>
<path style=" stroke:none;fill-rule:nonzero;fill:rgb(83.921569%,15.686275%,22.352941%);fill-opacity:1;" d="M 254.667969 313.019531 L 313.261719 313.019531 L 313.261719 313.164062 L 288.839844 313.167969 L 288.839844 314.371094 L 279.015625 314.371094 L 279.015625 313.167969 L 278.875 313.164062 L 254.667969 313.164062 Z M 254.667969 313.019531 "/>
<path style=" stroke:none;fill-rule:nonzero;fill:rgb(14.509804%,36.078431%,60%);fill-opacity:1;" d="M 316.347656 172.660156 L 316.417969 172.464844 L 316.417969 167.730469 L 316.632812 160.238281 L 317.132812 150.773438 L 317.632812 144.265625 L 318.917969 132.632812 L 320.703125 121.390625 L 322.5625 112.714844 L 323.921875 107.589844 L 325.136719 103.644531 L 327.921875 96.347656 L 329.707031 92.601562 L 331.636719 89.25 L 333.996094 85.898438 L 335.710938 83.925781 L 339.570312 80.769531 L 342.429688 79.390625 L 344.644531 78.796875 L 349.429688 78.796875 L 352.289062 79.585938 L 354.363281 80.574219 L 356.648438 82.152344 L 358.578125 83.925781 L 361.9375 88.261719 L 364.9375 93.785156 L 366.292969 96.941406 L 368.4375 103.054688 L 370.082031 108.96875 L 371.226562 114.097656 L 372.511719 121.390625 L 373.65625 130.265625 L 374.511719 140.324219 L 374.941406 148.800781 L 364.9375 148.800781 L 364.4375 140.914062 L 363.867188 134.800781 L 362.792969 126.714844 L 361.722656 120.996094 L 360.222656 115.277344 L 358.863281 111.53125 L 357.003906 107.785156 L 355.363281 105.417969 L 353.648438 103.644531 L 352.003906 102.460938 L 348.859375 101.277344 L 345.214844 101.277344 L 343.855469 101.671875 L 341.070312 103.25 L 339.570312 104.628906 L 337.425781 107.390625 L 335.925781 109.953125 L 334.140625 113.898438 L 332.925781 117.25 L 331.421875 122.378906 L 330.351562 126.914062 L 329.136719 133.421875 L 328.421875 138.351562 L 327.777344 143.871094 L 327.207031 150.378906 L 326.777344 157.28125 L 326.492188 164.578125 L 326.351562 171.675781 L 326.351562 202.242188 L 326.492188 209.339844 L 326.851562 217.621094 L 327.777344 229.652344 L 329.136719 240.101562 L 330.707031 248.382812 L 332.210938 254.300781 L 333.066406 257.058594 L 334.210938 260.214844 L 335.996094 264.160156 L 338.570312 268.101562 L 340.070312 269.679688 L 342.355469 271.257812 L 344.714844 272.046875 L 347.859375 272.046875 L 350.644531 271.257812 L 352.503906 270.273438 L 354.433594 268.695312 L 357.078125 265.34375 L 358.71875 262.1875 L 360.148438 258.441406 L 361.222656 254.695312 L 361.9375 251.539062 L 363.007812 245.425781 L 363.867188 238.722656 L 364.507812 231.820312 L 364.9375 225.117188 L 374.941406 225.117188 L 374.511719 233.003906 L 373.871094 240.695312 L 373.226562 246.410156 L 372.226562 253.3125 L 371.082031 259.425781 L 369.4375 266.328125 L 368.082031 270.863281 L 366.292969 275.792969 L 364.652344 279.539062 L 362.863281 282.894531 L 360.222656 286.835938 L 358.507812 288.808594 L 356.648438 290.582031 L 354.433594 292.160156 L 351.644531 293.542969 L 348.644531 294.328125 L 345.859375 294.527344 L 342.855469 294.132812 L 340.640625 293.34375 L 337.710938 291.570312 L 334.066406 288.019531 L 331.421875 284.273438 L 329.351562 280.527344 L 327.566406 276.582031 L 325.5625 271.257812 L 322.992188 262.582031 L 321.417969 255.878906 L 320.347656 250.355469 L 319.132812 242.664062 L 318.273438 235.765625 L 317.273438 224.722656 L 316.558594 210.71875 L 316.347656 199.875 Z M 316.347656 172.660156 "/>
<path style=" stroke:none;fill-rule:nonzero;fill:rgb(96.862745%,70.196078%,16.862745%);fill-opacity:1;" d="M 316.347656 303.207031 L 316.417969 303.191406 L 316.417969 302.871094 L 316.703125 302.152344 L 317.417969 301.160156 L 318.347656 300.34375 L 319.347656 299.703125 L 319.992188 299.371094 L 321.0625 298.890625 L 321.992188 298.539062 L 324.347656 297.816406 L 327.351562 297.144531 L 328.992188 296.859375 L 330.851562 296.585938 L 333.496094 296.28125 L 334.710938 296.171875 L 338.425781 295.914062 L 342.640625 295.753906 L 347.289062 295.707031 L 349.429688 295.722656 L 352.359375 295.785156 L 356.363281 295.960938 L 358.648438 296.121094 L 360.433594 296.28125 L 362.292969 296.492188 L 364.578125 296.808594 L 366.722656 297.195312 L 368.4375 297.578125 L 370.152344 298.058594 L 371.582031 298.570312 L 372.796875 299.128906 L 373.871094 299.800781 L 374.511719 300.359375 L 374.941406 300.921875 L 365.007812 300.921875 L 364.4375 300.359375 L 363.792969 299.929688 L 362.722656 299.402344 L 361.648438 299.015625 L 360.578125 298.714844 L 358.578125 298.296875 L 356.863281 298.042969 L 354.71875 297.816406 L 352.644531 297.675781 L 350.289062 297.578125 L 348.859375 297.546875 L 345.070312 297.546875 L 341.640625 297.65625 L 339.640625 297.785156 L 338.210938 297.914062 L 336.210938 298.152344 L 334.996094 298.34375 L 334.28125 298.472656 L 332.136719 298.96875 L 330.707031 299.417969 L 329.921875 299.722656 L 328.921875 300.199219 L 328.207031 300.632812 L 327.421875 301.273438 L 326.992188 301.753906 L 326.421875 302.839844 L 326.351562 305.71875 L 326.5625 306.328125 L 326.992188 306.980469 L 327.566406 307.558594 L 328.421875 308.164062 L 329.28125 308.628906 L 330.78125 309.253906 L 332.066406 309.667969 L 333.066406 309.941406 L 334.996094 310.371094 L 335.78125 310.515625 L 337.640625 310.804688 L 339.570312 311.027344 L 341.929688 311.21875 L 343.714844 311.316406 L 346.574219 311.394531 L 350.21875 311.394531 L 354.503906 311.300781 L 357.21875 311.171875 L 359.078125 311.042969 L 360.292969 310.933594 L 361.792969 310.757812 L 362.863281 310.597656 L 363.867188 310.421875 L 365.078125 310.148438 L 365.078125 306.328125 L 347.429688 306.308594 L 347.429688 304.519531 L 374.871094 304.503906 L 374.941406 310.757812 L 373.441406 311.1875 L 371.582031 311.605469 L 369.796875 311.925781 L 367.9375 312.195312 L 365.292969 312.5 L 363.152344 312.691406 L 359.863281 312.914062 L 356.863281 313.058594 L 353.71875 313.15625 L 350.929688 313.203125 L 347.644531 313.21875 L 344.714844 313.1875 L 341.570312 313.089844 L 339.070312 312.964844 L 336.78125 312.804688 L 334.496094 312.597656 L 331.636719 312.261719 L 329.78125 311.988281 L 327.851562 311.652344 L 325.921875 311.253906 L 324.207031 310.820312 L 323.0625 310.484375 L 321.917969 310.101562 L 320.703125 309.621094 L 319.5625 309.078125 L 318.703125 308.582031 L 317.917969 308.023438 L 317.347656 307.492188 L 316.773438 306.773438 L 316.488281 306.199219 L 316.347656 305.703125 Z M 316.347656 303.207031 "/>
<path style=" stroke:none;fill-rule:nonzero;fill:rgb(14.509804%,36.078431%,60%);fill-opacity:1;" d="M 378.023438 310.917969 L 378.097656 310.914062 L 378.097656 310.816406 L 378.3125 310.660156 L 378.8125 310.46875 L 379.3125 310.335938 L 380.597656 310.097656 L 382.382812 309.867188 L 384.242188 309.6875 L 385.601562 309.582031 L 386.8125 309.503906 L 389.601562 309.351562 L 391.386719 309.277344 L 393.316406 309.207031 L 395.675781 309.136719 L 397.390625 309.097656 L 401.25 309.03125 L 404.105469 309.003906 L 406.324219 308.992188 L 411.109375 308.992188 L 413.96875 309.007812 L 416.039062 309.027344 L 418.328125 309.0625 L 420.257812 309.097656 L 423.613281 309.1875 L 426.617188 309.300781 L 427.972656 309.363281 L 430.117188 309.488281 L 431.761719 309.609375 L 432.90625 309.714844 L 434.191406 309.867188 L 435.335938 310.046875 L 436.191406 310.253906 L 436.621094 310.425781 L 426.617188 310.425781 L 426.117188 310.265625 L 425.542969 310.140625 L 424.472656 309.976562 L 423.402344 309.859375 L 421.898438 309.742188 L 420.542969 309.664062 L 418.683594 309.585938 L 417.039062 309.539062 L 415.324219 309.503906 L 413.683594 309.476562 L 410.539062 309.453125 L 406.894531 309.453125 L 405.535156 309.460938 L 402.75 309.492188 L 401.25 309.523438 L 399.105469 309.578125 L 397.605469 309.632812 L 395.816406 309.710938 L 394.601562 309.78125 L 393.101562 309.886719 L 392.03125 309.980469 L 390.816406 310.113281 L 390.101562 310.214844 L 389.457031 310.328125 L 388.886719 310.460938 L 388.457031 310.601562 L 388.171875 310.75 L 388.027344 310.894531 L 388.027344 311.523438 L 388.171875 311.667969 L 388.53125 311.839844 L 389.457031 312.085938 L 390.816406 312.300781 L 392.386719 312.46875 L 393.890625 312.589844 L 394.746094 312.644531 L 395.890625 312.710938 L 397.675781 312.792969 L 400.25 312.871094 L 401.75 312.90625 L 404.035156 312.9375 L 406.394531 312.953125 L 409.539062 312.953125 L 412.324219 312.9375 L 414.183594 312.917969 L 416.113281 312.886719 L 418.757812 312.816406 L 420.398438 312.75 L 421.828125 312.675781 L 422.902344 312.597656 L 423.613281 312.535156 L 424.6875 312.40625 L 425.542969 312.269531 L 426.1875 312.128906 L 426.617188 311.992188 L 436.621094 311.992188 L 436.191406 312.152344 L 435.546875 312.3125 L 434.90625 312.429688 L 433.90625 312.570312 L 432.761719 312.695312 L 431.117188 312.835938 L 429.761719 312.929688 L 427.972656 313.03125 L 426.332031 313.105469 L 424.542969 313.175781 L 421.898438 313.257812 L 420.183594 313.296875 L 418.328125 313.332031 L 416.113281 313.367188 L 413.324219 313.394531 L 410.324219 313.410156 L 407.539062 313.414062 L 404.535156 313.40625 L 402.320312 313.390625 L 399.390625 313.355469 L 395.746094 313.28125 L 393.101562 313.203125 L 391.03125 313.128906 L 389.242188 313.046875 L 387.242188 312.9375 L 384.671875 312.757812 L 383.097656 312.621094 L 382.027344 312.507812 L 380.8125 312.351562 L 379.953125 312.210938 L 378.953125 311.984375 L 378.238281 311.695312 L 378.023438 311.472656 Z M 378.023438 310.917969 "/>
<path style=" stroke:none;fill-rule:nonzero;fill:rgb(96.862745%,70.196078%,16.862745%);fill-opacity:1;" d="M 378.023438 153.964844 L 378.097656 153.71875 L 378.097656 148.804688 L 378.382812 137.746094 L 379.097656 122.507812 L 380.027344 109.972656 L 381.027344 100.144531 L 381.667969 94.984375 L 382.742188 87.609375 L 383.671875 82.203125 L 386.027344 71.144531 L 389.03125 60.820312 L 390.671875 56.398438 L 392.53125 52.21875 L 395.175781 47.550781 L 396.390625 45.828125 L 400.105469 41.898438 L 404.320312 39.441406 L 408.964844 38.703125 L 411.109375 38.949219 L 414.039062 39.929688 L 418.042969 42.636719 L 420.328125 45.09375 L 422.113281 47.550781 L 423.972656 50.746094 L 426.257812 55.660156 L 428.402344 61.558594 L 430.117188 67.457031 L 431.832031 74.828125 L 433.261719 82.695312 L 434.476562 91.296875 L 435.546875 101.617188 L 436.191406 110.21875 L 436.621094 118.820312 L 426.6875 118.820312 L 426.117188 110.21875 L 425.472656 103.585938 L 424.402344 95.472656 L 423.328125 89.574219 L 422.257812 84.90625 L 420.257812 78.515625 L 418.542969 74.585938 L 416.398438 71.144531 L 414.324219 68.929688 L 411.96875 67.457031 L 410.539062 66.964844 L 406.75 66.964844 L 403.320312 68.6875 L 401.320312 70.652344 L 399.890625 72.617188 L 397.890625 76.304688 L 396.675781 79.253906 L 395.960938 81.21875 L 393.816406 88.839844 L 392.386719 95.71875 L 391.601562 100.390625 L 390.601562 107.761719 L 389.886719 114.398438 L 389.101562 124.226562 L 388.671875 131.601562 L 388.101562 148.3125 L 388.027344 192.550781 L 388.242188 201.890625 L 388.671875 211.964844 L 389.242188 220.8125 L 390.101562 230.152344 L 390.960938 237.277344 L 392.460938 246.863281 L 393.746094 253.253906 L 394.746094 257.433594 L 396.675781 264.066406 L 397.460938 266.277344 L 399.320312 270.703125 L 401.25 274.144531 L 403.605469 277.09375 L 405.394531 278.566406 L 408.25 279.796875 L 411.894531 279.796875 L 416.183594 278.320312 L 418.898438 276.355469 L 420.757812 274.390625 L 421.972656 272.667969 L 423.472656 269.964844 L 424.542969 267.507812 L 425.542969 264.804688 L 426.757812 260.625 L 426.757812 201.890625 L 409.109375 201.644531 L 409.109375 174.117188 L 436.550781 173.871094 L 436.621094 269.964844 L 435.121094 276.601562 L 433.261719 282.992188 L 431.476562 287.90625 L 429.617188 292.085938 L 426.972656 296.753906 L 424.828125 299.703125 L 421.542969 303.144531 L 418.542969 305.355469 L 415.398438 306.832031 L 412.609375 307.566406 L 409.324219 307.8125 L 406.394531 307.320312 L 403.25 305.847656 L 400.75 303.882812 L 398.460938 301.421875 L 396.175781 298.226562 L 393.316406 293.066406 L 391.460938 288.890625 L 389.53125 283.726562 L 387.601562 277.585938 L 385.886719 270.949219 L 384.742188 265.789062 L 383.597656 259.890625 L 382.382812 252.515625 L 381.242188 244.160156 L 380.382812 236.542969 L 379.597656 227.941406 L 379.027344 219.828125 L 378.453125 208.769531 L 378.167969 199.921875 L 378.023438 192.304688 Z M 378.023438 153.964844 "/>
<path style=" stroke:none;fill-rule:nonzero;fill:rgb(14.509804%,36.078431%,60%);fill-opacity:1;" d="M 439.703125 311.160156 L 439.777344 311.15625 L 439.777344 311.066406 L 439.988281 310.929688 L 440.492188 310.753906 L 440.992188 310.632812 L 442.277344 310.421875 L 444.0625 310.210938 L 445.921875 310.050781 L 447.277344 309.957031 L 448.492188 309.886719 L 451.28125 309.75 L 453.066406 309.679688 L 454.996094 309.621094 L 457.355469 309.558594 L 459.070312 309.519531 L 462.929688 309.464844 L 465.785156 309.4375 L 468 309.425781 L 472.789062 309.425781 L 475.648438 309.441406 L 477.71875 309.460938 L 480.007812 309.488281 L 481.9375 309.519531 L 485.292969 309.601562 L 488.296875 309.703125 L 489.652344 309.761719 L 491.796875 309.875 L 493.441406 309.984375 L 494.582031 310.078125 L 495.871094 310.210938 L 497.011719 310.375 L 497.871094 310.5625 L 498.300781 310.71875 L 488.296875 310.71875 L 487.796875 310.574219 L 487.222656 310.460938 L 486.152344 310.3125 L 485.078125 310.207031 L 483.578125 310.101562 L 482.222656 310.03125 L 480.363281 309.960938 L 478.71875 309.917969 L 477.003906 309.886719 L 475.363281 309.863281 L 472.21875 309.839844 L 468.574219 309.839844 L 467.214844 309.847656 L 464.429688 309.878906 L 462.929688 309.902344 L 460.785156 309.953125 L 459.285156 310 L 457.496094 310.074219 L 456.28125 310.136719 L 454.78125 310.230469 L 453.710938 310.316406 L 452.496094 310.433594 L 451.78125 310.527344 L 451.136719 310.628906 L 450.566406 310.746094 L 450.136719 310.875 L 449.851562 311.007812 L 449.707031 311.140625 L 449.707031 311.703125 L 449.851562 311.835938 L 450.207031 311.988281 L 451.136719 312.210938 L 452.496094 312.402344 L 454.066406 312.554688 L 455.566406 312.664062 L 456.425781 312.714844 L 457.570312 312.773438 L 459.355469 312.847656 L 461.925781 312.917969 L 463.429688 312.949219 L 465.714844 312.976562 L 468.074219 312.992188 L 471.21875 312.992188 L 474.003906 312.976562 L 475.863281 312.960938 L 477.792969 312.929688 L 480.433594 312.867188 L 482.078125 312.8125 L 483.507812 312.742188 L 484.578125 312.671875 L 485.292969 312.613281 L 486.367188 312.5 L 487.222656 312.378906 L 487.867188 312.25 L 488.296875 312.125 L 498.300781 312.125 L 497.871094 312.273438 L 497.226562 312.414062 L 496.585938 312.519531 L 495.585938 312.648438 L 494.441406 312.757812 L 492.796875 312.886719 L 491.441406 312.972656 L 489.652344 313.0625 L 488.007812 313.132812 L 486.222656 313.191406 L 483.578125 313.265625 L 481.863281 313.300781 L 480.007812 313.335938 L 477.792969 313.363281 L 475.003906 313.390625 L 472.003906 313.402344 L 469.214844 313.40625 L 466.214844 313.398438 L 464 313.386719 L 461.070312 313.351562 L 457.425781 313.289062 L 454.78125 313.21875 L 452.710938 313.148438 L 450.921875 313.078125 L 448.921875 312.976562 L 446.351562 312.816406 L 444.777344 312.695312 L 443.707031 312.59375 L 442.492188 312.449219 L 441.632812 312.324219 L 440.632812 312.121094 L 439.917969 311.859375 L 439.703125 311.660156 Z M 439.703125 311.160156 "/>
<path style=" stroke:none;fill-rule:nonzero;fill:rgb(83.921569%,15.686275%,22.352941%);fill-opacity:1;" d="M 439.703125 37.171875 L 498.300781 37.171875 L 498.300781 66.1875 L 473.878906 66.441406 L 473.878906 308.246094 L 464.054688 308.246094 L 464.054688 66.695312 L 463.910156 66.1875 L 439.703125 66.1875 Z M 439.703125 37.171875 "/>
<path style=" stroke:none;fill-rule:nonzero;fill:rgb(14.509804%,36.078431%,60%);fill-opacity:1;" d="M 501.382812 313.773438 L 559.980469 313.773438 L 511.386719 313.773438 L 511.386719 313.777344 L 559.980469 313.777344 L 501.382812 313.777344 Z M 501.382812 313.773438 "/>
<path style=" stroke:none;fill-rule:nonzero;fill:rgb(96.862745%,70.196078%,16.862745%);fill-opacity:1;" d="M 501.382812 145.699219 L 501.453125 145.433594 L 501.453125 140.101562 L 501.742188 128.105469 L 502.457031 111.574219 L 503.382812 97.976562 L 504.382812 87.3125 L 505.027344 81.714844 L 506.101562 73.71875 L 507.027344 67.851562 L 509.386719 55.855469 L 512.386719 44.65625 L 514.03125 39.859375 L 515.890625 35.324219 L 518.535156 30.261719 L 519.75 28.394531 L 523.464844 24.128906 L 527.679688 21.460938 L 532.324219 20.664062 L 534.46875 20.929688 L 537.398438 21.996094 L 541.398438 24.929688 L 543.6875 27.59375 L 545.472656 30.261719 L 547.332031 33.726562 L 549.617188 39.058594 L 551.761719 45.457031 L 553.476562 51.855469 L 555.191406 59.855469 L 556.621094 68.386719 L 557.835938 77.714844 L 558.90625 88.914062 L 559.550781 98.246094 L 559.980469 107.574219 L 550.046875 107.574219 L 549.472656 98.246094 L 548.832031 91.046875 L 547.757812 82.25 L 546.6875 75.851562 L 545.617188 70.785156 L 543.613281 63.851562 L 541.898438 59.585938 L 539.757812 55.855469 L 537.683594 53.457031 L 535.324219 51.855469 L 533.898438 51.324219 L 530.109375 51.324219 L 526.679688 53.1875 L 524.679688 55.320312 L 523.25 57.453125 L 521.25 61.453125 L 520.035156 64.652344 L 519.320312 66.785156 L 517.175781 75.050781 L 515.746094 82.515625 L 514.960938 87.582031 L 513.960938 95.578125 L 513.246094 102.777344 L 512.460938 113.441406 L 512.03125 121.4375 L 511.460938 139.566406 L 511.386719 187.554688 L 511.601562 197.6875 L 512.03125 208.617188 L 512.601562 218.214844 L 513.460938 228.347656 L 514.316406 236.078125 L 515.816406 246.476562 L 517.105469 253.40625 L 518.105469 257.9375 L 520.035156 265.136719 L 520.820312 267.535156 L 522.679688 272.335938 L 524.605469 276.066406 L 526.964844 279.265625 L 528.75 280.867188 L 531.609375 282.199219 L 535.253906 282.199219 L 539.542969 280.601562 L 542.257812 278.46875 L 544.113281 276.335938 L 545.328125 274.46875 L 546.832031 271.535156 L 547.902344 268.871094 L 548.902344 265.9375 L 550.117188 261.40625 L 550.117188 197.6875 L 532.46875 197.421875 L 532.46875 167.5625 L 559.90625 167.292969 L 559.980469 271.535156 L 558.476562 278.734375 L 556.621094 285.667969 L 554.832031 291 L 552.976562 295.53125 L 550.332031 300.597656 L 548.1875 303.796875 L 544.902344 307.527344 L 541.898438 309.925781 L 538.753906 311.527344 L 535.96875 312.328125 L 532.683594 312.59375 L 529.753906 312.058594 L 526.609375 310.460938 L 524.105469 308.328125 L 521.820312 305.660156 L 519.535156 302.195312 L 516.675781 296.597656 L 514.816406 292.066406 L 512.886719 286.464844 L 510.957031 279.800781 L 509.242188 272.601562 L 508.101562 267.003906 L 506.957031 260.605469 L 505.742188 252.605469 L 504.597656 243.542969 L 503.742188 235.277344 L 502.957031 225.945312 L 502.382812 217.148438 L 501.8125 205.152344 L 501.527344 195.554688 L 501.382812 187.289062 Z M 501.382812 145.699219 "/>
<path style=" stroke:none;fill-rule:nonzero;fill:rgb(6.27451%,58.823529%,28.235294%);fill-opacity:1;" d="M 563.0625 289.765625 L 563.125 289.59375 L 588.480469 109.019531 L 596.179688 109.019531 L 621.65625 289.933594 L 612.707031 289.933594 L 606.320312 242.710938 L 578.335938 242.710938 L 572.078125 289.765625 L 563.0625 289.765625 L 581.03125 223.175781 L 603.753906 223.003906 L 592.421875 138.578125 L 592.296875 138.40625 L 592.171875 138.917969 L 580.964844 223.003906 L 581.03125 223.175781 Z M 563.0625 289.765625 "/>
<path style=" stroke:none;fill-rule:nonzero;fill:rgb(96.862745%,70.196078%,16.862745%);fill-opacity:1;" d="M 563.0625 310.886719 L 563.132812 310.882812 L 563.132812 310.796875 L 563.421875 310.597656 L 564.132812 310.328125 L 565.0625 310.101562 L 566.0625 309.929688 L 566.707031 309.835938 L 567.777344 309.703125 L 568.707031 309.609375 L 571.066406 309.410156 L 574.066406 309.226562 L 575.710938 309.148438 L 577.570312 309.074219 L 580.210938 308.988281 L 581.425781 308.957031 L 585.144531 308.886719 L 589.359375 308.84375 L 594.003906 308.832031 L 596.148438 308.835938 L 599.078125 308.851562 L 603.078125 308.902344 L 605.367188 308.945312 L 607.152344 308.988281 L 609.011719 309.046875 L 611.296875 309.132812 L 613.441406 309.238281 L 615.15625 309.34375 L 616.871094 309.476562 L 618.300781 309.617188 L 619.515625 309.769531 L 620.585938 309.953125 L 621.230469 310.109375 L 621.65625 310.261719 L 611.726562 310.261719 L 611.152344 310.109375 L 610.511719 309.988281 L 609.4375 309.84375 L 608.367188 309.738281 L 607.292969 309.65625 L 605.292969 309.542969 L 603.578125 309.472656 L 601.433594 309.410156 L 599.363281 309.371094 L 597.003906 309.34375 L 595.574219 309.335938 L 591.789062 309.335938 L 588.359375 309.367188 L 586.359375 309.402344 L 584.929688 309.4375 L 582.929688 309.503906 L 581.714844 309.554688 L 581 309.589844 L 578.855469 309.726562 L 577.425781 309.847656 L 576.640625 309.933594 L 575.640625 310.0625 L 574.925781 310.183594 L 574.136719 310.359375 L 573.710938 310.488281 L 573.136719 310.789062 L 573.066406 311.578125 L 573.28125 311.742188 L 573.710938 311.921875 L 574.28125 312.082031 L 575.140625 312.25 L 575.996094 312.375 L 577.496094 312.546875 L 578.785156 312.660156 L 579.785156 312.734375 L 581.714844 312.855469 L 582.5 312.894531 L 584.355469 312.972656 L 586.285156 313.035156 L 588.644531 313.085938 L 590.429688 313.113281 L 593.289062 313.132812 L 596.933594 313.132812 L 601.222656 313.109375 L 603.9375 313.074219 L 605.792969 313.039062 L 607.007812 313.007812 L 608.507812 312.957031 L 609.582031 312.914062 L 610.582031 312.867188 L 611.796875 312.792969 L 611.796875 311.742188 L 594.148438 311.738281 L 594.148438 311.25 L 621.585938 311.242188 L 621.65625 312.957031 L 620.15625 313.078125 L 618.300781 313.191406 L 616.511719 313.277344 L 614.65625 313.355469 L 612.011719 313.4375 L 609.867188 313.488281 L 606.582031 313.550781 L 603.578125 313.589844 L 600.433594 313.617188 L 597.648438 313.628906 L 594.359375 313.632812 L 591.429688 313.625 L 588.289062 313.597656 L 585.785156 313.5625 L 583.5 313.519531 L 581.210938 313.464844 L 578.355469 313.371094 L 576.496094 313.296875 L 574.566406 313.203125 L 572.636719 313.09375 L 570.921875 312.976562 L 569.78125 312.882812 L 568.636719 312.777344 L 567.421875 312.648438 L 566.277344 312.5 L 565.421875 312.363281 L 564.632812 312.207031 L 564.0625 312.0625 L 563.492188 311.867188 L 563.207031 311.707031 L 563.0625 311.574219 Z M 563.0625 310.886719 "/>
<path style=" stroke:none;fill-rule:nonzero;fill:rgb(83.921569%,15.686275%,22.352941%);fill-opacity:1;" d="M 563.0625 291.113281 L 621.65625 291.113281 L 621.65625 292.882812 L 597.238281 292.898438 L 597.238281 307.652344 L 587.410156 307.652344 L 587.410156 292.914062 L 587.269531 292.882812 L 563.0625 292.882812 Z M 563.0625 291.113281 "/>
<path style=" stroke:none;fill-rule:nonzero;fill:rgb(14.509804%,36.078431%,60%);fill-opacity:1;" d="M 624.742188 288.261719 L 624.8125 288.234375 L 624.8125 287.566406 L 625.027344 286.507812 L 625.527344 285.167969 L 626.027344 284.25 L 627.3125 282.605469 L 629.101562 281.015625 L 630.957031 279.789062 L 632.316406 279.0625 L 633.53125 278.507812 L 636.316406 277.476562 L 638.105469 276.945312 L 640.035156 276.472656 L 642.390625 275.996094 L 644.105469 275.71875 L 647.964844 275.273438 L 650.824219 275.078125 L 653.039062 274.996094 L 657.828125 274.996094 L 660.683594 275.105469 L 662.757812 275.246094 L 665.042969 275.46875 L 666.972656 275.71875 L 670.332031 276.332031 L 673.332031 277.113281 L 674.691406 277.558594 L 676.835938 278.421875 L 678.476562 279.257812 L 679.621094 279.984375 L 680.90625 281.015625 L 682.050781 282.269531 L 682.910156 283.691406 L 683.335938 284.890625 L 673.332031 284.890625 L 672.832031 283.773438 L 672.261719 282.910156 L 671.1875 281.769531 L 670.117188 280.960938 L 668.617188 280.152344 L 667.257812 279.621094 L 665.402344 279.09375 L 663.757812 278.757812 L 662.042969 278.507812 L 660.398438 278.339844 L 657.253906 278.171875 L 653.609375 278.171875 L 652.253906 278.226562 L 649.464844 278.449219 L 647.964844 278.644531 L 645.820312 279.035156 L 644.320312 279.398438 L 642.535156 279.957031 L 641.320312 280.429688 L 639.820312 281.15625 L 638.746094 281.796875 L 637.53125 282.714844 L 636.816406 283.414062 L 636.175781 284.191406 L 635.601562 285.113281 L 635.175781 286.089844 L 634.890625 287.121094 L 634.746094 288.121094 L 634.746094 292.441406 L 634.890625 293.445312 L 635.246094 294.617188 L 636.175781 296.316406 L 637.53125 297.792969 L 639.105469 298.964844 L 640.605469 299.800781 L 641.464844 300.191406 L 642.605469 300.636719 L 644.394531 301.195312 L 646.964844 301.753906 L 648.464844 301.976562 L 650.753906 302.199219 L 653.109375 302.308594 L 656.253906 302.308594 L 659.042969 302.199219 L 660.898438 302.058594 L 662.828125 301.835938 L 665.472656 301.363281 L 667.117188 300.917969 L 668.546875 300.386719 L 669.617188 299.859375 L 670.332031 299.410156 L 671.402344 298.546875 L 672.261719 297.601562 L 672.902344 296.625 L 673.332031 295.675781 L 683.335938 295.675781 L 682.910156 296.792969 L 682.265625 297.878906 L 681.621094 298.6875 L 680.621094 299.664062 L 679.476562 300.527344 L 677.835938 301.503906 L 676.476562 302.144531 L 674.691406 302.839844 L 673.046875 303.371094 L 671.261719 303.84375 L 668.617188 304.402344 L 666.902344 304.679688 L 665.042969 304.929688 L 662.828125 305.152344 L 660.042969 305.347656 L 657.039062 305.460938 L 654.253906 305.488281 L 651.253906 305.433594 L 649.039062 305.320312 L 646.109375 305.070312 L 642.464844 304.566406 L 639.820312 304.039062 L 637.746094 303.507812 L 635.960938 302.953125 L 633.960938 302.199219 L 631.386719 300.972656 L 629.816406 300.023438 L 628.742188 299.246094 L 627.527344 298.15625 L 626.671875 297.179688 L 625.671875 295.621094 L 624.957031 293.640625 L 624.742188 292.109375 Z M 624.742188 288.261719 "/>
<path style=" stroke:none;fill-rule:nonzero;fill:rgb(96.862745%,70.196078%,16.862745%);fill-opacity:1;" d="M 624.742188 309.800781 L 624.8125 309.792969 L 624.8125 309.660156 L 625.097656 309.359375 L 625.8125 308.945312 L 626.742188 308.605469 L 627.742188 308.335938 L 628.386719 308.195312 L 629.457031 307.996094 L 630.386719 307.851562 L 632.746094 307.550781 L 635.746094 307.269531 L 637.390625 307.148438 L 639.246094 307.035156 L 641.890625 306.90625 L 643.105469 306.859375 L 646.820312 306.753906 L 651.039062 306.6875 L 655.683594 306.667969 L 657.828125 306.675781 L 660.757812 306.699219 L 664.757812 306.773438 L 667.042969 306.839844 L 668.832031 306.90625 L 670.6875 306.996094 L 672.976562 307.128906 L 675.121094 307.289062 L 676.835938 307.449219 L 678.550781 307.648438 L 679.980469 307.863281 L 681.191406 308.097656 L 682.265625 308.378906 L 682.910156 308.609375 L 683.335938 308.84375 L 673.40625 308.84375 L 672.832031 308.609375 L 672.191406 308.429688 L 671.117188 308.210938 L 670.046875 308.050781 L 668.972656 307.921875 L 666.972656 307.75 L 665.257812 307.644531 L 663.113281 307.550781 L 661.042969 307.488281 L 658.683594 307.449219 L 657.253906 307.4375 L 653.46875 307.4375 L 650.039062 307.480469 L 648.035156 307.535156 L 646.609375 307.589844 L 644.605469 307.6875 L 643.390625 307.769531 L 642.675781 307.824219 L 640.535156 308.03125 L 639.105469 308.21875 L 638.320312 308.34375 L 637.316406 308.542969 L 636.605469 308.726562 L 635.816406 308.992188 L 635.390625 309.191406 L 634.816406 309.648438 L 634.746094 310.847656 L 634.960938 311.101562 L 635.390625 311.375 L 635.960938 311.617188 L 636.816406 311.871094 L 637.675781 312.066406 L 639.175781 312.324219 L 640.460938 312.5 L 641.464844 312.613281 L 643.390625 312.792969 L 644.179688 312.851562 L 646.035156 312.972656 L 647.964844 313.066406 L 650.324219 313.148438 L 652.109375 313.1875 L 654.96875 313.21875 L 658.613281 313.21875 L 662.898438 313.179688 L 665.617188 313.125 L 667.472656 313.074219 L 668.6875 313.027344 L 670.1875 312.953125 L 671.261719 312.886719 L 672.261719 312.8125 L 673.476562 312.699219 L 673.476562 311.101562 L 655.824219 311.097656 L 655.824219 310.347656 L 683.265625 310.339844 L 683.335938 312.953125 L 681.835938 313.132812 L 679.980469 313.308594 L 678.191406 313.441406 L 676.335938 313.554688 L 673.691406 313.679688 L 671.546875 313.761719 L 668.257812 313.855469 L 665.257812 313.914062 L 662.113281 313.957031 L 659.328125 313.976562 L 656.039062 313.980469 L 653.109375 313.96875 L 649.964844 313.929688 L 647.464844 313.875 L 645.179688 313.808594 L 642.890625 313.722656 L 640.035156 313.582031 L 638.175781 313.46875 L 636.246094 313.328125 L 634.316406 313.160156 L 632.601562 312.980469 L 631.457031 312.839844 L 630.316406 312.679688 L 629.101562 312.480469 L 627.957031 312.25 L 627.101562 312.042969 L 626.3125 311.8125 L 625.742188 311.589844 L 625.171875 311.289062 L 624.882812 311.050781 L 624.742188 310.84375 Z M 624.742188 309.800781 "/>
<path style=" stroke:none;fill-rule:nonzero;fill:rgb(83.921569%,15.686275%,22.352941%);fill-opacity:1;" d="M 624.742188 188.320312 L 683.335938 188.320312 L 683.335938 197.472656 L 658.917969 197.550781 L 658.917969 273.816406 L 649.089844 273.816406 L 649.089844 197.632812 L 648.949219 197.472656 L 624.742188 197.472656 Z M 624.742188 188.320312 "/>
<g style="fill:rgb(0%,0%,0%);fill-opacity:1;">
  <use xlink:href="#glyph0-1" x="21.957031" y="318.198242"/>
  <use xlink:href="#glyph0-2" x="27.291016" y="318.198242"/>
  <use xlink:href="#glyph0-1" x="29.958008" y="318.198242"/>
</g>
<g style="fill:rgb(0%,0%,0%);fill-opacity:1;">
  <use xlink:href="#glyph0-1" x="21.957031" y="242.206055"/>
  <use xlink:href="#glyph0-2" x="27.291016" y="242.206055"/>
  <use xlink:href="#glyph0-3" x="29.958008" y="242.206055"/>
</g>
<g style="fill:rgb(0%,0%,0%);fill-opacity:1;">
  <use xlink:href="#glyph0-4" x="21.957031" y="166.213867"/>
  <use xlink:href="#glyph0-2" x="27.291016" y="166.213867"/>
  <use xlink:href="#glyph0-1" x="29.958008" y="166.213867"/>
</g>
<g style="fill:rgb(0%,0%,0%);fill-opacity:1;">
  <use xlink:href="#glyph0-4" x="21.957031" y="90.22168"/>
  <use xlink:href="#glyph0-2" x="27.291016" y="90.22168"/>
  <use xlink:href="#glyph0-3" x="29.958008" y="90.22168"/>
</g>
<g style="fill:rgb(0%,0%,0%);fill-opacity:1;">
  <use xlink:href="#glyph0-5" x="21.957031" y="14.229492"/>
  <use xlink:href="#glyph0-2" x="27.291016" y="14.229492"/>
  <use xlink:href="#glyph0-1" x="29.958008" y="14.229492"/>
</g>
<g style="fill:rgb(0%,0%,0%);fill-opacity:1;">
  <use xlink:href="#glyph0-4" x="95.925781" y="338.19043"/>
</g>
<g style="fill:rgb(0%,0%,0%);fill-opacity:1;">
  <use xlink:href="#glyph0-5" x="157.605469" y="338.19043"/>
</g>
<g style="fill:rgb(0%,0%,0%);fill-opacity:1;">
  <use xlink:href="#glyph0-6" x="219.285156" y="338.19043"/>
</g>
<g style="fill:rgb(0%,0%,0%);fill-opacity:1;">
  <use xlink:href="#glyph0-7" x="280.964844" y="338.19043"/>
</g>
<g style="fill:rgb(0%,0%,0%);fill-opacity:1;">
  <use xlink:href="#glyph0-3" x="342.644531" y="338.19043"/>
</g>
<g style="fill:rgb(0%,0%,0%);fill-opacity:1;">
  <use xlink:href="#glyph0-8" x="404.324219" y="338.19043"/>
</g>
<g style="fill:rgb(0%,0%,0%);fill-opacity:1;">
  <use xlink:href="#glyph0-9" x="466" y="338.19043"/>
</g>
<g style="fill:rgb(0%,0%,0%);fill-opacity:1;">
  <use xlink:href="#glyph0-10" x="527.679688" y="338.19043"/>
</g>
<g style="fill:rgb(0%,0%,0%);fill-opacity:1;">
  <use xlink:href="#glyph0-11" x="589.359375" y="338.19043"/>
</g>
<g style="fill:rgb(0%,0%,0%);fill-opacity:1;">
  <use xlink:href="#glyph0-4" x="648.539062" y="338.19043"/>
  <use xlink:href="#glyph0-1" x="653.873047" y="338.19043"/>
</g>
<g style="fill:rgb(0%,0%,0%);fill-opacity:1;">
  <use xlink:href="#glyph1-1" x="14.412109" y="178.015625"/>
  <use xlink:href="#glyph1-2" x="14.412109" y="170.011719"/>
  <use xlink:href="#glyph1-3" x="14.412109" y="167.347656"/>
  <use xlink:href="#glyph1-4" x="14.412109" y="164.011719"/>
</g>
</g>
</svg>
