<?xml version="1.0" encoding="UTF-8"?>
<svg xmlns="http://www.w3.org/2000/svg" xmlns:xlink="http://www.w3.org/1999/xlink" width="720pt" height="360pt" viewBox="0 0 720 360" version="1.1">
<defs>
<g>
<symbol overflow="visible" id="glyph0-0">
<path style="stroke:none;" d=""/>
</symbol>
<symbol overflow="visible" id="glyph0-1">
<path style="stroke:none;" d="M 2.640625 -6.796875 C 2 -6.796875 1.421875 -6.53125 1.078125 -6.046875 C 0.640625 -5.453125 0.40625 -4.546875 0.40625 -3.296875 C 0.40625 -1 1.1875 0.21875 2.640625 0.21875 C 4.078125 0.21875 4.859375 -1 4.859375 -3.234375 C 4.859375 -4.5625 4.65625 -5.4375 4.203125 -6.046875 C 3.84375 -6.53125 3.28125 -6.796875 2.640625 -6.796875 Z M 2.640625 -6.046875 C 3.546875 -6.046875 4 -5.125 4 -3.3125 C 4 -1.375 3.5625 -0.484375 2.625 -0.484375 C 1.734375 -0.484375 1.28125 -1.421875 1.28125 -3.28125 C 1.28125 -5.140625 1.734375 -6.046875 2.640625 -6.046875 Z M 2.640625 -6.046875 "/>
</symbol>
<symbol overflow="visible" id="glyph0-2">
<path style="stroke:none;" d="M 1.828125 -1 L 0.828125 -1 L 0.828125 0 L 1.828125 0 Z M 1.828125 -1 "/>
</symbol>
<symbol overflow="visible" id="glyph0-3">
<path style="stroke:none;" d="M 4.5625 -6.796875 L 1.0625 -6.796875 L 0.546875 -3.09375 L 1.328125 -3.09375 C 1.71875 -3.5625 2.046875 -3.734375 2.578125 -3.734375 C 3.484375 -3.734375 4.0625 -3.109375 4.0625 -2.09375 C 4.0625 -1.125 3.484375 -0.53125 2.578125 -0.53125 C 1.828125 -0.53125 1.375 -0.90625 1.1875 -1.671875 L 0.328125 -1.671875 C 0.453125 -1.109375 0.546875 -0.84375 0.75 -0.59375 C 1.125 -0.078125 1.828125 0.21875 2.59375 0.21875 C 3.96875 0.21875 4.921875 -0.78125 4.921875 -2.21875 C 4.921875 -3.5625 4.03125 -4.484375 2.71875 -4.484375 C 2.25 -4.484375 1.859375 -4.359375 1.46875 -4.0625 L 1.734375 -5.96875 L 4.5625 -5.96875 Z M 4.5625 -6.796875 "/>
</symbol>
<symbol overflow="visible" id="glyph0-4">
<path style="stroke:none;" d="M 2.484375 -4.84375 L 2.484375 0 L 3.328125 0 L 3.328125 -6.796875 L 2.765625 -6.796875 C 2.46875 -5.75 2.28125 -5.609375 0.984375 -5.453125 L 0.984375 -4.84375 Z M 2.484375 -4.84375 "/>
</symbol>
<symbol overflow="visible" id="glyph0-5">
<path style="stroke:none;" d="M 4.859375 -0.828125 L 1.28125 -0.828125 C 1.359375 -1.390625 1.671875 -1.75 2.5 -2.234375 L 3.46875 -2.75 C 4.40625 -3.265625 4.90625 -3.96875 4.90625 -4.8125 C 4.90625 -5.375 4.671875 -5.90625 4.265625 -6.265625 C 3.859375 -6.625 3.375 -6.796875 2.71875 -6.796875 C 1.859375 -6.796875 1.21875 -6.5 0.84375 -5.921875 C 0.609375 -5.5625 0.5 -5.125 0.484375 -4.4375 L 1.328125 -4.4375 C 1.359375 -4.90625 1.40625 -5.1875 1.53125 -5.40625 C 1.75 -5.8125 2.1875 -6.0625 2.703125 -6.0625 C 3.46875 -6.0625 4.03125 -5.515625 4.03125 -4.78125 C 4.03125 -4.25 3.71875 -3.796875 3.125 -3.4375 L 2.234375 -2.9375 C 0.8125 -2.140625 0.40625 -1.5 0.328125 0 L 4.859375 0 Z M 4.859375 -0.828125 "/>
</symbol>
<symbol overflow="visible" id="glyph0-6">
<path style="stroke:none;" d="M 2.125 -3.125 L 2.578125 -3.125 C 3.515625 -3.125 3.984375 -2.703125 3.984375 -1.890625 C 3.984375 -1.03125 3.46875 -0.53125 2.578125 -0.53125 C 1.65625 -0.53125 1.203125 -0.984375 1.15625 -1.96875 L 0.3125 -1.96875 C 0.34375 -1.421875 0.4375 -1.078125 0.609375 -0.765625 C 0.953125 -0.109375 1.625 0.21875 2.546875 0.21875 C 3.953125 0.21875 4.859375 -0.609375 4.859375 -1.90625 C 4.859375 -2.765625 4.515625 -3.25 3.703125 -3.515625 C 4.34375 -3.765625 4.65625 -4.25 4.65625 -4.9375 C 4.65625 -6.109375 3.875 -6.796875 2.578125 -6.796875 C 1.203125 -6.796875 0.484375 -6.046875 0.453125 -4.609375 L 1.296875 -4.609375 C 1.3125 -5.015625 1.34375 -5.25 1.453125 -5.453125 C 1.640625 -5.828125 2.0625 -6.0625 2.59375 -6.0625 C 3.34375 -6.0625 3.796875 -5.625 3.796875 -4.90625 C 3.796875 -4.421875 3.609375 -4.140625 3.25 -3.984375 C 3.015625 -3.890625 2.71875 -3.84375 2.125 -3.84375 Z M 2.125 -3.125 "/>
</symbol>
<symbol overflow="visible" id="glyph0-7">
<path style="stroke:none;" d="M 3.140625 -1.625 L 3.140625 0 L 3.984375 0 L 3.984375 -1.625 L 4.984375 -1.625 L 4.984375 -2.390625 L 3.984375 -2.390625 L 3.984375 -6.796875 L 3.359375 -6.796875 L 0.265625 -2.515625 L 0.265625 -1.625 Z M 3.140625 -2.390625 L 1 -2.390625 L 3.140625 -5.359375 Z M 3.140625 -2.390625 "/>
</symbol>
<symbol overflow="visible" id="glyph0-8">
<path style="stroke:none;" d="M 4.78125 -5.03125 C 4.609375 -6.140625 3.890625 -6.796875 2.84375 -6.796875 C 2.09375 -6.796875 1.421875 -6.4375 1.03125 -5.828125 C 0.609375 -5.171875 0.40625 -4.34375 0.40625 -3.09375 C 0.40625 -1.953125 0.578125 -1.234375 0.984375 -0.625 C 1.359375 -0.078125 1.953125 0.21875 2.703125 0.21875 C 3.984375 0.21875 4.921875 -0.734375 4.921875 -2.078125 C 4.921875 -3.34375 4.0625 -4.234375 2.84375 -4.234375 C 2.171875 -4.234375 1.640625 -3.96875 1.28125 -3.46875 C 1.28125 -5.125 1.828125 -6.046875 2.796875 -6.046875 C 3.390625 -6.046875 3.796875 -5.671875 3.9375 -5.03125 Z M 2.734375 -3.484375 C 3.546875 -3.484375 4.0625 -2.921875 4.0625 -2 C 4.0625 -1.15625 3.484375 -0.53125 2.703125 -0.53125 C 1.921875 -0.53125 1.328125 -1.1875 1.328125 -2.046875 C 1.328125 -2.890625 1.90625 -3.484375 2.734375 -3.484375 Z M 2.734375 -3.484375 "/>
</symbol>
<symbol overflow="visible" id="glyph0-9">
<path style="stroke:none;" d="M 4.984375 -6.796875 L 0.4375 -6.796875 L 0.4375 -5.96875 L 4.109375 -5.96875 C 2.5 -3.65625 1.828125 -2.234375 1.328125 0 L 2.21875 0 C 2.59375 -2.171875 3.453125 -4.046875 4.984375 -6.09375 Z M 4.984375 -6.796875 "/>
</symbol>
<symbol overflow="visible" id="glyph0-10">
<path style="stroke:none;" d="M 3.75 -3.578125 C 4.453125 -4 4.6875 -4.34375 4.6875 -4.984375 C 4.6875 -6.046875 3.84375 -6.796875 2.640625 -6.796875 C 1.4375 -6.796875 0.59375 -6.046875 0.59375 -4.984375 C 0.59375 -4.359375 0.828125 -4.015625 1.515625 -3.578125 C 0.734375 -3.203125 0.359375 -2.640625 0.359375 -1.890625 C 0.359375 -0.640625 1.296875 0.21875 2.640625 0.21875 C 3.984375 0.21875 4.921875 -0.640625 4.921875 -1.875 C 4.921875 -2.640625 4.53125 -3.203125 3.75 -3.578125 Z M 2.640625 -6.046875 C 3.359375 -6.046875 3.8125 -5.625 3.8125 -4.96875 C 3.8125 -4.34375 3.34375 -3.921875 2.640625 -3.921875 C 1.921875 -3.921875 1.453125 -4.34375 1.453125 -4.984375 C 1.453125 -5.625 1.921875 -6.046875 2.640625 -6.046875 Z M 2.640625 -3.203125 C 3.484375 -3.203125 4.0625 -2.671875 4.0625 -1.875 C 4.0625 -1.0625 3.484375 -0.53125 2.625 -0.53125 C 1.796875 -0.53125 1.21875 -1.078125 1.21875 -1.875 C 1.21875 -2.671875 1.796875 -3.203125 2.640625 -3.203125 Z M 2.640625 -3.203125 "/>
</symbol>
<symbol overflow="visible" id="glyph0-11">
<path style="stroke:none;" d="M 0.515625 -1.546875 C 0.671875 -0.4375 1.40625 0.21875 2.4375 0.21875 C 3.1875 0.21875 3.859375 -0.140625 4.265625 -0.75 C 4.6875 -1.40625 4.890625 -2.25 4.890625 -3.484375 C 4.890625 -4.625 4.703125 -5.359375 4.3125 -5.953125 C 3.9375 -6.5 3.34375 -6.796875 2.59375 -6.796875 C 1.296875 -6.796875 0.359375 -5.84375 0.359375 -4.515625 C 0.359375 -3.25 1.234375 -2.34375 2.453125 -2.34375 C 3.09375 -2.34375 3.5625 -2.578125 4.015625 -3.109375 C 4 -1.453125 3.46875 -0.53125 2.5 -0.53125 C 1.90625 -0.53125 1.484375 -0.90625 1.359375 -1.546875 Z M 2.578125 -6.0625 C 3.375 -6.0625 3.96875 -5.40625 3.96875 -4.53125 C 3.96875 -3.6875 3.375 -3.09375 2.546875 -3.09375 C 1.734375 -3.09375 1.234375 -3.671875 1.234375 -4.578125 C 1.234375 -5.4375 1.796875 -6.0625 2.578125 -6.0625 Z M 2.578125 -6.0625 "/>
</symbol>
<symbol overflow="visible" id="glyph1-0">
<path style="stroke:none;" d=""/>
</symbol>
<symbol overflow="visible" id="glyph1-1">
<path style="stroke:none;" d="M 0 -0.953125 L 0 -4.890625 C 0 -5.71875 -0.234375 -6.34375 -0.734375 -6.796875 C -1.1875 -7.234375 -1.8125 -7.46875 -2.5 -7.46875 C -3.546875 -7.46875 -4.1875 -7 -4.625 -5.875 C -4.984375 -6.671875 -5.640625 -7.09375 -6.53125 -7.09375 C -7.15625 -7.09375 -7.734375 -6.859375 -8.140625 -6.390625 C -8.5625 -5.9375 -8.75 -5.34375 -8.75 -4.5 L -8.75 -0.953125 Z M -4.984375 -2.0625 L -7.765625 -2.0625 L -7.765625 -4.21875 C -7.765625 -4.84375 -7.6875 -5.203125 -7.453125 -5.5 C -7.21875 -5.8125 -6.859375 -5.96875 -6.375 -5.96875 C -5.90625 -5.96875 -5.53125 -5.8125 -5.296875 -5.5 C -5.0625 -5.203125 -4.984375 -4.84375 -4.984375 -4.21875 Z M -0.984375 -2.0625 L -4 -2.0625 L -4 -4.78125 C -4 -5.328125 -3.859375 -5.6875 -3.578125 -5.953125 C -3.296875 -6.21875 -2.921875 -6.359375 -2.484375 -6.359375 C -2.0625 -6.359375 -1.6875 -6.21875 -1.40625 -5.953125 C -1.109375 -5.6875 -0.984375 -5.328125 -0.984375 -4.78125 Z M -0.984375 -2.0625 "/>
</symbol>
<symbol overflow="visible" id="glyph1-2">
<path style="stroke:none;" d="M -6.28125 -1.796875 L -6.28125 -0.796875 L 0 -0.796875 L 0 -1.796875 Z M -8.75 -1.796875 L -8.75 -0.796875 L -7.484375 -0.796875 L -7.484375 -1.796875 Z M -8.75 -1.796875 "/>
</symbol>
<symbol overflow="visible" id="glyph1-3">
<path style="stroke:none;" d="M -6.28125 -3.046875 L -6.28125 -2.015625 L -8.015625 -2.015625 L -8.015625 -1.015625 L -6.28125 -1.015625 L -6.28125 -0.171875 L -5.46875 -0.171875 L -5.46875 -1.015625 L -0.71875 -1.015625 C -0.078125 -1.015625 0.28125 -1.453125 0.28125 -2.234375 C 0.28125 -2.46875 0.25 -2.71875 0.1875 -3.046875 L -0.640625 -3.046875 C -0.609375 -2.921875 -0.59375 -2.765625 -0.59375 -2.5625 C -0.59375 -2.140625 -0.71875 -2.015625 -1.15625 -2.015625 L -5.46875 -2.015625 L -5.46875 -3.046875 Z M -6.28125 -3.046875 "/>
</symbol>
<symbol overflow="visible" id="glyph1-4">
<path style="stroke:none;" d="M -4.53125 -5.25 C -5.765625 -5.25 -6.46875 -4.421875 -6.46875 -2.96875 C -6.46875 -1.515625 -5.71875 -0.5625 -4.546875 -0.5625 C -3.5625 -0.5625 -3.09375 -1.0625 -2.734375 -2.5625 L -2.515625 -3.484375 C -2.34375 -4.1875 -2.09375 -4.46875 -1.625 -4.46875 C -1.046875 -4.46875 -0.640625 -3.875 -0.640625 -3 C -0.640625 -2.453125 -0.796875 -2 -1.0625 -1.75 C -1.25 -1.59375 -1.421875 -1.53125 -1.875 -1.46875 L -1.875 -0.40625 C -0.421875 -0.453125 0.28125 -1.265625 0.28125 -2.921875 C 0.28125 -4.5 -0.5 -5.515625 -1.71875 -5.515625 C -2.65625 -5.515625 -3.171875 -4.984375 -3.46875 -3.734375 L -3.703125 -2.765625 C -3.890625 -1.953125 -4.15625 -1.609375 -4.59375 -1.609375 C -5.171875 -1.609375 -5.546875 -2.125 -5.546875 -2.9375 C -5.546875 -3.75 -5.203125 -4.171875 -4.53125 -4.203125 Z M -4.53125 -5.25 "/>
</symbol>
</g>
</defs>
<g id="surface99282">
<rect x="0" y="0" width="720" height="360" style="fill:rgb(100%,100%,100%);fill-opacity:1;stroke:none;"/>
<path style=" stroke:none;fill-rule:nonzero;fill:rgb(6.27451%,58.823529%,28.235294%);fill-opacity:1;" d="M 69.628906 302.605469 L 69.699219 302.597656 L 97.886719 291.441406 L 106.445312 291.441406 L 134.773438 302.617188 L 124.820312 302.617188 L 117.71875 299.699219 L 86.609375 299.699219 L 79.652344 302.605469 L 69.628906 302.605469 L 89.601562 298.492188 L 114.867188 298.484375 L 102.269531 293.269531 L 102.128906 293.257812 L 101.992188 293.289062 L 89.535156 298.484375 L 89.601562 298.492188 Z M 69.628906 302.605469 "/>
<path style=" stroke:none;fill-rule:nonzero;fill:rgb(14.509804%,36.078431%,60%);fill-opacity:1;" d="M 69.628906 307.027344 L 69.707031 307.019531 L 69.707031 306.859375 L 69.945312 306.601562 L 70.503906 306.273438 L 71.058594 306.050781 L 72.488281 305.648438 L 74.476562 305.261719 L 76.539062 304.964844 L 78.050781 304.789062 L 79.402344 304.652344 L 82.5 304.402344 L 84.484375 304.273438 L 86.628906 304.15625 L 89.25 304.042969 L 91.15625 303.972656 L 95.449219 303.863281 L 98.625 303.816406 L 101.089844 303.796875 L 106.410156 303.796875 L 109.589844 303.824219 L 111.890625 303.859375 L 114.433594 303.914062 L 116.578125 303.972656 L 120.3125 304.121094 L 123.648438 304.3125 L 125.160156 304.421875 L 127.542969 304.632812 L 129.371094 304.835938 L 130.640625 305.011719 L 132.070312 305.261719 L 133.339844 305.566406 L 134.292969 305.914062 L 134.773438 306.207031 L 123.648438 306.207031 L 123.09375 305.933594 L 122.457031 305.722656 L 121.265625 305.445312 L 120.074219 305.25 L 118.40625 305.050781 L 116.898438 304.921875 L 114.832031 304.792969 L 113.003906 304.714844 L 111.097656 304.652344 L 109.269531 304.613281 L 105.773438 304.570312 L 101.722656 304.570312 L 100.214844 304.585938 L 97.117188 304.636719 L 95.449219 304.6875 L 93.066406 304.78125 L 91.394531 304.871094 L 89.410156 305.003906 L 88.058594 305.121094 L 86.390625 305.296875 L 85.199219 305.453125 L 83.847656 305.675781 L 83.054688 305.847656 L 82.339844 306.035156 L 81.703125 306.261719 L 81.226562 306.496094 L 80.910156 306.75 L 80.75 306.992188 L 80.75 308.046875 L 80.910156 308.289062 L 81.308594 308.574219 L 82.339844 308.988281 L 83.847656 309.347656 L 85.597656 309.632812 L 87.265625 309.835938 L 88.21875 309.933594 L 89.488281 310.039062 L 91.476562 310.175781 L 94.335938 310.3125 L 96.003906 310.367188 L 98.546875 310.421875 L 101.167969 310.449219 L 104.664062 310.449219 L 107.761719 310.421875 L 109.828125 310.386719 L 111.972656 310.332031 L 114.910156 310.214844 L 116.738281 310.109375 L 118.328125 309.980469 L 119.519531 309.851562 L 120.3125 309.742188 L 121.503906 309.53125 L 122.457031 309.300781 L 123.171875 309.0625 L 123.648438 308.832031 L 134.773438 308.832031 L 134.292969 309.105469 L 133.578125 309.367188 L 132.863281 309.566406 L 131.753906 309.804688 L 130.480469 310.011719 L 128.65625 310.25 L 127.144531 310.40625 L 125.160156 310.578125 L 123.332031 310.707031 L 121.347656 310.820312 L 118.40625 310.957031 L 116.5 311.023438 L 114.433594 311.085938 L 111.972656 311.140625 L 108.875 311.1875 L 105.535156 311.214844 L 102.4375 311.222656 L 99.101562 311.207031 L 96.640625 311.179688 L 93.382812 311.121094 L 89.332031 310.996094 L 86.390625 310.867188 L 84.085938 310.738281 L 82.101562 310.605469 L 79.878906 310.421875 L 77.015625 310.121094 L 75.269531 309.890625 L 74.078125 309.699219 L 72.726562 309.4375 L 71.773438 309.199219 L 70.660156 308.820312 L 69.867188 308.335938 L 69.628906 307.964844 Z M 69.628906 307.027344 "/>
<path style=" stroke:none;fill-rule:nonzero;fill:rgb(96.862745%,70.196078%,16.862745%);fill-opacity:1;" d="M 69.628906 275.421875 L 69.707031 275.398438 L 69.707031 274.925781 L 70.027344 273.859375 L 70.820312 272.390625 L 71.855469 271.179688 L 72.964844 270.230469 L 73.679688 269.734375 L 74.871094 269.023438 L 75.90625 268.5 L 78.527344 267.433594 L 81.863281 266.4375 L 83.691406 266.011719 L 85.757812 265.609375 L 88.695312 265.160156 L 90.046875 264.992188 L 94.175781 264.613281 L 98.863281 264.375 L 104.027344 264.304688 L 106.410156 264.328125 L 109.667969 264.425781 L 114.117188 264.683594 L 116.660156 264.921875 L 118.644531 265.160156 L 120.710938 265.46875 L 123.253906 265.941406 L 125.636719 266.511719 L 127.542969 267.078125 L 129.449219 267.789062 L 131.039062 268.546875 L 132.386719 269.378906 L 133.578125 270.375 L 134.292969 271.203125 L 134.773438 272.035156 L 123.730469 272.035156 L 123.09375 271.203125 L 122.378906 270.5625 L 121.1875 269.78125 L 119.996094 269.210938 L 118.804688 268.761719 L 116.578125 268.144531 L 114.671875 267.765625 L 112.289062 267.433594 L 109.984375 267.222656 L 107.363281 267.078125 L 105.773438 267.03125 L 101.566406 267.03125 L 97.75 267.199219 L 95.527344 267.386719 L 93.9375 267.578125 L 91.714844 267.933594 L 90.363281 268.21875 L 89.570312 268.40625 L 87.1875 269.140625 L 85.597656 269.804688 L 84.722656 270.253906 L 83.609375 270.964844 L 82.816406 271.605469 L 81.941406 272.554688 L 81.464844 273.265625 L 80.832031 274.878906 L 80.75 279.144531 L 80.988281 280.046875 L 81.464844 281.015625 L 82.101562 281.871094 L 83.054688 282.773438 L 84.007812 283.460938 L 85.675781 284.382812 L 87.105469 285 L 88.21875 285.402344 L 90.363281 286.042969 L 91.238281 286.257812 L 93.304688 286.683594 L 95.449219 287.015625 L 98.070312 287.300781 L 100.054688 287.441406 L 103.234375 287.558594 L 107.285156 287.558594 L 112.050781 287.417969 L 115.070312 287.226562 L 117.136719 287.039062 L 118.484375 286.871094 L 120.152344 286.613281 L 121.347656 286.375 L 122.457031 286.113281 L 123.808594 285.710938 L 123.808594 280.046875 L 104.1875 280.023438 L 104.1875 277.367188 L 134.691406 277.34375 L 134.773438 286.613281 L 133.101562 287.25 L 131.039062 287.867188 L 129.050781 288.34375 L 126.984375 288.746094 L 124.046875 289.195312 L 121.664062 289.480469 L 118.007812 289.8125 L 114.671875 290.023438 L 111.175781 290.167969 L 108.078125 290.238281 L 104.425781 290.261719 L 101.167969 290.214844 L 97.671875 290.074219 L 94.890625 289.882812 L 92.351562 289.644531 L 89.808594 289.335938 L 86.628906 288.839844 L 84.5625 288.4375 L 82.417969 287.9375 L 80.273438 287.347656 L 78.367188 286.707031 L 77.097656 286.207031 L 75.824219 285.640625 L 74.476562 284.929688 L 73.203125 284.121094 L 72.25 283.386719 L 71.378906 282.558594 L 70.742188 281.777344 L 70.105469 280.710938 L 69.789062 279.855469 L 69.628906 279.121094 Z M 69.628906 275.421875 "/>
<path style=" stroke:none;fill-rule:nonzero;fill:rgb(83.921569%,15.686275%,22.352941%);fill-opacity:1;" d="M 69.628906 312.402344 L 134.773438 312.402344 L 134.773438 312.613281 L 107.621094 312.613281 L 107.621094 314.371094 L 96.699219 314.371094 L 96.699219 312.613281 L 69.628906 312.613281 Z M 69.628906 312.402344 "/>
<path style=" stroke:none;fill-rule:nonzero;fill:rgb(6.27451%,58.823529%,28.235294%);fill-opacity:1;" d="M 138.199219 314.121094 L 138.269531 314.121094 L 166.457031 311.554688 L 175.015625 311.554688 L 203.34375 314.125 L 193.390625 314.125 L 186.292969 313.453125 L 155.179688 313.453125 L 148.222656 314.121094 L 138.199219 314.121094 L 158.175781 313.175781 L 183.4375 313.171875 L 170.839844 311.972656 L 170.703125 311.972656 L 170.5625 311.980469 L 158.105469 313.171875 L 158.175781 313.175781 Z M 138.199219 314.121094 "/>
<path style=" stroke:none;fill-rule:nonzero;fill:rgb(14.509804%,36.078431%,60%);fill-opacity:1;" d="M 138.199219 219.753906 L 138.28125 219.691406 L 138.28125 218.253906 L 138.519531 215.980469 L 139.074219 213.101562 L 139.628906 211.125 L 141.058594 207.589844 L 143.046875 204.175781 L 145.113281 201.539062 L 146.621094 199.980469 L 147.972656 198.785156 L 151.070312 196.566406 L 153.054688 195.429688 L 155.199219 194.410156 L 157.820312 193.390625 L 159.730469 192.792969 L 164.019531 191.832031 L 167.195312 191.414062 L 169.660156 191.234375 L 174.980469 191.234375 L 178.160156 191.472656 L 180.464844 191.773438 L 183.003906 192.253906 L 185.148438 192.792969 L 188.882812 194.109375 L 192.21875 195.789062 L 193.730469 196.746094 L 196.113281 198.605469 L 197.941406 200.402344 L 199.210938 201.957031 L 200.640625 204.175781 L 201.914062 206.871094 L 202.867188 209.925781 L 203.34375 212.503906 L 192.21875 212.503906 L 191.664062 210.105469 L 191.027344 208.25 L 189.835938 205.792969 L 188.644531 204.054688 L 186.976562 202.316406 L 185.46875 201.179688 L 183.402344 200.042969 L 181.574219 199.324219 L 179.667969 198.785156 L 177.839844 198.425781 L 174.347656 198.0625 L 170.292969 198.0625 L 168.785156 198.183594 L 165.6875 198.664062 L 164.019531 199.082031 L 161.636719 199.921875 L 159.96875 200.699219 L 157.980469 201.898438 L 156.628906 202.917969 L 154.960938 204.476562 L 153.769531 205.851562 L 152.421875 207.832031 L 151.625 209.328125 L 150.910156 211.003906 L 150.273438 212.984375 L 149.796875 215.078125 L 149.480469 217.296875 L 149.320312 219.453125 L 149.320312 228.738281 L 149.480469 230.898438 L 149.878906 233.414062 L 150.910156 237.066406 L 152.421875 240.242188 L 154.167969 242.761719 L 155.835938 244.558594 L 156.789062 245.394531 L 158.058594 246.355469 L 160.046875 247.554688 L 162.90625 248.75 L 164.574219 249.230469 L 167.117188 249.710938 L 169.738281 249.949219 L 173.234375 249.949219 L 176.332031 249.710938 L 178.398438 249.410156 L 180.542969 248.929688 L 183.480469 247.914062 L 185.308594 246.953125 L 186.898438 245.816406 L 188.089844 244.675781 L 188.882812 243.71875 L 190.074219 241.859375 L 191.027344 239.824219 L 191.742188 237.726562 L 192.21875 235.691406 L 203.34375 235.691406 L 202.867188 238.085938 L 202.152344 240.421875 L 201.4375 242.160156 L 200.324219 244.257812 L 199.050781 246.113281 L 197.226562 248.210938 L 195.714844 249.589844 L 193.730469 251.085938 L 191.902344 252.226562 L 189.917969 253.246094 L 186.976562 254.441406 L 185.070312 255.042969 L 183.003906 255.582031 L 180.542969 256.0625 L 177.445312 256.480469 L 174.109375 256.71875 L 171.007812 256.78125 L 167.671875 256.660156 L 165.210938 256.421875 L 161.953125 255.878906 L 157.902344 254.800781 L 154.960938 253.664062 L 152.660156 252.527344 L 150.671875 251.328125 L 148.449219 249.710938 L 145.589844 247.074219 L 143.839844 245.035156 L 142.648438 243.359375 L 141.296875 241.023438 L 140.34375 238.925781 L 139.234375 235.570312 L 138.4375 231.316406 L 138.199219 228.019531 Z M 138.199219 219.753906 "/>
<path style=" stroke:none;fill-rule:nonzero;fill:rgb(83.921569%,15.686275%,22.352941%);fill-opacity:1;" d="M 138.199219 257.960938 L 203.34375 257.960938 L 203.34375 263.570312 L 176.191406 263.617188 L 176.191406 310.375 L 165.269531 310.375 L 165.269531 263.667969 L 165.113281 263.570312 L 138.199219 263.570312 Z M 138.199219 257.960938 "/>
<path style=" stroke:none;fill-rule:nonzero;fill:rgb(6.27451%,58.823529%,28.235294%);fill-opacity:1;" d="M 206.769531 272.28125 L 206.839844 272.242188 L 235.027344 229.542969 L 243.585938 229.542969 L 271.914062 272.324219 L 261.960938 272.324219 L 254.863281 261.15625 L 223.753906 261.15625 L 216.792969 272.28125 L 206.769531 272.28125 L 226.746094 256.535156 L 252.007812 256.496094 L 239.410156 236.53125 L 239.273438 236.492188 L 239.132812 236.613281 L 226.675781 256.496094 L 226.746094 256.535156 Z M 206.769531 272.28125 "/>
<path style=" stroke:none;fill-rule:nonzero;fill:rgb(14.509804%,36.078431%,60%);fill-opacity:1;" d="M 206.769531 287.515625 L 206.851562 287.484375 L 206.851562 286.777344 L 207.089844 285.660156 L 207.644531 284.246094 L 208.199219 283.273438 L 209.628906 281.539062 L 211.617188 279.859375 L 213.683594 278.566406 L 215.191406 277.800781 L 216.542969 277.210938 L 219.640625 276.121094 L 221.625 275.5625 L 223.769531 275.0625 L 226.394531 274.5625 L 228.300781 274.265625 L 232.589844 273.796875 L 235.765625 273.589844 L 238.230469 273.5 L 243.550781 273.5 L 246.730469 273.621094 L 249.035156 273.765625 L 251.574219 274.003906 L 253.722656 274.265625 L 257.453125 274.914062 L 260.792969 275.738281 L 262.300781 276.210938 L 264.683594 277.121094 L 266.511719 278.003906 L 267.78125 278.769531 L 269.210938 279.859375 L 270.484375 281.183594 L 271.4375 282.6875 L 271.914062 283.953125 L 260.792969 283.953125 L 260.234375 282.773438 L 259.597656 281.863281 L 258.40625 280.65625 L 257.214844 279.800781 L 255.546875 278.949219 L 254.039062 278.386719 L 251.972656 277.828125 L 250.144531 277.476562 L 248.238281 277.210938 L 246.414062 277.035156 L 242.917969 276.859375 L 238.863281 276.859375 L 237.355469 276.917969 L 234.257812 277.152344 L 232.589844 277.359375 L 230.207031 277.769531 L 228.539062 278.152344 L 226.550781 278.742188 L 225.203125 279.242188 L 223.53125 280.007812 L 222.339844 280.683594 L 220.992188 281.65625 L 220.195312 282.390625 L 219.480469 283.214844 L 218.847656 284.1875 L 218.371094 285.21875 L 218.050781 286.308594 L 217.890625 287.367188 L 217.890625 291.929688 L 218.050781 292.988281 L 218.449219 294.226562 L 219.480469 296.019531 L 220.992188 297.582031 L 222.738281 298.816406 L 224.40625 299.699219 L 225.359375 300.113281 L 226.632812 300.582031 L 228.617188 301.171875 L 231.476562 301.761719 L 233.144531 301.996094 L 235.6875 302.230469 L 238.308594 302.351562 L 241.804688 302.351562 L 244.902344 302.230469 L 246.96875 302.085938 L 249.113281 301.847656 L 252.050781 301.347656 L 253.878906 300.878906 L 255.46875 300.320312 L 256.660156 299.757812 L 257.453125 299.289062 L 258.644531 298.375 L 259.597656 297.375 L 260.3125 296.34375 L 260.792969 295.34375 L 271.914062 295.34375 L 271.4375 296.523438 L 270.722656 297.667969 L 270.007812 298.523438 L 268.894531 299.554688 L 267.621094 300.464844 L 265.796875 301.496094 L 264.285156 302.171875 L 262.300781 302.910156 L 260.472656 303.46875 L 258.488281 303.96875 L 255.546875 304.558594 L 253.640625 304.851562 L 251.574219 305.117188 L 249.113281 305.351562 L 246.015625 305.558594 L 242.679688 305.675781 L 239.582031 305.707031 L 236.242188 305.648438 L 233.78125 305.527344 L 230.523438 305.265625 L 226.472656 304.734375 L 223.53125 304.175781 L 221.230469 303.617188 L 219.242188 303.027344 L 217.019531 302.230469 L 214.160156 300.9375 L 212.410156 299.9375 L 211.21875 299.113281 L 209.867188 297.964844 L 208.914062 296.933594 L 207.804688 295.285156 L 207.007812 293.195312 L 206.769531 291.574219 Z M 206.769531 287.515625 "/>
<path style=" stroke:none;fill-rule:nonzero;fill:rgb(96.862745%,70.196078%,16.862745%);fill-opacity:1;" d="M 206.769531 314.097656 L 206.851562 314.097656 L 206.851562 314.085938 L 207.167969 314.066406 L 207.960938 314.039062 L 208.996094 314.019531 L 210.105469 314 L 210.820312 313.992188 L 212.015625 313.976562 L 213.046875 313.96875 L 215.667969 313.949219 L 219.003906 313.929688 L 220.832031 313.921875 L 222.898438 313.914062 L 225.835938 313.90625 L 227.1875 313.902344 L 231.316406 313.894531 L 236.003906 313.890625 L 243.550781 313.890625 L 246.808594 313.894531 L 251.257812 313.898438 L 253.800781 313.902344 L 255.785156 313.90625 L 257.851562 313.910156 L 260.394531 313.921875 L 262.777344 313.929688 L 266.589844 313.953125 L 268.179688 313.96875 L 269.53125 313.984375 L 270.722656 314.003906 L 271.4375 314.019531 L 271.914062 314.035156 L 260.871094 314.035156 L 260.234375 314.019531 L 259.519531 314.007812 L 258.328125 313.992188 L 257.136719 313.980469 L 255.945312 313.972656 L 253.722656 313.960938 L 251.8125 313.953125 L 249.429688 313.949219 L 247.128906 313.945312 L 244.503906 313.941406 L 238.707031 313.941406 L 234.894531 313.945312 L 232.667969 313.949219 L 231.078125 313.949219 L 228.855469 313.957031 L 227.503906 313.964844 L 226.710938 313.964844 L 224.328125 313.980469 L 222.738281 313.992188 L 221.863281 314 L 220.753906 314.015625 L 219.957031 314.027344 L 219.085938 314.042969 L 218.609375 314.054688 L 217.972656 314.085938 L 217.890625 314.164062 L 218.132812 314.183594 L 218.609375 314.199219 L 219.242188 314.214844 L 221.148438 314.246094 L 222.816406 314.261719 L 224.246094 314.273438 L 225.359375 314.28125 L 227.503906 314.292969 L 228.378906 314.296875 L 230.445312 314.304688 L 232.589844 314.3125 L 235.210938 314.316406 L 237.195312 314.320312 L 244.425781 314.320312 L 249.191406 314.316406 L 252.210938 314.316406 L 254.277344 314.3125 L 255.628906 314.308594 L 257.296875 314.304688 L 258.488281 314.296875 L 259.597656 314.292969 L 260.949219 314.285156 L 260.949219 314.183594 L 241.328125 314.179688 L 241.328125 314.132812 L 271.832031 314.132812 L 271.914062 314.304688 L 270.246094 314.316406 L 268.179688 314.328125 L 266.191406 314.335938 L 264.128906 314.34375 L 261.1875 314.351562 L 258.804688 314.355469 L 255.152344 314.363281 L 251.8125 314.367188 L 248.320312 314.367188 L 245.21875 314.371094 L 238.308594 314.371094 L 234.8125 314.367188 L 232.03125 314.363281 L 229.492188 314.359375 L 226.949219 314.355469 L 223.769531 314.34375 L 221.707031 314.335938 L 219.5625 314.328125 L 217.414062 314.316406 L 215.507812 314.304688 L 214.238281 314.296875 L 212.96875 314.285156 L 211.617188 314.273438 L 210.34375 314.257812 L 209.390625 314.242188 L 208.519531 314.226562 L 207.882812 314.214844 L 207.246094 314.195312 L 206.929688 314.179688 L 206.769531 314.164062 Z M 206.769531 314.097656 "/>
<path style=" stroke:none;fill-rule:nonzero;fill:rgb(83.921569%,15.686275%,22.352941%);fill-opacity:1;" d="M 206.769531 306.886719 L 271.914062 306.886719 L 271.914062 307.507812 L 244.765625 307.515625 L 244.765625 312.710938 L 233.839844 312.710938 L 233.839844 307.519531 L 233.683594 307.507812 L 206.769531 307.507812 Z M 206.769531 306.886719 "/>
<path style=" stroke:none;fill-rule:nonzero;fill:rgb(6.27451%,58.823529%,28.235294%);fill-opacity:1;" d="M 275.339844 293.449219 L 275.410156 293.261719 L 303.597656 95.535156 L 312.15625 95.535156 L 340.484375 293.636719 L 330.53125 293.636719 L 323.433594 241.925781 L 292.324219 241.925781 L 285.363281 293.449219 L 275.339844 293.449219 L 295.316406 220.535156 L 320.578125 220.347656 L 307.980469 127.902344 L 307.84375 127.714844 L 307.703125 128.273438 L 295.246094 220.347656 L 295.316406 220.535156 Z M 275.339844 293.449219 "/>
<path style=" stroke:none;fill-rule:nonzero;fill:rgb(14.509804%,36.078431%,60%);fill-opacity:1;" d="M 275.339844 311.820312 L 275.421875 311.820312 L 275.421875 311.78125 L 275.660156 311.722656 L 276.214844 311.648438 L 276.769531 311.597656 L 278.203125 311.503906 L 280.1875 311.417969 L 282.253906 311.347656 L 283.761719 311.308594 L 285.113281 311.277344 L 288.210938 311.21875 L 290.195312 311.191406 L 292.34375 311.164062 L 294.964844 311.136719 L 296.871094 311.121094 L 301.160156 311.097656 L 304.335938 311.085938 L 306.800781 311.082031 L 312.121094 311.082031 L 315.300781 311.085938 L 317.605469 311.09375 L 320.148438 311.105469 L 322.292969 311.121094 L 326.023438 311.15625 L 329.363281 311.199219 L 330.871094 311.222656 L 333.253906 311.273438 L 335.082031 311.320312 L 336.351562 311.359375 L 337.78125 311.417969 L 339.054688 311.484375 L 340.007812 311.566406 L 340.484375 311.632812 L 329.363281 311.632812 L 328.804688 311.570312 L 328.171875 311.523438 L 326.976562 311.457031 L 325.785156 311.414062 L 324.117188 311.367188 L 322.609375 311.339844 L 320.542969 311.308594 L 318.714844 311.289062 L 316.808594 311.277344 L 314.984375 311.265625 L 311.488281 311.257812 L 307.4375 311.257812 L 305.925781 311.261719 L 302.828125 311.273438 L 301.160156 311.285156 L 298.777344 311.304688 L 297.109375 311.328125 L 295.121094 311.355469 L 293.773438 311.382812 L 292.105469 311.425781 L 290.910156 311.460938 L 289.5625 311.511719 L 288.765625 311.550781 L 288.050781 311.59375 L 287.417969 311.644531 L 286.941406 311.699219 L 286.621094 311.757812 L 286.464844 311.8125 L 286.464844 312.054688 L 286.621094 312.109375 L 287.019531 312.175781 L 288.050781 312.269531 L 289.5625 312.351562 L 291.308594 312.417969 L 292.976562 312.464844 L 293.929688 312.484375 L 295.203125 312.511719 L 297.1875 312.542969 L 300.046875 312.574219 L 301.714844 312.585938 L 304.257812 312.597656 L 306.878906 312.601562 L 310.375 312.601562 L 313.472656 312.597656 L 315.539062 312.589844 L 317.683594 312.578125 L 320.625 312.550781 L 322.449219 312.527344 L 324.039062 312.496094 L 325.230469 312.464844 L 326.023438 312.441406 L 327.21875 312.394531 L 328.171875 312.339844 L 328.886719 312.285156 L 329.363281 312.234375 L 340.484375 312.234375 L 340.007812 312.296875 L 339.292969 312.355469 L 338.578125 312.402344 L 337.464844 312.457031 L 336.195312 312.503906 L 334.367188 312.558594 L 332.855469 312.59375 L 330.871094 312.632812 L 329.042969 312.664062 L 327.058594 312.6875 L 324.117188 312.71875 L 322.210938 312.734375 L 320.148438 312.75 L 317.683594 312.761719 L 314.585938 312.773438 L 311.25 312.777344 L 308.152344 312.78125 L 304.8125 312.777344 L 302.351562 312.769531 L 299.09375 312.757812 L 295.042969 312.730469 L 292.105469 312.699219 L 289.800781 312.671875 L 287.8125 312.640625 L 285.589844 312.597656 L 282.730469 312.527344 L 280.980469 312.476562 L 279.789062 312.433594 L 278.441406 312.371094 L 277.488281 312.316406 L 276.375 312.230469 L 275.578125 312.121094 L 275.339844 312.035156 Z M 275.339844 311.820312 "/>
<path style=" stroke:none;fill-rule:nonzero;fill:rgb(96.862745%,70.196078%,16.862745%);fill-opacity:1;" d="M 275.339844 301.277344 L 275.421875 301.261719 L 275.421875 300.988281 L 275.738281 300.367188 L 276.53125 299.511719 L 277.566406 298.808594 L 278.679688 298.257812 L 279.394531 297.96875 L 280.585938 297.554688 L 281.617188 297.253906 L 284.238281 296.632812 L 287.574219 296.054688 L 289.402344 295.804688 L 291.46875 295.570312 L 294.40625 295.308594 L 295.757812 295.214844 L 299.890625 294.992188 L 304.574219 294.855469 L 309.738281 294.8125 L 312.121094 294.828125 L 315.378906 294.882812 L 319.828125 295.035156 L 322.371094 295.171875 L 324.355469 295.308594 L 326.421875 295.488281 L 328.964844 295.765625 L 331.347656 296.097656 L 333.253906 296.425781 L 335.160156 296.839844 L 336.75 297.28125 L 338.101562 297.761719 L 339.292969 298.339844 L 340.007812 298.824219 L 340.484375 299.304688 L 329.441406 299.304688 L 328.804688 298.824219 L 328.089844 298.453125 L 326.898438 297.996094 L 325.707031 297.667969 L 324.515625 297.40625 L 322.292969 297.046875 L 320.386719 296.824219 L 318 296.632812 L 315.699219 296.507812 L 313.078125 296.425781 L 311.488281 296.398438 L 307.277344 296.398438 L 303.464844 296.496094 L 301.238281 296.605469 L 299.652344 296.714844 L 297.425781 296.921875 L 296.074219 297.085938 L 295.28125 297.199219 L 292.898438 297.625 L 291.308594 298.011719 L 290.433594 298.273438 L 289.324219 298.6875 L 288.527344 299.058594 L 287.65625 299.609375 L 287.179688 300.023438 L 286.542969 300.960938 L 286.464844 303.4375 L 286.703125 303.964844 L 287.179688 304.527344 L 287.8125 305.023438 L 288.765625 305.546875 L 289.71875 305.945312 L 291.386719 306.484375 L 292.820312 306.84375 L 293.929688 307.078125 L 296.074219 307.449219 L 296.949219 307.574219 L 299.015625 307.820312 L 301.160156 308.011719 L 303.78125 308.179688 L 305.765625 308.261719 L 308.945312 308.332031 L 312.996094 308.332031 L 317.761719 308.246094 L 320.78125 308.136719 L 322.847656 308.027344 L 324.199219 307.929688 L 325.867188 307.78125 L 327.058594 307.640625 L 328.171875 307.488281 L 329.519531 307.253906 L 329.519531 303.964844 L 309.898438 303.949219 L 309.898438 302.40625 L 340.402344 302.390625 L 340.484375 307.78125 L 338.816406 308.152344 L 336.75 308.507812 L 334.765625 308.785156 L 332.699219 309.019531 L 329.757812 309.28125 L 327.375 309.445312 L 323.722656 309.640625 L 320.386719 309.761719 L 316.890625 309.847656 L 313.792969 309.886719 L 310.136719 309.902344 L 306.878906 309.875 L 303.382812 309.789062 L 300.605469 309.679688 L 298.0625 309.542969 L 295.519531 309.363281 L 292.34375 309.074219 L 290.277344 308.839844 L 288.132812 308.550781 L 285.988281 308.207031 L 284.078125 307.835938 L 282.808594 307.546875 L 281.539062 307.214844 L 280.1875 306.800781 L 278.917969 306.332031 L 277.964844 305.90625 L 277.089844 305.421875 L 276.453125 304.96875 L 275.816406 304.347656 L 275.5 303.851562 L 275.339844 303.425781 Z M 275.339844 301.277344 "/>
<path style=" stroke:none;fill-rule:nonzero;fill:rgb(83.921569%,15.686275%,22.352941%);fill-opacity:1;" d="M 275.339844 313.960938 L 340.484375 313.960938 L 340.484375 314.003906 L 313.335938 314.003906 L 313.335938 314.371094 L 302.410156 314.371094 L 302.410156 314.003906 L 275.339844 314.003906 Z M 275.339844 313.960938 "/>
<path style=" stroke:none;fill-rule:nonzero;fill:rgb(83.921569%,15.686275%,22.352941%);fill-opacity:1;" d="M 343.914062 20.664062 L 409.054688 20.664062 L 409.054688 51.964844 L 381.90625 52.242188 L 381.90625 313.105469 L 370.980469 313.105469 L 370.980469 52.515625 L 370.824219 51.964844 L 343.914062 51.964844 Z M 343.914062 20.664062 "/>
<path style=" stroke:none;fill-rule:nonzero;fill:rgb(6.27451%,58.823529%,28.235294%);fill-opacity:1;" d="M 412.484375 284.210938 L 412.550781 284.074219 L 440.738281 136.253906 L 449.300781 136.253906 L 477.625 284.351562 L 467.671875 284.351562 L 460.574219 245.691406 L 429.464844 245.691406 L 422.503906 284.210938 L 412.484375 284.210938 L 432.457031 229.703125 L 457.71875 229.5625 L 445.125 160.449219 L 444.984375 160.3125 L 444.84375 160.730469 L 432.386719 229.5625 L 432.457031 229.703125 Z M 412.484375 284.210938 "/>
<path style=" stroke:none;fill-rule:nonzero;fill:rgb(14.509804%,36.078431%,60%);fill-opacity:1;" d="M 412.484375 310.507812 L 412.5625 310.503906 L 412.5625 310.421875 L 412.800781 310.296875 L 413.355469 310.136719 L 413.914062 310.027344 L 415.34375 309.828125 L 417.328125 309.640625 L 419.394531 309.492188 L 420.902344 309.40625 L 422.253906 309.339844 L 425.351562 309.214844 L 427.339844 309.152344 L 429.484375 309.09375 L 432.105469 309.039062 L 434.011719 309.003906 L 438.300781 308.953125 L 441.480469 308.929688 L 443.941406 308.917969 L 449.265625 308.917969 L 452.441406 308.933594 L 454.746094 308.949219 L 457.289062 308.976562 L 459.433594 309.003906 L 463.167969 309.078125 L 466.503906 309.171875 L 468.011719 309.226562 L 470.394531 309.328125 L 472.222656 309.429688 L 473.492188 309.515625 L 474.925781 309.640625 L 476.195312 309.789062 L 477.148438 309.960938 L 477.625 310.101562 L 466.503906 310.101562 L 465.945312 309.96875 L 465.3125 309.867188 L 464.121094 309.730469 L 462.929688 309.632812 L 461.261719 309.535156 L 459.75 309.472656 L 457.683594 309.410156 L 455.859375 309.367188 L 453.953125 309.339844 L 452.125 309.320312 L 448.628906 309.300781 L 444.578125 309.300781 L 443.066406 309.304688 L 439.96875 309.332031 L 438.300781 309.355469 L 435.917969 309.402344 L 434.25 309.445312 L 432.265625 309.511719 L 430.914062 309.570312 L 429.246094 309.65625 L 428.054688 309.734375 L 426.703125 309.84375 L 425.910156 309.925781 L 425.195312 310.019531 L 424.558594 310.128906 L 424.082031 310.246094 L 423.761719 310.371094 L 423.605469 310.488281 L 423.605469 311.007812 L 423.761719 311.125 L 424.160156 311.265625 L 425.195312 311.46875 L 426.703125 311.648438 L 428.449219 311.789062 L 430.117188 311.886719 L 431.070312 311.933594 L 432.34375 311.988281 L 434.328125 312.054688 L 437.1875 312.121094 L 438.859375 312.148438 L 441.398438 312.175781 L 444.019531 312.1875 L 447.515625 312.1875 L 450.613281 312.175781 L 452.679688 312.15625 L 454.824219 312.132812 L 457.765625 312.074219 L 459.589844 312.019531 L 461.179688 311.957031 L 462.371094 311.894531 L 463.167969 311.839844 L 464.359375 311.738281 L 465.3125 311.625 L 466.027344 311.507812 L 466.503906 311.394531 L 477.625 311.394531 L 477.148438 311.527344 L 476.433594 311.65625 L 475.71875 311.753906 L 474.605469 311.871094 L 473.335938 311.972656 L 471.507812 312.089844 L 470 312.167969 L 468.011719 312.25 L 466.183594 312.3125 L 464.199219 312.371094 L 461.261719 312.4375 L 459.351562 312.472656 L 457.289062 312.5 L 454.824219 312.527344 L 451.726562 312.550781 L 448.390625 312.566406 L 445.292969 312.566406 L 441.957031 312.5625 L 439.492188 312.546875 L 436.234375 312.519531 L 432.183594 312.457031 L 429.246094 312.394531 L 426.941406 312.332031 L 424.957031 312.265625 L 422.730469 312.175781 L 419.871094 312.027344 L 418.125 311.914062 L 416.929688 311.820312 L 415.582031 311.691406 L 414.628906 311.574219 L 413.515625 311.386719 L 412.722656 311.148438 L 412.484375 310.964844 Z M 412.484375 310.507812 "/>
<path style=" stroke:none;fill-rule:nonzero;fill:rgb(96.862745%,70.196078%,16.862745%);fill-opacity:1;" d="M 412.484375 314.015625 L 412.5625 314.015625 L 412.5625 314.003906 L 412.878906 313.976562 L 413.675781 313.941406 L 414.707031 313.914062 L 415.820312 313.890625 L 417.726562 313.859375 L 418.757812 313.847656 L 421.378906 313.824219 L 424.71875 313.796875 L 426.542969 313.789062 L 428.609375 313.777344 L 431.546875 313.769531 L 432.898438 313.765625 L 437.03125 313.753906 L 441.71875 313.75 L 446.882812 313.746094 L 449.265625 313.746094 L 452.519531 313.75 L 456.96875 313.757812 L 459.511719 313.761719 L 461.5 313.769531 L 463.5625 313.773438 L 466.105469 313.785156 L 468.488281 313.800781 L 470.394531 313.8125 L 472.300781 313.832031 L 473.890625 313.847656 L 475.242188 313.871094 L 476.433594 313.894531 L 477.148438 313.914062 L 477.625 313.933594 L 466.582031 313.933594 L 465.945312 313.914062 L 465.230469 313.898438 L 464.039062 313.878906 L 461.65625 313.855469 L 459.433594 313.839844 L 457.527344 313.832031 L 455.144531 313.824219 L 452.839844 313.816406 L 450.21875 313.8125 L 444.417969 313.8125 L 440.605469 313.816406 L 438.378906 313.820312 L 436.792969 313.824219 L 434.566406 313.835938 L 433.21875 313.839844 L 432.421875 313.847656 L 430.039062 313.863281 L 428.449219 313.878906 L 427.578125 313.890625 L 426.464844 313.90625 L 425.671875 313.921875 L 424.796875 313.945312 L 424.320312 313.960938 L 423.683594 314 L 423.605469 314.105469 L 423.84375 314.125 L 424.320312 314.148438 L 424.957031 314.167969 L 425.910156 314.191406 L 426.863281 314.207031 L 428.53125 314.230469 L 429.960938 314.246094 L 431.070312 314.253906 L 433.21875 314.269531 L 434.089844 314.273438 L 436.15625 314.285156 L 438.300781 314.292969 L 440.921875 314.300781 L 442.910156 314.304688 L 450.136719 314.304688 L 454.90625 314.300781 L 457.921875 314.296875 L 459.988281 314.292969 L 461.339844 314.289062 L 463.007812 314.28125 L 464.199219 314.277344 L 465.3125 314.269531 L 466.660156 314.261719 L 466.660156 314.125 L 447.039062 314.125 L 447.039062 314.0625 L 477.546875 314.058594 L 477.625 314.28125 L 475.957031 314.296875 L 473.890625 314.3125 L 471.90625 314.324219 L 469.839844 314.335938 L 466.898438 314.34375 L 464.515625 314.351562 L 460.863281 314.359375 L 457.527344 314.363281 L 454.03125 314.367188 L 450.933594 314.371094 L 444.019531 314.371094 L 440.527344 314.367188 L 437.746094 314.363281 L 432.660156 314.347656 L 429.484375 314.335938 L 427.417969 314.328125 L 425.273438 314.316406 L 423.128906 314.300781 L 421.222656 314.285156 L 419.949219 314.273438 L 418.679688 314.257812 L 417.328125 314.242188 L 416.058594 314.222656 L 415.105469 314.207031 L 414.230469 314.1875 L 413.59375 314.167969 L 412.960938 314.140625 L 412.640625 314.121094 L 412.484375 314.101562 Z M 412.484375 314.015625 "/>
<path style=" stroke:none;fill-rule:nonzero;fill:rgb(83.921569%,15.686275%,22.352941%);fill-opacity:1;" d="M 412.484375 285.53125 L 477.625 285.53125 L 477.625 287.90625 L 450.476562 287.929688 L 450.476562 307.738281 L 439.554688 307.738281 L 439.554688 287.949219 L 439.394531 287.90625 L 412.484375 287.90625 Z M 412.484375 285.53125 "/>
<path style=" stroke:none;fill-rule:nonzero;fill:rgb(6.27451%,58.823529%,28.235294%);fill-opacity:1;" d="M 481.054688 292.855469 L 481.125 292.671875 L 509.308594 94.238281 L 517.871094 94.238281 L 546.195312 293.042969 L 536.242188 293.042969 L 529.144531 241.148438 L 498.035156 241.148438 L 491.074219 292.855469 L 481.054688 292.855469 L 501.027344 219.679688 L 526.292969 219.496094 L 513.695312 126.71875 L 513.554688 126.53125 L 513.414062 127.089844 L 500.957031 219.496094 L 501.027344 219.679688 Z M 481.054688 292.855469 "/>
<path style=" stroke:none;fill-rule:nonzero;fill:rgb(14.509804%,36.078431%,60%);fill-opacity:1;" d="M 481.054688 314.136719 L 481.132812 314.136719 L 481.132812 314.125 L 481.371094 314.113281 L 481.925781 314.09375 L 482.484375 314.082031 L 483.914062 314.058594 L 485.898438 314.035156 L 487.964844 314.019531 L 489.472656 314.011719 L 490.824219 314.003906 L 493.921875 313.988281 L 495.910156 313.980469 L 498.054688 313.976562 L 500.675781 313.96875 L 502.582031 313.964844 L 506.871094 313.957031 L 510.050781 313.957031 L 512.511719 313.953125 L 517.835938 313.953125 L 521.011719 313.957031 L 523.316406 313.957031 L 525.859375 313.960938 L 528.003906 313.964844 L 531.738281 313.972656 L 535.074219 313.984375 L 536.582031 313.988281 L 538.964844 314 L 540.792969 314.011719 L 542.066406 314.023438 L 543.496094 314.035156 L 544.765625 314.054688 L 545.71875 314.074219 L 546.195312 314.089844 L 535.074219 314.089844 L 534.519531 314.074219 L 533.882812 314.0625 L 532.691406 314.046875 L 531.5 314.035156 L 529.832031 314.023438 L 528.320312 314.019531 L 526.253906 314.011719 L 524.429688 314.003906 L 522.523438 314.003906 L 520.695312 314 L 517.199219 313.996094 L 513.148438 313.996094 L 511.636719 314 L 508.539062 314 L 506.871094 314.003906 L 504.488281 314.007812 L 502.820312 314.015625 L 500.835938 314.023438 L 499.484375 314.027344 L 497.816406 314.039062 L 496.625 314.046875 L 495.273438 314.058594 L 494.480469 314.070312 L 493.765625 314.078125 L 493.128906 314.09375 L 492.652344 314.105469 L 492.335938 314.121094 L 492.175781 314.132812 L 492.175781 314.191406 L 492.335938 314.207031 L 492.730469 314.222656 L 493.765625 314.246094 L 495.273438 314.265625 L 497.019531 314.28125 L 498.691406 314.292969 L 499.644531 314.296875 L 500.914062 314.304688 L 502.898438 314.3125 L 505.761719 314.320312 L 507.429688 314.324219 L 509.96875 314.324219 L 512.59375 314.328125 L 516.085938 314.328125 L 519.183594 314.324219 L 521.25 314.324219 L 523.394531 314.320312 L 526.335938 314.3125 L 528.164062 314.308594 L 529.75 314.300781 L 530.941406 314.292969 L 531.738281 314.289062 L 532.929688 314.277344 L 534.597656 314.25 L 535.074219 314.238281 L 546.195312 314.238281 L 545.71875 314.253906 L 544.289062 314.277344 L 543.175781 314.292969 L 541.90625 314.304688 L 540.078125 314.316406 L 538.570312 314.324219 L 536.582031 314.335938 L 534.757812 314.339844 L 532.769531 314.347656 L 529.832031 314.355469 L 527.925781 314.359375 L 525.859375 314.363281 L 523.394531 314.367188 L 520.296875 314.367188 L 516.960938 314.371094 L 510.527344 314.371094 L 508.0625 314.367188 L 504.804688 314.363281 L 500.753906 314.359375 L 497.816406 314.351562 L 495.511719 314.34375 L 493.527344 314.335938 L 491.300781 314.324219 L 488.441406 314.308594 L 486.695312 314.296875 L 485.503906 314.285156 L 484.152344 314.269531 L 483.199219 314.257812 L 482.085938 314.234375 L 481.292969 314.207031 L 481.054688 314.1875 Z M 481.054688 314.136719 "/>
<path style=" stroke:none;fill-rule:nonzero;fill:rgb(96.862745%,70.196078%,16.862745%);fill-opacity:1;" d="M 481.054688 312.488281 L 481.132812 312.488281 L 481.132812 312.476562 L 481.449219 312.457031 L 482.246094 312.429688 L 483.277344 312.40625 L 484.390625 312.386719 L 485.105469 312.378906 L 486.296875 312.363281 L 487.328125 312.355469 L 489.949219 312.332031 L 493.289062 312.3125 L 495.113281 312.304688 L 497.179688 312.296875 L 500.121094 312.289062 L 501.46875 312.285156 L 505.601562 312.277344 L 510.289062 312.273438 L 521.09375 312.273438 L 525.539062 312.28125 L 528.082031 312.285156 L 530.070312 312.289062 L 532.132812 312.296875 L 534.675781 312.304688 L 537.058594 312.316406 L 538.964844 312.324219 L 540.875 312.339844 L 542.460938 312.355469 L 543.8125 312.371094 L 545.003906 312.390625 L 545.71875 312.40625 L 546.195312 312.421875 L 535.152344 312.421875 L 534.519531 312.40625 L 533.804688 312.394531 L 532.609375 312.378906 L 531.417969 312.367188 L 530.226562 312.359375 L 528.003906 312.347656 L 526.097656 312.339844 L 523.714844 312.332031 L 521.410156 312.328125 L 518.789062 312.324219 L 512.988281 312.324219 L 509.175781 312.328125 L 506.953125 312.332031 L 505.363281 312.335938 L 503.136719 312.34375 L 501.789062 312.347656 L 500.992188 312.351562 L 498.609375 312.367188 L 497.019531 312.378906 L 496.148438 312.386719 L 495.035156 312.402344 L 494.242188 312.414062 L 493.367188 312.433594 L 492.890625 312.445312 L 492.253906 312.476562 L 492.175781 312.558594 L 492.414062 312.578125 L 492.890625 312.597656 L 493.527344 312.613281 L 495.433594 312.644531 L 497.101562 312.660156 L 498.53125 312.671875 L 499.644531 312.679688 L 501.789062 312.691406 L 502.660156 312.699219 L 504.726562 312.707031 L 506.871094 312.710938 L 509.492188 312.71875 L 511.480469 312.71875 L 514.65625 312.722656 L 518.707031 312.722656 L 523.476562 312.71875 L 526.492188 312.714844 L 528.558594 312.710938 L 529.910156 312.710938 L 531.578125 312.703125 L 532.769531 312.699219 L 533.882812 312.695312 L 535.234375 312.6875 L 535.234375 312.578125 L 515.609375 312.578125 L 515.609375 312.523438 L 546.117188 312.523438 L 546.195312 312.703125 L 544.527344 312.714844 L 542.460938 312.730469 L 540.476562 312.738281 L 538.410156 312.746094 L 535.472656 312.753906 L 533.085938 312.757812 L 529.433594 312.765625 L 526.097656 312.769531 L 522.601562 312.773438 L 512.59375 312.773438 L 509.097656 312.769531 L 506.316406 312.765625 L 501.230469 312.757812 L 498.054688 312.746094 L 495.988281 312.738281 L 493.84375 312.730469 L 491.699219 312.71875 L 489.792969 312.707031 L 488.519531 312.695312 L 487.25 312.683594 L 485.898438 312.671875 L 484.628906 312.65625 L 483.675781 312.640625 L 482.800781 312.625 L 482.164062 312.609375 L 481.53125 312.589844 L 481.210938 312.574219 L 481.054688 312.558594 Z M 481.054688 312.488281 "/>
<path style=" stroke:none;fill-rule:nonzero;fill:rgb(83.921569%,15.686275%,22.352941%);fill-opacity:1;" d="M 481.054688 294.222656 L 546.195312 294.222656 L 546.195312 296.027344 L 519.046875 296.042969 L 519.046875 311.09375 L 508.125 311.09375 L 508.125 296.0625 L 507.964844 296.027344 L 481.054688 296.027344 Z M 481.054688 294.222656 "/>
<path style=" stroke:none;fill-rule:nonzero;fill:rgb(6.27451%,58.823529%,28.235294%);fill-opacity:1;" d="M 549.625 289.65625 L 549.695312 289.503906 L 577.878906 127.921875 L 586.441406 127.921875 L 614.765625 289.808594 L 604.8125 289.808594 L 597.714844 247.550781 L 566.605469 247.550781 L 559.644531 289.65625 L 549.625 289.65625 L 569.597656 230.070312 L 594.863281 229.917969 L 582.265625 154.371094 L 582.125 154.21875 L 581.988281 154.675781 L 569.527344 229.917969 L 569.597656 230.070312 Z M 549.625 289.65625 "/>
<path style=" stroke:none;fill-rule:nonzero;fill:rgb(14.509804%,36.078431%,60%);fill-opacity:1;" d="M 549.625 305.667969 L 549.703125 305.660156 L 549.703125 305.5 L 549.941406 305.242188 L 550.496094 304.914062 L 551.054688 304.691406 L 552.484375 304.289062 L 554.46875 303.902344 L 556.535156 303.601562 L 558.046875 303.425781 L 559.394531 303.289062 L 562.492188 303.039062 L 564.480469 302.910156 L 566.625 302.792969 L 569.246094 302.679688 L 571.152344 302.609375 L 575.441406 302.5 L 578.621094 302.453125 L 581.082031 302.433594 L 586.40625 302.433594 L 589.582031 302.460938 L 591.886719 302.496094 L 594.429688 302.546875 L 596.574219 302.609375 L 600.308594 302.757812 L 603.644531 302.949219 L 605.152344 303.058594 L 607.539062 303.269531 L 609.363281 303.472656 L 610.636719 303.648438 L 612.066406 303.902344 L 613.335938 304.207031 L 614.289062 304.554688 L 614.765625 304.847656 L 603.644531 304.847656 L 603.089844 304.574219 L 602.453125 304.363281 L 601.261719 304.085938 L 600.070312 303.886719 L 598.402344 303.691406 L 596.890625 303.5625 L 594.828125 303.433594 L 593 303.351562 L 591.09375 303.289062 L 589.265625 303.25 L 585.769531 303.207031 L 581.71875 303.207031 L 580.210938 303.222656 L 577.109375 303.277344 L 575.441406 303.324219 L 573.058594 303.417969 L 571.390625 303.507812 L 569.40625 303.644531 L 568.054688 303.757812 L 566.386719 303.933594 L 565.195312 304.089844 L 563.84375 304.316406 L 563.050781 304.484375 L 562.335938 304.675781 L 561.699219 304.902344 L 561.222656 305.136719 L 560.90625 305.390625 L 560.746094 305.632812 L 560.746094 306.6875 L 560.90625 306.933594 L 561.300781 307.21875 L 562.335938 307.632812 L 563.84375 307.992188 L 565.59375 308.277344 L 567.261719 308.484375 L 568.214844 308.578125 L 569.484375 308.6875 L 571.46875 308.824219 L 574.332031 308.957031 L 576 309.011719 L 578.539062 309.066406 L 581.164062 309.09375 L 584.65625 309.09375 L 587.757812 309.066406 L 589.820312 309.035156 L 591.964844 308.980469 L 594.90625 308.863281 L 596.734375 308.753906 L 598.320312 308.625 L 599.511719 308.496094 L 600.308594 308.386719 L 601.5 308.175781 L 602.453125 307.945312 L 603.167969 307.707031 L 603.644531 307.476562 L 614.765625 307.476562 L 614.289062 307.75 L 613.574219 308.015625 L 612.859375 308.210938 L 611.746094 308.449219 L 610.476562 308.660156 L 608.648438 308.898438 L 607.140625 309.054688 L 605.152344 309.222656 L 603.328125 309.351562 L 601.339844 309.46875 L 598.402344 309.605469 L 596.496094 309.671875 L 594.429688 309.734375 L 591.964844 309.789062 L 588.867188 309.835938 L 585.53125 309.863281 L 582.433594 309.871094 L 579.097656 309.855469 L 576.632812 309.828125 L 573.378906 309.765625 L 569.324219 309.644531 L 566.386719 309.515625 L 564.082031 309.386719 L 562.097656 309.25 L 559.871094 309.066406 L 557.011719 308.769531 L 555.265625 308.539062 L 554.074219 308.347656 L 552.722656 308.082031 L 551.769531 307.84375 L 550.65625 307.464844 L 549.863281 306.980469 L 549.625 306.605469 Z M 549.625 305.667969 "/>
<path style=" stroke:none;fill-rule:nonzero;fill:rgb(96.862745%,70.196078%,16.862745%);fill-opacity:1;" d="M 549.625 312.472656 L 549.703125 312.46875 L 549.703125 312.40625 L 550.019531 312.269531 L 550.816406 312.082031 L 551.847656 311.929688 L 552.960938 311.808594 L 553.675781 311.742188 L 554.867188 311.652344 L 555.898438 311.585938 L 558.523438 311.449219 L 561.859375 311.320312 L 563.683594 311.265625 L 565.75 311.214844 L 568.691406 311.15625 L 570.039062 311.136719 L 574.171875 311.089844 L 578.859375 311.058594 L 584.023438 311.050781 L 586.40625 311.050781 L 589.664062 311.0625 L 594.113281 311.097656 L 596.652344 311.128906 L 598.640625 311.15625 L 600.707031 311.199219 L 603.246094 311.257812 L 605.628906 311.332031 L 607.539062 311.402344 L 609.445312 311.496094 L 611.03125 311.59375 L 612.382812 311.699219 L 613.574219 311.824219 L 614.289062 311.933594 L 614.765625 312.039062 L 603.722656 312.039062 L 603.089844 311.933594 L 602.375 311.851562 L 601.183594 311.75 L 599.988281 311.675781 L 598.796875 311.621094 L 596.574219 311.539062 L 594.667969 311.492188 L 592.285156 311.449219 L 589.980469 311.421875 L 587.359375 311.402344 L 585.769531 311.398438 L 581.558594 311.398438 L 577.746094 311.417969 L 575.523438 311.441406 L 573.933594 311.46875 L 571.707031 311.511719 L 570.359375 311.550781 L 569.5625 311.574219 L 567.179688 311.667969 L 565.59375 311.753906 L 564.71875 311.808594 L 563.605469 311.902344 L 562.8125 311.984375 L 561.9375 312.105469 L 561.460938 312.195312 L 560.824219 312.402344 L 560.746094 312.949219 L 560.984375 313.0625 L 561.460938 313.1875 L 562.097656 313.296875 L 563.050781 313.410156 L 564.003906 313.5 L 565.671875 313.617188 L 567.101562 313.695312 L 568.214844 313.75 L 570.359375 313.832031 L 571.230469 313.859375 L 573.296875 313.914062 L 575.441406 313.953125 L 578.0625 313.992188 L 580.050781 314.007812 L 583.226562 314.023438 L 587.28125 314.023438 L 592.046875 314.007812 L 595.066406 313.980469 L 597.128906 313.957031 L 598.480469 313.9375 L 600.148438 313.902344 L 601.339844 313.875 L 602.453125 313.839844 L 603.804688 313.789062 L 603.804688 313.0625 L 584.179688 313.058594 L 584.179688 312.71875 L 614.6875 312.71875 L 614.765625 313.902344 L 613.097656 313.984375 L 611.03125 314.0625 L 609.046875 314.125 L 606.980469 314.175781 L 604.042969 314.234375 L 601.660156 314.269531 L 598.003906 314.3125 L 594.667969 314.339844 L 591.171875 314.359375 L 588.074219 314.367188 L 584.417969 314.371094 L 581.164062 314.363281 L 577.667969 314.347656 L 574.886719 314.320312 L 572.34375 314.292969 L 569.800781 314.253906 L 566.625 314.1875 L 564.558594 314.136719 L 562.414062 314.074219 L 560.269531 313.996094 L 558.363281 313.914062 L 557.089844 313.851562 L 555.820312 313.777344 L 554.46875 313.6875 L 553.199219 313.585938 L 552.246094 313.492188 L 551.371094 313.382812 L 550.738281 313.285156 L 550.101562 313.148438 L 549.78125 313.039062 L 549.625 312.945312 Z M 549.625 312.472656 "/>
<path style=" stroke:none;fill-rule:nonzero;fill:rgb(83.921569%,15.686275%,22.352941%);fill-opacity:1;" d="M 549.625 290.988281 L 614.765625 290.988281 L 614.765625 292.085938 L 587.617188 292.09375 L 587.617188 301.253906 L 576.695312 301.253906 L 576.695312 292.105469 L 576.535156 292.085938 L 549.625 292.085938 Z M 549.625 290.988281 "/>
<path style=" stroke:none;fill-rule:nonzero;fill:rgb(6.27451%,58.823529%,28.235294%);fill-opacity:1;" d="M 618.195312 298.085938 L 618.265625 298.074219 L 646.449219 282.921875 L 655.011719 282.921875 L 683.335938 298.101562 L 673.382812 298.101562 L 666.285156 294.140625 L 635.175781 294.140625 L 628.214844 298.085938 L 618.195312 298.085938 L 638.167969 292.5 L 663.433594 292.484375 L 650.835938 285.402344 L 650.695312 285.386719 L 650.558594 285.429688 L 638.097656 292.484375 L 638.167969 292.5 Z M 618.195312 298.085938 "/>
<path style=" stroke:none;fill-rule:nonzero;fill:rgb(14.509804%,36.078431%,60%);fill-opacity:1;" d="M 618.195312 301.441406 L 618.273438 301.4375 L 618.273438 301.328125 L 618.511719 301.15625 L 619.070312 300.9375 L 619.625 300.789062 L 621.054688 300.519531 L 623.039062 300.261719 L 625.105469 300.0625 L 626.617188 299.945312 L 627.964844 299.855469 L 631.0625 299.6875 L 633.050781 299.597656 L 635.195312 299.523438 L 637.816406 299.445312 L 639.722656 299.398438 L 644.011719 299.328125 L 647.191406 299.296875 L 649.652344 299.28125 L 654.976562 299.28125 L 658.152344 299.300781 L 660.457031 299.324219 L 663 299.359375 L 665.144531 299.398438 L 668.878906 299.5 L 672.214844 299.625 L 673.722656 299.699219 L 676.109375 299.839844 L 677.933594 299.976562 L 679.207031 300.09375 L 680.636719 300.261719 L 681.90625 300.464844 L 682.859375 300.699219 L 683.335938 300.894531 L 672.214844 300.894531 L 671.660156 300.710938 L 671.023438 300.570312 L 669.832031 300.386719 L 668.640625 300.253906 L 666.972656 300.121094 L 665.460938 300.035156 L 663.398438 299.949219 L 661.570312 299.894531 L 659.664062 299.855469 L 657.835938 299.828125 L 654.339844 299.800781 L 650.289062 299.800781 L 648.78125 299.808594 L 645.683594 299.84375 L 644.011719 299.875 L 641.628906 299.941406 L 639.960938 300 L 637.976562 300.089844 L 636.625 300.167969 L 634.957031 300.285156 L 633.765625 300.390625 L 632.414062 300.539062 L 631.621094 300.652344 L 630.90625 300.78125 L 630.269531 300.929688 L 629.792969 301.089844 L 629.476562 301.257812 L 629.316406 301.421875 L 629.316406 302.125 L 629.476562 302.289062 L 629.871094 302.476562 L 630.90625 302.753906 L 632.414062 302.996094 L 634.164062 303.1875 L 635.832031 303.324219 L 636.785156 303.386719 L 638.054688 303.457031 L 640.042969 303.550781 L 642.902344 303.640625 L 644.570312 303.675781 L 647.113281 303.710938 L 649.734375 303.730469 L 653.230469 303.730469 L 656.328125 303.710938 L 658.390625 303.691406 L 660.539062 303.652344 L 663.476562 303.578125 L 665.304688 303.503906 L 666.894531 303.417969 L 668.085938 303.332031 L 668.878906 303.257812 L 670.070312 303.117188 L 671.023438 302.964844 L 671.738281 302.804688 L 672.214844 302.652344 L 683.335938 302.652344 L 682.859375 302.832031 L 682.144531 303.007812 L 681.429688 303.140625 L 680.316406 303.300781 L 679.046875 303.441406 L 677.21875 303.597656 L 675.710938 303.703125 L 673.722656 303.816406 L 671.898438 303.902344 L 669.910156 303.980469 L 666.972656 304.070312 L 665.066406 304.117188 L 663 304.15625 L 660.539062 304.195312 L 657.4375 304.226562 L 654.101562 304.242188 L 651.003906 304.25 L 647.667969 304.238281 L 645.203125 304.222656 L 641.949219 304.179688 L 637.894531 304.097656 L 634.957031 304.011719 L 632.652344 303.925781 L 630.667969 303.835938 L 628.441406 303.710938 L 625.582031 303.511719 L 623.835938 303.359375 L 622.644531 303.230469 L 621.292969 303.054688 L 620.339844 302.894531 L 619.226562 302.640625 L 618.433594 302.320312 L 618.195312 302.070312 Z M 618.195312 301.441406 "/>
<path style=" stroke:none;fill-rule:nonzero;fill:rgb(96.862745%,70.196078%,16.862745%);fill-opacity:1;" d="M 618.195312 312.515625 L 618.273438 312.515625 L 618.273438 312.453125 L 618.59375 312.320312 L 619.386719 312.136719 L 620.417969 311.988281 L 621.53125 311.867188 L 622.246094 311.804688 L 623.4375 311.71875 L 624.472656 311.652344 L 627.09375 311.519531 L 630.429688 311.394531 L 632.257812 311.339844 L 634.320312 311.289062 L 637.261719 311.234375 L 638.613281 311.214844 L 642.742188 311.167969 L 647.429688 311.136719 L 652.59375 311.128906 L 654.976562 311.128906 L 658.234375 311.140625 L 662.683594 311.175781 L 665.222656 311.203125 L 667.210938 311.234375 L 669.277344 311.273438 L 671.816406 311.332031 L 674.203125 311.402344 L 676.109375 311.472656 L 678.015625 311.5625 L 679.601562 311.65625 L 680.953125 311.761719 L 682.144531 311.886719 L 682.859375 311.988281 L 683.335938 312.09375 L 672.292969 312.09375 L 671.660156 311.988281 L 670.945312 311.910156 L 669.753906 311.8125 L 668.5625 311.742188 L 667.371094 311.683594 L 665.144531 311.609375 L 663.238281 311.558594 L 660.855469 311.519531 L 658.550781 311.492188 L 655.929688 311.472656 L 654.339844 311.46875 L 650.128906 311.46875 L 646.316406 311.488281 L 644.09375 311.511719 L 642.503906 311.535156 L 640.28125 311.582031 L 638.929688 311.617188 L 638.132812 311.640625 L 635.75 311.730469 L 634.164062 311.816406 L 633.289062 311.871094 L 632.175781 311.960938 L 631.382812 312.039062 L 630.507812 312.160156 L 630.03125 312.246094 L 629.394531 312.449219 L 629.316406 312.980469 L 629.554688 313.09375 L 630.03125 313.214844 L 630.667969 313.320312 L 631.621094 313.433594 L 632.574219 313.519531 L 634.242188 313.636719 L 635.671875 313.714844 L 636.785156 313.761719 L 638.929688 313.84375 L 639.804688 313.871094 L 641.867188 313.921875 L 644.011719 313.964844 L 646.636719 314 L 648.621094 314.019531 L 651.796875 314.03125 L 655.851562 314.03125 L 660.617188 314.015625 L 663.636719 313.992188 L 665.699219 313.96875 L 667.050781 313.945312 L 668.71875 313.914062 L 669.910156 313.886719 L 671.023438 313.851562 L 672.375 313.800781 L 672.375 313.09375 L 652.753906 313.089844 L 652.753906 312.757812 L 683.257812 312.757812 L 683.335938 313.914062 L 681.667969 313.996094 L 679.601562 314.070312 L 677.617188 314.128906 L 675.550781 314.179688 L 672.613281 314.238281 L 670.230469 314.273438 L 666.574219 314.3125 L 663.238281 314.339844 L 659.742188 314.359375 L 656.644531 314.367188 L 652.992188 314.371094 L 649.734375 314.363281 L 646.238281 314.347656 L 643.457031 314.324219 L 640.914062 314.292969 L 638.375 314.253906 L 635.195312 314.191406 L 633.128906 314.144531 L 630.984375 314.082031 L 628.839844 314.007812 L 626.933594 313.925781 L 625.664062 313.863281 L 624.390625 313.792969 L 623.039062 313.703125 L 621.769531 313.605469 L 620.816406 313.511719 L 619.941406 313.40625 L 619.308594 313.308594 L 618.671875 313.175781 L 618.355469 313.070312 L 618.195312 312.980469 Z M 618.195312 312.515625 "/>
<path style=" stroke:none;fill-rule:nonzero;fill:rgb(83.921569%,15.686275%,22.352941%);fill-opacity:1;" d="M 618.195312 305.429688 L 683.335938 305.429688 L 683.335938 305.910156 L 656.1875 305.917969 L 656.1875 309.949219 L 645.265625 309.949219 L 645.265625 305.921875 L 645.105469 305.910156 L 618.195312 305.910156 Z M 618.195312 305.429688 "/>
<g style="fill:rgb(0%,0%,0%);fill-opacity:1;">
  <use xlink:href="#glyph0-1" x="21.957031" y="318.198242"/>
  <use xlink:href="#glyph0-2" x="27.291016" y="318.198242"/>
  <use xlink:href="#glyph0-1" x="29.958008" y="318.198242"/>
</g>
<g style="fill:rgb(0%,0%,0%);fill-opacity:1;">
  <use xlink:href="#glyph0-1" x="21.957031" y="242.827148"/>
  <use xlink:href="#glyph0-2" x="27.291016" y="242.827148"/>
  <use xlink:href="#glyph0-3" x="29.958008" y="242.827148"/>
</g>
<g style="fill:rgb(0%,0%,0%);fill-opacity:1;">
  <use xlink:href="#glyph0-4" x="21.957031" y="167.456055"/>
  <use xlink:href="#glyph0-2" x="27.291016" y="167.456055"/>
  <use xlink:href="#glyph0-1" x="29.958008" y="167.456055"/>
</g>
<g style="fill:rgb(0%,0%,0%);fill-opacity:1;">
  <use xlink:href="#glyph0-4" x="21.957031" y="92.088867"/>
  <use xlink:href="#glyph0-2" x="27.291016" y="92.088867"/>
  <use xlink:href="#glyph0-3" x="29.958008" y="92.088867"/>
</g>
<g style="fill:rgb(0%,0%,0%);fill-opacity:1;">
  <use xlink:href="#glyph0-5" x="21.957031" y="16.717773"/>
  <use xlink:href="#glyph0-2" x="27.291016" y="16.717773"/>
  <use xlink:href="#glyph0-1" x="29.958008" y="16.717773"/>
</g>
<g style="fill:rgb(0%,0%,0%);fill-opacity:1;">
  <use xlink:href="#glyph0-4" x="99.199219" y="338.19043"/>
</g>
<g style="fill:rgb(0%,0%,0%);fill-opacity:1;">
  <use xlink:href="#glyph0-5" x="167.769531" y="338.19043"/>
</g>
<g style="fill:rgb(0%,0%,0%);fill-opacity:1;">
  <use xlink:href="#glyph0-6" x="236.34375" y="338.19043"/>
</g>
<g style="fill:rgb(0%,0%,0%);fill-opacity:1;">
  <use xlink:href="#glyph0-7" x="304.914062" y="338.19043"/>
</g>
<g style="fill:rgb(0%,0%,0%);fill-opacity:1;">
  <use xlink:href="#glyph0-3" x="373.484375" y="338.19043"/>
</g>
<g style="fill:rgb(0%,0%,0%);fill-opacity:1;">
  <use xlink:href="#glyph0-8" x="442.054688" y="338.19043"/>
</g>
<g style="fill:rgb(0%,0%,0%);fill-opacity:1;">
  <use xlink:href="#glyph0-9" x="510.625" y="338.19043"/>
</g>
<g style="fill:rgb(0%,0%,0%);fill-opacity:1;">
  <use xlink:href="#glyph0-10" x="579.195312" y="338.19043"/>
</g>
<g style="fill:rgb(0%,0%,0%);fill-opacity:1;">
  <use xlink:href="#glyph0-11" x="647.765625" y="338.19043"/>
</g>
<g style="fill:rgb(0%,0%,0%);fill-opacity:1;">
  <use xlink:href="#glyph1-1" x="14.412109" y="178.015625"/>
  <use xlink:href="#glyph1-2" x="14.412109" y="170.011719"/>
  <use xlink:href="#glyph1-3" x="14.412109" y="167.347656"/>
  <use xlink:href="#glyph1-4" x="14.412109" y="164.011719"/>
</g>
</g>
</svg>
