<?xml version="1.0" encoding="UTF-8"?>
<svg xmlns="http://www.w3.org/2000/svg" xmlns:xlink="http://www.w3.org/1999/xlink" width="720pt" height="360pt" viewBox="0 0 720 360" version="1.1">
<defs>
<g>
<symbol overflow="visible" id="glyph0-0">
<path style="stroke:none;" d=""/>
</symbol>
<symbol overflow="visible" id="glyph0-1">
<path style="stroke:none;" d="M 2.640625 -6.796875 C 2 -6.796875 1.421875 -6.53125 1.078125 -6.046875 C 0.640625 -5.453125 0.40625 -4.546875 0.40625 -3.296875 C 0.40625 -1 1.1875 0.21875 2.640625 0.21875 C 4.078125 0.21875 4.859375 -1 4.859375 -3.234375 C 4.859375 -4.5625 4.65625 -5.4375 4.203125 -6.046875 C 3.84375 -6.53125 3.28125 -6.796875 2.640625 -6.796875 Z M 2.640625 -6.046875 C 3.546875 -6.046875 4 -5.125 4 -3.3125 C 4 -1.375 3.5625 -0.484375 2.625 -0.484375 C 1.734375 -0.484375 1.28125 -1.421875 1.28125 -3.28125 C 1.28125 -5.140625 1.734375 -6.046875 2.640625 -6.046875 Z M 2.640625 -6.046875 "/>
</symbol>
<symbol overflow="visible" id="glyph0-2">
<path style="stroke:none;" d="M 1.828125 -1 L 0.828125 -1 L 0.828125 0 L 1.828125 0 Z M 1.828125 -1 "/>
</symbol>
<symbol overflow="visible" id="glyph0-3">
<path style="stroke:none;" d="M 4.5625 -6.796875 L 1.0625 -6.796875 L 0.546875 -3.09375 L 1.328125 -3.09375 C 1.71875 -3.5625 2.046875 -3.734375 2.578125 -3.734375 C 3.484375 -3.734375 4.0625 -3.109375 4.0625 -2.09375 C 4.0625 -1.125 3.484375 -0.53125 2.578125 -0.53125 C 1.828125 -0.53125 1.375 -0.90625 1.1875 -1.671875 L 0.328125 -1.671875 C 0.453125 -1.109375 0.546875 -0.84375 0.75 -0.59375 C 1.125 -0.078125 1.828125 0.21875 2.59375 0.21875 C 3.96875 0.21875 4.921875 -0.78125 4.921875 -2.21875 C 4.921875 -3.5625 4.03125 -4.484375 2.71875 -4.484375 C 2.25 -4.484375 1.859375 -4.359375 1.46875 -4.0625 L 1.734375 -5.96875 L 4.5625 -5.96875 Z M 4.5625 -6.796875 "/>
</symbol>
<symbol overflow="visible" id="glyph0-4">
<path style="stroke:none;" d="M 2.484375 -4.84375 L 2.484375 0 L 3.328125 0 L 3.328125 -6.796875 L 2.765625 -6.796875 C 2.46875 -5.75 2.28125 -5.609375 0.984375 -5.453125 L 0.984375 -4.84375 Z M 2.484375 -4.84375 "/>
</symbol>
<symbol overflow="visible" id="glyph0-5">
<path style="stroke:none;" d="M 4.859375 -0.828125 L 1.28125 -0.828125 C 1.359375 -1.390625 1.671875 -1.75 2.5 -2.234375 L 3.46875 -2.75 C 4.40625 -3.265625 4.90625 -3.96875 4.90625 -4.8125 C 4.90625 -5.375 4.671875 -5.90625 4.265625 -6.265625 C 3.859375 -6.625 3.375 -6.796875 2.71875 -6.796875 C 1.859375 -6.796875 1.21875 -6.5 0.84375 -5.921875 C 0.609375 -5.5625 0.5 -5.125 0.484375 -4.4375 L 1.328125 -4.4375 C 1.359375 -4.90625 1.40625 -5.1875 1.53125 -5.40625 C 1.75 -5.8125 2.1875 -6.0625 2.703125 -6.0625 C 3.46875 -6.0625 4.03125 -5.515625 4.03125 -4.78125 C 4.03125 -4.25 3.71875 -3.796875 3.125 -3.4375 L 2.234375 -2.9375 C 0.8125 -2.140625 0.40625 -1.5 0.328125 0 L 4.859375 0 Z M 4.859375 -0.828125 "/>
</symbol>
<symbol overflow="visible" id="glyph0-6">
<path style="stroke:none;" d="M 2.125 -3.125 L 2.578125 -3.125 C 3.515625 -3.125 3.984375 -2.703125 3.984375 -1.890625 C 3.984375 -1.03125 3.46875 -0.53125 2.578125 -0.53125 C 1.65625 -0.53125 1.203125 -0.984375 1.15625 -1.96875 L 0.3125 -1.96875 C 0.34375 -1.421875 0.4375 -1.078125 0.609375 -0.765625 C 0.953125 -0.109375 1.625 0.21875 2.546875 0.21875 C 3.953125 0.21875 4.859375 -0.609375 4.859375 -1.90625 C 4.859375 -2.765625 4.515625 -3.25 3.703125 -3.515625 C 4.34375 -3.765625 4.65625 -4.25 4.65625 -4.9375 C 4.65625 -6.109375 3.875 -6.796875 2.578125 -6.796875 C 1.203125 -6.796875 0.484375 -6.046875 0.453125 -4.609375 L 1.296875 -4.609375 C 1.3125 -5.015625 1.34375 -5.25 1.453125 -5.453125 C 1.640625 -5.828125 2.0625 -6.0625 2.59375 -6.0625 C 3.34375 -6.0625 3.796875 -5.625 3.796875 -4.90625 C 3.796875 -4.421875 3.609375 -4.140625 3.25 -3.984375 C 3.015625 -3.890625 2.71875 -3.84375 2.125 -3.84375 Z M 2.125 -3.125 "/>
</symbol>
<symbol overflow="visible" id="glyph0-7">
<path style="stroke:none;" d="M 3.140625 -1.625 L 3.140625 0 L 3.984375 0 L 3.984375 -1.625 L 4.984375 -1.625 L 4.984375 -2.390625 L 3.984375 -2.390625 L 3.984375 -6.796875 L 3.359375 -6.796875 L 0.265625 -2.515625 L 0.265625 -1.625 Z M 3.140625 -2.390625 L 1 -2.390625 L 3.140625 -5.359375 Z M 3.140625 -2.390625 "/>
</symbol>
<symbol overflow="visible" id="glyph0-8">
<path style="stroke:none;" d="M 4.78125 -5.03125 C 4.609375 -6.140625 3.890625 -6.796875 2.84375 -6.796875 C 2.09375 -6.796875 1.421875 -6.4375 1.03125 -5.828125 C 0.609375 -5.171875 0.40625 -4.34375 0.40625 -3.09375 C 0.40625 -1.953125 0.578125 -1.234375 0.984375 -0.625 C 1.359375 -0.078125 1.953125 0.21875 2.703125 0.21875 C 3.984375 0.21875 4.921875 -0.734375 4.921875 -2.078125 C 4.921875 -3.34375 4.0625 -4.234375 2.84375 -4.234375 C 2.171875 -4.234375 1.640625 -3.96875 1.28125 -3.46875 C 1.28125 -5.125 1.828125 -6.046875 2.796875 -6.046875 C 3.390625 -6.046875 3.796875 -5.671875 3.9375 -5.03125 Z M 2.734375 -3.484375 C 3.546875 -3.484375 4.0625 -2.921875 4.0625 -2 C 4.0625 -1.15625 3.484375 -0.53125 2.703125 -0.53125 C 1.921875 -0.53125 1.328125 -1.1875 1.328125 -2.046875 C 1.328125 -2.890625 1.90625 -3.484375 2.734375 -3.484375 Z M 2.734375 -3.484375 "/>
</symbol>
<symbol overflow="visible" id="glyph0-9">
<path style="stroke:none;" d="M 4.984375 -6.796875 L 0.4375 -6.796875 L 0.4375 -5.96875 L 4.109375 -5.96875 C 2.5 -3.65625 1.828125 -2.234375 1.328125 0 L 2.21875 0 C 2.59375 -2.171875 3.453125 -4.046875 4.984375 -6.09375 Z M 4.984375 -6.796875 "/>
</symbol>
<symbol overflow="visible" id="glyph0-10">
<path style="stroke:none;" d="M 3.75 -3.578125 C 4.453125 -4 4.6875 -4.34375 4.6875 -4.984375 C 4.6875 -6.046875 3.84375 -6.796875 2.640625 -6.796875 C 1.4375 -6.796875 0.59375 -6.046875 0.59375 -4.984375 C 0.59375 -4.359375 0.828125 -4.015625 1.515625 -3.578125 C 0.734375 -3.203125 0.359375 -2.640625 0.359375 -1.890625 C 0.359375 -0.640625 1.296875 0.21875 2.640625 0.21875 C 3.984375 0.21875 4.921875 -0.640625 4.921875 -1.875 C 4.921875 -2.640625 4.53125 -3.203125 3.75 -3.578125 Z M 2.640625 -6.046875 C 3.359375 -6.046875 3.8125 -5.625 3.8125 -4.96875 C 3.8125 -4.34375 3.34375 -3.921875 2.640625 -3.921875 C 1.921875 -3.921875 1.453125 -4.34375 1.453125 -4.984375 C 1.453125 -5.625 1.921875 -6.046875 2.640625 -6.046875 Z M 2.640625 -3.203125 C 3.484375 -3.203125 4.0625 -2.671875 4.0625 -1.875 C 4.0625 -1.0625 3.484375 -0.53125 2.625 -0.53125 C 1.796875 -0.53125 1.21875 -1.078125 1.21875 -1.875 C 1.21875 -2.671875 1.796875 -3.203125 2.640625 -3.203125 Z M 2.640625 -3.203125 "/>
</symbol>
<symbol overflow="visible" id="glyph1-0">
<path style="stroke:none;" d=""/>
</symbol>
<symbol overflow="visible" id="glyph1-1">
<path style="stroke:none;" d="M 0 -0.953125 L 0 -4.890625 C 0 -5.71875 -0.234375 -6.34375 -0.734375 -6.796875 C -1.1875 -7.234375 -1.8125 -7.46875 -2.5 -7.46875 C -3.546875 -7.46875 -4.1875 -7 -4.625 -5.875 C -4.984375 -6.671875 -5.640625 -7.09375 -6.53125 -7.09375 C -7.15625 -7.09375 -7.734375 -6.859375 -8.140625 -6.390625 C -8.5625 -5.9375 -8.75 -5.34375 -8.75 -4.5 L -8.75 -0.953125 Z M -4.984375 -2.0625 L -7.765625 -2.0625 L -7.765625 -4.21875 C -7.765625 -4.84375 -7.6875 -5.203125 -7.453125 -5.5 C -7.21875 -5.8125 -6.859375 -5.96875 -6.375 -5.96875 C -5.90625 -5.96875 -5.53125 -5.8125 -5.296875 -5.5 C -5.0625 -5.203125 -4.984375 -4.84375 -4.984375 -4.21875 Z M -0.984375 -2.0625 L -4 -2.0625 L -4 -4.78125 C -4 -5.328125 -3.859375 -5.6875 -3.578125 -5.953125 C -3.296875 -6.21875 -2.921875 -6.359375 -2.484375 -6.359375 C -2.0625 -6.359375 -1.6875 -6.21875 -1.40625 -5.953125 C -1.109375 -5.6875 -0.984375 -5.328125 -0.984375 -4.78125 Z M -0.984375 -2.0625 "/>
</symbol>
<symbol overflow="visible" id="glyph1-2">
<path style="stroke:none;" d="M -6.28125 -1.796875 L -6.28125 -0.796875 L 0 -0.796875 L 0 -1.796875 Z M -8.75 -1.796875 L -8.75 -0.796875 L -7.484375 -0.796875 L -7.484375 -1.796875 Z M -8.75 -1.796875 "/>
</symbol>
<symbol overflow="visible" id="glyph1-3">
<path style="stroke:none;" d="M -6.28125 -3.046875 L -6.28125 -2.015625 L -8.015625 -2.015625 L -8.015625 -1.015625 L -6.28125 -1.015625 L -6.28125 -0.171875 L -5.46875 -0.171875 L -5.46875 -1.015625 L -0.71875 -1.015625 C -0.078125 -1.015625 0.28125 -1.453125 0.28125 -2.234375 C 0.28125 -2.46875 0.25 -2.71875 0.1875 -3.046875 L -0.640625 -3.046875 C -0.609375 -2.921875 -0.59375 -2.765625 -0.59375 -2.5625 C -0.59375 -2.140625 -0.71875 -2.015625 -1.15625 -2.015625 L -5.46875 -2.015625 L -5.46875 -3.046875 Z M -6.28125 -3.046875 "/>
</symbol>
<symbol overflow="visible" id="glyph1-4">
<path style="stroke:none;" d="M -4.53125 -5.25 C -5.765625 -5.25 -6.46875 -4.421875 -6.46875 -2.96875 C -6.46875 -1.515625 -5.71875 -0.5625 -4.546875 -0.5625 C -3.5625 -0.5625 -3.09375 -1.0625 -2.734375 -2.5625 L -2.515625 -3.484375 C -2.34375 -4.1875 -2.09375 -4.46875 -1.625 -4.46875 C -1.046875 -4.46875 -0.640625 -3.875 -0.640625 -3 C -0.640625 -2.453125 -0.796875 -2 -1.0625 -1.75 C -1.25 -1.59375 -1.421875 -1.53125 -1.875 -1.46875 L -1.875 -0.40625 C -0.421875 -0.453125 0.28125 -1.265625 0.28125 -2.921875 C 0.28125 -4.5 -0.5 -5.515625 -1.71875 -5.515625 C -2.65625 -5.515625 -3.171875 -4.984375 -3.46875 -3.734375 L -3.703125 -2.765625 C -3.890625 -1.953125 -4.15625 -1.609375 -4.59375 -1.609375 C -5.171875 -1.609375 -5.546875 -2.125 -5.546875 -2.9375 C -5.546875 -3.75 -5.203125 -4.171875 -4.53125 -4.203125 Z M -4.53125 -5.25 "/>
</symbol>
</g>
</defs>
<g id="surface94652">
<rect x="0" y="0" width="720" height="360" style="fill:rgb(100%,100%,100%);fill-opacity:1;stroke:none;"/>
<path style=" stroke:none;fill-rule:nonzero;fill:rgb(6.27451%,58.823529%,28.235294%);fill-opacity:1;" d="M 69.628906 297.054688 L 69.707031 296.859375 L 101.441406 86.945312 L 111.078125 86.945312 L 142.964844 297.253906 L 131.761719 297.253906 L 123.769531 242.355469 L 88.746094 242.355469 L 80.910156 297.054688 L 69.628906 297.054688 L 92.117188 219.648438 L 120.558594 219.449219 L 106.375 121.304688 L 106.21875 121.109375 L 106.0625 121.699219 L 92.039062 219.449219 L 92.117188 219.648438 Z M 69.628906 297.054688 "/>
<path style=" stroke:none;fill-rule:nonzero;fill:rgb(14.509804%,36.078431%,60%);fill-opacity:1;" d="M 69.628906 314.195312 L 69.71875 314.195312 L 69.71875 314.1875 L 69.988281 314.175781 L 71.238281 314.152344 L 72.847656 314.136719 L 75.085938 314.121094 L 77.410156 314.109375 L 79.109375 314.101562 L 80.628906 314.097656 L 84.117188 314.085938 L 86.355469 314.078125 L 88.769531 314.074219 L 91.71875 314.070312 L 93.867188 314.066406 L 98.695312 314.0625 L 102.273438 314.0625 L 105.046875 314.058594 L 111.039062 314.058594 L 114.613281 314.0625 L 117.207031 314.0625 L 120.070312 314.066406 L 122.484375 314.066406 L 126.6875 314.074219 L 130.445312 314.082031 L 132.144531 314.085938 L 134.828125 314.09375 L 136.882812 314.101562 L 138.316406 314.109375 L 139.925781 314.121094 L 141.355469 314.132812 L 142.429688 314.148438 L 142.964844 314.160156 L 130.445312 314.160156 L 129.820312 314.148438 L 129.101562 314.140625 L 127.761719 314.128906 L 126.421875 314.121094 L 124.542969 314.113281 L 122.84375 314.105469 L 120.515625 314.101562 L 118.460938 314.097656 L 116.3125 314.097656 L 114.257812 314.09375 L 100.574219 314.09375 L 98.695312 314.097656 L 96.011719 314.101562 L 94.132812 314.105469 L 91.898438 314.109375 L 90.378906 314.117188 L 88.5 314.121094 L 87.160156 314.128906 L 85.636719 314.136719 L 84.742188 314.144531 L 83.9375 314.152344 L 83.222656 314.164062 L 82.6875 314.171875 L 82.328125 314.183594 L 82.148438 314.195312 L 82.148438 314.238281 L 82.328125 314.246094 L 82.777344 314.261719 L 83.9375 314.277344 L 85.636719 314.292969 L 87.605469 314.304688 L 89.484375 314.3125 L 90.558594 314.316406 L 91.988281 314.320312 L 94.222656 314.328125 L 97.445312 314.332031 L 99.320312 314.335938 L 102.183594 314.335938 L 105.136719 314.339844 L 109.070312 314.339844 L 112.558594 314.335938 L 114.882812 314.335938 L 117.296875 314.332031 L 120.605469 314.328125 L 122.664062 314.324219 L 124.453125 314.320312 L 125.792969 314.3125 L 126.6875 314.308594 L 128.03125 314.300781 L 129.101562 314.289062 L 129.90625 314.28125 L 130.445312 314.269531 L 142.964844 314.269531 L 142.429688 314.28125 L 141.625 314.292969 L 140.820312 314.300781 L 139.566406 314.3125 L 138.136719 314.320312 L 136.078125 314.328125 L 134.378906 314.335938 L 132.144531 314.34375 L 130.085938 314.347656 L 127.851562 314.355469 L 124.542969 314.359375 L 122.394531 314.363281 L 120.070312 314.363281 L 117.296875 314.367188 L 113.808594 314.371094 L 102.808594 314.371094 L 100.035156 314.367188 L 96.371094 314.367188 L 91.808594 314.359375 L 88.5 314.355469 L 85.90625 314.351562 L 83.671875 314.34375 L 81.167969 314.335938 L 77.945312 314.324219 L 75.980469 314.316406 L 74.636719 314.308594 L 73.117188 314.296875 L 72.042969 314.285156 L 70.792969 314.269531 L 69.898438 314.25 L 69.628906 314.234375 Z M 69.628906 314.195312 "/>
<path style=" stroke:none;fill-rule:nonzero;fill:rgb(96.862745%,70.196078%,16.862745%);fill-opacity:1;" d="M 69.628906 303.65625 L 69.71875 303.644531 L 69.71875 303.421875 L 70.078125 302.921875 L 70.972656 302.230469 L 72.132812 301.660156 L 73.386719 301.214844 L 74.191406 300.984375 L 75.53125 300.648438 L 76.695312 300.402344 L 79.644531 299.902344 L 83.402344 299.433594 L 85.460938 299.234375 L 87.785156 299.046875 L 91.09375 298.832031 L 92.613281 298.757812 L 97.265625 298.578125 L 102.542969 298.464844 L 108.355469 298.433594 L 111.039062 298.445312 L 114.703125 298.488281 L 119.710938 298.609375 L 122.574219 298.722656 L 124.808594 298.832031 L 127.136719 298.980469 L 129.996094 299.203125 L 132.679688 299.46875 L 134.828125 299.734375 L 136.972656 300.070312 L 138.761719 300.425781 L 140.28125 300.816406 L 141.625 301.285156 L 142.429688 301.671875 L 142.964844 302.0625 L 130.535156 302.0625 L 129.820312 301.671875 L 129.015625 301.371094 L 127.671875 301.003906 L 126.332031 300.738281 L 124.988281 300.527344 L 122.484375 300.238281 L 120.339844 300.058594 L 117.65625 299.902344 L 115.0625 299.800781 L 112.109375 299.734375 L 110.320312 299.714844 L 105.582031 299.714844 L 101.289062 299.792969 L 98.785156 299.878906 L 96.996094 299.96875 L 94.492188 300.136719 L 92.972656 300.269531 L 92.078125 300.359375 L 89.394531 300.703125 L 87.605469 301.015625 L 86.621094 301.226562 L 85.371094 301.5625 L 84.476562 301.863281 L 83.492188 302.308594 L 82.953125 302.640625 L 82.238281 303.398438 L 82.148438 305.402344 L 82.417969 305.828125 L 82.953125 306.28125 L 83.671875 306.683594 L 84.742188 307.105469 L 85.816406 307.429688 L 87.695312 307.863281 L 89.304688 308.152344 L 90.558594 308.34375 L 92.972656 308.644531 L 93.957031 308.742188 L 96.28125 308.945312 L 98.695312 309.101562 L 101.648438 309.234375 L 103.882812 309.300781 L 107.460938 309.355469 L 112.019531 309.355469 L 117.386719 309.289062 L 120.785156 309.199219 L 123.109375 309.109375 L 124.632812 309.03125 L 126.507812 308.910156 L 127.851562 308.800781 L 129.101562 308.675781 L 130.625 308.488281 L 130.625 305.828125 L 108.535156 305.816406 L 108.535156 304.566406 L 142.875 304.558594 L 142.964844 308.910156 L 141.085938 309.210938 L 138.761719 309.5 L 136.527344 309.722656 L 134.199219 309.914062 L 130.890625 310.125 L 128.207031 310.257812 L 124.09375 310.414062 L 120.339844 310.515625 L 116.402344 310.582031 L 112.914062 310.613281 L 108.800781 310.625 L 105.136719 310.601562 L 101.199219 310.535156 L 98.070312 310.445312 L 95.207031 310.335938 L 92.34375 310.191406 L 88.769531 309.957031 L 86.441406 309.769531 L 84.027344 309.535156 L 81.613281 309.253906 L 79.46875 308.953125 L 78.035156 308.722656 L 76.605469 308.453125 L 75.085938 308.121094 L 73.652344 307.742188 L 72.582031 307.394531 L 71.597656 307.007812 L 70.882812 306.640625 L 70.164062 306.136719 L 69.808594 305.738281 L 69.628906 305.390625 Z M 69.628906 303.65625 "/>
<path style=" stroke:none;fill-rule:nonzero;fill:rgb(83.921569%,15.686275%,22.352941%);fill-opacity:1;" d="M 69.628906 311.804688 L 142.964844 311.804688 L 142.964844 311.917969 L 112.402344 311.921875 L 112.402344 312.878906 L 100.105469 312.878906 L 100.105469 311.921875 L 99.925781 311.917969 L 69.628906 311.917969 Z M 69.628906 311.804688 "/>
<path style=" stroke:none;fill-rule:nonzero;fill:rgb(6.27451%,58.823529%,28.235294%);fill-opacity:1;" d="M 146.824219 310.019531 L 146.902344 310.011719 L 178.636719 301.460938 L 188.273438 301.460938 L 220.160156 310.027344 L 208.957031 310.027344 L 200.964844 307.792969 L 165.941406 307.792969 L 158.109375 310.019531 L 146.824219 310.019531 L 169.3125 306.867188 L 197.753906 306.859375 L 183.570312 302.859375 L 183.414062 302.851562 L 183.257812 302.875 L 169.234375 306.859375 L 169.3125 306.867188 Z M 146.824219 310.019531 "/>
<path style=" stroke:none;fill-rule:nonzero;fill:rgb(14.509804%,36.078431%,60%);fill-opacity:1;" d="M 146.824219 313.824219 L 146.914062 313.820312 L 146.914062 313.800781 L 147.183594 313.765625 L 147.808594 313.722656 L 148.433594 313.695312 L 150.042969 313.644531 L 152.28125 313.59375 L 154.605469 313.554688 L 156.304688 313.53125 L 157.824219 313.511719 L 161.3125 313.480469 L 163.550781 313.460938 L 165.964844 313.449219 L 168.914062 313.433594 L 171.0625 313.421875 L 175.890625 313.410156 L 179.46875 313.402344 L 191.8125 313.402344 L 194.40625 313.410156 L 197.265625 313.414062 L 199.679688 313.421875 L 203.882812 313.441406 L 207.640625 313.46875 L 209.339844 313.480469 L 212.023438 313.507812 L 214.078125 313.535156 L 215.511719 313.558594 L 217.121094 313.59375 L 218.550781 313.632812 L 219.625 313.675781 L 220.160156 313.714844 L 207.640625 313.714844 L 207.015625 313.679688 L 206.300781 313.652344 L 204.957031 313.617188 L 203.617188 313.589844 L 201.738281 313.566406 L 200.039062 313.546875 L 197.714844 313.53125 L 195.65625 313.519531 L 193.511719 313.511719 L 191.453125 313.507812 L 187.519531 313.5 L 182.957031 313.5 L 181.257812 313.503906 L 177.769531 313.511719 L 175.890625 313.515625 L 173.207031 313.527344 L 171.332031 313.539062 L 169.09375 313.558594 L 167.574219 313.574219 L 165.695312 313.597656 L 164.355469 313.617188 L 162.835938 313.644531 L 161.941406 313.667969 L 161.136719 313.691406 L 160.417969 313.722656 L 159.882812 313.753906 L 159.523438 313.785156 L 159.347656 313.816406 L 159.347656 313.957031 L 159.523438 313.988281 L 159.972656 314.023438 L 161.136719 314.078125 L 162.835938 314.125 L 164.800781 314.164062 L 166.679688 314.191406 L 167.753906 314.203125 L 169.183594 314.214844 L 171.417969 314.234375 L 174.640625 314.25 L 176.515625 314.257812 L 179.378906 314.265625 L 182.332031 314.269531 L 186.265625 314.269531 L 189.753906 314.265625 L 192.078125 314.261719 L 194.492188 314.253906 L 197.804688 314.238281 L 199.859375 314.226562 L 201.648438 314.207031 L 202.988281 314.191406 L 203.882812 314.175781 L 205.226562 314.148438 L 206.300781 314.121094 L 207.105469 314.089844 L 207.640625 314.058594 L 220.160156 314.058594 L 219.625 314.09375 L 218.820312 314.128906 L 218.015625 314.15625 L 216.761719 314.183594 L 215.332031 314.210938 L 213.273438 314.242188 L 211.574219 314.265625 L 209.339844 314.285156 L 207.28125 314.304688 L 205.046875 314.316406 L 201.738281 314.335938 L 199.589844 314.34375 L 197.265625 314.351562 L 194.492188 314.359375 L 191.003906 314.367188 L 187.25 314.371094 L 183.761719 314.371094 L 180.003906 314.367188 L 177.234375 314.367188 L 173.566406 314.355469 L 169.003906 314.339844 L 165.695312 314.324219 L 163.101562 314.308594 L 160.867188 314.289062 L 158.363281 314.265625 L 155.144531 314.226562 L 153.175781 314.195312 L 151.832031 314.171875 L 150.3125 314.136719 L 149.238281 314.105469 L 147.988281 314.058594 L 147.09375 313.992188 L 146.824219 313.945312 Z M 146.824219 313.824219 "/>
<path style=" stroke:none;fill-rule:nonzero;fill:rgb(96.862745%,70.196078%,16.862745%);fill-opacity:1;" d="M 146.824219 173.175781 L 146.914062 172.972656 L 146.914062 168.910156 L 147.273438 159.773438 L 148.167969 147.1875 L 149.328125 136.832031 L 150.582031 128.707031 L 151.386719 124.445312 L 152.726562 118.355469 L 153.890625 113.886719 L 156.84375 104.75 L 160.597656 96.222656 L 162.65625 92.566406 L 164.980469 89.117188 L 168.289062 85.257812 L 169.808594 83.835938 L 174.460938 80.585938 L 179.738281 78.558594 L 185.550781 77.949219 L 188.234375 78.152344 L 191.898438 78.964844 L 196.910156 81.195312 L 199.769531 83.226562 L 202.007812 85.257812 L 204.332031 87.898438 L 207.195312 91.957031 L 209.875 96.832031 L 212.023438 101.703125 L 214.167969 107.796875 L 215.957031 114.292969 L 217.476562 121.398438 L 218.820312 129.925781 L 219.625 137.035156 L 220.160156 144.140625 L 207.730469 144.140625 L 207.015625 137.035156 L 206.210938 131.550781 L 204.867188 124.851562 L 203.527344 119.976562 L 202.183594 116.121094 L 199.679688 110.839844 L 197.535156 107.59375 L 194.851562 104.75 L 192.257812 102.921875 L 189.304688 101.703125 L 187.519531 101.296875 L 182.777344 101.296875 L 178.484375 102.71875 L 175.980469 104.34375 L 174.191406 105.96875 L 171.6875 109.011719 L 170.167969 111.449219 L 169.273438 113.074219 L 166.589844 119.367188 L 164.800781 125.054688 L 163.816406 128.910156 L 162.566406 135.003906 L 161.671875 140.484375 L 160.6875 148.605469 L 160.152344 154.699219 L 159.433594 168.503906 L 159.347656 205.054688 L 159.613281 212.769531 L 160.152344 221.09375 L 160.867188 228.402344 L 161.941406 236.121094 L 163.011719 242.007812 L 164.890625 249.925781 L 166.5 255.207031 L 167.753906 258.65625 L 170.167969 264.140625 L 171.152344 265.96875 L 173.476562 269.621094 L 175.890625 272.464844 L 178.84375 274.902344 L 181.078125 276.117188 L 184.65625 277.132812 L 189.21875 277.132812 L 194.582031 275.917969 L 197.980469 274.292969 L 200.308594 272.667969 L 201.828125 271.246094 L 203.707031 269.011719 L 205.046875 266.980469 L 206.300781 264.75 L 207.820312 261.296875 L 207.820312 212.769531 L 185.730469 212.566406 L 185.730469 189.824219 L 220.070312 189.621094 L 220.160156 269.011719 L 218.285156 274.496094 L 215.957031 279.773438 L 213.722656 283.835938 L 211.398438 287.285156 L 208.085938 291.144531 L 205.40625 293.582031 L 201.289062 296.421875 L 197.535156 298.25 L 193.597656 299.46875 L 190.113281 300.078125 L 185.996094 300.28125 L 182.332031 299.875 L 178.394531 298.65625 L 175.265625 297.03125 L 172.402344 295.003906 L 169.542969 292.363281 L 165.964844 288.097656 L 163.640625 284.648438 L 161.222656 280.382812 L 158.808594 275.308594 L 156.664062 269.824219 L 155.230469 265.5625 L 153.800781 260.6875 L 152.28125 254.597656 L 150.851562 247.691406 L 149.777344 241.398438 L 148.792969 234.292969 L 148.078125 227.589844 L 147.363281 218.453125 L 147.003906 211.144531 L 146.824219 204.851562 Z M 146.824219 173.175781 "/>
<path style=" stroke:none;fill-rule:nonzero;fill:rgb(83.921569%,15.686275%,22.352941%);fill-opacity:1;" d="M 146.824219 311.207031 L 220.160156 311.207031 L 220.160156 311.316406 L 189.597656 311.316406 L 189.597656 312.222656 L 177.300781 312.222656 L 177.300781 311.320312 L 177.121094 311.316406 L 146.824219 311.316406 Z M 146.824219 311.207031 "/>
<path style=" stroke:none;fill-rule:nonzero;fill:rgb(96.862745%,70.196078%,16.862745%);fill-opacity:1;" d="M 224.019531 147.679688 L 224.109375 147.414062 L 224.109375 142.113281 L 224.46875 130.179688 L 225.363281 113.742188 L 226.523438 100.222656 L 227.777344 89.617188 L 228.582031 84.050781 L 229.925781 76.09375 L 231.085938 70.261719 L 234.039062 58.332031 L 237.792969 47.195312 L 239.851562 42.425781 L 242.175781 37.917969 L 245.484375 32.878906 L 247.003906 31.023438 L 251.65625 26.78125 L 256.933594 24.128906 L 262.746094 23.335938 L 265.429688 23.601562 L 269.097656 24.660156 L 274.105469 27.578125 L 276.964844 30.226562 L 279.203125 32.878906 L 281.527344 36.328125 L 284.390625 41.628906 L 287.074219 47.992188 L 289.21875 54.355469 L 291.367188 62.308594 L 293.152344 70.792969 L 294.675781 80.070312 L 296.015625 91.207031 L 296.820312 100.488281 L 297.355469 109.765625 L 284.925781 109.765625 L 284.210938 100.488281 L 283.40625 93.328125 L 282.0625 84.578125 L 280.722656 78.214844 L 279.382812 73.179688 L 276.875 66.285156 L 274.730469 62.042969 L 272.046875 58.332031 L 269.453125 55.945312 L 266.503906 54.355469 L 264.714844 53.824219 L 259.972656 53.824219 L 255.679688 55.679688 L 253.175781 57.800781 L 251.386719 59.921875 L 248.882812 63.898438 L 247.363281 67.082031 L 246.46875 69.203125 L 243.785156 77.421875 L 241.996094 84.84375 L 241.015625 89.882812 L 239.761719 97.835938 L 238.867188 104.992188 L 237.882812 115.597656 L 237.347656 123.554688 L 236.632812 141.582031 L 236.542969 189.304688 L 236.808594 199.378906 L 237.347656 210.25 L 238.0625 219.792969 L 239.136719 229.867188 L 240.207031 237.558594 L 242.085938 247.898438 L 243.695312 254.789062 L 244.949219 259.296875 L 247.363281 266.457031 L 248.347656 268.84375 L 250.671875 273.613281 L 253.085938 277.328125 L 256.039062 280.507812 L 258.273438 282.097656 L 261.851562 283.425781 L 266.414062 283.425781 L 271.777344 281.832031 L 275.175781 279.710938 L 277.503906 277.589844 L 279.023438 275.734375 L 280.902344 272.820312 L 282.242188 270.167969 L 283.496094 267.25 L 285.015625 262.746094 L 285.015625 199.378906 L 262.925781 199.113281 L 262.925781 169.421875 L 297.269531 169.15625 L 297.355469 272.820312 L 295.480469 279.976562 L 293.152344 286.871094 L 290.917969 292.171875 L 288.59375 296.679688 L 285.285156 301.71875 L 282.601562 304.898438 L 278.488281 308.613281 L 274.730469 310.996094 L 270.796875 312.589844 L 267.308594 313.382812 L 263.195312 313.648438 L 259.527344 313.117188 L 255.589844 311.527344 L 252.460938 309.40625 L 249.597656 306.753906 L 246.738281 303.308594 L 243.160156 297.742188 L 240.835938 293.234375 L 238.421875 287.667969 L 236.003906 281.039062 L 233.859375 273.878906 L 232.429688 268.3125 L 230.996094 261.949219 L 229.476562 253.996094 L 228.046875 244.980469 L 226.972656 236.761719 L 225.988281 227.484375 L 225.273438 218.734375 L 224.558594 206.804688 L 224.199219 197.257812 L 224.019531 189.039062 Z M 224.019531 147.679688 "/>
<path style=" stroke:none;fill-rule:nonzero;fill:rgb(6.27451%,58.823529%,28.235294%);fill-opacity:1;" d="M 301.21875 314.371094 L 301.296875 314.371094 L 333.027344 314.167969 L 342.664062 314.167969 L 374.554688 314.371094 L 363.347656 314.371094 L 355.355469 314.316406 L 320.335938 314.316406 L 312.5 314.371094 L 301.21875 314.371094 L 323.703125 314.296875 L 352.144531 314.296875 L 337.964844 314.203125 L 337.648438 314.203125 L 323.625 314.296875 L 323.703125 314.296875 Z M 301.21875 314.371094 "/>
<path style=" stroke:none;fill-rule:nonzero;fill:rgb(14.509804%,36.078431%,60%);fill-opacity:1;" d="M 301.21875 311.417969 L 301.304688 311.414062 L 301.304688 311.355469 L 301.574219 311.257812 L 302.199219 311.136719 L 302.828125 311.050781 L 304.4375 310.902344 L 306.671875 310.757812 L 308.996094 310.644531 L 310.695312 310.578125 L 312.21875 310.527344 L 315.707031 310.433594 L 317.941406 310.382812 L 320.355469 310.339844 L 323.308594 310.296875 L 325.453125 310.273438 L 330.285156 310.230469 L 333.859375 310.214844 L 336.632812 310.207031 L 342.625 310.207031 L 346.203125 310.214844 L 348.796875 310.230469 L 351.65625 310.25 L 354.074219 310.273438 L 358.277344 310.328125 L 362.03125 310.398438 L 363.730469 310.441406 L 366.414062 310.519531 L 368.472656 310.597656 L 369.902344 310.660156 L 371.511719 310.757812 L 372.945312 310.871094 L 374.015625 311 L 374.554688 311.109375 L 362.03125 311.109375 L 361.40625 311.007812 L 360.691406 310.929688 L 359.347656 310.824219 L 358.007812 310.75 L 356.128906 310.675781 L 354.429688 310.628906 L 352.105469 310.582031 L 350.046875 310.550781 L 347.902344 310.527344 L 345.84375 310.511719 L 341.910156 310.496094 L 337.347656 310.496094 L 335.648438 310.5 L 332.160156 310.523438 L 330.285156 310.539062 L 327.601562 310.574219 L 325.722656 310.609375 L 323.484375 310.660156 L 321.964844 310.703125 L 320.085938 310.769531 L 318.746094 310.828125 L 317.226562 310.910156 L 316.332031 310.976562 L 315.527344 311.046875 L 314.8125 311.128906 L 314.273438 311.21875 L 313.917969 311.3125 L 313.738281 311.40625 L 313.738281 311.800781 L 313.917969 311.890625 L 314.363281 311.996094 L 315.527344 312.152344 L 317.226562 312.289062 L 319.195312 312.394531 L 321.070312 312.46875 L 322.144531 312.507812 L 323.574219 312.546875 L 325.8125 312.597656 L 329.03125 312.648438 L 330.910156 312.667969 L 333.769531 312.6875 L 336.722656 312.699219 L 340.65625 312.699219 L 344.144531 312.6875 L 346.472656 312.675781 L 348.886719 312.65625 L 352.195312 312.613281 L 354.25 312.570312 L 356.039062 312.523438 L 357.382812 312.476562 L 358.277344 312.433594 L 359.617188 312.355469 L 360.691406 312.269531 L 361.496094 312.179688 L 362.03125 312.09375 L 374.554688 312.09375 L 374.015625 312.195312 L 373.210938 312.296875 L 372.40625 312.367188 L 371.15625 312.457031 L 369.722656 312.535156 L 367.667969 312.625 L 365.96875 312.683594 L 363.730469 312.746094 L 361.675781 312.796875 L 359.4375 312.839844 L 356.128906 312.890625 L 353.984375 312.914062 L 351.65625 312.9375 L 348.886719 312.957031 L 345.398438 312.976562 L 341.640625 312.988281 L 338.152344 312.988281 L 334.398438 312.984375 L 331.625 312.972656 L 327.957031 312.953125 L 323.398438 312.90625 L 320.085938 312.855469 L 317.496094 312.808594 L 315.257812 312.757812 L 312.753906 312.6875 L 309.535156 312.578125 L 307.566406 312.492188 L 306.226562 312.417969 L 304.707031 312.320312 L 303.632812 312.230469 L 302.378906 312.089844 L 301.484375 311.910156 L 301.21875 311.769531 Z M 301.21875 311.417969 "/>
<path style=" stroke:none;fill-rule:nonzero;fill:rgb(96.862745%,70.196078%,16.862745%);fill-opacity:1;" d="M 301.21875 306.53125 L 301.304688 306.527344 L 301.304688 306.445312 L 301.664062 306.265625 L 302.558594 306.019531 L 303.722656 305.816406 L 304.972656 305.65625 L 305.777344 305.574219 L 307.121094 305.453125 L 308.28125 305.363281 L 311.234375 305.1875 L 314.988281 305.019531 L 317.046875 304.945312 L 319.371094 304.878906 L 322.679688 304.800781 L 324.203125 304.773438 L 328.851562 304.710938 L 334.128906 304.671875 L 339.941406 304.660156 L 342.625 304.664062 L 346.292969 304.679688 L 351.300781 304.722656 L 354.164062 304.761719 L 356.398438 304.800781 L 358.722656 304.855469 L 361.585938 304.933594 L 364.269531 305.03125 L 366.414062 305.125 L 368.5625 305.246094 L 370.351562 305.375 L 371.871094 305.511719 L 373.210938 305.679688 L 374.015625 305.820312 L 374.554688 305.960938 L 362.121094 305.960938 L 361.40625 305.820312 L 360.601562 305.710938 L 359.261719 305.582031 L 357.917969 305.484375 L 356.578125 305.410156 L 354.074219 305.304688 L 351.925781 305.242188 L 349.242188 305.1875 L 346.648438 305.148438 L 343.699219 305.125 L 341.910156 305.117188 L 337.167969 305.117188 L 332.875 305.144531 L 330.371094 305.175781 L 328.585938 305.210938 L 326.078125 305.269531 L 324.558594 305.316406 L 323.664062 305.347656 L 320.980469 305.472656 L 319.195312 305.585938 L 318.210938 305.660156 L 316.957031 305.78125 L 316.0625 305.886719 L 315.078125 306.046875 L 314.542969 306.167969 L 313.828125 306.4375 L 313.738281 307.15625 L 314.007812 307.308594 L 314.542969 307.472656 L 315.257812 307.613281 L 316.332031 307.765625 L 317.40625 307.882812 L 319.28125 308.039062 L 320.894531 308.140625 L 322.144531 308.210938 L 324.558594 308.316406 L 325.542969 308.351562 L 327.867188 308.425781 L 330.285156 308.480469 L 333.234375 308.527344 L 335.46875 308.550781 L 339.046875 308.570312 L 343.609375 308.570312 L 348.976562 308.546875 L 352.375 308.515625 L 354.699219 308.484375 L 356.21875 308.457031 L 358.097656 308.414062 L 359.4375 308.371094 L 360.691406 308.328125 L 362.210938 308.261719 L 362.210938 307.308594 L 340.121094 307.304688 L 340.121094 306.855469 L 374.464844 306.851562 L 374.554688 308.414062 L 372.675781 308.519531 L 370.351562 308.625 L 368.113281 308.703125 L 365.789062 308.773438 L 362.480469 308.847656 L 359.796875 308.894531 L 355.683594 308.953125 L 351.925781 308.988281 L 347.992188 309.011719 L 344.503906 309.023438 L 340.390625 309.027344 L 336.722656 309.019531 L 332.789062 308.996094 L 329.65625 308.964844 L 326.796875 308.921875 L 323.933594 308.871094 L 320.355469 308.789062 L 318.03125 308.71875 L 315.617188 308.636719 L 313.203125 308.535156 L 311.054688 308.429688 L 309.625 308.34375 L 308.191406 308.25 L 306.671875 308.128906 L 305.242188 307.992188 L 304.167969 307.871094 L 303.183594 307.730469 L 302.46875 307.597656 L 301.753906 307.417969 L 301.394531 307.277344 L 301.21875 307.152344 Z M 301.21875 306.53125 "/>
<path style=" stroke:none;fill-rule:nonzero;fill:rgb(83.921569%,15.686275%,22.352941%);fill-opacity:1;" d="M 301.21875 66.863281 L 374.554688 66.863281 L 374.554688 92.191406 L 343.988281 92.414062 L 343.988281 303.480469 L 331.691406 303.480469 L 331.691406 92.636719 L 331.515625 92.191406 L 301.21875 92.191406 Z M 301.21875 66.863281 "/>
<path style=" stroke:none;fill-rule:nonzero;fill:rgb(96.862745%,70.196078%,16.862745%);fill-opacity:1;" d="M 378.414062 146.363281 L 378.503906 146.097656 L 378.503906 140.738281 L 378.859375 128.675781 L 379.753906 112.058594 L 380.917969 98.390625 L 382.167969 87.667969 L 382.972656 82.039062 L 384.316406 74 L 385.476562 68.101562 L 388.429688 56.042969 L 392.1875 44.785156 L 394.242188 39.960938 L 396.566406 35.402344 L 399.878906 30.3125 L 401.398438 28.4375 L 406.046875 24.148438 L 411.324219 21.46875 L 417.136719 20.664062 L 419.820312 20.929688 L 423.488281 22.003906 L 428.496094 24.953125 L 431.359375 27.632812 L 433.59375 30.3125 L 435.917969 33.796875 L 438.78125 39.15625 L 441.464844 45.589844 L 443.609375 52.019531 L 445.757812 60.0625 L 447.546875 68.640625 L 449.066406 78.019531 L 450.40625 89.277344 L 451.210938 98.65625 L 451.75 108.039062 L 439.316406 108.039062 L 438.601562 98.65625 L 437.796875 91.421875 L 436.457031 82.574219 L 435.113281 76.144531 L 433.773438 71.050781 L 431.269531 64.082031 L 429.121094 59.792969 L 426.4375 56.042969 L 423.847656 53.628906 L 420.894531 52.019531 L 419.105469 51.484375 L 414.367188 51.484375 L 410.074219 53.363281 L 407.570312 55.503906 L 405.78125 57.648438 L 403.277344 61.671875 L 401.753906 64.886719 L 400.859375 67.03125 L 398.179688 75.339844 L 396.390625 82.84375 L 395.40625 87.9375 L 394.152344 95.976562 L 393.257812 103.214844 L 392.277344 113.933594 L 391.738281 121.976562 L 391.023438 140.199219 L 390.933594 188.445312 L 391.203125 198.628906 L 391.738281 209.617188 L 392.453125 219.265625 L 393.527344 229.453125 L 394.601562 237.222656 L 396.480469 247.675781 L 398.089844 254.644531 L 399.339844 259.203125 L 401.753906 266.4375 L 402.738281 268.851562 L 405.066406 273.675781 L 407.480469 277.425781 L 410.429688 280.644531 L 412.667969 282.25 L 416.242188 283.589844 L 420.804688 283.589844 L 426.171875 281.984375 L 429.570312 279.839844 L 431.894531 277.695312 L 433.414062 275.820312 L 435.292969 272.871094 L 436.636719 270.191406 L 437.886719 267.242188 L 439.40625 262.6875 L 439.40625 198.628906 L 417.316406 198.359375 L 417.316406 168.34375 L 451.660156 168.074219 L 451.75 272.871094 L 449.871094 280.109375 L 447.546875 287.074219 L 445.308594 292.4375 L 442.984375 296.992188 L 439.675781 302.085938 L 436.992188 305.300781 L 432.878906 309.054688 L 429.121094 311.464844 L 425.1875 313.074219 L 421.699219 313.878906 L 417.585938 314.144531 L 413.917969 313.609375 L 409.984375 312.003906 L 406.851562 309.859375 L 403.992188 307.175781 L 401.128906 303.695312 L 397.550781 298.066406 L 395.226562 293.507812 L 392.8125 287.878906 L 390.398438 281.179688 L 388.25 273.941406 L 386.820312 268.316406 L 385.390625 261.882812 L 383.867188 253.839844 L 382.4375 244.730469 L 381.363281 236.421875 L 380.378906 227.039062 L 379.664062 218.195312 L 378.949219 206.132812 L 378.59375 196.484375 L 378.414062 188.175781 Z M 378.414062 146.363281 "/>
<path style=" stroke:none;fill-rule:nonzero;fill:rgb(6.27451%,58.823529%,28.235294%);fill-opacity:1;" d="M 455.609375 314.371094 L 455.6875 314.367188 L 487.417969 312.84375 L 497.054688 312.84375 L 528.945312 314.371094 L 517.742188 314.371094 L 509.75 313.972656 L 474.726562 313.972656 L 466.890625 314.371094 L 455.609375 314.371094 L 478.09375 313.808594 L 506.535156 313.804688 L 492.355469 313.09375 L 492.199219 313.09375 L 492.042969 313.097656 L 478.015625 313.804688 L 478.09375 313.808594 Z M 455.609375 314.371094 "/>
<path style=" stroke:none;fill-rule:nonzero;fill:rgb(14.509804%,36.078431%,60%);fill-opacity:1;" d="M 455.609375 301.324219 L 455.699219 301.320312 L 455.699219 301.160156 L 455.964844 300.910156 L 456.59375 300.59375 L 457.21875 300.375 L 458.828125 299.984375 L 461.066406 299.609375 L 463.390625 299.316406 L 465.089844 299.144531 L 466.609375 299.015625 L 470.097656 298.769531 L 472.332031 298.644531 L 474.746094 298.53125 L 477.699219 298.421875 L 479.847656 298.355469 L 484.675781 298.25 L 488.253906 298.203125 L 491.023438 298.183594 L 497.015625 298.183594 L 500.59375 298.207031 L 503.1875 298.242188 L 506.050781 298.292969 L 508.464844 298.355469 L 512.667969 298.5 L 516.425781 298.683594 L 518.125 298.789062 L 520.804688 298.996094 L 522.863281 299.191406 L 524.292969 299.363281 L 525.90625 299.609375 L 527.335938 299.90625 L 528.410156 300.242188 L 528.945312 300.527344 L 516.425781 300.527344 L 515.796875 300.261719 L 515.082031 300.058594 L 513.742188 299.785156 L 512.398438 299.59375 L 510.523438 299.402344 L 508.824219 299.277344 L 506.496094 299.152344 L 504.441406 299.074219 L 502.292969 299.015625 L 500.238281 298.976562 L 496.300781 298.933594 L 491.742188 298.933594 L 490.042969 298.949219 L 486.554688 299 L 484.675781 299.046875 L 481.992188 299.140625 L 480.113281 299.226562 L 477.878906 299.359375 L 476.359375 299.46875 L 474.480469 299.640625 L 473.136719 299.792969 L 471.617188 300.011719 L 470.722656 300.175781 L 469.917969 300.363281 L 469.203125 300.578125 L 468.667969 300.808594 L 468.308594 301.054688 L 468.128906 301.292969 L 468.128906 302.316406 L 468.308594 302.554688 L 468.757812 302.832031 L 469.917969 303.234375 L 471.617188 303.585938 L 473.585938 303.863281 L 475.464844 304.058594 L 476.535156 304.152344 L 477.96875 304.257812 L 480.203125 304.390625 L 483.421875 304.523438 L 485.300781 304.574219 L 488.164062 304.628906 L 491.113281 304.652344 L 495.050781 304.652344 L 498.539062 304.628906 L 500.863281 304.59375 L 503.277344 304.542969 L 506.585938 304.429688 L 508.644531 304.324219 L 510.433594 304.199219 L 511.773438 304.074219 L 512.667969 303.96875 L 514.007812 303.761719 L 515.082031 303.539062 L 515.886719 303.308594 L 516.425781 303.082031 L 528.945312 303.082031 L 528.410156 303.347656 L 527.605469 303.605469 L 526.796875 303.796875 L 525.546875 304.027344 L 524.117188 304.230469 L 522.058594 304.460938 L 520.359375 304.613281 L 518.125 304.777344 L 516.066406 304.90625 L 513.832031 305.015625 L 510.523438 305.148438 L 508.375 305.214844 L 506.050781 305.273438 L 503.277344 305.328125 L 499.789062 305.375 L 496.035156 305.398438 L 492.546875 305.40625 L 488.789062 305.394531 L 486.015625 305.367188 L 482.351562 305.308594 L 477.789062 305.1875 L 474.480469 305.0625 L 471.886719 304.9375 L 469.648438 304.804688 L 467.144531 304.628906 L 463.925781 304.335938 L 461.957031 304.113281 L 460.617188 303.925781 L 459.097656 303.667969 L 458.023438 303.4375 L 456.773438 303.070312 L 455.878906 302.601562 L 455.609375 302.238281 Z M 455.609375 301.324219 "/>
<path style=" stroke:none;fill-rule:nonzero;fill:rgb(96.862745%,70.196078%,16.862745%);fill-opacity:1;" d="M 455.609375 308.761719 L 455.699219 308.757812 L 455.699219 308.664062 L 456.054688 308.457031 L 456.949219 308.167969 L 458.113281 307.929688 L 459.367188 307.746094 L 460.171875 307.648438 L 461.511719 307.507812 L 462.675781 307.40625 L 465.625 307.199219 L 469.382812 307.003906 L 471.4375 306.921875 L 473.765625 306.839844 L 477.074219 306.753906 L 478.59375 306.71875 L 483.246094 306.644531 L 488.519531 306.601562 L 494.335938 306.585938 L 497.015625 306.589844 L 500.683594 306.609375 L 505.691406 306.660156 L 508.554688 306.707031 L 510.789062 306.753906 L 513.117188 306.8125 L 515.976562 306.90625 L 518.660156 307.015625 L 520.804688 307.128906 L 522.953125 307.269531 L 524.742188 307.417969 L 526.261719 307.578125 L 527.605469 307.773438 L 528.410156 307.9375 L 528.945312 308.097656 L 516.515625 308.097656 L 515.796875 307.9375 L 514.992188 307.8125 L 513.652344 307.65625 L 512.308594 307.546875 L 510.96875 307.457031 L 508.464844 307.335938 L 506.316406 307.261719 L 503.636719 307.199219 L 501.042969 307.15625 L 498.089844 307.128906 L 496.300781 307.121094 L 491.5625 307.121094 L 487.269531 307.152344 L 484.765625 307.1875 L 482.976562 307.226562 L 480.472656 307.296875 L 478.953125 307.351562 L 478.058594 307.390625 L 475.375 307.53125 L 473.585938 307.664062 L 472.601562 307.75 L 471.347656 307.890625 L 470.457031 308.015625 L 469.472656 308.199219 L 468.933594 308.339844 L 468.21875 308.65625 L 468.128906 309.488281 L 468.398438 309.667969 L 468.933594 309.855469 L 469.648438 310.023438 L 470.722656 310.199219 L 471.796875 310.335938 L 473.675781 310.515625 L 475.285156 310.636719 L 476.535156 310.714844 L 478.953125 310.839844 L 479.933594 310.882812 L 482.261719 310.964844 L 484.675781 311.03125 L 487.625 311.085938 L 489.863281 311.113281 L 493.441406 311.136719 L 498 311.136719 L 503.367188 311.109375 L 506.765625 311.070312 L 509.089844 311.035156 L 510.609375 311.003906 L 512.488281 310.953125 L 513.832031 310.90625 L 515.082031 310.855469 L 516.601562 310.773438 L 516.601562 309.667969 L 494.511719 309.660156 L 494.511719 309.140625 L 528.855469 309.136719 L 528.945312 310.953125 L 527.066406 311.078125 L 524.742188 311.199219 L 522.507812 311.289062 L 520.179688 311.367188 L 516.871094 311.457031 L 514.1875 311.511719 L 510.074219 311.578125 L 506.316406 311.621094 L 502.382812 311.648438 L 498.894531 311.660156 L 494.78125 311.664062 L 491.113281 311.65625 L 487.179688 311.628906 L 484.050781 311.589844 L 481.1875 311.546875 L 478.324219 311.484375 L 474.746094 311.386719 L 472.421875 311.308594 L 470.007812 311.210938 L 467.59375 311.09375 L 465.445312 310.96875 L 464.015625 310.871094 L 462.585938 310.761719 L 461.066406 310.621094 L 459.632812 310.464844 L 458.558594 310.320312 L 457.578125 310.160156 L 456.859375 310.003906 L 456.144531 309.796875 L 455.789062 309.628906 L 455.609375 309.484375 Z M 455.609375 308.761719 "/>
<path style=" stroke:none;fill-rule:nonzero;fill:rgb(83.921569%,15.686275%,22.352941%);fill-opacity:1;" d="M 455.609375 95.292969 L 528.945312 95.292969 L 528.945312 116.882812 L 498.382812 117.074219 L 498.382812 297.003906 L 486.085938 297.003906 L 486.085938 117.261719 L 485.90625 116.882812 L 455.609375 116.882812 Z M 455.609375 95.292969 "/>
<path style=" stroke:none;fill-rule:nonzero;fill:rgb(14.509804%,36.078431%,60%);fill-opacity:1;" d="M 532.804688 310.042969 L 532.894531 310.035156 L 532.894531 309.894531 L 533.164062 309.675781 L 533.789062 309.394531 L 534.414062 309.203125 L 536.023438 308.859375 L 538.261719 308.527344 L 540.585938 308.269531 L 542.285156 308.121094 L 543.804688 308.003906 L 547.292969 307.789062 L 549.527344 307.675781 L 551.945312 307.578125 L 554.894531 307.480469 L 557.042969 307.421875 L 561.871094 307.328125 L 565.449219 307.289062 L 568.222656 307.269531 L 574.214844 307.269531 L 577.789062 307.292969 L 580.382812 307.324219 L 583.246094 307.367188 L 585.660156 307.421875 L 589.863281 307.550781 L 593.621094 307.710938 L 595.320312 307.804688 L 598.003906 307.984375 L 600.058594 308.160156 L 601.492188 308.3125 L 603.101562 308.527344 L 604.53125 308.789062 L 605.605469 309.085938 L 606.140625 309.335938 L 593.621094 309.335938 L 592.996094 309.105469 L 592.277344 308.921875 L 590.9375 308.683594 L 589.597656 308.515625 L 587.71875 308.347656 L 586.019531 308.238281 L 583.691406 308.125 L 581.636719 308.054688 L 579.488281 308.003906 L 577.433594 307.96875 L 573.496094 307.933594 L 568.9375 307.933594 L 567.238281 307.945312 L 563.75 307.992188 L 561.871094 308.03125 L 559.1875 308.113281 L 557.308594 308.191406 L 555.074219 308.304688 L 553.554688 308.40625 L 551.675781 308.554688 L 550.335938 308.691406 L 548.8125 308.882812 L 547.917969 309.027344 L 547.113281 309.191406 L 546.398438 309.382812 L 545.863281 309.585938 L 545.503906 309.800781 L 545.324219 310.011719 L 545.324219 310.914062 L 545.503906 311.125 L 545.953125 311.367188 L 547.113281 311.722656 L 548.8125 312.03125 L 550.78125 312.277344 L 552.660156 312.453125 L 553.734375 312.53125 L 555.164062 312.625 L 557.398438 312.742188 L 560.617188 312.859375 L 562.496094 312.90625 L 565.359375 312.953125 L 568.308594 312.976562 L 572.246094 312.976562 L 575.734375 312.953125 L 578.058594 312.921875 L 580.472656 312.875 L 583.78125 312.777344 L 585.839844 312.683594 L 587.628906 312.574219 L 588.96875 312.464844 L 589.863281 312.371094 L 591.207031 312.1875 L 592.277344 311.992188 L 593.082031 311.789062 L 593.621094 311.589844 L 606.140625 311.589844 L 605.605469 311.824219 L 604.800781 312.050781 L 603.996094 312.21875 L 602.742188 312.421875 L 601.3125 312.601562 L 599.253906 312.804688 L 597.554688 312.941406 L 595.320312 313.085938 L 593.261719 313.195312 L 591.027344 313.296875 L 587.71875 313.410156 L 585.570312 313.46875 L 583.246094 313.523438 L 580.472656 313.570312 L 576.984375 313.609375 L 573.230469 313.632812 L 569.742188 313.640625 L 565.984375 313.628906 L 563.210938 313.605469 L 559.546875 313.550781 L 554.984375 313.445312 L 551.675781 313.335938 L 549.082031 313.226562 L 546.847656 313.109375 L 544.34375 312.953125 L 541.121094 312.695312 L 539.15625 312.496094 L 537.8125 312.335938 L 536.292969 312.109375 L 535.21875 311.902344 L 533.96875 311.578125 L 533.074219 311.164062 L 532.804688 310.84375 Z M 532.804688 310.042969 "/>
<path style=" stroke:none;fill-rule:nonzero;fill:rgb(96.862745%,70.196078%,16.862745%);fill-opacity:1;" d="M 532.804688 191.359375 L 532.894531 191.199219 L 532.894531 188.03125 L 533.253906 180.90625 L 534.144531 171.085938 L 535.308594 163.007812 L 536.5625 156.671875 L 537.367188 153.34375 L 538.707031 148.59375 L 539.871094 145.109375 L 542.820312 137.980469 L 546.578125 131.328125 L 548.636719 128.476562 L 550.960938 125.785156 L 554.269531 122.773438 L 555.789062 121.667969 L 560.441406 119.132812 L 565.714844 117.546875 L 571.53125 117.074219 L 574.214844 117.230469 L 577.878906 117.863281 L 582.886719 119.605469 L 585.75 121.191406 L 587.984375 122.773438 L 590.3125 124.835938 L 593.171875 128 L 595.855469 131.804688 L 598.003906 135.605469 L 600.148438 140.355469 L 601.9375 145.425781 L 603.457031 150.96875 L 604.800781 157.621094 L 605.605469 163.164062 L 606.140625 168.707031 L 593.710938 168.707031 L 592.996094 163.164062 L 592.1875 158.886719 L 590.847656 153.660156 L 589.507812 149.859375 L 588.164062 146.851562 L 585.660156 142.730469 L 583.515625 140.199219 L 580.832031 137.980469 L 578.238281 136.554688 L 575.285156 135.605469 L 573.496094 135.289062 L 568.757812 135.289062 L 564.464844 136.398438 L 561.960938 137.664062 L 560.171875 138.929688 L 557.667969 141.308594 L 556.148438 143.207031 L 555.253906 144.472656 L 552.570312 149.382812 L 550.78125 153.820312 L 549.796875 156.828125 L 548.546875 161.582031 L 547.652344 165.855469 L 546.667969 172.191406 L 546.128906 176.945312 L 545.414062 187.714844 L 545.324219 216.226562 L 545.59375 222.246094 L 546.128906 228.738281 L 546.847656 234.441406 L 547.917969 240.460938 L 548.992188 245.050781 L 550.871094 251.230469 L 552.480469 255.347656 L 553.734375 258.039062 L 556.148438 262.316406 L 557.132812 263.742188 L 559.457031 266.59375 L 561.871094 268.8125 L 564.824219 270.710938 L 567.058594 271.664062 L 570.636719 272.453125 L 575.195312 272.453125 L 580.5625 271.503906 L 583.960938 270.238281 L 586.285156 268.96875 L 587.808594 267.859375 L 589.683594 266.117188 L 591.027344 264.535156 L 592.277344 262.792969 L 593.800781 260.101562 L 593.800781 222.246094 L 571.707031 222.085938 L 571.707031 204.347656 L 606.050781 204.1875 L 606.140625 266.117188 L 604.261719 270.394531 L 601.9375 274.511719 L 599.703125 277.679688 L 597.375 280.375 L 594.066406 283.382812 L 591.382812 285.285156 L 587.269531 287.5 L 583.515625 288.925781 L 579.578125 289.878906 L 576.089844 290.351562 L 571.976562 290.511719 L 568.308594 290.195312 L 564.375 289.242188 L 561.246094 287.976562 L 558.382812 286.394531 L 555.519531 284.332031 L 551.945312 281.007812 L 549.617188 278.316406 L 547.203125 274.988281 L 544.789062 271.027344 L 542.644531 266.753906 L 541.210938 263.425781 L 539.78125 259.625 L 538.261719 254.871094 L 536.828125 249.488281 L 535.757812 244.578125 L 534.773438 239.035156 L 534.058594 233.808594 L 533.339844 226.679688 L 532.984375 220.976562 L 532.804688 216.066406 Z M 532.804688 191.359375 "/>
<path style=" stroke:none;fill-rule:nonzero;fill:rgb(83.921569%,15.686275%,22.352941%);fill-opacity:1;" d="M 532.804688 291.691406 L 606.140625 291.691406 L 606.140625 293.230469 L 575.578125 293.246094 L 575.578125 306.089844 L 563.28125 306.089844 L 563.28125 293.257812 L 563.101562 293.230469 L 532.804688 293.230469 Z M 532.804688 291.691406 "/>
<path style=" stroke:none;fill-rule:nonzero;fill:rgb(6.27451%,58.823529%,28.235294%);fill-opacity:1;" d="M 610 303.371094 L 610.078125 303.148438 L 641.8125 65.492188 L 651.449219 65.492188 L 683.335938 303.59375 L 672.132812 303.59375 L 664.140625 241.441406 L 629.117188 241.441406 L 621.285156 303.371094 L 610 303.371094 L 632.488281 215.730469 L 660.929688 215.507812 L 646.746094 104.394531 L 646.589844 104.171875 L 646.433594 104.839844 L 632.410156 215.507812 L 632.488281 215.730469 Z M 610 303.371094 "/>
<path style=" stroke:none;fill-rule:nonzero;fill:rgb(14.509804%,36.078431%,60%);fill-opacity:1;" d="M 610 314.125 L 610.089844 314.121094 L 610.089844 314.113281 L 610.359375 314.097656 L 610.984375 314.078125 L 611.609375 314.066406 L 613.21875 314.042969 L 615.457031 314.019531 L 617.78125 314 L 619.480469 313.992188 L 621 313.984375 L 624.488281 313.96875 L 626.726562 313.960938 L 629.140625 313.953125 L 632.089844 313.945312 L 634.238281 313.941406 L 639.066406 313.9375 L 642.644531 313.933594 L 654.988281 313.933594 L 657.578125 313.9375 L 660.441406 313.9375 L 662.855469 313.941406 L 667.058594 313.953125 L 670.816406 313.964844 L 672.515625 313.96875 L 675.199219 313.980469 L 677.253906 313.992188 L 678.6875 314.003906 L 680.296875 314.019531 L 681.726562 314.035156 L 682.800781 314.058594 L 683.335938 314.074219 L 670.816406 314.074219 L 670.191406 314.058594 L 669.476562 314.046875 L 668.132812 314.03125 L 666.792969 314.019531 L 664.914062 314.007812 L 663.214844 314 L 660.890625 313.992188 L 658.832031 313.988281 L 656.6875 313.984375 L 654.628906 313.980469 L 650.695312 313.976562 L 646.132812 313.976562 L 644.433594 313.980469 L 640.945312 313.980469 L 639.066406 313.984375 L 636.382812 313.992188 L 634.507812 313.996094 L 632.269531 314.003906 L 630.75 314.011719 L 628.871094 314.019531 L 627.53125 314.03125 L 626.007812 314.042969 L 625.117188 314.054688 L 624.308594 314.066406 L 623.59375 314.078125 L 623.058594 314.09375 L 622.699219 314.105469 L 622.523438 314.121094 L 622.523438 314.183594 L 622.699219 314.199219 L 623.148438 314.214844 L 624.308594 314.238281 L 626.007812 314.261719 L 627.976562 314.277344 L 629.855469 314.289062 L 630.929688 314.292969 L 632.359375 314.300781 L 634.59375 314.308594 L 637.816406 314.316406 L 639.691406 314.320312 L 642.554688 314.324219 L 652.929688 314.324219 L 655.253906 314.320312 L 657.667969 314.316406 L 660.976562 314.3125 L 663.035156 314.304688 L 664.824219 314.296875 L 666.164062 314.289062 L 667.058594 314.285156 L 668.402344 314.269531 L 669.476562 314.257812 L 670.28125 314.242188 L 670.816406 314.230469 L 683.335938 314.230469 L 682.800781 314.246094 L 681.996094 314.261719 L 681.191406 314.273438 L 679.9375 314.285156 L 678.507812 314.300781 L 676.449219 314.3125 L 674.75 314.324219 L 672.515625 314.332031 L 670.457031 314.339844 L 668.222656 314.347656 L 664.914062 314.355469 L 662.765625 314.359375 L 660.441406 314.363281 L 657.667969 314.367188 L 654.179688 314.367188 L 650.425781 314.371094 L 643.179688 314.371094 L 640.410156 314.367188 L 636.742188 314.363281 L 632.179688 314.359375 L 628.871094 314.351562 L 626.277344 314.34375 L 624.042969 314.335938 L 621.539062 314.324219 L 618.316406 314.304688 L 616.351562 314.292969 L 615.007812 314.28125 L 613.488281 314.265625 L 612.414062 314.25 L 611.164062 314.230469 L 610.269531 314.199219 L 610 314.179688 Z M 610 314.125 "/>
<path style=" stroke:none;fill-rule:nonzero;fill:rgb(96.862745%,70.196078%,16.862745%);fill-opacity:1;" d="M 610 307.253906 L 610.089844 307.25 L 610.089844 307.144531 L 610.449219 306.90625 L 611.34375 306.578125 L 612.503906 306.308594 L 613.757812 306.097656 L 614.5625 305.984375 L 615.902344 305.824219 L 617.066406 305.710938 L 620.015625 305.472656 L 623.773438 305.25 L 625.832031 305.152344 L 628.15625 305.0625 L 631.464844 304.964844 L 632.984375 304.925781 L 637.636719 304.84375 L 642.914062 304.789062 L 648.726562 304.773438 L 651.410156 304.777344 L 655.074219 304.800781 L 660.085938 304.859375 L 662.945312 304.910156 L 665.183594 304.964844 L 667.507812 305.03125 L 670.367188 305.136719 L 673.050781 305.265625 L 675.199219 305.390625 L 677.34375 305.550781 L 679.132812 305.71875 L 680.652344 305.90625 L 681.996094 306.128906 L 682.800781 306.3125 L 683.335938 306.496094 L 670.90625 306.496094 L 670.191406 306.3125 L 669.386719 306.167969 L 668.042969 305.996094 L 666.703125 305.867188 L 665.359375 305.769531 L 662.855469 305.628906 L 660.710938 305.546875 L 658.027344 305.472656 L 655.433594 305.425781 L 652.480469 305.390625 L 650.695312 305.382812 L 645.953125 305.382812 L 641.660156 305.417969 L 639.15625 305.460938 L 637.367188 305.503906 L 634.863281 305.582031 L 633.34375 305.644531 L 632.449219 305.6875 L 629.765625 305.851562 L 627.976562 306 L 626.992188 306.101562 L 625.742188 306.257812 L 624.847656 306.402344 L 623.863281 306.613281 L 623.328125 306.773438 L 622.609375 307.132812 L 622.523438 308.085938 L 622.789062 308.285156 L 623.328125 308.503906 L 624.042969 308.691406 L 625.117188 308.894531 L 626.1875 309.046875 L 628.066406 309.253906 L 629.675781 309.390625 L 630.929688 309.480469 L 633.34375 309.625 L 634.328125 309.671875 L 636.652344 309.765625 L 639.066406 309.839844 L 642.019531 309.90625 L 644.253906 309.9375 L 647.832031 309.960938 L 652.394531 309.960938 L 657.757812 309.929688 L 661.15625 309.886719 L 663.484375 309.847656 L 665.003906 309.808594 L 666.882812 309.75 L 668.222656 309.699219 L 669.476562 309.640625 L 670.996094 309.550781 L 670.996094 308.285156 L 648.90625 308.28125 L 648.90625 307.6875 L 683.246094 307.683594 L 683.335938 309.75 L 681.457031 309.894531 L 679.132812 310.03125 L 676.898438 310.136719 L 674.574219 310.226562 L 671.261719 310.328125 L 668.582031 310.390625 L 664.464844 310.464844 L 660.710938 310.511719 L 656.773438 310.542969 L 653.285156 310.558594 L 649.171875 310.566406 L 645.507812 310.554688 L 641.570312 310.523438 L 638.441406 310.480469 L 635.578125 310.429688 L 632.71875 310.359375 L 629.140625 310.25 L 626.816406 310.160156 L 624.398438 310.046875 L 621.984375 309.914062 L 619.839844 309.773438 L 618.40625 309.660156 L 616.976562 309.535156 L 615.457031 309.375 L 614.027344 309.195312 L 612.953125 309.03125 L 611.96875 308.847656 L 611.253906 308.671875 L 610.539062 308.433594 L 610.179688 308.242188 L 610 308.078125 Z M 610 307.253906 "/>
<path style=" stroke:none;fill-rule:nonzero;fill:rgb(83.921569%,15.686275%,22.352941%);fill-opacity:1;" d="M 610 311.746094 L 683.335938 311.746094 L 683.335938 311.851562 L 652.773438 311.855469 L 652.773438 312.753906 L 640.476562 312.753906 L 640.476562 311.855469 L 640.296875 311.851562 L 610 311.851562 Z M 610 311.746094 "/>
<g style="fill:rgb(0%,0%,0%);fill-opacity:1;">
  <use xlink:href="#glyph0-1" x="21.957031" y="318.198242"/>
  <use xlink:href="#glyph0-2" x="27.291016" y="318.198242"/>
  <use xlink:href="#glyph0-1" x="29.958008" y="318.198242"/>
</g>
<g style="fill:rgb(0%,0%,0%);fill-opacity:1;">
  <use xlink:href="#glyph0-1" x="21.957031" y="244.143555"/>
  <use xlink:href="#glyph0-2" x="27.291016" y="244.143555"/>
  <use xlink:href="#glyph0-3" x="29.958008" y="244.143555"/>
</g>
<g style="fill:rgb(0%,0%,0%);fill-opacity:1;">
  <use xlink:href="#glyph0-4" x="21.957031" y="170.088867"/>
  <use xlink:href="#glyph0-2" x="27.291016" y="170.088867"/>
  <use xlink:href="#glyph0-1" x="29.958008" y="170.088867"/>
</g>
<g style="fill:rgb(0%,0%,0%);fill-opacity:1;">
  <use xlink:href="#glyph0-4" x="21.957031" y="96.03418"/>
  <use xlink:href="#glyph0-2" x="27.291016" y="96.03418"/>
  <use xlink:href="#glyph0-3" x="29.958008" y="96.03418"/>
</g>
<g style="fill:rgb(0%,0%,0%);fill-opacity:1;">
  <use xlink:href="#glyph0-5" x="21.957031" y="21.979492"/>
  <use xlink:href="#glyph0-2" x="27.291016" y="21.979492"/>
  <use xlink:href="#glyph0-1" x="29.958008" y="21.979492"/>
</g>
<g style="fill:rgb(0%,0%,0%);fill-opacity:1;">
  <use xlink:href="#glyph0-4" x="103.296875" y="338.19043"/>
</g>
<g style="fill:rgb(0%,0%,0%);fill-opacity:1;">
  <use xlink:href="#glyph0-5" x="180.492188" y="338.19043"/>
</g>
<g style="fill:rgb(0%,0%,0%);fill-opacity:1;">
  <use xlink:href="#glyph0-6" x="257.6875" y="338.19043"/>
</g>
<g style="fill:rgb(0%,0%,0%);fill-opacity:1;">
  <use xlink:href="#glyph0-7" x="334.886719" y="338.19043"/>
</g>
<g style="fill:rgb(0%,0%,0%);fill-opacity:1;">
  <use xlink:href="#glyph0-3" x="412.082031" y="338.19043"/>
</g>
<g style="fill:rgb(0%,0%,0%);fill-opacity:1;">
  <use xlink:href="#glyph0-8" x="489.277344" y="338.19043"/>
</g>
<g style="fill:rgb(0%,0%,0%);fill-opacity:1;">
  <use xlink:href="#glyph0-9" x="566.472656" y="338.19043"/>
</g>
<g style="fill:rgb(0%,0%,0%);fill-opacity:1;">
  <use xlink:href="#glyph0-10" x="643.667969" y="338.19043"/>
</g>
<g style="fill:rgb(0%,0%,0%);fill-opacity:1;">
  <use xlink:href="#glyph1-1" x="14.412109" y="178.015625"/>
  <use xlink:href="#glyph1-2" x="14.412109" y="170.011719"/>
  <use xlink:href="#glyph1-3" x="14.412109" y="167.347656"/>
  <use xlink:href="#glyph1-4" x="14.412109" y="164.011719"/>
</g>
</g>
</svg>
