<?xml version="1.0" encoding="UTF-8"?>
<svg xmlns="http://www.w3.org/2000/svg" xmlns:xlink="http://www.w3.org/1999/xlink" width="720pt" height="360pt" viewBox="0 0 720 360" version="1.1">
<defs>
<g>
<symbol overflow="visible" id="glyph0-0">
<path style="stroke:none;" d=""/>
</symbol>
<symbol overflow="visible" id="glyph0-1">
<path style="stroke:none;" d="M 2.640625 -6.796875 C 2 -6.796875 1.421875 -6.53125 1.078125 -6.046875 C 0.640625 -5.453125 0.40625 -4.546875 0.40625 -3.296875 C 0.40625 -1 1.1875 0.21875 2.640625 0.21875 C 4.078125 0.21875 4.859375 -1 4.859375 -3.234375 C 4.859375 -4.5625 4.65625 -5.4375 4.203125 -6.046875 C 3.84375 -6.53125 3.28125 -6.796875 2.640625 -6.796875 Z M 2.640625 -6.046875 C 3.546875 -6.046875 4 -5.125 4 -3.3125 C 4 -1.375 3.5625 -0.484375 2.625 -0.484375 C 1.734375 -0.484375 1.28125 -1.421875 1.28125 -3.28125 C 1.28125 -5.140625 1.734375 -6.046875 2.640625 -6.046875 Z M 2.640625 -6.046875 "/>
</symbol>
<symbol overflow="visible" id="glyph0-2">
<path style="stroke:none;" d="M 1.828125 -1 L 0.828125 -1 L 0.828125 0 L 1.828125 0 Z M 1.828125 -1 "/>
</symbol>
<symbol overflow="visible" id="glyph0-3">
<path style="stroke:none;" d="M 4.5625 -6.796875 L 1.0625 -6.796875 L 0.546875 -3.09375 L 1.328125 -3.09375 C 1.71875 -3.5625 2.046875 -3.734375 2.578125 -3.734375 C 3.484375 -3.734375 4.0625 -3.109375 4.0625 -2.09375 C 4.0625 -1.125 3.484375 -0.53125 2.578125 -0.53125 C 1.828125 -0.53125 1.375 -0.90625 1.1875 -1.671875 L 0.328125 -1.671875 C 0.453125 -1.109375 0.546875 -0.84375 0.75 -0.59375 C 1.125 -0.078125 1.828125 0.21875 2.59375 0.21875 C 3.96875 0.21875 4.921875 -0.78125 4.921875 -2.21875 C 4.921875 -3.5625 4.03125 -4.484375 2.71875 -4.484375 C 2.25 -4.484375 1.859375 -4.359375 1.46875 -4.0625 L 1.734375 -5.96875 L 4.5625 -5.96875 Z M 4.5625 -6.796875 "/>
</symbol>
<symbol overflow="visible" id="glyph0-4">
<path style="stroke:none;" d="M 2.484375 -4.84375 L 2.484375 0 L 3.328125 0 L 3.328125 -6.796875 L 2.765625 -6.796875 C 2.46875 -5.75 2.28125 -5.609375 0.984375 -5.453125 L 0.984375 -4.84375 Z M 2.484375 -4.84375 "/>
</symbol>
<symbol overflow="visible" id="glyph0-5">
<path style="stroke:none;" d="M 4.859375 -0.828125 L 1.28125 -0.828125 C 1.359375 -1.390625 1.671875 -1.75 2.5 -2.234375 L 3.46875 -2.75 C 4.40625 -3.265625 4.90625 -3.96875 4.90625 -4.8125 C 4.90625 -5.375 4.671875 -5.90625 4.265625 -6.265625 C 3.859375 -6.625 3.375 -6.796875 2.71875 -6.796875 C 1.859375 -6.796875 1.21875 -6.5 0.84375 -5.921875 C 0.609375 -5.5625 0.5 -5.125 0.484375 -4.4375 L 1.328125 -4.4375 C 1.359375 -4.90625 1.40625 -5.1875 1.53125 -5.40625 C 1.75 -5.8125 2.1875 -6.0625 2.703125 -6.0625 C 3.46875 -6.0625 4.03125 -5.515625 4.03125 -4.78125 C 4.03125 -4.25 3.71875 -3.796875 3.125 -3.4375 L 2.234375 -2.9375 C 0.8125 -2.140625 0.40625 -1.5 0.328125 0 L 4.859375 0 Z M 4.859375 -0.828125 "/>
</symbol>
<symbol overflow="visible" id="glyph0-6">
<path style="stroke:none;" d="M 2.125 -3.125 L 2.578125 -3.125 C 3.515625 -3.125 3.984375 -2.703125 3.984375 -1.890625 C 3.984375 -1.03125 3.46875 -0.53125 2.578125 -0.53125 C 1.65625 -0.53125 1.203125 -0.984375 1.15625 -1.96875 L 0.3125 -1.96875 C 0.34375 -1.421875 0.4375 -1.078125 0.609375 -0.765625 C 0.953125 -0.109375 1.625 0.21875 2.546875 0.21875 C 3.953125 0.21875 4.859375 -0.609375 4.859375 -1.90625 C 4.859375 -2.765625 4.515625 -3.25 3.703125 -3.515625 C 4.34375 -3.765625 4.65625 -4.25 4.65625 -4.9375 C 4.65625 -6.109375 3.875 -6.796875 2.578125 -6.796875 C 1.203125 -6.796875 0.484375 -6.046875 0.453125 -4.609375 L 1.296875 -4.609375 C 1.3125 -5.015625 1.34375 -5.25 1.453125 -5.453125 C 1.640625 -5.828125 2.0625 -6.0625 2.59375 -6.0625 C 3.34375 -6.0625 3.796875 -5.625 3.796875 -4.90625 C 3.796875 -4.421875 3.609375 -4.140625 3.25 -3.984375 C 3.015625 -3.890625 2.71875 -3.84375 2.125 -3.84375 Z M 2.125 -3.125 "/>
</symbol>
<symbol overflow="visible" id="glyph0-7">
<path style="stroke:none;" d="M 3.140625 -1.625 L 3.140625 0 L 3.984375 0 L 3.984375 -1.625 L 4.984375 -1.625 L 4.984375 -2.390625 L 3.984375 -2.390625 L 3.984375 -6.796875 L 3.359375 -6.796875 L 0.265625 -2.515625 L 0.265625 -1.625 Z M 3.140625 -2.390625 L 1 -2.390625 L 3.140625 -5.359375 Z M 3.140625 -2.390625 "/>
</symbol>
<symbol overflow="visible" id="glyph0-8">
<path style="stroke:none;" d="M 4.78125 -5.03125 C 4.609375 -6.140625 3.890625 -6.796875 2.84375 -6.796875 C 2.09375 -6.796875 1.421875 -6.4375 1.03125 -5.828125 C 0.609375 -5.171875 0.40625 -4.34375 0.40625 -3.09375 C 0.40625 -1.953125 0.578125 -1.234375 0.984375 -0.625 C 1.359375 -0.078125 1.953125 0.21875 2.703125 0.21875 C 3.984375 0.21875 4.921875 -0.734375 4.921875 -2.078125 C 4.921875 -3.34375 4.0625 -4.234375 2.84375 -4.234375 C 2.171875 -4.234375 1.640625 -3.96875 1.28125 -3.46875 C 1.28125 -5.125 1.828125 -6.046875 2.796875 -6.046875 C 3.390625 -6.046875 3.796875 -5.671875 3.9375 -5.03125 Z M 2.734375 -3.484375 C 3.546875 -3.484375 4.0625 -2.921875 4.0625 -2 C 4.0625 -1.15625 3.484375 -0.53125 2.703125 -0.53125 C 1.921875 -0.53125 1.328125 -1.1875 1.328125 -2.046875 C 1.328125 -2.890625 1.90625 -3.484375 2.734375 -3.484375 Z M 2.734375 -3.484375 "/>
</symbol>
<symbol overflow="visible" id="glyph0-9">
<path style="stroke:none;" d="M 4.984375 -6.796875 L 0.4375 -6.796875 L 0.4375 -5.96875 L 4.109375 -5.96875 C 2.5 -3.65625 1.828125 -2.234375 1.328125 0 L 2.21875 0 C 2.59375 -2.171875 3.453125 -4.046875 4.984375 -6.09375 Z M 4.984375 -6.796875 "/>
</symbol>
<symbol overflow="visible" id="glyph0-10">
<path style="stroke:none;" d="M 3.75 -3.578125 C 4.453125 -4 4.6875 -4.34375 4.6875 -4.984375 C 4.6875 -6.046875 3.84375 -6.796875 2.640625 -6.796875 C 1.4375 -6.796875 0.59375 -6.046875 0.59375 -4.984375 C 0.59375 -4.359375 0.828125 -4.015625 1.515625 -3.578125 C 0.734375 -3.203125 0.359375 -2.640625 0.359375 -1.890625 C 0.359375 -0.640625 1.296875 0.21875 2.640625 0.21875 C 3.984375 0.21875 4.921875 -0.640625 4.921875 -1.875 C 4.921875 -2.640625 4.53125 -3.203125 3.75 -3.578125 Z M 2.640625 -6.046875 C 3.359375 -6.046875 3.8125 -5.625 3.8125 -4.96875 C 3.8125 -4.34375 3.34375 -3.921875 2.640625 -3.921875 C 1.921875 -3.921875 1.453125 -4.34375 1.453125 -4.984375 C 1.453125 -5.625 1.921875 -6.046875 2.640625 -6.046875 Z M 2.640625 -3.203125 C 3.484375 -3.203125 4.0625 -2.671875 4.0625 -1.875 C 4.0625 -1.0625 3.484375 -0.53125 2.625 -0.53125 C 1.796875 -0.53125 1.21875 -1.078125 1.21875 -1.875 C 1.21875 -2.671875 1.796875 -3.203125 2.640625 -3.203125 Z M 2.640625 -3.203125 "/>
</symbol>
<symbol overflow="visible" id="glyph0-11">
<path style="stroke:none;" d="M 0.515625 -1.546875 C 0.671875 -0.4375 1.40625 0.21875 2.4375 0.21875 C 3.1875 0.21875 3.859375 -0.140625 4.265625 -0.75 C 4.6875 -1.40625 4.890625 -2.25 4.890625 -3.484375 C 4.890625 -4.625 4.703125 -5.359375 4.3125 -5.953125 C 3.9375 -6.5 3.34375 -6.796875 2.59375 -6.796875 C 1.296875 -6.796875 0.359375 -5.84375 0.359375 -4.515625 C 0.359375 -3.25 1.234375 -2.34375 2.453125 -2.34375 C 3.09375 -2.34375 3.5625 -2.578125 4.015625 -3.109375 C 4 -1.453125 3.46875 -0.53125 2.5 -0.53125 C 1.90625 -0.53125 1.484375 -0.90625 1.359375 -1.546875 Z M 2.578125 -6.0625 C 3.375 -6.0625 3.96875 -5.40625 3.96875 -4.53125 C 3.96875 -3.6875 3.375 -3.09375 2.546875 -3.09375 C 1.734375 -3.09375 1.234375 -3.671875 1.234375 -4.578125 C 1.234375 -5.4375 1.796875 -6.0625 2.578125 -6.0625 Z M 2.578125 -6.0625 "/>
</symbol>
<symbol overflow="visible" id="glyph1-0">
<path style="stroke:none;" d=""/>
</symbol>
<symbol overflow="visible" id="glyph1-1">
<path style="stroke:none;" d="M 0 -0.953125 L 0 -4.890625 C 0 -5.71875 -0.234375 -6.34375 -0.734375 -6.796875 C -1.1875 -7.234375 -1.8125 -7.46875 -2.5 -7.46875 C -3.546875 -7.46875 -4.1875 -7 -4.625 -5.875 C -4.984375 -6.671875 -5.640625 -7.09375 -6.53125 -7.09375 C -7.15625 -7.09375 -7.734375 -6.859375 -8.140625 -6.390625 C -8.5625 -5.9375 -8.75 -5.34375 -8.75 -4.5 L -8.75 -0.953125 Z M -4.984375 -2.0625 L -7.765625 -2.0625 L -7.765625 -4.21875 C -7.765625 -4.84375 -7.6875 -5.203125 -7.453125 -5.5 C -7.21875 -5.8125 -6.859375 -5.96875 -6.375 -5.96875 C -5.90625 -5.96875 -5.53125 -5.8125 -5.296875 -5.5 C -5.0625 -5.203125 -4.984375 -4.84375 -4.984375 -4.21875 Z M -0.984375 -2.0625 L -4 -2.0625 L -4 -4.78125 C -4 -5.328125 -3.859375 -5.6875 -3.578125 -5.953125 C -3.296875 -6.21875 -2.921875 -6.359375 -2.484375 -6.359375 C -2.0625 -6.359375 -1.6875 -6.21875 -1.40625 -5.953125 C -1.109375 -5.6875 -0.984375 -5.328125 -0.984375 -4.78125 Z M -0.984375 -2.0625 "/>
</symbol>
<symbol overflow="visible" id="glyph1-2">
<path style="stroke:none;" d="M -6.28125 -1.796875 L -6.28125 -0.796875 L 0 -0.796875 L 0 -1.796875 Z M -8.75 -1.796875 L -8.75 -0.796875 L -7.484375 -0.796875 L -7.484375 -1.796875 Z M -8.75 -1.796875 "/>
</symbol>
<symbol overflow="visible" id="glyph1-3">
<path style="stroke:none;" d="M -6.28125 -3.046875 L -6.28125 -2.015625 L -8.015625 -2.015625 L -8.015625 -1.015625 L -6.28125 -1.015625 L -6.28125 -0.171875 L -5.46875 -0.171875 L -5.46875 -1.015625 L -0.71875 -1.015625 C -0.078125 -1.015625 0.28125 -1.453125 0.28125 -2.234375 C 0.28125 -2.46875 0.25 -2.71875 0.1875 -3.046875 L -0.640625 -3.046875 C -0.609375 -2.921875 -0.59375 -2.765625 -0.59375 -2.5625 C -0.59375 -2.140625 -0.71875 -2.015625 -1.15625 -2.015625 L -5.46875 -2.015625 L -5.46875 -3.046875 Z M -6.28125 -3.046875 "/>
</symbol>
<symbol overflow="visible" id="glyph1-4">
<path style="stroke:none;" d="M -4.53125 -5.25 C -5.765625 -5.25 -6.46875 -4.421875 -6.46875 -2.96875 C -6.46875 -1.515625 -5.71875 -0.5625 -4.546875 -0.5625 C -3.5625 -0.5625 -3.09375 -1.0625 -2.734375 -2.5625 L -2.515625 -3.484375 C -2.34375 -4.1875 -2.09375 -4.46875 -1.625 -4.46875 C -1.046875 -4.46875 -0.640625 -3.875 -0.640625 -3 C -0.640625 -2.453125 -0.796875 -2 -1.0625 -1.75 C -1.25 -1.59375 -1.421875 -1.53125 -1.875 -1.46875 L -1.875 -0.40625 C -0.421875 -0.453125 0.28125 -1.265625 0.28125 -2.921875 C 0.28125 -4.5 -0.5 -5.515625 -1.71875 -5.515625 C -2.65625 -5.515625 -3.171875 -4.984375 -3.46875 -3.734375 L -3.703125 -2.765625 C -3.890625 -1.953125 -4.15625 -1.609375 -4.59375 -1.609375 C -5.171875 -1.609375 -5.546875 -2.125 -5.546875 -2.9375 C -5.546875 -3.75 -5.203125 -4.171875 -4.53125 -4.203125 Z M -4.53125 -5.25 "/>
</symbol>
</g>
</defs>
<g id="surface96352">
<rect x="0" y="0" width="720" height="360" style="fill:rgb(100%,100%,100%);fill-opacity:1;stroke:none;"/>
<path style=" stroke:none;fill-rule:nonzero;fill:rgb(6.27451%,58.823529%,28.235294%);fill-opacity:1;" d="M 69.628906 304.617188 L 69.691406 304.605469 L 95.046875 292.792969 L 102.746094 292.792969 L 128.222656 304.628906 L 119.273438 304.628906 L 112.886719 301.539062 L 84.902344 301.539062 L 78.644531 304.617188 L 69.628906 304.617188 L 87.597656 300.261719 L 110.320312 300.25 L 98.988281 294.726562 L 98.863281 294.714844 L 98.738281 294.75 L 87.535156 300.25 L 87.597656 300.261719 Z M 69.628906 304.617188 "/>
<path style=" stroke:none;fill-rule:nonzero;fill:rgb(14.509804%,36.078431%,60%);fill-opacity:1;" d="M 69.628906 312.347656 L 69.699219 312.34375 L 69.699219 312.265625 L 69.914062 312.140625 L 70.414062 311.984375 L 70.914062 311.875 L 72.203125 311.683594 L 73.988281 311.496094 L 75.847656 311.351562 L 77.203125 311.265625 L 78.417969 311.203125 L 81.207031 311.082031 L 82.992188 311.019531 L 84.921875 310.960938 L 87.28125 310.90625 L 88.996094 310.875 L 92.851562 310.820312 L 95.710938 310.796875 L 97.925781 310.789062 L 102.714844 310.789062 L 105.574219 310.800781 L 107.644531 310.816406 L 109.929688 310.84375 L 111.859375 310.875 L 115.21875 310.945312 L 118.21875 311.039062 L 119.578125 311.089844 L 121.722656 311.191406 L 123.367188 311.289062 L 124.507812 311.375 L 125.796875 311.496094 L 126.9375 311.644531 L 127.796875 311.808594 L 128.222656 311.949219 L 118.21875 311.949219 L 117.71875 311.820312 L 117.148438 311.71875 L 116.078125 311.585938 L 115.003906 311.488281 L 113.503906 311.394531 L 112.148438 311.332031 L 110.289062 311.269531 L 108.644531 311.230469 L 106.929688 311.203125 L 105.285156 311.183594 L 102.140625 311.160156 L 98.5 311.160156 L 97.140625 311.167969 L 94.355469 311.195312 L 92.851562 311.21875 L 90.710938 311.261719 L 89.207031 311.304688 L 87.421875 311.371094 L 86.207031 311.425781 L 84.707031 311.511719 L 83.636719 311.585938 L 82.421875 311.695312 L 81.707031 311.777344 L 81.0625 311.871094 L 80.492188 311.976562 L 80.0625 312.09375 L 79.777344 312.214844 L 79.632812 312.332031 L 79.632812 312.839844 L 79.777344 312.957031 L 80.132812 313.09375 L 81.0625 313.292969 L 82.421875 313.46875 L 83.992188 313.605469 L 85.492188 313.703125 L 86.351562 313.75 L 87.492188 313.800781 L 89.28125 313.867188 L 91.851562 313.933594 L 93.351562 313.957031 L 95.640625 313.984375 L 97.996094 313.996094 L 101.140625 313.996094 L 103.929688 313.984375 L 105.785156 313.96875 L 107.714844 313.941406 L 110.359375 313.886719 L 112.003906 313.832031 L 113.433594 313.773438 L 114.503906 313.710938 L 115.21875 313.65625 L 116.292969 313.554688 L 117.148438 313.445312 L 117.792969 313.328125 L 118.21875 313.21875 L 128.222656 313.21875 L 127.796875 313.347656 L 127.152344 313.476562 L 126.507812 313.570312 L 125.507812 313.6875 L 124.367188 313.789062 L 122.722656 313.902344 L 121.363281 313.976562 L 119.578125 314.058594 L 117.933594 314.121094 L 116.148438 314.175781 L 113.503906 314.242188 L 111.789062 314.277344 L 109.929688 314.304688 L 107.714844 314.332031 L 104.929688 314.355469 L 101.929688 314.367188 L 99.140625 314.371094 L 96.140625 314.363281 L 93.925781 314.351562 L 90.996094 314.320312 L 87.351562 314.261719 L 84.707031 314.199219 L 82.632812 314.136719 L 80.847656 314.074219 L 78.847656 313.984375 L 76.273438 313.839844 L 74.703125 313.730469 L 73.632812 313.636719 L 72.417969 313.507812 L 71.558594 313.394531 L 70.558594 313.210938 L 69.84375 312.980469 L 69.628906 312.800781 Z M 69.628906 312.347656 "/>
<path style=" stroke:none;fill-rule:nonzero;fill:rgb(96.862745%,70.196078%,16.862745%);fill-opacity:1;" d="M 69.628906 278.355469 L 69.699219 278.335938 L 69.699219 277.910156 L 69.988281 276.960938 L 70.703125 275.644531 L 71.628906 274.566406 L 72.628906 273.71875 L 73.273438 273.273438 L 74.34375 272.640625 L 75.273438 272.171875 L 77.632812 271.21875 L 80.632812 270.332031 L 82.277344 269.949219 L 84.136719 269.589844 L 86.777344 269.1875 L 87.992188 269.039062 L 91.710938 268.699219 L 95.925781 268.488281 L 100.570312 268.425781 L 102.714844 268.445312 L 105.644531 268.53125 L 109.644531 268.765625 L 111.933594 268.976562 L 113.71875 269.1875 L 115.578125 269.460938 L 117.863281 269.886719 L 120.007812 270.394531 L 121.722656 270.902344 L 123.4375 271.539062 L 124.867188 272.214844 L 126.082031 272.957031 L 127.152344 273.847656 L 127.796875 274.585938 L 128.222656 275.328125 L 118.292969 275.328125 L 117.71875 274.585938 L 117.078125 274.015625 L 116.003906 273.316406 L 114.933594 272.808594 L 113.863281 272.40625 L 111.859375 271.855469 L 110.144531 271.515625 L 108.003906 271.21875 L 105.929688 271.03125 L 103.570312 270.902344 L 102.140625 270.859375 L 98.355469 270.859375 L 94.925781 271.007812 L 92.925781 271.179688 L 91.496094 271.347656 L 89.496094 271.664062 L 88.28125 271.917969 L 87.566406 272.089844 L 85.421875 272.746094 L 83.992188 273.339844 L 83.207031 273.742188 L 82.207031 274.375 L 81.492188 274.949219 L 80.707031 275.792969 L 80.277344 276.429688 L 79.703125 277.871094 L 79.632812 281.679688 L 79.847656 282.484375 L 80.277344 283.355469 L 80.847656 284.117188 L 81.707031 284.921875 L 82.5625 285.535156 L 84.0625 286.363281 L 85.351562 286.910156 L 86.351562 287.273438 L 88.28125 287.84375 L 89.066406 288.035156 L 90.921875 288.414062 L 92.851562 288.710938 L 95.210938 288.964844 L 96.996094 289.09375 L 99.855469 289.199219 L 103.5 289.199219 L 107.789062 289.070312 L 110.503906 288.902344 L 112.359375 288.734375 L 113.574219 288.585938 L 115.078125 288.351562 L 116.148438 288.140625 L 117.148438 287.90625 L 118.363281 287.546875 L 118.363281 282.484375 L 100.714844 282.464844 L 100.714844 280.09375 L 128.152344 280.070312 L 128.222656 288.351562 L 126.722656 288.921875 L 124.867188 289.472656 L 123.078125 289.898438 L 121.222656 290.257812 L 118.578125 290.660156 L 116.433594 290.914062 L 113.148438 291.210938 L 110.144531 291.402344 L 107 291.527344 L 104.214844 291.59375 L 100.929688 291.613281 L 97.996094 291.570312 L 94.855469 291.445312 L 92.351562 291.273438 L 90.066406 291.0625 L 87.78125 290.789062 L 84.921875 290.34375 L 83.0625 289.984375 L 81.132812 289.539062 L 79.203125 289.007812 L 77.488281 288.4375 L 76.347656 287.992188 L 75.203125 287.484375 L 73.988281 286.847656 L 72.84375 286.128906 L 71.988281 285.472656 L 71.203125 284.730469 L 70.628906 284.03125 L 70.058594 283.078125 L 69.773438 282.316406 L 69.628906 281.660156 Z M 69.628906 278.355469 "/>
<path style=" stroke:none;fill-rule:nonzero;fill:rgb(83.921569%,15.686275%,22.352941%);fill-opacity:1;" d="M 69.628906 305.808594 L 128.222656 305.808594 L 128.222656 306.214844 L 103.804688 306.21875 L 103.804688 309.609375 L 93.980469 309.609375 L 93.980469 306.222656 L 93.835938 306.214844 L 69.628906 306.214844 Z M 69.628906 305.808594 "/>
<path style=" stroke:none;fill-rule:nonzero;fill:rgb(6.27451%,58.823529%,28.235294%);fill-opacity:1;" d="M 131.308594 314.367188 L 131.371094 314.363281 L 156.726562 310.488281 L 164.425781 310.488281 L 189.902344 314.371094 L 180.953125 314.371094 L 174.566406 313.355469 L 146.582031 313.355469 L 140.324219 314.367188 L 131.308594 314.367188 L 149.273438 312.9375 L 172 312.933594 L 160.667969 311.121094 L 160.542969 311.117188 L 160.417969 311.128906 L 149.210938 312.933594 L 149.273438 312.9375 Z M 131.308594 314.367188 "/>
<path style=" stroke:none;fill-rule:nonzero;fill:rgb(14.509804%,36.078431%,60%);fill-opacity:1;" d="M 131.308594 305.984375 L 131.378906 305.980469 L 131.378906 305.851562 L 131.59375 305.644531 L 132.09375 305.386719 L 132.59375 305.210938 L 133.882812 304.894531 L 135.667969 304.585938 L 137.523438 304.351562 L 138.882812 304.210938 L 140.097656 304.101562 L 142.882812 303.902344 L 144.671875 303.800781 L 146.601562 303.710938 L 148.957031 303.617188 L 150.671875 303.566406 L 154.53125 303.480469 L 157.390625 303.441406 L 159.605469 303.425781 L 164.394531 303.425781 L 167.25 303.445312 L 169.324219 303.472656 L 171.609375 303.515625 L 173.539062 303.566406 L 176.898438 303.683594 L 179.898438 303.832031 L 181.257812 303.917969 L 183.402344 304.085938 L 185.042969 304.246094 L 186.1875 304.386719 L 187.472656 304.585938 L 188.617188 304.828125 L 189.476562 305.101562 L 189.902344 305.335938 L 179.898438 305.335938 L 179.398438 305.117188 L 178.828125 304.953125 L 177.757812 304.730469 L 176.683594 304.574219 L 175.183594 304.421875 L 173.824219 304.316406 L 171.96875 304.214844 L 170.324219 304.152344 L 168.609375 304.101562 L 166.964844 304.070312 L 163.820312 304.039062 L 160.175781 304.039062 L 158.820312 304.050781 L 156.03125 304.09375 L 154.53125 304.128906 L 152.386719 304.203125 L 150.886719 304.273438 L 149.101562 304.382812 L 147.886719 304.472656 L 146.386719 304.613281 L 145.3125 304.738281 L 144.097656 304.914062 L 143.386719 305.050781 L 142.742188 305.199219 L 142.171875 305.378906 L 141.742188 305.566406 L 141.457031 305.765625 L 141.3125 305.957031 L 141.3125 306.792969 L 141.457031 306.984375 L 141.8125 307.210938 L 142.742188 307.539062 L 144.097656 307.824219 L 145.671875 308.050781 L 147.171875 308.210938 L 148.03125 308.285156 L 149.171875 308.371094 L 150.960938 308.480469 L 153.53125 308.585938 L 155.03125 308.628906 L 157.320312 308.671875 L 159.675781 308.695312 L 162.820312 308.695312 L 165.609375 308.671875 L 167.464844 308.648438 L 169.394531 308.605469 L 172.039062 308.511719 L 173.683594 308.425781 L 175.113281 308.324219 L 176.183594 308.222656 L 176.898438 308.136719 L 177.96875 307.96875 L 178.828125 307.785156 L 179.472656 307.597656 L 179.898438 307.414062 L 189.902344 307.414062 L 189.476562 307.628906 L 188.832031 307.839844 L 188.1875 307.996094 L 187.1875 308.183594 L 186.046875 308.351562 L 184.402344 308.539062 L 183.042969 308.664062 L 181.257812 308.796875 L 179.613281 308.898438 L 177.828125 308.992188 L 175.183594 309.097656 L 173.46875 309.152344 L 171.609375 309.199219 L 169.394531 309.242188 L 166.609375 309.28125 L 163.605469 309.300781 L 160.820312 309.308594 L 157.820312 309.296875 L 155.605469 309.277344 L 152.675781 309.226562 L 149.03125 309.128906 L 146.386719 309.027344 L 144.3125 308.925781 L 142.527344 308.820312 L 140.527344 308.671875 L 137.953125 308.4375 L 136.382812 308.253906 L 135.308594 308.101562 L 134.09375 307.894531 L 133.238281 307.707031 L 132.238281 307.40625 L 131.523438 307.023438 L 131.308594 306.726562 Z M 131.308594 305.984375 "/>
<path style=" stroke:none;fill-rule:nonzero;fill:rgb(96.862745%,70.196078%,16.862745%);fill-opacity:1;" d="M 131.308594 294.351562 L 131.378906 294.335938 L 131.378906 294.085938 L 131.664062 293.519531 L 132.378906 292.734375 L 133.308594 292.09375 L 134.308594 291.589844 L 134.953125 291.324219 L 136.023438 290.945312 L 136.953125 290.667969 L 139.3125 290.101562 L 142.3125 289.570312 L 143.957031 289.34375 L 145.8125 289.128906 L 148.457031 288.890625 L 149.671875 288.800781 L 153.390625 288.597656 L 157.605469 288.472656 L 162.25 288.433594 L 164.394531 288.449219 L 167.324219 288.496094 L 171.324219 288.636719 L 173.613281 288.761719 L 175.398438 288.890625 L 177.253906 289.054688 L 179.542969 289.304688 L 181.6875 289.609375 L 183.402344 289.910156 L 185.117188 290.289062 L 186.546875 290.691406 L 187.761719 291.132812 L 188.832031 291.664062 L 189.476562 292.105469 L 189.902344 292.546875 L 179.972656 292.546875 L 179.398438 292.105469 L 178.757812 291.765625 L 177.683594 291.347656 L 176.613281 291.046875 L 175.539062 290.804688 L 173.539062 290.476562 L 171.824219 290.277344 L 169.679688 290.101562 L 167.609375 289.984375 L 165.25 289.910156 L 163.820312 289.886719 L 160.035156 289.886719 L 156.605469 289.972656 L 154.605469 290.074219 L 153.175781 290.175781 L 151.171875 290.363281 L 149.957031 290.515625 L 149.246094 290.617188 L 147.101562 291.007812 L 145.671875 291.359375 L 144.886719 291.601562 L 143.886719 291.980469 L 143.171875 292.320312 L 142.382812 292.824219 L 141.957031 293.203125 L 141.382812 294.058594 L 141.3125 296.332031 L 141.527344 296.808594 L 141.957031 297.328125 L 142.527344 297.78125 L 143.386719 298.261719 L 144.242188 298.625 L 145.742188 299.117188 L 147.027344 299.445312 L 148.03125 299.660156 L 149.957031 300 L 150.746094 300.113281 L 152.601562 300.339844 L 154.53125 300.519531 L 156.890625 300.667969 L 158.675781 300.746094 L 161.535156 300.808594 L 165.179688 300.808594 L 169.46875 300.730469 L 172.183594 300.632812 L 174.039062 300.53125 L 175.253906 300.441406 L 176.753906 300.304688 L 177.828125 300.175781 L 178.828125 300.039062 L 180.042969 299.824219 L 180.042969 296.808594 L 162.390625 296.796875 L 162.390625 295.382812 L 189.832031 295.371094 L 189.902344 300.304688 L 188.402344 300.644531 L 186.546875 300.972656 L 184.757812 301.222656 L 182.902344 301.4375 L 180.257812 301.679688 L 178.113281 301.828125 L 174.824219 302.007812 L 171.824219 302.121094 L 168.679688 302.195312 L 165.894531 302.234375 L 162.605469 302.246094 L 159.675781 302.21875 L 156.53125 302.144531 L 154.03125 302.042969 L 151.746094 301.917969 L 149.457031 301.753906 L 146.601562 301.488281 L 144.742188 301.273438 L 142.8125 301.007812 L 140.882812 300.695312 L 139.167969 300.355469 L 138.027344 300.089844 L 136.882812 299.785156 L 135.667969 299.40625 L 134.523438 298.980469 L 133.667969 298.589844 L 132.878906 298.148438 L 132.308594 297.730469 L 131.738281 297.164062 L 131.453125 296.707031 L 131.308594 296.316406 Z M 131.308594 294.351562 "/>
<path style=" stroke:none;fill-rule:nonzero;fill:rgb(83.921569%,15.686275%,22.352941%);fill-opacity:1;" d="M 131.308594 247.515625 L 189.902344 247.515625 L 189.902344 251.769531 L 165.484375 251.804688 L 165.484375 287.253906 L 155.65625 287.253906 L 155.65625 251.84375 L 155.515625 251.769531 L 131.308594 251.769531 Z M 131.308594 247.515625 "/>
<path style=" stroke:none;fill-rule:nonzero;fill:rgb(6.27451%,58.823529%,28.235294%);fill-opacity:1;" d="M 192.988281 313.542969 L 193.050781 313.542969 L 218.402344 312.230469 L 226.105469 312.230469 L 251.582031 313.546875 L 242.628906 313.546875 L 236.246094 313.203125 L 208.261719 313.203125 L 202.003906 313.542969 L 192.988281 313.542969 L 210.953125 313.058594 L 233.679688 313.058594 L 222.347656 312.445312 L 222.222656 312.445312 L 222.097656 312.449219 L 210.890625 313.058594 L 210.953125 313.058594 Z M 192.988281 313.542969 "/>
<path style=" stroke:none;fill-rule:nonzero;fill:rgb(14.509804%,36.078431%,60%);fill-opacity:1;" d="M 192.988281 154.988281 L 193.058594 154.734375 L 193.058594 148.671875 L 193.273438 139.078125 L 193.773438 126.957031 L 194.273438 118.621094 L 195.558594 103.722656 L 197.347656 89.328125 L 199.203125 78.21875 L 200.5625 71.652344 L 201.777344 66.601562 L 204.5625 57.257812 L 206.351562 52.457031 L 208.28125 48.164062 L 210.636719 43.871094 L 212.351562 41.347656 L 216.210938 37.308594 L 219.070312 35.539062 L 221.285156 34.78125 L 226.074219 34.78125 L 228.929688 35.792969 L 231.003906 37.054688 L 233.289062 39.074219 L 235.21875 41.347656 L 238.578125 46.902344 L 241.578125 53.972656 L 242.9375 58.015625 L 245.082031 65.84375 L 246.722656 73.417969 L 247.867188 79.984375 L 249.152344 89.328125 L 250.296875 100.691406 L 251.152344 113.570312 L 251.582031 124.429688 L 241.578125 124.429688 L 241.078125 114.328125 L 240.507812 106.5 L 239.433594 96.148438 L 238.363281 88.824219 L 236.863281 81.5 L 235.503906 76.703125 L 233.648438 71.902344 L 232.003906 68.875 L 230.289062 66.601562 L 228.644531 65.085938 L 225.5 63.570312 L 221.855469 63.570312 L 220.5 64.074219 L 217.710938 66.09375 L 216.210938 67.863281 L 214.066406 71.398438 L 212.566406 74.679688 L 210.78125 79.730469 L 209.566406 84.023438 L 208.066406 90.589844 L 206.992188 96.398438 L 205.777344 104.734375 L 205.0625 111.046875 L 204.421875 118.117188 L 203.847656 126.449219 L 203.421875 135.289062 L 203.132812 144.632812 L 202.992188 153.722656 L 202.992188 192.867188 L 203.132812 201.957031 L 203.492188 212.5625 L 204.421875 227.96875 L 205.777344 241.351562 L 207.351562 251.957031 L 208.851562 259.535156 L 209.707031 263.070312 L 210.851562 267.109375 L 212.636719 272.160156 L 215.210938 277.210938 L 216.710938 279.230469 L 219 281.253906 L 221.355469 282.261719 L 224.5 282.261719 L 227.289062 281.253906 L 229.144531 279.988281 L 231.074219 277.96875 L 233.71875 273.675781 L 235.363281 269.636719 L 236.792969 264.839844 L 237.863281 260.039062 L 238.578125 256 L 239.648438 248.171875 L 240.507812 239.585938 L 241.148438 230.746094 L 241.578125 222.160156 L 251.582031 222.160156 L 251.152344 232.261719 L 250.511719 242.109375 L 249.867188 249.433594 L 248.867188 258.273438 L 247.722656 266.101562 L 246.082031 274.9375 L 244.722656 280.746094 L 242.9375 287.0625 L 241.292969 291.859375 L 239.507812 296.152344 L 236.863281 301.203125 L 235.148438 303.726562 L 233.289062 306 L 231.074219 308.019531 L 228.289062 309.789062 L 225.285156 310.796875 L 222.5 311.050781 L 219.5 310.546875 L 217.285156 309.535156 L 214.351562 307.261719 L 210.710938 302.71875 L 208.066406 297.917969 L 205.992188 293.121094 L 204.207031 288.070312 L 202.207031 281.253906 L 199.632812 270.140625 L 198.0625 261.554688 L 196.988281 254.484375 L 195.773438 244.636719 L 194.917969 235.796875 L 193.917969 221.65625 L 193.203125 203.726562 L 192.988281 189.835938 Z M 192.988281 154.988281 "/>
<path style=" stroke:none;fill-rule:nonzero;fill:rgb(6.27451%,58.823529%,28.235294%);fill-opacity:1;" d="M 254.667969 284.027344 L 254.730469 283.925781 L 280.082031 175.980469 L 287.78125 175.980469 L 313.261719 284.128906 L 304.308594 284.128906 L 297.925781 255.898438 L 269.941406 255.898438 L 263.679688 284.027344 L 254.667969 284.027344 L 272.632812 244.21875 L 295.359375 244.117188 L 284.027344 193.648438 L 283.902344 193.546875 L 283.777344 193.851562 L 272.570312 244.117188 L 272.632812 244.21875 Z M 254.667969 284.027344 "/>
<path style=" stroke:none;fill-rule:nonzero;fill:rgb(14.509804%,36.078431%,60%);fill-opacity:1;" d="M 254.667969 312.683594 L 254.738281 312.679688 L 254.738281 312.617188 L 254.953125 312.511719 L 255.453125 312.378906 L 255.953125 312.289062 L 257.238281 312.128906 L 259.027344 311.972656 L 260.882812 311.855469 L 262.242188 311.78125 L 263.457031 311.726562 L 266.242188 311.628906 L 268.03125 311.574219 L 269.957031 311.527344 L 272.316406 311.484375 L 274.03125 311.457031 L 277.890625 311.410156 L 280.75 311.390625 L 282.964844 311.382812 L 287.75 311.382812 L 290.609375 311.394531 L 292.683594 311.410156 L 294.96875 311.429688 L 296.898438 311.457031 L 300.257812 311.515625 L 303.257812 311.589844 L 304.617188 311.636719 L 306.757812 311.71875 L 308.402344 311.800781 L 309.546875 311.871094 L 310.832031 311.972656 L 311.976562 312.097656 L 312.832031 312.234375 L 313.261719 312.351562 L 303.257812 312.351562 L 302.757812 312.246094 L 302.1875 312.160156 L 301.113281 312.046875 L 300.042969 311.96875 L 298.542969 311.890625 L 297.183594 311.835938 L 295.328125 311.785156 L 293.683594 311.753906 L 291.96875 311.726562 L 290.324219 311.710938 L 287.179688 311.695312 L 283.535156 311.695312 L 282.179688 311.699219 L 279.390625 311.722656 L 277.890625 311.742188 L 275.746094 311.78125 L 274.246094 311.816406 L 272.460938 311.871094 L 271.246094 311.917969 L 269.746094 311.988281 L 268.671875 312.050781 L 267.457031 312.140625 L 266.742188 312.207031 L 266.101562 312.285156 L 265.527344 312.375 L 265.101562 312.472656 L 264.8125 312.570312 L 264.671875 312.671875 L 264.671875 313.09375 L 264.8125 313.191406 L 265.171875 313.304688 L 266.101562 313.472656 L 267.457031 313.617188 L 269.03125 313.730469 L 270.53125 313.8125 L 271.386719 313.851562 L 272.53125 313.894531 L 274.316406 313.949219 L 276.890625 314.003906 L 278.390625 314.027344 L 280.675781 314.046875 L 283.035156 314.058594 L 286.179688 314.058594 L 288.964844 314.046875 L 290.824219 314.035156 L 292.753906 314.011719 L 295.398438 313.964844 L 297.042969 313.921875 L 298.46875 313.871094 L 299.542969 313.820312 L 300.257812 313.777344 L 301.328125 313.691406 L 302.1875 313.597656 L 302.828125 313.503906 L 303.257812 313.410156 L 313.261719 313.410156 L 312.832031 313.519531 L 312.191406 313.625 L 311.546875 313.703125 L 310.546875 313.800781 L 309.402344 313.882812 L 307.761719 313.980469 L 306.402344 314.042969 L 304.617188 314.113281 L 302.972656 314.164062 L 301.1875 314.210938 L 298.542969 314.265625 L 296.828125 314.292969 L 294.96875 314.316406 L 292.753906 314.339844 L 289.96875 314.355469 L 286.964844 314.367188 L 284.179688 314.371094 L 281.175781 314.363281 L 278.960938 314.355469 L 276.03125 314.328125 L 272.386719 314.28125 L 269.746094 314.230469 L 267.671875 314.175781 L 265.886719 314.121094 L 263.886719 314.046875 L 261.3125 313.929688 L 259.742188 313.835938 L 258.667969 313.757812 L 257.453125 313.652344 L 256.597656 313.558594 L 255.597656 313.40625 L 254.882812 313.210938 L 254.667969 313.058594 Z M 254.667969 312.683594 "/>
<path style=" stroke:none;fill-rule:nonzero;fill:rgb(96.862745%,70.196078%,16.862745%);fill-opacity:1;" d="M 254.667969 305.402344 L 254.738281 305.394531 L 254.738281 305.242188 L 255.023438 304.894531 L 255.738281 304.421875 L 256.667969 304.03125 L 257.667969 303.722656 L 258.3125 303.5625 L 259.382812 303.332031 L 260.3125 303.164062 L 262.671875 302.816406 L 265.671875 302.496094 L 267.316406 302.355469 L 269.171875 302.226562 L 271.816406 302.082031 L 273.03125 302.027344 L 276.746094 301.90625 L 280.964844 301.828125 L 285.609375 301.804688 L 287.75 301.8125 L 290.679688 301.84375 L 294.683594 301.925781 L 296.96875 302.003906 L 298.757812 302.082031 L 300.613281 302.179688 L 302.902344 302.335938 L 305.042969 302.519531 L 306.757812 302.703125 L 308.472656 302.933594 L 309.902344 303.179688 L 311.117188 303.445312 L 312.191406 303.769531 L 312.832031 304.039062 L 313.261719 304.304688 L 303.328125 304.304688 L 302.757812 304.039062 L 302.113281 303.832031 L 301.042969 303.578125 L 299.972656 303.394531 L 298.898438 303.246094 L 296.898438 303.046875 L 295.183594 302.925781 L 293.039062 302.816406 L 290.96875 302.75 L 288.609375 302.703125 L 287.179688 302.6875 L 283.394531 302.6875 L 279.960938 302.742188 L 277.960938 302.800781 L 276.53125 302.863281 L 274.53125 302.980469 L 273.316406 303.070312 L 272.601562 303.132812 L 270.457031 303.371094 L 269.03125 303.585938 L 268.242188 303.730469 L 267.242188 303.960938 L 266.527344 304.167969 L 265.742188 304.472656 L 265.3125 304.703125 L 264.742188 305.226562 L 264.671875 306.605469 L 264.886719 306.898438 L 265.3125 307.214844 L 265.886719 307.488281 L 266.742188 307.78125 L 267.601562 308.003906 L 269.101562 308.300781 L 270.386719 308.5 L 271.386719 308.632812 L 273.316406 308.839844 L 274.101562 308.910156 L 275.960938 309.046875 L 277.890625 309.152344 L 280.25 309.246094 L 282.035156 309.292969 L 284.894531 309.332031 L 288.539062 309.332031 L 292.824219 309.285156 L 295.539062 309.222656 L 297.398438 309.160156 L 298.613281 309.109375 L 300.113281 309.023438 L 301.1875 308.945312 L 302.1875 308.863281 L 303.402344 308.730469 L 303.402344 306.898438 L 285.75 306.890625 L 285.75 306.03125 L 313.191406 306.023438 L 313.261719 309.023438 L 311.761719 309.230469 L 309.902344 309.429688 L 308.117188 309.582031 L 306.257812 309.714844 L 303.617188 309.859375 L 301.472656 309.953125 L 298.183594 310.058594 L 295.183594 310.128906 L 292.039062 310.175781 L 289.253906 310.195312 L 285.964844 310.203125 L 283.035156 310.1875 L 279.890625 310.144531 L 277.390625 310.082031 L 275.105469 310.003906 L 272.816406 309.90625 L 269.957031 309.746094 L 268.101562 309.613281 L 266.171875 309.453125 L 264.242188 309.261719 L 262.527344 309.054688 L 261.382812 308.894531 L 260.242188 308.707031 L 259.027344 308.480469 L 257.882812 308.21875 L 257.023438 307.980469 L 256.238281 307.710938 L 255.667969 307.457031 L 255.09375 307.113281 L 254.808594 306.835938 L 254.667969 306.597656 Z M 254.667969 305.402344 "/>
<path style=" stroke:none;fill-rule:nonzero;fill:rgb(83.921569%,15.686275%,22.352941%);fill-opacity:1;" d="M 254.667969 285.308594 L 313.261719 285.308594 L 313.261719 286.949219 L 288.839844 286.960938 L 288.839844 300.625 L 279.015625 300.625 L 279.015625 286.976562 L 278.875 286.949219 L 254.667969 286.949219 Z M 254.667969 285.308594 "/>
<path style=" stroke:none;fill-rule:nonzero;fill:rgb(14.509804%,36.078431%,60%);fill-opacity:1;" d="M 316.347656 203.710938 L 316.417969 203.585938 L 316.417969 200.574219 L 316.632812 195.808594 L 317.132812 189.789062 L 317.632812 185.652344 L 318.917969 178.253906 L 320.703125 171.105469 L 322.5625 165.585938 L 323.921875 162.328125 L 325.136719 159.820312 L 327.921875 155.179688 L 329.707031 152.796875 L 331.636719 150.664062 L 333.996094 148.53125 L 335.710938 147.277344 L 339.570312 145.269531 L 342.429688 144.394531 L 344.644531 144.015625 L 349.429688 144.015625 L 352.289062 144.519531 L 354.363281 145.144531 L 356.648438 146.148438 L 358.578125 147.277344 L 361.9375 150.035156 L 364.9375 153.546875 L 366.292969 155.554688 L 368.4375 159.441406 L 370.082031 163.203125 L 371.226562 166.464844 L 372.511719 171.105469 L 373.65625 176.75 L 374.511719 183.144531 L 374.941406 188.535156 L 364.9375 188.535156 L 364.4375 183.519531 L 363.867188 179.632812 L 362.792969 174.492188 L 361.722656 170.855469 L 360.222656 167.21875 L 358.863281 164.835938 L 357.003906 162.453125 L 355.363281 160.945312 L 353.648438 159.820312 L 352.003906 159.066406 L 348.859375 158.3125 L 345.214844 158.3125 L 343.855469 158.5625 L 341.070312 159.566406 L 339.570312 160.445312 L 337.425781 162.199219 L 335.925781 163.832031 L 334.140625 166.339844 L 332.925781 168.472656 L 331.421875 171.730469 L 330.351562 174.617188 L 329.136719 178.753906 L 328.421875 181.890625 L 327.777344 185.402344 L 327.207031 189.539062 L 326.777344 193.929688 L 326.492188 198.570312 L 326.351562 203.082031 L 326.351562 222.523438 L 326.492188 227.035156 L 326.851562 232.304688 L 327.777344 239.953125 L 329.136719 246.601562 L 330.707031 251.867188 L 332.210938 255.628906 L 333.066406 257.386719 L 334.210938 259.390625 L 335.996094 261.898438 L 338.570312 264.40625 L 340.070312 265.410156 L 342.355469 266.414062 L 344.714844 266.914062 L 347.859375 266.914062 L 350.644531 266.414062 L 352.503906 265.789062 L 354.433594 264.785156 L 357.078125 262.652344 L 358.71875 260.644531 L 360.148438 258.261719 L 361.222656 255.878906 L 361.9375 253.875 L 363.007812 249.984375 L 363.867188 245.722656 L 364.507812 241.332031 L 364.9375 237.070312 L 374.941406 237.070312 L 374.511719 242.085938 L 373.871094 246.976562 L 373.226562 250.613281 L 372.226562 255.003906 L 371.082031 258.890625 L 369.4375 263.277344 L 368.082031 266.164062 L 366.292969 269.296875 L 364.652344 271.679688 L 362.863281 273.8125 L 360.222656 276.320312 L 358.507812 277.574219 L 356.648438 278.703125 L 354.433594 279.707031 L 351.644531 280.585938 L 348.644531 281.085938 L 345.859375 281.210938 L 342.855469 280.960938 L 340.640625 280.460938 L 337.710938 279.332031 L 334.066406 277.074219 L 331.421875 274.691406 L 329.351562 272.308594 L 327.566406 269.800781 L 325.5625 266.414062 L 322.992188 260.894531 L 321.417969 256.632812 L 320.347656 253.121094 L 319.132812 248.230469 L 318.273438 243.839844 L 317.273438 236.816406 L 316.558594 227.914062 L 316.347656 221.015625 Z M 316.347656 203.710938 "/>
<path style=" stroke:none;fill-rule:nonzero;fill:rgb(96.862745%,70.196078%,16.862745%);fill-opacity:1;" d="M 316.347656 311.597656 L 316.417969 311.59375 L 316.417969 311.503906 L 316.703125 311.304688 L 317.417969 311.03125 L 318.347656 310.804688 L 319.347656 310.628906 L 319.992188 310.535156 L 321.0625 310.402344 L 321.992188 310.304688 L 324.347656 310.105469 L 327.351562 309.921875 L 328.992188 309.839844 L 330.851562 309.765625 L 333.496094 309.679688 L 334.710938 309.648438 L 338.425781 309.578125 L 342.640625 309.535156 L 347.289062 309.519531 L 349.429688 309.527344 L 352.359375 309.542969 L 356.363281 309.59375 L 358.648438 309.636719 L 360.433594 309.679688 L 362.292969 309.738281 L 364.578125 309.828125 L 366.722656 309.933594 L 368.4375 310.039062 L 370.152344 310.171875 L 371.582031 310.3125 L 372.796875 310.46875 L 373.871094 310.65625 L 374.511719 310.808594 L 374.941406 310.964844 L 365.007812 310.964844 L 364.4375 310.808594 L 363.792969 310.691406 L 362.722656 310.542969 L 361.648438 310.4375 L 360.578125 310.355469 L 358.578125 310.238281 L 356.863281 310.167969 L 354.71875 310.105469 L 352.644531 310.066406 L 350.289062 310.039062 L 348.859375 310.03125 L 345.070312 310.03125 L 341.640625 310.0625 L 339.640625 310.097656 L 338.210938 310.132812 L 336.210938 310.199219 L 334.996094 310.253906 L 334.28125 310.289062 L 332.136719 310.425781 L 330.707031 310.550781 L 329.921875 310.632812 L 328.921875 310.765625 L 328.207031 310.886719 L 327.421875 311.0625 L 326.992188 311.195312 L 326.421875 311.496094 L 326.351562 312.292969 L 326.5625 312.460938 L 326.992188 312.644531 L 327.566406 312.804688 L 328.421875 312.972656 L 329.28125 313.101562 L 330.78125 313.273438 L 332.066406 313.386719 L 333.066406 313.460938 L 334.996094 313.582031 L 335.78125 313.621094 L 337.640625 313.703125 L 339.570312 313.765625 L 341.929688 313.816406 L 343.714844 313.84375 L 346.574219 313.867188 L 350.21875 313.867188 L 354.503906 313.839844 L 357.21875 313.804688 L 359.078125 313.769531 L 360.292969 313.738281 L 361.792969 313.6875 L 362.863281 313.644531 L 363.867188 313.59375 L 365.078125 313.519531 L 365.078125 312.460938 L 347.429688 312.457031 L 347.429688 311.960938 L 374.871094 311.957031 L 374.941406 313.6875 L 373.441406 313.808594 L 371.582031 313.921875 L 369.796875 314.011719 L 367.9375 314.085938 L 365.292969 314.171875 L 363.152344 314.222656 L 359.863281 314.285156 L 356.863281 314.328125 L 353.71875 314.351562 L 350.929688 314.367188 L 347.644531 314.371094 L 344.714844 314.363281 L 341.570312 314.335938 L 339.070312 314.300781 L 336.78125 314.253906 L 334.496094 314.199219 L 331.636719 314.105469 L 329.78125 314.03125 L 327.851562 313.9375 L 325.921875 313.824219 L 324.207031 313.707031 L 323.0625 313.613281 L 321.917969 313.507812 L 320.703125 313.375 L 319.5625 313.222656 L 318.703125 313.085938 L 317.917969 312.929688 L 317.347656 312.785156 L 316.773438 312.585938 L 316.488281 312.425781 L 316.347656 312.289062 Z M 316.347656 311.597656 "/>
<path style=" stroke:none;fill-rule:nonzero;fill:rgb(83.921569%,15.686275%,22.352941%);fill-opacity:1;" d="M 316.347656 282.390625 L 374.941406 282.390625 L 374.941406 285.167969 L 350.519531 285.195312 L 350.519531 308.34375 L 340.695312 308.34375 L 340.695312 285.21875 L 340.554688 285.167969 L 316.347656 285.167969 Z M 316.347656 282.390625 "/>
<path style=" stroke:none;fill-rule:nonzero;fill:rgb(6.27451%,58.823529%,28.235294%);fill-opacity:1;" d="M 378.023438 312.1875 L 378.085938 312.171875 L 403.441406 293.046875 L 411.140625 293.046875 L 436.621094 312.207031 L 427.667969 312.207031 L 421.28125 307.207031 L 393.300781 307.207031 L 387.039062 312.1875 L 378.023438 312.1875 L 395.992188 305.136719 L 418.714844 305.117188 L 407.386719 296.179688 L 407.261719 296.160156 L 407.136719 296.214844 L 395.929688 305.117188 L 395.992188 305.136719 Z M 378.023438 312.1875 "/>
<path style=" stroke:none;fill-rule:nonzero;fill:rgb(14.509804%,36.078431%,60%);fill-opacity:1;" d="M 378.023438 313.816406 L 378.097656 313.8125 L 378.097656 313.792969 L 378.3125 313.757812 L 378.8125 313.714844 L 379.3125 313.683594 L 380.597656 313.632812 L 382.382812 313.582031 L 384.242188 313.542969 L 385.601562 313.519531 L 386.8125 313.5 L 389.601562 313.464844 L 391.386719 313.449219 L 393.316406 313.433594 L 395.675781 313.417969 L 397.390625 313.410156 L 401.25 313.394531 L 404.105469 313.390625 L 406.324219 313.386719 L 411.109375 313.386719 L 413.96875 313.390625 L 416.039062 313.394531 L 418.328125 313.402344 L 420.257812 313.410156 L 423.613281 313.429688 L 426.617188 313.453125 L 427.972656 313.46875 L 430.117188 313.496094 L 431.761719 313.523438 L 432.90625 313.546875 L 434.191406 313.582031 L 435.335938 313.621094 L 436.191406 313.667969 L 436.621094 313.707031 L 426.617188 313.707031 L 426.117188 313.667969 L 425.542969 313.640625 L 424.472656 313.605469 L 423.402344 313.578125 L 421.898438 313.554688 L 420.542969 313.535156 L 418.683594 313.519531 L 417.039062 313.507812 L 415.324219 313.5 L 413.683594 313.496094 L 410.539062 313.488281 L 406.894531 313.488281 L 405.535156 313.492188 L 402.75 313.5 L 401.25 313.503906 L 399.105469 313.515625 L 397.605469 313.527344 L 395.816406 313.546875 L 394.601562 313.5625 L 393.101562 313.585938 L 392.03125 313.605469 L 390.816406 313.636719 L 390.101562 313.660156 L 389.457031 313.683594 L 388.886719 313.714844 L 388.457031 313.746094 L 388.171875 313.777344 L 388.027344 313.808594 L 388.027344 313.949219 L 388.171875 313.980469 L 388.53125 314.019531 L 389.457031 314.074219 L 390.816406 314.121094 L 392.386719 314.160156 L 393.890625 314.1875 L 394.746094 314.199219 L 395.890625 314.214844 L 397.675781 314.230469 L 400.25 314.25 L 401.75 314.257812 L 404.035156 314.265625 L 406.394531 314.269531 L 409.539062 314.269531 L 412.324219 314.265625 L 414.183594 314.261719 L 416.113281 314.253906 L 418.757812 314.238281 L 420.398438 314.222656 L 421.828125 314.207031 L 422.902344 314.1875 L 423.613281 314.175781 L 424.6875 314.148438 L 425.542969 314.117188 L 426.1875 314.085938 L 426.617188 314.054688 L 436.621094 314.054688 L 436.191406 314.089844 L 435.546875 314.125 L 434.90625 314.152344 L 433.90625 314.183594 L 432.761719 314.210938 L 431.117188 314.242188 L 429.761719 314.261719 L 427.972656 314.285156 L 426.332031 314.300781 L 424.542969 314.316406 L 421.898438 314.335938 L 420.183594 314.34375 L 418.328125 314.351562 L 416.113281 314.359375 L 413.324219 314.367188 L 410.324219 314.371094 L 407.539062 314.371094 L 404.535156 314.367188 L 402.320312 314.367188 L 399.390625 314.355469 L 395.746094 314.339844 L 393.101562 314.324219 L 391.03125 314.308594 L 389.242188 314.289062 L 387.242188 314.265625 L 384.671875 314.226562 L 383.097656 314.195312 L 382.027344 314.167969 L 380.8125 314.132812 L 379.953125 314.101562 L 378.953125 314.050781 L 378.238281 313.988281 L 378.023438 313.9375 Z M 378.023438 313.816406 "/>
<path style=" stroke:none;fill-rule:nonzero;fill:rgb(96.862745%,70.196078%,16.862745%);fill-opacity:1;" d="M 378.023438 180.753906 L 378.097656 180.578125 L 378.097656 177.027344 L 378.382812 169.039062 L 379.097656 158.035156 L 380.027344 148.980469 L 381.027344 141.882812 L 381.667969 138.152344 L 382.742188 132.828125 L 383.671875 128.925781 L 386.027344 120.9375 L 389.03125 113.480469 L 390.671875 110.285156 L 392.53125 107.269531 L 395.175781 103.898438 L 396.390625 102.65625 L 400.105469 99.8125 L 404.320312 98.039062 L 408.964844 97.507812 L 411.109375 97.683594 L 414.039062 98.394531 L 418.042969 100.347656 L 420.328125 102.121094 L 422.113281 103.898438 L 423.972656 106.203125 L 426.257812 109.753906 L 428.402344 114.015625 L 430.117188 118.273438 L 431.832031 123.597656 L 433.261719 129.277344 L 434.476562 135.492188 L 435.546875 142.945312 L 436.191406 149.160156 L 436.621094 155.371094 L 426.6875 155.371094 L 426.117188 149.160156 L 425.472656 144.367188 L 424.402344 138.507812 L 423.328125 134.25 L 422.257812 130.875 L 420.257812 126.261719 L 418.542969 123.421875 L 416.398438 120.9375 L 414.324219 119.339844 L 411.96875 118.273438 L 410.539062 117.917969 L 406.75 117.917969 L 403.320312 119.160156 L 401.320312 120.582031 L 399.890625 122 L 397.890625 124.664062 L 396.675781 126.792969 L 395.960938 128.214844 L 393.816406 133.714844 L 392.386719 138.6875 L 391.601562 142.058594 L 390.601562 147.382812 L 389.886719 152.175781 L 389.101562 159.277344 L 388.671875 164.601562 L 388.101562 176.671875 L 388.027344 208.621094 L 388.242188 215.367188 L 388.671875 222.644531 L 389.242188 229.035156 L 390.101562 235.777344 L 390.960938 240.925781 L 392.460938 247.847656 L 393.746094 252.464844 L 394.746094 255.480469 L 396.675781 260.273438 L 397.460938 261.871094 L 399.320312 265.066406 L 401.25 267.550781 L 403.605469 269.679688 L 405.394531 270.746094 L 408.25 271.632812 L 411.894531 271.632812 L 416.183594 270.570312 L 418.898438 269.148438 L 420.757812 267.730469 L 421.972656 266.484375 L 423.472656 264.535156 L 424.542969 262.757812 L 425.542969 260.804688 L 426.757812 257.789062 L 426.757812 215.367188 L 409.109375 215.1875 L 409.109375 195.308594 L 436.550781 195.132812 L 436.621094 264.535156 L 435.121094 269.324219 L 433.261719 273.941406 L 431.476562 277.492188 L 429.617188 280.507812 L 426.972656 283.882812 L 424.828125 286.011719 L 421.542969 288.496094 L 418.542969 290.09375 L 415.398438 291.160156 L 412.609375 291.691406 L 409.324219 291.867188 L 406.394531 291.511719 L 403.25 290.449219 L 400.75 289.027344 L 398.460938 287.253906 L 396.175781 284.945312 L 393.316406 281.21875 L 391.460938 278.199219 L 389.53125 274.472656 L 387.601562 270.035156 L 385.886719 265.242188 L 384.742188 261.515625 L 383.597656 257.257812 L 382.382812 251.929688 L 381.242188 245.894531 L 380.382812 240.394531 L 379.597656 234.179688 L 379.027344 228.324219 L 378.453125 220.335938 L 378.167969 213.945312 L 378.023438 208.445312 Z M 378.023438 180.753906 "/>
<path style=" stroke:none;fill-rule:nonzero;fill:rgb(6.27451%,58.823529%,28.235294%);fill-opacity:1;" d="M 439.703125 298.042969 L 439.765625 298.03125 L 465.121094 286.464844 L 472.820312 286.464844 L 498.300781 298.050781 L 489.347656 298.050781 L 482.960938 295.027344 L 454.980469 295.027344 L 448.71875 298.042969 L 439.703125 298.042969 L 457.671875 293.777344 L 480.394531 293.765625 L 469.066406 288.359375 L 468.9375 288.347656 L 468.8125 288.378906 L 457.609375 293.765625 L 457.671875 293.777344 Z M 439.703125 298.042969 "/>
<path style=" stroke:none;fill-rule:nonzero;fill:rgb(14.509804%,36.078431%,60%);fill-opacity:1;" d="M 439.703125 311.121094 L 439.777344 311.117188 L 439.777344 310.988281 L 439.988281 310.789062 L 440.492188 310.539062 L 440.992188 310.363281 L 442.277344 310.054688 L 444.0625 309.753906 L 445.921875 309.523438 L 447.277344 309.386719 L 448.492188 309.28125 L 451.28125 309.085938 L 453.066406 308.988281 L 454.996094 308.898438 L 457.355469 308.808594 L 459.070312 308.753906 L 462.929688 308.671875 L 465.785156 308.632812 L 468 308.617188 L 472.789062 308.617188 L 475.648438 308.640625 L 477.71875 308.667969 L 480.007812 308.707031 L 481.9375 308.753906 L 485.292969 308.871094 L 488.296875 309.019531 L 489.652344 309.101562 L 491.796875 309.265625 L 493.441406 309.421875 L 494.582031 309.558594 L 495.871094 309.753906 L 497.011719 309.992188 L 497.871094 310.257812 L 498.300781 310.484375 L 488.296875 310.484375 L 487.796875 310.273438 L 487.222656 310.113281 L 486.152344 309.898438 L 485.078125 309.742188 L 483.578125 309.589844 L 482.222656 309.492188 L 480.363281 309.390625 L 478.71875 309.328125 L 477.003906 309.28125 L 475.363281 309.25 L 472.21875 309.21875 L 468.574219 309.21875 L 467.214844 309.230469 L 464.429688 309.269531 L 462.929688 309.308594 L 460.785156 309.382812 L 459.285156 309.449219 L 457.496094 309.554688 L 456.28125 309.644531 L 454.78125 309.78125 L 453.710938 309.902344 L 452.496094 310.074219 L 451.78125 310.207031 L 451.136719 310.355469 L 450.566406 310.527344 L 450.136719 310.710938 L 449.851562 310.90625 L 449.707031 311.09375 L 449.707031 311.910156 L 449.851562 312.097656 L 450.207031 312.320312 L 451.136719 312.640625 L 452.496094 312.917969 L 454.066406 313.140625 L 455.566406 313.296875 L 456.425781 313.371094 L 457.570312 313.457031 L 459.355469 313.5625 L 461.925781 313.667969 L 463.429688 313.707031 L 465.714844 313.75 L 468.074219 313.769531 L 471.21875 313.769531 L 474.003906 313.75 L 475.863281 313.722656 L 477.792969 313.683594 L 480.433594 313.59375 L 482.078125 313.507812 L 483.507812 313.410156 L 484.578125 313.308594 L 485.292969 313.222656 L 486.367188 313.0625 L 487.222656 312.882812 L 487.867188 312.699219 L 488.296875 312.519531 L 498.300781 312.519531 L 497.871094 312.730469 L 497.226562 312.933594 L 496.585938 313.085938 L 495.585938 313.273438 L 494.441406 313.433594 L 492.796875 313.617188 L 491.441406 313.738281 L 489.652344 313.871094 L 488.007812 313.972656 L 486.222656 314.058594 L 483.578125 314.164062 L 481.863281 314.21875 L 480.007812 314.265625 L 477.792969 314.308594 L 475.003906 314.34375 L 472.003906 314.367188 L 469.214844 314.371094 L 466.214844 314.359375 L 464 314.339844 L 461.070312 314.292969 L 457.425781 314.195312 L 454.78125 314.097656 L 452.710938 313.996094 L 450.921875 313.890625 L 448.921875 313.75 L 446.351562 313.519531 L 444.777344 313.339844 L 443.707031 313.191406 L 442.492188 312.988281 L 441.632812 312.804688 L 440.632812 312.507812 L 439.917969 312.136719 L 439.703125 311.847656 Z M 439.703125 311.121094 "/>
<path style=" stroke:none;fill-rule:nonzero;fill:rgb(96.862745%,70.196078%,16.862745%);fill-opacity:1;" d="M 439.703125 302.746094 L 439.777344 302.738281 L 439.777344 302.589844 L 440.0625 302.253906 L 440.777344 301.789062 L 441.707031 301.40625 L 442.707031 301.105469 L 443.347656 300.949219 L 444.421875 300.722656 L 445.347656 300.558594 L 447.707031 300.222656 L 450.707031 299.90625 L 452.351562 299.773438 L 454.210938 299.644531 L 456.855469 299.503906 L 458.070312 299.449219 L 461.785156 299.328125 L 466 299.253906 L 470.644531 299.230469 L 472.789062 299.238281 L 475.71875 299.269531 L 479.71875 299.351562 L 482.007812 299.425781 L 483.792969 299.503906 L 485.652344 299.597656 L 487.9375 299.75 L 490.082031 299.929688 L 491.796875 300.109375 L 493.511719 300.332031 L 494.941406 300.574219 L 496.15625 300.835938 L 497.226562 301.152344 L 497.871094 301.414062 L 498.300781 301.675781 L 488.367188 301.675781 L 487.796875 301.414062 L 487.152344 301.210938 L 486.082031 300.964844 L 485.007812 300.785156 L 483.9375 300.640625 L 481.9375 300.445312 L 480.222656 300.328125 L 478.078125 300.222656 L 476.003906 300.152344 L 473.648438 300.109375 L 472.21875 300.09375 L 468.429688 300.09375 L 465 300.148438 L 463 300.207031 L 461.570312 300.265625 L 459.570312 300.378906 L 458.355469 300.46875 L 457.640625 300.527344 L 455.496094 300.761719 L 454.066406 300.972656 L 453.28125 301.113281 L 452.28125 301.339844 L 451.566406 301.539062 L 450.78125 301.839844 L 450.351562 302.066406 L 449.78125 302.574219 L 449.707031 303.925781 L 449.921875 304.210938 L 450.351562 304.515625 L 450.921875 304.785156 L 451.78125 305.070312 L 452.636719 305.289062 L 454.140625 305.582031 L 455.425781 305.777344 L 456.425781 305.902344 L 458.355469 306.105469 L 459.140625 306.171875 L 461 306.308594 L 462.929688 306.414062 L 465.285156 306.503906 L 467.074219 306.546875 L 469.929688 306.585938 L 473.574219 306.585938 L 477.863281 306.539062 L 480.578125 306.480469 L 482.4375 306.421875 L 483.652344 306.367188 L 485.152344 306.285156 L 486.222656 306.210938 L 487.222656 306.128906 L 488.4375 306 L 488.4375 304.210938 L 470.789062 304.203125 L 470.789062 303.363281 L 498.226562 303.355469 L 498.300781 306.285156 L 496.800781 306.488281 L 494.941406 306.683594 L 493.15625 306.832031 L 491.296875 306.960938 L 488.652344 307.101562 L 486.507812 307.191406 L 483.222656 307.296875 L 480.222656 307.363281 L 477.078125 307.410156 L 474.289062 307.433594 L 471.003906 307.4375 L 468.074219 307.425781 L 464.929688 307.378906 L 462.429688 307.320312 L 460.140625 307.246094 L 457.855469 307.148438 L 454.996094 306.988281 L 453.136719 306.863281 L 451.210938 306.703125 L 449.28125 306.515625 L 447.566406 306.316406 L 446.421875 306.15625 L 445.277344 305.976562 L 444.0625 305.753906 L 442.921875 305.5 L 442.0625 305.265625 L 441.277344 305.003906 L 440.703125 304.757812 L 440.132812 304.417969 L 439.847656 304.148438 L 439.703125 303.917969 Z M 439.703125 302.746094 "/>
<path style=" stroke:none;fill-rule:nonzero;fill:rgb(83.921569%,15.686275%,22.352941%);fill-opacity:1;" d="M 439.703125 177.878906 L 498.300781 177.878906 L 498.300781 189.375 L 473.878906 189.476562 L 473.878906 285.285156 L 464.054688 285.285156 L 464.054688 189.578125 L 463.910156 189.375 L 439.703125 189.375 Z M 439.703125 177.878906 "/>
<path style=" stroke:none;fill-rule:nonzero;fill:rgb(96.862745%,70.196078%,16.862745%);fill-opacity:1;" d="M 501.382812 146.390625 L 501.453125 146.125 L 501.453125 140.761719 L 501.742188 128.699219 L 502.457031 112.078125 L 503.382812 98.40625 L 504.382812 87.683594 L 505.027344 82.050781 L 506.101562 74.011719 L 507.027344 68.113281 L 509.386719 56.050781 L 512.386719 44.789062 L 514.03125 39.964844 L 515.890625 35.40625 L 518.535156 30.3125 L 519.75 28.4375 L 523.464844 24.148438 L 527.679688 21.46875 L 532.324219 20.664062 L 534.46875 20.929688 L 537.398438 22.003906 L 541.398438 24.953125 L 543.6875 27.632812 L 545.472656 30.3125 L 547.332031 33.796875 L 549.617188 39.160156 L 551.761719 45.59375 L 553.476562 52.027344 L 555.191406 60.070312 L 556.621094 68.648438 L 557.835938 78.03125 L 558.90625 89.289062 L 559.550781 98.671875 L 559.980469 108.054688 L 550.046875 108.054688 L 549.472656 98.671875 L 548.832031 91.433594 L 547.757812 82.589844 L 546.6875 76.15625 L 545.617188 71.0625 L 543.613281 64.089844 L 541.898438 59.800781 L 539.757812 56.050781 L 537.683594 53.636719 L 535.324219 52.027344 L 533.898438 51.492188 L 530.109375 51.492188 L 526.679688 53.367188 L 524.679688 55.511719 L 523.25 57.65625 L 521.25 61.679688 L 520.035156 64.894531 L 519.320312 67.039062 L 517.175781 75.351562 L 515.746094 82.855469 L 514.960938 87.949219 L 513.960938 95.992188 L 513.246094 103.230469 L 512.460938 113.953125 L 512.03125 121.996094 L 511.460938 140.226562 L 511.386719 188.480469 L 511.601562 198.667969 L 512.03125 209.65625 L 512.601562 219.308594 L 513.460938 229.496094 L 514.316406 237.269531 L 515.816406 247.722656 L 517.105469 254.695312 L 518.105469 259.25 L 520.035156 266.488281 L 520.820312 268.902344 L 522.679688 273.726562 L 524.605469 277.480469 L 526.964844 280.699219 L 528.75 282.304688 L 531.609375 283.648438 L 535.253906 283.648438 L 539.542969 282.039062 L 542.257812 279.894531 L 544.113281 277.75 L 545.328125 275.871094 L 546.832031 272.921875 L 547.902344 270.242188 L 548.902344 267.292969 L 550.117188 262.738281 L 550.117188 198.667969 L 532.46875 198.398438 L 532.46875 168.375 L 559.90625 168.105469 L 559.980469 272.921875 L 558.476562 280.160156 L 556.621094 287.132812 L 554.832031 292.492188 L 552.976562 297.050781 L 550.332031 302.144531 L 548.1875 305.359375 L 544.902344 309.113281 L 541.898438 311.527344 L 538.753906 313.136719 L 535.96875 313.941406 L 532.683594 314.207031 L 529.753906 313.671875 L 526.609375 312.0625 L 524.105469 309.917969 L 521.820312 307.238281 L 519.535156 303.753906 L 516.675781 298.121094 L 514.816406 293.566406 L 512.886719 287.9375 L 510.957031 281.234375 L 509.242188 273.996094 L 508.101562 268.367188 L 506.957031 261.933594 L 505.742188 253.890625 L 504.597656 244.777344 L 503.742188 236.464844 L 502.957031 227.082031 L 502.382812 218.234375 L 501.8125 206.171875 L 501.527344 196.523438 L 501.382812 188.210938 Z M 501.382812 146.390625 "/>
<path style=" stroke:none;fill-rule:nonzero;fill:rgb(6.27451%,58.823529%,28.235294%);fill-opacity:1;" d="M 563.0625 307.003906 L 563.125 307 L 588.480469 303.628906 L 596.179688 303.628906 L 621.65625 307.007812 L 612.707031 307.007812 L 606.320312 306.125 L 578.335938 306.125 L 572.078125 307.003906 L 563.0625 307.003906 L 581.03125 305.761719 L 603.753906 305.757812 L 592.421875 304.183594 L 592.296875 304.179688 L 592.171875 304.1875 L 580.964844 305.757812 L 581.03125 305.761719 Z M 563.0625 307.003906 "/>
<path style=" stroke:none;fill-rule:nonzero;fill:rgb(14.509804%,36.078431%,60%);fill-opacity:1;" d="M 563.0625 311.8125 L 563.132812 311.8125 L 563.132812 311.789062 L 563.347656 311.753906 L 563.847656 311.707031 L 564.347656 311.675781 L 565.636719 311.621094 L 567.421875 311.566406 L 569.28125 311.523438 L 570.636719 311.5 L 571.851562 311.480469 L 574.640625 311.445312 L 576.425781 311.425781 L 578.355469 311.410156 L 580.710938 311.394531 L 582.425781 311.382812 L 586.285156 311.371094 L 589.144531 311.363281 L 591.359375 311.359375 L 596.148438 311.359375 L 599.003906 311.363281 L 601.078125 311.367188 L 603.363281 311.375 L 605.292969 311.382812 L 608.652344 311.40625 L 611.652344 311.433594 L 613.011719 311.449219 L 615.15625 311.476562 L 616.796875 311.503906 L 617.941406 311.53125 L 619.226562 311.566406 L 620.371094 311.609375 L 621.230469 311.65625 L 621.65625 311.695312 L 611.652344 311.695312 L 611.152344 311.660156 L 610.582031 311.628906 L 609.511719 311.589844 L 608.4375 311.5625 L 606.9375 311.535156 L 605.578125 311.515625 L 603.722656 311.5 L 602.078125 311.488281 L 600.363281 311.480469 L 598.71875 311.472656 L 595.574219 311.46875 L 590.574219 311.46875 L 587.785156 311.476562 L 586.285156 311.484375 L 584.144531 311.496094 L 582.640625 311.511719 L 580.855469 311.527344 L 579.640625 311.546875 L 578.140625 311.570312 L 577.066406 311.589844 L 575.855469 311.621094 L 575.140625 311.648438 L 574.496094 311.671875 L 573.925781 311.703125 L 573.496094 311.738281 L 573.210938 311.773438 L 573.066406 311.808594 L 573.066406 311.953125 L 573.210938 311.988281 L 573.566406 312.027344 L 574.496094 312.085938 L 575.855469 312.136719 L 577.425781 312.175781 L 578.925781 312.203125 L 579.785156 312.21875 L 580.925781 312.234375 L 582.714844 312.253906 L 585.285156 312.273438 L 586.785156 312.277344 L 589.074219 312.285156 L 591.429688 312.289062 L 594.574219 312.289062 L 597.363281 312.285156 L 599.21875 312.28125 L 601.148438 312.273438 L 603.792969 312.257812 L 605.4375 312.242188 L 606.867188 312.226562 L 607.9375 312.207031 L 608.652344 312.191406 L 609.722656 312.164062 L 610.582031 312.128906 L 611.226562 312.097656 L 611.652344 312.066406 L 621.65625 312.066406 L 621.230469 312.101562 L 620.585938 312.140625 L 619.941406 312.167969 L 618.941406 312.199219 L 617.800781 312.230469 L 616.15625 312.261719 L 614.796875 312.285156 L 613.011719 312.308594 L 611.367188 312.328125 L 609.582031 312.34375 L 606.9375 312.363281 L 605.222656 312.371094 L 603.363281 312.378906 L 601.148438 312.386719 L 598.363281 312.394531 L 595.363281 312.398438 L 589.574219 312.398438 L 587.359375 312.394531 L 584.429688 312.382812 L 580.785156 312.367188 L 578.140625 312.347656 L 576.066406 312.332031 L 574.28125 312.3125 L 572.28125 312.285156 L 569.707031 312.246094 L 568.136719 312.210938 L 567.0625 312.1875 L 565.847656 312.148438 L 564.992188 312.117188 L 563.992188 312.0625 L 563.277344 311.996094 L 563.0625 311.941406 Z M 563.0625 311.8125 "/>
<path style=" stroke:none;fill-rule:nonzero;fill:rgb(96.862745%,70.196078%,16.862745%);fill-opacity:1;" d="M 563.0625 309.042969 L 563.132812 309.039062 L 563.132812 309.003906 L 563.421875 308.921875 L 564.132812 308.808594 L 565.0625 308.714844 L 566.0625 308.644531 L 566.707031 308.605469 L 567.777344 308.550781 L 568.707031 308.511719 L 571.066406 308.429688 L 574.066406 308.351562 L 575.710938 308.320312 L 577.570312 308.289062 L 580.210938 308.253906 L 581.425781 308.242188 L 585.144531 308.210938 L 589.359375 308.191406 L 594.003906 308.1875 L 596.148438 308.191406 L 599.078125 308.195312 L 603.078125 308.21875 L 605.367188 308.234375 L 607.152344 308.253906 L 609.011719 308.277344 L 611.296875 308.3125 L 613.441406 308.355469 L 615.15625 308.402344 L 616.871094 308.457031 L 618.300781 308.511719 L 619.515625 308.578125 L 620.585938 308.652344 L 621.230469 308.71875 L 621.65625 308.78125 L 611.726562 308.78125 L 611.152344 308.71875 L 610.511719 308.667969 L 609.4375 308.609375 L 608.367188 308.5625 L 607.292969 308.53125 L 605.292969 308.484375 L 603.578125 308.453125 L 601.433594 308.429688 L 599.363281 308.410156 L 597.003906 308.402344 L 595.574219 308.398438 L 591.789062 308.398438 L 588.359375 308.410156 L 586.359375 308.425781 L 584.929688 308.4375 L 582.929688 308.464844 L 581.714844 308.488281 L 581 308.503906 L 578.855469 308.558594 L 577.425781 308.609375 L 576.640625 308.644531 L 575.640625 308.699219 L 574.925781 308.75 L 574.136719 308.820312 L 573.710938 308.875 L 573.136719 309 L 573.066406 309.328125 L 573.28125 309.394531 L 573.710938 309.46875 L 574.28125 309.535156 L 575.140625 309.605469 L 575.996094 309.65625 L 577.496094 309.730469 L 578.785156 309.777344 L 579.785156 309.808594 L 581.714844 309.855469 L 582.5 309.871094 L 584.355469 309.90625 L 586.285156 309.929688 L 588.644531 309.953125 L 590.429688 309.964844 L 593.289062 309.972656 L 596.933594 309.972656 L 601.222656 309.960938 L 603.9375 309.949219 L 605.792969 309.933594 L 607.007812 309.921875 L 608.507812 309.898438 L 609.582031 309.882812 L 610.582031 309.863281 L 611.796875 309.832031 L 611.796875 309.394531 L 594.148438 309.394531 L 594.148438 309.191406 L 621.585938 309.1875 L 621.65625 309.898438 L 620.15625 309.949219 L 618.300781 309.996094 L 616.511719 310.03125 L 614.65625 310.0625 L 612.011719 310.097656 L 609.867188 310.121094 L 606.582031 310.144531 L 603.578125 310.164062 L 600.433594 310.171875 L 597.648438 310.179688 L 594.359375 310.179688 L 591.429688 310.175781 L 588.289062 310.164062 L 585.785156 310.152344 L 583.5 310.132812 L 581.210938 310.109375 L 578.355469 310.070312 L 576.496094 310.039062 L 574.566406 310.003906 L 572.636719 309.957031 L 570.921875 309.90625 L 569.78125 309.871094 L 568.636719 309.824219 L 567.421875 309.769531 L 566.277344 309.710938 L 565.421875 309.652344 L 564.632812 309.589844 L 564.0625 309.527344 L 563.492188 309.445312 L 563.207031 309.382812 L 563.0625 309.324219 Z M 563.0625 309.042969 "/>
<path style=" stroke:none;fill-rule:nonzero;fill:rgb(83.921569%,15.686275%,22.352941%);fill-opacity:1;" d="M 563.0625 313.578125 L 621.65625 313.578125 L 621.65625 313.664062 L 597.238281 313.664062 L 597.238281 314.371094 L 587.410156 314.371094 L 587.410156 313.664062 L 563.0625 313.664062 Z M 563.0625 313.578125 "/>
<path style=" stroke:none;fill-rule:nonzero;fill:rgb(6.27451%,58.823529%,28.235294%);fill-opacity:1;" d="M 624.742188 314.371094 L 624.804688 314.367188 L 650.15625 313.238281 L 657.859375 313.238281 L 683.335938 314.371094 L 674.386719 314.371094 L 668 314.074219 L 640.015625 314.074219 L 633.757812 314.371094 L 624.742188 314.371094 L 642.707031 313.953125 L 665.433594 313.953125 L 654.101562 313.421875 L 653.976562 313.421875 L 653.851562 313.425781 L 642.644531 313.953125 L 642.707031 313.953125 Z M 624.742188 314.371094 "/>
<path style=" stroke:none;fill-rule:nonzero;fill:rgb(14.509804%,36.078431%,60%);fill-opacity:1;" d="M 624.742188 302.988281 L 624.8125 302.980469 L 624.8125 302.855469 L 625.027344 302.652344 L 625.527344 302.394531 L 626.027344 302.21875 L 627.3125 301.90625 L 629.101562 301.601562 L 630.957031 301.367188 L 632.316406 301.226562 L 633.53125 301.121094 L 636.316406 300.925781 L 638.105469 300.824219 L 640.035156 300.734375 L 642.390625 300.640625 L 644.105469 300.589844 L 647.964844 300.503906 L 650.824219 300.464844 L 653.039062 300.449219 L 657.828125 300.449219 L 660.683594 300.472656 L 662.757812 300.5 L 665.042969 300.542969 L 666.972656 300.589844 L 670.332031 300.707031 L 673.332031 300.855469 L 674.691406 300.941406 L 676.835938 301.105469 L 678.476562 301.265625 L 679.621094 301.402344 L 680.90625 301.601562 L 682.050781 301.839844 L 682.910156 302.113281 L 683.335938 302.34375 L 673.332031 302.34375 L 672.832031 302.128906 L 672.261719 301.964844 L 671.1875 301.746094 L 670.117188 301.589844 L 668.617188 301.4375 L 667.257812 301.335938 L 665.402344 301.234375 L 663.757812 301.167969 L 662.042969 301.121094 L 660.398438 301.089844 L 657.253906 301.058594 L 653.609375 301.058594 L 652.253906 301.070312 L 649.464844 301.109375 L 647.964844 301.148438 L 645.820312 301.222656 L 644.320312 301.292969 L 642.535156 301.398438 L 641.320312 301.488281 L 639.820312 301.628906 L 638.746094 301.75 L 637.53125 301.925781 L 636.816406 302.058594 L 636.175781 302.207031 L 635.601562 302.382812 L 635.175781 302.570312 L 634.890625 302.769531 L 634.746094 302.960938 L 634.746094 303.785156 L 634.890625 303.976562 L 635.246094 304.203125 L 636.175781 304.527344 L 637.53125 304.808594 L 639.105469 305.03125 L 640.605469 305.191406 L 641.464844 305.265625 L 642.605469 305.351562 L 644.394531 305.460938 L 646.964844 305.566406 L 648.464844 305.609375 L 650.753906 305.652344 L 653.109375 305.671875 L 656.253906 305.671875 L 659.042969 305.652344 L 660.898438 305.625 L 662.828125 305.582031 L 665.472656 305.492188 L 667.117188 305.40625 L 668.546875 305.304688 L 669.617188 305.203125 L 670.332031 305.117188 L 671.402344 304.953125 L 672.261719 304.773438 L 672.902344 304.585938 L 673.332031 304.402344 L 683.335938 304.402344 L 682.910156 304.617188 L 682.265625 304.824219 L 681.621094 304.980469 L 680.621094 305.164062 L 679.476562 305.332031 L 677.835938 305.519531 L 676.476562 305.640625 L 674.691406 305.773438 L 673.046875 305.875 L 671.261719 305.964844 L 668.617188 306.070312 L 666.902344 306.125 L 665.042969 306.171875 L 662.828125 306.214844 L 660.042969 306.253906 L 657.039062 306.273438 L 654.253906 306.28125 L 651.253906 306.269531 L 649.039062 306.246094 L 646.109375 306.199219 L 642.464844 306.105469 L 639.820312 306.003906 L 637.746094 305.902344 L 635.960938 305.792969 L 633.960938 305.652344 L 631.386719 305.417969 L 629.816406 305.234375 L 628.742188 305.085938 L 627.527344 304.878906 L 626.671875 304.691406 L 625.671875 304.394531 L 624.957031 304.015625 L 624.742188 303.722656 Z M 624.742188 302.988281 "/>
<path style=" stroke:none;fill-rule:nonzero;fill:rgb(96.862745%,70.196078%,16.862745%);fill-opacity:1;" d="M 624.742188 309.429688 L 624.8125 309.425781 L 624.8125 309.339844 L 625.097656 309.152344 L 625.8125 308.890625 L 626.742188 308.675781 L 627.742188 308.507812 L 628.386719 308.421875 L 629.457031 308.296875 L 630.386719 308.203125 L 632.746094 308.011719 L 635.746094 307.835938 L 637.390625 307.761719 L 639.246094 307.691406 L 641.890625 307.609375 L 643.105469 307.582031 L 646.820312 307.515625 L 651.039062 307.472656 L 655.683594 307.460938 L 657.828125 307.464844 L 660.757812 307.480469 L 664.757812 307.527344 L 667.042969 307.566406 L 668.832031 307.609375 L 670.6875 307.664062 L 672.976562 307.75 L 675.121094 307.851562 L 676.835938 307.949219 L 678.550781 308.078125 L 679.980469 308.210938 L 681.191406 308.359375 L 682.265625 308.535156 L 682.910156 308.679688 L 683.335938 308.828125 L 673.40625 308.828125 L 672.832031 308.679688 L 672.191406 308.566406 L 671.117188 308.429688 L 670.046875 308.328125 L 668.972656 308.25 L 666.972656 308.140625 L 665.257812 308.074219 L 663.113281 308.011719 L 661.042969 307.976562 L 658.683594 307.949219 L 657.253906 307.941406 L 653.46875 307.941406 L 650.039062 307.972656 L 648.035156 308.003906 L 646.609375 308.039062 L 644.605469 308.101562 L 643.390625 308.152344 L 642.675781 308.1875 L 640.535156 308.316406 L 639.105469 308.433594 L 638.320312 308.511719 L 637.316406 308.640625 L 636.605469 308.753906 L 635.816406 308.921875 L 635.390625 309.046875 L 634.816406 309.332031 L 634.746094 310.089844 L 634.960938 310.25 L 635.390625 310.421875 L 635.960938 310.570312 L 636.816406 310.730469 L 637.675781 310.851562 L 639.175781 311.015625 L 640.460938 311.125 L 641.464844 311.199219 L 643.390625 311.3125 L 644.179688 311.347656 L 646.035156 311.425781 L 647.964844 311.484375 L 650.324219 311.535156 L 652.109375 311.558594 L 654.96875 311.578125 L 658.613281 311.578125 L 662.898438 311.554688 L 665.617188 311.519531 L 667.472656 311.488281 L 668.6875 311.457031 L 670.1875 311.410156 L 671.261719 311.371094 L 672.261719 311.324219 L 673.476562 311.253906 L 673.476562 310.25 L 655.824219 310.242188 L 655.824219 309.773438 L 683.265625 309.769531 L 683.335938 311.410156 L 681.835938 311.523438 L 679.980469 311.632812 L 678.191406 311.71875 L 676.335938 311.789062 L 673.691406 311.871094 L 671.546875 311.921875 L 668.257812 311.980469 L 665.257812 312.015625 L 662.113281 312.042969 L 659.328125 312.054688 L 656.039062 312.058594 L 653.109375 312.050781 L 649.964844 312.023438 L 647.464844 311.992188 L 645.179688 311.949219 L 642.890625 311.894531 L 640.035156 311.804688 L 638.175781 311.734375 L 636.246094 311.648438 L 634.316406 311.542969 L 632.601562 311.429688 L 631.457031 311.339844 L 630.316406 311.238281 L 629.101562 311.113281 L 627.957031 310.972656 L 627.101562 310.839844 L 626.3125 310.695312 L 625.742188 310.554688 L 625.171875 310.367188 L 624.882812 310.214844 L 624.742188 310.085938 Z M 624.742188 309.429688 "/>
<path style=" stroke:none;fill-rule:nonzero;fill:rgb(83.921569%,15.686275%,22.352941%);fill-opacity:1;" d="M 624.742188 289.289062 L 683.335938 289.289062 L 683.335938 290.355469 L 658.917969 290.367188 L 658.917969 299.269531 L 649.089844 299.269531 L 649.089844 290.375 L 648.949219 290.355469 L 624.742188 290.355469 Z M 624.742188 289.289062 "/>
<g style="fill:rgb(0%,0%,0%);fill-opacity:1;">
  <use xlink:href="#glyph0-1" x="21.957031" y="318.198242"/>
  <use xlink:href="#glyph0-2" x="27.291016" y="318.198242"/>
  <use xlink:href="#glyph0-1" x="29.958008" y="318.198242"/>
</g>
<g style="fill:rgb(0%,0%,0%);fill-opacity:1;">
  <use xlink:href="#glyph0-1" x="21.957031" y="244.225586"/>
  <use xlink:href="#glyph0-2" x="27.291016" y="244.225586"/>
  <use xlink:href="#glyph0-3" x="29.958008" y="244.225586"/>
</g>
<g style="fill:rgb(0%,0%,0%);fill-opacity:1;">
  <use xlink:href="#glyph0-4" x="21.957031" y="170.25293"/>
  <use xlink:href="#glyph0-2" x="27.291016" y="170.25293"/>
  <use xlink:href="#glyph0-1" x="29.958008" y="170.25293"/>
</g>
<g style="fill:rgb(0%,0%,0%);fill-opacity:1;">
  <use xlink:href="#glyph0-4" x="21.957031" y="96.280273"/>
  <use xlink:href="#glyph0-2" x="27.291016" y="96.280273"/>
  <use xlink:href="#glyph0-3" x="29.958008" y="96.280273"/>
</g>
<g style="fill:rgb(0%,0%,0%);fill-opacity:1;">
  <use xlink:href="#glyph0-5" x="21.957031" y="22.307617"/>
  <use xlink:href="#glyph0-2" x="27.291016" y="22.307617"/>
  <use xlink:href="#glyph0-1" x="29.958008" y="22.307617"/>
</g>
<g style="fill:rgb(0%,0%,0%);fill-opacity:1;">
  <use xlink:href="#glyph0-4" x="95.925781" y="338.19043"/>
</g>
<g style="fill:rgb(0%,0%,0%);fill-opacity:1;">
  <use xlink:href="#glyph0-5" x="157.605469" y="338.19043"/>
</g>
<g style="fill:rgb(0%,0%,0%);fill-opacity:1;">
  <use xlink:href="#glyph0-6" x="219.285156" y="338.19043"/>
</g>
<g style="fill:rgb(0%,0%,0%);fill-opacity:1;">
  <use xlink:href="#glyph0-7" x="280.964844" y="338.19043"/>
</g>
<g style="fill:rgb(0%,0%,0%);fill-opacity:1;">
  <use xlink:href="#glyph0-3" x="342.644531" y="338.19043"/>
</g>
<g style="fill:rgb(0%,0%,0%);fill-opacity:1;">
  <use xlink:href="#glyph0-8" x="404.324219" y="338.19043"/>
</g>
<g style="fill:rgb(0%,0%,0%);fill-opacity:1;">
  <use xlink:href="#glyph0-9" x="466" y="338.19043"/>
</g>
<g style="fill:rgb(0%,0%,0%);fill-opacity:1;">
  <use xlink:href="#glyph0-10" x="527.679688" y="338.19043"/>
</g>
<g style="fill:rgb(0%,0%,0%);fill-opacity:1;">
  <use xlink:href="#glyph0-11" x="589.359375" y="338.19043"/>
</g>
<g style="fill:rgb(0%,0%,0%);fill-opacity:1;">
  <use xlink:href="#glyph0-4" x="648.539062" y="338.19043"/>
  <use xlink:href="#glyph0-1" x="653.873047" y="338.19043"/>
</g>
<g style="fill:rgb(0%,0%,0%);fill-opacity:1;">
  <use xlink:href="#glyph1-1" x="14.412109" y="178.015625"/>
  <use xlink:href="#glyph1-2" x="14.412109" y="170.011719"/>
  <use xlink:href="#glyph1-3" x="14.412109" y="167.347656"/>
  <use xlink:href="#glyph1-4" x="14.412109" y="164.011719"/>
</g>
</g>
</svg>
