<?xml version="1.0" encoding="UTF-8"?>
<svg xmlns="http://www.w3.org/2000/svg" xmlns:xlink="http://www.w3.org/1999/xlink" width="720pt" height="360pt" viewBox="0 0 720 360" version="1.1">
<defs>
<g>
<symbol overflow="visible" id="glyph0-0">
<path style="stroke:none;" d=""/>
</symbol>
<symbol overflow="visible" id="glyph0-1">
<path style="stroke:none;" d="M 2.640625 -6.796875 C 2 -6.796875 1.421875 -6.53125 1.078125 -6.046875 C 0.640625 -5.453125 0.40625 -4.546875 0.40625 -3.296875 C 0.40625 -1 1.1875 0.21875 2.640625 0.21875 C 4.078125 0.21875 4.859375 -1 4.859375 -3.234375 C 4.859375 -4.5625 4.65625 -5.4375 4.203125 -6.046875 C 3.84375 -6.53125 3.28125 -6.796875 2.640625 -6.796875 Z M 2.640625 -6.046875 C 3.546875 -6.046875 4 -5.125 4 -3.3125 C 4 -1.375 3.5625 -0.484375 2.625 -0.484375 C 1.734375 -0.484375 1.28125 -1.421875 1.28125 -3.28125 C 1.28125 -5.140625 1.734375 -6.046875 2.640625 -6.046875 Z M 2.640625 -6.046875 "/>
</symbol>
<symbol overflow="visible" id="glyph0-2">
<path style="stroke:none;" d="M 1.828125 -1 L 0.828125 -1 L 0.828125 0 L 1.828125 0 Z M 1.828125 -1 "/>
</symbol>
<symbol overflow="visible" id="glyph0-3">
<path style="stroke:none;" d="M 4.5625 -6.796875 L 1.0625 -6.796875 L 0.546875 -3.09375 L 1.328125 -3.09375 C 1.71875 -3.5625 2.046875 -3.734375 2.578125 -3.734375 C 3.484375 -3.734375 4.0625 -3.109375 4.0625 -2.09375 C 4.0625 -1.125 3.484375 -0.53125 2.578125 -0.53125 C 1.828125 -0.53125 1.375 -0.90625 1.1875 -1.671875 L 0.328125 -1.671875 C 0.453125 -1.109375 0.546875 -0.84375 0.75 -0.59375 C 1.125 -0.078125 1.828125 0.21875 2.59375 0.21875 C 3.96875 0.21875 4.921875 -0.78125 4.921875 -2.21875 C 4.921875 -3.5625 4.03125 -4.484375 2.71875 -4.484375 C 2.25 -4.484375 1.859375 -4.359375 1.46875 -4.0625 L 1.734375 -5.96875 L 4.5625 -5.96875 Z M 4.5625 -6.796875 "/>
</symbol>
<symbol overflow="visible" id="glyph0-4">
<path style="stroke:none;" d="M 2.484375 -4.84375 L 2.484375 0 L 3.328125 0 L 3.328125 -6.796875 L 2.765625 -6.796875 C 2.46875 -5.75 2.28125 -5.609375 0.984375 -5.453125 L 0.984375 -4.84375 Z M 2.484375 -4.84375 "/>
</symbol>
<symbol overflow="visible" id="glyph0-5">
<path style="stroke:none;" d="M 4.859375 -0.828125 L 1.28125 -0.828125 C 1.359375 -1.390625 1.671875 -1.75 2.5 -2.234375 L 3.46875 -2.75 C 4.40625 -3.265625 4.90625 -3.96875 4.90625 -4.8125 C 4.90625 -5.375 4.671875 -5.90625 4.265625 -6.265625 C 3.859375 -6.625 3.375 -6.796875 2.71875 -6.796875 C 1.859375 -6.796875 1.21875 -6.5 0.84375 -5.921875 C 0.609375 -5.5625 0.5 -5.125 0.484375 -4.4375 L 1.328125 -4.4375 C 1.359375 -4.90625 1.40625 -5.1875 1.53125 -5.40625 C 1.75 -5.8125 2.1875 -6.0625 2.703125 -6.0625 C 3.46875 -6.0625 4.03125 -5.515625 4.03125 -4.78125 C 4.03125 -4.25 3.71875 -3.796875 3.125 -3.4375 L 2.234375 -2.9375 C 0.8125 -2.140625 0.40625 -1.5 0.328125 0 L 4.859375 0 Z M 4.859375 -0.828125 "/>
</symbol>
<symbol overflow="visible" id="glyph0-6">
<path style="stroke:none;" d="M 2.125 -3.125 L 2.578125 -3.125 C 3.515625 -3.125 3.984375 -2.703125 3.984375 -1.890625 C 3.984375 -1.03125 3.46875 -0.53125 2.578125 -0.53125 C 1.65625 -0.53125 1.203125 -0.984375 1.15625 -1.96875 L 0.3125 -1.96875 C 0.34375 -1.421875 0.4375 -1.078125 0.609375 -0.765625 C 0.953125 -0.109375 1.625 0.21875 2.546875 0.21875 C 3.953125 0.21875 4.859375 -0.609375 4.859375 -1.90625 C 4.859375 -2.765625 4.515625 -3.25 3.703125 -3.515625 C 4.34375 -3.765625 4.65625 -4.25 4.65625 -4.9375 C 4.65625 -6.109375 3.875 -6.796875 2.578125 -6.796875 C 1.203125 -6.796875 0.484375 -6.046875 0.453125 -4.609375 L 1.296875 -4.609375 C 1.3125 -5.015625 1.34375 -5.25 1.453125 -5.453125 C 1.640625 -5.828125 2.0625 -6.0625 2.59375 -6.0625 C 3.34375 -6.0625 3.796875 -5.625 3.796875 -4.90625 C 3.796875 -4.421875 3.609375 -4.140625 3.25 -3.984375 C 3.015625 -3.890625 2.71875 -3.84375 2.125 -3.84375 Z M 2.125 -3.125 "/>
</symbol>
<symbol overflow="visible" id="glyph0-7">
<path style="stroke:none;" d="M 3.140625 -1.625 L 3.140625 0 L 3.984375 0 L 3.984375 -1.625 L 4.984375 -1.625 L 4.984375 -2.390625 L 3.984375 -2.390625 L 3.984375 -6.796875 L 3.359375 -6.796875 L 0.265625 -2.515625 L 0.265625 -1.625 Z M 3.140625 -2.390625 L 1 -2.390625 L 3.140625 -5.359375 Z M 3.140625 -2.390625 "/>
</symbol>
<symbol overflow="visible" id="glyph0-8">
<path style="stroke:none;" d="M 4.78125 -5.03125 C 4.609375 -6.140625 3.890625 -6.796875 2.84375 -6.796875 C 2.09375 -6.796875 1.421875 -6.4375 1.03125 -5.828125 C 0.609375 -5.171875 0.40625 -4.34375 0.40625 -3.09375 C 0.40625 -1.953125 0.578125 -1.234375 0.984375 -0.625 C 1.359375 -0.078125 1.953125 0.21875 2.703125 0.21875 C 3.984375 0.21875 4.921875 -0.734375 4.921875 -2.078125 C 4.921875 -3.34375 4.0625 -4.234375 2.84375 -4.234375 C 2.171875 -4.234375 1.640625 -3.96875 1.28125 -3.46875 C 1.28125 -5.125 1.828125 -6.046875 2.796875 -6.046875 C 3.390625 -6.046875 3.796875 -5.671875 3.9375 -5.03125 Z M 2.734375 -3.484375 C 3.546875 -3.484375 4.0625 -2.921875 4.0625 -2 C 4.0625 -1.15625 3.484375 -0.53125 2.703125 -0.53125 C 1.921875 -0.53125 1.328125 -1.1875 1.328125 -2.046875 C 1.328125 -2.890625 1.90625 -3.484375 2.734375 -3.484375 Z M 2.734375 -3.484375 "/>
</symbol>
<symbol overflow="visible" id="glyph0-9">
<path style="stroke:none;" d="M 4.984375 -6.796875 L 0.4375 -6.796875 L 0.4375 -5.96875 L 4.109375 -5.96875 C 2.5 -3.65625 1.828125 -2.234375 1.328125 0 L 2.21875 0 C 2.59375 -2.171875 3.453125 -4.046875 4.984375 -6.09375 Z M 4.984375 -6.796875 "/>
</symbol>
<symbol overflow="visible" id="glyph0-10">
<path style="stroke:none;" d="M 3.75 -3.578125 C 4.453125 -4 4.6875 -4.34375 4.6875 -4.984375 C 4.6875 -6.046875 3.84375 -6.796875 2.640625 -6.796875 C 1.4375 -6.796875 0.59375 -6.046875 0.59375 -4.984375 C 0.59375 -4.359375 0.828125 -4.015625 1.515625 -3.578125 C 0.734375 -3.203125 0.359375 -2.640625 0.359375 -1.890625 C 0.359375 -0.640625 1.296875 0.21875 2.640625 0.21875 C 3.984375 0.21875 4.921875 -0.640625 4.921875 -1.875 C 4.921875 -2.640625 4.53125 -3.203125 3.75 -3.578125 Z M 2.640625 -6.046875 C 3.359375 -6.046875 3.8125 -5.625 3.8125 -4.96875 C 3.8125 -4.34375 3.34375 -3.921875 2.640625 -3.921875 C 1.921875 -3.921875 1.453125 -4.34375 1.453125 -4.984375 C 1.453125 -5.625 1.921875 -6.046875 2.640625 -6.046875 Z M 2.640625 -3.203125 C 3.484375 -3.203125 4.0625 -2.671875 4.0625 -1.875 C 4.0625 -1.0625 3.484375 -0.53125 2.625 -0.53125 C 1.796875 -0.53125 1.21875 -1.078125 1.21875 -1.875 C 1.21875 -2.671875 1.796875 -3.203125 2.640625 -3.203125 Z M 2.640625 -3.203125 "/>
</symbol>
<symbol overflow="visible" id="glyph1-0">
<path style="stroke:none;" d=""/>
</symbol>
<symbol overflow="visible" id="glyph1-1">
<path style="stroke:none;" d="M 0 -0.953125 L 0 -4.890625 C 0 -5.71875 -0.234375 -6.34375 -0.734375 -6.796875 C -1.1875 -7.234375 -1.8125 -7.46875 -2.5 -7.46875 C -3.546875 -7.46875 -4.1875 -7 -4.625 -5.875 C -4.984375 -6.671875 -5.640625 -7.09375 -6.53125 -7.09375 C -7.15625 -7.09375 -7.734375 -6.859375 -8.140625 -6.390625 C -8.5625 -5.9375 -8.75 -5.34375 -8.75 -4.5 L -8.75 -0.953125 Z M -4.984375 -2.0625 L -7.765625 -2.0625 L -7.765625 -4.21875 C -7.765625 -4.84375 -7.6875 -5.203125 -7.453125 -5.5 C -7.21875 -5.8125 -6.859375 -5.96875 -6.375 -5.96875 C -5.90625 -5.96875 -5.53125 -5.8125 -5.296875 -5.5 C -5.0625 -5.203125 -4.984375 -4.84375 -4.984375 -4.21875 Z M -0.984375 -2.0625 L -4 -2.0625 L -4 -4.78125 C -4 -5.328125 -3.859375 -5.6875 -3.578125 -5.953125 C -3.296875 -6.21875 -2.921875 -6.359375 -2.484375 -6.359375 C -2.0625 -6.359375 -1.6875 -6.21875 -1.40625 -5.953125 C -1.109375 -5.6875 -0.984375 -5.328125 -0.984375 -4.78125 Z M -0.984375 -2.0625 "/>
</symbol>
<symbol overflow="visible" id="glyph1-2">
<path style="stroke:none;" d="M -6.28125 -1.796875 L -6.28125 -0.796875 L 0 -0.796875 L 0 -1.796875 Z M -8.75 -1.796875 L -8.75 -0.796875 L -7.484375 -0.796875 L -7.484375 -1.796875 Z M -8.75 -1.796875 "/>
</symbol>
<symbol overflow="visible" id="glyph1-3">
<path style="stroke:none;" d="M -6.28125 -3.046875 L -6.28125 -2.015625 L -8.015625 -2.015625 L -8.015625 -1.015625 L -6.28125 -1.015625 L -6.28125 -0.171875 L -5.46875 -0.171875 L -5.46875 -1.015625 L -0.71875 -1.015625 C -0.078125 -1.015625 0.28125 -1.453125 0.28125 -2.234375 C 0.28125 -2.46875 0.25 -2.71875 0.1875 -3.046875 L -0.640625 -3.046875 C -0.609375 -2.921875 -0.59375 -2.765625 -0.59375 -2.5625 C -0.59375 -2.140625 -0.71875 -2.015625 -1.15625 -2.015625 L -5.46875 -2.015625 L -5.46875 -3.046875 Z M -6.28125 -3.046875 "/>
</symbol>
<symbol overflow="visible" id="glyph1-4">
<path style="stroke:none;" d="M -4.53125 -5.25 C -5.765625 -5.25 -6.46875 -4.421875 -6.46875 -2.96875 C -6.46875 -1.515625 -5.71875 -0.5625 -4.546875 -0.5625 C -3.5625 -0.5625 -3.09375 -1.0625 -2.734375 -2.5625 L -2.515625 -3.484375 C -2.34375 -4.1875 -2.09375 -4.46875 -1.625 -4.46875 C -1.046875 -4.46875 -0.640625 -3.875 -0.640625 -3 C -0.640625 -2.453125 -0.796875 -2 -1.0625 -1.75 C -1.25 -1.59375 -1.421875 -1.53125 -1.875 -1.46875 L -1.875 -0.40625 C -0.421875 -0.453125 0.28125 -1.265625 0.28125 -2.921875 C 0.28125 -4.5 -0.5 -5.515625 -1.71875 -5.515625 C -2.65625 -5.515625 -3.171875 -4.984375 -3.46875 -3.734375 L -3.703125 -2.765625 C -3.890625 -1.953125 -4.15625 -1.609375 -4.59375 -1.609375 C -5.171875 -1.609375 -5.546875 -2.125 -5.546875 -2.9375 C -5.546875 -3.75 -5.203125 -4.171875 -4.53125 -4.203125 Z M -4.53125 -5.25 "/>
</symbol>
</g>
</defs>
<g id="surface102222">
<rect x="0" y="0" width="720" height="360" style="fill:rgb(100%,100%,100%);fill-opacity:1;stroke:none;"/>
<path style=" stroke:none;fill-rule:nonzero;fill:rgb(6.27451%,58.823529%,28.235294%);fill-opacity:1;" d="M 69.628906 311.386719 L 69.707031 311.359375 L 101.441406 285.027344 L 111.078125 285.027344 L 142.964844 311.410156 L 131.761719 311.410156 L 123.769531 304.523438 L 88.746094 304.523438 L 80.910156 311.386719 L 69.628906 311.386719 L 92.117188 301.675781 L 120.558594 301.648438 L 106.375 289.339844 L 106.21875 289.3125 L 106.0625 289.386719 L 92.039062 301.648438 L 92.117188 301.675781 Z M 69.628906 311.386719 "/>
<path style=" stroke:none;fill-rule:nonzero;fill:rgb(96.862745%,70.196078%,16.862745%);fill-opacity:1;" d="M 69.628906 312.960938 L 69.71875 312.960938 L 69.71875 312.945312 L 70.078125 312.910156 L 70.972656 312.859375 L 72.132812 312.820312 L 73.386719 312.789062 L 74.191406 312.769531 L 75.53125 312.746094 L 76.695312 312.730469 L 79.644531 312.695312 L 83.402344 312.660156 L 85.460938 312.644531 L 87.785156 312.632812 L 91.09375 312.617188 L 92.613281 312.613281 L 97.265625 312.597656 L 102.542969 312.589844 L 111.039062 312.589844 L 114.703125 312.59375 L 119.710938 312.601562 L 122.574219 312.609375 L 124.808594 312.617188 L 127.136719 312.628906 L 129.996094 312.644531 L 132.679688 312.664062 L 134.828125 312.683594 L 136.972656 312.707031 L 138.761719 312.730469 L 140.28125 312.757812 L 141.625 312.792969 L 142.429688 312.820312 L 142.964844 312.847656 L 130.535156 312.847656 L 129.820312 312.820312 L 129.015625 312.800781 L 127.671875 312.773438 L 126.332031 312.753906 L 124.988281 312.738281 L 122.484375 312.71875 L 120.339844 312.707031 L 117.65625 312.695312 L 115.0625 312.6875 L 112.109375 312.683594 L 110.320312 312.679688 L 105.582031 312.679688 L 101.289062 312.6875 L 98.785156 312.691406 L 96.996094 312.699219 L 94.492188 312.710938 L 92.972656 312.71875 L 89.394531 312.75 L 87.605469 312.773438 L 86.621094 312.789062 L 85.371094 312.8125 L 84.476562 312.832031 L 83.492188 312.867188 L 82.953125 312.890625 L 82.238281 312.945312 L 82.148438 313.085938 L 82.417969 313.117188 L 82.953125 313.148438 L 83.671875 313.179688 L 84.742188 313.207031 L 85.816406 313.230469 L 87.695312 313.261719 L 89.304688 313.28125 L 90.558594 313.296875 L 92.972656 313.316406 L 93.957031 313.324219 L 96.28125 313.339844 L 98.695312 313.351562 L 101.648438 313.359375 L 103.882812 313.363281 L 107.460938 313.367188 L 112.019531 313.367188 L 117.386719 313.363281 L 120.785156 313.359375 L 123.109375 313.351562 L 124.632812 313.347656 L 126.507812 313.335938 L 127.851562 313.328125 L 129.101562 313.320312 L 130.625 313.308594 L 130.625 313.117188 L 108.535156 313.117188 L 108.535156 313.027344 L 142.875 313.027344 L 142.964844 313.335938 L 141.085938 313.359375 L 138.761719 313.378906 L 136.527344 313.394531 L 134.199219 313.410156 L 130.890625 313.421875 L 128.207031 313.433594 L 124.09375 313.445312 L 120.339844 313.453125 L 116.402344 313.457031 L 112.914062 313.457031 L 108.800781 313.460938 L 105.136719 313.457031 L 101.199219 313.453125 L 98.070312 313.445312 L 92.34375 313.429688 L 88.769531 313.410156 L 86.441406 313.398438 L 84.027344 313.382812 L 81.613281 313.363281 L 79.46875 313.339844 L 78.035156 313.324219 L 76.605469 313.304688 L 75.085938 313.28125 L 73.652344 313.253906 L 72.582031 313.230469 L 71.597656 313.203125 L 70.882812 313.175781 L 70.164062 313.140625 L 69.808594 313.109375 L 69.628906 313.085938 Z M 69.628906 312.960938 "/>
<path style=" stroke:none;fill-rule:nonzero;fill:rgb(83.921569%,15.686275%,22.352941%);fill-opacity:1;" d="M 69.628906 87.773438 L 142.964844 87.773438 L 142.964844 108.761719 L 112.402344 108.945312 L 112.402344 283.847656 L 100.105469 283.847656 L 100.105469 109.128906 L 99.925781 108.761719 L 69.628906 108.761719 Z M 69.628906 87.773438 "/>
<path style=" stroke:none;fill-rule:nonzero;fill:rgb(6.27451%,58.823529%,28.235294%);fill-opacity:1;" d="M 146.824219 313.464844 L 146.902344 313.460938 L 178.636719 306.351562 L 188.273438 306.351562 L 220.160156 313.472656 L 208.957031 313.472656 L 200.964844 311.613281 L 165.941406 311.613281 L 158.109375 313.464844 L 146.824219 313.464844 L 169.3125 310.847656 L 197.753906 310.839844 L 183.570312 307.515625 L 183.414062 307.507812 L 183.257812 307.53125 L 169.234375 310.839844 L 169.3125 310.847656 Z M 146.824219 313.464844 "/>
<path style=" stroke:none;fill-rule:nonzero;fill:rgb(96.862745%,70.196078%,16.862745%);fill-opacity:1;" d="M 146.824219 295.589844 L 146.914062 295.574219 L 146.914062 295.265625 L 147.273438 294.578125 L 148.167969 293.628906 L 149.328125 292.847656 L 150.582031 292.234375 L 151.386719 291.914062 L 152.726562 291.453125 L 153.890625 291.117188 L 156.84375 290.429688 L 160.597656 289.785156 L 162.65625 289.507812 L 164.980469 289.25 L 168.289062 288.957031 L 169.808594 288.851562 L 174.460938 288.605469 L 179.738281 288.453125 L 185.550781 288.40625 L 188.234375 288.421875 L 191.898438 288.484375 L 196.910156 288.652344 L 199.769531 288.804688 L 202.007812 288.957031 L 204.332031 289.15625 L 207.195312 289.464844 L 209.875 289.832031 L 212.023438 290.199219 L 214.167969 290.65625 L 215.957031 291.148438 L 217.476562 291.683594 L 218.820312 292.328125 L 219.625 292.863281 L 220.160156 293.398438 L 207.730469 293.398438 L 207.015625 292.863281 L 206.210938 292.449219 L 204.867188 291.945312 L 203.527344 291.578125 L 202.183594 291.285156 L 199.679688 290.886719 L 197.535156 290.640625 L 194.851562 290.429688 L 192.257812 290.289062 L 189.304688 290.199219 L 187.519531 290.167969 L 182.777344 290.167969 L 178.484375 290.273438 L 175.980469 290.398438 L 174.191406 290.519531 L 171.6875 290.75 L 170.167969 290.933594 L 169.273438 291.054688 L 166.589844 291.53125 L 164.800781 291.960938 L 163.816406 292.25 L 162.566406 292.710938 L 161.671875 293.121094 L 160.6875 293.734375 L 160.152344 294.195312 L 159.433594 295.234375 L 159.347656 297.992188 L 159.613281 298.574219 L 160.152344 299.203125 L 160.867188 299.753906 L 161.941406 300.335938 L 163.011719 300.777344 L 164.890625 301.375 L 166.5 301.773438 L 167.753906 302.035156 L 170.167969 302.449219 L 171.152344 302.585938 L 173.476562 302.859375 L 175.890625 303.074219 L 178.84375 303.257812 L 181.078125 303.351562 L 184.65625 303.429688 L 189.21875 303.429688 L 194.582031 303.335938 L 197.980469 303.214844 L 200.308594 303.089844 L 201.828125 302.984375 L 203.707031 302.816406 L 205.046875 302.664062 L 206.300781 302.492188 L 207.820312 302.234375 L 207.820312 298.574219 L 185.730469 298.558594 L 185.730469 296.84375 L 220.070312 296.828125 L 220.160156 302.816406 L 218.285156 303.230469 L 215.957031 303.625 L 213.722656 303.933594 L 211.398438 304.195312 L 208.085938 304.484375 L 205.40625 304.667969 L 201.289062 304.882812 L 197.535156 305.019531 L 193.597656 305.113281 L 190.113281 305.15625 L 185.996094 305.171875 L 182.332031 305.144531 L 178.394531 305.050781 L 175.265625 304.929688 L 172.402344 304.773438 L 169.542969 304.578125 L 165.964844 304.253906 L 163.640625 303.996094 L 161.222656 303.671875 L 158.808594 303.289062 L 156.664062 302.875 L 155.230469 302.554688 L 153.800781 302.1875 L 152.28125 301.726562 L 150.851562 301.207031 L 149.777344 300.734375 L 148.792969 300.195312 L 148.078125 299.691406 L 147.363281 299.003906 L 147.003906 298.453125 L 146.824219 297.976562 Z M 146.824219 295.589844 "/>
<path style=" stroke:none;fill-rule:nonzero;fill:rgb(83.921569%,15.686275%,22.352941%);fill-opacity:1;" d="M 146.824219 91.449219 L 220.160156 91.449219 L 220.160156 112.40625 L 189.597656 112.589844 L 189.597656 287.226562 L 177.300781 287.226562 L 177.300781 112.773438 L 177.121094 112.40625 L 146.824219 112.40625 Z M 146.824219 91.449219 "/>
<path style=" stroke:none;fill-rule:nonzero;fill:rgb(6.27451%,58.823529%,28.235294%);fill-opacity:1;" d="M 224.019531 277.128906 L 224.097656 277.03125 L 255.832031 174.839844 L 265.46875 174.839844 L 297.355469 277.222656 L 286.152344 277.222656 L 278.160156 250.5 L 243.140625 250.5 L 235.304688 277.128906 L 224.019531 277.128906 L 246.507812 239.441406 L 274.949219 239.347656 L 260.769531 191.570312 L 260.609375 191.472656 L 260.453125 191.761719 L 246.429688 239.347656 L 246.507812 239.441406 Z M 224.019531 277.128906 "/>
<path style=" stroke:none;fill-rule:nonzero;fill:rgb(14.509804%,36.078431%,60%);fill-opacity:1;" d="M 224.019531 286.09375 L 224.109375 286.078125 L 224.109375 285.691406 L 224.378906 285.074219 L 225.003906 284.300781 L 225.632812 283.765625 L 227.242188 282.8125 L 229.476562 281.894531 L 231.800781 281.183594 L 233.5 280.761719 L 235.023438 280.4375 L 238.507812 279.839844 L 240.746094 279.535156 L 243.160156 279.257812 L 246.113281 278.984375 L 248.257812 278.824219 L 253.085938 278.566406 L 256.664062 278.453125 L 259.4375 278.402344 L 265.429688 278.402344 L 269.007812 278.46875 L 271.601562 278.546875 L 274.460938 278.675781 L 276.875 278.824219 L 281.082031 279.179688 L 284.835938 279.632812 L 286.535156 279.890625 L 289.21875 280.390625 L 291.277344 280.875 L 292.707031 281.296875 L 294.316406 281.894531 L 295.746094 282.621094 L 296.820312 283.445312 L 297.355469 284.140625 L 284.835938 284.140625 L 284.210938 283.492188 L 283.496094 282.992188 L 282.152344 282.328125 L 280.8125 281.859375 L 278.933594 281.390625 L 277.234375 281.085938 L 274.910156 280.777344 L 272.851562 280.585938 L 270.707031 280.4375 L 268.648438 280.34375 L 264.714844 280.246094 L 260.152344 280.246094 L 258.453125 280.277344 L 254.964844 280.40625 L 253.085938 280.519531 L 250.40625 280.746094 L 248.527344 280.957031 L 246.289062 281.277344 L 244.769531 281.554688 L 242.890625 281.972656 L 241.550781 282.34375 L 240.03125 282.878906 L 239.136719 283.28125 L 238.332031 283.734375 L 237.613281 284.269531 L 237.078125 284.832031 L 236.722656 285.429688 L 236.542969 286.011719 L 236.542969 288.515625 L 236.722656 289.097656 L 237.167969 289.777344 L 238.332031 290.761719 L 240.03125 291.621094 L 241.996094 292.296875 L 243.875 292.78125 L 244.949219 293.007812 L 246.378906 293.265625 L 248.617188 293.589844 L 251.835938 293.914062 L 253.714844 294.042969 L 256.574219 294.171875 L 259.527344 294.238281 L 263.460938 294.238281 L 266.949219 294.171875 L 269.273438 294.089844 L 271.691406 293.960938 L 275 293.6875 L 277.054688 293.429688 L 278.84375 293.121094 L 280.1875 292.816406 L 281.082031 292.554688 L 282.421875 292.054688 L 283.496094 291.507812 L 284.300781 290.941406 L 284.835938 290.390625 L 297.355469 290.390625 L 296.820312 291.039062 L 296.015625 291.667969 L 295.210938 292.136719 L 293.957031 292.703125 L 292.527344 293.203125 L 290.472656 293.769531 L 288.773438 294.140625 L 286.535156 294.542969 L 284.480469 294.851562 L 282.242188 295.125 L 278.933594 295.449219 L 276.789062 295.609375 L 274.460938 295.753906 L 271.691406 295.882812 L 268.203125 295.996094 L 264.445312 296.0625 L 260.957031 296.078125 L 257.203125 296.046875 L 254.429688 295.980469 L 250.761719 295.835938 L 246.199219 295.546875 L 242.890625 295.238281 L 240.296875 294.929688 L 238.0625 294.609375 L 235.558594 294.171875 L 232.339844 293.460938 L 230.371094 292.910156 L 229.03125 292.460938 L 227.507812 291.828125 L 226.4375 291.265625 L 225.183594 290.359375 L 224.289062 289.210938 L 224.019531 288.324219 Z M 224.019531 286.09375 "/>
<path style=" stroke:none;fill-rule:nonzero;fill:rgb(96.862745%,70.196078%,16.862745%);fill-opacity:1;" d="M 224.019531 303.742188 L 224.109375 303.730469 L 224.109375 303.453125 L 224.46875 302.832031 L 225.363281 301.972656 L 226.523438 301.269531 L 227.777344 300.714844 L 228.582031 300.425781 L 229.925781 300.011719 L 231.085938 299.707031 L 234.039062 299.082031 L 237.792969 298.503906 L 239.851562 298.253906 L 242.175781 298.019531 L 245.484375 297.757812 L 247.003906 297.660156 L 251.65625 297.4375 L 256.933594 297.300781 L 262.746094 297.257812 L 265.429688 297.273438 L 269.097656 297.328125 L 274.105469 297.480469 L 276.964844 297.617188 L 279.203125 297.757812 L 281.527344 297.9375 L 284.390625 298.210938 L 287.074219 298.542969 L 289.21875 298.875 L 291.367188 299.289062 L 293.152344 299.734375 L 294.675781 300.21875 L 296.015625 300.796875 L 296.820312 301.28125 L 297.355469 301.765625 L 284.925781 301.765625 L 284.210938 301.28125 L 283.40625 300.910156 L 282.0625 300.453125 L 280.722656 300.121094 L 279.382812 299.859375 L 276.875 299.5 L 274.730469 299.277344 L 272.046875 299.082031 L 269.453125 298.960938 L 266.503906 298.875 L 264.714844 298.847656 L 259.972656 298.847656 L 255.679688 298.945312 L 253.175781 299.054688 L 251.386719 299.167969 L 248.882812 299.375 L 247.363281 299.539062 L 246.46875 299.652344 L 243.785156 300.078125 L 241.996094 300.464844 L 241.015625 300.730469 L 239.761719 301.144531 L 238.867188 301.515625 L 237.882812 302.070312 L 237.347656 302.484375 L 236.632812 303.425781 L 236.542969 305.914062 L 236.808594 306.441406 L 237.347656 307.007812 L 238.0625 307.503906 L 239.136719 308.03125 L 240.207031 308.433594 L 242.085938 308.972656 L 243.695312 309.332031 L 244.949219 309.566406 L 247.363281 309.9375 L 248.347656 310.0625 L 250.671875 310.3125 L 253.085938 310.507812 L 256.039062 310.671875 L 258.273438 310.753906 L 261.851562 310.824219 L 266.414062 310.824219 L 271.777344 310.742188 L 275.175781 310.628906 L 277.503906 310.519531 L 279.023438 310.421875 L 280.902344 310.269531 L 282.242188 310.132812 L 283.496094 309.980469 L 285.015625 309.746094 L 285.015625 306.441406 L 262.925781 306.425781 L 262.925781 304.878906 L 297.269531 304.863281 L 297.355469 310.269531 L 295.480469 310.644531 L 293.152344 311.003906 L 290.917969 311.28125 L 288.59375 311.515625 L 285.285156 311.777344 L 282.601562 311.945312 L 278.488281 312.136719 L 274.730469 312.261719 L 270.796875 312.34375 L 267.308594 312.386719 L 263.195312 312.402344 L 259.527344 312.375 L 255.589844 312.289062 L 252.460938 312.179688 L 249.597656 312.042969 L 246.738281 311.863281 L 243.160156 311.570312 L 240.835938 311.335938 L 238.421875 311.046875 L 236.003906 310.699219 L 233.859375 310.328125 L 232.429688 310.035156 L 230.996094 309.703125 L 229.476562 309.289062 L 228.046875 308.820312 L 226.972656 308.390625 L 225.988281 307.90625 L 225.273438 307.449219 L 224.558594 306.828125 L 224.199219 306.328125 L 224.019531 305.902344 Z M 224.019531 303.742188 "/>
<path style=" stroke:none;fill-rule:nonzero;fill:rgb(83.921569%,15.686275%,22.352941%);fill-opacity:1;" d="M 224.019531 313.582031 L 297.355469 313.582031 L 297.355469 313.664062 L 266.792969 313.664062 L 266.792969 314.371094 L 254.496094 314.371094 L 254.496094 313.667969 L 254.316406 313.664062 L 224.019531 313.664062 Z M 224.019531 313.582031 "/>
<path style=" stroke:none;fill-rule:nonzero;fill:rgb(6.27451%,58.823529%,28.235294%);fill-opacity:1;" d="M 301.21875 305.65625 L 301.296875 305.652344 L 333.027344 301.398438 L 342.664062 301.398438 L 374.554688 305.660156 L 363.347656 305.660156 L 355.355469 304.550781 L 320.335938 304.550781 L 312.5 305.65625 L 301.21875 305.65625 L 323.703125 304.089844 L 352.144531 304.085938 L 337.964844 302.09375 L 337.808594 302.089844 L 337.648438 302.101562 L 323.625 304.085938 L 323.703125 304.089844 Z M 301.21875 305.65625 "/>
<path style=" stroke:none;fill-rule:nonzero;fill:rgb(14.509804%,36.078431%,60%);fill-opacity:1;" d="M 301.21875 155.144531 L 301.304688 154.910156 L 301.304688 149.277344 L 301.574219 140.355469 L 302.199219 129.085938 L 302.828125 121.339844 L 304.4375 107.492188 L 306.671875 94.109375 L 308.996094 83.78125 L 310.695312 77.675781 L 312.21875 72.984375 L 315.707031 64.296875 L 317.941406 59.835938 L 320.355469 55.847656 L 323.308594 51.855469 L 325.453125 49.507812 L 330.285156 45.75 L 333.859375 44.109375 L 336.632812 43.40625 L 342.625 43.40625 L 346.203125 44.34375 L 348.796875 45.515625 L 351.65625 47.394531 L 354.074219 49.507812 L 358.277344 54.671875 L 362.03125 61.246094 L 363.730469 65 L 366.414062 72.277344 L 368.472656 79.320312 L 369.902344 85.425781 L 371.511719 94.109375 L 372.945312 104.671875 L 374.015625 116.644531 L 374.554688 126.738281 L 362.03125 126.738281 L 361.40625 117.351562 L 360.691406 110.074219 L 359.347656 100.449219 L 358.007812 93.640625 L 356.128906 86.832031 L 354.429688 82.371094 L 352.105469 77.914062 L 350.046875 75.09375 L 347.902344 72.984375 L 345.84375 71.574219 L 341.910156 70.164062 L 337.347656 70.164062 L 335.648438 70.636719 L 332.160156 72.511719 L 330.285156 74.15625 L 327.601562 77.441406 L 325.722656 80.496094 L 323.484375 85.191406 L 321.964844 89.179688 L 320.085938 95.285156 L 318.746094 100.683594 L 317.226562 108.429688 L 316.332031 114.296875 L 315.527344 120.871094 L 314.8125 128.617188 L 314.273438 136.835938 L 313.917969 145.519531 L 313.738281 153.972656 L 313.738281 190.355469 L 313.917969 198.808594 L 314.363281 208.667969 L 315.527344 222.988281 L 317.226562 235.429688 L 319.195312 245.289062 L 321.070312 252.332031 L 322.144531 255.617188 L 323.574219 259.371094 L 325.8125 264.066406 L 329.03125 268.761719 L 330.910156 270.640625 L 333.769531 272.519531 L 336.722656 273.457031 L 340.65625 273.457031 L 344.144531 272.519531 L 346.472656 271.34375 L 348.886719 269.46875 L 352.195312 265.476562 L 354.25 261.71875 L 356.039062 257.261719 L 357.382812 252.800781 L 358.277344 249.042969 L 359.617188 241.765625 L 360.691406 233.785156 L 361.496094 225.570312 L 362.03125 217.585938 L 374.554688 217.585938 L 374.015625 226.976562 L 373.210938 236.132812 L 372.40625 242.941406 L 371.15625 251.15625 L 369.722656 258.433594 L 367.667969 266.648438 L 365.96875 272.050781 L 363.730469 277.917969 L 361.675781 282.378906 L 359.4375 286.367188 L 356.128906 291.0625 L 353.984375 293.410156 L 351.65625 295.523438 L 348.886719 297.402344 L 345.398438 299.046875 L 341.640625 299.984375 L 338.152344 300.21875 L 334.398438 299.75 L 331.625 298.8125 L 327.957031 296.699219 L 323.398438 292.472656 L 320.085938 288.011719 L 317.496094 283.550781 L 315.257812 278.855469 L 312.753906 272.519531 L 309.535156 262.191406 L 307.566406 254.207031 L 306.226562 247.636719 L 304.707031 238.480469 L 303.632812 230.265625 L 302.378906 217.117188 L 301.484375 200.449219 L 301.21875 187.539062 Z M 301.21875 155.144531 "/>
<path style=" stroke:none;fill-rule:nonzero;fill:rgb(96.862745%,70.196078%,16.862745%);fill-opacity:1;" d="M 301.21875 308.203125 L 301.304688 308.199219 L 301.304688 308.140625 L 301.664062 308.011719 L 302.558594 307.832031 L 303.722656 307.683594 L 304.972656 307.566406 L 305.777344 307.503906 L 307.121094 307.417969 L 308.28125 307.355469 L 311.234375 307.222656 L 314.988281 307.101562 L 317.046875 307.050781 L 319.371094 307 L 322.679688 306.945312 L 324.203125 306.925781 L 328.851562 306.878906 L 334.128906 306.851562 L 339.941406 306.839844 L 342.625 306.84375 L 346.292969 306.855469 L 351.300781 306.886719 L 354.164062 306.917969 L 356.398438 306.945312 L 358.722656 306.984375 L 361.585938 307.042969 L 364.269531 307.109375 L 366.414062 307.179688 L 368.5625 307.269531 L 370.351562 307.359375 L 371.871094 307.460938 L 373.210938 307.582031 L 374.015625 307.683594 L 374.554688 307.785156 L 362.121094 307.785156 L 361.40625 307.683594 L 360.601562 307.605469 L 359.261719 307.511719 L 357.917969 307.441406 L 356.578125 307.386719 L 354.074219 307.3125 L 351.925781 307.265625 L 349.242188 307.222656 L 346.648438 307.199219 L 343.699219 307.179688 L 341.910156 307.175781 L 337.167969 307.175781 L 332.875 307.195312 L 330.371094 307.21875 L 328.585938 307.242188 L 326.078125 307.285156 L 324.558594 307.320312 L 323.664062 307.34375 L 320.980469 307.433594 L 319.195312 307.515625 L 318.210938 307.570312 L 316.957031 307.65625 L 316.0625 307.734375 L 315.078125 307.851562 L 314.542969 307.9375 L 313.828125 308.132812 L 313.738281 308.65625 L 314.007812 308.765625 L 314.542969 308.886719 L 315.257812 308.988281 L 316.332031 309.101562 L 317.40625 309.183594 L 319.28125 309.296875 L 320.894531 309.371094 L 322.144531 309.421875 L 324.558594 309.5 L 325.542969 309.527344 L 327.867188 309.578125 L 330.285156 309.617188 L 333.234375 309.652344 L 335.46875 309.671875 L 339.046875 309.6875 L 343.609375 309.6875 L 348.976562 309.667969 L 352.375 309.644531 L 354.699219 309.621094 L 356.21875 309.601562 L 358.097656 309.570312 L 359.4375 309.539062 L 360.691406 309.507812 L 362.210938 309.460938 L 362.210938 308.765625 L 340.121094 308.765625 L 340.121094 308.4375 L 374.464844 308.4375 L 374.554688 309.570312 L 372.675781 309.648438 L 370.351562 309.722656 L 368.113281 309.78125 L 365.789062 309.832031 L 362.480469 309.886719 L 359.796875 309.921875 L 355.683594 309.960938 L 351.925781 309.988281 L 347.992188 310.003906 L 344.503906 310.011719 L 340.390625 310.015625 L 336.722656 310.011719 L 332.789062 309.992188 L 329.65625 309.96875 L 326.796875 309.941406 L 323.933594 309.902344 L 320.355469 309.84375 L 318.03125 309.792969 L 315.617188 309.730469 L 313.203125 309.660156 L 311.054688 309.582031 L 309.625 309.519531 L 308.191406 309.449219 L 306.671875 309.363281 L 305.242188 309.265625 L 304.167969 309.175781 L 303.183594 309.074219 L 302.46875 308.976562 L 301.753906 308.847656 L 301.394531 308.742188 L 301.21875 308.652344 Z M 301.21875 308.203125 "/>
<path style=" stroke:none;fill-rule:nonzero;fill:rgb(83.921569%,15.686275%,22.352941%);fill-opacity:1;" d="M 301.21875 311.195312 L 374.554688 311.195312 L 374.554688 311.535156 L 343.988281 311.539062 L 343.988281 314.371094 L 331.691406 314.371094 L 331.691406 311.542969 L 331.515625 311.535156 L 301.21875 311.535156 Z M 301.21875 311.195312 "/>
<path style=" stroke:none;fill-rule:nonzero;fill:rgb(6.27451%,58.823529%,28.235294%);fill-opacity:1;" d="M 378.414062 312.65625 L 378.492188 312.65625 L 410.222656 310.414062 L 419.859375 310.414062 L 451.75 312.660156 L 440.546875 312.660156 L 432.554688 312.074219 L 397.53125 312.074219 L 389.695312 312.65625 L 378.414062 312.65625 L 400.898438 311.832031 L 429.339844 311.828125 L 415.160156 310.78125 L 415.003906 310.78125 L 414.847656 310.785156 L 400.820312 311.828125 L 400.898438 311.832031 Z M 378.414062 312.65625 "/>
<path style=" stroke:none;fill-rule:nonzero;fill:rgb(14.509804%,36.078431%,60%);fill-opacity:1;" d="M 378.414062 314.070312 L 378.503906 314.070312 L 378.503906 314.058594 L 378.769531 314.039062 L 379.398438 314.015625 L 380.023438 314 L 381.632812 313.972656 L 383.867188 313.945312 L 386.195312 313.921875 L 387.894531 313.910156 L 389.414062 313.898438 L 392.902344 313.882812 L 395.136719 313.871094 L 397.550781 313.863281 L 400.503906 313.855469 L 402.648438 313.851562 L 407.480469 313.84375 L 411.054688 313.839844 L 423.398438 313.839844 L 425.992188 313.84375 L 428.855469 313.847656 L 431.269531 313.851562 L 435.472656 313.863281 L 439.226562 313.875 L 440.925781 313.882812 L 443.609375 313.898438 L 445.667969 313.914062 L 447.097656 313.925781 L 448.707031 313.945312 L 450.140625 313.964844 L 451.210938 313.992188 L 451.75 314.011719 L 439.226562 314.011719 L 438.601562 313.992188 L 437.886719 313.976562 L 436.546875 313.957031 L 435.203125 313.941406 L 433.324219 313.929688 L 431.625 313.917969 L 429.300781 313.910156 L 427.246094 313.902344 L 425.097656 313.898438 L 423.039062 313.898438 L 419.105469 313.894531 L 412.84375 313.894531 L 409.355469 313.898438 L 407.480469 313.902344 L 404.796875 313.910156 L 402.917969 313.914062 L 400.683594 313.925781 L 399.160156 313.933594 L 397.285156 313.945312 L 395.941406 313.957031 L 394.421875 313.972656 L 393.527344 313.984375 L 392.722656 314 L 392.007812 314.015625 L 391.46875 314.03125 L 391.113281 314.050781 L 390.933594 314.066406 L 390.933594 314.144531 L 391.113281 314.160156 L 391.558594 314.179688 L 392.722656 314.210938 L 394.421875 314.238281 L 396.390625 314.257812 L 398.265625 314.269531 L 399.339844 314.277344 L 400.773438 314.285156 L 403.007812 314.296875 L 406.226562 314.304688 L 408.105469 314.308594 L 410.96875 314.3125 L 413.917969 314.316406 L 417.855469 314.316406 L 421.339844 314.3125 L 423.667969 314.3125 L 426.082031 314.308594 L 429.390625 314.296875 L 431.449219 314.289062 L 433.234375 314.28125 L 434.578125 314.273438 L 435.472656 314.265625 L 436.8125 314.25 L 437.886719 314.234375 L 438.691406 314.214844 L 439.226562 314.199219 L 451.75 314.199219 L 451.210938 314.21875 L 450.40625 314.238281 L 449.601562 314.253906 L 448.351562 314.269531 L 446.917969 314.285156 L 444.863281 314.300781 L 443.164062 314.3125 L 440.925781 314.324219 L 438.871094 314.332031 L 436.636719 314.34375 L 433.324219 314.351562 L 431.179688 314.355469 L 428.855469 314.359375 L 426.082031 314.363281 L 422.59375 314.367188 L 418.835938 314.371094 L 411.59375 314.371094 L 408.820312 314.367188 L 405.152344 314.363281 L 400.59375 314.355469 L 397.285156 314.34375 L 394.691406 314.335938 L 392.453125 314.328125 L 389.949219 314.3125 L 386.730469 314.292969 L 384.761719 314.273438 L 383.421875 314.261719 L 381.902344 314.242188 L 380.828125 314.226562 L 379.574219 314.199219 L 378.679688 314.164062 L 378.414062 314.136719 Z M 378.414062 314.070312 "/>
<path style=" stroke:none;fill-rule:nonzero;fill:rgb(96.862745%,70.196078%,16.862745%);fill-opacity:1;" d="M 378.414062 147.070312 L 378.503906 146.820312 L 378.503906 141.839844 L 378.859375 130.636719 L 379.753906 115.195312 L 380.917969 102.496094 L 382.167969 92.535156 L 382.972656 87.304688 L 384.316406 79.835938 L 385.476562 74.355469 L 388.429688 63.148438 L 392.1875 52.691406 L 394.242188 48.207031 L 396.566406 43.976562 L 399.878906 39.242188 L 401.398438 37.5 L 406.046875 33.515625 L 411.324219 31.027344 L 417.136719 30.277344 L 419.820312 30.527344 L 423.488281 31.523438 L 428.496094 34.261719 L 431.359375 36.753906 L 433.59375 39.242188 L 435.917969 42.480469 L 438.78125 47.460938 L 441.464844 53.4375 L 443.609375 59.414062 L 445.757812 66.886719 L 447.546875 74.855469 L 449.066406 83.570312 L 450.40625 94.027344 L 451.210938 102.746094 L 451.75 111.460938 L 439.316406 111.460938 L 438.601562 102.746094 L 437.796875 96.019531 L 436.457031 87.804688 L 435.113281 81.828125 L 433.773438 77.09375 L 431.269531 70.621094 L 429.121094 66.636719 L 426.4375 63.148438 L 423.847656 60.910156 L 420.894531 59.414062 L 419.105469 58.917969 L 414.367188 58.917969 L 410.074219 60.660156 L 407.570312 62.652344 L 405.78125 64.644531 L 403.277344 68.378906 L 401.753906 71.367188 L 400.859375 73.359375 L 398.179688 81.078125 L 396.390625 88.050781 L 395.40625 92.785156 L 394.152344 100.253906 L 393.257812 106.976562 L 392.277344 116.9375 L 391.738281 124.410156 L 391.023438 141.34375 L 390.933594 186.167969 L 391.203125 195.628906 L 391.738281 205.839844 L 392.453125 214.804688 L 393.527344 224.269531 L 394.601562 231.488281 L 396.480469 241.203125 L 398.089844 247.675781 L 399.339844 251.910156 L 401.753906 258.632812 L 402.738281 260.875 L 405.066406 265.355469 L 407.480469 268.84375 L 410.429688 271.832031 L 412.667969 273.324219 L 416.242188 274.570312 L 420.804688 274.570312 L 426.171875 273.078125 L 429.570312 271.085938 L 431.894531 269.09375 L 433.414062 267.347656 L 435.292969 264.609375 L 436.636719 262.121094 L 437.886719 259.378906 L 439.40625 255.148438 L 439.40625 195.628906 L 417.316406 195.382812 L 417.316406 167.492188 L 451.660156 167.242188 L 451.75 264.609375 L 449.871094 271.332031 L 447.546875 277.808594 L 445.308594 282.789062 L 442.984375 287.023438 L 439.675781 291.753906 L 436.992188 294.742188 L 432.878906 298.226562 L 429.121094 300.46875 L 425.1875 301.964844 L 421.699219 302.710938 L 417.585938 302.960938 L 413.917969 302.460938 L 409.984375 300.96875 L 406.851562 298.976562 L 403.992188 296.484375 L 401.128906 293.246094 L 397.550781 288.019531 L 395.226562 283.785156 L 392.8125 278.554688 L 390.398438 272.328125 L 388.25 265.605469 L 386.820312 260.375 L 385.390625 254.398438 L 383.867188 246.929688 L 382.4375 238.460938 L 381.363281 230.742188 L 380.378906 222.027344 L 379.664062 213.808594 L 378.949219 202.601562 L 378.59375 193.636719 L 378.414062 185.917969 Z M 378.414062 147.070312 "/>
<path style=" stroke:none;fill-rule:nonzero;fill:rgb(83.921569%,15.686275%,22.352941%);fill-opacity:1;" d="M 378.414062 304.140625 L 451.75 304.140625 L 451.75 304.683594 L 421.183594 304.691406 L 421.183594 309.234375 L 408.886719 309.234375 L 408.886719 304.695312 L 408.710938 304.683594 L 378.414062 304.683594 Z M 378.414062 304.140625 "/>
<path style=" stroke:none;fill-rule:nonzero;fill:rgb(6.27451%,58.823529%,28.235294%);fill-opacity:1;" d="M 455.609375 313.191406 L 455.6875 313.191406 L 487.417969 311.71875 L 497.054688 311.71875 L 528.945312 313.191406 L 517.742188 313.191406 L 509.75 312.808594 L 474.726562 312.808594 L 466.890625 313.191406 L 455.609375 313.191406 L 478.09375 312.648438 L 506.535156 312.648438 L 492.355469 311.960938 L 492.199219 311.960938 L 492.042969 311.964844 L 478.015625 312.648438 L 478.09375 312.648438 Z M 455.609375 313.191406 "/>
<path style=" stroke:none;fill-rule:nonzero;fill:rgb(96.862745%,70.196078%,16.862745%);fill-opacity:1;" d="M 455.609375 308.183594 L 455.699219 308.179688 L 455.699219 308.105469 L 456.054688 307.933594 L 456.949219 307.703125 L 458.113281 307.511719 L 459.367188 307.359375 L 460.171875 307.28125 L 461.511719 307.167969 L 462.675781 307.085938 L 465.625 306.914062 L 469.382812 306.757812 L 471.4375 306.6875 L 473.765625 306.625 L 477.074219 306.554688 L 478.59375 306.527344 L 483.246094 306.464844 L 488.519531 306.429688 L 494.335938 306.417969 L 497.015625 306.421875 L 500.683594 306.4375 L 505.691406 306.476562 L 508.554688 306.515625 L 510.789062 306.554688 L 513.117188 306.601562 L 515.976562 306.675781 L 518.660156 306.769531 L 520.804688 306.859375 L 522.953125 306.972656 L 524.742188 307.09375 L 526.261719 307.222656 L 527.605469 307.382812 L 528.410156 307.511719 L 528.945312 307.644531 L 516.515625 307.644531 L 515.796875 307.511719 L 514.992188 307.410156 L 513.652344 307.289062 L 512.308594 307.199219 L 510.96875 307.125 L 508.464844 307.027344 L 506.316406 306.96875 L 503.636719 306.914062 L 501.042969 306.882812 L 498.089844 306.859375 L 496.300781 306.851562 L 491.5625 306.851562 L 487.269531 306.878906 L 484.765625 306.90625 L 482.976562 306.9375 L 480.472656 306.992188 L 478.953125 307.039062 L 478.058594 307.070312 L 475.375 307.1875 L 473.585938 307.292969 L 472.601562 307.363281 L 471.347656 307.476562 L 470.457031 307.578125 L 469.472656 307.726562 L 468.933594 307.839844 L 468.21875 308.097656 L 468.128906 308.773438 L 468.398438 308.917969 L 468.933594 309.074219 L 469.648438 309.207031 L 470.722656 309.351562 L 471.796875 309.460938 L 473.675781 309.605469 L 475.285156 309.703125 L 476.535156 309.769531 L 478.953125 309.871094 L 479.933594 309.90625 L 482.261719 309.972656 L 484.675781 310.023438 L 487.625 310.070312 L 489.863281 310.09375 L 493.441406 310.113281 L 498 310.113281 L 503.367188 310.089844 L 506.765625 310.058594 L 509.089844 310.027344 L 510.609375 310.003906 L 512.488281 309.960938 L 513.832031 309.921875 L 515.082031 309.882812 L 516.601562 309.816406 L 516.601562 308.917969 L 494.511719 308.914062 L 494.511719 308.492188 L 528.855469 308.488281 L 528.945312 309.960938 L 527.066406 310.0625 L 524.742188 310.160156 L 522.507812 310.234375 L 520.179688 310.300781 L 516.871094 310.371094 L 514.1875 310.417969 L 510.074219 310.46875 L 506.316406 310.503906 L 502.382812 310.527344 L 498.894531 310.539062 L 494.78125 310.539062 L 491.113281 310.535156 L 487.179688 310.511719 L 484.050781 310.480469 L 481.1875 310.441406 L 478.324219 310.394531 L 474.746094 310.316406 L 472.421875 310.25 L 470.007812 310.171875 L 467.59375 310.078125 L 465.445312 309.976562 L 464.015625 309.898438 L 462.585938 309.808594 L 461.066406 309.695312 L 459.632812 309.566406 L 458.558594 309.449219 L 457.578125 309.316406 L 456.859375 309.191406 L 456.144531 309.023438 L 455.789062 308.886719 L 455.609375 308.769531 Z M 455.609375 308.183594 "/>
<path style=" stroke:none;fill-rule:nonzero;fill:rgb(83.921569%,15.686275%,22.352941%);fill-opacity:1;" d="M 455.609375 20.664062 L 528.945312 20.664062 L 528.945312 51.125 L 498.382812 51.390625 L 498.382812 305.238281 L 486.085938 305.238281 L 486.085938 51.660156 L 485.90625 51.125 L 455.609375 51.125 Z M 455.609375 20.664062 "/>
<path style=" stroke:none;fill-rule:nonzero;fill:rgb(6.27451%,58.823529%,28.235294%);fill-opacity:1;" d="M 532.804688 307.832031 L 532.882812 307.800781 L 564.617188 275.96875 L 574.253906 275.96875 L 606.140625 307.863281 L 594.9375 307.863281 L 586.945312 299.539062 L 551.921875 299.539062 L 544.085938 307.832031 L 532.804688 307.832031 L 555.292969 296.09375 L 583.734375 296.0625 L 569.550781 281.179688 L 569.394531 281.152344 L 569.238281 281.242188 L 555.214844 296.0625 L 555.292969 296.09375 Z M 532.804688 307.832031 "/>
<path style=" stroke:none;fill-rule:nonzero;fill:rgb(14.509804%,36.078431%,60%);fill-opacity:1;" d="M 532.804688 313.25 L 532.894531 313.246094 L 532.894531 313.203125 L 533.164062 313.132812 L 533.789062 313.046875 L 534.414062 312.988281 L 536.023438 312.878906 L 538.261719 312.777344 L 540.585938 312.695312 L 542.285156 312.648438 L 543.804688 312.613281 L 547.292969 312.546875 L 549.527344 312.511719 L 551.945312 312.480469 L 554.894531 312.449219 L 557.042969 312.429688 L 561.871094 312.402344 L 565.449219 312.390625 L 568.222656 312.382812 L 574.214844 312.382812 L 577.789062 312.390625 L 580.382812 312.398438 L 583.246094 312.414062 L 585.660156 312.429688 L 589.863281 312.472656 L 593.621094 312.523438 L 595.320312 312.550781 L 598.003906 312.605469 L 600.058594 312.660156 L 601.492188 312.707031 L 603.101562 312.777344 L 604.53125 312.859375 L 605.605469 312.949219 L 606.140625 313.027344 L 593.621094 313.027344 L 592.996094 312.957031 L 592.277344 312.898438 L 590.9375 312.824219 L 589.597656 312.773438 L 587.71875 312.71875 L 586.019531 312.683594 L 583.691406 312.652344 L 581.636719 312.628906 L 579.488281 312.613281 L 577.433594 312.601562 L 573.496094 312.589844 L 568.9375 312.589844 L 567.238281 312.59375 L 563.75 312.609375 L 561.871094 312.621094 L 559.1875 312.648438 L 557.308594 312.671875 L 555.074219 312.707031 L 553.554688 312.738281 L 551.675781 312.785156 L 550.335938 312.828125 L 548.8125 312.886719 L 547.917969 312.933594 L 547.113281 312.984375 L 546.398438 313.042969 L 545.863281 313.105469 L 545.503906 313.171875 L 545.324219 313.238281 L 545.324219 313.519531 L 545.503906 313.585938 L 545.953125 313.664062 L 547.113281 313.773438 L 548.8125 313.871094 L 550.78125 313.945312 L 552.660156 314 L 553.734375 314.027344 L 555.164062 314.054688 L 557.398438 314.089844 L 560.617188 314.128906 L 562.496094 314.140625 L 565.359375 314.15625 L 568.308594 314.164062 L 572.246094 314.164062 L 575.734375 314.15625 L 578.058594 314.148438 L 580.472656 314.132812 L 583.78125 314.101562 L 585.839844 314.074219 L 587.628906 314.039062 L 588.96875 314.003906 L 589.863281 313.976562 L 591.207031 313.917969 L 592.277344 313.855469 L 593.082031 313.792969 L 593.621094 313.730469 L 606.140625 313.730469 L 605.605469 313.804688 L 604.800781 313.875 L 603.996094 313.925781 L 602.742188 313.992188 L 601.3125 314.046875 L 599.253906 314.109375 L 597.554688 314.152344 L 595.320312 314.199219 L 593.261719 314.234375 L 591.027344 314.261719 L 587.71875 314.300781 L 585.570312 314.316406 L 583.246094 314.335938 L 580.472656 314.347656 L 576.984375 314.363281 L 573.230469 314.367188 L 569.742188 314.371094 L 565.984375 314.367188 L 563.210938 314.359375 L 559.546875 314.34375 L 554.984375 314.3125 L 551.675781 314.277344 L 549.082031 314.242188 L 546.847656 314.207031 L 544.34375 314.15625 L 541.121094 314.078125 L 539.15625 314.015625 L 537.8125 313.964844 L 536.292969 313.894531 L 535.21875 313.828125 L 533.96875 313.726562 L 533.074219 313.597656 L 532.804688 313.5 Z M 532.804688 313.25 "/>
<path style=" stroke:none;fill-rule:nonzero;fill:rgb(96.862745%,70.196078%,16.862745%);fill-opacity:1;" d="M 532.804688 197.625 L 532.894531 197.503906 L 532.894531 195.039062 L 533.253906 189.492188 L 534.144531 181.847656 L 535.308594 175.5625 L 536.5625 170.632812 L 537.367188 168.042969 L 538.707031 164.34375 L 539.871094 161.632812 L 542.820312 156.085938 L 546.578125 150.910156 L 548.636719 148.691406 L 550.960938 146.59375 L 554.269531 144.253906 L 555.789062 143.390625 L 560.441406 141.417969 L 565.714844 140.183594 L 571.53125 139.816406 L 574.214844 139.9375 L 577.878906 140.429688 L 582.886719 141.785156 L 585.75 143.019531 L 587.984375 144.253906 L 590.3125 145.855469 L 593.171875 148.320312 L 595.855469 151.277344 L 598.003906 154.238281 L 600.148438 157.933594 L 601.9375 161.878906 L 603.457031 166.195312 L 604.800781 171.371094 L 605.605469 175.683594 L 606.140625 180 L 593.710938 180 L 592.996094 175.683594 L 592.1875 172.355469 L 590.847656 168.289062 L 589.507812 165.332031 L 588.164062 162.988281 L 585.660156 159.785156 L 583.515625 157.8125 L 580.832031 156.085938 L 578.238281 154.976562 L 575.285156 154.238281 L 573.496094 153.992188 L 568.757812 153.992188 L 564.464844 154.851562 L 561.960938 155.839844 L 560.171875 156.824219 L 557.667969 158.675781 L 556.148438 160.152344 L 555.253906 161.140625 L 552.570312 164.960938 L 550.78125 168.414062 L 549.796875 170.753906 L 548.546875 174.453125 L 547.652344 177.78125 L 546.667969 182.710938 L 546.128906 186.410156 L 545.414062 194.792969 L 545.324219 216.980469 L 545.59375 221.664062 L 546.128906 226.71875 L 546.847656 231.15625 L 547.917969 235.839844 L 548.992188 239.414062 L 550.871094 244.21875 L 552.480469 247.425781 L 553.734375 249.519531 L 556.148438 252.847656 L 557.132812 253.957031 L 559.457031 256.175781 L 561.871094 257.902344 L 564.824219 259.382812 L 567.058594 260.121094 L 570.636719 260.738281 L 575.195312 260.738281 L 580.5625 260 L 583.960938 259.011719 L 586.285156 258.027344 L 587.808594 257.164062 L 589.683594 255.808594 L 591.027344 254.574219 L 592.277344 253.21875 L 593.800781 251.125 L 593.800781 221.664062 L 571.707031 221.539062 L 571.707031 207.734375 L 606.050781 207.609375 L 606.140625 255.808594 L 604.261719 259.136719 L 601.9375 262.339844 L 599.703125 264.804688 L 597.375 266.902344 L 594.066406 269.242188 L 591.382812 270.722656 L 587.269531 272.449219 L 583.515625 273.558594 L 579.578125 274.296875 L 576.089844 274.667969 L 571.976562 274.789062 L 568.308594 274.542969 L 564.375 273.804688 L 561.246094 272.816406 L 558.382812 271.585938 L 555.519531 269.984375 L 551.945312 267.394531 L 549.617188 265.300781 L 547.203125 262.710938 L 544.789062 259.628906 L 542.644531 256.300781 L 541.210938 253.710938 L 539.78125 250.753906 L 538.261719 247.054688 L 536.828125 242.863281 L 535.757812 239.042969 L 534.773438 234.730469 L 534.058594 230.660156 L 533.339844 225.113281 L 532.984375 220.675781 L 532.804688 216.855469 Z M 532.804688 197.625 "/>
<path style=" stroke:none;fill-rule:nonzero;fill:rgb(83.921569%,15.686275%,22.352941%);fill-opacity:1;" d="M 532.804688 309.042969 L 606.140625 309.042969 L 606.140625 309.273438 L 575.578125 309.273438 L 575.578125 311.203125 L 563.28125 311.203125 L 563.28125 309.277344 L 563.101562 309.273438 L 532.804688 309.273438 Z M 532.804688 309.042969 "/>
<path style=" stroke:none;fill-rule:nonzero;fill:rgb(6.27451%,58.823529%,28.235294%);fill-opacity:1;" d="M 610 302.445312 L 610.078125 302.425781 L 641.8125 280.859375 L 651.449219 280.859375 L 683.335938 302.46875 L 672.132812 302.46875 L 664.140625 296.828125 L 629.117188 296.828125 L 621.285156 302.445312 L 610 302.445312 L 632.488281 294.492188 L 660.929688 294.472656 L 646.746094 284.390625 L 646.589844 284.371094 L 646.433594 284.429688 L 632.410156 294.472656 L 632.488281 294.492188 Z M 610 302.445312 "/>
<path style=" stroke:none;fill-rule:nonzero;fill:rgb(14.509804%,36.078431%,60%);fill-opacity:1;" d="M 610 306.390625 L 610.089844 306.382812 L 610.089844 306.246094 L 610.359375 306.027344 L 610.984375 305.75 L 611.609375 305.558594 L 613.21875 305.21875 L 615.457031 304.890625 L 617.78125 304.636719 L 619.480469 304.488281 L 621 304.371094 L 624.488281 304.160156 L 626.726562 304.050781 L 629.140625 303.953125 L 632.089844 303.855469 L 634.238281 303.796875 L 639.066406 303.703125 L 642.644531 303.664062 L 645.417969 303.648438 L 651.410156 303.648438 L 654.988281 303.667969 L 657.578125 303.699219 L 660.441406 303.746094 L 662.855469 303.796875 L 667.058594 303.921875 L 670.816406 304.085938 L 672.515625 304.175781 L 675.199219 304.355469 L 677.253906 304.527344 L 678.6875 304.679688 L 680.296875 304.890625 L 681.726562 305.148438 L 682.800781 305.445312 L 683.335938 305.691406 L 670.816406 305.691406 L 670.191406 305.460938 L 669.476562 305.28125 L 668.132812 305.046875 L 666.792969 304.878906 L 664.914062 304.710938 L 663.214844 304.601562 L 660.890625 304.492188 L 658.832031 304.425781 L 656.6875 304.371094 L 654.628906 304.339844 L 650.695312 304.304688 L 646.132812 304.304688 L 644.433594 304.316406 L 640.945312 304.359375 L 639.066406 304.402344 L 636.382812 304.480469 L 634.507812 304.558594 L 632.269531 304.671875 L 630.75 304.769531 L 628.871094 304.917969 L 627.53125 305.050781 L 626.007812 305.242188 L 625.117188 305.386719 L 624.308594 305.546875 L 623.59375 305.738281 L 623.058594 305.941406 L 622.699219 306.152344 L 622.523438 306.359375 L 622.523438 307.253906 L 622.699219 307.460938 L 623.148438 307.703125 L 624.308594 308.054688 L 626.007812 308.359375 L 627.976562 308.601562 L 629.855469 308.773438 L 630.929688 308.855469 L 632.359375 308.945312 L 634.59375 309.0625 L 637.816406 309.175781 L 639.691406 309.222656 L 642.554688 309.269531 L 645.507812 309.292969 L 649.441406 309.292969 L 652.929688 309.269531 L 655.253906 309.242188 L 657.667969 309.195312 L 660.976562 309.097656 L 663.035156 309.003906 L 664.824219 308.894531 L 666.164062 308.785156 L 667.058594 308.695312 L 668.402344 308.515625 L 669.476562 308.320312 L 670.28125 308.117188 L 670.816406 307.921875 L 683.335938 307.921875 L 682.800781 308.152344 L 681.996094 308.375 L 681.191406 308.542969 L 679.9375 308.746094 L 678.507812 308.925781 L 676.449219 309.125 L 674.75 309.257812 L 672.515625 309.402344 L 670.457031 309.511719 L 668.222656 309.609375 L 664.914062 309.726562 L 662.765625 309.78125 L 660.441406 309.835938 L 657.667969 309.878906 L 654.179688 309.921875 L 650.425781 309.945312 L 646.9375 309.949219 L 643.179688 309.9375 L 640.410156 309.914062 L 636.742188 309.863281 L 632.179688 309.757812 L 628.871094 309.648438 L 626.277344 309.539062 L 624.042969 309.425781 L 621.539062 309.269531 L 618.316406 309.015625 L 616.351562 308.820312 L 615.007812 308.660156 L 613.488281 308.433594 L 612.414062 308.234375 L 611.164062 307.910156 L 610.269531 307.5 L 610 307.183594 Z M 610 306.390625 "/>
<path style=" stroke:none;fill-rule:nonzero;fill:rgb(96.862745%,70.196078%,16.862745%);fill-opacity:1;" d="M 610 312.515625 L 610.089844 312.515625 L 610.089844 312.457031 L 610.449219 312.320312 L 611.34375 312.136719 L 612.503906 311.988281 L 613.757812 311.867188 L 614.5625 311.808594 L 615.902344 311.71875 L 617.066406 311.652344 L 620.015625 311.519531 L 623.773438 311.394531 L 625.832031 311.34375 L 628.15625 311.292969 L 631.464844 311.234375 L 632.984375 311.214844 L 637.636719 311.167969 L 642.914062 311.136719 L 648.726562 311.128906 L 651.410156 311.132812 L 655.074219 311.144531 L 660.085938 311.175781 L 662.945312 311.207031 L 665.183594 311.234375 L 667.507812 311.273438 L 670.367188 311.332031 L 673.050781 311.402344 L 675.199219 311.476562 L 677.34375 311.5625 L 679.132812 311.660156 L 680.652344 311.761719 L 681.996094 311.886719 L 682.800781 311.992188 L 683.335938 312.09375 L 670.90625 312.09375 L 670.191406 311.992188 L 669.386719 311.910156 L 668.042969 311.8125 L 666.703125 311.742188 L 665.359375 311.683594 L 662.855469 311.609375 L 660.710938 311.5625 L 658.027344 311.519531 L 655.433594 311.492188 L 652.480469 311.476562 L 650.695312 311.46875 L 645.953125 311.46875 L 641.660156 311.488281 L 639.15625 311.515625 L 637.367188 311.539062 L 634.863281 311.582031 L 633.34375 311.617188 L 632.449219 311.640625 L 629.765625 311.734375 L 627.976562 311.816406 L 626.992188 311.871094 L 625.742188 311.960938 L 624.847656 312.039062 L 623.863281 312.160156 L 623.328125 312.246094 L 622.609375 312.449219 L 622.523438 312.980469 L 622.789062 313.09375 L 623.328125 313.214844 L 624.042969 313.324219 L 625.117188 313.433594 L 626.1875 313.519531 L 628.066406 313.636719 L 629.675781 313.714844 L 630.929688 313.765625 L 633.34375 313.84375 L 634.328125 313.871094 L 636.652344 313.921875 L 639.066406 313.964844 L 642.019531 314 L 644.253906 314.019531 L 647.832031 314.03125 L 652.394531 314.03125 L 657.757812 314.015625 L 661.15625 313.992188 L 663.484375 313.96875 L 665.003906 313.949219 L 666.882812 313.914062 L 668.222656 313.886719 L 669.476562 313.851562 L 670.996094 313.800781 L 670.996094 313.09375 L 648.90625 313.089844 L 648.90625 312.761719 L 683.246094 312.757812 L 683.335938 313.914062 L 681.457031 313.996094 L 679.132812 314.070312 L 676.898438 314.128906 L 674.574219 314.179688 L 671.261719 314.238281 L 668.582031 314.273438 L 664.464844 314.3125 L 660.710938 314.339844 L 656.773438 314.359375 L 653.285156 314.367188 L 649.171875 314.371094 L 645.507812 314.363281 L 641.570312 314.347656 L 638.441406 314.324219 L 635.578125 314.292969 L 632.71875 314.253906 L 629.140625 314.191406 L 626.816406 314.144531 L 624.398438 314.082031 L 621.984375 314.007812 L 619.839844 313.925781 L 618.40625 313.863281 L 616.976562 313.792969 L 615.457031 313.703125 L 614.027344 313.605469 L 612.953125 313.511719 L 611.96875 313.410156 L 611.253906 313.3125 L 610.539062 313.175781 L 610.179688 313.070312 L 610 312.980469 Z M 610 312.515625 "/>
<path style=" stroke:none;fill-rule:nonzero;fill:rgb(83.921569%,15.686275%,22.352941%);fill-opacity:1;" d="M 610 145.5 L 683.335938 145.5 L 683.335938 159.863281 L 652.773438 159.988281 L 652.773438 279.679688 L 640.476562 279.679688 L 640.476562 160.113281 L 640.296875 159.863281 L 610 159.863281 Z M 610 145.5 "/>
<g style="fill:rgb(0%,0%,0%);fill-opacity:1;">
  <use xlink:href="#glyph0-1" x="21.957031" y="318.198242"/>
  <use xlink:href="#glyph0-2" x="27.291016" y="318.198242"/>
  <use xlink:href="#glyph0-1" x="29.958008" y="318.198242"/>
</g>
<g style="fill:rgb(0%,0%,0%);fill-opacity:1;">
  <use xlink:href="#glyph0-1" x="21.957031" y="234.366211"/>
  <use xlink:href="#glyph0-2" x="27.291016" y="234.366211"/>
  <use xlink:href="#glyph0-3" x="29.958008" y="234.366211"/>
</g>
<g style="fill:rgb(0%,0%,0%);fill-opacity:1;">
  <use xlink:href="#glyph0-4" x="21.957031" y="150.53418"/>
  <use xlink:href="#glyph0-2" x="27.291016" y="150.53418"/>
  <use xlink:href="#glyph0-1" x="29.958008" y="150.53418"/>
</g>
<g style="fill:rgb(0%,0%,0%);fill-opacity:1;">
  <use xlink:href="#glyph0-4" x="21.957031" y="66.706055"/>
  <use xlink:href="#glyph0-2" x="27.291016" y="66.706055"/>
  <use xlink:href="#glyph0-3" x="29.958008" y="66.706055"/>
</g>
<g style="fill:rgb(0%,0%,0%);fill-opacity:1;">
  <use xlink:href="#glyph0-4" x="103.296875" y="338.19043"/>
</g>
<g style="fill:rgb(0%,0%,0%);fill-opacity:1;">
  <use xlink:href="#glyph0-5" x="180.492188" y="338.19043"/>
</g>
<g style="fill:rgb(0%,0%,0%);fill-opacity:1;">
  <use xlink:href="#glyph0-6" x="257.6875" y="338.19043"/>
</g>
<g style="fill:rgb(0%,0%,0%);fill-opacity:1;">
  <use xlink:href="#glyph0-7" x="334.886719" y="338.19043"/>
</g>
<g style="fill:rgb(0%,0%,0%);fill-opacity:1;">
  <use xlink:href="#glyph0-3" x="412.082031" y="338.19043"/>
</g>
<g style="fill:rgb(0%,0%,0%);fill-opacity:1;">
  <use xlink:href="#glyph0-8" x="489.277344" y="338.19043"/>
</g>
<g style="fill:rgb(0%,0%,0%);fill-opacity:1;">
  <use xlink:href="#glyph0-9" x="566.472656" y="338.19043"/>
</g>
<g style="fill:rgb(0%,0%,0%);fill-opacity:1;">
  <use xlink:href="#glyph0-10" x="643.667969" y="338.19043"/>
</g>
<g style="fill:rgb(0%,0%,0%);fill-opacity:1;">
  <use xlink:href="#glyph1-1" x="14.412109" y="178.015625"/>
  <use xlink:href="#glyph1-2" x="14.412109" y="170.011719"/>
  <use xlink:href="#glyph1-3" x="14.412109" y="167.347656"/>
  <use xlink:href="#glyph1-4" x="14.412109" y="164.011719"/>
</g>
</g>
</svg>
