<?xml version="1.0" encoding="UTF-8"?>
<svg xmlns="http://www.w3.org/2000/svg" xmlns:xlink="http://www.w3.org/1999/xlink" width="720pt" height="360pt" viewBox="0 0 720 360" version="1.1">
<defs>
<g>
<symbol overflow="visible" id="glyph0-0">
<path style="stroke:none;" d=""/>
</symbol>
<symbol overflow="visible" id="glyph0-1">
<path style="stroke:none;" d="M 2.640625 -6.796875 C 2 -6.796875 1.421875 -6.53125 1.078125 -6.046875 C 0.640625 -5.453125 0.40625 -4.546875 0.40625 -3.296875 C 0.40625 -1 1.1875 0.21875 2.640625 0.21875 C 4.078125 0.21875 4.859375 -1 4.859375 -3.234375 C 4.859375 -4.5625 4.65625 -5.4375 4.203125 -6.046875 C 3.84375 -6.53125 3.28125 -6.796875 2.640625 -6.796875 Z M 2.640625 -6.046875 C 3.546875 -6.046875 4 -5.125 4 -3.3125 C 4 -1.375 3.5625 -0.484375 2.625 -0.484375 C 1.734375 -0.484375 1.28125 -1.421875 1.28125 -3.28125 C 1.28125 -5.140625 1.734375 -6.046875 2.640625 -6.046875 Z M 2.640625 -6.046875 "/>
</symbol>
<symbol overflow="visible" id="glyph0-2">
<path style="stroke:none;" d="M 1.828125 -1 L 0.828125 -1 L 0.828125 0 L 1.828125 0 Z M 1.828125 -1 "/>
</symbol>
<symbol overflow="visible" id="glyph0-3">
<path style="stroke:none;" d="M 4.5625 -6.796875 L 1.0625 -6.796875 L 0.546875 -3.09375 L 1.328125 -3.09375 C 1.71875 -3.5625 2.046875 -3.734375 2.578125 -3.734375 C 3.484375 -3.734375 4.0625 -3.109375 4.0625 -2.09375 C 4.0625 -1.125 3.484375 -0.53125 2.578125 -0.53125 C 1.828125 -0.53125 1.375 -0.90625 1.1875 -1.671875 L 0.328125 -1.671875 C 0.453125 -1.109375 0.546875 -0.84375 0.75 -0.59375 C 1.125 -0.078125 1.828125 0.21875 2.59375 0.21875 C 3.96875 0.21875 4.921875 -0.78125 4.921875 -2.21875 C 4.921875 -3.5625 4.03125 -4.484375 2.71875 -4.484375 C 2.25 -4.484375 1.859375 -4.359375 1.46875 -4.0625 L 1.734375 -5.96875 L 4.5625 -5.96875 Z M 4.5625 -6.796875 "/>
</symbol>
<symbol overflow="visible" id="glyph0-4">
<path style="stroke:none;" d="M 2.484375 -4.84375 L 2.484375 0 L 3.328125 0 L 3.328125 -6.796875 L 2.765625 -6.796875 C 2.46875 -5.75 2.28125 -5.609375 0.984375 -5.453125 L 0.984375 -4.84375 Z M 2.484375 -4.84375 "/>
</symbol>
<symbol overflow="visible" id="glyph0-5">
<path style="stroke:none;" d="M 4.859375 -0.828125 L 1.28125 -0.828125 C 1.359375 -1.390625 1.671875 -1.75 2.5 -2.234375 L 3.46875 -2.75 C 4.40625 -3.265625 4.90625 -3.96875 4.90625 -4.8125 C 4.90625 -5.375 4.671875 -5.90625 4.265625 -6.265625 C 3.859375 -6.625 3.375 -6.796875 2.71875 -6.796875 C 1.859375 -6.796875 1.21875 -6.5 0.84375 -5.921875 C 0.609375 -5.5625 0.5 -5.125 0.484375 -4.4375 L 1.328125 -4.4375 C 1.359375 -4.90625 1.40625 -5.1875 1.53125 -5.40625 C 1.75 -5.8125 2.1875 -6.0625 2.703125 -6.0625 C 3.46875 -6.0625 4.03125 -5.515625 4.03125 -4.78125 C 4.03125 -4.25 3.71875 -3.796875 3.125 -3.4375 L 2.234375 -2.9375 C 0.8125 -2.140625 0.40625 -1.5 0.328125 0 L 4.859375 0 Z M 4.859375 -0.828125 "/>
</symbol>
<symbol overflow="visible" id="glyph0-6">
<path style="stroke:none;" d="M 2.125 -3.125 L 2.578125 -3.125 C 3.515625 -3.125 3.984375 -2.703125 3.984375 -1.890625 C 3.984375 -1.03125 3.46875 -0.53125 2.578125 -0.53125 C 1.65625 -0.53125 1.203125 -0.984375 1.15625 -1.96875 L 0.3125 -1.96875 C 0.34375 -1.421875 0.4375 -1.078125 0.609375 -0.765625 C 0.953125 -0.109375 1.625 0.21875 2.546875 0.21875 C 3.953125 0.21875 4.859375 -0.609375 4.859375 -1.90625 C 4.859375 -2.765625 4.515625 -3.25 3.703125 -3.515625 C 4.34375 -3.765625 4.65625 -4.25 4.65625 -4.9375 C 4.65625 -6.109375 3.875 -6.796875 2.578125 -6.796875 C 1.203125 -6.796875 0.484375 -6.046875 0.453125 -4.609375 L 1.296875 -4.609375 C 1.3125 -5.015625 1.34375 -5.25 1.453125 -5.453125 C 1.640625 -5.828125 2.0625 -6.0625 2.59375 -6.0625 C 3.34375 -6.0625 3.796875 -5.625 3.796875 -4.90625 C 3.796875 -4.421875 3.609375 -4.140625 3.25 -3.984375 C 3.015625 -3.890625 2.71875 -3.84375 2.125 -3.84375 Z M 2.125 -3.125 "/>
</symbol>
<symbol overflow="visible" id="glyph0-7">
<path style="stroke:none;" d="M 3.140625 -1.625 L 3.140625 0 L 3.984375 0 L 3.984375 -1.625 L 4.984375 -1.625 L 4.984375 -2.390625 L 3.984375 -2.390625 L 3.984375 -6.796875 L 3.359375 -6.796875 L 0.265625 -2.515625 L 0.265625 -1.625 Z M 3.140625 -2.390625 L 1 -2.390625 L 3.140625 -5.359375 Z M 3.140625 -2.390625 "/>
</symbol>
<symbol overflow="visible" id="glyph0-8">
<path style="stroke:none;" d="M 4.78125 -5.03125 C 4.609375 -6.140625 3.890625 -6.796875 2.84375 -6.796875 C 2.09375 -6.796875 1.421875 -6.4375 1.03125 -5.828125 C 0.609375 -5.171875 0.40625 -4.34375 0.40625 -3.09375 C 0.40625 -1.953125 0.578125 -1.234375 0.984375 -0.625 C 1.359375 -0.078125 1.953125 0.21875 2.703125 0.21875 C 3.984375 0.21875 4.921875 -0.734375 4.921875 -2.078125 C 4.921875 -3.34375 4.0625 -4.234375 2.84375 -4.234375 C 2.171875 -4.234375 1.640625 -3.96875 1.28125 -3.46875 C 1.28125 -5.125 1.828125 -6.046875 2.796875 -6.046875 C 3.390625 -6.046875 3.796875 -5.671875 3.9375 -5.03125 Z M 2.734375 -3.484375 C 3.546875 -3.484375 4.0625 -2.921875 4.0625 -2 C 4.0625 -1.15625 3.484375 -0.53125 2.703125 -0.53125 C 1.921875 -0.53125 1.328125 -1.1875 1.328125 -2.046875 C 1.328125 -2.890625 1.90625 -3.484375 2.734375 -3.484375 Z M 2.734375 -3.484375 "/>
</symbol>
<symbol overflow="visible" id="glyph0-9">
<path style="stroke:none;" d="M 4.984375 -6.796875 L 0.4375 -6.796875 L 0.4375 -5.96875 L 4.109375 -5.96875 C 2.5 -3.65625 1.828125 -2.234375 1.328125 0 L 2.21875 0 C 2.59375 -2.171875 3.453125 -4.046875 4.984375 -6.09375 Z M 4.984375 -6.796875 "/>
</symbol>
<symbol overflow="visible" id="glyph0-10">
<path style="stroke:none;" d="M 3.75 -3.578125 C 4.453125 -4 4.6875 -4.34375 4.6875 -4.984375 C 4.6875 -6.046875 3.84375 -6.796875 2.640625 -6.796875 C 1.4375 -6.796875 0.59375 -6.046875 0.59375 -4.984375 C 0.59375 -4.359375 0.828125 -4.015625 1.515625 -3.578125 C 0.734375 -3.203125 0.359375 -2.640625 0.359375 -1.890625 C 0.359375 -0.640625 1.296875 0.21875 2.640625 0.21875 C 3.984375 0.21875 4.921875 -0.640625 4.921875 -1.875 C 4.921875 -2.640625 4.53125 -3.203125 3.75 -3.578125 Z M 2.640625 -6.046875 C 3.359375 -6.046875 3.8125 -5.625 3.8125 -4.96875 C 3.8125 -4.34375 3.34375 -3.921875 2.640625 -3.921875 C 1.921875 -3.921875 1.453125 -4.34375 1.453125 -4.984375 C 1.453125 -5.625 1.921875 -6.046875 2.640625 -6.046875 Z M 2.640625 -3.203125 C 3.484375 -3.203125 4.0625 -2.671875 4.0625 -1.875 C 4.0625 -1.0625 3.484375 -0.53125 2.625 -0.53125 C 1.796875 -0.53125 1.21875 -1.078125 1.21875 -1.875 C 1.21875 -2.671875 1.796875 -3.203125 2.640625 -3.203125 Z M 2.640625 -3.203125 "/>
</symbol>
<symbol overflow="visible" id="glyph0-11">
<path style="stroke:none;" d="M 0.515625 -1.546875 C 0.671875 -0.4375 1.40625 0.21875 2.4375 0.21875 C 3.1875 0.21875 3.859375 -0.140625 4.265625 -0.75 C 4.6875 -1.40625 4.890625 -2.25 4.890625 -3.484375 C 4.890625 -4.625 4.703125 -5.359375 4.3125 -5.953125 C 3.9375 -6.5 3.34375 -6.796875 2.59375 -6.796875 C 1.296875 -6.796875 0.359375 -5.84375 0.359375 -4.515625 C 0.359375 -3.25 1.234375 -2.34375 2.453125 -2.34375 C 3.09375 -2.34375 3.5625 -2.578125 4.015625 -3.109375 C 4 -1.453125 3.46875 -0.53125 2.5 -0.53125 C 1.90625 -0.53125 1.484375 -0.90625 1.359375 -1.546875 Z M 2.578125 -6.0625 C 3.375 -6.0625 3.96875 -5.40625 3.96875 -4.53125 C 3.96875 -3.6875 3.375 -3.09375 2.546875 -3.09375 C 1.734375 -3.09375 1.234375 -3.671875 1.234375 -4.578125 C 1.234375 -5.4375 1.796875 -6.0625 2.578125 -6.0625 Z M 2.578125 -6.0625 "/>
</symbol>
<symbol overflow="visible" id="glyph1-0">
<path style="stroke:none;" d=""/>
</symbol>
<symbol overflow="visible" id="glyph1-1">
<path style="stroke:none;" d="M 0 -0.953125 L 0 -4.890625 C 0 -5.71875 -0.234375 -6.34375 -0.734375 -6.796875 C -1.1875 -7.234375 -1.8125 -7.46875 -2.5 -7.46875 C -3.546875 -7.46875 -4.1875 -7 -4.625 -5.875 C -4.984375 -6.671875 -5.640625 -7.09375 -6.53125 -7.09375 C -7.15625 -7.09375 -7.734375 -6.859375 -8.140625 -6.390625 C -8.5625 -5.9375 -8.75 -5.34375 -8.75 -4.5 L -8.75 -0.953125 Z M -4.984375 -2.0625 L -7.765625 -2.0625 L -7.765625 -4.21875 C -7.765625 -4.84375 -7.6875 -5.203125 -7.453125 -5.5 C -7.21875 -5.8125 -6.859375 -5.96875 -6.375 -5.96875 C -5.90625 -5.96875 -5.53125 -5.8125 -5.296875 -5.5 C -5.0625 -5.203125 -4.984375 -4.84375 -4.984375 -4.21875 Z M -0.984375 -2.0625 L -4 -2.0625 L -4 -4.78125 C -4 -5.328125 -3.859375 -5.6875 -3.578125 -5.953125 C -3.296875 -6.21875 -2.921875 -6.359375 -2.484375 -6.359375 C -2.0625 -6.359375 -1.6875 -6.21875 -1.40625 -5.953125 C -1.109375 -5.6875 -0.984375 -5.328125 -0.984375 -4.78125 Z M -0.984375 -2.0625 "/>
</symbol>
<symbol overflow="visible" id="glyph1-2">
<path style="stroke:none;" d="M -6.28125 -1.796875 L -6.28125 -0.796875 L 0 -0.796875 L 0 -1.796875 Z M -8.75 -1.796875 L -8.75 -0.796875 L -7.484375 -0.796875 L -7.484375 -1.796875 Z M -8.75 -1.796875 "/>
</symbol>
<symbol overflow="visible" id="glyph1-3">
<path style="stroke:none;" d="M -6.28125 -3.046875 L -6.28125 -2.015625 L -8.015625 -2.015625 L -8.015625 -1.015625 L -6.28125 -1.015625 L -6.28125 -0.171875 L -5.46875 -0.171875 L -5.46875 -1.015625 L -0.71875 -1.015625 C -0.078125 -1.015625 0.28125 -1.453125 0.28125 -2.234375 C 0.28125 -2.46875 0.25 -2.71875 0.1875 -3.046875 L -0.640625 -3.046875 C -0.609375 -2.921875 -0.59375 -2.765625 -0.59375 -2.5625 C -0.59375 -2.140625 -0.71875 -2.015625 -1.15625 -2.015625 L -5.46875 -2.015625 L -5.46875 -3.046875 Z M -6.28125 -3.046875 "/>
</symbol>
<symbol overflow="visible" id="glyph1-4">
<path style="stroke:none;" d="M -4.53125 -5.25 C -5.765625 -5.25 -6.46875 -4.421875 -6.46875 -2.96875 C -6.46875 -1.515625 -5.71875 -0.5625 -4.546875 -0.5625 C -3.5625 -0.5625 -3.09375 -1.0625 -2.734375 -2.5625 L -2.515625 -3.484375 C -2.34375 -4.1875 -2.09375 -4.46875 -1.625 -4.46875 C -1.046875 -4.46875 -0.640625 -3.875 -0.640625 -3 C -0.640625 -2.453125 -0.796875 -2 -1.0625 -1.75 C -1.25 -1.59375 -1.421875 -1.53125 -1.875 -1.46875 L -1.875 -0.40625 C -0.421875 -0.453125 0.28125 -1.265625 0.28125 -2.921875 C 0.28125 -4.5 -0.5 -5.515625 -1.71875 -5.515625 C -2.65625 -5.515625 -3.171875 -4.984375 -3.46875 -3.734375 L -3.703125 -2.765625 C -3.890625 -1.953125 -4.15625 -1.609375 -4.59375 -1.609375 C -5.171875 -1.609375 -5.546875 -2.125 -5.546875 -2.9375 C -5.546875 -3.75 -5.203125 -4.171875 -4.53125 -4.203125 Z M -4.53125 -5.25 "/>
</symbol>
</g>
</defs>
<g id="surface102596">
<rect x="0" y="0" width="720" height="360" style="fill:rgb(100%,100%,100%);fill-opacity:1;stroke:none;"/>
<path style=" stroke:none;fill-rule:nonzero;fill:rgb(6.27451%,58.823529%,28.235294%);fill-opacity:1;" d="M 69.628906 307.894531 L 69.691406 307.894531 L 95.046875 305.242188 L 102.746094 305.242188 L 128.222656 307.898438 L 119.273438 307.898438 L 112.886719 307.203125 L 84.902344 307.203125 L 78.644531 307.894531 L 69.628906 307.894531 L 87.597656 306.917969 L 110.320312 306.914062 L 98.988281 305.675781 L 98.863281 305.675781 L 98.738281 305.679688 L 87.535156 306.914062 L 87.597656 306.917969 Z M 69.628906 307.894531 "/>
<path style=" stroke:none;fill-rule:nonzero;fill:rgb(14.509804%,36.078431%,60%);fill-opacity:1;" d="M 69.628906 313.984375 L 69.699219 313.984375 L 69.699219 313.96875 L 69.914062 313.945312 L 70.414062 313.914062 L 70.914062 313.894531 L 72.203125 313.855469 L 73.988281 313.820312 L 75.847656 313.792969 L 77.203125 313.777344 L 78.417969 313.761719 L 81.207031 313.742188 L 82.992188 313.726562 L 84.921875 313.71875 L 87.28125 313.707031 L 88.996094 313.699219 L 92.851562 313.691406 L 95.710938 313.6875 L 97.925781 313.683594 L 102.714844 313.683594 L 105.574219 313.6875 L 107.644531 313.691406 L 109.929688 313.695312 L 111.859375 313.699219 L 115.21875 313.714844 L 118.21875 313.730469 L 119.578125 313.742188 L 121.722656 313.761719 L 123.367188 313.78125 L 124.507812 313.796875 L 125.796875 313.820312 L 126.9375 313.847656 L 127.796875 313.878906 L 128.222656 313.90625 L 118.21875 313.90625 L 117.71875 313.882812 L 117.148438 313.863281 L 116.078125 313.835938 L 115.003906 313.820312 L 113.503906 313.800781 L 112.148438 313.789062 L 110.289062 313.777344 L 108.644531 313.769531 L 106.929688 313.761719 L 105.285156 313.761719 L 102.140625 313.757812 L 97.140625 313.757812 L 94.355469 313.761719 L 92.851562 313.765625 L 90.710938 313.777344 L 89.207031 313.785156 L 87.421875 313.796875 L 86.207031 313.808594 L 84.707031 313.824219 L 83.636719 313.835938 L 82.421875 313.859375 L 81.707031 313.875 L 81.0625 313.890625 L 80.492188 313.914062 L 80.0625 313.933594 L 79.777344 313.957031 L 79.632812 313.980469 L 79.632812 314.078125 L 79.777344 314.101562 L 80.132812 314.125 L 81.0625 314.164062 L 82.421875 314.199219 L 83.992188 314.222656 L 85.492188 314.242188 L 86.351562 314.25 L 87.492188 314.261719 L 89.28125 314.273438 L 91.851562 314.285156 L 93.351562 314.292969 L 95.640625 314.296875 L 97.996094 314.300781 L 101.140625 314.300781 L 103.929688 314.296875 L 105.785156 314.292969 L 107.714844 314.289062 L 110.359375 314.277344 L 112.003906 314.269531 L 113.433594 314.257812 L 114.503906 314.242188 L 115.21875 314.234375 L 116.292969 314.214844 L 117.148438 314.191406 L 117.792969 314.171875 L 118.21875 314.148438 L 128.222656 314.148438 L 127.796875 314.175781 L 127.152344 314.199219 L 126.507812 314.21875 L 125.507812 314.238281 L 124.367188 314.257812 L 122.722656 314.28125 L 121.363281 314.296875 L 119.578125 314.3125 L 117.933594 314.324219 L 116.148438 314.332031 L 113.503906 314.347656 L 111.789062 314.351562 L 109.929688 314.359375 L 107.714844 314.363281 L 104.929688 314.367188 L 101.929688 314.371094 L 96.140625 314.371094 L 93.925781 314.367188 L 90.996094 314.359375 L 87.351562 314.351562 L 84.707031 314.339844 L 82.632812 314.324219 L 80.847656 314.3125 L 78.847656 314.296875 L 76.273438 314.269531 L 74.703125 314.246094 L 73.632812 314.230469 L 72.417969 314.207031 L 71.558594 314.183594 L 70.558594 314.148438 L 69.84375 314.105469 L 69.628906 314.070312 Z M 69.628906 313.984375 "/>
<path style=" stroke:none;fill-rule:nonzero;fill:rgb(96.862745%,70.196078%,16.862745%);fill-opacity:1;" d="M 69.628906 312.058594 L 69.699219 312.058594 L 69.699219 312.042969 L 69.988281 312.011719 L 70.703125 311.96875 L 71.628906 311.933594 L 72.628906 311.902344 L 73.273438 311.890625 L 74.34375 311.867188 L 75.273438 311.851562 L 77.632812 311.820312 L 80.632812 311.789062 L 82.277344 311.777344 L 84.136719 311.765625 L 86.777344 311.75 L 87.992188 311.746094 L 91.710938 311.734375 L 95.925781 311.726562 L 102.714844 311.726562 L 105.644531 311.730469 L 109.644531 311.738281 L 111.933594 311.746094 L 113.71875 311.75 L 115.578125 311.761719 L 117.863281 311.773438 L 120.007812 311.792969 L 121.722656 311.808594 L 123.4375 311.832031 L 124.867188 311.851562 L 126.082031 311.878906 L 127.152344 311.910156 L 127.796875 311.933594 L 128.222656 311.957031 L 118.292969 311.957031 L 117.71875 311.933594 L 117.078125 311.914062 L 116.003906 311.890625 L 113.863281 311.859375 L 111.859375 311.839844 L 110.144531 311.828125 L 108.003906 311.820312 L 105.929688 311.8125 L 103.570312 311.808594 L 98.355469 311.808594 L 94.925781 311.8125 L 92.925781 311.820312 L 91.496094 311.824219 L 89.496094 311.835938 L 88.28125 311.84375 L 87.566406 311.847656 L 85.421875 311.871094 L 83.992188 311.890625 L 83.207031 311.90625 L 82.207031 311.925781 L 81.492188 311.945312 L 80.707031 311.972656 L 80.277344 311.996094 L 79.703125 312.042969 L 79.632812 312.171875 L 79.847656 312.199219 L 80.277344 312.226562 L 80.847656 312.253906 L 81.707031 312.28125 L 82.5625 312.300781 L 84.0625 312.328125 L 85.351562 312.347656 L 86.351562 312.359375 L 88.28125 312.378906 L 89.066406 312.386719 L 90.921875 312.398438 L 92.851562 312.40625 L 95.210938 312.417969 L 96.996094 312.421875 L 99.855469 312.425781 L 103.5 312.425781 L 107.789062 312.417969 L 110.503906 312.414062 L 112.359375 312.410156 L 113.574219 312.402344 L 115.078125 312.394531 L 116.148438 312.386719 L 117.148438 312.378906 L 118.363281 312.367188 L 118.363281 312.199219 L 100.714844 312.199219 L 100.714844 312.117188 L 128.152344 312.117188 L 128.222656 312.394531 L 126.722656 312.414062 L 124.867188 312.433594 L 123.078125 312.449219 L 121.222656 312.460938 L 118.578125 312.472656 L 116.433594 312.480469 L 113.148438 312.492188 L 110.144531 312.496094 L 107 312.503906 L 97.996094 312.503906 L 94.855469 312.5 L 92.351562 312.492188 L 90.066406 312.488281 L 87.78125 312.476562 L 84.921875 312.460938 L 83.0625 312.449219 L 79.203125 312.417969 L 77.488281 312.398438 L 76.347656 312.382812 L 75.203125 312.367188 L 73.988281 312.34375 L 72.84375 312.320312 L 71.988281 312.296875 L 71.203125 312.273438 L 70.628906 312.25 L 70.058594 312.21875 L 69.773438 312.191406 L 69.628906 312.171875 Z M 69.628906 312.058594 "/>
<path style=" stroke:none;fill-rule:nonzero;fill:rgb(83.921569%,15.686275%,22.352941%);fill-opacity:1;" d="M 69.628906 309.078125 L 128.222656 309.078125 L 128.222656 309.234375 L 103.804688 309.234375 L 103.804688 310.546875 L 93.980469 310.546875 L 93.980469 309.238281 L 93.835938 309.234375 L 69.628906 309.234375 Z M 69.628906 309.078125 "/>
<path style=" stroke:none;fill-rule:nonzero;fill:rgb(6.27451%,58.823529%,28.235294%);fill-opacity:1;" d="M 131.308594 287.28125 L 131.371094 287.242188 L 156.726562 246.253906 L 164.425781 246.253906 L 189.902344 287.320312 L 180.953125 287.320312 L 174.566406 276.601562 L 146.582031 276.601562 L 140.324219 287.28125 L 131.308594 287.28125 L 149.273438 272.164062 L 172 272.128906 L 160.667969 252.964844 L 160.542969 252.925781 L 160.417969 253.042969 L 149.210938 272.128906 L 149.273438 272.164062 Z M 131.308594 287.28125 "/>
<path style=" stroke:none;fill-rule:nonzero;fill:rgb(14.509804%,36.078431%,60%);fill-opacity:1;" d="M 131.308594 311.472656 L 131.378906 311.464844 L 131.378906 311.355469 L 131.59375 311.175781 L 132.09375 310.949219 L 132.59375 310.796875 L 133.882812 310.519531 L 135.667969 310.25 L 137.523438 310.046875 L 138.882812 309.921875 L 140.097656 309.828125 L 142.882812 309.65625 L 144.671875 309.566406 L 146.601562 309.488281 L 148.957031 309.40625 L 150.671875 309.359375 L 154.53125 309.285156 L 157.390625 309.253906 L 159.605469 309.238281 L 164.394531 309.238281 L 167.25 309.257812 L 169.324219 309.28125 L 171.609375 309.316406 L 173.539062 309.359375 L 176.898438 309.464844 L 179.898438 309.59375 L 181.257812 309.667969 L 183.402344 309.816406 L 185.042969 309.957031 L 186.1875 310.078125 L 187.472656 310.25 L 188.617188 310.460938 L 189.476562 310.703125 L 189.902344 310.902344 L 179.898438 310.902344 L 179.398438 310.714844 L 178.828125 310.570312 L 177.757812 310.378906 L 176.683594 310.242188 L 175.183594 310.105469 L 173.824219 310.015625 L 171.96875 309.929688 L 170.324219 309.871094 L 168.609375 309.828125 L 166.964844 309.800781 L 163.820312 309.773438 L 160.175781 309.773438 L 158.820312 309.78125 L 156.03125 309.820312 L 154.53125 309.851562 L 152.386719 309.917969 L 150.886719 309.980469 L 149.101562 310.074219 L 147.886719 310.152344 L 146.386719 310.273438 L 145.3125 310.382812 L 144.097656 310.539062 L 143.386719 310.65625 L 142.742188 310.785156 L 142.171875 310.941406 L 141.742188 311.105469 L 141.457031 311.277344 L 141.3125 311.449219 L 141.3125 312.175781 L 141.457031 312.34375 L 141.8125 312.539062 L 142.742188 312.828125 L 144.097656 313.074219 L 145.671875 313.273438 L 147.171875 313.414062 L 148.03125 313.480469 L 149.171875 313.554688 L 150.960938 313.648438 L 153.53125 313.742188 L 155.03125 313.78125 L 157.320312 313.816406 L 159.675781 313.835938 L 162.820312 313.835938 L 165.609375 313.816406 L 167.464844 313.792969 L 169.394531 313.757812 L 172.039062 313.675781 L 173.683594 313.601562 L 175.113281 313.511719 L 176.183594 313.421875 L 176.898438 313.347656 L 177.96875 313.203125 L 178.828125 313.042969 L 179.472656 312.878906 L 179.898438 312.71875 L 189.902344 312.71875 L 189.476562 312.90625 L 188.832031 313.089844 L 188.1875 313.226562 L 187.1875 313.390625 L 186.046875 313.535156 L 184.402344 313.699219 L 183.042969 313.808594 L 181.257812 313.925781 L 179.613281 314.015625 L 177.828125 314.09375 L 175.183594 314.1875 L 173.46875 314.234375 L 171.609375 314.277344 L 169.394531 314.3125 L 166.609375 314.347656 L 163.605469 314.367188 L 160.820312 314.371094 L 157.820312 314.359375 L 155.605469 314.34375 L 152.675781 314.300781 L 149.03125 314.214844 L 146.386719 314.125 L 144.3125 314.039062 L 142.527344 313.945312 L 140.527344 313.816406 L 137.953125 313.609375 L 136.382812 313.449219 L 135.308594 313.320312 L 134.09375 313.136719 L 133.238281 312.972656 L 132.238281 312.710938 L 131.523438 312.375 L 131.308594 312.117188 Z M 131.308594 311.472656 "/>
<path style=" stroke:none;fill-rule:nonzero;fill:rgb(96.862745%,70.196078%,16.862745%);fill-opacity:1;" d="M 131.308594 292.628906 L 131.378906 292.617188 L 131.378906 292.441406 L 131.664062 292.046875 L 132.378906 291.5 L 133.308594 291.050781 L 134.308594 290.699219 L 134.953125 290.515625 L 136.023438 290.25 L 136.953125 290.058594 L 139.3125 289.660156 L 142.3125 289.289062 L 143.957031 289.132812 L 145.8125 288.984375 L 148.457031 288.816406 L 149.671875 288.753906 L 153.390625 288.613281 L 157.605469 288.523438 L 162.25 288.5 L 164.394531 288.507812 L 167.324219 288.542969 L 171.324219 288.640625 L 173.613281 288.726562 L 175.398438 288.816406 L 177.253906 288.929688 L 179.542969 289.105469 L 181.6875 289.316406 L 183.402344 289.527344 L 185.117188 289.792969 L 186.546875 290.074219 L 187.761719 290.382812 L 188.832031 290.753906 L 189.476562 291.058594 L 189.902344 291.367188 L 179.972656 291.367188 L 179.398438 291.058594 L 178.757812 290.824219 L 177.683594 290.53125 L 176.613281 290.320312 L 175.539062 290.152344 L 173.539062 289.925781 L 171.824219 289.785156 L 169.679688 289.660156 L 167.609375 289.582031 L 165.25 289.527344 L 163.820312 289.511719 L 160.035156 289.511719 L 156.605469 289.574219 L 154.605469 289.644531 L 153.175781 289.714844 L 151.171875 289.84375 L 149.957031 289.949219 L 149.246094 290.023438 L 147.101562 290.292969 L 145.671875 290.539062 L 144.886719 290.707031 L 143.886719 290.972656 L 143.171875 291.210938 L 142.382812 291.5625 L 141.957031 291.828125 L 141.382812 292.425781 L 141.3125 294.011719 L 141.527344 294.34375 L 141.957031 294.707031 L 142.527344 295.023438 L 143.386719 295.355469 L 144.242188 295.613281 L 145.742188 295.957031 L 147.027344 296.183594 L 148.03125 296.335938 L 149.957031 296.570312 L 150.746094 296.652344 L 152.601562 296.808594 L 154.53125 296.933594 L 156.890625 297.039062 L 158.675781 297.089844 L 161.535156 297.136719 L 165.179688 297.136719 L 169.46875 297.082031 L 172.183594 297.011719 L 174.039062 296.941406 L 175.253906 296.878906 L 176.753906 296.785156 L 177.828125 296.695312 L 178.828125 296.597656 L 180.042969 296.449219 L 180.042969 294.34375 L 162.390625 294.335938 L 162.390625 293.351562 L 189.832031 293.339844 L 189.902344 296.785156 L 188.402344 297.019531 L 186.546875 297.25 L 184.757812 297.425781 L 182.902344 297.574219 L 180.257812 297.742188 L 178.113281 297.847656 L 174.824219 297.972656 L 171.824219 298.050781 L 168.679688 298.105469 L 165.894531 298.128906 L 162.605469 298.140625 L 159.675781 298.121094 L 156.53125 298.070312 L 154.03125 298 L 151.746094 297.910156 L 149.457031 297.796875 L 146.601562 297.609375 L 144.742188 297.460938 L 142.8125 297.277344 L 140.882812 297.054688 L 139.167969 296.820312 L 138.027344 296.632812 L 136.882812 296.421875 L 135.667969 296.160156 L 134.523438 295.859375 L 133.667969 295.585938 L 132.878906 295.277344 L 132.308594 294.988281 L 131.738281 294.589844 L 131.453125 294.273438 L 131.308594 294 Z M 131.308594 292.628906 "/>
<path style=" stroke:none;fill-rule:nonzero;fill:rgb(83.921569%,15.686275%,22.352941%);fill-opacity:1;" d="M 131.308594 299.320312 L 189.902344 299.320312 L 189.902344 300.253906 L 165.484375 300.261719 L 165.484375 308.058594 L 155.65625 308.058594 L 155.65625 300.269531 L 155.515625 300.253906 L 131.308594 300.253906 Z M 131.308594 299.320312 "/>
<path style=" stroke:none;fill-rule:nonzero;fill:rgb(6.27451%,58.823529%,28.235294%);fill-opacity:1;" d="M 192.988281 313.460938 L 193.050781 313.453125 L 218.402344 304.953125 L 226.105469 304.953125 L 251.582031 313.46875 L 242.628906 313.46875 L 236.246094 311.246094 L 208.261719 311.246094 L 202.003906 313.460938 L 192.988281 313.460938 L 210.953125 310.328125 L 233.679688 310.316406 L 222.347656 306.34375 L 222.222656 306.335938 L 222.097656 306.359375 L 210.890625 310.316406 L 210.953125 310.328125 Z M 192.988281 313.460938 "/>
<path style=" stroke:none;fill-rule:nonzero;fill:rgb(96.862745%,70.196078%,16.862745%);fill-opacity:1;" d="M 192.988281 176.199219 L 193.058594 176.015625 L 193.058594 172.34375 L 193.34375 164.078125 L 194.058594 152.695312 L 194.988281 143.328125 L 195.988281 135.984375 L 196.632812 132.128906 L 197.703125 126.621094 L 198.632812 122.578125 L 200.992188 114.316406 L 203.992188 106.605469 L 205.636719 103.300781 L 207.492188 100.179688 L 210.136719 96.6875 L 211.351562 95.402344 L 215.066406 92.464844 L 219.285156 90.628906 L 223.929688 90.078125 L 226.074219 90.261719 L 229.003906 90.996094 L 233.003906 93.015625 L 235.289062 94.851562 L 237.078125 96.6875 L 238.933594 99.074219 L 241.222656 102.75 L 243.367188 107.15625 L 245.082031 111.5625 L 246.796875 117.070312 L 248.222656 122.949219 L 249.4375 129.375 L 250.511719 137.085938 L 251.152344 143.511719 L 251.582031 149.941406 L 241.648438 149.941406 L 241.078125 143.511719 L 240.433594 138.554688 L 239.363281 132.496094 L 238.292969 128.089844 L 237.21875 124.601562 L 235.21875 119.824219 L 233.503906 116.886719 L 231.359375 114.316406 L 229.289062 112.664062 L 226.929688 111.5625 L 225.5 111.195312 L 221.714844 111.195312 L 218.285156 112.480469 L 216.28125 113.949219 L 214.855469 115.417969 L 212.851562 118.171875 L 211.636719 120.375 L 210.921875 121.84375 L 208.78125 127.539062 L 207.351562 132.679688 L 206.566406 136.167969 L 205.5625 141.675781 L 204.851562 146.636719 L 204.0625 153.980469 L 203.636719 159.488281 L 203.0625 171.976562 L 202.992188 205.027344 L 203.207031 212.003906 L 203.636719 219.535156 L 204.207031 226.144531 L 205.0625 233.121094 L 205.921875 238.445312 L 207.421875 245.609375 L 208.707031 250.382812 L 209.707031 253.503906 L 211.636719 258.460938 L 212.425781 260.113281 L 214.28125 263.417969 L 216.210938 265.992188 L 218.570312 268.195312 L 220.355469 269.296875 L 223.214844 270.214844 L 226.859375 270.214844 L 231.144531 269.113281 L 233.863281 267.644531 L 235.71875 266.175781 L 236.933594 264.890625 L 238.433594 262.867188 L 239.507812 261.03125 L 240.507812 259.011719 L 241.722656 255.890625 L 241.722656 212.003906 L 224.070312 211.820312 L 224.070312 191.253906 L 251.511719 191.070312 L 251.582031 262.867188 L 250.082031 267.828125 L 248.222656 272.601562 L 246.4375 276.273438 L 244.578125 279.394531 L 241.9375 282.882812 L 239.792969 285.085938 L 236.503906 287.660156 L 233.503906 289.3125 L 230.359375 290.414062 L 227.574219 290.964844 L 224.285156 291.148438 L 221.355469 290.78125 L 218.210938 289.679688 L 215.710938 288.210938 L 213.425781 286.371094 L 211.136719 283.984375 L 208.28125 280.128906 L 206.421875 277.007812 L 204.492188 273.152344 L 202.5625 268.5625 L 200.847656 263.601562 L 199.703125 259.746094 L 198.5625 255.339844 L 197.347656 249.832031 L 196.203125 243.589844 L 195.347656 237.894531 L 194.558594 231.46875 L 193.988281 225.410156 L 193.417969 217.148438 L 193.128906 210.535156 L 192.988281 204.84375 Z M 192.988281 176.199219 "/>
<path style=" stroke:none;fill-rule:nonzero;fill:rgb(83.921569%,15.686275%,22.352941%);fill-opacity:1;" d="M 192.988281 292.328125 L 251.582031 292.328125 L 251.582031 293.550781 L 227.164062 293.5625 L 227.164062 303.773438 L 217.335938 303.773438 L 217.335938 293.574219 L 217.195312 293.550781 L 192.988281 293.550781 Z M 192.988281 292.328125 "/>
<path style=" stroke:none;fill-rule:nonzero;fill:rgb(6.27451%,58.823529%,28.235294%);fill-opacity:1;" d="M 254.667969 307.320312 L 254.730469 307.050781 L 280.082031 20.664062 L 287.78125 20.664062 L 313.261719 307.589844 L 304.308594 307.589844 L 297.925781 232.691406 L 269.941406 232.691406 L 263.679688 307.320312 L 254.667969 307.320312 L 272.632812 201.707031 L 295.359375 201.4375 L 284.027344 67.539062 L 283.902344 67.273438 L 283.777344 68.078125 L 272.570312 201.4375 L 272.632812 201.707031 Z M 254.667969 307.320312 "/>
<path style=" stroke:none;fill-rule:nonzero;fill:rgb(83.921569%,15.686275%,22.352941%);fill-opacity:1;" d="M 254.667969 308.769531 L 313.261719 308.769531 L 313.261719 309.304688 L 288.839844 309.308594 L 288.839844 313.78125 L 279.015625 313.78125 L 279.015625 309.3125 L 278.875 309.304688 L 254.667969 309.304688 Z M 254.667969 308.769531 "/>
<path style=" stroke:none;fill-rule:nonzero;fill:rgb(6.27451%,58.823529%,28.235294%);fill-opacity:1;" d="M 316.347656 314.363281 L 316.410156 314.355469 L 341.761719 305.757812 L 349.460938 305.757812 L 374.941406 314.371094 L 365.988281 314.371094 L 359.605469 312.121094 L 331.621094 312.121094 L 325.359375 314.363281 L 316.347656 314.363281 L 334.3125 311.191406 L 357.039062 311.183594 L 345.707031 307.164062 L 345.582031 307.15625 L 345.457031 307.179688 L 334.25 311.183594 L 334.3125 311.191406 Z M 316.347656 314.363281 "/>
<path style=" stroke:none;fill-rule:nonzero;fill:rgb(83.921569%,15.686275%,22.352941%);fill-opacity:1;" d="M 316.347656 27.828125 L 374.941406 27.828125 L 374.941406 57.449219 L 350.519531 57.710938 L 350.519531 304.578125 L 340.695312 304.578125 L 340.695312 57.972656 L 340.554688 57.449219 L 316.347656 57.449219 Z M 316.347656 27.828125 "/>
<path style=" stroke:none;fill-rule:nonzero;fill:rgb(6.27451%,58.823529%,28.235294%);fill-opacity:1;" d="M 378.023438 300.410156 L 378.085938 300.394531 L 403.441406 284.238281 L 411.140625 284.238281 L 436.621094 300.425781 L 427.667969 300.425781 L 421.28125 296.199219 L 393.300781 296.199219 L 387.039062 300.410156 L 378.023438 300.410156 L 395.992188 294.453125 L 418.714844 294.4375 L 407.386719 286.882812 L 407.261719 286.867188 L 407.136719 286.914062 L 395.929688 294.4375 L 395.992188 294.453125 Z M 378.023438 300.410156 "/>
<path style=" stroke:none;fill-rule:nonzero;fill:rgb(14.509804%,36.078431%,60%);fill-opacity:1;" d="M 378.023438 306.640625 L 378.097656 306.628906 L 378.097656 306.375 L 378.3125 305.972656 L 378.8125 305.464844 L 379.3125 305.117188 L 380.597656 304.492188 L 382.382812 303.890625 L 384.242188 303.421875 L 385.601562 303.148438 L 386.8125 302.9375 L 389.601562 302.546875 L 391.386719 302.34375 L 393.316406 302.164062 L 395.675781 301.984375 L 397.390625 301.878906 L 401.25 301.710938 L 404.105469 301.636719 L 406.324219 301.605469 L 411.109375 301.605469 L 413.96875 301.648438 L 416.039062 301.699219 L 418.328125 301.785156 L 420.257812 301.878906 L 423.613281 302.113281 L 426.617188 302.410156 L 427.972656 302.578125 L 430.117188 302.90625 L 431.761719 303.222656 L 432.90625 303.496094 L 434.191406 303.890625 L 435.335938 304.367188 L 436.191406 304.90625 L 436.621094 305.359375 L 426.617188 305.359375 L 426.117188 304.9375 L 425.542969 304.609375 L 424.472656 304.175781 L 423.402344 303.867188 L 421.898438 303.5625 L 420.542969 303.359375 L 418.683594 303.160156 L 417.039062 303.03125 L 415.324219 302.9375 L 413.683594 302.875 L 410.539062 302.808594 L 406.894531 302.808594 L 405.535156 302.832031 L 402.75 302.917969 L 401.25 302.988281 L 399.105469 303.136719 L 397.605469 303.277344 L 395.816406 303.488281 L 394.601562 303.667969 L 393.101562 303.941406 L 392.03125 304.183594 L 390.816406 304.535156 L 390.101562 304.800781 L 389.457031 305.09375 L 388.886719 305.445312 L 388.457031 305.816406 L 388.171875 306.207031 L 388.027344 306.585938 L 388.027344 308.226562 L 388.171875 308.605469 L 388.53125 309.050781 L 389.457031 309.695312 L 390.816406 310.257812 L 392.386719 310.703125 L 393.890625 311.019531 L 394.746094 311.167969 L 395.890625 311.335938 L 397.675781 311.546875 L 400.25 311.757812 L 401.75 311.84375 L 404.035156 311.929688 L 406.394531 311.972656 L 409.539062 311.972656 L 412.324219 311.929688 L 414.183594 311.875 L 416.113281 311.792969 L 418.757812 311.609375 L 420.398438 311.441406 L 421.828125 311.242188 L 422.902344 311.039062 L 423.613281 310.871094 L 424.6875 310.542969 L 425.542969 310.183594 L 426.1875 309.8125 L 426.617188 309.453125 L 436.621094 309.453125 L 436.191406 309.875 L 435.546875 310.289062 L 434.90625 310.597656 L 433.90625 310.964844 L 432.761719 311.292969 L 431.117188 311.664062 L 429.761719 311.90625 L 427.972656 312.171875 L 426.332031 312.371094 L 424.542969 312.554688 L 421.898438 312.765625 L 420.183594 312.871094 L 418.328125 312.964844 L 416.113281 313.050781 L 413.324219 313.125 L 410.324219 313.167969 L 407.539062 313.175781 L 404.535156 313.15625 L 402.320312 313.113281 L 399.390625 313.019531 L 395.746094 312.828125 L 393.101562 312.625 L 391.03125 312.425781 L 389.242188 312.214844 L 387.242188 311.929688 L 384.671875 311.464844 L 383.097656 311.105469 L 382.027344 310.808594 L 380.8125 310.394531 L 379.953125 310.023438 L 378.953125 309.433594 L 378.238281 308.679688 L 378.023438 308.097656 Z M 378.023438 306.640625 "/>
<path style=" stroke:none;fill-rule:nonzero;fill:rgb(96.862745%,70.196078%,16.862745%);fill-opacity:1;" d="M 378.023438 314.363281 L 378.382812 314.363281 L 379.097656 314.359375 L 389.03125 314.359375 L 390.671875 314.355469 L 426.257812 314.355469 L 428.402344 314.359375 L 436.621094 314.359375 L 388.671875 314.359375 L 388.101562 314.363281 L 388.027344 314.363281 L 388.242188 314.363281 L 388.671875 314.367188 L 405.394531 314.367188 L 408.25 314.371094 L 411.894531 314.371094 L 416.183594 314.367188 L 426.757812 314.367188 L 426.757812 314.363281 L 409.109375 314.363281 L 436.550781 314.363281 L 436.621094 314.367188 L 435.121094 314.367188 L 433.261719 314.371094 L 389.53125 314.371094 L 387.601562 314.367188 L 378.453125 314.367188 L 378.167969 314.363281 Z M 378.023438 314.363281 "/>
<path style=" stroke:none;fill-rule:nonzero;fill:rgb(83.921569%,15.686275%,22.352941%);fill-opacity:1;" d="M 378.023438 261.285156 L 436.621094 261.285156 L 436.621094 263.617188 L 412.199219 263.636719 L 412.199219 283.058594 L 402.375 283.058594 L 402.375 263.65625 L 402.230469 263.617188 L 378.023438 263.617188 Z M 378.023438 261.285156 "/>
<path style=" stroke:none;fill-rule:nonzero;fill:rgb(6.27451%,58.823529%,28.235294%);fill-opacity:1;" d="M 439.703125 314.367188 L 439.765625 314.367188 L 465.121094 311.71875 L 472.820312 311.71875 L 498.300781 314.371094 L 489.347656 314.371094 L 482.960938 313.679688 L 454.980469 313.679688 L 448.71875 314.367188 L 439.703125 314.367188 L 457.671875 313.390625 L 480.394531 313.390625 L 469.066406 312.152344 L 468.9375 312.148438 L 468.8125 312.15625 L 457.609375 313.390625 L 457.671875 313.390625 Z M 439.703125 314.367188 "/>
<path style=" stroke:none;fill-rule:nonzero;fill:rgb(14.509804%,36.078431%,60%);fill-opacity:1;" d="M 439.703125 253.53125 L 439.777344 253.492188 L 439.777344 252.507812 L 439.988281 250.953125 L 440.492188 248.988281 L 440.992188 247.636719 L 442.277344 245.21875 L 444.0625 242.886719 L 445.921875 241.085938 L 447.277344 240.019531 L 448.492188 239.203125 L 451.28125 237.6875 L 453.066406 236.910156 L 454.996094 236.214844 L 457.355469 235.515625 L 459.070312 235.109375 L 462.929688 234.453125 L 465.785156 234.164062 L 468 234.042969 L 472.789062 234.042969 L 475.648438 234.207031 L 477.71875 234.410156 L 480.007812 234.738281 L 481.9375 235.109375 L 485.292969 236.007812 L 488.296875 237.15625 L 489.652344 237.808594 L 491.796875 239.078125 L 493.441406 240.308594 L 494.582031 241.371094 L 495.871094 242.886719 L 497.011719 244.730469 L 497.871094 246.816406 L 498.300781 248.578125 L 488.296875 248.578125 L 487.796875 246.941406 L 487.222656 245.671875 L 486.152344 243.992188 L 485.078125 242.804688 L 483.578125 241.617188 L 482.222656 240.839844 L 480.363281 240.0625 L 478.71875 239.570312 L 477.003906 239.203125 L 475.363281 238.957031 L 472.21875 238.710938 L 468.574219 238.710938 L 467.214844 238.792969 L 464.429688 239.121094 L 462.929688 239.40625 L 460.785156 239.980469 L 459.285156 240.511719 L 457.496094 241.332031 L 456.28125 242.027344 L 454.78125 243.089844 L 453.710938 244.03125 L 452.496094 245.382812 L 451.78125 246.40625 L 451.136719 247.554688 L 450.566406 248.90625 L 450.136719 250.339844 L 449.851562 251.851562 L 449.707031 253.328125 L 449.707031 259.671875 L 449.851562 261.148438 L 450.207031 262.867188 L 451.136719 265.363281 L 452.496094 267.535156 L 454.066406 269.253906 L 455.566406 270.480469 L 456.425781 271.054688 L 457.570312 271.710938 L 459.355469 272.527344 L 461.925781 273.347656 L 463.429688 273.675781 L 465.714844 274.003906 L 468.074219 274.167969 L 471.21875 274.167969 L 474.003906 274.003906 L 475.863281 273.796875 L 477.792969 273.46875 L 480.433594 272.773438 L 482.078125 272.117188 L 483.507812 271.339844 L 484.578125 270.5625 L 485.292969 269.90625 L 486.367188 268.640625 L 487.222656 267.246094 L 487.867188 265.8125 L 488.296875 264.421875 L 498.300781 264.421875 L 497.871094 266.058594 L 497.226562 267.65625 L 496.585938 268.84375 L 495.585938 270.277344 L 494.441406 271.546875 L 492.796875 272.980469 L 491.441406 273.921875 L 489.652344 274.945312 L 488.007812 275.722656 L 486.222656 276.417969 L 483.578125 277.238281 L 481.863281 277.644531 L 480.007812 278.015625 L 477.792969 278.34375 L 475.003906 278.628906 L 472.003906 278.792969 L 469.214844 278.832031 L 466.214844 278.75 L 464 278.585938 L 461.070312 278.21875 L 457.425781 277.484375 L 454.78125 276.703125 L 452.710938 275.925781 L 450.921875 275.109375 L 448.921875 274.003906 L 446.351562 272.199219 L 444.777344 270.808594 L 443.707031 269.664062 L 442.492188 268.066406 L 441.632812 266.632812 L 440.632812 264.339844 L 439.917969 261.433594 L 439.703125 259.179688 Z M 439.703125 253.53125 "/>
<path style=" stroke:none;fill-rule:nonzero;fill:rgb(96.862745%,70.196078%,16.862745%);fill-opacity:1;" d="M 439.703125 307.347656 L 439.777344 307.339844 L 439.777344 307.238281 L 440.0625 307.011719 L 440.777344 306.695312 L 441.707031 306.433594 L 442.707031 306.230469 L 443.347656 306.121094 L 444.421875 305.96875 L 445.347656 305.855469 L 447.707031 305.628906 L 450.707031 305.414062 L 452.351562 305.320312 L 454.210938 305.234375 L 456.855469 305.136719 L 458.070312 305.101562 L 461.785156 305.019531 L 466 304.96875 L 470.644531 304.953125 L 472.789062 304.960938 L 475.71875 304.980469 L 479.71875 305.035156 L 482.007812 305.085938 L 483.792969 305.136719 L 485.652344 305.203125 L 487.9375 305.304688 L 490.082031 305.429688 L 491.796875 305.550781 L 493.511719 305.703125 L 494.941406 305.867188 L 496.15625 306.046875 L 497.226562 306.261719 L 497.871094 306.4375 L 498.300781 306.617188 L 488.367188 306.617188 L 487.796875 306.4375 L 487.152344 306.300781 L 486.082031 306.132812 L 485.007812 306.011719 L 483.9375 305.914062 L 481.9375 305.78125 L 480.222656 305.699219 L 478.078125 305.628906 L 476.003906 305.582031 L 473.648438 305.550781 L 472.21875 305.539062 L 468.429688 305.539062 L 465 305.578125 L 463 305.617188 L 461.570312 305.65625 L 459.570312 305.734375 L 458.355469 305.796875 L 457.640625 305.835938 L 455.496094 305.996094 L 454.066406 306.136719 L 453.28125 306.234375 L 452.28125 306.386719 L 451.566406 306.523438 L 450.78125 306.730469 L 450.351562 306.882812 L 449.78125 307.230469 L 449.707031 308.148438 L 449.921875 308.339844 L 450.351562 308.550781 L 450.921875 308.734375 L 451.78125 308.929688 L 452.636719 309.074219 L 454.140625 309.273438 L 455.425781 309.40625 L 456.425781 309.492188 L 458.355469 309.632812 L 459.140625 309.679688 L 461 309.769531 L 462.929688 309.839844 L 465.285156 309.902344 L 467.074219 309.933594 L 469.929688 309.957031 L 473.574219 309.957031 L 477.863281 309.925781 L 480.578125 309.886719 L 482.4375 309.847656 L 483.652344 309.808594 L 485.152344 309.753906 L 486.222656 309.703125 L 487.222656 309.648438 L 488.4375 309.558594 L 488.4375 308.339844 L 470.789062 308.335938 L 470.789062 307.765625 L 498.226562 307.761719 L 498.300781 309.753906 L 496.800781 309.890625 L 494.941406 310.023438 L 493.15625 310.125 L 491.296875 310.214844 L 488.652344 310.308594 L 486.507812 310.371094 L 483.222656 310.441406 L 480.222656 310.488281 L 477.078125 310.519531 L 474.289062 310.535156 L 471.003906 310.539062 L 468.074219 310.53125 L 464.929688 310.5 L 462.429688 310.457031 L 460.140625 310.40625 L 457.855469 310.339844 L 454.996094 310.234375 L 453.136719 310.148438 L 451.210938 310.039062 L 449.28125 309.914062 L 447.566406 309.773438 L 446.421875 309.667969 L 445.277344 309.546875 L 444.0625 309.390625 L 442.921875 309.21875 L 442.0625 309.058594 L 441.277344 308.882812 L 440.703125 308.714844 L 440.132812 308.484375 L 439.847656 308.300781 L 439.703125 308.140625 Z M 439.703125 307.347656 "/>
<path style=" stroke:none;fill-rule:nonzero;fill:rgb(83.921569%,15.686275%,22.352941%);fill-opacity:1;" d="M 439.703125 280.011719 L 498.300781 280.011719 L 498.300781 282.554688 L 473.878906 282.578125 L 473.878906 303.773438 L 464.054688 303.773438 L 464.054688 282.601562 L 463.910156 282.554688 L 439.703125 282.554688 Z M 439.703125 280.011719 "/>
<path style=" stroke:none;fill-rule:nonzero;fill:rgb(6.27451%,58.823529%,28.235294%);fill-opacity:1;" d="M 501.382812 314.367188 L 501.445312 314.367188 L 526.800781 311.714844 L 534.5 311.714844 L 559.980469 314.371094 L 551.027344 314.371094 L 544.640625 313.675781 L 516.660156 313.675781 L 510.398438 314.367188 L 501.382812 314.367188 L 519.351562 313.390625 L 542.074219 313.386719 L 530.742188 312.148438 L 530.617188 312.144531 L 530.492188 312.152344 L 519.289062 313.386719 L 519.351562 313.390625 Z M 501.382812 314.367188 "/>
<path style=" stroke:none;fill-rule:nonzero;fill:rgb(14.509804%,36.078431%,60%);fill-opacity:1;" d="M 501.382812 308.15625 L 501.453125 308.152344 L 501.453125 308.0625 L 501.667969 307.914062 L 502.167969 307.730469 L 502.667969 307.605469 L 503.957031 307.375 L 505.742188 307.15625 L 507.601562 306.988281 L 508.957031 306.886719 L 510.171875 306.8125 L 512.960938 306.667969 L 514.746094 306.597656 L 516.675781 306.53125 L 519.035156 306.464844 L 520.75 306.425781 L 524.605469 306.363281 L 527.464844 306.339844 L 529.679688 306.328125 L 534.46875 306.328125 L 537.328125 306.34375 L 539.398438 306.363281 L 541.6875 306.390625 L 543.613281 306.425781 L 546.972656 306.511719 L 549.976562 306.617188 L 551.332031 306.679688 L 553.476562 306.800781 L 555.121094 306.914062 L 556.261719 307.015625 L 557.550781 307.15625 L 558.691406 307.332031 L 559.550781 307.527344 L 559.980469 307.691406 L 549.976562 307.691406 L 549.472656 307.539062 L 548.902344 307.417969 L 547.832031 307.261719 L 546.757812 307.148438 L 545.257812 307.039062 L 543.902344 306.964844 L 542.042969 306.890625 L 540.398438 306.847656 L 538.683594 306.8125 L 537.039062 306.789062 L 533.898438 306.765625 L 530.253906 306.765625 L 528.894531 306.773438 L 526.109375 306.804688 L 524.605469 306.832031 L 522.464844 306.882812 L 520.960938 306.933594 L 519.175781 307.011719 L 517.960938 307.078125 L 516.460938 307.175781 L 515.390625 307.265625 L 514.175781 307.390625 L 513.460938 307.488281 L 512.816406 307.597656 L 512.246094 307.722656 L 511.816406 307.855469 L 511.53125 308 L 511.386719 308.136719 L 511.386719 308.734375 L 511.53125 308.871094 L 511.886719 309.035156 L 512.816406 309.269531 L 514.175781 309.472656 L 515.746094 309.632812 L 517.246094 309.75 L 518.105469 309.804688 L 519.246094 309.863281 L 521.035156 309.941406 L 523.605469 310.019531 L 525.105469 310.050781 L 527.394531 310.082031 L 529.753906 310.09375 L 532.894531 310.09375 L 535.683594 310.082031 L 537.542969 310.0625 L 539.46875 310.03125 L 542.113281 309.964844 L 543.757812 309.902344 L 545.1875 309.832031 L 546.257812 309.757812 L 546.972656 309.695312 L 548.046875 309.578125 L 548.902344 309.445312 L 549.546875 309.3125 L 549.976562 309.179688 L 559.980469 309.179688 L 559.550781 309.335938 L 558.90625 309.484375 L 558.265625 309.59375 L 557.261719 309.730469 L 556.121094 309.847656 L 554.476562 309.984375 L 553.117188 310.074219 L 551.332031 310.167969 L 549.6875 310.242188 L 547.902344 310.308594 L 545.257812 310.382812 L 543.542969 310.421875 L 541.6875 310.457031 L 539.46875 310.488281 L 536.683594 310.515625 L 533.683594 310.53125 L 530.894531 310.535156 L 527.894531 310.527344 L 525.679688 310.511719 L 522.75 310.476562 L 519.105469 310.40625 L 516.460938 310.335938 L 514.390625 310.261719 L 512.601562 310.183594 L 510.601562 310.082031 L 508.027344 309.910156 L 506.457031 309.78125 L 505.386719 309.671875 L 504.171875 309.523438 L 503.3125 309.386719 L 502.3125 309.171875 L 501.597656 308.898438 L 501.382812 308.6875 Z M 501.382812 308.15625 "/>
<path style=" stroke:none;fill-rule:nonzero;fill:rgb(96.862745%,70.196078%,16.862745%);fill-opacity:1;" d="M 501.382812 283.988281 L 501.453125 283.972656 L 501.453125 283.664062 L 501.742188 282.96875 L 502.457031 282.015625 L 503.382812 281.226562 L 504.382812 280.609375 L 505.027344 280.289062 L 506.101562 279.824219 L 507.027344 279.484375 L 509.386719 278.792969 L 512.386719 278.144531 L 514.03125 277.867188 L 515.890625 277.605469 L 518.535156 277.3125 L 519.75 277.203125 L 523.464844 276.957031 L 527.679688 276.804688 L 532.324219 276.757812 L 534.46875 276.773438 L 537.398438 276.835938 L 541.398438 277.003906 L 543.6875 277.160156 L 545.472656 277.3125 L 547.332031 277.511719 L 549.617188 277.820312 L 551.761719 278.191406 L 553.476562 278.5625 L 555.191406 279.023438 L 556.621094 279.515625 L 557.835938 280.054688 L 558.90625 280.703125 L 559.550781 281.242188 L 559.980469 281.78125 L 550.046875 281.78125 L 549.472656 281.242188 L 548.832031 280.828125 L 547.757812 280.320312 L 546.6875 279.949219 L 545.617188 279.65625 L 543.613281 279.253906 L 541.898438 279.007812 L 539.757812 278.792969 L 537.683594 278.652344 L 535.324219 278.5625 L 533.898438 278.53125 L 530.109375 278.53125 L 526.679688 278.636719 L 524.679688 278.761719 L 523.25 278.886719 L 521.25 279.117188 L 520.035156 279.300781 L 519.320312 279.425781 L 517.175781 279.902344 L 515.746094 280.332031 L 514.960938 280.625 L 513.960938 281.089844 L 513.246094 281.503906 L 512.460938 282.121094 L 512.03125 282.585938 L 511.460938 283.632812 L 511.386719 286.40625 L 511.601562 286.992188 L 512.03125 287.625 L 512.601562 288.179688 L 513.460938 288.765625 L 514.316406 289.214844 L 515.816406 289.8125 L 517.105469 290.214844 L 518.105469 290.476562 L 520.035156 290.894531 L 520.820312 291.03125 L 522.679688 291.308594 L 524.605469 291.523438 L 526.964844 291.710938 L 528.75 291.804688 L 531.609375 291.878906 L 535.253906 291.878906 L 539.542969 291.789062 L 542.257812 291.664062 L 544.113281 291.539062 L 545.328125 291.433594 L 546.832031 291.261719 L 547.902344 291.109375 L 548.902344 290.941406 L 550.117188 290.675781 L 550.117188 286.992188 L 532.46875 286.976562 L 532.46875 285.25 L 559.90625 285.234375 L 559.980469 291.261719 L 558.476562 291.679688 L 556.621094 292.082031 L 554.832031 292.386719 L 552.976562 292.652344 L 550.332031 292.945312 L 548.1875 293.128906 L 544.902344 293.34375 L 541.898438 293.484375 L 538.753906 293.574219 L 535.96875 293.621094 L 532.683594 293.636719 L 529.753906 293.605469 L 526.609375 293.515625 L 524.105469 293.390625 L 521.820312 293.238281 L 519.535156 293.035156 L 516.675781 292.710938 L 514.816406 292.449219 L 512.886719 292.125 L 510.957031 291.742188 L 509.242188 291.324219 L 508.101562 291 L 506.957031 290.632812 L 505.742188 290.167969 L 504.597656 289.644531 L 503.742188 289.167969 L 502.957031 288.628906 L 502.382812 288.117188 L 501.8125 287.425781 L 501.527344 286.871094 L 501.382812 286.390625 Z M 501.382812 283.988281 "/>
<path style=" stroke:none;fill-rule:nonzero;fill:rgb(83.921569%,15.686275%,22.352941%);fill-opacity:1;" d="M 501.382812 294.816406 L 559.980469 294.816406 L 559.980469 295.921875 L 535.558594 295.933594 L 535.558594 305.148438 L 525.734375 305.148438 L 525.734375 295.941406 L 525.589844 295.921875 L 501.382812 295.921875 Z M 501.382812 294.816406 "/>
<path style=" stroke:none;fill-rule:nonzero;fill:rgb(6.27451%,58.823529%,28.235294%);fill-opacity:1;" d="M 563.0625 312.773438 L 563.125 312.773438 L 588.480469 312.175781 L 596.179688 312.175781 L 621.65625 312.773438 L 612.707031 312.773438 L 606.320312 312.617188 L 578.335938 312.617188 L 572.078125 312.773438 L 563.0625 312.773438 L 581.03125 312.554688 L 603.753906 312.554688 L 592.421875 312.273438 L 592.171875 312.273438 L 580.964844 312.554688 L 581.03125 312.554688 Z M 563.0625 312.773438 "/>
<path style=" stroke:none;fill-rule:nonzero;fill:rgb(14.509804%,36.078431%,60%);fill-opacity:1;" d="M 563.0625 307.15625 L 563.132812 307.152344 L 563.132812 307.109375 L 563.347656 307.039062 L 563.847656 306.953125 L 564.347656 306.890625 L 565.636719 306.785156 L 567.421875 306.679688 L 569.28125 306.597656 L 570.636719 306.550781 L 571.851562 306.515625 L 574.640625 306.449219 L 576.425781 306.414062 L 578.355469 306.382812 L 580.710938 306.351562 L 582.425781 306.332031 L 586.285156 306.304688 L 589.144531 306.289062 L 591.359375 306.285156 L 596.148438 306.285156 L 599.003906 306.292969 L 601.078125 306.300781 L 603.363281 306.316406 L 605.292969 306.332031 L 608.652344 306.371094 L 611.652344 306.421875 L 613.011719 306.453125 L 615.15625 306.507812 L 616.796875 306.5625 L 617.941406 306.613281 L 619.226562 306.679688 L 620.371094 306.761719 L 621.230469 306.855469 L 621.65625 306.933594 L 611.652344 306.933594 L 611.152344 306.859375 L 610.582031 306.804688 L 609.511719 306.730469 L 608.4375 306.675781 L 606.9375 306.621094 L 605.578125 306.589844 L 603.722656 306.554688 L 602.078125 306.53125 L 600.363281 306.515625 L 598.71875 306.503906 L 595.574219 306.492188 L 591.929688 306.492188 L 590.574219 306.496094 L 587.785156 306.511719 L 586.285156 306.523438 L 584.144531 306.550781 L 582.640625 306.574219 L 580.855469 306.609375 L 579.640625 306.640625 L 578.140625 306.6875 L 577.066406 306.730469 L 575.855469 306.792969 L 575.140625 306.835938 L 574.496094 306.886719 L 573.925781 306.949219 L 573.496094 307.011719 L 573.210938 307.082031 L 573.066406 307.144531 L 573.066406 307.429688 L 573.210938 307.496094 L 573.566406 307.574219 L 574.496094 307.683594 L 575.855469 307.78125 L 577.425781 307.859375 L 578.925781 307.914062 L 579.785156 307.9375 L 580.925781 307.96875 L 582.714844 308.003906 L 585.285156 308.042969 L 586.785156 308.054688 L 589.074219 308.070312 L 591.429688 308.078125 L 594.574219 308.078125 L 597.363281 308.070312 L 599.21875 308.0625 L 601.148438 308.046875 L 603.792969 308.015625 L 605.4375 307.984375 L 606.867188 307.953125 L 607.9375 307.917969 L 608.652344 307.886719 L 609.722656 307.832031 L 610.582031 307.769531 L 611.226562 307.703125 L 611.652344 307.640625 L 621.65625 307.640625 L 621.230469 307.714844 L 620.585938 307.785156 L 619.941406 307.839844 L 618.941406 307.902344 L 617.800781 307.960938 L 616.15625 308.023438 L 614.796875 308.066406 L 613.011719 308.113281 L 611.367188 308.148438 L 609.582031 308.179688 L 606.9375 308.214844 L 605.222656 308.234375 L 603.363281 308.25 L 601.148438 308.265625 L 598.363281 308.277344 L 595.363281 308.285156 L 592.574219 308.285156 L 589.574219 308.28125 L 587.359375 308.273438 L 584.429688 308.257812 L 580.785156 308.226562 L 578.140625 308.191406 L 576.066406 308.15625 L 574.28125 308.121094 L 572.28125 308.070312 L 569.707031 307.988281 L 568.136719 307.925781 L 567.0625 307.875 L 565.847656 307.804688 L 564.992188 307.742188 L 563.992188 307.636719 L 563.277344 307.507812 L 563.0625 307.40625 Z M 563.0625 307.15625 "/>
<path style=" stroke:none;fill-rule:nonzero;fill:rgb(96.862745%,70.196078%,16.862745%);fill-opacity:1;" d="M 563.0625 310.121094 L 563.132812 310.121094 L 563.132812 310.089844 L 563.421875 310.027344 L 564.132812 309.941406 L 565.0625 309.871094 L 566.0625 309.816406 L 566.707031 309.785156 L 567.777344 309.742188 L 568.707031 309.714844 L 571.066406 309.648438 L 574.066406 309.589844 L 575.710938 309.566406 L 577.570312 309.542969 L 580.210938 309.515625 L 581.425781 309.507812 L 585.144531 309.484375 L 589.359375 309.46875 L 594.003906 309.464844 L 596.148438 309.46875 L 599.078125 309.472656 L 603.078125 309.488281 L 605.367188 309.503906 L 607.152344 309.515625 L 609.011719 309.535156 L 611.296875 309.5625 L 613.441406 309.59375 L 615.15625 309.628906 L 616.871094 309.671875 L 618.300781 309.714844 L 619.515625 309.765625 L 620.585938 309.824219 L 621.230469 309.871094 L 621.65625 309.921875 L 611.726562 309.921875 L 611.152344 309.871094 L 610.511719 309.835938 L 609.4375 309.789062 L 608.367188 309.753906 L 607.292969 309.726562 L 605.292969 309.691406 L 603.578125 309.667969 L 601.433594 309.648438 L 599.363281 309.636719 L 597.003906 309.628906 L 595.574219 309.625 L 591.789062 309.625 L 588.359375 309.636719 L 586.359375 309.648438 L 584.929688 309.660156 L 582.929688 309.679688 L 581.714844 309.695312 L 581 309.707031 L 578.855469 309.75 L 577.425781 309.789062 L 576.640625 309.816406 L 575.640625 309.859375 L 574.925781 309.894531 L 574.136719 309.953125 L 573.710938 309.992188 L 573.136719 310.089844 L 573.066406 310.339844 L 573.28125 310.394531 L 573.710938 310.449219 L 574.28125 310.5 L 575.140625 310.554688 L 575.996094 310.59375 L 577.496094 310.648438 L 578.785156 310.683594 L 579.785156 310.707031 L 581.714844 310.746094 L 582.5 310.757812 L 584.355469 310.785156 L 586.285156 310.804688 L 588.644531 310.820312 L 590.429688 310.828125 L 593.289062 310.835938 L 596.933594 310.835938 L 601.222656 310.828125 L 603.9375 310.816406 L 605.792969 310.804688 L 607.007812 310.792969 L 608.507812 310.78125 L 609.582031 310.765625 L 610.582031 310.75 L 611.796875 310.726562 L 611.796875 310.394531 L 594.148438 310.390625 L 594.148438 310.234375 L 621.585938 310.234375 L 621.65625 310.78125 L 620.15625 310.816406 L 618.300781 310.855469 L 616.511719 310.882812 L 614.65625 310.90625 L 612.011719 310.933594 L 609.867188 310.949219 L 606.582031 310.96875 L 603.578125 310.980469 L 600.433594 310.988281 L 597.648438 310.992188 L 594.359375 310.996094 L 591.429688 310.992188 L 588.289062 310.984375 L 585.785156 310.972656 L 583.5 310.957031 L 581.210938 310.941406 L 578.355469 310.910156 L 576.496094 310.886719 L 574.566406 310.859375 L 572.636719 310.824219 L 570.921875 310.785156 L 569.78125 310.753906 L 568.636719 310.722656 L 567.421875 310.679688 L 566.277344 310.632812 L 565.421875 310.589844 L 564.632812 310.539062 L 564.0625 310.496094 L 563.492188 310.433594 L 563.207031 310.382812 L 563.0625 310.339844 Z M 563.0625 310.121094 "/>
<path style=" stroke:none;fill-rule:nonzero;fill:rgb(83.921569%,15.686275%,22.352941%);fill-opacity:1;" d="M 563.0625 313.953125 L 621.65625 313.953125 L 621.65625 314 L 597.238281 314 L 597.238281 314.371094 L 587.410156 314.371094 L 587.410156 314 L 563.0625 314 Z M 563.0625 313.953125 "/>
<path style=" stroke:none;fill-rule:nonzero;fill:rgb(6.27451%,58.823529%,28.235294%);fill-opacity:1;" d="M 624.742188 308.953125 L 624.804688 308.949219 L 650.15625 306.992188 L 657.859375 306.992188 L 683.335938 308.953125 L 674.386719 308.953125 L 668 308.441406 L 640.015625 308.441406 L 633.757812 308.953125 L 624.742188 308.953125 L 642.707031 308.230469 L 665.433594 308.230469 L 654.101562 307.3125 L 653.976562 307.3125 L 653.851562 307.316406 L 642.644531 308.230469 L 642.707031 308.230469 Z M 624.742188 308.953125 "/>
<path style=" stroke:none;fill-rule:nonzero;fill:rgb(14.509804%,36.078431%,60%);fill-opacity:1;" d="M 624.742188 310.925781 L 624.8125 310.921875 L 624.8125 310.882812 L 625.027344 310.820312 L 625.527344 310.738281 L 626.027344 310.683594 L 627.3125 310.585938 L 629.101562 310.492188 L 630.957031 310.417969 L 632.316406 310.375 L 633.53125 310.34375 L 636.316406 310.28125 L 638.105469 310.25 L 640.035156 310.222656 L 642.390625 310.195312 L 644.105469 310.175781 L 647.964844 310.152344 L 650.824219 310.140625 L 653.039062 310.132812 L 657.828125 310.132812 L 660.683594 310.140625 L 662.757812 310.148438 L 665.042969 310.160156 L 666.972656 310.175781 L 670.332031 310.214844 L 673.332031 310.261719 L 674.691406 310.285156 L 676.835938 310.339844 L 678.476562 310.386719 L 679.621094 310.429688 L 680.90625 310.492188 L 682.050781 310.566406 L 682.910156 310.652344 L 683.335938 310.722656 L 673.332031 310.722656 L 672.832031 310.65625 L 672.261719 310.605469 L 671.1875 310.539062 L 670.117188 310.488281 L 668.617188 310.441406 L 667.257812 310.410156 L 665.402344 310.378906 L 663.757812 310.359375 L 662.042969 310.34375 L 660.398438 310.332031 L 657.253906 310.324219 L 653.609375 310.324219 L 652.253906 310.328125 L 649.464844 310.339844 L 647.964844 310.351562 L 645.820312 310.375 L 644.320312 310.394531 L 642.535156 310.429688 L 641.320312 310.457031 L 639.820312 310.5 L 638.746094 310.539062 L 637.53125 310.59375 L 636.816406 310.636719 L 636.175781 310.683594 L 635.601562 310.738281 L 635.175781 310.792969 L 634.890625 310.855469 L 634.746094 310.914062 L 634.746094 311.171875 L 634.890625 311.234375 L 635.246094 311.304688 L 636.175781 311.402344 L 637.53125 311.492188 L 639.105469 311.5625 L 640.605469 311.613281 L 641.464844 311.636719 L 642.605469 311.660156 L 644.394531 311.695312 L 646.964844 311.726562 L 648.464844 311.742188 L 650.753906 311.753906 L 653.109375 311.761719 L 656.253906 311.761719 L 659.042969 311.753906 L 660.898438 311.746094 L 662.828125 311.734375 L 665.472656 311.703125 L 667.117188 311.679688 L 668.546875 311.648438 L 669.617188 311.613281 L 670.332031 311.589844 L 671.402344 311.535156 L 672.261719 311.480469 L 672.902344 311.421875 L 673.332031 311.367188 L 683.335938 311.367188 L 682.910156 311.433594 L 682.265625 311.496094 L 681.621094 311.546875 L 680.621094 311.601562 L 679.476562 311.65625 L 677.835938 311.714844 L 676.476562 311.75 L 674.691406 311.792969 L 673.046875 311.824219 L 671.261719 311.851562 L 668.617188 311.886719 L 666.902344 311.902344 L 665.042969 311.917969 L 662.828125 311.929688 L 660.042969 311.941406 L 657.039062 311.949219 L 654.253906 311.949219 L 651.253906 311.945312 L 649.039062 311.941406 L 646.109375 311.925781 L 642.464844 311.894531 L 639.820312 311.863281 L 637.746094 311.832031 L 635.960938 311.800781 L 633.960938 311.753906 L 631.386719 311.679688 L 629.816406 311.625 L 628.742188 311.578125 L 627.527344 311.515625 L 626.671875 311.457031 L 625.671875 311.363281 L 624.957031 311.246094 L 624.742188 311.152344 Z M 624.742188 310.925781 "/>
<path style=" stroke:none;fill-rule:nonzero;fill:rgb(96.862745%,70.196078%,16.862745%);fill-opacity:1;" d="M 624.742188 313.660156 L 624.8125 313.660156 L 624.8125 313.636719 L 625.097656 313.585938 L 625.8125 313.515625 L 626.742188 313.457031 L 627.742188 313.414062 L 628.386719 313.390625 L 629.457031 313.355469 L 630.386719 313.332031 L 632.746094 313.28125 L 635.746094 313.230469 L 637.390625 313.210938 L 639.246094 313.191406 L 641.890625 313.171875 L 643.105469 313.164062 L 646.820312 313.144531 L 651.039062 313.132812 L 655.683594 313.128906 L 657.828125 313.132812 L 660.757812 313.136719 L 664.757812 313.148438 L 667.042969 313.160156 L 668.832031 313.171875 L 670.6875 313.1875 L 672.976562 313.207031 L 675.121094 313.234375 L 676.835938 313.261719 L 678.550781 313.296875 L 679.980469 313.332031 L 681.191406 313.371094 L 682.265625 313.421875 L 682.910156 313.460938 L 683.335938 313.5 L 673.40625 313.5 L 672.832031 313.460938 L 672.191406 313.429688 L 671.117188 313.390625 L 670.046875 313.363281 L 668.972656 313.34375 L 666.972656 313.3125 L 665.257812 313.296875 L 663.113281 313.28125 L 661.042969 313.269531 L 658.683594 313.261719 L 653.46875 313.261719 L 650.039062 313.269531 L 648.035156 313.277344 L 646.609375 313.285156 L 644.605469 313.304688 L 643.390625 313.316406 L 642.675781 313.324219 L 640.535156 313.359375 L 639.105469 313.394531 L 638.320312 313.414062 L 637.316406 313.449219 L 636.605469 313.480469 L 635.816406 313.523438 L 635.390625 313.558594 L 634.816406 313.636719 L 634.746094 313.839844 L 634.960938 313.882812 L 635.390625 313.929688 L 635.960938 313.96875 L 636.816406 314.011719 L 637.675781 314.046875 L 639.175781 314.089844 L 640.460938 314.121094 L 641.464844 314.136719 L 643.390625 314.167969 L 644.179688 314.179688 L 646.035156 314.199219 L 647.964844 314.214844 L 650.324219 314.230469 L 652.109375 314.234375 L 654.96875 314.242188 L 658.613281 314.242188 L 662.898438 314.234375 L 665.617188 314.226562 L 667.472656 314.214844 L 668.6875 314.207031 L 670.1875 314.195312 L 671.261719 314.183594 L 672.261719 314.171875 L 673.476562 314.152344 L 673.476562 313.882812 L 655.824219 313.882812 L 655.824219 313.753906 L 683.265625 313.753906 L 683.335938 314.195312 L 681.835938 314.226562 L 679.980469 314.257812 L 678.191406 314.277344 L 676.335938 314.296875 L 673.691406 314.320312 L 671.546875 314.332031 L 668.257812 314.347656 L 665.257812 314.359375 L 662.113281 314.367188 L 659.328125 314.371094 L 656.039062 314.371094 L 653.109375 314.367188 L 649.964844 314.363281 L 647.464844 314.351562 L 645.179688 314.339844 L 642.890625 314.328125 L 640.035156 314.300781 L 638.175781 314.285156 L 634.316406 314.230469 L 632.601562 314.199219 L 631.457031 314.175781 L 630.316406 314.148438 L 629.101562 314.117188 L 627.957031 314.078125 L 627.101562 314.042969 L 626.3125 314.003906 L 625.742188 313.964844 L 625.171875 313.914062 L 624.882812 313.875 L 624.742188 313.839844 Z M 624.742188 313.660156 "/>
<path style=" stroke:none;fill-rule:nonzero;fill:rgb(83.921569%,15.686275%,22.352941%);fill-opacity:1;" d="M 624.742188 301.144531 L 683.335938 301.144531 L 683.335938 301.644531 L 658.917969 301.648438 L 658.917969 305.8125 L 649.089844 305.8125 L 649.089844 301.652344 L 648.949219 301.644531 L 624.742188 301.644531 Z M 624.742188 301.144531 "/>
<g style="fill:rgb(0%,0%,0%);fill-opacity:1;">
  <use xlink:href="#glyph0-1" x="21.957031" y="318.198242"/>
  <use xlink:href="#glyph0-2" x="27.291016" y="318.198242"/>
  <use xlink:href="#glyph0-1" x="29.958008" y="318.198242"/>
</g>
<g style="fill:rgb(0%,0%,0%);fill-opacity:1;">
  <use xlink:href="#glyph0-1" x="21.957031" y="237.635742"/>
  <use xlink:href="#glyph0-2" x="27.291016" y="237.635742"/>
  <use xlink:href="#glyph0-3" x="29.958008" y="237.635742"/>
</g>
<g style="fill:rgb(0%,0%,0%);fill-opacity:1;">
  <use xlink:href="#glyph0-4" x="21.957031" y="157.077148"/>
  <use xlink:href="#glyph0-2" x="27.291016" y="157.077148"/>
  <use xlink:href="#glyph0-1" x="29.958008" y="157.077148"/>
</g>
<g style="fill:rgb(0%,0%,0%);fill-opacity:1;">
  <use xlink:href="#glyph0-4" x="21.957031" y="76.518555"/>
  <use xlink:href="#glyph0-2" x="27.291016" y="76.518555"/>
  <use xlink:href="#glyph0-3" x="29.958008" y="76.518555"/>
</g>
<g style="fill:rgb(0%,0%,0%);fill-opacity:1;">
  <use xlink:href="#glyph0-4" x="95.925781" y="338.19043"/>
</g>
<g style="fill:rgb(0%,0%,0%);fill-opacity:1;">
  <use xlink:href="#glyph0-5" x="157.605469" y="338.19043"/>
</g>
<g style="fill:rgb(0%,0%,0%);fill-opacity:1;">
  <use xlink:href="#glyph0-6" x="219.285156" y="338.19043"/>
</g>
<g style="fill:rgb(0%,0%,0%);fill-opacity:1;">
  <use xlink:href="#glyph0-7" x="280.964844" y="338.19043"/>
</g>
<g style="fill:rgb(0%,0%,0%);fill-opacity:1;">
  <use xlink:href="#glyph0-3" x="342.644531" y="338.19043"/>
</g>
<g style="fill:rgb(0%,0%,0%);fill-opacity:1;">
  <use xlink:href="#glyph0-8" x="404.324219" y="338.19043"/>
</g>
<g style="fill:rgb(0%,0%,0%);fill-opacity:1;">
  <use xlink:href="#glyph0-9" x="466" y="338.19043"/>
</g>
<g style="fill:rgb(0%,0%,0%);fill-opacity:1;">
  <use xlink:href="#glyph0-10" x="527.679688" y="338.19043"/>
</g>
<g style="fill:rgb(0%,0%,0%);fill-opacity:1;">
  <use xlink:href="#glyph0-11" x="589.359375" y="338.19043"/>
</g>
<g style="fill:rgb(0%,0%,0%);fill-opacity:1;">
  <use xlink:href="#glyph0-4" x="648.539062" y="338.19043"/>
  <use xlink:href="#glyph0-1" x="653.873047" y="338.19043"/>
</g>
<g style="fill:rgb(0%,0%,0%);fill-opacity:1;">
  <use xlink:href="#glyph1-1" x="14.412109" y="178.015625"/>
  <use xlink:href="#glyph1-2" x="14.412109" y="170.011719"/>
  <use xlink:href="#glyph1-3" x="14.412109" y="167.347656"/>
  <use xlink:href="#glyph1-4" x="14.412109" y="164.011719"/>
</g>
</g>
</svg>
