<?xml version="1.0" encoding="UTF-8"?>
<svg xmlns="http://www.w3.org/2000/svg" xmlns:xlink="http://www.w3.org/1999/xlink" width="720pt" height="360pt" viewBox="0 0 720 360" version="1.1">
<defs>
<g>
<symbol overflow="visible" id="glyph0-0">
<path style="stroke:none;" d=""/>
</symbol>
<symbol overflow="visible" id="glyph0-1">
<path style="stroke:none;" d="M 2.640625 -6.796875 C 2 -6.796875 1.421875 -6.53125 1.078125 -6.046875 C 0.640625 -5.453125 0.40625 -4.546875 0.40625 -3.296875 C 0.40625 -1 1.1875 0.21875 2.640625 0.21875 C 4.078125 0.21875 4.859375 -1 4.859375 -3.234375 C 4.859375 -4.5625 4.65625 -5.4375 4.203125 -6.046875 C 3.84375 -6.53125 3.28125 -6.796875 2.640625 -6.796875 Z M 2.640625 -6.046875 C 3.546875 -6.046875 4 -5.125 4 -3.3125 C 4 -1.375 3.5625 -0.484375 2.625 -0.484375 C 1.734375 -0.484375 1.28125 -1.421875 1.28125 -3.28125 C 1.28125 -5.140625 1.734375 -6.046875 2.640625 -6.046875 Z M 2.640625 -6.046875 "/>
</symbol>
<symbol overflow="visible" id="glyph0-2">
<path style="stroke:none;" d="M 1.828125 -1 L 0.828125 -1 L 0.828125 0 L 1.828125 0 Z M 1.828125 -1 "/>
</symbol>
<symbol overflow="visible" id="glyph0-3">
<path style="stroke:none;" d="M 4.5625 -6.796875 L 1.0625 -6.796875 L 0.546875 -3.09375 L 1.328125 -3.09375 C 1.71875 -3.5625 2.046875 -3.734375 2.578125 -3.734375 C 3.484375 -3.734375 4.0625 -3.109375 4.0625 -2.09375 C 4.0625 -1.125 3.484375 -0.53125 2.578125 -0.53125 C 1.828125 -0.53125 1.375 -0.90625 1.1875 -1.671875 L 0.328125 -1.671875 C 0.453125 -1.109375 0.546875 -0.84375 0.75 -0.59375 C 1.125 -0.078125 1.828125 0.21875 2.59375 0.21875 C 3.96875 0.21875 4.921875 -0.78125 4.921875 -2.21875 C 4.921875 -3.5625 4.03125 -4.484375 2.71875 -4.484375 C 2.25 -4.484375 1.859375 -4.359375 1.46875 -4.0625 L 1.734375 -5.96875 L 4.5625 -5.96875 Z M 4.5625 -6.796875 "/>
</symbol>
<symbol overflow="visible" id="glyph0-4">
<path style="stroke:none;" d="M 2.484375 -4.84375 L 2.484375 0 L 3.328125 0 L 3.328125 -6.796875 L 2.765625 -6.796875 C 2.46875 -5.75 2.28125 -5.609375 0.984375 -5.453125 L 0.984375 -4.84375 Z M 2.484375 -4.84375 "/>
</symbol>
<symbol overflow="visible" id="glyph0-5">
<path style="stroke:none;" d="M 4.859375 -0.828125 L 1.28125 -0.828125 C 1.359375 -1.390625 1.671875 -1.75 2.5 -2.234375 L 3.46875 -2.75 C 4.40625 -3.265625 4.90625 -3.96875 4.90625 -4.8125 C 4.90625 -5.375 4.671875 -5.90625 4.265625 -6.265625 C 3.859375 -6.625 3.375 -6.796875 2.71875 -6.796875 C 1.859375 -6.796875 1.21875 -6.5 0.84375 -5.921875 C 0.609375 -5.5625 0.5 -5.125 0.484375 -4.4375 L 1.328125 -4.4375 C 1.359375 -4.90625 1.40625 -5.1875 1.53125 -5.40625 C 1.75 -5.8125 2.1875 -6.0625 2.703125 -6.0625 C 3.46875 -6.0625 4.03125 -5.515625 4.03125 -4.78125 C 4.03125 -4.25 3.71875 -3.796875 3.125 -3.4375 L 2.234375 -2.9375 C 0.8125 -2.140625 0.40625 -1.5 0.328125 0 L 4.859375 0 Z M 4.859375 -0.828125 "/>
</symbol>
<symbol overflow="visible" id="glyph0-6">
<path style="stroke:none;" d="M 2.125 -3.125 L 2.578125 -3.125 C 3.515625 -3.125 3.984375 -2.703125 3.984375 -1.890625 C 3.984375 -1.03125 3.46875 -0.53125 2.578125 -0.53125 C 1.65625 -0.53125 1.203125 -0.984375 1.15625 -1.96875 L 0.3125 -1.96875 C 0.34375 -1.421875 0.4375 -1.078125 0.609375 -0.765625 C 0.953125 -0.109375 1.625 0.21875 2.546875 0.21875 C 3.953125 0.21875 4.859375 -0.609375 4.859375 -1.90625 C 4.859375 -2.765625 4.515625 -3.25 3.703125 -3.515625 C 4.34375 -3.765625 4.65625 -4.25 4.65625 -4.9375 C 4.65625 -6.109375 3.875 -6.796875 2.578125 -6.796875 C 1.203125 -6.796875 0.484375 -6.046875 0.453125 -4.609375 L 1.296875 -4.609375 C 1.3125 -5.015625 1.34375 -5.25 1.453125 -5.453125 C 1.640625 -5.828125 2.0625 -6.0625 2.59375 -6.0625 C 3.34375 -6.0625 3.796875 -5.625 3.796875 -4.90625 C 3.796875 -4.421875 3.609375 -4.140625 3.25 -3.984375 C 3.015625 -3.890625 2.71875 -3.84375 2.125 -3.84375 Z M 2.125 -3.125 "/>
</symbol>
<symbol overflow="visible" id="glyph0-7">
<path style="stroke:none;" d="M 3.140625 -1.625 L 3.140625 0 L 3.984375 0 L 3.984375 -1.625 L 4.984375 -1.625 L 4.984375 -2.390625 L 3.984375 -2.390625 L 3.984375 -6.796875 L 3.359375 -6.796875 L 0.265625 -2.515625 L 0.265625 -1.625 Z M 3.140625 -2.390625 L 1 -2.390625 L 3.140625 -5.359375 Z M 3.140625 -2.390625 "/>
</symbol>
<symbol overflow="visible" id="glyph0-8">
<path style="stroke:none;" d="M 4.78125 -5.03125 C 4.609375 -6.140625 3.890625 -6.796875 2.84375 -6.796875 C 2.09375 -6.796875 1.421875 -6.4375 1.03125 -5.828125 C 0.609375 -5.171875 0.40625 -4.34375 0.40625 -3.09375 C 0.40625 -1.953125 0.578125 -1.234375 0.984375 -0.625 C 1.359375 -0.078125 1.953125 0.21875 2.703125 0.21875 C 3.984375 0.21875 4.921875 -0.734375 4.921875 -2.078125 C 4.921875 -3.34375 4.0625 -4.234375 2.84375 -4.234375 C 2.171875 -4.234375 1.640625 -3.96875 1.28125 -3.46875 C 1.28125 -5.125 1.828125 -6.046875 2.796875 -6.046875 C 3.390625 -6.046875 3.796875 -5.671875 3.9375 -5.03125 Z M 2.734375 -3.484375 C 3.546875 -3.484375 4.0625 -2.921875 4.0625 -2 C 4.0625 -1.15625 3.484375 -0.53125 2.703125 -0.53125 C 1.921875 -0.53125 1.328125 -1.1875 1.328125 -2.046875 C 1.328125 -2.890625 1.90625 -3.484375 2.734375 -3.484375 Z M 2.734375 -3.484375 "/>
</symbol>
<symbol overflow="visible" id="glyph0-9">
<path style="stroke:none;" d="M 4.984375 -6.796875 L 0.4375 -6.796875 L 0.4375 -5.96875 L 4.109375 -5.96875 C 2.5 -3.65625 1.828125 -2.234375 1.328125 0 L 2.21875 0 C 2.59375 -2.171875 3.453125 -4.046875 4.984375 -6.09375 Z M 4.984375 -6.796875 "/>
</symbol>
<symbol overflow="visible" id="glyph0-10">
<path style="stroke:none;" d="M 3.75 -3.578125 C 4.453125 -4 4.6875 -4.34375 4.6875 -4.984375 C 4.6875 -6.046875 3.84375 -6.796875 2.640625 -6.796875 C 1.4375 -6.796875 0.59375 -6.046875 0.59375 -4.984375 C 0.59375 -4.359375 0.828125 -4.015625 1.515625 -3.578125 C 0.734375 -3.203125 0.359375 -2.640625 0.359375 -1.890625 C 0.359375 -0.640625 1.296875 0.21875 2.640625 0.21875 C 3.984375 0.21875 4.921875 -0.640625 4.921875 -1.875 C 4.921875 -2.640625 4.53125 -3.203125 3.75 -3.578125 Z M 2.640625 -6.046875 C 3.359375 -6.046875 3.8125 -5.625 3.8125 -4.96875 C 3.8125 -4.34375 3.34375 -3.921875 2.640625 -3.921875 C 1.921875 -3.921875 1.453125 -4.34375 1.453125 -4.984375 C 1.453125 -5.625 1.921875 -6.046875 2.640625 -6.046875 Z M 2.640625 -3.203125 C 3.484375 -3.203125 4.0625 -2.671875 4.0625 -1.875 C 4.0625 -1.0625 3.484375 -0.53125 2.625 -0.53125 C 1.796875 -0.53125 1.21875 -1.078125 1.21875 -1.875 C 1.21875 -2.671875 1.796875 -3.203125 2.640625 -3.203125 Z M 2.640625 -3.203125 "/>
</symbol>
<symbol overflow="visible" id="glyph1-0">
<path style="stroke:none;" d=""/>
</symbol>
<symbol overflow="visible" id="glyph1-1">
<path style="stroke:none;" d="M 0 -0.953125 L 0 -4.890625 C 0 -5.71875 -0.234375 -6.34375 -0.734375 -6.796875 C -1.1875 -7.234375 -1.8125 -7.46875 -2.5 -7.46875 C -3.546875 -7.46875 -4.1875 -7 -4.625 -5.875 C -4.984375 -6.671875 -5.640625 -7.09375 -6.53125 -7.09375 C -7.15625 -7.09375 -7.734375 -6.859375 -8.140625 -6.390625 C -8.5625 -5.9375 -8.75 -5.34375 -8.75 -4.5 L -8.75 -0.953125 Z M -4.984375 -2.0625 L -7.765625 -2.0625 L -7.765625 -4.21875 C -7.765625 -4.84375 -7.6875 -5.203125 -7.453125 -5.5 C -7.21875 -5.8125 -6.859375 -5.96875 -6.375 -5.96875 C -5.90625 -5.96875 -5.53125 -5.8125 -5.296875 -5.5 C -5.0625 -5.203125 -4.984375 -4.84375 -4.984375 -4.21875 Z M -0.984375 -2.0625 L -4 -2.0625 L -4 -4.78125 C -4 -5.328125 -3.859375 -5.6875 -3.578125 -5.953125 C -3.296875 -6.21875 -2.921875 -6.359375 -2.484375 -6.359375 C -2.0625 -6.359375 -1.6875 -6.21875 -1.40625 -5.953125 C -1.109375 -5.6875 -0.984375 -5.328125 -0.984375 -4.78125 Z M -0.984375 -2.0625 "/>
</symbol>
<symbol overflow="visible" id="glyph1-2">
<path style="stroke:none;" d="M -6.28125 -1.796875 L -6.28125 -0.796875 L 0 -0.796875 L 0 -1.796875 Z M -8.75 -1.796875 L -8.75 -0.796875 L -7.484375 -0.796875 L -7.484375 -1.796875 Z M -8.75 -1.796875 "/>
</symbol>
<symbol overflow="visible" id="glyph1-3">
<path style="stroke:none;" d="M -6.28125 -3.046875 L -6.28125 -2.015625 L -8.015625 -2.015625 L -8.015625 -1.015625 L -6.28125 -1.015625 L -6.28125 -0.171875 L -5.46875 -0.171875 L -5.46875 -1.015625 L -0.71875 -1.015625 C -0.078125 -1.015625 0.28125 -1.453125 0.28125 -2.234375 C 0.28125 -2.46875 0.25 -2.71875 0.1875 -3.046875 L -0.640625 -3.046875 C -0.609375 -2.921875 -0.59375 -2.765625 -0.59375 -2.5625 C -0.59375 -2.140625 -0.71875 -2.015625 -1.15625 -2.015625 L -5.46875 -2.015625 L -5.46875 -3.046875 Z M -6.28125 -3.046875 "/>
</symbol>
<symbol overflow="visible" id="glyph1-4">
<path style="stroke:none;" d="M -4.53125 -5.25 C -5.765625 -5.25 -6.46875 -4.421875 -6.46875 -2.96875 C -6.46875 -1.515625 -5.71875 -0.5625 -4.546875 -0.5625 C -3.5625 -0.5625 -3.09375 -1.0625 -2.734375 -2.5625 L -2.515625 -3.484375 C -2.34375 -4.1875 -2.09375 -4.46875 -1.625 -4.46875 C -1.046875 -4.46875 -0.640625 -3.875 -0.640625 -3 C -0.640625 -2.453125 -0.796875 -2 -1.0625 -1.75 C -1.25 -1.59375 -1.421875 -1.53125 -1.875 -1.46875 L -1.875 -0.40625 C -0.421875 -0.453125 0.28125 -1.265625 0.28125 -2.921875 C 0.28125 -4.5 -0.5 -5.515625 -1.71875 -5.515625 C -2.65625 -5.515625 -3.171875 -4.984375 -3.46875 -3.734375 L -3.703125 -2.765625 C -3.890625 -1.953125 -4.15625 -1.609375 -4.59375 -1.609375 C -5.171875 -1.609375 -5.546875 -2.125 -5.546875 -2.9375 C -5.546875 -3.75 -5.203125 -4.171875 -4.53125 -4.203125 Z M -4.53125 -5.25 "/>
</symbol>
</g>
</defs>
<g id="surface107241">
<rect x="0" y="0" width="720" height="360" style="fill:rgb(100%,100%,100%);fill-opacity:1;stroke:none;"/>
<path style=" stroke:none;fill-rule:nonzero;fill:rgb(6.27451%,58.823529%,28.235294%);fill-opacity:1;" d="M 69.628906 310.988281 L 69.707031 310.984375 L 101.441406 306.554688 L 111.078125 306.554688 L 142.964844 310.992188 L 131.761719 310.992188 L 123.769531 309.835938 L 88.746094 309.835938 L 80.910156 310.988281 L 69.628906 310.988281 L 92.117188 309.355469 L 120.558594 309.351562 L 106.375 307.277344 L 106.21875 307.273438 L 106.0625 307.289062 L 92.039062 309.351562 L 92.117188 309.355469 Z M 69.628906 310.988281 "/>
<path style=" stroke:none;fill-rule:nonzero;fill:rgb(14.509804%,36.078431%,60%);fill-opacity:1;" d="M 69.628906 289.371094 L 69.71875 289.355469 L 69.71875 289.039062 L 69.988281 288.535156 L 70.613281 287.902344 L 71.238281 287.464844 L 72.847656 286.683594 L 75.085938 285.929688 L 77.410156 285.347656 L 79.109375 285.003906 L 80.628906 284.738281 L 84.117188 284.25 L 86.355469 284 L 88.769531 283.773438 L 91.71875 283.550781 L 93.867188 283.417969 L 98.695312 283.203125 L 102.273438 283.113281 L 105.046875 283.074219 L 111.039062 283.074219 L 114.613281 283.125 L 117.207031 283.191406 L 120.070312 283.296875 L 122.484375 283.417969 L 126.6875 283.707031 L 130.445312 284.078125 L 132.144531 284.289062 L 134.828125 284.699219 L 136.882812 285.097656 L 138.316406 285.441406 L 139.925781 285.929688 L 141.355469 286.527344 L 142.429688 287.199219 L 142.964844 287.769531 L 130.445312 287.769531 L 129.820312 287.242188 L 129.101562 286.832031 L 127.761719 286.289062 L 126.421875 285.902344 L 124.542969 285.519531 L 122.84375 285.269531 L 120.515625 285.019531 L 118.460938 284.859375 L 116.3125 284.738281 L 114.257812 284.660156 L 110.320312 284.582031 L 105.761719 284.582031 L 104.0625 284.605469 L 100.574219 284.714844 L 98.695312 284.804688 L 96.011719 284.992188 L 94.132812 285.164062 L 91.898438 285.429688 L 90.378906 285.652344 L 88.5 285.996094 L 87.160156 286.300781 L 85.636719 286.738281 L 84.742188 287.070312 L 83.9375 287.4375 L 83.222656 287.875 L 82.6875 288.339844 L 82.328125 288.828125 L 82.148438 289.304688 L 82.148438 291.355469 L 82.328125 291.832031 L 82.777344 292.386719 L 83.9375 293.195312 L 85.636719 293.894531 L 87.605469 294.453125 L 89.484375 294.847656 L 90.558594 295.035156 L 91.988281 295.246094 L 94.222656 295.507812 L 97.445312 295.773438 L 99.320312 295.878906 L 102.183594 295.984375 L 105.136719 296.039062 L 109.070312 296.039062 L 112.558594 295.984375 L 114.882812 295.917969 L 117.296875 295.8125 L 120.605469 295.589844 L 122.664062 295.378906 L 124.453125 295.125 L 125.792969 294.875 L 126.6875 294.664062 L 128.03125 294.253906 L 129.101562 293.804688 L 129.90625 293.339844 L 130.445312 292.890625 L 142.964844 292.890625 L 142.429688 293.417969 L 141.625 293.933594 L 140.820312 294.320312 L 139.566406 294.78125 L 138.136719 295.191406 L 136.078125 295.65625 L 134.378906 295.960938 L 132.144531 296.289062 L 130.085938 296.542969 L 127.851562 296.765625 L 124.542969 297.03125 L 122.394531 297.164062 L 120.070312 297.28125 L 117.296875 297.386719 L 113.808594 297.480469 L 110.054688 297.535156 L 106.566406 297.546875 L 102.808594 297.519531 L 100.035156 297.46875 L 96.371094 297.347656 L 91.808594 297.109375 L 88.5 296.859375 L 85.90625 296.609375 L 83.671875 296.34375 L 81.167969 295.984375 L 77.945312 295.402344 L 75.980469 294.953125 L 74.636719 294.582031 L 73.117188 294.066406 L 72.042969 293.605469 L 70.792969 292.863281 L 69.898438 291.925781 L 69.628906 291.195312 Z M 69.628906 289.371094 "/>
<path style=" stroke:none;fill-rule:nonzero;fill:rgb(96.862745%,70.196078%,16.862745%);fill-opacity:1;" d="M 69.628906 313.113281 L 69.71875 313.113281 L 69.71875 313.070312 L 70.078125 312.980469 L 70.972656 312.855469 L 72.132812 312.753906 L 73.386719 312.675781 L 74.191406 312.632812 L 75.53125 312.570312 L 76.695312 312.527344 L 79.644531 312.4375 L 83.402344 312.351562 L 85.460938 312.316406 L 87.785156 312.28125 L 91.09375 312.246094 L 92.613281 312.230469 L 97.265625 312.199219 L 102.542969 312.179688 L 108.355469 312.171875 L 111.039062 312.175781 L 114.703125 312.183594 L 119.710938 312.203125 L 122.574219 312.226562 L 124.808594 312.246094 L 127.136719 312.269531 L 129.996094 312.3125 L 132.679688 312.359375 L 134.828125 312.40625 L 136.972656 312.46875 L 138.761719 312.53125 L 140.28125 312.601562 L 141.625 312.6875 L 142.429688 312.757812 L 142.964844 312.828125 L 130.535156 312.828125 L 129.820312 312.757812 L 129.015625 312.703125 L 127.671875 312.636719 L 126.332031 312.589844 L 124.988281 312.550781 L 122.484375 312.496094 L 120.339844 312.464844 L 117.65625 312.4375 L 115.0625 312.417969 L 112.109375 312.40625 L 110.320312 312.402344 L 105.582031 312.402344 L 101.289062 312.417969 L 98.785156 312.433594 L 96.996094 312.449219 L 94.492188 312.480469 L 92.972656 312.503906 L 92.078125 312.519531 L 89.394531 312.582031 L 87.605469 312.636719 L 86.621094 312.675781 L 85.371094 312.738281 L 84.476562 312.789062 L 83.492188 312.871094 L 82.953125 312.929688 L 82.238281 313.066406 L 82.148438 313.429688 L 82.417969 313.503906 L 82.953125 313.585938 L 83.671875 313.660156 L 84.742188 313.734375 L 85.816406 313.792969 L 87.695312 313.871094 L 89.304688 313.925781 L 90.558594 313.960938 L 92.972656 314.011719 L 93.957031 314.03125 L 96.28125 314.066406 L 98.695312 314.09375 L 101.648438 314.121094 L 103.882812 314.132812 L 107.460938 314.140625 L 112.019531 314.140625 L 117.386719 314.128906 L 120.785156 314.113281 L 123.109375 314.097656 L 124.632812 314.082031 L 126.507812 314.0625 L 127.851562 314.042969 L 129.101562 314.019531 L 130.625 313.984375 L 130.625 313.503906 L 108.535156 313.503906 L 108.535156 313.277344 L 142.875 313.277344 L 142.964844 314.0625 L 141.085938 314.117188 L 138.761719 314.167969 L 136.527344 314.207031 L 134.199219 314.242188 L 130.890625 314.28125 L 128.207031 314.304688 L 124.09375 314.332031 L 120.339844 314.351562 L 116.402344 314.363281 L 112.914062 314.367188 L 108.800781 314.371094 L 105.136719 314.367188 L 101.199219 314.355469 L 98.070312 314.339844 L 95.207031 314.320312 L 92.34375 314.292969 L 88.769531 314.25 L 86.441406 314.214844 L 84.027344 314.175781 L 81.613281 314.125 L 79.46875 314.070312 L 78.035156 314.027344 L 76.605469 313.980469 L 75.085938 313.917969 L 73.652344 313.851562 L 72.582031 313.789062 L 71.597656 313.71875 L 70.882812 313.652344 L 70.164062 313.5625 L 69.808594 313.488281 L 69.628906 313.425781 Z M 69.628906 313.113281 "/>
<path style=" stroke:none;fill-rule:nonzero;fill:rgb(83.921569%,15.686275%,22.352941%);fill-opacity:1;" d="M 69.628906 298.726562 L 142.964844 298.726562 L 142.964844 299.4375 L 112.402344 299.445312 L 112.402344 305.375 L 100.105469 305.375 L 100.105469 299.449219 L 99.925781 299.4375 L 69.628906 299.4375 Z M 69.628906 298.726562 "/>
<path style=" stroke:none;fill-rule:nonzero;fill:rgb(96.862745%,70.196078%,16.862745%);fill-opacity:1;" d="M 146.824219 146.460938 L 146.914062 146.191406 L 146.914062 140.828125 L 147.273438 128.757812 L 148.167969 112.128906 L 149.328125 98.449219 L 150.582031 87.71875 L 151.386719 82.085938 L 152.726562 74.039062 L 153.890625 68.140625 L 156.84375 56.070312 L 160.597656 44.804688 L 162.65625 39.976562 L 164.980469 35.414062 L 168.289062 30.320312 L 169.808594 28.441406 L 174.460938 24.148438 L 179.738281 21.46875 L 185.550781 20.664062 L 188.234375 20.929688 L 191.898438 22.003906 L 196.910156 24.953125 L 199.769531 27.636719 L 202.007812 30.320312 L 204.332031 33.804688 L 207.195312 39.171875 L 209.875 45.609375 L 212.023438 52.046875 L 214.167969 60.09375 L 215.957031 68.675781 L 217.476562 78.0625 L 218.820312 89.328125 L 219.625 98.714844 L 220.160156 108.105469 L 207.730469 108.105469 L 207.015625 98.714844 L 206.210938 91.476562 L 204.867188 82.625 L 203.527344 76.1875 L 202.183594 71.089844 L 199.679688 64.117188 L 197.535156 59.824219 L 194.851562 56.070312 L 192.257812 53.65625 L 189.304688 52.046875 L 187.519531 51.507812 L 182.777344 51.507812 L 178.484375 53.386719 L 175.980469 55.53125 L 174.191406 57.679688 L 171.6875 61.703125 L 170.167969 64.921875 L 169.273438 67.066406 L 166.589844 75.382812 L 164.800781 82.890625 L 163.816406 87.988281 L 162.566406 96.035156 L 161.671875 103.277344 L 160.6875 114.003906 L 160.152344 122.050781 L 159.433594 140.292969 L 159.347656 188.574219 L 159.613281 198.765625 L 160.152344 209.761719 L 160.867188 219.417969 L 161.941406 229.609375 L 163.011719 237.390625 L 164.890625 247.851562 L 166.5 254.824219 L 167.753906 259.382812 L 170.167969 266.625 L 171.152344 269.039062 L 173.476562 273.867188 L 175.890625 277.625 L 178.84375 280.84375 L 181.078125 282.453125 L 184.65625 283.792969 L 189.21875 283.792969 L 194.582031 282.183594 L 197.980469 280.039062 L 200.308594 277.890625 L 201.828125 276.015625 L 203.707031 273.0625 L 205.046875 270.382812 L 206.300781 267.429688 L 207.820312 262.871094 L 207.820312 198.765625 L 185.730469 198.496094 L 185.730469 168.457031 L 220.070312 168.1875 L 220.160156 273.0625 L 218.285156 280.304688 L 215.957031 287.28125 L 213.722656 292.644531 L 211.398438 297.203125 L 208.085938 302.300781 L 205.40625 305.519531 L 201.289062 309.273438 L 197.535156 311.6875 L 193.597656 313.296875 L 190.113281 314.101562 L 185.996094 314.371094 L 182.332031 313.835938 L 178.394531 312.226562 L 175.265625 310.078125 L 172.402344 307.398438 L 169.542969 303.910156 L 165.964844 298.277344 L 163.640625 293.71875 L 161.222656 288.085938 L 158.808594 281.378906 L 156.664062 274.136719 L 155.230469 268.503906 L 153.800781 262.066406 L 152.28125 254.019531 L 150.851562 244.898438 L 149.777344 236.585938 L 148.792969 227.195312 L 148.078125 218.34375 L 147.363281 206.277344 L 147.003906 196.621094 L 146.824219 188.304688 Z M 146.824219 146.460938 "/>
<path style=" stroke:none;fill-rule:nonzero;fill:rgb(14.509804%,36.078431%,60%);fill-opacity:1;" d="M 224.019531 308.027344 L 224.109375 308.015625 L 224.109375 307.769531 L 224.378906 307.378906 L 225.003906 306.886719 L 225.632812 306.546875 L 227.242188 305.941406 L 229.476562 305.355469 L 231.800781 304.90625 L 233.5 304.636719 L 235.023438 304.433594 L 238.507812 304.054688 L 240.746094 303.859375 L 243.160156 303.683594 L 246.113281 303.507812 L 248.257812 303.40625 L 253.085938 303.242188 L 256.664062 303.167969 L 259.4375 303.140625 L 265.429688 303.140625 L 269.007812 303.179688 L 271.601562 303.230469 L 274.460938 303.3125 L 276.875 303.40625 L 281.082031 303.632812 L 284.835938 303.917969 L 286.535156 304.082031 L 289.21875 304.402344 L 291.277344 304.710938 L 292.707031 304.976562 L 294.316406 305.355469 L 295.746094 305.820312 L 296.820312 306.34375 L 297.355469 306.785156 L 284.835938 306.785156 L 284.210938 306.371094 L 283.496094 306.054688 L 282.152344 305.632812 L 280.8125 305.335938 L 278.933594 305.039062 L 277.234375 304.84375 L 274.910156 304.648438 L 272.851562 304.523438 L 270.707031 304.433594 L 268.648438 304.371094 L 264.714844 304.308594 L 260.152344 304.308594 L 258.453125 304.328125 L 254.964844 304.414062 L 253.085938 304.484375 L 250.40625 304.628906 L 248.527344 304.761719 L 246.289062 304.964844 L 244.769531 305.140625 L 242.890625 305.40625 L 241.550781 305.644531 L 240.03125 305.984375 L 239.136719 306.238281 L 238.332031 306.527344 L 237.613281 306.867188 L 237.078125 307.226562 L 236.722656 307.605469 L 236.542969 307.972656 L 236.542969 309.566406 L 236.722656 309.933594 L 237.167969 310.367188 L 238.332031 310.992188 L 240.03125 311.535156 L 241.996094 311.96875 L 243.875 312.277344 L 244.949219 312.421875 L 246.378906 312.585938 L 248.617188 312.789062 L 251.835938 312.996094 L 253.714844 313.078125 L 256.574219 313.160156 L 259.527344 313.199219 L 263.460938 313.199219 L 266.949219 313.160156 L 269.273438 313.109375 L 271.691406 313.027344 L 275 312.851562 L 277.054688 312.6875 L 278.84375 312.492188 L 280.1875 312.296875 L 281.082031 312.132812 L 282.421875 311.8125 L 283.496094 311.464844 L 284.300781 311.105469 L 284.835938 310.757812 L 297.355469 310.757812 L 296.820312 311.167969 L 296.015625 311.566406 L 295.210938 311.867188 L 293.957031 312.226562 L 292.527344 312.542969 L 290.472656 312.902344 L 288.773438 313.140625 L 286.535156 313.394531 L 284.480469 313.589844 L 282.242188 313.765625 L 278.933594 313.96875 L 276.789062 314.074219 L 274.460938 314.164062 L 271.691406 314.246094 L 268.203125 314.320312 L 264.445312 314.359375 L 260.957031 314.371094 L 257.203125 314.351562 L 254.429688 314.308594 L 250.761719 314.214844 L 246.199219 314.03125 L 242.890625 313.835938 L 240.296875 313.640625 L 238.0625 313.4375 L 235.558594 313.160156 L 232.339844 312.707031 L 230.371094 312.359375 L 229.03125 312.070312 L 227.507812 311.671875 L 226.4375 311.3125 L 225.183594 310.734375 L 224.289062 310.007812 L 224.019531 309.441406 Z M 224.019531 308.027344 "/>
<path style=" stroke:none;fill-rule:nonzero;fill:rgb(96.862745%,70.196078%,16.862745%);fill-opacity:1;" d="M 224.019531 164.925781 L 224.109375 164.707031 L 224.109375 160.328125 L 224.46875 150.480469 L 225.363281 136.90625 L 226.523438 125.742188 L 227.777344 116.988281 L 228.582031 112.390625 L 229.925781 105.824219 L 231.085938 101.007812 L 234.039062 91.15625 L 237.792969 81.964844 L 239.851562 78.023438 L 242.175781 74.300781 L 245.484375 70.140625 L 247.003906 68.609375 L 251.65625 65.109375 L 256.933594 62.917969 L 262.746094 62.261719 L 265.429688 62.480469 L 269.097656 63.355469 L 274.105469 65.765625 L 276.964844 67.953125 L 279.203125 70.140625 L 281.527344 72.988281 L 284.390625 77.367188 L 287.074219 82.621094 L 289.21875 87.875 L 291.367188 94.441406 L 293.152344 101.445312 L 294.675781 109.105469 L 296.015625 118.300781 L 296.820312 125.960938 L 297.355469 133.625 L 284.925781 133.625 L 284.210938 125.960938 L 283.40625 120.050781 L 282.0625 112.828125 L 280.722656 107.574219 L 279.382812 103.414062 L 276.875 97.722656 L 274.730469 94.222656 L 272.046875 91.15625 L 269.453125 89.1875 L 266.503906 87.875 L 264.714844 87.433594 L 259.972656 87.433594 L 255.679688 88.96875 L 253.175781 90.71875 L 251.386719 92.46875 L 248.882812 95.753906 L 247.363281 98.378906 L 246.46875 100.132812 L 243.785156 106.917969 L 241.996094 113.046875 L 241.015625 117.207031 L 239.761719 123.773438 L 238.867188 129.683594 L 237.882812 138.441406 L 237.347656 145.007812 L 236.632812 159.890625 L 236.542969 199.292969 L 236.808594 207.613281 L 237.347656 216.585938 L 238.0625 224.46875 L 239.136719 232.785156 L 240.207031 239.132812 L 242.085938 247.671875 L 243.695312 253.363281 L 244.949219 257.085938 L 247.363281 262.996094 L 248.347656 264.964844 L 250.671875 268.90625 L 253.085938 271.96875 L 256.039062 274.597656 L 258.273438 275.910156 L 261.851562 277.003906 L 266.414062 277.003906 L 271.777344 275.691406 L 275.175781 273.941406 L 277.503906 272.1875 L 279.023438 270.65625 L 280.902344 268.25 L 282.242188 266.058594 L 283.496094 263.652344 L 285.015625 259.929688 L 285.015625 207.613281 L 262.925781 207.394531 L 262.925781 182.875 L 297.269531 182.65625 L 297.355469 268.25 L 295.480469 274.160156 L 293.152344 279.851562 L 290.917969 284.226562 L 288.59375 287.949219 L 285.285156 292.109375 L 282.601562 294.734375 L 278.488281 297.800781 L 274.730469 299.769531 L 270.796875 301.082031 L 267.308594 301.742188 L 263.195312 301.960938 L 259.527344 301.523438 L 255.589844 300.207031 L 252.460938 298.457031 L 249.597656 296.269531 L 246.738281 293.421875 L 243.160156 288.824219 L 240.835938 285.105469 L 238.421875 280.507812 L 236.003906 275.035156 L 233.859375 269.125 L 232.429688 264.527344 L 230.996094 259.273438 L 229.476562 252.707031 L 228.046875 245.265625 L 226.972656 238.476562 L 225.988281 230.816406 L 225.273438 223.59375 L 224.558594 213.742188 L 224.199219 205.863281 L 224.019531 199.074219 Z M 224.019531 164.925781 "/>
<path style=" stroke:none;fill-rule:nonzero;fill:rgb(14.509804%,36.078431%,60%);fill-opacity:1;" d="M 301.21875 159.566406 L 301.304688 159.328125 L 301.304688 153.578125 L 301.574219 144.472656 L 302.199219 132.972656 L 302.828125 125.066406 L 304.4375 110.933594 L 306.671875 97.277344 L 308.996094 86.738281 L 310.695312 80.507812 L 312.21875 75.714844 L 315.707031 66.851562 L 317.941406 62.300781 L 320.355469 58.226562 L 323.308594 54.15625 L 325.453125 51.757812 L 330.285156 47.925781 L 333.859375 46.25 L 336.632812 45.53125 L 342.625 45.53125 L 346.203125 46.488281 L 348.796875 47.6875 L 351.65625 49.605469 L 354.074219 51.757812 L 358.277344 57.03125 L 362.03125 63.738281 L 363.730469 67.570312 L 366.414062 74.996094 L 368.472656 82.183594 L 369.902344 88.414062 L 371.511719 97.277344 L 372.945312 108.058594 L 374.015625 120.277344 L 374.554688 130.578125 L 362.03125 130.578125 L 361.40625 120.996094 L 360.691406 113.570312 L 359.347656 103.746094 L 358.007812 96.800781 L 356.128906 89.851562 L 354.429688 85.300781 L 352.105469 80.746094 L 350.046875 77.871094 L 347.902344 75.714844 L 345.84375 74.28125 L 341.910156 72.84375 L 337.347656 72.84375 L 335.648438 73.320312 L 332.160156 75.238281 L 330.285156 76.914062 L 327.601562 80.269531 L 325.722656 83.382812 L 323.484375 88.175781 L 321.964844 92.246094 L 320.085938 98.476562 L 318.746094 103.984375 L 317.226562 111.890625 L 316.332031 117.882812 L 315.527344 124.589844 L 314.8125 132.496094 L 314.273438 140.878906 L 313.917969 149.742188 L 313.738281 158.367188 L 313.738281 195.5 L 313.917969 204.125 L 314.363281 214.1875 L 315.527344 228.800781 L 317.226562 241.5 L 319.195312 251.5625 L 321.070312 258.746094 L 322.144531 262.101562 L 323.574219 265.933594 L 325.8125 270.726562 L 329.03125 275.519531 L 330.910156 277.433594 L 333.769531 279.351562 L 336.722656 280.308594 L 340.65625 280.308594 L 344.144531 279.351562 L 346.472656 278.152344 L 348.886719 276.238281 L 352.195312 272.164062 L 354.25 268.332031 L 356.039062 263.777344 L 357.382812 259.226562 L 358.277344 255.394531 L 359.617188 247.96875 L 360.691406 239.820312 L 361.496094 231.4375 L 362.03125 223.292969 L 374.554688 223.292969 L 374.015625 232.875 L 373.210938 242.21875 L 372.40625 249.164062 L 371.15625 257.550781 L 369.722656 264.976562 L 367.667969 273.363281 L 365.96875 278.871094 L 363.730469 284.859375 L 361.675781 289.414062 L 359.4375 293.484375 L 356.128906 298.277344 L 353.984375 300.671875 L 351.65625 302.828125 L 348.886719 304.746094 L 345.398438 306.421875 L 341.640625 307.378906 L 338.152344 307.621094 L 334.398438 307.140625 L 331.625 306.183594 L 327.957031 304.027344 L 323.398438 299.714844 L 320.085938 295.164062 L 317.496094 290.609375 L 315.257812 285.820312 L 312.753906 279.351562 L 309.535156 268.808594 L 307.566406 260.664062 L 306.226562 253.957031 L 304.707031 244.613281 L 303.632812 236.226562 L 302.378906 222.8125 L 301.484375 205.804688 L 301.21875 192.625 Z M 301.21875 159.566406 "/>
<path style=" stroke:none;fill-rule:nonzero;fill:rgb(83.921569%,15.686275%,22.352941%);fill-opacity:1;" d="M 301.21875 308.800781 L 374.554688 308.800781 L 374.554688 309.394531 L 343.988281 309.402344 L 343.988281 314.371094 L 331.691406 314.371094 L 331.691406 309.40625 L 331.515625 309.394531 L 301.21875 309.394531 Z M 301.21875 308.800781 "/>
<path style=" stroke:none;fill-rule:nonzero;fill:rgb(96.862745%,70.196078%,16.862745%);fill-opacity:1;" d="M 378.414062 180.296875 L 378.503906 180.125 L 378.503906 176.683594 L 378.859375 168.945312 L 379.753906 158.277344 L 380.917969 149.503906 L 382.167969 142.621094 L 382.972656 139.007812 L 384.316406 133.847656 L 385.476562 130.0625 L 388.429688 122.320312 L 392.1875 115.09375 L 394.242188 111.996094 L 396.566406 109.070312 L 399.878906 105.800781 L 401.398438 104.597656 L 406.046875 101.84375 L 411.324219 100.125 L 417.136719 99.609375 L 419.820312 99.78125 L 423.488281 100.46875 L 428.496094 102.363281 L 431.359375 104.082031 L 433.59375 105.800781 L 435.917969 108.039062 L 438.78125 111.480469 L 441.464844 115.609375 L 443.609375 119.738281 L 445.757812 124.898438 L 447.546875 130.40625 L 449.066406 136.425781 L 450.40625 143.652344 L 451.210938 149.675781 L 451.75 155.695312 L 439.316406 155.695312 L 438.601562 149.675781 L 437.796875 145.027344 L 436.457031 139.351562 L 435.113281 135.222656 L 433.773438 131.953125 L 431.269531 127.480469 L 429.121094 124.726562 L 426.4375 122.320312 L 423.847656 120.769531 L 420.894531 119.738281 L 419.105469 119.394531 L 414.367188 119.394531 L 410.074219 120.597656 L 407.570312 121.976562 L 405.78125 123.351562 L 403.277344 125.933594 L 401.753906 127.996094 L 400.859375 129.371094 L 398.179688 134.707031 L 396.390625 139.523438 L 395.40625 142.792969 L 394.152344 147.953125 L 393.257812 152.597656 L 392.277344 159.480469 L 391.738281 164.640625 L 391.023438 176.339844 L 390.933594 207.308594 L 391.203125 213.847656 L 391.738281 220.902344 L 392.453125 227.09375 L 393.527344 233.632812 L 394.601562 238.621094 L 396.480469 245.332031 L 398.089844 249.804688 L 399.339844 252.730469 L 401.753906 257.375 L 402.738281 258.921875 L 405.066406 262.019531 L 407.480469 264.429688 L 410.429688 266.492188 L 412.667969 267.527344 L 416.242188 268.386719 L 420.804688 268.386719 L 426.171875 267.355469 L 429.570312 265.976562 L 431.894531 264.601562 L 433.414062 263.398438 L 435.292969 261.503906 L 436.636719 259.785156 L 437.886719 257.890625 L 439.40625 254.964844 L 439.40625 213.847656 L 417.316406 213.675781 L 417.316406 194.40625 L 451.660156 194.234375 L 451.75 261.503906 L 449.871094 266.148438 L 447.546875 270.621094 L 445.308594 274.0625 L 442.984375 276.988281 L 439.675781 280.257812 L 436.992188 282.320312 L 432.878906 284.730469 L 429.121094 286.277344 L 425.1875 287.3125 L 421.699219 287.828125 L 417.585938 288 L 413.917969 287.65625 L 409.984375 286.625 L 406.851562 285.246094 L 403.992188 283.527344 L 401.128906 281.289062 L 397.550781 277.675781 L 395.226562 274.75 L 392.8125 271.140625 L 390.398438 266.835938 L 388.25 262.191406 L 386.820312 258.578125 L 385.390625 254.449219 L 383.867188 249.289062 L 382.4375 243.4375 L 381.363281 238.105469 L 380.378906 232.085938 L 379.664062 226.40625 L 378.949219 218.664062 L 378.59375 212.472656 L 378.414062 207.136719 Z M 378.414062 180.296875 "/>
<path style=" stroke:none;fill-rule:nonzero;fill:rgb(83.921569%,15.686275%,22.352941%);fill-opacity:1;" d="M 378.414062 289.179688 L 451.75 289.179688 L 451.75 291.875 L 421.183594 291.898438 L 421.183594 314.371094 L 408.886719 314.371094 L 408.886719 291.921875 L 408.710938 291.875 L 378.414062 291.875 Z M 378.414062 289.179688 "/>
<path style=" stroke:none;fill-rule:nonzero;fill:rgb(96.862745%,70.196078%,16.862745%);fill-opacity:1;" d="M 455.609375 146.460938 L 455.699219 146.191406 L 455.699219 140.828125 L 456.054688 128.757812 L 456.949219 112.128906 L 458.113281 98.449219 L 459.367188 87.71875 L 460.171875 82.085938 L 461.511719 74.039062 L 462.675781 68.140625 L 465.625 56.070312 L 469.382812 44.804688 L 471.4375 39.976562 L 473.765625 35.414062 L 477.074219 30.320312 L 478.59375 28.441406 L 483.246094 24.148438 L 488.519531 21.46875 L 494.335938 20.664062 L 497.015625 20.929688 L 500.683594 22.003906 L 505.691406 24.953125 L 508.554688 27.636719 L 510.789062 30.320312 L 513.117188 33.804688 L 515.976562 39.171875 L 518.660156 45.609375 L 520.804688 52.046875 L 522.953125 60.09375 L 524.742188 68.675781 L 526.261719 78.0625 L 527.605469 89.328125 L 528.410156 98.714844 L 528.945312 108.105469 L 516.515625 108.105469 L 515.796875 98.714844 L 514.992188 91.476562 L 513.652344 82.625 L 512.308594 76.1875 L 510.96875 71.089844 L 508.464844 64.117188 L 506.316406 59.824219 L 503.636719 56.070312 L 501.042969 53.65625 L 498.089844 52.046875 L 496.300781 51.507812 L 491.5625 51.507812 L 487.269531 53.386719 L 484.765625 55.53125 L 482.976562 57.679688 L 480.472656 61.703125 L 478.953125 64.921875 L 478.058594 67.066406 L 475.375 75.382812 L 473.585938 82.890625 L 472.601562 87.988281 L 471.347656 96.035156 L 470.457031 103.277344 L 469.472656 114.003906 L 468.933594 122.050781 L 468.21875 140.292969 L 468.128906 188.574219 L 468.398438 198.765625 L 468.933594 209.761719 L 469.648438 219.417969 L 470.722656 229.609375 L 471.796875 237.390625 L 473.675781 247.851562 L 475.285156 254.824219 L 476.535156 259.382812 L 478.953125 266.625 L 479.933594 269.039062 L 482.261719 273.867188 L 484.675781 277.625 L 487.625 280.84375 L 489.863281 282.453125 L 493.441406 283.792969 L 498 283.792969 L 503.367188 282.183594 L 506.765625 280.039062 L 509.089844 277.890625 L 510.609375 276.015625 L 512.488281 273.0625 L 513.832031 270.382812 L 515.082031 267.429688 L 516.601562 262.871094 L 516.601562 198.765625 L 494.511719 198.496094 L 494.511719 168.457031 L 528.855469 168.1875 L 528.945312 273.0625 L 527.066406 280.304688 L 524.742188 287.28125 L 522.507812 292.644531 L 520.179688 297.203125 L 516.871094 302.300781 L 514.1875 305.519531 L 510.074219 309.273438 L 506.316406 311.6875 L 502.382812 313.296875 L 498.894531 314.101562 L 494.78125 314.371094 L 491.113281 313.835938 L 487.179688 312.226562 L 484.050781 310.078125 L 481.1875 307.398438 L 478.324219 303.910156 L 474.746094 298.277344 L 472.421875 293.71875 L 470.007812 288.085938 L 467.59375 281.378906 L 465.445312 274.136719 L 464.015625 268.503906 L 462.585938 262.066406 L 461.066406 254.019531 L 459.632812 244.898438 L 458.558594 236.585938 L 457.578125 227.195312 L 456.859375 218.34375 L 456.144531 206.277344 L 455.789062 196.621094 L 455.609375 188.304688 Z M 455.609375 146.460938 "/>
<path style=" stroke:none;fill-rule:nonzero;fill:rgb(14.509804%,36.078431%,60%);fill-opacity:1;" d="M 532.804688 148.457031 L 532.894531 148.1875 L 532.894531 141.742188 L 533.164062 131.542969 L 533.789062 118.65625 L 534.414062 109.796875 L 536.023438 93.957031 L 538.261719 78.652344 L 540.585938 66.839844 L 542.285156 59.859375 L 543.804688 54.492188 L 547.292969 44.558594 L 549.527344 39.457031 L 551.945312 34.890625 L 554.894531 30.328125 L 557.042969 27.644531 L 561.871094 23.347656 L 565.449219 21.46875 L 568.222656 20.664062 L 574.214844 20.664062 L 577.789062 21.738281 L 580.382812 23.078125 L 583.246094 25.226562 L 585.660156 27.644531 L 589.863281 33.550781 L 593.621094 41.066406 L 595.320312 45.363281 L 598.003906 53.683594 L 600.058594 61.738281 L 601.492188 68.71875 L 603.101562 78.652344 L 604.53125 90.734375 L 605.605469 104.425781 L 606.140625 115.96875 L 593.621094 115.96875 L 592.996094 105.230469 L 592.277344 96.910156 L 590.9375 85.902344 L 589.597656 78.117188 L 587.71875 70.332031 L 586.019531 65.230469 L 583.691406 60.128906 L 581.636719 56.90625 L 579.488281 54.492188 L 577.433594 52.878906 L 573.496094 51.269531 L 568.9375 51.269531 L 567.238281 51.804688 L 563.75 53.953125 L 561.871094 55.832031 L 559.1875 59.589844 L 557.308594 63.082031 L 555.074219 68.449219 L 553.554688 73.015625 L 551.675781 79.996094 L 550.335938 86.171875 L 548.8125 95.03125 L 547.917969 101.742188 L 547.113281 109.257812 L 546.398438 118.117188 L 545.863281 127.515625 L 545.503906 137.449219 L 545.324219 147.113281 L 545.324219 188.726562 L 545.503906 198.390625 L 545.953125 209.667969 L 547.113281 226.042969 L 548.8125 240.273438 L 550.78125 251.546875 L 552.660156 259.601562 L 553.734375 263.359375 L 555.164062 267.65625 L 557.398438 273.027344 L 560.617188 278.394531 L 562.496094 280.542969 L 565.359375 282.691406 L 568.308594 283.765625 L 572.246094 283.765625 L 575.734375 282.691406 L 578.058594 281.347656 L 580.472656 279.199219 L 583.78125 274.636719 L 585.839844 270.339844 L 587.628906 265.242188 L 588.96875 260.140625 L 589.863281 255.84375 L 591.207031 247.519531 L 592.277344 238.394531 L 593.082031 228.996094 L 593.621094 219.867188 L 606.140625 219.867188 L 605.605469 230.609375 L 604.800781 241.078125 L 603.996094 248.863281 L 602.742188 258.261719 L 601.3125 266.582031 L 599.253906 275.980469 L 597.554688 282.152344 L 595.320312 288.867188 L 593.261719 293.96875 L 591.027344 298.53125 L 587.71875 303.898438 L 585.570312 306.585938 L 583.246094 309 L 580.472656 311.148438 L 576.984375 313.027344 L 573.230469 314.101562 L 569.742188 314.371094 L 565.984375 313.832031 L 563.210938 312.761719 L 559.546875 310.34375 L 554.984375 305.511719 L 551.675781 300.410156 L 549.082031 295.308594 L 546.847656 289.941406 L 544.34375 282.691406 L 541.121094 270.878906 L 539.15625 261.75 L 537.8125 254.234375 L 536.292969 243.761719 L 535.21875 234.367188 L 533.96875 219.332031 L 533.074219 200.269531 L 532.804688 185.503906 Z M 532.804688 148.457031 "/>
<path style=" stroke:none;fill-rule:nonzero;fill:rgb(14.509804%,36.078431%,60%);fill-opacity:1;" d="M 610 307.066406 L 610.089844 307.054688 L 610.089844 306.769531 L 610.359375 306.320312 L 610.984375 305.753906 L 611.609375 305.363281 L 613.21875 304.664062 L 615.457031 303.992188 L 617.78125 303.46875 L 619.480469 303.164062 L 621 302.925781 L 624.488281 302.488281 L 626.726562 302.265625 L 629.140625 302.0625 L 632.089844 301.863281 L 634.238281 301.746094 L 639.066406 301.554688 L 642.644531 301.472656 L 645.417969 301.4375 L 651.410156 301.4375 L 654.988281 301.484375 L 657.578125 301.542969 L 660.441406 301.636719 L 662.855469 301.746094 L 667.058594 302.003906 L 670.816406 302.335938 L 672.515625 302.523438 L 675.199219 302.890625 L 677.253906 303.246094 L 678.6875 303.554688 L 680.296875 303.992188 L 681.726562 304.523438 L 682.800781 305.125 L 683.335938 305.632812 L 670.816406 305.632812 L 670.191406 305.160156 L 669.476562 304.792969 L 668.132812 304.308594 L 666.792969 303.96875 L 664.914062 303.625 L 663.214844 303.398438 L 660.890625 303.175781 L 658.832031 303.035156 L 656.6875 302.925781 L 654.628906 302.855469 L 650.695312 302.785156 L 646.132812 302.785156 L 644.433594 302.808594 L 640.945312 302.902344 L 639.066406 302.984375 L 636.382812 303.152344 L 634.507812 303.304688 L 632.269531 303.542969 L 630.75 303.742188 L 628.871094 304.050781 L 627.53125 304.320312 L 626.007812 304.710938 L 625.117188 305.007812 L 624.308594 305.339844 L 623.59375 305.730469 L 623.058594 306.140625 L 622.699219 306.578125 L 622.523438 307.003906 L 622.523438 308.839844 L 622.699219 309.261719 L 623.148438 309.761719 L 624.308594 310.480469 L 626.007812 311.109375 L 627.976562 311.605469 L 629.855469 311.957031 L 630.929688 312.125 L 632.359375 312.3125 L 634.59375 312.550781 L 637.816406 312.785156 L 639.691406 312.882812 L 642.554688 312.976562 L 645.507812 313.023438 L 649.441406 313.023438 L 652.929688 312.976562 L 655.253906 312.917969 L 657.667969 312.820312 L 660.976562 312.621094 L 663.035156 312.433594 L 664.824219 312.207031 L 666.164062 311.984375 L 667.058594 311.792969 L 668.402344 311.425781 L 669.476562 311.023438 L 670.28125 310.609375 L 670.816406 310.210938 L 683.335938 310.210938 L 682.800781 310.683594 L 681.996094 311.144531 L 681.191406 311.484375 L 679.9375 311.898438 L 678.507812 312.265625 L 676.449219 312.679688 L 674.75 312.953125 L 672.515625 313.246094 L 670.457031 313.472656 L 668.222656 313.671875 L 664.914062 313.910156 L 662.765625 314.027344 L 660.441406 314.132812 L 657.667969 314.230469 L 654.179688 314.3125 L 650.425781 314.359375 L 646.9375 314.371094 L 643.179688 314.347656 L 640.410156 314.300781 L 636.742188 314.191406 L 632.179688 313.980469 L 628.871094 313.757812 L 626.277344 313.53125 L 624.042969 313.292969 L 621.539062 312.976562 L 618.316406 312.457031 L 616.351562 312.054688 L 615.007812 311.722656 L 613.488281 311.261719 L 612.414062 310.847656 L 611.164062 310.1875 L 610.269531 309.347656 L 610 308.695312 Z M 610 307.066406 "/>
<path style=" stroke:none;fill-rule:nonzero;fill:rgb(96.862745%,70.196078%,16.862745%);fill-opacity:1;" d="M 610 256.128906 L 610.089844 256.097656 L 610.089844 255.5 L 610.449219 254.15625 L 611.34375 252.304688 L 612.503906 250.78125 L 613.757812 249.585938 L 614.5625 248.957031 L 615.902344 248.0625 L 617.066406 247.40625 L 620.015625 246.0625 L 623.773438 244.808594 L 625.832031 244.269531 L 628.15625 243.761719 L 631.464844 243.195312 L 632.984375 242.984375 L 637.636719 242.507812 L 642.914062 242.207031 L 648.726562 242.117188 L 651.410156 242.148438 L 655.074219 242.269531 L 660.085938 242.597656 L 662.945312 242.894531 L 665.183594 243.195312 L 667.507812 243.582031 L 670.367188 244.179688 L 673.050781 244.898438 L 675.199219 245.613281 L 677.34375 246.507812 L 679.132812 247.464844 L 680.652344 248.511719 L 681.996094 249.765625 L 682.800781 250.808594 L 683.335938 251.855469 L 670.90625 251.855469 L 670.191406 250.808594 L 669.386719 250.003906 L 668.042969 249.019531 L 666.703125 248.300781 L 665.359375 247.734375 L 662.855469 246.957031 L 660.710938 246.480469 L 658.027344 246.0625 L 655.433594 245.792969 L 652.480469 245.613281 L 650.695312 245.554688 L 645.953125 245.554688 L 641.660156 245.761719 L 639.15625 246 L 637.367188 246.242188 L 634.863281 246.6875 L 633.34375 247.046875 L 632.449219 247.285156 L 629.765625 248.210938 L 627.976562 249.046875 L 626.992188 249.617188 L 625.742188 250.511719 L 624.847656 251.316406 L 623.863281 252.511719 L 623.328125 253.410156 L 622.609375 255.441406 L 622.523438 260.816406 L 622.789062 261.953125 L 623.328125 263.175781 L 624.042969 264.25 L 625.117188 265.386719 L 626.1875 266.253906 L 628.066406 267.417969 L 629.675781 268.195312 L 630.929688 268.703125 L 633.34375 269.507812 L 634.328125 269.777344 L 636.652344 270.316406 L 639.066406 270.734375 L 642.019531 271.089844 L 644.253906 271.269531 L 647.832031 271.421875 L 652.394531 271.421875 L 657.757812 271.242188 L 661.15625 271 L 663.484375 270.761719 L 665.003906 270.554688 L 666.882812 270.226562 L 668.222656 269.925781 L 669.476562 269.597656 L 670.996094 269.089844 L 670.996094 261.953125 L 648.90625 261.921875 L 648.90625 258.578125 L 683.246094 258.546875 L 683.335938 270.226562 L 681.457031 271.03125 L 679.132812 271.808594 L 676.898438 272.40625 L 674.574219 272.914062 L 671.261719 273.480469 L 668.582031 273.839844 L 664.464844 274.257812 L 660.710938 274.527344 L 656.773438 274.707031 L 653.285156 274.796875 L 649.171875 274.824219 L 645.507812 274.765625 L 641.570312 274.585938 L 638.441406 274.347656 L 635.578125 274.046875 L 632.71875 273.660156 L 629.140625 273.03125 L 626.816406 272.523438 L 624.398438 271.898438 L 621.984375 271.152344 L 619.839844 270.34375 L 618.40625 269.71875 L 616.976562 269 L 615.457031 268.105469 L 614.027344 267.089844 L 612.953125 266.164062 L 611.96875 265.117188 L 611.253906 264.132812 L 610.539062 262.789062 L 610.179688 261.710938 L 610 260.785156 Z M 610 256.128906 "/>
<path style=" stroke:none;fill-rule:nonzero;fill:rgb(83.921569%,15.686275%,22.352941%);fill-opacity:1;" d="M 610 276.003906 L 683.335938 276.003906 L 683.335938 278.601562 L 652.773438 278.625 L 652.773438 300.257812 L 640.476562 300.257812 L 640.476562 278.644531 L 640.296875 278.601562 L 610 278.601562 Z M 610 276.003906 "/>
<g style="fill:rgb(0%,0%,0%);fill-opacity:1;">
  <use xlink:href="#glyph0-1" x="21.957031" y="318.198242"/>
  <use xlink:href="#glyph0-2" x="27.291016" y="318.198242"/>
  <use xlink:href="#glyph0-1" x="29.958008" y="318.198242"/>
</g>
<g style="fill:rgb(0%,0%,0%);fill-opacity:1;">
  <use xlink:href="#glyph0-1" x="21.957031" y="244.475586"/>
  <use xlink:href="#glyph0-2" x="27.291016" y="244.475586"/>
  <use xlink:href="#glyph0-3" x="29.958008" y="244.475586"/>
</g>
<g style="fill:rgb(0%,0%,0%);fill-opacity:1;">
  <use xlink:href="#glyph0-4" x="21.957031" y="170.75293"/>
  <use xlink:href="#glyph0-2" x="27.291016" y="170.75293"/>
  <use xlink:href="#glyph0-1" x="29.958008" y="170.75293"/>
</g>
<g style="fill:rgb(0%,0%,0%);fill-opacity:1;">
  <use xlink:href="#glyph0-4" x="21.957031" y="97.03418"/>
  <use xlink:href="#glyph0-2" x="27.291016" y="97.03418"/>
  <use xlink:href="#glyph0-3" x="29.958008" y="97.03418"/>
</g>
<g style="fill:rgb(0%,0%,0%);fill-opacity:1;">
  <use xlink:href="#glyph0-5" x="21.957031" y="23.311523"/>
  <use xlink:href="#glyph0-2" x="27.291016" y="23.311523"/>
  <use xlink:href="#glyph0-1" x="29.958008" y="23.311523"/>
</g>
<g style="fill:rgb(0%,0%,0%);fill-opacity:1;">
  <use xlink:href="#glyph0-4" x="103.296875" y="338.19043"/>
</g>
<g style="fill:rgb(0%,0%,0%);fill-opacity:1;">
  <use xlink:href="#glyph0-5" x="180.492188" y="338.19043"/>
</g>
<g style="fill:rgb(0%,0%,0%);fill-opacity:1;">
  <use xlink:href="#glyph0-6" x="257.6875" y="338.19043"/>
</g>
<g style="fill:rgb(0%,0%,0%);fill-opacity:1;">
  <use xlink:href="#glyph0-7" x="334.886719" y="338.19043"/>
</g>
<g style="fill:rgb(0%,0%,0%);fill-opacity:1;">
  <use xlink:href="#glyph0-3" x="412.082031" y="338.19043"/>
</g>
<g style="fill:rgb(0%,0%,0%);fill-opacity:1;">
  <use xlink:href="#glyph0-8" x="489.277344" y="338.19043"/>
</g>
<g style="fill:rgb(0%,0%,0%);fill-opacity:1;">
  <use xlink:href="#glyph0-9" x="566.472656" y="338.19043"/>
</g>
<g style="fill:rgb(0%,0%,0%);fill-opacity:1;">
  <use xlink:href="#glyph0-10" x="643.667969" y="338.19043"/>
</g>
<g style="fill:rgb(0%,0%,0%);fill-opacity:1;">
  <use xlink:href="#glyph1-1" x="14.412109" y="178.015625"/>
  <use xlink:href="#glyph1-2" x="14.412109" y="170.011719"/>
  <use xlink:href="#glyph1-3" x="14.412109" y="167.347656"/>
  <use xlink:href="#glyph1-4" x="14.412109" y="164.011719"/>
</g>
</g>
</svg>
