<?xml version="1.0" encoding="UTF-8"?>
<svg xmlns="http://www.w3.org/2000/svg" xmlns:xlink="http://www.w3.org/1999/xlink" width="720pt" height="360pt" viewBox="0 0 720 360" version="1.1">
<defs>
<g>
<symbol overflow="visible" id="glyph0-0">
<path style="stroke:none;" d=""/>
</symbol>
<symbol overflow="visible" id="glyph0-1">
<path style="stroke:none;" d="M 2.640625 -6.796875 C 2 -6.796875 1.421875 -6.53125 1.078125 -6.046875 C 0.640625 -5.453125 0.40625 -4.546875 0.40625 -3.296875 C 0.40625 -1 1.1875 0.21875 2.640625 0.21875 C 4.078125 0.21875 4.859375 -1 4.859375 -3.234375 C 4.859375 -4.5625 4.65625 -5.4375 4.203125 -6.046875 C 3.84375 -6.53125 3.28125 -6.796875 2.640625 -6.796875 Z M 2.640625 -6.046875 C 3.546875 -6.046875 4 -5.125 4 -3.3125 C 4 -1.375 3.5625 -0.484375 2.625 -0.484375 C 1.734375 -0.484375 1.28125 -1.421875 1.28125 -3.28125 C 1.28125 -5.140625 1.734375 -6.046875 2.640625 -6.046875 Z M 2.640625 -6.046875 "/>
</symbol>
<symbol overflow="visible" id="glyph0-2">
<path style="stroke:none;" d="M 1.828125 -1 L 0.828125 -1 L 0.828125 0 L 1.828125 0 Z M 1.828125 -1 "/>
</symbol>
<symbol overflow="visible" id="glyph0-3">
<path style="stroke:none;" d="M 4.5625 -6.796875 L 1.0625 -6.796875 L 0.546875 -3.09375 L 1.328125 -3.09375 C 1.71875 -3.5625 2.046875 -3.734375 2.578125 -3.734375 C 3.484375 -3.734375 4.0625 -3.109375 4.0625 -2.09375 C 4.0625 -1.125 3.484375 -0.53125 2.578125 -0.53125 C 1.828125 -0.53125 1.375 -0.90625 1.1875 -1.671875 L 0.328125 -1.671875 C 0.453125 -1.109375 0.546875 -0.84375 0.75 -0.59375 C 1.125 -0.078125 1.828125 0.21875 2.59375 0.21875 C 3.96875 0.21875 4.921875 -0.78125 4.921875 -2.21875 C 4.921875 -3.5625 4.03125 -4.484375 2.71875 -4.484375 C 2.25 -4.484375 1.859375 -4.359375 1.46875 -4.0625 L 1.734375 -5.96875 L 4.5625 -5.96875 Z M 4.5625 -6.796875 "/>
</symbol>
<symbol overflow="visible" id="glyph0-4">
<path style="stroke:none;" d="M 2.484375 -4.84375 L 2.484375 0 L 3.328125 0 L 3.328125 -6.796875 L 2.765625 -6.796875 C 2.46875 -5.75 2.28125 -5.609375 0.984375 -5.453125 L 0.984375 -4.84375 Z M 2.484375 -4.84375 "/>
</symbol>
<symbol overflow="visible" id="glyph0-5">
<path style="stroke:none;" d="M 4.859375 -0.828125 L 1.28125 -0.828125 C 1.359375 -1.390625 1.671875 -1.75 2.5 -2.234375 L 3.46875 -2.75 C 4.40625 -3.265625 4.90625 -3.96875 4.90625 -4.8125 C 4.90625 -5.375 4.671875 -5.90625 4.265625 -6.265625 C 3.859375 -6.625 3.375 -6.796875 2.71875 -6.796875 C 1.859375 -6.796875 1.21875 -6.5 0.84375 -5.921875 C 0.609375 -5.5625 0.5 -5.125 0.484375 -4.4375 L 1.328125 -4.4375 C 1.359375 -4.90625 1.40625 -5.1875 1.53125 -5.40625 C 1.75 -5.8125 2.1875 -6.0625 2.703125 -6.0625 C 3.46875 -6.0625 4.03125 -5.515625 4.03125 -4.78125 C 4.03125 -4.25 3.71875 -3.796875 3.125 -3.4375 L 2.234375 -2.9375 C 0.8125 -2.140625 0.40625 -1.5 0.328125 0 L 4.859375 0 Z M 4.859375 -0.828125 "/>
</symbol>
<symbol overflow="visible" id="glyph0-6">
<path style="stroke:none;" d="M 2.125 -3.125 L 2.578125 -3.125 C 3.515625 -3.125 3.984375 -2.703125 3.984375 -1.890625 C 3.984375 -1.03125 3.46875 -0.53125 2.578125 -0.53125 C 1.65625 -0.53125 1.203125 -0.984375 1.15625 -1.96875 L 0.3125 -1.96875 C 0.34375 -1.421875 0.4375 -1.078125 0.609375 -0.765625 C 0.953125 -0.109375 1.625 0.21875 2.546875 0.21875 C 3.953125 0.21875 4.859375 -0.609375 4.859375 -1.90625 C 4.859375 -2.765625 4.515625 -3.25 3.703125 -3.515625 C 4.34375 -3.765625 4.65625 -4.25 4.65625 -4.9375 C 4.65625 -6.109375 3.875 -6.796875 2.578125 -6.796875 C 1.203125 -6.796875 0.484375 -6.046875 0.453125 -4.609375 L 1.296875 -4.609375 C 1.3125 -5.015625 1.34375 -5.25 1.453125 -5.453125 C 1.640625 -5.828125 2.0625 -6.0625 2.59375 -6.0625 C 3.34375 -6.0625 3.796875 -5.625 3.796875 -4.90625 C 3.796875 -4.421875 3.609375 -4.140625 3.25 -3.984375 C 3.015625 -3.890625 2.71875 -3.84375 2.125 -3.84375 Z M 2.125 -3.125 "/>
</symbol>
<symbol overflow="visible" id="glyph0-7">
<path style="stroke:none;" d="M 3.140625 -1.625 L 3.140625 0 L 3.984375 0 L 3.984375 -1.625 L 4.984375 -1.625 L 4.984375 -2.390625 L 3.984375 -2.390625 L 3.984375 -6.796875 L 3.359375 -6.796875 L 0.265625 -2.515625 L 0.265625 -1.625 Z M 3.140625 -2.390625 L 1 -2.390625 L 3.140625 -5.359375 Z M 3.140625 -2.390625 "/>
</symbol>
<symbol overflow="visible" id="glyph0-8">
<path style="stroke:none;" d="M 4.78125 -5.03125 C 4.609375 -6.140625 3.890625 -6.796875 2.84375 -6.796875 C 2.09375 -6.796875 1.421875 -6.4375 1.03125 -5.828125 C 0.609375 -5.171875 0.40625 -4.34375 0.40625 -3.09375 C 0.40625 -1.953125 0.578125 -1.234375 0.984375 -0.625 C 1.359375 -0.078125 1.953125 0.21875 2.703125 0.21875 C 3.984375 0.21875 4.921875 -0.734375 4.921875 -2.078125 C 4.921875 -3.34375 4.0625 -4.234375 2.84375 -4.234375 C 2.171875 -4.234375 1.640625 -3.96875 1.28125 -3.46875 C 1.28125 -5.125 1.828125 -6.046875 2.796875 -6.046875 C 3.390625 -6.046875 3.796875 -5.671875 3.9375 -5.03125 Z M 2.734375 -3.484375 C 3.546875 -3.484375 4.0625 -2.921875 4.0625 -2 C 4.0625 -1.15625 3.484375 -0.53125 2.703125 -0.53125 C 1.921875 -0.53125 1.328125 -1.1875 1.328125 -2.046875 C 1.328125 -2.890625 1.90625 -3.484375 2.734375 -3.484375 Z M 2.734375 -3.484375 "/>
</symbol>
<symbol overflow="visible" id="glyph0-9">
<path style="stroke:none;" d="M 4.984375 -6.796875 L 0.4375 -6.796875 L 0.4375 -5.96875 L 4.109375 -5.96875 C 2.5 -3.65625 1.828125 -2.234375 1.328125 0 L 2.21875 0 C 2.59375 -2.171875 3.453125 -4.046875 4.984375 -6.09375 Z M 4.984375 -6.796875 "/>
</symbol>
<symbol overflow="visible" id="glyph0-10">
<path style="stroke:none;" d="M 3.75 -3.578125 C 4.453125 -4 4.6875 -4.34375 4.6875 -4.984375 C 4.6875 -6.046875 3.84375 -6.796875 2.640625 -6.796875 C 1.4375 -6.796875 0.59375 -6.046875 0.59375 -4.984375 C 0.59375 -4.359375 0.828125 -4.015625 1.515625 -3.578125 C 0.734375 -3.203125 0.359375 -2.640625 0.359375 -1.890625 C 0.359375 -0.640625 1.296875 0.21875 2.640625 0.21875 C 3.984375 0.21875 4.921875 -0.640625 4.921875 -1.875 C 4.921875 -2.640625 4.53125 -3.203125 3.75 -3.578125 Z M 2.640625 -6.046875 C 3.359375 -6.046875 3.8125 -5.625 3.8125 -4.96875 C 3.8125 -4.34375 3.34375 -3.921875 2.640625 -3.921875 C 1.921875 -3.921875 1.453125 -4.34375 1.453125 -4.984375 C 1.453125 -5.625 1.921875 -6.046875 2.640625 -6.046875 Z M 2.640625 -3.203125 C 3.484375 -3.203125 4.0625 -2.671875 4.0625 -1.875 C 4.0625 -1.0625 3.484375 -0.53125 2.625 -0.53125 C 1.796875 -0.53125 1.21875 -1.078125 1.21875 -1.875 C 1.21875 -2.671875 1.796875 -3.203125 2.640625 -3.203125 Z M 2.640625 -3.203125 "/>
</symbol>
<symbol overflow="visible" id="glyph1-0">
<path style="stroke:none;" d=""/>
</symbol>
<symbol overflow="visible" id="glyph1-1">
<path style="stroke:none;" d="M 0 -0.953125 L 0 -4.890625 C 0 -5.71875 -0.234375 -6.34375 -0.734375 -6.796875 C -1.1875 -7.234375 -1.8125 -7.46875 -2.5 -7.46875 C -3.546875 -7.46875 -4.1875 -7 -4.625 -5.875 C -4.984375 -6.671875 -5.640625 -7.09375 -6.53125 -7.09375 C -7.15625 -7.09375 -7.734375 -6.859375 -8.140625 -6.390625 C -8.5625 -5.9375 -8.75 -5.34375 -8.75 -4.5 L -8.75 -0.953125 Z M -4.984375 -2.0625 L -7.765625 -2.0625 L -7.765625 -4.21875 C -7.765625 -4.84375 -7.6875 -5.203125 -7.453125 -5.5 C -7.21875 -5.8125 -6.859375 -5.96875 -6.375 -5.96875 C -5.90625 -5.96875 -5.53125 -5.8125 -5.296875 -5.5 C -5.0625 -5.203125 -4.984375 -4.84375 -4.984375 -4.21875 Z M -0.984375 -2.0625 L -4 -2.0625 L -4 -4.78125 C -4 -5.328125 -3.859375 -5.6875 -3.578125 -5.953125 C -3.296875 -6.21875 -2.921875 -6.359375 -2.484375 -6.359375 C -2.0625 -6.359375 -1.6875 -6.21875 -1.40625 -5.953125 C -1.109375 -5.6875 -0.984375 -5.328125 -0.984375 -4.78125 Z M -0.984375 -2.0625 "/>
</symbol>
<symbol overflow="visible" id="glyph1-2">
<path style="stroke:none;" d="M -6.28125 -1.796875 L -6.28125 -0.796875 L 0 -0.796875 L 0 -1.796875 Z M -8.75 -1.796875 L -8.75 -0.796875 L -7.484375 -0.796875 L -7.484375 -1.796875 Z M -8.75 -1.796875 "/>
</symbol>
<symbol overflow="visible" id="glyph1-3">
<path style="stroke:none;" d="M -6.28125 -3.046875 L -6.28125 -2.015625 L -8.015625 -2.015625 L -8.015625 -1.015625 L -6.28125 -1.015625 L -6.28125 -0.171875 L -5.46875 -0.171875 L -5.46875 -1.015625 L -0.71875 -1.015625 C -0.078125 -1.015625 0.28125 -1.453125 0.28125 -2.234375 C 0.28125 -2.46875 0.25 -2.71875 0.1875 -3.046875 L -0.640625 -3.046875 C -0.609375 -2.921875 -0.59375 -2.765625 -0.59375 -2.5625 C -0.59375 -2.140625 -0.71875 -2.015625 -1.15625 -2.015625 L -5.46875 -2.015625 L -5.46875 -3.046875 Z M -6.28125 -3.046875 "/>
</symbol>
<symbol overflow="visible" id="glyph1-4">
<path style="stroke:none;" d="M -4.53125 -5.25 C -5.765625 -5.25 -6.46875 -4.421875 -6.46875 -2.96875 C -6.46875 -1.515625 -5.71875 -0.5625 -4.546875 -0.5625 C -3.5625 -0.5625 -3.09375 -1.0625 -2.734375 -2.5625 L -2.515625 -3.484375 C -2.34375 -4.1875 -2.09375 -4.46875 -1.625 -4.46875 C -1.046875 -4.46875 -0.640625 -3.875 -0.640625 -3 C -0.640625 -2.453125 -0.796875 -2 -1.0625 -1.75 C -1.25 -1.59375 -1.421875 -1.53125 -1.875 -1.46875 L -1.875 -0.40625 C -0.421875 -0.453125 0.28125 -1.265625 0.28125 -2.921875 C 0.28125 -4.5 -0.5 -5.515625 -1.71875 -5.515625 C -2.65625 -5.515625 -3.171875 -4.984375 -3.46875 -3.734375 L -3.703125 -2.765625 C -3.890625 -1.953125 -4.15625 -1.609375 -4.59375 -1.609375 C -5.171875 -1.609375 -5.546875 -2.125 -5.546875 -2.9375 C -5.546875 -3.75 -5.203125 -4.171875 -4.53125 -4.203125 Z M -4.53125 -5.25 "/>
</symbol>
</g>
</defs>
<g id="surface108108">
<rect x="0" y="0" width="720" height="360" style="fill:rgb(100%,100%,100%);fill-opacity:1;stroke:none;"/>
<path style=" stroke:none;fill-rule:nonzero;fill:rgb(6.27451%,58.823529%,28.235294%);fill-opacity:1;" d="M 69.628906 314.367188 L 69.707031 314.359375 L 101.441406 309.277344 L 111.078125 309.277344 L 142.964844 314.371094 L 131.761719 314.371094 L 123.769531 313.042969 L 88.746094 313.042969 L 80.910156 314.367188 L 69.628906 314.367188 L 92.117188 312.492188 L 120.558594 312.488281 L 106.375 310.109375 L 106.21875 310.105469 L 106.0625 310.121094 L 92.039062 312.488281 L 92.117188 312.492188 Z M 69.628906 314.367188 "/>
<path style=" stroke:none;fill-rule:nonzero;fill:rgb(14.509804%,36.078431%,60%);fill-opacity:1;" d="M 69.628906 290.496094 L 69.71875 290.480469 L 69.71875 290.125 L 69.988281 289.5625 L 70.613281 288.851562 L 71.238281 288.359375 L 72.847656 287.484375 L 75.085938 286.640625 L 77.410156 285.988281 L 79.109375 285.601562 L 80.628906 285.304688 L 84.117188 284.753906 L 86.355469 284.472656 L 88.769531 284.222656 L 91.71875 283.96875 L 93.867188 283.820312 L 98.695312 283.582031 L 102.273438 283.480469 L 105.046875 283.433594 L 111.039062 283.433594 L 114.613281 283.496094 L 117.207031 283.570312 L 120.070312 283.6875 L 122.484375 283.820312 L 126.6875 284.148438 L 130.445312 284.5625 L 132.144531 284.800781 L 134.828125 285.257812 L 136.882812 285.703125 L 138.316406 286.089844 L 139.925781 286.640625 L 141.355469 287.308594 L 142.429688 288.0625 L 142.964844 288.703125 L 130.445312 288.703125 L 129.820312 288.109375 L 129.101562 287.648438 L 127.761719 287.039062 L 126.421875 286.609375 L 124.542969 286.179688 L 122.84375 285.898438 L 120.515625 285.617188 L 118.460938 285.4375 L 116.3125 285.304688 L 114.257812 285.214844 L 110.320312 285.125 L 105.761719 285.125 L 104.0625 285.15625 L 100.574219 285.273438 L 98.695312 285.378906 L 96.011719 285.585938 L 94.132812 285.777344 L 91.898438 286.074219 L 90.378906 286.328125 L 88.5 286.714844 L 87.160156 287.054688 L 85.636719 287.542969 L 84.742188 287.914062 L 83.9375 288.332031 L 83.222656 288.820312 L 82.6875 289.339844 L 82.328125 289.886719 L 82.148438 290.421875 L 82.148438 292.722656 L 82.328125 293.257812 L 82.777344 293.878906 L 83.9375 294.785156 L 85.636719 295.570312 L 87.605469 296.191406 L 89.484375 296.636719 L 90.558594 296.847656 L 91.988281 297.082031 L 94.222656 297.378906 L 97.445312 297.675781 L 99.320312 297.796875 L 102.183594 297.914062 L 105.136719 297.972656 L 109.070312 297.972656 L 112.558594 297.914062 L 114.882812 297.839844 L 117.296875 297.722656 L 120.605469 297.46875 L 122.664062 297.230469 L 124.453125 296.949219 L 125.792969 296.667969 L 126.6875 296.429688 L 128.03125 295.972656 L 129.101562 295.464844 L 129.90625 294.945312 L 130.445312 294.441406 L 142.964844 294.441406 L 142.429688 295.035156 L 141.625 295.613281 L 140.820312 296.042969 L 139.566406 296.5625 L 138.136719 297.023438 L 136.078125 297.542969 L 134.378906 297.882812 L 132.144531 298.253906 L 130.085938 298.539062 L 127.851562 298.789062 L 124.542969 299.085938 L 122.394531 299.234375 L 120.070312 299.367188 L 117.296875 299.488281 L 113.808594 299.589844 L 110.054688 299.648438 L 106.566406 299.664062 L 102.808594 299.636719 L 100.035156 299.574219 L 96.371094 299.441406 L 91.808594 299.175781 L 88.5 298.894531 L 85.90625 298.613281 L 83.671875 298.316406 L 81.167969 297.914062 L 77.945312 297.261719 L 75.980469 296.757812 L 74.636719 296.339844 L 73.117188 295.761719 L 72.042969 295.242188 L 70.792969 294.414062 L 69.898438 293.359375 L 69.628906 292.542969 Z M 69.628906 290.496094 "/>
<path style=" stroke:none;fill-rule:nonzero;fill:rgb(96.862745%,70.196078%,16.862745%);fill-opacity:1;" d="M 69.628906 239.410156 L 69.71875 239.339844 L 69.71875 237.972656 L 70.078125 234.894531 L 70.972656 230.648438 L 72.132812 227.160156 L 73.386719 224.421875 L 74.191406 222.984375 L 75.53125 220.929688 L 76.695312 219.425781 L 79.644531 216.34375 L 83.402344 213.46875 L 85.460938 212.238281 L 87.785156 211.074219 L 91.09375 209.773438 L 92.613281 209.292969 L 97.265625 208.199219 L 102.542969 207.515625 L 108.355469 207.308594 L 111.039062 207.378906 L 114.703125 207.652344 L 119.710938 208.40625 L 122.574219 209.089844 L 124.808594 209.773438 L 127.136719 210.664062 L 129.996094 212.03125 L 132.679688 213.675781 L 134.828125 215.316406 L 136.972656 217.371094 L 138.761719 219.5625 L 140.28125 221.957031 L 141.625 224.832031 L 142.429688 227.226562 L 142.964844 229.621094 L 130.535156 229.621094 L 129.820312 227.226562 L 129.015625 225.378906 L 127.671875 223.121094 L 126.332031 221.476562 L 124.988281 220.175781 L 122.484375 218.398438 L 120.339844 217.304688 L 117.65625 216.34375 L 115.0625 215.730469 L 112.109375 215.316406 L 110.320312 215.179688 L 105.582031 215.179688 L 101.289062 215.660156 L 98.785156 216.207031 L 96.996094 216.753906 L 94.492188 217.78125 L 92.972656 218.601562 L 92.078125 219.152344 L 89.394531 221.273438 L 87.605469 223.1875 L 86.621094 224.488281 L 85.371094 226.542969 L 84.476562 228.390625 L 83.492188 231.128906 L 82.953125 233.179688 L 82.238281 237.835938 L 82.148438 250.15625 L 82.417969 252.757812 L 82.953125 255.5625 L 83.671875 258.027344 L 84.742188 260.628906 L 85.816406 262.613281 L 87.695312 265.28125 L 89.304688 267.0625 L 90.558594 268.222656 L 92.972656 270.074219 L 93.957031 270.6875 L 96.28125 271.921875 L 98.695312 272.878906 L 101.648438 273.699219 L 103.882812 274.109375 L 107.460938 274.453125 L 112.019531 274.453125 L 117.386719 274.042969 L 120.785156 273.496094 L 123.109375 272.945312 L 124.632812 272.46875 L 126.507812 271.714844 L 127.851562 271.03125 L 129.101562 270.277344 L 130.625 269.113281 L 130.625 252.757812 L 108.535156 252.6875 L 108.535156 245.023438 L 142.875 244.953125 L 142.964844 271.714844 L 141.085938 273.5625 L 138.761719 275.34375 L 136.527344 276.710938 L 134.199219 277.875 L 130.890625 279.175781 L 128.207031 279.996094 L 124.09375 280.953125 L 120.339844 281.570312 L 116.402344 281.980469 L 112.914062 282.1875 L 108.800781 282.253906 L 105.136719 282.117188 L 101.199219 281.707031 L 98.070312 281.160156 L 95.207031 280.476562 L 92.34375 279.585938 L 88.769531 278.148438 L 86.441406 276.984375 L 84.027344 275.546875 L 81.613281 273.835938 L 79.46875 271.988281 L 78.035156 270.550781 L 76.605469 268.910156 L 75.085938 266.855469 L 73.652344 264.527344 L 72.582031 262.40625 L 71.597656 260.011719 L 70.882812 257.753906 L 70.164062 254.671875 L 69.808594 252.207031 L 69.628906 250.085938 Z M 69.628906 239.410156 "/>
<path style=" stroke:none;fill-rule:nonzero;fill:rgb(83.921569%,15.686275%,22.352941%);fill-opacity:1;" d="M 69.628906 300.84375 L 142.964844 300.84375 L 142.964844 301.621094 L 112.402344 301.628906 L 112.402344 308.097656 L 100.105469 308.097656 L 100.105469 301.632812 L 99.925781 301.621094 L 69.628906 301.621094 Z M 69.628906 300.84375 "/>
<path style=" stroke:none;fill-rule:nonzero;fill:rgb(6.27451%,58.823529%,28.235294%);fill-opacity:1;" d="M 146.824219 267.894531 L 146.902344 267.851562 L 178.636719 221.175781 L 188.273438 221.175781 L 220.160156 267.9375 L 208.957031 267.9375 L 200.964844 255.734375 L 165.941406 255.734375 L 158.109375 267.894531 L 146.824219 267.894531 L 169.3125 250.683594 L 197.753906 250.640625 L 183.570312 228.816406 L 183.414062 228.773438 L 183.257812 228.90625 L 169.234375 250.640625 L 169.3125 250.683594 Z M 146.824219 267.894531 "/>
<path style=" stroke:none;fill-rule:nonzero;fill:rgb(14.509804%,36.078431%,60%);fill-opacity:1;" d="M 146.824219 284.207031 L 146.914062 284.175781 L 146.914062 283.417969 L 147.183594 282.210938 L 147.808594 280.691406 L 148.433594 279.644531 L 150.042969 277.773438 L 152.28125 275.964844 L 154.605469 274.570312 L 156.304688 273.746094 L 157.824219 273.113281 L 161.3125 271.941406 L 163.550781 271.335938 L 165.964844 270.800781 L 168.914062 270.261719 L 171.0625 269.941406 L 175.890625 269.4375 L 179.46875 269.214844 L 182.242188 269.117188 L 188.234375 269.117188 L 191.8125 269.246094 L 194.40625 269.402344 L 197.265625 269.65625 L 199.679688 269.941406 L 203.882812 270.640625 L 207.640625 271.527344 L 209.339844 272.035156 L 212.023438 273.019531 L 214.078125 273.96875 L 215.511719 274.792969 L 217.121094 275.964844 L 218.550781 277.394531 L 219.625 279.007812 L 220.160156 280.371094 L 207.640625 280.371094 L 207.015625 279.105469 L 206.300781 278.121094 L 204.957031 276.820312 L 203.617188 275.902344 L 201.738281 274.984375 L 200.039062 274.382812 L 197.714844 273.777344 L 195.65625 273.398438 L 193.511719 273.113281 L 191.453125 272.921875 L 187.519531 272.734375 L 182.957031 272.734375 L 181.257812 272.796875 L 177.769531 273.050781 L 175.890625 273.273438 L 173.207031 273.714844 L 171.332031 274.128906 L 169.09375 274.761719 L 167.574219 275.300781 L 165.695312 276.125 L 164.355469 276.855469 L 162.835938 277.898438 L 161.941406 278.691406 L 161.136719 279.582031 L 160.417969 280.625 L 159.882812 281.734375 L 159.523438 282.910156 L 159.347656 284.050781 L 159.347656 288.964844 L 159.523438 290.105469 L 159.972656 291.4375 L 161.136719 293.371094 L 162.835938 295.050781 L 164.800781 296.382812 L 166.679688 297.332031 L 167.753906 297.777344 L 169.183594 298.285156 L 171.417969 298.917969 L 174.640625 299.554688 L 176.515625 299.804688 L 179.378906 300.058594 L 182.332031 300.1875 L 186.265625 300.1875 L 189.753906 300.058594 L 192.078125 299.902344 L 194.492188 299.648438 L 197.804688 299.109375 L 199.859375 298.601562 L 201.648438 298 L 202.988281 297.398438 L 203.882812 296.890625 L 205.226562 295.90625 L 206.300781 294.828125 L 207.105469 293.71875 L 207.640625 292.640625 L 220.160156 292.640625 L 219.625 293.910156 L 218.820312 295.144531 L 218.015625 296.066406 L 216.761719 297.175781 L 215.332031 298.15625 L 213.273438 299.265625 L 211.574219 299.996094 L 209.339844 300.789062 L 207.28125 301.390625 L 205.046875 301.929688 L 201.738281 302.566406 L 199.589844 302.882812 L 197.265625 303.167969 L 194.492188 303.421875 L 191.003906 303.640625 L 187.25 303.769531 L 183.761719 303.800781 L 180.003906 303.738281 L 177.234375 303.609375 L 173.566406 303.324219 L 169.003906 302.753906 L 165.695312 302.152344 L 163.101562 301.550781 L 160.867188 300.914062 L 158.363281 300.058594 L 155.144531 298.664062 L 153.175781 297.585938 L 151.832031 296.699219 L 150.3125 295.464844 L 149.238281 294.355469 L 147.988281 292.578125 L 147.09375 290.328125 L 146.824219 288.582031 Z M 146.824219 284.207031 "/>
<path style=" stroke:none;fill-rule:nonzero;fill:rgb(96.862745%,70.196078%,16.862745%);fill-opacity:1;" d="M 146.824219 308.921875 L 146.914062 308.914062 L 146.914062 308.746094 L 147.273438 308.367188 L 148.167969 307.847656 L 149.328125 307.417969 L 150.582031 307.082031 L 151.386719 306.90625 L 152.726562 306.652344 L 153.890625 306.46875 L 156.84375 306.089844 L 160.597656 305.738281 L 162.65625 305.585938 L 164.980469 305.441406 L 168.289062 305.28125 L 169.808594 305.222656 L 174.460938 305.089844 L 179.738281 305.003906 L 185.550781 304.980469 L 188.234375 304.988281 L 191.898438 305.023438 L 196.910156 305.113281 L 199.769531 305.199219 L 202.007812 305.28125 L 204.332031 305.390625 L 207.195312 305.558594 L 209.875 305.761719 L 212.023438 305.964844 L 214.167969 306.214844 L 215.957031 306.484375 L 217.476562 306.777344 L 218.820312 307.132812 L 219.625 307.425781 L 220.160156 307.71875 L 207.730469 307.71875 L 207.015625 307.425781 L 206.210938 307.199219 L 204.867188 306.921875 L 203.527344 306.71875 L 202.183594 306.558594 L 199.679688 306.339844 L 197.535156 306.207031 L 194.851562 306.089844 L 192.257812 306.015625 L 189.304688 305.964844 L 187.519531 305.945312 L 182.777344 305.945312 L 178.484375 306.003906 L 175.980469 306.074219 L 174.191406 306.140625 L 171.6875 306.265625 L 170.167969 306.367188 L 169.273438 306.433594 L 166.589844 306.695312 L 164.800781 306.929688 L 163.816406 307.089844 L 162.566406 307.339844 L 161.671875 307.570312 L 160.6875 307.90625 L 160.152344 308.15625 L 159.433594 308.726562 L 159.347656 310.242188 L 159.613281 310.558594 L 160.152344 310.90625 L 160.867188 311.207031 L 161.941406 311.527344 L 163.011719 311.769531 L 164.890625 312.097656 L 166.5 312.316406 L 167.753906 312.460938 L 170.167969 312.6875 L 171.152344 312.761719 L 173.476562 312.914062 L 175.890625 313.03125 L 178.84375 313.132812 L 181.078125 313.183594 L 184.65625 313.222656 L 189.21875 313.222656 L 194.582031 313.171875 L 197.980469 313.105469 L 200.308594 313.039062 L 201.828125 312.980469 L 203.707031 312.886719 L 205.046875 312.804688 L 206.300781 312.710938 L 207.820312 312.570312 L 207.820312 310.558594 L 185.730469 310.550781 L 185.730469 309.609375 L 220.070312 309.601562 L 220.160156 312.886719 L 218.285156 313.113281 L 215.957031 313.332031 L 213.722656 313.5 L 211.398438 313.644531 L 208.085938 313.804688 L 205.40625 313.90625 L 201.289062 314.023438 L 197.535156 314.097656 L 193.597656 314.148438 L 190.113281 314.171875 L 185.996094 314.183594 L 182.332031 314.164062 L 178.394531 314.113281 L 175.265625 314.046875 L 172.402344 313.964844 L 169.542969 313.855469 L 165.964844 313.675781 L 163.640625 313.535156 L 161.222656 313.359375 L 158.808594 313.148438 L 156.664062 312.921875 L 155.230469 312.746094 L 153.800781 312.542969 L 152.28125 312.292969 L 150.851562 312.003906 L 149.777344 311.746094 L 148.792969 311.449219 L 148.078125 311.171875 L 147.363281 310.796875 L 147.003906 310.492188 L 146.824219 310.230469 Z M 146.824219 308.921875 "/>
<path style=" stroke:none;fill-rule:nonzero;fill:rgb(14.509804%,36.078431%,60%);fill-opacity:1;" d="M 224.019531 312.398438 L 224.109375 312.398438 L 224.109375 312.378906 L 224.378906 312.347656 L 225.003906 312.308594 L 225.632812 312.285156 L 227.242188 312.238281 L 229.476562 312.191406 L 231.800781 312.15625 L 233.5 312.132812 L 235.023438 312.117188 L 238.507812 312.089844 L 240.746094 312.074219 L 243.160156 312.058594 L 246.113281 312.046875 L 248.257812 312.039062 L 253.085938 312.023438 L 256.664062 312.019531 L 259.4375 312.015625 L 265.429688 312.015625 L 269.007812 312.019531 L 271.601562 312.023438 L 274.460938 312.03125 L 276.875 312.039062 L 281.082031 312.054688 L 284.835938 312.078125 L 286.535156 312.089844 L 289.21875 312.117188 L 291.277344 312.140625 L 292.707031 312.160156 L 294.316406 312.191406 L 295.746094 312.226562 L 296.820312 312.269531 L 297.355469 312.300781 L 284.835938 312.300781 L 284.210938 312.269531 L 283.496094 312.246094 L 282.152344 312.210938 L 280.8125 312.1875 L 278.933594 312.164062 L 277.234375 312.148438 L 274.910156 312.132812 L 272.851562 312.125 L 270.707031 312.117188 L 268.648438 312.113281 L 264.714844 312.109375 L 258.453125 312.109375 L 254.964844 312.117188 L 253.085938 312.121094 L 250.40625 312.132812 L 248.527344 312.144531 L 246.289062 312.160156 L 244.769531 312.171875 L 242.890625 312.195312 L 241.550781 312.214844 L 240.03125 312.238281 L 239.136719 312.257812 L 238.332031 312.28125 L 237.613281 312.308594 L 237.078125 312.335938 L 236.722656 312.367188 L 236.542969 312.394531 L 236.542969 312.519531 L 236.722656 312.550781 L 237.167969 312.582031 L 238.332031 312.632812 L 240.03125 312.675781 L 241.996094 312.710938 L 243.875 312.734375 L 244.949219 312.746094 L 246.378906 312.757812 L 248.617188 312.773438 L 251.835938 312.789062 L 253.714844 312.796875 L 256.574219 312.804688 L 266.949219 312.804688 L 269.273438 312.800781 L 271.691406 312.792969 L 275 312.777344 L 277.054688 312.765625 L 278.84375 312.75 L 280.1875 312.734375 L 281.082031 312.722656 L 282.421875 312.699219 L 283.496094 312.671875 L 284.300781 312.640625 L 284.835938 312.613281 L 297.355469 312.613281 L 296.820312 312.648438 L 296.015625 312.679688 L 295.210938 312.703125 L 293.957031 312.730469 L 292.527344 312.753906 L 290.472656 312.78125 L 288.773438 312.800781 L 286.535156 312.820312 L 284.480469 312.835938 L 282.242188 312.851562 L 278.933594 312.867188 L 276.789062 312.875 L 274.460938 312.882812 L 271.691406 312.886719 L 268.203125 312.894531 L 264.445312 312.898438 L 257.203125 312.898438 L 254.429688 312.894531 L 250.761719 312.886719 L 246.199219 312.871094 L 242.890625 312.855469 L 240.296875 312.839844 L 238.0625 312.824219 L 235.558594 312.804688 L 232.339844 312.769531 L 230.371094 312.738281 L 229.03125 312.71875 L 227.507812 312.6875 L 226.4375 312.65625 L 225.183594 312.613281 L 224.289062 312.554688 L 224.019531 312.511719 Z M 224.019531 312.398438 "/>
<path style=" stroke:none;fill-rule:nonzero;fill:rgb(83.921569%,15.686275%,22.352941%);fill-opacity:1;" d="M 224.019531 20.757812 L 297.355469 20.757812 L 297.355469 51.808594 L 266.792969 52.082031 L 266.792969 310.835938 L 254.496094 310.835938 L 254.496094 52.355469 L 254.316406 51.808594 L 224.019531 51.808594 Z M 224.019531 20.757812 "/>
<path style=" stroke:none;fill-rule:nonzero;fill:rgb(96.862745%,70.196078%,16.862745%);fill-opacity:1;" d="M 301.21875 151.929688 L 301.304688 151.683594 L 301.304688 146.761719 L 301.664062 135.6875 L 302.558594 120.429688 L 303.722656 107.875 L 304.972656 98.03125 L 305.777344 92.863281 L 307.121094 85.480469 L 308.28125 80.066406 L 311.234375 68.988281 L 314.988281 58.652344 L 317.046875 54.222656 L 319.371094 50.039062 L 322.679688 45.363281 L 324.203125 43.640625 L 328.851562 39.703125 L 334.128906 37.242188 L 339.941406 36.503906 L 342.625 36.75 L 346.292969 37.734375 L 351.300781 40.441406 L 354.164062 42.902344 L 356.398438 45.363281 L 358.722656 48.5625 L 361.585938 53.484375 L 364.269531 59.390625 L 366.414062 65.296875 L 368.5625 72.683594 L 370.351562 80.558594 L 371.871094 89.171875 L 373.210938 99.507812 L 374.015625 108.121094 L 374.554688 116.738281 L 362.121094 116.738281 L 361.40625 108.121094 L 360.601562 101.476562 L 359.261719 93.355469 L 357.917969 87.449219 L 356.578125 82.773438 L 354.074219 76.375 L 351.925781 72.4375 L 349.242188 68.988281 L 346.648438 66.773438 L 343.699219 65.296875 L 341.910156 64.804688 L 337.167969 64.804688 L 332.875 66.527344 L 330.371094 68.496094 L 328.585938 70.464844 L 326.078125 74.160156 L 324.558594 77.113281 L 323.664062 79.082031 L 320.980469 86.710938 L 319.195312 93.601562 L 318.210938 98.277344 L 316.957031 105.660156 L 316.0625 112.304688 L 315.078125 122.152344 L 314.542969 129.535156 L 313.828125 146.269531 L 313.738281 190.570312 L 314.007812 199.921875 L 314.542969 210.015625 L 315.257812 218.875 L 316.332031 228.226562 L 317.40625 235.363281 L 319.28125 244.960938 L 320.894531 251.363281 L 322.144531 255.546875 L 324.558594 262.191406 L 325.542969 264.40625 L 327.867188 268.835938 L 330.285156 272.28125 L 333.234375 275.234375 L 335.46875 276.710938 L 339.046875 277.941406 L 343.609375 277.941406 L 348.976562 276.464844 L 352.375 274.496094 L 354.699219 272.527344 L 356.21875 270.804688 L 358.097656 268.097656 L 359.4375 265.636719 L 360.691406 262.929688 L 362.210938 258.746094 L 362.210938 199.921875 L 340.121094 199.675781 L 340.121094 172.113281 L 374.464844 171.867188 L 374.554688 268.097656 L 372.675781 274.742188 L 370.351562 281.140625 L 368.113281 286.0625 L 365.789062 290.246094 L 362.480469 294.925781 L 359.796875 297.878906 L 355.683594 301.324219 L 351.925781 303.539062 L 347.992188 305.015625 L 344.503906 305.753906 L 340.390625 306 L 336.722656 305.507812 L 332.789062 304.03125 L 329.65625 302.0625 L 326.796875 299.601562 L 323.933594 296.402344 L 320.355469 291.230469 L 318.03125 287.046875 L 315.617188 281.878906 L 313.203125 275.726562 L 311.054688 269.082031 L 309.625 263.914062 L 308.191406 258.007812 L 306.671875 250.625 L 305.242188 242.253906 L 304.167969 234.625 L 303.183594 226.011719 L 302.46875 217.890625 L 301.753906 206.816406 L 301.394531 197.953125 L 301.21875 190.324219 Z M 301.21875 151.929688 "/>
<path style=" stroke:none;fill-rule:nonzero;fill:rgb(83.921569%,15.686275%,22.352941%);fill-opacity:1;" d="M 301.21875 307.179688 L 374.554688 307.179688 L 374.554688 307.859375 L 343.988281 307.863281 L 343.988281 313.535156 L 331.691406 313.535156 L 331.691406 307.871094 L 331.515625 307.859375 L 301.21875 307.859375 Z M 301.21875 307.179688 "/>
<path style=" stroke:none;fill-rule:nonzero;fill:rgb(6.27451%,58.823529%,28.235294%);fill-opacity:1;" d="M 378.414062 310.558594 L 378.492188 310.285156 L 410.222656 20.664062 L 419.859375 20.664062 L 451.75 310.832031 L 440.546875 310.832031 L 432.554688 235.089844 L 397.53125 235.089844 L 389.695312 310.558594 L 378.414062 310.558594 L 400.898438 203.753906 L 429.339844 203.484375 L 415.160156 68.070312 L 415.003906 67.796875 L 414.847656 68.617188 L 400.820312 203.484375 L 400.898438 203.753906 Z M 378.414062 310.558594 "/>
<path style=" stroke:none;fill-rule:nonzero;fill:rgb(96.862745%,70.196078%,16.862745%);fill-opacity:1;" d="M 378.414062 313.90625 L 378.503906 313.90625 L 378.503906 313.902344 L 378.859375 313.890625 L 379.753906 313.871094 L 380.917969 313.859375 L 382.167969 313.847656 L 382.972656 313.84375 L 384.316406 313.835938 L 385.476562 313.828125 L 388.429688 313.816406 L 392.1875 313.804688 L 394.242188 313.800781 L 396.566406 313.796875 L 399.878906 313.789062 L 401.398438 313.789062 L 406.046875 313.785156 L 411.324219 313.78125 L 423.488281 313.78125 L 428.496094 313.785156 L 431.359375 313.789062 L 433.59375 313.789062 L 435.917969 313.792969 L 438.78125 313.800781 L 441.464844 313.804688 L 443.609375 313.8125 L 445.757812 313.820312 L 447.546875 313.828125 L 449.066406 313.839844 L 450.40625 313.851562 L 451.210938 313.859375 L 451.75 313.867188 L 439.316406 313.867188 L 438.601562 313.859375 L 437.796875 313.851562 L 436.457031 313.84375 L 435.113281 313.835938 L 433.773438 313.832031 L 431.269531 313.824219 L 429.121094 313.820312 L 426.4375 313.816406 L 423.847656 313.8125 L 410.074219 313.8125 L 407.570312 313.816406 L 405.78125 313.816406 L 403.277344 313.820312 L 401.753906 313.824219 L 400.859375 313.828125 L 398.179688 313.835938 L 396.390625 313.84375 L 395.40625 313.847656 L 394.152344 313.855469 L 393.257812 313.863281 L 392.277344 313.875 L 391.738281 313.882812 L 391.023438 313.902344 L 390.933594 313.949219 L 391.203125 313.960938 L 391.738281 313.972656 L 392.453125 313.980469 L 393.527344 313.992188 L 394.601562 314 L 396.480469 314.007812 L 398.089844 314.015625 L 399.339844 314.019531 L 401.753906 314.027344 L 402.738281 314.03125 L 405.066406 314.035156 L 407.480469 314.039062 L 410.429688 314.042969 L 412.667969 314.042969 L 416.242188 314.046875 L 420.804688 314.046875 L 426.171875 314.042969 L 429.570312 314.042969 L 431.894531 314.039062 L 433.414062 314.039062 L 435.292969 314.035156 L 436.636719 314.03125 L 437.886719 314.027344 L 439.40625 314.023438 L 439.40625 313.960938 L 417.316406 313.960938 L 417.316406 313.929688 L 451.660156 313.929688 L 451.75 314.035156 L 449.871094 314.042969 L 447.546875 314.046875 L 445.308594 314.054688 L 442.984375 314.058594 L 439.675781 314.0625 L 436.992188 314.066406 L 432.878906 314.070312 L 429.121094 314.074219 L 409.984375 314.074219 L 406.851562 314.070312 L 403.992188 314.070312 L 401.128906 314.066406 L 397.550781 314.058594 L 395.226562 314.054688 L 392.8125 314.050781 L 390.398438 314.042969 L 388.25 314.035156 L 386.820312 314.03125 L 385.390625 314.023438 L 383.867188 314.015625 L 382.4375 314.007812 L 381.363281 313.996094 L 380.378906 313.988281 L 379.664062 313.980469 L 378.949219 313.96875 L 378.59375 313.957031 L 378.414062 313.949219 Z M 378.414062 313.90625 "/>
<path style=" stroke:none;fill-rule:nonzero;fill:rgb(83.921569%,15.686275%,22.352941%);fill-opacity:1;" d="M 378.414062 312.011719 L 451.75 312.011719 L 451.75 312.074219 L 421.183594 312.074219 L 421.183594 312.601562 L 408.886719 312.601562 L 408.886719 312.074219 L 378.414062 312.074219 Z M 378.414062 312.011719 "/>
<path style=" stroke:none;fill-rule:nonzero;fill:rgb(14.509804%,36.078431%,60%);fill-opacity:1;" d="M 455.609375 152.695312 L 455.699219 152.449219 L 455.699219 146.464844 L 455.964844 136.988281 L 456.59375 125.023438 L 457.21875 116.792969 L 458.828125 102.085938 L 461.066406 87.875 L 463.390625 76.902344 L 465.089844 70.421875 L 466.609375 65.433594 L 470.097656 56.210938 L 472.332031 51.472656 L 474.746094 47.234375 L 477.699219 42.996094 L 479.847656 40.503906 L 484.675781 36.511719 L 488.253906 34.769531 L 491.023438 34.019531 L 497.015625 34.019531 L 500.59375 35.019531 L 503.1875 36.265625 L 506.050781 38.257812 L 508.464844 40.503906 L 512.667969 45.988281 L 516.425781 52.96875 L 518.125 56.957031 L 520.804688 64.6875 L 522.863281 72.167969 L 524.292969 78.648438 L 525.90625 87.875 L 527.335938 99.09375 L 528.410156 111.808594 L 528.945312 122.527344 L 516.425781 122.527344 L 515.796875 112.554688 L 515.082031 104.828125 L 513.742188 94.605469 L 512.398438 87.375 L 510.523438 80.144531 L 508.824219 75.40625 L 506.496094 70.671875 L 504.441406 67.679688 L 502.292969 65.433594 L 500.238281 63.9375 L 496.300781 62.441406 L 491.742188 62.441406 L 490.042969 62.941406 L 486.554688 64.9375 L 484.675781 66.679688 L 481.992188 70.171875 L 480.113281 73.414062 L 477.878906 78.398438 L 476.359375 82.636719 L 474.480469 89.121094 L 473.136719 94.855469 L 471.617188 103.082031 L 470.722656 109.316406 L 469.917969 116.296875 L 469.203125 124.523438 L 468.667969 133.25 L 468.308594 142.476562 L 468.128906 151.449219 L 468.128906 190.09375 L 468.308594 199.070312 L 468.757812 209.542969 L 469.917969 224.75 L 471.617188 237.964844 L 473.585938 248.4375 L 475.464844 255.914062 L 476.535156 259.40625 L 477.96875 263.394531 L 480.203125 268.382812 L 483.421875 273.367188 L 485.300781 275.363281 L 488.164062 277.355469 L 491.113281 278.355469 L 495.050781 278.355469 L 498.539062 277.355469 L 500.863281 276.109375 L 503.277344 274.117188 L 506.585938 269.878906 L 508.644531 265.886719 L 510.433594 261.152344 L 511.773438 256.414062 L 512.667969 252.425781 L 514.007812 244.695312 L 515.082031 236.21875 L 515.886719 227.492188 L 516.425781 219.015625 L 528.945312 219.015625 L 528.410156 228.988281 L 527.605469 238.710938 L 526.796875 245.941406 L 525.546875 254.667969 L 524.117188 262.398438 L 522.058594 271.125 L 520.359375 276.859375 L 518.125 283.089844 L 516.066406 287.828125 L 513.832031 292.066406 L 510.523438 297.054688 L 508.375 299.546875 L 506.050781 301.789062 L 503.277344 303.785156 L 499.789062 305.53125 L 496.035156 306.527344 L 492.546875 306.777344 L 488.789062 306.277344 L 486.015625 305.28125 L 482.351562 303.039062 L 477.789062 298.550781 L 474.480469 293.8125 L 471.886719 289.074219 L 469.648438 284.089844 L 467.144531 277.355469 L 463.925781 266.386719 L 461.957031 257.910156 L 460.617188 250.929688 L 459.097656 241.207031 L 458.023438 232.480469 L 456.773438 218.515625 L 455.878906 200.816406 L 455.609375 187.101562 Z M 455.609375 152.695312 "/>
<path style=" stroke:none;fill-rule:nonzero;fill:rgb(83.921569%,15.686275%,22.352941%);fill-opacity:1;" d="M 455.609375 307.957031 L 528.945312 307.957031 L 528.945312 308.554688 L 498.382812 308.558594 L 498.382812 313.527344 L 486.085938 313.527344 L 486.085938 308.5625 L 485.90625 308.554688 L 455.609375 308.554688 Z M 455.609375 307.957031 "/>
<path style=" stroke:none;fill-rule:nonzero;fill:rgb(6.27451%,58.823529%,28.235294%);fill-opacity:1;" d="M 532.804688 313.21875 L 532.882812 313.214844 L 564.617188 309.808594 L 574.253906 309.808594 L 606.140625 313.222656 L 594.9375 313.222656 L 586.945312 312.332031 L 551.921875 312.332031 L 544.085938 313.21875 L 532.804688 313.21875 L 555.292969 311.960938 L 583.734375 311.957031 L 569.550781 310.363281 L 569.394531 310.363281 L 569.238281 310.371094 L 555.214844 311.957031 L 555.292969 311.960938 Z M 532.804688 313.21875 "/>
<path style=" stroke:none;fill-rule:nonzero;fill:rgb(96.862745%,70.196078%,16.862745%);fill-opacity:1;" d="M 532.804688 148.410156 L 532.894531 148.15625 L 532.894531 143.035156 L 533.253906 131.519531 L 534.144531 115.652344 L 535.308594 102.597656 L 536.5625 92.359375 L 537.367188 86.984375 L 538.707031 79.308594 L 539.871094 73.675781 L 542.820312 62.160156 L 546.578125 51.410156 L 548.636719 46.804688 L 550.960938 42.453125 L 554.269531 37.589844 L 555.789062 35.796875 L 560.441406 31.703125 L 565.714844 29.144531 L 571.53125 28.375 L 574.214844 28.632812 L 577.878906 29.65625 L 582.886719 32.472656 L 585.75 35.03125 L 587.984375 37.589844 L 590.3125 40.917969 L 593.171875 46.035156 L 595.855469 52.179688 L 598.003906 58.320312 L 600.148438 66 L 601.9375 74.1875 L 603.457031 83.148438 L 604.800781 93.894531 L 605.605469 102.855469 L 606.140625 111.8125 L 593.710938 111.8125 L 592.996094 102.855469 L 592.1875 95.945312 L 590.847656 87.496094 L 589.507812 81.355469 L 588.164062 76.492188 L 585.660156 69.839844 L 583.515625 65.742188 L 580.832031 62.160156 L 578.238281 59.855469 L 575.285156 58.320312 L 573.496094 57.808594 L 568.757812 57.808594 L 564.464844 59.601562 L 561.960938 61.648438 L 560.171875 63.695312 L 557.667969 67.535156 L 556.148438 70.605469 L 555.253906 72.652344 L 552.570312 80.585938 L 550.78125 87.753906 L 549.796875 92.617188 L 548.546875 100.292969 L 547.652344 107.203125 L 546.667969 117.441406 L 546.128906 125.121094 L 545.414062 142.523438 L 545.324219 188.59375 L 545.59375 198.320312 L 546.128906 208.8125 L 546.847656 218.027344 L 547.917969 227.75 L 548.992188 235.171875 L 550.871094 245.15625 L 552.480469 251.808594 L 553.734375 256.160156 L 556.148438 263.070312 L 557.132812 265.375 L 559.457031 269.980469 L 561.871094 273.5625 L 564.824219 276.636719 L 567.058594 278.171875 L 570.636719 279.449219 L 575.195312 279.449219 L 580.5625 277.914062 L 583.960938 275.867188 L 586.285156 273.820312 L 587.808594 272.027344 L 589.683594 269.214844 L 591.027344 266.652344 L 592.277344 263.839844 L 593.800781 259.488281 L 593.800781 198.320312 L 571.707031 198.0625 L 571.707031 169.398438 L 606.050781 169.140625 L 606.140625 269.214844 L 604.261719 276.125 L 601.9375 282.777344 L 599.703125 287.894531 L 597.375 292.246094 L 594.066406 297.109375 L 591.382812 300.179688 L 587.269531 303.765625 L 583.515625 306.066406 L 579.578125 307.601562 L 576.089844 308.371094 L 571.976562 308.628906 L 568.308594 308.117188 L 564.375 306.578125 L 561.246094 304.53125 L 558.382812 301.972656 L 555.519531 298.644531 L 551.945312 293.269531 L 549.617188 288.921875 L 547.203125 283.546875 L 544.789062 277.148438 L 542.644531 270.238281 L 541.210938 264.863281 L 539.78125 258.71875 L 538.261719 251.042969 L 536.828125 242.339844 L 535.757812 234.40625 L 534.773438 225.449219 L 534.058594 217 L 533.339844 205.484375 L 532.984375 196.269531 L 532.804688 188.335938 Z M 532.804688 148.410156 "/>
<path style=" stroke:none;fill-rule:nonzero;fill:rgb(6.27451%,58.823529%,28.235294%);fill-opacity:1;" d="M 610 314.097656 L 610.078125 314.097656 L 641.8125 311.777344 L 651.449219 311.777344 L 683.335938 314.101562 L 672.132812 314.101562 L 664.140625 313.496094 L 629.117188 313.496094 L 621.285156 314.097656 L 610 314.097656 L 632.488281 313.242188 L 660.929688 313.242188 L 646.746094 312.15625 L 646.589844 312.15625 L 646.433594 312.160156 L 632.410156 313.242188 L 632.488281 313.242188 Z M 610 314.097656 "/>
<path style=" stroke:none;fill-rule:nonzero;fill:rgb(14.509804%,36.078431%,60%);fill-opacity:1;" d="M 610 307.613281 L 610.089844 307.605469 L 610.089844 307.492188 L 610.359375 307.308594 L 610.984375 307.074219 L 611.609375 306.914062 L 613.21875 306.632812 L 615.457031 306.355469 L 617.78125 306.144531 L 619.480469 306.015625 L 621 305.921875 L 624.488281 305.742188 L 626.726562 305.648438 L 629.140625 305.566406 L 632.089844 305.484375 L 634.238281 305.4375 L 639.066406 305.359375 L 642.644531 305.324219 L 645.417969 305.3125 L 651.410156 305.3125 L 654.988281 305.332031 L 657.578125 305.355469 L 660.441406 305.394531 L 662.855469 305.4375 L 667.058594 305.542969 L 670.816406 305.679688 L 672.515625 305.757812 L 675.199219 305.90625 L 677.253906 306.050781 L 678.6875 306.175781 L 680.296875 306.355469 L 681.726562 306.574219 L 682.800781 306.820312 L 683.335938 307.027344 L 670.816406 307.027344 L 670.191406 306.832031 L 669.476562 306.683594 L 668.132812 306.484375 L 666.792969 306.347656 L 664.914062 306.207031 L 663.214844 306.113281 L 660.890625 306.023438 L 658.832031 305.964844 L 656.6875 305.921875 L 654.628906 305.890625 L 650.695312 305.863281 L 646.132812 305.863281 L 644.433594 305.871094 L 640.945312 305.910156 L 639.066406 305.945312 L 636.382812 306.011719 L 634.507812 306.074219 L 632.269531 306.171875 L 630.75 306.253906 L 628.871094 306.378906 L 627.53125 306.492188 L 626.007812 306.648438 L 625.117188 306.769531 L 624.308594 306.90625 L 623.59375 307.066406 L 623.058594 307.234375 L 622.699219 307.414062 L 622.523438 307.585938 L 622.523438 308.335938 L 622.699219 308.511719 L 623.148438 308.714844 L 624.308594 309.007812 L 626.007812 309.265625 L 627.976562 309.46875 L 629.855469 309.613281 L 630.929688 309.679688 L 632.359375 309.757812 L 634.59375 309.855469 L 637.816406 309.949219 L 639.691406 309.988281 L 642.554688 310.027344 L 645.507812 310.046875 L 649.441406 310.046875 L 652.929688 310.027344 L 655.253906 310.003906 L 657.667969 309.964844 L 660.976562 309.882812 L 663.035156 309.804688 L 664.824219 309.714844 L 666.164062 309.621094 L 667.058594 309.546875 L 668.402344 309.394531 L 669.476562 309.230469 L 670.28125 309.0625 L 670.816406 308.898438 L 683.335938 308.898438 L 682.800781 309.089844 L 681.996094 309.277344 L 681.191406 309.417969 L 679.9375 309.589844 L 678.507812 309.738281 L 676.449219 309.90625 L 674.75 310.019531 L 672.515625 310.140625 L 670.457031 310.230469 L 668.222656 310.3125 L 664.914062 310.410156 L 662.765625 310.457031 L 660.441406 310.5 L 657.667969 310.539062 L 654.179688 310.574219 L 650.425781 310.59375 L 646.9375 310.597656 L 643.179688 310.589844 L 640.410156 310.570312 L 636.742188 310.527344 L 632.179688 310.4375 L 628.871094 310.347656 L 626.277344 310.253906 L 624.042969 310.160156 L 621.539062 310.027344 L 618.316406 309.816406 L 616.351562 309.652344 L 615.007812 309.515625 L 613.488281 309.328125 L 612.414062 309.160156 L 611.164062 308.886719 L 610.269531 308.542969 L 610 308.277344 Z M 610 307.613281 "/>
<path style=" stroke:none;fill-rule:nonzero;fill:rgb(83.921569%,15.686275%,22.352941%);fill-opacity:1;" d="M 610 46.382812 L 683.335938 46.382812 L 683.335938 73.972656 L 652.773438 74.214844 L 652.773438 304.132812 L 640.476562 304.132812 L 640.476562 74.457031 L 640.296875 73.972656 L 610 73.972656 Z M 610 46.382812 "/>
<g style="fill:rgb(0%,0%,0%);fill-opacity:1;">
  <use xlink:href="#glyph0-1" x="21.957031" y="318.198242"/>
  <use xlink:href="#glyph0-2" x="27.291016" y="318.198242"/>
  <use xlink:href="#glyph0-1" x="29.958008" y="318.198242"/>
</g>
<g style="fill:rgb(0%,0%,0%);fill-opacity:1;">
  <use xlink:href="#glyph0-1" x="21.957031" y="240.198242"/>
  <use xlink:href="#glyph0-2" x="27.291016" y="240.198242"/>
  <use xlink:href="#glyph0-3" x="29.958008" y="240.198242"/>
</g>
<g style="fill:rgb(0%,0%,0%);fill-opacity:1;">
  <use xlink:href="#glyph0-4" x="21.957031" y="162.198242"/>
  <use xlink:href="#glyph0-2" x="27.291016" y="162.198242"/>
  <use xlink:href="#glyph0-1" x="29.958008" y="162.198242"/>
</g>
<g style="fill:rgb(0%,0%,0%);fill-opacity:1;">
  <use xlink:href="#glyph0-4" x="21.957031" y="84.198242"/>
  <use xlink:href="#glyph0-2" x="27.291016" y="84.198242"/>
  <use xlink:href="#glyph0-3" x="29.958008" y="84.198242"/>
</g>
<g style="fill:rgb(0%,0%,0%);fill-opacity:1;">
  <use xlink:href="#glyph0-4" x="103.296875" y="338.19043"/>
</g>
<g style="fill:rgb(0%,0%,0%);fill-opacity:1;">
  <use xlink:href="#glyph0-5" x="180.492188" y="338.19043"/>
</g>
<g style="fill:rgb(0%,0%,0%);fill-opacity:1;">
  <use xlink:href="#glyph0-6" x="257.6875" y="338.19043"/>
</g>
<g style="fill:rgb(0%,0%,0%);fill-opacity:1;">
  <use xlink:href="#glyph0-7" x="334.886719" y="338.19043"/>
</g>
<g style="fill:rgb(0%,0%,0%);fill-opacity:1;">
  <use xlink:href="#glyph0-3" x="412.082031" y="338.19043"/>
</g>
<g style="fill:rgb(0%,0%,0%);fill-opacity:1;">
  <use xlink:href="#glyph0-8" x="489.277344" y="338.19043"/>
</g>
<g style="fill:rgb(0%,0%,0%);fill-opacity:1;">
  <use xlink:href="#glyph0-9" x="566.472656" y="338.19043"/>
</g>
<g style="fill:rgb(0%,0%,0%);fill-opacity:1;">
  <use xlink:href="#glyph0-10" x="643.667969" y="338.19043"/>
</g>
<g style="fill:rgb(0%,0%,0%);fill-opacity:1;">
  <use xlink:href="#glyph1-1" x="14.412109" y="178.015625"/>
  <use xlink:href="#glyph1-2" x="14.412109" y="170.011719"/>
  <use xlink:href="#glyph1-3" x="14.412109" y="167.347656"/>
  <use xlink:href="#glyph1-4" x="14.412109" y="164.011719"/>
</g>
</g>
</svg>
