<?xml version="1.0" encoding="UTF-8"?>
<svg xmlns="http://www.w3.org/2000/svg" xmlns:xlink="http://www.w3.org/1999/xlink" width="720pt" height="360pt" viewBox="0 0 720 360" version="1.1">
<defs>
<g>
<symbol overflow="visible" id="glyph0-0">
<path style="stroke:none;" d=""/>
</symbol>
<symbol overflow="visible" id="glyph0-1">
<path style="stroke:none;" d="M 2.640625 -6.796875 C 2 -6.796875 1.421875 -6.53125 1.078125 -6.046875 C 0.640625 -5.453125 0.40625 -4.546875 0.40625 -3.296875 C 0.40625 -1 1.1875 0.21875 2.640625 0.21875 C 4.078125 0.21875 4.859375 -1 4.859375 -3.234375 C 4.859375 -4.5625 4.65625 -5.4375 4.203125 -6.046875 C 3.84375 -6.53125 3.28125 -6.796875 2.640625 -6.796875 Z M 2.640625 -6.046875 C 3.546875 -6.046875 4 -5.125 4 -3.3125 C 4 -1.375 3.5625 -0.484375 2.625 -0.484375 C 1.734375 -0.484375 1.28125 -1.421875 1.28125 -3.28125 C 1.28125 -5.140625 1.734375 -6.046875 2.640625 -6.046875 Z M 2.640625 -6.046875 "/>
</symbol>
<symbol overflow="visible" id="glyph0-2">
<path style="stroke:none;" d="M 1.828125 -1 L 0.828125 -1 L 0.828125 0 L 1.828125 0 Z M 1.828125 -1 "/>
</symbol>
<symbol overflow="visible" id="glyph0-3">
<path style="stroke:none;" d="M 4.5625 -6.796875 L 1.0625 -6.796875 L 0.546875 -3.09375 L 1.328125 -3.09375 C 1.71875 -3.5625 2.046875 -3.734375 2.578125 -3.734375 C 3.484375 -3.734375 4.0625 -3.109375 4.0625 -2.09375 C 4.0625 -1.125 3.484375 -0.53125 2.578125 -0.53125 C 1.828125 -0.53125 1.375 -0.90625 1.1875 -1.671875 L 0.328125 -1.671875 C 0.453125 -1.109375 0.546875 -0.84375 0.75 -0.59375 C 1.125 -0.078125 1.828125 0.21875 2.59375 0.21875 C 3.96875 0.21875 4.921875 -0.78125 4.921875 -2.21875 C 4.921875 -3.5625 4.03125 -4.484375 2.71875 -4.484375 C 2.25 -4.484375 1.859375 -4.359375 1.46875 -4.0625 L 1.734375 -5.96875 L 4.5625 -5.96875 Z M 4.5625 -6.796875 "/>
</symbol>
<symbol overflow="visible" id="glyph0-4">
<path style="stroke:none;" d="M 2.484375 -4.84375 L 2.484375 0 L 3.328125 0 L 3.328125 -6.796875 L 2.765625 -6.796875 C 2.46875 -5.75 2.28125 -5.609375 0.984375 -5.453125 L 0.984375 -4.84375 Z M 2.484375 -4.84375 "/>
</symbol>
<symbol overflow="visible" id="glyph0-5">
<path style="stroke:none;" d="M 4.859375 -0.828125 L 1.28125 -0.828125 C 1.359375 -1.390625 1.671875 -1.75 2.5 -2.234375 L 3.46875 -2.75 C 4.40625 -3.265625 4.90625 -3.96875 4.90625 -4.8125 C 4.90625 -5.375 4.671875 -5.90625 4.265625 -6.265625 C 3.859375 -6.625 3.375 -6.796875 2.71875 -6.796875 C 1.859375 -6.796875 1.21875 -6.5 0.84375 -5.921875 C 0.609375 -5.5625 0.5 -5.125 0.484375 -4.4375 L 1.328125 -4.4375 C 1.359375 -4.90625 1.40625 -5.1875 1.53125 -5.40625 C 1.75 -5.8125 2.1875 -6.0625 2.703125 -6.0625 C 3.46875 -6.0625 4.03125 -5.515625 4.03125 -4.78125 C 4.03125 -4.25 3.71875 -3.796875 3.125 -3.4375 L 2.234375 -2.9375 C 0.8125 -2.140625 0.40625 -1.5 0.328125 0 L 4.859375 0 Z M 4.859375 -0.828125 "/>
</symbol>
<symbol overflow="visible" id="glyph0-6">
<path style="stroke:none;" d="M 2.125 -3.125 L 2.578125 -3.125 C 3.515625 -3.125 3.984375 -2.703125 3.984375 -1.890625 C 3.984375 -1.03125 3.46875 -0.53125 2.578125 -0.53125 C 1.65625 -0.53125 1.203125 -0.984375 1.15625 -1.96875 L 0.3125 -1.96875 C 0.34375 -1.421875 0.4375 -1.078125 0.609375 -0.765625 C 0.953125 -0.109375 1.625 0.21875 2.546875 0.21875 C 3.953125 0.21875 4.859375 -0.609375 4.859375 -1.90625 C 4.859375 -2.765625 4.515625 -3.25 3.703125 -3.515625 C 4.34375 -3.765625 4.65625 -4.25 4.65625 -4.9375 C 4.65625 -6.109375 3.875 -6.796875 2.578125 -6.796875 C 1.203125 -6.796875 0.484375 -6.046875 0.453125 -4.609375 L 1.296875 -4.609375 C 1.3125 -5.015625 1.34375 -5.25 1.453125 -5.453125 C 1.640625 -5.828125 2.0625 -6.0625 2.59375 -6.0625 C 3.34375 -6.0625 3.796875 -5.625 3.796875 -4.90625 C 3.796875 -4.421875 3.609375 -4.140625 3.25 -3.984375 C 3.015625 -3.890625 2.71875 -3.84375 2.125 -3.84375 Z M 2.125 -3.125 "/>
</symbol>
<symbol overflow="visible" id="glyph0-7">
<path style="stroke:none;" d="M 3.140625 -1.625 L 3.140625 0 L 3.984375 0 L 3.984375 -1.625 L 4.984375 -1.625 L 4.984375 -2.390625 L 3.984375 -2.390625 L 3.984375 -6.796875 L 3.359375 -6.796875 L 0.265625 -2.515625 L 0.265625 -1.625 Z M 3.140625 -2.390625 L 1 -2.390625 L 3.140625 -5.359375 Z M 3.140625 -2.390625 "/>
</symbol>
<symbol overflow="visible" id="glyph0-8">
<path style="stroke:none;" d="M 4.78125 -5.03125 C 4.609375 -6.140625 3.890625 -6.796875 2.84375 -6.796875 C 2.09375 -6.796875 1.421875 -6.4375 1.03125 -5.828125 C 0.609375 -5.171875 0.40625 -4.34375 0.40625 -3.09375 C 0.40625 -1.953125 0.578125 -1.234375 0.984375 -0.625 C 1.359375 -0.078125 1.953125 0.21875 2.703125 0.21875 C 3.984375 0.21875 4.921875 -0.734375 4.921875 -2.078125 C 4.921875 -3.34375 4.0625 -4.234375 2.84375 -4.234375 C 2.171875 -4.234375 1.640625 -3.96875 1.28125 -3.46875 C 1.28125 -5.125 1.828125 -6.046875 2.796875 -6.046875 C 3.390625 -6.046875 3.796875 -5.671875 3.9375 -5.03125 Z M 2.734375 -3.484375 C 3.546875 -3.484375 4.0625 -2.921875 4.0625 -2 C 4.0625 -1.15625 3.484375 -0.53125 2.703125 -0.53125 C 1.921875 -0.53125 1.328125 -1.1875 1.328125 -2.046875 C 1.328125 -2.890625 1.90625 -3.484375 2.734375 -3.484375 Z M 2.734375 -3.484375 "/>
</symbol>
<symbol overflow="visible" id="glyph0-9">
<path style="stroke:none;" d="M 4.984375 -6.796875 L 0.4375 -6.796875 L 0.4375 -5.96875 L 4.109375 -5.96875 C 2.5 -3.65625 1.828125 -2.234375 1.328125 0 L 2.21875 0 C 2.59375 -2.171875 3.453125 -4.046875 4.984375 -6.09375 Z M 4.984375 -6.796875 "/>
</symbol>
<symbol overflow="visible" id="glyph0-10">
<path style="stroke:none;" d="M 3.75 -3.578125 C 4.453125 -4 4.6875 -4.34375 4.6875 -4.984375 C 4.6875 -6.046875 3.84375 -6.796875 2.640625 -6.796875 C 1.4375 -6.796875 0.59375 -6.046875 0.59375 -4.984375 C 0.59375 -4.359375 0.828125 -4.015625 1.515625 -3.578125 C 0.734375 -3.203125 0.359375 -2.640625 0.359375 -1.890625 C 0.359375 -0.640625 1.296875 0.21875 2.640625 0.21875 C 3.984375 0.21875 4.921875 -0.640625 4.921875 -1.875 C 4.921875 -2.640625 4.53125 -3.203125 3.75 -3.578125 Z M 2.640625 -6.046875 C 3.359375 -6.046875 3.8125 -5.625 3.8125 -4.96875 C 3.8125 -4.34375 3.34375 -3.921875 2.640625 -3.921875 C 1.921875 -3.921875 1.453125 -4.34375 1.453125 -4.984375 C 1.453125 -5.625 1.921875 -6.046875 2.640625 -6.046875 Z M 2.640625 -3.203125 C 3.484375 -3.203125 4.0625 -2.671875 4.0625 -1.875 C 4.0625 -1.0625 3.484375 -0.53125 2.625 -0.53125 C 1.796875 -0.53125 1.21875 -1.078125 1.21875 -1.875 C 1.21875 -2.671875 1.796875 -3.203125 2.640625 -3.203125 Z M 2.640625 -3.203125 "/>
</symbol>
<symbol overflow="visible" id="glyph0-11">
<path style="stroke:none;" d="M 0.515625 -1.546875 C 0.671875 -0.4375 1.40625 0.21875 2.4375 0.21875 C 3.1875 0.21875 3.859375 -0.140625 4.265625 -0.75 C 4.6875 -1.40625 4.890625 -2.25 4.890625 -3.484375 C 4.890625 -4.625 4.703125 -5.359375 4.3125 -5.953125 C 3.9375 -6.5 3.34375 -6.796875 2.59375 -6.796875 C 1.296875 -6.796875 0.359375 -5.84375 0.359375 -4.515625 C 0.359375 -3.25 1.234375 -2.34375 2.453125 -2.34375 C 3.09375 -2.34375 3.5625 -2.578125 4.015625 -3.109375 C 4 -1.453125 3.46875 -0.53125 2.5 -0.53125 C 1.90625 -0.53125 1.484375 -0.90625 1.359375 -1.546875 Z M 2.578125 -6.0625 C 3.375 -6.0625 3.96875 -5.40625 3.96875 -4.53125 C 3.96875 -3.6875 3.375 -3.09375 2.546875 -3.09375 C 1.734375 -3.09375 1.234375 -3.671875 1.234375 -4.578125 C 1.234375 -5.4375 1.796875 -6.0625 2.578125 -6.0625 Z M 2.578125 -6.0625 "/>
</symbol>
<symbol overflow="visible" id="glyph1-0">
<path style="stroke:none;" d=""/>
</symbol>
<symbol overflow="visible" id="glyph1-1">
<path style="stroke:none;" d="M 0 -0.953125 L 0 -4.890625 C 0 -5.71875 -0.234375 -6.34375 -0.734375 -6.796875 C -1.1875 -7.234375 -1.8125 -7.46875 -2.5 -7.46875 C -3.546875 -7.46875 -4.1875 -7 -4.625 -5.875 C -4.984375 -6.671875 -5.640625 -7.09375 -6.53125 -7.09375 C -7.15625 -7.09375 -7.734375 -6.859375 -8.140625 -6.390625 C -8.5625 -5.9375 -8.75 -5.34375 -8.75 -4.5 L -8.75 -0.953125 Z M -4.984375 -2.0625 L -7.765625 -2.0625 L -7.765625 -4.21875 C -7.765625 -4.84375 -7.6875 -5.203125 -7.453125 -5.5 C -7.21875 -5.8125 -6.859375 -5.96875 -6.375 -5.96875 C -5.90625 -5.96875 -5.53125 -5.8125 -5.296875 -5.5 C -5.0625 -5.203125 -4.984375 -4.84375 -4.984375 -4.21875 Z M -0.984375 -2.0625 L -4 -2.0625 L -4 -4.78125 C -4 -5.328125 -3.859375 -5.6875 -3.578125 -5.953125 C -3.296875 -6.21875 -2.921875 -6.359375 -2.484375 -6.359375 C -2.0625 -6.359375 -1.6875 -6.21875 -1.40625 -5.953125 C -1.109375 -5.6875 -0.984375 -5.328125 -0.984375 -4.78125 Z M -0.984375 -2.0625 "/>
</symbol>
<symbol overflow="visible" id="glyph1-2">
<path style="stroke:none;" d="M -6.28125 -1.796875 L -6.28125 -0.796875 L 0 -0.796875 L 0 -1.796875 Z M -8.75 -1.796875 L -8.75 -0.796875 L -7.484375 -0.796875 L -7.484375 -1.796875 Z M -8.75 -1.796875 "/>
</symbol>
<symbol overflow="visible" id="glyph1-3">
<path style="stroke:none;" d="M -6.28125 -3.046875 L -6.28125 -2.015625 L -8.015625 -2.015625 L -8.015625 -1.015625 L -6.28125 -1.015625 L -6.28125 -0.171875 L -5.46875 -0.171875 L -5.46875 -1.015625 L -0.71875 -1.015625 C -0.078125 -1.015625 0.28125 -1.453125 0.28125 -2.234375 C 0.28125 -2.46875 0.25 -2.71875 0.1875 -3.046875 L -0.640625 -3.046875 C -0.609375 -2.921875 -0.59375 -2.765625 -0.59375 -2.5625 C -0.59375 -2.140625 -0.71875 -2.015625 -1.15625 -2.015625 L -5.46875 -2.015625 L -5.46875 -3.046875 Z M -6.28125 -3.046875 "/>
</symbol>
<symbol overflow="visible" id="glyph1-4">
<path style="stroke:none;" d="M -4.53125 -5.25 C -5.765625 -5.25 -6.46875 -4.421875 -6.46875 -2.96875 C -6.46875 -1.515625 -5.71875 -0.5625 -4.546875 -0.5625 C -3.5625 -0.5625 -3.09375 -1.0625 -2.734375 -2.5625 L -2.515625 -3.484375 C -2.34375 -4.1875 -2.09375 -4.46875 -1.625 -4.46875 C -1.046875 -4.46875 -0.640625 -3.875 -0.640625 -3 C -0.640625 -2.453125 -0.796875 -2 -1.0625 -1.75 C -1.25 -1.59375 -1.421875 -1.53125 -1.875 -1.46875 L -1.875 -0.40625 C -0.421875 -0.453125 0.28125 -1.265625 0.28125 -2.921875 C 0.28125 -4.5 -0.5 -5.515625 -1.71875 -5.515625 C -2.65625 -5.515625 -3.171875 -4.984375 -3.46875 -3.734375 L -3.703125 -2.765625 C -3.890625 -1.953125 -4.15625 -1.609375 -4.59375 -1.609375 C -5.171875 -1.609375 -5.546875 -2.125 -5.546875 -2.9375 C -5.546875 -3.75 -5.203125 -4.171875 -4.53125 -4.203125 Z M -4.53125 -5.25 "/>
</symbol>
</g>
</defs>
<g id="surface107924">
<rect x="0" y="0" width="720" height="360" style="fill:rgb(100%,100%,100%);fill-opacity:1;stroke:none;"/>
<path style=" stroke:none;fill-rule:nonzero;fill:rgb(6.27451%,58.823529%,28.235294%);fill-opacity:1;" d="M 69.628906 307.972656 L 69.691406 307.972656 L 95.046875 305.234375 L 102.746094 305.234375 L 128.222656 307.976562 L 119.273438 307.976562 L 112.886719 307.261719 L 84.902344 307.261719 L 78.644531 307.972656 L 69.628906 307.972656 L 87.597656 306.964844 L 110.320312 306.960938 L 98.988281 305.683594 L 98.863281 305.679688 L 98.738281 305.6875 L 87.535156 306.960938 L 87.597656 306.964844 Z M 69.628906 307.972656 "/>
<path style=" stroke:none;fill-rule:nonzero;fill:rgb(14.509804%,36.078431%,60%);fill-opacity:1;" d="M 69.628906 313.324219 L 69.699219 313.320312 L 69.699219 313.28125 L 69.914062 313.214844 L 70.414062 313.132812 L 70.914062 313.078125 L 72.203125 312.976562 L 73.988281 312.882812 L 75.847656 312.808594 L 77.203125 312.761719 L 78.417969 312.730469 L 81.207031 312.667969 L 82.992188 312.632812 L 84.921875 312.605469 L 87.28125 312.578125 L 88.996094 312.558594 L 92.851562 312.53125 L 95.710938 312.519531 L 97.925781 312.515625 L 102.714844 312.515625 L 105.574219 312.523438 L 107.644531 312.53125 L 109.929688 312.542969 L 111.859375 312.558594 L 115.21875 312.597656 L 118.21875 312.644531 L 119.578125 312.671875 L 121.722656 312.722656 L 123.367188 312.773438 L 124.507812 312.820312 L 125.796875 312.882812 L 126.9375 312.957031 L 127.796875 313.042969 L 128.222656 313.117188 L 118.21875 313.117188 L 117.71875 313.050781 L 117.148438 312.996094 L 116.078125 312.925781 L 115.003906 312.878906 L 113.503906 312.828125 L 112.148438 312.796875 L 110.289062 312.765625 L 108.644531 312.746094 L 106.929688 312.730469 L 105.285156 312.71875 L 102.140625 312.707031 L 98.5 312.707031 L 97.140625 312.710938 L 94.355469 312.726562 L 92.851562 312.738281 L 90.710938 312.761719 L 89.207031 312.785156 L 87.421875 312.816406 L 86.207031 312.847656 L 84.707031 312.890625 L 83.636719 312.929688 L 82.421875 312.984375 L 81.707031 313.027344 L 81.0625 313.074219 L 80.492188 313.132812 L 80.0625 313.191406 L 79.777344 313.253906 L 79.632812 313.3125 L 79.632812 313.578125 L 79.777344 313.636719 L 80.132812 313.710938 L 81.0625 313.8125 L 82.421875 313.902344 L 83.992188 313.972656 L 85.492188 314.023438 L 86.351562 314.046875 L 87.492188 314.074219 L 89.28125 314.109375 L 91.851562 314.144531 L 93.351562 314.15625 L 95.640625 314.171875 L 97.996094 314.175781 L 101.140625 314.175781 L 103.929688 314.171875 L 105.785156 314.160156 L 107.714844 314.148438 L 110.359375 314.121094 L 112.003906 314.09375 L 113.433594 314.058594 L 114.503906 314.027344 L 115.21875 314 L 116.292969 313.949219 L 117.148438 313.890625 L 117.792969 313.832031 L 118.21875 313.773438 L 128.222656 313.773438 L 127.796875 313.839844 L 127.152344 313.90625 L 126.507812 313.957031 L 125.507812 314.015625 L 124.367188 314.070312 L 122.722656 314.128906 L 121.363281 314.167969 L 119.578125 314.210938 L 117.933594 314.242188 L 116.148438 314.269531 L 113.503906 314.304688 L 111.789062 314.320312 L 109.929688 314.335938 L 107.714844 314.351562 L 104.929688 314.363281 L 101.929688 314.367188 L 99.140625 314.371094 L 96.140625 314.367188 L 93.925781 314.359375 L 90.996094 314.34375 L 87.351562 314.316406 L 84.707031 314.28125 L 82.632812 314.25 L 80.847656 314.214844 L 78.847656 314.171875 L 76.273438 314.097656 L 74.703125 314.039062 L 73.632812 313.992188 L 72.417969 313.925781 L 71.558594 313.867188 L 70.558594 313.769531 L 69.84375 313.648438 L 69.628906 313.558594 Z M 69.628906 313.324219 "/>
<path style=" stroke:none;fill-rule:nonzero;fill:rgb(96.862745%,70.196078%,16.862745%);fill-opacity:1;" d="M 69.628906 300.300781 L 69.699219 300.292969 L 69.699219 300.175781 L 69.988281 299.902344 L 70.703125 299.53125 L 71.628906 299.226562 L 72.628906 298.984375 L 73.273438 298.859375 L 74.34375 298.679688 L 75.273438 298.546875 L 77.632812 298.277344 L 80.632812 298.027344 L 82.277344 297.917969 L 84.136719 297.816406 L 86.777344 297.703125 L 87.992188 297.660156 L 91.710938 297.5625 L 95.925781 297.503906 L 100.570312 297.484375 L 102.714844 297.492188 L 105.644531 297.515625 L 109.644531 297.582031 L 111.933594 297.640625 L 113.71875 297.703125 L 115.578125 297.78125 L 117.863281 297.898438 L 120.007812 298.042969 L 121.722656 298.1875 L 123.4375 298.367188 L 124.867188 298.558594 L 126.082031 298.769531 L 127.152344 299.023438 L 127.796875 299.230469 L 128.222656 299.441406 L 118.292969 299.441406 L 117.71875 299.230469 L 117.078125 299.070312 L 116.003906 298.871094 L 114.933594 298.726562 L 113.863281 298.613281 L 111.859375 298.457031 L 110.144531 298.363281 L 108.003906 298.277344 L 105.929688 298.222656 L 103.570312 298.1875 L 102.140625 298.175781 L 98.355469 298.175781 L 94.925781 298.21875 L 92.925781 298.265625 L 91.496094 298.3125 L 89.496094 298.402344 L 88.28125 298.476562 L 87.566406 298.523438 L 85.421875 298.710938 L 83.992188 298.878906 L 83.207031 298.992188 L 82.207031 299.171875 L 81.492188 299.332031 L 80.707031 299.574219 L 80.277344 299.753906 L 79.703125 300.160156 L 79.632812 301.242188 L 79.847656 301.46875 L 80.277344 301.714844 L 80.847656 301.933594 L 81.707031 302.160156 L 82.5625 302.332031 L 84.0625 302.566406 L 85.351562 302.722656 L 86.351562 302.824219 L 88.28125 302.988281 L 89.066406 303.042969 L 90.921875 303.148438 L 92.851562 303.234375 L 95.210938 303.304688 L 96.996094 303.34375 L 99.855469 303.371094 L 103.5 303.371094 L 107.789062 303.335938 L 110.503906 303.289062 L 112.359375 303.238281 L 113.574219 303.199219 L 115.078125 303.132812 L 116.148438 303.070312 L 117.148438 303.007812 L 118.363281 302.902344 L 118.363281 301.46875 L 100.714844 301.464844 L 100.714844 300.792969 L 128.152344 300.785156 L 128.222656 303.132812 L 126.722656 303.292969 L 124.867188 303.449219 L 123.078125 303.570312 L 121.222656 303.671875 L 118.578125 303.785156 L 116.433594 303.859375 L 113.148438 303.941406 L 110.144531 303.996094 L 107 304.03125 L 104.214844 304.050781 L 100.929688 304.054688 L 97.996094 304.042969 L 94.855469 304.007812 L 92.351562 303.960938 L 90.066406 303.898438 L 87.78125 303.820312 L 84.921875 303.695312 L 83.0625 303.59375 L 81.132812 303.46875 L 79.203125 303.316406 L 77.488281 303.15625 L 76.347656 303.03125 L 75.203125 302.886719 L 73.988281 302.707031 L 72.84375 302.5 L 71.988281 302.316406 L 71.203125 302.105469 L 70.628906 301.90625 L 70.058594 301.636719 L 69.773438 301.421875 L 69.628906 301.234375 Z M 69.628906 300.300781 "/>
<path style=" stroke:none;fill-rule:nonzero;fill:rgb(83.921569%,15.686275%,22.352941%);fill-opacity:1;" d="M 69.628906 309.15625 L 128.222656 309.15625 L 128.222656 309.390625 L 103.804688 309.390625 L 103.804688 311.335938 L 93.980469 311.335938 L 93.980469 309.394531 L 93.835938 309.390625 L 69.628906 309.390625 Z M 69.628906 309.15625 "/>
<path style=" stroke:none;fill-rule:nonzero;fill:rgb(6.27451%,58.823529%,28.235294%);fill-opacity:1;" d="M 131.308594 314.367188 L 131.371094 314.363281 L 156.726562 310.667969 L 164.425781 310.667969 L 189.902344 314.371094 L 180.953125 314.371094 L 174.566406 313.402344 L 146.582031 313.402344 L 140.324219 314.367188 L 131.308594 314.367188 L 149.273438 313.003906 L 172 313 L 160.667969 311.273438 L 160.542969 311.269531 L 160.417969 311.277344 L 149.210938 313 L 149.273438 313.003906 Z M 131.308594 314.367188 "/>
<path style=" stroke:none;fill-rule:nonzero;fill:rgb(14.509804%,36.078431%,60%);fill-opacity:1;" d="M 131.308594 295.527344 L 131.378906 295.515625 L 131.378906 295.308594 L 131.59375 294.972656 L 132.09375 294.554688 L 132.59375 294.265625 L 133.882812 293.746094 L 135.667969 293.246094 L 137.523438 292.863281 L 138.882812 292.632812 L 140.097656 292.457031 L 142.882812 292.132812 L 144.671875 291.96875 L 146.601562 291.820312 L 148.957031 291.671875 L 150.671875 291.582031 L 154.53125 291.441406 L 157.390625 291.382812 L 159.605469 291.355469 L 164.394531 291.355469 L 167.25 291.390625 L 169.324219 291.433594 L 171.609375 291.503906 L 173.539062 291.582031 L 176.898438 291.777344 L 179.898438 292.019531 L 181.257812 292.160156 L 183.402344 292.433594 L 185.042969 292.695312 L 186.1875 292.921875 L 187.472656 293.246094 L 188.617188 293.640625 L 189.476562 294.089844 L 189.902344 294.464844 L 179.898438 294.464844 L 179.398438 294.113281 L 178.828125 293.84375 L 177.757812 293.484375 L 176.683594 293.230469 L 175.183594 292.976562 L 173.824219 292.808594 L 171.96875 292.644531 L 170.324219 292.539062 L 168.609375 292.457031 L 166.964844 292.40625 L 163.820312 292.355469 L 160.175781 292.355469 L 158.820312 292.371094 L 156.03125 292.441406 L 154.53125 292.503906 L 152.386719 292.625 L 150.886719 292.738281 L 149.101562 292.914062 L 147.886719 293.0625 L 146.386719 293.292969 L 145.3125 293.492188 L 144.097656 293.78125 L 143.386719 294 L 142.742188 294.246094 L 142.171875 294.535156 L 141.742188 294.84375 L 141.457031 295.167969 L 141.3125 295.480469 L 141.3125 296.839844 L 141.457031 297.15625 L 141.8125 297.523438 L 142.742188 298.058594 L 144.097656 298.523438 L 145.671875 298.890625 L 147.171875 299.152344 L 148.03125 299.277344 L 149.171875 299.417969 L 150.960938 299.589844 L 153.53125 299.765625 L 155.03125 299.835938 L 157.320312 299.90625 L 159.675781 299.941406 L 162.820312 299.941406 L 165.609375 299.90625 L 167.464844 299.863281 L 169.394531 299.792969 L 172.039062 299.644531 L 173.683594 299.503906 L 175.113281 299.335938 L 176.183594 299.171875 L 176.898438 299.03125 L 177.96875 298.757812 L 178.828125 298.460938 L 179.472656 298.15625 L 179.898438 297.855469 L 189.902344 297.855469 L 189.476562 298.207031 L 188.832031 298.550781 L 188.1875 298.804688 L 187.1875 299.109375 L 186.046875 299.382812 L 184.402344 299.6875 L 183.042969 299.890625 L 181.257812 300.109375 L 179.613281 300.273438 L 177.828125 300.425781 L 175.183594 300.597656 L 173.46875 300.6875 L 171.609375 300.765625 L 169.394531 300.835938 L 166.609375 300.898438 L 163.605469 300.933594 L 160.820312 300.941406 L 157.820312 300.921875 L 155.605469 300.886719 L 152.675781 300.808594 L 149.03125 300.652344 L 146.386719 300.484375 L 144.3125 300.320312 L 142.527344 300.144531 L 140.527344 299.90625 L 137.953125 299.523438 L 136.382812 299.222656 L 135.308594 298.976562 L 134.09375 298.636719 L 133.238281 298.328125 L 132.238281 297.839844 L 131.523438 297.21875 L 131.308594 296.734375 Z M 131.308594 295.527344 "/>
<path style=" stroke:none;fill-rule:nonzero;fill:rgb(96.862745%,70.196078%,16.862745%);fill-opacity:1;" d="M 131.308594 305.277344 L 131.378906 305.269531 L 131.378906 305.132812 L 131.664062 304.832031 L 132.378906 304.414062 L 133.308594 304.070312 L 134.308594 303.800781 L 134.953125 303.660156 L 136.023438 303.460938 L 136.953125 303.3125 L 139.3125 303.007812 L 142.3125 302.726562 L 143.957031 302.605469 L 145.8125 302.492188 L 148.457031 302.363281 L 149.671875 302.316406 L 153.390625 302.207031 L 157.605469 302.140625 L 162.25 302.121094 L 164.394531 302.128906 L 167.324219 302.152344 L 171.324219 302.226562 L 173.613281 302.296875 L 175.398438 302.363281 L 177.253906 302.449219 L 179.542969 302.585938 L 181.6875 302.746094 L 183.402344 302.90625 L 185.117188 303.109375 L 186.546875 303.324219 L 187.761719 303.558594 L 188.832031 303.84375 L 189.476562 304.078125 L 189.902344 304.3125 L 179.972656 304.3125 L 179.398438 304.078125 L 178.757812 303.898438 L 177.683594 303.675781 L 176.613281 303.511719 L 175.539062 303.386719 L 173.539062 303.210938 L 171.824219 303.101562 L 169.679688 303.007812 L 167.609375 302.949219 L 165.25 302.90625 L 163.820312 302.894531 L 160.035156 302.894531 L 156.605469 302.941406 L 154.605469 302.996094 L 153.175781 303.050781 L 151.171875 303.148438 L 149.957031 303.230469 L 149.246094 303.285156 L 147.101562 303.492188 L 145.671875 303.679688 L 144.886719 303.808594 L 143.886719 304.011719 L 143.171875 304.191406 L 142.382812 304.460938 L 141.957031 304.664062 L 141.382812 305.121094 L 141.3125 306.332031 L 141.527344 306.585938 L 141.957031 306.863281 L 142.527344 307.105469 L 143.386719 307.359375 L 144.242188 307.554688 L 145.742188 307.820312 L 147.027344 307.992188 L 148.03125 308.109375 L 149.957031 308.289062 L 150.746094 308.351562 L 152.601562 308.472656 L 154.53125 308.566406 L 156.890625 308.644531 L 158.675781 308.6875 L 161.535156 308.71875 L 165.179688 308.71875 L 169.46875 308.679688 L 172.183594 308.625 L 174.039062 308.570312 L 175.253906 308.523438 L 176.753906 308.449219 L 177.828125 308.382812 L 178.828125 308.308594 L 180.042969 308.195312 L 180.042969 306.585938 L 162.390625 306.582031 L 162.390625 305.828125 L 189.832031 305.820312 L 189.902344 308.449219 L 188.402344 308.632812 L 186.546875 308.808594 L 184.757812 308.941406 L 182.902344 309.054688 L 180.257812 309.183594 L 178.113281 309.265625 L 174.824219 309.359375 L 171.824219 309.417969 L 168.679688 309.460938 L 165.894531 309.480469 L 162.605469 309.488281 L 159.675781 309.472656 L 156.53125 309.433594 L 154.03125 309.378906 L 151.746094 309.3125 L 149.457031 309.226562 L 146.601562 309.082031 L 144.742188 308.96875 L 142.8125 308.828125 L 140.882812 308.660156 L 139.167969 308.476562 L 138.027344 308.335938 L 136.882812 308.175781 L 135.667969 307.972656 L 134.523438 307.746094 L 133.667969 307.535156 L 132.878906 307.300781 L 132.308594 307.078125 L 131.738281 306.777344 L 131.453125 306.535156 L 131.308594 306.324219 Z M 131.308594 305.277344 "/>
<path style=" stroke:none;fill-rule:nonzero;fill:rgb(83.921569%,15.686275%,22.352941%);fill-opacity:1;" d="M 131.308594 260.054688 L 189.902344 260.054688 L 189.902344 263.28125 L 165.484375 263.308594 L 165.484375 290.175781 L 155.65625 290.175781 L 155.65625 263.335938 L 155.515625 263.28125 L 131.308594 263.28125 Z M 131.308594 260.054688 "/>
<path style=" stroke:none;fill-rule:nonzero;fill:rgb(6.27451%,58.823529%,28.235294%);fill-opacity:1;" d="M 192.988281 314.367188 L 193.050781 314.359375 L 218.402344 308.597656 L 226.105469 308.597656 L 251.582031 314.371094 L 242.628906 314.371094 L 236.246094 312.863281 L 208.261719 312.863281 L 202.003906 314.367188 L 192.988281 314.367188 L 210.953125 312.242188 L 233.679688 312.234375 L 222.347656 309.542969 L 222.222656 309.535156 L 222.097656 309.554688 L 210.890625 312.234375 L 210.953125 312.242188 Z M 192.988281 314.367188 "/>
<path style=" stroke:none;fill-rule:nonzero;fill:rgb(96.862745%,70.196078%,16.862745%);fill-opacity:1;" d="M 192.988281 188.234375 L 193.058594 188.082031 L 193.058594 185.042969 L 193.34375 178.203125 L 194.058594 168.777344 L 194.988281 161.027344 L 195.988281 154.945312 L 196.632812 151.753906 L 197.703125 147.195312 L 198.632812 143.851562 L 200.992188 137.011719 L 203.992188 130.625 L 205.636719 127.890625 L 207.492188 125.304688 L 210.136719 122.417969 L 211.351562 121.355469 L 215.066406 118.921875 L 219.285156 117.402344 L 223.929688 116.945312 L 226.074219 117.097656 L 229.003906 117.707031 L 233.003906 119.378906 L 235.289062 120.898438 L 237.078125 122.417969 L 238.933594 124.394531 L 241.222656 127.433594 L 243.367188 131.082031 L 245.082031 134.730469 L 246.796875 139.289062 L 248.222656 144.15625 L 249.4375 149.472656 L 250.511719 155.859375 L 251.152344 161.179688 L 251.582031 166.5 L 241.648438 166.5 L 241.078125 161.179688 L 240.433594 157.074219 L 239.363281 152.058594 L 238.292969 148.410156 L 237.21875 145.523438 L 235.21875 141.570312 L 233.503906 139.136719 L 231.359375 137.011719 L 229.289062 135.640625 L 226.929688 134.730469 L 225.5 134.425781 L 221.714844 134.425781 L 218.285156 135.492188 L 216.28125 136.707031 L 214.855469 137.921875 L 212.851562 140.203125 L 211.636719 142.027344 L 210.921875 143.242188 L 208.78125 147.953125 L 207.351562 152.210938 L 206.566406 155.097656 L 205.5625 159.660156 L 204.851562 163.761719 L 204.0625 169.84375 L 203.636719 174.402344 L 203.0625 184.738281 L 202.992188 212.097656 L 203.207031 217.875 L 203.636719 224.109375 L 204.207031 229.578125 L 205.0625 235.355469 L 205.921875 239.765625 L 207.421875 245.691406 L 208.707031 249.644531 L 209.707031 252.226562 L 211.636719 256.332031 L 212.425781 257.699219 L 214.28125 260.4375 L 216.210938 262.5625 L 218.570312 264.386719 L 220.355469 265.300781 L 223.214844 266.058594 L 226.859375 266.058594 L 231.144531 265.148438 L 233.863281 263.933594 L 235.71875 262.714844 L 236.933594 261.652344 L 238.433594 259.980469 L 239.507812 258.460938 L 240.507812 256.789062 L 241.722656 254.203125 L 241.722656 217.875 L 224.070312 217.722656 L 224.070312 200.699219 L 251.511719 200.546875 L 251.582031 259.980469 L 250.082031 264.085938 L 248.222656 268.035156 L 246.4375 271.078125 L 244.578125 273.660156 L 241.9375 276.546875 L 239.792969 278.371094 L 236.503906 280.5 L 233.503906 281.867188 L 230.359375 282.78125 L 227.574219 283.238281 L 224.285156 283.386719 L 221.355469 283.085938 L 218.210938 282.171875 L 215.710938 280.957031 L 213.425781 279.4375 L 211.136719 277.460938 L 208.28125 274.269531 L 206.421875 271.683594 L 204.492188 268.492188 L 202.5625 264.691406 L 200.847656 260.589844 L 199.703125 257.394531 L 198.5625 253.746094 L 197.347656 249.1875 L 196.203125 244.019531 L 195.347656 239.308594 L 194.558594 233.988281 L 193.988281 228.972656 L 193.417969 222.132812 L 193.128906 216.660156 L 192.988281 211.949219 Z M 192.988281 188.234375 "/>
<path style=" stroke:none;fill-rule:nonzero;fill:rgb(83.921569%,15.686275%,22.352941%);fill-opacity:1;" d="M 192.988281 284.566406 L 251.582031 284.566406 L 251.582031 287.015625 L 227.164062 287.035156 L 227.164062 307.417969 L 217.335938 307.417969 L 217.335938 287.058594 L 217.195312 287.015625 L 192.988281 287.015625 Z M 192.988281 284.566406 "/>
<path style=" stroke:none;fill-rule:nonzero;fill:rgb(96.862745%,70.196078%,16.862745%);fill-opacity:1;" d="M 254.667969 144.0625 L 254.738281 143.796875 L 254.738281 138.535156 L 255.023438 126.695312 L 255.738281 110.382812 L 256.667969 96.964844 L 257.667969 86.441406 L 258.3125 80.914062 L 259.382812 73.023438 L 260.3125 67.234375 L 262.671875 55.394531 L 265.671875 44.34375 L 267.316406 39.605469 L 269.171875 35.132812 L 271.816406 30.136719 L 273.03125 28.292969 L 276.746094 24.082031 L 280.964844 21.453125 L 285.609375 20.664062 L 287.75 20.925781 L 290.679688 21.976562 L 294.683594 24.871094 L 296.96875 27.503906 L 298.757812 30.136719 L 300.613281 33.554688 L 302.902344 38.816406 L 305.042969 45.132812 L 306.757812 51.445312 L 308.472656 59.339844 L 309.902344 67.757812 L 311.117188 76.96875 L 312.191406 88.019531 L 312.832031 97.226562 L 313.261719 106.4375 L 303.328125 106.4375 L 302.757812 97.226562 L 302.113281 90.125 L 301.042969 81.441406 L 299.972656 75.125 L 298.898438 70.128906 L 296.898438 63.285156 L 295.183594 59.078125 L 293.039062 55.394531 L 290.96875 53.027344 L 288.609375 51.445312 L 287.179688 50.921875 L 283.394531 50.921875 L 279.960938 52.761719 L 277.960938 54.867188 L 276.53125 56.972656 L 274.53125 60.917969 L 273.316406 64.074219 L 272.601562 66.179688 L 270.457031 74.335938 L 269.03125 81.703125 L 268.242188 86.703125 L 267.242188 94.597656 L 266.527344 101.699219 L 265.742188 112.226562 L 265.3125 120.117188 L 264.742188 138.011719 L 264.671875 185.371094 L 264.886719 195.367188 L 265.3125 206.15625 L 265.886719 215.628906 L 266.742188 225.625 L 267.601562 233.253906 L 269.101562 243.515625 L 270.386719 250.359375 L 271.386719 254.832031 L 273.316406 261.933594 L 274.101562 264.300781 L 275.960938 269.039062 L 277.890625 272.722656 L 280.25 275.878906 L 282.035156 277.457031 L 284.894531 278.773438 L 288.539062 278.773438 L 292.824219 277.195312 L 295.539062 275.089844 L 297.398438 272.984375 L 298.613281 271.144531 L 300.113281 268.25 L 301.1875 265.617188 L 302.1875 262.722656 L 303.402344 258.25 L 303.402344 195.367188 L 285.75 195.105469 L 285.75 165.636719 L 313.191406 165.375 L 313.261719 268.25 L 311.761719 275.351562 L 309.902344 282.195312 L 308.117188 287.457031 L 306.257812 291.929688 L 303.617188 296.929688 L 301.472656 300.085938 L 298.183594 303.769531 L 295.183594 306.136719 L 292.039062 307.714844 L 289.253906 308.503906 L 285.964844 308.769531 L 283.035156 308.242188 L 279.890625 306.664062 L 277.390625 304.558594 L 275.105469 301.925781 L 272.816406 298.507812 L 269.957031 292.980469 L 268.101562 288.507812 L 266.171875 282.984375 L 264.242188 276.40625 L 262.527344 269.300781 L 261.382812 263.777344 L 260.242188 257.460938 L 259.027344 249.566406 L 257.882812 240.621094 L 257.023438 232.464844 L 256.238281 223.257812 L 255.667969 214.574219 L 255.09375 202.734375 L 254.808594 193.261719 L 254.667969 185.105469 Z M 254.667969 144.0625 "/>
<path style=" stroke:none;fill-rule:nonzero;fill:rgb(83.921569%,15.686275%,22.352941%);fill-opacity:1;" d="M 254.667969 309.949219 L 313.261719 309.949219 L 313.261719 310.421875 L 288.839844 310.425781 L 288.839844 314.371094 L 279.015625 314.371094 L 279.015625 310.429688 L 278.875 310.421875 L 254.667969 310.421875 Z M 254.667969 309.949219 "/>
<path style=" stroke:none;fill-rule:nonzero;fill:rgb(6.27451%,58.823529%,28.235294%);fill-opacity:1;" d="M 316.347656 314.367188 L 316.410156 314.363281 L 341.761719 310.914062 L 349.460938 310.914062 L 374.941406 314.371094 L 365.988281 314.371094 L 359.605469 313.46875 L 331.621094 313.46875 L 325.359375 314.367188 L 316.347656 314.367188 L 334.3125 313.097656 L 357.039062 313.09375 L 345.707031 311.480469 L 345.582031 311.476562 L 345.457031 311.488281 L 334.25 313.09375 L 334.3125 313.097656 Z M 316.347656 314.367188 "/>
<path style=" stroke:none;fill-rule:nonzero;fill:rgb(14.509804%,36.078431%,60%);fill-opacity:1;" d="M 316.347656 307.398438 L 316.417969 307.394531 L 316.417969 307.304688 L 316.632812 307.160156 L 317.132812 306.980469 L 317.632812 306.855469 L 318.917969 306.632812 L 320.703125 306.417969 L 322.5625 306.25 L 323.921875 306.152344 L 325.136719 306.074219 L 327.921875 305.9375 L 329.707031 305.863281 L 331.636719 305.800781 L 333.996094 305.734375 L 335.710938 305.699219 L 339.570312 305.636719 L 342.429688 305.609375 L 344.644531 305.601562 L 349.429688 305.601562 L 352.289062 305.613281 L 354.363281 305.632812 L 356.648438 305.664062 L 358.578125 305.699219 L 361.9375 305.78125 L 364.9375 305.886719 L 366.292969 305.949219 L 368.4375 306.066406 L 370.082031 306.179688 L 371.226562 306.277344 L 372.511719 306.417969 L 373.65625 306.585938 L 374.511719 306.78125 L 374.941406 306.941406 L 364.9375 306.941406 L 364.4375 306.789062 L 363.867188 306.671875 L 362.792969 306.519531 L 361.722656 306.410156 L 360.222656 306.300781 L 358.863281 306.226562 L 357.003906 306.15625 L 355.363281 306.109375 L 353.648438 306.074219 L 352.003906 306.054688 L 348.859375 306.03125 L 345.214844 306.03125 L 343.855469 306.039062 L 341.070312 306.070312 L 339.570312 306.09375 L 337.425781 306.148438 L 335.925781 306.195312 L 334.140625 306.273438 L 332.925781 306.335938 L 331.421875 306.433594 L 330.351562 306.523438 L 329.136719 306.648438 L 328.421875 306.742188 L 327.777344 306.847656 L 327.207031 306.972656 L 326.777344 307.105469 L 326.492188 307.246094 L 326.351562 307.378906 L 326.351562 307.964844 L 326.492188 308.101562 L 326.851562 308.261719 L 327.777344 308.492188 L 329.136719 308.691406 L 330.707031 308.851562 L 332.210938 308.964844 L 333.066406 309.019531 L 334.210938 309.078125 L 335.996094 309.152344 L 338.570312 309.230469 L 340.070312 309.257812 L 342.355469 309.289062 L 344.714844 309.304688 L 347.859375 309.304688 L 350.644531 309.289062 L 352.503906 309.269531 L 354.433594 309.242188 L 357.078125 309.175781 L 358.71875 309.117188 L 360.148438 309.042969 L 361.222656 308.972656 L 361.9375 308.910156 L 363.007812 308.792969 L 363.867188 308.667969 L 364.507812 308.535156 L 364.9375 308.40625 L 374.941406 308.40625 L 374.511719 308.554688 L 373.871094 308.703125 L 373.226562 308.8125 L 372.226562 308.945312 L 371.082031 309.0625 L 369.4375 309.195312 L 368.082031 309.28125 L 366.292969 309.378906 L 364.652344 309.449219 L 362.863281 309.511719 L 360.222656 309.589844 L 358.507812 309.625 L 356.648438 309.660156 L 354.433594 309.691406 L 351.644531 309.71875 L 348.644531 309.730469 L 345.859375 309.734375 L 342.855469 309.730469 L 340.640625 309.714844 L 337.710938 309.679688 L 334.066406 309.613281 L 331.421875 309.539062 L 329.351562 309.46875 L 327.566406 309.390625 L 325.5625 309.289062 L 322.992188 309.125 L 321.417969 308.996094 L 320.347656 308.890625 L 319.132812 308.742188 L 318.273438 308.609375 L 317.273438 308.398438 L 316.558594 308.128906 L 316.347656 307.921875 Z M 316.347656 307.398438 "/>
<path style=" stroke:none;fill-rule:nonzero;fill:rgb(96.862745%,70.196078%,16.862745%);fill-opacity:1;" d="M 316.347656 262.097656 L 316.417969 262.066406 L 316.417969 261.441406 L 316.703125 260.03125 L 317.417969 258.085938 L 318.347656 256.488281 L 319.347656 255.234375 L 319.992188 254.574219 L 321.0625 253.636719 L 321.992188 252.945312 L 324.347656 251.535156 L 327.351562 250.21875 L 328.992188 249.652344 L 330.851562 249.121094 L 333.496094 248.523438 L 334.710938 248.304688 L 338.425781 247.804688 L 342.640625 247.488281 L 347.289062 247.394531 L 349.429688 247.425781 L 352.359375 247.554688 L 356.363281 247.898438 L 358.648438 248.210938 L 360.433594 248.523438 L 362.292969 248.933594 L 364.578125 249.558594 L 366.722656 250.3125 L 368.4375 251.0625 L 370.152344 252.003906 L 371.582031 253.007812 L 372.796875 254.105469 L 373.871094 255.421875 L 374.511719 256.519531 L 374.941406 257.617188 L 365.007812 257.617188 L 364.4375 256.519531 L 363.792969 255.671875 L 362.722656 254.636719 L 361.648438 253.886719 L 360.578125 253.289062 L 358.578125 252.476562 L 356.863281 251.972656 L 354.71875 251.535156 L 352.644531 251.253906 L 350.289062 251.0625 L 348.859375 251 L 345.070312 251 L 341.640625 251.222656 L 339.640625 251.472656 L 338.210938 251.722656 L 336.210938 252.191406 L 334.996094 252.570312 L 334.28125 252.820312 L 332.136719 253.792969 L 330.707031 254.667969 L 329.921875 255.265625 L 328.921875 256.207031 L 328.207031 257.050781 L 327.421875 258.304688 L 326.992188 259.246094 L 326.421875 261.378906 L 326.351562 267.019531 L 326.5625 268.210938 L 326.992188 269.5 L 327.566406 270.625 L 328.421875 271.816406 L 329.28125 272.726562 L 330.78125 273.949219 L 332.066406 274.765625 L 333.066406 275.296875 L 334.996094 276.144531 L 335.78125 276.425781 L 337.640625 276.992188 L 339.570312 277.429688 L 341.929688 277.804688 L 343.714844 277.992188 L 346.574219 278.152344 L 350.21875 278.152344 L 354.503906 277.960938 L 357.21875 277.710938 L 359.078125 277.460938 L 360.292969 277.242188 L 361.792969 276.898438 L 362.863281 276.582031 L 363.867188 276.238281 L 365.078125 275.707031 L 365.078125 268.210938 L 347.429688 268.179688 L 347.429688 264.671875 L 374.871094 264.640625 L 374.941406 276.898438 L 373.441406 277.742188 L 371.582031 278.558594 L 369.796875 279.183594 L 367.9375 279.71875 L 365.292969 280.3125 L 363.152344 280.691406 L 359.863281 281.128906 L 356.863281 281.410156 L 353.71875 281.597656 L 350.929688 281.695312 L 347.644531 281.726562 L 344.714844 281.664062 L 341.570312 281.472656 L 339.070312 281.222656 L 336.78125 280.910156 L 334.496094 280.503906 L 331.636719 279.84375 L 329.78125 279.3125 L 327.851562 278.652344 L 325.921875 277.867188 L 324.207031 277.023438 L 323.0625 276.363281 L 321.917969 275.613281 L 320.703125 274.671875 L 319.5625 273.605469 L 318.703125 272.632812 L 317.917969 271.535156 L 317.347656 270.5 L 316.773438 269.089844 L 316.488281 267.960938 L 316.347656 266.988281 Z M 316.347656 262.097656 "/>
<path style=" stroke:none;fill-rule:nonzero;fill:rgb(83.921569%,15.686275%,22.352941%);fill-opacity:1;" d="M 316.347656 282.90625 L 374.941406 282.90625 L 374.941406 285.207031 L 350.519531 285.226562 L 350.519531 304.421875 L 340.695312 304.421875 L 340.695312 285.246094 L 340.554688 285.207031 L 316.347656 285.207031 Z M 316.347656 282.90625 "/>
<path style=" stroke:none;fill-rule:nonzero;fill:rgb(6.27451%,58.823529%,28.235294%);fill-opacity:1;" d="M 378.023438 304.398438 L 378.085938 304.378906 L 403.441406 282.90625 L 411.140625 282.90625 L 436.621094 304.421875 L 427.667969 304.421875 L 421.28125 298.804688 L 393.300781 298.804688 L 387.039062 304.398438 L 378.023438 304.398438 L 395.992188 296.480469 L 418.714844 296.460938 L 407.386719 286.417969 L 407.261719 286.398438 L 407.136719 286.460938 L 395.929688 296.460938 L 395.992188 296.480469 Z M 378.023438 304.398438 "/>
<path style=" stroke:none;fill-rule:nonzero;fill:rgb(14.509804%,36.078431%,60%);fill-opacity:1;" d="M 378.023438 262.332031 L 378.097656 262.300781 L 378.097656 261.546875 L 378.3125 260.355469 L 378.8125 258.847656 L 379.3125 257.8125 L 380.597656 255.960938 L 382.382812 254.175781 L 384.242188 252.792969 L 385.601562 251.976562 L 386.8125 251.351562 L 389.601562 250.1875 L 391.386719 249.59375 L 393.316406 249.058594 L 395.675781 248.527344 L 397.390625 248.210938 L 401.25 247.710938 L 404.105469 247.488281 L 406.324219 247.394531 L 411.109375 247.394531 L 413.96875 247.523438 L 416.039062 247.679688 L 418.328125 247.929688 L 420.257812 248.210938 L 423.613281 248.902344 L 426.617188 249.78125 L 427.972656 250.28125 L 430.117188 251.253906 L 431.761719 252.195312 L 432.90625 253.011719 L 434.191406 254.175781 L 435.335938 255.585938 L 436.191406 257.1875 L 436.621094 258.535156 L 426.617188 258.535156 L 426.117188 257.28125 L 425.542969 256.308594 L 424.472656 255.019531 L 423.402344 254.109375 L 421.898438 253.203125 L 420.542969 252.605469 L 418.683594 252.007812 L 417.039062 251.632812 L 415.324219 251.351562 L 413.683594 251.160156 L 410.539062 250.972656 L 406.894531 250.972656 L 405.535156 251.035156 L 402.75 251.285156 L 401.25 251.507812 L 399.105469 251.945312 L 397.605469 252.355469 L 395.816406 252.980469 L 394.601562 253.515625 L 393.101562 254.332031 L 392.03125 255.050781 L 390.816406 256.089844 L 390.101562 256.871094 L 389.457031 257.75 L 388.886719 258.785156 L 388.457031 259.886719 L 388.171875 261.046875 L 388.027344 262.175781 L 388.027344 267.039062 L 388.171875 268.167969 L 388.53125 269.488281 L 389.457031 271.402344 L 390.816406 273.0625 L 392.386719 274.382812 L 393.890625 275.324219 L 394.746094 275.761719 L 395.890625 276.265625 L 397.675781 276.890625 L 400.25 277.519531 L 401.75 277.769531 L 404.035156 278.023438 L 406.394531 278.148438 L 409.539062 278.148438 L 412.324219 278.023438 L 414.183594 277.863281 L 416.113281 277.613281 L 418.757812 277.082031 L 420.398438 276.578125 L 421.828125 275.984375 L 422.902344 275.386719 L 423.613281 274.882812 L 424.6875 273.910156 L 425.542969 272.84375 L 426.1875 271.746094 L 426.617188 270.679688 L 436.621094 270.679688 L 436.191406 271.933594 L 435.546875 273.160156 L 434.90625 274.066406 L 433.90625 275.167969 L 432.761719 276.140625 L 431.117188 277.238281 L 429.761719 277.960938 L 427.972656 278.742188 L 426.332031 279.339844 L 424.542969 279.875 L 421.898438 280.5 L 420.183594 280.816406 L 418.328125 281.097656 L 416.113281 281.347656 L 413.324219 281.566406 L 410.324219 281.695312 L 407.539062 281.726562 L 404.535156 281.660156 L 402.320312 281.535156 L 399.390625 281.253906 L 395.746094 280.6875 L 393.101562 280.09375 L 391.03125 279.496094 L 389.242188 278.871094 L 387.242188 278.023438 L 384.671875 276.640625 L 383.097656 275.574219 L 382.027344 274.695312 L 380.8125 273.472656 L 379.953125 272.375 L 378.953125 270.617188 L 378.238281 268.390625 L 378.023438 266.664062 Z M 378.023438 262.332031 "/>
<path style=" stroke:none;fill-rule:nonzero;fill:rgb(96.862745%,70.196078%,16.862745%);fill-opacity:1;" d="M 378.023438 307.371094 L 378.097656 307.367188 L 378.097656 307.292969 L 378.382812 307.121094 L 379.097656 306.886719 L 380.027344 306.695312 L 381.027344 306.542969 L 381.667969 306.464844 L 382.742188 306.351562 L 383.671875 306.269531 L 386.027344 306.097656 L 389.03125 305.941406 L 390.671875 305.871094 L 392.53125 305.808594 L 395.175781 305.734375 L 396.390625 305.710938 L 400.105469 305.648438 L 404.320312 305.609375 L 408.964844 305.601562 L 411.109375 305.601562 L 414.039062 305.617188 L 418.042969 305.660156 L 420.328125 305.699219 L 422.113281 305.734375 L 423.972656 305.785156 L 426.257812 305.859375 L 428.402344 305.949219 L 430.117188 306.042969 L 431.832031 306.15625 L 433.261719 306.277344 L 434.476562 306.40625 L 435.546875 306.566406 L 436.191406 306.699219 L 436.621094 306.832031 L 426.6875 306.832031 L 426.117188 306.699219 L 425.472656 306.597656 L 424.402344 306.472656 L 423.328125 306.382812 L 422.257812 306.308594 L 420.257812 306.210938 L 418.542969 306.152344 L 416.398438 306.097656 L 414.324219 306.0625 L 411.96875 306.042969 L 410.539062 306.035156 L 406.75 306.035156 L 403.320312 306.0625 L 401.320312 306.089844 L 399.890625 306.121094 L 397.890625 306.175781 L 396.675781 306.222656 L 395.960938 306.253906 L 393.816406 306.371094 L 392.386719 306.476562 L 391.601562 306.546875 L 390.601562 306.660156 L 389.886719 306.761719 L 389.101562 306.914062 L 388.671875 307.027344 L 388.101562 307.285156 L 388.027344 307.964844 L 388.242188 308.109375 L 388.671875 308.261719 L 389.242188 308.398438 L 390.101562 308.542969 L 390.960938 308.652344 L 392.460938 308.800781 L 393.746094 308.898438 L 394.746094 308.960938 L 396.675781 309.0625 L 397.460938 309.097656 L 399.320312 309.164062 L 401.25 309.21875 L 403.605469 309.265625 L 405.394531 309.285156 L 408.25 309.304688 L 411.894531 309.304688 L 416.183594 309.28125 L 418.898438 309.253906 L 420.757812 309.222656 L 421.972656 309.195312 L 423.472656 309.15625 L 424.542969 309.117188 L 425.542969 309.074219 L 426.757812 309.011719 L 426.757812 308.109375 L 409.109375 308.105469 L 409.109375 307.679688 L 436.550781 307.675781 L 436.621094 309.15625 L 435.121094 309.257812 L 433.261719 309.355469 L 431.476562 309.429688 L 429.617188 309.496094 L 426.972656 309.566406 L 424.828125 309.613281 L 421.542969 309.664062 L 418.542969 309.699219 L 415.398438 309.722656 L 412.609375 309.730469 L 409.324219 309.734375 L 406.394531 309.730469 L 403.25 309.707031 L 400.75 309.675781 L 398.460938 309.636719 L 396.175781 309.589844 L 393.316406 309.507812 L 391.460938 309.445312 L 389.53125 309.367188 L 387.601562 309.273438 L 385.886719 309.167969 L 384.742188 309.089844 L 383.597656 309 L 382.382812 308.886719 L 381.242188 308.757812 L 380.382812 308.640625 L 379.597656 308.507812 L 379.027344 308.382812 L 378.453125 308.214844 L 378.167969 308.078125 L 378.023438 307.960938 Z M 378.023438 307.371094 "/>
<path style=" stroke:none;fill-rule:nonzero;fill:rgb(83.921569%,15.686275%,22.352941%);fill-opacity:1;" d="M 378.023438 310.914062 L 436.621094 310.914062 L 436.621094 311.285156 L 412.199219 311.289062 L 412.199219 314.371094 L 402.375 314.371094 L 402.375 311.292969 L 402.230469 311.285156 L 378.023438 311.285156 Z M 378.023438 310.914062 "/>
<path style=" stroke:none;fill-rule:nonzero;fill:rgb(6.27451%,58.823529%,28.235294%);fill-opacity:1;" d="M 439.703125 314.367188 L 439.765625 314.363281 L 465.121094 309.949219 L 472.820312 309.949219 L 498.300781 314.371094 L 489.347656 314.371094 L 482.960938 313.214844 L 454.980469 313.214844 L 448.71875 314.367188 L 439.703125 314.367188 L 457.671875 312.738281 L 480.394531 312.734375 L 469.066406 310.671875 L 468.9375 310.664062 L 468.8125 310.679688 L 457.609375 312.734375 L 457.671875 312.738281 Z M 439.703125 314.367188 "/>
<path style=" stroke:none;fill-rule:nonzero;fill:rgb(14.509804%,36.078431%,60%);fill-opacity:1;" d="M 439.703125 146.015625 L 439.777344 145.753906 L 439.777344 139.433594 L 439.988281 129.425781 L 440.492188 116.785156 L 440.992188 108.09375 L 442.277344 92.558594 L 444.0625 77.546875 L 445.921875 65.960938 L 447.277344 59.113281 L 448.492188 53.84375 L 451.28125 44.101562 L 453.066406 39.097656 L 454.996094 34.621094 L 457.355469 30.144531 L 459.070312 27.511719 L 462.929688 23.296875 L 465.785156 21.453125 L 468 20.664062 L 472.789062 20.664062 L 475.648438 21.714844 L 477.71875 23.03125 L 480.007812 25.140625 L 481.9375 27.511719 L 485.292969 33.304688 L 488.296875 40.675781 L 489.652344 44.890625 L 491.796875 53.054688 L 493.441406 60.957031 L 494.582031 67.800781 L 495.871094 77.546875 L 497.011719 89.398438 L 497.871094 102.828125 L 498.300781 114.152344 L 488.296875 114.152344 L 487.796875 103.617188 L 487.222656 95.453125 L 486.152344 84.65625 L 485.078125 77.019531 L 483.578125 69.382812 L 482.222656 64.378906 L 480.363281 59.375 L 478.71875 56.214844 L 477.003906 53.84375 L 475.363281 52.265625 L 472.21875 50.683594 L 468.574219 50.683594 L 467.214844 51.210938 L 464.429688 53.320312 L 462.929688 55.160156 L 460.785156 58.847656 L 459.285156 62.273438 L 457.496094 67.539062 L 456.28125 72.015625 L 454.78125 78.863281 L 453.710938 84.921875 L 452.496094 93.609375 L 451.78125 100.195312 L 451.136719 107.570312 L 450.566406 116.257812 L 450.136719 125.476562 L 449.851562 135.21875 L 449.707031 144.699219 L 449.707031 185.519531 L 449.851562 195 L 450.207031 206.0625 L 451.136719 222.125 L 452.496094 236.082031 L 454.066406 247.144531 L 455.566406 255.042969 L 456.425781 258.730469 L 457.570312 262.945312 L 459.355469 268.210938 L 461.925781 273.480469 L 463.429688 275.585938 L 465.714844 277.691406 L 468.074219 278.746094 L 471.21875 278.746094 L 474.003906 277.691406 L 475.863281 276.375 L 477.792969 274.269531 L 480.433594 269.792969 L 482.078125 265.578125 L 483.507812 260.574219 L 484.578125 255.570312 L 485.292969 251.359375 L 486.367188 243.195312 L 487.222656 234.238281 L 487.867188 225.023438 L 488.296875 216.070312 L 498.300781 216.070312 L 497.871094 226.601562 L 497.226562 236.875 L 496.585938 244.511719 L 495.585938 253.726562 L 494.441406 261.890625 L 492.796875 271.109375 L 491.441406 277.164062 L 489.652344 283.75 L 488.007812 288.753906 L 486.222656 293.230469 L 483.578125 298.496094 L 481.863281 301.128906 L 480.007812 303.5 L 477.792969 305.609375 L 475.003906 307.449219 L 472.003906 308.503906 L 469.214844 308.769531 L 466.214844 308.242188 L 464 307.1875 L 461.070312 304.816406 L 457.425781 300.078125 L 454.78125 295.074219 L 452.710938 290.070312 L 450.921875 284.804688 L 448.921875 277.691406 L 446.351562 266.105469 L 444.777344 257.152344 L 443.707031 249.777344 L 442.492188 239.507812 L 441.632812 230.289062 L 440.632812 215.542969 L 439.917969 196.84375 L 439.703125 182.359375 Z M 439.703125 146.015625 "/>
<path style=" stroke:none;fill-rule:nonzero;fill:rgb(6.27451%,58.823529%,28.235294%);fill-opacity:1;" d="M 501.382812 307.398438 L 501.445312 307.375 L 526.800781 284.566406 L 534.5 284.566406 L 559.980469 307.417969 L 551.027344 307.417969 L 544.640625 301.453125 L 516.660156 301.453125 L 510.398438 307.398438 L 501.382812 307.398438 L 519.351562 298.988281 L 542.074219 298.964844 L 530.742188 288.300781 L 530.617188 288.28125 L 530.492188 288.34375 L 519.289062 298.964844 L 519.351562 298.988281 Z M 501.382812 307.398438 "/>
<path style=" stroke:none;fill-rule:nonzero;fill:rgb(14.509804%,36.078431%,60%);fill-opacity:1;" d="M 501.382812 189.367188 L 501.453125 189.214844 L 501.453125 185.5625 L 501.667969 179.78125 L 502.167969 172.476562 L 502.667969 167.457031 L 503.957031 158.480469 L 505.742188 149.808594 L 507.601562 143.113281 L 508.957031 139.160156 L 510.171875 136.117188 L 512.960938 130.488281 L 514.746094 127.597656 L 516.675781 125.007812 L 519.035156 122.421875 L 520.75 120.902344 L 524.605469 118.46875 L 527.464844 117.402344 L 529.679688 116.945312 L 534.46875 116.945312 L 537.328125 117.554688 L 539.398438 118.316406 L 541.6875 119.53125 L 543.613281 120.902344 L 546.972656 124.25 L 549.976562 128.507812 L 551.332031 130.941406 L 553.476562 135.660156 L 555.121094 140.222656 L 556.261719 144.179688 L 557.550781 149.808594 L 558.691406 156.65625 L 559.550781 164.414062 L 559.980469 170.957031 L 549.976562 170.957031 L 549.472656 164.871094 L 548.902344 160.152344 L 547.832031 153.917969 L 546.757812 149.503906 L 545.257812 145.09375 L 543.902344 142.203125 L 542.042969 139.3125 L 540.398438 137.484375 L 538.683594 136.117188 L 537.039062 135.203125 L 533.898438 134.289062 L 530.253906 134.289062 L 528.894531 134.59375 L 526.109375 135.8125 L 524.605469 136.875 L 522.464844 139.007812 L 520.960938 140.984375 L 519.175781 144.027344 L 517.960938 146.613281 L 516.460938 150.570312 L 515.390625 154.070312 L 514.175781 159.089844 L 513.460938 162.894531 L 512.816406 167.152344 L 512.246094 172.171875 L 511.816406 177.5 L 511.53125 183.128906 L 511.386719 188.605469 L 511.386719 212.1875 L 511.53125 217.664062 L 511.886719 224.054688 L 512.816406 233.335938 L 514.175781 241.398438 L 515.746094 247.789062 L 517.246094 252.351562 L 518.105469 254.480469 L 519.246094 256.914062 L 521.035156 259.957031 L 523.605469 263 L 525.105469 264.21875 L 527.394531 265.4375 L 529.753906 266.042969 L 532.894531 266.042969 L 535.683594 265.4375 L 537.542969 264.675781 L 539.46875 263.457031 L 542.113281 260.871094 L 543.757812 258.4375 L 545.1875 255.546875 L 546.257812 252.65625 L 546.972656 250.222656 L 548.046875 245.503906 L 548.902344 240.332031 L 549.546875 235.007812 L 549.976562 229.835938 L 559.980469 229.835938 L 559.550781 235.921875 L 558.90625 241.855469 L 558.265625 246.265625 L 557.261719 251.589844 L 556.121094 256.308594 L 554.476562 261.632812 L 553.117188 265.132812 L 551.332031 268.933594 L 549.6875 271.824219 L 547.902344 274.410156 L 545.257812 277.453125 L 543.542969 278.976562 L 541.6875 280.34375 L 539.46875 281.5625 L 536.683594 282.628906 L 533.683594 283.234375 L 530.894531 283.386719 L 527.894531 283.085938 L 525.679688 282.476562 L 522.75 281.105469 L 519.105469 278.367188 L 516.460938 275.476562 L 514.390625 272.585938 L 512.601562 269.542969 L 510.601562 265.4375 L 508.027344 258.742188 L 506.457031 253.570312 L 505.386719 249.308594 L 504.171875 243.375 L 503.3125 238.050781 L 502.3125 229.53125 L 501.597656 218.726562 L 501.382812 210.359375 Z M 501.382812 189.367188 "/>
<path style=" stroke:none;fill-rule:nonzero;fill:rgb(83.921569%,15.686275%,22.352941%);fill-opacity:1;" d="M 501.382812 308.597656 L 559.980469 308.597656 L 559.980469 309.21875 L 535.558594 309.222656 L 535.558594 314.371094 L 525.734375 314.371094 L 525.734375 309.226562 L 525.589844 309.21875 L 501.382812 309.21875 Z M 501.382812 308.597656 "/>
<path style=" stroke:none;fill-rule:nonzero;fill:rgb(6.27451%,58.823529%,28.235294%);fill-opacity:1;" d="M 563.0625 290.148438 L 563.125 290.117188 L 588.480469 260.054688 L 596.179688 260.054688 L 621.65625 290.175781 L 612.707031 290.175781 L 606.320312 282.3125 L 578.335938 282.3125 L 572.078125 290.148438 L 563.0625 290.148438 L 581.03125 279.0625 L 603.753906 279.03125 L 592.421875 264.976562 L 592.296875 264.949219 L 592.171875 265.035156 L 580.964844 279.03125 L 581.03125 279.0625 Z M 563.0625 290.148438 "/>
<path style=" stroke:none;fill-rule:nonzero;fill:rgb(14.509804%,36.078431%,60%);fill-opacity:1;" d="M 563.0625 305.324219 L 563.132812 305.320312 L 563.132812 305.15625 L 563.347656 304.902344 L 563.847656 304.578125 L 564.347656 304.355469 L 565.636719 303.957031 L 567.421875 303.574219 L 569.28125 303.277344 L 570.636719 303.105469 L 571.851562 302.96875 L 574.640625 302.71875 L 576.425781 302.59375 L 578.355469 302.476562 L 580.710938 302.363281 L 582.425781 302.296875 L 586.285156 302.1875 L 589.144531 302.140625 L 591.359375 302.121094 L 596.148438 302.121094 L 599.003906 302.148438 L 601.078125 302.179688 L 603.363281 302.234375 L 605.292969 302.296875 L 608.652344 302.445312 L 611.652344 302.632812 L 613.011719 302.738281 L 615.15625 302.949219 L 616.796875 303.152344 L 617.941406 303.324219 L 619.226562 303.574219 L 620.371094 303.878906 L 621.230469 304.222656 L 621.65625 304.511719 L 611.652344 304.511719 L 611.152344 304.242188 L 610.582031 304.03125 L 609.511719 303.757812 L 608.4375 303.5625 L 606.9375 303.367188 L 605.578125 303.238281 L 603.722656 303.109375 L 602.078125 303.03125 L 600.363281 302.96875 L 598.71875 302.929688 L 595.574219 302.886719 L 591.929688 302.886719 L 590.574219 302.902344 L 587.785156 302.957031 L 586.285156 303.003906 L 584.144531 303.097656 L 582.640625 303.183594 L 580.855469 303.320312 L 579.640625 303.433594 L 578.140625 303.609375 L 577.066406 303.761719 L 575.855469 303.984375 L 575.140625 304.152344 L 574.496094 304.34375 L 573.925781 304.566406 L 573.496094 304.800781 L 573.210938 305.050781 L 573.066406 305.292969 L 573.066406 306.335938 L 573.210938 306.578125 L 573.566406 306.859375 L 574.496094 307.273438 L 575.855469 307.628906 L 577.425781 307.910156 L 578.925781 308.113281 L 579.785156 308.207031 L 580.925781 308.316406 L 582.714844 308.449219 L 585.285156 308.585938 L 586.785156 308.640625 L 589.074219 308.691406 L 591.429688 308.71875 L 594.574219 308.71875 L 597.363281 308.691406 L 599.21875 308.660156 L 601.148438 308.605469 L 603.792969 308.492188 L 605.4375 308.382812 L 606.867188 308.253906 L 607.9375 308.128906 L 608.652344 308.019531 L 609.722656 307.808594 L 610.582031 307.582031 L 611.226562 307.347656 L 611.652344 307.117188 L 621.65625 307.117188 L 621.230469 307.386719 L 620.585938 307.648438 L 619.941406 307.84375 L 618.941406 308.078125 L 617.800781 308.289062 L 616.15625 308.523438 L 614.796875 308.679688 L 613.011719 308.847656 L 611.367188 308.976562 L 609.582031 309.089844 L 606.9375 309.222656 L 605.222656 309.292969 L 603.363281 309.351562 L 601.148438 309.40625 L 598.363281 309.453125 L 595.363281 309.480469 L 592.574219 309.488281 L 589.574219 309.472656 L 587.359375 309.445312 L 584.429688 309.386719 L 580.785156 309.265625 L 578.140625 309.136719 L 576.066406 309.007812 L 574.28125 308.875 L 572.28125 308.691406 L 569.707031 308.394531 L 568.136719 308.167969 L 567.0625 307.980469 L 565.847656 307.714844 L 564.992188 307.480469 L 563.992188 307.101562 L 563.277344 306.625 L 563.0625 306.253906 Z M 563.0625 305.324219 "/>
<path style=" stroke:none;fill-rule:nonzero;fill:rgb(96.862745%,70.196078%,16.862745%);fill-opacity:1;" d="M 563.0625 295.460938 L 563.132812 295.453125 L 563.132812 295.277344 L 563.421875 294.882812 L 564.132812 294.339844 L 565.0625 293.894531 L 566.0625 293.542969 L 566.707031 293.359375 L 567.777344 293.097656 L 568.707031 292.90625 L 571.066406 292.511719 L 574.066406 292.144531 L 575.710938 291.984375 L 577.570312 291.835938 L 580.210938 291.671875 L 581.425781 291.609375 L 585.144531 291.46875 L 589.359375 291.382812 L 594.003906 291.355469 L 596.148438 291.363281 L 599.078125 291.398438 L 603.078125 291.496094 L 605.367188 291.582031 L 607.152344 291.671875 L 609.011719 291.785156 L 611.296875 291.957031 L 613.441406 292.167969 L 615.15625 292.378906 L 616.871094 292.640625 L 618.300781 292.921875 L 619.515625 293.226562 L 620.585938 293.597656 L 621.230469 293.902344 L 621.65625 294.207031 L 611.726562 294.207031 L 611.152344 293.902344 L 610.511719 293.667969 L 609.4375 293.378906 L 608.367188 293.167969 L 607.292969 293 L 605.292969 292.773438 L 603.578125 292.632812 L 601.433594 292.511719 L 599.363281 292.429688 L 597.003906 292.378906 L 595.574219 292.363281 L 591.789062 292.363281 L 588.359375 292.421875 L 586.359375 292.492188 L 584.929688 292.5625 L 582.929688 292.695312 L 581.714844 292.800781 L 581 292.871094 L 578.855469 293.140625 L 577.425781 293.386719 L 576.640625 293.550781 L 575.640625 293.816406 L 574.925781 294.050781 L 574.136719 294.402344 L 573.710938 294.664062 L 573.136719 295.257812 L 573.066406 296.835938 L 573.28125 297.167969 L 573.710938 297.527344 L 574.28125 297.84375 L 575.140625 298.175781 L 575.996094 298.429688 L 577.496094 298.769531 L 578.785156 298.996094 L 579.785156 299.144531 L 581.714844 299.382812 L 582.5 299.460938 L 584.355469 299.621094 L 586.285156 299.742188 L 588.644531 299.847656 L 590.429688 299.898438 L 593.289062 299.941406 L 596.933594 299.941406 L 601.222656 299.890625 L 603.9375 299.820312 L 605.792969 299.75 L 607.007812 299.6875 L 608.507812 299.59375 L 609.582031 299.503906 L 610.582031 299.410156 L 611.796875 299.261719 L 611.796875 297.167969 L 594.148438 297.160156 L 594.148438 296.179688 L 621.585938 296.167969 L 621.65625 299.59375 L 620.15625 299.828125 L 618.300781 300.058594 L 616.511719 300.230469 L 614.65625 300.378906 L 612.011719 300.546875 L 609.867188 300.652344 L 606.582031 300.773438 L 603.578125 300.855469 L 600.433594 300.90625 L 597.648438 300.933594 L 594.359375 300.941406 L 591.429688 300.921875 L 588.289062 300.871094 L 585.785156 300.800781 L 583.5 300.714844 L 581.210938 300.601562 L 578.355469 300.414062 L 576.496094 300.265625 L 574.566406 300.082031 L 572.636719 299.863281 L 570.921875 299.628906 L 569.78125 299.445312 L 568.636719 299.234375 L 567.421875 298.972656 L 566.277344 298.671875 L 565.421875 298.402344 L 564.632812 298.097656 L 564.0625 297.808594 L 563.492188 297.414062 L 563.207031 297.097656 L 563.0625 296.828125 Z M 563.0625 295.460938 "/>
<path style=" stroke:none;fill-rule:nonzero;fill:rgb(83.921569%,15.686275%,22.352941%);fill-opacity:1;" d="M 563.0625 310.667969 L 621.65625 310.667969 L 621.65625 311.0625 L 597.238281 311.066406 L 597.238281 314.371094 L 587.410156 314.371094 L 587.410156 311.070312 L 587.269531 311.0625 L 563.0625 311.0625 Z M 563.0625 310.667969 "/>
<path style=" stroke:none;fill-rule:nonzero;fill:rgb(6.27451%,58.823529%,28.235294%);fill-opacity:1;" d="M 624.742188 311.332031 L 624.804688 311.332031 L 650.15625 309.15625 L 657.859375 309.15625 L 683.335938 311.335938 L 674.386719 311.335938 L 668 310.765625 L 640.015625 310.765625 L 633.757812 311.332031 L 624.742188 311.332031 L 642.707031 310.53125 L 665.433594 310.527344 L 654.101562 309.511719 L 653.976562 309.507812 L 653.851562 309.515625 L 642.644531 310.527344 L 642.707031 310.53125 Z M 624.742188 311.332031 "/>
<path style=" stroke:none;fill-rule:nonzero;fill:rgb(14.509804%,36.078431%,60%);fill-opacity:1;" d="M 624.742188 300.34375 L 624.8125 300.339844 L 624.8125 300.195312 L 625.027344 299.964844 L 625.527344 299.679688 L 626.027344 299.480469 L 627.3125 299.125 L 629.101562 298.78125 L 630.957031 298.519531 L 632.316406 298.363281 L 633.53125 298.242188 L 636.316406 298.019531 L 638.105469 297.90625 L 640.035156 297.804688 L 642.390625 297.703125 L 644.105469 297.640625 L 647.964844 297.546875 L 650.824219 297.503906 L 653.039062 297.484375 L 657.828125 297.484375 L 660.683594 297.511719 L 662.757812 297.539062 L 665.042969 297.589844 L 666.972656 297.640625 L 670.332031 297.773438 L 673.332031 297.941406 L 674.691406 298.039062 L 676.835938 298.222656 L 678.476562 298.40625 L 679.621094 298.5625 L 680.90625 298.78125 L 682.050781 299.054688 L 682.910156 299.359375 L 683.335938 299.617188 L 673.332031 299.617188 L 672.832031 299.378906 L 672.261719 299.191406 L 671.1875 298.945312 L 670.117188 298.769531 L 668.617188 298.597656 L 667.257812 298.484375 L 665.402344 298.367188 L 663.757812 298.296875 L 662.042969 298.242188 L 660.398438 298.207031 L 657.253906 298.171875 L 653.609375 298.171875 L 652.253906 298.183594 L 649.464844 298.230469 L 647.964844 298.273438 L 645.820312 298.355469 L 644.320312 298.433594 L 642.535156 298.554688 L 641.320312 298.65625 L 639.820312 298.8125 L 638.746094 298.953125 L 637.53125 299.148438 L 636.816406 299.300781 L 636.175781 299.46875 L 635.601562 299.664062 L 635.175781 299.875 L 634.890625 300.097656 L 634.746094 300.3125 L 634.746094 301.246094 L 634.890625 301.460938 L 635.246094 301.714844 L 636.175781 302.078125 L 637.53125 302.398438 L 639.105469 302.652344 L 640.605469 302.832031 L 641.464844 302.914062 L 642.605469 303.011719 L 644.394531 303.132812 L 646.964844 303.25 L 648.464844 303.300781 L 650.753906 303.347656 L 653.109375 303.371094 L 656.253906 303.371094 L 659.042969 303.347656 L 660.898438 303.316406 L 662.828125 303.269531 L 665.472656 303.167969 L 667.117188 303.070312 L 668.546875 302.957031 L 669.617188 302.84375 L 670.332031 302.746094 L 671.402344 302.558594 L 672.261719 302.355469 L 672.902344 302.144531 L 673.332031 301.941406 L 683.335938 301.941406 L 682.910156 302.183594 L 682.265625 302.417969 L 681.621094 302.589844 L 680.621094 302.800781 L 679.476562 302.988281 L 677.835938 303.195312 L 676.476562 303.335938 L 674.691406 303.484375 L 673.046875 303.597656 L 671.261719 303.703125 L 668.617188 303.820312 L 666.902344 303.882812 L 665.042969 303.9375 L 662.828125 303.984375 L 660.042969 304.027344 L 657.039062 304.050781 L 654.253906 304.054688 L 651.253906 304.042969 L 649.039062 304.019531 L 646.109375 303.964844 L 642.464844 303.859375 L 639.820312 303.742188 L 637.746094 303.628906 L 635.960938 303.507812 L 633.960938 303.347656 L 631.386719 303.082031 L 629.816406 302.878906 L 628.742188 302.710938 L 627.527344 302.476562 L 626.671875 302.265625 L 625.671875 301.929688 L 624.957031 301.503906 L 624.742188 301.171875 Z M 624.742188 300.34375 "/>
<path style=" stroke:none;fill-rule:nonzero;fill:rgb(96.862745%,70.196078%,16.862745%);fill-opacity:1;" d="M 624.742188 313.308594 L 624.8125 313.308594 L 624.8125 313.273438 L 625.097656 313.199219 L 625.8125 313.09375 L 626.742188 313.007812 L 627.742188 312.9375 L 628.386719 312.902344 L 629.457031 312.851562 L 630.386719 312.816406 L 632.746094 312.738281 L 635.746094 312.667969 L 637.390625 312.636719 L 639.246094 312.609375 L 641.890625 312.578125 L 643.105469 312.566406 L 646.820312 312.539062 L 651.039062 312.519531 L 655.683594 312.515625 L 657.828125 312.515625 L 660.757812 312.523438 L 664.757812 312.542969 L 667.042969 312.558594 L 668.832031 312.578125 L 670.6875 312.597656 L 672.976562 312.632812 L 675.121094 312.671875 L 676.835938 312.714844 L 678.550781 312.765625 L 679.980469 312.820312 L 681.191406 312.878906 L 682.265625 312.949219 L 682.910156 313.007812 L 683.335938 313.066406 L 673.40625 313.066406 L 672.832031 313.007812 L 672.191406 312.960938 L 671.117188 312.90625 L 670.046875 312.867188 L 668.972656 312.832031 L 666.972656 312.789062 L 665.257812 312.761719 L 663.113281 312.738281 L 661.042969 312.722656 L 658.683594 312.714844 L 657.253906 312.710938 L 653.46875 312.710938 L 650.039062 312.722656 L 648.035156 312.734375 L 646.609375 312.75 L 644.605469 312.773438 L 643.390625 312.796875 L 642.675781 312.808594 L 640.535156 312.859375 L 639.105469 312.910156 L 638.320312 312.941406 L 637.316406 312.992188 L 636.605469 313.039062 L 635.816406 313.105469 L 635.390625 313.15625 L 634.816406 313.269531 L 634.746094 313.574219 L 634.960938 313.640625 L 635.390625 313.710938 L 635.960938 313.769531 L 636.816406 313.835938 L 637.675781 313.882812 L 639.175781 313.949219 L 640.460938 313.996094 L 641.464844 314.023438 L 643.390625 314.070312 L 644.179688 314.085938 L 646.035156 314.113281 L 647.964844 314.136719 L 650.324219 314.160156 L 652.109375 314.167969 L 654.96875 314.175781 L 658.613281 314.175781 L 662.898438 314.167969 L 665.617188 314.152344 L 667.472656 314.140625 L 668.6875 314.128906 L 670.1875 314.109375 L 671.261719 314.09375 L 672.261719 314.074219 L 673.476562 314.046875 L 673.476562 313.640625 L 655.824219 313.640625 L 655.824219 313.449219 L 683.265625 313.445312 L 683.335938 314.109375 L 681.835938 314.15625 L 679.980469 314.199219 L 678.191406 314.234375 L 676.335938 314.261719 L 673.691406 314.292969 L 671.546875 314.316406 L 668.257812 314.339844 L 665.257812 314.355469 L 662.113281 314.363281 L 659.328125 314.367188 L 656.039062 314.371094 L 653.109375 314.367188 L 649.964844 314.355469 L 647.464844 314.34375 L 645.179688 314.328125 L 642.890625 314.304688 L 640.035156 314.269531 L 638.175781 314.238281 L 636.246094 314.203125 L 634.316406 314.164062 L 632.601562 314.117188 L 631.457031 314.082031 L 630.316406 314.039062 L 629.101562 313.988281 L 627.957031 313.933594 L 627.101562 313.878906 L 626.3125 313.820312 L 625.742188 313.765625 L 625.171875 313.6875 L 624.882812 313.625 L 624.742188 313.574219 Z M 624.742188 313.308594 "/>
<path style=" stroke:none;fill-rule:nonzero;fill:rgb(83.921569%,15.686275%,22.352941%);fill-opacity:1;" d="M 624.742188 305.234375 L 683.335938 305.234375 L 683.335938 305.527344 L 658.917969 305.53125 L 658.917969 307.976562 L 649.089844 307.976562 L 649.089844 305.535156 L 648.949219 305.527344 L 624.742188 305.527344 Z M 624.742188 305.234375 "/>
<g style="fill:rgb(0%,0%,0%);fill-opacity:1;">
  <use xlink:href="#glyph0-1" x="21.957031" y="318.198242"/>
  <use xlink:href="#glyph0-2" x="27.291016" y="318.198242"/>
  <use xlink:href="#glyph0-1" x="29.958008" y="318.198242"/>
</g>
<g style="fill:rgb(0%,0%,0%);fill-opacity:1;">
  <use xlink:href="#glyph0-1" x="21.957031" y="239.104492"/>
  <use xlink:href="#glyph0-2" x="27.291016" y="239.104492"/>
  <use xlink:href="#glyph0-3" x="29.958008" y="239.104492"/>
</g>
<g style="fill:rgb(0%,0%,0%);fill-opacity:1;">
  <use xlink:href="#glyph0-4" x="21.957031" y="160.014648"/>
  <use xlink:href="#glyph0-2" x="27.291016" y="160.014648"/>
  <use xlink:href="#glyph0-1" x="29.958008" y="160.014648"/>
</g>
<g style="fill:rgb(0%,0%,0%);fill-opacity:1;">
  <use xlink:href="#glyph0-4" x="21.957031" y="80.920898"/>
  <use xlink:href="#glyph0-2" x="27.291016" y="80.920898"/>
  <use xlink:href="#glyph0-3" x="29.958008" y="80.920898"/>
</g>
<g style="fill:rgb(0%,0%,0%);fill-opacity:1;">
  <use xlink:href="#glyph0-4" x="95.925781" y="338.19043"/>
</g>
<g style="fill:rgb(0%,0%,0%);fill-opacity:1;">
  <use xlink:href="#glyph0-5" x="157.605469" y="338.19043"/>
</g>
<g style="fill:rgb(0%,0%,0%);fill-opacity:1;">
  <use xlink:href="#glyph0-6" x="219.285156" y="338.19043"/>
</g>
<g style="fill:rgb(0%,0%,0%);fill-opacity:1;">
  <use xlink:href="#glyph0-7" x="280.964844" y="338.19043"/>
</g>
<g style="fill:rgb(0%,0%,0%);fill-opacity:1;">
  <use xlink:href="#glyph0-3" x="342.644531" y="338.19043"/>
</g>
<g style="fill:rgb(0%,0%,0%);fill-opacity:1;">
  <use xlink:href="#glyph0-8" x="404.324219" y="338.19043"/>
</g>
<g style="fill:rgb(0%,0%,0%);fill-opacity:1;">
  <use xlink:href="#glyph0-9" x="466" y="338.19043"/>
</g>
<g style="fill:rgb(0%,0%,0%);fill-opacity:1;">
  <use xlink:href="#glyph0-10" x="527.679688" y="338.19043"/>
</g>
<g style="fill:rgb(0%,0%,0%);fill-opacity:1;">
  <use xlink:href="#glyph0-11" x="589.359375" y="338.19043"/>
</g>
<g style="fill:rgb(0%,0%,0%);fill-opacity:1;">
  <use xlink:href="#glyph0-4" x="648.539062" y="338.19043"/>
  <use xlink:href="#glyph0-1" x="653.873047" y="338.19043"/>
</g>
<g style="fill:rgb(0%,0%,0%);fill-opacity:1;">
  <use xlink:href="#glyph1-1" x="14.412109" y="178.015625"/>
  <use xlink:href="#glyph1-2" x="14.412109" y="170.011719"/>
  <use xlink:href="#glyph1-3" x="14.412109" y="167.347656"/>
  <use xlink:href="#glyph1-4" x="14.412109" y="164.011719"/>
</g>
</g>
</svg>
