<?xml version="1.0" encoding="UTF-8"?>
<svg xmlns="http://www.w3.org/2000/svg" xmlns:xlink="http://www.w3.org/1999/xlink" width="720pt" height="360pt" viewBox="0 0 720 360" version="1.1">
<defs>
<g>
<symbol overflow="visible" id="glyph0-0">
<path style="stroke:none;" d=""/>
</symbol>
<symbol overflow="visible" id="glyph0-1">
<path style="stroke:none;" d="M 2.640625 -6.796875 C 2 -6.796875 1.421875 -6.53125 1.078125 -6.046875 C 0.640625 -5.453125 0.40625 -4.546875 0.40625 -3.296875 C 0.40625 -1 1.1875 0.21875 2.640625 0.21875 C 4.078125 0.21875 4.859375 -1 4.859375 -3.234375 C 4.859375 -4.5625 4.65625 -5.4375 4.203125 -6.046875 C 3.84375 -6.53125 3.28125 -6.796875 2.640625 -6.796875 Z M 2.640625 -6.046875 C 3.546875 -6.046875 4 -5.125 4 -3.3125 C 4 -1.375 3.5625 -0.484375 2.625 -0.484375 C 1.734375 -0.484375 1.28125 -1.421875 1.28125 -3.28125 C 1.28125 -5.140625 1.734375 -6.046875 2.640625 -6.046875 Z M 2.640625 -6.046875 "/>
</symbol>
<symbol overflow="visible" id="glyph0-2">
<path style="stroke:none;" d="M 1.828125 -1 L 0.828125 -1 L 0.828125 0 L 1.828125 0 Z M 1.828125 -1 "/>
</symbol>
<symbol overflow="visible" id="glyph0-3">
<path style="stroke:none;" d="M 4.5625 -6.796875 L 1.0625 -6.796875 L 0.546875 -3.09375 L 1.328125 -3.09375 C 1.71875 -3.5625 2.046875 -3.734375 2.578125 -3.734375 C 3.484375 -3.734375 4.0625 -3.109375 4.0625 -2.09375 C 4.0625 -1.125 3.484375 -0.53125 2.578125 -0.53125 C 1.828125 -0.53125 1.375 -0.90625 1.1875 -1.671875 L 0.328125 -1.671875 C 0.453125 -1.109375 0.546875 -0.84375 0.75 -0.59375 C 1.125 -0.078125 1.828125 0.21875 2.59375 0.21875 C 3.96875 0.21875 4.921875 -0.78125 4.921875 -2.21875 C 4.921875 -3.5625 4.03125 -4.484375 2.71875 -4.484375 C 2.25 -4.484375 1.859375 -4.359375 1.46875 -4.0625 L 1.734375 -5.96875 L 4.5625 -5.96875 Z M 4.5625 -6.796875 "/>
</symbol>
<symbol overflow="visible" id="glyph0-4">
<path style="stroke:none;" d="M 2.484375 -4.84375 L 2.484375 0 L 3.328125 0 L 3.328125 -6.796875 L 2.765625 -6.796875 C 2.46875 -5.75 2.28125 -5.609375 0.984375 -5.453125 L 0.984375 -4.84375 Z M 2.484375 -4.84375 "/>
</symbol>
<symbol overflow="visible" id="glyph0-5">
<path style="stroke:none;" d="M 4.859375 -0.828125 L 1.28125 -0.828125 C 1.359375 -1.390625 1.671875 -1.75 2.5 -2.234375 L 3.46875 -2.75 C 4.40625 -3.265625 4.90625 -3.96875 4.90625 -4.8125 C 4.90625 -5.375 4.671875 -5.90625 4.265625 -6.265625 C 3.859375 -6.625 3.375 -6.796875 2.71875 -6.796875 C 1.859375 -6.796875 1.21875 -6.5 0.84375 -5.921875 C 0.609375 -5.5625 0.5 -5.125 0.484375 -4.4375 L 1.328125 -4.4375 C 1.359375 -4.90625 1.40625 -5.1875 1.53125 -5.40625 C 1.75 -5.8125 2.1875 -6.0625 2.703125 -6.0625 C 3.46875 -6.0625 4.03125 -5.515625 4.03125 -4.78125 C 4.03125 -4.25 3.71875 -3.796875 3.125 -3.4375 L 2.234375 -2.9375 C 0.8125 -2.140625 0.40625 -1.5 0.328125 0 L 4.859375 0 Z M 4.859375 -0.828125 "/>
</symbol>
<symbol overflow="visible" id="glyph0-6">
<path style="stroke:none;" d="M 2.125 -3.125 L 2.578125 -3.125 C 3.515625 -3.125 3.984375 -2.703125 3.984375 -1.890625 C 3.984375 -1.03125 3.46875 -0.53125 2.578125 -0.53125 C 1.65625 -0.53125 1.203125 -0.984375 1.15625 -1.96875 L 0.3125 -1.96875 C 0.34375 -1.421875 0.4375 -1.078125 0.609375 -0.765625 C 0.953125 -0.109375 1.625 0.21875 2.546875 0.21875 C 3.953125 0.21875 4.859375 -0.609375 4.859375 -1.90625 C 4.859375 -2.765625 4.515625 -3.25 3.703125 -3.515625 C 4.34375 -3.765625 4.65625 -4.25 4.65625 -4.9375 C 4.65625 -6.109375 3.875 -6.796875 2.578125 -6.796875 C 1.203125 -6.796875 0.484375 -6.046875 0.453125 -4.609375 L 1.296875 -4.609375 C 1.3125 -5.015625 1.34375 -5.25 1.453125 -5.453125 C 1.640625 -5.828125 2.0625 -6.0625 2.59375 -6.0625 C 3.34375 -6.0625 3.796875 -5.625 3.796875 -4.90625 C 3.796875 -4.421875 3.609375 -4.140625 3.25 -3.984375 C 3.015625 -3.890625 2.71875 -3.84375 2.125 -3.84375 Z M 2.125 -3.125 "/>
</symbol>
<symbol overflow="visible" id="glyph0-7">
<path style="stroke:none;" d="M 3.140625 -1.625 L 3.140625 0 L 3.984375 0 L 3.984375 -1.625 L 4.984375 -1.625 L 4.984375 -2.390625 L 3.984375 -2.390625 L 3.984375 -6.796875 L 3.359375 -6.796875 L 0.265625 -2.515625 L 0.265625 -1.625 Z M 3.140625 -2.390625 L 1 -2.390625 L 3.140625 -5.359375 Z M 3.140625 -2.390625 "/>
</symbol>
<symbol overflow="visible" id="glyph0-8">
<path style="stroke:none;" d="M 4.78125 -5.03125 C 4.609375 -6.140625 3.890625 -6.796875 2.84375 -6.796875 C 2.09375 -6.796875 1.421875 -6.4375 1.03125 -5.828125 C 0.609375 -5.171875 0.40625 -4.34375 0.40625 -3.09375 C 0.40625 -1.953125 0.578125 -1.234375 0.984375 -0.625 C 1.359375 -0.078125 1.953125 0.21875 2.703125 0.21875 C 3.984375 0.21875 4.921875 -0.734375 4.921875 -2.078125 C 4.921875 -3.34375 4.0625 -4.234375 2.84375 -4.234375 C 2.171875 -4.234375 1.640625 -3.96875 1.28125 -3.46875 C 1.28125 -5.125 1.828125 -6.046875 2.796875 -6.046875 C 3.390625 -6.046875 3.796875 -5.671875 3.9375 -5.03125 Z M 2.734375 -3.484375 C 3.546875 -3.484375 4.0625 -2.921875 4.0625 -2 C 4.0625 -1.15625 3.484375 -0.53125 2.703125 -0.53125 C 1.921875 -0.53125 1.328125 -1.1875 1.328125 -2.046875 C 1.328125 -2.890625 1.90625 -3.484375 2.734375 -3.484375 Z M 2.734375 -3.484375 "/>
</symbol>
<symbol overflow="visible" id="glyph0-9">
<path style="stroke:none;" d="M 4.984375 -6.796875 L 0.4375 -6.796875 L 0.4375 -5.96875 L 4.109375 -5.96875 C 2.5 -3.65625 1.828125 -2.234375 1.328125 0 L 2.21875 0 C 2.59375 -2.171875 3.453125 -4.046875 4.984375 -6.09375 Z M 4.984375 -6.796875 "/>
</symbol>
<symbol overflow="visible" id="glyph0-10">
<path style="stroke:none;" d="M 3.75 -3.578125 C 4.453125 -4 4.6875 -4.34375 4.6875 -4.984375 C 4.6875 -6.046875 3.84375 -6.796875 2.640625 -6.796875 C 1.4375 -6.796875 0.59375 -6.046875 0.59375 -4.984375 C 0.59375 -4.359375 0.828125 -4.015625 1.515625 -3.578125 C 0.734375 -3.203125 0.359375 -2.640625 0.359375 -1.890625 C 0.359375 -0.640625 1.296875 0.21875 2.640625 0.21875 C 3.984375 0.21875 4.921875 -0.640625 4.921875 -1.875 C 4.921875 -2.640625 4.53125 -3.203125 3.75 -3.578125 Z M 2.640625 -6.046875 C 3.359375 -6.046875 3.8125 -5.625 3.8125 -4.96875 C 3.8125 -4.34375 3.34375 -3.921875 2.640625 -3.921875 C 1.921875 -3.921875 1.453125 -4.34375 1.453125 -4.984375 C 1.453125 -5.625 1.921875 -6.046875 2.640625 -6.046875 Z M 2.640625 -3.203125 C 3.484375 -3.203125 4.0625 -2.671875 4.0625 -1.875 C 4.0625 -1.0625 3.484375 -0.53125 2.625 -0.53125 C 1.796875 -0.53125 1.21875 -1.078125 1.21875 -1.875 C 1.21875 -2.671875 1.796875 -3.203125 2.640625 -3.203125 Z M 2.640625 -3.203125 "/>
</symbol>
<symbol overflow="visible" id="glyph0-11">
<path style="stroke:none;" d="M 0.515625 -1.546875 C 0.671875 -0.4375 1.40625 0.21875 2.4375 0.21875 C 3.1875 0.21875 3.859375 -0.140625 4.265625 -0.75 C 4.6875 -1.40625 4.890625 -2.25 4.890625 -3.484375 C 4.890625 -4.625 4.703125 -5.359375 4.3125 -5.953125 C 3.9375 -6.5 3.34375 -6.796875 2.59375 -6.796875 C 1.296875 -6.796875 0.359375 -5.84375 0.359375 -4.515625 C 0.359375 -3.25 1.234375 -2.34375 2.453125 -2.34375 C 3.09375 -2.34375 3.5625 -2.578125 4.015625 -3.109375 C 4 -1.453125 3.46875 -0.53125 2.5 -0.53125 C 1.90625 -0.53125 1.484375 -0.90625 1.359375 -1.546875 Z M 2.578125 -6.0625 C 3.375 -6.0625 3.96875 -5.40625 3.96875 -4.53125 C 3.96875 -3.6875 3.375 -3.09375 2.546875 -3.09375 C 1.734375 -3.09375 1.234375 -3.671875 1.234375 -4.578125 C 1.234375 -5.4375 1.796875 -6.0625 2.578125 -6.0625 Z M 2.578125 -6.0625 "/>
</symbol>
<symbol overflow="visible" id="glyph1-0">
<path style="stroke:none;" d=""/>
</symbol>
<symbol overflow="visible" id="glyph1-1">
<path style="stroke:none;" d="M 0 -0.953125 L 0 -4.890625 C 0 -5.71875 -0.234375 -6.34375 -0.734375 -6.796875 C -1.1875 -7.234375 -1.8125 -7.46875 -2.5 -7.46875 C -3.546875 -7.46875 -4.1875 -7 -4.625 -5.875 C -4.984375 -6.671875 -5.640625 -7.09375 -6.53125 -7.09375 C -7.15625 -7.09375 -7.734375 -6.859375 -8.140625 -6.390625 C -8.5625 -5.9375 -8.75 -5.34375 -8.75 -4.5 L -8.75 -0.953125 Z M -4.984375 -2.0625 L -7.765625 -2.0625 L -7.765625 -4.21875 C -7.765625 -4.84375 -7.6875 -5.203125 -7.453125 -5.5 C -7.21875 -5.8125 -6.859375 -5.96875 -6.375 -5.96875 C -5.90625 -5.96875 -5.53125 -5.8125 -5.296875 -5.5 C -5.0625 -5.203125 -4.984375 -4.84375 -4.984375 -4.21875 Z M -0.984375 -2.0625 L -4 -2.0625 L -4 -4.78125 C -4 -5.328125 -3.859375 -5.6875 -3.578125 -5.953125 C -3.296875 -6.21875 -2.921875 -6.359375 -2.484375 -6.359375 C -2.0625 -6.359375 -1.6875 -6.21875 -1.40625 -5.953125 C -1.109375 -5.6875 -0.984375 -5.328125 -0.984375 -4.78125 Z M -0.984375 -2.0625 "/>
</symbol>
<symbol overflow="visible" id="glyph1-2">
<path style="stroke:none;" d="M -6.28125 -1.796875 L -6.28125 -0.796875 L 0 -0.796875 L 0 -1.796875 Z M -8.75 -1.796875 L -8.75 -0.796875 L -7.484375 -0.796875 L -7.484375 -1.796875 Z M -8.75 -1.796875 "/>
</symbol>
<symbol overflow="visible" id="glyph1-3">
<path style="stroke:none;" d="M -6.28125 -3.046875 L -6.28125 -2.015625 L -8.015625 -2.015625 L -8.015625 -1.015625 L -6.28125 -1.015625 L -6.28125 -0.171875 L -5.46875 -0.171875 L -5.46875 -1.015625 L -0.71875 -1.015625 C -0.078125 -1.015625 0.28125 -1.453125 0.28125 -2.234375 C 0.28125 -2.46875 0.25 -2.71875 0.1875 -3.046875 L -0.640625 -3.046875 C -0.609375 -2.921875 -0.59375 -2.765625 -0.59375 -2.5625 C -0.59375 -2.140625 -0.71875 -2.015625 -1.15625 -2.015625 L -5.46875 -2.015625 L -5.46875 -3.046875 Z M -6.28125 -3.046875 "/>
</symbol>
<symbol overflow="visible" id="glyph1-4">
<path style="stroke:none;" d="M -4.53125 -5.25 C -5.765625 -5.25 -6.46875 -4.421875 -6.46875 -2.96875 C -6.46875 -1.515625 -5.71875 -0.5625 -4.546875 -0.5625 C -3.5625 -0.5625 -3.09375 -1.0625 -2.734375 -2.5625 L -2.515625 -3.484375 C -2.34375 -4.1875 -2.09375 -4.46875 -1.625 -4.46875 C -1.046875 -4.46875 -0.640625 -3.875 -0.640625 -3 C -0.640625 -2.453125 -0.796875 -2 -1.0625 -1.75 C -1.25 -1.59375 -1.421875 -1.53125 -1.875 -1.46875 L -1.875 -0.40625 C -0.421875 -0.453125 0.28125 -1.265625 0.28125 -2.921875 C 0.28125 -4.5 -0.5 -5.515625 -1.71875 -5.515625 C -2.65625 -5.515625 -3.171875 -4.984375 -3.46875 -3.734375 L -3.703125 -2.765625 C -3.890625 -1.953125 -4.15625 -1.609375 -4.59375 -1.609375 C -5.171875 -1.609375 -5.546875 -2.125 -5.546875 -2.9375 C -5.546875 -3.75 -5.203125 -4.171875 -4.53125 -4.203125 Z M -4.53125 -5.25 "/>
</symbol>
</g>
</defs>
<g id="surface105747">
<rect x="0" y="0" width="720" height="360" style="fill:rgb(100%,100%,100%);fill-opacity:1;stroke:none;"/>
<path style=" stroke:none;fill-rule:nonzero;fill:rgb(6.27451%,58.823529%,28.235294%);fill-opacity:1;" d="M 206.769531 310.589844 L 206.839844 310.582031 L 235.027344 304.59375 L 243.585938 304.59375 L 271.914062 310.59375 L 261.960938 310.59375 L 254.863281 309.027344 L 223.753906 309.027344 L 216.792969 310.589844 L 206.769531 310.589844 L 226.746094 308.378906 L 252.007812 308.375 L 239.410156 305.574219 L 239.273438 305.566406 L 239.132812 305.585938 L 226.675781 308.375 L 226.746094 308.378906 Z M 206.769531 310.589844 "/>
<path style=" stroke:none;fill-rule:nonzero;fill:rgb(14.509804%,36.078431%,60%);fill-opacity:1;" d="M 206.769531 297.667969 L 206.851562 297.660156 L 206.851562 297.4375 L 207.089844 297.082031 L 207.644531 296.636719 L 208.199219 296.328125 L 209.628906 295.78125 L 211.617188 295.25 L 213.683594 294.839844 L 215.191406 294.597656 L 216.542969 294.410156 L 219.640625 294.066406 L 221.625 293.890625 L 223.769531 293.734375 L 226.394531 293.574219 L 228.300781 293.480469 L 232.589844 293.332031 L 235.765625 293.265625 L 238.230469 293.238281 L 243.550781 293.238281 L 246.730469 293.277344 L 249.035156 293.324219 L 251.574219 293.398438 L 253.722656 293.480469 L 257.453125 293.6875 L 260.792969 293.945312 L 262.300781 294.09375 L 264.683594 294.382812 L 266.511719 294.664062 L 267.78125 294.90625 L 269.210938 295.25 L 270.484375 295.667969 L 271.4375 296.140625 L 271.914062 296.542969 L 260.792969 296.542969 L 260.234375 296.171875 L 259.597656 295.882812 L 258.40625 295.5 L 257.214844 295.230469 L 255.546875 294.960938 L 254.039062 294.785156 L 251.972656 294.605469 L 250.144531 294.496094 L 248.238281 294.410156 L 246.414062 294.355469 L 242.917969 294.300781 L 238.863281 294.300781 L 237.355469 294.320312 L 234.257812 294.394531 L 232.589844 294.457031 L 230.207031 294.589844 L 228.539062 294.710938 L 226.550781 294.894531 L 225.203125 295.054688 L 223.53125 295.296875 L 222.339844 295.507812 L 220.992188 295.816406 L 220.195312 296.050781 L 219.480469 296.308594 L 218.847656 296.617188 L 218.371094 296.941406 L 218.050781 297.285156 L 217.890625 297.621094 L 217.890625 299.0625 L 218.050781 299.398438 L 218.449219 299.789062 L 219.480469 300.355469 L 220.992188 300.851562 L 222.738281 301.242188 L 224.40625 301.519531 L 225.359375 301.652344 L 226.632812 301.800781 L 228.617188 301.984375 L 231.476562 302.171875 L 233.144531 302.246094 L 235.6875 302.320312 L 238.308594 302.359375 L 241.804688 302.359375 L 244.902344 302.320312 L 246.96875 302.273438 L 249.113281 302.199219 L 252.050781 302.042969 L 253.878906 301.894531 L 255.46875 301.714844 L 256.660156 301.539062 L 257.453125 301.390625 L 258.644531 301.101562 L 259.597656 300.785156 L 260.3125 300.460938 L 260.792969 300.144531 L 271.914062 300.144531 L 271.4375 300.515625 L 270.722656 300.878906 L 270.007812 301.148438 L 268.894531 301.472656 L 267.621094 301.761719 L 265.796875 302.089844 L 264.285156 302.300781 L 262.300781 302.535156 L 260.472656 302.710938 L 258.488281 302.871094 L 255.546875 303.054688 L 253.640625 303.148438 L 251.574219 303.234375 L 249.113281 303.308594 L 246.015625 303.371094 L 242.679688 303.410156 L 239.582031 303.417969 L 236.242188 303.398438 L 233.78125 303.363281 L 230.523438 303.277344 L 226.472656 303.113281 L 223.53125 302.933594 L 221.230469 302.757812 L 219.242188 302.570312 L 217.019531 302.320312 L 214.160156 301.910156 L 212.410156 301.59375 L 211.21875 301.335938 L 209.867188 300.972656 L 208.914062 300.644531 L 207.804688 300.125 L 207.007812 299.464844 L 206.769531 298.953125 Z M 206.769531 297.667969 "/>
<path style=" stroke:none;fill-rule:nonzero;fill:rgb(96.862745%,70.196078%,16.862745%);fill-opacity:1;" d="M 206.769531 312.378906 L 206.851562 312.378906 L 206.851562 312.351562 L 207.167969 312.292969 L 207.960938 312.214844 L 208.996094 312.148438 L 210.105469 312.09375 L 210.820312 312.066406 L 212.015625 312.027344 L 213.046875 312 L 215.667969 311.941406 L 219.003906 311.886719 L 220.832031 311.863281 L 222.898438 311.839844 L 225.835938 311.816406 L 227.1875 311.804688 L 231.316406 311.785156 L 236.003906 311.773438 L 241.167969 311.769531 L 243.550781 311.769531 L 246.808594 311.773438 L 251.257812 311.789062 L 253.800781 311.800781 L 255.785156 311.816406 L 257.851562 311.832031 L 260.394531 311.859375 L 262.777344 311.890625 L 264.683594 311.921875 L 266.589844 311.960938 L 268.179688 312.003906 L 269.53125 312.046875 L 270.722656 312.101562 L 271.4375 312.148438 L 271.914062 312.195312 L 260.871094 312.195312 L 260.234375 312.148438 L 259.519531 312.113281 L 258.328125 312.070312 L 257.136719 312.039062 L 255.945312 312.015625 L 253.722656 311.980469 L 251.8125 311.957031 L 249.429688 311.941406 L 247.128906 311.929688 L 244.503906 311.921875 L 242.917969 311.917969 L 238.707031 311.917969 L 234.894531 311.925781 L 232.667969 311.9375 L 231.078125 311.949219 L 228.855469 311.96875 L 227.503906 311.984375 L 226.710938 311.996094 L 224.328125 312.035156 L 222.738281 312.070312 L 221.863281 312.097656 L 220.753906 312.136719 L 219.957031 312.171875 L 219.085938 312.222656 L 218.609375 312.261719 L 217.972656 312.351562 L 217.890625 312.585938 L 218.132812 312.632812 L 218.609375 312.6875 L 219.242188 312.734375 L 220.195312 312.785156 L 221.148438 312.820312 L 222.816406 312.871094 L 224.246094 312.90625 L 225.359375 312.929688 L 227.503906 312.964844 L 228.378906 312.976562 L 230.445312 313 L 232.589844 313.015625 L 235.210938 313.03125 L 237.195312 313.039062 L 240.375 313.046875 L 244.425781 313.046875 L 249.191406 313.039062 L 252.210938 313.027344 L 254.277344 313.019531 L 255.628906 313.007812 L 257.296875 312.996094 L 258.488281 312.980469 L 259.597656 312.96875 L 260.949219 312.945312 L 260.949219 312.632812 L 241.328125 312.632812 L 241.328125 312.488281 L 271.832031 312.484375 L 271.914062 312.996094 L 270.246094 313.03125 L 268.179688 313.0625 L 266.191406 313.089844 L 264.128906 313.113281 L 261.1875 313.136719 L 258.804688 313.152344 L 255.152344 313.171875 L 251.8125 313.183594 L 248.320312 313.191406 L 245.21875 313.195312 L 241.566406 313.195312 L 238.308594 313.191406 L 234.8125 313.183594 L 232.03125 313.175781 L 229.492188 313.160156 L 226.949219 313.144531 L 223.769531 313.117188 L 221.707031 313.09375 L 219.5625 313.066406 L 217.414062 313.035156 L 215.507812 313 L 214.238281 312.972656 L 212.96875 312.941406 L 211.617188 312.902344 L 210.34375 312.859375 L 209.390625 312.816406 L 208.519531 312.773438 L 207.882812 312.730469 L 207.246094 312.671875 L 206.929688 312.625 L 206.769531 312.582031 Z M 206.769531 312.378906 "/>
<path style=" stroke:none;fill-rule:nonzero;fill:rgb(83.921569%,15.686275%,22.352941%);fill-opacity:1;" d="M 206.769531 274.90625 L 271.914062 274.90625 L 271.914062 276.742188 L 244.765625 276.757812 L 244.765625 292.066406 L 233.839844 292.066406 L 233.839844 276.777344 L 233.683594 276.742188 L 206.769531 276.742188 Z M 206.769531 274.90625 "/>
<path style=" stroke:none;fill-rule:nonzero;fill:rgb(6.27451%,58.823529%,28.235294%);fill-opacity:1;" d="M 275.339844 301.28125 L 275.410156 301.273438 L 303.597656 294.109375 L 312.15625 294.109375 L 340.484375 301.289062 L 330.53125 301.289062 L 323.433594 299.414062 L 292.324219 299.414062 L 285.363281 301.28125 L 275.339844 301.28125 L 295.316406 298.640625 L 320.578125 298.632812 L 307.980469 295.28125 L 307.84375 295.273438 L 307.703125 295.292969 L 295.246094 298.632812 L 295.316406 298.640625 Z M 275.339844 301.28125 "/>
<path style=" stroke:none;fill-rule:nonzero;fill:rgb(14.509804%,36.078431%,60%);fill-opacity:1;" d="M 275.339844 305.40625 L 275.421875 305.398438 L 275.421875 305.25 L 275.660156 305.015625 L 276.214844 304.71875 L 276.769531 304.515625 L 278.203125 304.152344 L 280.1875 303.800781 L 282.253906 303.527344 L 283.761719 303.367188 L 285.113281 303.242188 L 288.210938 303.015625 L 290.195312 302.894531 L 292.34375 302.792969 L 294.964844 302.6875 L 296.871094 302.625 L 301.160156 302.527344 L 304.335938 302.480469 L 306.800781 302.464844 L 312.121094 302.464844 L 315.300781 302.488281 L 317.605469 302.519531 L 320.148438 302.570312 L 322.292969 302.625 L 326.023438 302.761719 L 329.363281 302.933594 L 330.871094 303.03125 L 333.253906 303.222656 L 335.082031 303.410156 L 336.351562 303.570312 L 337.78125 303.800781 L 339.054688 304.078125 L 340.007812 304.390625 L 340.484375 304.660156 L 329.363281 304.660156 L 328.804688 304.410156 L 328.171875 304.21875 L 326.976562 303.964844 L 325.785156 303.785156 L 324.117188 303.605469 L 322.609375 303.488281 L 320.542969 303.371094 L 318.714844 303.296875 L 316.808594 303.242188 L 314.984375 303.207031 L 311.488281 303.167969 L 307.4375 303.167969 L 305.925781 303.179688 L 302.828125 303.230469 L 301.160156 303.273438 L 298.777344 303.359375 L 297.109375 303.441406 L 295.121094 303.5625 L 293.773438 303.667969 L 292.105469 303.828125 L 290.910156 303.972656 L 289.5625 304.175781 L 288.765625 304.332031 L 288.050781 304.503906 L 287.417969 304.707031 L 286.941406 304.925781 L 286.621094 305.152344 L 286.464844 305.375 L 286.464844 306.332031 L 286.621094 306.554688 L 287.019531 306.816406 L 288.050781 307.191406 L 289.5625 307.519531 L 291.308594 307.78125 L 292.976562 307.964844 L 293.929688 308.050781 L 295.203125 308.152344 L 297.1875 308.273438 L 300.046875 308.398438 L 301.714844 308.449219 L 304.257812 308.496094 L 306.878906 308.523438 L 310.375 308.523438 L 313.472656 308.496094 L 315.539062 308.464844 L 317.683594 308.417969 L 320.625 308.3125 L 322.449219 308.214844 L 324.039062 308.09375 L 325.230469 307.976562 L 326.023438 307.878906 L 327.21875 307.6875 L 328.171875 307.476562 L 328.886719 307.261719 L 329.363281 307.050781 L 340.484375 307.050781 L 340.007812 307.296875 L 339.292969 307.539062 L 338.578125 307.71875 L 337.464844 307.933594 L 336.195312 308.125 L 334.367188 308.34375 L 332.855469 308.484375 L 330.871094 308.640625 L 329.042969 308.757812 L 327.058594 308.863281 L 324.117188 308.984375 L 322.210938 309.046875 L 320.148438 309.101562 L 317.683594 309.152344 L 314.585938 309.195312 L 311.25 309.21875 L 308.152344 309.226562 L 304.8125 309.214844 L 302.351562 309.191406 L 299.09375 309.132812 L 295.042969 309.023438 L 292.105469 308.90625 L 289.800781 308.789062 L 287.8125 308.664062 L 285.589844 308.496094 L 282.730469 308.226562 L 280.980469 308.015625 L 279.789062 307.84375 L 278.441406 307.601562 L 277.488281 307.382812 L 276.375 307.039062 L 275.578125 306.597656 L 275.339844 306.257812 Z M 275.339844 305.40625 "/>
<path style=" stroke:none;fill-rule:nonzero;fill:rgb(96.862745%,70.196078%,16.862745%);fill-opacity:1;" d="M 275.339844 185.765625 L 275.421875 185.59375 L 275.421875 182.171875 L 275.738281 174.464844 L 276.53125 163.851562 L 277.566406 155.121094 L 278.679688 148.273438 L 279.394531 144.679688 L 280.585938 139.542969 L 281.617188 135.777344 L 284.238281 128.074219 L 287.574219 120.882812 L 289.402344 117.800781 L 291.46875 114.890625 L 294.40625 111.636719 L 295.757812 110.441406 L 299.890625 107.699219 L 304.574219 105.988281 L 309.738281 105.476562 L 312.121094 105.648438 L 315.378906 106.332031 L 319.828125 108.214844 L 322.371094 109.925781 L 324.355469 111.636719 L 326.421875 113.863281 L 328.964844 117.289062 L 331.347656 121.394531 L 333.253906 125.503906 L 335.160156 130.640625 L 336.75 136.117188 L 338.101562 142.109375 L 339.292969 149.300781 L 340.007812 155.292969 L 340.484375 161.285156 L 329.441406 161.285156 L 328.804688 155.292969 L 328.089844 150.671875 L 326.898438 145.019531 L 325.707031 140.914062 L 324.515625 137.660156 L 322.292969 133.207031 L 320.386719 130.46875 L 318 128.074219 L 315.699219 126.53125 L 313.078125 125.503906 L 311.488281 125.164062 L 307.277344 125.164062 L 303.464844 126.359375 L 301.238281 127.730469 L 299.652344 129.101562 L 297.425781 131.667969 L 296.074219 133.722656 L 295.28125 135.09375 L 292.898438 140.398438 L 291.308594 145.191406 L 290.433594 148.445312 L 289.324219 153.582031 L 288.527344 158.203125 L 287.65625 165.050781 L 287.179688 170.1875 L 286.542969 181.828125 L 286.464844 212.644531 L 286.703125 219.148438 L 287.179688 226.167969 L 287.8125 232.332031 L 288.765625 238.835938 L 289.71875 243.800781 L 291.386719 250.476562 L 292.820312 254.929688 L 293.929688 257.839844 L 296.074219 262.460938 L 296.949219 264 L 299.015625 267.082031 L 301.160156 269.480469 L 303.78125 271.535156 L 305.765625 272.5625 L 308.945312 273.417969 L 312.996094 273.417969 L 317.761719 272.390625 L 320.78125 271.019531 L 322.847656 269.652344 L 324.199219 268.453125 L 325.867188 266.570312 L 327.058594 264.855469 L 328.171875 262.972656 L 329.519531 260.0625 L 329.519531 219.148438 L 309.898438 218.976562 L 309.898438 199.804688 L 340.402344 199.632812 L 340.484375 266.570312 L 338.816406 271.191406 L 336.75 275.640625 L 334.765625 279.066406 L 332.699219 281.976562 L 329.757812 285.230469 L 327.375 287.285156 L 323.722656 289.679688 L 320.386719 291.222656 L 316.890625 292.25 L 313.792969 292.761719 L 310.136719 292.933594 L 306.878906 292.589844 L 303.382812 291.5625 L 300.605469 290.195312 L 298.0625 288.480469 L 295.519531 286.257812 L 292.34375 282.660156 L 290.277344 279.75 L 288.132812 276.15625 L 285.988281 271.875 L 284.078125 267.253906 L 282.808594 263.660156 L 281.539062 259.550781 L 280.1875 254.414062 L 278.917969 248.59375 L 277.964844 243.285156 L 277.089844 237.292969 L 276.453125 231.644531 L 275.816406 223.941406 L 275.5 217.777344 L 275.339844 212.472656 Z M 275.339844 185.765625 "/>
<path style=" stroke:none;fill-rule:nonzero;fill:rgb(83.921569%,15.686275%,22.352941%);fill-opacity:1;" d="M 275.339844 310.402344 L 340.484375 310.402344 L 340.484375 310.699219 L 313.335938 310.703125 L 313.335938 313.195312 L 302.410156 313.195312 L 302.410156 310.707031 L 302.253906 310.699219 L 275.339844 310.699219 Z M 275.339844 310.402344 "/>
<path style=" stroke:none;fill-rule:nonzero;fill:rgb(6.27451%,58.823529%,28.235294%);fill-opacity:1;" d="M 343.914062 307.625 L 343.980469 307.367188 L 372.167969 34.910156 L 380.730469 34.910156 L 409.054688 307.878906 L 399.101562 307.878906 L 392.003906 236.625 L 360.894531 236.625 L 353.933594 307.625 L 343.914062 307.625 L 363.886719 207.152344 L 389.148438 206.894531 L 376.554688 79.507812 L 376.414062 79.25 L 376.273438 80.019531 L 363.816406 206.894531 L 363.886719 207.152344 Z M 343.914062 307.625 "/>
<path style=" stroke:none;fill-rule:nonzero;fill:rgb(83.921569%,15.686275%,22.352941%);fill-opacity:1;" d="M 343.914062 309.054688 L 409.054688 309.054688 L 409.054688 309.5 L 381.90625 309.503906 L 381.90625 313.195312 L 370.980469 313.195312 L 370.980469 309.507812 L 370.824219 309.5 L 343.914062 309.5 Z M 343.914062 309.054688 "/>
<path style=" stroke:none;fill-rule:nonzero;fill:rgb(83.921569%,15.686275%,22.352941%);fill-opacity:1;" d="M 412.484375 20.664062 L 477.625 20.664062 L 477.625 51.851562 L 450.476562 52.125 L 450.476562 312.019531 L 439.554688 312.019531 L 439.554688 52.398438 L 439.394531 51.851562 L 412.484375 51.851562 Z M 412.484375 20.664062 "/>
<path style=" stroke:none;fill-rule:nonzero;fill:rgb(6.27451%,58.823529%,28.235294%);fill-opacity:1;" d="M 481.054688 313.191406 L 481.125 313.1875 L 509.308594 309.570312 L 517.871094 309.570312 L 546.195312 313.195312 L 536.242188 313.195312 L 529.144531 312.25 L 498.035156 312.25 L 491.074219 313.191406 L 481.054688 313.191406 L 501.027344 311.859375 L 526.292969 311.855469 L 513.695312 310.164062 L 513.554688 310.160156 L 513.414062 310.171875 L 500.957031 311.855469 L 501.027344 311.859375 Z M 481.054688 313.191406 "/>
<path style=" stroke:none;fill-rule:nonzero;fill:rgb(14.509804%,36.078431%,60%);fill-opacity:1;" d="M 481.054688 251.769531 L 481.132812 251.71875 L 481.132812 250.476562 L 481.371094 248.507812 L 481.925781 246.019531 L 482.484375 244.308594 L 483.914062 241.253906 L 485.898438 238.300781 L 487.964844 236.019531 L 489.472656 234.675781 L 490.824219 233.636719 L 493.921875 231.722656 L 495.910156 230.738281 L 498.054688 229.855469 L 500.675781 228.976562 L 502.582031 228.457031 L 506.871094 227.628906 L 510.050781 227.265625 L 512.511719 227.109375 L 517.835938 227.109375 L 521.011719 227.316406 L 523.316406 227.574219 L 525.859375 227.992188 L 528.003906 228.457031 L 531.738281 229.597656 L 535.074219 231.046875 L 536.582031 231.875 L 538.964844 233.480469 L 540.792969 235.035156 L 542.066406 236.382812 L 543.496094 238.300781 L 544.765625 240.632812 L 545.71875 243.273438 L 546.195312 245.503906 L 535.074219 245.503906 L 534.519531 243.429688 L 533.882812 241.824219 L 532.691406 239.699219 L 531.5 238.195312 L 529.832031 236.695312 L 528.320312 235.710938 L 526.253906 234.726562 L 524.429688 234.105469 L 522.523438 233.636719 L 520.695312 233.328125 L 517.199219 233.015625 L 513.148438 233.015625 L 511.636719 233.121094 L 508.539062 233.535156 L 506.871094 233.898438 L 504.488281 234.621094 L 502.820312 235.296875 L 500.835938 236.332031 L 499.484375 237.210938 L 497.816406 238.558594 L 496.625 239.75 L 495.273438 241.460938 L 494.480469 242.757812 L 493.765625 244.207031 L 493.128906 245.917969 L 492.652344 247.730469 L 492.335938 249.648438 L 492.175781 251.511719 L 492.175781 259.542969 L 492.335938 261.40625 L 492.730469 263.582031 L 493.765625 266.742188 L 495.273438 269.488281 L 497.019531 271.664062 L 498.691406 273.21875 L 499.644531 273.945312 L 500.914062 274.773438 L 502.898438 275.808594 L 505.761719 276.847656 L 507.429688 277.261719 L 509.96875 277.675781 L 512.59375 277.882812 L 516.085938 277.882812 L 519.183594 277.675781 L 521.25 277.417969 L 523.394531 277 L 526.335938 276.121094 L 528.164062 275.292969 L 529.75 274.308594 L 530.941406 273.324219 L 531.738281 272.496094 L 532.929688 270.886719 L 533.882812 269.128906 L 534.597656 267.3125 L 535.074219 265.550781 L 546.195312 265.550781 L 545.71875 267.625 L 545.003906 269.644531 L 544.289062 271.148438 L 543.175781 272.960938 L 541.90625 274.566406 L 540.078125 276.378906 L 538.570312 277.570312 L 536.582031 278.867188 L 534.757812 279.851562 L 532.769531 280.730469 L 529.832031 281.769531 L 527.925781 282.285156 L 525.859375 282.753906 L 523.394531 283.167969 L 520.296875 283.53125 L 516.960938 283.738281 L 513.863281 283.789062 L 510.527344 283.683594 L 508.0625 283.476562 L 504.804688 283.011719 L 500.753906 282.078125 L 497.816406 281.09375 L 495.511719 280.109375 L 493.527344 279.074219 L 491.300781 277.675781 L 488.441406 275.394531 L 486.695312 273.632812 L 485.503906 272.183594 L 484.152344 270.164062 L 483.199219 268.351562 L 482.085938 265.449219 L 481.292969 261.769531 L 481.054688 258.921875 Z M 481.054688 251.769531 "/>
<path style=" stroke:none;fill-rule:nonzero;fill:rgb(96.862745%,70.196078%,16.862745%);fill-opacity:1;" d="M 481.054688 290.292969 L 481.132812 290.28125 L 481.132812 290.050781 L 481.449219 289.542969 L 482.246094 288.835938 L 483.277344 288.257812 L 484.390625 287.804688 L 485.105469 287.566406 L 486.296875 287.222656 L 487.328125 286.972656 L 489.949219 286.464844 L 493.289062 285.984375 L 495.113281 285.78125 L 497.179688 285.589844 L 500.121094 285.371094 L 501.46875 285.292969 L 505.601562 285.113281 L 510.289062 284.996094 L 515.453125 284.964844 L 517.835938 284.976562 L 521.09375 285.019531 L 525.539062 285.144531 L 528.082031 285.257812 L 530.070312 285.371094 L 532.132812 285.519531 L 534.675781 285.746094 L 537.058594 286.019531 L 538.964844 286.292969 L 540.875 286.632812 L 542.460938 286.996094 L 543.8125 287.394531 L 545.003906 287.871094 L 545.71875 288.269531 L 546.195312 288.667969 L 535.152344 288.667969 L 534.519531 288.269531 L 533.804688 287.960938 L 532.609375 287.585938 L 531.417969 287.316406 L 530.226562 287.097656 L 528.003906 286.804688 L 526.097656 286.621094 L 523.714844 286.464844 L 521.410156 286.359375 L 518.789062 286.292969 L 517.199219 286.269531 L 512.988281 286.269531 L 509.175781 286.347656 L 506.953125 286.441406 L 505.363281 286.53125 L 503.136719 286.703125 L 501.789062 286.839844 L 500.992188 286.929688 L 498.609375 287.28125 L 497.019531 287.597656 L 496.148438 287.816406 L 495.035156 288.15625 L 494.242188 288.460938 L 493.367188 288.917969 L 492.890625 289.257812 L 492.253906 290.03125 L 492.175781 292.074219 L 492.414062 292.507812 L 492.890625 292.972656 L 493.527344 293.378906 L 494.480469 293.8125 L 495.433594 294.140625 L 497.101562 294.585938 L 498.53125 294.878906 L 499.644531 295.074219 L 501.789062 295.378906 L 502.660156 295.480469 L 504.726562 295.6875 L 506.871094 295.84375 L 509.492188 295.980469 L 511.480469 296.050781 L 514.65625 296.105469 L 518.707031 296.105469 L 523.476562 296.039062 L 526.492188 295.949219 L 528.558594 295.855469 L 529.910156 295.777344 L 531.578125 295.652344 L 532.769531 295.539062 L 533.882812 295.414062 L 535.234375 295.222656 L 535.234375 292.507812 L 515.609375 292.496094 L 515.609375 291.222656 L 546.117188 291.210938 L 546.195312 295.652344 L 544.527344 295.960938 L 542.460938 296.253906 L 540.476562 296.480469 L 538.410156 296.675781 L 535.472656 296.890625 L 533.085938 297.027344 L 529.433594 297.1875 L 526.097656 297.289062 L 522.601562 297.355469 L 519.503906 297.390625 L 515.847656 297.402344 L 512.59375 297.378906 L 509.097656 297.3125 L 506.316406 297.21875 L 503.773438 297.105469 L 501.230469 296.957031 L 498.054688 296.71875 L 495.988281 296.527344 L 493.84375 296.289062 L 491.699219 296.003906 L 489.792969 295.699219 L 488.519531 295.460938 L 487.25 295.1875 L 485.898438 294.847656 L 484.628906 294.460938 L 483.675781 294.109375 L 482.800781 293.710938 L 482.164062 293.335938 L 481.53125 292.824219 L 481.210938 292.414062 L 481.054688 292.0625 Z M 481.054688 290.292969 "/>
<path style=" stroke:none;fill-rule:nonzero;fill:rgb(83.921569%,15.686275%,22.352941%);fill-opacity:1;" d="M 481.054688 298.578125 L 546.195312 298.578125 L 546.195312 299.628906 L 519.046875 299.636719 L 519.046875 308.394531 L 508.125 308.394531 L 508.125 299.644531 L 507.964844 299.628906 L 481.054688 299.628906 Z M 481.054688 298.578125 "/>
<path style=" stroke:none;fill-rule:nonzero;fill:rgb(6.27451%,58.823529%,28.235294%);fill-opacity:1;" d="M 549.625 310.3125 L 549.695312 310.3125 L 577.878906 310.105469 L 586.441406 310.105469 L 614.765625 310.3125 L 604.8125 310.3125 L 597.714844 310.257812 L 566.605469 310.257812 L 559.644531 310.3125 L 549.625 310.3125 L 569.597656 310.234375 L 594.863281 310.234375 L 582.265625 310.140625 L 581.988281 310.140625 L 569.527344 310.234375 L 569.597656 310.234375 Z M 549.625 310.3125 "/>
<g style="fill:rgb(0%,0%,0%);fill-opacity:1;">
  <use xlink:href="#glyph0-1" x="21.957031" y="317.018555"/>
  <use xlink:href="#glyph0-2" x="27.291016" y="317.018555"/>
  <use xlink:href="#glyph0-1" x="29.958008" y="317.018555"/>
</g>
<g style="fill:rgb(0%,0%,0%);fill-opacity:1;">
  <use xlink:href="#glyph0-1" x="21.957031" y="242.057617"/>
  <use xlink:href="#glyph0-2" x="27.291016" y="242.057617"/>
  <use xlink:href="#glyph0-3" x="29.958008" y="242.057617"/>
</g>
<g style="fill:rgb(0%,0%,0%);fill-opacity:1;">
  <use xlink:href="#glyph0-4" x="21.957031" y="167.100586"/>
  <use xlink:href="#glyph0-2" x="27.291016" y="167.100586"/>
  <use xlink:href="#glyph0-1" x="29.958008" y="167.100586"/>
</g>
<g style="fill:rgb(0%,0%,0%);fill-opacity:1;">
  <use xlink:href="#glyph0-4" x="21.957031" y="92.143555"/>
  <use xlink:href="#glyph0-2" x="27.291016" y="92.143555"/>
  <use xlink:href="#glyph0-3" x="29.958008" y="92.143555"/>
</g>
<g style="fill:rgb(0%,0%,0%);fill-opacity:1;">
  <use xlink:href="#glyph0-5" x="21.957031" y="17.182617"/>
  <use xlink:href="#glyph0-2" x="27.291016" y="17.182617"/>
  <use xlink:href="#glyph0-1" x="29.958008" y="17.182617"/>
</g>
<g style="fill:rgb(0%,0%,0%);fill-opacity:1;">
  <use xlink:href="#glyph0-4" x="99.199219" y="338.19043"/>
</g>
<g style="fill:rgb(0%,0%,0%);fill-opacity:1;">
  <use xlink:href="#glyph0-5" x="167.769531" y="338.19043"/>
</g>
<g style="fill:rgb(0%,0%,0%);fill-opacity:1;">
  <use xlink:href="#glyph0-6" x="236.34375" y="338.19043"/>
</g>
<g style="fill:rgb(0%,0%,0%);fill-opacity:1;">
  <use xlink:href="#glyph0-7" x="304.914062" y="338.19043"/>
</g>
<g style="fill:rgb(0%,0%,0%);fill-opacity:1;">
  <use xlink:href="#glyph0-3" x="373.484375" y="338.19043"/>
</g>
<g style="fill:rgb(0%,0%,0%);fill-opacity:1;">
  <use xlink:href="#glyph0-8" x="442.054688" y="338.19043"/>
</g>
<g style="fill:rgb(0%,0%,0%);fill-opacity:1;">
  <use xlink:href="#glyph0-9" x="510.625" y="338.19043"/>
</g>
<g style="fill:rgb(0%,0%,0%);fill-opacity:1;">
  <use xlink:href="#glyph0-10" x="579.195312" y="338.19043"/>
</g>
<g style="fill:rgb(0%,0%,0%);fill-opacity:1;">
  <use xlink:href="#glyph0-11" x="647.765625" y="338.19043"/>
</g>
<g style="fill:rgb(0%,0%,0%);fill-opacity:1;">
  <use xlink:href="#glyph1-1" x="14.412109" y="178.015625"/>
  <use xlink:href="#glyph1-2" x="14.412109" y="170.011719"/>
  <use xlink:href="#glyph1-3" x="14.412109" y="167.347656"/>
  <use xlink:href="#glyph1-4" x="14.412109" y="164.011719"/>
</g>
</g>
</svg>
