<?xml version="1.0" encoding="UTF-8"?>
<svg xmlns="http://www.w3.org/2000/svg" xmlns:xlink="http://www.w3.org/1999/xlink" width="720pt" height="360pt" viewBox="0 0 720 360" version="1.1">
<defs>
<g>
<symbol overflow="visible" id="glyph0-0">
<path style="stroke:none;" d=""/>
</symbol>
<symbol overflow="visible" id="glyph0-1">
<path style="stroke:none;" d="M 2.640625 -6.796875 C 2 -6.796875 1.421875 -6.53125 1.078125 -6.046875 C 0.640625 -5.453125 0.40625 -4.546875 0.40625 -3.296875 C 0.40625 -1 1.1875 0.21875 2.640625 0.21875 C 4.078125 0.21875 4.859375 -1 4.859375 -3.234375 C 4.859375 -4.5625 4.65625 -5.4375 4.203125 -6.046875 C 3.84375 -6.53125 3.28125 -6.796875 2.640625 -6.796875 Z M 2.640625 -6.046875 C 3.546875 -6.046875 4 -5.125 4 -3.3125 C 4 -1.375 3.5625 -0.484375 2.625 -0.484375 C 1.734375 -0.484375 1.28125 -1.421875 1.28125 -3.28125 C 1.28125 -5.140625 1.734375 -6.046875 2.640625 -6.046875 Z M 2.640625 -6.046875 "/>
</symbol>
<symbol overflow="visible" id="glyph0-2">
<path style="stroke:none;" d="M 1.828125 -1 L 0.828125 -1 L 0.828125 0 L 1.828125 0 Z M 1.828125 -1 "/>
</symbol>
<symbol overflow="visible" id="glyph0-3">
<path style="stroke:none;" d="M 4.5625 -6.796875 L 1.0625 -6.796875 L 0.546875 -3.09375 L 1.328125 -3.09375 C 1.71875 -3.5625 2.046875 -3.734375 2.578125 -3.734375 C 3.484375 -3.734375 4.0625 -3.109375 4.0625 -2.09375 C 4.0625 -1.125 3.484375 -0.53125 2.578125 -0.53125 C 1.828125 -0.53125 1.375 -0.90625 1.1875 -1.671875 L 0.328125 -1.671875 C 0.453125 -1.109375 0.546875 -0.84375 0.75 -0.59375 C 1.125 -0.078125 1.828125 0.21875 2.59375 0.21875 C 3.96875 0.21875 4.921875 -0.78125 4.921875 -2.21875 C 4.921875 -3.5625 4.03125 -4.484375 2.71875 -4.484375 C 2.25 -4.484375 1.859375 -4.359375 1.46875 -4.0625 L 1.734375 -5.96875 L 4.5625 -5.96875 Z M 4.5625 -6.796875 "/>
</symbol>
<symbol overflow="visible" id="glyph0-4">
<path style="stroke:none;" d="M 2.484375 -4.84375 L 2.484375 0 L 3.328125 0 L 3.328125 -6.796875 L 2.765625 -6.796875 C 2.46875 -5.75 2.28125 -5.609375 0.984375 -5.453125 L 0.984375 -4.84375 Z M 2.484375 -4.84375 "/>
</symbol>
<symbol overflow="visible" id="glyph0-5">
<path style="stroke:none;" d="M 4.859375 -0.828125 L 1.28125 -0.828125 C 1.359375 -1.390625 1.671875 -1.75 2.5 -2.234375 L 3.46875 -2.75 C 4.40625 -3.265625 4.90625 -3.96875 4.90625 -4.8125 C 4.90625 -5.375 4.671875 -5.90625 4.265625 -6.265625 C 3.859375 -6.625 3.375 -6.796875 2.71875 -6.796875 C 1.859375 -6.796875 1.21875 -6.5 0.84375 -5.921875 C 0.609375 -5.5625 0.5 -5.125 0.484375 -4.4375 L 1.328125 -4.4375 C 1.359375 -4.90625 1.40625 -5.1875 1.53125 -5.40625 C 1.75 -5.8125 2.1875 -6.0625 2.703125 -6.0625 C 3.46875 -6.0625 4.03125 -5.515625 4.03125 -4.78125 C 4.03125 -4.25 3.71875 -3.796875 3.125 -3.4375 L 2.234375 -2.9375 C 0.8125 -2.140625 0.40625 -1.5 0.328125 0 L 4.859375 0 Z M 4.859375 -0.828125 "/>
</symbol>
<symbol overflow="visible" id="glyph0-6">
<path style="stroke:none;" d="M 2.125 -3.125 L 2.578125 -3.125 C 3.515625 -3.125 3.984375 -2.703125 3.984375 -1.890625 C 3.984375 -1.03125 3.46875 -0.53125 2.578125 -0.53125 C 1.65625 -0.53125 1.203125 -0.984375 1.15625 -1.96875 L 0.3125 -1.96875 C 0.34375 -1.421875 0.4375 -1.078125 0.609375 -0.765625 C 0.953125 -0.109375 1.625 0.21875 2.546875 0.21875 C 3.953125 0.21875 4.859375 -0.609375 4.859375 -1.90625 C 4.859375 -2.765625 4.515625 -3.25 3.703125 -3.515625 C 4.34375 -3.765625 4.65625 -4.25 4.65625 -4.9375 C 4.65625 -6.109375 3.875 -6.796875 2.578125 -6.796875 C 1.203125 -6.796875 0.484375 -6.046875 0.453125 -4.609375 L 1.296875 -4.609375 C 1.3125 -5.015625 1.34375 -5.25 1.453125 -5.453125 C 1.640625 -5.828125 2.0625 -6.0625 2.59375 -6.0625 C 3.34375 -6.0625 3.796875 -5.625 3.796875 -4.90625 C 3.796875 -4.421875 3.609375 -4.140625 3.25 -3.984375 C 3.015625 -3.890625 2.71875 -3.84375 2.125 -3.84375 Z M 2.125 -3.125 "/>
</symbol>
<symbol overflow="visible" id="glyph0-7">
<path style="stroke:none;" d="M 3.140625 -1.625 L 3.140625 0 L 3.984375 0 L 3.984375 -1.625 L 4.984375 -1.625 L 4.984375 -2.390625 L 3.984375 -2.390625 L 3.984375 -6.796875 L 3.359375 -6.796875 L 0.265625 -2.515625 L 0.265625 -1.625 Z M 3.140625 -2.390625 L 1 -2.390625 L 3.140625 -5.359375 Z M 3.140625 -2.390625 "/>
</symbol>
<symbol overflow="visible" id="glyph0-8">
<path style="stroke:none;" d="M 4.78125 -5.03125 C 4.609375 -6.140625 3.890625 -6.796875 2.84375 -6.796875 C 2.09375 -6.796875 1.421875 -6.4375 1.03125 -5.828125 C 0.609375 -5.171875 0.40625 -4.34375 0.40625 -3.09375 C 0.40625 -1.953125 0.578125 -1.234375 0.984375 -0.625 C 1.359375 -0.078125 1.953125 0.21875 2.703125 0.21875 C 3.984375 0.21875 4.921875 -0.734375 4.921875 -2.078125 C 4.921875 -3.34375 4.0625 -4.234375 2.84375 -4.234375 C 2.171875 -4.234375 1.640625 -3.96875 1.28125 -3.46875 C 1.28125 -5.125 1.828125 -6.046875 2.796875 -6.046875 C 3.390625 -6.046875 3.796875 -5.671875 3.9375 -5.03125 Z M 2.734375 -3.484375 C 3.546875 -3.484375 4.0625 -2.921875 4.0625 -2 C 4.0625 -1.15625 3.484375 -0.53125 2.703125 -0.53125 C 1.921875 -0.53125 1.328125 -1.1875 1.328125 -2.046875 C 1.328125 -2.890625 1.90625 -3.484375 2.734375 -3.484375 Z M 2.734375 -3.484375 "/>
</symbol>
<symbol overflow="visible" id="glyph0-9">
<path style="stroke:none;" d="M 4.984375 -6.796875 L 0.4375 -6.796875 L 0.4375 -5.96875 L 4.109375 -5.96875 C 2.5 -3.65625 1.828125 -2.234375 1.328125 0 L 2.21875 0 C 2.59375 -2.171875 3.453125 -4.046875 4.984375 -6.09375 Z M 4.984375 -6.796875 "/>
</symbol>
<symbol overflow="visible" id="glyph0-10">
<path style="stroke:none;" d="M 3.75 -3.578125 C 4.453125 -4 4.6875 -4.34375 4.6875 -4.984375 C 4.6875 -6.046875 3.84375 -6.796875 2.640625 -6.796875 C 1.4375 -6.796875 0.59375 -6.046875 0.59375 -4.984375 C 0.59375 -4.359375 0.828125 -4.015625 1.515625 -3.578125 C 0.734375 -3.203125 0.359375 -2.640625 0.359375 -1.890625 C 0.359375 -0.640625 1.296875 0.21875 2.640625 0.21875 C 3.984375 0.21875 4.921875 -0.640625 4.921875 -1.875 C 4.921875 -2.640625 4.53125 -3.203125 3.75 -3.578125 Z M 2.640625 -6.046875 C 3.359375 -6.046875 3.8125 -5.625 3.8125 -4.96875 C 3.8125 -4.34375 3.34375 -3.921875 2.640625 -3.921875 C 1.921875 -3.921875 1.453125 -4.34375 1.453125 -4.984375 C 1.453125 -5.625 1.921875 -6.046875 2.640625 -6.046875 Z M 2.640625 -3.203125 C 3.484375 -3.203125 4.0625 -2.671875 4.0625 -1.875 C 4.0625 -1.0625 3.484375 -0.53125 2.625 -0.53125 C 1.796875 -0.53125 1.21875 -1.078125 1.21875 -1.875 C 1.21875 -2.671875 1.796875 -3.203125 2.640625 -3.203125 Z M 2.640625 -3.203125 "/>
</symbol>
<symbol overflow="visible" id="glyph0-11">
<path style="stroke:none;" d="M 0.515625 -1.546875 C 0.671875 -0.4375 1.40625 0.21875 2.4375 0.21875 C 3.1875 0.21875 3.859375 -0.140625 4.265625 -0.75 C 4.6875 -1.40625 4.890625 -2.25 4.890625 -3.484375 C 4.890625 -4.625 4.703125 -5.359375 4.3125 -5.953125 C 3.9375 -6.5 3.34375 -6.796875 2.59375 -6.796875 C 1.296875 -6.796875 0.359375 -5.84375 0.359375 -4.515625 C 0.359375 -3.25 1.234375 -2.34375 2.453125 -2.34375 C 3.09375 -2.34375 3.5625 -2.578125 4.015625 -3.109375 C 4 -1.453125 3.46875 -0.53125 2.5 -0.53125 C 1.90625 -0.53125 1.484375 -0.90625 1.359375 -1.546875 Z M 2.578125 -6.0625 C 3.375 -6.0625 3.96875 -5.40625 3.96875 -4.53125 C 3.96875 -3.6875 3.375 -3.09375 2.546875 -3.09375 C 1.734375 -3.09375 1.234375 -3.671875 1.234375 -4.578125 C 1.234375 -5.4375 1.796875 -6.0625 2.578125 -6.0625 Z M 2.578125 -6.0625 "/>
</symbol>
<symbol overflow="visible" id="glyph1-0">
<path style="stroke:none;" d=""/>
</symbol>
<symbol overflow="visible" id="glyph1-1">
<path style="stroke:none;" d="M 0 -0.953125 L 0 -4.890625 C 0 -5.71875 -0.234375 -6.34375 -0.734375 -6.796875 C -1.1875 -7.234375 -1.8125 -7.46875 -2.5 -7.46875 C -3.546875 -7.46875 -4.1875 -7 -4.625 -5.875 C -4.984375 -6.671875 -5.640625 -7.09375 -6.53125 -7.09375 C -7.15625 -7.09375 -7.734375 -6.859375 -8.140625 -6.390625 C -8.5625 -5.9375 -8.75 -5.34375 -8.75 -4.5 L -8.75 -0.953125 Z M -4.984375 -2.0625 L -7.765625 -2.0625 L -7.765625 -4.21875 C -7.765625 -4.84375 -7.6875 -5.203125 -7.453125 -5.5 C -7.21875 -5.8125 -6.859375 -5.96875 -6.375 -5.96875 C -5.90625 -5.96875 -5.53125 -5.8125 -5.296875 -5.5 C -5.0625 -5.203125 -4.984375 -4.84375 -4.984375 -4.21875 Z M -0.984375 -2.0625 L -4 -2.0625 L -4 -4.78125 C -4 -5.328125 -3.859375 -5.6875 -3.578125 -5.953125 C -3.296875 -6.21875 -2.921875 -6.359375 -2.484375 -6.359375 C -2.0625 -6.359375 -1.6875 -6.21875 -1.40625 -5.953125 C -1.109375 -5.6875 -0.984375 -5.328125 -0.984375 -4.78125 Z M -0.984375 -2.0625 "/>
</symbol>
<symbol overflow="visible" id="glyph1-2">
<path style="stroke:none;" d="M -6.28125 -1.796875 L -6.28125 -0.796875 L 0 -0.796875 L 0 -1.796875 Z M -8.75 -1.796875 L -8.75 -0.796875 L -7.484375 -0.796875 L -7.484375 -1.796875 Z M -8.75 -1.796875 "/>
</symbol>
<symbol overflow="visible" id="glyph1-3">
<path style="stroke:none;" d="M -6.28125 -3.046875 L -6.28125 -2.015625 L -8.015625 -2.015625 L -8.015625 -1.015625 L -6.28125 -1.015625 L -6.28125 -0.171875 L -5.46875 -0.171875 L -5.46875 -1.015625 L -0.71875 -1.015625 C -0.078125 -1.015625 0.28125 -1.453125 0.28125 -2.234375 C 0.28125 -2.46875 0.25 -2.71875 0.1875 -3.046875 L -0.640625 -3.046875 C -0.609375 -2.921875 -0.59375 -2.765625 -0.59375 -2.5625 C -0.59375 -2.140625 -0.71875 -2.015625 -1.15625 -2.015625 L -5.46875 -2.015625 L -5.46875 -3.046875 Z M -6.28125 -3.046875 "/>
</symbol>
<symbol overflow="visible" id="glyph1-4">
<path style="stroke:none;" d="M -4.53125 -5.25 C -5.765625 -5.25 -6.46875 -4.421875 -6.46875 -2.96875 C -6.46875 -1.515625 -5.71875 -0.5625 -4.546875 -0.5625 C -3.5625 -0.5625 -3.09375 -1.0625 -2.734375 -2.5625 L -2.515625 -3.484375 C -2.34375 -4.1875 -2.09375 -4.46875 -1.625 -4.46875 C -1.046875 -4.46875 -0.640625 -3.875 -0.640625 -3 C -0.640625 -2.453125 -0.796875 -2 -1.0625 -1.75 C -1.25 -1.59375 -1.421875 -1.53125 -1.875 -1.46875 L -1.875 -0.40625 C -0.421875 -0.453125 0.28125 -1.265625 0.28125 -2.921875 C 0.28125 -4.5 -0.5 -5.515625 -1.71875 -5.515625 C -2.65625 -5.515625 -3.171875 -4.984375 -3.46875 -3.734375 L -3.703125 -2.765625 C -3.890625 -1.953125 -4.15625 -1.609375 -4.59375 -1.609375 C -5.171875 -1.609375 -5.546875 -2.125 -5.546875 -2.9375 C -5.546875 -3.75 -5.203125 -4.171875 -4.53125 -4.203125 Z M -4.53125 -5.25 "/>
</symbol>
</g>
</defs>
<g id="surface114121">
<rect x="0" y="0" width="720" height="360" style="fill:rgb(100%,100%,100%);fill-opacity:1;stroke:none;"/>
<path style=" stroke:none;fill-rule:nonzero;fill:rgb(6.27451%,58.823529%,28.235294%);fill-opacity:1;" d="M 69.628906 307.308594 L 69.6875 307.300781 L 92.722656 298.179688 L 99.722656 298.179688 L 122.875 307.316406 L 114.738281 307.316406 L 108.9375 304.933594 L 83.507812 304.933594 L 77.820312 307.308594 L 69.628906 307.308594 L 85.957031 303.945312 L 106.605469 303.9375 L 96.308594 299.671875 L 96.195312 299.664062 L 96.082031 299.6875 L 85.898438 303.9375 L 85.957031 303.945312 Z M 69.628906 307.308594 "/>
<path style=" stroke:none;fill-rule:nonzero;fill:rgb(14.509804%,36.078431%,60%);fill-opacity:1;" d="M 69.628906 313.164062 L 69.695312 313.164062 L 69.695312 313.117188 L 69.890625 313.042969 L 70.34375 312.949219 L 70.796875 312.882812 L 71.96875 312.769531 L 73.589844 312.65625 L 75.277344 312.570312 L 76.511719 312.519531 L 77.617188 312.484375 L 80.148438 312.410156 L 81.773438 312.375 L 83.523438 312.339844 L 85.667969 312.308594 L 87.226562 312.289062 L 90.730469 312.257812 L 93.328125 312.242188 L 95.34375 312.238281 L 99.691406 312.238281 L 102.289062 312.246094 L 104.171875 312.253906 L 106.25 312.269531 L 108.003906 312.289062 L 111.054688 312.332031 L 113.78125 312.386719 L 115.015625 312.417969 L 116.964844 312.476562 L 118.457031 312.535156 L 119.496094 312.585938 L 120.664062 312.65625 L 121.703125 312.746094 L 122.484375 312.84375 L 122.875 312.929688 L 113.78125 312.929688 L 113.328125 312.851562 L 112.808594 312.789062 L 111.835938 312.710938 L 110.859375 312.652344 L 109.496094 312.597656 L 108.265625 312.558594 L 106.574219 312.523438 L 105.082031 312.5 L 103.523438 312.484375 L 102.03125 312.472656 L 99.171875 312.460938 L 95.863281 312.460938 L 94.628906 312.464844 L 92.097656 312.480469 L 90.730469 312.492188 L 88.785156 312.519531 L 87.421875 312.542969 L 85.796875 312.582031 L 84.695312 312.617188 L 83.328125 312.667969 L 82.355469 312.710938 L 81.253906 312.777344 L 80.601562 312.824219 L 80.019531 312.878906 L 79.5 312.945312 L 79.109375 313.011719 L 78.851562 313.085938 L 78.71875 313.15625 L 78.71875 313.457031 L 78.851562 313.527344 L 79.175781 313.609375 L 80.019531 313.730469 L 81.253906 313.832031 L 82.679688 313.914062 L 84.042969 313.972656 L 84.824219 314 L 85.863281 314.03125 L 87.484375 314.070312 L 89.824219 314.109375 L 91.1875 314.125 L 93.265625 314.140625 L 95.40625 314.148438 L 98.265625 314.148438 L 100.796875 314.140625 L 102.484375 314.128906 L 104.238281 314.113281 L 106.640625 314.082031 L 108.132812 314.050781 L 109.433594 314.015625 L 110.40625 313.976562 L 111.054688 313.945312 L 112.03125 313.886719 L 112.808594 313.820312 L 113.394531 313.75 L 113.78125 313.683594 L 122.875 313.683594 L 122.484375 313.761719 L 121.898438 313.839844 L 121.316406 313.894531 L 120.40625 313.964844 L 119.367188 314.023438 L 117.875 314.089844 L 116.640625 314.136719 L 115.015625 314.183594 L 113.523438 314.222656 L 111.898438 314.253906 L 109.496094 314.292969 L 107.9375 314.3125 L 106.25 314.332031 L 104.238281 314.347656 L 101.707031 314.359375 L 98.976562 314.367188 L 96.445312 314.371094 L 93.71875 314.367188 L 91.707031 314.359375 L 89.042969 314.339844 L 85.730469 314.304688 L 83.328125 314.269531 L 81.445312 314.230469 L 79.824219 314.191406 L 78.003906 314.140625 L 75.667969 314.054688 L 74.238281 313.988281 L 73.265625 313.933594 L 72.160156 313.859375 L 71.382812 313.789062 L 70.472656 313.679688 L 69.824219 313.542969 L 69.628906 313.433594 Z M 69.628906 313.164062 "/>
<path style=" stroke:none;fill-rule:nonzero;fill:rgb(96.862745%,70.196078%,16.862745%);fill-opacity:1;" d="M 69.628906 291.367188 L 69.695312 291.359375 L 69.695312 291.179688 L 69.953125 290.773438 L 70.601562 290.214844 L 71.449219 289.757812 L 72.355469 289.398438 L 72.941406 289.207031 L 73.914062 288.9375 L 74.757812 288.742188 L 76.902344 288.335938 L 79.628906 287.957031 L 81.121094 287.796875 L 82.808594 287.644531 L 85.214844 287.472656 L 86.316406 287.410156 L 89.691406 287.265625 L 93.523438 287.175781 L 97.746094 287.148438 L 99.691406 287.15625 L 102.355469 287.195312 L 105.992188 287.292969 L 108.070312 287.382812 L 109.691406 287.472656 L 111.378906 287.589844 L 113.457031 287.769531 L 115.40625 287.984375 L 116.964844 288.199219 L 118.523438 288.472656 L 119.820312 288.757812 L 120.925781 289.074219 L 121.898438 289.453125 L 122.484375 289.765625 L 122.875 290.082031 L 113.847656 290.082031 L 113.328125 289.765625 L 112.742188 289.523438 L 111.769531 289.226562 L 110.796875 289.011719 L 109.820312 288.839844 L 108.003906 288.605469 L 106.445312 288.460938 L 104.496094 288.335938 L 102.613281 288.253906 L 100.472656 288.199219 L 99.171875 288.183594 L 95.730469 288.183594 L 92.613281 288.246094 L 90.796875 288.316406 L 89.5 288.390625 L 87.679688 288.523438 L 86.578125 288.632812 L 85.925781 288.703125 L 83.980469 288.984375 L 82.679688 289.234375 L 81.964844 289.40625 L 81.058594 289.675781 L 80.40625 289.917969 L 79.695312 290.277344 L 79.304688 290.546875 L 78.785156 291.160156 L 78.71875 292.78125 L 78.914062 293.121094 L 79.304688 293.488281 L 79.824219 293.8125 L 80.601562 294.15625 L 81.382812 294.417969 L 82.746094 294.765625 L 83.914062 295 L 84.824219 295.152344 L 86.578125 295.398438 L 87.289062 295.476562 L 88.980469 295.640625 L 90.730469 295.765625 L 92.875 295.875 L 94.5 295.929688 L 97.09375 295.972656 L 100.40625 295.972656 L 104.304688 295.917969 L 106.769531 295.847656 L 108.457031 295.773438 L 109.5625 295.710938 L 110.925781 295.613281 L 111.898438 295.523438 L 112.808594 295.425781 L 113.914062 295.269531 L 113.914062 293.121094 L 97.875 293.113281 L 97.875 292.105469 L 122.808594 292.097656 L 122.875 295.613281 L 121.511719 295.855469 L 119.820312 296.089844 L 118.199219 296.269531 L 116.511719 296.421875 L 114.109375 296.59375 L 112.160156 296.703125 L 109.171875 296.828125 L 106.445312 296.910156 L 103.589844 296.960938 L 101.054688 296.988281 L 98.070312 297 L 95.40625 296.980469 L 92.550781 296.925781 L 90.277344 296.855469 L 88.199219 296.765625 L 86.121094 296.648438 L 83.523438 296.457031 L 81.835938 296.304688 L 80.082031 296.117188 L 78.332031 295.890625 L 76.773438 295.648438 L 75.734375 295.460938 L 74.695312 295.246094 L 73.589844 294.972656 L 72.550781 294.667969 L 71.773438 294.390625 L 71.058594 294.074219 L 70.539062 293.777344 L 70.019531 293.375 L 69.757812 293.050781 L 69.628906 292.769531 Z M 69.628906 291.367188 "/>
<path style=" stroke:none;fill-rule:nonzero;fill:rgb(83.921569%,15.686275%,22.352941%);fill-opacity:1;" d="M 69.628906 308.496094 L 122.875 308.496094 L 122.875 308.769531 L 100.683594 308.773438 L 100.683594 311.058594 L 91.753906 311.058594 L 91.753906 308.777344 L 91.625 308.769531 L 69.628906 308.769531 Z M 69.628906 308.496094 "/>
<path style=" stroke:none;fill-rule:nonzero;fill:rgb(96.862745%,70.196078%,16.862745%);fill-opacity:1;" d="M 125.675781 146.460938 L 125.742188 146.191406 L 125.742188 140.828125 L 126 128.757812 L 126.648438 112.128906 L 127.492188 98.449219 L 128.402344 87.71875 L 128.988281 82.085938 L 129.960938 74.039062 L 130.804688 68.140625 L 132.949219 56.070312 L 135.675781 44.804688 L 137.167969 39.976562 L 138.855469 35.414062 L 141.257812 30.320312 L 142.363281 28.441406 L 145.738281 24.148438 L 149.570312 21.46875 L 153.792969 20.664062 L 155.738281 20.929688 L 158.402344 22.003906 L 162.039062 24.953125 L 164.117188 27.636719 L 165.738281 30.320312 L 167.425781 33.804688 L 169.503906 39.171875 L 171.453125 45.609375 L 173.011719 52.046875 L 174.570312 60.09375 L 175.867188 68.675781 L 176.972656 78.0625 L 177.945312 89.328125 L 178.53125 98.714844 L 178.917969 108.105469 L 169.894531 108.105469 L 169.375 98.714844 L 168.789062 91.476562 L 167.816406 82.625 L 166.84375 76.1875 L 165.867188 71.089844 L 164.050781 64.117188 L 162.492188 59.824219 L 160.542969 56.070312 L 158.660156 53.65625 L 156.519531 52.046875 L 155.21875 51.507812 L 151.777344 51.507812 L 148.660156 53.386719 L 146.84375 55.53125 L 145.542969 57.679688 L 143.726562 61.703125 L 142.621094 64.921875 L 141.972656 67.066406 L 140.027344 75.382812 L 138.726562 82.890625 L 138.011719 87.988281 L 137.105469 96.035156 L 136.453125 103.277344 L 135.738281 114.003906 L 135.351562 122.050781 L 134.832031 140.292969 L 134.765625 188.574219 L 134.960938 198.765625 L 135.351562 209.761719 L 135.871094 219.417969 L 136.648438 229.609375 L 137.429688 237.390625 L 138.792969 247.851562 L 139.960938 254.824219 L 140.871094 259.382812 L 142.621094 266.625 L 143.335938 269.039062 L 145.023438 273.867188 L 146.777344 277.625 L 148.921875 280.84375 L 150.542969 282.453125 L 153.140625 283.792969 L 156.453125 283.792969 L 160.347656 282.183594 L 162.816406 280.039062 L 164.503906 277.890625 L 165.609375 276.015625 L 166.972656 273.0625 L 167.945312 270.382812 L 168.855469 267.429688 L 169.960938 262.871094 L 169.960938 198.765625 L 153.921875 198.496094 L 153.921875 168.457031 L 178.855469 168.1875 L 178.917969 273.0625 L 177.554688 280.304688 L 175.867188 287.28125 L 174.246094 292.644531 L 172.554688 297.203125 L 170.152344 302.300781 L 168.207031 305.519531 L 165.21875 309.273438 L 162.492188 311.6875 L 159.636719 313.296875 L 157.101562 314.101562 L 154.117188 314.371094 L 151.453125 313.835938 L 148.597656 312.226562 L 146.324219 310.078125 L 144.246094 307.398438 L 142.167969 303.910156 L 139.570312 298.277344 L 137.882812 293.71875 L 136.128906 288.085938 L 134.375 281.378906 L 132.816406 274.136719 L 131.777344 268.503906 L 130.742188 262.066406 L 129.636719 254.019531 L 128.597656 244.898438 L 127.820312 236.585938 L 127.105469 227.195312 L 126.585938 218.34375 L 126.066406 206.277344 L 125.804688 196.621094 L 125.675781 188.304688 Z M 125.675781 146.460938 "/>
<path style=" stroke:none;fill-rule:nonzero;fill:rgb(6.27451%,58.823529%,28.235294%);fill-opacity:1;" d="M 181.722656 305.519531 L 181.777344 305.285156 L 204.816406 57.039062 L 211.8125 57.039062 L 234.964844 305.753906 L 226.832031 305.753906 L 221.03125 240.832031 L 195.601562 240.832031 L 189.914062 305.519531 L 181.722656 305.519531 L 198.046875 213.976562 L 218.695312 213.742188 L 208.402344 97.675781 L 208.289062 97.441406 L 208.171875 98.140625 L 197.992188 213.742188 L 198.046875 213.976562 Z M 181.722656 305.519531 "/>
<path style=" stroke:none;fill-rule:nonzero;fill:rgb(14.509804%,36.078431%,60%);fill-opacity:1;" d="M 181.722656 313.390625 L 181.785156 313.386719 L 181.785156 313.367188 L 181.980469 313.332031 L 182.4375 313.289062 L 182.890625 313.261719 L 184.058594 313.207031 L 185.683594 313.15625 L 187.371094 313.117188 L 188.605469 313.09375 L 189.707031 313.078125 L 192.242188 313.042969 L 193.863281 313.027344 L 195.617188 313.011719 L 197.761719 312.996094 L 199.320312 312.988281 L 202.824219 312.972656 L 205.421875 312.96875 L 207.433594 312.964844 L 211.785156 312.964844 L 214.382812 312.96875 L 216.265625 312.972656 L 218.34375 312.980469 L 220.097656 312.988281 L 223.148438 313.007812 L 225.875 313.03125 L 227.109375 313.046875 L 229.058594 313.074219 L 230.550781 313.101562 L 231.589844 313.125 L 232.757812 313.15625 L 233.796875 313.199219 L 234.578125 313.242188 L 234.964844 313.28125 L 225.875 313.28125 L 225.421875 313.246094 L 224.902344 313.21875 L 223.925781 313.179688 L 222.953125 313.15625 L 221.589844 313.128906 L 220.355469 313.113281 L 218.667969 313.097656 L 217.175781 313.085938 L 215.617188 313.078125 L 214.121094 313.070312 L 211.265625 313.066406 L 207.953125 313.066406 L 206.722656 313.070312 L 204.1875 313.074219 L 202.824219 313.082031 L 200.875 313.09375 L 199.511719 313.105469 L 197.890625 313.125 L 196.785156 313.140625 L 195.421875 313.160156 L 194.449219 313.183594 L 193.34375 313.210938 L 192.695312 313.234375 L 192.109375 313.257812 L 191.589844 313.289062 L 191.203125 313.320312 L 190.941406 313.351562 L 190.8125 313.382812 L 190.8125 313.523438 L 190.941406 313.554688 L 191.265625 313.59375 L 192.109375 313.648438 L 193.34375 313.695312 L 194.773438 313.730469 L 196.136719 313.757812 L 196.917969 313.769531 L 197.953125 313.785156 L 199.578125 313.800781 L 201.914062 313.820312 L 203.28125 313.828125 L 205.355469 313.835938 L 207.5 313.839844 L 210.355469 313.839844 L 212.890625 313.835938 L 214.578125 313.832031 L 216.332031 313.824219 L 218.734375 313.808594 L 220.226562 313.792969 L 221.523438 313.777344 L 222.5 313.761719 L 223.148438 313.746094 L 224.121094 313.71875 L 224.902344 313.6875 L 225.484375 313.65625 L 225.875 313.625 L 234.964844 313.625 L 234.578125 313.660156 L 233.992188 313.695312 L 233.40625 313.722656 L 232.5 313.753906 L 231.460938 313.78125 L 229.964844 313.8125 L 228.734375 313.832031 L 227.109375 313.855469 L 225.617188 313.871094 L 223.992188 313.886719 L 221.589844 313.90625 L 220.03125 313.914062 L 218.34375 313.921875 L 216.332031 313.929688 L 213.796875 313.933594 L 211.070312 313.9375 L 208.539062 313.941406 L 205.8125 313.9375 L 203.800781 313.933594 L 201.136719 313.925781 L 197.824219 313.910156 L 195.421875 313.894531 L 193.539062 313.875 L 191.917969 313.859375 L 190.097656 313.835938 L 187.761719 313.796875 L 186.332031 313.765625 L 185.359375 313.738281 L 184.253906 313.707031 L 183.476562 313.675781 L 182.566406 313.625 L 181.917969 313.5625 L 181.722656 313.511719 Z M 181.722656 313.390625 "/>
<path style=" stroke:none;fill-rule:nonzero;fill:rgb(83.921569%,15.686275%,22.352941%);fill-opacity:1;" d="M 181.722656 306.933594 L 234.964844 306.933594 L 234.964844 307.453125 L 212.777344 307.457031 L 212.777344 311.785156 L 203.847656 311.785156 L 203.847656 307.460938 L 203.71875 307.453125 L 181.722656 307.453125 Z M 181.722656 306.933594 "/>
<path style=" stroke:none;fill-rule:nonzero;fill:rgb(6.27451%,58.823529%,28.235294%);fill-opacity:1;" d="M 237.769531 313.132812 L 237.824219 312.863281 L 260.863281 25.414062 L 267.859375 25.414062 L 291.011719 313.402344 L 282.878906 313.402344 L 277.074219 238.230469 L 251.648438 238.230469 L 245.960938 313.132812 L 237.769531 313.132812 L 254.09375 207.132812 L 274.742188 206.863281 L 264.449219 72.464844 L 264.332031 72.195312 L 264.21875 73.007812 L 254.039062 206.863281 L 254.09375 207.132812 Z M 237.769531 313.132812 "/>
<path style=" stroke:none;fill-rule:nonzero;fill:rgb(83.921569%,15.686275%,22.352941%);fill-opacity:1;" d="M 293.816406 20.664062 L 347.058594 20.664062 L 347.058594 52.101562 L 324.867188 52.378906 L 324.867188 314.371094 L 315.941406 314.371094 L 315.941406 52.652344 L 315.8125 52.101562 L 293.816406 52.101562 Z M 293.816406 20.664062 "/>
<path style=" stroke:none;fill-rule:nonzero;fill:rgb(6.27451%,58.823529%,28.235294%);fill-opacity:1;" d="M 349.859375 314.34375 L 349.917969 314.316406 L 372.957031 285.558594 L 379.953125 285.558594 L 403.105469 314.371094 L 394.972656 314.371094 L 389.167969 306.851562 L 363.742188 306.851562 L 358.050781 314.34375 L 349.859375 314.34375 L 366.1875 303.738281 L 386.835938 303.710938 L 376.539062 290.265625 L 376.425781 290.238281 L 376.3125 290.320312 L 366.128906 303.710938 L 366.1875 303.738281 Z M 349.859375 314.34375 "/>
<path style=" stroke:none;fill-rule:nonzero;fill:rgb(14.509804%,36.078431%,60%);fill-opacity:1;" d="M 349.859375 185.144531 L 349.925781 184.984375 L 349.925781 181.132812 L 350.121094 175.03125 L 350.574219 167.324219 L 351.03125 162.023438 L 352.199219 152.550781 L 353.820312 143.398438 L 355.511719 136.332031 L 356.742188 132.15625 L 357.847656 128.945312 L 360.378906 123.003906 L 362.003906 119.953125 L 363.757812 117.222656 L 365.898438 114.496094 L 367.457031 112.890625 L 370.964844 110.320312 L 373.5625 109.195312 L 375.574219 108.714844 L 379.925781 108.714844 L 382.523438 109.355469 L 384.40625 110.160156 L 386.484375 111.445312 L 388.234375 112.890625 L 391.289062 116.421875 L 394.015625 120.917969 L 395.25 123.488281 L 397.195312 128.464844 L 398.691406 133.28125 L 399.730469 137.457031 L 400.898438 143.398438 L 401.9375 150.625 L 402.714844 158.8125 L 403.105469 165.71875 L 394.015625 165.71875 L 393.558594 159.292969 L 393.039062 154.316406 L 392.066406 147.734375 L 391.09375 143.078125 L 389.730469 138.417969 L 388.496094 135.367188 L 386.808594 132.316406 L 385.3125 130.390625 L 383.753906 128.945312 L 382.261719 127.984375 L 379.40625 127.019531 L 376.09375 127.019531 L 374.859375 127.339844 L 372.328125 128.625 L 370.964844 129.75 L 369.015625 131.996094 L 367.652344 134.085938 L 366.027344 137.296875 L 364.925781 140.027344 L 363.5625 144.199219 L 362.585938 147.894531 L 361.484375 153.191406 L 360.835938 157.207031 L 360.25 161.703125 L 359.730469 167 L 359.339844 172.621094 L 359.082031 178.5625 L 358.953125 184.34375 L 358.953125 209.230469 L 359.082031 215.011719 L 359.40625 221.757812 L 360.25 231.550781 L 361.484375 240.0625 L 362.914062 246.804688 L 364.277344 251.621094 L 365.054688 253.871094 L 366.09375 256.441406 L 367.71875 259.652344 L 370.054688 262.863281 L 371.417969 264.148438 L 373.496094 265.433594 L 375.640625 266.074219 L 378.496094 266.074219 L 381.027344 265.433594 L 382.714844 264.628906 L 384.46875 263.34375 L 386.871094 260.613281 L 388.367188 258.046875 L 389.664062 254.996094 L 390.636719 251.945312 L 391.289062 249.375 L 392.261719 244.398438 L 393.039062 238.9375 L 393.625 233.316406 L 394.015625 227.859375 L 403.105469 227.859375 L 402.714844 234.28125 L 402.132812 240.542969 L 401.546875 245.199219 L 400.636719 250.820312 L 399.597656 255.796875 L 398.105469 261.417969 L 396.871094 265.109375 L 395.25 269.125 L 393.753906 272.175781 L 392.132812 274.90625 L 389.730469 278.117188 L 388.171875 279.722656 L 386.484375 281.167969 L 384.46875 282.453125 L 381.9375 283.578125 L 379.210938 284.21875 L 376.679688 284.378906 L 373.949219 284.058594 L 371.9375 283.414062 L 369.277344 281.972656 L 365.964844 279.082031 L 363.5625 276.03125 L 361.679688 272.980469 L 360.054688 269.765625 L 358.238281 265.433594 L 355.898438 258.367188 L 354.472656 252.90625 L 353.496094 248.410156 L 352.394531 242.148438 L 351.613281 236.527344 L 350.707031 227.535156 L 350.054688 216.136719 L 349.859375 207.304688 Z M 349.859375 185.144531 "/>
<path style=" stroke:none;fill-rule:nonzero;fill:rgb(6.27451%,58.823529%,28.235294%);fill-opacity:1;" d="M 405.90625 314.371094 L 405.964844 314.371094 L 429.003906 314.109375 L 436 314.109375 L 459.152344 314.371094 L 451.015625 314.371094 L 445.214844 314.300781 L 419.789062 314.300781 L 414.097656 314.371094 L 405.90625 314.371094 L 422.234375 314.273438 L 442.882812 314.273438 L 432.585938 314.152344 L 432.359375 314.152344 L 422.175781 314.273438 L 422.234375 314.273438 Z M 405.90625 314.371094 "/>
<path style=" stroke:none;fill-rule:nonzero;fill:rgb(83.921569%,15.686275%,22.352941%);fill-opacity:1;" d="M 405.90625 27.359375 L 459.152344 27.359375 L 459.152344 57.925781 L 436.960938 58.195312 L 436.960938 312.929688 L 428.035156 312.929688 L 428.035156 58.464844 L 427.902344 57.925781 L 405.90625 57.925781 Z M 405.90625 27.359375 "/>
<path style=" stroke:none;fill-rule:nonzero;fill:rgb(6.27451%,58.823529%,28.235294%);fill-opacity:1;" d="M 461.953125 301.980469 L 462.011719 301.96875 L 485.050781 286.933594 L 492.046875 286.933594 L 515.199219 301.996094 L 507.0625 301.996094 L 501.261719 298.066406 L 475.832031 298.066406 L 470.144531 301.980469 L 461.953125 301.980469 L 478.28125 296.4375 L 498.929688 296.425781 L 488.632812 289.394531 L 488.519531 289.382812 L 488.40625 289.421875 L 478.222656 296.425781 L 478.28125 296.4375 Z M 461.953125 301.980469 "/>
<path style=" stroke:none;fill-rule:nonzero;fill:rgb(14.509804%,36.078431%,60%);fill-opacity:1;" d="M 461.953125 305.914062 L 462.019531 305.910156 L 462.019531 305.773438 L 462.214844 305.554688 L 462.667969 305.277344 L 463.121094 305.085938 L 464.292969 304.746094 L 465.914062 304.417969 L 467.601562 304.164062 L 468.835938 304.015625 L 469.941406 303.902344 L 472.472656 303.6875 L 474.097656 303.578125 L 475.847656 303.480469 L 477.992188 303.382812 L 479.550781 303.324219 L 483.058594 303.234375 L 485.652344 303.191406 L 487.667969 303.175781 L 492.015625 303.175781 L 494.613281 303.199219 L 496.496094 303.226562 L 498.574219 303.273438 L 500.328125 303.324219 L 503.378906 303.453125 L 506.109375 303.613281 L 507.339844 303.707031 L 509.289062 303.882812 L 510.78125 304.054688 L 511.820312 304.207031 L 512.992188 304.417969 L 514.027344 304.679688 L 514.808594 304.972656 L 515.199219 305.21875 L 506.109375 305.21875 L 505.652344 304.988281 L 505.132812 304.808594 L 504.160156 304.574219 L 503.1875 304.40625 L 501.820312 304.242188 L 500.589844 304.132812 L 498.898438 304.023438 L 497.40625 303.953125 L 495.847656 303.902344 L 494.355469 303.867188 L 491.496094 303.832031 L 488.1875 303.832031 L 486.953125 303.84375 L 484.421875 303.890625 L 483.058594 303.929688 L 481.109375 304.011719 L 479.746094 304.085938 L 478.121094 304.199219 L 477.019531 304.296875 L 475.65625 304.449219 L 474.679688 304.582031 L 473.578125 304.769531 L 472.925781 304.914062 L 472.34375 305.074219 L 471.824219 305.265625 L 471.433594 305.464844 L 471.175781 305.679688 L 471.042969 305.886719 L 471.042969 306.777344 L 471.175781 306.984375 L 471.5 307.226562 L 472.34375 307.578125 L 473.578125 307.882812 L 475.003906 308.125 L 476.367188 308.296875 L 477.148438 308.378906 L 478.1875 308.472656 L 479.808594 308.585938 L 482.148438 308.703125 L 483.511719 308.746094 L 485.589844 308.792969 L 487.730469 308.816406 L 490.589844 308.816406 L 493.121094 308.792969 L 494.808594 308.765625 L 496.5625 308.71875 L 498.964844 308.621094 L 500.457031 308.527344 L 501.757812 308.417969 L 502.730469 308.308594 L 503.378906 308.21875 L 504.355469 308.039062 L 505.132812 307.84375 L 505.71875 307.640625 L 506.109375 307.445312 L 515.199219 307.445312 L 514.808594 307.675781 L 514.222656 307.902344 L 513.640625 308.066406 L 512.730469 308.269531 L 511.691406 308.449219 L 510.199219 308.648438 L 508.964844 308.78125 L 507.339844 308.925781 L 505.847656 309.035156 L 504.222656 309.132812 L 501.820312 309.246094 L 500.261719 309.304688 L 498.574219 309.355469 L 496.5625 309.402344 L 494.03125 309.445312 L 491.304688 309.464844 L 488.769531 309.472656 L 486.042969 309.460938 L 484.03125 309.4375 L 481.367188 309.386719 L 478.058594 309.28125 L 475.65625 309.171875 L 473.769531 309.0625 L 472.148438 308.949219 L 470.332031 308.792969 L 467.992188 308.539062 L 466.5625 308.34375 L 465.589844 308.183594 L 464.484375 307.957031 L 463.707031 307.757812 L 462.796875 307.433594 L 462.148438 307.027344 L 461.953125 306.710938 Z M 461.953125 305.914062 "/>
<path style=" stroke:none;fill-rule:nonzero;fill:rgb(96.862745%,70.196078%,16.862745%);fill-opacity:1;" d="M 461.953125 312.246094 L 462.019531 312.242188 L 462.019531 312.171875 L 462.277344 312.019531 L 462.929688 311.808594 L 463.773438 311.636719 L 464.679688 311.5 L 465.265625 311.429688 L 466.238281 311.328125 L 467.082031 311.253906 L 469.226562 311.101562 L 471.953125 310.957031 L 473.445312 310.898438 L 475.136719 310.839844 L 477.539062 310.773438 L 478.640625 310.75 L 482.019531 310.695312 L 485.847656 310.664062 L 490.070312 310.652344 L 492.015625 310.65625 L 494.679688 310.667969 L 498.316406 310.707031 L 500.394531 310.742188 L 502.015625 310.773438 L 503.703125 310.820312 L 505.78125 310.886719 L 507.730469 310.96875 L 509.289062 311.050781 L 510.847656 311.152344 L 512.144531 311.261719 L 513.25 311.378906 L 514.222656 311.519531 L 514.808594 311.640625 L 515.199219 311.757812 L 506.171875 311.757812 L 505.652344 311.640625 L 505.070312 311.546875 L 504.09375 311.4375 L 503.121094 311.355469 L 502.148438 311.289062 L 500.328125 311.203125 L 498.769531 311.148438 L 496.820312 311.101562 L 494.9375 311.070312 L 492.796875 311.050781 L 491.496094 311.042969 L 488.054688 311.042969 L 484.941406 311.066406 L 483.121094 311.09375 L 481.824219 311.121094 L 480.003906 311.171875 L 478.902344 311.210938 L 478.25 311.238281 L 476.304688 311.34375 L 475.003906 311.441406 L 474.289062 311.503906 L 473.382812 311.605469 L 472.734375 311.699219 L 472.019531 311.832031 L 471.628906 311.9375 L 471.109375 312.167969 L 471.042969 312.777344 L 471.238281 312.90625 L 471.628906 313.046875 L 472.148438 313.167969 L 472.925781 313.296875 L 473.707031 313.394531 L 475.070312 313.527344 L 476.238281 313.617188 L 477.148438 313.675781 L 478.902344 313.765625 L 479.617188 313.796875 L 481.304688 313.859375 L 483.058594 313.90625 L 485.199219 313.945312 L 486.824219 313.964844 L 489.421875 313.984375 L 492.730469 313.984375 L 496.628906 313.964844 L 499.09375 313.9375 L 500.78125 313.910156 L 501.886719 313.886719 L 503.25 313.847656 L 504.222656 313.8125 L 505.132812 313.777344 L 506.238281 313.71875 L 506.238281 312.90625 L 490.199219 312.902344 L 490.199219 312.523438 L 515.132812 312.519531 L 515.199219 313.847656 L 513.835938 313.9375 L 512.144531 314.027344 L 510.523438 314.09375 L 508.835938 314.152344 L 506.433594 314.21875 L 504.484375 314.257812 L 501.496094 314.304688 L 498.769531 314.335938 L 495.914062 314.355469 L 493.382812 314.367188 L 490.394531 314.371094 L 487.730469 314.363281 L 484.875 314.34375 L 482.601562 314.316406 L 480.523438 314.28125 L 478.445312 314.238281 L 475.847656 314.167969 L 474.160156 314.109375 L 472.40625 314.039062 L 470.65625 313.953125 L 469.097656 313.859375 L 468.058594 313.789062 L 467.019531 313.707031 L 465.914062 313.605469 L 464.875 313.492188 L 464.097656 313.386719 L 463.382812 313.265625 L 462.863281 313.15625 L 462.34375 313.003906 L 462.082031 312.878906 L 461.953125 312.773438 Z M 461.953125 312.246094 "/>
<path style=" stroke:none;fill-rule:nonzero;fill:rgb(83.921569%,15.686275%,22.352941%);fill-opacity:1;" d="M 461.953125 160.871094 L 515.199219 160.871094 L 515.199219 174.238281 L 493.007812 174.355469 L 493.007812 285.753906 L 484.078125 285.753906 L 484.078125 174.472656 L 483.949219 174.238281 L 461.953125 174.238281 Z M 461.953125 160.871094 "/>
<path style=" stroke:none;fill-rule:nonzero;fill:rgb(6.27451%,58.823529%,28.235294%);fill-opacity:1;" d="M 518 311.289062 L 518.058594 311.28125 L 541.09375 305.292969 L 548.09375 305.292969 L 571.246094 311.292969 L 563.109375 311.292969 L 557.308594 309.726562 L 531.878906 309.726562 L 526.191406 311.289062 L 518 311.289062 L 534.324219 309.078125 L 554.976562 309.074219 L 544.679688 306.273438 L 544.566406 306.265625 L 544.453125 306.285156 L 534.269531 309.074219 L 534.324219 309.078125 Z M 518 311.289062 "/>
<path style=" stroke:none;fill-rule:nonzero;fill:rgb(14.509804%,36.078431%,60%);fill-opacity:1;" d="M 518 297.378906 L 518.066406 297.367188 L 518.066406 297.105469 L 518.261719 296.691406 L 518.714844 296.167969 L 519.167969 295.808594 L 520.335938 295.167969 L 521.960938 294.546875 L 523.648438 294.066406 L 524.882812 293.78125 L 525.988281 293.566406 L 528.519531 293.160156 L 530.140625 292.953125 L 531.894531 292.769531 L 534.039062 292.585938 L 535.597656 292.476562 L 539.101562 292.300781 L 541.699219 292.222656 L 543.714844 292.191406 L 548.0625 292.191406 L 550.660156 292.234375 L 552.542969 292.289062 L 554.621094 292.378906 L 556.375 292.476562 L 559.425781 292.714844 L 562.152344 293.019531 L 563.386719 293.195312 L 565.335938 293.53125 L 566.828125 293.859375 L 567.867188 294.140625 L 569.035156 294.546875 L 570.074219 295.035156 L 570.855469 295.589844 L 571.246094 296.058594 L 562.152344 296.058594 L 561.699219 295.625 L 561.179688 295.285156 L 560.207031 294.839844 L 559.230469 294.523438 L 557.867188 294.207031 L 556.632812 294 L 554.945312 293.792969 L 553.453125 293.664062 L 551.894531 293.566406 L 550.402344 293.5 L 547.542969 293.433594 L 544.234375 293.433594 L 543 293.457031 L 540.464844 293.542969 L 539.101562 293.621094 L 537.15625 293.773438 L 535.792969 293.914062 L 534.167969 294.132812 L 533.0625 294.316406 L 531.699219 294.601562 L 530.726562 294.851562 L 529.621094 295.210938 L 528.972656 295.484375 L 528.390625 295.789062 L 527.871094 296.148438 L 527.480469 296.527344 L 527.21875 296.929688 L 527.089844 297.324219 L 527.089844 299.011719 L 527.21875 299.40625 L 527.546875 299.863281 L 528.390625 300.527344 L 529.621094 301.105469 L 531.050781 301.5625 L 532.414062 301.890625 L 533.195312 302.042969 L 534.234375 302.214844 L 535.855469 302.433594 L 538.195312 302.652344 L 539.558594 302.738281 L 541.636719 302.828125 L 543.777344 302.871094 L 546.636719 302.871094 L 549.167969 302.828125 L 550.855469 302.773438 L 552.609375 302.683594 L 555.011719 302.5 L 556.503906 302.324219 L 557.804688 302.117188 L 558.777344 301.910156 L 559.425781 301.738281 L 560.402344 301.398438 L 561.179688 301.027344 L 561.765625 300.648438 L 562.152344 300.277344 L 571.246094 300.277344 L 570.855469 300.710938 L 570.269531 301.136719 L 569.6875 301.453125 L 568.777344 301.835938 L 567.738281 302.171875 L 566.246094 302.554688 L 565.011719 302.804688 L 563.386719 303.078125 L 561.894531 303.285156 L 560.269531 303.46875 L 557.867188 303.6875 L 556.308594 303.796875 L 554.621094 303.894531 L 552.609375 303.980469 L 550.078125 304.058594 L 547.347656 304.101562 L 544.816406 304.113281 L 542.089844 304.089844 L 540.078125 304.046875 L 537.414062 303.949219 L 534.101562 303.753906 L 531.699219 303.546875 L 529.816406 303.339844 L 528.195312 303.121094 L 526.375 302.828125 L 524.039062 302.347656 L 522.609375 301.976562 L 521.636719 301.671875 L 520.53125 301.246094 L 519.753906 300.863281 L 518.84375 300.253906 L 518.195312 299.480469 L 518 298.882812 Z M 518 297.378906 "/>
<path style=" stroke:none;fill-rule:nonzero;fill:rgb(96.862745%,70.196078%,16.862745%);fill-opacity:1;" d="M 518 313.285156 L 518.066406 313.285156 L 518.066406 313.25 L 518.324219 313.171875 L 518.972656 313.0625 L 519.816406 312.976562 L 520.726562 312.90625 L 521.3125 312.871094 L 522.285156 312.816406 L 523.128906 312.78125 L 525.273438 312.703125 L 528 312.628906 L 529.492188 312.597656 L 531.179688 312.566406 L 533.582031 312.535156 L 534.6875 312.523438 L 538.0625 312.496094 L 541.894531 312.476562 L 546.117188 312.472656 L 548.0625 312.472656 L 550.726562 312.480469 L 554.363281 312.5 L 556.441406 312.519531 L 558.0625 312.535156 L 559.75 312.558594 L 561.828125 312.59375 L 563.777344 312.632812 L 565.335938 312.675781 L 566.894531 312.726562 L 568.191406 312.78125 L 569.296875 312.84375 L 570.269531 312.917969 L 570.855469 312.976562 L 571.246094 313.039062 L 562.21875 313.039062 L 561.699219 312.976562 L 561.113281 312.929688 L 560.140625 312.871094 L 559.167969 312.832031 L 558.191406 312.796875 L 556.375 312.753906 L 554.816406 312.726562 L 552.867188 312.703125 L 550.984375 312.6875 L 548.84375 312.675781 L 547.542969 312.671875 L 544.101562 312.671875 L 540.984375 312.683594 L 539.167969 312.699219 L 537.871094 312.710938 L 536.050781 312.738281 L 534.949219 312.757812 L 534.296875 312.773438 L 532.351562 312.828125 L 531.050781 312.875 L 530.335938 312.90625 L 529.429688 312.960938 L 528.777344 313.007812 L 528.066406 313.074219 L 527.675781 313.128906 L 527.15625 313.246094 L 527.089844 313.558594 L 527.285156 313.625 L 527.675781 313.695312 L 528.195312 313.757812 L 528.972656 313.824219 L 529.753906 313.875 L 531.117188 313.941406 L 532.285156 313.984375 L 533.195312 314.015625 L 534.949219 314.0625 L 535.660156 314.078125 L 537.351562 314.109375 L 539.101562 314.132812 L 541.246094 314.152344 L 542.867188 314.164062 L 545.464844 314.171875 L 548.777344 314.171875 L 552.671875 314.164062 L 555.140625 314.148438 L 556.828125 314.136719 L 557.933594 314.121094 L 559.296875 314.105469 L 560.269531 314.085938 L 561.179688 314.066406 L 562.285156 314.039062 L 562.285156 313.625 L 546.246094 313.621094 L 546.246094 313.425781 L 571.179688 313.425781 L 571.246094 314.105469 L 569.878906 314.152344 L 568.191406 314.195312 L 566.570312 314.230469 L 564.882812 314.257812 L 562.476562 314.292969 L 560.53125 314.3125 L 557.542969 314.335938 L 554.816406 314.351562 L 551.960938 314.363281 L 549.425781 314.367188 L 546.441406 314.371094 L 543.777344 314.367188 L 540.921875 314.355469 L 538.648438 314.34375 L 534.492188 314.304688 L 531.894531 314.265625 L 530.207031 314.238281 L 528.453125 314.199219 L 526.699219 314.15625 L 525.144531 314.109375 L 524.105469 314.074219 L 523.066406 314.03125 L 521.960938 313.980469 L 520.921875 313.921875 L 520.144531 313.867188 L 519.429688 313.808594 L 518.910156 313.75 L 518.390625 313.671875 L 518.128906 313.609375 L 518 313.554688 Z M 518 313.285156 "/>
<path style=" stroke:none;fill-rule:nonzero;fill:rgb(83.921569%,15.686275%,22.352941%);fill-opacity:1;" d="M 518 268.203125 L 571.246094 268.203125 L 571.246094 270.644531 L 549.054688 270.664062 L 549.054688 291.011719 L 540.125 291.011719 L 540.125 270.6875 L 539.996094 270.644531 L 518 270.644531 Z M 518 268.203125 "/>
<path style=" stroke:none;fill-rule:nonzero;fill:rgb(6.27451%,58.823529%,28.235294%);fill-opacity:1;" d="M 574.046875 307.828125 L 574.101562 307.824219 L 597.140625 305.085938 L 604.136719 305.085938 L 627.289062 307.828125 L 619.15625 307.828125 L 613.355469 307.113281 L 587.925781 307.113281 L 582.238281 307.828125 L 574.046875 307.828125 L 590.371094 306.816406 L 611.023438 306.8125 L 600.726562 305.53125 L 600.613281 305.53125 L 600.496094 305.539062 L 590.316406 306.8125 L 590.371094 306.816406 Z M 574.046875 307.828125 "/>
<path style=" stroke:none;fill-rule:nonzero;fill:rgb(14.509804%,36.078431%,60%);fill-opacity:1;" d="M 574.046875 310 L 574.113281 310 L 574.113281 309.949219 L 574.304688 309.867188 L 574.761719 309.769531 L 575.214844 309.699219 L 576.382812 309.578125 L 578.007812 309.457031 L 579.695312 309.367188 L 580.929688 309.3125 L 582.035156 309.269531 L 584.566406 309.195312 L 586.1875 309.15625 L 587.941406 309.121094 L 590.085938 309.082031 L 591.644531 309.0625 L 595.148438 309.03125 L 597.746094 309.015625 L 599.757812 309.007812 L 604.109375 309.007812 L 606.707031 309.015625 L 608.589844 309.027344 L 610.667969 309.042969 L 612.421875 309.0625 L 615.472656 309.109375 L 618.199219 309.167969 L 619.433594 309.199219 L 621.382812 309.265625 L 622.875 309.328125 L 623.914062 309.382812 L 625.082031 309.457031 L 626.121094 309.550781 L 626.902344 309.660156 L 627.289062 309.75 L 618.199219 309.75 L 617.746094 309.664062 L 617.226562 309.601562 L 616.253906 309.515625 L 615.277344 309.453125 L 613.914062 309.394531 L 612.679688 309.355469 L 610.992188 309.316406 L 609.5 309.289062 L 607.941406 309.269531 L 606.449219 309.257812 L 603.589844 309.246094 L 600.277344 309.246094 L 599.046875 309.25 L 596.511719 309.265625 L 595.148438 309.28125 L 593.203125 309.3125 L 591.839844 309.339844 L 590.214844 309.378906 L 589.109375 309.414062 L 587.746094 309.46875 L 586.773438 309.515625 L 585.667969 309.585938 L 585.019531 309.636719 L 584.4375 309.695312 L 583.917969 309.765625 L 583.527344 309.835938 L 583.265625 309.914062 L 583.136719 309.988281 L 583.136719 310.3125 L 583.265625 310.386719 L 583.589844 310.476562 L 584.4375 310.601562 L 585.667969 310.710938 L 587.097656 310.800781 L 588.460938 310.863281 L 589.242188 310.890625 L 590.28125 310.925781 L 591.902344 310.964844 L 594.242188 311.007812 L 595.605469 311.023438 L 597.683594 311.042969 L 599.824219 311.050781 L 602.679688 311.050781 L 605.214844 311.042969 L 606.902344 311.03125 L 608.65625 311.015625 L 611.058594 310.980469 L 612.550781 310.945312 L 613.851562 310.90625 L 614.824219 310.867188 L 615.472656 310.832031 L 616.445312 310.769531 L 617.226562 310.699219 L 617.8125 310.625 L 618.199219 310.554688 L 627.289062 310.554688 L 626.902344 310.636719 L 626.316406 310.71875 L 625.730469 310.777344 L 624.824219 310.851562 L 623.785156 310.917969 L 622.289062 310.988281 L 621.058594 311.035156 L 619.433594 311.089844 L 617.941406 311.128906 L 616.316406 311.164062 L 613.914062 311.207031 L 612.355469 311.226562 L 610.667969 311.246094 L 608.65625 311.261719 L 606.121094 311.277344 L 603.394531 311.285156 L 600.863281 311.285156 L 598.136719 311.28125 L 596.125 311.273438 L 593.460938 311.253906 L 590.148438 311.21875 L 587.746094 311.179688 L 585.863281 311.140625 L 584.242188 311.097656 L 582.421875 311.042969 L 580.085938 310.949219 L 578.65625 310.878906 L 577.683594 310.820312 L 576.578125 310.738281 L 575.800781 310.667969 L 574.890625 310.550781 L 574.242188 310.402344 L 574.046875 310.289062 Z M 574.046875 310 "/>
<path style=" stroke:none;fill-rule:nonzero;fill:rgb(96.862745%,70.196078%,16.862745%);fill-opacity:1;" d="M 574.046875 313.28125 L 574.113281 313.28125 L 574.113281 313.246094 L 574.371094 313.167969 L 575.019531 313.058594 L 575.863281 312.972656 L 576.773438 312.902344 L 577.359375 312.863281 L 578.332031 312.8125 L 579.175781 312.773438 L 581.320312 312.695312 L 584.046875 312.621094 L 585.539062 312.589844 L 587.226562 312.5625 L 589.628906 312.527344 L 590.734375 312.515625 L 594.109375 312.488281 L 597.941406 312.472656 L 602.160156 312.464844 L 604.109375 312.46875 L 606.773438 312.476562 L 610.410156 312.496094 L 612.484375 312.511719 L 614.109375 312.527344 L 615.796875 312.550781 L 617.875 312.585938 L 619.824219 312.628906 L 621.382812 312.671875 L 622.941406 312.722656 L 624.238281 312.777344 L 625.34375 312.839844 L 626.316406 312.910156 L 626.902344 312.972656 L 627.289062 313.035156 L 618.265625 313.035156 L 617.746094 312.972656 L 617.160156 312.925781 L 616.1875 312.867188 L 615.214844 312.828125 L 614.238281 312.792969 L 612.421875 312.75 L 610.863281 312.71875 L 608.914062 312.695312 L 607.03125 312.679688 L 604.890625 312.671875 L 603.589844 312.667969 L 600.148438 312.667969 L 597.03125 312.679688 L 595.214844 312.691406 L 593.914062 312.707031 L 592.097656 312.734375 L 590.992188 312.753906 L 590.34375 312.765625 L 588.398438 312.820312 L 587.097656 312.871094 L 586.382812 312.902344 L 585.476562 312.957031 L 584.824219 313.003906 L 584.109375 313.070312 L 583.722656 313.125 L 583.203125 313.242188 L 583.136719 313.554688 L 583.332031 313.621094 L 583.722656 313.691406 L 584.242188 313.753906 L 585.019531 313.820312 L 585.800781 313.871094 L 587.164062 313.9375 L 588.332031 313.984375 L 589.242188 314.015625 L 590.992188 314.0625 L 591.707031 314.078125 L 593.394531 314.109375 L 595.148438 314.132812 L 597.292969 314.152344 L 598.914062 314.164062 L 601.511719 314.171875 L 604.824219 314.171875 L 608.71875 314.160156 L 611.1875 314.148438 L 612.875 314.132812 L 613.980469 314.121094 L 615.34375 314.101562 L 616.316406 314.085938 L 617.226562 314.066406 L 618.332031 314.035156 L 618.332031 313.621094 L 602.292969 313.621094 L 602.292969 313.425781 L 627.226562 313.421875 L 627.289062 314.101562 L 625.925781 314.148438 L 624.238281 314.195312 L 622.617188 314.230469 L 620.925781 314.257812 L 618.523438 314.292969 L 616.578125 314.3125 L 613.589844 314.335938 L 610.863281 314.351562 L 608.007812 314.363281 L 605.472656 314.367188 L 602.488281 314.371094 L 599.824219 314.367188 L 596.96875 314.355469 L 594.695312 314.34375 L 590.539062 314.304688 L 587.941406 314.265625 L 586.253906 314.238281 L 584.5 314.199219 L 582.746094 314.15625 L 581.1875 314.109375 L 580.148438 314.074219 L 579.109375 314.03125 L 578.007812 313.980469 L 576.96875 313.921875 L 576.1875 313.867188 L 575.476562 313.804688 L 574.957031 313.75 L 574.4375 313.667969 L 574.175781 313.605469 L 574.046875 313.554688 Z M 574.046875 313.28125 "/>
<path style=" stroke:none;fill-rule:nonzero;fill:rgb(83.921569%,15.686275%,22.352941%);fill-opacity:1;" d="M 574.046875 296.859375 L 627.289062 296.859375 L 627.289062 297.613281 L 605.101562 297.621094 L 605.101562 303.90625 L 596.171875 303.90625 L 596.171875 297.628906 L 596.042969 297.613281 L 574.046875 297.613281 Z M 574.046875 296.859375 "/>
<path style=" stroke:none;fill-rule:nonzero;fill:rgb(6.27451%,58.823529%,28.235294%);fill-opacity:1;" d="M 630.09375 312.65625 L 630.148438 312.652344 L 653.1875 308.949219 L 660.183594 308.949219 L 683.335938 312.660156 L 675.203125 312.660156 L 669.398438 311.691406 L 643.972656 311.691406 L 638.285156 312.65625 L 630.09375 312.65625 L 646.417969 311.292969 L 667.066406 311.289062 L 656.773438 309.554688 L 656.65625 309.550781 L 656.542969 309.5625 L 646.363281 311.289062 L 646.417969 311.292969 Z M 630.09375 312.65625 "/>
<path style=" stroke:none;fill-rule:nonzero;fill:rgb(14.509804%,36.078431%,60%);fill-opacity:1;" d="M 630.09375 314.070312 L 630.15625 314.070312 L 630.15625 314.058594 L 630.351562 314.039062 L 630.808594 314.015625 L 631.261719 314 L 632.429688 313.972656 L 634.054688 313.945312 L 635.742188 313.921875 L 636.976562 313.910156 L 638.078125 313.902344 L 640.613281 313.882812 L 642.234375 313.875 L 643.988281 313.867188 L 646.132812 313.859375 L 647.691406 313.851562 L 651.195312 313.84375 L 653.792969 313.839844 L 660.15625 313.839844 L 662.753906 313.84375 L 664.636719 313.84375 L 666.714844 313.847656 L 668.46875 313.851562 L 671.519531 313.863281 L 674.246094 313.875 L 675.480469 313.882812 L 677.429688 313.898438 L 678.921875 313.914062 L 679.960938 313.925781 L 681.128906 313.945312 L 682.167969 313.964844 L 682.949219 313.992188 L 683.335938 314.011719 L 674.246094 314.011719 L 673.792969 313.992188 L 673.273438 313.976562 L 672.296875 313.957031 L 671.324219 313.945312 L 669.960938 313.929688 L 668.726562 313.921875 L 667.039062 313.910156 L 665.546875 313.90625 L 663.988281 313.902344 L 662.492188 313.898438 L 659.636719 313.894531 L 655.089844 313.894531 L 652.558594 313.898438 L 651.195312 313.902344 L 649.246094 313.910156 L 647.882812 313.917969 L 646.261719 313.925781 L 645.15625 313.933594 L 643.792969 313.945312 L 642.820312 313.957031 L 641.714844 313.972656 L 641.066406 313.988281 L 640.480469 314 L 639.960938 314.015625 L 639.574219 314.03125 L 639.3125 314.050781 L 639.183594 314.070312 L 639.183594 314.144531 L 639.3125 314.160156 L 639.636719 314.179688 L 640.480469 314.210938 L 641.714844 314.238281 L 643.144531 314.257812 L 644.507812 314.273438 L 645.285156 314.277344 L 646.324219 314.285156 L 647.949219 314.296875 L 650.285156 314.304688 L 651.648438 314.308594 L 653.726562 314.3125 L 655.871094 314.316406 L 658.726562 314.316406 L 661.261719 314.3125 L 662.949219 314.3125 L 664.703125 314.308594 L 667.105469 314.300781 L 668.597656 314.292969 L 669.894531 314.28125 L 670.871094 314.273438 L 671.519531 314.265625 L 672.492188 314.25 L 673.273438 314.234375 L 673.855469 314.214844 L 674.246094 314.199219 L 683.335938 314.199219 L 682.949219 314.21875 L 682.363281 314.238281 L 681.777344 314.253906 L 680.871094 314.269531 L 679.832031 314.285156 L 678.335938 314.300781 L 677.105469 314.3125 L 675.480469 314.324219 L 673.988281 314.332031 L 672.363281 314.34375 L 669.960938 314.351562 L 668.402344 314.355469 L 666.714844 314.359375 L 664.703125 314.363281 L 662.167969 314.367188 L 659.441406 314.371094 L 654.183594 314.371094 L 652.167969 314.367188 L 649.507812 314.363281 L 646.195312 314.355469 L 643.792969 314.34375 L 641.910156 314.335938 L 640.289062 314.328125 L 638.46875 314.3125 L 636.132812 314.292969 L 634.703125 314.277344 L 633.730469 314.261719 L 632.625 314.242188 L 631.847656 314.226562 L 630.9375 314.199219 L 630.289062 314.164062 L 630.09375 314.136719 Z M 630.09375 314.070312 "/>
<path style=" stroke:none;fill-rule:nonzero;fill:rgb(96.862745%,70.196078%,16.862745%);fill-opacity:1;" d="M 630.09375 305.5625 L 630.15625 305.558594 L 630.15625 305.488281 L 630.417969 305.332031 L 631.066406 305.113281 L 631.910156 304.933594 L 632.820312 304.789062 L 633.40625 304.714844 L 634.378906 304.609375 L 635.222656 304.535156 L 637.367188 304.375 L 640.09375 304.226562 L 641.585938 304.164062 L 643.273438 304.101562 L 645.675781 304.035156 L 646.78125 304.011719 L 650.15625 303.953125 L 653.988281 303.917969 L 658.207031 303.910156 L 660.15625 303.914062 L 662.820312 303.925781 L 666.453125 303.964844 L 668.53125 304 L 670.15625 304.035156 L 671.84375 304.082031 L 673.921875 304.152344 L 675.871094 304.238281 L 677.429688 304.320312 L 678.988281 304.425781 L 680.285156 304.539062 L 681.390625 304.664062 L 682.363281 304.8125 L 682.949219 304.933594 L 683.335938 305.058594 L 674.3125 305.058594 L 673.792969 304.933594 L 673.207031 304.839844 L 672.234375 304.722656 L 671.257812 304.640625 L 670.285156 304.570312 L 668.46875 304.480469 L 666.910156 304.425781 L 664.960938 304.375 L 663.078125 304.34375 L 660.9375 304.320312 L 659.636719 304.316406 L 656.195312 304.316406 L 653.078125 304.339844 L 651.261719 304.367188 L 649.960938 304.394531 L 648.144531 304.449219 L 647.039062 304.492188 L 646.390625 304.519531 L 644.441406 304.628906 L 643.144531 304.726562 L 642.429688 304.792969 L 641.519531 304.898438 L 640.871094 304.996094 L 640.15625 305.136719 L 639.769531 305.242188 L 639.25 305.480469 L 639.183594 306.117188 L 639.378906 306.25 L 639.769531 306.394531 L 640.289062 306.523438 L 641.066406 306.65625 L 641.84375 306.757812 L 643.210938 306.894531 L 644.378906 306.988281 L 645.285156 307.046875 L 647.039062 307.140625 L 647.753906 307.175781 L 649.441406 307.238281 L 651.195312 307.285156 L 653.339844 307.328125 L 654.960938 307.351562 L 657.558594 307.367188 L 660.871094 307.367188 L 664.765625 307.347656 L 667.234375 307.320312 L 668.921875 307.289062 L 670.027344 307.265625 L 671.390625 307.226562 L 672.363281 307.191406 L 673.273438 307.152344 L 674.375 307.09375 L 674.375 306.25 L 658.339844 306.246094 L 658.339844 305.851562 L 683.273438 305.847656 L 683.335938 307.226562 L 681.972656 307.324219 L 680.285156 307.414062 L 678.660156 307.484375 L 676.972656 307.542969 L 674.570312 307.613281 L 672.625 307.652344 L 669.636719 307.703125 L 666.910156 307.734375 L 664.050781 307.757812 L 661.519531 307.765625 L 658.53125 307.769531 L 655.871094 307.761719 L 653.015625 307.742188 L 650.742188 307.714844 L 648.664062 307.679688 L 646.585938 307.632812 L 643.988281 307.558594 L 642.300781 307.5 L 640.546875 307.425781 L 638.792969 307.335938 L 637.234375 307.242188 L 636.195312 307.167969 L 635.15625 307.082031 L 634.054688 306.976562 L 633.015625 306.855469 L 632.234375 306.746094 L 631.523438 306.625 L 631.003906 306.507812 L 630.484375 306.347656 L 630.222656 306.222656 L 630.09375 306.113281 Z M 630.09375 305.5625 "/>
<path style=" stroke:none;fill-rule:nonzero;fill:rgb(83.921569%,15.686275%,22.352941%);fill-opacity:1;" d="M 630.09375 297.546875 L 683.335938 297.546875 L 683.335938 298.101562 L 661.148438 298.109375 L 661.148438 302.730469 L 652.21875 302.730469 L 652.21875 298.113281 L 652.089844 298.101562 L 630.09375 298.101562 Z M 630.09375 297.546875 "/>
<g style="fill:rgb(0%,0%,0%);fill-opacity:1;">
  <use xlink:href="#glyph0-1" x="21.957031" y="318.198242"/>
  <use xlink:href="#glyph0-2" x="27.291016" y="318.198242"/>
  <use xlink:href="#glyph0-1" x="29.958008" y="318.198242"/>
</g>
<g style="fill:rgb(0%,0%,0%);fill-opacity:1;">
  <use xlink:href="#glyph0-1" x="21.957031" y="244.475586"/>
  <use xlink:href="#glyph0-2" x="27.291016" y="244.475586"/>
  <use xlink:href="#glyph0-3" x="29.958008" y="244.475586"/>
</g>
<g style="fill:rgb(0%,0%,0%);fill-opacity:1;">
  <use xlink:href="#glyph0-4" x="21.957031" y="170.75293"/>
  <use xlink:href="#glyph0-2" x="27.291016" y="170.75293"/>
  <use xlink:href="#glyph0-1" x="29.958008" y="170.75293"/>
</g>
<g style="fill:rgb(0%,0%,0%);fill-opacity:1;">
  <use xlink:href="#glyph0-4" x="21.957031" y="97.03418"/>
  <use xlink:href="#glyph0-2" x="27.291016" y="97.03418"/>
  <use xlink:href="#glyph0-3" x="29.958008" y="97.03418"/>
</g>
<g style="fill:rgb(0%,0%,0%);fill-opacity:1;">
  <use xlink:href="#glyph0-5" x="21.957031" y="23.311523"/>
  <use xlink:href="#glyph0-2" x="27.291016" y="23.311523"/>
  <use xlink:href="#glyph0-1" x="29.958008" y="23.311523"/>
</g>
<g style="fill:rgb(0%,0%,0%);fill-opacity:1;">
  <use xlink:href="#glyph0-4" x="93.25" y="338.19043"/>
</g>
<g style="fill:rgb(0%,0%,0%);fill-opacity:1;">
  <use xlink:href="#glyph0-5" x="149.296875" y="338.19043"/>
</g>
<g style="fill:rgb(0%,0%,0%);fill-opacity:1;">
  <use xlink:href="#glyph0-6" x="205.34375" y="338.19043"/>
</g>
<g style="fill:rgb(0%,0%,0%);fill-opacity:1;">
  <use xlink:href="#glyph0-7" x="261.390625" y="338.19043"/>
</g>
<g style="fill:rgb(0%,0%,0%);fill-opacity:1;">
  <use xlink:href="#glyph0-3" x="317.4375" y="338.19043"/>
</g>
<g style="fill:rgb(0%,0%,0%);fill-opacity:1;">
  <use xlink:href="#glyph0-8" x="373.484375" y="338.19043"/>
</g>
<g style="fill:rgb(0%,0%,0%);fill-opacity:1;">
  <use xlink:href="#glyph0-9" x="429.53125" y="338.19043"/>
</g>
<g style="fill:rgb(0%,0%,0%);fill-opacity:1;">
  <use xlink:href="#glyph0-10" x="485.574219" y="338.19043"/>
</g>
<g style="fill:rgb(0%,0%,0%);fill-opacity:1;">
  <use xlink:href="#glyph0-11" x="541.621094" y="338.19043"/>
</g>
<g style="fill:rgb(0%,0%,0%);fill-opacity:1;">
  <use xlink:href="#glyph0-4" x="595.167969" y="338.19043"/>
  <use xlink:href="#glyph0-1" x="600.501953" y="338.19043"/>
</g>
<g style="fill:rgb(0%,0%,0%);fill-opacity:1;">
  <use xlink:href="#glyph0-4" x="651.214844" y="338.19043"/>
  <use xlink:href="#glyph0-4" x="656.548828" y="338.19043"/>
</g>
<g style="fill:rgb(0%,0%,0%);fill-opacity:1;">
  <use xlink:href="#glyph1-1" x="14.412109" y="178.015625"/>
  <use xlink:href="#glyph1-2" x="14.412109" y="170.011719"/>
  <use xlink:href="#glyph1-3" x="14.412109" y="167.347656"/>
  <use xlink:href="#glyph1-4" x="14.412109" y="164.011719"/>
</g>
</g>
</svg>
