<?xml version="1.0" encoding="UTF-8"?>
<svg xmlns="http://www.w3.org/2000/svg" xmlns:xlink="http://www.w3.org/1999/xlink" width="720pt" height="360pt" viewBox="0 0 720 360" version="1.1">
<defs>
<g>
<symbol overflow="visible" id="glyph0-0">
<path style="stroke:none;" d=""/>
</symbol>
<symbol overflow="visible" id="glyph0-1">
<path style="stroke:none;" d="M 2.640625 -6.796875 C 2 -6.796875 1.421875 -6.53125 1.078125 -6.046875 C 0.640625 -5.453125 0.40625 -4.546875 0.40625 -3.296875 C 0.40625 -1 1.1875 0.21875 2.640625 0.21875 C 4.078125 0.21875 4.859375 -1 4.859375 -3.234375 C 4.859375 -4.5625 4.65625 -5.4375 4.203125 -6.046875 C 3.84375 -6.53125 3.28125 -6.796875 2.640625 -6.796875 Z M 2.640625 -6.046875 C 3.546875 -6.046875 4 -5.125 4 -3.3125 C 4 -1.375 3.5625 -0.484375 2.625 -0.484375 C 1.734375 -0.484375 1.28125 -1.421875 1.28125 -3.28125 C 1.28125 -5.140625 1.734375 -6.046875 2.640625 -6.046875 Z M 2.640625 -6.046875 "/>
</symbol>
<symbol overflow="visible" id="glyph0-2">
<path style="stroke:none;" d="M 1.828125 -1 L 0.828125 -1 L 0.828125 0 L 1.828125 0 Z M 1.828125 -1 "/>
</symbol>
<symbol overflow="visible" id="glyph0-3">
<path style="stroke:none;" d="M 4.5625 -6.796875 L 1.0625 -6.796875 L 0.546875 -3.09375 L 1.328125 -3.09375 C 1.71875 -3.5625 2.046875 -3.734375 2.578125 -3.734375 C 3.484375 -3.734375 4.0625 -3.109375 4.0625 -2.09375 C 4.0625 -1.125 3.484375 -0.53125 2.578125 -0.53125 C 1.828125 -0.53125 1.375 -0.90625 1.1875 -1.671875 L 0.328125 -1.671875 C 0.453125 -1.109375 0.546875 -0.84375 0.75 -0.59375 C 1.125 -0.078125 1.828125 0.21875 2.59375 0.21875 C 3.96875 0.21875 4.921875 -0.78125 4.921875 -2.21875 C 4.921875 -3.5625 4.03125 -4.484375 2.71875 -4.484375 C 2.25 -4.484375 1.859375 -4.359375 1.46875 -4.0625 L 1.734375 -5.96875 L 4.5625 -5.96875 Z M 4.5625 -6.796875 "/>
</symbol>
<symbol overflow="visible" id="glyph0-4">
<path style="stroke:none;" d="M 2.484375 -4.84375 L 2.484375 0 L 3.328125 0 L 3.328125 -6.796875 L 2.765625 -6.796875 C 2.46875 -5.75 2.28125 -5.609375 0.984375 -5.453125 L 0.984375 -4.84375 Z M 2.484375 -4.84375 "/>
</symbol>
<symbol overflow="visible" id="glyph0-5">
<path style="stroke:none;" d="M 4.859375 -0.828125 L 1.28125 -0.828125 C 1.359375 -1.390625 1.671875 -1.75 2.5 -2.234375 L 3.46875 -2.75 C 4.40625 -3.265625 4.90625 -3.96875 4.90625 -4.8125 C 4.90625 -5.375 4.671875 -5.90625 4.265625 -6.265625 C 3.859375 -6.625 3.375 -6.796875 2.71875 -6.796875 C 1.859375 -6.796875 1.21875 -6.5 0.84375 -5.921875 C 0.609375 -5.5625 0.5 -5.125 0.484375 -4.4375 L 1.328125 -4.4375 C 1.359375 -4.90625 1.40625 -5.1875 1.53125 -5.40625 C 1.75 -5.8125 2.1875 -6.0625 2.703125 -6.0625 C 3.46875 -6.0625 4.03125 -5.515625 4.03125 -4.78125 C 4.03125 -4.25 3.71875 -3.796875 3.125 -3.4375 L 2.234375 -2.9375 C 0.8125 -2.140625 0.40625 -1.5 0.328125 0 L 4.859375 0 Z M 4.859375 -0.828125 "/>
</symbol>
<symbol overflow="visible" id="glyph0-6">
<path style="stroke:none;" d="M 2.125 -3.125 L 2.578125 -3.125 C 3.515625 -3.125 3.984375 -2.703125 3.984375 -1.890625 C 3.984375 -1.03125 3.46875 -0.53125 2.578125 -0.53125 C 1.65625 -0.53125 1.203125 -0.984375 1.15625 -1.96875 L 0.3125 -1.96875 C 0.34375 -1.421875 0.4375 -1.078125 0.609375 -0.765625 C 0.953125 -0.109375 1.625 0.21875 2.546875 0.21875 C 3.953125 0.21875 4.859375 -0.609375 4.859375 -1.90625 C 4.859375 -2.765625 4.515625 -3.25 3.703125 -3.515625 C 4.34375 -3.765625 4.65625 -4.25 4.65625 -4.9375 C 4.65625 -6.109375 3.875 -6.796875 2.578125 -6.796875 C 1.203125 -6.796875 0.484375 -6.046875 0.453125 -4.609375 L 1.296875 -4.609375 C 1.3125 -5.015625 1.34375 -5.25 1.453125 -5.453125 C 1.640625 -5.828125 2.0625 -6.0625 2.59375 -6.0625 C 3.34375 -6.0625 3.796875 -5.625 3.796875 -4.90625 C 3.796875 -4.421875 3.609375 -4.140625 3.25 -3.984375 C 3.015625 -3.890625 2.71875 -3.84375 2.125 -3.84375 Z M 2.125 -3.125 "/>
</symbol>
<symbol overflow="visible" id="glyph0-7">
<path style="stroke:none;" d="M 3.140625 -1.625 L 3.140625 0 L 3.984375 0 L 3.984375 -1.625 L 4.984375 -1.625 L 4.984375 -2.390625 L 3.984375 -2.390625 L 3.984375 -6.796875 L 3.359375 -6.796875 L 0.265625 -2.515625 L 0.265625 -1.625 Z M 3.140625 -2.390625 L 1 -2.390625 L 3.140625 -5.359375 Z M 3.140625 -2.390625 "/>
</symbol>
<symbol overflow="visible" id="glyph0-8">
<path style="stroke:none;" d="M 4.78125 -5.03125 C 4.609375 -6.140625 3.890625 -6.796875 2.84375 -6.796875 C 2.09375 -6.796875 1.421875 -6.4375 1.03125 -5.828125 C 0.609375 -5.171875 0.40625 -4.34375 0.40625 -3.09375 C 0.40625 -1.953125 0.578125 -1.234375 0.984375 -0.625 C 1.359375 -0.078125 1.953125 0.21875 2.703125 0.21875 C 3.984375 0.21875 4.921875 -0.734375 4.921875 -2.078125 C 4.921875 -3.34375 4.0625 -4.234375 2.84375 -4.234375 C 2.171875 -4.234375 1.640625 -3.96875 1.28125 -3.46875 C 1.28125 -5.125 1.828125 -6.046875 2.796875 -6.046875 C 3.390625 -6.046875 3.796875 -5.671875 3.9375 -5.03125 Z M 2.734375 -3.484375 C 3.546875 -3.484375 4.0625 -2.921875 4.0625 -2 C 4.0625 -1.15625 3.484375 -0.53125 2.703125 -0.53125 C 1.921875 -0.53125 1.328125 -1.1875 1.328125 -2.046875 C 1.328125 -2.890625 1.90625 -3.484375 2.734375 -3.484375 Z M 2.734375 -3.484375 "/>
</symbol>
<symbol overflow="visible" id="glyph0-9">
<path style="stroke:none;" d="M 4.984375 -6.796875 L 0.4375 -6.796875 L 0.4375 -5.96875 L 4.109375 -5.96875 C 2.5 -3.65625 1.828125 -2.234375 1.328125 0 L 2.21875 0 C 2.59375 -2.171875 3.453125 -4.046875 4.984375 -6.09375 Z M 4.984375 -6.796875 "/>
</symbol>
<symbol overflow="visible" id="glyph0-10">
<path style="stroke:none;" d="M 3.75 -3.578125 C 4.453125 -4 4.6875 -4.34375 4.6875 -4.984375 C 4.6875 -6.046875 3.84375 -6.796875 2.640625 -6.796875 C 1.4375 -6.796875 0.59375 -6.046875 0.59375 -4.984375 C 0.59375 -4.359375 0.828125 -4.015625 1.515625 -3.578125 C 0.734375 -3.203125 0.359375 -2.640625 0.359375 -1.890625 C 0.359375 -0.640625 1.296875 0.21875 2.640625 0.21875 C 3.984375 0.21875 4.921875 -0.640625 4.921875 -1.875 C 4.921875 -2.640625 4.53125 -3.203125 3.75 -3.578125 Z M 2.640625 -6.046875 C 3.359375 -6.046875 3.8125 -5.625 3.8125 -4.96875 C 3.8125 -4.34375 3.34375 -3.921875 2.640625 -3.921875 C 1.921875 -3.921875 1.453125 -4.34375 1.453125 -4.984375 C 1.453125 -5.625 1.921875 -6.046875 2.640625 -6.046875 Z M 2.640625 -3.203125 C 3.484375 -3.203125 4.0625 -2.671875 4.0625 -1.875 C 4.0625 -1.0625 3.484375 -0.53125 2.625 -0.53125 C 1.796875 -0.53125 1.21875 -1.078125 1.21875 -1.875 C 1.21875 -2.671875 1.796875 -3.203125 2.640625 -3.203125 Z M 2.640625 -3.203125 "/>
</symbol>
<symbol overflow="visible" id="glyph0-11">
<path style="stroke:none;" d="M 0.515625 -1.546875 C 0.671875 -0.4375 1.40625 0.21875 2.4375 0.21875 C 3.1875 0.21875 3.859375 -0.140625 4.265625 -0.75 C 4.6875 -1.40625 4.890625 -2.25 4.890625 -3.484375 C 4.890625 -4.625 4.703125 -5.359375 4.3125 -5.953125 C 3.9375 -6.5 3.34375 -6.796875 2.59375 -6.796875 C 1.296875 -6.796875 0.359375 -5.84375 0.359375 -4.515625 C 0.359375 -3.25 1.234375 -2.34375 2.453125 -2.34375 C 3.09375 -2.34375 3.5625 -2.578125 4.015625 -3.109375 C 4 -1.453125 3.46875 -0.53125 2.5 -0.53125 C 1.90625 -0.53125 1.484375 -0.90625 1.359375 -1.546875 Z M 2.578125 -6.0625 C 3.375 -6.0625 3.96875 -5.40625 3.96875 -4.53125 C 3.96875 -3.6875 3.375 -3.09375 2.546875 -3.09375 C 1.734375 -3.09375 1.234375 -3.671875 1.234375 -4.578125 C 1.234375 -5.4375 1.796875 -6.0625 2.578125 -6.0625 Z M 2.578125 -6.0625 "/>
</symbol>
<symbol overflow="visible" id="glyph1-0">
<path style="stroke:none;" d=""/>
</symbol>
<symbol overflow="visible" id="glyph1-1">
<path style="stroke:none;" d="M 0 -0.953125 L 0 -4.890625 C 0 -5.71875 -0.234375 -6.34375 -0.734375 -6.796875 C -1.1875 -7.234375 -1.8125 -7.46875 -2.5 -7.46875 C -3.546875 -7.46875 -4.1875 -7 -4.625 -5.875 C -4.984375 -6.671875 -5.640625 -7.09375 -6.53125 -7.09375 C -7.15625 -7.09375 -7.734375 -6.859375 -8.140625 -6.390625 C -8.5625 -5.9375 -8.75 -5.34375 -8.75 -4.5 L -8.75 -0.953125 Z M -4.984375 -2.0625 L -7.765625 -2.0625 L -7.765625 -4.21875 C -7.765625 -4.84375 -7.6875 -5.203125 -7.453125 -5.5 C -7.21875 -5.8125 -6.859375 -5.96875 -6.375 -5.96875 C -5.90625 -5.96875 -5.53125 -5.8125 -5.296875 -5.5 C -5.0625 -5.203125 -4.984375 -4.84375 -4.984375 -4.21875 Z M -0.984375 -2.0625 L -4 -2.0625 L -4 -4.78125 C -4 -5.328125 -3.859375 -5.6875 -3.578125 -5.953125 C -3.296875 -6.21875 -2.921875 -6.359375 -2.484375 -6.359375 C -2.0625 -6.359375 -1.6875 -6.21875 -1.40625 -5.953125 C -1.109375 -5.6875 -0.984375 -5.328125 -0.984375 -4.78125 Z M -0.984375 -2.0625 "/>
</symbol>
<symbol overflow="visible" id="glyph1-2">
<path style="stroke:none;" d="M -6.28125 -1.796875 L -6.28125 -0.796875 L 0 -0.796875 L 0 -1.796875 Z M -8.75 -1.796875 L -8.75 -0.796875 L -7.484375 -0.796875 L -7.484375 -1.796875 Z M -8.75 -1.796875 "/>
</symbol>
<symbol overflow="visible" id="glyph1-3">
<path style="stroke:none;" d="M -6.28125 -3.046875 L -6.28125 -2.015625 L -8.015625 -2.015625 L -8.015625 -1.015625 L -6.28125 -1.015625 L -6.28125 -0.171875 L -5.46875 -0.171875 L -5.46875 -1.015625 L -0.71875 -1.015625 C -0.078125 -1.015625 0.28125 -1.453125 0.28125 -2.234375 C 0.28125 -2.46875 0.25 -2.71875 0.1875 -3.046875 L -0.640625 -3.046875 C -0.609375 -2.921875 -0.59375 -2.765625 -0.59375 -2.5625 C -0.59375 -2.140625 -0.71875 -2.015625 -1.15625 -2.015625 L -5.46875 -2.015625 L -5.46875 -3.046875 Z M -6.28125 -3.046875 "/>
</symbol>
<symbol overflow="visible" id="glyph1-4">
<path style="stroke:none;" d="M -4.53125 -5.25 C -5.765625 -5.25 -6.46875 -4.421875 -6.46875 -2.96875 C -6.46875 -1.515625 -5.71875 -0.5625 -4.546875 -0.5625 C -3.5625 -0.5625 -3.09375 -1.0625 -2.734375 -2.5625 L -2.515625 -3.484375 C -2.34375 -4.1875 -2.09375 -4.46875 -1.625 -4.46875 C -1.046875 -4.46875 -0.640625 -3.875 -0.640625 -3 C -0.640625 -2.453125 -0.796875 -2 -1.0625 -1.75 C -1.25 -1.59375 -1.421875 -1.53125 -1.875 -1.46875 L -1.875 -0.40625 C -0.421875 -0.453125 0.28125 -1.265625 0.28125 -2.921875 C 0.28125 -4.5 -0.5 -5.515625 -1.71875 -5.515625 C -2.65625 -5.515625 -3.171875 -4.984375 -3.46875 -3.734375 L -3.703125 -2.765625 C -3.890625 -1.953125 -4.15625 -1.609375 -4.59375 -1.609375 C -5.171875 -1.609375 -5.546875 -2.125 -5.546875 -2.9375 C -5.546875 -3.75 -5.203125 -4.171875 -4.53125 -4.203125 Z M -4.53125 -5.25 "/>
</symbol>
</g>
</defs>
<g id="surface112587">
<rect x="0" y="0" width="720" height="360" style="fill:rgb(100%,100%,100%);fill-opacity:1;stroke:none;"/>
<path style=" stroke:none;fill-rule:nonzero;fill:rgb(6.27451%,58.823529%,28.235294%);fill-opacity:1;" d="M 69.628906 262.792969 L 69.691406 262.699219 L 95.046875 162.328125 L 102.746094 162.328125 L 128.222656 262.886719 L 119.273438 262.886719 L 112.886719 236.640625 L 84.902344 236.640625 L 78.644531 262.792969 L 69.628906 262.792969 L 87.597656 225.78125 L 110.320312 225.6875 L 98.988281 178.757812 L 98.863281 178.664062 L 98.738281 178.949219 L 87.535156 225.6875 L 87.597656 225.78125 Z M 69.628906 262.792969 "/>
<path style=" stroke:none;fill-rule:nonzero;fill:rgb(14.509804%,36.078431%,60%);fill-opacity:1;" d="M 69.628906 307.726562 L 69.699219 307.71875 L 69.699219 307.523438 L 69.914062 307.21875 L 70.414062 306.835938 L 70.914062 306.570312 L 72.203125 306.097656 L 73.988281 305.640625 L 75.847656 305.285156 L 77.203125 305.078125 L 78.417969 304.917969 L 81.207031 304.621094 L 82.992188 304.46875 L 84.921875 304.332031 L 87.28125 304.195312 L 88.996094 304.113281 L 92.851562 303.984375 L 95.710938 303.929688 L 97.925781 303.90625 L 102.714844 303.90625 L 105.574219 303.9375 L 107.644531 303.976562 L 109.929688 304.042969 L 111.859375 304.113281 L 115.21875 304.289062 L 118.21875 304.515625 L 119.578125 304.644531 L 121.722656 304.894531 L 123.367188 305.132812 L 124.507812 305.34375 L 125.796875 305.640625 L 126.9375 306 L 127.796875 306.410156 L 128.222656 306.753906 L 118.21875 306.753906 L 117.71875 306.433594 L 117.148438 306.183594 L 116.078125 305.855469 L 115.003906 305.621094 L 113.503906 305.390625 L 112.148438 305.238281 L 110.289062 305.085938 L 108.644531 304.988281 L 106.929688 304.917969 L 105.285156 304.867188 L 102.140625 304.820312 L 98.5 304.820312 L 97.140625 304.835938 L 94.355469 304.902344 L 92.851562 304.957031 L 90.710938 305.070312 L 89.207031 305.171875 L 87.421875 305.332031 L 86.207031 305.46875 L 84.707031 305.679688 L 83.636719 305.863281 L 82.421875 306.128906 L 81.707031 306.328125 L 81.0625 306.554688 L 80.492188 306.820312 L 80.0625 307.097656 L 79.777344 307.398438 L 79.632812 307.683594 L 79.632812 308.929688 L 79.777344 309.21875 L 80.132812 309.554688 L 81.0625 310.042969 L 82.421875 310.46875 L 83.992188 310.808594 L 85.492188 311.046875 L 86.351562 311.160156 L 87.492188 311.289062 L 89.28125 311.449219 L 91.851562 311.609375 L 93.351562 311.675781 L 95.640625 311.738281 L 97.996094 311.769531 L 101.140625 311.769531 L 103.929688 311.738281 L 105.785156 311.699219 L 107.714844 311.632812 L 110.359375 311.496094 L 112.003906 311.367188 L 113.433594 311.214844 L 114.503906 311.0625 L 115.21875 310.9375 L 116.292969 310.6875 L 117.148438 310.414062 L 117.792969 310.132812 L 118.21875 309.859375 L 128.222656 309.859375 L 127.796875 310.179688 L 127.152344 310.496094 L 126.507812 310.726562 L 125.507812 311.007812 L 124.367188 311.257812 L 122.722656 311.539062 L 121.363281 311.722656 L 119.578125 311.921875 L 117.933594 312.074219 L 116.148438 312.210938 L 113.503906 312.371094 L 111.789062 312.453125 L 109.929688 312.523438 L 107.714844 312.589844 L 104.929688 312.644531 L 101.929688 312.675781 L 99.140625 312.683594 L 96.140625 312.667969 L 93.925781 312.636719 L 90.996094 312.566406 L 87.351562 312.421875 L 84.707031 312.269531 L 82.632812 312.117188 L 80.847656 311.953125 L 78.847656 311.738281 L 76.273438 311.386719 L 74.703125 311.113281 L 73.632812 310.886719 L 72.417969 310.574219 L 71.558594 310.292969 L 70.558594 309.84375 L 69.84375 309.273438 L 69.628906 308.832031 Z M 69.628906 307.726562 "/>
<path style=" stroke:none;fill-rule:nonzero;fill:rgb(96.862745%,70.196078%,16.862745%);fill-opacity:1;" d="M 69.628906 280.625 L 69.699219 280.589844 L 69.699219 279.882812 L 69.988281 278.296875 L 70.703125 276.105469 L 71.628906 274.304688 L 72.628906 272.894531 L 73.273438 272.152344 L 74.34375 271.09375 L 75.273438 270.316406 L 77.632812 268.726562 L 80.632812 267.246094 L 82.277344 266.609375 L 84.136719 266.011719 L 86.777344 265.339844 L 87.992188 265.09375 L 91.710938 264.527344 L 95.925781 264.175781 L 100.570312 264.066406 L 102.714844 264.101562 L 105.644531 264.246094 L 109.644531 264.632812 L 111.933594 264.984375 L 113.71875 265.339844 L 115.578125 265.796875 L 117.863281 266.503906 L 120.007812 267.351562 L 121.722656 268.199219 L 123.4375 269.257812 L 124.867188 270.386719 L 126.082031 271.625 L 127.152344 273.105469 L 127.796875 274.339844 L 128.222656 275.578125 L 118.292969 275.578125 L 117.71875 274.339844 L 117.078125 273.386719 L 116.003906 272.222656 L 114.933594 271.375 L 113.863281 270.707031 L 111.859375 269.789062 L 110.144531 269.222656 L 108.003906 268.726562 L 105.929688 268.410156 L 103.570312 268.199219 L 102.140625 268.128906 L 98.355469 268.128906 L 94.925781 268.375 L 92.925781 268.65625 L 91.496094 268.941406 L 89.496094 269.46875 L 88.28125 269.894531 L 87.566406 270.175781 L 85.421875 271.269531 L 83.992188 272.257812 L 83.207031 272.929688 L 82.207031 273.988281 L 81.492188 274.941406 L 80.707031 276.355469 L 80.277344 277.414062 L 79.703125 279.8125 L 79.632812 286.167969 L 79.847656 287.511719 L 80.277344 288.957031 L 80.847656 290.226562 L 81.707031 291.570312 L 82.5625 292.59375 L 84.0625 293.96875 L 85.351562 294.886719 L 86.351562 295.488281 L 88.28125 296.441406 L 89.066406 296.757812 L 90.921875 297.394531 L 92.851562 297.890625 L 95.210938 298.3125 L 96.996094 298.523438 L 99.855469 298.703125 L 103.5 298.703125 L 107.789062 298.488281 L 110.503906 298.207031 L 112.359375 297.925781 L 113.574219 297.675781 L 115.078125 297.289062 L 116.148438 296.9375 L 117.148438 296.546875 L 118.363281 295.949219 L 118.363281 287.511719 L 100.714844 287.476562 L 100.714844 283.519531 L 128.152344 283.484375 L 128.222656 297.289062 L 126.722656 298.242188 L 124.867188 299.160156 L 123.078125 299.867188 L 121.222656 300.464844 L 118.578125 301.136719 L 116.433594 301.5625 L 113.148438 302.054688 L 110.144531 302.371094 L 107 302.585938 L 104.214844 302.691406 L 100.929688 302.726562 L 97.996094 302.65625 L 94.855469 302.445312 L 92.351562 302.160156 L 90.066406 301.808594 L 87.78125 301.347656 L 84.921875 300.609375 L 83.0625 300.007812 L 81.132812 299.265625 L 79.203125 298.382812 L 77.488281 297.429688 L 76.347656 296.6875 L 75.203125 295.839844 L 73.988281 294.78125 L 72.84375 293.582031 L 71.988281 292.488281 L 71.203125 291.253906 L 70.628906 290.085938 L 70.058594 288.5 L 69.773438 287.226562 L 69.628906 286.132812 Z M 69.628906 280.625 "/>
<path style=" stroke:none;fill-rule:nonzero;fill:rgb(83.921569%,15.686275%,22.352941%);fill-opacity:1;" d="M 69.628906 313.863281 L 128.222656 313.863281 L 128.222656 313.917969 L 103.804688 313.917969 L 103.804688 314.371094 L 93.980469 314.371094 L 93.980469 313.917969 L 69.628906 313.917969 Z M 69.628906 313.863281 "/>
<path style=" stroke:none;fill-rule:nonzero;fill:rgb(6.27451%,58.823529%,28.235294%);fill-opacity:1;" d="M 131.308594 300.796875 L 131.371094 300.789062 L 156.726562 292.84375 L 164.425781 292.84375 L 189.902344 300.804688 L 180.953125 300.804688 L 174.566406 298.726562 L 146.582031 298.726562 L 140.324219 300.796875 L 131.308594 300.796875 L 149.273438 297.867188 L 172 297.859375 L 160.667969 294.144531 L 160.542969 294.136719 L 160.417969 294.160156 L 149.210938 297.859375 L 149.273438 297.867188 Z M 131.308594 300.796875 "/>
<path style=" stroke:none;fill-rule:nonzero;fill:rgb(14.509804%,36.078431%,60%);fill-opacity:1;" d="M 131.308594 305.320312 L 131.378906 305.3125 L 131.378906 305.144531 L 131.59375 304.878906 L 132.09375 304.542969 L 132.59375 304.3125 L 133.882812 303.898438 L 135.667969 303.5 L 137.523438 303.191406 L 138.882812 303.007812 L 140.097656 302.867188 L 142.882812 302.609375 L 144.671875 302.476562 L 146.601562 302.355469 L 148.957031 302.238281 L 150.671875 302.167969 L 154.53125 302.054688 L 157.390625 302.007812 L 159.605469 301.984375 L 164.394531 301.984375 L 167.25 302.011719 L 169.324219 302.046875 L 171.609375 302.105469 L 173.539062 302.167969 L 176.898438 302.320312 L 179.898438 302.519531 L 181.257812 302.628906 L 183.402344 302.847656 L 185.042969 303.058594 L 186.1875 303.238281 L 187.472656 303.5 L 188.617188 303.816406 L 189.476562 304.171875 L 189.902344 304.472656 L 179.898438 304.472656 L 179.398438 304.191406 L 178.828125 303.976562 L 177.757812 303.6875 L 176.683594 303.484375 L 175.183594 303.28125 L 173.824219 303.148438 L 171.96875 303.015625 L 170.324219 302.929688 L 168.609375 302.867188 L 166.964844 302.828125 L 163.820312 302.785156 L 160.175781 302.785156 L 158.820312 302.796875 L 156.03125 302.855469 L 154.53125 302.902344 L 152.386719 303 L 150.886719 303.09375 L 149.101562 303.234375 L 147.886719 303.351562 L 146.386719 303.535156 L 145.3125 303.695312 L 144.097656 303.925781 L 143.386719 304.101562 L 142.742188 304.296875 L 142.171875 304.53125 L 141.742188 304.773438 L 141.457031 305.035156 L 141.3125 305.285156 L 141.3125 306.371094 L 141.457031 306.625 L 141.8125 306.917969 L 142.742188 307.347656 L 144.097656 307.71875 L 145.671875 308.011719 L 147.171875 308.222656 L 148.03125 308.320312 L 149.171875 308.433594 L 150.960938 308.574219 L 153.53125 308.714844 L 155.03125 308.769531 L 157.320312 308.824219 L 159.675781 308.851562 L 162.820312 308.851562 L 165.609375 308.824219 L 167.464844 308.789062 L 169.394531 308.734375 L 172.039062 308.613281 L 173.683594 308.503906 L 175.113281 308.371094 L 176.183594 308.238281 L 176.898438 308.125 L 177.96875 307.90625 L 178.828125 307.667969 L 179.472656 307.421875 L 179.898438 307.183594 L 189.902344 307.183594 L 189.476562 307.464844 L 188.832031 307.738281 L 188.1875 307.941406 L 187.1875 308.1875 L 186.046875 308.40625 L 184.402344 308.648438 L 183.042969 308.8125 L 181.257812 308.988281 L 179.613281 309.121094 L 177.828125 309.238281 L 175.183594 309.378906 L 173.46875 309.449219 L 171.609375 309.511719 L 169.394531 309.570312 L 166.609375 309.617188 L 163.605469 309.644531 L 160.820312 309.652344 L 157.820312 309.636719 L 155.605469 309.609375 L 152.675781 309.546875 L 149.03125 309.421875 L 146.386719 309.289062 L 144.3125 309.15625 L 142.527344 309.015625 L 140.527344 308.824219 L 137.953125 308.515625 L 136.382812 308.277344 L 135.308594 308.082031 L 134.09375 307.808594 L 133.238281 307.5625 L 132.238281 307.171875 L 131.523438 306.675781 L 131.308594 306.289062 Z M 131.308594 305.320312 "/>
<path style=" stroke:none;fill-rule:nonzero;fill:rgb(96.862745%,70.196078%,16.862745%);fill-opacity:1;" d="M 131.308594 312.347656 L 131.378906 312.34375 L 131.378906 312.28125 L 131.664062 312.132812 L 132.378906 311.933594 L 133.308594 311.769531 L 134.308594 311.640625 L 134.953125 311.570312 L 136.023438 311.476562 L 136.953125 311.402344 L 139.3125 311.257812 L 142.3125 311.121094 L 143.957031 311.066406 L 145.8125 311.007812 L 148.457031 310.949219 L 149.671875 310.925781 L 153.390625 310.875 L 157.605469 310.839844 L 162.25 310.832031 L 164.394531 310.835938 L 167.324219 310.847656 L 171.324219 310.882812 L 173.613281 310.917969 L 175.398438 310.949219 L 177.253906 310.992188 L 179.542969 311.054688 L 181.6875 311.132812 L 183.402344 311.210938 L 185.117188 311.308594 L 186.546875 311.410156 L 187.761719 311.523438 L 188.832031 311.660156 L 189.476562 311.773438 L 189.902344 311.886719 L 179.972656 311.886719 L 179.398438 311.773438 L 178.757812 311.683594 L 177.683594 311.578125 L 176.613281 311.5 L 175.539062 311.441406 L 173.539062 311.355469 L 171.824219 311.304688 L 169.679688 311.257812 L 167.609375 311.230469 L 165.25 311.210938 L 163.820312 311.203125 L 160.035156 311.203125 L 156.605469 311.226562 L 154.605469 311.253906 L 153.175781 311.277344 L 151.171875 311.328125 L 149.957031 311.363281 L 149.246094 311.390625 L 147.101562 311.492188 L 145.671875 311.582031 L 144.886719 311.644531 L 143.886719 311.738281 L 143.171875 311.828125 L 142.382812 311.957031 L 141.957031 312.054688 L 141.382812 312.273438 L 141.3125 312.855469 L 141.527344 312.976562 L 141.957031 313.109375 L 142.527344 313.226562 L 143.386719 313.347656 L 144.242188 313.441406 L 145.742188 313.570312 L 147.027344 313.652344 L 148.03125 313.707031 L 149.957031 313.796875 L 150.746094 313.824219 L 152.601562 313.882812 L 154.53125 313.929688 L 156.890625 313.964844 L 158.675781 313.984375 L 161.535156 314.003906 L 165.179688 314.003906 L 169.46875 313.984375 L 172.183594 313.957031 L 174.039062 313.929688 L 175.253906 313.910156 L 176.753906 313.871094 L 177.828125 313.839844 L 178.828125 313.804688 L 180.042969 313.75 L 180.042969 312.976562 L 162.390625 312.972656 L 162.390625 312.613281 L 189.832031 312.609375 L 189.902344 313.871094 L 188.402344 313.960938 L 186.546875 314.042969 L 184.757812 314.109375 L 182.902344 314.164062 L 180.257812 314.226562 L 178.113281 314.265625 L 174.824219 314.308594 L 171.824219 314.339844 L 168.679688 314.359375 L 165.894531 314.367188 L 162.605469 314.371094 L 159.675781 314.363281 L 156.53125 314.34375 L 154.03125 314.320312 L 151.746094 314.285156 L 149.457031 314.246094 L 146.601562 314.175781 L 144.742188 314.121094 L 142.8125 314.054688 L 140.882812 313.972656 L 139.167969 313.886719 L 138.027344 313.816406 L 136.882812 313.742188 L 135.667969 313.644531 L 134.523438 313.535156 L 133.667969 313.433594 L 132.878906 313.320312 L 132.308594 313.214844 L 131.738281 313.066406 L 131.453125 312.953125 L 131.308594 312.851562 Z M 131.308594 312.347656 "/>
<path style=" stroke:none;fill-rule:nonzero;fill:rgb(83.921569%,15.686275%,22.352941%);fill-opacity:1;" d="M 131.308594 20.664062 L 189.902344 20.664062 L 189.902344 49.671875 L 165.484375 49.925781 L 165.484375 291.664062 L 155.65625 291.664062 L 155.65625 50.179688 L 155.515625 49.671875 L 131.308594 49.671875 Z M 131.308594 20.664062 "/>
<path style=" stroke:none;fill-rule:nonzero;fill:rgb(6.27451%,58.823529%,28.235294%);fill-opacity:1;" d="M 192.988281 314.367188 L 193.050781 314.367188 L 218.402344 312.539062 L 226.105469 312.539062 L 251.582031 314.371094 L 242.628906 314.371094 L 236.246094 313.894531 L 208.261719 313.894531 L 202.003906 314.367188 L 192.988281 314.367188 L 210.953125 313.695312 L 233.679688 313.691406 L 222.347656 312.839844 L 222.222656 312.835938 L 222.097656 312.84375 L 210.890625 313.691406 L 210.953125 313.695312 Z M 192.988281 314.367188 "/>
<path style=" stroke:none;fill-rule:nonzero;fill:rgb(14.509804%,36.078431%,60%);fill-opacity:1;" d="M 192.988281 307.945312 L 193.058594 307.9375 L 193.058594 307.804688 L 193.273438 307.597656 L 193.773438 307.332031 L 194.273438 307.148438 L 195.558594 306.824219 L 197.347656 306.507812 L 199.203125 306.265625 L 200.5625 306.121094 L 201.777344 306.011719 L 204.5625 305.804688 L 206.351562 305.699219 L 208.28125 305.605469 L 210.636719 305.511719 L 212.351562 305.457031 L 216.210938 305.367188 L 219.070312 305.332031 L 221.285156 305.3125 L 226.074219 305.3125 L 228.929688 305.335938 L 231.003906 305.363281 L 233.289062 305.40625 L 235.21875 305.457031 L 238.578125 305.578125 L 241.578125 305.734375 L 242.9375 305.820312 L 245.082031 305.992188 L 246.722656 306.160156 L 247.867188 306.304688 L 249.152344 306.507812 L 250.296875 306.757812 L 251.152344 307.039062 L 251.582031 307.277344 L 241.578125 307.277344 L 241.078125 307.054688 L 240.507812 306.882812 L 239.433594 306.65625 L 238.363281 306.496094 L 236.863281 306.335938 L 235.503906 306.230469 L 233.648438 306.125 L 232.003906 306.058594 L 230.289062 306.011719 L 228.644531 305.976562 L 225.5 305.945312 L 221.855469 305.945312 L 220.5 305.953125 L 217.710938 306 L 216.210938 306.039062 L 214.066406 306.113281 L 212.566406 306.1875 L 210.78125 306.296875 L 209.566406 306.390625 L 208.066406 306.535156 L 206.992188 306.664062 L 205.777344 306.84375 L 205.0625 306.984375 L 204.421875 307.136719 L 203.847656 307.320312 L 203.421875 307.511719 L 203.132812 307.71875 L 202.992188 307.917969 L 202.992188 308.773438 L 203.132812 308.972656 L 203.492188 309.203125 L 204.421875 309.542969 L 205.777344 309.835938 L 207.351562 310.066406 L 208.851562 310.234375 L 209.707031 310.308594 L 210.851562 310.398438 L 212.636719 310.507812 L 215.210938 310.621094 L 216.710938 310.664062 L 219 310.707031 L 221.355469 310.730469 L 224.5 310.730469 L 227.289062 310.707031 L 229.144531 310.679688 L 231.074219 310.636719 L 233.71875 310.542969 L 235.363281 310.453125 L 236.792969 310.347656 L 237.863281 310.242188 L 238.578125 310.15625 L 239.648438 309.984375 L 240.507812 309.796875 L 241.148438 309.601562 L 241.578125 309.414062 L 251.582031 309.414062 L 251.152344 309.636719 L 250.511719 309.851562 L 249.867188 310.011719 L 248.867188 310.203125 L 247.722656 310.375 L 246.082031 310.570312 L 244.722656 310.695312 L 242.9375 310.835938 L 241.292969 310.941406 L 239.507812 311.035156 L 236.863281 311.144531 L 235.148438 311.199219 L 233.289062 311.25 L 231.074219 311.292969 L 228.289062 311.332031 L 225.285156 311.355469 L 222.5 311.359375 L 219.5 311.347656 L 217.285156 311.328125 L 214.351562 311.277344 L 210.710938 311.175781 L 208.066406 311.074219 L 205.992188 310.96875 L 204.207031 310.855469 L 202.207031 310.707031 L 199.632812 310.464844 L 198.0625 310.277344 L 196.988281 310.121094 L 195.773438 309.90625 L 194.917969 309.714844 L 193.917969 309.402344 L 193.203125 309.011719 L 192.988281 308.707031 Z M 192.988281 307.945312 "/>
<path style=" stroke:none;fill-rule:nonzero;fill:rgb(96.862745%,70.196078%,16.862745%);fill-opacity:1;" d="M 192.988281 181.042969 L 193.058594 180.902344 L 193.058594 178.078125 L 193.34375 171.726562 L 194.058594 162.972656 L 194.988281 155.773438 L 195.988281 150.125 L 196.632812 147.164062 L 197.703125 142.925781 L 198.632812 139.820312 L 200.992188 133.46875 L 203.992188 127.539062 L 205.636719 125 L 207.492188 122.601562 L 210.136719 119.917969 L 211.351562 118.929688 L 215.066406 116.671875 L 219.285156 115.257812 L 223.929688 114.835938 L 226.074219 114.976562 L 229.003906 115.542969 L 233.003906 117.09375 L 235.289062 118.507812 L 237.078125 119.917969 L 238.933594 121.753906 L 241.222656 124.574219 L 243.367188 127.964844 L 245.082031 131.351562 L 246.796875 135.585938 L 248.222656 140.105469 L 249.4375 145.042969 L 250.511719 150.972656 L 251.152344 155.914062 L 251.582031 160.855469 L 241.648438 160.855469 L 241.078125 155.914062 L 240.433594 152.101562 L 239.363281 147.445312 L 238.292969 144.058594 L 237.21875 141.375 L 235.21875 137.703125 L 233.503906 135.445312 L 231.359375 133.46875 L 229.289062 132.199219 L 226.929688 131.351562 L 225.5 131.070312 L 221.714844 131.070312 L 218.285156 132.058594 L 216.28125 133.1875 L 214.855469 134.316406 L 212.851562 136.433594 L 211.636719 138.128906 L 210.921875 139.257812 L 208.78125 143.632812 L 207.351562 147.585938 L 206.566406 150.269531 L 205.5625 154.503906 L 204.851562 158.3125 L 204.0625 163.960938 L 203.636719 168.195312 L 203.0625 177.796875 L 202.992188 203.203125 L 203.207031 208.570312 L 203.636719 214.355469 L 204.207031 219.4375 L 205.0625 224.800781 L 205.921875 228.894531 L 207.421875 234.402344 L 208.707031 238.070312 L 209.707031 240.472656 L 211.636719 244.285156 L 212.425781 245.554688 L 214.28125 248.09375 L 216.210938 250.070312 L 218.570312 251.765625 L 220.355469 252.613281 L 223.214844 253.316406 L 226.859375 253.316406 L 231.144531 252.472656 L 233.863281 251.339844 L 235.71875 250.210938 L 236.933594 249.222656 L 238.433594 247.671875 L 239.507812 246.257812 L 240.507812 244.707031 L 241.722656 242.308594 L 241.722656 208.570312 L 224.070312 208.425781 L 224.070312 192.617188 L 251.511719 192.476562 L 251.582031 247.671875 L 250.082031 251.484375 L 248.222656 255.152344 L 246.4375 257.976562 L 244.578125 260.375 L 241.9375 263.058594 L 239.792969 264.753906 L 236.503906 266.726562 L 233.503906 268 L 230.359375 268.847656 L 227.574219 269.269531 L 224.285156 269.410156 L 221.355469 269.128906 L 218.210938 268.28125 L 215.710938 267.152344 L 213.425781 265.742188 L 211.136719 263.90625 L 208.28125 260.941406 L 206.421875 258.539062 L 204.492188 255.578125 L 202.5625 252.046875 L 200.847656 248.234375 L 199.703125 245.273438 L 198.5625 241.882812 L 197.347656 237.648438 L 196.203125 232.847656 L 195.347656 228.472656 L 194.558594 223.53125 L 193.988281 218.875 L 193.417969 212.519531 L 193.128906 207.441406 L 192.988281 203.0625 Z M 192.988281 181.042969 "/>
<path style=" stroke:none;fill-rule:nonzero;fill:rgb(83.921569%,15.686275%,22.352941%);fill-opacity:1;" d="M 192.988281 270.589844 L 251.582031 270.589844 L 251.582031 274.179688 L 227.164062 274.210938 L 227.164062 304.132812 L 217.335938 304.132812 L 217.335938 274.242188 L 217.195312 274.179688 L 192.988281 274.179688 Z M 192.988281 270.589844 "/>
<path style=" stroke:none;fill-rule:nonzero;fill:rgb(6.27451%,58.823529%,28.235294%);fill-opacity:1;" d="M 254.667969 278.023438 L 254.730469 277.851562 L 280.082031 94.960938 L 287.78125 94.960938 L 313.261719 278.195312 L 304.308594 278.195312 L 297.925781 230.363281 L 269.941406 230.363281 L 263.679688 278.023438 L 254.667969 278.023438 L 272.632812 210.578125 L 295.359375 210.40625 L 284.027344 124.894531 L 283.902344 124.722656 L 283.777344 125.238281 L 272.570312 210.40625 L 272.632812 210.578125 Z M 254.667969 278.023438 "/>
<path style=" stroke:none;fill-rule:nonzero;fill:rgb(14.509804%,36.078431%,60%);fill-opacity:1;" d="M 254.667969 311.546875 L 254.738281 311.542969 L 254.738281 311.433594 L 254.953125 311.261719 L 255.453125 311.039062 L 255.953125 310.890625 L 257.238281 310.621094 L 259.027344 310.359375 L 260.882812 310.160156 L 262.242188 310.039062 L 263.457031 309.949219 L 266.242188 309.78125 L 268.03125 309.695312 L 269.957031 309.617188 L 272.316406 309.539062 L 274.03125 309.492188 L 277.890625 309.417969 L 280.75 309.386719 L 282.964844 309.375 L 287.75 309.375 L 290.609375 309.390625 L 292.683594 309.414062 L 294.96875 309.453125 L 296.898438 309.492188 L 300.257812 309.59375 L 303.257812 309.722656 L 304.617188 309.792969 L 306.757812 309.933594 L 308.402344 310.074219 L 309.546875 310.191406 L 310.832031 310.359375 L 311.976562 310.566406 L 312.832031 310.796875 L 313.261719 310.996094 L 303.257812 310.996094 L 302.757812 310.8125 L 302.1875 310.671875 L 301.113281 310.484375 L 300.042969 310.351562 L 298.542969 310.21875 L 297.183594 310.132812 L 295.328125 310.046875 L 293.683594 309.992188 L 291.96875 309.949219 L 290.324219 309.921875 L 287.179688 309.894531 L 283.535156 309.894531 L 282.179688 309.902344 L 279.390625 309.941406 L 277.890625 309.972656 L 275.746094 310.035156 L 274.246094 310.09375 L 272.460938 310.1875 L 271.246094 310.265625 L 269.746094 310.382812 L 268.671875 310.488281 L 267.457031 310.640625 L 266.742188 310.753906 L 266.101562 310.882812 L 265.527344 311.03125 L 265.101562 311.191406 L 264.8125 311.359375 L 264.671875 311.523438 L 264.671875 312.234375 L 264.8125 312.398438 L 265.171875 312.589844 L 266.101562 312.867188 L 267.457031 313.109375 L 269.03125 313.300781 L 270.53125 313.4375 L 271.386719 313.503906 L 272.53125 313.574219 L 274.316406 313.667969 L 276.890625 313.757812 L 278.390625 313.796875 L 280.675781 313.832031 L 283.035156 313.851562 L 286.179688 313.851562 L 288.964844 313.832031 L 290.824219 313.808594 L 292.753906 313.773438 L 295.398438 313.695312 L 297.042969 313.621094 L 298.46875 313.535156 L 299.542969 313.449219 L 300.257812 313.375 L 301.328125 313.234375 L 302.1875 313.078125 L 302.828125 312.917969 L 303.257812 312.761719 L 313.261719 312.761719 L 312.832031 312.945312 L 312.191406 313.125 L 311.546875 313.257812 L 310.546875 313.417969 L 309.402344 313.558594 L 307.761719 313.71875 L 306.402344 313.824219 L 304.617188 313.9375 L 302.972656 314.023438 L 301.1875 314.101562 L 298.542969 314.191406 L 296.828125 314.238281 L 294.96875 314.28125 L 292.753906 314.316406 L 289.96875 314.347656 L 286.964844 314.367188 L 284.179688 314.371094 L 281.175781 314.363281 L 278.960938 314.34375 L 276.03125 314.300781 L 272.386719 314.21875 L 269.746094 314.132812 L 267.671875 314.046875 L 265.886719 313.953125 L 263.886719 313.832031 L 261.3125 313.628906 L 259.742188 313.476562 L 258.667969 313.347656 L 257.453125 313.167969 L 256.597656 313.007812 L 255.597656 312.753906 L 254.882812 312.429688 L 254.667969 312.179688 Z M 254.667969 311.546875 "/>
<path style=" stroke:none;fill-rule:nonzero;fill:rgb(96.862745%,70.196078%,16.862745%);fill-opacity:1;" d="M 254.667969 286.425781 L 254.738281 286.410156 L 254.738281 286.109375 L 255.023438 285.433594 L 255.738281 284.5 L 256.667969 283.734375 L 257.667969 283.132812 L 258.3125 282.816406 L 259.382812 282.367188 L 260.3125 282.035156 L 262.671875 281.359375 L 265.671875 280.726562 L 267.316406 280.457031 L 269.171875 280.199219 L 271.816406 279.914062 L 273.03125 279.808594 L 276.746094 279.570312 L 280.964844 279.417969 L 285.609375 279.375 L 287.75 279.386719 L 290.679688 279.449219 L 294.683594 279.613281 L 296.96875 279.765625 L 298.757812 279.914062 L 300.613281 280.109375 L 302.902344 280.410156 L 305.042969 280.773438 L 306.757812 281.132812 L 308.472656 281.585938 L 309.902344 282.066406 L 311.117188 282.589844 L 312.191406 283.222656 L 312.832031 283.75 L 313.261719 284.277344 L 303.328125 284.277344 L 302.757812 283.75 L 302.113281 283.34375 L 301.042969 282.847656 L 299.972656 282.488281 L 298.898438 282.199219 L 296.898438 281.808594 L 295.183594 281.570312 L 293.039062 281.359375 L 290.96875 281.222656 L 288.609375 281.132812 L 287.179688 281.101562 L 283.394531 281.101562 L 279.960938 281.207031 L 277.960938 281.328125 L 276.53125 281.449219 L 274.53125 281.675781 L 273.316406 281.855469 L 272.601562 281.976562 L 270.457031 282.441406 L 269.03125 282.863281 L 268.242188 283.148438 L 267.242188 283.597656 L 266.527344 284.003906 L 265.742188 284.605469 L 265.3125 285.058594 L 264.742188 286.082031 L 264.671875 288.789062 L 264.886719 289.359375 L 265.3125 289.976562 L 265.886719 290.515625 L 266.742188 291.089844 L 267.601562 291.523438 L 269.101562 292.113281 L 270.386719 292.503906 L 271.386719 292.757812 L 273.316406 293.164062 L 274.101562 293.300781 L 275.960938 293.570312 L 277.890625 293.78125 L 280.25 293.960938 L 282.035156 294.050781 L 284.894531 294.125 L 288.539062 294.125 L 292.824219 294.035156 L 295.539062 293.914062 L 297.398438 293.796875 L 298.613281 293.691406 L 300.113281 293.523438 L 301.1875 293.375 L 302.1875 293.210938 L 303.402344 292.953125 L 303.402344 289.359375 L 285.75 289.34375 L 285.75 287.660156 L 313.191406 287.644531 L 313.261719 293.523438 L 311.761719 293.929688 L 309.902344 294.320312 L 308.117188 294.621094 L 306.257812 294.878906 L 303.617188 295.164062 L 301.472656 295.34375 L 298.183594 295.554688 L 295.183594 295.691406 L 292.039062 295.78125 L 289.253906 295.824219 L 285.964844 295.839844 L 283.035156 295.8125 L 279.890625 295.71875 L 277.390625 295.601562 L 275.105469 295.449219 L 272.816406 295.253906 L 269.957031 294.9375 L 268.101562 294.683594 L 266.171875 294.367188 L 264.242188 293.992188 L 262.527344 293.585938 L 261.382812 293.269531 L 260.242188 292.910156 L 259.027344 292.457031 L 257.882812 291.945312 L 257.023438 291.480469 L 256.238281 290.953125 L 255.667969 290.457031 L 255.09375 289.78125 L 254.808594 289.238281 L 254.667969 288.773438 Z M 254.667969 286.425781 "/>
<path style=" stroke:none;fill-rule:nonzero;fill:rgb(83.921569%,15.686275%,22.352941%);fill-opacity:1;" d="M 254.667969 297.019531 L 313.261719 297.019531 L 313.261719 298.214844 L 288.839844 298.226562 L 288.839844 308.195312 L 279.015625 308.195312 L 279.015625 298.238281 L 278.875 298.214844 L 254.667969 298.214844 Z M 254.667969 297.019531 "/>
<path style=" stroke:none;fill-rule:nonzero;fill:rgb(6.27451%,58.823529%,28.235294%);fill-opacity:1;" d="M 316.347656 314.367188 L 316.410156 314.363281 L 341.761719 310.207031 L 349.460938 310.207031 L 374.941406 314.371094 L 365.988281 314.371094 L 359.605469 313.285156 L 331.621094 313.285156 L 325.359375 314.367188 L 316.347656 314.367188 L 334.3125 312.835938 L 357.039062 312.832031 L 345.707031 310.886719 L 345.582031 310.882812 L 345.457031 310.894531 L 334.25 312.832031 L 334.3125 312.835938 Z M 316.347656 314.367188 "/>
<path style=" stroke:none;fill-rule:nonzero;fill:rgb(14.509804%,36.078431%,60%);fill-opacity:1;" d="M 316.347656 151.71875 L 316.417969 151.5 L 316.417969 146.292969 L 316.632812 138.050781 L 317.132812 127.636719 L 317.632812 120.476562 L 318.917969 107.675781 L 320.703125 95.3125 L 322.5625 85.765625 L 323.921875 80.125 L 325.136719 75.785156 L 327.921875 67.757812 L 329.707031 63.636719 L 331.636719 59.949219 L 333.996094 56.261719 L 335.710938 54.089844 L 339.570312 50.621094 L 342.429688 49.101562 L 344.644531 48.449219 L 349.429688 48.449219 L 352.289062 49.320312 L 354.363281 50.402344 L 356.648438 52.140625 L 358.578125 54.089844 L 361.9375 58.863281 L 364.9375 64.9375 L 366.292969 68.410156 L 368.4375 75.136719 L 370.082031 81.644531 L 371.226562 87.285156 L 372.511719 95.3125 L 373.65625 105.074219 L 374.511719 116.136719 L 374.941406 125.46875 L 364.9375 125.46875 L 364.4375 116.789062 L 363.867188 110.0625 L 362.792969 101.167969 L 361.722656 94.878906 L 360.222656 88.585938 L 358.863281 84.464844 L 357.003906 80.34375 L 355.363281 77.738281 L 353.648438 75.785156 L 352.003906 74.484375 L 348.859375 73.183594 L 345.214844 73.183594 L 343.855469 73.617188 L 341.070312 75.351562 L 339.570312 76.871094 L 337.425781 79.910156 L 335.925781 82.730469 L 334.140625 87.066406 L 332.925781 90.753906 L 331.421875 96.394531 L 330.351562 101.386719 L 329.136719 108.546875 L 328.421875 113.96875 L 327.777344 120.042969 L 327.207031 127.203125 L 326.777344 134.796875 L 326.492188 142.824219 L 326.351562 150.632812 L 326.351562 184.261719 L 326.492188 192.070312 L 326.851562 201.183594 L 327.777344 214.414062 L 329.136719 225.914062 L 330.707031 235.027344 L 332.210938 241.535156 L 333.066406 244.570312 L 334.210938 248.042969 L 335.996094 252.382812 L 338.570312 256.71875 L 340.070312 258.457031 L 342.355469 260.191406 L 344.714844 261.058594 L 347.859375 261.058594 L 350.644531 260.191406 L 352.503906 259.105469 L 354.433594 257.371094 L 357.078125 253.683594 L 358.71875 250.210938 L 360.148438 246.089844 L 361.222656 241.96875 L 361.9375 238.496094 L 363.007812 231.769531 L 363.867188 224.394531 L 364.507812 216.800781 L 364.9375 209.425781 L 374.941406 209.425781 L 374.511719 218.105469 L 373.871094 226.566406 L 373.226562 232.855469 L 372.226562 240.449219 L 371.082031 247.175781 L 369.4375 254.769531 L 368.082031 259.757812 L 366.292969 265.179688 L 364.652344 269.304688 L 362.863281 272.992188 L 360.222656 277.332031 L 358.507812 279.5 L 356.648438 281.453125 L 354.433594 283.1875 L 351.644531 284.707031 L 348.644531 285.574219 L 345.859375 285.792969 L 342.855469 285.355469 L 340.640625 284.488281 L 337.710938 282.535156 L 334.066406 278.632812 L 331.421875 274.511719 L 329.351562 270.386719 L 327.566406 266.050781 L 325.5625 260.191406 L 322.992188 250.644531 L 321.417969 243.269531 L 320.347656 237.195312 L 319.132812 228.734375 L 318.273438 221.140625 L 317.273438 208.992188 L 316.558594 193.589844 L 316.347656 181.65625 Z M 316.347656 151.71875 "/>
<path style=" stroke:none;fill-rule:nonzero;fill:rgb(96.862745%,70.196078%,16.862745%);fill-opacity:1;" d="M 316.347656 304.359375 L 316.417969 304.351562 L 316.417969 304.203125 L 316.703125 303.867188 L 317.417969 303.402344 L 318.347656 303.023438 L 319.347656 302.726562 L 319.992188 302.566406 L 321.0625 302.34375 L 321.992188 302.179688 L 324.347656 301.84375 L 327.351562 301.53125 L 328.992188 301.398438 L 330.851562 301.269531 L 333.496094 301.128906 L 334.710938 301.074219 L 338.425781 300.957031 L 342.640625 300.882812 L 347.289062 300.859375 L 349.429688 300.867188 L 352.359375 300.898438 L 356.363281 300.980469 L 358.648438 301.054688 L 360.433594 301.128906 L 362.292969 301.226562 L 364.578125 301.375 L 366.722656 301.554688 L 368.4375 301.734375 L 370.152344 301.957031 L 371.582031 302.195312 L 372.796875 302.457031 L 373.871094 302.769531 L 374.511719 303.03125 L 374.941406 303.292969 L 365.007812 303.292969 L 364.4375 303.03125 L 363.792969 302.828125 L 362.722656 302.582031 L 361.648438 302.402344 L 360.578125 302.261719 L 358.578125 302.066406 L 356.863281 301.949219 L 354.71875 301.84375 L 352.644531 301.777344 L 350.289062 301.734375 L 348.859375 301.71875 L 345.070312 301.71875 L 341.640625 301.769531 L 339.640625 301.828125 L 338.210938 301.890625 L 336.210938 302 L 334.996094 302.089844 L 334.28125 302.148438 L 332.136719 302.382812 L 330.707031 302.589844 L 329.921875 302.730469 L 328.921875 302.957031 L 328.207031 303.15625 L 327.421875 303.457031 L 326.992188 303.679688 L 326.421875 304.1875 L 326.351562 305.53125 L 326.5625 305.8125 L 326.992188 306.121094 L 327.566406 306.386719 L 328.421875 306.671875 L 329.28125 306.886719 L 330.78125 307.179688 L 332.066406 307.371094 L 333.066406 307.5 L 334.996094 307.699219 L 335.78125 307.769531 L 337.640625 307.902344 L 339.570312 308.007812 L 341.929688 308.097656 L 343.714844 308.140625 L 346.574219 308.179688 L 350.21875 308.179688 L 354.503906 308.132812 L 357.21875 308.074219 L 359.078125 308.015625 L 360.292969 307.960938 L 361.792969 307.878906 L 362.863281 307.804688 L 363.867188 307.722656 L 365.078125 307.597656 L 365.078125 305.8125 L 347.429688 305.804688 L 347.429688 304.96875 L 374.871094 304.960938 L 374.941406 307.878906 L 373.441406 308.082031 L 371.582031 308.273438 L 369.796875 308.425781 L 367.9375 308.550781 L 365.292969 308.691406 L 363.152344 308.78125 L 359.863281 308.886719 L 356.863281 308.953125 L 353.71875 309 L 350.929688 309.019531 L 347.644531 309.027344 L 344.714844 309.015625 L 341.570312 308.96875 L 339.070312 308.910156 L 336.78125 308.835938 L 334.496094 308.738281 L 331.636719 308.582031 L 329.78125 308.453125 L 327.851562 308.296875 L 325.921875 308.109375 L 324.207031 307.910156 L 323.0625 307.753906 L 321.917969 307.574219 L 320.703125 307.351562 L 319.5625 307.097656 L 318.703125 306.863281 L 317.917969 306.605469 L 317.347656 306.359375 L 316.773438 306.023438 L 316.488281 305.753906 L 316.347656 305.523438 Z M 316.347656 304.359375 "/>
<path style=" stroke:none;fill-rule:nonzero;fill:rgb(83.921569%,15.686275%,22.352941%);fill-opacity:1;" d="M 316.347656 286.96875 L 374.941406 286.96875 L 374.941406 288.332031 L 350.519531 288.34375 L 350.519531 299.679688 L 340.695312 299.679688 L 340.695312 288.355469 L 340.554688 288.332031 L 316.347656 288.332031 Z M 316.347656 286.96875 "/>
<path style=" stroke:none;fill-rule:nonzero;fill:rgb(6.27451%,58.823529%,28.235294%);fill-opacity:1;" d="M 378.023438 301.21875 L 378.085938 301.199219 L 403.441406 279.152344 L 411.140625 279.152344 L 436.621094 301.238281 L 427.667969 301.238281 L 421.28125 295.472656 L 393.300781 295.472656 L 387.039062 301.21875 L 378.023438 301.21875 L 395.992188 293.089844 L 418.714844 293.066406 L 407.386719 282.761719 L 407.261719 282.738281 L 407.136719 282.800781 L 395.929688 293.066406 L 395.992188 293.089844 Z M 378.023438 301.21875 "/>
<path style=" stroke:none;fill-rule:nonzero;fill:rgb(14.509804%,36.078431%,60%);fill-opacity:1;" d="M 378.023438 311.523438 L 378.097656 311.519531 L 378.097656 311.40625 L 378.3125 311.234375 L 378.8125 311.011719 L 379.3125 310.859375 L 380.597656 310.589844 L 382.382812 310.324219 L 384.242188 310.121094 L 385.601562 310.003906 L 386.8125 309.910156 L 389.601562 309.742188 L 391.386719 309.652344 L 393.316406 309.574219 L 395.675781 309.496094 L 397.390625 309.449219 L 401.25 309.375 L 404.105469 309.34375 L 406.324219 309.332031 L 411.109375 309.332031 L 413.96875 309.347656 L 416.039062 309.371094 L 418.328125 309.410156 L 420.257812 309.449219 L 423.613281 309.550781 L 426.617188 309.679688 L 427.972656 309.753906 L 430.117188 309.898438 L 431.761719 310.035156 L 432.90625 310.15625 L 434.191406 310.324219 L 435.335938 310.53125 L 436.191406 310.769531 L 436.621094 310.964844 L 426.617188 310.964844 L 426.117188 310.78125 L 425.542969 310.640625 L 424.472656 310.449219 L 423.402344 310.316406 L 421.898438 310.183594 L 420.542969 310.09375 L 418.683594 310.007812 L 417.039062 309.953125 L 415.324219 309.910156 L 413.683594 309.882812 L 410.539062 309.855469 L 406.894531 309.855469 L 405.535156 309.863281 L 402.75 309.902344 L 401.25 309.933594 L 399.105469 310 L 397.605469 310.058594 L 395.816406 310.148438 L 394.601562 310.230469 L 393.101562 310.347656 L 392.03125 310.453125 L 390.816406 310.605469 L 390.101562 310.722656 L 389.457031 310.851562 L 388.886719 311.003906 L 388.457031 311.164062 L 388.171875 311.335938 L 388.027344 311.5 L 388.027344 312.214844 L 388.171875 312.378906 L 388.53125 312.574219 L 389.457031 312.855469 L 390.816406 313.097656 L 392.386719 313.292969 L 393.890625 313.429688 L 394.746094 313.496094 L 395.890625 313.570312 L 397.675781 313.660156 L 400.25 313.753906 L 401.75 313.789062 L 404.035156 313.828125 L 406.394531 313.84375 L 409.539062 313.84375 L 412.324219 313.828125 L 414.183594 313.804688 L 416.113281 313.765625 L 418.757812 313.6875 L 420.398438 313.613281 L 421.828125 313.527344 L 422.902344 313.441406 L 423.613281 313.367188 L 424.6875 313.222656 L 425.542969 313.066406 L 426.1875 312.90625 L 426.617188 312.75 L 436.621094 312.75 L 436.191406 312.933594 L 435.546875 313.113281 L 434.90625 313.246094 L 433.90625 313.40625 L 432.761719 313.550781 L 431.117188 313.710938 L 429.761719 313.816406 L 427.972656 313.933594 L 426.332031 314.019531 L 424.542969 314.097656 L 421.898438 314.191406 L 420.183594 314.238281 L 418.328125 314.277344 L 416.113281 314.316406 L 413.324219 314.347656 L 410.324219 314.367188 L 407.539062 314.371094 L 404.535156 314.363281 L 402.320312 314.34375 L 399.390625 314.300781 L 395.746094 314.21875 L 393.101562 314.132812 L 391.03125 314.042969 L 389.242188 313.953125 L 387.242188 313.828125 L 384.671875 313.625 L 383.097656 313.46875 L 382.027344 313.339844 L 380.8125 313.160156 L 379.953125 312.996094 L 378.953125 312.738281 L 378.238281 312.414062 L 378.023438 312.160156 Z M 378.023438 311.523438 "/>
<path style=" stroke:none;fill-rule:nonzero;fill:rgb(96.862745%,70.196078%,16.862745%);fill-opacity:1;" d="M 378.023438 167.757812 L 378.097656 167.578125 L 378.097656 164.058594 L 378.382812 156.136719 L 379.097656 145.21875 L 380.027344 136.242188 L 381.027344 129.199219 L 381.667969 125.5 L 382.742188 120.21875 L 383.671875 116.34375 L 386.027344 108.421875 L 389.03125 101.027344 L 390.671875 97.859375 L 392.53125 94.867188 L 395.175781 91.519531 L 396.390625 90.289062 L 400.105469 87.46875 L 404.320312 85.710938 L 408.964844 85.183594 L 411.109375 85.359375 L 414.039062 86.0625 L 418.042969 88 L 420.328125 89.757812 L 422.113281 91.519531 L 423.972656 93.808594 L 426.257812 97.332031 L 428.402344 101.554688 L 430.117188 105.78125 L 431.832031 111.0625 L 433.261719 116.699219 L 434.476562 122.859375 L 435.546875 130.253906 L 436.191406 136.417969 L 436.621094 142.578125 L 426.6875 142.578125 L 426.117188 136.417969 L 425.472656 131.664062 L 424.402344 125.851562 L 423.328125 121.628906 L 422.257812 118.28125 L 420.257812 113.703125 L 418.542969 110.886719 L 416.398438 108.421875 L 414.324219 106.835938 L 411.96875 105.78125 L 410.539062 105.429688 L 406.75 105.429688 L 403.320312 106.660156 L 401.320312 108.070312 L 399.890625 109.480469 L 397.890625 112.121094 L 396.675781 114.230469 L 395.960938 115.640625 L 393.816406 121.097656 L 392.386719 126.027344 L 391.601562 129.375 L 390.601562 134.65625 L 389.886719 139.410156 L 389.101562 146.453125 L 388.671875 151.734375 L 388.101562 163.707031 L 388.027344 195.398438 L 388.242188 202.089844 L 388.671875 209.308594 L 389.242188 215.644531 L 390.101562 222.335938 L 390.960938 227.441406 L 392.460938 234.308594 L 393.746094 238.886719 L 394.746094 241.878906 L 396.675781 246.632812 L 397.460938 248.21875 L 399.320312 251.386719 L 401.25 253.851562 L 403.605469 255.964844 L 405.394531 257.019531 L 408.25 257.902344 L 411.894531 257.902344 L 416.183594 256.84375 L 418.898438 255.4375 L 420.757812 254.027344 L 421.972656 252.796875 L 423.472656 250.859375 L 424.542969 249.097656 L 425.542969 247.160156 L 426.757812 244.167969 L 426.757812 202.089844 L 409.109375 201.914062 L 409.109375 182.191406 L 436.550781 182.015625 L 436.621094 250.859375 L 435.121094 255.613281 L 433.261719 260.191406 L 431.476562 263.710938 L 429.617188 266.703125 L 426.972656 270.050781 L 424.828125 272.164062 L 421.542969 274.628906 L 418.542969 276.210938 L 415.398438 277.269531 L 412.609375 277.796875 L 409.324219 277.972656 L 406.394531 277.621094 L 403.25 276.5625 L 400.75 275.15625 L 398.460938 273.394531 L 396.175781 271.105469 L 393.316406 267.410156 L 391.460938 264.414062 L 389.53125 260.71875 L 387.601562 256.316406 L 385.886719 251.5625 L 384.742188 247.867188 L 383.597656 243.640625 L 382.382812 238.359375 L 381.242188 232.371094 L 380.382812 226.914062 L 379.597656 220.75 L 379.027344 214.941406 L 378.453125 207.019531 L 378.167969 200.679688 L 378.023438 195.222656 Z M 378.023438 167.757812 "/>
<path style=" stroke:none;fill-rule:nonzero;fill:rgb(83.921569%,15.686275%,22.352941%);fill-opacity:1;" d="M 378.023438 302.417969 L 436.621094 302.417969 L 436.621094 303.03125 L 412.199219 303.039062 L 412.199219 308.152344 L 402.375 308.152344 L 402.375 303.042969 L 402.230469 303.03125 L 378.023438 303.03125 Z M 378.023438 302.417969 "/>
<path style=" stroke:none;fill-rule:nonzero;fill:rgb(6.27451%,58.823529%,28.235294%);fill-opacity:1;" d="M 439.703125 314.367188 L 439.765625 314.359375 L 465.121094 308.707031 L 472.820312 308.707031 L 498.300781 314.371094 L 489.347656 314.371094 L 482.960938 312.890625 L 454.980469 312.890625 L 448.71875 314.367188 L 439.703125 314.367188 L 457.671875 312.28125 L 480.394531 312.273438 L 469.066406 309.632812 L 468.9375 309.625 L 468.8125 309.640625 L 457.609375 312.273438 L 457.671875 312.28125 Z M 439.703125 314.367188 "/>
<path style=" stroke:none;fill-rule:nonzero;fill:rgb(14.509804%,36.078431%,60%);fill-opacity:1;" d="M 439.703125 289.148438 L 439.777344 289.136719 L 439.777344 288.84375 L 439.988281 288.375 L 440.492188 287.78125 L 440.992188 287.375 L 442.277344 286.648438 L 444.0625 285.945312 L 445.921875 285.402344 L 447.277344 285.082031 L 448.492188 284.835938 L 451.28125 284.378906 L 453.066406 284.144531 L 454.996094 283.933594 L 457.355469 283.726562 L 459.070312 283.601562 L 462.929688 283.40625 L 465.785156 283.320312 L 468 283.28125 L 472.789062 283.28125 L 475.648438 283.332031 L 477.71875 283.390625 L 480.007812 283.492188 L 481.9375 283.601562 L 485.292969 283.875 L 488.296875 284.21875 L 489.652344 284.414062 L 491.796875 284.796875 L 493.441406 285.167969 L 494.582031 285.488281 L 495.871094 285.945312 L 497.011719 286.5 L 497.871094 287.128906 L 498.300781 287.660156 L 488.296875 287.660156 L 487.796875 287.164062 L 487.222656 286.78125 L 486.152344 286.277344 L 485.078125 285.921875 L 483.578125 285.5625 L 482.222656 285.328125 L 480.363281 285.09375 L 478.71875 284.945312 L 477.003906 284.835938 L 475.363281 284.761719 L 472.21875 284.6875 L 468.574219 284.6875 L 467.214844 284.710938 L 464.429688 284.808594 L 462.929688 284.898438 L 460.785156 285.070312 L 459.285156 285.230469 L 457.496094 285.476562 L 456.28125 285.6875 L 454.78125 286.007812 L 453.710938 286.289062 L 452.496094 286.695312 L 451.78125 287.003906 L 451.136719 287.351562 L 450.566406 287.757812 L 450.136719 288.1875 L 449.851562 288.644531 L 449.707031 289.089844 L 449.707031 291 L 449.851562 291.445312 L 450.207031 291.960938 L 451.136719 292.714844 L 452.496094 293.367188 L 454.066406 293.882812 L 455.566406 294.253906 L 456.425781 294.425781 L 457.570312 294.625 L 459.355469 294.871094 L 461.925781 295.117188 L 463.429688 295.214844 L 465.714844 295.316406 L 468.074219 295.363281 L 471.21875 295.363281 L 474.003906 295.316406 L 475.863281 295.253906 L 477.792969 295.15625 L 480.433594 294.945312 L 482.078125 294.746094 L 483.507812 294.511719 L 484.578125 294.277344 L 485.292969 294.082031 L 486.367188 293.699219 L 487.222656 293.28125 L 487.867188 292.847656 L 488.296875 292.429688 L 498.300781 292.429688 L 497.871094 292.921875 L 497.226562 293.402344 L 496.585938 293.761719 L 495.585938 294.191406 L 494.441406 294.574219 L 492.796875 295.007812 L 491.441406 295.289062 L 489.652344 295.597656 L 488.007812 295.832031 L 486.222656 296.042969 L 483.578125 296.289062 L 481.863281 296.410156 L 480.007812 296.523438 L 477.792969 296.621094 L 475.003906 296.707031 L 472.003906 296.757812 L 469.214844 296.769531 L 466.214844 296.746094 L 464 296.695312 L 461.070312 296.585938 L 457.425781 296.363281 L 454.78125 296.128906 L 452.710938 295.894531 L 450.921875 295.648438 L 448.921875 295.316406 L 446.351562 294.773438 L 444.777344 294.351562 L 443.707031 294.007812 L 442.492188 293.527344 L 441.632812 293.09375 L 440.632812 292.40625 L 439.917969 291.53125 L 439.703125 290.851562 Z M 439.703125 289.148438 "/>
<path style=" stroke:none;fill-rule:nonzero;fill:rgb(96.862745%,70.196078%,16.862745%);fill-opacity:1;" d="M 439.703125 302.050781 L 439.777344 302.042969 L 439.777344 301.867188 L 440.0625 301.472656 L 440.777344 300.929688 L 441.707031 300.484375 L 442.707031 300.136719 L 443.347656 299.953125 L 444.421875 299.691406 L 445.347656 299.496094 L 447.707031 299.105469 L 450.707031 298.734375 L 452.351562 298.578125 L 454.210938 298.429688 L 456.855469 298.265625 L 458.070312 298.203125 L 461.785156 298.0625 L 466 297.976562 L 470.644531 297.949219 L 472.789062 297.957031 L 475.71875 297.992188 L 479.71875 298.089844 L 482.007812 298.175781 L 483.792969 298.265625 L 485.652344 298.378906 L 487.9375 298.550781 L 490.082031 298.761719 L 491.796875 298.972656 L 493.511719 299.234375 L 494.941406 299.515625 L 496.15625 299.820312 L 497.226562 300.1875 L 497.871094 300.496094 L 498.300781 300.800781 L 488.367188 300.800781 L 487.796875 300.496094 L 487.152344 300.257812 L 486.082031 299.96875 L 485.007812 299.757812 L 483.9375 299.59375 L 481.9375 299.367188 L 480.222656 299.226562 L 478.078125 299.105469 L 476.003906 299.023438 L 473.648438 298.972656 L 472.21875 298.953125 L 468.429688 298.953125 L 465 299.015625 L 463 299.085938 L 461.570312 299.15625 L 459.570312 299.289062 L 458.355469 299.390625 L 457.640625 299.460938 L 455.496094 299.734375 L 454.066406 299.976562 L 453.28125 300.144531 L 452.28125 300.40625 L 451.566406 300.644531 L 450.78125 300.992188 L 450.351562 301.253906 L 449.78125 301.851562 L 449.707031 303.425781 L 449.921875 303.757812 L 450.351562 304.113281 L 450.921875 304.429688 L 451.78125 304.761719 L 452.636719 305.015625 L 454.140625 305.355469 L 455.425781 305.585938 L 456.425781 305.734375 L 458.355469 305.96875 L 459.140625 306.046875 L 461 306.207031 L 462.929688 306.328125 L 465.285156 306.433594 L 467.074219 306.484375 L 469.929688 306.527344 L 473.574219 306.527344 L 477.863281 306.476562 L 480.578125 306.40625 L 482.4375 306.335938 L 483.652344 306.273438 L 485.152344 306.179688 L 486.222656 306.089844 L 487.222656 305.996094 L 488.4375 305.847656 L 488.4375 303.757812 L 470.789062 303.746094 L 470.789062 302.769531 L 498.226562 302.757812 L 498.300781 306.179688 L 496.800781 306.414062 L 494.941406 306.640625 L 493.15625 306.816406 L 491.296875 306.964844 L 488.652344 307.132812 L 486.507812 307.238281 L 483.222656 307.359375 L 480.222656 307.4375 L 477.078125 307.492188 L 474.289062 307.515625 L 471.003906 307.527344 L 468.074219 307.507812 L 464.929688 307.457031 L 462.429688 307.386719 L 460.140625 307.296875 L 457.855469 307.183594 L 454.996094 307 L 453.136719 306.851562 L 451.210938 306.667969 L 449.28125 306.449219 L 447.566406 306.214844 L 446.421875 306.03125 L 445.277344 305.820312 L 444.0625 305.558594 L 442.921875 305.261719 L 442.0625 304.988281 L 441.277344 304.683594 L 440.703125 304.394531 L 440.132812 304 L 439.847656 303.6875 L 439.703125 303.414062 Z M 439.703125 302.050781 "/>
<path style=" stroke:none;fill-rule:nonzero;fill:rgb(83.921569%,15.686275%,22.352941%);fill-opacity:1;" d="M 439.703125 70.847656 L 498.300781 70.847656 L 498.300781 93.460938 L 473.878906 93.65625 L 473.878906 282.101562 L 464.054688 282.101562 L 464.054688 93.855469 L 463.910156 93.460938 L 439.703125 93.460938 Z M 439.703125 70.847656 "/>
<path style=" stroke:none;fill-rule:nonzero;fill:rgb(6.27451%,58.823529%,28.235294%);fill-opacity:1;" d="M 501.382812 304.324219 L 501.445312 304.289062 L 526.800781 264.492188 L 534.5 264.492188 L 559.980469 304.363281 L 551.027344 304.363281 L 544.640625 293.957031 L 516.660156 293.957031 L 510.398438 304.324219 L 501.382812 304.324219 L 519.351562 289.648438 L 542.074219 289.613281 L 530.742188 271.007812 L 530.617188 270.96875 L 530.492188 271.082031 L 519.289062 289.613281 L 519.351562 289.648438 Z M 501.382812 304.324219 "/>
<path style=" stroke:none;fill-rule:nonzero;fill:rgb(14.509804%,36.078431%,60%);fill-opacity:1;" d="M 501.382812 196.90625 L 501.453125 196.796875 L 501.453125 194.21875 L 501.667969 190.136719 L 502.167969 184.976562 L 502.667969 181.429688 L 503.957031 175.089844 L 505.742188 168.964844 L 507.601562 164.238281 L 508.957031 161.445312 L 510.171875 159.296875 L 512.960938 155.320312 L 514.746094 153.277344 L 516.675781 151.449219 L 519.035156 149.625 L 520.75 148.550781 L 524.605469 146.832031 L 527.464844 146.078125 L 529.679688 145.757812 L 534.46875 145.757812 L 537.328125 146.1875 L 539.398438 146.722656 L 541.6875 147.582031 L 543.613281 148.550781 L 546.972656 150.914062 L 549.976562 153.921875 L 551.332031 155.640625 L 553.476562 158.972656 L 555.121094 162.195312 L 556.261719 164.992188 L 557.550781 168.964844 L 558.691406 173.800781 L 559.550781 179.28125 L 559.980469 183.902344 L 549.976562 183.902344 L 549.472656 179.605469 L 548.902344 176.273438 L 547.832031 171.867188 L 546.757812 168.75 L 545.257812 165.636719 L 543.902344 163.59375 L 542.042969 161.550781 L 540.398438 160.261719 L 538.683594 159.296875 L 537.039062 158.652344 L 533.898438 158.007812 L 530.253906 158.007812 L 528.894531 158.222656 L 526.109375 159.082031 L 524.605469 159.832031 L 522.464844 161.335938 L 520.960938 162.734375 L 519.175781 164.882812 L 517.960938 166.710938 L 516.460938 169.503906 L 515.390625 171.976562 L 514.175781 175.519531 L 513.460938 178.207031 L 512.816406 181.214844 L 512.246094 184.761719 L 511.816406 188.523438 L 511.53125 192.5 L 511.386719 196.367188 L 511.386719 213.023438 L 511.53125 216.890625 L 511.886719 221.40625 L 512.816406 227.960938 L 514.175781 233.65625 L 515.746094 238.167969 L 517.246094 241.390625 L 518.105469 242.898438 L 519.246094 244.617188 L 521.035156 246.765625 L 523.605469 248.914062 L 525.105469 249.773438 L 527.394531 250.632812 L 529.753906 251.0625 L 532.894531 251.0625 L 535.683594 250.632812 L 537.542969 250.097656 L 539.46875 249.238281 L 542.113281 247.410156 L 543.757812 245.691406 L 545.1875 243.648438 L 546.257812 241.605469 L 546.972656 239.886719 L 548.046875 236.558594 L 548.902344 232.902344 L 549.546875 229.140625 L 549.976562 225.488281 L 559.980469 225.488281 L 559.550781 229.789062 L 558.90625 233.976562 L 558.265625 237.09375 L 557.261719 240.855469 L 556.121094 244.1875 L 554.476562 247.949219 L 553.117188 250.417969 L 551.332031 253.105469 L 549.6875 255.148438 L 547.902344 256.972656 L 545.257812 259.121094 L 543.542969 260.199219 L 541.6875 261.164062 L 539.46875 262.023438 L 536.683594 262.777344 L 533.683594 263.207031 L 530.894531 263.3125 L 527.894531 263.097656 L 525.679688 262.667969 L 522.75 261.703125 L 519.105469 259.765625 L 516.460938 257.726562 L 514.390625 255.683594 L 512.601562 253.535156 L 510.601562 250.632812 L 508.027344 245.90625 L 506.457031 242.253906 L 505.386719 239.242188 L 504.171875 235.050781 L 503.3125 231.292969 L 502.3125 225.273438 L 501.597656 217.644531 L 501.382812 211.734375 Z M 501.382812 196.90625 "/>
<path style=" stroke:none;fill-rule:nonzero;fill:rgb(96.862745%,70.196078%,16.862745%);fill-opacity:1;" d="M 501.382812 308.378906 L 501.453125 308.375 L 501.453125 308.253906 L 501.742188 307.980469 L 502.457031 307.605469 L 503.382812 307.296875 L 504.382812 307.054688 L 505.027344 306.925781 L 506.101562 306.746094 L 507.027344 306.613281 L 509.386719 306.339844 L 512.386719 306.085938 L 514.03125 305.976562 L 515.890625 305.875 L 518.535156 305.761719 L 519.75 305.71875 L 523.464844 305.621094 L 527.679688 305.558594 L 532.324219 305.542969 L 534.46875 305.546875 L 537.398438 305.574219 L 541.398438 305.640625 L 543.6875 305.699219 L 545.472656 305.761719 L 547.332031 305.839844 L 549.617188 305.960938 L 551.761719 306.105469 L 553.476562 306.25 L 555.191406 306.429688 L 556.621094 306.625 L 557.835938 306.835938 L 558.90625 307.089844 L 559.550781 307.300781 L 559.980469 307.515625 L 550.046875 307.515625 L 549.472656 307.300781 L 548.832031 307.140625 L 547.757812 306.941406 L 546.6875 306.792969 L 545.617188 306.679688 L 543.613281 306.523438 L 541.898438 306.425781 L 539.757812 306.339844 L 537.683594 306.285156 L 535.324219 306.25 L 533.898438 306.238281 L 530.109375 306.238281 L 526.679688 306.28125 L 524.679688 306.328125 L 523.25 306.378906 L 521.25 306.46875 L 520.035156 306.539062 L 519.320312 306.589844 L 517.175781 306.777344 L 515.746094 306.945312 L 514.960938 307.058594 L 513.960938 307.242188 L 513.246094 307.40625 L 512.460938 307.648438 L 512.03125 307.828125 L 511.460938 308.238281 L 511.386719 309.328125 L 511.601562 309.558594 L 512.03125 309.804688 L 512.601562 310.023438 L 513.460938 310.253906 L 514.316406 310.429688 L 515.816406 310.664062 L 517.105469 310.824219 L 518.105469 310.925781 L 520.035156 311.089844 L 520.820312 311.144531 L 522.679688 311.253906 L 524.605469 311.335938 L 526.964844 311.410156 L 528.75 311.445312 L 531.609375 311.476562 L 535.253906 311.476562 L 539.542969 311.441406 L 542.257812 311.390625 L 544.113281 311.34375 L 545.328125 311.300781 L 546.832031 311.234375 L 547.902344 311.171875 L 548.902344 311.105469 L 550.117188 311.003906 L 550.117188 309.558594 L 532.46875 309.550781 L 532.46875 308.875 L 559.90625 308.867188 L 559.980469 311.234375 L 558.476562 311.398438 L 556.621094 311.554688 L 554.832031 311.675781 L 552.976562 311.777344 L 550.332031 311.894531 L 548.1875 311.964844 L 544.902344 312.050781 L 541.898438 312.105469 L 538.753906 312.140625 L 535.96875 312.160156 L 532.683594 312.164062 L 529.753906 312.152344 L 526.609375 312.117188 L 524.105469 312.070312 L 521.820312 312.007812 L 519.535156 311.929688 L 516.675781 311.800781 L 514.816406 311.699219 L 512.886719 311.574219 L 510.957031 311.421875 L 509.242188 311.257812 L 508.101562 311.132812 L 506.957031 310.984375 L 505.742188 310.804688 L 504.597656 310.597656 L 503.742188 310.410156 L 502.957031 310.199219 L 502.382812 310 L 501.8125 309.726562 L 501.527344 309.511719 L 501.382812 309.324219 Z M 501.382812 308.378906 "/>
<path style=" stroke:none;fill-rule:nonzero;fill:rgb(83.921569%,15.686275%,22.352941%);fill-opacity:1;" d="M 501.382812 313.34375 L 559.980469 313.34375 L 559.980469 313.453125 L 535.558594 313.457031 L 535.558594 314.371094 L 525.734375 314.371094 L 525.734375 313.457031 L 525.589844 313.453125 L 501.382812 313.453125 Z M 501.382812 313.34375 "/>
<path style=" stroke:none;fill-rule:nonzero;fill:rgb(6.27451%,58.823529%,28.235294%);fill-opacity:1;" d="M 563.0625 290.3125 L 563.125 290.0625 L 588.480469 25.472656 L 596.179688 25.472656 L 621.65625 290.558594 L 612.707031 290.558594 L 606.320312 221.363281 L 578.335938 221.363281 L 572.078125 290.3125 L 563.0625 290.3125 L 581.03125 192.738281 L 603.753906 192.492188 L 592.421875 68.785156 L 592.296875 68.535156 L 592.171875 69.28125 L 580.964844 192.492188 L 581.03125 192.738281 Z M 563.0625 290.3125 "/>
<path style=" stroke:none;fill-rule:nonzero;fill:rgb(14.509804%,36.078431%,60%);fill-opacity:1;" d="M 563.0625 312.414062 L 563.132812 312.410156 L 563.132812 312.332031 L 563.347656 312.214844 L 563.847656 312.0625 L 564.347656 311.957031 L 565.636719 311.769531 L 567.421875 311.589844 L 569.28125 311.449219 L 570.636719 311.367188 L 571.851562 311.304688 L 574.640625 311.1875 L 576.425781 311.125 L 578.355469 311.070312 L 580.710938 311.019531 L 582.425781 310.988281 L 586.285156 310.9375 L 589.144531 310.914062 L 591.359375 310.90625 L 596.148438 310.90625 L 599.003906 310.917969 L 601.078125 310.933594 L 603.363281 310.957031 L 605.292969 310.988281 L 608.652344 311.054688 L 611.652344 311.144531 L 613.011719 311.195312 L 615.15625 311.292969 L 616.796875 311.390625 L 617.941406 311.472656 L 619.226562 311.589844 L 620.371094 311.730469 L 621.230469 311.894531 L 621.65625 312.027344 L 611.652344 312.027344 L 611.152344 311.902344 L 610.582031 311.804688 L 609.511719 311.675781 L 608.4375 311.582031 L 606.9375 311.492188 L 605.578125 311.429688 L 603.722656 311.371094 L 602.078125 311.332031 L 600.363281 311.304688 L 598.71875 311.285156 L 595.574219 311.265625 L 591.929688 311.265625 L 590.574219 311.273438 L 587.785156 311.296875 L 586.285156 311.320312 L 584.144531 311.363281 L 582.640625 311.40625 L 580.855469 311.46875 L 579.640625 311.523438 L 578.140625 311.605469 L 577.066406 311.675781 L 575.855469 311.78125 L 575.140625 311.859375 L 574.496094 311.949219 L 573.925781 312.054688 L 573.496094 312.164062 L 573.210938 312.28125 L 573.066406 312.398438 L 573.066406 312.886719 L 573.210938 313 L 573.566406 313.136719 L 574.496094 313.328125 L 575.855469 313.496094 L 577.425781 313.628906 L 578.925781 313.722656 L 579.785156 313.769531 L 580.925781 313.820312 L 582.714844 313.882812 L 585.285156 313.945312 L 586.785156 313.972656 L 589.074219 313.996094 L 591.429688 314.007812 L 594.574219 314.007812 L 597.363281 313.996094 L 599.21875 313.980469 L 601.148438 313.957031 L 603.792969 313.902344 L 605.4375 313.851562 L 606.867188 313.789062 L 607.9375 313.730469 L 608.652344 313.679688 L 609.722656 313.582031 L 610.582031 313.472656 L 611.226562 313.363281 L 611.652344 313.253906 L 621.65625 313.253906 L 621.230469 313.382812 L 620.585938 313.503906 L 619.941406 313.597656 L 618.941406 313.707031 L 617.800781 313.808594 L 616.15625 313.917969 L 614.796875 313.992188 L 613.011719 314.070312 L 611.367188 314.128906 L 609.582031 314.183594 L 606.9375 314.246094 L 605.222656 314.277344 L 603.363281 314.308594 L 601.148438 314.332031 L 598.363281 314.355469 L 595.363281 314.367188 L 592.574219 314.371094 L 589.574219 314.363281 L 587.359375 314.351562 L 584.429688 314.324219 L 580.785156 314.265625 L 578.140625 314.207031 L 576.066406 314.144531 L 574.28125 314.082031 L 572.28125 313.996094 L 569.707031 313.855469 L 568.136719 313.75 L 567.0625 313.660156 L 565.847656 313.539062 L 564.992188 313.425781 L 563.992188 313.25 L 563.277344 313.023438 L 563.0625 312.851562 Z M 563.0625 312.414062 "/>
<path style=" stroke:none;fill-rule:nonzero;fill:rgb(96.862745%,70.196078%,16.862745%);fill-opacity:1;" d="M 563.0625 295.710938 L 563.132812 295.703125 L 563.132812 295.535156 L 563.421875 295.152344 L 564.132812 294.628906 L 565.0625 294.195312 L 566.0625 293.855469 L 566.707031 293.679688 L 567.777344 293.425781 L 568.707031 293.238281 L 571.066406 292.859375 L 574.066406 292.503906 L 575.710938 292.351562 L 577.570312 292.207031 L 580.210938 292.046875 L 581.425781 291.984375 L 585.144531 291.851562 L 589.359375 291.765625 L 594.003906 291.738281 L 596.148438 291.75 L 599.078125 291.78125 L 603.078125 291.875 L 605.367188 291.960938 L 607.152344 292.046875 L 609.011719 292.15625 L 611.296875 292.324219 L 613.441406 292.527344 L 615.15625 292.730469 L 616.871094 292.984375 L 618.300781 293.257812 L 619.515625 293.550781 L 620.585938 293.90625 L 621.230469 294.203125 L 621.65625 294.5 L 611.726562 294.5 L 611.152344 294.203125 L 610.511719 293.976562 L 609.4375 293.695312 L 608.367188 293.492188 L 607.292969 293.332031 L 605.292969 293.113281 L 603.578125 292.976562 L 601.433594 292.859375 L 599.363281 292.78125 L 597.003906 292.730469 L 595.574219 292.714844 L 591.789062 292.714844 L 588.359375 292.773438 L 586.359375 292.839844 L 584.929688 292.910156 L 582.929688 293.035156 L 581.714844 293.136719 L 581 293.207031 L 578.855469 293.46875 L 577.425781 293.703125 L 576.640625 293.867188 L 575.640625 294.121094 L 574.925781 294.347656 L 574.136719 294.6875 L 573.710938 294.941406 L 573.136719 295.515625 L 573.066406 297.042969 L 573.28125 297.363281 L 573.710938 297.710938 L 574.28125 298.015625 L 575.140625 298.335938 L 575.996094 298.582031 L 577.496094 298.914062 L 578.785156 299.132812 L 579.785156 299.277344 L 581.714844 299.507812 L 582.5 299.582031 L 584.355469 299.734375 L 586.285156 299.851562 L 588.644531 299.957031 L 590.429688 300.007812 L 593.289062 300.046875 L 596.933594 300.046875 L 601.222656 299.996094 L 603.9375 299.929688 L 605.792969 299.863281 L 607.007812 299.800781 L 608.507812 299.710938 L 609.582031 299.625 L 610.582031 299.53125 L 611.796875 299.386719 L 611.796875 297.363281 L 594.148438 297.355469 L 594.148438 296.40625 L 621.585938 296.398438 L 621.65625 299.710938 L 620.15625 299.9375 L 618.300781 300.160156 L 616.511719 300.328125 L 614.65625 300.472656 L 612.011719 300.632812 L 609.867188 300.734375 L 606.582031 300.851562 L 603.578125 300.929688 L 600.433594 300.980469 L 597.648438 301.003906 L 594.359375 301.015625 L 591.429688 300.996094 L 588.289062 300.945312 L 585.785156 300.878906 L 583.5 300.792969 L 581.210938 300.683594 L 578.355469 300.503906 L 576.496094 300.363281 L 574.566406 300.183594 L 572.636719 299.972656 L 570.921875 299.742188 L 569.78125 299.566406 L 568.636719 299.363281 L 567.421875 299.109375 L 566.277344 298.820312 L 565.421875 298.558594 L 564.632812 298.261719 L 564.0625 297.980469 L 563.492188 297.601562 L 563.207031 297.296875 L 563.0625 297.035156 Z M 563.0625 295.710938 "/>
<path style=" stroke:none;fill-rule:nonzero;fill:rgb(83.921569%,15.686275%,22.352941%);fill-opacity:1;" d="M 563.0625 302.191406 L 621.65625 302.191406 L 621.65625 303 L 597.238281 303.007812 L 597.238281 309.726562 L 587.410156 309.726562 L 587.410156 303.011719 L 587.269531 303 L 563.0625 303 Z M 563.0625 302.191406 "/>
<path style=" stroke:none;fill-rule:nonzero;fill:rgb(6.27451%,58.823529%,28.235294%);fill-opacity:1;" d="M 624.742188 314.371094 L 624.804688 314.371094 L 650.15625 313.925781 L 657.859375 313.925781 L 683.335938 314.371094 L 674.386719 314.371094 L 668 314.253906 L 640.015625 314.253906 L 633.757812 314.371094 L 624.742188 314.371094 L 642.707031 314.207031 L 665.433594 314.207031 L 654.101562 314 L 653.851562 314 L 642.644531 314.207031 L 642.707031 314.207031 Z M 624.742188 314.371094 "/>
<path style=" stroke:none;fill-rule:nonzero;fill:rgb(14.509804%,36.078431%,60%);fill-opacity:1;" d="M 624.742188 277.304688 L 624.8125 277.261719 L 624.8125 276.195312 L 625.027344 274.507812 L 625.527344 272.375 L 626.027344 270.90625 L 627.3125 268.285156 L 629.101562 265.753906 L 630.957031 263.796875 L 632.316406 262.640625 L 633.53125 261.753906 L 636.316406 260.109375 L 638.105469 259.265625 L 640.035156 258.511719 L 642.390625 257.753906 L 644.105469 257.308594 L 647.964844 256.597656 L 650.824219 256.289062 L 653.039062 256.15625 L 657.828125 256.15625 L 660.683594 256.332031 L 662.757812 256.554688 L 665.042969 256.910156 L 666.972656 257.308594 L 670.332031 258.289062 L 673.332031 259.53125 L 674.691406 260.242188 L 676.835938 261.621094 L 678.476562 262.953125 L 679.621094 264.109375 L 680.90625 265.753906 L 682.050781 267.753906 L 682.910156 270.019531 L 683.335938 271.929688 L 673.332031 271.929688 L 672.832031 270.152344 L 672.261719 268.773438 L 671.1875 266.953125 L 670.117188 265.664062 L 668.617188 264.375 L 667.257812 263.53125 L 665.402344 262.6875 L 663.757812 262.152344 L 662.042969 261.753906 L 660.398438 261.488281 L 657.253906 261.21875 L 653.609375 261.21875 L 652.253906 261.308594 L 649.464844 261.664062 L 647.964844 261.976562 L 645.820312 262.597656 L 644.320312 263.175781 L 642.535156 264.0625 L 641.320312 264.820312 L 639.820312 265.976562 L 638.746094 266.996094 L 637.53125 268.464844 L 636.816406 269.574219 L 636.175781 270.816406 L 635.601562 272.285156 L 635.175781 273.839844 L 634.890625 275.484375 L 634.746094 277.082031 L 634.746094 283.96875 L 634.890625 285.570312 L 635.246094 287.4375 L 636.175781 290.144531 L 637.53125 292.5 L 639.105469 294.367188 L 640.605469 295.699219 L 641.464844 296.324219 L 642.605469 297.035156 L 644.394531 297.921875 L 646.964844 298.8125 L 648.464844 299.167969 L 650.753906 299.523438 L 653.109375 299.699219 L 656.253906 299.699219 L 659.042969 299.523438 L 660.898438 299.300781 L 662.828125 298.945312 L 665.472656 298.1875 L 667.117188 297.476562 L 668.546875 296.632812 L 669.617188 295.789062 L 670.332031 295.078125 L 671.402344 293.699219 L 672.261719 292.191406 L 672.902344 290.636719 L 673.332031 289.125 L 683.335938 289.125 L 682.910156 290.902344 L 682.265625 292.632812 L 681.621094 293.921875 L 680.621094 295.476562 L 679.476562 296.855469 L 677.835938 298.410156 L 676.476562 299.433594 L 674.691406 300.542969 L 673.046875 301.386719 L 671.261719 302.144531 L 668.617188 303.03125 L 666.902344 303.476562 L 665.042969 303.875 L 662.828125 304.230469 L 660.042969 304.542969 L 657.039062 304.71875 L 654.253906 304.765625 L 651.253906 304.675781 L 649.039062 304.496094 L 646.109375 304.097656 L 642.464844 303.296875 L 639.820312 302.453125 L 637.746094 301.609375 L 635.960938 300.722656 L 633.960938 299.523438 L 631.386719 297.566406 L 629.816406 296.054688 L 628.742188 294.8125 L 627.527344 293.078125 L 626.671875 291.523438 L 625.671875 289.035156 L 624.957031 285.878906 L 624.742188 283.4375 Z M 624.742188 277.304688 "/>
<path style=" stroke:none;fill-rule:nonzero;fill:rgb(96.862745%,70.196078%,16.862745%);fill-opacity:1;" d="M 624.742188 308.859375 L 624.8125 308.851562 L 624.8125 308.726562 L 625.097656 308.449219 L 625.8125 308.0625 L 626.742188 307.746094 L 627.742188 307.496094 L 628.386719 307.367188 L 629.457031 307.179688 L 630.386719 307.042969 L 632.746094 306.765625 L 635.746094 306.503906 L 637.390625 306.390625 L 639.246094 306.285156 L 641.890625 306.167969 L 643.105469 306.125 L 646.820312 306.023438 L 651.039062 305.960938 L 655.683594 305.945312 L 657.828125 305.949219 L 660.757812 305.976562 L 664.757812 306.042969 L 667.042969 306.105469 L 668.832031 306.167969 L 670.6875 306.25 L 672.976562 306.371094 L 675.121094 306.523438 L 676.835938 306.671875 L 678.550781 306.859375 L 679.980469 307.054688 L 681.191406 307.273438 L 682.265625 307.535156 L 682.910156 307.753906 L 683.335938 307.96875 L 673.40625 307.96875 L 672.832031 307.753906 L 672.191406 307.585938 L 671.117188 307.378906 L 670.046875 307.230469 L 668.972656 307.113281 L 666.972656 306.949219 L 665.257812 306.851562 L 663.113281 306.765625 L 661.042969 306.707031 L 658.683594 306.671875 L 657.253906 306.660156 L 653.46875 306.660156 L 650.039062 306.703125 L 648.035156 306.75 L 646.609375 306.800781 L 644.605469 306.894531 L 643.390625 306.96875 L 642.675781 307.019531 L 640.535156 307.210938 L 639.105469 307.386719 L 638.320312 307.503906 L 637.316406 307.691406 L 636.605469 307.859375 L 635.816406 308.105469 L 635.390625 308.292969 L 634.816406 308.714844 L 634.746094 309.832031 L 634.960938 310.070312 L 635.390625 310.324219 L 635.960938 310.546875 L 636.816406 310.785156 L 637.675781 310.964844 L 639.175781 311.207031 L 640.460938 311.367188 L 641.464844 311.472656 L 643.390625 311.640625 L 644.179688 311.695312 L 646.035156 311.808594 L 647.964844 311.894531 L 650.324219 311.96875 L 652.109375 312.007812 L 654.96875 312.039062 L 658.613281 312.039062 L 662.898438 312 L 665.617188 311.953125 L 667.472656 311.902344 L 668.6875 311.859375 L 670.1875 311.789062 L 671.261719 311.726562 L 672.261719 311.660156 L 673.476562 311.554688 L 673.476562 310.070312 L 655.824219 310.0625 L 655.824219 309.367188 L 683.265625 309.359375 L 683.335938 311.789062 L 681.835938 311.957031 L 679.980469 312.121094 L 678.191406 312.242188 L 676.335938 312.347656 L 673.691406 312.46875 L 671.546875 312.542969 L 668.257812 312.628906 L 665.257812 312.683594 L 662.113281 312.722656 L 659.328125 312.742188 L 656.039062 312.746094 L 653.109375 312.734375 L 649.964844 312.699219 L 647.464844 312.648438 L 645.179688 312.585938 L 642.890625 312.503906 L 640.035156 312.375 L 638.175781 312.269531 L 636.246094 312.136719 L 634.316406 311.984375 L 632.601562 311.816406 L 631.457031 311.683594 L 630.316406 311.535156 L 629.101562 311.347656 L 627.957031 311.136719 L 627.101562 310.945312 L 626.3125 310.726562 L 625.742188 310.523438 L 625.171875 310.242188 L 624.882812 310.019531 L 624.742188 309.828125 Z M 624.742188 308.859375 "/>
<path style=" stroke:none;fill-rule:nonzero;fill:rgb(83.921569%,15.686275%,22.352941%);fill-opacity:1;" d="M 624.742188 180.253906 L 683.335938 180.253906 L 683.335938 188.253906 L 658.917969 188.324219 L 658.917969 254.976562 L 649.089844 254.976562 L 649.089844 188.394531 L 648.949219 188.253906 L 624.742188 188.253906 Z M 624.742188 180.253906 "/>
<g style="fill:rgb(0%,0%,0%);fill-opacity:1;">
  <use xlink:href="#glyph0-1" x="21.957031" y="318.198242"/>
  <use xlink:href="#glyph0-2" x="27.291016" y="318.198242"/>
  <use xlink:href="#glyph0-1" x="29.958008" y="318.198242"/>
</g>
<g style="fill:rgb(0%,0%,0%);fill-opacity:1;">
  <use xlink:href="#glyph0-1" x="21.957031" y="219.291992"/>
  <use xlink:href="#glyph0-2" x="27.291016" y="219.291992"/>
  <use xlink:href="#glyph0-3" x="29.958008" y="219.291992"/>
</g>
<g style="fill:rgb(0%,0%,0%);fill-opacity:1;">
  <use xlink:href="#glyph0-4" x="21.957031" y="120.381836"/>
  <use xlink:href="#glyph0-2" x="27.291016" y="120.381836"/>
  <use xlink:href="#glyph0-1" x="29.958008" y="120.381836"/>
</g>
<g style="fill:rgb(0%,0%,0%);fill-opacity:1;">
  <use xlink:href="#glyph0-4" x="21.957031" y="21.475586"/>
  <use xlink:href="#glyph0-2" x="27.291016" y="21.475586"/>
  <use xlink:href="#glyph0-3" x="29.958008" y="21.475586"/>
</g>
<g style="fill:rgb(0%,0%,0%);fill-opacity:1;">
  <use xlink:href="#glyph0-4" x="95.925781" y="338.19043"/>
</g>
<g style="fill:rgb(0%,0%,0%);fill-opacity:1;">
  <use xlink:href="#glyph0-5" x="157.605469" y="338.19043"/>
</g>
<g style="fill:rgb(0%,0%,0%);fill-opacity:1;">
  <use xlink:href="#glyph0-6" x="219.285156" y="338.19043"/>
</g>
<g style="fill:rgb(0%,0%,0%);fill-opacity:1;">
  <use xlink:href="#glyph0-7" x="280.964844" y="338.19043"/>
</g>
<g style="fill:rgb(0%,0%,0%);fill-opacity:1;">
  <use xlink:href="#glyph0-3" x="342.644531" y="338.19043"/>
</g>
<g style="fill:rgb(0%,0%,0%);fill-opacity:1;">
  <use xlink:href="#glyph0-8" x="404.324219" y="338.19043"/>
</g>
<g style="fill:rgb(0%,0%,0%);fill-opacity:1;">
  <use xlink:href="#glyph0-9" x="466" y="338.19043"/>
</g>
<g style="fill:rgb(0%,0%,0%);fill-opacity:1;">
  <use xlink:href="#glyph0-10" x="527.679688" y="338.19043"/>
</g>
<g style="fill:rgb(0%,0%,0%);fill-opacity:1;">
  <use xlink:href="#glyph0-11" x="589.359375" y="338.19043"/>
</g>
<g style="fill:rgb(0%,0%,0%);fill-opacity:1;">
  <use xlink:href="#glyph0-4" x="648.539062" y="338.19043"/>
  <use xlink:href="#glyph0-1" x="653.873047" y="338.19043"/>
</g>
<g style="fill:rgb(0%,0%,0%);fill-opacity:1;">
  <use xlink:href="#glyph1-1" x="14.412109" y="178.015625"/>
  <use xlink:href="#glyph1-2" x="14.412109" y="170.011719"/>
  <use xlink:href="#glyph1-3" x="14.412109" y="167.347656"/>
  <use xlink:href="#glyph1-4" x="14.412109" y="164.011719"/>
</g>
</g>
</svg>
