<?xml version="1.0" encoding="UTF-8"?>
<svg xmlns="http://www.w3.org/2000/svg" xmlns:xlink="http://www.w3.org/1999/xlink" width="720pt" height="360pt" viewBox="0 0 720 360" version="1.1">
<defs>
<g>
<symbol overflow="visible" id="glyph0-0">
<path style="stroke:none;" d=""/>
</symbol>
<symbol overflow="visible" id="glyph0-1">
<path style="stroke:none;" d="M 2.640625 -6.796875 C 2 -6.796875 1.421875 -6.53125 1.078125 -6.046875 C 0.640625 -5.453125 0.40625 -4.546875 0.40625 -3.296875 C 0.40625 -1 1.1875 0.21875 2.640625 0.21875 C 4.078125 0.21875 4.859375 -1 4.859375 -3.234375 C 4.859375 -4.5625 4.65625 -5.4375 4.203125 -6.046875 C 3.84375 -6.53125 3.28125 -6.796875 2.640625 -6.796875 Z M 2.640625 -6.046875 C 3.546875 -6.046875 4 -5.125 4 -3.3125 C 4 -1.375 3.5625 -0.484375 2.625 -0.484375 C 1.734375 -0.484375 1.28125 -1.421875 1.28125 -3.28125 C 1.28125 -5.140625 1.734375 -6.046875 2.640625 -6.046875 Z M 2.640625 -6.046875 "/>
</symbol>
<symbol overflow="visible" id="glyph0-2">
<path style="stroke:none;" d="M 1.828125 -1 L 0.828125 -1 L 0.828125 0 L 1.828125 0 Z M 1.828125 -1 "/>
</symbol>
<symbol overflow="visible" id="glyph0-3">
<path style="stroke:none;" d="M 4.5625 -6.796875 L 1.0625 -6.796875 L 0.546875 -3.09375 L 1.328125 -3.09375 C 1.71875 -3.5625 2.046875 -3.734375 2.578125 -3.734375 C 3.484375 -3.734375 4.0625 -3.109375 4.0625 -2.09375 C 4.0625 -1.125 3.484375 -0.53125 2.578125 -0.53125 C 1.828125 -0.53125 1.375 -0.90625 1.1875 -1.671875 L 0.328125 -1.671875 C 0.453125 -1.109375 0.546875 -0.84375 0.75 -0.59375 C 1.125 -0.078125 1.828125 0.21875 2.59375 0.21875 C 3.96875 0.21875 4.921875 -0.78125 4.921875 -2.21875 C 4.921875 -3.5625 4.03125 -4.484375 2.71875 -4.484375 C 2.25 -4.484375 1.859375 -4.359375 1.46875 -4.0625 L 1.734375 -5.96875 L 4.5625 -5.96875 Z M 4.5625 -6.796875 "/>
</symbol>
<symbol overflow="visible" id="glyph0-4">
<path style="stroke:none;" d="M 2.484375 -4.84375 L 2.484375 0 L 3.328125 0 L 3.328125 -6.796875 L 2.765625 -6.796875 C 2.46875 -5.75 2.28125 -5.609375 0.984375 -5.453125 L 0.984375 -4.84375 Z M 2.484375 -4.84375 "/>
</symbol>
<symbol overflow="visible" id="glyph0-5">
<path style="stroke:none;" d="M 4.859375 -0.828125 L 1.28125 -0.828125 C 1.359375 -1.390625 1.671875 -1.75 2.5 -2.234375 L 3.46875 -2.75 C 4.40625 -3.265625 4.90625 -3.96875 4.90625 -4.8125 C 4.90625 -5.375 4.671875 -5.90625 4.265625 -6.265625 C 3.859375 -6.625 3.375 -6.796875 2.71875 -6.796875 C 1.859375 -6.796875 1.21875 -6.5 0.84375 -5.921875 C 0.609375 -5.5625 0.5 -5.125 0.484375 -4.4375 L 1.328125 -4.4375 C 1.359375 -4.90625 1.40625 -5.1875 1.53125 -5.40625 C 1.75 -5.8125 2.1875 -6.0625 2.703125 -6.0625 C 3.46875 -6.0625 4.03125 -5.515625 4.03125 -4.78125 C 4.03125 -4.25 3.71875 -3.796875 3.125 -3.4375 L 2.234375 -2.9375 C 0.8125 -2.140625 0.40625 -1.5 0.328125 0 L 4.859375 0 Z M 4.859375 -0.828125 "/>
</symbol>
<symbol overflow="visible" id="glyph0-6">
<path style="stroke:none;" d="M 2.125 -3.125 L 2.578125 -3.125 C 3.515625 -3.125 3.984375 -2.703125 3.984375 -1.890625 C 3.984375 -1.03125 3.46875 -0.53125 2.578125 -0.53125 C 1.65625 -0.53125 1.203125 -0.984375 1.15625 -1.96875 L 0.3125 -1.96875 C 0.34375 -1.421875 0.4375 -1.078125 0.609375 -0.765625 C 0.953125 -0.109375 1.625 0.21875 2.546875 0.21875 C 3.953125 0.21875 4.859375 -0.609375 4.859375 -1.90625 C 4.859375 -2.765625 4.515625 -3.25 3.703125 -3.515625 C 4.34375 -3.765625 4.65625 -4.25 4.65625 -4.9375 C 4.65625 -6.109375 3.875 -6.796875 2.578125 -6.796875 C 1.203125 -6.796875 0.484375 -6.046875 0.453125 -4.609375 L 1.296875 -4.609375 C 1.3125 -5.015625 1.34375 -5.25 1.453125 -5.453125 C 1.640625 -5.828125 2.0625 -6.0625 2.59375 -6.0625 C 3.34375 -6.0625 3.796875 -5.625 3.796875 -4.90625 C 3.796875 -4.421875 3.609375 -4.140625 3.25 -3.984375 C 3.015625 -3.890625 2.71875 -3.84375 2.125 -3.84375 Z M 2.125 -3.125 "/>
</symbol>
<symbol overflow="visible" id="glyph0-7">
<path style="stroke:none;" d="M 3.140625 -1.625 L 3.140625 0 L 3.984375 0 L 3.984375 -1.625 L 4.984375 -1.625 L 4.984375 -2.390625 L 3.984375 -2.390625 L 3.984375 -6.796875 L 3.359375 -6.796875 L 0.265625 -2.515625 L 0.265625 -1.625 Z M 3.140625 -2.390625 L 1 -2.390625 L 3.140625 -5.359375 Z M 3.140625 -2.390625 "/>
</symbol>
<symbol overflow="visible" id="glyph0-8">
<path style="stroke:none;" d="M 4.78125 -5.03125 C 4.609375 -6.140625 3.890625 -6.796875 2.84375 -6.796875 C 2.09375 -6.796875 1.421875 -6.4375 1.03125 -5.828125 C 0.609375 -5.171875 0.40625 -4.34375 0.40625 -3.09375 C 0.40625 -1.953125 0.578125 -1.234375 0.984375 -0.625 C 1.359375 -0.078125 1.953125 0.21875 2.703125 0.21875 C 3.984375 0.21875 4.921875 -0.734375 4.921875 -2.078125 C 4.921875 -3.34375 4.0625 -4.234375 2.84375 -4.234375 C 2.171875 -4.234375 1.640625 -3.96875 1.28125 -3.46875 C 1.28125 -5.125 1.828125 -6.046875 2.796875 -6.046875 C 3.390625 -6.046875 3.796875 -5.671875 3.9375 -5.03125 Z M 2.734375 -3.484375 C 3.546875 -3.484375 4.0625 -2.921875 4.0625 -2 C 4.0625 -1.15625 3.484375 -0.53125 2.703125 -0.53125 C 1.921875 -0.53125 1.328125 -1.1875 1.328125 -2.046875 C 1.328125 -2.890625 1.90625 -3.484375 2.734375 -3.484375 Z M 2.734375 -3.484375 "/>
</symbol>
<symbol overflow="visible" id="glyph0-9">
<path style="stroke:none;" d="M 4.984375 -6.796875 L 0.4375 -6.796875 L 0.4375 -5.96875 L 4.109375 -5.96875 C 2.5 -3.65625 1.828125 -2.234375 1.328125 0 L 2.21875 0 C 2.59375 -2.171875 3.453125 -4.046875 4.984375 -6.09375 Z M 4.984375 -6.796875 "/>
</symbol>
<symbol overflow="visible" id="glyph0-10">
<path style="stroke:none;" d="M 3.75 -3.578125 C 4.453125 -4 4.6875 -4.34375 4.6875 -4.984375 C 4.6875 -6.046875 3.84375 -6.796875 2.640625 -6.796875 C 1.4375 -6.796875 0.59375 -6.046875 0.59375 -4.984375 C 0.59375 -4.359375 0.828125 -4.015625 1.515625 -3.578125 C 0.734375 -3.203125 0.359375 -2.640625 0.359375 -1.890625 C 0.359375 -0.640625 1.296875 0.21875 2.640625 0.21875 C 3.984375 0.21875 4.921875 -0.640625 4.921875 -1.875 C 4.921875 -2.640625 4.53125 -3.203125 3.75 -3.578125 Z M 2.640625 -6.046875 C 3.359375 -6.046875 3.8125 -5.625 3.8125 -4.96875 C 3.8125 -4.34375 3.34375 -3.921875 2.640625 -3.921875 C 1.921875 -3.921875 1.453125 -4.34375 1.453125 -4.984375 C 1.453125 -5.625 1.921875 -6.046875 2.640625 -6.046875 Z M 2.640625 -3.203125 C 3.484375 -3.203125 4.0625 -2.671875 4.0625 -1.875 C 4.0625 -1.0625 3.484375 -0.53125 2.625 -0.53125 C 1.796875 -0.53125 1.21875 -1.078125 1.21875 -1.875 C 1.21875 -2.671875 1.796875 -3.203125 2.640625 -3.203125 Z M 2.640625 -3.203125 "/>
</symbol>
<symbol overflow="visible" id="glyph0-11">
<path style="stroke:none;" d="M 0.515625 -1.546875 C 0.671875 -0.4375 1.40625 0.21875 2.4375 0.21875 C 3.1875 0.21875 3.859375 -0.140625 4.265625 -0.75 C 4.6875 -1.40625 4.890625 -2.25 4.890625 -3.484375 C 4.890625 -4.625 4.703125 -5.359375 4.3125 -5.953125 C 3.9375 -6.5 3.34375 -6.796875 2.59375 -6.796875 C 1.296875 -6.796875 0.359375 -5.84375 0.359375 -4.515625 C 0.359375 -3.25 1.234375 -2.34375 2.453125 -2.34375 C 3.09375 -2.34375 3.5625 -2.578125 4.015625 -3.109375 C 4 -1.453125 3.46875 -0.53125 2.5 -0.53125 C 1.90625 -0.53125 1.484375 -0.90625 1.359375 -1.546875 Z M 2.578125 -6.0625 C 3.375 -6.0625 3.96875 -5.40625 3.96875 -4.53125 C 3.96875 -3.6875 3.375 -3.09375 2.546875 -3.09375 C 1.734375 -3.09375 1.234375 -3.671875 1.234375 -4.578125 C 1.234375 -5.4375 1.796875 -6.0625 2.578125 -6.0625 Z M 2.578125 -6.0625 "/>
</symbol>
<symbol overflow="visible" id="glyph1-0">
<path style="stroke:none;" d=""/>
</symbol>
<symbol overflow="visible" id="glyph1-1">
<path style="stroke:none;" d="M 0 -0.953125 L 0 -4.890625 C 0 -5.71875 -0.234375 -6.34375 -0.734375 -6.796875 C -1.1875 -7.234375 -1.8125 -7.46875 -2.5 -7.46875 C -3.546875 -7.46875 -4.1875 -7 -4.625 -5.875 C -4.984375 -6.671875 -5.640625 -7.09375 -6.53125 -7.09375 C -7.15625 -7.09375 -7.734375 -6.859375 -8.140625 -6.390625 C -8.5625 -5.9375 -8.75 -5.34375 -8.75 -4.5 L -8.75 -0.953125 Z M -4.984375 -2.0625 L -7.765625 -2.0625 L -7.765625 -4.21875 C -7.765625 -4.84375 -7.6875 -5.203125 -7.453125 -5.5 C -7.21875 -5.8125 -6.859375 -5.96875 -6.375 -5.96875 C -5.90625 -5.96875 -5.53125 -5.8125 -5.296875 -5.5 C -5.0625 -5.203125 -4.984375 -4.84375 -4.984375 -4.21875 Z M -0.984375 -2.0625 L -4 -2.0625 L -4 -4.78125 C -4 -5.328125 -3.859375 -5.6875 -3.578125 -5.953125 C -3.296875 -6.21875 -2.921875 -6.359375 -2.484375 -6.359375 C -2.0625 -6.359375 -1.6875 -6.21875 -1.40625 -5.953125 C -1.109375 -5.6875 -0.984375 -5.328125 -0.984375 -4.78125 Z M -0.984375 -2.0625 "/>
</symbol>
<symbol overflow="visible" id="glyph1-2">
<path style="stroke:none;" d="M -6.28125 -1.796875 L -6.28125 -0.796875 L 0 -0.796875 L 0 -1.796875 Z M -8.75 -1.796875 L -8.75 -0.796875 L -7.484375 -0.796875 L -7.484375 -1.796875 Z M -8.75 -1.796875 "/>
</symbol>
<symbol overflow="visible" id="glyph1-3">
<path style="stroke:none;" d="M -6.28125 -3.046875 L -6.28125 -2.015625 L -8.015625 -2.015625 L -8.015625 -1.015625 L -6.28125 -1.015625 L -6.28125 -0.171875 L -5.46875 -0.171875 L -5.46875 -1.015625 L -0.71875 -1.015625 C -0.078125 -1.015625 0.28125 -1.453125 0.28125 -2.234375 C 0.28125 -2.46875 0.25 -2.71875 0.1875 -3.046875 L -0.640625 -3.046875 C -0.609375 -2.921875 -0.59375 -2.765625 -0.59375 -2.5625 C -0.59375 -2.140625 -0.71875 -2.015625 -1.15625 -2.015625 L -5.46875 -2.015625 L -5.46875 -3.046875 Z M -6.28125 -3.046875 "/>
</symbol>
<symbol overflow="visible" id="glyph1-4">
<path style="stroke:none;" d="M -4.53125 -5.25 C -5.765625 -5.25 -6.46875 -4.421875 -6.46875 -2.96875 C -6.46875 -1.515625 -5.71875 -0.5625 -4.546875 -0.5625 C -3.5625 -0.5625 -3.09375 -1.0625 -2.734375 -2.5625 L -2.515625 -3.484375 C -2.34375 -4.1875 -2.09375 -4.46875 -1.625 -4.46875 C -1.046875 -4.46875 -0.640625 -3.875 -0.640625 -3 C -0.640625 -2.453125 -0.796875 -2 -1.0625 -1.75 C -1.25 -1.59375 -1.421875 -1.53125 -1.875 -1.46875 L -1.875 -0.40625 C -0.421875 -0.453125 0.28125 -1.265625 0.28125 -2.921875 C 0.28125 -4.5 -0.5 -5.515625 -1.71875 -5.515625 C -2.65625 -5.515625 -3.171875 -4.984375 -3.46875 -3.734375 L -3.703125 -2.765625 C -3.890625 -1.953125 -4.15625 -1.609375 -4.59375 -1.609375 C -5.171875 -1.609375 -5.546875 -2.125 -5.546875 -2.9375 C -5.546875 -3.75 -5.203125 -4.171875 -4.53125 -4.203125 Z M -4.53125 -5.25 "/>
</symbol>
</g>
</defs>
<g id="surface115860">
<rect x="0" y="0" width="720" height="360" style="fill:rgb(100%,100%,100%);fill-opacity:1;stroke:none;"/>
<path style=" stroke:none;fill-rule:nonzero;fill:rgb(6.27451%,58.823529%,28.235294%);fill-opacity:1;" d="M 69.628906 311.199219 L 69.671875 311.199219 L 86.546875 310.113281 L 91.671875 310.113281 L 108.628906 311.199219 L 102.667969 311.199219 L 98.417969 310.917969 L 79.796875 310.917969 L 75.628906 311.199219 L 69.628906 311.199219 L 81.585938 310.796875 L 96.710938 310.796875 L 89.171875 310.289062 L 89.085938 310.289062 L 89.003906 310.292969 L 81.546875 310.796875 L 81.585938 310.796875 Z M 69.628906 311.199219 "/>
<path style=" stroke:none;fill-rule:nonzero;fill:rgb(14.509804%,36.078431%,60%);fill-opacity:1;" d="M 69.628906 314.367188 L 70.152344 314.367188 L 70.484375 314.363281 L 108.34375 314.363281 L 108.628906 314.367188 L 101.96875 314.367188 L 101.636719 314.363281 L 77.238281 314.363281 L 76.859375 314.367188 L 76.289062 314.367188 L 79.1875 314.367188 L 80.1875 314.371094 L 99.496094 314.371094 L 99.972656 314.367188 L 108.628906 314.367188 L 107.484375 314.367188 L 106.820312 314.371094 L 73.007812 314.371094 L 72.292969 314.367188 Z M 69.628906 314.367188 "/>
<path style=" stroke:none;fill-rule:nonzero;fill:rgb(96.862745%,70.196078%,16.862745%);fill-opacity:1;" d="M 69.628906 312.722656 L 69.675781 312.722656 L 69.675781 312.707031 L 69.867188 312.675781 L 70.34375 312.628906 L 70.960938 312.59375 L 71.625 312.5625 L 72.054688 312.546875 L 72.769531 312.527344 L 73.386719 312.507812 L 74.957031 312.476562 L 76.953125 312.445312 L 78.046875 312.433594 L 79.285156 312.417969 L 81.042969 312.40625 L 81.851562 312.402344 L 84.324219 312.390625 L 87.132812 312.382812 L 90.222656 312.378906 L 91.648438 312.378906 L 93.597656 312.382812 L 96.261719 312.390625 L 97.785156 312.398438 L 98.972656 312.40625 L 100.210938 312.414062 L 101.730469 312.429688 L 103.160156 312.449219 L 104.300781 312.464844 L 105.441406 312.488281 L 106.390625 312.511719 L 107.199219 312.535156 L 107.914062 312.566406 L 108.34375 312.59375 L 108.628906 312.617188 L 102.015625 312.617188 L 101.636719 312.59375 L 101.207031 312.574219 L 100.496094 312.550781 L 99.78125 312.53125 L 99.066406 312.515625 L 97.738281 312.5 L 96.59375 312.488281 L 95.167969 312.476562 L 93.789062 312.46875 L 92.21875 312.464844 L 88.746094 312.464844 L 86.464844 312.46875 L 85.132812 312.476562 L 84.183594 312.480469 L 82.851562 312.492188 L 82.042969 312.5 L 81.566406 312.507812 L 80.140625 312.527344 L 79.1875 312.550781 L 78.664062 312.5625 L 78 312.585938 L 77.523438 312.605469 L 77 312.636719 L 76.714844 312.65625 L 76.335938 312.707031 L 76.289062 312.839844 L 76.429688 312.867188 L 76.714844 312.898438 L 77.097656 312.921875 L 77.667969 312.953125 L 78.238281 312.972656 L 79.234375 313 L 80.09375 313.019531 L 80.757812 313.03125 L 82.042969 313.050781 L 82.566406 313.058594 L 83.800781 313.074219 L 85.085938 313.082031 L 86.65625 313.089844 L 87.84375 313.097656 L 92.171875 313.097656 L 95.027344 313.09375 L 96.832031 313.089844 L 98.070312 313.082031 L 98.878906 313.078125 L 99.875 313.070312 L 100.589844 313.0625 L 101.257812 313.054688 L 102.0625 313.042969 L 102.0625 312.867188 L 90.316406 312.867188 L 90.316406 312.785156 L 108.578125 312.78125 L 108.628906 313.070312 L 107.628906 313.089844 L 106.390625 313.109375 L 105.203125 313.125 L 103.964844 313.136719 L 102.207031 313.148438 L 100.78125 313.160156 L 98.59375 313.167969 L 96.59375 313.175781 L 94.503906 313.179688 L 92.648438 313.183594 L 88.511719 313.183594 L 86.417969 313.175781 L 84.753906 313.171875 L 83.230469 313.164062 L 81.710938 313.15625 L 79.808594 313.140625 L 78.570312 313.125 L 77.285156 313.113281 L 76.003906 313.09375 L 74.859375 313.074219 L 74.101562 313.058594 L 73.339844 313.039062 L 72.53125 313.019531 L 71.769531 312.992188 L 71.199219 312.96875 L 70.675781 312.945312 L 70.296875 312.921875 L 69.914062 312.886719 L 69.722656 312.859375 L 69.628906 312.839844 Z M 69.628906 312.722656 "/>
<path style=" stroke:none;fill-rule:nonzero;fill:rgb(83.921569%,15.686275%,22.352941%);fill-opacity:1;" d="M 69.628906 307.453125 L 108.628906 307.453125 L 108.628906 307.613281 L 92.375 307.613281 L 92.375 308.933594 L 85.835938 308.933594 L 85.835938 307.617188 L 85.742188 307.613281 L 69.628906 307.613281 Z M 69.628906 307.453125 "/>
<path style=" stroke:none;fill-rule:nonzero;fill:rgb(6.27451%,58.823529%,28.235294%);fill-opacity:1;" d="M 110.679688 305.148438 L 110.722656 305.125 L 127.597656 281.316406 L 132.71875 281.316406 L 149.679688 305.167969 L 143.71875 305.167969 L 139.46875 298.941406 L 120.847656 298.941406 L 116.679688 305.148438 L 110.679688 305.148438 L 122.636719 296.367188 L 137.761719 296.34375 L 130.222656 285.214844 L 130.136719 285.191406 L 130.054688 285.257812 L 122.597656 296.34375 L 122.636719 296.367188 Z M 110.679688 305.148438 "/>
<path style=" stroke:none;fill-rule:nonzero;fill:rgb(14.509804%,36.078431%,60%);fill-opacity:1;" d="M 110.679688 313.640625 L 110.726562 313.636719 L 110.726562 313.609375 L 110.871094 313.566406 L 111.203125 313.507812 L 111.535156 313.46875 L 112.390625 313.398438 L 113.582031 313.332031 L 114.816406 313.28125 L 115.722656 313.25 L 116.53125 313.226562 L 118.382812 313.183594 L 119.574219 313.160156 L 120.859375 313.140625 L 122.425781 313.121094 L 123.570312 313.109375 L 126.136719 313.089844 L 128.039062 313.082031 L 129.511719 313.078125 L 132.699219 313.078125 L 134.601562 313.082031 L 135.980469 313.085938 L 137.503906 313.097656 L 138.789062 313.109375 L 141.023438 313.132812 L 143.019531 313.167969 L 143.921875 313.183594 L 145.351562 313.222656 L 146.445312 313.257812 L 147.207031 313.289062 L 148.0625 313.332031 L 148.820312 313.386719 L 149.394531 313.445312 L 149.679688 313.496094 L 143.019531 313.496094 L 142.6875 313.449219 L 142.304688 313.414062 L 141.59375 313.363281 L 140.878906 313.328125 L 139.882812 313.296875 L 138.976562 313.273438 L 137.742188 313.25 L 136.648438 313.238281 L 135.503906 313.226562 L 134.410156 313.21875 L 132.320312 313.210938 L 129.894531 313.210938 L 128.988281 313.214844 L 127.136719 313.222656 L 126.136719 313.230469 L 124.710938 313.25 L 123.710938 313.261719 L 122.523438 313.289062 L 121.714844 313.308594 L 120.714844 313.339844 L 120 313.367188 L 119.191406 313.40625 L 118.71875 313.433594 L 118.289062 313.46875 L 117.910156 313.507812 L 117.625 313.546875 L 117.433594 313.589844 L 117.339844 313.632812 L 117.339844 313.816406 L 117.433594 313.859375 L 117.671875 313.910156 L 118.289062 313.980469 L 119.191406 314.042969 L 120.238281 314.09375 L 121.238281 314.128906 L 121.808594 314.144531 L 122.570312 314.164062 L 123.757812 314.1875 L 125.472656 314.210938 L 126.46875 314.222656 L 127.992188 314.230469 L 129.5625 314.234375 L 131.652344 314.234375 L 133.507812 314.230469 L 134.746094 314.226562 L 136.027344 314.214844 L 137.789062 314.195312 L 138.882812 314.175781 L 139.832031 314.152344 L 140.546875 314.132812 L 141.023438 314.113281 L 141.734375 314.074219 L 142.304688 314.035156 L 142.734375 313.996094 L 143.019531 313.953125 L 149.679688 313.953125 L 149.394531 314 L 148.964844 314.046875 L 148.535156 314.082031 L 147.871094 314.125 L 147.109375 314.160156 L 146.015625 314.203125 L 145.113281 314.230469 L 143.921875 314.257812 L 142.828125 314.28125 L 141.640625 314.300781 L 139.882812 314.324219 L 138.738281 314.335938 L 137.503906 314.347656 L 136.027344 314.355469 L 134.175781 314.363281 L 132.175781 314.371094 L 130.320312 314.371094 L 128.324219 314.367188 L 126.851562 314.363281 L 124.898438 314.351562 L 122.472656 314.332031 L 120.714844 314.308594 L 119.335938 314.285156 L 118.148438 314.261719 L 116.816406 314.230469 L 115.101562 314.179688 L 114.058594 314.140625 L 113.34375 314.105469 L 112.535156 314.058594 L 111.964844 314.019531 L 111.296875 313.953125 L 110.824219 313.867188 L 110.679688 313.804688 Z M 110.679688 313.640625 "/>
<path style=" stroke:none;fill-rule:nonzero;fill:rgb(96.862745%,70.196078%,16.862745%);fill-opacity:1;" d="M 110.679688 308.726562 L 110.726562 308.71875 L 110.726562 308.617188 L 110.917969 308.390625 L 111.394531 308.078125 L 112.011719 307.816406 L 112.675781 307.617188 L 113.105469 307.507812 L 113.820312 307.355469 L 114.4375 307.246094 L 116.007812 307.015625 L 118.003906 306.804688 L 119.097656 306.714844 L 120.335938 306.628906 L 122.09375 306.53125 L 122.902344 306.496094 L 125.375 306.414062 L 128.179688 306.363281 L 131.273438 306.347656 L 132.699219 306.355469 L 134.648438 306.375 L 137.3125 306.429688 L 138.835938 306.480469 L 140.023438 306.53125 L 141.261719 306.597656 L 142.78125 306.699219 L 144.207031 306.820312 L 145.351562 306.941406 L 146.492188 307.09375 L 147.441406 307.253906 L 148.25 307.433594 L 148.964844 307.644531 L 149.394531 307.824219 L 149.679688 308 L 143.066406 308 L 142.6875 307.824219 L 142.257812 307.6875 L 141.546875 307.519531 L 140.832031 307.398438 L 140.117188 307.300781 L 138.789062 307.167969 L 137.644531 307.089844 L 136.21875 307.015625 L 134.839844 306.972656 L 133.269531 306.941406 L 132.320312 306.929688 L 129.796875 306.929688 L 127.515625 306.96875 L 126.183594 307.007812 L 125.234375 307.046875 L 123.902344 307.125 L 123.09375 307.183594 L 122.617188 307.226562 L 121.191406 307.382812 L 120.238281 307.523438 L 119.714844 307.621094 L 119.050781 307.773438 L 118.574219 307.910156 L 118.050781 308.113281 L 117.765625 308.265625 L 117.386719 308.609375 L 117.339844 309.519531 L 117.480469 309.714844 L 117.765625 309.921875 L 118.148438 310.101562 L 118.71875 310.296875 L 119.289062 310.441406 L 120.285156 310.640625 L 121.144531 310.773438 L 121.808594 310.859375 L 123.09375 310.996094 L 123.617188 311.039062 L 124.851562 311.132812 L 126.136719 311.203125 L 127.707031 311.265625 L 128.894531 311.292969 L 130.796875 311.320312 L 133.222656 311.320312 L 136.078125 311.289062 L 137.882812 311.25 L 139.121094 311.207031 L 139.929688 311.171875 L 140.925781 311.117188 L 141.640625 311.066406 L 142.304688 311.011719 L 143.113281 310.925781 L 143.113281 309.714844 L 131.367188 309.707031 L 131.367188 309.140625 L 149.628906 309.136719 L 149.679688 311.117188 L 148.679688 311.253906 L 147.441406 311.386719 L 146.253906 311.488281 L 145.015625 311.574219 L 143.257812 311.667969 L 141.832031 311.730469 L 139.644531 311.800781 L 137.644531 311.847656 L 135.554688 311.875 L 133.699219 311.890625 L 131.511719 311.898438 L 129.5625 311.886719 L 127.46875 311.855469 L 125.804688 311.816406 L 124.28125 311.765625 L 122.761719 311.699219 L 120.859375 311.59375 L 119.621094 311.507812 L 118.335938 311.402344 L 117.054688 311.273438 L 115.910156 311.136719 L 115.152344 311.03125 L 114.390625 310.910156 L 113.582031 310.757812 L 112.820312 310.585938 L 112.25 310.425781 L 111.726562 310.25 L 111.347656 310.082031 L 110.964844 309.855469 L 110.773438 309.671875 L 110.679688 309.515625 Z M 110.679688 308.726562 "/>
<path style=" stroke:none;fill-rule:nonzero;fill:rgb(83.921569%,15.686275%,22.352941%);fill-opacity:1;" d="M 110.679688 256.183594 L 149.679688 256.183594 L 149.679688 258.75 L 133.425781 258.773438 L 133.425781 280.136719 L 126.886719 280.136719 L 126.886719 258.792969 L 126.792969 258.75 L 110.679688 258.75 Z M 110.679688 256.183594 "/>
<path style=" stroke:none;fill-rule:nonzero;fill:rgb(6.27451%,58.823529%,28.235294%);fill-opacity:1;" d="M 151.730469 311.375 L 151.773438 311.324219 L 168.648438 259.347656 L 173.769531 259.347656 L 190.730469 311.421875 L 184.769531 311.421875 L 180.519531 297.828125 L 161.898438 297.828125 L 157.730469 311.375 L 151.730469 311.375 L 163.6875 292.207031 L 178.8125 292.15625 L 171.269531 267.855469 L 171.1875 267.804688 L 171.105469 267.953125 L 163.648438 292.15625 L 163.6875 292.207031 Z M 151.730469 311.375 "/>
<path style=" stroke:none;fill-rule:nonzero;fill:rgb(14.509804%,36.078431%,60%);fill-opacity:1;" d="M 151.730469 313.007812 L 151.777344 313.003906 L 151.777344 312.984375 L 151.921875 312.953125 L 152.253906 312.910156 L 152.585938 312.882812 L 153.441406 312.835938 L 154.632812 312.785156 L 155.867188 312.75 L 156.773438 312.726562 L 157.582031 312.710938 L 159.433594 312.679688 L 160.625 312.664062 L 161.910156 312.648438 L 163.476562 312.632812 L 164.617188 312.625 L 167.1875 312.613281 L 169.089844 312.605469 L 170.5625 312.601562 L 173.75 312.601562 L 175.652344 312.605469 L 177.03125 312.609375 L 178.554688 312.617188 L 179.839844 312.625 L 182.074219 312.644531 L 184.070312 312.667969 L 184.972656 312.679688 L 186.402344 312.707031 L 187.496094 312.734375 L 188.253906 312.753906 L 189.113281 312.785156 L 189.871094 312.824219 L 190.445312 312.867188 L 190.730469 312.902344 L 184.070312 312.902344 L 183.738281 312.871094 L 183.355469 312.84375 L 182.644531 312.808594 L 181.929688 312.785156 L 180.933594 312.757812 L 180.027344 312.742188 L 178.792969 312.726562 L 177.699219 312.71875 L 176.554688 312.710938 L 175.460938 312.703125 L 173.371094 312.699219 L 170.945312 312.699219 L 170.039062 312.703125 L 168.1875 312.707031 L 167.1875 312.714844 L 165.761719 312.726562 L 164.761719 312.738281 L 163.574219 312.753906 L 162.765625 312.769531 L 161.765625 312.789062 L 161.050781 312.808594 L 160.242188 312.835938 L 159.769531 312.859375 L 159.339844 312.882812 L 158.960938 312.910156 L 158.675781 312.941406 L 158.484375 312.972656 L 158.390625 313 L 158.390625 313.132812 L 158.484375 313.164062 L 158.722656 313.199219 L 159.339844 313.25 L 160.242188 313.296875 L 161.289062 313.332031 L 162.289062 313.355469 L 162.859375 313.367188 L 163.621094 313.382812 L 164.808594 313.398438 L 166.519531 313.414062 L 167.519531 313.421875 L 169.042969 313.429688 L 170.613281 313.433594 L 172.703125 313.433594 L 174.558594 313.429688 L 175.796875 313.425781 L 177.078125 313.417969 L 178.839844 313.402344 L 179.933594 313.390625 L 180.882812 313.375 L 181.597656 313.359375 L 182.074219 313.34375 L 182.785156 313.316406 L 183.355469 313.289062 L 183.785156 313.257812 L 184.070312 313.230469 L 190.730469 313.230469 L 190.445312 313.265625 L 190.015625 313.296875 L 189.585938 313.320312 L 188.921875 313.351562 L 188.160156 313.378906 L 187.066406 313.40625 L 186.164062 313.425781 L 184.972656 313.449219 L 183.878906 313.464844 L 182.691406 313.480469 L 180.933594 313.496094 L 179.789062 313.503906 L 178.554688 313.511719 L 177.078125 313.519531 L 175.226562 313.523438 L 173.226562 313.527344 L 169.375 313.527344 L 167.902344 313.523438 L 165.949219 313.515625 L 163.523438 313.5 L 161.765625 313.484375 L 160.386719 313.46875 L 159.199219 313.453125 L 157.867188 313.429688 L 156.152344 313.390625 L 155.105469 313.363281 L 154.394531 313.339844 L 153.585938 313.304688 L 153.015625 313.277344 L 152.347656 313.230469 L 151.875 313.167969 L 151.730469 313.121094 Z M 151.730469 313.007812 "/>
<path style=" stroke:none;fill-rule:nonzero;fill:rgb(83.921569%,15.686275%,22.352941%);fill-opacity:1;" d="M 151.730469 189.25 L 190.730469 189.25 L 190.730469 196.628906 L 174.476562 196.691406 L 174.476562 258.167969 L 167.9375 258.167969 L 167.9375 196.757812 L 167.839844 196.628906 L 151.730469 196.628906 Z M 151.730469 189.25 "/>
<path style=" stroke:none;fill-rule:nonzero;fill:rgb(6.27451%,58.823529%,28.235294%);fill-opacity:1;" d="M 192.78125 286.886719 L 192.824219 286.867188 L 209.695312 267.082031 L 214.820312 267.082031 L 231.78125 286.90625 L 225.820312 286.90625 L 221.570312 281.730469 L 202.949219 281.730469 L 198.78125 286.886719 L 192.78125 286.886719 L 204.738281 279.589844 L 219.863281 279.570312 L 212.320312 270.320312 L 212.238281 270.300781 L 212.15625 270.355469 L 204.699219 279.570312 L 204.738281 279.589844 Z M 192.78125 286.886719 "/>
<path style=" stroke:none;fill-rule:nonzero;fill:rgb(14.509804%,36.078431%,60%);fill-opacity:1;" d="M 192.78125 313.667969 L 192.828125 313.667969 L 192.828125 313.640625 L 192.972656 313.597656 L 193.304688 313.542969 L 193.636719 313.503906 L 194.492188 313.4375 L 195.683594 313.371094 L 196.917969 313.324219 L 197.824219 313.292969 L 198.632812 313.269531 L 200.484375 313.226562 L 201.675781 313.207031 L 202.957031 313.1875 L 204.527344 313.167969 L 205.667969 313.15625 L 208.238281 313.136719 L 210.140625 313.128906 L 211.613281 313.125 L 214.800781 313.125 L 216.703125 313.132812 L 218.082031 313.136719 L 219.605469 313.144531 L 220.886719 313.15625 L 223.125 313.179688 L 225.121094 313.214844 L 226.023438 313.230469 L 227.453125 313.265625 L 228.546875 313.300781 L 229.304688 313.332031 L 230.164062 313.371094 L 230.921875 313.421875 L 231.496094 313.480469 L 231.78125 313.53125 L 225.121094 313.53125 L 224.789062 313.484375 L 224.40625 313.449219 L 223.695312 313.402344 L 222.980469 313.371094 L 221.984375 313.335938 L 221.078125 313.316406 L 219.84375 313.292969 L 218.75 313.28125 L 217.605469 313.269531 L 216.511719 313.261719 L 214.421875 313.257812 L 211.089844 313.257812 L 209.238281 313.269531 L 208.238281 313.277344 L 206.8125 313.292969 L 205.8125 313.304688 L 204.625 313.328125 L 203.816406 313.347656 L 202.816406 313.378906 L 202.101562 313.402344 L 201.292969 313.441406 L 200.820312 313.46875 L 200.390625 313.503906 L 200.011719 313.539062 L 199.726562 313.578125 L 199.535156 313.621094 L 199.441406 313.664062 L 199.441406 313.839844 L 199.535156 313.878906 L 199.773438 313.925781 L 200.390625 313.996094 L 201.292969 314.058594 L 202.339844 314.105469 L 203.339844 314.140625 L 203.910156 314.15625 L 204.671875 314.171875 L 205.859375 314.195312 L 207.570312 314.21875 L 208.570312 314.226562 L 210.09375 314.238281 L 211.664062 314.242188 L 213.753906 314.242188 L 215.609375 314.238281 L 216.847656 314.230469 L 218.128906 314.222656 L 219.890625 314.203125 L 220.984375 314.183594 L 221.933594 314.164062 L 222.648438 314.140625 L 223.125 314.121094 L 223.835938 314.085938 L 224.40625 314.050781 L 224.835938 314.007812 L 225.121094 313.96875 L 231.78125 313.96875 L 231.496094 314.015625 L 231.066406 314.058594 L 230.636719 314.09375 L 229.972656 314.132812 L 229.210938 314.167969 L 228.117188 314.207031 L 227.214844 314.234375 L 226.023438 314.261719 L 224.929688 314.285156 L 223.742188 314.304688 L 221.984375 314.328125 L 220.839844 314.335938 L 219.605469 314.347656 L 218.128906 314.355469 L 216.277344 314.363281 L 214.277344 314.371094 L 212.421875 314.371094 L 210.425781 314.367188 L 208.953125 314.363281 L 207 314.355469 L 204.574219 314.332031 L 202.816406 314.3125 L 201.4375 314.289062 L 200.25 314.265625 L 198.917969 314.238281 L 197.203125 314.1875 L 196.15625 314.148438 L 195.445312 314.117188 L 194.636719 314.070312 L 194.066406 314.03125 L 193.398438 313.96875 L 192.925781 313.886719 L 192.78125 313.824219 Z M 192.78125 313.667969 "/>
<path style=" stroke:none;fill-rule:nonzero;fill:rgb(96.862745%,70.196078%,16.862745%);fill-opacity:1;" d="M 192.78125 308.648438 L 192.828125 308.644531 L 192.828125 308.539062 L 193.019531 308.300781 L 193.496094 307.976562 L 194.113281 307.707031 L 194.777344 307.496094 L 195.207031 307.386719 L 195.921875 307.226562 L 196.539062 307.113281 L 198.109375 306.875 L 200.105469 306.652344 L 201.199219 306.558594 L 202.4375 306.46875 L 204.195312 306.371094 L 205.003906 306.332031 L 207.476562 306.246094 L 210.28125 306.195312 L 213.375 306.179688 L 214.800781 306.183594 L 216.75 306.207031 L 219.414062 306.265625 L 220.9375 306.316406 L 222.125 306.371094 L 223.363281 306.4375 L 224.882812 306.542969 L 226.308594 306.667969 L 227.453125 306.796875 L 228.59375 306.953125 L 229.542969 307.121094 L 230.351562 307.308594 L 231.066406 307.527344 L 231.496094 307.710938 L 231.78125 307.898438 L 225.167969 307.898438 L 224.789062 307.710938 L 224.359375 307.570312 L 223.648438 307.394531 L 222.933594 307.269531 L 222.21875 307.167969 L 220.886719 307.03125 L 219.746094 306.949219 L 218.320312 306.875 L 216.941406 306.828125 L 215.371094 306.796875 L 214.421875 306.785156 L 211.898438 306.785156 L 209.617188 306.820312 L 208.285156 306.863281 L 207.335938 306.90625 L 206.003906 306.984375 L 205.195312 307.046875 L 204.71875 307.089844 L 203.292969 307.253906 L 202.339844 307.402344 L 201.816406 307.5 L 201.152344 307.660156 L 200.675781 307.800781 L 200.152344 308.011719 L 199.867188 308.171875 L 199.488281 308.527344 L 199.441406 309.476562 L 199.582031 309.675781 L 199.867188 309.894531 L 200.25 310.082031 L 200.820312 310.28125 L 201.390625 310.433594 L 202.386719 310.640625 L 203.246094 310.777344 L 203.910156 310.867188 L 205.195312 311.007812 L 205.71875 311.058594 L 206.953125 311.152344 L 208.238281 311.226562 L 209.808594 311.289062 L 210.996094 311.320312 L 212.898438 311.347656 L 215.324219 311.347656 L 218.179688 311.316406 L 219.984375 311.273438 L 221.222656 311.230469 L 222.03125 311.195312 L 223.027344 311.136719 L 223.742188 311.082031 L 224.40625 311.027344 L 225.214844 310.9375 L 225.214844 309.675781 L 213.46875 309.671875 L 213.46875 309.082031 L 231.730469 309.078125 L 231.78125 311.136719 L 230.78125 311.277344 L 229.542969 311.414062 L 228.355469 311.519531 L 227.117188 311.609375 L 225.359375 311.710938 L 223.933594 311.773438 L 221.746094 311.847656 L 219.746094 311.894531 L 217.65625 311.925781 L 215.800781 311.941406 L 213.613281 311.945312 L 211.664062 311.9375 L 209.570312 311.90625 L 207.90625 311.863281 L 206.382812 311.808594 L 204.859375 311.742188 L 202.957031 311.632812 L 201.722656 311.542969 L 200.4375 311.429688 L 199.152344 311.300781 L 198.011719 311.15625 L 197.25 311.046875 L 196.492188 310.921875 L 195.683594 310.761719 L 194.921875 310.582031 L 194.351562 310.417969 L 193.828125 310.234375 L 193.445312 310.0625 L 193.066406 309.824219 L 192.875 309.636719 L 192.78125 309.472656 Z M 192.78125 308.648438 "/>
<path style=" stroke:none;fill-rule:nonzero;fill:rgb(83.921569%,15.686275%,22.352941%);fill-opacity:1;" d="M 192.78125 288.085938 L 231.78125 288.085938 L 231.78125 289.894531 L 215.527344 289.910156 L 215.527344 305 L 208.988281 305 L 208.988281 289.925781 L 208.890625 289.894531 L 192.78125 289.894531 Z M 192.78125 288.085938 "/>
<path style=" stroke:none;fill-rule:nonzero;fill:rgb(6.27451%,58.823529%,28.235294%);fill-opacity:1;" d="M 233.832031 303.308594 L 233.875 303.289062 L 250.746094 280.554688 L 255.871094 280.554688 L 272.832031 303.328125 L 266.871094 303.328125 L 262.621094 297.382812 L 244 297.382812 L 239.832031 303.308594 L 233.832031 303.308594 L 245.789062 294.925781 L 260.914062 294.902344 L 253.371094 284.273438 L 253.289062 284.253906 L 253.207031 284.316406 L 245.75 294.902344 L 245.789062 294.925781 Z M 233.832031 303.308594 "/>
<path style=" stroke:none;fill-rule:nonzero;fill:rgb(14.509804%,36.078431%,60%);fill-opacity:1;" d="M 233.832031 308.257812 L 233.878906 308.25 L 233.878906 308.058594 L 234.023438 307.761719 L 234.355469 307.382812 L 234.6875 307.121094 L 235.542969 306.660156 L 236.734375 306.210938 L 237.96875 305.863281 L 238.875 305.660156 L 239.683594 305.5 L 241.535156 305.210938 L 242.726562 305.058594 L 244.007812 304.925781 L 245.578125 304.792969 L 246.71875 304.714844 L 249.289062 304.589844 L 251.191406 304.53125 L 252.664062 304.507812 L 255.851562 304.507812 L 257.753906 304.539062 L 259.132812 304.582031 L 260.65625 304.644531 L 261.9375 304.714844 L 264.175781 304.886719 L 266.171875 305.109375 L 267.074219 305.234375 L 268.503906 305.476562 L 269.597656 305.714844 L 270.355469 305.917969 L 271.214844 306.210938 L 271.972656 306.5625 L 272.542969 306.964844 L 272.832031 307.304688 L 266.171875 307.304688 L 265.839844 306.988281 L 265.457031 306.746094 L 264.746094 306.421875 L 264.03125 306.195312 L 263.03125 305.964844 L 262.128906 305.816406 L 260.894531 305.667969 L 259.800781 305.570312 L 258.65625 305.5 L 257.5625 305.453125 L 255.472656 305.40625 L 253.046875 305.40625 L 252.140625 305.421875 L 250.289062 305.484375 L 249.289062 305.539062 L 247.863281 305.652344 L 246.863281 305.753906 L 245.675781 305.910156 L 244.867188 306.042969 L 243.867188 306.25 L 243.152344 306.429688 L 242.34375 306.691406 L 241.871094 306.886719 L 241.441406 307.105469 L 241.0625 307.367188 L 240.777344 307.640625 L 240.585938 307.933594 L 240.492188 308.21875 L 240.492188 309.4375 L 240.585938 309.71875 L 240.824219 310.050781 L 241.441406 310.53125 L 242.34375 310.949219 L 243.390625 311.277344 L 244.390625 311.515625 L 244.960938 311.625 L 245.722656 311.75 L 246.910156 311.910156 L 248.621094 312.066406 L 249.621094 312.128906 L 251.144531 312.191406 L 252.710938 312.222656 L 254.804688 312.222656 L 256.660156 312.191406 L 257.898438 312.152344 L 259.179688 312.089844 L 260.941406 311.957031 L 262.035156 311.828125 L 262.984375 311.679688 L 263.699219 311.53125 L 264.175781 311.40625 L 264.886719 311.160156 L 265.457031 310.894531 L 265.886719 310.617188 L 266.171875 310.351562 L 272.832031 310.351562 L 272.542969 310.664062 L 272.117188 310.972656 L 271.6875 311.199219 L 271.023438 311.476562 L 270.261719 311.71875 L 269.167969 311.996094 L 268.265625 312.175781 L 267.074219 312.371094 L 265.980469 312.523438 L 264.792969 312.65625 L 263.03125 312.8125 L 261.890625 312.890625 L 260.65625 312.964844 L 259.179688 313.027344 L 257.324219 313.082031 L 255.328125 313.113281 L 253.472656 313.121094 L 251.476562 313.105469 L 250.003906 313.074219 L 248.050781 313.003906 L 245.625 312.859375 L 243.867188 312.710938 L 242.488281 312.5625 L 241.296875 312.40625 L 239.96875 312.191406 L 238.253906 311.84375 L 237.207031 311.578125 L 236.496094 311.359375 L 235.6875 311.050781 L 235.117188 310.773438 L 234.449219 310.335938 L 233.976562 309.777344 L 233.832031 309.34375 Z M 233.832031 308.257812 "/>
<path style=" stroke:none;fill-rule:nonzero;fill:rgb(96.862745%,70.196078%,16.862745%);fill-opacity:1;" d="M 233.832031 314.332031 L 233.878906 314.332031 L 233.878906 314.328125 L 234.070312 314.328125 L 234.546875 314.320312 L 235.164062 314.320312 L 235.828125 314.316406 L 236.257812 314.316406 L 236.972656 314.3125 L 237.589844 314.3125 L 239.160156 314.308594 L 241.15625 314.304688 L 243.488281 314.304688 L 245.246094 314.300781 L 263.175781 314.300781 L 264.414062 314.304688 L 267.359375 314.304688 L 268.503906 314.308594 L 269.644531 314.308594 L 270.59375 314.3125 L 271.402344 314.3125 L 272.117188 314.316406 L 272.542969 314.320312 L 272.832031 314.320312 L 265.839844 314.320312 L 265.410156 314.316406 L 264.699219 314.316406 L 263.984375 314.3125 L 261.9375 314.3125 L 260.796875 314.308594 L 247.054688 314.308594 L 246.246094 314.3125 L 244.34375 314.3125 L 243.390625 314.316406 L 242.867188 314.316406 L 242.203125 314.320312 L 241.726562 314.320312 L 241.203125 314.324219 L 240.917969 314.324219 L 240.539062 314.328125 L 240.492188 314.339844 L 240.632812 314.34375 L 240.917969 314.34375 L 241.296875 314.347656 L 241.871094 314.351562 L 242.441406 314.351562 L 243.4375 314.355469 L 244.296875 314.355469 L 244.960938 314.359375 L 248.003906 314.359375 L 249.289062 314.363281 L 263.082031 314.363281 L 264.078125 314.359375 L 266.265625 314.359375 L 266.265625 314.34375 L 254.519531 314.34375 L 254.519531 314.335938 L 272.78125 314.335938 L 272.832031 314.359375 L 271.832031 314.363281 L 270.59375 314.363281 L 269.40625 314.367188 L 264.984375 314.367188 L 262.796875 314.371094 L 248.957031 314.371094 L 247.433594 314.367188 L 242.773438 314.367188 L 241.488281 314.363281 L 240.203125 314.363281 L 239.0625 314.359375 L 237.542969 314.359375 L 236.734375 314.355469 L 235.972656 314.355469 L 235.402344 314.351562 L 234.878906 314.351562 L 234.496094 314.347656 L 234.117188 314.34375 L 233.925781 314.34375 L 233.832031 314.339844 Z M 233.832031 314.332031 "/>
<path style=" stroke:none;fill-rule:nonzero;fill:rgb(83.921569%,15.686275%,22.352941%);fill-opacity:1;" d="M 233.832031 190.558594 L 272.832031 190.558594 L 272.832031 200.066406 L 256.578125 200.152344 L 256.578125 279.375 L 250.039062 279.375 L 250.039062 200.234375 L 249.941406 200.066406 L 233.832031 200.066406 Z M 233.832031 190.558594 "/>
<path style=" stroke:none;fill-rule:nonzero;fill:rgb(6.27451%,58.823529%,28.235294%);fill-opacity:1;" d="M 274.882812 312.535156 L 274.925781 312.503906 L 291.796875 279.75 L 296.921875 279.75 L 313.882812 312.566406 L 307.921875 312.566406 L 303.671875 304 L 285.050781 304 L 280.882812 312.535156 L 274.882812 312.535156 L 286.839844 300.457031 L 301.964844 300.425781 L 294.421875 285.109375 L 294.339844 285.078125 L 294.257812 285.171875 L 286.800781 300.425781 L 286.839844 300.457031 Z M 274.882812 312.535156 "/>
<path style=" stroke:none;fill-rule:nonzero;fill:rgb(96.862745%,70.196078%,16.862745%);fill-opacity:1;" d="M 274.882812 196.515625 L 274.929688 196.382812 L 274.929688 193.761719 L 275.121094 187.863281 L 275.597656 179.738281 L 276.214844 173.054688 L 276.878906 167.808594 L 277.308594 165.058594 L 278.023438 161.125 L 278.640625 158.242188 L 280.210938 152.34375 L 282.207031 146.835938 L 283.300781 144.476562 L 284.539062 142.25 L 286.296875 139.757812 L 287.105469 138.839844 L 289.578125 136.746094 L 292.382812 135.433594 L 295.476562 135.039062 L 296.902344 135.171875 L 298.851562 135.695312 L 301.515625 137.136719 L 303.039062 138.449219 L 304.226562 139.757812 L 305.464844 141.464844 L 306.984375 144.085938 L 308.410156 147.230469 L 309.554688 150.375 L 310.695312 154.308594 L 311.644531 158.503906 L 312.453125 163.089844 L 313.167969 168.597656 L 313.59375 173.183594 L 313.882812 177.773438 L 307.269531 177.773438 L 306.890625 173.183594 L 306.460938 169.644531 L 305.75 165.320312 L 305.035156 162.171875 L 304.320312 159.683594 L 302.988281 156.273438 L 301.847656 154.179688 L 300.421875 152.34375 L 299.042969 151.164062 L 297.472656 150.375 L 296.523438 150.113281 L 294 150.113281 L 291.71875 151.03125 L 290.386719 152.082031 L 289.4375 153.128906 L 288.105469 155.09375 L 287.296875 156.667969 L 286.820312 157.71875 L 285.394531 161.78125 L 284.441406 165.449219 L 283.917969 167.941406 L 283.253906 171.875 L 282.777344 175.414062 L 282.253906 180.65625 L 281.96875 184.585938 L 281.589844 193.5 L 281.539062 217.09375 L 281.683594 222.074219 L 281.96875 227.449219 L 282.347656 232.167969 L 282.921875 237.148438 L 283.492188 240.949219 L 284.488281 246.0625 L 285.34375 249.46875 L 286.011719 251.699219 L 287.296875 255.238281 L 287.820312 256.417969 L 289.054688 258.777344 L 290.339844 260.613281 L 291.910156 262.183594 L 293.097656 262.972656 L 295 263.625 L 297.425781 263.625 L 300.277344 262.839844 L 302.085938 261.792969 L 303.324219 260.742188 L 304.132812 259.824219 L 305.128906 258.382812 L 305.84375 257.074219 L 306.507812 255.632812 L 307.316406 253.402344 L 307.316406 222.074219 L 295.570312 221.945312 L 295.570312 207.265625 L 313.832031 207.132812 L 313.882812 258.382812 L 312.882812 261.921875 L 311.644531 265.332031 L 310.457031 267.953125 L 309.21875 270.179688 L 307.460938 272.671875 L 306.035156 274.242188 L 303.847656 276.078125 L 301.847656 277.257812 L 299.757812 278.046875 L 297.902344 278.4375 L 295.714844 278.570312 L 293.761719 278.308594 L 291.671875 277.519531 L 290.007812 276.472656 L 288.484375 275.160156 L 286.960938 273.457031 L 285.058594 270.703125 L 283.824219 268.476562 L 282.539062 265.722656 L 281.253906 262.445312 L 280.113281 258.90625 L 279.351562 256.15625 L 278.59375 253.007812 L 277.785156 249.078125 L 277.023438 244.621094 L 276.453125 240.558594 L 275.929688 235.96875 L 275.546875 231.644531 L 275.167969 225.746094 L 274.976562 221.027344 L 274.882812 216.964844 Z M 274.882812 196.515625 "/>
<path style=" stroke:none;fill-rule:nonzero;fill:rgb(83.921569%,15.686275%,22.352941%);fill-opacity:1;" d="M 274.882812 313.746094 L 313.882812 313.746094 L 313.882812 313.8125 L 297.628906 313.8125 L 297.628906 314.371094 L 291.089844 314.371094 L 291.089844 313.8125 L 274.882812 313.8125 Z M 274.882812 313.746094 "/>
<path style=" stroke:none;fill-rule:nonzero;fill:rgb(96.862745%,70.196078%,16.862745%);fill-opacity:1;" d="M 315.933594 146.460938 L 315.980469 146.191406 L 315.980469 140.828125 L 316.171875 128.757812 L 316.648438 112.128906 L 317.265625 98.449219 L 317.929688 87.71875 L 318.359375 82.085938 L 319.074219 74.039062 L 319.691406 68.140625 L 321.261719 56.070312 L 323.257812 44.804688 L 324.351562 39.976562 L 325.585938 35.414062 L 327.347656 30.320312 L 328.15625 28.441406 L 330.628906 24.148438 L 333.433594 21.46875 L 336.527344 20.664062 L 337.953125 20.929688 L 339.902344 22.003906 L 342.566406 24.953125 L 344.089844 27.636719 L 345.277344 30.320312 L 346.515625 33.804688 L 348.035156 39.171875 L 349.460938 45.609375 L 350.605469 52.046875 L 351.746094 60.09375 L 352.695312 68.675781 L 353.503906 78.0625 L 354.21875 89.328125 L 354.644531 98.714844 L 354.929688 108.105469 L 348.320312 108.105469 L 347.941406 98.714844 L 347.511719 91.476562 L 346.800781 82.625 L 346.085938 76.1875 L 345.371094 71.089844 L 344.039062 64.117188 L 342.898438 59.824219 L 341.472656 56.070312 L 340.09375 53.65625 L 338.523438 52.046875 L 337.574219 51.507812 L 335.050781 51.507812 L 332.769531 53.386719 L 331.4375 55.53125 L 330.488281 57.679688 L 329.15625 61.703125 L 328.347656 64.921875 L 327.871094 67.066406 L 326.445312 75.382812 L 325.492188 82.890625 L 324.96875 87.988281 L 324.304688 96.035156 L 323.828125 103.277344 L 323.304688 114.003906 L 323.019531 122.050781 L 322.640625 140.292969 L 322.589844 188.574219 L 322.734375 198.765625 L 323.019531 209.761719 L 323.398438 219.417969 L 323.972656 229.609375 L 324.542969 237.390625 L 325.539062 247.851562 L 326.394531 254.824219 L 327.0625 259.382812 L 328.347656 266.625 L 328.871094 269.039062 L 330.105469 273.867188 L 331.390625 277.625 L 332.960938 280.84375 L 334.148438 282.453125 L 336.050781 283.792969 L 338.476562 283.792969 L 341.328125 282.183594 L 343.136719 280.039062 L 344.375 277.890625 L 345.183594 276.015625 L 346.179688 273.0625 L 346.894531 270.382812 L 347.558594 267.429688 L 348.367188 262.871094 L 348.367188 198.765625 L 336.621094 198.496094 L 336.621094 168.457031 L 354.882812 168.1875 L 354.929688 273.0625 L 353.933594 280.304688 L 352.695312 287.28125 L 351.507812 292.644531 L 350.269531 297.203125 L 348.511719 302.300781 L 347.085938 305.519531 L 344.898438 309.273438 L 342.898438 311.6875 L 340.808594 313.296875 L 338.953125 314.101562 L 336.765625 314.371094 L 334.8125 313.835938 L 332.722656 312.226562 L 331.058594 310.078125 L 329.535156 307.398438 L 328.011719 303.910156 L 326.109375 298.277344 L 324.875 293.71875 L 323.589844 288.085938 L 322.304688 281.378906 L 321.164062 274.136719 L 320.402344 268.503906 L 319.644531 262.066406 L 318.835938 254.019531 L 318.074219 244.898438 L 317.503906 236.585938 L 316.980469 227.195312 L 316.597656 218.34375 L 316.21875 206.277344 L 316.027344 196.621094 L 315.933594 188.304688 Z M 315.933594 146.460938 "/>
<path style=" stroke:none;fill-rule:nonzero;fill:rgb(6.27451%,58.823529%,28.235294%);fill-opacity:1;" d="M 356.984375 312.664062 L 357.027344 312.398438 L 373.898438 28.035156 L 379.023438 28.035156 L 395.980469 312.933594 L 390.023438 312.933594 L 385.773438 238.566406 L 367.148438 238.566406 L 362.984375 312.664062 L 356.984375 312.664062 L 368.941406 207.800781 L 384.066406 207.535156 L 376.523438 74.582031 L 376.441406 74.316406 L 376.359375 75.117188 L 368.898438 207.535156 L 368.941406 207.800781 Z M 356.984375 312.664062 "/>
<path style=" stroke:none;fill-rule:nonzero;fill:rgb(6.27451%,58.823529%,28.235294%);fill-opacity:1;" d="M 398.035156 314.371094 L 398.078125 314.371094 L 414.949219 314.144531 L 420.074219 314.144531 L 437.03125 314.371094 L 431.074219 314.371094 L 426.824219 314.3125 L 408.199219 314.3125 L 404.035156 314.371094 L 398.035156 314.371094 L 409.992188 314.285156 L 425.117188 314.285156 L 417.574219 314.179688 L 417.410156 314.179688 L 409.949219 314.285156 L 409.992188 314.285156 Z M 398.035156 314.371094 "/>
<path style=" stroke:none;fill-rule:nonzero;fill:rgb(96.862745%,70.196078%,16.862745%);fill-opacity:1;" d="M 398.035156 312.832031 L 398.082031 312.832031 L 398.082031 312.828125 L 398.273438 312.820312 L 398.75 312.804688 L 399.367188 312.796875 L 400.03125 312.789062 L 400.460938 312.78125 L 401.171875 312.777344 L 401.792969 312.773438 L 403.363281 312.761719 L 405.359375 312.753906 L 406.453125 312.75 L 407.6875 312.746094 L 409.449219 312.742188 L 410.257812 312.742188 L 412.730469 312.738281 L 415.535156 312.734375 L 422.003906 312.734375 L 424.667969 312.738281 L 426.191406 312.742188 L 427.378906 312.742188 L 428.613281 312.746094 L 430.136719 312.75 L 431.5625 312.753906 L 432.707031 312.757812 L 433.847656 312.765625 L 434.796875 312.773438 L 435.605469 312.78125 L 436.320312 312.789062 L 436.746094 312.796875 L 437.03125 312.804688 L 430.421875 312.804688 L 430.042969 312.796875 L 429.613281 312.789062 L 428.902344 312.785156 L 428.1875 312.777344 L 427.472656 312.773438 L 426.140625 312.769531 L 425 312.765625 L 423.574219 312.761719 L 422.195312 312.761719 L 420.625 312.757812 L 417.152344 312.757812 L 414.871094 312.761719 L 413.539062 312.761719 L 412.585938 312.765625 L 411.257812 312.765625 L 410.449219 312.769531 L 409.972656 312.769531 L 408.546875 312.777344 L 407.59375 312.785156 L 407.070312 312.789062 L 406.40625 312.792969 L 405.929688 312.800781 L 405.40625 312.808594 L 405.121094 312.8125 L 404.742188 312.828125 L 404.691406 312.867188 L 404.835938 312.875 L 405.121094 312.882812 L 405.5 312.890625 L 406.070312 312.898438 L 406.644531 312.902344 L 407.640625 312.910156 L 408.496094 312.917969 L 409.164062 312.921875 L 410.449219 312.925781 L 410.972656 312.929688 L 412.207031 312.933594 L 413.492188 312.933594 L 415.0625 312.9375 L 425.238281 312.9375 L 426.476562 312.933594 L 427.285156 312.933594 L 428.28125 312.929688 L 428.996094 312.929688 L 429.660156 312.925781 L 430.46875 312.921875 L 430.46875 312.875 L 418.722656 312.875 L 418.722656 312.851562 L 436.984375 312.851562 L 437.03125 312.929688 L 436.035156 312.9375 L 434.796875 312.941406 L 433.609375 312.945312 L 432.371094 312.949219 L 430.613281 312.953125 L 429.1875 312.957031 L 427 312.960938 L 422.90625 312.960938 L 421.054688 312.964844 L 418.867188 312.964844 L 416.914062 312.960938 L 413.160156 312.960938 L 410.113281 312.953125 L 408.210938 312.949219 L 406.976562 312.945312 L 404.40625 312.9375 L 403.265625 312.933594 L 402.503906 312.925781 L 401.746094 312.921875 L 400.9375 312.917969 L 400.175781 312.910156 L 399.605469 312.902344 L 399.082031 312.894531 L 398.699219 312.886719 L 398.320312 312.878906 L 398.128906 312.871094 L 398.035156 312.867188 Z M 398.035156 312.832031 "/>
<path style=" stroke:none;fill-rule:nonzero;fill:rgb(83.921569%,15.686275%,22.352941%);fill-opacity:1;" d="M 398.035156 34.050781 L 437.03125 34.050781 L 437.03125 63.753906 L 420.78125 64.015625 L 420.78125 311.554688 L 414.242188 311.554688 L 414.242188 64.277344 L 414.144531 63.753906 L 398.035156 63.753906 Z M 398.035156 34.050781 "/>
<path style=" stroke:none;fill-rule:nonzero;fill:rgb(6.27451%,58.823529%,28.235294%);fill-opacity:1;" d="M 439.085938 299.25 L 439.128906 299.046875 L 456 85.992188 L 461.125 85.992188 L 478.082031 299.449219 L 472.125 299.449219 L 467.875 243.730469 L 449.25 243.730469 L 445.085938 299.25 L 439.085938 299.25 L 451.042969 220.679688 L 466.167969 220.480469 L 458.625 120.867188 L 458.542969 120.667969 L 458.460938 121.269531 L 451 220.480469 L 451.042969 220.679688 Z M 439.085938 299.25 "/>
<path style=" stroke:none;fill-rule:nonzero;fill:rgb(14.509804%,36.078431%,60%);fill-opacity:1;" d="M 439.085938 313.523438 L 439.132812 313.523438 L 439.132812 313.488281 L 439.277344 313.4375 L 439.609375 313.371094 L 439.941406 313.328125 L 440.796875 313.246094 L 441.988281 313.167969 L 443.222656 313.109375 L 444.125 313.070312 L 444.933594 313.042969 L 446.789062 312.992188 L 447.980469 312.96875 L 449.261719 312.945312 L 450.832031 312.921875 L 451.972656 312.90625 L 454.542969 312.886719 L 456.445312 312.875 L 457.917969 312.871094 L 461.105469 312.871094 L 463.007812 312.878906 L 464.386719 312.882812 L 465.910156 312.894531 L 467.191406 312.90625 L 469.429688 312.9375 L 471.425781 312.976562 L 472.328125 313 L 473.753906 313.039062 L 474.851562 313.082031 L 475.609375 313.117188 L 476.464844 313.167969 L 477.226562 313.230469 L 477.796875 313.300781 L 478.082031 313.359375 L 471.425781 313.359375 L 471.09375 313.304688 L 470.710938 313.261719 L 470 313.203125 L 469.285156 313.164062 L 468.285156 313.125 L 467.382812 313.097656 L 466.144531 313.074219 L 465.050781 313.058594 L 463.910156 313.042969 L 462.816406 313.035156 L 460.726562 313.027344 L 458.300781 313.027344 L 457.394531 313.03125 L 455.539062 313.042969 L 454.542969 313.050781 L 453.117188 313.070312 L 452.117188 313.089844 L 450.925781 313.117188 L 450.117188 313.140625 L 449.121094 313.175781 L 448.40625 313.207031 L 447.597656 313.25 L 447.121094 313.285156 L 446.695312 313.324219 L 446.3125 313.371094 L 446.027344 313.417969 L 445.839844 313.46875 L 445.742188 313.515625 L 445.742188 313.730469 L 445.839844 313.777344 L 446.078125 313.835938 L 446.695312 313.921875 L 447.597656 313.992188 L 448.644531 314.050781 L 449.644531 314.089844 L 450.214844 314.109375 L 450.976562 314.132812 L 452.164062 314.160156 L 453.875 314.1875 L 454.875 314.199219 L 456.398438 314.210938 L 457.964844 314.214844 L 460.058594 314.214844 L 461.914062 314.210938 L 463.148438 314.203125 L 464.433594 314.191406 L 466.195312 314.167969 L 467.289062 314.144531 L 468.238281 314.121094 L 468.953125 314.09375 L 469.429688 314.070312 L 470.140625 314.03125 L 470.710938 313.984375 L 471.140625 313.933594 L 471.425781 313.886719 L 478.082031 313.886719 L 477.796875 313.941406 L 477.371094 313.996094 L 476.941406 314.035156 L 476.277344 314.085938 L 475.515625 314.125 L 474.421875 314.175781 L 473.519531 314.207031 L 472.328125 314.242188 L 471.234375 314.265625 L 470.046875 314.289062 L 468.285156 314.316406 L 467.144531 314.332031 L 465.910156 314.34375 L 464.433594 314.355469 L 462.578125 314.363281 L 460.582031 314.371094 L 458.726562 314.371094 L 456.730469 314.367188 L 455.253906 314.363281 L 453.304688 314.351562 L 450.878906 314.324219 L 449.121094 314.300781 L 447.742188 314.273438 L 446.550781 314.246094 L 445.21875 314.210938 L 443.507812 314.148438 L 442.460938 314.101562 L 441.75 314.0625 L 440.941406 314.011719 L 440.371094 313.960938 L 439.703125 313.886719 L 439.226562 313.789062 L 439.085938 313.714844 Z M 439.085938 313.523438 "/>
<path style=" stroke:none;fill-rule:nonzero;fill:rgb(96.862745%,70.196078%,16.862745%);fill-opacity:1;" d="M 439.085938 303.238281 L 439.132812 303.230469 L 439.132812 303.121094 L 439.324219 302.871094 L 439.800781 302.527344 L 440.417969 302.242188 L 441.082031 302.019531 L 441.511719 301.902344 L 442.222656 301.734375 L 442.84375 301.613281 L 444.410156 301.363281 L 446.410156 301.128906 L 447.503906 301.03125 L 448.738281 300.933594 L 450.5 300.828125 L 451.308594 300.789062 L 453.78125 300.703125 L 456.585938 300.644531 L 459.679688 300.628906 L 461.105469 300.632812 L 463.054688 300.65625 L 465.71875 300.71875 L 467.242188 300.773438 L 468.429688 300.828125 L 469.664062 300.902344 L 471.1875 301.011719 L 472.613281 301.144531 L 473.753906 301.28125 L 474.898438 301.445312 L 475.847656 301.625 L 476.65625 301.820312 L 477.371094 302.050781 L 477.796875 302.246094 L 478.082031 302.441406 L 471.472656 302.441406 L 471.09375 302.246094 L 470.664062 302.097656 L 469.949219 301.914062 L 469.238281 301.78125 L 468.523438 301.675781 L 467.191406 301.53125 L 466.050781 301.441406 L 464.625 301.363281 L 463.246094 301.3125 L 461.675781 301.28125 L 460.726562 301.269531 L 458.203125 301.269531 L 455.921875 301.308594 L 454.589844 301.351562 L 453.636719 301.394531 L 452.308594 301.480469 L 451.5 301.546875 L 451.023438 301.589844 L 449.597656 301.761719 L 448.644531 301.917969 L 448.121094 302.023438 L 447.457031 302.191406 L 446.980469 302.34375 L 446.457031 302.5625 L 446.171875 302.730469 L 445.792969 303.109375 L 445.742188 304.109375 L 445.886719 304.320312 L 446.171875 304.550781 L 446.550781 304.75 L 447.121094 304.960938 L 447.695312 305.121094 L 448.691406 305.339844 L 449.546875 305.484375 L 450.214844 305.578125 L 451.5 305.730469 L 452.019531 305.777344 L 453.257812 305.878906 L 454.542969 305.957031 L 456.113281 306.023438 L 457.300781 306.058594 L 459.203125 306.085938 L 461.628906 306.085938 L 464.480469 306.050781 L 466.289062 306.007812 L 467.527344 305.960938 L 468.335938 305.921875 L 469.332031 305.863281 L 470.046875 305.808594 L 470.710938 305.746094 L 471.519531 305.652344 L 471.519531 304.320312 L 459.773438 304.316406 L 459.773438 303.691406 L 478.035156 303.6875 L 478.082031 305.863281 L 477.085938 306.011719 L 475.847656 306.15625 L 474.660156 306.269531 L 473.421875 306.363281 L 471.664062 306.46875 L 470.238281 306.535156 L 468.046875 306.613281 L 466.050781 306.664062 L 463.957031 306.695312 L 462.105469 306.714844 L 459.917969 306.71875 L 457.964844 306.707031 L 455.875 306.675781 L 454.210938 306.628906 L 452.6875 306.574219 L 451.164062 306.5 L 449.261719 306.386719 L 448.027344 306.289062 L 446.742188 306.171875 L 445.457031 306.035156 L 444.316406 305.882812 L 443.554688 305.769531 L 442.796875 305.632812 L 441.988281 305.46875 L 441.226562 305.277344 L 440.65625 305.105469 L 440.132812 304.910156 L 439.75 304.726562 L 439.371094 304.476562 L 439.179688 304.277344 L 439.085938 304.105469 Z M 439.085938 303.238281 "/>
<path style=" stroke:none;fill-rule:nonzero;fill:rgb(83.921569%,15.686275%,22.352941%);fill-opacity:1;" d="M 439.085938 307.898438 L 478.082031 307.898438 L 478.082031 308.304688 L 461.832031 308.308594 L 461.832031 311.691406 L 455.292969 311.691406 L 455.292969 308.3125 L 455.195312 308.304688 L 439.085938 308.304688 Z M 439.085938 307.898438 "/>
<path style=" stroke:none;fill-rule:nonzero;fill:rgb(6.27451%,58.823529%,28.235294%);fill-opacity:1;" d="M 480.136719 299.664062 L 480.179688 299.457031 L 497.050781 80.394531 L 502.175781 80.394531 L 519.132812 299.871094 L 513.175781 299.871094 L 508.925781 242.578125 L 490.300781 242.578125 L 486.136719 299.664062 L 480.136719 299.664062 L 492.09375 218.878906 L 507.21875 218.675781 L 499.675781 116.253906 L 499.59375 116.046875 L 499.511719 116.664062 L 492.050781 218.675781 L 492.09375 218.878906 Z M 480.136719 299.664062 "/>
<path style=" stroke:none;fill-rule:nonzero;fill:rgb(96.862745%,70.196078%,16.862745%);fill-opacity:1;" d="M 480.136719 304.574219 L 480.183594 304.566406 L 480.183594 304.414062 L 480.375 304.078125 L 480.847656 303.609375 L 481.46875 303.226562 L 482.132812 302.925781 L 482.5625 302.769531 L 483.273438 302.542969 L 483.894531 302.378906 L 485.460938 302.039062 L 487.460938 301.726562 L 488.554688 301.589844 L 489.789062 301.460938 L 491.550781 301.320312 L 492.359375 301.265625 L 494.832031 301.148438 L 497.636719 301.070312 L 500.730469 301.050781 L 502.15625 301.054688 L 504.105469 301.085938 L 506.769531 301.167969 L 508.289062 301.246094 L 509.480469 301.320312 L 510.714844 301.417969 L 512.238281 301.566406 L 513.664062 301.746094 L 514.804688 301.929688 L 515.949219 302.152344 L 516.898438 302.394531 L 517.707031 302.65625 L 518.421875 302.972656 L 518.847656 303.234375 L 519.132812 303.5 L 512.523438 303.5 L 512.144531 303.234375 L 511.714844 303.03125 L 511 302.785156 L 510.289062 302.605469 L 509.574219 302.460938 L 508.242188 302.265625 L 507.101562 302.144531 L 505.675781 302.039062 L 504.296875 301.972656 L 502.726562 301.929688 L 501.773438 301.914062 L 499.253906 301.914062 L 496.972656 301.964844 L 495.640625 302.027344 L 494.6875 302.085938 L 493.359375 302.199219 L 492.550781 302.289062 L 492.074219 302.347656 L 490.648438 302.582031 L 489.695312 302.792969 L 489.171875 302.933594 L 488.507812 303.160156 L 488.03125 303.363281 L 487.507812 303.664062 L 487.222656 303.890625 L 486.84375 304.398438 L 486.792969 305.753906 L 486.9375 306.039062 L 487.222656 306.34375 L 487.601562 306.617188 L 488.171875 306.902344 L 488.746094 307.121094 L 489.742188 307.414062 L 490.597656 307.609375 L 491.265625 307.734375 L 492.550781 307.9375 L 493.070312 308.007812 L 494.308594 308.140625 L 495.59375 308.246094 L 497.164062 308.335938 L 498.351562 308.382812 L 500.253906 308.417969 L 502.679688 308.417969 L 505.53125 308.375 L 507.339844 308.3125 L 508.578125 308.253906 L 509.386719 308.203125 L 510.382812 308.117188 L 511.097656 308.042969 L 511.761719 307.960938 L 512.570312 307.832031 L 512.570312 306.039062 L 500.824219 306.03125 L 500.824219 305.1875 L 519.085938 305.179688 L 519.132812 308.117188 L 518.136719 308.320312 L 516.898438 308.515625 L 515.710938 308.667969 L 514.472656 308.792969 L 512.714844 308.9375 L 511.289062 309.027344 L 509.097656 309.132812 L 507.101562 309.199219 L 505.007812 309.246094 L 503.15625 309.269531 L 500.96875 309.277344 L 499.015625 309.261719 L 496.925781 309.214844 L 495.261719 309.15625 L 493.738281 309.082031 L 492.214844 308.984375 L 490.3125 308.824219 L 489.078125 308.695312 L 487.792969 308.539062 L 486.507812 308.351562 L 485.367188 308.148438 L 484.605469 307.992188 L 483.847656 307.8125 L 483.039062 307.585938 L 482.277344 307.328125 L 481.707031 307.097656 L 481.183594 306.832031 L 480.800781 306.585938 L 480.421875 306.246094 L 480.230469 305.976562 L 480.136719 305.746094 Z M 480.136719 304.574219 "/>
<path style=" stroke:none;fill-rule:nonzero;fill:rgb(83.921569%,15.686275%,22.352941%);fill-opacity:1;" d="M 480.136719 310.457031 L 519.132812 310.457031 L 519.132812 310.789062 L 502.882812 310.792969 L 502.882812 313.585938 L 496.34375 313.585938 L 496.34375 310.796875 L 496.246094 310.789062 L 480.136719 310.789062 Z M 480.136719 310.457031 "/>
<path style=" stroke:none;fill-rule:nonzero;fill:rgb(6.27451%,58.823529%,28.235294%);fill-opacity:1;" d="M 521.1875 308.386719 L 521.226562 308.378906 L 538.101562 302.578125 L 543.226562 302.578125 L 560.183594 308.390625 L 554.226562 308.390625 L 549.976562 306.875 L 531.351562 306.875 L 527.1875 308.386719 L 521.1875 308.386719 L 533.144531 306.246094 L 548.269531 306.242188 L 540.726562 303.527344 L 540.644531 303.523438 L 540.5625 303.539062 L 533.101562 306.242188 L 533.144531 306.246094 Z M 521.1875 308.386719 "/>
<path style=" stroke:none;fill-rule:nonzero;fill:rgb(14.509804%,36.078431%,60%);fill-opacity:1;" d="M 521.1875 311.660156 L 521.234375 311.65625 L 521.234375 311.550781 L 521.378906 311.382812 L 521.710938 311.171875 L 522.042969 311.027344 L 522.898438 310.769531 L 524.089844 310.519531 L 525.324219 310.324219 L 526.226562 310.210938 L 527.035156 310.125 L 528.890625 309.960938 L 530.082031 309.878906 L 531.363281 309.804688 L 532.933594 309.730469 L 534.074219 309.683594 L 536.644531 309.613281 L 538.546875 309.585938 L 540.019531 309.570312 L 543.207031 309.570312 L 545.109375 309.589844 L 546.488281 309.609375 L 548.011719 309.644531 L 549.292969 309.683594 L 551.53125 309.78125 L 553.527344 309.90625 L 554.429688 309.976562 L 555.855469 310.109375 L 556.949219 310.242188 L 557.710938 310.355469 L 558.566406 310.519531 L 559.328125 310.714844 L 559.898438 310.941406 L 560.183594 311.128906 L 553.527344 311.128906 L 553.195312 310.953125 L 552.8125 310.816406 L 552.101562 310.636719 L 551.386719 310.511719 L 550.386719 310.382812 L 549.484375 310.300781 L 548.246094 310.214844 L 547.152344 310.164062 L 546.011719 310.125 L 544.917969 310.097656 L 542.824219 310.070312 L 540.402344 310.070312 L 539.496094 310.082031 L 537.640625 310.117188 L 536.644531 310.144531 L 535.214844 310.207031 L 534.21875 310.265625 L 533.027344 310.351562 L 532.21875 310.425781 L 531.222656 310.539062 L 530.507812 310.640625 L 529.699219 310.785156 L 529.222656 310.894531 L 528.796875 311.019531 L 528.414062 311.164062 L 528.128906 311.316406 L 527.941406 311.480469 L 527.84375 311.636719 L 527.84375 312.316406 L 527.941406 312.476562 L 528.179688 312.660156 L 528.796875 312.925781 L 529.699219 313.160156 L 530.746094 313.34375 L 531.746094 313.476562 L 532.316406 313.539062 L 533.078125 313.605469 L 534.265625 313.695312 L 535.976562 313.78125 L 536.976562 313.816406 L 538.5 313.851562 L 540.066406 313.871094 L 542.160156 313.871094 L 544.015625 313.851562 L 545.25 313.832031 L 546.535156 313.796875 L 548.296875 313.722656 L 549.390625 313.652344 L 550.339844 313.566406 L 551.054688 313.484375 L 551.53125 313.414062 L 552.242188 313.277344 L 552.8125 313.128906 L 553.242188 312.976562 L 553.527344 312.828125 L 560.183594 312.828125 L 559.898438 313 L 559.472656 313.171875 L 559.042969 313.300781 L 558.378906 313.453125 L 557.617188 313.589844 L 556.523438 313.742188 L 555.621094 313.84375 L 554.429688 313.953125 L 553.335938 314.039062 L 552.148438 314.113281 L 550.386719 314.199219 L 549.246094 314.242188 L 548.011719 314.28125 L 546.535156 314.316406 L 544.679688 314.347656 L 542.683594 314.367188 L 540.828125 314.371094 L 538.832031 314.363281 L 537.355469 314.34375 L 535.40625 314.304688 L 532.980469 314.226562 L 531.222656 314.140625 L 529.84375 314.058594 L 528.652344 313.972656 L 527.320312 313.851562 L 525.609375 313.660156 L 524.5625 313.511719 L 523.851562 313.386719 L 523.042969 313.21875 L 522.472656 313.0625 L 521.804688 312.816406 L 521.328125 312.507812 L 521.1875 312.265625 Z M 521.1875 311.660156 "/>
<path style=" stroke:none;fill-rule:nonzero;fill:rgb(96.862745%,70.196078%,16.862745%);fill-opacity:1;" d="M 521.1875 269.78125 L 521.234375 269.75 L 521.234375 269.109375 L 521.425781 267.664062 L 521.898438 265.679688 L 522.519531 264.042969 L 523.183594 262.761719 L 523.613281 262.085938 L 524.324219 261.125 L 524.945312 260.421875 L 526.511719 258.976562 L 528.511719 257.632812 L 529.605469 257.054688 L 530.839844 256.511719 L 532.601562 255.902344 L 533.410156 255.675781 L 535.882812 255.164062 L 538.6875 254.84375 L 541.78125 254.746094 L 543.207031 254.78125 L 545.15625 254.90625 L 547.820312 255.261719 L 549.339844 255.582031 L 550.53125 255.902344 L 551.765625 256.316406 L 553.289062 256.960938 L 554.714844 257.726562 L 555.855469 258.496094 L 557 259.460938 L 557.949219 260.484375 L 558.757812 261.605469 L 559.472656 262.953125 L 559.898438 264.074219 L 560.183594 265.195312 L 553.574219 265.195312 L 553.195312 264.074219 L 552.765625 263.210938 L 552.050781 262.152344 L 551.339844 261.382812 L 550.625 260.773438 L 549.292969 259.941406 L 548.152344 259.425781 L 546.726562 258.976562 L 545.347656 258.691406 L 543.777344 258.496094 L 542.824219 258.433594 L 540.304688 258.433594 L 538.023438 258.65625 L 536.691406 258.914062 L 535.738281 259.171875 L 534.40625 259.652344 L 533.601562 260.035156 L 533.125 260.292969 L 531.699219 261.285156 L 530.746094 262.183594 L 530.222656 262.792969 L 529.558594 263.753906 L 529.082031 264.621094 L 528.558594 265.902344 L 528.273438 266.863281 L 527.894531 269.042969 L 527.84375 274.8125 L 527.988281 276.03125 L 528.273438 277.34375 L 528.652344 278.5 L 529.222656 279.71875 L 529.796875 280.648438 L 530.792969 281.898438 L 531.648438 282.730469 L 532.316406 283.277344 L 533.601562 284.140625 L 534.121094 284.429688 L 535.359375 285.007812 L 536.644531 285.457031 L 538.210938 285.839844 L 539.402344 286.03125 L 541.304688 286.191406 L 543.730469 286.191406 L 546.582031 286 L 548.390625 285.742188 L 549.625 285.488281 L 550.433594 285.261719 L 551.433594 284.910156 L 552.148438 284.589844 L 552.8125 284.238281 L 553.621094 283.691406 L 553.621094 276.03125 L 541.875 276 L 541.875 272.410156 L 560.136719 272.378906 L 560.183594 284.910156 L 559.1875 285.777344 L 557.949219 286.609375 L 556.761719 287.25 L 555.523438 287.796875 L 553.765625 288.40625 L 552.335938 288.789062 L 550.148438 289.238281 L 548.152344 289.527344 L 546.058594 289.71875 L 544.207031 289.816406 L 542.015625 289.847656 L 540.066406 289.78125 L 537.976562 289.589844 L 536.308594 289.332031 L 534.789062 289.011719 L 533.265625 288.597656 L 531.363281 287.921875 L 530.128906 287.378906 L 528.84375 286.707031 L 527.558594 285.902344 L 526.417969 285.039062 L 525.65625 284.367188 L 524.894531 283.597656 L 524.089844 282.632812 L 523.328125 281.542969 L 522.757812 280.550781 L 522.234375 279.429688 L 521.851562 278.371094 L 521.472656 276.929688 L 521.28125 275.773438 L 521.1875 274.78125 Z M 521.1875 269.78125 "/>
<path style=" stroke:none;fill-rule:nonzero;fill:rgb(83.921569%,15.686275%,22.352941%);fill-opacity:1;" d="M 521.1875 291.027344 L 560.183594 291.027344 L 560.183594 292.136719 L 543.933594 292.144531 L 543.933594 301.398438 L 537.394531 301.398438 L 537.394531 292.15625 L 537.296875 292.136719 L 521.1875 292.136719 Z M 521.1875 291.027344 "/>
<path style=" stroke:none;fill-rule:nonzero;fill:rgb(6.27451%,58.823529%,28.235294%);fill-opacity:1;" d="M 562.238281 304.890625 L 562.277344 304.875 L 579.152344 284.46875 L 584.277344 284.46875 L 601.234375 304.910156 L 595.277344 304.910156 L 591.027344 299.574219 L 572.402344 299.574219 L 568.238281 304.890625 L 562.238281 304.890625 L 574.195312 297.367188 L 589.320312 297.347656 L 581.777344 287.808594 L 581.695312 287.789062 L 581.613281 287.847656 L 574.152344 297.347656 L 574.195312 297.367188 Z M 562.238281 304.890625 "/>
<path style=" stroke:none;fill-rule:nonzero;fill:rgb(14.509804%,36.078431%,60%);fill-opacity:1;" d="M 562.238281 312.683594 L 562.285156 312.679688 L 562.285156 312.613281 L 562.429688 312.511719 L 562.761719 312.378906 L 563.09375 312.289062 L 563.949219 312.128906 L 565.136719 311.972656 L 566.375 311.851562 L 567.277344 311.78125 L 568.085938 311.726562 L 569.941406 311.625 L 571.132812 311.574219 L 572.414062 311.527344 L 573.984375 311.480469 L 575.125 311.453125 L 577.695312 311.410156 L 579.597656 311.390625 L 581.070312 311.382812 L 584.257812 311.382812 L 586.160156 311.394531 L 587.539062 311.410156 L 589.0625 311.429688 L 590.34375 311.453125 L 592.578125 311.515625 L 594.578125 311.589844 L 595.480469 311.636719 L 596.90625 311.71875 L 598 311.800781 L 598.761719 311.871094 L 599.617188 311.972656 L 600.378906 312.097656 L 600.949219 312.234375 L 601.234375 312.351562 L 594.578125 312.351562 L 594.246094 312.242188 L 593.863281 312.160156 L 593.152344 312.046875 L 592.4375 311.96875 L 591.4375 311.890625 L 590.535156 311.835938 L 589.296875 311.785156 L 588.203125 311.753906 L 587.0625 311.726562 L 585.96875 311.710938 L 583.875 311.695312 L 581.453125 311.695312 L 580.546875 311.699219 L 578.691406 311.722656 L 577.695312 311.742188 L 576.265625 311.78125 L 575.269531 311.816406 L 574.078125 311.871094 L 573.269531 311.917969 L 572.273438 311.988281 L 571.558594 312.050781 L 570.75 312.140625 L 570.273438 312.207031 L 569.847656 312.285156 L 569.464844 312.375 L 569.179688 312.46875 L 568.992188 312.570312 L 568.894531 312.667969 L 568.894531 313.09375 L 568.992188 313.191406 L 569.230469 313.304688 L 569.847656 313.472656 L 570.75 313.617188 L 571.796875 313.730469 L 572.796875 313.8125 L 573.367188 313.851562 L 574.128906 313.894531 L 575.316406 313.949219 L 577.027344 314.003906 L 578.027344 314.027344 L 579.550781 314.046875 L 581.117188 314.058594 L 583.210938 314.058594 L 585.066406 314.046875 L 586.300781 314.035156 L 587.585938 314.011719 L 589.347656 313.964844 L 590.441406 313.921875 L 591.390625 313.871094 L 592.105469 313.820312 L 592.578125 313.777344 L 593.292969 313.691406 L 593.863281 313.597656 L 594.292969 313.503906 L 594.578125 313.410156 L 601.234375 313.410156 L 600.949219 313.519531 L 600.523438 313.625 L 600.09375 313.703125 L 599.429688 313.800781 L 598.667969 313.882812 L 597.574219 313.980469 L 596.671875 314.042969 L 595.480469 314.109375 L 594.386719 314.164062 L 593.199219 314.210938 L 591.4375 314.265625 L 590.296875 314.292969 L 589.0625 314.316406 L 587.585938 314.339844 L 585.730469 314.355469 L 583.734375 314.367188 L 581.878906 314.371094 L 579.882812 314.363281 L 578.40625 314.355469 L 576.457031 314.328125 L 574.03125 314.28125 L 572.273438 314.230469 L 570.894531 314.175781 L 569.703125 314.121094 L 568.371094 314.046875 L 566.660156 313.929688 L 565.613281 313.835938 L 564.902344 313.757812 L 564.09375 313.652344 L 563.523438 313.558594 L 562.855469 313.402344 L 562.378906 313.210938 L 562.238281 313.058594 Z M 562.238281 312.683594 "/>
<path style=" stroke:none;fill-rule:nonzero;fill:rgb(96.862745%,70.196078%,16.862745%);fill-opacity:1;" d="M 562.238281 263.105469 L 562.285156 263.074219 L 562.285156 262.429688 L 562.476562 260.976562 L 562.949219 258.980469 L 563.570312 257.335938 L 564.234375 256.046875 L 564.664062 255.367188 L 565.375 254.402344 L 565.996094 253.691406 L 567.5625 252.242188 L 569.5625 250.886719 L 570.65625 250.304688 L 571.890625 249.757812 L 573.652344 249.144531 L 574.460938 248.917969 L 576.933594 248.402344 L 579.738281 248.082031 L 582.832031 247.984375 L 584.257812 248.015625 L 586.207031 248.144531 L 588.871094 248.5 L 590.390625 248.824219 L 591.582031 249.144531 L 592.816406 249.5625 L 594.339844 250.210938 L 595.765625 250.984375 L 596.90625 251.757812 L 598.050781 252.722656 L 599 253.757812 L 599.808594 254.882812 L 600.523438 256.238281 L 600.949219 257.367188 L 601.234375 258.496094 L 594.625 258.496094 L 594.246094 257.367188 L 593.816406 256.496094 L 593.101562 255.433594 L 592.390625 254.660156 L 591.675781 254.046875 L 590.34375 253.207031 L 589.203125 252.691406 L 587.777344 252.242188 L 586.398438 251.949219 L 584.828125 251.757812 L 583.875 251.691406 L 581.355469 251.691406 L 579.074219 251.917969 L 577.742188 252.175781 L 576.789062 252.433594 L 575.457031 252.917969 L 574.648438 253.304688 L 574.175781 253.5625 L 572.746094 254.5625 L 571.796875 255.464844 L 571.273438 256.078125 L 570.609375 257.042969 L 570.132812 257.914062 L 569.609375 259.203125 L 569.324219 260.171875 L 568.941406 262.363281 L 568.894531 268.167969 L 569.039062 269.394531 L 569.324219 270.714844 L 569.703125 271.875 L 570.273438 273.101562 L 570.84375 274.035156 L 571.84375 275.292969 L 572.699219 276.132812 L 573.367188 276.679688 L 574.648438 277.550781 L 575.171875 277.839844 L 576.410156 278.421875 L 577.695312 278.875 L 579.261719 279.261719 L 580.453125 279.453125 L 582.355469 279.613281 L 584.78125 279.613281 L 587.632812 279.421875 L 589.441406 279.164062 L 590.675781 278.90625 L 591.484375 278.679688 L 592.484375 278.324219 L 593.199219 278.003906 L 593.863281 277.648438 L 594.671875 277.101562 L 594.671875 269.394531 L 582.925781 269.363281 L 582.925781 265.75 L 601.1875 265.71875 L 601.234375 278.324219 L 600.238281 279.195312 L 599 280.035156 L 597.8125 280.679688 L 596.574219 281.226562 L 594.816406 281.839844 L 593.386719 282.226562 L 591.199219 282.679688 L 589.203125 282.96875 L 587.109375 283.160156 L 585.257812 283.257812 L 583.066406 283.289062 L 581.117188 283.226562 L 579.027344 283.03125 L 577.359375 282.773438 L 575.839844 282.453125 L 574.316406 282.03125 L 572.414062 281.355469 L 571.179688 280.808594 L 569.894531 280.128906 L 568.609375 279.324219 L 567.46875 278.453125 L 566.707031 277.777344 L 565.945312 277.003906 L 565.136719 276.035156 L 564.378906 274.941406 L 563.808594 273.941406 L 563.285156 272.8125 L 562.902344 271.746094 L 562.523438 270.296875 L 562.332031 269.136719 L 562.238281 268.136719 Z M 562.238281 263.105469 "/>
<path style=" stroke:none;fill-rule:nonzero;fill:rgb(83.921569%,15.686275%,22.352941%);fill-opacity:1;" d="M 562.238281 306.089844 L 601.234375 306.089844 L 601.234375 306.53125 L 584.984375 306.535156 L 584.984375 310.203125 L 578.441406 310.203125 L 578.441406 306.539062 L 578.347656 306.53125 L 562.238281 306.53125 Z M 562.238281 306.089844 "/>
<path style=" stroke:none;fill-rule:nonzero;fill:rgb(6.27451%,58.823529%,28.235294%);fill-opacity:1;" d="M 603.289062 301.496094 L 603.328125 301.480469 L 620.203125 284.378906 L 625.328125 284.378906 L 642.285156 301.511719 L 636.328125 301.511719 L 632.078125 297.039062 L 613.453125 297.039062 L 609.289062 301.496094 L 603.289062 301.496094 L 615.246094 295.1875 L 630.371094 295.171875 L 622.828125 287.179688 L 622.746094 287.164062 L 622.664062 287.210938 L 615.203125 295.171875 L 615.246094 295.1875 Z M 603.289062 301.496094 "/>
<path style=" stroke:none;fill-rule:nonzero;fill:rgb(14.509804%,36.078431%,60%);fill-opacity:1;" d="M 603.289062 306.554688 L 603.335938 306.546875 L 603.335938 306.351562 L 603.476562 306.042969 L 603.8125 305.65625 L 604.144531 305.386719 L 605 304.90625 L 606.1875 304.445312 L 607.425781 304.085938 L 608.328125 303.875 L 609.136719 303.714844 L 610.992188 303.414062 L 612.183594 303.257812 L 613.464844 303.121094 L 615.035156 302.984375 L 616.175781 302.902344 L 618.746094 302.773438 L 620.648438 302.714844 L 622.121094 302.691406 L 625.308594 302.691406 L 627.210938 302.722656 L 628.589844 302.761719 L 630.109375 302.828125 L 631.394531 302.902344 L 633.628906 303.082031 L 635.628906 303.308594 L 636.53125 303.4375 L 637.957031 303.691406 L 639.050781 303.933594 L 639.8125 304.144531 L 640.667969 304.445312 L 641.429688 304.808594 L 642 305.222656 L 642.285156 305.574219 L 635.628906 305.574219 L 635.296875 305.25 L 634.914062 304.996094 L 634.203125 304.664062 L 633.488281 304.429688 L 632.488281 304.191406 L 631.585938 304.039062 L 630.347656 303.882812 L 629.253906 303.785156 L 628.113281 303.714844 L 627.019531 303.664062 L 624.925781 303.617188 L 622.5 303.617188 L 621.597656 303.632812 L 619.742188 303.699219 L 618.746094 303.753906 L 617.316406 303.867188 L 616.320312 303.972656 L 615.128906 304.136719 L 614.320312 304.273438 L 613.324219 304.484375 L 612.609375 304.671875 L 611.800781 304.941406 L 611.324219 305.144531 L 610.898438 305.371094 L 610.515625 305.636719 L 610.230469 305.921875 L 610.042969 306.222656 L 609.945312 306.515625 L 609.945312 307.773438 L 610.042969 308.066406 L 610.28125 308.40625 L 610.898438 308.902344 L 611.800781 309.332031 L 612.847656 309.675781 L 613.847656 309.917969 L 614.417969 310.03125 L 615.179688 310.160156 L 616.367188 310.324219 L 618.078125 310.488281 L 619.078125 310.550781 L 620.597656 310.617188 L 622.167969 310.648438 L 624.261719 310.648438 L 626.117188 310.617188 L 627.351562 310.578125 L 628.636719 310.511719 L 630.398438 310.375 L 631.492188 310.242188 L 632.441406 310.089844 L 633.15625 309.933594 L 633.628906 309.804688 L 634.34375 309.554688 L 634.914062 309.277344 L 635.34375 308.992188 L 635.628906 308.714844 L 642.285156 308.714844 L 642 309.042969 L 641.574219 309.359375 L 641.144531 309.59375 L 640.480469 309.878906 L 639.71875 310.128906 L 638.625 310.414062 L 637.722656 310.601562 L 636.53125 310.804688 L 635.4375 310.957031 L 634.25 311.097656 L 632.488281 311.257812 L 631.347656 311.339844 L 630.109375 311.414062 L 628.636719 311.476562 L 626.78125 311.535156 L 624.785156 311.566406 L 622.929688 311.574219 L 620.933594 311.558594 L 619.457031 311.527344 L 617.507812 311.453125 L 615.082031 311.308594 L 613.324219 311.152344 L 611.945312 311 L 610.753906 310.835938 L 609.421875 310.617188 L 607.710938 310.257812 L 606.664062 309.984375 L 605.953125 309.757812 L 605.144531 309.4375 L 604.574219 309.15625 L 603.90625 308.699219 L 603.429688 308.125 L 603.289062 307.675781 Z M 603.289062 306.554688 "/>
<path style=" stroke:none;fill-rule:nonzero;fill:rgb(96.862745%,70.196078%,16.862745%);fill-opacity:1;" d="M 603.289062 313.445312 L 603.335938 313.445312 L 603.335938 313.414062 L 603.527344 313.347656 L 604 313.257812 L 604.621094 313.183594 L 605.285156 313.125 L 605.714844 313.09375 L 606.425781 313.046875 L 607.046875 313.015625 L 608.613281 312.949219 L 610.613281 312.886719 L 611.707031 312.859375 L 612.941406 312.835938 L 614.703125 312.808594 L 615.511719 312.796875 L 617.984375 312.773438 L 620.789062 312.757812 L 623.882812 312.753906 L 625.308594 312.757812 L 627.257812 312.761719 L 629.921875 312.777344 L 631.441406 312.792969 L 632.632812 312.808594 L 633.867188 312.828125 L 635.390625 312.855469 L 636.816406 312.890625 L 637.957031 312.925781 L 639.101562 312.972656 L 640.050781 313.019531 L 640.859375 313.070312 L 641.574219 313.132812 L 642 313.183594 L 642.285156 313.234375 L 635.675781 313.234375 L 635.296875 313.183594 L 634.867188 313.144531 L 634.152344 313.09375 L 633.441406 313.058594 L 632.726562 313.03125 L 631.394531 312.992188 L 630.253906 312.96875 L 628.828125 312.949219 L 627.449219 312.9375 L 625.878906 312.925781 L 622.40625 312.925781 L 620.125 312.933594 L 618.792969 312.945312 L 617.839844 312.957031 L 616.507812 312.980469 L 615.699219 313 L 615.226562 313.011719 L 613.796875 313.054688 L 612.847656 313.097656 L 612.324219 313.125 L 611.660156 313.167969 L 611.183594 313.210938 L 610.660156 313.269531 L 610.375 313.3125 L 609.992188 313.414062 L 609.945312 313.679688 L 610.089844 313.734375 L 610.375 313.796875 L 610.753906 313.847656 L 611.324219 313.902344 L 611.894531 313.945312 L 612.894531 314.003906 L 613.75 314.042969 L 614.417969 314.066406 L 615.699219 314.109375 L 616.222656 314.121094 L 617.460938 314.148438 L 618.746094 314.167969 L 620.3125 314.1875 L 621.503906 314.195312 L 623.40625 314.203125 L 625.832031 314.203125 L 628.683594 314.195312 L 630.492188 314.183594 L 631.726562 314.171875 L 632.535156 314.160156 L 633.535156 314.144531 L 634.25 314.128906 L 634.914062 314.113281 L 635.722656 314.085938 L 635.722656 313.734375 L 623.976562 313.734375 L 623.976562 313.566406 L 642.238281 313.566406 L 642.285156 314.144531 L 641.289062 314.183594 L 640.050781 314.222656 L 638.863281 314.25 L 637.625 314.277344 L 635.867188 314.304688 L 634.4375 314.320312 L 632.25 314.34375 L 630.253906 314.355469 L 628.160156 314.363281 L 626.304688 314.371094 L 624.117188 314.371094 L 622.167969 314.367188 L 620.078125 314.359375 L 618.410156 314.347656 L 616.890625 314.332031 L 615.367188 314.3125 L 613.464844 314.28125 L 612.230469 314.257812 L 610.945312 314.226562 L 609.660156 314.1875 L 608.519531 314.148438 L 607.757812 314.117188 L 606.996094 314.082031 L 606.1875 314.039062 L 605.429688 313.988281 L 604.859375 313.941406 L 604.335938 313.890625 L 603.953125 313.84375 L 603.574219 313.777344 L 603.382812 313.722656 L 603.289062 313.675781 Z M 603.289062 313.445312 "/>
<path style=" stroke:none;fill-rule:nonzero;fill:rgb(83.921569%,15.686275%,22.352941%);fill-opacity:1;" d="M 603.289062 231.683594 L 642.285156 231.683594 L 642.285156 237.199219 L 626.03125 237.246094 L 626.03125 283.199219 L 619.492188 283.199219 L 619.492188 237.292969 L 619.398438 237.199219 L 603.289062 237.199219 Z M 603.289062 231.683594 "/>
<path style=" stroke:none;fill-rule:nonzero;fill:rgb(6.27451%,58.823529%,28.235294%);fill-opacity:1;" d="M 644.339844 303.90625 L 644.378906 303.890625 L 661.253906 288.402344 L 666.378906 288.402344 L 683.335938 303.921875 L 677.378906 303.921875 L 673.128906 299.871094 L 654.503906 299.871094 L 650.339844 303.90625 L 644.339844 303.90625 L 656.296875 298.195312 L 671.421875 298.179688 L 663.878906 290.9375 L 663.796875 290.921875 L 663.714844 290.964844 L 656.253906 298.179688 L 656.296875 298.195312 Z M 644.339844 303.90625 "/>
<path style=" stroke:none;fill-rule:nonzero;fill:rgb(14.509804%,36.078431%,60%);fill-opacity:1;" d="M 644.339844 307.128906 L 644.386719 307.125 L 644.386719 307.019531 L 644.527344 306.859375 L 644.863281 306.65625 L 645.195312 306.515625 L 646.050781 306.261719 L 647.238281 306.019531 L 648.476562 305.832031 L 649.378906 305.722656 L 650.1875 305.636719 L 652.042969 305.480469 L 653.230469 305.398438 L 654.515625 305.324219 L 656.085938 305.253906 L 657.226562 305.210938 L 659.796875 305.144531 L 661.699219 305.113281 L 663.171875 305.101562 L 666.359375 305.101562 L 668.261719 305.117188 L 669.640625 305.136719 L 671.160156 305.171875 L 672.445312 305.210938 L 674.679688 305.304688 L 676.679688 305.425781 L 677.582031 305.492188 L 679.007812 305.625 L 680.101562 305.75 L 680.863281 305.863281 L 681.71875 306.019531 L 682.480469 306.210938 L 683.050781 306.429688 L 683.335938 306.613281 L 676.679688 306.613281 L 676.347656 306.441406 L 675.964844 306.308594 L 675.253906 306.136719 L 674.539062 306.011719 L 673.539062 305.886719 L 672.636719 305.808594 L 671.398438 305.726562 L 670.304688 305.675781 L 669.164062 305.636719 L 668.070312 305.613281 L 665.976562 305.585938 L 663.550781 305.585938 L 662.648438 305.59375 L 660.792969 305.628906 L 659.796875 305.660156 L 658.367188 305.71875 L 657.371094 305.773438 L 656.179688 305.859375 L 655.371094 305.929688 L 654.375 306.042969 L 653.660156 306.140625 L 652.851562 306.28125 L 652.375 306.386719 L 651.949219 306.507812 L 651.566406 306.648438 L 651.28125 306.796875 L 651.09375 306.953125 L 650.996094 307.105469 L 650.996094 307.765625 L 651.09375 307.921875 L 651.328125 308.097656 L 651.949219 308.359375 L 652.851562 308.585938 L 653.898438 308.761719 L 654.898438 308.890625 L 655.46875 308.949219 L 656.230469 309.019531 L 657.417969 309.105469 L 659.128906 309.191406 L 660.128906 309.222656 L 661.648438 309.257812 L 663.21875 309.273438 L 665.3125 309.273438 L 667.167969 309.257812 L 668.402344 309.238281 L 669.6875 309.203125 L 671.449219 309.128906 L 672.542969 309.0625 L 673.492188 308.980469 L 674.207031 308.898438 L 674.679688 308.832031 L 675.394531 308.699219 L 675.964844 308.554688 L 676.394531 308.40625 L 676.679688 308.261719 L 683.335938 308.261719 L 683.050781 308.429688 L 682.625 308.597656 L 682.195312 308.722656 L 681.53125 308.871094 L 680.769531 309.003906 L 679.675781 309.152344 L 678.769531 309.25 L 677.582031 309.355469 L 676.488281 309.4375 L 675.300781 309.507812 L 673.539062 309.59375 L 672.398438 309.636719 L 671.160156 309.675781 L 669.6875 309.710938 L 667.832031 309.738281 L 665.835938 309.757812 L 663.980469 309.761719 L 661.984375 309.75 L 660.507812 309.734375 L 658.558594 309.695312 L 656.132812 309.621094 L 654.375 309.539062 L 652.996094 309.457031 L 651.804688 309.371094 L 650.472656 309.257812 L 648.761719 309.070312 L 647.714844 308.925781 L 647.003906 308.804688 L 646.195312 308.640625 L 645.621094 308.492188 L 644.957031 308.253906 L 644.480469 307.949219 L 644.339844 307.714844 Z M 644.339844 307.128906 "/>
<path style=" stroke:none;fill-rule:nonzero;fill:rgb(96.862745%,70.196078%,16.862745%);fill-opacity:1;" d="M 644.339844 312.410156 L 644.386719 312.40625 L 644.386719 312.34375 L 644.578125 312.203125 L 645.050781 312.007812 L 645.671875 311.847656 L 646.335938 311.722656 L 646.765625 311.65625 L 647.476562 311.5625 L 648.097656 311.496094 L 649.664062 311.351562 L 651.664062 311.222656 L 652.757812 311.164062 L 653.992188 311.113281 L 655.753906 311.050781 L 656.5625 311.03125 L 659.035156 310.980469 L 661.839844 310.949219 L 664.933594 310.941406 L 666.359375 310.941406 L 668.308594 310.957031 L 670.972656 310.988281 L 672.492188 311.019531 L 673.683594 311.050781 L 674.917969 311.09375 L 676.441406 311.15625 L 677.867188 311.230469 L 679.007812 311.304688 L 680.152344 311.402344 L 681.101562 311.5 L 681.910156 311.609375 L 682.625 311.742188 L 683.050781 311.851562 L 683.335938 311.960938 L 676.726562 311.960938 L 676.347656 311.851562 L 675.917969 311.765625 L 675.203125 311.664062 L 674.492188 311.589844 L 673.777344 311.527344 L 672.445312 311.449219 L 671.304688 311.398438 L 669.878906 311.351562 L 668.5 311.324219 L 666.929688 311.304688 L 665.976562 311.300781 L 663.457031 311.300781 L 661.175781 311.320312 L 659.84375 311.347656 L 658.890625 311.371094 L 657.558594 311.417969 L 656.75 311.457031 L 656.277344 311.480469 L 654.847656 311.578125 L 653.898438 311.667969 L 653.375 311.726562 L 652.710938 311.820312 L 652.234375 311.90625 L 651.710938 312.03125 L 651.425781 312.125 L 651.042969 312.335938 L 650.996094 312.902344 L 651.140625 313.019531 L 651.425781 313.148438 L 651.804688 313.261719 L 652.375 313.378906 L 652.945312 313.472656 L 653.945312 313.59375 L 654.800781 313.675781 L 655.46875 313.726562 L 656.75 313.8125 L 657.273438 313.839844 L 658.511719 313.898438 L 659.796875 313.941406 L 661.363281 313.980469 L 662.554688 313.996094 L 664.457031 314.011719 L 666.882812 314.011719 L 669.734375 313.996094 L 671.542969 313.96875 L 672.777344 313.945312 L 673.585938 313.921875 L 674.585938 313.886719 L 675.300781 313.855469 L 675.964844 313.824219 L 676.773438 313.769531 L 676.773438 313.019531 L 665.027344 313.015625 L 665.027344 312.667969 L 683.289062 312.664062 L 683.335938 313.886719 L 682.339844 313.972656 L 681.101562 314.054688 L 679.914062 314.117188 L 678.675781 314.171875 L 676.917969 314.230469 L 675.488281 314.265625 L 673.300781 314.3125 L 671.304688 314.339844 L 669.210938 314.359375 L 667.355469 314.367188 L 665.167969 314.371094 L 663.21875 314.363281 L 661.128906 314.34375 L 659.460938 314.320312 L 657.941406 314.289062 L 656.417969 314.25 L 654.515625 314.183594 L 653.28125 314.128906 L 651.996094 314.0625 L 650.710938 313.984375 L 649.570312 313.902344 L 648.808594 313.835938 L 648.046875 313.757812 L 647.238281 313.664062 L 646.480469 313.558594 L 645.910156 313.460938 L 645.386719 313.351562 L 645.003906 313.25 L 644.625 313.109375 L 644.433594 312.996094 L 644.339844 312.898438 Z M 644.339844 312.410156 "/>
<path style=" stroke:none;fill-rule:nonzero;fill:rgb(83.921569%,15.686275%,22.352941%);fill-opacity:1;" d="M 644.339844 254.078125 L 683.335938 254.078125 L 683.335938 257.628906 L 667.082031 257.660156 L 667.082031 287.222656 L 660.542969 287.222656 L 660.542969 257.6875 L 660.449219 257.628906 L 644.339844 257.628906 Z M 644.339844 254.078125 "/>
<g style="fill:rgb(0%,0%,0%);fill-opacity:1;">
  <use xlink:href="#glyph0-1" x="21.957031" y="318.198242"/>
  <use xlink:href="#glyph0-2" x="27.291016" y="318.198242"/>
  <use xlink:href="#glyph0-1" x="29.958008" y="318.198242"/>
</g>
<g style="fill:rgb(0%,0%,0%);fill-opacity:1;">
  <use xlink:href="#glyph0-1" x="21.957031" y="244.475586"/>
  <use xlink:href="#glyph0-2" x="27.291016" y="244.475586"/>
  <use xlink:href="#glyph0-3" x="29.958008" y="244.475586"/>
</g>
<g style="fill:rgb(0%,0%,0%);fill-opacity:1;">
  <use xlink:href="#glyph0-4" x="21.957031" y="170.75293"/>
  <use xlink:href="#glyph0-2" x="27.291016" y="170.75293"/>
  <use xlink:href="#glyph0-1" x="29.958008" y="170.75293"/>
</g>
<g style="fill:rgb(0%,0%,0%);fill-opacity:1;">
  <use xlink:href="#glyph0-4" x="21.957031" y="97.03418"/>
  <use xlink:href="#glyph0-2" x="27.291016" y="97.03418"/>
  <use xlink:href="#glyph0-3" x="29.958008" y="97.03418"/>
</g>
<g style="fill:rgb(0%,0%,0%);fill-opacity:1;">
  <use xlink:href="#glyph0-5" x="21.957031" y="23.311523"/>
  <use xlink:href="#glyph0-2" x="27.291016" y="23.311523"/>
  <use xlink:href="#glyph0-1" x="29.958008" y="23.311523"/>
</g>
<g style="fill:rgb(0%,0%,0%);fill-opacity:1;">
  <use xlink:href="#glyph0-4" x="86.128906" y="338.19043"/>
</g>
<g style="fill:rgb(0%,0%,0%);fill-opacity:1;">
  <use xlink:href="#glyph0-5" x="127.179688" y="338.19043"/>
</g>
<g style="fill:rgb(0%,0%,0%);fill-opacity:1;">
  <use xlink:href="#glyph0-6" x="168.230469" y="338.19043"/>
</g>
<g style="fill:rgb(0%,0%,0%);fill-opacity:1;">
  <use xlink:href="#glyph0-7" x="209.28125" y="338.19043"/>
</g>
<g style="fill:rgb(0%,0%,0%);fill-opacity:1;">
  <use xlink:href="#glyph0-3" x="250.332031" y="338.19043"/>
</g>
<g style="fill:rgb(0%,0%,0%);fill-opacity:1;">
  <use xlink:href="#glyph0-8" x="291.382812" y="338.19043"/>
</g>
<g style="fill:rgb(0%,0%,0%);fill-opacity:1;">
  <use xlink:href="#glyph0-9" x="332.433594" y="338.19043"/>
</g>
<g style="fill:rgb(0%,0%,0%);fill-opacity:1;">
  <use xlink:href="#glyph0-10" x="373.484375" y="338.19043"/>
</g>
<g style="fill:rgb(0%,0%,0%);fill-opacity:1;">
  <use xlink:href="#glyph0-11" x="414.535156" y="338.19043"/>
</g>
<g style="fill:rgb(0%,0%,0%);fill-opacity:1;">
  <use xlink:href="#glyph0-4" x="453.085938" y="338.19043"/>
  <use xlink:href="#glyph0-1" x="458.419922" y="338.19043"/>
</g>
<g style="fill:rgb(0%,0%,0%);fill-opacity:1;">
  <use xlink:href="#glyph0-4" x="494.136719" y="338.19043"/>
  <use xlink:href="#glyph0-4" x="499.470703" y="338.19043"/>
</g>
<g style="fill:rgb(0%,0%,0%);fill-opacity:1;">
  <use xlink:href="#glyph0-4" x="535.1875" y="338.19043"/>
  <use xlink:href="#glyph0-5" x="540.521484" y="338.19043"/>
</g>
<g style="fill:rgb(0%,0%,0%);fill-opacity:1;">
  <use xlink:href="#glyph0-4" x="576.238281" y="338.19043"/>
  <use xlink:href="#glyph0-6" x="581.572266" y="338.19043"/>
</g>
<g style="fill:rgb(0%,0%,0%);fill-opacity:1;">
  <use xlink:href="#glyph0-4" x="617.289062" y="338.19043"/>
  <use xlink:href="#glyph0-7" x="622.623047" y="338.19043"/>
</g>
<g style="fill:rgb(0%,0%,0%);fill-opacity:1;">
  <use xlink:href="#glyph0-4" x="658.339844" y="338.19043"/>
  <use xlink:href="#glyph0-3" x="663.673828" y="338.19043"/>
</g>
<g style="fill:rgb(0%,0%,0%);fill-opacity:1;">
  <use xlink:href="#glyph1-1" x="14.412109" y="178.015625"/>
  <use xlink:href="#glyph1-2" x="14.412109" y="170.011719"/>
  <use xlink:href="#glyph1-3" x="14.412109" y="167.347656"/>
  <use xlink:href="#glyph1-4" x="14.412109" y="164.011719"/>
</g>
</g>
</svg>
