<?xml version="1.0" encoding="UTF-8"?>
<svg xmlns="http://www.w3.org/2000/svg" xmlns:xlink="http://www.w3.org/1999/xlink" width="720pt" height="360pt" viewBox="0 0 720 360" version="1.1">
<defs>
<g>
<symbol overflow="visible" id="glyph0-0">
<path style="stroke:none;" d=""/>
</symbol>
<symbol overflow="visible" id="glyph0-1">
<path style="stroke:none;" d="M 2.640625 -6.796875 C 2 -6.796875 1.421875 -6.53125 1.078125 -6.046875 C 0.640625 -5.453125 0.40625 -4.546875 0.40625 -3.296875 C 0.40625 -1 1.1875 0.21875 2.640625 0.21875 C 4.078125 0.21875 4.859375 -1 4.859375 -3.234375 C 4.859375 -4.5625 4.65625 -5.4375 4.203125 -6.046875 C 3.84375 -6.53125 3.28125 -6.796875 2.640625 -6.796875 Z M 2.640625 -6.046875 C 3.546875 -6.046875 4 -5.125 4 -3.3125 C 4 -1.375 3.5625 -0.484375 2.625 -0.484375 C 1.734375 -0.484375 1.28125 -1.421875 1.28125 -3.28125 C 1.28125 -5.140625 1.734375 -6.046875 2.640625 -6.046875 Z M 2.640625 -6.046875 "/>
</symbol>
<symbol overflow="visible" id="glyph0-2">
<path style="stroke:none;" d="M 1.828125 -1 L 0.828125 -1 L 0.828125 0 L 1.828125 0 Z M 1.828125 -1 "/>
</symbol>
<symbol overflow="visible" id="glyph0-3">
<path style="stroke:none;" d="M 4.5625 -6.796875 L 1.0625 -6.796875 L 0.546875 -3.09375 L 1.328125 -3.09375 C 1.71875 -3.5625 2.046875 -3.734375 2.578125 -3.734375 C 3.484375 -3.734375 4.0625 -3.109375 4.0625 -2.09375 C 4.0625 -1.125 3.484375 -0.53125 2.578125 -0.53125 C 1.828125 -0.53125 1.375 -0.90625 1.1875 -1.671875 L 0.328125 -1.671875 C 0.453125 -1.109375 0.546875 -0.84375 0.75 -0.59375 C 1.125 -0.078125 1.828125 0.21875 2.59375 0.21875 C 3.96875 0.21875 4.921875 -0.78125 4.921875 -2.21875 C 4.921875 -3.5625 4.03125 -4.484375 2.71875 -4.484375 C 2.25 -4.484375 1.859375 -4.359375 1.46875 -4.0625 L 1.734375 -5.96875 L 4.5625 -5.96875 Z M 4.5625 -6.796875 "/>
</symbol>
<symbol overflow="visible" id="glyph0-4">
<path style="stroke:none;" d="M 2.484375 -4.84375 L 2.484375 0 L 3.328125 0 L 3.328125 -6.796875 L 2.765625 -6.796875 C 2.46875 -5.75 2.28125 -5.609375 0.984375 -5.453125 L 0.984375 -4.84375 Z M 2.484375 -4.84375 "/>
</symbol>
<symbol overflow="visible" id="glyph0-5">
<path style="stroke:none;" d="M 4.859375 -0.828125 L 1.28125 -0.828125 C 1.359375 -1.390625 1.671875 -1.75 2.5 -2.234375 L 3.46875 -2.75 C 4.40625 -3.265625 4.90625 -3.96875 4.90625 -4.8125 C 4.90625 -5.375 4.671875 -5.90625 4.265625 -6.265625 C 3.859375 -6.625 3.375 -6.796875 2.71875 -6.796875 C 1.859375 -6.796875 1.21875 -6.5 0.84375 -5.921875 C 0.609375 -5.5625 0.5 -5.125 0.484375 -4.4375 L 1.328125 -4.4375 C 1.359375 -4.90625 1.40625 -5.1875 1.53125 -5.40625 C 1.75 -5.8125 2.1875 -6.0625 2.703125 -6.0625 C 3.46875 -6.0625 4.03125 -5.515625 4.03125 -4.78125 C 4.03125 -4.25 3.71875 -3.796875 3.125 -3.4375 L 2.234375 -2.9375 C 0.8125 -2.140625 0.40625 -1.5 0.328125 0 L 4.859375 0 Z M 4.859375 -0.828125 "/>
</symbol>
<symbol overflow="visible" id="glyph0-6">
<path style="stroke:none;" d="M 2.125 -3.125 L 2.578125 -3.125 C 3.515625 -3.125 3.984375 -2.703125 3.984375 -1.890625 C 3.984375 -1.03125 3.46875 -0.53125 2.578125 -0.53125 C 1.65625 -0.53125 1.203125 -0.984375 1.15625 -1.96875 L 0.3125 -1.96875 C 0.34375 -1.421875 0.4375 -1.078125 0.609375 -0.765625 C 0.953125 -0.109375 1.625 0.21875 2.546875 0.21875 C 3.953125 0.21875 4.859375 -0.609375 4.859375 -1.90625 C 4.859375 -2.765625 4.515625 -3.25 3.703125 -3.515625 C 4.34375 -3.765625 4.65625 -4.25 4.65625 -4.9375 C 4.65625 -6.109375 3.875 -6.796875 2.578125 -6.796875 C 1.203125 -6.796875 0.484375 -6.046875 0.453125 -4.609375 L 1.296875 -4.609375 C 1.3125 -5.015625 1.34375 -5.25 1.453125 -5.453125 C 1.640625 -5.828125 2.0625 -6.0625 2.59375 -6.0625 C 3.34375 -6.0625 3.796875 -5.625 3.796875 -4.90625 C 3.796875 -4.421875 3.609375 -4.140625 3.25 -3.984375 C 3.015625 -3.890625 2.71875 -3.84375 2.125 -3.84375 Z M 2.125 -3.125 "/>
</symbol>
<symbol overflow="visible" id="glyph0-7">
<path style="stroke:none;" d="M 3.140625 -1.625 L 3.140625 0 L 3.984375 0 L 3.984375 -1.625 L 4.984375 -1.625 L 4.984375 -2.390625 L 3.984375 -2.390625 L 3.984375 -6.796875 L 3.359375 -6.796875 L 0.265625 -2.515625 L 0.265625 -1.625 Z M 3.140625 -2.390625 L 1 -2.390625 L 3.140625 -5.359375 Z M 3.140625 -2.390625 "/>
</symbol>
<symbol overflow="visible" id="glyph0-8">
<path style="stroke:none;" d="M 4.78125 -5.03125 C 4.609375 -6.140625 3.890625 -6.796875 2.84375 -6.796875 C 2.09375 -6.796875 1.421875 -6.4375 1.03125 -5.828125 C 0.609375 -5.171875 0.40625 -4.34375 0.40625 -3.09375 C 0.40625 -1.953125 0.578125 -1.234375 0.984375 -0.625 C 1.359375 -0.078125 1.953125 0.21875 2.703125 0.21875 C 3.984375 0.21875 4.921875 -0.734375 4.921875 -2.078125 C 4.921875 -3.34375 4.0625 -4.234375 2.84375 -4.234375 C 2.171875 -4.234375 1.640625 -3.96875 1.28125 -3.46875 C 1.28125 -5.125 1.828125 -6.046875 2.796875 -6.046875 C 3.390625 -6.046875 3.796875 -5.671875 3.9375 -5.03125 Z M 2.734375 -3.484375 C 3.546875 -3.484375 4.0625 -2.921875 4.0625 -2 C 4.0625 -1.15625 3.484375 -0.53125 2.703125 -0.53125 C 1.921875 -0.53125 1.328125 -1.1875 1.328125 -2.046875 C 1.328125 -2.890625 1.90625 -3.484375 2.734375 -3.484375 Z M 2.734375 -3.484375 "/>
</symbol>
<symbol overflow="visible" id="glyph0-9">
<path style="stroke:none;" d="M 4.984375 -6.796875 L 0.4375 -6.796875 L 0.4375 -5.96875 L 4.109375 -5.96875 C 2.5 -3.65625 1.828125 -2.234375 1.328125 0 L 2.21875 0 C 2.59375 -2.171875 3.453125 -4.046875 4.984375 -6.09375 Z M 4.984375 -6.796875 "/>
</symbol>
<symbol overflow="visible" id="glyph0-10">
<path style="stroke:none;" d="M 3.75 -3.578125 C 4.453125 -4 4.6875 -4.34375 4.6875 -4.984375 C 4.6875 -6.046875 3.84375 -6.796875 2.640625 -6.796875 C 1.4375 -6.796875 0.59375 -6.046875 0.59375 -4.984375 C 0.59375 -4.359375 0.828125 -4.015625 1.515625 -3.578125 C 0.734375 -3.203125 0.359375 -2.640625 0.359375 -1.890625 C 0.359375 -0.640625 1.296875 0.21875 2.640625 0.21875 C 3.984375 0.21875 4.921875 -0.640625 4.921875 -1.875 C 4.921875 -2.640625 4.53125 -3.203125 3.75 -3.578125 Z M 2.640625 -6.046875 C 3.359375 -6.046875 3.8125 -5.625 3.8125 -4.96875 C 3.8125 -4.34375 3.34375 -3.921875 2.640625 -3.921875 C 1.921875 -3.921875 1.453125 -4.34375 1.453125 -4.984375 C 1.453125 -5.625 1.921875 -6.046875 2.640625 -6.046875 Z M 2.640625 -3.203125 C 3.484375 -3.203125 4.0625 -2.671875 4.0625 -1.875 C 4.0625 -1.0625 3.484375 -0.53125 2.625 -0.53125 C 1.796875 -0.53125 1.21875 -1.078125 1.21875 -1.875 C 1.21875 -2.671875 1.796875 -3.203125 2.640625 -3.203125 Z M 2.640625 -3.203125 "/>
</symbol>
<symbol overflow="visible" id="glyph0-11">
<path style="stroke:none;" d="M 0.515625 -1.546875 C 0.671875 -0.4375 1.40625 0.21875 2.4375 0.21875 C 3.1875 0.21875 3.859375 -0.140625 4.265625 -0.75 C 4.6875 -1.40625 4.890625 -2.25 4.890625 -3.484375 C 4.890625 -4.625 4.703125 -5.359375 4.3125 -5.953125 C 3.9375 -6.5 3.34375 -6.796875 2.59375 -6.796875 C 1.296875 -6.796875 0.359375 -5.84375 0.359375 -4.515625 C 0.359375 -3.25 1.234375 -2.34375 2.453125 -2.34375 C 3.09375 -2.34375 3.5625 -2.578125 4.015625 -3.109375 C 4 -1.453125 3.46875 -0.53125 2.5 -0.53125 C 1.90625 -0.53125 1.484375 -0.90625 1.359375 -1.546875 Z M 2.578125 -6.0625 C 3.375 -6.0625 3.96875 -5.40625 3.96875 -4.53125 C 3.96875 -3.6875 3.375 -3.09375 2.546875 -3.09375 C 1.734375 -3.09375 1.234375 -3.671875 1.234375 -4.578125 C 1.234375 -5.4375 1.796875 -6.0625 2.578125 -6.0625 Z M 2.578125 -6.0625 "/>
</symbol>
<symbol overflow="visible" id="glyph1-0">
<path style="stroke:none;" d=""/>
</symbol>
<symbol overflow="visible" id="glyph1-1">
<path style="stroke:none;" d="M 0 -0.953125 L 0 -4.890625 C 0 -5.71875 -0.234375 -6.34375 -0.734375 -6.796875 C -1.1875 -7.234375 -1.8125 -7.46875 -2.5 -7.46875 C -3.546875 -7.46875 -4.1875 -7 -4.625 -5.875 C -4.984375 -6.671875 -5.640625 -7.09375 -6.53125 -7.09375 C -7.15625 -7.09375 -7.734375 -6.859375 -8.140625 -6.390625 C -8.5625 -5.9375 -8.75 -5.34375 -8.75 -4.5 L -8.75 -0.953125 Z M -4.984375 -2.0625 L -7.765625 -2.0625 L -7.765625 -4.21875 C -7.765625 -4.84375 -7.6875 -5.203125 -7.453125 -5.5 C -7.21875 -5.8125 -6.859375 -5.96875 -6.375 -5.96875 C -5.90625 -5.96875 -5.53125 -5.8125 -5.296875 -5.5 C -5.0625 -5.203125 -4.984375 -4.84375 -4.984375 -4.21875 Z M -0.984375 -2.0625 L -4 -2.0625 L -4 -4.78125 C -4 -5.328125 -3.859375 -5.6875 -3.578125 -5.953125 C -3.296875 -6.21875 -2.921875 -6.359375 -2.484375 -6.359375 C -2.0625 -6.359375 -1.6875 -6.21875 -1.40625 -5.953125 C -1.109375 -5.6875 -0.984375 -5.328125 -0.984375 -4.78125 Z M -0.984375 -2.0625 "/>
</symbol>
<symbol overflow="visible" id="glyph1-2">
<path style="stroke:none;" d="M -6.28125 -1.796875 L -6.28125 -0.796875 L 0 -0.796875 L 0 -1.796875 Z M -8.75 -1.796875 L -8.75 -0.796875 L -7.484375 -0.796875 L -7.484375 -1.796875 Z M -8.75 -1.796875 "/>
</symbol>
<symbol overflow="visible" id="glyph1-3">
<path style="stroke:none;" d="M -6.28125 -3.046875 L -6.28125 -2.015625 L -8.015625 -2.015625 L -8.015625 -1.015625 L -6.28125 -1.015625 L -6.28125 -0.171875 L -5.46875 -0.171875 L -5.46875 -1.015625 L -0.71875 -1.015625 C -0.078125 -1.015625 0.28125 -1.453125 0.28125 -2.234375 C 0.28125 -2.46875 0.25 -2.71875 0.1875 -3.046875 L -0.640625 -3.046875 C -0.609375 -2.921875 -0.59375 -2.765625 -0.59375 -2.5625 C -0.59375 -2.140625 -0.71875 -2.015625 -1.15625 -2.015625 L -5.46875 -2.015625 L -5.46875 -3.046875 Z M -6.28125 -3.046875 "/>
</symbol>
<symbol overflow="visible" id="glyph1-4">
<path style="stroke:none;" d="M -4.53125 -5.25 C -5.765625 -5.25 -6.46875 -4.421875 -6.46875 -2.96875 C -6.46875 -1.515625 -5.71875 -0.5625 -4.546875 -0.5625 C -3.5625 -0.5625 -3.09375 -1.0625 -2.734375 -2.5625 L -2.515625 -3.484375 C -2.34375 -4.1875 -2.09375 -4.46875 -1.625 -4.46875 C -1.046875 -4.46875 -0.640625 -3.875 -0.640625 -3 C -0.640625 -2.453125 -0.796875 -2 -1.0625 -1.75 C -1.25 -1.59375 -1.421875 -1.53125 -1.875 -1.46875 L -1.875 -0.40625 C -0.421875 -0.453125 0.28125 -1.265625 0.28125 -2.921875 C 0.28125 -4.5 -0.5 -5.515625 -1.71875 -5.515625 C -2.65625 -5.515625 -3.171875 -4.984375 -3.46875 -3.734375 L -3.703125 -2.765625 C -3.890625 -1.953125 -4.15625 -1.609375 -4.59375 -1.609375 C -5.171875 -1.609375 -5.546875 -2.125 -5.546875 -2.9375 C -5.546875 -3.75 -5.203125 -4.171875 -4.53125 -4.203125 Z M -4.53125 -5.25 "/>
</symbol>
</g>
</defs>
<g id="surface115801">
<rect x="0" y="0" width="720" height="360" style="fill:rgb(100%,100%,100%);fill-opacity:1;stroke:none;"/>
<path style=" stroke:none;fill-rule:nonzero;fill:rgb(6.27451%,58.823529%,28.235294%);fill-opacity:1;" d="M 69.628906 284.980469 L 69.671875 284.925781 L 86.546875 226.269531 L 91.671875 226.269531 L 108.628906 285.035156 L 102.667969 285.035156 L 98.417969 269.695312 L 79.796875 269.695312 L 75.628906 284.980469 L 69.628906 284.980469 L 81.585938 263.351562 L 96.710938 263.296875 L 89.171875 235.871094 L 89.085938 235.816406 L 89.003906 235.980469 L 81.546875 263.296875 L 81.585938 263.351562 Z M 69.628906 284.980469 "/>
<path style=" stroke:none;fill-rule:nonzero;fill:rgb(14.509804%,36.078431%,60%);fill-opacity:1;" d="M 69.628906 303.0625 L 69.675781 303.054688 L 69.675781 302.914062 L 69.820312 302.6875 L 70.152344 302.40625 L 70.484375 302.210938 L 71.339844 301.859375 L 72.53125 301.523438 L 73.765625 301.261719 L 74.671875 301.109375 L 75.480469 300.992188 L 77.332031 300.773438 L 78.523438 300.660156 L 79.808594 300.558594 L 81.375 300.457031 L 82.519531 300.398438 L 85.085938 300.304688 L 86.988281 300.261719 L 88.460938 300.246094 L 91.648438 300.246094 L 93.550781 300.269531 L 94.929688 300.296875 L 96.453125 300.347656 L 97.738281 300.398438 L 99.972656 300.527344 L 101.96875 300.695312 L 102.871094 300.789062 L 104.300781 300.972656 L 105.394531 301.152344 L 106.15625 301.304688 L 107.011719 301.523438 L 107.769531 301.789062 L 108.34375 302.089844 L 108.628906 302.34375 L 101.96875 302.34375 L 101.636719 302.109375 L 101.257812 301.925781 L 100.542969 301.683594 L 99.828125 301.511719 L 98.832031 301.339844 L 97.925781 301.226562 L 96.691406 301.113281 L 95.597656 301.042969 L 94.453125 300.992188 L 93.359375 300.957031 L 91.269531 300.917969 L 88.84375 300.917969 L 87.9375 300.929688 L 86.085938 300.980469 L 85.085938 301.019531 L 83.660156 301.101562 L 82.660156 301.179688 L 81.472656 301.296875 L 80.664062 301.398438 L 79.664062 301.554688 L 78.949219 301.6875 L 78.140625 301.882812 L 77.667969 302.03125 L 77.238281 302.199219 L 76.859375 302.394531 L 76.574219 302.601562 L 76.382812 302.820312 L 76.289062 303.03125 L 76.289062 303.949219 L 76.382812 304.160156 L 76.621094 304.410156 L 77.238281 304.773438 L 78.140625 305.085938 L 79.1875 305.332031 L 80.1875 305.511719 L 80.757812 305.59375 L 81.519531 305.6875 L 82.707031 305.808594 L 84.421875 305.925781 L 85.417969 305.972656 L 86.941406 306.019531 L 88.511719 306.042969 L 90.601562 306.042969 L 92.457031 306.019531 L 93.695312 305.992188 L 94.976562 305.941406 L 96.738281 305.84375 L 97.832031 305.746094 L 98.78125 305.636719 L 99.496094 305.523438 L 99.972656 305.429688 L 100.683594 305.246094 L 101.257812 305.042969 L 101.683594 304.835938 L 101.96875 304.636719 L 108.628906 304.636719 L 108.34375 304.871094 L 107.914062 305.101562 L 107.484375 305.273438 L 106.820312 305.480469 L 106.058594 305.664062 L 104.964844 305.871094 L 104.0625 306.007812 L 102.871094 306.15625 L 101.777344 306.269531 L 100.589844 306.367188 L 98.832031 306.488281 L 97.6875 306.546875 L 96.453125 306.601562 L 94.976562 306.648438 L 93.125 306.6875 L 91.125 306.710938 L 89.269531 306.71875 L 87.273438 306.707031 L 85.800781 306.683594 L 83.847656 306.628906 L 81.425781 306.523438 L 79.664062 306.410156 L 78.285156 306.296875 L 77.097656 306.179688 L 75.765625 306.019531 L 74.050781 305.757812 L 73.007812 305.558594 L 72.292969 305.394531 L 71.484375 305.160156 L 70.914062 304.953125 L 70.246094 304.625 L 69.773438 304.203125 L 69.628906 303.878906 Z M 69.628906 303.0625 "/>
<path style=" stroke:none;fill-rule:nonzero;fill:rgb(96.862745%,70.196078%,16.862745%);fill-opacity:1;" d="M 69.628906 291.71875 L 69.675781 291.707031 L 69.675781 291.472656 L 69.867188 290.945312 L 70.34375 290.21875 L 70.960938 289.617188 L 71.625 289.148438 L 72.054688 288.902344 L 72.769531 288.550781 L 73.386719 288.292969 L 74.957031 287.765625 L 76.953125 287.273438 L 78.046875 287.058594 L 79.285156 286.859375 L 81.042969 286.636719 L 81.851562 286.554688 L 84.324219 286.367188 L 87.132812 286.25 L 90.222656 286.214844 L 91.648438 286.226562 L 93.597656 286.273438 L 96.261719 286.402344 L 97.785156 286.519531 L 98.972656 286.636719 L 100.210938 286.789062 L 101.730469 287.023438 L 103.160156 287.308594 L 104.300781 287.589844 L 105.441406 287.941406 L 106.390625 288.316406 L 107.199219 288.726562 L 107.914062 289.21875 L 108.34375 289.628906 L 108.628906 290.042969 L 102.015625 290.042969 L 101.636719 289.628906 L 101.207031 289.3125 L 100.496094 288.925781 L 99.78125 288.644531 L 99.066406 288.421875 L 97.738281 288.117188 L 96.59375 287.929688 L 95.167969 287.765625 L 93.789062 287.660156 L 92.21875 287.589844 L 91.269531 287.566406 L 88.746094 287.566406 L 86.464844 287.648438 L 85.132812 287.742188 L 84.183594 287.835938 L 82.851562 288.011719 L 82.042969 288.152344 L 81.566406 288.246094 L 80.140625 288.609375 L 79.1875 288.9375 L 78.664062 289.160156 L 78 289.511719 L 77.523438 289.828125 L 77 290.300781 L 76.714844 290.652344 L 76.335938 291.449219 L 76.289062 293.5625 L 76.429688 294.007812 L 76.714844 294.488281 L 77.097656 294.910156 L 77.667969 295.355469 L 78.238281 295.699219 L 79.234375 296.15625 L 80.09375 296.460938 L 80.757812 296.660156 L 82.042969 296.976562 L 82.566406 297.082031 L 83.800781 297.292969 L 85.085938 297.457031 L 86.65625 297.597656 L 87.84375 297.667969 L 89.746094 297.726562 L 92.171875 297.726562 L 95.027344 297.65625 L 96.832031 297.5625 L 98.070312 297.46875 L 98.878906 297.386719 L 99.875 297.257812 L 100.589844 297.140625 L 101.257812 297.011719 L 102.0625 296.8125 L 102.0625 294.007812 L 90.316406 293.996094 L 90.316406 292.683594 L 108.578125 292.671875 L 108.628906 297.257812 L 107.628906 297.574219 L 106.390625 297.878906 L 105.203125 298.113281 L 103.964844 298.316406 L 102.207031 298.539062 L 100.78125 298.679688 L 98.59375 298.84375 L 96.59375 298.949219 L 94.503906 299.019531 L 92.648438 299.054688 L 90.460938 299.066406 L 88.511719 299.042969 L 86.417969 298.972656 L 84.753906 298.878906 L 83.230469 298.761719 L 81.710938 298.609375 L 79.808594 298.363281 L 78.570312 298.160156 L 77.285156 297.914062 L 76.003906 297.621094 L 74.859375 297.304688 L 74.101562 297.058594 L 73.339844 296.777344 L 72.53125 296.425781 L 71.769531 296.027344 L 71.199219 295.664062 L 70.675781 295.25 L 70.296875 294.863281 L 69.914062 294.335938 L 69.722656 293.914062 L 69.628906 293.550781 Z M 69.628906 291.71875 "/>
<path style=" stroke:none;fill-rule:nonzero;fill:rgb(83.921569%,15.686275%,22.352941%);fill-opacity:1;" d="M 69.628906 307.898438 L 108.628906 307.898438 L 108.628906 308.589844 L 92.375 308.597656 L 92.375 314.371094 L 85.835938 314.371094 L 85.835938 308.601562 L 85.742188 308.589844 L 69.628906 308.589844 Z M 69.628906 307.898438 "/>
<path style=" stroke:none;fill-rule:nonzero;fill:rgb(6.27451%,58.823529%,28.235294%);fill-opacity:1;" d="M 110.679688 245.355469 L 110.722656 245.277344 L 127.597656 162.355469 L 132.71875 162.355469 L 149.679688 245.433594 L 143.71875 245.433594 L 139.46875 223.746094 L 120.847656 223.746094 L 116.679688 245.355469 L 110.679688 245.355469 L 122.636719 214.773438 L 137.761719 214.699219 L 130.222656 175.925781 L 130.136719 175.847656 L 130.054688 176.082031 L 122.597656 214.699219 L 122.636719 214.773438 Z M 110.679688 245.355469 "/>
<path style=" stroke:none;fill-rule:nonzero;fill:rgb(83.921569%,15.686275%,22.352941%);fill-opacity:1;" d="M 110.679688 246.613281 L 149.679688 246.613281 L 149.679688 253.863281 L 133.425781 253.929688 L 133.425781 314.371094 L 126.886719 314.371094 L 126.886719 253.992188 L 126.792969 253.863281 L 110.679688 253.863281 Z M 110.679688 246.613281 "/>
<path style=" stroke:none;fill-rule:nonzero;fill:rgb(6.27451%,58.823529%,28.235294%);fill-opacity:1;" d="M 151.730469 314.371094 L 151.773438 314.371094 L 168.648438 313.707031 L 173.769531 313.707031 L 190.730469 314.371094 L 184.769531 314.371094 L 180.519531 314.195312 L 161.898438 314.195312 L 157.730469 314.371094 L 151.730469 314.371094 L 163.6875 314.125 L 178.8125 314.125 L 171.269531 313.8125 L 171.1875 313.8125 L 171.105469 313.816406 L 163.648438 314.125 L 163.6875 314.125 Z M 151.730469 314.371094 "/>
<path style=" stroke:none;fill-rule:nonzero;fill:rgb(14.509804%,36.078431%,60%);fill-opacity:1;" d="M 151.730469 291.0625 L 151.777344 291.054688 L 151.777344 290.839844 L 151.921875 290.503906 L 152.253906 290.082031 L 152.585938 289.789062 L 153.441406 289.265625 L 154.632812 288.761719 L 155.867188 288.371094 L 156.773438 288.140625 L 157.582031 287.964844 L 159.433594 287.636719 L 160.625 287.46875 L 161.910156 287.316406 L 163.476562 287.167969 L 164.617188 287.078125 L 167.1875 286.9375 L 169.089844 286.875 L 170.5625 286.847656 L 173.75 286.847656 L 175.652344 286.882812 L 177.03125 286.929688 L 178.554688 287 L 179.839844 287.078125 L 182.074219 287.273438 L 184.070312 287.519531 L 184.972656 287.664062 L 186.402344 287.9375 L 187.496094 288.203125 L 188.253906 288.433594 L 189.113281 288.761719 L 189.871094 289.160156 L 190.445312 289.609375 L 190.730469 289.992188 L 184.070312 289.992188 L 183.738281 289.636719 L 183.355469 289.363281 L 182.644531 289 L 181.929688 288.742188 L 180.933594 288.488281 L 180.027344 288.316406 L 178.792969 288.148438 L 177.699219 288.042969 L 176.554688 287.964844 L 175.460938 287.910156 L 173.371094 287.859375 L 170.945312 287.859375 L 170.039062 287.875 L 168.1875 287.945312 L 167.1875 288.007812 L 165.761719 288.132812 L 164.761719 288.246094 L 163.574219 288.425781 L 162.765625 288.574219 L 161.765625 288.804688 L 161.050781 289.007812 L 160.242188 289.300781 L 159.769531 289.523438 L 159.339844 289.769531 L 158.960938 290.0625 L 158.675781 290.371094 L 158.484375 290.699219 L 158.390625 291.019531 L 158.390625 292.390625 L 158.484375 292.710938 L 158.722656 293.082031 L 159.339844 293.621094 L 160.242188 294.089844 L 161.289062 294.460938 L 162.289062 294.726562 L 162.859375 294.851562 L 163.621094 294.992188 L 164.808594 295.171875 L 166.519531 295.347656 L 167.519531 295.417969 L 169.042969 295.488281 L 170.613281 295.523438 L 172.703125 295.523438 L 174.558594 295.488281 L 175.796875 295.445312 L 177.078125 295.375 L 178.839844 295.222656 L 179.933594 295.082031 L 180.882812 294.914062 L 181.597656 294.746094 L 182.074219 294.605469 L 182.785156 294.328125 L 183.355469 294.027344 L 183.785156 293.71875 L 184.070312 293.417969 L 190.730469 293.417969 L 190.445312 293.773438 L 190.015625 294.117188 L 189.585938 294.375 L 188.921875 294.683594 L 188.160156 294.957031 L 187.066406 295.269531 L 186.164062 295.472656 L 184.972656 295.695312 L 183.878906 295.863281 L 182.691406 296.011719 L 180.933594 296.1875 L 179.789062 296.277344 L 178.554688 296.359375 L 177.078125 296.429688 L 175.226562 296.492188 L 173.226562 296.527344 L 171.371094 296.535156 L 169.375 296.515625 L 167.902344 296.480469 L 165.949219 296.402344 L 163.523438 296.242188 L 161.765625 296.074219 L 160.386719 295.90625 L 159.199219 295.730469 L 157.867188 295.488281 L 156.152344 295.101562 L 155.105469 294.800781 L 154.394531 294.550781 L 153.585938 294.207031 L 153.015625 293.894531 L 152.347656 293.398438 L 151.875 292.773438 L 151.730469 292.285156 Z M 151.730469 291.0625 "/>
<path style=" stroke:none;fill-rule:nonzero;fill:rgb(96.862745%,70.196078%,16.862745%);fill-opacity:1;" d="M 151.730469 308.863281 L 151.777344 308.859375 L 151.777344 308.742188 L 151.96875 308.476562 L 152.445312 308.113281 L 153.0625 307.816406 L 153.726562 307.582031 L 154.15625 307.460938 L 154.871094 307.285156 L 155.488281 307.15625 L 157.058594 306.890625 L 159.054688 306.644531 L 160.148438 306.539062 L 161.386719 306.441406 L 163.144531 306.332031 L 163.953125 306.289062 L 166.425781 306.195312 L 169.230469 306.136719 L 172.324219 306.121094 L 173.75 306.125 L 175.699219 306.148438 L 178.363281 306.214844 L 179.886719 306.273438 L 181.074219 306.332031 L 182.3125 306.40625 L 183.832031 306.523438 L 185.257812 306.664062 L 186.402344 306.804688 L 187.542969 306.980469 L 188.492188 307.167969 L 189.300781 307.371094 L 190.015625 307.617188 L 190.445312 307.820312 L 190.730469 308.027344 L 184.117188 308.027344 L 183.738281 307.820312 L 183.308594 307.664062 L 182.597656 307.472656 L 181.882812 307.332031 L 181.167969 307.21875 L 179.839844 307.066406 L 178.695312 306.972656 L 177.269531 306.890625 L 175.890625 306.839844 L 174.320312 306.804688 L 173.371094 306.792969 L 170.847656 306.792969 L 168.566406 306.832031 L 167.234375 306.878906 L 166.285156 306.925781 L 164.953125 307.015625 L 164.144531 307.085938 L 163.667969 307.132812 L 162.242188 307.3125 L 161.289062 307.476562 L 160.765625 307.589844 L 160.101562 307.761719 L 159.625 307.921875 L 159.101562 308.15625 L 158.816406 308.332031 L 158.4375 308.730469 L 158.390625 309.78125 L 158.53125 310.003906 L 158.816406 310.242188 L 159.199219 310.453125 L 159.769531 310.675781 L 160.339844 310.847656 L 161.335938 311.074219 L 162.195312 311.226562 L 162.859375 311.328125 L 164.144531 311.484375 L 164.667969 311.535156 L 165.902344 311.640625 L 167.1875 311.722656 L 168.757812 311.792969 L 169.945312 311.828125 L 171.847656 311.859375 L 174.273438 311.859375 L 177.128906 311.824219 L 178.933594 311.777344 L 180.171875 311.730469 L 180.980469 311.6875 L 181.976562 311.625 L 182.691406 311.566406 L 183.355469 311.5 L 184.164062 311.402344 L 184.164062 310.003906 L 172.417969 310 L 172.417969 309.34375 L 190.679688 309.335938 L 190.730469 311.625 L 189.730469 311.78125 L 188.492188 311.933594 L 187.304688 312.050781 L 186.066406 312.152344 L 184.308594 312.261719 L 182.882812 312.332031 L 180.695312 312.414062 L 178.695312 312.46875 L 176.605469 312.503906 L 174.75 312.519531 L 172.5625 312.527344 L 170.613281 312.515625 L 168.519531 312.480469 L 166.855469 312.433594 L 165.332031 312.375 L 163.8125 312.296875 L 161.910156 312.175781 L 160.671875 312.074219 L 159.386719 311.953125 L 158.105469 311.804688 L 156.960938 311.648438 L 156.203125 311.523438 L 155.441406 311.386719 L 154.632812 311.210938 L 153.871094 311.011719 L 153.300781 310.828125 L 152.777344 310.625 L 152.398438 310.429688 L 152.015625 310.167969 L 151.824219 309.957031 L 151.730469 309.777344 Z M 151.730469 308.863281 "/>
<path style=" stroke:none;fill-rule:nonzero;fill:rgb(83.921569%,15.686275%,22.352941%);fill-opacity:1;" d="M 151.730469 297.714844 L 190.730469 297.714844 L 190.730469 298.488281 L 174.476562 298.496094 L 174.476562 304.941406 L 167.9375 304.941406 L 167.9375 298.5 L 167.839844 298.488281 L 151.730469 298.488281 Z M 151.730469 297.714844 "/>
<path style=" stroke:none;fill-rule:nonzero;fill:rgb(6.27451%,58.823529%,28.235294%);fill-opacity:1;" d="M 192.78125 297.664062 L 192.824219 297.652344 L 209.695312 284.34375 L 214.820312 284.34375 L 231.78125 297.679688 L 225.820312 297.679688 L 221.570312 294.195312 L 202.949219 294.195312 L 198.78125 297.664062 L 192.78125 297.664062 L 204.738281 292.757812 L 219.863281 292.742188 L 212.320312 286.519531 L 212.238281 286.507812 L 212.15625 286.546875 L 204.699219 292.742188 L 204.738281 292.757812 Z M 192.78125 297.664062 "/>
<path style=" stroke:none;fill-rule:nonzero;fill:rgb(14.509804%,36.078431%,60%);fill-opacity:1;" d="M 192.78125 244.058594 L 192.828125 243.996094 L 192.828125 242.476562 L 192.972656 240.074219 L 193.304688 237.035156 L 193.636719 234.949219 L 194.492188 231.214844 L 195.683594 227.609375 L 196.917969 224.824219 L 197.824219 223.179688 L 198.632812 221.914062 L 200.484375 219.574219 L 201.675781 218.371094 L 202.957031 217.296875 L 204.527344 216.21875 L 205.667969 215.585938 L 208.238281 214.574219 L 210.140625 214.132812 L 211.613281 213.941406 L 214.800781 213.941406 L 216.703125 214.195312 L 218.082031 214.511719 L 219.605469 215.015625 L 220.886719 215.585938 L 223.125 216.980469 L 225.121094 218.75 L 226.023438 219.761719 L 227.453125 221.722656 L 228.546875 223.621094 L 229.304688 225.265625 L 230.164062 227.609375 L 230.921875 230.457031 L 231.496094 233.683594 L 231.78125 236.402344 L 225.121094 236.402344 L 224.789062 233.871094 L 224.40625 231.910156 L 223.695312 229.316406 L 222.980469 227.480469 L 221.984375 225.648438 L 221.078125 224.445312 L 219.84375 223.242188 L 218.75 222.484375 L 217.605469 221.914062 L 216.511719 221.535156 L 214.421875 221.15625 L 211.996094 221.15625 L 211.089844 221.28125 L 209.238281 221.789062 L 208.238281 222.230469 L 206.8125 223.117188 L 205.8125 223.9375 L 204.625 225.203125 L 203.816406 226.28125 L 202.816406 227.925781 L 202.101562 229.378906 L 201.292969 231.46875 L 200.820312 233.050781 L 200.390625 234.820312 L 200.011719 236.910156 L 199.726562 239.125 L 199.535156 241.464844 L 199.441406 243.742188 L 199.441406 253.550781 L 199.535156 255.828125 L 199.773438 258.484375 L 200.390625 262.34375 L 201.292969 265.699219 L 202.339844 268.355469 L 203.339844 270.253906 L 203.910156 271.140625 L 204.671875 272.152344 L 205.859375 273.417969 L 207.570312 274.683594 L 208.570312 275.191406 L 210.09375 275.695312 L 211.664062 275.949219 L 213.753906 275.949219 L 215.609375 275.695312 L 216.847656 275.378906 L 218.128906 274.875 L 219.890625 273.796875 L 220.984375 272.785156 L 221.933594 271.582031 L 222.648438 270.382812 L 223.125 269.367188 L 223.835938 267.40625 L 224.40625 265.257812 L 224.835938 263.042969 L 225.121094 260.890625 L 231.78125 260.890625 L 231.496094 263.421875 L 231.066406 265.890625 L 230.636719 267.722656 L 229.972656 269.9375 L 229.210938 271.898438 L 228.117188 274.113281 L 227.214844 275.570312 L 226.023438 277.152344 L 224.929688 278.355469 L 223.742188 279.429688 L 221.984375 280.695312 L 220.839844 281.328125 L 219.605469 281.898438 L 218.128906 282.402344 L 216.277344 282.847656 L 214.277344 283.097656 L 212.421875 283.164062 L 210.425781 283.035156 L 208.953125 282.78125 L 207 282.214844 L 204.574219 281.074219 L 202.816406 279.871094 L 201.4375 278.667969 L 200.25 277.40625 L 198.917969 275.695312 L 197.203125 272.910156 L 196.15625 270.761719 L 195.445312 268.988281 L 194.636719 266.519531 L 194.066406 264.308594 L 193.398438 260.761719 L 192.925781 256.269531 L 192.78125 252.792969 Z M 192.78125 244.058594 "/>
<path style=" stroke:none;fill-rule:nonzero;fill:rgb(96.862745%,70.196078%,16.862745%);fill-opacity:1;" d="M 192.78125 312.554688 L 192.828125 312.550781 L 192.828125 312.496094 L 193.019531 312.363281 L 193.496094 312.183594 L 194.113281 312.035156 L 194.777344 311.921875 L 195.207031 311.859375 L 195.921875 311.773438 L 196.539062 311.707031 L 198.109375 311.578125 L 200.105469 311.457031 L 201.199219 311.40625 L 202.4375 311.355469 L 204.195312 311.300781 L 205.003906 311.28125 L 207.476562 311.234375 L 210.28125 311.203125 L 213.375 311.195312 L 214.800781 311.199219 L 216.75 311.210938 L 219.414062 311.242188 L 220.9375 311.269531 L 222.125 311.300781 L 223.363281 311.335938 L 224.882812 311.394531 L 226.308594 311.464844 L 227.453125 311.535156 L 228.59375 311.621094 L 229.542969 311.714844 L 230.351562 311.816406 L 231.066406 311.9375 L 231.496094 312.039062 L 231.78125 312.140625 L 225.167969 312.140625 L 224.789062 312.039062 L 224.359375 311.960938 L 223.648438 311.867188 L 222.933594 311.796875 L 222.21875 311.742188 L 220.886719 311.664062 L 219.746094 311.617188 L 218.320312 311.578125 L 216.941406 311.550781 L 215.371094 311.535156 L 214.421875 311.527344 L 211.898438 311.527344 L 209.617188 311.550781 L 208.285156 311.574219 L 207.335938 311.59375 L 206.003906 311.640625 L 205.195312 311.675781 L 204.71875 311.695312 L 203.292969 311.785156 L 202.339844 311.867188 L 201.816406 311.921875 L 201.152344 312.011719 L 200.675781 312.089844 L 200.152344 312.203125 L 199.867188 312.292969 L 199.488281 312.488281 L 199.441406 313.011719 L 199.582031 313.121094 L 199.867188 313.238281 L 200.25 313.34375 L 200.820312 313.453125 L 201.390625 313.539062 L 202.386719 313.652344 L 203.246094 313.726562 L 203.910156 313.777344 L 205.195312 313.855469 L 205.71875 313.878906 L 206.953125 313.933594 L 208.238281 313.972656 L 209.808594 314.007812 L 210.996094 314.027344 L 212.898438 314.039062 L 215.324219 314.039062 L 218.179688 314.023438 L 219.984375 314 L 221.222656 313.976562 L 222.03125 313.957031 L 223.027344 313.925781 L 223.742188 313.894531 L 224.40625 313.863281 L 225.214844 313.8125 L 225.214844 313.121094 L 213.46875 313.117188 L 213.46875 312.792969 L 231.730469 312.789062 L 231.78125 313.925781 L 230.78125 314.003906 L 229.542969 314.078125 L 228.355469 314.136719 L 227.117188 314.183594 L 225.359375 314.238281 L 223.933594 314.273438 L 221.746094 314.316406 L 219.746094 314.339844 L 217.65625 314.359375 L 215.800781 314.367188 L 213.613281 314.371094 L 211.664062 314.363281 L 209.570312 314.347656 L 207.90625 314.324219 L 206.382812 314.296875 L 204.859375 314.257812 L 202.957031 314.195312 L 201.722656 314.148438 L 200.4375 314.085938 L 199.152344 314.015625 L 198.011719 313.9375 L 197.25 313.875 L 196.492188 313.804688 L 195.683594 313.71875 L 194.921875 313.621094 L 194.351562 313.53125 L 193.828125 313.429688 L 193.445312 313.332031 L 193.066406 313.203125 L 192.875 313.097656 L 192.78125 313.007812 Z M 192.78125 312.554688 "/>
<path style=" stroke:none;fill-rule:nonzero;fill:rgb(83.921569%,15.686275%,22.352941%);fill-opacity:1;" d="M 192.78125 298.855469 L 231.78125 298.855469 L 231.78125 300.050781 L 215.527344 300.0625 L 215.527344 310.015625 L 208.988281 310.015625 L 208.988281 300.074219 L 208.890625 300.050781 L 192.78125 300.050781 Z M 192.78125 298.855469 "/>
<path style=" stroke:none;fill-rule:nonzero;fill:rgb(6.27451%,58.823529%,28.235294%);fill-opacity:1;" d="M 233.832031 314.371094 L 233.875 314.367188 L 250.746094 313.511719 L 255.871094 313.511719 L 272.832031 314.371094 L 266.871094 314.371094 L 262.621094 314.144531 L 244 314.144531 L 239.832031 314.371094 L 233.832031 314.371094 L 245.789062 314.054688 L 260.914062 314.050781 L 253.371094 313.652344 L 253.289062 313.648438 L 253.207031 313.652344 L 245.75 314.050781 L 245.789062 314.054688 Z M 233.832031 314.371094 "/>
<path style=" stroke:none;fill-rule:nonzero;fill:rgb(14.509804%,36.078431%,60%);fill-opacity:1;" d="M 233.832031 311.84375 L 233.878906 311.84375 L 233.878906 311.824219 L 234.023438 311.796875 L 234.355469 311.757812 L 234.6875 311.730469 L 235.542969 311.683594 L 236.734375 311.640625 L 237.96875 311.605469 L 238.875 311.585938 L 239.683594 311.570312 L 241.535156 311.539062 L 242.726562 311.523438 L 244.007812 311.511719 L 245.578125 311.5 L 246.71875 311.492188 L 249.289062 311.476562 L 251.191406 311.472656 L 252.664062 311.46875 L 255.851562 311.46875 L 257.753906 311.472656 L 259.132812 311.476562 L 260.65625 311.484375 L 261.9375 311.492188 L 264.175781 311.507812 L 266.171875 311.53125 L 267.074219 311.542969 L 268.503906 311.566406 L 269.597656 311.589844 L 270.355469 311.609375 L 271.214844 311.640625 L 271.972656 311.675781 L 272.542969 311.714844 L 272.832031 311.75 L 266.171875 311.75 L 265.839844 311.71875 L 265.457031 311.695312 L 264.746094 311.660156 L 264.03125 311.636719 L 263.03125 311.617188 L 262.128906 311.601562 L 260.894531 311.585938 L 259.800781 311.578125 L 258.65625 311.570312 L 257.5625 311.566406 L 255.472656 311.558594 L 253.046875 311.558594 L 252.140625 311.5625 L 250.289062 311.566406 L 249.289062 311.574219 L 247.863281 311.585938 L 246.863281 311.59375 L 245.675781 311.609375 L 244.867188 311.625 L 243.867188 311.644531 L 243.152344 311.664062 L 242.34375 311.6875 L 241.871094 311.707031 L 241.441406 311.730469 L 241.0625 311.753906 L 240.777344 311.785156 L 240.585938 311.8125 L 240.492188 311.839844 L 240.492188 311.960938 L 240.585938 311.992188 L 240.824219 312.023438 L 241.441406 312.070312 L 242.34375 312.113281 L 243.390625 312.148438 L 244.390625 312.171875 L 244.960938 312.179688 L 245.722656 312.195312 L 246.910156 312.210938 L 248.621094 312.226562 L 249.621094 312.230469 L 251.144531 312.238281 L 252.710938 312.242188 L 254.804688 312.242188 L 256.660156 312.238281 L 257.898438 312.234375 L 259.179688 312.226562 L 260.941406 312.214844 L 262.035156 312.203125 L 262.984375 312.1875 L 263.699219 312.171875 L 264.175781 312.160156 L 264.886719 312.136719 L 265.457031 312.109375 L 265.886719 312.082031 L 266.171875 312.054688 L 272.832031 312.054688 L 272.542969 312.085938 L 272.117188 312.117188 L 271.6875 312.140625 L 271.023438 312.167969 L 270.261719 312.191406 L 269.167969 312.21875 L 268.265625 312.238281 L 267.074219 312.257812 L 265.980469 312.269531 L 264.792969 312.285156 L 263.03125 312.300781 L 261.890625 312.308594 L 260.65625 312.316406 L 259.179688 312.320312 L 257.324219 312.328125 L 255.328125 312.328125 L 253.472656 312.332031 L 251.476562 312.328125 L 250.003906 312.324219 L 248.050781 312.320312 L 245.625 312.304688 L 243.867188 312.289062 L 242.488281 312.273438 L 241.296875 312.257812 L 239.96875 312.238281 L 238.253906 312.203125 L 237.207031 312.175781 L 236.496094 312.15625 L 235.6875 312.125 L 235.117188 312.097656 L 234.449219 312.050781 L 233.976562 311.996094 L 233.832031 311.953125 Z M 233.832031 311.84375 "/>
<path style=" stroke:none;fill-rule:nonzero;fill:rgb(83.921569%,15.686275%,22.352941%);fill-opacity:1;" d="M 233.832031 29.957031 L 272.832031 29.957031 L 272.832031 59.964844 L 256.578125 60.230469 L 256.578125 310.289062 L 250.039062 310.289062 L 250.039062 60.492188 L 249.941406 59.964844 L 233.832031 59.964844 Z M 233.832031 29.957031 "/>
<path style=" stroke:none;fill-rule:nonzero;fill:rgb(6.27451%,58.823529%,28.235294%);fill-opacity:1;" d="M 274.882812 314.367188 L 274.925781 314.363281 L 291.796875 309.519531 L 296.921875 309.519531 L 313.882812 314.371094 L 307.921875 314.371094 L 303.671875 313.105469 L 285.050781 313.105469 L 280.882812 314.367188 L 274.882812 314.367188 L 286.839844 312.582031 L 301.964844 312.574219 L 294.421875 310.3125 L 294.339844 310.308594 L 294.257812 310.320312 L 286.800781 312.574219 L 286.839844 312.582031 Z M 274.882812 314.367188 "/>
<path style=" stroke:none;fill-rule:nonzero;fill:rgb(83.921569%,15.686275%,22.352941%);fill-opacity:1;" d="M 274.882812 34.078125 L 313.882812 34.078125 L 313.882812 63.433594 L 297.628906 63.691406 L 297.628906 308.339844 L 291.089844 308.339844 L 291.089844 63.949219 L 290.992188 63.433594 L 274.882812 63.433594 Z M 274.882812 34.078125 "/>
<path style=" stroke:none;fill-rule:nonzero;fill:rgb(6.27451%,58.823529%,28.235294%);fill-opacity:1;" d="M 315.933594 306.242188 L 315.976562 305.992188 L 332.847656 39.824219 L 337.972656 39.824219 L 354.929688 306.492188 L 348.972656 306.492188 L 344.722656 236.882812 L 326.101562 236.882812 L 321.933594 306.242188 L 315.933594 306.242188 L 327.890625 208.089844 L 343.015625 207.839844 L 335.472656 83.394531 L 335.390625 83.144531 L 335.308594 83.894531 L 327.847656 207.839844 L 327.890625 208.089844 Z M 315.933594 306.242188 "/>
<path style=" stroke:none;fill-rule:nonzero;fill:rgb(83.921569%,15.686275%,22.352941%);fill-opacity:1;" d="M 315.933594 307.671875 L 354.929688 307.671875 L 354.929688 308.390625 L 338.679688 308.394531 L 338.679688 314.371094 L 332.140625 314.371094 L 332.140625 308.402344 L 332.042969 308.390625 L 315.933594 308.390625 Z M 315.933594 307.671875 "/>
<path style=" stroke:none;fill-rule:nonzero;fill:rgb(96.862745%,70.196078%,16.862745%);fill-opacity:1;" d="M 356.984375 313.839844 L 357.03125 313.839844 L 357.03125 313.824219 L 357.222656 313.785156 L 357.699219 313.734375 L 358.316406 313.6875 L 358.980469 313.65625 L 359.410156 313.636719 L 360.121094 313.613281 L 360.742188 313.59375 L 362.3125 313.554688 L 364.308594 313.519531 L 365.402344 313.503906 L 366.636719 313.492188 L 368.398438 313.472656 L 369.207031 313.46875 L 371.679688 313.453125 L 374.484375 313.445312 L 379.003906 313.445312 L 380.953125 313.449219 L 383.617188 313.457031 L 385.140625 313.464844 L 386.328125 313.472656 L 387.5625 313.484375 L 389.085938 313.503906 L 390.511719 313.523438 L 391.65625 313.542969 L 392.796875 313.566406 L 393.746094 313.59375 L 394.554688 313.625 L 395.269531 313.660156 L 395.695312 313.691406 L 395.980469 313.71875 L 389.371094 313.71875 L 388.992188 313.691406 L 388.5625 313.667969 L 387.851562 313.640625 L 387.136719 313.617188 L 386.421875 313.601562 L 385.089844 313.582031 L 383.949219 313.566406 L 382.523438 313.554688 L 381.144531 313.546875 L 379.574219 313.542969 L 376.101562 313.542969 L 373.820312 313.546875 L 372.488281 313.554688 L 371.535156 313.5625 L 370.207031 313.574219 L 369.398438 313.582031 L 368.921875 313.589844 L 367.496094 313.617188 L 366.542969 313.640625 L 366.019531 313.65625 L 365.355469 313.683594 L 364.878906 313.703125 L 364.355469 313.738281 L 364.070312 313.765625 L 363.691406 313.820312 L 363.640625 313.972656 L 363.785156 314.007812 L 364.070312 314.039062 L 364.449219 314.070312 L 365.023438 314.101562 L 365.59375 314.128906 L 366.589844 314.160156 L 367.445312 314.183594 L 368.113281 314.195312 L 369.398438 314.21875 L 369.921875 314.226562 L 371.15625 314.242188 L 372.441406 314.253906 L 374.011719 314.265625 L 375.199219 314.269531 L 377.101562 314.273438 L 379.527344 314.273438 L 382.378906 314.269531 L 384.1875 314.261719 L 385.425781 314.253906 L 386.234375 314.25 L 387.230469 314.242188 L 387.945312 314.230469 L 388.609375 314.222656 L 389.417969 314.207031 L 389.417969 314.007812 L 377.671875 314.003906 L 377.671875 313.910156 L 395.933594 313.910156 L 395.980469 314.242188 L 394.984375 314.261719 L 393.746094 314.285156 L 392.558594 314.300781 L 391.320312 314.316406 L 389.5625 314.332031 L 388.136719 314.34375 L 385.949219 314.355469 L 383.949219 314.363281 L 381.855469 314.367188 L 380.003906 314.371094 L 377.816406 314.371094 L 375.863281 314.367188 L 373.773438 314.363281 L 372.109375 314.355469 L 370.585938 314.347656 L 369.0625 314.335938 L 367.160156 314.320312 L 365.925781 314.304688 L 364.640625 314.289062 L 363.355469 314.265625 L 362.214844 314.242188 L 361.453125 314.226562 L 360.695312 314.207031 L 359.886719 314.179688 L 359.125 314.152344 L 358.554688 314.125 L 358.03125 314.09375 L 357.648438 314.066406 L 357.269531 314.03125 L 357.078125 314 L 356.984375 313.972656 Z M 356.984375 313.839844 "/>
<path style=" stroke:none;fill-rule:nonzero;fill:rgb(83.921569%,15.686275%,22.352941%);fill-opacity:1;" d="M 356.984375 20.664062 L 395.980469 20.664062 L 395.980469 51.875 L 379.730469 52.152344 L 379.730469 312.265625 L 373.191406 312.265625 L 373.191406 52.425781 L 373.09375 51.875 L 356.984375 51.875 Z M 356.984375 20.664062 "/>
<path style=" stroke:none;fill-rule:nonzero;fill:rgb(6.27451%,58.823529%,28.235294%);fill-opacity:1;" d="M 398.035156 314.359375 L 398.078125 314.34375 L 414.949219 300.914062 L 420.074219 300.914062 L 437.03125 314.371094 L 431.074219 314.371094 L 426.824219 310.859375 L 408.199219 310.859375 L 404.035156 314.359375 L 398.035156 314.359375 L 409.992188 309.40625 L 425.117188 309.390625 L 417.574219 303.113281 L 417.492188 303.101562 L 417.410156 303.136719 L 409.949219 309.390625 L 409.992188 309.40625 Z M 398.035156 314.359375 "/>
<path style=" stroke:none;fill-rule:nonzero;fill:rgb(14.509804%,36.078431%,60%);fill-opacity:1;" d="M 398.035156 163.980469 L 398.082031 163.761719 L 398.082031 158.488281 L 398.226562 150.140625 L 398.558594 139.597656 L 398.890625 132.347656 L 399.746094 119.386719 L 400.9375 106.867188 L 402.171875 97.199219 L 403.074219 91.488281 L 403.882812 87.097656 L 405.738281 78.96875 L 406.929688 74.792969 L 408.210938 71.0625 L 409.78125 67.328125 L 410.921875 65.128906 L 413.492188 61.613281 L 415.394531 60.078125 L 416.867188 59.417969 L 420.054688 59.417969 L 421.957031 60.296875 L 423.335938 61.394531 L 424.859375 63.152344 L 426.140625 65.128906 L 428.378906 69.960938 L 430.375 76.113281 L 431.277344 79.628906 L 432.707031 86.4375 L 433.800781 93.027344 L 434.558594 98.738281 L 435.414062 106.867188 L 436.175781 116.75 L 436.746094 127.953125 L 437.03125 137.398438 L 430.375 137.398438 L 430.042969 128.613281 L 429.660156 121.804688 L 428.949219 112.796875 L 428.234375 106.425781 L 427.234375 100.058594 L 426.332031 95.882812 L 425.097656 91.710938 L 424 89.074219 L 422.859375 87.097656 L 421.765625 85.777344 L 419.675781 84.460938 L 417.25 84.460938 L 416.34375 84.898438 L 414.488281 86.65625 L 413.492188 88.195312 L 412.066406 91.269531 L 411.066406 94.125 L 409.875 98.519531 L 409.070312 102.253906 L 408.070312 107.964844 L 407.355469 113.015625 L 406.546875 120.265625 L 406.070312 125.757812 L 405.644531 131.910156 L 405.265625 139.15625 L 404.976562 146.847656 L 404.789062 154.972656 L 404.691406 162.882812 L 404.691406 196.929688 L 404.789062 204.839844 L 405.027344 214.0625 L 405.644531 227.464844 L 406.546875 239.105469 L 407.59375 248.332031 L 408.59375 254.921875 L 409.164062 257.996094 L 409.925781 261.511719 L 411.113281 265.90625 L 412.824219 270.300781 L 413.824219 272.054688 L 415.347656 273.8125 L 416.914062 274.691406 L 419.007812 274.691406 L 420.863281 273.8125 L 422.097656 272.714844 L 423.382812 270.957031 L 425.144531 267.222656 L 426.238281 263.710938 L 427.1875 259.535156 L 427.902344 255.363281 L 428.378906 251.847656 L 429.089844 245.039062 L 429.660156 237.570312 L 430.089844 229.878906 L 430.375 222.410156 L 437.03125 222.410156 L 436.746094 231.199219 L 436.320312 239.765625 L 435.890625 246.136719 L 435.226562 253.824219 L 434.464844 260.632812 L 433.371094 268.320312 L 432.46875 273.375 L 431.277344 278.867188 L 430.183594 283.039062 L 428.996094 286.773438 L 427.234375 291.167969 L 426.09375 293.363281 L 424.859375 295.339844 L 423.382812 297.097656 L 421.527344 298.636719 L 419.53125 299.515625 L 417.675781 299.734375 L 415.679688 299.296875 L 414.203125 298.417969 L 412.253906 296.441406 L 409.828125 292.484375 L 408.070312 288.3125 L 406.691406 284.136719 L 405.5 279.746094 L 404.167969 273.8125 L 402.457031 264.148438 L 401.410156 256.679688 L 400.699219 250.527344 L 399.890625 241.960938 L 399.320312 234.273438 L 398.652344 221.972656 L 398.175781 206.375 L 398.035156 194.292969 Z M 398.035156 163.980469 "/>
<path style=" stroke:none;fill-rule:nonzero;fill:rgb(6.27451%,58.823529%,28.235294%);fill-opacity:1;" d="M 439.085938 311.476562 L 439.128906 311.472656 L 456 306.300781 L 461.125 306.300781 L 478.082031 311.480469 L 472.125 311.480469 L 467.875 310.128906 L 449.25 310.128906 L 445.085938 311.476562 L 439.085938 311.476562 L 451.042969 309.570312 L 466.167969 309.566406 L 458.625 307.148438 L 458.542969 307.144531 L 458.460938 307.15625 L 451 309.566406 L 451.042969 309.570312 Z M 439.085938 311.476562 "/>
<path style=" stroke:none;fill-rule:nonzero;fill:rgb(14.509804%,36.078431%,60%);fill-opacity:1;" d="M 439.085938 253.230469 L 439.132812 253.191406 L 439.132812 252.253906 L 439.277344 250.769531 L 439.609375 248.890625 L 439.941406 247.601562 L 440.796875 245.296875 L 441.988281 243.070312 L 443.222656 241.351562 L 444.125 240.335938 L 444.933594 239.554688 L 446.789062 238.105469 L 447.980469 237.363281 L 449.261719 236.699219 L 450.832031 236.035156 L 451.972656 235.644531 L 454.542969 235.019531 L 456.445312 234.746094 L 457.917969 234.628906 L 461.105469 234.628906 L 463.007812 234.785156 L 464.386719 234.980469 L 465.910156 235.292969 L 467.191406 235.644531 L 469.429688 236.503906 L 471.425781 237.597656 L 472.328125 238.226562 L 473.753906 239.4375 L 474.851562 240.609375 L 475.609375 241.625 L 476.464844 243.070312 L 477.226562 244.828125 L 477.796875 246.820312 L 478.082031 248.5 L 471.425781 248.5 L 471.09375 246.9375 L 470.710938 245.726562 L 470 244.125 L 469.285156 242.992188 L 468.285156 241.859375 L 467.382812 241.117188 L 466.144531 240.375 L 465.050781 239.90625 L 463.910156 239.554688 L 462.816406 239.320312 L 460.726562 239.085938 L 458.300781 239.085938 L 457.394531 239.164062 L 455.539062 239.476562 L 454.542969 239.75 L 453.117188 240.296875 L 452.117188 240.804688 L 450.925781 241.585938 L 450.117188 242.25 L 449.121094 243.265625 L 448.40625 244.164062 L 447.597656 245.453125 L 447.121094 246.429688 L 446.695312 247.523438 L 446.3125 248.8125 L 446.027344 250.183594 L 445.839844 251.628906 L 445.742188 253.035156 L 445.742188 259.089844 L 445.839844 260.496094 L 446.078125 262.140625 L 446.695312 264.523438 L 447.597656 266.59375 L 448.644531 268.234375 L 449.644531 269.40625 L 450.214844 269.953125 L 450.976562 270.578125 L 452.164062 271.359375 L 453.875 272.140625 L 454.875 272.453125 L 456.398438 272.765625 L 457.964844 272.921875 L 460.058594 272.921875 L 461.914062 272.765625 L 463.148438 272.570312 L 464.433594 272.257812 L 466.195312 271.59375 L 467.289062 270.96875 L 468.238281 270.226562 L 468.953125 269.484375 L 469.429688 268.859375 L 470.140625 267.648438 L 470.710938 266.320312 L 471.140625 264.953125 L 471.425781 263.625 L 478.082031 263.625 L 477.796875 265.1875 L 477.371094 266.710938 L 476.941406 267.84375 L 476.277344 269.210938 L 475.515625 270.421875 L 474.421875 271.789062 L 473.519531 272.6875 L 472.328125 273.667969 L 471.234375 274.410156 L 470.046875 275.074219 L 468.285156 275.855469 L 467.144531 276.246094 L 465.910156 276.597656 L 464.433594 276.910156 L 462.578125 277.183594 L 460.582031 277.339844 L 458.726562 277.378906 L 456.730469 277.300781 L 455.253906 277.144531 L 453.304688 276.792969 L 450.878906 276.089844 L 449.121094 275.347656 L 447.742188 274.605469 L 446.550781 273.824219 L 445.21875 272.765625 L 443.507812 271.046875 L 442.460938 269.71875 L 441.75 268.625 L 440.941406 267.101562 L 440.371094 265.734375 L 439.703125 263.546875 L 439.226562 260.769531 L 439.085938 258.621094 Z M 439.085938 253.230469 "/>
<path style=" stroke:none;fill-rule:nonzero;fill:rgb(96.862745%,70.196078%,16.862745%);fill-opacity:1;" d="M 439.085938 313.394531 L 439.132812 313.390625 L 439.132812 313.359375 L 439.324219 313.289062 L 439.800781 313.191406 L 440.417969 313.113281 L 441.082031 313.050781 L 441.511719 313.019531 L 442.222656 312.972656 L 442.84375 312.9375 L 444.410156 312.867188 L 446.410156 312.800781 L 447.503906 312.773438 L 448.738281 312.746094 L 450.5 312.714844 L 451.308594 312.707031 L 453.78125 312.679688 L 456.585938 312.664062 L 459.679688 312.660156 L 461.105469 312.660156 L 463.054688 312.667969 L 465.71875 312.683594 L 467.242188 312.699219 L 468.429688 312.714844 L 469.664062 312.738281 L 471.1875 312.769531 L 472.613281 312.804688 L 473.753906 312.84375 L 474.898438 312.890625 L 475.847656 312.941406 L 476.65625 312.996094 L 477.371094 313.058594 L 477.796875 313.113281 L 478.082031 313.167969 L 471.472656 313.167969 L 471.09375 313.113281 L 470.664062 313.074219 L 469.949219 313.019531 L 469.238281 312.984375 L 468.523438 312.953125 L 467.191406 312.914062 L 466.050781 312.886719 L 464.625 312.867188 L 463.246094 312.851562 L 461.675781 312.84375 L 460.726562 312.839844 L 458.203125 312.839844 L 455.921875 312.851562 L 454.589844 312.863281 L 453.636719 312.875 L 452.308594 312.898438 L 451.5 312.917969 L 451.023438 312.929688 L 449.597656 312.980469 L 448.644531 313.023438 L 448.121094 313.050781 L 447.457031 313.097656 L 446.980469 313.140625 L 446.457031 313.203125 L 446.171875 313.25 L 445.792969 313.355469 L 445.742188 313.636719 L 445.886719 313.699219 L 446.171875 313.761719 L 446.550781 313.816406 L 447.121094 313.878906 L 447.695312 313.921875 L 448.691406 313.984375 L 449.546875 314.023438 L 450.214844 314.050781 L 451.5 314.09375 L 452.019531 314.105469 L 453.257812 314.136719 L 454.542969 314.15625 L 456.113281 314.175781 L 457.300781 314.183594 L 459.203125 314.191406 L 461.628906 314.191406 L 464.480469 314.183594 L 466.289062 314.171875 L 467.527344 314.160156 L 468.335938 314.148438 L 469.332031 314.128906 L 470.046875 314.113281 L 470.710938 314.097656 L 471.519531 314.070312 L 471.519531 313.699219 L 459.773438 313.695312 L 459.773438 313.519531 L 478.035156 313.519531 L 478.082031 314.128906 L 477.085938 314.171875 L 475.847656 314.210938 L 474.660156 314.242188 L 473.421875 314.269531 L 471.664062 314.300781 L 470.238281 314.320312 L 468.046875 314.339844 L 466.050781 314.355469 L 463.957031 314.363281 L 462.105469 314.367188 L 459.917969 314.371094 L 457.964844 314.367188 L 455.875 314.359375 L 454.210938 314.34375 L 452.6875 314.328125 L 451.164062 314.308594 L 449.261719 314.277344 L 448.027344 314.25 L 446.742188 314.21875 L 445.457031 314.179688 L 444.316406 314.136719 L 443.554688 314.105469 L 442.796875 314.066406 L 441.988281 314.019531 L 441.226562 313.964844 L 440.65625 313.917969 L 440.132812 313.863281 L 439.75 313.8125 L 439.371094 313.742188 L 439.179688 313.683594 L 439.085938 313.636719 Z M 439.085938 313.394531 "/>
<path style=" stroke:none;fill-rule:nonzero;fill:rgb(83.921569%,15.686275%,22.352941%);fill-opacity:1;" d="M 439.085938 278.558594 L 478.082031 278.558594 L 478.082031 281.402344 L 461.832031 281.425781 L 461.832031 305.121094 L 455.292969 305.121094 L 455.292969 281.453125 L 455.195312 281.402344 L 439.085938 281.402344 Z M 439.085938 278.558594 "/>
<path style=" stroke:none;fill-rule:nonzero;fill:rgb(6.27451%,58.823529%,28.235294%);fill-opacity:1;" d="M 480.136719 305.277344 L 480.179688 305.257812 L 497.050781 285.953125 L 502.175781 285.953125 L 519.132812 305.292969 L 513.175781 305.292969 L 508.925781 300.246094 L 490.300781 300.246094 L 486.136719 305.277344 L 480.136719 305.277344 L 492.09375 298.15625 L 507.21875 298.140625 L 499.675781 289.113281 L 499.59375 289.097656 L 499.511719 289.152344 L 492.050781 298.140625 L 492.09375 298.15625 Z M 480.136719 305.277344 "/>
<path style=" stroke:none;fill-rule:nonzero;fill:rgb(14.509804%,36.078431%,60%);fill-opacity:1;" d="M 480.136719 312.585938 L 480.183594 312.582031 L 480.183594 312.511719 L 480.328125 312.402344 L 480.660156 312.265625 L 480.992188 312.167969 L 481.847656 312 L 483.039062 311.832031 L 484.273438 311.707031 L 485.175781 311.632812 L 485.984375 311.574219 L 487.839844 311.464844 L 489.03125 311.410156 L 490.3125 311.363281 L 491.882812 311.3125 L 493.023438 311.285156 L 495.59375 311.238281 L 497.496094 311.21875 L 498.96875 311.210938 L 502.15625 311.210938 L 504.058594 311.222656 L 505.4375 311.234375 L 506.960938 311.257812 L 508.242188 311.285156 L 510.480469 311.347656 L 512.476562 311.429688 L 513.378906 311.476562 L 514.804688 311.566406 L 515.898438 311.652344 L 516.660156 311.726562 L 517.515625 311.832031 L 518.277344 311.964844 L 518.847656 312.109375 L 519.132812 312.234375 L 512.476562 312.234375 L 512.144531 312.121094 L 511.761719 312.03125 L 511.050781 311.910156 L 510.335938 311.828125 L 509.335938 311.742188 L 508.433594 311.6875 L 507.195312 311.632812 L 506.101562 311.601562 L 504.960938 311.574219 L 503.867188 311.554688 L 501.773438 311.539062 L 499.351562 311.539062 L 498.445312 311.542969 L 496.589844 311.566406 L 495.59375 311.589844 L 494.164062 311.628906 L 493.167969 311.667969 L 491.976562 311.722656 L 491.167969 311.773438 L 490.171875 311.847656 L 489.457031 311.914062 L 488.648438 312.011719 L 488.171875 312.082031 L 487.746094 312.164062 L 487.363281 312.257812 L 487.078125 312.359375 L 486.890625 312.464844 L 486.792969 312.570312 L 486.792969 313.019531 L 486.890625 313.121094 L 487.128906 313.242188 L 487.746094 313.421875 L 488.648438 313.574219 L 489.695312 313.695312 L 490.695312 313.78125 L 491.265625 313.820312 L 492.027344 313.867188 L 493.214844 313.925781 L 494.925781 313.984375 L 495.925781 314.007812 L 497.449219 314.03125 L 499.015625 314.042969 L 501.109375 314.042969 L 502.964844 314.03125 L 504.199219 314.015625 L 505.484375 313.992188 L 507.246094 313.941406 L 508.339844 313.898438 L 509.289062 313.84375 L 510.003906 313.785156 L 510.480469 313.742188 L 511.191406 313.652344 L 511.761719 313.554688 L 512.191406 313.453125 L 512.476562 313.355469 L 519.132812 313.355469 L 518.847656 313.46875 L 518.421875 313.582031 L 517.992188 313.664062 L 517.328125 313.765625 L 516.566406 313.855469 L 515.472656 313.957031 L 514.570312 314.023438 L 513.378906 314.097656 L 512.285156 314.152344 L 511.097656 314.199219 L 509.335938 314.257812 L 508.195312 314.285156 L 506.960938 314.3125 L 505.484375 314.335938 L 503.628906 314.355469 L 501.632812 314.367188 L 499.777344 314.371094 L 497.78125 314.363281 L 496.304688 314.351562 L 494.355469 314.328125 L 491.929688 314.273438 L 490.171875 314.21875 L 488.792969 314.164062 L 487.601562 314.109375 L 486.269531 314.03125 L 484.558594 313.902344 L 483.511719 313.804688 L 482.800781 313.722656 L 481.992188 313.609375 L 481.421875 313.507812 L 480.753906 313.347656 L 480.277344 313.144531 L 480.136719 312.984375 Z M 480.136719 312.585938 "/>
<path style=" stroke:none;fill-rule:nonzero;fill:rgb(96.862745%,70.196078%,16.862745%);fill-opacity:1;" d="M 480.136719 307.996094 L 480.183594 307.992188 L 480.183594 307.929688 L 480.375 307.78125 L 480.847656 307.582031 L 481.46875 307.417969 L 482.132812 307.285156 L 482.5625 307.21875 L 483.273438 307.121094 L 483.894531 307.050781 L 485.460938 306.902344 L 487.460938 306.765625 L 488.554688 306.707031 L 489.789062 306.652344 L 491.550781 306.589844 L 492.359375 306.570312 L 494.832031 306.515625 L 497.636719 306.484375 L 500.730469 306.472656 L 502.15625 306.476562 L 504.105469 306.492188 L 506.769531 306.527344 L 508.289062 306.558594 L 509.480469 306.589844 L 510.714844 306.632812 L 512.238281 306.699219 L 513.664062 306.777344 L 514.804688 306.855469 L 515.949219 306.953125 L 516.898438 307.054688 L 517.707031 307.167969 L 518.421875 307.304688 L 518.847656 307.417969 L 519.132812 307.53125 L 512.523438 307.53125 L 512.144531 307.417969 L 511.714844 307.332031 L 511 307.222656 L 510.289062 307.148438 L 509.574219 307.085938 L 508.242188 307 L 507.101562 306.949219 L 505.675781 306.902344 L 504.296875 306.875 L 502.726562 306.855469 L 501.773438 306.847656 L 499.253906 306.847656 L 496.972656 306.871094 L 495.640625 306.894531 L 494.6875 306.921875 L 493.359375 306.972656 L 492.550781 307.011719 L 492.074219 307.035156 L 490.648438 307.136719 L 489.695312 307.226562 L 489.171875 307.289062 L 488.507812 307.386719 L 488.03125 307.472656 L 487.507812 307.605469 L 487.222656 307.703125 L 486.84375 307.921875 L 486.792969 308.507812 L 486.9375 308.628906 L 487.222656 308.761719 L 487.601562 308.878906 L 488.171875 309.003906 L 488.746094 309.097656 L 489.742188 309.226562 L 490.597656 309.308594 L 491.265625 309.363281 L 492.550781 309.453125 L 493.070312 309.480469 L 494.308594 309.539062 L 495.59375 309.585938 L 497.164062 309.625 L 498.351562 309.644531 L 500.253906 309.660156 L 502.679688 309.660156 L 505.53125 309.640625 L 507.339844 309.613281 L 508.578125 309.589844 L 509.386719 309.566406 L 510.382812 309.53125 L 511.097656 309.496094 L 511.761719 309.460938 L 512.570312 309.40625 L 512.570312 308.628906 L 500.824219 308.628906 L 500.824219 308.261719 L 519.085938 308.261719 L 519.132812 309.53125 L 518.136719 309.617188 L 516.898438 309.703125 L 515.710938 309.765625 L 514.472656 309.820312 L 512.714844 309.882812 L 511.289062 309.921875 L 509.097656 309.96875 L 507.101562 309.996094 L 505.007812 310.015625 L 503.15625 310.027344 L 500.96875 310.03125 L 499.015625 310.023438 L 496.925781 310.003906 L 495.261719 309.976562 L 493.738281 309.945312 L 492.214844 309.902344 L 490.3125 309.835938 L 489.078125 309.78125 L 487.792969 309.710938 L 486.507812 309.628906 L 485.367188 309.542969 L 484.605469 309.476562 L 483.847656 309.398438 L 483.039062 309.300781 L 482.277344 309.1875 L 481.707031 309.089844 L 481.183594 308.976562 L 480.800781 308.867188 L 480.421875 308.722656 L 480.230469 308.605469 L 480.136719 308.503906 Z M 480.136719 307.996094 "/>
<path style=" stroke:none;fill-rule:nonzero;fill:rgb(83.921569%,15.686275%,22.352941%);fill-opacity:1;" d="M 480.136719 260.304688 L 519.132812 260.304688 L 519.132812 262.925781 L 502.882812 262.949219 L 502.882812 284.777344 L 496.34375 284.777344 L 496.34375 262.972656 L 496.246094 262.925781 L 480.136719 262.925781 Z M 480.136719 260.304688 "/>
<path style=" stroke:none;fill-rule:nonzero;fill:rgb(6.27451%,58.823529%,28.235294%);fill-opacity:1;" d="M 521.1875 301.320312 L 521.226562 301.316406 L 538.101562 294.5625 L 543.226562 294.5625 L 560.183594 301.328125 L 554.226562 301.328125 L 549.976562 299.5625 L 531.351562 299.5625 L 527.1875 301.320312 L 521.1875 301.320312 L 533.144531 298.832031 L 548.269531 298.824219 L 540.726562 295.667969 L 540.644531 295.660156 L 540.5625 295.679688 L 533.101562 298.824219 L 533.144531 298.832031 Z M 521.1875 301.320312 "/>
<path style=" stroke:none;fill-rule:nonzero;fill:rgb(14.509804%,36.078431%,60%);fill-opacity:1;" d="M 521.1875 310.398438 L 521.234375 310.394531 L 521.234375 310.320312 L 521.378906 310.207031 L 521.710938 310.0625 L 522.042969 309.960938 L 522.898438 309.78125 L 524.089844 309.609375 L 525.324219 309.476562 L 526.226562 309.398438 L 527.035156 309.335938 L 528.890625 309.222656 L 530.082031 309.167969 L 531.363281 309.113281 L 532.933594 309.0625 L 534.074219 309.03125 L 536.644531 308.984375 L 538.546875 308.964844 L 540.019531 308.953125 L 543.207031 308.953125 L 545.109375 308.964844 L 546.488281 308.980469 L 548.011719 309.003906 L 549.292969 309.03125 L 551.53125 309.097656 L 553.527344 309.183594 L 554.429688 309.234375 L 555.855469 309.328125 L 556.949219 309.417969 L 557.710938 309.496094 L 558.566406 309.609375 L 559.328125 309.746094 L 559.898438 309.898438 L 560.183594 310.03125 L 553.527344 310.03125 L 553.195312 309.910156 L 552.8125 309.816406 L 552.101562 309.691406 L 551.386719 309.601562 L 550.386719 309.515625 L 549.484375 309.457031 L 548.246094 309.398438 L 547.152344 309.363281 L 546.011719 309.335938 L 544.917969 309.316406 L 542.824219 309.300781 L 540.402344 309.300781 L 539.496094 309.304688 L 537.640625 309.328125 L 536.644531 309.351562 L 535.214844 309.394531 L 534.21875 309.433594 L 533.027344 309.492188 L 532.21875 309.546875 L 531.222656 309.625 L 530.507812 309.695312 L 529.699219 309.792969 L 529.222656 309.871094 L 528.796875 309.953125 L 528.414062 310.054688 L 528.128906 310.160156 L 527.941406 310.273438 L 527.84375 310.382812 L 527.84375 310.851562 L 527.941406 310.960938 L 528.179688 311.089844 L 528.796875 311.273438 L 529.699219 311.433594 L 530.746094 311.5625 L 531.746094 311.652344 L 532.316406 311.695312 L 533.078125 311.742188 L 534.265625 311.804688 L 535.976562 311.867188 L 536.976562 311.890625 L 538.5 311.914062 L 540.066406 311.925781 L 542.160156 311.925781 L 544.015625 311.914062 L 545.25 311.898438 L 546.535156 311.875 L 548.296875 311.824219 L 549.390625 311.773438 L 550.339844 311.714844 L 551.054688 311.660156 L 551.53125 311.609375 L 552.242188 311.515625 L 552.8125 311.414062 L 553.242188 311.308594 L 553.527344 311.203125 L 560.183594 311.203125 L 559.898438 311.324219 L 559.472656 311.445312 L 559.042969 311.53125 L 558.378906 311.636719 L 557.617188 311.730469 L 556.523438 311.839844 L 555.621094 311.90625 L 554.429688 311.984375 L 553.335938 312.042969 L 552.148438 312.09375 L 550.386719 312.152344 L 549.246094 312.183594 L 548.011719 312.210938 L 546.535156 312.234375 L 544.679688 312.257812 L 542.683594 312.269531 L 540.828125 312.273438 L 538.832031 312.265625 L 537.355469 312.253906 L 535.40625 312.226562 L 532.980469 312.171875 L 531.222656 312.113281 L 529.84375 312.054688 L 528.652344 311.996094 L 527.320312 311.914062 L 525.609375 311.78125 L 524.5625 311.675781 L 523.851562 311.59375 L 523.042969 311.472656 L 522.472656 311.367188 L 521.804688 311.199219 L 521.328125 310.984375 L 521.1875 310.816406 Z M 521.1875 310.398438 "/>
<path style=" stroke:none;fill-rule:nonzero;fill:rgb(96.862745%,70.196078%,16.862745%);fill-opacity:1;" d="M 521.1875 313.84375 L 521.234375 313.84375 L 521.234375 313.828125 L 521.425781 313.789062 L 521.898438 313.738281 L 522.519531 313.695312 L 523.183594 313.660156 L 523.613281 313.644531 L 524.324219 313.617188 L 524.945312 313.601562 L 526.511719 313.5625 L 528.511719 313.527344 L 529.605469 313.511719 L 530.839844 313.496094 L 532.601562 313.480469 L 533.410156 313.476562 L 535.882812 313.460938 L 538.6875 313.453125 L 543.207031 313.453125 L 545.15625 313.457031 L 547.820312 313.464844 L 549.339844 313.472656 L 550.53125 313.480469 L 551.765625 313.492188 L 553.289062 313.507812 L 554.714844 313.53125 L 555.855469 313.550781 L 557 313.574219 L 557.949219 313.601562 L 558.757812 313.632812 L 559.472656 313.667969 L 559.898438 313.695312 L 560.183594 313.726562 L 553.574219 313.726562 L 553.195312 313.695312 L 552.765625 313.671875 L 552.050781 313.644531 L 551.339844 313.625 L 550.625 313.609375 L 549.292969 313.585938 L 548.152344 313.574219 L 546.726562 313.5625 L 545.347656 313.554688 L 543.777344 313.550781 L 542.824219 313.546875 L 540.304688 313.546875 L 538.023438 313.554688 L 536.691406 313.558594 L 535.738281 313.566406 L 534.40625 313.578125 L 533.601562 313.589844 L 533.125 313.597656 L 531.699219 313.621094 L 530.746094 313.644531 L 530.222656 313.660156 L 529.558594 313.6875 L 529.082031 313.710938 L 528.558594 313.742188 L 528.273438 313.769531 L 527.894531 313.824219 L 527.84375 313.976562 L 527.988281 314.007812 L 528.273438 314.042969 L 528.652344 314.074219 L 529.222656 314.105469 L 529.796875 314.128906 L 530.792969 314.164062 L 531.648438 314.183594 L 532.316406 314.199219 L 533.601562 314.222656 L 534.121094 314.230469 L 535.359375 314.242188 L 536.644531 314.253906 L 538.210938 314.265625 L 539.402344 314.269531 L 541.304688 314.273438 L 543.730469 314.273438 L 546.582031 314.269531 L 548.390625 314.261719 L 549.625 314.257812 L 550.433594 314.25 L 551.433594 314.242188 L 552.148438 314.234375 L 552.8125 314.222656 L 553.621094 314.210938 L 553.621094 314.007812 L 541.875 314.007812 L 541.875 313.914062 L 560.136719 313.914062 L 560.183594 314.242188 L 559.1875 314.265625 L 557.949219 314.285156 L 556.761719 314.300781 L 555.523438 314.316406 L 553.765625 314.332031 L 552.335938 314.34375 L 550.148438 314.355469 L 548.152344 314.363281 L 546.058594 314.367188 L 544.207031 314.371094 L 542.015625 314.371094 L 540.066406 314.367188 L 537.976562 314.363281 L 536.308594 314.355469 L 534.789062 314.347656 L 533.265625 314.339844 L 531.363281 314.320312 L 530.128906 314.304688 L 528.84375 314.289062 L 527.558594 314.265625 L 526.417969 314.246094 L 524.894531 314.207031 L 524.089844 314.183594 L 523.328125 314.152344 L 522.757812 314.128906 L 522.234375 314.097656 L 521.851562 314.070312 L 521.472656 314.03125 L 521.28125 314.003906 L 521.1875 313.976562 Z M 521.1875 313.84375 "/>
<path style=" stroke:none;fill-rule:nonzero;fill:rgb(83.921569%,15.686275%,22.352941%);fill-opacity:1;" d="M 521.1875 302.507812 L 560.183594 302.507812 L 560.183594 303.070312 L 543.933594 303.074219 L 543.933594 307.773438 L 537.394531 307.773438 L 537.394531 303.082031 L 537.296875 303.070312 L 521.1875 303.070312 Z M 521.1875 302.507812 "/>
<path style=" stroke:none;fill-rule:nonzero;fill:rgb(6.27451%,58.823529%,28.235294%);fill-opacity:1;" d="M 562.238281 259.445312 L 562.277344 259.390625 L 579.152344 200.898438 L 584.277344 200.898438 L 601.234375 259.5 L 595.277344 259.5 L 591.027344 244.203125 L 572.402344 244.203125 L 568.238281 259.445312 L 562.238281 259.445312 L 574.195312 237.875 L 589.320312 237.820312 L 581.777344 210.472656 L 581.695312 210.417969 L 581.613281 210.582031 L 574.152344 237.820312 L 574.195312 237.875 Z M 562.238281 259.445312 "/>
<path style=" stroke:none;fill-rule:nonzero;fill:rgb(14.509804%,36.078431%,60%);fill-opacity:1;" d="M 562.238281 314.113281 L 562.285156 314.109375 L 562.285156 314.101562 L 562.429688 314.085938 L 562.761719 314.066406 L 563.09375 314.050781 L 563.949219 314.027344 L 565.136719 314.003906 L 566.375 313.984375 L 567.277344 313.972656 L 568.085938 313.964844 L 569.941406 313.949219 L 571.132812 313.941406 L 572.414062 313.933594 L 573.984375 313.925781 L 575.125 313.921875 L 577.695312 313.917969 L 579.597656 313.914062 L 586.160156 313.914062 L 587.539062 313.917969 L 589.0625 313.917969 L 590.34375 313.921875 L 592.578125 313.933594 L 594.578125 313.945312 L 595.480469 313.949219 L 596.90625 313.964844 L 598 313.976562 L 598.761719 313.988281 L 599.617188 314.003906 L 600.378906 314.023438 L 600.949219 314.042969 L 601.234375 314.0625 L 594.578125 314.0625 L 594.246094 314.042969 L 593.863281 314.03125 L 593.152344 314.015625 L 592.4375 314.003906 L 591.4375 313.988281 L 590.535156 313.980469 L 589.296875 313.972656 L 588.203125 313.96875 L 587.0625 313.964844 L 585.96875 313.960938 L 580.546875 313.960938 L 578.691406 313.964844 L 577.695312 313.96875 L 576.265625 313.972656 L 575.269531 313.980469 L 574.078125 313.988281 L 573.269531 313.992188 L 572.273438 314.003906 L 571.558594 314.015625 L 570.75 314.027344 L 570.273438 314.039062 L 569.847656 314.050781 L 569.464844 314.0625 L 569.179688 314.078125 L 568.992188 314.09375 L 568.894531 314.109375 L 568.894531 314.175781 L 568.992188 314.191406 L 569.230469 314.207031 L 569.847656 314.234375 L 570.75 314.253906 L 571.796875 314.273438 L 572.796875 314.285156 L 573.367188 314.292969 L 574.128906 314.296875 L 575.316406 314.304688 L 577.027344 314.316406 L 578.027344 314.316406 L 579.550781 314.320312 L 581.117188 314.324219 L 583.210938 314.324219 L 585.066406 314.320312 L 586.300781 314.320312 L 587.585938 314.316406 L 589.347656 314.308594 L 590.441406 314.300781 L 591.390625 314.292969 L 592.105469 314.285156 L 592.578125 314.28125 L 593.292969 314.265625 L 593.863281 314.253906 L 594.292969 314.238281 L 594.578125 314.222656 L 601.234375 314.222656 L 600.949219 314.238281 L 600.523438 314.257812 L 600.09375 314.269531 L 599.429688 314.28125 L 598.667969 314.296875 L 597.574219 314.3125 L 596.671875 314.320312 L 595.480469 314.332031 L 594.386719 314.339844 L 593.199219 314.347656 L 591.4375 314.355469 L 590.296875 314.359375 L 589.0625 314.363281 L 587.585938 314.367188 L 585.730469 314.367188 L 583.734375 314.371094 L 579.882812 314.371094 L 578.40625 314.367188 L 576.457031 314.363281 L 574.03125 314.355469 L 572.273438 314.347656 L 570.894531 314.339844 L 569.703125 314.332031 L 568.371094 314.320312 L 566.660156 314.304688 L 565.613281 314.289062 L 564.902344 314.277344 L 564.09375 314.261719 L 563.523438 314.246094 L 562.855469 314.222656 L 562.378906 314.191406 L 562.238281 314.167969 Z M 562.238281 314.113281 "/>
<path style=" stroke:none;fill-rule:nonzero;fill:rgb(96.862745%,70.196078%,16.862745%);fill-opacity:1;" d="M 562.238281 311.535156 L 562.285156 311.53125 L 562.285156 311.496094 L 562.476562 311.40625 L 562.949219 311.289062 L 563.570312 311.191406 L 564.234375 311.113281 L 564.664062 311.074219 L 565.375 311.015625 L 565.996094 310.976562 L 567.5625 310.890625 L 569.5625 310.808594 L 570.65625 310.773438 L 571.890625 310.742188 L 573.652344 310.707031 L 574.460938 310.691406 L 576.933594 310.660156 L 579.738281 310.640625 L 582.832031 310.636719 L 584.257812 310.636719 L 586.207031 310.644531 L 588.871094 310.667969 L 590.390625 310.6875 L 591.582031 310.707031 L 592.816406 310.730469 L 594.339844 310.769531 L 595.765625 310.816406 L 596.90625 310.859375 L 598.050781 310.917969 L 599 310.980469 L 599.808594 311.046875 L 600.523438 311.125 L 600.949219 311.195312 L 601.234375 311.261719 L 594.625 311.261719 L 594.246094 311.195312 L 593.816406 311.140625 L 593.101562 311.078125 L 592.390625 311.03125 L 591.675781 310.996094 L 590.34375 310.945312 L 589.203125 310.917969 L 587.777344 310.890625 L 586.398438 310.871094 L 584.828125 310.859375 L 583.875 310.855469 L 581.355469 310.855469 L 579.074219 310.871094 L 577.742188 310.886719 L 576.789062 310.902344 L 575.457031 310.929688 L 574.648438 310.953125 L 574.175781 310.96875 L 572.746094 311.027344 L 571.796875 311.082031 L 571.273438 311.117188 L 570.609375 311.175781 L 570.132812 311.226562 L 569.609375 311.304688 L 569.324219 311.359375 L 568.941406 311.492188 L 568.894531 311.835938 L 569.039062 311.90625 L 569.324219 311.984375 L 569.703125 312.054688 L 570.273438 312.128906 L 570.84375 312.183594 L 571.84375 312.257812 L 572.699219 312.308594 L 573.367188 312.339844 L 574.648438 312.390625 L 575.171875 312.410156 L 576.410156 312.445312 L 577.695312 312.46875 L 579.261719 312.492188 L 580.453125 312.503906 L 582.355469 312.515625 L 584.78125 312.515625 L 587.632812 312.503906 L 589.441406 312.488281 L 590.675781 312.472656 L 591.484375 312.460938 L 592.484375 312.4375 L 593.199219 312.417969 L 593.863281 312.398438 L 594.671875 312.363281 L 594.671875 311.90625 L 582.925781 311.90625 L 582.925781 311.691406 L 601.1875 311.691406 L 601.234375 312.4375 L 600.238281 312.488281 L 599 312.539062 L 597.8125 312.578125 L 596.574219 312.609375 L 594.816406 312.648438 L 593.386719 312.667969 L 591.199219 312.695312 L 589.203125 312.714844 L 587.109375 312.726562 L 585.257812 312.730469 L 583.066406 312.734375 L 581.117188 312.730469 L 579.027344 312.71875 L 577.359375 312.703125 L 575.839844 312.683594 L 574.316406 312.65625 L 572.414062 312.617188 L 571.179688 312.585938 L 569.894531 312.546875 L 568.609375 312.496094 L 567.46875 312.445312 L 566.707031 312.40625 L 565.945312 312.359375 L 565.136719 312.300781 L 564.378906 312.238281 L 563.808594 312.175781 L 563.285156 312.109375 L 562.902344 312.046875 L 562.523438 311.960938 L 562.332031 311.890625 L 562.238281 311.832031 Z M 562.238281 311.535156 "/>
<path style=" stroke:none;fill-rule:nonzero;fill:rgb(83.921569%,15.686275%,22.352941%);fill-opacity:1;" d="M 562.238281 260.679688 L 601.234375 260.679688 L 601.234375 265.902344 L 584.984375 265.949219 L 584.984375 309.457031 L 578.441406 309.457031 L 578.441406 265.992188 L 578.347656 265.902344 L 562.238281 265.902344 Z M 562.238281 260.679688 "/>
<path style=" stroke:none;fill-rule:nonzero;fill:rgb(6.27451%,58.823529%,28.235294%);fill-opacity:1;" d="M 603.289062 300.695312 L 603.328125 300.679688 L 620.203125 282.851562 L 625.328125 282.851562 L 642.285156 300.710938 L 636.328125 300.710938 L 632.078125 296.050781 L 613.453125 296.050781 L 609.289062 300.695312 L 603.289062 300.695312 L 615.246094 294.121094 L 630.371094 294.105469 L 622.828125 285.769531 L 622.746094 285.753906 L 622.664062 285.800781 L 615.203125 294.105469 L 615.246094 294.121094 Z M 603.289062 300.695312 "/>
<path style=" stroke:none;fill-rule:nonzero;fill:rgb(14.509804%,36.078431%,60%);fill-opacity:1;" d="M 603.289062 306.960938 L 603.335938 306.949219 L 603.335938 306.695312 L 603.476562 306.289062 L 603.8125 305.777344 L 604.144531 305.425781 L 605 304.796875 L 606.1875 304.191406 L 607.425781 303.722656 L 608.328125 303.445312 L 609.136719 303.234375 L 610.992188 302.839844 L 612.183594 302.636719 L 613.464844 302.457031 L 615.035156 302.273438 L 616.175781 302.167969 L 618.746094 301.996094 L 620.648438 301.921875 L 622.121094 301.890625 L 625.308594 301.890625 L 627.210938 301.933594 L 628.589844 301.988281 L 630.109375 302.070312 L 631.394531 302.167969 L 633.628906 302.402344 L 635.628906 302.699219 L 636.53125 302.871094 L 637.957031 303.199219 L 639.050781 303.519531 L 639.8125 303.796875 L 640.667969 304.191406 L 641.429688 304.671875 L 642 305.214844 L 642.285156 305.671875 L 635.628906 305.671875 L 635.296875 305.246094 L 634.914062 304.914062 L 634.203125 304.480469 L 633.488281 304.171875 L 632.488281 303.863281 L 631.585938 303.660156 L 630.347656 303.457031 L 629.253906 303.328125 L 628.113281 303.234375 L 627.019531 303.167969 L 624.925781 303.105469 L 622.5 303.105469 L 621.597656 303.125 L 619.742188 303.210938 L 618.746094 303.285156 L 617.316406 303.433594 L 616.320312 303.574219 L 615.128906 303.785156 L 614.320312 303.96875 L 613.324219 304.246094 L 612.609375 304.488281 L 611.800781 304.839844 L 611.324219 305.109375 L 610.898438 305.40625 L 610.515625 305.757812 L 610.230469 306.128906 L 610.042969 306.523438 L 609.945312 306.90625 L 609.945312 308.558594 L 610.042969 308.941406 L 610.28125 309.390625 L 610.898438 310.039062 L 611.800781 310.601562 L 612.847656 311.050781 L 613.847656 311.371094 L 614.417969 311.519531 L 615.179688 311.691406 L 616.367188 311.902344 L 618.078125 312.117188 L 619.078125 312.199219 L 620.597656 312.285156 L 622.167969 312.328125 L 624.261719 312.328125 L 626.117188 312.285156 L 627.351562 312.234375 L 628.636719 312.148438 L 630.398438 311.964844 L 631.492188 311.796875 L 632.441406 311.59375 L 633.15625 311.390625 L 633.628906 311.222656 L 634.34375 310.890625 L 634.914062 310.527344 L 635.34375 310.15625 L 635.628906 309.792969 L 642.285156 309.792969 L 642 310.21875 L 641.574219 310.636719 L 641.144531 310.945312 L 640.480469 311.316406 L 639.71875 311.648438 L 638.625 312.019531 L 637.722656 312.265625 L 636.53125 312.53125 L 635.4375 312.734375 L 634.25 312.914062 L 632.488281 313.128906 L 631.347656 313.234375 L 630.109375 313.328125 L 628.636719 313.414062 L 626.78125 313.488281 L 624.785156 313.53125 L 622.929688 313.542969 L 620.933594 313.523438 L 619.457031 313.480469 L 617.507812 313.382812 L 615.082031 313.191406 L 613.324219 312.988281 L 611.945312 312.785156 L 610.753906 312.574219 L 609.421875 312.285156 L 607.710938 311.816406 L 606.664062 311.457031 L 605.953125 311.15625 L 605.144531 310.742188 L 604.574219 310.367188 L 603.90625 309.773438 L 603.429688 309.015625 L 603.289062 308.429688 Z M 603.289062 306.960938 "/>
<path style=" stroke:none;fill-rule:nonzero;fill:rgb(83.921569%,15.686275%,22.352941%);fill-opacity:1;" d="M 603.289062 257.601562 L 642.285156 257.601562 L 642.285156 260.179688 L 626.03125 260.199219 L 626.03125 281.671875 L 619.492188 281.671875 L 619.492188 260.222656 L 619.398438 260.179688 L 603.289062 260.179688 Z M 603.289062 257.601562 "/>
<path style=" stroke:none;fill-rule:nonzero;fill:rgb(6.27451%,58.823529%,28.235294%);fill-opacity:1;" d="M 644.339844 311.480469 L 644.378906 311.476562 L 661.253906 306.691406 L 666.378906 306.691406 L 683.335938 311.484375 L 677.378906 311.484375 L 673.128906 310.234375 L 654.503906 310.234375 L 650.339844 311.480469 L 644.339844 311.480469 L 656.296875 309.714844 L 671.421875 309.710938 L 663.878906 307.472656 L 663.796875 307.46875 L 663.714844 307.484375 L 656.253906 309.710938 L 656.296875 309.714844 Z M 644.339844 311.480469 "/>
<path style=" stroke:none;fill-rule:nonzero;fill:rgb(14.509804%,36.078431%,60%);fill-opacity:1;" d="M 644.339844 302.335938 L 644.386719 302.332031 L 644.386719 302.207031 L 644.527344 302.011719 L 644.863281 301.765625 L 645.195312 301.597656 L 646.050781 301.292969 L 647.238281 301 L 648.476562 300.777344 L 649.378906 300.640625 L 650.1875 300.539062 L 652.042969 300.347656 L 653.230469 300.25 L 654.515625 300.164062 L 656.085938 300.078125 L 657.226562 300.027344 L 659.796875 299.945312 L 661.699219 299.90625 L 663.171875 299.890625 L 666.359375 299.890625 L 668.261719 299.914062 L 669.640625 299.9375 L 671.160156 299.980469 L 672.445312 300.027344 L 674.679688 300.136719 L 676.679688 300.28125 L 677.582031 300.363281 L 679.007812 300.523438 L 680.101562 300.679688 L 680.863281 300.8125 L 681.71875 301 L 682.480469 301.234375 L 683.050781 301.496094 L 683.335938 301.714844 L 676.679688 301.714844 L 676.347656 301.511719 L 675.964844 301.351562 L 675.253906 301.140625 L 674.539062 300.992188 L 673.539062 300.84375 L 672.636719 300.746094 L 671.398438 300.648438 L 670.304688 300.585938 L 669.164062 300.539062 L 668.070312 300.507812 L 665.976562 300.476562 L 663.550781 300.476562 L 662.648438 300.488281 L 660.792969 300.527344 L 659.796875 300.566406 L 658.367188 300.636719 L 657.371094 300.703125 L 656.179688 300.804688 L 655.371094 300.894531 L 654.375 301.027344 L 653.660156 301.144531 L 652.851562 301.316406 L 652.375 301.441406 L 651.949219 301.585938 L 651.566406 301.757812 L 651.28125 301.9375 L 651.09375 302.125 L 650.996094 302.3125 L 650.996094 303.109375 L 651.09375 303.292969 L 651.328125 303.507812 L 651.949219 303.820312 L 652.851562 304.09375 L 653.898438 304.308594 L 654.898438 304.464844 L 655.46875 304.535156 L 656.230469 304.617188 L 657.417969 304.71875 L 659.128906 304.824219 L 660.128906 304.863281 L 661.648438 304.90625 L 663.21875 304.925781 L 665.3125 304.925781 L 667.167969 304.90625 L 668.402344 304.878906 L 669.6875 304.839844 L 671.449219 304.75 L 672.542969 304.667969 L 673.492188 304.570312 L 674.207031 304.472656 L 674.679688 304.390625 L 675.394531 304.234375 L 675.964844 304.058594 L 676.394531 303.878906 L 676.679688 303.703125 L 683.335938 303.703125 L 683.050781 303.910156 L 682.625 304.109375 L 682.195312 304.257812 L 681.53125 304.4375 L 680.769531 304.597656 L 679.675781 304.777344 L 678.769531 304.894531 L 677.582031 305.023438 L 676.488281 305.121094 L 675.300781 305.207031 L 673.539062 305.3125 L 672.398438 305.363281 L 671.160156 305.410156 L 669.6875 305.449219 L 667.832031 305.484375 L 665.835938 305.507812 L 663.980469 305.511719 L 661.984375 305.5 L 660.507812 305.480469 L 658.558594 305.433594 L 656.132812 305.34375 L 654.375 305.246094 L 652.996094 305.148438 L 651.804688 305.042969 L 650.472656 304.90625 L 648.761719 304.679688 L 647.714844 304.503906 L 647.003906 304.359375 L 646.195312 304.160156 L 645.621094 303.980469 L 644.957031 303.691406 L 644.480469 303.328125 L 644.339844 303.046875 Z M 644.339844 302.335938 "/>
<path style=" stroke:none;fill-rule:nonzero;fill:rgb(96.862745%,70.196078%,16.862745%);fill-opacity:1;" d="M 644.339844 313.394531 L 644.386719 313.394531 L 644.386719 313.363281 L 644.578125 313.292969 L 645.050781 313.195312 L 645.671875 313.117188 L 646.335938 313.054688 L 646.765625 313.023438 L 647.476562 312.976562 L 648.097656 312.941406 L 649.664062 312.871094 L 651.664062 312.804688 L 652.757812 312.777344 L 653.992188 312.75 L 655.753906 312.722656 L 656.5625 312.710938 L 659.035156 312.6875 L 661.839844 312.671875 L 664.933594 312.664062 L 666.359375 312.667969 L 668.308594 312.671875 L 670.972656 312.691406 L 672.492188 312.707031 L 673.683594 312.722656 L 674.917969 312.742188 L 676.441406 312.773438 L 677.867188 312.8125 L 679.007812 312.847656 L 680.152344 312.894531 L 681.101562 312.945312 L 681.910156 313 L 682.625 313.0625 L 683.050781 313.117188 L 683.335938 313.171875 L 676.726562 313.171875 L 676.347656 313.117188 L 675.917969 313.078125 L 675.203125 313.027344 L 674.492188 312.988281 L 673.777344 312.957031 L 672.445312 312.917969 L 671.304688 312.894531 L 669.878906 312.871094 L 668.5 312.855469 L 666.929688 312.847656 L 665.976562 312.84375 L 663.457031 312.84375 L 661.175781 312.855469 L 659.84375 312.867188 L 658.890625 312.878906 L 657.558594 312.902344 L 656.75 312.921875 L 656.277344 312.933594 L 654.847656 312.984375 L 653.898438 313.027344 L 653.375 313.054688 L 652.710938 313.101562 L 652.234375 313.144531 L 651.710938 313.207031 L 651.425781 313.253906 L 651.042969 313.359375 L 650.996094 313.640625 L 651.140625 313.699219 L 651.425781 313.761719 L 651.804688 313.820312 L 652.375 313.878906 L 652.945312 313.921875 L 653.945312 313.984375 L 654.800781 314.023438 L 655.46875 314.050781 L 656.75 314.09375 L 657.273438 314.109375 L 658.511719 314.136719 L 659.796875 314.15625 L 661.363281 314.175781 L 662.554688 314.183594 L 664.457031 314.191406 L 666.882812 314.191406 L 669.734375 314.183594 L 671.542969 314.171875 L 672.777344 314.160156 L 673.585938 314.148438 L 674.585938 314.132812 L 675.300781 314.117188 L 675.964844 314.097656 L 676.773438 314.070312 L 676.773438 313.699219 L 665.027344 313.699219 L 665.027344 313.523438 L 683.289062 313.523438 L 683.335938 314.132812 L 682.339844 314.171875 L 681.101562 314.214844 L 679.914062 314.246094 L 678.675781 314.269531 L 676.917969 314.300781 L 675.488281 314.320312 L 673.300781 314.339844 L 671.304688 314.355469 L 669.210938 314.363281 L 667.355469 314.367188 L 665.167969 314.371094 L 663.21875 314.367188 L 661.128906 314.359375 L 659.460938 314.347656 L 657.941406 314.332031 L 656.417969 314.308594 L 654.515625 314.277344 L 653.28125 314.25 L 651.996094 314.21875 L 650.710938 314.179688 L 649.570312 314.136719 L 648.808594 314.105469 L 648.046875 314.066406 L 647.238281 314.019531 L 646.480469 313.96875 L 645.910156 313.917969 L 645.386719 313.863281 L 645.003906 313.8125 L 644.625 313.742188 L 644.433594 313.6875 L 644.339844 313.640625 Z M 644.339844 313.394531 "/>
<path style=" stroke:none;fill-rule:nonzero;fill:rgb(83.921569%,15.686275%,22.352941%);fill-opacity:1;" d="M 644.339844 286.707031 L 683.335938 286.707031 L 683.335938 287.992188 L 667.082031 288.003906 L 667.082031 298.710938 L 660.542969 298.710938 L 660.542969 288.015625 L 660.449219 287.992188 L 644.339844 287.992188 Z M 644.339844 286.707031 "/>
<g style="fill:rgb(0%,0%,0%);fill-opacity:1;">
  <use xlink:href="#glyph0-1" x="21.957031" y="318.198242"/>
  <use xlink:href="#glyph0-2" x="27.291016" y="318.198242"/>
  <use xlink:href="#glyph0-1" x="29.958008" y="318.198242"/>
</g>
<g style="fill:rgb(0%,0%,0%);fill-opacity:1;">
  <use xlink:href="#glyph0-1" x="21.957031" y="242.147461"/>
  <use xlink:href="#glyph0-2" x="27.291016" y="242.147461"/>
  <use xlink:href="#glyph0-3" x="29.958008" y="242.147461"/>
</g>
<g style="fill:rgb(0%,0%,0%);fill-opacity:1;">
  <use xlink:href="#glyph0-4" x="21.957031" y="166.100586"/>
  <use xlink:href="#glyph0-2" x="27.291016" y="166.100586"/>
  <use xlink:href="#glyph0-1" x="29.958008" y="166.100586"/>
</g>
<g style="fill:rgb(0%,0%,0%);fill-opacity:1;">
  <use xlink:href="#glyph0-4" x="21.957031" y="90.053711"/>
  <use xlink:href="#glyph0-2" x="27.291016" y="90.053711"/>
  <use xlink:href="#glyph0-3" x="29.958008" y="90.053711"/>
</g>
<g style="fill:rgb(0%,0%,0%);fill-opacity:1;">
  <use xlink:href="#glyph0-5" x="21.957031" y="14.00293"/>
  <use xlink:href="#glyph0-2" x="27.291016" y="14.00293"/>
  <use xlink:href="#glyph0-1" x="29.958008" y="14.00293"/>
</g>
<g style="fill:rgb(0%,0%,0%);fill-opacity:1;">
  <use xlink:href="#glyph0-4" x="86.128906" y="338.19043"/>
</g>
<g style="fill:rgb(0%,0%,0%);fill-opacity:1;">
  <use xlink:href="#glyph0-5" x="127.179688" y="338.19043"/>
</g>
<g style="fill:rgb(0%,0%,0%);fill-opacity:1;">
  <use xlink:href="#glyph0-6" x="168.230469" y="338.19043"/>
</g>
<g style="fill:rgb(0%,0%,0%);fill-opacity:1;">
  <use xlink:href="#glyph0-7" x="209.28125" y="338.19043"/>
</g>
<g style="fill:rgb(0%,0%,0%);fill-opacity:1;">
  <use xlink:href="#glyph0-3" x="250.332031" y="338.19043"/>
</g>
<g style="fill:rgb(0%,0%,0%);fill-opacity:1;">
  <use xlink:href="#glyph0-8" x="291.382812" y="338.19043"/>
</g>
<g style="fill:rgb(0%,0%,0%);fill-opacity:1;">
  <use xlink:href="#glyph0-9" x="332.433594" y="338.19043"/>
</g>
<g style="fill:rgb(0%,0%,0%);fill-opacity:1;">
  <use xlink:href="#glyph0-10" x="373.484375" y="338.19043"/>
</g>
<g style="fill:rgb(0%,0%,0%);fill-opacity:1;">
  <use xlink:href="#glyph0-11" x="414.535156" y="338.19043"/>
</g>
<g style="fill:rgb(0%,0%,0%);fill-opacity:1;">
  <use xlink:href="#glyph0-4" x="453.085938" y="338.19043"/>
  <use xlink:href="#glyph0-1" x="458.419922" y="338.19043"/>
</g>
<g style="fill:rgb(0%,0%,0%);fill-opacity:1;">
  <use xlink:href="#glyph0-4" x="494.136719" y="338.19043"/>
  <use xlink:href="#glyph0-4" x="499.470703" y="338.19043"/>
</g>
<g style="fill:rgb(0%,0%,0%);fill-opacity:1;">
  <use xlink:href="#glyph0-4" x="535.1875" y="338.19043"/>
  <use xlink:href="#glyph0-5" x="540.521484" y="338.19043"/>
</g>
<g style="fill:rgb(0%,0%,0%);fill-opacity:1;">
  <use xlink:href="#glyph0-4" x="576.238281" y="338.19043"/>
  <use xlink:href="#glyph0-6" x="581.572266" y="338.19043"/>
</g>
<g style="fill:rgb(0%,0%,0%);fill-opacity:1;">
  <use xlink:href="#glyph0-4" x="617.289062" y="338.19043"/>
  <use xlink:href="#glyph0-7" x="622.623047" y="338.19043"/>
</g>
<g style="fill:rgb(0%,0%,0%);fill-opacity:1;">
  <use xlink:href="#glyph0-4" x="658.339844" y="338.19043"/>
  <use xlink:href="#glyph0-3" x="663.673828" y="338.19043"/>
</g>
<g style="fill:rgb(0%,0%,0%);fill-opacity:1;">
  <use xlink:href="#glyph1-1" x="14.412109" y="178.015625"/>
  <use xlink:href="#glyph1-2" x="14.412109" y="170.011719"/>
  <use xlink:href="#glyph1-3" x="14.412109" y="167.347656"/>
  <use xlink:href="#glyph1-4" x="14.412109" y="164.011719"/>
</g>
</g>
</svg>
