<?xml version="1.0" encoding="UTF-8"?>
<svg xmlns="http://www.w3.org/2000/svg" xmlns:xlink="http://www.w3.org/1999/xlink" width="720pt" height="360pt" viewBox="0 0 720 360" version="1.1">
<defs>
<g>
<symbol overflow="visible" id="glyph0-0">
<path style="stroke:none;" d=""/>
</symbol>
<symbol overflow="visible" id="glyph0-1">
<path style="stroke:none;" d="M 2.640625 -6.796875 C 2 -6.796875 1.421875 -6.53125 1.078125 -6.046875 C 0.640625 -5.453125 0.40625 -4.546875 0.40625 -3.296875 C 0.40625 -1 1.1875 0.21875 2.640625 0.21875 C 4.078125 0.21875 4.859375 -1 4.859375 -3.234375 C 4.859375 -4.5625 4.65625 -5.4375 4.203125 -6.046875 C 3.84375 -6.53125 3.28125 -6.796875 2.640625 -6.796875 Z M 2.640625 -6.046875 C 3.546875 -6.046875 4 -5.125 4 -3.3125 C 4 -1.375 3.5625 -0.484375 2.625 -0.484375 C 1.734375 -0.484375 1.28125 -1.421875 1.28125 -3.28125 C 1.28125 -5.140625 1.734375 -6.046875 2.640625 -6.046875 Z M 2.640625 -6.046875 "/>
</symbol>
<symbol overflow="visible" id="glyph0-2">
<path style="stroke:none;" d="M 1.828125 -1 L 0.828125 -1 L 0.828125 0 L 1.828125 0 Z M 1.828125 -1 "/>
</symbol>
<symbol overflow="visible" id="glyph0-3">
<path style="stroke:none;" d="M 4.5625 -6.796875 L 1.0625 -6.796875 L 0.546875 -3.09375 L 1.328125 -3.09375 C 1.71875 -3.5625 2.046875 -3.734375 2.578125 -3.734375 C 3.484375 -3.734375 4.0625 -3.109375 4.0625 -2.09375 C 4.0625 -1.125 3.484375 -0.53125 2.578125 -0.53125 C 1.828125 -0.53125 1.375 -0.90625 1.1875 -1.671875 L 0.328125 -1.671875 C 0.453125 -1.109375 0.546875 -0.84375 0.75 -0.59375 C 1.125 -0.078125 1.828125 0.21875 2.59375 0.21875 C 3.96875 0.21875 4.921875 -0.78125 4.921875 -2.21875 C 4.921875 -3.5625 4.03125 -4.484375 2.71875 -4.484375 C 2.25 -4.484375 1.859375 -4.359375 1.46875 -4.0625 L 1.734375 -5.96875 L 4.5625 -5.96875 Z M 4.5625 -6.796875 "/>
</symbol>
<symbol overflow="visible" id="glyph0-4">
<path style="stroke:none;" d="M 2.484375 -4.84375 L 2.484375 0 L 3.328125 0 L 3.328125 -6.796875 L 2.765625 -6.796875 C 2.46875 -5.75 2.28125 -5.609375 0.984375 -5.453125 L 0.984375 -4.84375 Z M 2.484375 -4.84375 "/>
</symbol>
<symbol overflow="visible" id="glyph0-5">
<path style="stroke:none;" d="M 4.859375 -0.828125 L 1.28125 -0.828125 C 1.359375 -1.390625 1.671875 -1.75 2.5 -2.234375 L 3.46875 -2.75 C 4.40625 -3.265625 4.90625 -3.96875 4.90625 -4.8125 C 4.90625 -5.375 4.671875 -5.90625 4.265625 -6.265625 C 3.859375 -6.625 3.375 -6.796875 2.71875 -6.796875 C 1.859375 -6.796875 1.21875 -6.5 0.84375 -5.921875 C 0.609375 -5.5625 0.5 -5.125 0.484375 -4.4375 L 1.328125 -4.4375 C 1.359375 -4.90625 1.40625 -5.1875 1.53125 -5.40625 C 1.75 -5.8125 2.1875 -6.0625 2.703125 -6.0625 C 3.46875 -6.0625 4.03125 -5.515625 4.03125 -4.78125 C 4.03125 -4.25 3.71875 -3.796875 3.125 -3.4375 L 2.234375 -2.9375 C 0.8125 -2.140625 0.40625 -1.5 0.328125 0 L 4.859375 0 Z M 4.859375 -0.828125 "/>
</symbol>
<symbol overflow="visible" id="glyph0-6">
<path style="stroke:none;" d="M 2.125 -3.125 L 2.578125 -3.125 C 3.515625 -3.125 3.984375 -2.703125 3.984375 -1.890625 C 3.984375 -1.03125 3.46875 -0.53125 2.578125 -0.53125 C 1.65625 -0.53125 1.203125 -0.984375 1.15625 -1.96875 L 0.3125 -1.96875 C 0.34375 -1.421875 0.4375 -1.078125 0.609375 -0.765625 C 0.953125 -0.109375 1.625 0.21875 2.546875 0.21875 C 3.953125 0.21875 4.859375 -0.609375 4.859375 -1.90625 C 4.859375 -2.765625 4.515625 -3.25 3.703125 -3.515625 C 4.34375 -3.765625 4.65625 -4.25 4.65625 -4.9375 C 4.65625 -6.109375 3.875 -6.796875 2.578125 -6.796875 C 1.203125 -6.796875 0.484375 -6.046875 0.453125 -4.609375 L 1.296875 -4.609375 C 1.3125 -5.015625 1.34375 -5.25 1.453125 -5.453125 C 1.640625 -5.828125 2.0625 -6.0625 2.59375 -6.0625 C 3.34375 -6.0625 3.796875 -5.625 3.796875 -4.90625 C 3.796875 -4.421875 3.609375 -4.140625 3.25 -3.984375 C 3.015625 -3.890625 2.71875 -3.84375 2.125 -3.84375 Z M 2.125 -3.125 "/>
</symbol>
<symbol overflow="visible" id="glyph0-7">
<path style="stroke:none;" d="M 3.140625 -1.625 L 3.140625 0 L 3.984375 0 L 3.984375 -1.625 L 4.984375 -1.625 L 4.984375 -2.390625 L 3.984375 -2.390625 L 3.984375 -6.796875 L 3.359375 -6.796875 L 0.265625 -2.515625 L 0.265625 -1.625 Z M 3.140625 -2.390625 L 1 -2.390625 L 3.140625 -5.359375 Z M 3.140625 -2.390625 "/>
</symbol>
<symbol overflow="visible" id="glyph0-8">
<path style="stroke:none;" d="M 4.78125 -5.03125 C 4.609375 -6.140625 3.890625 -6.796875 2.84375 -6.796875 C 2.09375 -6.796875 1.421875 -6.4375 1.03125 -5.828125 C 0.609375 -5.171875 0.40625 -4.34375 0.40625 -3.09375 C 0.40625 -1.953125 0.578125 -1.234375 0.984375 -0.625 C 1.359375 -0.078125 1.953125 0.21875 2.703125 0.21875 C 3.984375 0.21875 4.921875 -0.734375 4.921875 -2.078125 C 4.921875 -3.34375 4.0625 -4.234375 2.84375 -4.234375 C 2.171875 -4.234375 1.640625 -3.96875 1.28125 -3.46875 C 1.28125 -5.125 1.828125 -6.046875 2.796875 -6.046875 C 3.390625 -6.046875 3.796875 -5.671875 3.9375 -5.03125 Z M 2.734375 -3.484375 C 3.546875 -3.484375 4.0625 -2.921875 4.0625 -2 C 4.0625 -1.15625 3.484375 -0.53125 2.703125 -0.53125 C 1.921875 -0.53125 1.328125 -1.1875 1.328125 -2.046875 C 1.328125 -2.890625 1.90625 -3.484375 2.734375 -3.484375 Z M 2.734375 -3.484375 "/>
</symbol>
<symbol overflow="visible" id="glyph0-9">
<path style="stroke:none;" d="M 4.984375 -6.796875 L 0.4375 -6.796875 L 0.4375 -5.96875 L 4.109375 -5.96875 C 2.5 -3.65625 1.828125 -2.234375 1.328125 0 L 2.21875 0 C 2.59375 -2.171875 3.453125 -4.046875 4.984375 -6.09375 Z M 4.984375 -6.796875 "/>
</symbol>
<symbol overflow="visible" id="glyph0-10">
<path style="stroke:none;" d="M 3.75 -3.578125 C 4.453125 -4 4.6875 -4.34375 4.6875 -4.984375 C 4.6875 -6.046875 3.84375 -6.796875 2.640625 -6.796875 C 1.4375 -6.796875 0.59375 -6.046875 0.59375 -4.984375 C 0.59375 -4.359375 0.828125 -4.015625 1.515625 -3.578125 C 0.734375 -3.203125 0.359375 -2.640625 0.359375 -1.890625 C 0.359375 -0.640625 1.296875 0.21875 2.640625 0.21875 C 3.984375 0.21875 4.921875 -0.640625 4.921875 -1.875 C 4.921875 -2.640625 4.53125 -3.203125 3.75 -3.578125 Z M 2.640625 -6.046875 C 3.359375 -6.046875 3.8125 -5.625 3.8125 -4.96875 C 3.8125 -4.34375 3.34375 -3.921875 2.640625 -3.921875 C 1.921875 -3.921875 1.453125 -4.34375 1.453125 -4.984375 C 1.453125 -5.625 1.921875 -6.046875 2.640625 -6.046875 Z M 2.640625 -3.203125 C 3.484375 -3.203125 4.0625 -2.671875 4.0625 -1.875 C 4.0625 -1.0625 3.484375 -0.53125 2.625 -0.53125 C 1.796875 -0.53125 1.21875 -1.078125 1.21875 -1.875 C 1.21875 -2.671875 1.796875 -3.203125 2.640625 -3.203125 Z M 2.640625 -3.203125 "/>
</symbol>
<symbol overflow="visible" id="glyph0-11">
<path style="stroke:none;" d="M 0.515625 -1.546875 C 0.671875 -0.4375 1.40625 0.21875 2.4375 0.21875 C 3.1875 0.21875 3.859375 -0.140625 4.265625 -0.75 C 4.6875 -1.40625 4.890625 -2.25 4.890625 -3.484375 C 4.890625 -4.625 4.703125 -5.359375 4.3125 -5.953125 C 3.9375 -6.5 3.34375 -6.796875 2.59375 -6.796875 C 1.296875 -6.796875 0.359375 -5.84375 0.359375 -4.515625 C 0.359375 -3.25 1.234375 -2.34375 2.453125 -2.34375 C 3.09375 -2.34375 3.5625 -2.578125 4.015625 -3.109375 C 4 -1.453125 3.46875 -0.53125 2.5 -0.53125 C 1.90625 -0.53125 1.484375 -0.90625 1.359375 -1.546875 Z M 2.578125 -6.0625 C 3.375 -6.0625 3.96875 -5.40625 3.96875 -4.53125 C 3.96875 -3.6875 3.375 -3.09375 2.546875 -3.09375 C 1.734375 -3.09375 1.234375 -3.671875 1.234375 -4.578125 C 1.234375 -5.4375 1.796875 -6.0625 2.578125 -6.0625 Z M 2.578125 -6.0625 "/>
</symbol>
<symbol overflow="visible" id="glyph1-0">
<path style="stroke:none;" d=""/>
</symbol>
<symbol overflow="visible" id="glyph1-1">
<path style="stroke:none;" d="M 0 -0.953125 L 0 -4.890625 C 0 -5.71875 -0.234375 -6.34375 -0.734375 -6.796875 C -1.1875 -7.234375 -1.8125 -7.46875 -2.5 -7.46875 C -3.546875 -7.46875 -4.1875 -7 -4.625 -5.875 C -4.984375 -6.671875 -5.640625 -7.09375 -6.53125 -7.09375 C -7.15625 -7.09375 -7.734375 -6.859375 -8.140625 -6.390625 C -8.5625 -5.9375 -8.75 -5.34375 -8.75 -4.5 L -8.75 -0.953125 Z M -4.984375 -2.0625 L -7.765625 -2.0625 L -7.765625 -4.21875 C -7.765625 -4.84375 -7.6875 -5.203125 -7.453125 -5.5 C -7.21875 -5.8125 -6.859375 -5.96875 -6.375 -5.96875 C -5.90625 -5.96875 -5.53125 -5.8125 -5.296875 -5.5 C -5.0625 -5.203125 -4.984375 -4.84375 -4.984375 -4.21875 Z M -0.984375 -2.0625 L -4 -2.0625 L -4 -4.78125 C -4 -5.328125 -3.859375 -5.6875 -3.578125 -5.953125 C -3.296875 -6.21875 -2.921875 -6.359375 -2.484375 -6.359375 C -2.0625 -6.359375 -1.6875 -6.21875 -1.40625 -5.953125 C -1.109375 -5.6875 -0.984375 -5.328125 -0.984375 -4.78125 Z M -0.984375 -2.0625 "/>
</symbol>
<symbol overflow="visible" id="glyph1-2">
<path style="stroke:none;" d="M -6.28125 -1.796875 L -6.28125 -0.796875 L 0 -0.796875 L 0 -1.796875 Z M -8.75 -1.796875 L -8.75 -0.796875 L -7.484375 -0.796875 L -7.484375 -1.796875 Z M -8.75 -1.796875 "/>
</symbol>
<symbol overflow="visible" id="glyph1-3">
<path style="stroke:none;" d="M -6.28125 -3.046875 L -6.28125 -2.015625 L -8.015625 -2.015625 L -8.015625 -1.015625 L -6.28125 -1.015625 L -6.28125 -0.171875 L -5.46875 -0.171875 L -5.46875 -1.015625 L -0.71875 -1.015625 C -0.078125 -1.015625 0.28125 -1.453125 0.28125 -2.234375 C 0.28125 -2.46875 0.25 -2.71875 0.1875 -3.046875 L -0.640625 -3.046875 C -0.609375 -2.921875 -0.59375 -2.765625 -0.59375 -2.5625 C -0.59375 -2.140625 -0.71875 -2.015625 -1.15625 -2.015625 L -5.46875 -2.015625 L -5.46875 -3.046875 Z M -6.28125 -3.046875 "/>
</symbol>
<symbol overflow="visible" id="glyph1-4">
<path style="stroke:none;" d="M -4.53125 -5.25 C -5.765625 -5.25 -6.46875 -4.421875 -6.46875 -2.96875 C -6.46875 -1.515625 -5.71875 -0.5625 -4.546875 -0.5625 C -3.5625 -0.5625 -3.09375 -1.0625 -2.734375 -2.5625 L -2.515625 -3.484375 C -2.34375 -4.1875 -2.09375 -4.46875 -1.625 -4.46875 C -1.046875 -4.46875 -0.640625 -3.875 -0.640625 -3 C -0.640625 -2.453125 -0.796875 -2 -1.0625 -1.75 C -1.25 -1.59375 -1.421875 -1.53125 -1.875 -1.46875 L -1.875 -0.40625 C -0.421875 -0.453125 0.28125 -1.265625 0.28125 -2.921875 C 0.28125 -4.5 -0.5 -5.515625 -1.71875 -5.515625 C -2.65625 -5.515625 -3.171875 -4.984375 -3.46875 -3.734375 L -3.703125 -2.765625 C -3.890625 -1.953125 -4.15625 -1.609375 -4.59375 -1.609375 C -5.171875 -1.609375 -5.546875 -2.125 -5.546875 -2.9375 C -5.546875 -3.75 -5.203125 -4.171875 -4.53125 -4.203125 Z M -4.53125 -5.25 "/>
</symbol>
</g>
</defs>
<g id="surface112328">
<rect x="0" y="0" width="720" height="360" style="fill:rgb(100%,100%,100%);fill-opacity:1;stroke:none;"/>
<path style=" stroke:none;fill-rule:nonzero;fill:rgb(6.27451%,58.823529%,28.235294%);fill-opacity:1;" d="M 69.628906 311.335938 L 69.6875 311.332031 L 92.722656 305.371094 L 99.722656 305.371094 L 122.875 311.34375 L 114.738281 311.34375 L 108.9375 309.785156 L 83.507812 309.785156 L 77.820312 311.335938 L 69.628906 311.335938 L 85.957031 309.140625 L 106.605469 309.132812 L 96.308594 306.347656 L 96.195312 306.34375 L 96.082031 306.359375 L 85.898438 309.132812 L 85.957031 309.140625 Z M 69.628906 311.335938 "/>
<path style=" stroke:none;fill-rule:nonzero;fill:rgb(14.509804%,36.078431%,60%);fill-opacity:1;" d="M 69.628906 313.328125 L 69.695312 313.324219 L 69.695312 313.285156 L 69.890625 313.21875 L 70.34375 313.140625 L 70.796875 313.082031 L 71.96875 312.984375 L 73.589844 312.886719 L 75.277344 312.8125 L 76.511719 312.769531 L 77.617188 312.734375 L 80.148438 312.671875 L 81.773438 312.640625 L 83.523438 312.613281 L 85.667969 312.582031 L 87.226562 312.566406 L 90.730469 312.539062 L 93.328125 312.527344 L 95.34375 312.523438 L 99.691406 312.523438 L 102.289062 312.53125 L 104.171875 312.539062 L 106.25 312.550781 L 108.003906 312.566406 L 111.054688 312.605469 L 113.78125 312.652344 L 115.015625 312.679688 L 116.964844 312.730469 L 118.457031 312.78125 L 119.496094 312.824219 L 120.664062 312.886719 L 121.703125 312.964844 L 122.484375 313.050781 L 122.875 313.121094 L 113.78125 313.121094 L 113.328125 313.054688 L 112.808594 313.003906 L 111.835938 312.933594 L 110.859375 312.882812 L 109.496094 312.835938 L 108.265625 312.804688 L 106.574219 312.769531 L 105.082031 312.75 L 103.523438 312.734375 L 102.03125 312.726562 L 99.171875 312.714844 L 95.863281 312.714844 L 94.628906 312.71875 L 92.097656 312.730469 L 90.730469 312.742188 L 88.785156 312.769531 L 87.421875 312.789062 L 85.796875 312.824219 L 84.695312 312.851562 L 83.328125 312.894531 L 82.355469 312.933594 L 81.253906 312.992188 L 80.601562 313.03125 L 80.019531 313.082031 L 79.5 313.136719 L 79.109375 313.195312 L 78.851562 313.257812 L 78.71875 313.316406 L 78.71875 313.582031 L 78.851562 313.640625 L 79.175781 313.710938 L 80.019531 313.816406 L 81.253906 313.90625 L 82.679688 313.976562 L 84.042969 314.027344 L 84.824219 314.050781 L 85.863281 314.078125 L 87.484375 314.109375 L 89.824219 314.144531 L 91.1875 314.15625 L 93.265625 314.171875 L 95.40625 314.179688 L 98.265625 314.179688 L 100.796875 314.171875 L 102.484375 314.164062 L 104.238281 314.148438 L 106.640625 314.121094 L 108.132812 314.09375 L 109.433594 314.0625 L 110.40625 314.03125 L 111.054688 314.003906 L 112.03125 313.949219 L 112.808594 313.894531 L 113.394531 313.832031 L 113.78125 313.777344 L 122.875 313.777344 L 122.484375 313.84375 L 121.898438 313.910156 L 121.316406 313.957031 L 120.40625 314.019531 L 119.367188 314.070312 L 117.875 314.128906 L 116.640625 314.167969 L 115.015625 314.210938 L 113.523438 314.242188 L 111.898438 314.269531 L 109.496094 314.304688 L 107.9375 314.320312 L 106.25 314.335938 L 104.238281 314.351562 L 101.707031 314.363281 L 98.976562 314.367188 L 96.445312 314.371094 L 93.71875 314.367188 L 91.707031 314.359375 L 89.042969 314.34375 L 85.730469 314.316406 L 83.328125 314.28125 L 81.445312 314.25 L 79.824219 314.21875 L 78.003906 314.171875 L 75.667969 314.097656 L 74.238281 314.039062 L 73.265625 313.992188 L 72.160156 313.925781 L 71.382812 313.867188 L 70.472656 313.773438 L 69.824219 313.652344 L 69.628906 313.558594 Z M 69.628906 313.328125 "/>
<path style=" stroke:none;fill-rule:nonzero;fill:rgb(96.862745%,70.196078%,16.862745%);fill-opacity:1;" d="M 69.628906 289.203125 L 69.695312 289.191406 L 69.695312 288.941406 L 69.953125 288.382812 L 70.601562 287.613281 L 71.449219 286.976562 L 72.355469 286.480469 L 72.941406 286.21875 L 73.914062 285.847656 L 74.757812 285.574219 L 76.902344 285.015625 L 79.628906 284.492188 L 81.121094 284.269531 L 82.808594 284.058594 L 85.214844 283.824219 L 86.316406 283.734375 L 89.691406 283.539062 L 93.523438 283.414062 L 97.746094 283.375 L 99.691406 283.386719 L 102.355469 283.4375 L 105.992188 283.574219 L 108.070312 283.699219 L 109.691406 283.824219 L 111.378906 283.984375 L 113.457031 284.234375 L 115.40625 284.53125 L 116.964844 284.828125 L 118.523438 285.203125 L 119.820312 285.597656 L 120.925781 286.035156 L 121.898438 286.554688 L 122.484375 286.992188 L 122.875 287.425781 L 113.847656 287.425781 L 113.328125 286.992188 L 112.742188 286.65625 L 111.769531 286.246094 L 110.796875 285.945312 L 109.820312 285.710938 L 108.003906 285.386719 L 106.445312 285.1875 L 104.496094 285.015625 L 102.613281 284.902344 L 100.472656 284.828125 L 99.171875 284.804688 L 95.730469 284.804688 L 92.613281 284.890625 L 90.796875 284.992188 L 89.5 285.089844 L 87.679688 285.277344 L 86.578125 285.425781 L 85.925781 285.523438 L 83.980469 285.910156 L 82.679688 286.257812 L 81.964844 286.492188 L 81.058594 286.867188 L 80.40625 287.203125 L 79.695312 287.699219 L 79.304688 288.070312 L 78.785156 288.917969 L 78.71875 291.152344 L 78.914062 291.625 L 79.304688 292.132812 L 79.824219 292.582031 L 80.601562 293.054688 L 81.382812 293.414062 L 82.746094 293.898438 L 83.914062 294.222656 L 84.824219 294.433594 L 86.578125 294.769531 L 87.289062 294.878906 L 88.980469 295.101562 L 90.730469 295.277344 L 92.875 295.425781 L 94.5 295.5 L 97.09375 295.5625 L 100.40625 295.5625 L 104.304688 295.488281 L 106.769531 295.390625 L 108.457031 295.289062 L 109.5625 295.203125 L 110.925781 295.066406 L 111.898438 294.941406 L 112.808594 294.804688 L 113.914062 294.59375 L 113.914062 291.625 L 97.875 291.613281 L 97.875 290.222656 L 122.808594 290.207031 L 122.875 295.066406 L 121.511719 295.402344 L 119.820312 295.722656 L 118.199219 295.972656 L 116.511719 296.183594 L 114.109375 296.421875 L 112.160156 296.570312 L 109.171875 296.742188 L 106.445312 296.855469 L 103.589844 296.929688 L 101.054688 296.964844 L 98.070312 296.980469 L 95.40625 296.953125 L 92.550781 296.878906 L 90.277344 296.78125 L 88.199219 296.65625 L 86.121094 296.496094 L 83.523438 296.234375 L 81.835938 296.023438 L 80.082031 295.761719 L 78.332031 295.449219 L 76.773438 295.117188 L 75.734375 294.855469 L 74.695312 294.554688 L 73.589844 294.183594 L 72.550781 293.761719 L 71.773438 293.375 L 71.058594 292.941406 L 70.539062 292.53125 L 70.019531 291.972656 L 69.757812 291.523438 L 69.628906 291.140625 Z M 69.628906 289.203125 "/>
<path style=" stroke:none;fill-rule:nonzero;fill:rgb(83.921569%,15.686275%,22.352941%);fill-opacity:1;" d="M 69.628906 298.160156 L 122.875 298.160156 L 122.875 298.804688 L 100.683594 298.808594 L 100.683594 304.191406 L 91.753906 304.191406 L 91.753906 298.816406 L 91.625 298.804688 L 69.628906 298.804688 Z M 69.628906 298.160156 "/>
<path style=" stroke:none;fill-rule:nonzero;fill:rgb(6.27451%,58.823529%,28.235294%);fill-opacity:1;" d="M 125.675781 265.683594 L 125.734375 265.605469 L 148.769531 183.328125 L 155.769531 183.328125 L 178.917969 265.761719 L 170.785156 265.761719 L 164.984375 244.242188 L 139.554688 244.242188 L 133.867188 265.683594 L 125.675781 265.683594 L 142 235.339844 L 162.652344 235.265625 L 152.355469 196.792969 L 152.242188 196.71875 L 152.128906 196.949219 L 141.945312 235.265625 L 142 235.339844 Z M 125.675781 265.683594 "/>
<path style=" stroke:none;fill-rule:nonzero;fill:rgb(14.509804%,36.078431%,60%);fill-opacity:1;" d="M 125.675781 310.816406 L 125.742188 310.816406 L 125.742188 310.753906 L 125.933594 310.65625 L 126.390625 310.535156 L 126.84375 310.449219 L 128.011719 310.300781 L 129.636719 310.15625 L 131.324219 310.042969 L 132.558594 309.976562 L 133.664062 309.925781 L 136.195312 309.832031 L 137.816406 309.785156 L 139.570312 309.742188 L 141.714844 309.699219 L 143.273438 309.671875 L 146.777344 309.632812 L 149.375 309.613281 L 151.390625 309.605469 L 155.738281 309.605469 L 158.335938 309.617188 L 160.21875 309.628906 L 162.296875 309.648438 L 164.050781 309.671875 L 167.101562 309.726562 L 169.828125 309.800781 L 171.0625 309.839844 L 173.011719 309.917969 L 174.503906 309.996094 L 175.542969 310.0625 L 176.710938 310.15625 L 177.75 310.269531 L 178.53125 310.398438 L 178.917969 310.507812 L 169.828125 310.507812 L 169.375 310.40625 L 168.855469 310.328125 L 167.882812 310.222656 L 166.90625 310.152344 L 165.542969 310.078125 L 164.308594 310.027344 L 162.621094 309.980469 L 161.128906 309.949219 L 159.570312 309.925781 L 158.078125 309.910156 L 155.21875 309.894531 L 151.90625 309.894531 L 150.675781 309.902344 L 148.140625 309.921875 L 146.777344 309.9375 L 144.832031 309.976562 L 143.46875 310.007812 L 141.84375 310.058594 L 140.738281 310.101562 L 139.375 310.167969 L 138.402344 310.226562 L 137.296875 310.3125 L 136.648438 310.375 L 136.066406 310.445312 L 135.546875 310.53125 L 135.15625 310.617188 L 134.894531 310.710938 L 134.765625 310.804688 L 134.765625 311.199219 L 134.894531 311.289062 L 135.21875 311.398438 L 136.066406 311.550781 L 137.296875 311.6875 L 138.726562 311.792969 L 140.089844 311.871094 L 140.871094 311.90625 L 141.910156 311.945312 L 143.53125 311.996094 L 145.871094 312.046875 L 147.234375 312.070312 L 149.3125 312.089844 L 151.453125 312.097656 L 154.3125 312.097656 L 156.84375 312.089844 L 158.53125 312.078125 L 160.285156 312.054688 L 162.6875 312.011719 L 164.179688 311.972656 L 165.480469 311.921875 L 166.453125 311.875 L 167.101562 311.835938 L 168.074219 311.753906 L 168.855469 311.667969 L 169.441406 311.582031 L 169.828125 311.492188 L 178.917969 311.492188 L 178.53125 311.59375 L 177.945312 311.695312 L 177.363281 311.769531 L 176.453125 311.859375 L 175.414062 311.9375 L 173.921875 312.027344 L 172.6875 312.085938 L 171.0625 312.148438 L 169.570312 312.195312 L 167.945312 312.238281 L 165.542969 312.289062 L 163.984375 312.316406 L 162.296875 312.339844 L 160.285156 312.359375 L 157.753906 312.375 L 155.023438 312.386719 L 152.492188 312.390625 L 149.765625 312.382812 L 147.753906 312.375 L 145.089844 312.351562 L 141.777344 312.304688 L 139.375 312.257812 L 137.492188 312.207031 L 135.871094 312.15625 L 134.050781 312.089844 L 131.714844 311.976562 L 130.285156 311.890625 L 129.3125 311.820312 L 128.207031 311.71875 L 127.429688 311.632812 L 126.519531 311.488281 L 125.871094 311.308594 L 125.675781 311.167969 Z M 125.675781 310.816406 "/>
<path style=" stroke:none;fill-rule:nonzero;fill:rgb(96.862745%,70.196078%,16.862745%);fill-opacity:1;" d="M 125.675781 284.710938 L 125.742188 284.671875 L 125.742188 283.914062 L 126 282.207031 L 126.648438 279.859375 L 127.492188 277.925781 L 128.402344 276.414062 L 128.988281 275.617188 L 129.960938 274.480469 L 130.804688 273.644531 L 132.949219 271.941406 L 135.675781 270.351562 L 137.167969 269.667969 L 138.855469 269.023438 L 141.257812 268.304688 L 142.363281 268.039062 L 145.738281 267.433594 L 149.570312 267.054688 L 153.792969 266.941406 L 155.738281 266.976562 L 158.402344 267.128906 L 162.039062 267.546875 L 164.117188 267.925781 L 165.738281 268.304688 L 167.425781 268.796875 L 169.503906 269.554688 L 171.453125 270.464844 L 173.011719 271.375 L 174.570312 272.507812 L 175.867188 273.722656 L 176.972656 275.046875 L 177.945312 276.640625 L 178.53125 277.964844 L 178.917969 279.292969 L 169.894531 279.292969 L 169.375 277.964844 L 168.789062 276.941406 L 167.816406 275.691406 L 166.84375 274.78125 L 165.867188 274.0625 L 164.050781 273.078125 L 162.492188 272.472656 L 160.542969 271.941406 L 158.660156 271.601562 L 156.519531 271.375 L 155.21875 271.296875 L 151.777344 271.296875 L 148.660156 271.5625 L 146.84375 271.867188 L 145.542969 272.167969 L 143.726562 272.738281 L 142.621094 273.191406 L 141.972656 273.496094 L 140.027344 274.667969 L 138.726562 275.730469 L 138.011719 276.449219 L 137.105469 277.585938 L 136.453125 278.609375 L 135.738281 280.125 L 135.351562 281.261719 L 134.832031 283.839844 L 134.765625 290.65625 L 134.960938 292.097656 L 135.351562 293.652344 L 135.871094 295.015625 L 136.648438 296.453125 L 137.429688 297.554688 L 138.792969 299.03125 L 139.960938 300.015625 L 140.871094 300.660156 L 142.621094 301.683594 L 143.335938 302.023438 L 145.023438 302.707031 L 146.777344 303.234375 L 148.921875 303.691406 L 150.542969 303.917969 L 153.140625 304.105469 L 156.453125 304.105469 L 160.347656 303.878906 L 162.816406 303.578125 L 164.503906 303.273438 L 165.609375 303.007812 L 166.972656 302.59375 L 167.945312 302.214844 L 168.855469 301.796875 L 169.960938 301.152344 L 169.960938 292.097656 L 153.921875 292.058594 L 153.921875 287.816406 L 178.855469 287.777344 L 178.917969 302.59375 L 177.554688 303.613281 L 175.867188 304.601562 L 174.246094 305.359375 L 172.554688 306 L 170.152344 306.722656 L 168.207031 307.175781 L 165.21875 307.707031 L 162.492188 308.046875 L 159.636719 308.273438 L 157.101562 308.386719 L 154.117188 308.425781 L 151.453125 308.351562 L 148.597656 308.125 L 146.324219 307.820312 L 144.246094 307.441406 L 142.167969 306.949219 L 139.570312 306.152344 L 137.882812 305.507812 L 136.128906 304.714844 L 134.375 303.765625 L 132.816406 302.742188 L 131.777344 301.949219 L 130.742188 301.039062 L 129.636719 299.902344 L 128.597656 298.613281 L 127.820312 297.4375 L 127.105469 296.113281 L 126.585938 294.863281 L 126.066406 293.15625 L 125.804688 291.792969 L 125.675781 290.621094 Z M 125.675781 284.710938 "/>
<path style=" stroke:none;fill-rule:nonzero;fill:rgb(83.921569%,15.686275%,22.352941%);fill-opacity:1;" d="M 125.675781 313.570312 L 178.917969 313.570312 L 178.917969 313.65625 L 156.730469 313.65625 L 156.730469 314.371094 L 147.800781 314.371094 L 147.800781 313.65625 L 125.675781 313.65625 Z M 125.675781 313.570312 "/>
<path style=" stroke:none;fill-rule:nonzero;fill:rgb(6.27451%,58.823529%,28.235294%);fill-opacity:1;" d="M 181.722656 314.371094 L 181.777344 314.371094 L 204.816406 313.78125 L 211.8125 313.78125 L 234.964844 314.371094 L 226.832031 314.371094 L 221.03125 314.214844 L 195.601562 314.214844 L 189.914062 314.371094 L 181.722656 314.371094 L 198.046875 314.152344 L 218.695312 314.152344 L 208.402344 313.878906 L 208.289062 313.875 L 208.171875 313.878906 L 197.992188 314.152344 L 198.046875 314.152344 Z M 181.722656 314.371094 "/>
<path style=" stroke:none;fill-rule:nonzero;fill:rgb(14.509804%,36.078431%,60%);fill-opacity:1;" d="M 181.722656 309.574219 L 181.785156 309.574219 L 181.785156 309.550781 L 181.980469 309.507812 L 182.4375 309.457031 L 182.890625 309.421875 L 184.058594 309.355469 L 185.683594 309.296875 L 187.371094 309.25 L 188.605469 309.21875 L 189.707031 309.199219 L 192.242188 309.160156 L 193.863281 309.136719 L 195.617188 309.121094 L 197.761719 309.101562 L 199.320312 309.089844 L 202.824219 309.074219 L 205.421875 309.066406 L 207.433594 309.0625 L 211.785156 309.0625 L 214.382812 309.066406 L 216.265625 309.074219 L 218.34375 309.082031 L 220.097656 309.089844 L 223.148438 309.113281 L 225.875 309.144531 L 227.109375 309.160156 L 229.058594 309.195312 L 230.550781 309.226562 L 231.589844 309.253906 L 232.757812 309.296875 L 233.796875 309.34375 L 234.578125 309.398438 L 234.964844 309.445312 L 225.875 309.445312 L 225.421875 309.402344 L 224.902344 309.367188 L 223.925781 309.324219 L 222.953125 309.292969 L 221.589844 309.261719 L 220.355469 309.242188 L 218.667969 309.222656 L 217.175781 309.207031 L 215.617188 309.199219 L 214.121094 309.191406 L 211.265625 309.1875 L 206.722656 309.1875 L 204.1875 309.195312 L 202.824219 309.203125 L 200.875 309.21875 L 199.511719 309.234375 L 197.890625 309.253906 L 196.785156 309.273438 L 195.421875 309.300781 L 194.449219 309.324219 L 193.34375 309.363281 L 192.695312 309.386719 L 192.109375 309.417969 L 191.589844 309.453125 L 191.203125 309.492188 L 190.941406 309.53125 L 190.8125 309.570312 L 190.8125 309.738281 L 190.941406 309.777344 L 191.265625 309.820312 L 192.109375 309.886719 L 193.34375 309.945312 L 194.773438 309.988281 L 196.136719 310.023438 L 196.917969 310.039062 L 197.953125 310.054688 L 199.578125 310.078125 L 201.914062 310.097656 L 203.28125 310.105469 L 205.355469 310.113281 L 207.5 310.121094 L 210.355469 310.121094 L 212.890625 310.113281 L 214.578125 310.109375 L 216.332031 310.101562 L 218.734375 310.082031 L 220.226562 310.066406 L 221.523438 310.046875 L 222.5 310.023438 L 223.148438 310.007812 L 224.121094 309.972656 L 224.902344 309.9375 L 225.484375 309.898438 L 225.875 309.863281 L 234.964844 309.863281 L 234.578125 309.90625 L 233.992188 309.949219 L 233.40625 309.980469 L 232.5 310.015625 L 231.460938 310.050781 L 229.964844 310.089844 L 228.734375 310.113281 L 227.109375 310.140625 L 225.617188 310.160156 L 223.992188 310.179688 L 221.589844 310.199219 L 220.03125 310.210938 L 218.34375 310.21875 L 216.332031 310.230469 L 213.796875 310.238281 L 211.070312 310.242188 L 208.539062 310.242188 L 205.8125 310.238281 L 203.800781 310.234375 L 201.136719 310.226562 L 197.824219 310.207031 L 195.421875 310.1875 L 193.539062 310.164062 L 191.917969 310.144531 L 190.097656 310.113281 L 187.761719 310.066406 L 186.332031 310.03125 L 185.359375 310 L 184.253906 309.957031 L 183.476562 309.921875 L 182.566406 309.859375 L 181.917969 309.785156 L 181.722656 309.726562 Z M 181.722656 309.574219 "/>
<path style=" stroke:none;fill-rule:nonzero;fill:rgb(96.862745%,70.196078%,16.862745%);fill-opacity:1;" d="M 181.722656 311.925781 L 181.785156 311.925781 L 181.785156 311.90625 L 182.046875 311.855469 L 182.695312 311.789062 L 183.539062 311.734375 L 184.449219 311.691406 L 185.035156 311.667969 L 186.007812 311.636719 L 186.851562 311.613281 L 188.996094 311.5625 L 191.722656 311.519531 L 193.214844 311.5 L 194.902344 311.480469 L 197.304688 311.460938 L 198.410156 311.453125 L 201.785156 311.4375 L 205.617188 311.425781 L 209.835938 311.421875 L 211.785156 311.421875 L 214.449219 311.425781 L 218.082031 311.4375 L 220.160156 311.449219 L 221.785156 311.460938 L 223.472656 311.472656 L 225.550781 311.496094 L 227.5 311.523438 L 229.058594 311.546875 L 230.617188 311.582031 L 231.914062 311.613281 L 233.019531 311.652344 L 233.992188 311.699219 L 234.578125 311.734375 L 234.964844 311.773438 L 225.941406 311.773438 L 225.421875 311.734375 L 224.835938 311.707031 L 223.863281 311.671875 L 222.890625 311.644531 L 221.914062 311.625 L 220.097656 311.597656 L 218.539062 311.578125 L 216.589844 311.5625 L 214.707031 311.554688 L 212.566406 311.546875 L 207.824219 311.546875 L 204.707031 311.554688 L 202.890625 311.5625 L 201.589844 311.570312 L 199.773438 311.585938 L 198.667969 311.597656 L 198.019531 311.609375 L 196.070312 311.640625 L 194.773438 311.671875 L 194.058594 311.691406 L 193.148438 311.722656 L 192.5 311.753906 L 191.785156 311.796875 L 191.398438 311.828125 L 190.878906 311.902344 L 190.8125 312.097656 L 191.007812 312.136719 L 191.398438 312.179688 L 191.917969 312.21875 L 192.695312 312.261719 L 193.476562 312.292969 L 194.839844 312.335938 L 196.007812 312.363281 L 196.917969 312.378906 L 198.667969 312.410156 L 199.382812 312.417969 L 201.070312 312.4375 L 202.824219 312.453125 L 204.96875 312.464844 L 206.589844 312.472656 L 209.1875 312.480469 L 212.5 312.480469 L 216.394531 312.472656 L 218.863281 312.464844 L 220.550781 312.453125 L 221.65625 312.449219 L 223.019531 312.433594 L 223.992188 312.425781 L 224.902344 312.414062 L 226.003906 312.394531 L 226.003906 312.136719 L 209.96875 312.136719 L 209.96875 312.015625 L 234.902344 312.015625 L 234.964844 312.433594 L 233.601562 312.464844 L 231.914062 312.492188 L 230.292969 312.515625 L 228.601562 312.53125 L 226.199219 312.554688 L 224.253906 312.566406 L 221.265625 312.582031 L 218.539062 312.589844 L 215.679688 312.597656 L 213.148438 312.601562 L 210.164062 312.601562 L 207.5 312.597656 L 204.644531 312.59375 L 202.371094 312.585938 L 200.292969 312.574219 L 198.214844 312.558594 L 195.617188 312.535156 L 193.929688 312.519531 L 192.175781 312.496094 L 190.421875 312.46875 L 188.863281 312.441406 L 187.824219 312.417969 L 186.785156 312.390625 L 185.683594 312.359375 L 184.644531 312.324219 L 183.863281 312.289062 L 183.152344 312.25 L 182.632812 312.214844 L 182.113281 312.167969 L 181.851562 312.128906 L 181.722656 312.09375 Z M 181.722656 311.925781 "/>
<path style=" stroke:none;fill-rule:nonzero;fill:rgb(83.921569%,15.686275%,22.352941%);fill-opacity:1;" d="M 181.722656 20.664062 L 234.964844 20.664062 L 234.964844 51.40625 L 212.777344 51.675781 L 212.777344 307.882812 L 203.847656 307.882812 L 203.847656 51.945312 L 203.71875 51.40625 L 181.722656 51.40625 Z M 181.722656 20.664062 "/>
<path style=" stroke:none;fill-rule:nonzero;fill:rgb(6.27451%,58.823529%,28.235294%);fill-opacity:1;" d="M 237.769531 314.371094 L 237.824219 314.371094 L 260.863281 313.84375 L 267.859375 313.84375 L 291.011719 314.371094 L 282.878906 314.371094 L 277.074219 314.234375 L 251.648438 314.234375 L 245.960938 314.371094 L 237.769531 314.371094 L 254.09375 314.175781 L 274.742188 314.175781 L 264.449219 313.929688 L 264.21875 313.929688 L 254.039062 314.175781 L 254.09375 314.175781 Z M 237.769531 314.371094 "/>
<path style=" stroke:none;fill-rule:nonzero;fill:rgb(14.509804%,36.078431%,60%);fill-opacity:1;" d="M 237.769531 311.398438 L 237.832031 311.398438 L 237.832031 311.347656 L 238.027344 311.269531 L 238.484375 311.171875 L 238.9375 311.105469 L 240.105469 310.984375 L 241.730469 310.867188 L 243.417969 310.777344 L 244.652344 310.722656 L 245.753906 310.683594 L 248.289062 310.605469 L 249.910156 310.570312 L 251.664062 310.535156 L 253.804688 310.5 L 255.363281 310.476562 L 258.871094 310.445312 L 261.46875 310.429688 L 263.480469 310.425781 L 267.832031 310.425781 L 270.429688 310.433594 L 272.3125 310.445312 L 274.390625 310.460938 L 276.144531 310.476562 L 279.195312 310.523438 L 281.921875 310.582031 L 283.15625 310.613281 L 285.105469 310.675781 L 286.597656 310.738281 L 287.636719 310.792969 L 288.804688 310.867188 L 289.84375 310.957031 L 290.621094 311.0625 L 291.011719 311.152344 L 281.921875 311.152344 L 281.46875 311.070312 L 280.949219 311.007812 L 279.972656 310.921875 L 279 310.863281 L 277.636719 310.804688 L 276.402344 310.765625 L 274.714844 310.726562 L 273.222656 310.703125 L 271.664062 310.683594 L 270.167969 310.671875 L 267.3125 310.660156 L 264 310.660156 L 262.765625 310.664062 L 260.234375 310.679688 L 258.871094 310.691406 L 256.921875 310.722656 L 255.558594 310.75 L 253.9375 310.789062 L 252.832031 310.824219 L 251.46875 310.878906 L 250.496094 310.925781 L 249.390625 310.992188 L 248.742188 311.042969 L 248.15625 311.101562 L 247.636719 311.167969 L 247.25 311.238281 L 246.988281 311.316406 L 246.859375 311.386719 L 246.859375 311.707031 L 246.988281 311.777344 L 247.3125 311.863281 L 248.15625 311.988281 L 249.390625 312.097656 L 250.820312 312.183594 L 252.183594 312.246094 L 252.960938 312.273438 L 254 312.304688 L 255.625 312.347656 L 257.960938 312.386719 L 259.324219 312.40625 L 261.402344 312.421875 L 263.546875 312.429688 L 266.402344 312.429688 L 268.9375 312.421875 L 270.625 312.410156 L 272.378906 312.394531 L 274.78125 312.359375 L 276.273438 312.328125 L 277.570312 312.289062 L 278.546875 312.25 L 279.195312 312.214844 L 280.167969 312.152344 L 280.949219 312.082031 L 281.53125 312.011719 L 281.921875 311.941406 L 291.011719 311.941406 L 290.621094 312.023438 L 290.039062 312.105469 L 289.453125 312.164062 L 288.546875 312.234375 L 287.507812 312.296875 L 286.011719 312.371094 L 284.777344 312.417969 L 283.15625 312.46875 L 281.664062 312.507812 L 280.039062 312.542969 L 277.636719 312.582031 L 276.078125 312.601562 L 274.390625 312.621094 L 272.378906 312.636719 L 269.84375 312.652344 L 267.117188 312.660156 L 264.585938 312.664062 L 261.859375 312.660156 L 259.84375 312.648438 L 257.183594 312.632812 L 253.871094 312.59375 L 251.46875 312.554688 L 249.585938 312.515625 L 247.960938 312.476562 L 246.144531 312.421875 L 243.808594 312.332031 L 242.378906 312.261719 L 241.40625 312.203125 L 240.300781 312.125 L 239.523438 312.054688 L 238.613281 311.9375 L 237.964844 311.792969 L 237.769531 311.679688 Z M 237.769531 311.398438 "/>
<path style=" stroke:none;fill-rule:nonzero;fill:rgb(96.862745%,70.196078%,16.862745%);fill-opacity:1;" d="M 237.769531 166.851562 L 237.832031 166.648438 L 237.832031 162.582031 L 238.09375 153.433594 L 238.742188 140.828125 L 239.585938 130.460938 L 240.496094 122.328125 L 241.078125 118.058594 L 242.054688 111.960938 L 242.898438 107.488281 L 245.039062 98.339844 L 247.769531 89.800781 L 249.261719 86.140625 L 250.949219 82.683594 L 253.351562 78.820312 L 254.457031 77.398438 L 257.832031 74.144531 L 261.664062 72.113281 L 265.882812 71.503906 L 267.832031 71.707031 L 270.492188 72.519531 L 274.128906 74.757812 L 276.207031 76.789062 L 277.832031 78.820312 L 279.519531 81.464844 L 281.597656 85.53125 L 283.546875 90.410156 L 285.105469 95.289062 L 286.660156 101.386719 L 287.960938 107.894531 L 289.066406 115.007812 L 290.039062 123.546875 L 290.621094 130.664062 L 291.011719 137.777344 L 281.988281 137.777344 L 281.46875 130.664062 L 280.882812 125.175781 L 279.910156 118.464844 L 278.933594 113.585938 L 277.960938 109.722656 L 276.144531 104.4375 L 274.585938 101.183594 L 272.636719 98.339844 L 270.753906 96.507812 L 268.609375 95.289062 L 267.3125 94.882812 L 263.871094 94.882812 L 260.753906 96.304688 L 258.9375 97.933594 L 257.636719 99.558594 L 255.820312 102.609375 L 254.714844 105.046875 L 254.066406 106.675781 L 252.117188 112.976562 L 250.820312 118.667969 L 250.105469 122.53125 L 249.195312 128.628906 L 248.546875 134.121094 L 247.832031 142.25 L 247.441406 148.351562 L 246.921875 162.175781 L 246.859375 198.769531 L 247.054688 206.492188 L 247.441406 214.828125 L 247.960938 222.148438 L 248.742188 229.871094 L 249.519531 235.769531 L 250.882812 243.695312 L 252.054688 248.984375 L 252.960938 252.4375 L 254.714844 257.925781 L 255.429688 259.757812 L 257.117188 263.417969 L 258.871094 266.261719 L 261.015625 268.703125 L 262.636719 269.921875 L 265.234375 270.9375 L 268.546875 270.9375 L 272.441406 269.71875 L 274.910156 268.09375 L 276.597656 266.464844 L 277.703125 265.042969 L 279.066406 262.808594 L 280.039062 260.773438 L 280.949219 258.539062 L 282.050781 255.082031 L 282.050781 206.492188 L 266.015625 206.289062 L 266.015625 183.519531 L 290.949219 183.316406 L 291.011719 262.808594 L 289.648438 268.296875 L 287.960938 273.582031 L 286.335938 277.648438 L 284.648438 281.105469 L 282.246094 284.964844 L 280.296875 287.40625 L 277.3125 290.253906 L 274.585938 292.082031 L 271.726562 293.300781 L 269.195312 293.910156 L 266.207031 294.113281 L 263.546875 293.707031 L 260.6875 292.488281 L 258.417969 290.863281 L 256.339844 288.828125 L 254.261719 286.1875 L 251.664062 281.917969 L 249.976562 278.460938 L 248.222656 274.191406 L 246.46875 269.109375 L 244.910156 263.621094 L 243.871094 259.351562 L 242.832031 254.472656 L 241.730469 248.371094 L 240.691406 241.460938 L 239.910156 235.160156 L 239.195312 228.042969 L 238.675781 221.335938 L 238.15625 212.1875 L 237.898438 204.867188 L 237.769531 198.566406 Z M 237.769531 166.851562 "/>
<path style=" stroke:none;fill-rule:nonzero;fill:rgb(83.921569%,15.686275%,22.352941%);fill-opacity:1;" d="M 237.769531 295.292969 L 291.011719 295.292969 L 291.011719 296.789062 L 268.820312 296.800781 L 268.820312 309.246094 L 259.894531 309.246094 L 259.894531 296.8125 L 259.765625 296.789062 L 237.769531 296.789062 Z M 237.769531 295.292969 "/>
<path style=" stroke:none;fill-rule:nonzero;fill:rgb(6.27451%,58.823529%,28.235294%);fill-opacity:1;" d="M 293.816406 303.523438 L 293.871094 303.273438 L 316.910156 36.445312 L 323.90625 36.445312 L 347.058594 303.773438 L 338.925781 303.773438 L 333.121094 233.992188 L 307.695312 233.992188 L 302.007812 303.523438 L 293.816406 303.523438 L 310.140625 205.128906 L 330.789062 204.875 L 320.492188 80.121094 L 320.378906 79.871094 L 320.265625 80.625 L 310.082031 204.875 L 310.140625 205.128906 Z M 293.816406 303.523438 "/>
<path style=" stroke:none;fill-rule:nonzero;fill:rgb(14.509804%,36.078431%,60%);fill-opacity:1;" d="M 293.816406 314.09375 L 293.878906 314.089844 L 293.878906 314.082031 L 294.074219 314.0625 L 294.527344 314.042969 L 294.984375 314.027344 L 296.152344 314 L 297.777344 313.976562 L 299.464844 313.953125 L 300.699219 313.941406 L 301.800781 313.933594 L 304.332031 313.917969 L 305.957031 313.910156 L 307.710938 313.902344 L 309.851562 313.894531 L 311.410156 313.890625 L 314.917969 313.882812 L 317.515625 313.878906 L 326.476562 313.878906 L 328.359375 313.882812 L 330.4375 313.886719 L 332.191406 313.890625 L 335.242188 313.898438 L 337.96875 313.910156 L 339.203125 313.917969 L 341.148438 313.933594 L 342.644531 313.945312 L 343.683594 313.957031 L 344.851562 313.976562 L 345.890625 313.996094 L 346.667969 314.019531 L 347.058594 314.039062 L 337.96875 314.039062 L 337.515625 314.019531 L 336.996094 314.003906 L 336.019531 313.988281 L 335.046875 313.972656 L 333.683594 313.960938 L 332.449219 313.953125 L 330.761719 313.945312 L 329.265625 313.9375 L 327.710938 313.933594 L 326.214844 313.929688 L 318.8125 313.929688 L 316.28125 313.933594 L 314.917969 313.9375 L 312.96875 313.941406 L 311.605469 313.949219 L 309.984375 313.957031 L 308.878906 313.964844 L 307.515625 313.976562 L 306.542969 313.988281 L 305.4375 314.003906 L 304.789062 314.011719 L 304.203125 314.027344 L 303.683594 314.039062 L 303.292969 314.058594 L 303.035156 314.074219 L 302.90625 314.089844 L 302.90625 314.160156 L 303.035156 314.175781 L 303.359375 314.195312 L 304.203125 314.222656 L 305.4375 314.246094 L 306.867188 314.265625 L 308.230469 314.277344 L 309.007812 314.285156 L 310.046875 314.292969 L 311.671875 314.300781 L 314.007812 314.308594 L 315.371094 314.3125 L 317.449219 314.316406 L 319.59375 314.320312 L 322.449219 314.320312 L 324.980469 314.316406 L 326.671875 314.316406 L 328.421875 314.3125 L 330.824219 314.304688 L 332.320312 314.296875 L 333.617188 314.289062 L 334.59375 314.28125 L 335.242188 314.273438 L 336.214844 314.257812 L 336.996094 314.242188 L 337.578125 314.226562 L 337.96875 314.210938 L 347.058594 314.210938 L 346.667969 314.230469 L 346.085938 314.246094 L 345.5 314.261719 L 344.589844 314.277344 L 343.550781 314.289062 L 342.058594 314.304688 L 340.824219 314.316406 L 339.203125 314.328125 L 337.707031 314.335938 L 336.085938 314.34375 L 333.683594 314.351562 L 332.125 314.359375 L 330.4375 314.363281 L 328.421875 314.367188 L 325.890625 314.367188 L 323.164062 314.371094 L 317.90625 314.371094 L 315.890625 314.367188 L 313.230469 314.363281 L 309.917969 314.355469 L 307.515625 314.347656 L 305.632812 314.339844 L 304.007812 314.328125 L 302.191406 314.316406 L 299.851562 314.296875 L 298.425781 314.28125 L 297.449219 314.269531 L 296.347656 314.253906 L 295.566406 314.234375 L 294.660156 314.210938 L 294.007812 314.179688 L 293.816406 314.152344 Z M 293.816406 314.09375 "/>
<path style=" stroke:none;fill-rule:nonzero;fill:rgb(96.862745%,70.196078%,16.862745%);fill-opacity:1;" d="M 293.816406 311.9375 L 293.878906 311.9375 L 293.878906 311.910156 L 294.140625 311.855469 L 294.789062 311.78125 L 295.632812 311.71875 L 296.542969 311.671875 L 297.125 311.644531 L 298.101562 311.609375 L 298.945312 311.582031 L 301.085938 311.527344 L 303.8125 311.476562 L 305.308594 311.457031 L 306.996094 311.433594 L 309.398438 311.410156 L 310.503906 311.402344 L 313.878906 311.382812 L 317.710938 311.371094 L 321.929688 311.367188 L 323.878906 311.367188 L 326.539062 311.375 L 330.175781 311.386719 L 332.253906 311.398438 L 333.878906 311.410156 L 335.566406 311.425781 L 337.644531 311.453125 L 339.589844 311.480469 L 341.148438 311.511719 L 342.707031 311.546875 L 344.007812 311.585938 L 345.109375 311.628906 L 346.085938 311.679688 L 346.667969 311.722656 L 347.058594 311.765625 L 338.035156 311.765625 L 337.515625 311.722656 L 336.929688 311.6875 L 335.957031 311.648438 L 334.980469 311.621094 L 334.007812 311.597656 L 332.191406 311.566406 L 330.632812 311.546875 L 328.683594 311.527344 L 326.800781 311.515625 L 324.65625 311.511719 L 323.359375 311.507812 L 319.917969 311.507812 L 316.800781 311.515625 L 314.984375 311.527344 L 313.683594 311.535156 L 311.867188 311.554688 L 310.761719 311.566406 L 310.113281 311.578125 L 308.164062 311.617188 L 306.867188 311.648438 L 306.152344 311.671875 L 305.242188 311.710938 L 304.59375 311.742188 L 303.878906 311.789062 L 303.488281 311.828125 L 302.96875 311.910156 L 302.90625 312.128906 L 303.101562 312.175781 L 303.488281 312.222656 L 304.007812 312.269531 L 304.789062 312.3125 L 305.566406 312.347656 L 306.929688 312.398438 L 308.101562 312.429688 L 309.007812 312.449219 L 310.761719 312.480469 L 311.476562 312.492188 L 313.164062 312.515625 L 314.917969 312.53125 L 317.058594 312.546875 L 318.683594 312.554688 L 321.28125 312.558594 L 324.59375 312.558594 L 328.488281 312.550781 L 330.957031 312.542969 L 332.644531 312.53125 L 333.746094 312.523438 L 335.113281 312.511719 L 336.085938 312.5 L 336.996094 312.484375 L 338.097656 312.464844 L 338.097656 312.175781 L 322.058594 312.171875 L 322.058594 312.035156 L 346.992188 312.035156 L 347.058594 312.511719 L 345.695312 312.542969 L 344.007812 312.574219 L 342.382812 312.597656 L 340.695312 312.621094 L 338.292969 312.644531 L 336.34375 312.65625 L 333.359375 312.675781 L 330.632812 312.6875 L 327.773438 312.691406 L 325.242188 312.695312 L 322.253906 312.699219 L 319.59375 312.695312 L 316.734375 312.6875 L 314.464844 312.679688 L 312.386719 312.667969 L 310.308594 312.648438 L 307.710938 312.625 L 306.023438 312.605469 L 304.269531 312.578125 L 302.515625 312.546875 L 300.957031 312.515625 L 298.878906 312.460938 L 297.777344 312.425781 L 296.738281 312.382812 L 295.957031 312.34375 L 295.242188 312.304688 L 294.722656 312.261719 L 294.203125 312.207031 L 293.945312 312.164062 L 293.816406 312.125 Z M 293.816406 311.9375 "/>
<path style=" stroke:none;fill-rule:nonzero;fill:rgb(83.921569%,15.686275%,22.352941%);fill-opacity:1;" d="M 293.816406 304.953125 L 347.058594 304.953125 L 347.058594 305.515625 L 324.867188 305.519531 L 324.867188 310.1875 L 315.941406 310.1875 L 315.941406 305.523438 L 315.8125 305.515625 L 293.816406 305.515625 Z M 293.816406 304.953125 "/>
<path style=" stroke:none;fill-rule:nonzero;fill:rgb(6.27451%,58.823529%,28.235294%);fill-opacity:1;" d="M 349.859375 314.371094 L 349.917969 314.367188 L 372.957031 312.988281 L 379.953125 312.988281 L 403.105469 314.371094 L 394.972656 314.371094 L 389.167969 314.007812 L 363.742188 314.007812 L 358.050781 314.371094 L 349.859375 314.371094 L 366.1875 313.859375 L 386.835938 313.859375 L 376.539062 313.214844 L 376.425781 313.210938 L 376.3125 313.214844 L 366.128906 313.859375 L 366.1875 313.859375 Z M 349.859375 314.371094 "/>
<path style=" stroke:none;fill-rule:nonzero;fill:rgb(14.509804%,36.078431%,60%);fill-opacity:1;" d="M 349.859375 173.914062 L 349.925781 173.722656 L 349.925781 169.117188 L 350.121094 161.828125 L 350.574219 152.621094 L 351.03125 146.289062 L 352.199219 134.96875 L 353.820312 124.035156 L 355.511719 115.59375 L 356.742188 110.605469 L 357.847656 106.769531 L 360.378906 99.671875 L 362.003906 96.027344 L 363.757812 92.765625 L 365.898438 89.503906 L 367.457031 87.585938 L 370.964844 84.515625 L 373.5625 83.171875 L 375.574219 82.597656 L 379.925781 82.597656 L 382.523438 83.363281 L 384.40625 84.324219 L 386.484375 85.859375 L 388.234375 87.585938 L 391.289062 91.804688 L 394.015625 97.175781 L 395.25 100.246094 L 397.195312 106.195312 L 398.691406 111.949219 L 399.730469 116.9375 L 400.898438 124.035156 L 401.9375 132.667969 L 402.714844 142.453125 L 403.105469 150.703125 L 394.015625 150.703125 L 393.558594 143.027344 L 393.039062 137.082031 L 392.066406 129.214844 L 391.09375 123.652344 L 389.730469 118.089844 L 388.496094 114.441406 L 386.808594 110.796875 L 385.3125 108.496094 L 383.753906 106.769531 L 382.261719 105.617188 L 379.40625 104.46875 L 376.09375 104.46875 L 374.859375 104.851562 L 372.328125 106.386719 L 370.964844 107.730469 L 369.015625 110.414062 L 367.652344 112.910156 L 366.027344 116.746094 L 364.925781 120.007812 L 363.5625 124.996094 L 362.585938 129.40625 L 361.484375 135.738281 L 360.835938 140.535156 L 360.25 145.90625 L 359.730469 152.234375 L 359.339844 158.949219 L 359.082031 166.046875 L 358.953125 172.957031 L 358.953125 202.691406 L 359.082031 209.597656 L 359.40625 217.65625 L 360.25 229.355469 L 361.484375 239.523438 L 362.914062 247.582031 L 364.277344 253.335938 L 365.054688 256.023438 L 366.09375 259.09375 L 367.71875 262.929688 L 370.054688 266.765625 L 371.417969 268.300781 L 373.496094 269.835938 L 375.640625 270.601562 L 378.496094 270.601562 L 381.027344 269.835938 L 382.714844 268.875 L 384.46875 267.339844 L 386.871094 264.082031 L 388.367188 261.011719 L 389.664062 257.367188 L 390.636719 253.722656 L 391.289062 250.652344 L 392.261719 244.703125 L 393.039062 238.179688 L 393.625 231.46875 L 394.015625 224.945312 L 403.105469 224.945312 L 402.714844 232.617188 L 402.132812 240.101562 L 401.546875 245.664062 L 400.636719 252.378906 L 399.597656 258.324219 L 398.105469 265.039062 L 396.871094 269.453125 L 395.25 274.246094 L 393.753906 277.894531 L 392.132812 281.15625 L 389.730469 284.992188 L 388.171875 286.910156 L 386.484375 288.636719 L 384.46875 290.171875 L 381.9375 291.515625 L 379.210938 292.28125 L 376.679688 292.472656 L 373.949219 292.089844 L 371.9375 291.320312 L 369.277344 289.59375 L 365.964844 286.140625 L 363.5625 282.496094 L 361.679688 278.851562 L 360.054688 275.015625 L 358.238281 269.835938 L 355.898438 261.394531 L 354.472656 254.871094 L 353.496094 249.5 L 352.394531 242.019531 L 351.613281 235.304688 L 350.707031 224.5625 L 350.054688 210.941406 L 349.859375 200.386719 Z M 349.859375 173.914062 "/>
<path style=" stroke:none;fill-rule:nonzero;fill:rgb(96.862745%,70.196078%,16.862745%);fill-opacity:1;" d="M 349.859375 309.550781 L 349.925781 309.550781 L 349.925781 309.476562 L 350.1875 309.316406 L 350.835938 309.089844 L 351.679688 308.90625 L 352.589844 308.761719 L 353.171875 308.6875 L 354.148438 308.578125 L 354.992188 308.5 L 357.132812 308.339844 L 359.859375 308.1875 L 361.355469 308.121094 L 363.042969 308.0625 L 365.445312 307.992188 L 366.546875 307.96875 L 369.925781 307.910156 L 373.757812 307.875 L 377.976562 307.863281 L 379.925781 307.867188 L 382.585938 307.878906 L 386.222656 307.921875 L 388.300781 307.957031 L 389.925781 307.992188 L 391.613281 308.039062 L 393.691406 308.113281 L 395.636719 308.199219 L 397.195312 308.285156 L 398.753906 308.390625 L 400.054688 308.507812 L 401.15625 308.632812 L 402.132812 308.785156 L 402.714844 308.910156 L 403.105469 309.039062 L 394.078125 309.039062 L 393.558594 308.910156 L 392.976562 308.8125 L 392 308.695312 L 391.027344 308.609375 L 390.054688 308.539062 L 388.234375 308.445312 L 386.675781 308.390625 L 384.730469 308.339844 L 382.847656 308.304688 L 380.703125 308.285156 L 379.40625 308.277344 L 375.964844 308.277344 L 372.847656 308.300781 L 371.027344 308.332031 L 369.730469 308.359375 L 367.914062 308.414062 L 366.808594 308.457031 L 366.160156 308.484375 L 364.210938 308.597656 L 362.914062 308.699219 L 362.199219 308.765625 L 361.289062 308.875 L 360.640625 308.972656 L 359.925781 309.117188 L 359.535156 309.226562 L 359.015625 309.46875 L 358.953125 310.117188 L 359.144531 310.253906 L 359.535156 310.402344 L 360.054688 310.53125 L 360.835938 310.667969 L 361.613281 310.773438 L 362.976562 310.914062 L 364.144531 311.007812 L 365.054688 311.070312 L 366.808594 311.167969 L 367.523438 311.199219 L 369.210938 311.265625 L 370.964844 311.316406 L 373.105469 311.359375 L 374.730469 311.378906 L 377.328125 311.398438 L 380.640625 311.398438 L 384.535156 311.375 L 387.003906 311.347656 L 388.691406 311.316406 L 389.792969 311.292969 L 391.15625 311.253906 L 392.132812 311.21875 L 393.039062 311.175781 L 394.144531 311.117188 L 394.144531 310.253906 L 378.105469 310.25 L 378.105469 309.847656 L 403.039062 309.84375 L 403.105469 311.253906 L 401.742188 311.351562 L 400.054688 311.445312 L 398.429688 311.515625 L 396.742188 311.578125 L 394.339844 311.644531 L 392.390625 311.6875 L 389.40625 311.738281 L 386.675781 311.773438 L 383.820312 311.792969 L 381.289062 311.804688 L 378.300781 311.808594 L 375.640625 311.800781 L 372.78125 311.78125 L 370.507812 311.75 L 368.433594 311.714844 L 366.355469 311.667969 L 363.757812 311.59375 L 362.066406 311.53125 L 360.316406 311.453125 L 358.5625 311.363281 L 357.003906 311.269531 L 355.964844 311.191406 L 354.925781 311.105469 L 353.820312 310.996094 L 352.78125 310.875 L 352.003906 310.761719 L 351.289062 310.636719 L 350.769531 310.519531 L 350.25 310.355469 L 349.992188 310.226562 L 349.859375 310.113281 Z M 349.859375 309.550781 "/>
<path style=" stroke:none;fill-rule:nonzero;fill:rgb(83.921569%,15.686275%,22.352941%);fill-opacity:1;" d="M 349.859375 293.652344 L 403.105469 293.652344 L 403.105469 295.046875 L 380.914062 295.058594 L 380.914062 306.683594 L 371.988281 306.683594 L 371.988281 295.070312 L 371.859375 295.046875 L 349.859375 295.046875 Z M 349.859375 293.652344 "/>
<path style=" stroke:none;fill-rule:nonzero;fill:rgb(6.27451%,58.823529%,28.235294%);fill-opacity:1;" d="M 405.90625 302.46875 L 405.964844 302.453125 L 429.003906 286.027344 L 436 286.027344 L 459.152344 302.484375 L 451.015625 302.484375 L 445.214844 298.1875 L 419.789062 298.1875 L 414.097656 302.46875 L 405.90625 302.46875 L 422.234375 296.410156 L 442.882812 296.398438 L 432.585938 288.714844 L 432.472656 288.699219 L 432.359375 288.746094 L 422.175781 296.398438 L 422.234375 296.410156 Z M 405.90625 302.46875 "/>
<path style=" stroke:none;fill-rule:nonzero;fill:rgb(14.509804%,36.078431%,60%);fill-opacity:1;" d="M 405.90625 306.90625 L 405.972656 306.898438 L 405.972656 306.734375 L 406.167969 306.476562 L 406.621094 306.148438 L 407.078125 305.925781 L 408.246094 305.523438 L 409.867188 305.136719 L 411.554688 304.835938 L 412.789062 304.660156 L 413.894531 304.523438 L 416.425781 304.269531 L 418.050781 304.140625 L 419.804688 304.023438 L 421.945312 303.910156 L 423.503906 303.839844 L 427.011719 303.734375 L 429.609375 303.683594 L 431.621094 303.664062 L 435.972656 303.664062 L 438.566406 303.691406 L 440.453125 303.726562 L 442.527344 303.78125 L 444.28125 303.839844 L 447.335938 303.992188 L 450.0625 304.183594 L 451.292969 304.289062 L 453.242188 304.5 L 454.734375 304.707031 L 455.773438 304.882812 L 456.945312 305.136719 L 457.984375 305.441406 L 458.761719 305.789062 L 459.152344 306.082031 L 450.0625 306.082031 L 449.605469 305.808594 L 449.085938 305.597656 L 448.113281 305.320312 L 447.140625 305.121094 L 445.777344 304.925781 L 444.542969 304.792969 L 442.855469 304.664062 L 441.359375 304.582031 L 439.800781 304.523438 L 438.308594 304.480469 L 435.453125 304.441406 L 432.140625 304.441406 L 430.90625 304.453125 L 428.375 304.507812 L 427.011719 304.554688 L 425.0625 304.652344 L 423.699219 304.738281 L 422.074219 304.875 L 420.972656 304.992188 L 419.609375 305.167969 L 418.632812 305.324219 L 417.53125 305.550781 L 416.882812 305.71875 L 416.296875 305.910156 L 415.777344 306.136719 L 415.386719 306.375 L 415.128906 306.625 L 414.996094 306.871094 L 414.996094 307.925781 L 415.128906 308.171875 L 415.453125 308.457031 L 416.296875 308.871094 L 417.53125 309.234375 L 418.957031 309.519531 L 420.324219 309.722656 L 421.101562 309.816406 L 422.140625 309.925781 L 423.765625 310.0625 L 426.101562 310.199219 L 427.464844 310.253906 L 429.542969 310.308594 L 431.683594 310.335938 L 434.542969 310.335938 L 437.074219 310.308594 L 438.761719 310.273438 L 440.515625 310.21875 L 442.917969 310.105469 L 444.410156 309.996094 L 445.710938 309.867188 L 446.683594 309.738281 L 447.335938 309.628906 L 448.308594 309.417969 L 449.085938 309.183594 L 449.671875 308.945312 L 450.0625 308.714844 L 459.152344 308.714844 L 458.761719 308.988281 L 458.175781 309.253906 L 457.59375 309.449219 L 456.683594 309.6875 L 455.644531 309.898438 L 454.152344 310.136719 L 452.917969 310.292969 L 451.292969 310.464844 L 449.800781 310.59375 L 448.179688 310.710938 L 445.777344 310.847656 L 444.21875 310.914062 L 442.527344 310.976562 L 440.515625 311.03125 L 437.984375 311.078125 L 435.257812 311.105469 L 432.722656 311.113281 L 429.996094 311.097656 L 427.984375 311.070312 L 425.320312 311.007812 L 422.011719 310.886719 L 419.609375 310.757812 L 417.726562 310.628906 L 416.101562 310.492188 L 414.285156 310.308594 L 411.945312 310.007812 L 410.519531 309.777344 L 409.542969 309.585938 L 408.441406 309.320312 L 407.660156 309.082031 L 406.75 308.703125 L 406.101562 308.21875 L 405.90625 307.84375 Z M 405.90625 306.90625 "/>
<path style=" stroke:none;fill-rule:nonzero;fill:rgb(96.862745%,70.196078%,16.862745%);fill-opacity:1;" d="M 405.90625 192.914062 L 405.972656 192.765625 L 405.972656 189.832031 L 406.230469 183.222656 L 406.882812 174.117188 L 407.726562 166.625 L 408.632812 160.753906 L 409.21875 157.667969 L 410.191406 153.261719 L 411.039062 150.03125 L 413.179688 143.421875 L 415.90625 137.253906 L 417.402344 134.609375 L 419.089844 132.113281 L 421.492188 129.324219 L 422.59375 128.296875 L 425.972656 125.945312 L 429.800781 124.476562 L 434.023438 124.039062 L 435.972656 124.183594 L 438.632812 124.773438 L 442.269531 126.386719 L 444.347656 127.855469 L 445.96875 129.324219 L 447.660156 131.234375 L 449.738281 134.171875 L 451.683594 137.695312 L 453.242188 141.21875 L 454.800781 145.625 L 456.101562 150.324219 L 457.203125 155.464844 L 458.175781 161.632812 L 458.761719 166.773438 L 459.152344 171.914062 L 450.125 171.914062 L 449.605469 166.773438 L 449.023438 162.808594 L 448.046875 157.960938 L 447.074219 154.4375 L 446.101562 151.648438 L 444.28125 147.828125 L 442.722656 145.480469 L 440.777344 143.421875 L 438.894531 142.101562 L 436.75 141.21875 L 435.453125 140.925781 L 432.011719 140.925781 L 428.894531 141.953125 L 427.074219 143.128906 L 425.777344 144.304688 L 423.957031 146.507812 L 422.855469 148.269531 L 422.207031 149.445312 L 420.257812 153.996094 L 418.957031 158.109375 L 418.246094 160.898438 L 417.335938 165.304688 L 416.6875 169.269531 L 415.972656 175.144531 L 415.582031 179.550781 L 415.0625 189.535156 L 414.996094 215.972656 L 415.191406 221.550781 L 415.582031 227.574219 L 416.101562 232.859375 L 416.882812 238.441406 L 417.660156 242.699219 L 419.023438 248.425781 L 420.191406 252.246094 L 421.101562 254.742188 L 422.855469 258.707031 L 423.570312 260.027344 L 425.257812 262.671875 L 427.011719 264.726562 L 429.152344 266.492188 L 430.777344 267.371094 L 433.375 268.105469 L 436.683594 268.105469 L 440.582031 267.226562 L 443.046875 266.050781 L 444.738281 264.875 L 445.839844 263.847656 L 447.203125 262.230469 L 448.179688 260.761719 L 449.085938 259.148438 L 450.191406 256.652344 L 450.191406 221.550781 L 434.152344 221.40625 L 434.152344 204.957031 L 459.085938 204.808594 L 459.152344 262.230469 L 457.789062 266.195312 L 456.101562 270.015625 L 454.476562 272.953125 L 452.789062 275.449219 L 450.386719 278.238281 L 448.4375 280 L 445.449219 282.058594 L 442.722656 283.378906 L 439.867188 284.261719 L 437.335938 284.703125 L 434.347656 284.847656 L 431.683594 284.554688 L 428.828125 283.671875 L 426.554688 282.5 L 424.476562 281.03125 L 422.398438 279.121094 L 419.804688 276.035156 L 418.113281 273.539062 L 416.363281 270.457031 L 414.609375 266.785156 L 413.050781 262.820312 L 412.011719 259.734375 L 410.972656 256.210938 L 409.867188 251.804688 L 408.828125 246.8125 L 408.050781 242.257812 L 407.335938 237.117188 L 406.816406 232.273438 L 406.296875 225.664062 L 406.039062 220.378906 L 405.90625 215.824219 Z M 405.90625 192.914062 "/>
<path style=" stroke:none;fill-rule:nonzero;fill:rgb(83.921569%,15.686275%,22.352941%);fill-opacity:1;" d="M 405.90625 312.292969 L 459.152344 312.292969 L 459.152344 312.515625 L 436.960938 312.515625 L 436.960938 314.371094 L 428.035156 314.371094 L 428.035156 312.519531 L 427.902344 312.515625 L 405.90625 312.515625 Z M 405.90625 312.292969 "/>
<path style=" stroke:none;fill-rule:nonzero;fill:rgb(6.27451%,58.823529%,28.235294%);fill-opacity:1;" d="M 461.953125 312.238281 L 462.011719 312.234375 L 485.050781 310.105469 L 492.046875 310.105469 L 515.199219 312.238281 L 507.0625 312.238281 L 501.261719 311.683594 L 475.832031 311.683594 L 470.144531 312.238281 L 461.953125 312.238281 L 478.28125 311.453125 L 498.929688 311.449219 L 488.632812 310.453125 L 488.519531 310.453125 L 488.40625 310.457031 L 478.222656 311.449219 L 478.28125 311.453125 Z M 461.953125 312.238281 "/>
<path style=" stroke:none;fill-rule:nonzero;fill:rgb(14.509804%,36.078431%,60%);fill-opacity:1;" d="M 461.953125 300.230469 L 462.019531 300.21875 L 462.019531 299.878906 L 462.214844 299.34375 L 462.667969 298.671875 L 463.121094 298.207031 L 464.292969 297.375 L 465.914062 296.574219 L 467.601562 295.953125 L 468.835938 295.589844 L 469.941406 295.308594 L 472.472656 294.789062 L 474.097656 294.519531 L 475.847656 294.28125 L 477.992188 294.042969 L 479.550781 293.902344 L 483.058594 293.675781 L 485.652344 293.578125 L 487.667969 293.535156 L 492.015625 293.535156 L 494.613281 293.589844 L 496.496094 293.660156 L 498.574219 293.773438 L 500.328125 293.902344 L 503.378906 294.210938 L 506.109375 294.605469 L 507.339844 294.828125 L 509.289062 295.265625 L 510.78125 295.6875 L 511.820312 296.054688 L 512.992188 296.574219 L 514.027344 297.207031 L 514.808594 297.925781 L 515.199219 298.53125 L 506.109375 298.53125 L 505.652344 297.964844 L 505.132812 297.53125 L 504.160156 296.953125 L 503.1875 296.546875 L 501.820312 296.136719 L 500.589844 295.871094 L 498.898438 295.601562 L 497.40625 295.433594 L 495.847656 295.308594 L 494.355469 295.222656 L 491.496094 295.140625 L 488.1875 295.140625 L 486.953125 295.167969 L 484.421875 295.28125 L 483.058594 295.378906 L 481.109375 295.574219 L 479.746094 295.757812 L 478.121094 296.039062 L 477.019531 296.277344 L 475.65625 296.644531 L 474.679688 296.96875 L 473.578125 297.433594 L 472.925781 297.785156 L 472.34375 298.179688 L 471.824219 298.640625 L 471.433594 299.132812 L 471.175781 299.65625 L 471.042969 300.160156 L 471.042969 302.34375 L 471.175781 302.847656 L 471.5 303.4375 L 472.34375 304.296875 L 473.578125 305.042969 L 475.003906 305.632812 L 476.367188 306.054688 L 477.148438 306.253906 L 478.1875 306.476562 L 479.808594 306.757812 L 482.148438 307.039062 L 483.511719 307.152344 L 485.589844 307.265625 L 487.730469 307.324219 L 490.589844 307.324219 L 493.121094 307.265625 L 494.808594 307.195312 L 496.5625 307.082031 L 498.964844 306.84375 L 500.457031 306.617188 L 501.757812 306.351562 L 502.730469 306.085938 L 503.378906 305.859375 L 504.355469 305.421875 L 505.132812 304.945312 L 505.71875 304.453125 L 506.109375 303.972656 L 515.199219 303.972656 L 514.808594 304.535156 L 514.222656 305.085938 L 513.640625 305.492188 L 512.730469 305.984375 L 511.691406 306.421875 L 510.199219 306.914062 L 508.964844 307.238281 L 507.339844 307.589844 L 505.847656 307.855469 L 504.222656 308.097656 L 501.820312 308.378906 L 500.261719 308.519531 L 498.574219 308.644531 L 496.5625 308.757812 L 494.03125 308.855469 L 491.304688 308.910156 L 488.769531 308.925781 L 486.042969 308.898438 L 484.03125 308.839844 L 481.367188 308.714844 L 478.058594 308.460938 L 475.65625 308.195312 L 473.769531 307.925781 L 472.148438 307.644531 L 470.332031 307.265625 L 467.992188 306.648438 L 466.5625 306.167969 L 465.589844 305.773438 L 464.484375 305.226562 L 463.707031 304.734375 L 462.796875 303.945312 L 462.148438 302.945312 L 461.953125 302.171875 Z M 461.953125 300.230469 "/>
<path style=" stroke:none;fill-rule:nonzero;fill:rgb(96.862745%,70.196078%,16.862745%);fill-opacity:1;" d="M 461.953125 313.828125 L 462.019531 313.824219 L 462.019531 313.808594 L 462.277344 313.769531 L 462.929688 313.714844 L 463.773438 313.671875 L 464.679688 313.636719 L 465.265625 313.617188 L 466.238281 313.59375 L 467.082031 313.574219 L 469.226562 313.535156 L 471.953125 313.496094 L 473.445312 313.480469 L 475.136719 313.46875 L 477.539062 313.449219 L 478.640625 313.445312 L 482.019531 313.429688 L 485.847656 313.421875 L 490.070312 313.417969 L 492.015625 313.421875 L 494.679688 313.425781 L 498.316406 313.433594 L 500.394531 313.441406 L 502.015625 313.449219 L 503.703125 313.460938 L 505.78125 313.480469 L 507.730469 313.5 L 509.289062 313.519531 L 510.847656 313.546875 L 512.144531 313.574219 L 513.25 313.605469 L 514.222656 313.640625 L 514.808594 313.671875 L 515.199219 313.703125 L 506.171875 313.703125 L 505.652344 313.671875 L 505.070312 313.648438 L 504.09375 313.621094 L 503.121094 313.597656 L 502.148438 313.582031 L 500.328125 313.558594 L 498.769531 313.546875 L 496.820312 313.535156 L 494.9375 313.527344 L 492.796875 313.519531 L 488.054688 313.519531 L 484.941406 313.527344 L 483.121094 313.53125 L 481.824219 313.539062 L 480.003906 313.550781 L 478.902344 313.5625 L 478.25 313.570312 L 476.304688 313.597656 L 475.003906 313.621094 L 474.289062 313.636719 L 473.382812 313.664062 L 472.734375 313.6875 L 472.019531 313.722656 L 471.628906 313.746094 L 471.109375 313.808594 L 471.042969 313.964844 L 471.238281 313.996094 L 471.628906 314.03125 L 472.148438 314.0625 L 472.925781 314.097656 L 473.707031 314.121094 L 475.070312 314.15625 L 476.238281 314.179688 L 477.148438 314.191406 L 478.902344 314.214844 L 479.617188 314.222656 L 481.304688 314.238281 L 483.058594 314.25 L 485.199219 314.261719 L 486.824219 314.265625 L 489.421875 314.273438 L 492.730469 314.273438 L 496.628906 314.265625 L 499.09375 314.257812 L 500.78125 314.253906 L 501.886719 314.246094 L 503.25 314.238281 L 504.222656 314.226562 L 505.132812 314.21875 L 506.238281 314.203125 L 506.238281 313.996094 L 490.199219 313.996094 L 490.199219 313.898438 L 515.132812 313.898438 L 515.199219 314.238281 L 513.835938 314.261719 L 512.144531 314.28125 L 510.523438 314.300781 L 508.835938 314.316406 L 506.433594 314.332031 L 504.484375 314.34375 L 501.496094 314.355469 L 498.769531 314.363281 L 495.914062 314.367188 L 493.382812 314.371094 L 490.394531 314.371094 L 487.730469 314.367188 L 484.875 314.363281 L 482.601562 314.355469 L 480.523438 314.347656 L 478.445312 314.335938 L 475.847656 314.320312 L 474.160156 314.304688 L 472.40625 314.285156 L 470.65625 314.265625 L 469.097656 314.242188 L 467.019531 314.203125 L 465.914062 314.175781 L 464.875 314.144531 L 464.097656 314.117188 L 463.382812 314.089844 L 462.863281 314.058594 L 462.34375 314.019531 L 462.082031 313.988281 L 461.953125 313.960938 Z M 461.953125 313.828125 "/>
<path style=" stroke:none;fill-rule:nonzero;fill:rgb(83.921569%,15.686275%,22.352941%);fill-opacity:1;" d="M 461.953125 78.59375 L 515.199219 78.59375 L 515.199219 101.476562 L 493.007812 101.675781 L 493.007812 292.355469 L 484.078125 292.355469 L 484.078125 101.875 L 483.949219 101.476562 L 461.953125 101.476562 Z M 461.953125 78.59375 "/>
<path style=" stroke:none;fill-rule:nonzero;fill:rgb(6.27451%,58.823529%,28.235294%);fill-opacity:1;" d="M 518 310.832031 L 518.058594 310.785156 L 541.09375 260.964844 L 548.09375 260.964844 L 571.246094 310.878906 L 563.109375 310.878906 L 557.308594 297.847656 L 531.878906 297.847656 L 526.191406 310.832031 L 518 310.832031 L 534.324219 292.460938 L 554.976562 292.414062 L 544.679688 269.121094 L 544.566406 269.074219 L 544.453125 269.214844 L 534.269531 292.414062 L 534.324219 292.460938 Z M 518 310.832031 "/>
<path style=" stroke:none;fill-rule:nonzero;fill:rgb(14.509804%,36.078431%,60%);fill-opacity:1;" d="M 518 209.058594 L 518.066406 208.976562 L 518.066406 207.007812 L 518.261719 203.890625 L 518.714844 199.949219 L 519.167969 197.242188 L 520.335938 192.398438 L 521.960938 187.71875 L 523.648438 184.109375 L 524.882812 181.972656 L 525.988281 180.332031 L 528.519531 177.296875 L 530.140625 175.734375 L 531.894531 174.339844 L 534.039062 172.945312 L 535.597656 172.125 L 539.101562 170.8125 L 541.699219 170.238281 L 543.714844 169.992188 L 548.0625 169.992188 L 550.660156 170.320312 L 552.542969 170.730469 L 554.621094 171.386719 L 556.375 172.125 L 559.425781 173.929688 L 562.152344 176.230469 L 563.386719 177.542969 L 565.335938 180.085938 L 566.828125 182.546875 L 567.867188 184.683594 L 569.035156 187.71875 L 570.074219 191.414062 L 570.855469 195.597656 L 571.246094 199.128906 L 562.152344 199.128906 L 561.699219 195.84375 L 561.179688 193.300781 L 560.207031 189.9375 L 559.230469 187.554688 L 557.867188 185.175781 L 556.632812 183.617188 L 554.945312 182.054688 L 553.453125 181.070312 L 551.894531 180.332031 L 550.402344 179.839844 L 547.542969 179.347656 L 544.234375 179.347656 L 543 179.511719 L 540.464844 180.167969 L 539.101562 180.742188 L 537.15625 181.890625 L 535.792969 182.960938 L 534.167969 184.601562 L 533.0625 185.996094 L 531.699219 188.128906 L 530.726562 190.019531 L 529.621094 192.726562 L 528.972656 194.777344 L 528.390625 197.078125 L 527.871094 199.785156 L 527.480469 202.660156 L 527.21875 205.695312 L 527.089844 208.648438 L 527.089844 221.371094 L 527.21875 224.328125 L 527.546875 227.773438 L 528.390625 232.78125 L 529.621094 237.132812 L 531.050781 240.578125 L 532.414062 243.042969 L 533.195312 244.191406 L 534.234375 245.503906 L 535.855469 247.144531 L 538.195312 248.785156 L 539.558594 249.445312 L 541.636719 250.101562 L 543.777344 250.429688 L 546.636719 250.429688 L 549.167969 250.101562 L 550.855469 249.691406 L 552.609375 249.035156 L 555.011719 247.636719 L 556.503906 246.324219 L 557.804688 244.765625 L 558.777344 243.207031 L 559.425781 241.890625 L 560.402344 239.347656 L 561.179688 236.558594 L 561.765625 233.683594 L 562.152344 230.894531 L 571.246094 230.894531 L 570.855469 234.175781 L 570.269531 237.378906 L 569.6875 239.757812 L 568.777344 242.632812 L 567.738281 245.175781 L 566.246094 248.046875 L 565.011719 249.9375 L 563.386719 251.988281 L 561.894531 253.546875 L 560.269531 254.941406 L 557.867188 256.585938 L 556.308594 257.40625 L 554.621094 258.144531 L 552.609375 258.800781 L 550.078125 259.375 L 547.347656 259.703125 L 544.816406 259.785156 L 542.089844 259.621094 L 540.078125 259.292969 L 537.414062 258.554688 L 534.101562 257.078125 L 531.699219 255.519531 L 529.816406 253.957031 L 528.195312 252.316406 L 526.375 250.101562 L 524.039062 246.488281 L 522.609375 243.699219 L 521.636719 241.398438 L 520.53125 238.199219 L 519.753906 235.324219 L 518.84375 230.730469 L 518.195312 224.902344 L 518 220.386719 Z M 518 209.058594 "/>
<path style=" stroke:none;fill-rule:nonzero;fill:rgb(96.862745%,70.196078%,16.862745%);fill-opacity:1;" d="M 518 312.550781 L 518.066406 312.546875 L 518.066406 312.527344 L 518.324219 312.480469 L 518.972656 312.414062 L 519.816406 312.359375 L 520.726562 312.320312 L 521.3125 312.296875 L 522.285156 312.265625 L 523.128906 312.242188 L 525.273438 312.195312 L 528 312.152344 L 529.492188 312.132812 L 531.179688 312.113281 L 533.582031 312.09375 L 534.6875 312.085938 L 538.0625 312.070312 L 541.894531 312.058594 L 548.0625 312.058594 L 550.726562 312.0625 L 554.363281 312.074219 L 556.441406 312.085938 L 558.0625 312.09375 L 559.75 312.109375 L 561.828125 312.128906 L 563.777344 312.15625 L 565.335938 312.179688 L 566.894531 312.210938 L 568.191406 312.246094 L 569.296875 312.28125 L 570.269531 312.324219 L 570.855469 312.363281 L 571.246094 312.398438 L 562.21875 312.398438 L 561.699219 312.363281 L 561.113281 312.332031 L 560.140625 312.300781 L 559.167969 312.273438 L 558.191406 312.253906 L 556.375 312.226562 L 554.816406 312.210938 L 552.867188 312.195312 L 550.984375 312.1875 L 548.84375 312.179688 L 547.542969 312.175781 L 544.101562 312.175781 L 540.984375 312.183594 L 539.167969 312.191406 L 537.871094 312.203125 L 536.050781 312.21875 L 534.949219 312.230469 L 534.296875 312.238281 L 532.351562 312.269531 L 531.050781 312.300781 L 530.335938 312.320312 L 529.429688 312.351562 L 528.777344 312.378906 L 528.066406 312.421875 L 527.675781 312.453125 L 527.15625 312.523438 L 527.089844 312.714844 L 527.285156 312.753906 L 527.675781 312.796875 L 528.195312 312.835938 L 528.972656 312.875 L 529.753906 312.90625 L 531.117188 312.945312 L 532.285156 312.972656 L 533.195312 312.992188 L 534.949219 313.019531 L 535.660156 313.027344 L 537.351562 313.046875 L 539.101562 313.0625 L 541.246094 313.074219 L 542.867188 313.082031 L 545.464844 313.085938 L 548.777344 313.085938 L 552.671875 313.082031 L 555.140625 313.070312 L 556.828125 313.0625 L 557.933594 313.054688 L 559.296875 313.042969 L 560.269531 313.035156 L 561.179688 313.023438 L 562.285156 313.003906 L 562.285156 312.753906 L 546.246094 312.753906 L 546.246094 312.636719 L 571.179688 312.632812 L 571.246094 313.042969 L 569.878906 313.074219 L 568.191406 313.101562 L 566.570312 313.121094 L 564.882812 313.140625 L 562.476562 313.160156 L 560.53125 313.171875 L 557.542969 313.1875 L 554.816406 313.195312 L 551.960938 313.203125 L 549.425781 313.207031 L 546.441406 313.207031 L 543.777344 313.203125 L 540.921875 313.199219 L 538.648438 313.1875 L 536.570312 313.179688 L 531.894531 313.144531 L 530.207031 313.125 L 526.699219 313.078125 L 525.144531 313.046875 L 524.105469 313.027344 L 523.066406 313 L 521.960938 312.96875 L 520.921875 312.933594 L 520.144531 312.902344 L 519.429688 312.863281 L 518.910156 312.832031 L 518.390625 312.78125 L 518.128906 312.746094 L 518 312.710938 Z M 518 312.550781 "/>
<path style=" stroke:none;fill-rule:nonzero;fill:rgb(6.27451%,58.823529%,28.235294%);fill-opacity:1;" d="M 574.046875 303.558594 L 574.101562 303.308594 L 597.140625 37.847656 L 604.136719 37.847656 L 627.289062 303.808594 L 619.15625 303.808594 L 613.355469 234.382812 L 587.925781 234.382812 L 582.238281 303.558594 L 574.046875 303.558594 L 590.371094 205.664062 L 611.023438 205.414062 L 600.726562 81.300781 L 600.613281 81.050781 L 600.496094 81.800781 L 590.316406 205.414062 L 590.371094 205.664062 Z M 574.046875 303.558594 "/>
<path style=" stroke:none;fill-rule:nonzero;fill:rgb(14.509804%,36.078431%,60%);fill-opacity:1;" d="M 574.046875 313.464844 L 574.113281 313.464844 L 574.113281 313.429688 L 574.304688 313.375 L 574.761719 313.304688 L 575.214844 313.257812 L 576.382812 313.167969 L 578.007812 313.085938 L 579.695312 313.023438 L 580.929688 312.984375 L 582.035156 312.953125 L 584.566406 312.902344 L 586.1875 312.871094 L 587.941406 312.847656 L 590.085938 312.824219 L 591.644531 312.808594 L 595.148438 312.785156 L 597.746094 312.773438 L 599.757812 312.769531 L 604.109375 312.769531 L 606.707031 312.777344 L 608.589844 312.785156 L 610.667969 312.796875 L 612.421875 312.808594 L 615.472656 312.839844 L 618.199219 312.882812 L 619.433594 312.90625 L 621.382812 312.949219 L 622.875 312.996094 L 623.914062 313.03125 L 625.082031 313.085938 L 626.121094 313.152344 L 626.902344 313.226562 L 627.289062 313.289062 L 618.199219 313.289062 L 617.746094 313.230469 L 617.226562 313.1875 L 616.253906 313.125 L 615.277344 313.082031 L 613.914062 313.039062 L 612.679688 313.011719 L 610.992188 312.984375 L 609.5 312.96875 L 607.941406 312.953125 L 606.449219 312.945312 L 603.589844 312.9375 L 600.277344 312.9375 L 599.046875 312.941406 L 596.511719 312.953125 L 595.148438 312.960938 L 593.203125 312.984375 L 591.839844 313 L 590.214844 313.03125 L 589.109375 313.054688 L 587.746094 313.09375 L 586.773438 313.128906 L 585.667969 313.175781 L 585.019531 313.210938 L 584.4375 313.253906 L 583.917969 313.300781 L 583.527344 313.351562 L 583.265625 313.40625 L 583.136719 313.460938 L 583.136719 313.6875 L 583.265625 313.738281 L 583.589844 313.800781 L 584.4375 313.890625 L 585.667969 313.96875 L 587.097656 314.027344 L 588.460938 314.070312 L 589.242188 314.09375 L 590.28125 314.117188 L 591.902344 314.144531 L 594.242188 314.175781 L 595.605469 314.1875 L 597.683594 314.199219 L 599.824219 314.203125 L 602.679688 314.203125 L 605.214844 314.199219 L 606.902344 314.191406 L 608.65625 314.179688 L 611.058594 314.152344 L 612.550781 314.128906 L 613.851562 314.101562 L 614.824219 314.074219 L 615.472656 314.050781 L 616.445312 314.007812 L 617.226562 313.957031 L 617.8125 313.90625 L 618.199219 313.855469 L 627.289062 313.855469 L 626.902344 313.914062 L 626.316406 313.972656 L 625.730469 314.015625 L 624.824219 314.066406 L 623.785156 314.109375 L 622.289062 314.160156 L 621.058594 314.195312 L 619.433594 314.230469 L 617.941406 314.257812 L 616.316406 314.285156 L 613.914062 314.3125 L 612.355469 314.328125 L 610.667969 314.339844 L 608.65625 314.351562 L 606.121094 314.363281 L 603.394531 314.371094 L 600.863281 314.371094 L 598.136719 314.367188 L 596.125 314.363281 L 593.460938 314.347656 L 590.148438 314.324219 L 587.746094 314.292969 L 585.863281 314.265625 L 584.242188 314.238281 L 582.421875 314.199219 L 580.085938 314.132812 L 578.65625 314.082031 L 577.683594 314.042969 L 576.578125 313.984375 L 575.800781 313.933594 L 574.890625 313.851562 L 574.242188 313.75 L 574.046875 313.667969 Z M 574.046875 313.464844 "/>
<path style=" stroke:none;fill-rule:nonzero;fill:rgb(96.862745%,70.196078%,16.862745%);fill-opacity:1;" d="M 574.046875 310.199219 L 574.113281 310.195312 L 574.113281 310.152344 L 574.371094 310.050781 L 575.019531 309.914062 L 575.863281 309.800781 L 576.773438 309.710938 L 577.359375 309.664062 L 578.332031 309.597656 L 579.175781 309.550781 L 581.320312 309.449219 L 584.046875 309.355469 L 585.539062 309.316406 L 587.226562 309.277344 L 589.628906 309.238281 L 590.734375 309.222656 L 594.109375 309.1875 L 597.941406 309.164062 L 602.160156 309.15625 L 604.109375 309.160156 L 606.773438 309.167969 L 610.410156 309.191406 L 612.484375 309.214844 L 614.109375 309.238281 L 615.796875 309.265625 L 617.875 309.308594 L 619.824219 309.363281 L 621.382812 309.417969 L 622.941406 309.484375 L 624.238281 309.554688 L 625.34375 309.632812 L 626.316406 309.726562 L 626.902344 309.804688 L 627.289062 309.882812 L 618.265625 309.882812 L 617.746094 309.804688 L 617.160156 309.742188 L 616.1875 309.671875 L 615.214844 309.617188 L 614.238281 309.574219 L 612.421875 309.515625 L 610.863281 309.480469 L 608.914062 309.449219 L 607.03125 309.429688 L 604.890625 309.417969 L 603.589844 309.414062 L 600.148438 309.414062 L 597.03125 309.429688 L 595.214844 309.445312 L 593.914062 309.464844 L 592.097656 309.496094 L 590.992188 309.523438 L 590.34375 309.542969 L 588.398438 309.609375 L 587.097656 309.671875 L 586.382812 309.714844 L 585.476562 309.78125 L 584.824219 309.839844 L 584.109375 309.929688 L 583.722656 309.996094 L 583.203125 310.148438 L 583.136719 310.546875 L 583.332031 310.632812 L 583.722656 310.722656 L 584.242188 310.804688 L 585.019531 310.886719 L 585.800781 310.953125 L 587.164062 311.039062 L 588.332031 311.097656 L 589.242188 311.136719 L 590.992188 311.195312 L 591.707031 311.214844 L 593.394531 311.253906 L 595.148438 311.285156 L 597.292969 311.3125 L 598.914062 311.328125 L 601.511719 311.335938 L 604.824219 311.335938 L 608.71875 311.324219 L 611.1875 311.304688 L 612.875 311.289062 L 613.980469 311.273438 L 615.34375 311.25 L 616.316406 311.226562 L 617.226562 311.203125 L 618.332031 311.164062 L 618.332031 310.632812 L 602.292969 310.628906 L 602.292969 310.382812 L 627.226562 310.378906 L 627.289062 311.25 L 625.925781 311.308594 L 624.238281 311.367188 L 622.617188 311.410156 L 620.925781 311.449219 L 618.523438 311.492188 L 616.578125 311.515625 L 613.589844 311.546875 L 610.863281 311.570312 L 608.007812 311.582031 L 605.472656 311.589844 L 602.488281 311.589844 L 599.824219 311.585938 L 596.96875 311.574219 L 594.695312 311.554688 L 592.617188 311.53125 L 590.539062 311.503906 L 587.941406 311.457031 L 586.253906 311.417969 L 584.5 311.371094 L 582.746094 311.316406 L 581.1875 311.257812 L 580.148438 311.210938 L 579.109375 311.15625 L 578.007812 311.089844 L 576.96875 311.015625 L 576.1875 310.945312 L 575.476562 310.867188 L 574.957031 310.796875 L 574.4375 310.695312 L 574.175781 310.613281 L 574.046875 310.546875 Z M 574.046875 310.199219 "/>
<path style=" stroke:none;fill-rule:nonzero;fill:rgb(83.921569%,15.686275%,22.352941%);fill-opacity:1;" d="M 574.046875 304.988281 L 627.289062 304.988281 L 627.289062 305.308594 L 605.101562 305.308594 L 605.101562 307.976562 L 596.171875 307.976562 L 596.171875 305.3125 L 596.042969 305.308594 L 574.046875 305.308594 Z M 574.046875 304.988281 "/>
<path style=" stroke:none;fill-rule:nonzero;fill:rgb(6.27451%,58.823529%,28.235294%);fill-opacity:1;" d="M 630.09375 314.367188 L 630.148438 314.367188 L 653.1875 312.742188 L 660.183594 312.742188 L 683.335938 314.371094 L 675.203125 314.371094 L 669.398438 313.945312 L 643.972656 313.945312 L 638.285156 314.367188 L 630.09375 314.367188 L 646.417969 313.769531 L 667.066406 313.769531 L 656.773438 313.007812 L 656.65625 313.003906 L 656.542969 313.011719 L 646.363281 313.769531 L 646.417969 313.769531 Z M 630.09375 314.367188 "/>
<path style=" stroke:none;fill-rule:nonzero;fill:rgb(14.509804%,36.078431%,60%);fill-opacity:1;" d="M 630.09375 290.851562 L 630.15625 290.839844 L 630.15625 290.511719 L 630.351562 289.992188 L 630.808594 289.335938 L 631.261719 288.886719 L 632.429688 288.082031 L 634.054688 287.304688 L 635.742188 286.703125 L 636.976562 286.347656 L 638.078125 286.074219 L 640.613281 285.570312 L 642.234375 285.308594 L 643.988281 285.078125 L 646.132812 284.84375 L 647.691406 284.710938 L 651.195312 284.492188 L 653.792969 284.394531 L 655.804688 284.355469 L 660.15625 284.355469 L 662.753906 284.410156 L 664.636719 284.476562 L 666.714844 284.585938 L 668.46875 284.710938 L 671.519531 285.007812 L 674.246094 285.390625 L 675.480469 285.609375 L 677.429688 286.035156 L 678.921875 286.441406 L 679.960938 286.796875 L 681.128906 287.304688 L 682.167969 287.917969 L 682.949219 288.613281 L 683.335938 289.199219 L 674.246094 289.199219 L 673.792969 288.65625 L 673.273438 288.230469 L 672.296875 287.671875 L 671.324219 287.277344 L 669.960938 286.878906 L 668.726562 286.621094 L 667.039062 286.359375 L 665.546875 286.195312 L 663.988281 286.074219 L 662.492188 285.992188 L 659.636719 285.910156 L 656.324219 285.910156 L 655.089844 285.9375 L 652.558594 286.046875 L 651.195312 286.140625 L 649.246094 286.332031 L 647.882812 286.511719 L 646.261719 286.785156 L 645.15625 287.015625 L 643.792969 287.371094 L 642.820312 287.683594 L 641.714844 288.136719 L 641.066406 288.476562 L 640.480469 288.859375 L 639.960938 289.308594 L 639.574219 289.789062 L 639.3125 290.292969 L 639.183594 290.785156 L 639.183594 292.902344 L 639.3125 293.390625 L 639.636719 293.964844 L 640.480469 294.796875 L 641.714844 295.523438 L 643.144531 296.09375 L 644.507812 296.503906 L 645.285156 296.695312 L 646.324219 296.914062 L 647.949219 297.1875 L 650.285156 297.460938 L 651.648438 297.570312 L 653.726562 297.679688 L 655.871094 297.734375 L 658.726562 297.734375 L 661.261719 297.679688 L 662.949219 297.609375 L 664.703125 297.5 L 667.105469 297.269531 L 668.597656 297.050781 L 669.894531 296.792969 L 670.871094 296.53125 L 671.519531 296.3125 L 672.492188 295.890625 L 673.273438 295.425781 L 673.855469 294.949219 L 674.246094 294.484375 L 683.335938 294.484375 L 682.949219 295.03125 L 682.363281 295.5625 L 681.777344 295.957031 L 680.871094 296.4375 L 679.832031 296.859375 L 678.335938 297.335938 L 677.105469 297.652344 L 675.480469 297.992188 L 673.988281 298.253906 L 672.363281 298.484375 L 669.960938 298.757812 L 668.402344 298.894531 L 666.714844 299.015625 L 664.703125 299.125 L 662.167969 299.222656 L 659.441406 299.277344 L 656.910156 299.289062 L 654.183594 299.261719 L 652.167969 299.207031 L 649.507812 299.085938 L 646.195312 298.839844 L 643.792969 298.582031 L 641.910156 298.320312 L 640.289062 298.046875 L 638.46875 297.679688 L 636.132812 297.078125 L 634.703125 296.613281 L 633.730469 296.230469 L 632.625 295.699219 L 631.847656 295.222656 L 630.9375 294.457031 L 630.289062 293.488281 L 630.09375 292.738281 Z M 630.09375 290.851562 "/>
<path style=" stroke:none;fill-rule:nonzero;fill:rgb(96.862745%,70.196078%,16.862745%);fill-opacity:1;" d="M 630.09375 305.21875 L 630.15625 305.210938 L 630.15625 305.007812 L 630.417969 304.550781 L 631.066406 303.921875 L 631.910156 303.40625 L 632.820312 303.003906 L 633.40625 302.789062 L 634.378906 302.484375 L 635.222656 302.261719 L 637.367188 301.808594 L 640.09375 301.382812 L 641.585938 301.199219 L 643.273438 301.027344 L 645.675781 300.835938 L 646.78125 300.761719 L 650.15625 300.601562 L 653.988281 300.5 L 658.207031 300.46875 L 660.15625 300.480469 L 662.820312 300.519531 L 666.453125 300.632812 L 668.53125 300.734375 L 670.15625 300.835938 L 671.84375 300.964844 L 673.921875 301.167969 L 675.871094 301.410156 L 677.429688 301.65625 L 678.988281 301.957031 L 680.285156 302.28125 L 681.390625 302.636719 L 682.363281 303.0625 L 682.949219 303.417969 L 683.335938 303.773438 L 674.3125 303.773438 L 673.792969 303.417969 L 673.207031 303.144531 L 672.234375 302.808594 L 671.257812 302.566406 L 670.285156 302.375 L 668.46875 302.109375 L 666.910156 301.949219 L 664.960938 301.808594 L 663.078125 301.714844 L 660.9375 301.65625 L 659.636719 301.632812 L 656.195312 301.632812 L 653.078125 301.707031 L 651.261719 301.785156 L 649.960938 301.867188 L 648.144531 302.019531 L 647.039062 302.140625 L 646.390625 302.222656 L 644.441406 302.535156 L 643.144531 302.820312 L 642.429688 303.011719 L 641.519531 303.316406 L 640.871094 303.589844 L 640.15625 303.996094 L 639.769531 304.296875 L 639.25 304.988281 L 639.183594 306.8125 L 639.378906 307.195312 L 639.769531 307.609375 L 640.289062 307.976562 L 641.066406 308.359375 L 641.84375 308.65625 L 643.210938 309.050781 L 644.378906 309.3125 L 645.285156 309.484375 L 647.039062 309.757812 L 647.753906 309.851562 L 649.441406 310.03125 L 651.195312 310.171875 L 653.339844 310.296875 L 654.960938 310.355469 L 657.558594 310.40625 L 660.871094 310.40625 L 664.765625 310.347656 L 667.234375 310.265625 L 668.921875 310.183594 L 670.027344 310.113281 L 671.390625 310 L 672.363281 309.898438 L 673.273438 309.789062 L 674.375 309.617188 L 674.375 307.195312 L 658.339844 307.183594 L 658.339844 306.050781 L 683.273438 306.039062 L 683.335938 310 L 681.972656 310.273438 L 680.285156 310.539062 L 678.660156 310.742188 L 676.972656 310.914062 L 674.570312 311.105469 L 672.625 311.226562 L 669.636719 311.367188 L 666.910156 311.460938 L 664.050781 311.519531 L 661.519531 311.550781 L 658.53125 311.5625 L 655.871094 311.542969 L 653.015625 311.480469 L 650.742188 311.398438 L 648.664062 311.296875 L 646.585938 311.167969 L 643.988281 310.953125 L 642.300781 310.78125 L 640.546875 310.570312 L 638.792969 310.316406 L 637.234375 310.042969 L 636.195312 309.828125 L 635.15625 309.585938 L 634.054688 309.28125 L 633.015625 308.9375 L 632.234375 308.625 L 631.523438 308.269531 L 631.003906 307.933594 L 630.484375 307.480469 L 630.222656 307.113281 L 630.09375 306.800781 Z M 630.09375 305.21875 "/>
<path style=" stroke:none;fill-rule:nonzero;fill:rgb(83.921569%,15.686275%,22.352941%);fill-opacity:1;" d="M 630.09375 241.625 L 683.335938 241.625 L 683.335938 246.074219 L 661.148438 246.113281 L 661.148438 283.175781 L 652.21875 283.175781 L 652.21875 246.152344 L 652.089844 246.074219 L 630.09375 246.074219 Z M 630.09375 241.625 "/>
<g style="fill:rgb(0%,0%,0%);fill-opacity:1;">
  <use xlink:href="#glyph0-1" x="21.957031" y="318.198242"/>
  <use xlink:href="#glyph0-2" x="27.291016" y="318.198242"/>
  <use xlink:href="#glyph0-1" x="29.958008" y="318.198242"/>
</g>
<g style="fill:rgb(0%,0%,0%);fill-opacity:1;">
  <use xlink:href="#glyph0-1" x="21.957031" y="236.866211"/>
  <use xlink:href="#glyph0-2" x="27.291016" y="236.866211"/>
  <use xlink:href="#glyph0-3" x="29.958008" y="236.866211"/>
</g>
<g style="fill:rgb(0%,0%,0%);fill-opacity:1;">
  <use xlink:href="#glyph0-4" x="21.957031" y="155.53418"/>
  <use xlink:href="#glyph0-2" x="27.291016" y="155.53418"/>
  <use xlink:href="#glyph0-1" x="29.958008" y="155.53418"/>
</g>
<g style="fill:rgb(0%,0%,0%);fill-opacity:1;">
  <use xlink:href="#glyph0-4" x="21.957031" y="74.202148"/>
  <use xlink:href="#glyph0-2" x="27.291016" y="74.202148"/>
  <use xlink:href="#glyph0-3" x="29.958008" y="74.202148"/>
</g>
<g style="fill:rgb(0%,0%,0%);fill-opacity:1;">
  <use xlink:href="#glyph0-4" x="93.25" y="338.19043"/>
</g>
<g style="fill:rgb(0%,0%,0%);fill-opacity:1;">
  <use xlink:href="#glyph0-5" x="149.296875" y="338.19043"/>
</g>
<g style="fill:rgb(0%,0%,0%);fill-opacity:1;">
  <use xlink:href="#glyph0-6" x="205.34375" y="338.19043"/>
</g>
<g style="fill:rgb(0%,0%,0%);fill-opacity:1;">
  <use xlink:href="#glyph0-7" x="261.390625" y="338.19043"/>
</g>
<g style="fill:rgb(0%,0%,0%);fill-opacity:1;">
  <use xlink:href="#glyph0-3" x="317.4375" y="338.19043"/>
</g>
<g style="fill:rgb(0%,0%,0%);fill-opacity:1;">
  <use xlink:href="#glyph0-8" x="373.484375" y="338.19043"/>
</g>
<g style="fill:rgb(0%,0%,0%);fill-opacity:1;">
  <use xlink:href="#glyph0-9" x="429.53125" y="338.19043"/>
</g>
<g style="fill:rgb(0%,0%,0%);fill-opacity:1;">
  <use xlink:href="#glyph0-10" x="485.574219" y="338.19043"/>
</g>
<g style="fill:rgb(0%,0%,0%);fill-opacity:1;">
  <use xlink:href="#glyph0-11" x="541.621094" y="338.19043"/>
</g>
<g style="fill:rgb(0%,0%,0%);fill-opacity:1;">
  <use xlink:href="#glyph0-4" x="595.167969" y="338.19043"/>
  <use xlink:href="#glyph0-1" x="600.501953" y="338.19043"/>
</g>
<g style="fill:rgb(0%,0%,0%);fill-opacity:1;">
  <use xlink:href="#glyph0-4" x="651.214844" y="338.19043"/>
  <use xlink:href="#glyph0-4" x="656.548828" y="338.19043"/>
</g>
<g style="fill:rgb(0%,0%,0%);fill-opacity:1;">
  <use xlink:href="#glyph1-1" x="14.412109" y="178.015625"/>
  <use xlink:href="#glyph1-2" x="14.412109" y="170.011719"/>
  <use xlink:href="#glyph1-3" x="14.412109" y="167.347656"/>
  <use xlink:href="#glyph1-4" x="14.412109" y="164.011719"/>
</g>
</g>
</svg>
