<?xml version="1.0" encoding="UTF-8"?>
<svg xmlns="http://www.w3.org/2000/svg" xmlns:xlink="http://www.w3.org/1999/xlink" width="720pt" height="360pt" viewBox="0 0 720 360" version="1.1">
<defs>
<g>
<symbol overflow="visible" id="glyph0-0">
<path style="stroke:none;" d=""/>
</symbol>
<symbol overflow="visible" id="glyph0-1">
<path style="stroke:none;" d="M 2.640625 -6.796875 C 2 -6.796875 1.421875 -6.53125 1.078125 -6.046875 C 0.640625 -5.453125 0.40625 -4.546875 0.40625 -3.296875 C 0.40625 -1 1.1875 0.21875 2.640625 0.21875 C 4.078125 0.21875 4.859375 -1 4.859375 -3.234375 C 4.859375 -4.5625 4.65625 -5.4375 4.203125 -6.046875 C 3.84375 -6.53125 3.28125 -6.796875 2.640625 -6.796875 Z M 2.640625 -6.046875 C 3.546875 -6.046875 4 -5.125 4 -3.3125 C 4 -1.375 3.5625 -0.484375 2.625 -0.484375 C 1.734375 -0.484375 1.28125 -1.421875 1.28125 -3.28125 C 1.28125 -5.140625 1.734375 -6.046875 2.640625 -6.046875 Z M 2.640625 -6.046875 "/>
</symbol>
<symbol overflow="visible" id="glyph0-2">
<path style="stroke:none;" d="M 1.828125 -1 L 0.828125 -1 L 0.828125 0 L 1.828125 0 Z M 1.828125 -1 "/>
</symbol>
<symbol overflow="visible" id="glyph0-3">
<path style="stroke:none;" d="M 4.5625 -6.796875 L 1.0625 -6.796875 L 0.546875 -3.09375 L 1.328125 -3.09375 C 1.71875 -3.5625 2.046875 -3.734375 2.578125 -3.734375 C 3.484375 -3.734375 4.0625 -3.109375 4.0625 -2.09375 C 4.0625 -1.125 3.484375 -0.53125 2.578125 -0.53125 C 1.828125 -0.53125 1.375 -0.90625 1.1875 -1.671875 L 0.328125 -1.671875 C 0.453125 -1.109375 0.546875 -0.84375 0.75 -0.59375 C 1.125 -0.078125 1.828125 0.21875 2.59375 0.21875 C 3.96875 0.21875 4.921875 -0.78125 4.921875 -2.21875 C 4.921875 -3.5625 4.03125 -4.484375 2.71875 -4.484375 C 2.25 -4.484375 1.859375 -4.359375 1.46875 -4.0625 L 1.734375 -5.96875 L 4.5625 -5.96875 Z M 4.5625 -6.796875 "/>
</symbol>
<symbol overflow="visible" id="glyph0-4">
<path style="stroke:none;" d="M 2.484375 -4.84375 L 2.484375 0 L 3.328125 0 L 3.328125 -6.796875 L 2.765625 -6.796875 C 2.46875 -5.75 2.28125 -5.609375 0.984375 -5.453125 L 0.984375 -4.84375 Z M 2.484375 -4.84375 "/>
</symbol>
<symbol overflow="visible" id="glyph0-5">
<path style="stroke:none;" d="M 4.859375 -0.828125 L 1.28125 -0.828125 C 1.359375 -1.390625 1.671875 -1.75 2.5 -2.234375 L 3.46875 -2.75 C 4.40625 -3.265625 4.90625 -3.96875 4.90625 -4.8125 C 4.90625 -5.375 4.671875 -5.90625 4.265625 -6.265625 C 3.859375 -6.625 3.375 -6.796875 2.71875 -6.796875 C 1.859375 -6.796875 1.21875 -6.5 0.84375 -5.921875 C 0.609375 -5.5625 0.5 -5.125 0.484375 -4.4375 L 1.328125 -4.4375 C 1.359375 -4.90625 1.40625 -5.1875 1.53125 -5.40625 C 1.75 -5.8125 2.1875 -6.0625 2.703125 -6.0625 C 3.46875 -6.0625 4.03125 -5.515625 4.03125 -4.78125 C 4.03125 -4.25 3.71875 -3.796875 3.125 -3.4375 L 2.234375 -2.9375 C 0.8125 -2.140625 0.40625 -1.5 0.328125 0 L 4.859375 0 Z M 4.859375 -0.828125 "/>
</symbol>
<symbol overflow="visible" id="glyph0-6">
<path style="stroke:none;" d="M 2.125 -3.125 L 2.578125 -3.125 C 3.515625 -3.125 3.984375 -2.703125 3.984375 -1.890625 C 3.984375 -1.03125 3.46875 -0.53125 2.578125 -0.53125 C 1.65625 -0.53125 1.203125 -0.984375 1.15625 -1.96875 L 0.3125 -1.96875 C 0.34375 -1.421875 0.4375 -1.078125 0.609375 -0.765625 C 0.953125 -0.109375 1.625 0.21875 2.546875 0.21875 C 3.953125 0.21875 4.859375 -0.609375 4.859375 -1.90625 C 4.859375 -2.765625 4.515625 -3.25 3.703125 -3.515625 C 4.34375 -3.765625 4.65625 -4.25 4.65625 -4.9375 C 4.65625 -6.109375 3.875 -6.796875 2.578125 -6.796875 C 1.203125 -6.796875 0.484375 -6.046875 0.453125 -4.609375 L 1.296875 -4.609375 C 1.3125 -5.015625 1.34375 -5.25 1.453125 -5.453125 C 1.640625 -5.828125 2.0625 -6.0625 2.59375 -6.0625 C 3.34375 -6.0625 3.796875 -5.625 3.796875 -4.90625 C 3.796875 -4.421875 3.609375 -4.140625 3.25 -3.984375 C 3.015625 -3.890625 2.71875 -3.84375 2.125 -3.84375 Z M 2.125 -3.125 "/>
</symbol>
<symbol overflow="visible" id="glyph0-7">
<path style="stroke:none;" d="M 3.140625 -1.625 L 3.140625 0 L 3.984375 0 L 3.984375 -1.625 L 4.984375 -1.625 L 4.984375 -2.390625 L 3.984375 -2.390625 L 3.984375 -6.796875 L 3.359375 -6.796875 L 0.265625 -2.515625 L 0.265625 -1.625 Z M 3.140625 -2.390625 L 1 -2.390625 L 3.140625 -5.359375 Z M 3.140625 -2.390625 "/>
</symbol>
<symbol overflow="visible" id="glyph0-8">
<path style="stroke:none;" d="M 4.78125 -5.03125 C 4.609375 -6.140625 3.890625 -6.796875 2.84375 -6.796875 C 2.09375 -6.796875 1.421875 -6.4375 1.03125 -5.828125 C 0.609375 -5.171875 0.40625 -4.34375 0.40625 -3.09375 C 0.40625 -1.953125 0.578125 -1.234375 0.984375 -0.625 C 1.359375 -0.078125 1.953125 0.21875 2.703125 0.21875 C 3.984375 0.21875 4.921875 -0.734375 4.921875 -2.078125 C 4.921875 -3.34375 4.0625 -4.234375 2.84375 -4.234375 C 2.171875 -4.234375 1.640625 -3.96875 1.28125 -3.46875 C 1.28125 -5.125 1.828125 -6.046875 2.796875 -6.046875 C 3.390625 -6.046875 3.796875 -5.671875 3.9375 -5.03125 Z M 2.734375 -3.484375 C 3.546875 -3.484375 4.0625 -2.921875 4.0625 -2 C 4.0625 -1.15625 3.484375 -0.53125 2.703125 -0.53125 C 1.921875 -0.53125 1.328125 -1.1875 1.328125 -2.046875 C 1.328125 -2.890625 1.90625 -3.484375 2.734375 -3.484375 Z M 2.734375 -3.484375 "/>
</symbol>
<symbol overflow="visible" id="glyph0-9">
<path style="stroke:none;" d="M 4.984375 -6.796875 L 0.4375 -6.796875 L 0.4375 -5.96875 L 4.109375 -5.96875 C 2.5 -3.65625 1.828125 -2.234375 1.328125 0 L 2.21875 0 C 2.59375 -2.171875 3.453125 -4.046875 4.984375 -6.09375 Z M 4.984375 -6.796875 "/>
</symbol>
<symbol overflow="visible" id="glyph0-10">
<path style="stroke:none;" d="M 3.75 -3.578125 C 4.453125 -4 4.6875 -4.34375 4.6875 -4.984375 C 4.6875 -6.046875 3.84375 -6.796875 2.640625 -6.796875 C 1.4375 -6.796875 0.59375 -6.046875 0.59375 -4.984375 C 0.59375 -4.359375 0.828125 -4.015625 1.515625 -3.578125 C 0.734375 -3.203125 0.359375 -2.640625 0.359375 -1.890625 C 0.359375 -0.640625 1.296875 0.21875 2.640625 0.21875 C 3.984375 0.21875 4.921875 -0.640625 4.921875 -1.875 C 4.921875 -2.640625 4.53125 -3.203125 3.75 -3.578125 Z M 2.640625 -6.046875 C 3.359375 -6.046875 3.8125 -5.625 3.8125 -4.96875 C 3.8125 -4.34375 3.34375 -3.921875 2.640625 -3.921875 C 1.921875 -3.921875 1.453125 -4.34375 1.453125 -4.984375 C 1.453125 -5.625 1.921875 -6.046875 2.640625 -6.046875 Z M 2.640625 -3.203125 C 3.484375 -3.203125 4.0625 -2.671875 4.0625 -1.875 C 4.0625 -1.0625 3.484375 -0.53125 2.625 -0.53125 C 1.796875 -0.53125 1.21875 -1.078125 1.21875 -1.875 C 1.21875 -2.671875 1.796875 -3.203125 2.640625 -3.203125 Z M 2.640625 -3.203125 "/>
</symbol>
<symbol overflow="visible" id="glyph0-11">
<path style="stroke:none;" d="M 0.515625 -1.546875 C 0.671875 -0.4375 1.40625 0.21875 2.4375 0.21875 C 3.1875 0.21875 3.859375 -0.140625 4.265625 -0.75 C 4.6875 -1.40625 4.890625 -2.25 4.890625 -3.484375 C 4.890625 -4.625 4.703125 -5.359375 4.3125 -5.953125 C 3.9375 -6.5 3.34375 -6.796875 2.59375 -6.796875 C 1.296875 -6.796875 0.359375 -5.84375 0.359375 -4.515625 C 0.359375 -3.25 1.234375 -2.34375 2.453125 -2.34375 C 3.09375 -2.34375 3.5625 -2.578125 4.015625 -3.109375 C 4 -1.453125 3.46875 -0.53125 2.5 -0.53125 C 1.90625 -0.53125 1.484375 -0.90625 1.359375 -1.546875 Z M 2.578125 -6.0625 C 3.375 -6.0625 3.96875 -5.40625 3.96875 -4.53125 C 3.96875 -3.6875 3.375 -3.09375 2.546875 -3.09375 C 1.734375 -3.09375 1.234375 -3.671875 1.234375 -4.578125 C 1.234375 -5.4375 1.796875 -6.0625 2.578125 -6.0625 Z M 2.578125 -6.0625 "/>
</symbol>
<symbol overflow="visible" id="glyph1-0">
<path style="stroke:none;" d=""/>
</symbol>
<symbol overflow="visible" id="glyph1-1">
<path style="stroke:none;" d="M 0 -0.953125 L 0 -4.890625 C 0 -5.71875 -0.234375 -6.34375 -0.734375 -6.796875 C -1.1875 -7.234375 -1.8125 -7.46875 -2.5 -7.46875 C -3.546875 -7.46875 -4.1875 -7 -4.625 -5.875 C -4.984375 -6.671875 -5.640625 -7.09375 -6.53125 -7.09375 C -7.15625 -7.09375 -7.734375 -6.859375 -8.140625 -6.390625 C -8.5625 -5.9375 -8.75 -5.34375 -8.75 -4.5 L -8.75 -0.953125 Z M -4.984375 -2.0625 L -7.765625 -2.0625 L -7.765625 -4.21875 C -7.765625 -4.84375 -7.6875 -5.203125 -7.453125 -5.5 C -7.21875 -5.8125 -6.859375 -5.96875 -6.375 -5.96875 C -5.90625 -5.96875 -5.53125 -5.8125 -5.296875 -5.5 C -5.0625 -5.203125 -4.984375 -4.84375 -4.984375 -4.21875 Z M -0.984375 -2.0625 L -4 -2.0625 L -4 -4.78125 C -4 -5.328125 -3.859375 -5.6875 -3.578125 -5.953125 C -3.296875 -6.21875 -2.921875 -6.359375 -2.484375 -6.359375 C -2.0625 -6.359375 -1.6875 -6.21875 -1.40625 -5.953125 C -1.109375 -5.6875 -0.984375 -5.328125 -0.984375 -4.78125 Z M -0.984375 -2.0625 "/>
</symbol>
<symbol overflow="visible" id="glyph1-2">
<path style="stroke:none;" d="M -6.28125 -1.796875 L -6.28125 -0.796875 L 0 -0.796875 L 0 -1.796875 Z M -8.75 -1.796875 L -8.75 -0.796875 L -7.484375 -0.796875 L -7.484375 -1.796875 Z M -8.75 -1.796875 "/>
</symbol>
<symbol overflow="visible" id="glyph1-3">
<path style="stroke:none;" d="M -6.28125 -3.046875 L -6.28125 -2.015625 L -8.015625 -2.015625 L -8.015625 -1.015625 L -6.28125 -1.015625 L -6.28125 -0.171875 L -5.46875 -0.171875 L -5.46875 -1.015625 L -0.71875 -1.015625 C -0.078125 -1.015625 0.28125 -1.453125 0.28125 -2.234375 C 0.28125 -2.46875 0.25 -2.71875 0.1875 -3.046875 L -0.640625 -3.046875 C -0.609375 -2.921875 -0.59375 -2.765625 -0.59375 -2.5625 C -0.59375 -2.140625 -0.71875 -2.015625 -1.15625 -2.015625 L -5.46875 -2.015625 L -5.46875 -3.046875 Z M -6.28125 -3.046875 "/>
</symbol>
<symbol overflow="visible" id="glyph1-4">
<path style="stroke:none;" d="M -4.53125 -5.25 C -5.765625 -5.25 -6.46875 -4.421875 -6.46875 -2.96875 C -6.46875 -1.515625 -5.71875 -0.5625 -4.546875 -0.5625 C -3.5625 -0.5625 -3.09375 -1.0625 -2.734375 -2.5625 L -2.515625 -3.484375 C -2.34375 -4.1875 -2.09375 -4.46875 -1.625 -4.46875 C -1.046875 -4.46875 -0.640625 -3.875 -0.640625 -3 C -0.640625 -2.453125 -0.796875 -2 -1.0625 -1.75 C -1.25 -1.59375 -1.421875 -1.53125 -1.875 -1.46875 L -1.875 -0.40625 C -0.421875 -0.453125 0.28125 -1.265625 0.28125 -2.921875 C 0.28125 -4.5 -0.5 -5.515625 -1.71875 -5.515625 C -2.65625 -5.515625 -3.171875 -4.984375 -3.46875 -3.734375 L -3.703125 -2.765625 C -3.890625 -1.953125 -4.15625 -1.609375 -4.59375 -1.609375 C -5.171875 -1.609375 -5.546875 -2.125 -5.546875 -2.9375 C -5.546875 -3.75 -5.203125 -4.171875 -4.53125 -4.203125 Z M -4.53125 -5.25 "/>
</symbol>
</g>
</defs>
<g id="surface122166">
<rect x="0" y="0" width="720" height="360" style="fill:rgb(100%,100%,100%);fill-opacity:1;stroke:none;"/>
<path style=" stroke:none;fill-rule:nonzero;fill:rgb(6.27451%,58.823529%,28.235294%);fill-opacity:1;" d="M 69.628906 309.871094 L 69.675781 309.867188 L 87.757812 306.863281 L 93.25 306.863281 L 111.421875 309.875 L 105.039062 309.875 L 100.484375 309.085938 L 80.523438 309.085938 L 76.058594 309.871094 L 69.628906 309.871094 L 82.445312 308.761719 L 98.652344 308.761719 L 90.570312 307.355469 L 90.480469 307.351562 L 90.390625 307.359375 L 82.398438 308.761719 L 82.445312 308.761719 Z M 69.628906 309.871094 "/>
<path style=" stroke:none;fill-rule:nonzero;fill:rgb(14.509804%,36.078431%,60%);fill-opacity:1;" d="M 69.628906 314.113281 L 69.679688 314.113281 L 69.679688 314.101562 L 69.832031 314.085938 L 70.191406 314.066406 L 70.546875 314.054688 L 71.464844 314.027344 L 72.738281 314.003906 L 74.0625 313.988281 L 75.03125 313.976562 L 75.898438 313.96875 L 77.886719 313.953125 L 79.160156 313.945312 L 80.535156 313.9375 L 82.21875 313.929688 L 83.441406 313.925781 L 86.195312 313.917969 L 88.234375 313.917969 L 89.8125 313.914062 L 93.226562 313.914062 L 95.265625 313.917969 L 96.746094 313.917969 L 98.375 313.921875 L 99.75 313.925781 L 102.148438 313.933594 L 104.289062 313.945312 L 105.257812 313.953125 L 106.785156 313.964844 L 107.957031 313.980469 L 108.773438 313.988281 L 109.691406 314.003906 L 110.503906 314.023438 L 111.117188 314.046875 L 111.421875 314.0625 L 104.289062 314.0625 L 103.929688 314.046875 L 103.523438 314.035156 L 102.757812 314.015625 L 101.992188 314.003906 L 100.921875 313.992188 L 99.957031 313.984375 L 98.628906 313.976562 L 97.457031 313.972656 L 96.234375 313.96875 L 95.0625 313.964844 L 92.820312 313.960938 L 90.21875 313.960938 L 89.253906 313.964844 L 87.265625 313.964844 L 86.195312 313.96875 L 84.664062 313.976562 L 83.59375 313.980469 L 82.320312 313.988281 L 81.453125 313.996094 L 80.382812 314.007812 L 79.617188 314.015625 L 78.753906 314.03125 L 78.242188 314.039062 L 77.785156 314.050781 L 77.375 314.066406 L 77.070312 314.082031 L 76.867188 314.097656 L 76.765625 314.109375 L 76.765625 314.175781 L 76.867188 314.191406 L 77.121094 314.207031 L 77.785156 314.234375 L 78.753906 314.253906 L 79.875 314.273438 L 80.945312 314.285156 L 81.554688 314.292969 L 82.371094 314.296875 L 83.644531 314.304688 L 85.480469 314.316406 L 86.550781 314.316406 L 88.183594 314.320312 L 89.863281 314.324219 L 92.105469 314.324219 L 94.09375 314.320312 L 95.417969 314.320312 L 96.796875 314.316406 L 98.679688 314.308594 L 99.851562 314.300781 L 100.871094 314.292969 L 101.636719 314.285156 L 102.148438 314.28125 L 102.910156 314.265625 L 103.523438 314.253906 L 103.980469 314.238281 L 104.289062 314.222656 L 111.421875 314.222656 L 111.117188 314.242188 L 110.660156 314.257812 L 110.199219 314.269531 L 109.484375 314.285156 L 108.671875 314.296875 L 107.5 314.3125 L 106.53125 314.320312 L 105.257812 314.332031 L 104.082031 314.339844 L 102.808594 314.347656 L 100.921875 314.355469 L 99.699219 314.359375 L 98.375 314.363281 L 96.796875 314.367188 L 94.808594 314.367188 L 92.667969 314.371094 L 88.539062 314.371094 L 86.957031 314.367188 L 84.867188 314.363281 L 82.269531 314.355469 L 80.382812 314.347656 L 78.90625 314.339844 L 77.632812 314.332031 L 76.203125 314.320312 L 74.371094 314.304688 L 73.25 314.289062 L 72.484375 314.277344 L 71.617188 314.261719 L 71.003906 314.246094 L 70.292969 314.222656 L 69.78125 314.195312 L 69.628906 314.171875 Z M 69.628906 314.113281 "/>
<path style=" stroke:none;fill-rule:nonzero;fill:rgb(96.862745%,70.196078%,16.862745%);fill-opacity:1;" d="M 69.628906 303.902344 L 69.679688 303.902344 L 69.679688 303.84375 L 69.882812 303.714844 L 70.394531 303.539062 L 71.054688 303.394531 L 71.769531 303.28125 L 72.230469 303.222656 L 72.992188 303.136719 L 73.65625 303.074219 L 75.335938 302.945312 L 77.476562 302.828125 L 78.652344 302.773438 L 79.976562 302.726562 L 81.863281 302.671875 L 82.726562 302.652344 L 85.378906 302.609375 L 88.386719 302.578125 L 91.699219 302.570312 L 93.226562 302.574219 L 95.316406 302.585938 L 98.171875 302.617188 L 99.800781 302.644531 L 101.078125 302.671875 L 102.402344 302.710938 L 104.03125 302.765625 L 105.5625 302.835938 L 106.785156 302.902344 L 108.007812 302.988281 L 109.027344 303.078125 L 109.894531 303.179688 L 110.660156 303.296875 L 111.117188 303.398438 L 111.421875 303.496094 L 104.339844 303.496094 L 103.929688 303.398438 L 103.472656 303.320312 L 102.707031 303.226562 L 101.941406 303.160156 L 101.179688 303.105469 L 99.75 303.03125 L 98.527344 302.984375 L 97 302.945312 L 95.519531 302.921875 L 93.839844 302.902344 L 92.820312 302.898438 L 90.117188 302.898438 L 87.671875 302.917969 L 86.246094 302.941406 L 85.226562 302.964844 L 83.796875 303.003906 L 82.933594 303.039062 L 82.421875 303.0625 L 80.894531 303.152344 L 79.875 303.230469 L 79.3125 303.285156 L 78.601562 303.371094 L 78.089844 303.445312 L 77.53125 303.558594 L 77.222656 303.644531 L 76.816406 303.839844 L 76.765625 304.351562 L 76.917969 304.457031 L 77.222656 304.574219 L 77.632812 304.675781 L 78.242188 304.785156 L 78.855469 304.867188 L 79.925781 304.976562 L 80.84375 305.050781 L 81.554688 305.101562 L 82.933594 305.175781 L 83.492188 305.203125 L 84.816406 305.253906 L 86.195312 305.292969 L 87.875 305.328125 L 89.148438 305.34375 L 91.1875 305.359375 L 93.789062 305.359375 L 96.847656 305.34375 L 98.78125 305.320312 L 100.109375 305.296875 L 100.976562 305.277344 L 102.046875 305.246094 L 102.808594 305.21875 L 103.523438 305.1875 L 104.390625 305.136719 L 104.390625 304.457031 L 91.800781 304.457031 L 91.800781 304.136719 L 111.371094 304.132812 L 111.421875 305.246094 L 110.351562 305.324219 L 109.027344 305.394531 L 107.753906 305.453125 L 106.429688 305.5 L 104.542969 305.554688 L 103.011719 305.589844 L 100.667969 305.628906 L 98.527344 305.65625 L 96.285156 305.671875 L 94.296875 305.679688 L 91.953125 305.683594 L 89.863281 305.679688 L 87.621094 305.660156 L 85.835938 305.636719 L 84.207031 305.609375 L 82.574219 305.574219 L 80.535156 305.511719 L 79.210938 305.464844 L 77.835938 305.40625 L 76.460938 305.332031 L 75.234375 305.257812 L 74.421875 305.199219 L 73.605469 305.128906 L 72.738281 305.042969 L 71.921875 304.945312 L 71.3125 304.859375 L 70.75 304.757812 L 70.34375 304.664062 L 69.933594 304.539062 L 69.730469 304.433594 L 69.628906 304.347656 Z M 69.628906 303.902344 "/>
<path style=" stroke:none;fill-rule:nonzero;fill:rgb(83.921569%,15.686275%,22.352941%);fill-opacity:1;" d="M 69.628906 311.054688 L 111.421875 311.054688 L 111.421875 311.234375 L 94.003906 311.234375 L 94.003906 312.734375 L 86.996094 312.734375 L 86.996094 311.238281 L 86.894531 311.234375 L 69.628906 311.234375 Z M 69.628906 311.054688 "/>
<path style=" stroke:none;fill-rule:nonzero;fill:rgb(6.27451%,58.823529%,28.235294%);fill-opacity:1;" d="M 157.617188 309.085938 L 157.660156 309.082031 L 175.746094 303.820312 L 181.238281 303.820312 L 199.410156 309.089844 L 193.023438 309.089844 L 188.46875 307.714844 L 168.511719 307.714844 L 164.046875 309.085938 L 157.617188 309.085938 L 170.429688 307.144531 L 186.640625 307.140625 L 178.558594 304.679688 L 178.46875 304.675781 L 178.378906 304.691406 L 170.386719 307.140625 L 170.429688 307.144531 Z M 157.617188 309.085938 "/>
<path style=" stroke:none;fill-rule:nonzero;fill:rgb(14.509804%,36.078431%,60%);fill-opacity:1;" d="M 157.617188 260.453125 L 157.667969 260.410156 L 157.667969 259.433594 L 157.820312 257.886719 L 158.175781 255.929688 L 158.535156 254.585938 L 159.449219 252.179688 L 160.726562 249.859375 L 162.050781 248.066406 L 163.019531 247.007812 L 163.886719 246.191406 L 165.871094 244.683594 L 167.148438 243.910156 L 168.523438 243.21875 L 170.207031 242.527344 L 171.429688 242.117188 L 174.179688 241.464844 L 176.21875 241.179688 L 177.800781 241.058594 L 181.214844 241.058594 L 183.253906 241.222656 L 184.730469 241.425781 L 186.363281 241.75 L 187.738281 242.117188 L 190.132812 243.015625 L 192.273438 244.15625 L 193.242188 244.808594 L 194.773438 246.070312 L 195.945312 247.292969 L 196.757812 248.351562 L 197.675781 249.859375 L 198.492188 251.691406 L 199.105469 253.769531 L 199.410156 255.523438 L 192.273438 255.523438 L 191.917969 253.890625 L 191.511719 252.628906 L 190.746094 250.957031 L 189.980469 249.777344 L 188.910156 248.597656 L 187.941406 247.820312 L 186.617188 247.046875 L 185.445312 246.558594 L 184.222656 246.191406 L 183.050781 245.949219 L 180.804688 245.703125 L 178.207031 245.703125 L 177.238281 245.785156 L 175.25 246.109375 L 174.179688 246.394531 L 172.652344 246.964844 L 171.582031 247.496094 L 170.308594 248.3125 L 169.441406 249.003906 L 168.371094 250.0625 L 167.605469 251 L 166.738281 252.34375 L 166.230469 253.363281 L 165.769531 254.503906 L 165.363281 255.847656 L 165.058594 257.273438 L 164.855469 258.78125 L 164.75 260.246094 L 164.75 266.5625 L 164.855469 268.03125 L 165.109375 269.742188 L 165.769531 272.226562 L 166.738281 274.386719 L 167.859375 276.097656 L 168.929688 277.320312 L 169.542969 277.890625 L 170.359375 278.539062 L 171.632812 279.355469 L 173.46875 280.171875 L 174.539062 280.496094 L 176.167969 280.824219 L 177.851562 280.984375 L 180.09375 280.984375 L 182.082031 280.824219 L 183.40625 280.617188 L 184.78125 280.292969 L 186.667969 279.601562 L 187.839844 278.949219 L 188.859375 278.175781 L 189.625 277.398438 L 190.132812 276.75 L 190.898438 275.484375 L 191.511719 274.101562 L 191.96875 272.675781 L 192.273438 271.289062 L 199.410156 271.289062 L 199.105469 272.917969 L 198.644531 274.507812 L 198.1875 275.6875 L 197.472656 277.113281 L 196.65625 278.378906 L 195.484375 279.804688 L 194.515625 280.742188 L 193.242188 281.757812 L 192.070312 282.535156 L 190.796875 283.226562 L 188.910156 284.039062 L 187.6875 284.449219 L 186.363281 284.816406 L 184.78125 285.140625 L 182.792969 285.425781 L 180.652344 285.589844 L 178.664062 285.628906 L 176.523438 285.546875 L 174.945312 285.386719 L 172.855469 285.019531 L 170.257812 284.285156 L 168.371094 283.511719 L 166.890625 282.738281 L 165.617188 281.921875 L 164.191406 280.824219 L 162.355469 279.03125 L 161.234375 277.644531 L 160.46875 276.503906 L 159.605469 274.914062 L 158.992188 273.488281 L 158.277344 271.207031 L 157.769531 268.316406 L 157.617188 266.074219 Z M 157.617188 260.453125 "/>
<path style=" stroke:none;fill-rule:nonzero;fill:rgb(96.862745%,70.196078%,16.862745%);fill-opacity:1;" d="M 157.617188 312.027344 L 157.667969 312.023438 L 157.667969 311.949219 L 157.871094 311.78125 L 158.378906 311.546875 L 159.042969 311.355469 L 159.757812 311.207031 L 160.214844 311.128906 L 160.980469 311.015625 L 161.640625 310.933594 L 163.324219 310.765625 L 165.464844 310.609375 L 166.636719 310.539062 L 167.960938 310.476562 L 169.847656 310.40625 L 170.714844 310.378906 L 173.363281 310.320312 L 176.371094 310.28125 L 179.683594 310.269531 L 181.214844 310.273438 L 183.304688 310.289062 L 186.15625 310.332031 L 187.789062 310.367188 L 189.0625 310.40625 L 190.386719 310.453125 L 192.019531 310.53125 L 193.546875 310.621094 L 194.773438 310.710938 L 195.996094 310.820312 L 197.015625 310.941406 L 197.878906 311.074219 L 198.644531 311.230469 L 199.105469 311.359375 L 199.410156 311.492188 L 192.324219 311.492188 L 191.917969 311.359375 L 191.457031 311.257812 L 190.695312 311.136719 L 189.929688 311.046875 L 189.164062 310.976562 L 187.738281 310.878906 L 186.515625 310.816406 L 184.984375 310.765625 L 183.507812 310.730469 L 181.824219 310.710938 L 180.804688 310.703125 L 178.105469 310.703125 L 175.660156 310.726562 L 174.230469 310.757812 L 173.210938 310.789062 L 171.785156 310.84375 L 170.917969 310.890625 L 170.410156 310.917969 L 168.878906 311.035156 L 167.859375 311.140625 L 167.300781 311.210938 L 166.585938 311.324219 L 166.078125 311.425781 L 165.515625 311.574219 L 165.210938 311.6875 L 164.800781 311.941406 L 164.75 312.613281 L 164.90625 312.757812 L 165.210938 312.910156 L 165.617188 313.046875 L 166.230469 313.1875 L 166.839844 313.296875 L 167.910156 313.441406 L 168.828125 313.539062 L 169.542969 313.601562 L 170.917969 313.703125 L 171.480469 313.738281 L 172.804688 313.804688 L 174.179688 313.859375 L 175.863281 313.902344 L 177.136719 313.925781 L 179.175781 313.945312 L 181.773438 313.945312 L 184.832031 313.921875 L 186.769531 313.890625 L 188.09375 313.863281 L 188.960938 313.835938 L 190.03125 313.792969 L 190.796875 313.757812 L 191.511719 313.714844 L 192.375 313.652344 L 192.375 312.757812 L 179.789062 312.753906 L 179.789062 312.335938 L 199.359375 312.332031 L 199.410156 313.792969 L 198.339844 313.894531 L 197.015625 313.992188 L 195.738281 314.066406 L 194.414062 314.132812 L 192.527344 314.203125 L 191 314.246094 L 188.65625 314.300781 L 186.515625 314.332031 L 184.273438 314.355469 L 182.285156 314.367188 L 179.941406 314.371094 L 177.851562 314.363281 L 175.609375 314.339844 L 173.824219 314.3125 L 172.191406 314.273438 L 170.5625 314.226562 L 168.523438 314.144531 L 167.199219 314.082031 L 165.820312 314.003906 L 164.445312 313.910156 L 163.222656 313.808594 L 162.40625 313.730469 L 161.589844 313.640625 L 160.726562 313.527344 L 159.910156 313.402344 L 159.296875 313.285156 L 158.738281 313.152344 L 158.328125 313.03125 L 157.921875 312.863281 L 157.71875 312.726562 L 157.617188 312.609375 Z M 157.617188 312.027344 "/>
<path style=" stroke:none;fill-rule:nonzero;fill:rgb(83.921569%,15.686275%,22.352941%);fill-opacity:1;" d="M 157.617188 286.808594 L 199.410156 286.808594 L 199.410156 288.503906 L 181.992188 288.519531 L 181.992188 302.640625 L 174.984375 302.640625 L 174.984375 288.535156 L 174.882812 288.503906 L 157.617188 288.503906 Z M 157.617188 286.808594 "/>
<path style=" stroke:none;fill-rule:nonzero;fill:rgb(6.27451%,58.823529%,28.235294%);fill-opacity:1;" d="M 201.609375 314.371094 L 201.652344 314.367188 L 219.738281 313.375 L 225.230469 313.375 L 243.402344 314.371094 L 237.019531 314.371094 L 232.464844 314.109375 L 212.503906 314.109375 L 208.039062 314.371094 L 201.609375 314.371094 L 214.425781 314.003906 L 230.632812 314 L 222.550781 313.535156 L 222.460938 313.535156 L 222.371094 313.539062 L 214.378906 314 L 214.425781 314.003906 Z M 201.609375 314.371094 "/>
<path style=" stroke:none;fill-rule:nonzero;fill:rgb(14.509804%,36.078431%,60%);fill-opacity:1;" d="M 201.609375 307.941406 L 201.660156 307.933594 L 201.660156 307.769531 L 201.8125 307.507812 L 202.171875 307.175781 L 202.527344 306.949219 L 203.445312 306.542969 L 204.71875 306.152344 L 206.042969 305.847656 L 207.011719 305.671875 L 207.878906 305.53125 L 209.867188 305.277344 L 211.140625 305.148438 L 212.515625 305.03125 L 214.199219 304.914062 L 215.421875 304.84375 L 218.175781 304.734375 L 220.210938 304.6875 L 221.792969 304.664062 L 225.207031 304.664062 L 227.246094 304.691406 L 228.722656 304.726562 L 230.355469 304.78125 L 231.730469 304.84375 L 234.128906 304.996094 L 236.269531 305.1875 L 237.234375 305.296875 L 238.765625 305.511719 L 239.9375 305.71875 L 240.753906 305.898438 L 241.671875 306.152344 L 242.484375 306.460938 L 243.097656 306.8125 L 243.402344 307.109375 L 236.269531 307.109375 L 235.910156 306.832031 L 235.503906 306.621094 L 234.738281 306.335938 L 233.972656 306.136719 L 232.902344 305.9375 L 231.933594 305.808594 L 230.609375 305.675781 L 229.4375 305.59375 L 228.214844 305.53125 L 227.042969 305.492188 L 224.800781 305.449219 L 222.199219 305.449219 L 221.230469 305.464844 L 219.246094 305.519531 L 218.175781 305.566406 L 216.644531 305.664062 L 215.574219 305.753906 L 214.300781 305.890625 L 213.433594 306.007812 L 212.363281 306.1875 L 211.597656 306.34375 L 210.734375 306.570312 L 210.222656 306.742188 L 209.765625 306.9375 L 209.355469 307.164062 L 209.050781 307.40625 L 208.847656 307.660156 L 208.746094 307.90625 L 208.746094 308.972656 L 208.847656 309.222656 L 209.101562 309.511719 L 209.765625 309.929688 L 210.734375 310.292969 L 211.855469 310.582031 L 212.925781 310.789062 L 213.535156 310.886719 L 214.351562 310.996094 L 215.625 311.132812 L 217.460938 311.273438 L 218.53125 311.328125 L 220.160156 311.382812 L 221.84375 311.410156 L 224.085938 311.410156 L 226.074219 311.382812 L 227.398438 311.347656 L 228.777344 311.292969 L 230.660156 311.175781 L 231.832031 311.066406 L 232.851562 310.933594 L 233.617188 310.804688 L 234.128906 310.695312 L 234.890625 310.480469 L 235.503906 310.246094 L 235.960938 310.003906 L 236.269531 309.773438 L 243.402344 309.773438 L 243.097656 310.046875 L 242.640625 310.316406 L 242.179688 310.515625 L 241.464844 310.753906 L 240.652344 310.96875 L 239.480469 311.210938 L 238.511719 311.367188 L 237.234375 311.539062 L 236.0625 311.671875 L 234.789062 311.789062 L 232.902344 311.925781 L 231.679688 311.996094 L 230.355469 312.054688 L 228.777344 312.109375 L 226.789062 312.160156 L 224.648438 312.1875 L 222.660156 312.195312 L 220.519531 312.179688 L 218.9375 312.152344 L 216.847656 312.089844 L 214.25 311.964844 L 212.363281 311.835938 L 210.886719 311.707031 L 209.613281 311.566406 L 208.183594 311.382812 L 206.347656 311.078125 L 205.226562 310.84375 L 204.464844 310.652344 L 203.597656 310.382812 L 202.984375 310.144531 L 202.273438 309.757812 L 201.761719 309.269531 L 201.609375 308.890625 Z M 201.609375 307.941406 "/>
<path style=" stroke:none;fill-rule:nonzero;fill:rgb(96.862745%,70.196078%,16.862745%);fill-opacity:1;" d="M 201.609375 222.03125 L 201.660156 221.9375 L 201.660156 220.03125 L 201.863281 215.738281 L 202.375 209.828125 L 203.035156 204.964844 L 203.75 201.152344 L 204.207031 199.148438 L 204.972656 196.289062 L 205.636719 194.191406 L 207.316406 189.902344 L 209.457031 185.898438 L 210.628906 184.179688 L 211.957031 182.558594 L 213.84375 180.75 L 214.707031 180.082031 L 217.359375 178.554688 L 220.367188 177.601562 L 223.679688 177.316406 L 225.207031 177.410156 L 227.296875 177.792969 L 230.152344 178.84375 L 231.78125 179.796875 L 233.058594 180.75 L 234.382812 181.988281 L 236.011719 183.894531 L 237.542969 186.183594 L 238.765625 188.472656 L 239.988281 191.332031 L 241.007812 194.382812 L 241.875 197.71875 L 242.640625 201.722656 L 243.097656 205.0625 L 243.402344 208.398438 L 236.320312 208.398438 L 235.910156 205.0625 L 235.453125 202.488281 L 234.6875 199.339844 L 233.921875 197.050781 L 233.160156 195.242188 L 231.730469 192.761719 L 230.507812 191.238281 L 228.980469 189.902344 L 227.5 189.042969 L 225.820312 188.472656 L 224.800781 188.28125 L 222.097656 188.28125 L 219.652344 188.949219 L 218.226562 189.710938 L 217.207031 190.472656 L 215.777344 191.902344 L 214.914062 193.046875 L 214.402344 193.8125 L 212.875 196.765625 L 211.855469 199.4375 L 211.292969 201.246094 L 210.578125 204.109375 L 210.070312 206.683594 L 209.507812 210.496094 L 209.203125 213.355469 L 208.796875 219.839844 L 208.746094 237 L 208.898438 240.625 L 209.203125 244.535156 L 209.613281 247.964844 L 210.222656 251.589844 L 210.835938 254.355469 L 211.90625 258.070312 L 212.824219 260.550781 L 213.535156 262.171875 L 214.914062 264.746094 L 215.472656 265.605469 L 216.796875 267.320312 L 218.175781 268.65625 L 219.855469 269.800781 L 221.128906 270.371094 L 223.167969 270.847656 L 225.769531 270.847656 L 228.828125 270.277344 L 230.761719 269.511719 L 232.089844 268.75 L 232.953125 268.082031 L 234.023438 267.035156 L 234.789062 266.082031 L 235.503906 265.03125 L 236.371094 263.410156 L 236.371094 240.625 L 223.78125 240.527344 L 223.78125 229.851562 L 243.351562 229.753906 L 243.402344 267.035156 L 242.332031 269.609375 L 241.007812 272.085938 L 239.734375 273.996094 L 238.410156 275.613281 L 236.523438 277.425781 L 234.992188 278.570312 L 232.648438 279.90625 L 230.507812 280.761719 L 228.265625 281.335938 L 226.277344 281.621094 L 223.933594 281.71875 L 221.84375 281.527344 L 219.601562 280.953125 L 217.816406 280.191406 L 216.1875 279.238281 L 214.554688 278 L 212.515625 275.996094 L 211.191406 274.375 L 209.816406 272.375 L 208.4375 269.988281 L 207.214844 267.414062 L 206.402344 265.414062 L 205.585938 263.125 L 204.71875 260.265625 L 203.902344 257.023438 L 203.292969 254.066406 L 202.730469 250.730469 L 202.324219 247.585938 L 201.914062 243.292969 L 201.710938 239.863281 L 201.609375 236.90625 Z M 201.609375 222.03125 "/>
<path style=" stroke:none;fill-rule:nonzero;fill:rgb(83.921569%,15.686275%,22.352941%);fill-opacity:1;" d="M 201.609375 282.898438 L 243.402344 282.898438 L 243.402344 285.101562 L 225.984375 285.121094 L 225.984375 303.484375 L 218.976562 303.484375 L 218.976562 285.140625 L 218.875 285.101562 L 201.609375 285.101562 Z M 201.609375 282.898438 "/>
<path style=" stroke:none;fill-rule:nonzero;fill:rgb(83.921569%,15.686275%,22.352941%);fill-opacity:1;" d="M 245.601562 20.664062 L 287.398438 20.664062 L 287.398438 52.101562 L 269.976562 52.378906 L 269.976562 314.371094 L 262.96875 314.371094 L 262.96875 52.652344 L 262.867188 52.101562 L 245.601562 52.101562 Z M 245.601562 20.664062 "/>
<path style=" stroke:none;fill-rule:nonzero;fill:rgb(14.509804%,36.078431%,60%);fill-opacity:1;" d="M 289.597656 312.566406 L 289.648438 312.5625 L 289.648438 312.492188 L 289.800781 312.382812 L 290.15625 312.242188 L 290.515625 312.148438 L 291.429688 311.972656 L 292.707031 311.808594 L 294.03125 311.679688 L 295 311.605469 L 295.867188 311.546875 L 297.851562 311.4375 L 299.128906 311.382812 L 300.503906 311.332031 L 302.183594 311.28125 L 303.410156 311.253906 L 306.160156 311.207031 L 308.199219 311.1875 L 309.78125 311.175781 L 313.195312 311.175781 L 315.234375 311.1875 L 316.710938 311.203125 L 318.34375 311.226562 L 319.71875 311.253906 L 322.113281 311.316406 L 324.253906 311.398438 L 325.222656 311.445312 L 326.75 311.535156 L 327.925781 311.625 L 328.738281 311.699219 L 329.65625 311.808594 L 330.472656 311.9375 L 331.085938 312.089844 L 331.390625 312.214844 L 324.253906 312.214844 L 323.898438 312.097656 L 323.488281 312.007812 L 322.726562 311.886719 L 321.960938 311.800781 L 320.890625 311.71875 L 319.921875 311.664062 L 318.597656 311.605469 L 317.425781 311.570312 L 316.203125 311.546875 L 315.027344 311.527344 L 312.785156 311.511719 L 310.1875 311.511719 L 309.21875 311.515625 L 307.230469 311.539062 L 306.160156 311.558594 L 304.632812 311.601562 L 303.5625 311.640625 L 302.289062 311.695312 L 301.421875 311.746094 L 300.351562 311.824219 L 299.585938 311.890625 L 298.71875 311.984375 L 298.210938 312.058594 L 297.75 312.140625 L 297.34375 312.238281 L 297.039062 312.339844 L 296.832031 312.445312 L 296.730469 312.550781 L 296.730469 313.003906 L 296.832031 313.109375 L 297.089844 313.230469 L 297.75 313.410156 L 298.71875 313.566406 L 299.839844 313.6875 L 300.910156 313.773438 L 301.523438 313.816406 L 302.339844 313.863281 L 303.613281 313.921875 L 305.449219 313.980469 L 306.519531 314.003906 L 308.148438 314.027344 L 309.832031 314.039062 L 312.074219 314.039062 L 314.0625 314.027344 L 315.386719 314.011719 L 316.761719 313.988281 L 318.648438 313.9375 L 319.820312 313.890625 L 320.839844 313.835938 L 321.605469 313.78125 L 322.113281 313.734375 L 322.878906 313.644531 L 323.488281 313.542969 L 323.949219 313.441406 L 324.253906 313.34375 L 331.390625 313.34375 L 331.085938 313.460938 L 330.625 313.574219 L 330.167969 313.660156 L 329.453125 313.761719 L 328.636719 313.851562 L 327.464844 313.953125 L 326.496094 314.019531 L 325.222656 314.09375 L 324.050781 314.148438 L 322.777344 314.199219 L 320.890625 314.257812 L 319.667969 314.285156 L 318.34375 314.3125 L 316.761719 314.335938 L 314.773438 314.355469 L 312.632812 314.367188 L 310.644531 314.371094 L 308.503906 314.363281 L 306.925781 314.351562 L 304.835938 314.328125 L 302.234375 314.273438 L 300.351562 314.21875 L 298.871094 314.164062 L 297.597656 314.105469 L 296.171875 314.027344 L 294.335938 313.898438 L 293.214844 313.796875 L 292.449219 313.71875 L 291.585938 313.601562 L 290.972656 313.5 L 290.257812 313.335938 L 289.75 313.128906 L 289.597656 312.96875 Z M 289.597656 312.566406 "/>
<path style=" stroke:none;fill-rule:nonzero;fill:rgb(83.921569%,15.686275%,22.352941%);fill-opacity:1;" d="M 289.597656 37.890625 L 331.390625 37.890625 L 331.390625 67.019531 L 313.972656 67.273438 L 313.972656 310 L 306.964844 310 L 306.964844 67.53125 L 306.863281 67.019531 L 289.597656 67.019531 Z M 289.597656 37.890625 "/>
<path style=" stroke:none;fill-rule:nonzero;fill:rgb(96.862745%,70.196078%,16.862745%);fill-opacity:1;" d="M 333.589844 146.460938 L 333.640625 146.191406 L 333.640625 140.828125 L 333.84375 128.757812 L 334.355469 112.128906 L 335.015625 98.449219 L 335.730469 87.71875 L 336.1875 82.085938 L 336.953125 74.039062 L 337.617188 68.140625 L 339.296875 56.070312 L 341.4375 44.804688 L 342.609375 39.976562 L 343.9375 35.414062 L 345.820312 30.320312 L 346.6875 28.441406 L 349.339844 24.148438 L 352.347656 21.46875 L 355.660156 20.664062 L 357.1875 20.929688 L 359.277344 22.003906 L 362.132812 24.953125 L 363.761719 27.636719 L 365.035156 30.320312 L 366.363281 33.804688 L 367.992188 39.171875 L 369.523438 45.609375 L 370.746094 52.046875 L 371.96875 60.09375 L 372.988281 68.675781 L 373.855469 78.0625 L 374.617188 89.328125 L 375.078125 98.714844 L 375.382812 108.105469 L 368.296875 108.105469 L 367.890625 98.714844 L 367.433594 91.476562 L 366.667969 82.625 L 365.902344 76.1875 L 365.140625 71.089844 L 363.710938 64.117188 L 362.488281 59.824219 L 360.960938 56.070312 L 359.480469 53.65625 L 357.800781 52.046875 L 356.78125 51.507812 L 354.078125 51.507812 L 351.632812 53.386719 L 350.207031 55.53125 L 349.1875 57.679688 L 347.757812 61.703125 L 346.890625 64.921875 L 346.382812 67.066406 L 344.855469 75.382812 L 343.835938 82.890625 L 343.273438 87.988281 L 342.558594 96.035156 L 342.050781 103.277344 L 341.488281 114.003906 L 341.183594 122.050781 L 340.777344 140.292969 L 340.726562 188.574219 L 340.878906 198.765625 L 341.183594 209.761719 L 341.589844 219.417969 L 342.203125 229.609375 L 342.816406 237.390625 L 343.886719 247.851562 L 344.800781 254.824219 L 345.515625 259.382812 L 346.890625 266.625 L 347.453125 269.039062 L 348.777344 273.867188 L 350.152344 277.625 L 351.835938 280.84375 L 353.109375 282.453125 L 355.148438 283.792969 L 357.75 283.792969 L 360.804688 282.183594 L 362.742188 280.039062 L 364.070312 277.890625 L 364.933594 276.015625 L 366.003906 273.0625 L 366.769531 270.382812 L 367.484375 267.429688 L 368.351562 262.871094 L 368.351562 198.765625 L 355.761719 198.496094 L 355.761719 168.457031 L 375.332031 168.1875 L 375.382812 273.0625 L 374.3125 280.304688 L 372.988281 287.28125 L 371.714844 292.644531 L 370.386719 297.203125 L 368.503906 302.300781 L 366.972656 305.519531 L 364.628906 309.273438 L 362.488281 311.6875 L 360.246094 313.296875 L 358.257812 314.101562 L 355.914062 314.371094 L 353.824219 313.835938 L 351.582031 312.226562 L 349.796875 310.078125 L 348.167969 307.398438 L 346.535156 303.910156 L 344.496094 298.277344 L 343.171875 293.71875 L 341.796875 288.085938 L 340.417969 281.378906 L 339.195312 274.136719 L 338.378906 268.503906 L 337.566406 262.066406 L 336.699219 254.019531 L 335.882812 244.898438 L 335.273438 236.585938 L 334.710938 227.195312 L 334.304688 218.34375 L 333.894531 206.277344 L 333.691406 196.621094 L 333.589844 188.304688 Z M 333.589844 146.460938 "/>
<path style=" stroke:none;fill-rule:nonzero;fill:rgb(6.27451%,58.823529%,28.235294%);fill-opacity:1;" d="M 377.582031 302.34375 L 377.628906 302.121094 L 395.710938 65.675781 L 401.203125 65.675781 L 419.375 302.566406 L 412.992188 302.566406 L 408.4375 240.730469 L 388.476562 240.730469 L 384.011719 302.34375 L 377.582031 302.34375 L 390.398438 215.148438 L 406.605469 214.925781 L 398.523438 104.378906 L 398.433594 104.15625 L 398.347656 104.824219 L 390.351562 214.925781 L 390.398438 215.148438 Z M 377.582031 302.34375 "/>
<path style=" stroke:none;fill-rule:nonzero;fill:rgb(14.509804%,36.078431%,60%);fill-opacity:1;" d="M 377.582031 313.925781 L 377.632812 313.925781 L 377.632812 313.90625 L 377.785156 313.878906 L 378.144531 313.84375 L 378.5 313.820312 L 379.417969 313.78125 L 380.691406 313.738281 L 382.015625 313.707031 L 382.984375 313.6875 L 383.851562 313.671875 L 385.839844 313.648438 L 387.113281 313.632812 L 388.488281 313.621094 L 390.171875 313.609375 L 391.394531 313.601562 L 394.148438 313.589844 L 396.1875 313.585938 L 397.765625 313.582031 L 401.179688 313.582031 L 403.21875 313.585938 L 404.699219 313.589844 L 406.328125 313.59375 L 407.703125 313.601562 L 410.101562 313.617188 L 412.242188 313.636719 L 413.210938 313.648438 L 414.738281 313.671875 L 415.910156 313.691406 L 416.726562 313.710938 L 417.644531 313.738281 L 418.460938 313.769531 L 419.070312 313.808594 L 419.375 313.839844 L 412.242188 313.839844 L 411.882812 313.808594 L 411.476562 313.789062 L 410.710938 313.757812 L 409.949219 313.738281 L 408.878906 313.714844 L 407.910156 313.703125 L 406.582031 313.6875 L 405.410156 313.679688 L 404.1875 313.671875 L 403.015625 313.667969 L 400.773438 313.664062 L 398.175781 313.664062 L 397.207031 313.667969 L 395.21875 313.671875 L 394.148438 313.675781 L 392.617188 313.6875 L 391.546875 313.695312 L 390.273438 313.710938 L 389.40625 313.722656 L 388.335938 313.742188 L 387.574219 313.757812 L 386.707031 313.78125 L 386.195312 313.800781 L 385.738281 313.820312 L 385.332031 313.84375 L 385.023438 313.871094 L 384.820312 313.894531 L 384.71875 313.921875 L 384.71875 314.035156 L 384.820312 314.058594 L 385.074219 314.089844 L 385.738281 314.132812 L 386.707031 314.171875 L 387.828125 314.203125 L 388.898438 314.222656 L 389.507812 314.234375 L 390.324219 314.246094 L 391.597656 314.257812 L 393.433594 314.273438 L 394.503906 314.28125 L 396.136719 314.285156 L 397.816406 314.289062 L 400.058594 314.289062 L 402.046875 314.285156 L 403.371094 314.28125 L 404.75 314.277344 L 406.632812 314.265625 L 407.808594 314.253906 L 408.828125 314.238281 L 409.589844 314.226562 L 410.101562 314.214844 L 410.863281 314.191406 L 411.476562 314.167969 L 411.933594 314.140625 L 412.242188 314.117188 L 419.375 314.117188 L 419.070312 314.144531 L 418.613281 314.175781 L 418.152344 314.195312 L 417.441406 314.21875 L 416.625 314.242188 L 415.453125 314.269531 L 414.484375 314.285156 L 413.210938 314.300781 L 412.039062 314.316406 L 410.761719 314.328125 L 408.878906 314.34375 L 407.652344 314.351562 L 406.328125 314.355469 L 404.75 314.363281 L 402.761719 314.367188 L 400.621094 314.371094 L 396.492188 314.371094 L 394.914062 314.367188 L 392.824219 314.359375 L 390.222656 314.347656 L 388.335938 314.332031 L 386.859375 314.320312 L 385.585938 314.304688 L 384.15625 314.285156 L 382.324219 314.253906 L 381.203125 314.230469 L 380.4375 314.210938 L 379.570312 314.179688 L 378.960938 314.15625 L 378.246094 314.117188 L 377.734375 314.066406 L 377.582031 314.023438 Z M 377.582031 313.925781 "/>
<path style=" stroke:none;fill-rule:nonzero;fill:rgb(96.862745%,70.196078%,16.862745%);fill-opacity:1;" d="M 377.582031 307.453125 L 377.632812 307.445312 L 377.632812 307.289062 L 377.835938 306.929688 L 378.347656 306.441406 L 379.011719 306.039062 L 379.722656 305.722656 L 380.183594 305.554688 L 380.945312 305.320312 L 381.609375 305.144531 L 383.292969 304.789062 L 385.433594 304.457031 L 386.605469 304.3125 L 387.929688 304.179688 L 389.816406 304.03125 L 390.683594 303.972656 L 393.332031 303.847656 L 396.339844 303.769531 L 399.652344 303.746094 L 401.179688 303.753906 L 403.269531 303.785156 L 406.125 303.871094 L 407.757812 303.949219 L 409.03125 304.03125 L 410.355469 304.132812 L 411.988281 304.289062 L 413.515625 304.480469 L 414.738281 304.671875 L 415.960938 304.90625 L 416.980469 305.160156 L 417.847656 305.4375 L 418.613281 305.769531 L 419.070312 306.046875 L 419.375 306.324219 L 412.292969 306.324219 L 411.882812 306.046875 L 411.425781 305.832031 L 410.660156 305.570312 L 409.898438 305.382812 L 409.132812 305.230469 L 407.703125 305.027344 L 406.480469 304.898438 L 404.953125 304.789062 L 403.476562 304.71875 L 401.792969 304.671875 L 400.773438 304.65625 L 398.070312 304.65625 L 395.625 304.710938 L 394.199219 304.773438 L 393.179688 304.835938 L 391.753906 304.953125 L 390.886719 305.050781 L 390.375 305.113281 L 388.847656 305.359375 L 387.828125 305.578125 L 387.265625 305.730469 L 386.554688 305.96875 L 386.042969 306.179688 L 385.484375 306.496094 L 385.175781 306.734375 L 384.769531 307.273438 L 384.71875 308.695312 L 384.871094 308.996094 L 385.175781 309.320312 L 385.585938 309.605469 L 386.195312 309.90625 L 386.808594 310.132812 L 387.878906 310.441406 L 388.796875 310.648438 L 389.507812 310.78125 L 390.886719 310.996094 L 391.445312 311.066406 L 392.769531 311.210938 L 394.148438 311.320312 L 395.828125 311.414062 L 397.105469 311.460938 L 399.140625 311.5 L 401.742188 311.5 L 404.800781 311.453125 L 406.738281 311.390625 L 408.0625 311.328125 L 408.929688 311.273438 L 410 311.183594 L 410.761719 311.105469 L 411.476562 311.019531 L 412.34375 310.886719 L 412.34375 308.996094 L 399.753906 308.988281 L 399.753906 308.101562 L 419.324219 308.09375 L 419.375 311.183594 L 418.304688 311.398438 L 416.980469 311.605469 L 415.707031 311.761719 L 414.382812 311.898438 L 412.496094 312.046875 L 410.96875 312.140625 L 408.621094 312.253906 L 406.480469 312.324219 L 404.238281 312.371094 L 402.25 312.394531 L 399.90625 312.402344 L 397.816406 312.386719 L 395.574219 312.339844 L 393.789062 312.277344 L 392.160156 312.199219 L 390.527344 312.09375 L 388.488281 311.929688 L 387.164062 311.792969 L 385.789062 311.628906 L 384.414062 311.429688 L 383.191406 311.21875 L 382.375 311.050781 L 381.558594 310.859375 L 380.691406 310.625 L 379.875 310.355469 L 379.265625 310.109375 L 378.703125 309.832031 L 378.296875 309.574219 L 377.890625 309.214844 L 377.683594 308.933594 L 377.582031 308.6875 Z M 377.582031 307.453125 "/>
<path style=" stroke:none;fill-rule:nonzero;fill:rgb(14.509804%,36.078431%,60%);fill-opacity:1;" d="M 421.578125 148.457031 L 421.628906 148.1875 L 421.628906 141.742188 L 421.78125 131.542969 L 422.136719 118.65625 L 422.492188 109.796875 L 423.410156 93.957031 L 424.683594 78.652344 L 426.011719 66.839844 L 426.980469 59.859375 L 427.84375 54.492188 L 429.832031 44.558594 L 431.105469 39.457031 L 432.484375 34.890625 L 434.164062 30.328125 L 435.390625 27.644531 L 438.140625 23.347656 L 440.179688 21.46875 L 441.757812 20.664062 L 445.175781 20.664062 L 447.214844 21.738281 L 448.691406 23.078125 L 450.324219 25.226562 L 451.699219 27.644531 L 454.09375 33.550781 L 456.234375 41.066406 L 457.203125 45.363281 L 458.730469 53.683594 L 459.90625 61.738281 L 460.71875 68.71875 L 461.636719 78.652344 L 462.453125 90.734375 L 463.0625 104.425781 L 463.371094 115.96875 L 456.234375 115.96875 L 455.878906 105.230469 L 455.46875 96.910156 L 454.707031 85.902344 L 453.941406 78.117188 L 452.871094 70.332031 L 451.902344 65.230469 L 450.578125 60.128906 L 449.40625 56.90625 L 448.183594 54.492188 L 447.007812 52.878906 L 444.765625 51.269531 L 442.167969 51.269531 L 441.199219 51.804688 L 439.210938 53.953125 L 438.140625 55.832031 L 436.613281 59.589844 L 435.542969 63.082031 L 434.265625 68.449219 L 433.402344 73.015625 L 432.332031 79.996094 L 431.566406 86.171875 L 430.699219 95.03125 L 430.191406 101.742188 L 429.730469 109.257812 L 429.324219 118.117188 L 429.019531 127.515625 L 428.8125 137.449219 L 428.710938 147.113281 L 428.710938 188.726562 L 428.8125 198.390625 L 429.070312 209.667969 L 429.730469 226.042969 L 430.699219 240.273438 L 431.820312 251.546875 L 432.890625 259.601562 L 433.503906 263.359375 L 434.320312 267.65625 L 435.59375 273.027344 L 437.425781 278.394531 L 438.496094 280.542969 L 440.128906 282.691406 L 441.8125 283.765625 L 444.054688 283.765625 L 446.042969 282.691406 L 447.367188 281.347656 L 448.742188 279.199219 L 450.628906 274.636719 L 451.800781 270.339844 L 452.820312 265.242188 L 453.585938 260.140625 L 454.09375 255.84375 L 454.859375 247.519531 L 455.46875 238.394531 L 455.929688 228.996094 L 456.234375 219.867188 L 463.371094 219.867188 L 463.0625 230.609375 L 462.605469 241.078125 L 462.148438 248.863281 L 461.433594 258.261719 L 460.617188 266.582031 L 459.445312 275.980469 L 458.476562 282.152344 L 457.203125 288.867188 L 456.03125 293.96875 L 454.757812 298.53125 L 452.871094 303.898438 L 451.648438 306.585938 L 450.324219 309 L 448.742188 311.148438 L 446.753906 313.027344 L 444.613281 314.101562 L 442.625 314.371094 L 440.484375 313.832031 L 438.90625 312.761719 L 436.816406 310.34375 L 434.214844 305.511719 L 432.332031 300.410156 L 430.851562 295.308594 L 429.578125 289.941406 L 428.152344 282.691406 L 426.316406 270.878906 L 425.195312 261.75 L 424.429688 254.234375 L 423.5625 243.761719 L 422.953125 234.367188 L 422.238281 219.332031 L 421.730469 200.269531 L 421.578125 185.503906 Z M 421.578125 148.457031 "/>
<path style=" stroke:none;fill-rule:nonzero;fill:rgb(6.27451%,58.823529%,28.235294%);fill-opacity:1;" d="M 465.570312 314.371094 L 465.613281 314.367188 L 483.699219 313.382812 L 489.191406 313.382812 L 507.363281 314.371094 L 500.976562 314.371094 L 496.425781 314.113281 L 476.464844 314.113281 L 472 314.371094 L 465.570312 314.371094 L 478.382812 314.007812 L 494.59375 314.003906 L 486.511719 313.542969 L 486.421875 313.542969 L 486.332031 313.546875 L 478.339844 314.003906 L 478.382812 314.007812 Z M 465.570312 314.371094 "/>
<path style=" stroke:none;fill-rule:nonzero;fill:rgb(14.509804%,36.078431%,60%);fill-opacity:1;" d="M 465.570312 311.644531 L 465.621094 311.644531 L 465.621094 311.621094 L 465.773438 311.585938 L 466.128906 311.542969 L 466.488281 311.515625 L 467.40625 311.460938 L 468.679688 311.410156 L 470.003906 311.371094 L 470.972656 311.347656 L 471.839844 311.328125 L 473.828125 311.292969 L 475.101562 311.277344 L 476.476562 311.261719 L 478.160156 311.246094 L 479.382812 311.238281 L 482.132812 311.222656 L 484.171875 311.21875 L 485.753906 311.214844 L 489.167969 311.214844 L 491.207031 311.21875 L 492.683594 311.222656 L 494.316406 311.230469 L 495.691406 311.238281 L 498.085938 311.257812 L 500.226562 311.28125 L 501.195312 311.296875 L 502.726562 311.324219 L 503.898438 311.351562 L 504.714844 311.375 L 505.628906 311.410156 L 506.445312 311.449219 L 507.058594 311.496094 L 507.363281 311.535156 L 500.226562 311.535156 L 499.871094 311.5 L 499.464844 311.472656 L 498.699219 311.433594 L 497.933594 311.40625 L 496.863281 311.382812 L 495.894531 311.363281 L 494.570312 311.347656 L 493.398438 311.335938 L 492.175781 311.328125 L 491.003906 311.324219 L 488.761719 311.316406 L 486.160156 311.316406 L 485.191406 311.320312 L 483.203125 311.328125 L 482.132812 311.332031 L 480.605469 311.34375 L 479.535156 311.355469 L 478.261719 311.375 L 477.394531 311.390625 L 476.324219 311.414062 L 475.558594 311.433594 L 474.691406 311.464844 L 474.183594 311.488281 L 473.726562 311.511719 L 473.316406 311.542969 L 473.011719 311.574219 L 472.808594 311.605469 L 472.707031 311.640625 L 472.707031 311.78125 L 472.808594 311.8125 L 473.0625 311.851562 L 473.726562 311.90625 L 474.691406 311.953125 L 475.8125 311.992188 L 476.882812 312.019531 L 477.496094 312.03125 L 478.3125 312.046875 L 479.585938 312.0625 L 481.421875 312.082031 L 482.492188 312.089844 L 484.121094 312.097656 L 485.804688 312.101562 L 488.046875 312.101562 L 490.035156 312.097656 L 491.359375 312.089844 L 492.734375 312.085938 L 494.621094 312.070312 L 495.792969 312.054688 L 496.8125 312.039062 L 497.578125 312.019531 L 498.085938 312.003906 L 498.851562 311.976562 L 499.464844 311.945312 L 499.921875 311.914062 L 500.226562 311.882812 L 507.363281 311.882812 L 507.058594 311.921875 L 506.597656 311.957031 L 506.140625 311.980469 L 505.425781 312.015625 L 504.609375 312.042969 L 503.4375 312.074219 L 502.46875 312.09375 L 501.195312 312.117188 L 500.023438 312.132812 L 498.75 312.148438 L 496.863281 312.167969 L 495.640625 312.175781 L 494.316406 312.183594 L 492.734375 312.191406 L 490.746094 312.199219 L 488.605469 312.203125 L 486.621094 312.203125 L 484.480469 312.199219 L 482.898438 312.195312 L 480.808594 312.1875 L 478.210938 312.171875 L 476.324219 312.15625 L 474.847656 312.136719 L 473.570312 312.121094 L 472.144531 312.097656 L 470.308594 312.054688 L 469.1875 312.027344 L 468.425781 312 L 467.558594 311.964844 L 466.945312 311.933594 L 466.230469 311.882812 L 465.722656 311.820312 L 465.570312 311.769531 Z M 465.570312 311.644531 "/>
<path style=" stroke:none;fill-rule:nonzero;fill:rgb(83.921569%,15.686275%,22.352941%);fill-opacity:1;" d="M 465.570312 40.214844 L 507.363281 40.214844 L 507.363281 69.097656 L 489.945312 69.347656 L 489.945312 310.035156 L 482.9375 310.035156 L 482.9375 69.601562 L 482.835938 69.097656 L 465.570312 69.097656 Z M 465.570312 40.214844 "/>
<path style=" stroke:none;fill-rule:nonzero;fill:rgb(6.27451%,58.823529%,28.235294%);fill-opacity:1;" d="M 509.5625 314.363281 L 509.609375 314.359375 L 527.691406 308.464844 L 533.183594 308.464844 L 551.355469 314.371094 L 544.972656 314.371094 L 540.417969 312.828125 L 520.457031 312.828125 L 515.992188 314.363281 L 509.5625 314.363281 L 522.378906 312.191406 L 538.585938 312.1875 L 530.503906 309.429688 L 530.414062 309.425781 L 530.324219 309.441406 L 522.332031 312.1875 L 522.378906 312.191406 Z M 509.5625 314.363281 "/>
<path style=" stroke:none;fill-rule:nonzero;fill:rgb(14.509804%,36.078431%,60%);fill-opacity:1;" d="M 509.5625 301.945312 L 509.613281 301.9375 L 509.613281 301.730469 L 509.765625 301.402344 L 510.125 300.988281 L 510.480469 300.703125 L 511.398438 300.195312 L 512.671875 299.703125 L 513.996094 299.320312 L 514.964844 299.097656 L 515.832031 298.925781 L 517.820312 298.605469 L 519.09375 298.441406 L 520.46875 298.292969 L 522.152344 298.148438 L 523.375 298.058594 L 526.128906 297.921875 L 528.167969 297.863281 L 529.746094 297.835938 L 533.160156 297.835938 L 535.199219 297.871094 L 536.679688 297.914062 L 538.308594 297.984375 L 539.683594 298.058594 L 542.082031 298.25 L 544.222656 298.492188 L 545.191406 298.628906 L 546.71875 298.898438 L 547.890625 299.15625 L 548.707031 299.382812 L 549.625 299.703125 L 550.441406 300.089844 L 551.050781 300.53125 L 551.355469 300.902344 L 544.222656 300.902344 L 543.863281 300.554688 L 543.457031 300.289062 L 542.691406 299.933594 L 541.929688 299.683594 L 540.859375 299.433594 L 539.890625 299.269531 L 538.5625 299.105469 L 537.390625 299 L 536.167969 298.925781 L 534.996094 298.871094 L 532.753906 298.820312 L 530.152344 298.820312 L 529.1875 298.835938 L 527.199219 298.90625 L 526.128906 298.96875 L 524.597656 299.089844 L 523.527344 299.199219 L 522.253906 299.375 L 521.386719 299.519531 L 520.316406 299.746094 L 519.554688 299.941406 L 518.6875 300.226562 L 518.175781 300.445312 L 517.71875 300.6875 L 517.308594 300.972656 L 517.003906 301.273438 L 516.800781 301.59375 L 516.699219 301.902344 L 516.699219 303.242188 L 516.800781 303.554688 L 517.054688 303.917969 L 517.71875 304.441406 L 518.6875 304.902344 L 519.808594 305.265625 L 520.878906 305.523438 L 521.488281 305.644531 L 522.304688 305.78125 L 523.578125 305.953125 L 525.414062 306.128906 L 526.484375 306.195312 L 528.117188 306.265625 L 529.796875 306.300781 L 532.039062 306.300781 L 534.027344 306.265625 L 535.351562 306.222656 L 536.730469 306.152344 L 538.613281 306.007812 L 539.789062 305.867188 L 540.804688 305.703125 L 541.570312 305.539062 L 542.082031 305.402344 L 542.84375 305.132812 L 543.457031 304.839844 L 543.914062 304.539062 L 544.222656 304.246094 L 551.355469 304.246094 L 551.050781 304.589844 L 550.59375 304.925781 L 550.132812 305.175781 L 549.421875 305.480469 L 548.605469 305.746094 L 547.433594 306.050781 L 546.464844 306.25 L 545.191406 306.464844 L 544.015625 306.628906 L 542.742188 306.773438 L 540.859375 306.949219 L 539.632812 307.035156 L 538.308594 307.113281 L 536.730469 307.179688 L 534.742188 307.242188 L 532.601562 307.277344 L 530.613281 307.285156 L 528.472656 307.269531 L 526.890625 307.234375 L 524.800781 307.15625 L 522.203125 307 L 520.316406 306.835938 L 518.839844 306.671875 L 517.566406 306.5 L 516.136719 306.265625 L 514.304688 305.886719 L 513.183594 305.59375 L 512.417969 305.351562 L 511.550781 305.011719 L 510.9375 304.710938 L 510.226562 304.226562 L 509.714844 303.613281 L 509.5625 303.140625 Z M 509.5625 301.945312 "/>
<path style=" stroke:none;fill-rule:nonzero;fill:rgb(83.921569%,15.686275%,22.352941%);fill-opacity:1;" d="M 509.5625 90.578125 L 551.355469 90.578125 L 551.355469 112.636719 L 533.9375 112.828125 L 533.9375 296.65625 L 526.929688 296.65625 L 526.929688 113.023438 L 526.828125 112.636719 L 509.5625 112.636719 Z M 509.5625 90.578125 "/>
<path style=" stroke:none;fill-rule:nonzero;fill:rgb(6.27451%,58.823529%,28.235294%);fill-opacity:1;" d="M 553.554688 314.367188 L 553.601562 314.363281 L 571.683594 309.972656 L 577.175781 309.972656 L 595.351562 314.371094 L 588.964844 314.371094 L 584.410156 313.222656 L 564.453125 313.222656 L 559.988281 314.367188 L 553.554688 314.367188 L 566.371094 312.75 L 582.578125 312.742188 L 574.5 310.691406 L 574.410156 310.6875 L 574.320312 310.699219 L 566.328125 312.742188 L 566.371094 312.75 Z M 553.554688 314.367188 "/>
<path style=" stroke:none;fill-rule:nonzero;fill:rgb(14.509804%,36.078431%,60%);fill-opacity:1;" d="M 553.554688 291.644531 L 553.609375 291.632812 L 553.609375 291.289062 L 553.761719 290.75 L 554.117188 290.070312 L 554.472656 289.597656 L 555.390625 288.761719 L 556.664062 287.949219 L 557.992188 287.324219 L 558.960938 286.957031 L 559.824219 286.671875 L 561.8125 286.144531 L 563.085938 285.875 L 564.464844 285.632812 L 566.144531 285.390625 L 567.367188 285.25 L 570.121094 285.023438 L 572.160156 284.921875 L 573.738281 284.878906 L 577.15625 284.878906 L 579.195312 284.9375 L 580.671875 285.007812 L 582.300781 285.121094 L 583.679688 285.25 L 586.074219 285.5625 L 588.214844 285.960938 L 589.183594 286.1875 L 590.710938 286.628906 L 591.882812 287.054688 L 592.699219 287.425781 L 593.617188 287.949219 L 594.433594 288.589844 L 595.042969 289.316406 L 595.351562 289.925781 L 588.214844 289.925781 L 587.859375 289.359375 L 587.449219 288.917969 L 586.6875 288.335938 L 585.921875 287.921875 L 584.851562 287.511719 L 583.882812 287.238281 L 582.558594 286.96875 L 581.386719 286.800781 L 580.160156 286.671875 L 578.988281 286.585938 L 576.746094 286.5 L 574.148438 286.5 L 573.179688 286.527344 L 571.191406 286.644531 L 570.121094 286.742188 L 568.59375 286.941406 L 567.523438 287.125 L 566.246094 287.410156 L 565.382812 287.652344 L 564.3125 288.023438 L 563.546875 288.347656 L 562.679688 288.816406 L 562.171875 289.171875 L 561.710938 289.570312 L 561.304688 290.039062 L 560.996094 290.539062 L 560.792969 291.0625 L 560.691406 291.574219 L 560.691406 293.777344 L 560.792969 294.289062 L 561.050781 294.886719 L 561.710938 295.753906 L 562.679688 296.507812 L 563.800781 297.105469 L 564.871094 297.53125 L 565.484375 297.730469 L 566.296875 297.957031 L 567.574219 298.242188 L 569.40625 298.523438 L 570.476562 298.640625 L 572.109375 298.753906 L 573.789062 298.808594 L 576.035156 298.808594 L 578.019531 298.753906 L 579.347656 298.683594 L 580.722656 298.566406 L 582.609375 298.328125 L 583.78125 298.097656 L 584.800781 297.828125 L 585.5625 297.558594 L 586.074219 297.332031 L 586.839844 296.890625 L 587.449219 296.40625 L 587.910156 295.910156 L 588.214844 295.425781 L 595.351562 295.425781 L 595.042969 295.996094 L 594.585938 296.550781 L 594.128906 296.960938 L 593.414062 297.460938 L 592.597656 297.898438 L 591.425781 298.398438 L 590.457031 298.722656 L 589.183594 299.078125 L 588.011719 299.351562 L 586.738281 299.589844 L 584.851562 299.875 L 583.628906 300.019531 L 582.300781 300.144531 L 580.722656 300.257812 L 578.734375 300.359375 L 576.59375 300.414062 L 574.605469 300.429688 L 572.464844 300.402344 L 570.886719 300.34375 L 568.796875 300.214844 L 566.195312 299.960938 L 564.3125 299.691406 L 562.832031 299.421875 L 561.558594 299.136719 L 560.132812 298.753906 L 558.296875 298.128906 L 557.175781 297.644531 L 556.410156 297.246094 L 555.542969 296.691406 L 554.933594 296.195312 L 554.21875 295.398438 L 553.710938 294.390625 L 553.554688 293.609375 Z M 553.554688 291.644531 "/>
<path style=" stroke:none;fill-rule:nonzero;fill:rgb(96.862745%,70.196078%,16.862745%);fill-opacity:1;" d="M 553.554688 304.6875 L 553.609375 304.679688 L 553.609375 304.550781 L 553.8125 304.253906 L 554.320312 303.847656 L 554.984375 303.511719 L 555.695312 303.25 L 556.15625 303.113281 L 556.921875 302.914062 L 557.582031 302.769531 L 559.265625 302.476562 L 561.40625 302.199219 L 562.578125 302.082031 L 563.902344 301.96875 L 565.789062 301.84375 L 566.65625 301.800781 L 569.304688 301.695312 L 572.3125 301.628906 L 575.625 301.609375 L 577.15625 301.617188 L 579.246094 301.640625 L 582.097656 301.714844 L 583.730469 301.78125 L 585.003906 301.84375 L 586.328125 301.929688 L 587.960938 302.0625 L 589.488281 302.21875 L 590.710938 302.378906 L 591.933594 302.574219 L 592.953125 302.785156 L 593.820312 303.011719 L 594.585938 303.289062 L 595.042969 303.519531 L 595.351562 303.75 L 588.265625 303.75 L 587.859375 303.519531 L 587.398438 303.339844 L 586.632812 303.125 L 585.871094 302.96875 L 585.105469 302.84375 L 583.679688 302.671875 L 582.457031 302.566406 L 580.925781 302.476562 L 579.449219 302.417969 L 577.765625 302.378906 L 576.746094 302.363281 L 574.046875 302.363281 L 571.597656 302.410156 L 570.171875 302.460938 L 569.152344 302.515625 L 567.726562 302.613281 L 566.859375 302.691406 L 566.347656 302.746094 L 564.820312 302.949219 L 563.800781 303.132812 L 563.242188 303.257812 L 562.527344 303.453125 L 562.015625 303.628906 L 561.457031 303.894531 L 561.152344 304.089844 L 560.742188 304.535156 L 560.691406 305.71875 L 560.84375 305.964844 L 561.152344 306.234375 L 561.558594 306.472656 L 562.171875 306.722656 L 562.78125 306.910156 L 563.851562 307.167969 L 564.769531 307.335938 L 565.484375 307.449219 L 566.859375 307.625 L 567.417969 307.683594 L 568.746094 307.804688 L 570.121094 307.894531 L 571.804688 307.972656 L 573.078125 308.011719 L 575.117188 308.046875 L 577.714844 308.046875 L 580.773438 308.007812 L 582.710938 307.953125 L 584.035156 307.902344 L 584.902344 307.855469 L 585.972656 307.785156 L 586.738281 307.71875 L 587.449219 307.644531 L 588.316406 307.535156 L 588.316406 305.964844 L 575.726562 305.960938 L 575.726562 305.226562 L 595.300781 305.21875 L 595.351562 307.785156 L 594.28125 307.960938 L 592.953125 308.132812 L 591.679688 308.261719 L 590.355469 308.375 L 588.46875 308.5 L 586.941406 308.578125 L 584.597656 308.667969 L 582.457031 308.730469 L 580.210938 308.769531 L 578.226562 308.789062 L 575.878906 308.792969 L 573.789062 308.78125 L 571.546875 308.742188 L 569.765625 308.6875 L 568.132812 308.625 L 566.503906 308.539062 L 564.464844 308.402344 L 563.136719 308.289062 L 561.761719 308.152344 L 560.386719 307.988281 L 559.164062 307.808594 L 558.347656 307.671875 L 557.53125 307.515625 L 556.664062 307.316406 L 555.851562 307.09375 L 555.238281 306.890625 L 554.679688 306.660156 L 554.269531 306.445312 L 553.863281 306.148438 L 553.660156 305.914062 L 553.554688 305.710938 Z M 553.554688 304.6875 "/>
<path style=" stroke:none;fill-rule:nonzero;fill:rgb(83.921569%,15.686275%,22.352941%);fill-opacity:1;" d="M 553.554688 197.519531 L 595.351562 197.519531 L 595.351562 206.742188 L 577.933594 206.824219 L 577.933594 283.699219 L 570.925781 283.699219 L 570.925781 206.90625 L 570.824219 206.742188 L 553.554688 206.742188 Z M 553.554688 197.519531 "/>
<path style=" stroke:none;fill-rule:nonzero;fill:rgb(6.27451%,58.823529%,28.235294%);fill-opacity:1;" d="M 597.550781 309.972656 L 597.59375 309.96875 L 615.679688 304.257812 L 621.171875 304.257812 L 639.34375 309.980469 L 632.957031 309.980469 L 628.402344 308.484375 L 608.445312 308.484375 L 603.980469 309.972656 L 597.550781 309.972656 L 610.363281 307.867188 L 626.574219 307.863281 L 618.492188 305.191406 L 618.402344 305.1875 L 618.3125 305.203125 L 610.320312 307.863281 L 610.363281 307.867188 Z M 597.550781 309.972656 "/>
<path style=" stroke:none;fill-rule:nonzero;fill:rgb(14.509804%,36.078431%,60%);fill-opacity:1;" d="M 597.550781 312.554688 L 597.601562 312.554688 L 597.601562 312.484375 L 597.753906 312.371094 L 598.109375 312.230469 L 598.46875 312.132812 L 599.386719 311.960938 L 600.660156 311.792969 L 601.984375 311.664062 L 602.953125 311.585938 L 603.820312 311.527344 L 605.808594 311.417969 L 607.082031 311.363281 L 608.457031 311.3125 L 610.140625 311.265625 L 611.363281 311.234375 L 614.113281 311.1875 L 616.152344 311.167969 L 617.734375 311.160156 L 621.148438 311.160156 L 623.1875 311.171875 L 624.664062 311.183594 L 626.296875 311.207031 L 627.671875 311.234375 L 630.066406 311.300781 L 632.207031 311.382812 L 633.175781 311.429688 L 634.707031 311.519531 L 635.878906 311.609375 L 636.691406 311.683594 L 637.609375 311.792969 L 638.425781 311.925781 L 639.039062 312.074219 L 639.34375 312.199219 L 632.207031 312.199219 L 631.851562 312.082031 L 631.445312 311.992188 L 630.679688 311.871094 L 629.914062 311.785156 L 628.84375 311.703125 L 627.875 311.644531 L 626.550781 311.589844 L 625.378906 311.554688 L 624.15625 311.527344 L 622.984375 311.511719 L 620.742188 311.492188 L 618.140625 311.492188 L 617.171875 311.5 L 615.183594 311.523438 L 614.113281 311.542969 L 612.585938 311.585938 L 611.515625 311.621094 L 610.242188 311.679688 L 609.375 311.730469 L 608.304688 311.808594 L 607.539062 311.875 L 606.671875 311.972656 L 606.164062 312.046875 L 605.703125 312.128906 L 605.296875 312.222656 L 604.992188 312.328125 L 604.789062 312.4375 L 604.683594 312.542969 L 604.683594 312.996094 L 604.789062 313.101562 L 605.042969 313.226562 L 605.703125 313.40625 L 606.671875 313.558594 L 607.792969 313.683594 L 608.863281 313.773438 L 609.476562 313.8125 L 610.292969 313.859375 L 611.566406 313.917969 L 613.402344 313.976562 L 614.472656 314 L 616.101562 314.023438 L 617.785156 314.035156 L 620.027344 314.035156 L 622.015625 314.023438 L 623.339844 314.007812 L 624.714844 313.984375 L 626.601562 313.9375 L 627.773438 313.890625 L 628.792969 313.832031 L 629.558594 313.777344 L 630.066406 313.730469 L 630.832031 313.640625 L 631.445312 313.539062 L 631.902344 313.4375 L 632.207031 313.335938 L 639.34375 313.335938 L 639.039062 313.453125 L 638.578125 313.570312 L 638.121094 313.652344 L 637.40625 313.757812 L 636.589844 313.847656 L 635.417969 313.949219 L 634.449219 314.019531 L 633.175781 314.089844 L 632.003906 314.148438 L 630.730469 314.199219 L 628.84375 314.257812 L 627.621094 314.285156 L 626.296875 314.3125 L 624.714844 314.335938 L 622.726562 314.355469 L 620.585938 314.367188 L 618.601562 314.371094 L 616.460938 314.363281 L 614.878906 314.351562 L 612.789062 314.328125 L 610.191406 314.273438 L 608.304688 314.21875 L 606.824219 314.164062 L 605.550781 314.101562 L 604.125 314.023438 L 602.289062 313.894531 L 601.167969 313.796875 L 600.402344 313.714844 L 599.539062 313.597656 L 598.925781 313.496094 L 598.210938 313.332031 L 597.703125 313.121094 L 597.550781 312.960938 Z M 597.550781 312.554688 "/>
<path style=" stroke:none;fill-rule:nonzero;fill:rgb(96.862745%,70.196078%,16.862745%);fill-opacity:1;" d="M 597.550781 299.449219 L 597.601562 299.441406 L 597.601562 299.328125 L 597.804688 299.066406 L 598.316406 298.707031 L 598.976562 298.410156 L 599.691406 298.179688 L 600.148438 298.058594 L 600.914062 297.882812 L 601.578125 297.753906 L 603.257812 297.496094 L 605.398438 297.25 L 606.570312 297.144531 L 607.894531 297.046875 L 609.78125 296.9375 L 610.648438 296.898438 L 613.300781 296.804688 L 616.304688 296.746094 L 619.617188 296.730469 L 621.148438 296.734375 L 623.238281 296.757812 L 626.09375 296.820312 L 627.722656 296.878906 L 628.996094 296.9375 L 630.324219 297.011719 L 631.953125 297.128906 L 633.480469 297.269531 L 634.707031 297.40625 L 635.929688 297.582031 L 636.949219 297.765625 L 637.816406 297.96875 L 638.578125 298.214844 L 639.039062 298.417969 L 639.34375 298.621094 L 632.257812 298.621094 L 631.851562 298.417969 L 631.394531 298.257812 L 630.628906 298.066406 L 629.863281 297.929688 L 629.097656 297.820312 L 627.671875 297.667969 L 626.449219 297.574219 L 624.917969 297.496094 L 623.441406 297.441406 L 621.757812 297.40625 L 620.742188 297.394531 L 618.039062 297.394531 L 615.59375 297.4375 L 614.164062 297.484375 L 613.144531 297.527344 L 611.71875 297.617188 L 610.851562 297.6875 L 610.34375 297.730469 L 608.8125 297.910156 L 607.792969 298.074219 L 607.234375 298.183594 L 606.519531 298.359375 L 606.011719 298.515625 L 605.449219 298.746094 L 605.144531 298.921875 L 604.738281 299.316406 L 604.683594 300.359375 L 604.839844 300.578125 L 605.144531 300.816406 L 605.550781 301.023438 L 606.164062 301.246094 L 606.773438 301.414062 L 607.84375 301.640625 L 608.761719 301.789062 L 609.476562 301.890625 L 610.851562 302.046875 L 611.414062 302.097656 L 612.738281 302.203125 L 614.113281 302.285156 L 615.796875 302.351562 L 617.070312 302.386719 L 619.109375 302.417969 L 621.707031 302.417969 L 624.765625 302.382812 L 626.703125 302.335938 L 628.027344 302.289062 L 628.894531 302.25 L 629.964844 302.183594 L 630.730469 302.128906 L 631.445312 302.0625 L 632.308594 301.964844 L 632.308594 300.578125 L 619.722656 300.574219 L 619.722656 299.921875 L 639.292969 299.917969 L 639.34375 302.183594 L 638.273438 302.339844 L 636.949219 302.492188 L 635.675781 302.609375 L 634.347656 302.707031 L 632.464844 302.816406 L 630.933594 302.886719 L 628.589844 302.96875 L 626.449219 303.019531 L 624.207031 303.054688 L 622.21875 303.070312 L 619.875 303.078125 L 617.785156 303.066406 L 615.542969 303.03125 L 613.757812 302.984375 L 612.125 302.925781 L 610.496094 302.851562 L 608.457031 302.730469 L 607.132812 302.632812 L 605.753906 302.507812 L 604.378906 302.363281 L 603.15625 302.207031 L 602.339844 302.085938 L 601.527344 301.949219 L 600.660156 301.773438 L 599.84375 301.578125 L 599.230469 301.394531 L 598.671875 301.195312 L 598.261719 301.003906 L 597.855469 300.742188 L 597.652344 300.53125 L 597.550781 300.351562 Z M 597.550781 299.449219 "/>
<path style=" stroke:none;fill-rule:nonzero;fill:rgb(83.921569%,15.686275%,22.352941%);fill-opacity:1;" d="M 597.550781 275.710938 L 639.34375 275.710938 L 639.34375 277.835938 L 621.925781 277.855469 L 621.925781 295.550781 L 614.917969 295.550781 L 614.917969 277.871094 L 614.816406 277.835938 L 597.550781 277.835938 Z M 597.550781 275.710938 "/>
<path style=" stroke:none;fill-rule:nonzero;fill:rgb(6.27451%,58.823529%,28.235294%);fill-opacity:1;" d="M 641.542969 314.367188 L 641.589844 314.367188 L 659.671875 312.097656 L 665.164062 312.097656 L 683.335938 314.371094 L 676.953125 314.371094 L 672.398438 313.777344 L 652.4375 313.777344 L 647.972656 314.367188 L 641.542969 314.367188 L 654.359375 313.53125 L 670.566406 313.53125 L 662.484375 312.46875 L 662.394531 312.46875 L 662.304688 312.476562 L 654.3125 313.53125 L 654.359375 313.53125 Z M 641.542969 314.367188 "/>
<path style=" stroke:none;fill-rule:nonzero;fill:rgb(14.509804%,36.078431%,60%);fill-opacity:1;" d="M 641.542969 309.546875 L 641.59375 309.546875 L 641.59375 309.492188 L 641.746094 309.410156 L 642.105469 309.300781 L 642.460938 309.230469 L 643.378906 309.097656 L 644.652344 308.972656 L 645.976562 308.875 L 646.945312 308.816406 L 647.8125 308.773438 L 649.800781 308.691406 L 651.074219 308.648438 L 652.449219 308.609375 L 654.132812 308.570312 L 655.355469 308.550781 L 658.109375 308.515625 L 660.148438 308.5 L 661.726562 308.492188 L 665.140625 308.492188 L 667.179688 308.5 L 668.660156 308.511719 L 670.289062 308.53125 L 671.664062 308.550781 L 674.0625 308.597656 L 676.203125 308.660156 L 677.167969 308.695312 L 678.699219 308.765625 L 679.871094 308.832031 L 680.6875 308.890625 L 681.605469 308.972656 L 682.417969 309.070312 L 683.03125 309.183594 L 683.335938 309.28125 L 676.203125 309.28125 L 675.84375 309.191406 L 675.4375 309.121094 L 674.671875 309.03125 L 673.90625 308.96875 L 672.835938 308.902344 L 671.871094 308.859375 L 670.542969 308.816406 L 669.371094 308.792969 L 668.148438 308.773438 L 666.976562 308.757812 L 664.734375 308.746094 L 662.132812 308.746094 L 661.164062 308.75 L 659.179688 308.765625 L 658.109375 308.78125 L 656.578125 308.8125 L 655.507812 308.84375 L 654.234375 308.886719 L 653.367188 308.925781 L 652.296875 308.984375 L 651.53125 309.035156 L 650.667969 309.105469 L 650.15625 309.164062 L 649.699219 309.222656 L 649.289062 309.296875 L 648.984375 309.375 L 648.78125 309.457031 L 648.679688 309.539062 L 648.679688 309.882812 L 648.78125 309.960938 L 649.035156 310.054688 L 649.699219 310.191406 L 650.667969 310.308594 L 651.789062 310.402344 L 652.859375 310.46875 L 653.46875 310.5 L 654.285156 310.535156 L 655.558594 310.578125 L 657.394531 310.621094 L 658.464844 310.640625 L 660.09375 310.65625 L 661.777344 310.667969 L 664.019531 310.667969 L 666.007812 310.65625 L 667.332031 310.648438 L 668.710938 310.628906 L 670.59375 310.589844 L 671.765625 310.554688 L 672.785156 310.515625 L 673.550781 310.472656 L 674.0625 310.4375 L 674.824219 310.367188 L 675.4375 310.292969 L 675.894531 310.214844 L 676.203125 310.140625 L 683.335938 310.140625 L 683.03125 310.226562 L 682.574219 310.3125 L 682.113281 310.378906 L 681.398438 310.457031 L 680.585938 310.523438 L 679.414062 310.601562 L 678.445312 310.652344 L 677.167969 310.710938 L 675.996094 310.75 L 674.722656 310.789062 L 672.835938 310.832031 L 671.613281 310.855469 L 670.289062 310.875 L 668.710938 310.894531 L 666.722656 310.910156 L 664.582031 310.917969 L 662.59375 310.921875 L 660.453125 310.914062 L 658.871094 310.90625 L 656.78125 310.886719 L 654.183594 310.847656 L 652.296875 310.804688 L 650.820312 310.761719 L 649.546875 310.71875 L 648.117188 310.65625 L 646.285156 310.558594 L 645.160156 310.484375 L 644.398438 310.421875 L 643.53125 310.335938 L 642.917969 310.257812 L 642.207031 310.132812 L 641.695312 309.976562 L 641.542969 309.855469 Z M 641.542969 309.546875 "/>
<path style=" stroke:none;fill-rule:nonzero;fill:rgb(96.862745%,70.196078%,16.862745%);fill-opacity:1;" d="M 641.542969 305.746094 L 641.59375 305.742188 L 641.59375 305.691406 L 641.796875 305.578125 L 642.308594 305.425781 L 642.96875 305.296875 L 643.683594 305.195312 L 644.144531 305.144531 L 644.90625 305.070312 L 645.570312 305.015625 L 647.25 304.902344 L 649.390625 304.796875 L 650.566406 304.75 L 651.890625 304.707031 L 653.777344 304.660156 L 654.640625 304.644531 L 657.292969 304.601562 L 660.300781 304.578125 L 663.613281 304.570312 L 665.140625 304.574219 L 667.230469 304.582031 L 670.085938 304.609375 L 671.714844 304.636719 L 672.992188 304.660156 L 674.316406 304.695312 L 675.945312 304.742188 L 677.476562 304.804688 L 678.699219 304.863281 L 679.921875 304.9375 L 680.941406 305.019531 L 681.808594 305.105469 L 682.574219 305.210938 L 683.03125 305.300781 L 683.335938 305.386719 L 676.253906 305.386719 L 675.84375 305.300781 L 675.386719 305.230469 L 674.621094 305.148438 L 673.855469 305.089844 L 673.09375 305.042969 L 671.664062 304.976562 L 670.441406 304.9375 L 668.914062 304.902344 L 667.433594 304.878906 L 665.753906 304.863281 L 664.734375 304.859375 L 662.03125 304.859375 L 659.585938 304.875 L 658.160156 304.894531 L 657.140625 304.917969 L 655.710938 304.953125 L 654.847656 304.984375 L 654.335938 305.003906 L 652.808594 305.082031 L 651.789062 305.152344 L 651.226562 305.199219 L 650.515625 305.273438 L 650.003906 305.34375 L 649.441406 305.441406 L 649.136719 305.515625 L 648.730469 305.6875 L 648.679688 306.136719 L 648.832031 306.234375 L 649.136719 306.335938 L 649.546875 306.425781 L 650.15625 306.519531 L 650.769531 306.59375 L 651.839844 306.691406 L 652.757812 306.757812 L 653.46875 306.800781 L 654.847656 306.867188 L 655.40625 306.890625 L 656.730469 306.933594 L 658.109375 306.96875 L 659.789062 307 L 661.0625 307.015625 L 663.101562 307.027344 L 665.703125 307.027344 L 668.761719 307.011719 L 670.695312 306.992188 L 672.023438 306.972656 L 672.886719 306.953125 L 673.957031 306.925781 L 674.722656 306.902344 L 675.4375 306.875 L 676.304688 306.832031 L 676.304688 306.234375 L 663.714844 306.230469 L 663.714844 305.949219 L 683.285156 305.949219 L 683.335938 306.925781 L 682.265625 306.996094 L 680.941406 307.058594 L 679.667969 307.109375 L 678.34375 307.152344 L 676.457031 307.199219 L 674.925781 307.230469 L 672.582031 307.265625 L 670.441406 307.289062 L 668.199219 307.300781 L 666.210938 307.308594 L 663.867188 307.3125 L 661.777344 307.308594 L 659.535156 307.292969 L 657.75 307.273438 L 656.121094 307.246094 L 654.488281 307.214844 L 652.449219 307.164062 L 651.125 307.121094 L 649.75 307.066406 L 648.371094 307.003906 L 647.148438 306.9375 L 646.335938 306.882812 L 645.519531 306.824219 L 644.652344 306.75 L 643.835938 306.664062 L 643.226562 306.585938 L 642.664062 306.5 L 642.257812 306.417969 L 641.847656 306.304688 L 641.644531 306.214844 L 641.542969 306.136719 Z M 641.542969 305.746094 "/>
<path style=" stroke:none;fill-rule:nonzero;fill:rgb(83.921569%,15.686275%,22.352941%);fill-opacity:1;" d="M 641.542969 295.628906 L 683.335938 295.628906 L 683.335938 296.460938 L 665.917969 296.46875 L 665.917969 303.390625 L 658.910156 303.390625 L 658.910156 296.476562 L 658.808594 296.460938 L 641.542969 296.460938 Z M 641.542969 295.628906 "/>
<g style="fill:rgb(0%,0%,0%);fill-opacity:1;">
  <use xlink:href="#glyph0-1" x="21.957031" y="318.198242"/>
  <use xlink:href="#glyph0-2" x="27.291016" y="318.198242"/>
  <use xlink:href="#glyph0-1" x="29.958008" y="318.198242"/>
</g>
<g style="fill:rgb(0%,0%,0%);fill-opacity:1;">
  <use xlink:href="#glyph0-1" x="21.957031" y="244.475586"/>
  <use xlink:href="#glyph0-2" x="27.291016" y="244.475586"/>
  <use xlink:href="#glyph0-3" x="29.958008" y="244.475586"/>
</g>
<g style="fill:rgb(0%,0%,0%);fill-opacity:1;">
  <use xlink:href="#glyph0-4" x="21.957031" y="170.75293"/>
  <use xlink:href="#glyph0-2" x="27.291016" y="170.75293"/>
  <use xlink:href="#glyph0-1" x="29.958008" y="170.75293"/>
</g>
<g style="fill:rgb(0%,0%,0%);fill-opacity:1;">
  <use xlink:href="#glyph0-4" x="21.957031" y="97.03418"/>
  <use xlink:href="#glyph0-2" x="27.291016" y="97.03418"/>
  <use xlink:href="#glyph0-3" x="29.958008" y="97.03418"/>
</g>
<g style="fill:rgb(0%,0%,0%);fill-opacity:1;">
  <use xlink:href="#glyph0-5" x="21.957031" y="23.311523"/>
  <use xlink:href="#glyph0-2" x="27.291016" y="23.311523"/>
  <use xlink:href="#glyph0-1" x="29.958008" y="23.311523"/>
</g>
<g style="fill:rgb(0%,0%,0%);fill-opacity:1;">
  <use xlink:href="#glyph0-4" x="87.527344" y="338.19043"/>
</g>
<g style="fill:rgb(0%,0%,0%);fill-opacity:1;">
  <use xlink:href="#glyph0-5" x="131.519531" y="338.19043"/>
</g>
<g style="fill:rgb(0%,0%,0%);fill-opacity:1;">
  <use xlink:href="#glyph0-6" x="175.511719" y="338.19043"/>
</g>
<g style="fill:rgb(0%,0%,0%);fill-opacity:1;">
  <use xlink:href="#glyph0-7" x="219.507812" y="338.19043"/>
</g>
<g style="fill:rgb(0%,0%,0%);fill-opacity:1;">
  <use xlink:href="#glyph0-3" x="263.5" y="338.19043"/>
</g>
<g style="fill:rgb(0%,0%,0%);fill-opacity:1;">
  <use xlink:href="#glyph0-8" x="307.492188" y="338.19043"/>
</g>
<g style="fill:rgb(0%,0%,0%);fill-opacity:1;">
  <use xlink:href="#glyph0-9" x="351.488281" y="338.19043"/>
</g>
<g style="fill:rgb(0%,0%,0%);fill-opacity:1;">
  <use xlink:href="#glyph0-10" x="395.480469" y="338.19043"/>
</g>
<g style="fill:rgb(0%,0%,0%);fill-opacity:1;">
  <use xlink:href="#glyph0-11" x="439.472656" y="338.19043"/>
</g>
<g style="fill:rgb(0%,0%,0%);fill-opacity:1;">
  <use xlink:href="#glyph0-4" x="480.964844" y="338.19043"/>
  <use xlink:href="#glyph0-1" x="486.298828" y="338.19043"/>
</g>
<g style="fill:rgb(0%,0%,0%);fill-opacity:1;">
  <use xlink:href="#glyph0-4" x="524.960938" y="338.19043"/>
  <use xlink:href="#glyph0-4" x="530.294922" y="338.19043"/>
</g>
<g style="fill:rgb(0%,0%,0%);fill-opacity:1;">
  <use xlink:href="#glyph0-4" x="568.953125" y="338.19043"/>
  <use xlink:href="#glyph0-5" x="574.287109" y="338.19043"/>
</g>
<g style="fill:rgb(0%,0%,0%);fill-opacity:1;">
  <use xlink:href="#glyph0-4" x="612.945312" y="338.19043"/>
  <use xlink:href="#glyph0-6" x="618.279297" y="338.19043"/>
</g>
<g style="fill:rgb(0%,0%,0%);fill-opacity:1;">
  <use xlink:href="#glyph0-4" x="656.941406" y="338.19043"/>
  <use xlink:href="#glyph0-7" x="662.275391" y="338.19043"/>
</g>
<g style="fill:rgb(0%,0%,0%);fill-opacity:1;">
  <use xlink:href="#glyph1-1" x="14.412109" y="178.015625"/>
  <use xlink:href="#glyph1-2" x="14.412109" y="170.011719"/>
  <use xlink:href="#glyph1-3" x="14.412109" y="167.347656"/>
  <use xlink:href="#glyph1-4" x="14.412109" y="164.011719"/>
</g>
</g>
</svg>
