<?xml version="1.0" encoding="UTF-8"?>
<svg xmlns="http://www.w3.org/2000/svg" xmlns:xlink="http://www.w3.org/1999/xlink" width="720pt" height="360pt" viewBox="0 0 720 360" version="1.1">
<defs>
<g>
<symbol overflow="visible" id="glyph0-0">
<path style="stroke:none;" d=""/>
</symbol>
<symbol overflow="visible" id="glyph0-1">
<path style="stroke:none;" d="M 2.640625 -6.796875 C 2 -6.796875 1.421875 -6.53125 1.078125 -6.046875 C 0.640625 -5.453125 0.40625 -4.546875 0.40625 -3.296875 C 0.40625 -1 1.1875 0.21875 2.640625 0.21875 C 4.078125 0.21875 4.859375 -1 4.859375 -3.234375 C 4.859375 -4.5625 4.65625 -5.4375 4.203125 -6.046875 C 3.84375 -6.53125 3.28125 -6.796875 2.640625 -6.796875 Z M 2.640625 -6.046875 C 3.546875 -6.046875 4 -5.125 4 -3.3125 C 4 -1.375 3.5625 -0.484375 2.625 -0.484375 C 1.734375 -0.484375 1.28125 -1.421875 1.28125 -3.28125 C 1.28125 -5.140625 1.734375 -6.046875 2.640625 -6.046875 Z M 2.640625 -6.046875 "/>
</symbol>
<symbol overflow="visible" id="glyph0-2">
<path style="stroke:none;" d="M 1.828125 -1 L 0.828125 -1 L 0.828125 0 L 1.828125 0 Z M 1.828125 -1 "/>
</symbol>
<symbol overflow="visible" id="glyph0-3">
<path style="stroke:none;" d="M 4.5625 -6.796875 L 1.0625 -6.796875 L 0.546875 -3.09375 L 1.328125 -3.09375 C 1.71875 -3.5625 2.046875 -3.734375 2.578125 -3.734375 C 3.484375 -3.734375 4.0625 -3.109375 4.0625 -2.09375 C 4.0625 -1.125 3.484375 -0.53125 2.578125 -0.53125 C 1.828125 -0.53125 1.375 -0.90625 1.1875 -1.671875 L 0.328125 -1.671875 C 0.453125 -1.109375 0.546875 -0.84375 0.75 -0.59375 C 1.125 -0.078125 1.828125 0.21875 2.59375 0.21875 C 3.96875 0.21875 4.921875 -0.78125 4.921875 -2.21875 C 4.921875 -3.5625 4.03125 -4.484375 2.71875 -4.484375 C 2.25 -4.484375 1.859375 -4.359375 1.46875 -4.0625 L 1.734375 -5.96875 L 4.5625 -5.96875 Z M 4.5625 -6.796875 "/>
</symbol>
<symbol overflow="visible" id="glyph0-4">
<path style="stroke:none;" d="M 2.484375 -4.84375 L 2.484375 0 L 3.328125 0 L 3.328125 -6.796875 L 2.765625 -6.796875 C 2.46875 -5.75 2.28125 -5.609375 0.984375 -5.453125 L 0.984375 -4.84375 Z M 2.484375 -4.84375 "/>
</symbol>
<symbol overflow="visible" id="glyph0-5">
<path style="stroke:none;" d="M 4.859375 -0.828125 L 1.28125 -0.828125 C 1.359375 -1.390625 1.671875 -1.75 2.5 -2.234375 L 3.46875 -2.75 C 4.40625 -3.265625 4.90625 -3.96875 4.90625 -4.8125 C 4.90625 -5.375 4.671875 -5.90625 4.265625 -6.265625 C 3.859375 -6.625 3.375 -6.796875 2.71875 -6.796875 C 1.859375 -6.796875 1.21875 -6.5 0.84375 -5.921875 C 0.609375 -5.5625 0.5 -5.125 0.484375 -4.4375 L 1.328125 -4.4375 C 1.359375 -4.90625 1.40625 -5.1875 1.53125 -5.40625 C 1.75 -5.8125 2.1875 -6.0625 2.703125 -6.0625 C 3.46875 -6.0625 4.03125 -5.515625 4.03125 -4.78125 C 4.03125 -4.25 3.71875 -3.796875 3.125 -3.4375 L 2.234375 -2.9375 C 0.8125 -2.140625 0.40625 -1.5 0.328125 0 L 4.859375 0 Z M 4.859375 -0.828125 "/>
</symbol>
<symbol overflow="visible" id="glyph0-6">
<path style="stroke:none;" d="M 2.125 -3.125 L 2.578125 -3.125 C 3.515625 -3.125 3.984375 -2.703125 3.984375 -1.890625 C 3.984375 -1.03125 3.46875 -0.53125 2.578125 -0.53125 C 1.65625 -0.53125 1.203125 -0.984375 1.15625 -1.96875 L 0.3125 -1.96875 C 0.34375 -1.421875 0.4375 -1.078125 0.609375 -0.765625 C 0.953125 -0.109375 1.625 0.21875 2.546875 0.21875 C 3.953125 0.21875 4.859375 -0.609375 4.859375 -1.90625 C 4.859375 -2.765625 4.515625 -3.25 3.703125 -3.515625 C 4.34375 -3.765625 4.65625 -4.25 4.65625 -4.9375 C 4.65625 -6.109375 3.875 -6.796875 2.578125 -6.796875 C 1.203125 -6.796875 0.484375 -6.046875 0.453125 -4.609375 L 1.296875 -4.609375 C 1.3125 -5.015625 1.34375 -5.25 1.453125 -5.453125 C 1.640625 -5.828125 2.0625 -6.0625 2.59375 -6.0625 C 3.34375 -6.0625 3.796875 -5.625 3.796875 -4.90625 C 3.796875 -4.421875 3.609375 -4.140625 3.25 -3.984375 C 3.015625 -3.890625 2.71875 -3.84375 2.125 -3.84375 Z M 2.125 -3.125 "/>
</symbol>
<symbol overflow="visible" id="glyph0-7">
<path style="stroke:none;" d="M 3.140625 -1.625 L 3.140625 0 L 3.984375 0 L 3.984375 -1.625 L 4.984375 -1.625 L 4.984375 -2.390625 L 3.984375 -2.390625 L 3.984375 -6.796875 L 3.359375 -6.796875 L 0.265625 -2.515625 L 0.265625 -1.625 Z M 3.140625 -2.390625 L 1 -2.390625 L 3.140625 -5.359375 Z M 3.140625 -2.390625 "/>
</symbol>
<symbol overflow="visible" id="glyph0-8">
<path style="stroke:none;" d="M 4.78125 -5.03125 C 4.609375 -6.140625 3.890625 -6.796875 2.84375 -6.796875 C 2.09375 -6.796875 1.421875 -6.4375 1.03125 -5.828125 C 0.609375 -5.171875 0.40625 -4.34375 0.40625 -3.09375 C 0.40625 -1.953125 0.578125 -1.234375 0.984375 -0.625 C 1.359375 -0.078125 1.953125 0.21875 2.703125 0.21875 C 3.984375 0.21875 4.921875 -0.734375 4.921875 -2.078125 C 4.921875 -3.34375 4.0625 -4.234375 2.84375 -4.234375 C 2.171875 -4.234375 1.640625 -3.96875 1.28125 -3.46875 C 1.28125 -5.125 1.828125 -6.046875 2.796875 -6.046875 C 3.390625 -6.046875 3.796875 -5.671875 3.9375 -5.03125 Z M 2.734375 -3.484375 C 3.546875 -3.484375 4.0625 -2.921875 4.0625 -2 C 4.0625 -1.15625 3.484375 -0.53125 2.703125 -0.53125 C 1.921875 -0.53125 1.328125 -1.1875 1.328125 -2.046875 C 1.328125 -2.890625 1.90625 -3.484375 2.734375 -3.484375 Z M 2.734375 -3.484375 "/>
</symbol>
<symbol overflow="visible" id="glyph0-9">
<path style="stroke:none;" d="M 4.984375 -6.796875 L 0.4375 -6.796875 L 0.4375 -5.96875 L 4.109375 -5.96875 C 2.5 -3.65625 1.828125 -2.234375 1.328125 0 L 2.21875 0 C 2.59375 -2.171875 3.453125 -4.046875 4.984375 -6.09375 Z M 4.984375 -6.796875 "/>
</symbol>
<symbol overflow="visible" id="glyph0-10">
<path style="stroke:none;" d="M 3.75 -3.578125 C 4.453125 -4 4.6875 -4.34375 4.6875 -4.984375 C 4.6875 -6.046875 3.84375 -6.796875 2.640625 -6.796875 C 1.4375 -6.796875 0.59375 -6.046875 0.59375 -4.984375 C 0.59375 -4.359375 0.828125 -4.015625 1.515625 -3.578125 C 0.734375 -3.203125 0.359375 -2.640625 0.359375 -1.890625 C 0.359375 -0.640625 1.296875 0.21875 2.640625 0.21875 C 3.984375 0.21875 4.921875 -0.640625 4.921875 -1.875 C 4.921875 -2.640625 4.53125 -3.203125 3.75 -3.578125 Z M 2.640625 -6.046875 C 3.359375 -6.046875 3.8125 -5.625 3.8125 -4.96875 C 3.8125 -4.34375 3.34375 -3.921875 2.640625 -3.921875 C 1.921875 -3.921875 1.453125 -4.34375 1.453125 -4.984375 C 1.453125 -5.625 1.921875 -6.046875 2.640625 -6.046875 Z M 2.640625 -3.203125 C 3.484375 -3.203125 4.0625 -2.671875 4.0625 -1.875 C 4.0625 -1.0625 3.484375 -0.53125 2.625 -0.53125 C 1.796875 -0.53125 1.21875 -1.078125 1.21875 -1.875 C 1.21875 -2.671875 1.796875 -3.203125 2.640625 -3.203125 Z M 2.640625 -3.203125 "/>
</symbol>
<symbol overflow="visible" id="glyph0-11">
<path style="stroke:none;" d="M 0.515625 -1.546875 C 0.671875 -0.4375 1.40625 0.21875 2.4375 0.21875 C 3.1875 0.21875 3.859375 -0.140625 4.265625 -0.75 C 4.6875 -1.40625 4.890625 -2.25 4.890625 -3.484375 C 4.890625 -4.625 4.703125 -5.359375 4.3125 -5.953125 C 3.9375 -6.5 3.34375 -6.796875 2.59375 -6.796875 C 1.296875 -6.796875 0.359375 -5.84375 0.359375 -4.515625 C 0.359375 -3.25 1.234375 -2.34375 2.453125 -2.34375 C 3.09375 -2.34375 3.5625 -2.578125 4.015625 -3.109375 C 4 -1.453125 3.46875 -0.53125 2.5 -0.53125 C 1.90625 -0.53125 1.484375 -0.90625 1.359375 -1.546875 Z M 2.578125 -6.0625 C 3.375 -6.0625 3.96875 -5.40625 3.96875 -4.53125 C 3.96875 -3.6875 3.375 -3.09375 2.546875 -3.09375 C 1.734375 -3.09375 1.234375 -3.671875 1.234375 -4.578125 C 1.234375 -5.4375 1.796875 -6.0625 2.578125 -6.0625 Z M 2.578125 -6.0625 "/>
</symbol>
<symbol overflow="visible" id="glyph1-0">
<path style="stroke:none;" d=""/>
</symbol>
<symbol overflow="visible" id="glyph1-1">
<path style="stroke:none;" d="M 0 -0.953125 L 0 -4.890625 C 0 -5.71875 -0.234375 -6.34375 -0.734375 -6.796875 C -1.1875 -7.234375 -1.8125 -7.46875 -2.5 -7.46875 C -3.546875 -7.46875 -4.1875 -7 -4.625 -5.875 C -4.984375 -6.671875 -5.640625 -7.09375 -6.53125 -7.09375 C -7.15625 -7.09375 -7.734375 -6.859375 -8.140625 -6.390625 C -8.5625 -5.9375 -8.75 -5.34375 -8.75 -4.5 L -8.75 -0.953125 Z M -4.984375 -2.0625 L -7.765625 -2.0625 L -7.765625 -4.21875 C -7.765625 -4.84375 -7.6875 -5.203125 -7.453125 -5.5 C -7.21875 -5.8125 -6.859375 -5.96875 -6.375 -5.96875 C -5.90625 -5.96875 -5.53125 -5.8125 -5.296875 -5.5 C -5.0625 -5.203125 -4.984375 -4.84375 -4.984375 -4.21875 Z M -0.984375 -2.0625 L -4 -2.0625 L -4 -4.78125 C -4 -5.328125 -3.859375 -5.6875 -3.578125 -5.953125 C -3.296875 -6.21875 -2.921875 -6.359375 -2.484375 -6.359375 C -2.0625 -6.359375 -1.6875 -6.21875 -1.40625 -5.953125 C -1.109375 -5.6875 -0.984375 -5.328125 -0.984375 -4.78125 Z M -0.984375 -2.0625 "/>
</symbol>
<symbol overflow="visible" id="glyph1-2">
<path style="stroke:none;" d="M -6.28125 -1.796875 L -6.28125 -0.796875 L 0 -0.796875 L 0 -1.796875 Z M -8.75 -1.796875 L -8.75 -0.796875 L -7.484375 -0.796875 L -7.484375 -1.796875 Z M -8.75 -1.796875 "/>
</symbol>
<symbol overflow="visible" id="glyph1-3">
<path style="stroke:none;" d="M -6.28125 -3.046875 L -6.28125 -2.015625 L -8.015625 -2.015625 L -8.015625 -1.015625 L -6.28125 -1.015625 L -6.28125 -0.171875 L -5.46875 -0.171875 L -5.46875 -1.015625 L -0.71875 -1.015625 C -0.078125 -1.015625 0.28125 -1.453125 0.28125 -2.234375 C 0.28125 -2.46875 0.25 -2.71875 0.1875 -3.046875 L -0.640625 -3.046875 C -0.609375 -2.921875 -0.59375 -2.765625 -0.59375 -2.5625 C -0.59375 -2.140625 -0.71875 -2.015625 -1.15625 -2.015625 L -5.46875 -2.015625 L -5.46875 -3.046875 Z M -6.28125 -3.046875 "/>
</symbol>
<symbol overflow="visible" id="glyph1-4">
<path style="stroke:none;" d="M -4.53125 -5.25 C -5.765625 -5.25 -6.46875 -4.421875 -6.46875 -2.96875 C -6.46875 -1.515625 -5.71875 -0.5625 -4.546875 -0.5625 C -3.5625 -0.5625 -3.09375 -1.0625 -2.734375 -2.5625 L -2.515625 -3.484375 C -2.34375 -4.1875 -2.09375 -4.46875 -1.625 -4.46875 C -1.046875 -4.46875 -0.640625 -3.875 -0.640625 -3 C -0.640625 -2.453125 -0.796875 -2 -1.0625 -1.75 C -1.25 -1.59375 -1.421875 -1.53125 -1.875 -1.46875 L -1.875 -0.40625 C -0.421875 -0.453125 0.28125 -1.265625 0.28125 -2.921875 C 0.28125 -4.5 -0.5 -5.515625 -1.71875 -5.515625 C -2.65625 -5.515625 -3.171875 -4.984375 -3.46875 -3.734375 L -3.703125 -2.765625 C -3.890625 -1.953125 -4.15625 -1.609375 -4.59375 -1.609375 C -5.171875 -1.609375 -5.546875 -2.125 -5.546875 -2.9375 C -5.546875 -3.75 -5.203125 -4.171875 -4.53125 -4.203125 Z M -4.53125 -5.25 "/>
</symbol>
</g>
</defs>
<g id="surface118333">
<rect x="0" y="0" width="720" height="360" style="fill:rgb(100%,100%,100%);fill-opacity:1;stroke:none;"/>
<path style=" stroke:none;fill-rule:nonzero;fill:rgb(6.27451%,58.823529%,28.235294%);fill-opacity:1;" d="M 69.628906 314.363281 L 69.671875 314.359375 L 86.546875 308.554688 L 91.671875 308.554688 L 108.628906 314.371094 L 102.667969 314.371094 L 98.417969 312.851562 L 79.796875 312.851562 L 75.628906 314.363281 L 69.628906 314.363281 L 81.585938 312.226562 L 96.710938 312.21875 L 89.171875 309.503906 L 89.085938 309.5 L 89.003906 309.515625 L 81.546875 312.21875 L 81.585938 312.226562 Z M 69.628906 314.363281 "/>
<path style=" stroke:none;fill-rule:nonzero;fill:rgb(14.509804%,36.078431%,60%);fill-opacity:1;" d="M 69.628906 290.824219 L 69.675781 290.796875 L 69.675781 290.15625 L 69.820312 289.136719 L 70.152344 287.851562 L 70.484375 286.96875 L 71.339844 285.390625 L 72.53125 283.863281 L 73.765625 282.683594 L 74.671875 281.988281 L 75.480469 281.453125 L 77.332031 280.460938 L 78.523438 279.953125 L 79.808594 279.496094 L 81.375 279.042969 L 82.519531 278.773438 L 85.085938 278.34375 L 86.988281 278.15625 L 88.460938 278.078125 L 91.648438 278.078125 L 93.550781 278.183594 L 94.929688 278.320312 L 96.453125 278.53125 L 97.738281 278.773438 L 99.972656 279.363281 L 101.96875 280.113281 L 102.871094 280.542969 L 104.300781 281.371094 L 105.394531 282.175781 L 106.15625 282.871094 L 107.011719 283.863281 L 107.769531 285.066406 L 108.34375 286.433594 L 108.628906 287.585938 L 101.96875 287.585938 L 101.636719 286.511719 L 101.257812 285.683594 L 100.542969 284.585938 L 99.828125 283.808594 L 98.832031 283.03125 L 97.925781 282.523438 L 96.691406 282.015625 L 95.597656 281.691406 L 94.453125 281.453125 L 93.359375 281.292969 L 91.269531 281.128906 L 88.84375 281.128906 L 87.9375 281.183594 L 86.085938 281.398438 L 85.085938 281.585938 L 83.660156 281.960938 L 82.660156 282.308594 L 81.472656 282.84375 L 80.664062 283.300781 L 79.664062 283.996094 L 78.949219 284.613281 L 78.140625 285.496094 L 77.667969 286.164062 L 77.238281 286.914062 L 76.859375 287.800781 L 76.574219 288.734375 L 76.382812 289.726562 L 76.289062 290.691406 L 76.289062 294.84375 L 76.382812 295.804688 L 76.621094 296.929688 L 77.238281 298.566406 L 78.140625 299.984375 L 79.1875 301.109375 L 80.1875 301.914062 L 80.757812 302.289062 L 81.519531 302.714844 L 82.707031 303.25 L 84.421875 303.789062 L 85.417969 304 L 86.941406 304.214844 L 88.511719 304.324219 L 90.601562 304.324219 L 92.457031 304.214844 L 93.695312 304.082031 L 94.976562 303.867188 L 96.738281 303.414062 L 97.832031 302.984375 L 98.78125 302.476562 L 99.496094 301.964844 L 99.972656 301.539062 L 100.683594 300.707031 L 101.257812 299.796875 L 101.683594 298.859375 L 101.96875 297.949219 L 108.628906 297.949219 L 108.34375 299.019531 L 107.914062 300.066406 L 107.484375 300.839844 L 106.820312 301.777344 L 106.058594 302.609375 L 104.964844 303.546875 L 104.0625 304.160156 L 102.871094 304.832031 L 101.777344 305.339844 L 100.589844 305.796875 L 98.832031 306.332031 L 97.6875 306.597656 L 96.453125 306.839844 L 94.976562 307.054688 L 93.125 307.242188 L 91.125 307.347656 L 89.269531 307.375 L 87.273438 307.320312 L 85.800781 307.214844 L 83.847656 306.972656 L 81.425781 306.492188 L 79.664062 305.984375 L 78.285156 305.472656 L 77.097656 304.9375 L 75.765625 304.214844 L 74.050781 303.039062 L 73.007812 302.125 L 72.292969 301.375 L 71.484375 300.332031 L 70.914062 299.394531 L 70.246094 297.894531 L 69.773438 295.992188 L 69.628906 294.519531 Z M 69.628906 290.824219 "/>
<path style=" stroke:none;fill-rule:nonzero;fill:rgb(83.921569%,15.686275%,22.352941%);fill-opacity:1;" d="M 69.628906 166.160156 L 108.628906 166.160156 L 108.628906 178.011719 L 92.375 178.117188 L 92.375 276.898438 L 85.835938 276.898438 L 85.835938 178.222656 L 85.742188 178.011719 L 69.628906 178.011719 Z M 69.628906 166.160156 "/>
<path style=" stroke:none;fill-rule:nonzero;fill:rgb(96.862745%,70.196078%,16.862745%);fill-opacity:1;" d="M 110.679688 147.753906 L 110.726562 147.488281 L 110.726562 142.183594 L 110.917969 130.238281 L 111.394531 113.785156 L 112.011719 100.253906 L 112.675781 89.636719 L 113.105469 84.0625 L 113.820312 76.101562 L 114.4375 70.265625 L 116.007812 58.324219 L 118.003906 47.175781 L 119.097656 42.398438 L 120.335938 37.886719 L 122.09375 32.847656 L 122.902344 30.988281 L 125.375 26.742188 L 128.179688 24.089844 L 131.273438 23.292969 L 132.699219 23.558594 L 134.648438 24.621094 L 137.3125 27.539062 L 138.835938 30.191406 L 140.023438 32.847656 L 141.261719 36.296875 L 142.78125 41.605469 L 144.207031 47.972656 L 145.351562 54.34375 L 146.492188 62.304688 L 147.441406 70.796875 L 148.25 80.082031 L 148.964844 91.230469 L 149.394531 100.519531 L 149.679688 109.804688 L 143.066406 109.804688 L 142.6875 100.519531 L 142.257812 93.351562 L 141.546875 84.59375 L 140.832031 78.226562 L 140.117188 73.183594 L 138.789062 66.285156 L 137.644531 62.039062 L 136.21875 58.324219 L 134.839844 55.933594 L 133.269531 54.34375 L 132.320312 53.8125 L 129.796875 53.8125 L 127.515625 55.667969 L 126.183594 57.792969 L 125.234375 59.914062 L 123.902344 63.894531 L 123.09375 67.082031 L 122.617188 69.203125 L 121.191406 77.429688 L 120.238281 84.859375 L 119.714844 89.902344 L 119.050781 97.863281 L 118.574219 105.027344 L 118.050781 115.644531 L 117.765625 123.605469 L 117.386719 141.652344 L 117.339844 189.417969 L 117.480469 199.503906 L 117.765625 210.382812 L 118.148438 219.9375 L 118.71875 230.023438 L 119.289062 237.71875 L 120.285156 248.066406 L 121.144531 254.96875 L 121.808594 259.480469 L 123.09375 266.644531 L 123.617188 269.03125 L 124.851562 273.808594 L 126.136719 277.523438 L 127.707031 280.710938 L 128.894531 282.300781 L 130.796875 283.628906 L 133.222656 283.628906 L 136.078125 282.035156 L 137.882812 279.914062 L 139.121094 277.789062 L 139.929688 275.933594 L 140.925781 273.011719 L 141.640625 270.359375 L 142.304688 267.441406 L 143.113281 262.929688 L 143.113281 199.503906 L 131.367188 199.238281 L 131.367188 169.515625 L 149.628906 169.25 L 149.679688 273.011719 L 148.679688 280.179688 L 147.441406 287.078125 L 146.253906 292.386719 L 145.015625 296.898438 L 143.257812 301.941406 L 141.832031 305.125 L 139.644531 308.839844 L 137.644531 311.226562 L 135.554688 312.820312 L 133.699219 313.617188 L 131.511719 313.882812 L 129.5625 313.351562 L 127.46875 311.757812 L 125.804688 309.636719 L 124.28125 306.980469 L 122.761719 303.53125 L 120.859375 297.960938 L 119.621094 293.449219 L 118.335938 287.875 L 117.054688 281.242188 L 115.910156 274.074219 L 115.152344 268.503906 L 114.390625 262.132812 L 113.582031 254.171875 L 112.820312 245.148438 L 112.25 236.921875 L 111.726562 227.632812 L 111.347656 218.875 L 110.964844 206.933594 L 110.773438 197.378906 L 110.679688 189.152344 Z M 110.679688 147.753906 "/>
<path style=" stroke:none;fill-rule:nonzero;fill:rgb(6.27451%,58.823529%,28.235294%);fill-opacity:1;" d="M 151.730469 300.589844 L 151.773438 300.574219 L 168.648438 284.902344 L 173.769531 284.902344 L 190.730469 300.605469 L 184.769531 300.605469 L 180.519531 296.507812 L 161.898438 296.507812 L 157.730469 300.589844 L 151.730469 300.589844 L 163.6875 294.8125 L 178.8125 294.796875 L 171.269531 287.46875 L 171.1875 287.453125 L 171.105469 287.496094 L 163.648438 294.796875 L 163.6875 294.8125 Z M 151.730469 300.589844 "/>
<path style=" stroke:none;fill-rule:nonzero;fill:rgb(96.862745%,70.196078%,16.862745%);fill-opacity:1;" d="M 151.730469 306.730469 L 151.777344 306.71875 L 151.777344 306.507812 L 151.96875 306.035156 L 152.445312 305.378906 L 153.0625 304.84375 L 153.726562 304.421875 L 154.15625 304.199219 L 154.871094 303.882812 L 155.488281 303.652344 L 157.058594 303.175781 L 159.054688 302.734375 L 160.148438 302.542969 L 161.386719 302.363281 L 163.144531 302.164062 L 163.953125 302.089844 L 166.425781 301.921875 L 169.230469 301.816406 L 172.324219 301.785156 L 173.75 301.796875 L 175.699219 301.835938 L 178.363281 301.953125 L 179.886719 302.058594 L 181.074219 302.164062 L 182.3125 302.300781 L 183.832031 302.511719 L 185.257812 302.765625 L 186.402344 303.019531 L 187.542969 303.335938 L 188.492188 303.671875 L 189.300781 304.042969 L 190.015625 304.484375 L 190.445312 304.851562 L 190.730469 305.222656 L 184.117188 305.222656 L 183.738281 304.851562 L 183.308594 304.570312 L 182.597656 304.21875 L 181.882812 303.96875 L 181.167969 303.765625 L 179.839844 303.492188 L 178.695312 303.324219 L 177.269531 303.175781 L 175.890625 303.082031 L 174.320312 303.019531 L 173.371094 302.996094 L 170.847656 302.996094 L 168.566406 303.070312 L 167.234375 303.15625 L 166.285156 303.238281 L 164.953125 303.398438 L 164.144531 303.523438 L 163.667969 303.609375 L 162.242188 303.9375 L 161.289062 304.230469 L 160.765625 304.429688 L 160.101562 304.746094 L 159.625 305.03125 L 159.101562 305.453125 L 158.816406 305.769531 L 158.4375 306.488281 L 158.390625 308.386719 L 158.53125 308.785156 L 158.816406 309.21875 L 159.199219 309.597656 L 159.769531 310 L 160.339844 310.304688 L 161.335938 310.714844 L 162.195312 310.992188 L 162.859375 311.171875 L 164.144531 311.453125 L 164.667969 311.550781 L 165.902344 311.738281 L 167.1875 311.886719 L 168.757812 312.011719 L 169.945312 312.078125 L 171.847656 312.128906 L 174.273438 312.128906 L 177.128906 312.066406 L 178.933594 311.980469 L 180.171875 311.898438 L 180.980469 311.824219 L 181.976562 311.707031 L 182.691406 311.601562 L 183.355469 311.488281 L 184.164062 311.308594 L 184.164062 308.785156 L 172.417969 308.777344 L 172.417969 307.59375 L 190.679688 307.585938 L 190.730469 311.707031 L 189.730469 311.992188 L 188.492188 312.265625 L 187.304688 312.476562 L 186.066406 312.65625 L 184.308594 312.855469 L 182.882812 312.984375 L 180.695312 313.132812 L 178.695312 313.226562 L 176.605469 313.289062 L 174.75 313.320312 L 172.5625 313.332031 L 170.613281 313.3125 L 168.519531 313.246094 L 166.855469 313.164062 L 165.332031 313.058594 L 163.8125 312.921875 L 161.910156 312.699219 L 160.671875 312.519531 L 159.386719 312.296875 L 158.105469 312.035156 L 156.960938 311.75 L 156.203125 311.527344 L 155.441406 311.277344 L 154.632812 310.960938 L 153.871094 310.601562 L 153.300781 310.273438 L 152.777344 309.90625 L 152.398438 309.554688 L 152.015625 309.082031 L 151.824219 308.703125 L 151.730469 308.375 Z M 151.730469 306.730469 "/>
<path style=" stroke:none;fill-rule:nonzero;fill:rgb(83.921569%,15.686275%,22.352941%);fill-opacity:1;" d="M 151.730469 160.234375 L 190.730469 160.234375 L 190.730469 173.453125 L 174.476562 173.570312 L 174.476562 283.722656 L 167.9375 283.722656 L 167.9375 173.683594 L 167.839844 173.453125 L 151.730469 173.453125 Z M 151.730469 160.234375 "/>
<path style=" stroke:none;fill-rule:nonzero;fill:rgb(14.509804%,36.078431%,60%);fill-opacity:1;" d="M 192.78125 148.457031 L 192.828125 148.1875 L 192.828125 141.742188 L 192.972656 131.542969 L 193.304688 118.65625 L 193.636719 109.796875 L 194.492188 93.957031 L 195.683594 78.652344 L 196.917969 66.839844 L 197.824219 59.859375 L 198.632812 54.492188 L 200.484375 44.558594 L 201.675781 39.457031 L 202.957031 34.890625 L 204.527344 30.328125 L 205.667969 27.644531 L 208.238281 23.347656 L 210.140625 21.46875 L 211.613281 20.664062 L 214.800781 20.664062 L 216.703125 21.738281 L 218.082031 23.078125 L 219.605469 25.226562 L 220.886719 27.644531 L 223.125 33.550781 L 225.121094 41.066406 L 226.023438 45.363281 L 227.453125 53.683594 L 228.546875 61.738281 L 229.304688 68.71875 L 230.164062 78.652344 L 230.921875 90.734375 L 231.496094 104.425781 L 231.78125 115.96875 L 225.121094 115.96875 L 224.789062 105.230469 L 224.40625 96.910156 L 223.695312 85.902344 L 222.980469 78.117188 L 221.984375 70.332031 L 221.078125 65.230469 L 219.84375 60.128906 L 218.75 56.90625 L 217.605469 54.492188 L 216.511719 52.878906 L 214.421875 51.269531 L 211.996094 51.269531 L 211.089844 51.804688 L 209.238281 53.953125 L 208.238281 55.832031 L 206.8125 59.589844 L 205.8125 63.082031 L 204.625 68.449219 L 203.816406 73.015625 L 202.816406 79.996094 L 202.101562 86.171875 L 201.292969 95.03125 L 200.820312 101.742188 L 200.390625 109.257812 L 200.011719 118.117188 L 199.726562 127.515625 L 199.535156 137.449219 L 199.441406 147.113281 L 199.441406 188.726562 L 199.535156 198.390625 L 199.773438 209.667969 L 200.390625 226.042969 L 201.292969 240.273438 L 202.339844 251.546875 L 203.339844 259.601562 L 203.910156 263.359375 L 204.671875 267.65625 L 205.859375 273.027344 L 207.570312 278.394531 L 208.570312 280.542969 L 210.09375 282.691406 L 211.664062 283.765625 L 213.753906 283.765625 L 215.609375 282.691406 L 216.847656 281.347656 L 218.128906 279.199219 L 219.890625 274.636719 L 220.984375 270.339844 L 221.933594 265.242188 L 222.648438 260.140625 L 223.125 255.84375 L 223.835938 247.519531 L 224.40625 238.394531 L 224.835938 228.996094 L 225.121094 219.867188 L 231.78125 219.867188 L 231.496094 230.609375 L 231.066406 241.078125 L 230.636719 248.863281 L 229.972656 258.261719 L 229.210938 266.582031 L 228.117188 275.980469 L 227.214844 282.152344 L 226.023438 288.867188 L 224.929688 293.96875 L 223.742188 298.53125 L 221.984375 303.898438 L 220.839844 306.585938 L 219.605469 309 L 218.128906 311.148438 L 216.277344 313.027344 L 214.277344 314.101562 L 212.421875 314.371094 L 210.425781 313.832031 L 208.953125 312.761719 L 207 310.34375 L 204.574219 305.511719 L 202.816406 300.410156 L 201.4375 295.308594 L 200.25 289.941406 L 198.917969 282.691406 L 197.203125 270.878906 L 196.15625 261.75 L 195.445312 254.234375 L 194.636719 243.761719 L 194.066406 234.367188 L 193.398438 219.332031 L 192.925781 200.269531 L 192.78125 185.503906 Z M 192.78125 148.457031 "/>
<path style=" stroke:none;fill-rule:nonzero;fill:rgb(96.862745%,70.196078%,16.862745%);fill-opacity:1;" d="M 233.832031 146.460938 L 233.878906 146.191406 L 233.878906 140.828125 L 234.070312 128.757812 L 234.546875 112.128906 L 235.164062 98.449219 L 235.828125 87.71875 L 236.257812 82.085938 L 236.972656 74.039062 L 237.589844 68.140625 L 239.160156 56.070312 L 241.15625 44.804688 L 242.25 39.976562 L 243.488281 35.414062 L 245.246094 30.320312 L 246.054688 28.441406 L 248.527344 24.148438 L 251.332031 21.46875 L 254.425781 20.664062 L 255.851562 20.929688 L 257.800781 22.003906 L 260.464844 24.953125 L 261.988281 27.636719 L 263.175781 30.320312 L 264.414062 33.804688 L 265.933594 39.171875 L 267.359375 45.609375 L 268.503906 52.046875 L 269.644531 60.09375 L 270.59375 68.675781 L 271.402344 78.0625 L 272.117188 89.328125 L 272.542969 98.714844 L 272.832031 108.105469 L 266.21875 108.105469 L 265.839844 98.714844 L 265.410156 91.476562 L 264.699219 82.625 L 263.984375 76.1875 L 263.269531 71.089844 L 261.9375 64.117188 L 260.796875 59.824219 L 259.371094 56.070312 L 257.992188 53.65625 L 256.421875 52.046875 L 255.472656 51.507812 L 252.949219 51.507812 L 250.667969 53.386719 L 249.335938 55.53125 L 248.386719 57.679688 L 247.054688 61.703125 L 246.246094 64.921875 L 245.769531 67.066406 L 244.34375 75.382812 L 243.390625 82.890625 L 242.867188 87.988281 L 242.203125 96.035156 L 241.726562 103.277344 L 241.203125 114.003906 L 240.917969 122.050781 L 240.539062 140.292969 L 240.492188 188.574219 L 240.632812 198.765625 L 240.917969 209.761719 L 241.296875 219.417969 L 241.871094 229.609375 L 242.441406 237.390625 L 243.4375 247.851562 L 244.296875 254.824219 L 244.960938 259.382812 L 246.246094 266.625 L 246.769531 269.039062 L 248.003906 273.867188 L 249.289062 277.625 L 250.859375 280.84375 L 252.046875 282.453125 L 253.949219 283.792969 L 256.375 283.792969 L 259.226562 282.183594 L 261.035156 280.039062 L 262.273438 277.890625 L 263.082031 276.015625 L 264.078125 273.0625 L 264.792969 270.382812 L 265.457031 267.429688 L 266.265625 262.871094 L 266.265625 198.765625 L 254.519531 198.496094 L 254.519531 168.457031 L 272.78125 168.1875 L 272.832031 273.0625 L 271.832031 280.304688 L 270.59375 287.28125 L 269.40625 292.644531 L 268.167969 297.203125 L 266.410156 302.300781 L 264.984375 305.519531 L 262.796875 309.273438 L 260.796875 311.6875 L 258.707031 313.296875 L 256.851562 314.101562 L 254.664062 314.371094 L 252.710938 313.835938 L 250.621094 312.226562 L 248.957031 310.078125 L 247.433594 307.398438 L 245.910156 303.910156 L 244.007812 298.277344 L 242.773438 293.71875 L 241.488281 288.085938 L 240.203125 281.378906 L 239.0625 274.136719 L 238.300781 268.503906 L 237.542969 262.066406 L 236.734375 254.019531 L 235.972656 244.898438 L 235.402344 236.585938 L 234.878906 227.195312 L 234.496094 218.34375 L 234.117188 206.277344 L 233.925781 196.621094 L 233.832031 188.304688 Z M 233.832031 146.460938 "/>
<path style=" stroke:none;fill-rule:nonzero;fill:rgb(96.862745%,70.196078%,16.862745%);fill-opacity:1;" d="M 274.882812 146.460938 L 274.929688 146.191406 L 274.929688 140.828125 L 275.121094 128.757812 L 275.597656 112.128906 L 276.214844 98.449219 L 276.878906 87.71875 L 277.308594 82.085938 L 278.023438 74.039062 L 278.640625 68.140625 L 280.210938 56.070312 L 282.207031 44.804688 L 283.300781 39.976562 L 284.539062 35.414062 L 286.296875 30.320312 L 287.105469 28.441406 L 289.578125 24.148438 L 292.382812 21.46875 L 295.476562 20.664062 L 296.902344 20.929688 L 298.851562 22.003906 L 301.515625 24.953125 L 303.039062 27.636719 L 304.226562 30.320312 L 305.464844 33.804688 L 306.984375 39.171875 L 308.410156 45.609375 L 309.554688 52.046875 L 310.695312 60.09375 L 311.644531 68.675781 L 312.453125 78.0625 L 313.167969 89.328125 L 313.59375 98.714844 L 313.882812 108.105469 L 307.269531 108.105469 L 306.890625 98.714844 L 306.460938 91.476562 L 305.75 82.625 L 305.035156 76.1875 L 304.320312 71.089844 L 302.988281 64.117188 L 301.847656 59.824219 L 300.421875 56.070312 L 299.042969 53.65625 L 297.472656 52.046875 L 296.523438 51.507812 L 294 51.507812 L 291.71875 53.386719 L 290.386719 55.53125 L 289.4375 57.679688 L 288.105469 61.703125 L 287.296875 64.921875 L 286.820312 67.066406 L 285.394531 75.382812 L 284.441406 82.890625 L 283.917969 87.988281 L 283.253906 96.035156 L 282.777344 103.277344 L 282.253906 114.003906 L 281.96875 122.050781 L 281.589844 140.292969 L 281.539062 188.574219 L 281.683594 198.765625 L 281.96875 209.761719 L 282.347656 219.417969 L 282.921875 229.609375 L 283.492188 237.390625 L 284.488281 247.851562 L 285.34375 254.824219 L 286.011719 259.382812 L 287.296875 266.625 L 287.820312 269.039062 L 289.054688 273.867188 L 290.339844 277.625 L 291.910156 280.84375 L 293.097656 282.453125 L 295 283.792969 L 297.425781 283.792969 L 300.277344 282.183594 L 302.085938 280.039062 L 303.324219 277.890625 L 304.132812 276.015625 L 305.128906 273.0625 L 305.84375 270.382812 L 306.507812 267.429688 L 307.316406 262.871094 L 307.316406 198.765625 L 295.570312 198.496094 L 295.570312 168.457031 L 313.832031 168.1875 L 313.882812 273.0625 L 312.882812 280.304688 L 311.644531 287.28125 L 310.457031 292.644531 L 309.21875 297.203125 L 307.460938 302.300781 L 306.035156 305.519531 L 303.847656 309.273438 L 301.847656 311.6875 L 299.757812 313.296875 L 297.902344 314.101562 L 295.714844 314.371094 L 293.761719 313.835938 L 291.671875 312.226562 L 290.007812 310.078125 L 288.484375 307.398438 L 286.960938 303.910156 L 285.058594 298.277344 L 283.824219 293.71875 L 282.539062 288.085938 L 281.253906 281.378906 L 280.113281 274.136719 L 279.351562 268.503906 L 278.59375 262.066406 L 277.785156 254.019531 L 277.023438 244.898438 L 276.453125 236.585938 L 275.929688 227.195312 L 275.546875 218.34375 L 275.167969 206.277344 L 274.976562 196.621094 L 274.882812 188.304688 Z M 274.882812 146.460938 "/>
<path style=" stroke:none;fill-rule:nonzero;fill:rgb(14.509804%,36.078431%,60%);fill-opacity:1;" d="M 315.933594 290.121094 L 315.980469 290.082031 L 315.980469 289.136719 L 316.125 287.648438 L 316.457031 285.761719 L 316.789062 284.46875 L 317.644531 282.152344 L 318.835938 279.917969 L 320.070312 278.191406 L 320.976562 277.167969 L 321.78125 276.382812 L 323.636719 274.933594 L 324.828125 274.1875 L 326.109375 273.519531 L 327.679688 272.851562 L 328.820312 272.460938 L 331.390625 271.832031 L 333.292969 271.558594 L 334.765625 271.441406 L 337.953125 271.441406 L 339.855469 271.597656 L 341.234375 271.792969 L 342.757812 272.109375 L 344.039062 272.460938 L 346.277344 273.324219 L 348.273438 274.421875 L 349.175781 275.050781 L 350.605469 276.265625 L 351.699219 277.445312 L 352.457031 278.464844 L 353.316406 279.917969 L 354.074219 281.683594 L 354.644531 283.683594 L 354.929688 285.371094 L 348.273438 285.371094 L 347.941406 283.800781 L 347.558594 282.585938 L 346.847656 280.976562 L 346.132812 279.839844 L 345.132812 278.699219 L 344.230469 277.953125 L 342.996094 277.207031 L 341.902344 276.738281 L 340.757812 276.382812 L 339.664062 276.148438 L 337.574219 275.914062 L 335.148438 275.914062 L 334.242188 275.992188 L 332.390625 276.304688 L 331.390625 276.582031 L 329.964844 277.128906 L 328.964844 277.640625 L 327.777344 278.425781 L 326.96875 279.09375 L 325.96875 280.113281 L 325.253906 281.015625 L 324.445312 282.308594 L 323.972656 283.292969 L 323.542969 284.390625 L 323.164062 285.683594 L 322.878906 287.058594 L 322.6875 288.511719 L 322.589844 289.921875 L 322.589844 296.003906 L 322.6875 297.417969 L 322.925781 299.066406 L 323.542969 301.460938 L 324.445312 303.539062 L 325.492188 305.1875 L 326.492188 306.367188 L 327.0625 306.914062 L 327.824219 307.542969 L 329.011719 308.328125 L 330.722656 309.113281 L 331.722656 309.425781 L 333.246094 309.738281 L 334.8125 309.898438 L 336.90625 309.898438 L 338.761719 309.738281 L 340 309.542969 L 341.28125 309.230469 L 343.042969 308.5625 L 344.136719 307.933594 L 345.085938 307.1875 L 345.800781 306.445312 L 346.277344 305.816406 L 346.988281 304.597656 L 347.558594 303.265625 L 347.988281 301.890625 L 348.273438 300.558594 L 354.929688 300.558594 L 354.644531 302.128906 L 354.21875 303.65625 L 353.789062 304.796875 L 353.125 306.167969 L 352.363281 307.386719 L 351.269531 308.757812 L 350.367188 309.660156 L 349.175781 310.644531 L 348.082031 311.386719 L 346.894531 312.054688 L 345.132812 312.839844 L 343.992188 313.234375 L 342.757812 313.585938 L 341.28125 313.898438 L 339.425781 314.175781 L 337.429688 314.332031 L 335.574219 314.371094 L 333.578125 314.292969 L 332.101562 314.136719 L 330.152344 313.78125 L 327.726562 313.074219 L 325.96875 312.332031 L 324.589844 311.585938 L 323.398438 310.800781 L 322.070312 309.738281 L 320.355469 308.011719 L 319.308594 306.679688 L 318.597656 305.582031 L 317.789062 304.050781 L 317.21875 302.675781 L 316.550781 300.480469 L 316.074219 297.691406 L 315.933594 295.535156 Z M 315.933594 290.121094 "/>
<path style=" stroke:none;fill-rule:nonzero;fill:rgb(83.921569%,15.686275%,22.352941%);fill-opacity:1;" d="M 315.933594 140.863281 L 354.929688 140.863281 L 354.929688 154.714844 L 338.679688 154.835938 L 338.679688 270.261719 L 332.140625 270.261719 L 332.140625 154.957031 L 332.042969 154.714844 L 315.933594 154.714844 Z M 315.933594 140.863281 "/>
<path style=" stroke:none;fill-rule:nonzero;fill:rgb(6.27451%,58.823529%,28.235294%);fill-opacity:1;" d="M 356.984375 301.253906 L 357.027344 301.242188 L 373.898438 286.941406 L 379.023438 286.941406 L 395.980469 301.269531 L 390.023438 301.269531 L 385.773438 297.527344 L 367.148438 297.527344 L 362.984375 301.253906 L 356.984375 301.253906 L 368.941406 295.980469 L 384.066406 295.96875 L 376.523438 289.28125 L 376.441406 289.269531 L 376.359375 289.308594 L 368.898438 295.96875 L 368.941406 295.980469 Z M 356.984375 301.253906 "/>
<path style=" stroke:none;fill-rule:nonzero;fill:rgb(14.509804%,36.078431%,60%);fill-opacity:1;" d="M 356.984375 313.527344 L 357.03125 313.523438 L 357.03125 313.492188 L 357.175781 313.441406 L 357.507812 313.375 L 357.839844 313.328125 L 358.695312 313.25 L 359.886719 313.171875 L 361.121094 313.113281 L 362.023438 313.074219 L 362.832031 313.046875 L 364.6875 312.996094 L 365.878906 312.972656 L 367.160156 312.949219 L 368.730469 312.925781 L 369.871094 312.910156 L 372.441406 312.890625 L 374.34375 312.878906 L 375.816406 312.875 L 379.003906 312.875 L 380.90625 312.882812 L 382.285156 312.890625 L 383.808594 312.898438 L 385.089844 312.910156 L 387.328125 312.941406 L 389.324219 312.980469 L 390.226562 313.003906 L 391.65625 313.042969 L 392.75 313.085938 L 393.507812 313.121094 L 394.367188 313.171875 L 395.125 313.234375 L 395.695312 313.300781 L 395.980469 313.359375 L 389.324219 313.359375 L 388.992188 313.308594 L 388.609375 313.265625 L 387.898438 313.207031 L 387.183594 313.167969 L 386.183594 313.128906 L 385.28125 313.101562 L 384.046875 313.078125 L 382.953125 313.0625 L 381.808594 313.046875 L 380.714844 313.039062 L 378.625 313.03125 L 376.199219 313.03125 L 375.292969 313.035156 L 373.4375 313.046875 L 372.441406 313.054688 L 371.015625 313.074219 L 370.015625 313.09375 L 368.828125 313.121094 L 368.019531 313.144531 L 367.019531 313.179688 L 366.304688 313.210938 L 365.496094 313.253906 L 365.023438 313.289062 L 364.59375 313.328125 L 364.214844 313.371094 L 363.925781 313.421875 L 363.738281 313.46875 L 363.640625 313.519531 L 363.640625 313.730469 L 363.738281 313.78125 L 363.976562 313.839844 L 364.59375 313.921875 L 365.496094 313.992188 L 366.542969 314.050781 L 367.542969 314.09375 L 368.113281 314.109375 L 368.875 314.132812 L 370.0625 314.160156 L 371.773438 314.1875 L 372.773438 314.199219 L 374.296875 314.210938 L 375.863281 314.214844 L 377.957031 314.214844 L 379.8125 314.210938 L 381.046875 314.203125 L 382.332031 314.191406 L 384.09375 314.167969 L 385.1875 314.148438 L 386.136719 314.121094 L 386.851562 314.09375 L 387.328125 314.074219 L 388.039062 314.03125 L 388.609375 313.984375 L 389.039062 313.9375 L 389.324219 313.890625 L 395.980469 313.890625 L 395.695312 313.945312 L 395.269531 313.996094 L 394.839844 314.039062 L 394.175781 314.085938 L 393.414062 314.128906 L 392.320312 314.175781 L 391.417969 314.207031 L 390.226562 314.242188 L 389.132812 314.265625 L 387.945312 314.289062 L 386.183594 314.316406 L 385.042969 314.332031 L 383.808594 314.34375 L 382.332031 314.355469 L 380.476562 314.363281 L 378.480469 314.371094 L 376.625 314.371094 L 374.628906 314.367188 L 373.152344 314.363281 L 371.203125 314.351562 L 368.777344 314.324219 L 367.019531 314.300781 L 365.640625 314.273438 L 364.449219 314.246094 L 363.121094 314.210938 L 361.40625 314.148438 L 360.359375 314.101562 L 359.648438 314.066406 L 358.839844 314.011719 L 358.269531 313.964844 L 357.601562 313.886719 L 357.125 313.789062 L 356.984375 313.714844 Z M 356.984375 313.527344 "/>
<path style=" stroke:none;fill-rule:nonzero;fill:rgb(96.862745%,70.196078%,16.862745%);fill-opacity:1;" d="M 356.984375 211.382812 L 357.03125 211.261719 L 357.03125 208.886719 L 357.222656 203.539062 L 357.699219 196.171875 L 358.316406 190.113281 L 358.980469 185.359375 L 359.410156 182.867188 L 360.121094 179.300781 L 360.742188 176.6875 L 362.3125 171.339844 L 364.308594 166.351562 L 365.402344 164.210938 L 366.636719 162.191406 L 368.398438 159.933594 L 369.207031 159.101562 L 371.679688 157.203125 L 374.484375 156.011719 L 377.578125 155.65625 L 379.003906 155.777344 L 380.953125 156.25 L 383.617188 157.558594 L 385.140625 158.746094 L 386.328125 159.933594 L 387.5625 161.480469 L 389.085938 163.855469 L 390.511719 166.707031 L 391.65625 169.558594 L 392.796875 173.121094 L 393.746094 176.925781 L 394.554688 181.082031 L 395.269531 186.074219 L 395.695312 190.234375 L 395.980469 194.390625 L 389.371094 194.390625 L 388.992188 190.234375 L 388.5625 187.023438 L 387.851562 183.105469 L 387.136719 180.25 L 386.421875 177.996094 L 385.089844 174.90625 L 383.949219 173.003906 L 382.523438 171.339844 L 381.144531 170.269531 L 379.574219 169.558594 L 378.625 169.320312 L 376.101562 169.320312 L 373.820312 170.152344 L 372.488281 171.101562 L 371.535156 172.054688 L 370.207031 173.835938 L 369.398438 175.261719 L 368.921875 176.210938 L 367.496094 179.894531 L 366.542969 183.222656 L 366.019531 185.480469 L 365.355469 189.042969 L 364.878906 192.253906 L 364.355469 197.003906 L 364.070312 200.570312 L 363.691406 208.648438 L 363.640625 230.035156 L 363.785156 234.550781 L 364.070312 239.421875 L 364.449219 243.699219 L 365.023438 248.214844 L 365.59375 251.660156 L 366.589844 256.292969 L 367.445312 259.382812 L 368.113281 261.402344 L 369.398438 264.613281 L 369.921875 265.679688 L 371.15625 267.820312 L 372.441406 269.484375 L 374.011719 270.910156 L 375.199219 271.621094 L 377.101562 272.214844 L 379.527344 272.214844 L 382.378906 271.503906 L 384.1875 270.550781 L 385.425781 269.601562 L 386.234375 268.769531 L 387.230469 267.464844 L 387.945312 266.273438 L 388.609375 264.96875 L 389.417969 262.949219 L 389.417969 234.550781 L 377.671875 234.433594 L 377.671875 221.125 L 395.933594 221.007812 L 395.980469 267.464844 L 394.984375 270.671875 L 393.746094 273.761719 L 392.558594 276.136719 L 391.320312 278.15625 L 389.5625 280.414062 L 388.136719 281.839844 L 385.949219 283.503906 L 383.949219 284.574219 L 381.855469 285.285156 L 380.003906 285.640625 L 377.816406 285.761719 L 375.863281 285.523438 L 373.773438 284.808594 L 372.109375 283.859375 L 370.585938 282.671875 L 369.0625 281.128906 L 367.160156 278.632812 L 365.925781 276.613281 L 364.640625 274.117188 L 363.355469 271.148438 L 362.214844 267.9375 L 361.453125 265.445312 L 360.695312 262.589844 L 359.886719 259.027344 L 359.125 254.988281 L 358.554688 251.304688 L 358.03125 247.144531 L 357.648438 243.226562 L 357.269531 237.878906 L 357.078125 233.601562 L 356.984375 229.917969 Z M 356.984375 211.382812 "/>
<path style=" stroke:none;fill-rule:nonzero;fill:rgb(83.921569%,15.686275%,22.352941%);fill-opacity:1;" d="M 356.984375 302.449219 L 395.980469 302.449219 L 395.980469 303.4375 L 379.730469 303.445312 L 379.730469 311.695312 L 373.191406 311.695312 L 373.191406 303.457031 L 373.09375 303.4375 L 356.984375 303.4375 Z M 356.984375 302.449219 "/>
<path style=" stroke:none;fill-rule:nonzero;fill:rgb(6.27451%,58.823529%,28.235294%);fill-opacity:1;" d="M 398.035156 304.613281 L 398.078125 304.597656 L 414.949219 289.039062 L 420.074219 289.039062 L 437.03125 304.628906 L 431.074219 304.628906 L 426.824219 300.558594 L 408.199219 300.558594 L 404.035156 304.613281 L 398.035156 304.613281 L 409.992188 298.875 L 425.117188 298.863281 L 417.574219 291.585938 L 417.492188 291.574219 L 417.410156 291.617188 L 409.949219 298.863281 L 409.992188 298.875 Z M 398.035156 304.613281 "/>
<path style=" stroke:none;fill-rule:nonzero;fill:rgb(14.509804%,36.078431%,60%);fill-opacity:1;" d="M 398.035156 312.496094 L 398.082031 312.492188 L 398.082031 312.421875 L 398.226562 312.304688 L 398.558594 312.160156 L 398.890625 312.058594 L 399.746094 311.882812 L 400.9375 311.707031 L 402.171875 311.574219 L 403.074219 311.496094 L 403.882812 311.4375 L 405.738281 311.324219 L 406.929688 311.265625 L 408.210938 311.214844 L 409.78125 311.164062 L 410.921875 311.132812 L 413.492188 311.085938 L 415.394531 311.0625 L 416.867188 311.054688 L 420.054688 311.054688 L 421.957031 311.066406 L 423.335938 311.082031 L 424.859375 311.105469 L 426.140625 311.132812 L 428.378906 311.199219 L 430.375 311.285156 L 431.277344 311.332031 L 432.707031 311.425781 L 433.800781 311.519531 L 434.558594 311.597656 L 435.414062 311.707031 L 436.175781 311.84375 L 436.746094 312 L 437.03125 312.128906 L 430.375 312.128906 L 430.042969 312.007812 L 429.660156 311.914062 L 428.949219 311.789062 L 428.234375 311.703125 L 427.234375 311.613281 L 426.332031 311.558594 L 425.097656 311.5 L 424 311.464844 L 422.859375 311.4375 L 421.765625 311.417969 L 419.675781 311.398438 L 417.25 311.398438 L 416.34375 311.40625 L 414.488281 311.429688 L 413.492188 311.449219 L 412.066406 311.492188 L 411.066406 311.53125 L 409.875 311.59375 L 409.070312 311.644531 L 408.070312 311.722656 L 407.355469 311.792969 L 406.546875 311.894531 L 406.070312 311.96875 L 405.644531 312.054688 L 405.265625 312.15625 L 404.976562 312.261719 L 404.789062 312.371094 L 404.691406 312.480469 L 404.691406 312.953125 L 404.789062 313.0625 L 405.027344 313.1875 L 405.644531 313.375 L 406.546875 313.535156 L 407.59375 313.660156 L 408.59375 313.753906 L 409.164062 313.792969 L 409.925781 313.84375 L 411.113281 313.902344 L 412.824219 313.964844 L 413.824219 313.988281 L 415.347656 314.011719 L 416.914062 314.023438 L 419.007812 314.023438 L 420.863281 314.011719 L 422.097656 313.996094 L 423.382812 313.972656 L 425.144531 313.921875 L 426.238281 313.875 L 427.1875 313.816406 L 427.902344 313.757812 L 428.378906 313.710938 L 429.089844 313.617188 L 429.660156 313.511719 L 430.089844 313.40625 L 430.375 313.304688 L 437.03125 313.304688 L 436.746094 313.425781 L 436.320312 313.542969 L 435.890625 313.632812 L 435.226562 313.738281 L 434.464844 313.832031 L 433.371094 313.9375 L 432.46875 314.007812 L 431.277344 314.082031 L 430.183594 314.140625 L 428.996094 314.191406 L 427.234375 314.253906 L 426.09375 314.28125 L 424.859375 314.308594 L 423.382812 314.335938 L 421.527344 314.355469 L 419.53125 314.367188 L 417.675781 314.371094 L 415.679688 314.363281 L 414.203125 314.351562 L 412.253906 314.324219 L 409.828125 314.269531 L 408.070312 314.214844 L 406.691406 314.15625 L 405.5 314.09375 L 404.167969 314.011719 L 402.457031 313.878906 L 401.410156 313.777344 L 400.699219 313.691406 L 399.890625 313.574219 L 399.320312 313.46875 L 398.652344 313.296875 L 398.175781 313.082031 L 398.035156 312.914062 Z M 398.035156 312.496094 "/>
<path style=" stroke:none;fill-rule:nonzero;fill:rgb(96.862745%,70.196078%,16.862745%);fill-opacity:1;" d="M 398.035156 271.667969 L 398.082031 271.640625 L 398.082031 271.125 L 398.273438 269.960938 L 398.75 268.355469 L 399.367188 267.035156 L 400.03125 266 L 400.460938 265.457031 L 401.171875 264.683594 L 401.792969 264.113281 L 403.363281 262.949219 L 405.359375 261.863281 L 406.453125 261.394531 L 407.6875 260.957031 L 409.449219 260.464844 L 410.257812 260.285156 L 412.730469 259.871094 L 415.535156 259.613281 L 418.628906 259.535156 L 420.054688 259.558594 L 422.003906 259.664062 L 424.667969 259.949219 L 426.191406 260.207031 L 427.378906 260.464844 L 428.613281 260.800781 L 430.136719 261.320312 L 431.5625 261.941406 L 432.707031 262.5625 L 433.847656 263.335938 L 434.796875 264.164062 L 435.605469 265.070312 L 436.320312 266.15625 L 436.746094 267.0625 L 437.03125 267.96875 L 430.421875 267.96875 L 430.042969 267.0625 L 429.613281 266.363281 L 428.902344 265.507812 L 428.1875 264.890625 L 427.472656 264.398438 L 426.140625 263.726562 L 425 263.3125 L 423.574219 262.949219 L 422.195312 262.714844 L 420.625 262.5625 L 419.675781 262.507812 L 417.152344 262.507812 L 414.871094 262.691406 L 413.539062 262.898438 L 412.585938 263.105469 L 411.257812 263.492188 L 410.449219 263.800781 L 409.972656 264.007812 L 408.546875 264.8125 L 407.59375 265.535156 L 407.070312 266.027344 L 406.40625 266.804688 L 405.929688 267.5 L 405.40625 268.535156 L 405.121094 269.3125 L 404.742188 271.070312 L 404.691406 275.726562 L 404.835938 276.710938 L 405.121094 277.773438 L 405.5 278.703125 L 406.070312 279.6875 L 406.644531 280.4375 L 407.640625 281.445312 L 408.496094 282.117188 L 409.164062 282.558594 L 410.449219 283.257812 L 410.972656 283.488281 L 412.207031 283.953125 L 413.492188 284.316406 L 415.0625 284.628906 L 416.25 284.78125 L 418.152344 284.910156 L 420.578125 284.910156 L 423.429688 284.757812 L 425.238281 284.550781 L 426.476562 284.34375 L 427.285156 284.160156 L 428.28125 283.878906 L 428.996094 283.617188 L 429.660156 283.335938 L 430.46875 282.894531 L 430.46875 276.710938 L 418.722656 276.683594 L 418.722656 273.789062 L 436.984375 273.761719 L 437.03125 283.878906 L 436.035156 284.574219 L 434.796875 285.25 L 433.609375 285.765625 L 432.371094 286.207031 L 430.613281 286.695312 L 429.1875 287.007812 L 427 287.371094 L 425 287.601562 L 422.90625 287.757812 L 421.054688 287.835938 L 418.867188 287.859375 L 416.914062 287.808594 L 414.824219 287.652344 L 413.160156 287.449219 L 411.636719 287.1875 L 410.113281 286.851562 L 408.210938 286.308594 L 406.976562 285.871094 L 405.691406 285.324219 L 404.40625 284.679688 L 403.265625 283.980469 L 402.503906 283.4375 L 401.746094 282.816406 L 400.9375 282.039062 L 400.175781 281.160156 L 399.605469 280.359375 L 399.082031 279.453125 L 398.699219 278.601562 L 398.320312 277.4375 L 398.128906 276.503906 L 398.035156 275.703125 Z M 398.035156 271.667969 "/>
<path style=" stroke:none;fill-rule:nonzero;fill:rgb(83.921569%,15.686275%,22.352941%);fill-opacity:1;" d="M 398.035156 305.808594 L 437.03125 305.808594 L 437.03125 306.242188 L 420.78125 306.246094 L 420.78125 309.875 L 414.242188 309.875 L 414.242188 306.25 L 414.144531 306.242188 L 398.035156 306.242188 Z M 398.035156 305.808594 "/>
<path style=" stroke:none;fill-rule:nonzero;fill:rgb(6.27451%,58.823529%,28.235294%);fill-opacity:1;" d="M 439.085938 302.703125 L 439.128906 302.699219 L 456 298.117188 L 461.125 298.117188 L 478.082031 302.707031 L 472.125 302.707031 L 467.875 301.511719 L 449.25 301.511719 L 445.085938 302.703125 L 439.085938 302.703125 L 451.042969 301.015625 L 466.167969 301.007812 L 458.625 298.867188 L 458.542969 298.863281 L 458.460938 298.875 L 451 301.007812 L 451.042969 301.015625 Z M 439.085938 302.703125 "/>
<path style=" stroke:none;fill-rule:nonzero;fill:rgb(14.509804%,36.078431%,60%);fill-opacity:1;" d="M 439.085938 305.796875 L 439.132812 305.792969 L 439.132812 305.699219 L 439.277344 305.546875 L 439.609375 305.351562 L 439.941406 305.21875 L 440.796875 304.984375 L 441.988281 304.753906 L 443.222656 304.578125 L 444.125 304.472656 L 444.933594 304.394531 L 446.789062 304.246094 L 447.980469 304.167969 L 449.261719 304.101562 L 450.832031 304.03125 L 451.972656 303.992188 L 454.542969 303.929688 L 456.445312 303.898438 L 457.917969 303.886719 L 461.105469 303.886719 L 463.007812 303.90625 L 464.386719 303.925781 L 465.910156 303.957031 L 467.191406 303.992188 L 469.429688 304.082031 L 471.425781 304.191406 L 472.328125 304.257812 L 473.753906 304.382812 L 474.851562 304.503906 L 475.609375 304.605469 L 476.464844 304.753906 L 477.226562 304.933594 L 477.796875 305.140625 L 478.082031 305.3125 L 471.425781 305.3125 L 471.09375 305.152344 L 470.710938 305.027344 L 470 304.863281 L 469.285156 304.746094 L 468.285156 304.628906 L 467.382812 304.554688 L 466.144531 304.476562 L 465.050781 304.429688 L 463.910156 304.394531 L 462.816406 304.371094 L 460.726562 304.34375 L 458.300781 304.34375 L 457.394531 304.355469 L 455.539062 304.386719 L 454.542969 304.414062 L 453.117188 304.46875 L 452.117188 304.523438 L 450.925781 304.601562 L 450.117188 304.671875 L 449.121094 304.773438 L 448.40625 304.867188 L 447.597656 305 L 447.121094 305.101562 L 446.695312 305.210938 L 446.3125 305.34375 L 446.027344 305.484375 L 445.839844 305.632812 L 445.742188 305.777344 L 445.742188 306.398438 L 445.839844 306.542969 L 446.078125 306.710938 L 446.695312 306.957031 L 447.597656 307.171875 L 448.644531 307.339844 L 449.644531 307.457031 L 450.214844 307.515625 L 450.976562 307.578125 L 452.164062 307.660156 L 453.875 307.738281 L 454.875 307.773438 L 456.398438 307.804688 L 457.964844 307.820312 L 460.058594 307.820312 L 461.914062 307.804688 L 463.148438 307.785156 L 464.433594 307.75 L 466.195312 307.683594 L 467.289062 307.621094 L 468.238281 307.542969 L 468.953125 307.46875 L 469.429688 307.402344 L 470.140625 307.277344 L 470.710938 307.140625 L 471.140625 307 L 471.425781 306.863281 L 478.082031 306.863281 L 477.796875 307.027344 L 477.371094 307.183594 L 476.941406 307.296875 L 476.277344 307.4375 L 475.515625 307.5625 L 474.421875 307.703125 L 473.519531 307.796875 L 472.328125 307.894531 L 471.234375 307.972656 L 470.046875 308.039062 L 468.285156 308.121094 L 467.144531 308.160156 L 465.910156 308.195312 L 464.433594 308.230469 L 462.578125 308.257812 L 460.582031 308.273438 L 458.726562 308.277344 L 456.730469 308.269531 L 455.253906 308.253906 L 453.304688 308.21875 L 450.878906 308.144531 L 449.121094 308.070312 L 447.742188 307.992188 L 446.550781 307.914062 L 445.21875 307.804688 L 443.507812 307.628906 L 442.460938 307.492188 L 441.75 307.378906 L 440.941406 307.222656 L 440.371094 307.082031 L 439.703125 306.855469 L 439.226562 306.574219 L 439.085938 306.351562 Z M 439.085938 305.796875 "/>
<path style=" stroke:none;fill-rule:nonzero;fill:rgb(96.862745%,70.196078%,16.862745%);fill-opacity:1;" d="M 439.085938 314.078125 L 439.132812 314.078125 L 439.132812 314.070312 L 439.324219 314.046875 L 439.800781 314.019531 L 440.417969 313.996094 L 441.082031 313.976562 L 441.511719 313.964844 L 442.222656 313.953125 L 442.84375 313.941406 L 444.410156 313.921875 L 446.410156 313.902344 L 447.503906 313.894531 L 448.738281 313.886719 L 450.5 313.875 L 451.308594 313.871094 L 453.78125 313.867188 L 456.585938 313.859375 L 461.105469 313.859375 L 463.054688 313.863281 L 465.71875 313.867188 L 467.242188 313.871094 L 468.429688 313.875 L 469.664062 313.882812 L 471.1875 313.890625 L 472.613281 313.902344 L 473.753906 313.914062 L 474.898438 313.929688 L 475.847656 313.941406 L 476.65625 313.960938 L 477.371094 313.980469 L 477.796875 313.996094 L 478.082031 314.011719 L 471.472656 314.011719 L 471.09375 313.996094 L 470.664062 313.984375 L 469.949219 313.96875 L 469.238281 313.957031 L 468.523438 313.945312 L 467.191406 313.933594 L 466.050781 313.925781 L 464.625 313.921875 L 463.246094 313.917969 L 461.675781 313.914062 L 458.203125 313.914062 L 455.921875 313.917969 L 454.589844 313.921875 L 453.636719 313.921875 L 452.308594 313.929688 L 451.5 313.9375 L 451.023438 313.941406 L 449.597656 313.953125 L 448.644531 313.96875 L 448.121094 313.976562 L 447.457031 313.992188 L 446.980469 314.003906 L 446.457031 314.023438 L 446.171875 314.035156 L 445.792969 314.066406 L 445.742188 314.152344 L 445.886719 314.167969 L 446.171875 314.1875 L 446.550781 314.207031 L 447.121094 314.222656 L 447.695312 314.238281 L 448.691406 314.253906 L 449.546875 314.265625 L 450.214844 314.273438 L 451.5 314.289062 L 452.019531 314.292969 L 453.257812 314.300781 L 454.542969 314.308594 L 456.113281 314.3125 L 457.300781 314.316406 L 464.480469 314.316406 L 466.289062 314.3125 L 467.527344 314.308594 L 468.335938 314.304688 L 469.332031 314.296875 L 470.046875 314.292969 L 470.710938 314.289062 L 471.519531 314.28125 L 471.519531 314.167969 L 459.773438 314.167969 L 459.773438 314.117188 L 478.035156 314.117188 L 478.082031 314.296875 L 477.085938 314.3125 L 475.847656 314.324219 L 474.660156 314.332031 L 473.421875 314.339844 L 471.664062 314.351562 L 470.238281 314.355469 L 468.046875 314.363281 L 466.050781 314.367188 L 463.957031 314.367188 L 462.105469 314.371094 L 457.964844 314.371094 L 455.875 314.367188 L 454.210938 314.363281 L 452.6875 314.359375 L 451.164062 314.351562 L 449.261719 314.34375 L 448.027344 314.335938 L 445.457031 314.3125 L 444.316406 314.300781 L 443.554688 314.289062 L 442.796875 314.28125 L 441.988281 314.265625 L 441.226562 314.25 L 440.65625 314.234375 L 440.132812 314.21875 L 439.75 314.203125 L 439.371094 314.183594 L 439.179688 314.164062 L 439.085938 314.152344 Z M 439.085938 314.078125 "/>
<path style=" stroke:none;fill-rule:nonzero;fill:rgb(83.921569%,15.686275%,22.352941%);fill-opacity:1;" d="M 439.085938 309.457031 L 478.082031 309.457031 L 478.082031 309.800781 L 461.832031 309.804688 L 461.832031 312.679688 L 455.292969 312.679688 L 455.292969 309.808594 L 455.195312 309.800781 L 439.085938 309.800781 Z M 439.085938 309.457031 "/>
<path style=" stroke:none;fill-rule:nonzero;fill:rgb(6.27451%,58.823529%,28.235294%);fill-opacity:1;" d="M 480.136719 311.496094 L 480.179688 311.492188 L 497.050781 306.289062 L 502.175781 306.289062 L 519.132812 311.5 L 513.175781 311.5 L 508.925781 310.140625 L 490.300781 310.140625 L 486.136719 311.496094 L 480.136719 311.496094 L 492.09375 309.578125 L 507.21875 309.574219 L 499.675781 307.140625 L 499.59375 307.136719 L 499.511719 307.148438 L 492.050781 309.574219 L 492.09375 309.578125 Z M 480.136719 311.496094 "/>
<path style=" stroke:none;fill-rule:nonzero;fill:rgb(14.509804%,36.078431%,60%);fill-opacity:1;" d="M 480.136719 313.417969 L 480.183594 313.414062 L 480.183594 313.378906 L 480.328125 313.320312 L 480.660156 313.246094 L 480.992188 313.195312 L 481.847656 313.101562 L 483.039062 313.015625 L 484.273438 312.945312 L 485.175781 312.90625 L 485.984375 312.875 L 487.839844 312.820312 L 489.03125 312.789062 L 490.3125 312.761719 L 491.882812 312.738281 L 493.023438 312.722656 L 495.59375 312.695312 L 497.496094 312.6875 L 498.96875 312.679688 L 502.15625 312.679688 L 504.058594 312.6875 L 505.4375 312.695312 L 506.960938 312.707031 L 508.242188 312.722656 L 510.480469 312.753906 L 512.476562 312.796875 L 513.378906 312.824219 L 514.804688 312.871094 L 515.898438 312.917969 L 516.660156 312.957031 L 517.515625 313.015625 L 518.277344 313.085938 L 518.847656 313.164062 L 519.132812 313.230469 L 512.476562 313.230469 L 512.144531 313.167969 L 511.761719 313.121094 L 511.050781 313.054688 L 510.335938 313.011719 L 509.335938 312.964844 L 508.433594 312.9375 L 507.195312 312.90625 L 506.101562 312.890625 L 504.960938 312.875 L 503.867188 312.867188 L 501.773438 312.855469 L 499.351562 312.855469 L 498.445312 312.859375 L 496.589844 312.871094 L 495.59375 312.882812 L 494.164062 312.90625 L 493.167969 312.925781 L 491.976562 312.957031 L 491.167969 312.980469 L 490.171875 313.023438 L 489.457031 313.058594 L 488.648438 313.109375 L 488.171875 313.148438 L 487.746094 313.191406 L 487.363281 313.242188 L 487.078125 313.296875 L 486.890625 313.351562 L 486.792969 313.410156 L 486.792969 313.648438 L 486.890625 313.703125 L 487.128906 313.769531 L 487.746094 313.863281 L 488.648438 313.945312 L 489.695312 314.007812 L 490.695312 314.054688 L 491.265625 314.078125 L 492.027344 314.101562 L 493.214844 314.132812 L 494.925781 314.164062 L 495.925781 314.175781 L 497.449219 314.1875 L 499.015625 314.195312 L 501.109375 314.195312 L 502.964844 314.1875 L 504.199219 314.179688 L 505.484375 314.167969 L 507.246094 314.140625 L 508.339844 314.117188 L 509.289062 314.089844 L 510.003906 314.058594 L 510.480469 314.035156 L 511.191406 313.984375 L 511.761719 313.933594 L 512.191406 313.878906 L 512.476562 313.828125 L 519.132812 313.828125 L 518.847656 313.890625 L 518.421875 313.949219 L 517.992188 313.992188 L 517.328125 314.046875 L 516.566406 314.097656 L 515.472656 314.148438 L 514.570312 314.183594 L 513.378906 314.222656 L 512.285156 314.253906 L 511.097656 314.28125 L 509.335938 314.308594 L 508.195312 314.324219 L 506.960938 314.339844 L 505.484375 314.351562 L 503.628906 314.363281 L 501.632812 314.367188 L 499.777344 314.371094 L 497.78125 314.367188 L 496.304688 314.363281 L 494.355469 314.347656 L 491.929688 314.320312 L 490.171875 314.289062 L 488.792969 314.261719 L 487.601562 314.230469 L 486.269531 314.1875 L 484.558594 314.121094 L 483.511719 314.066406 L 482.800781 314.023438 L 481.992188 313.964844 L 481.421875 313.910156 L 480.753906 313.824219 L 480.277344 313.714844 L 480.136719 313.628906 Z M 480.136719 313.417969 "/>
<path style=" stroke:none;fill-rule:nonzero;fill:rgb(96.862745%,70.196078%,16.862745%);fill-opacity:1;" d="M 480.136719 290.957031 L 480.183594 290.945312 L 480.183594 290.710938 L 480.375 290.183594 L 480.847656 289.453125 L 481.46875 288.855469 L 482.132812 288.386719 L 482.5625 288.140625 L 483.273438 287.785156 L 483.894531 287.527344 L 485.460938 287 L 487.460938 286.507812 L 488.554688 286.292969 L 489.789062 286.09375 L 491.550781 285.871094 L 492.359375 285.789062 L 494.832031 285.601562 L 497.636719 285.484375 L 500.730469 285.449219 L 502.15625 285.460938 L 504.105469 285.507812 L 506.769531 285.636719 L 508.289062 285.753906 L 509.480469 285.871094 L 510.714844 286.023438 L 512.238281 286.257812 L 513.664062 286.542969 L 514.804688 286.824219 L 515.949219 287.175781 L 516.898438 287.550781 L 517.707031 287.964844 L 518.421875 288.457031 L 518.847656 288.867188 L 519.132812 289.277344 L 512.523438 289.277344 L 512.144531 288.867188 L 511.714844 288.550781 L 511 288.164062 L 510.289062 287.878906 L 509.574219 287.65625 L 508.242188 287.351562 L 507.101562 287.164062 L 505.675781 287 L 504.296875 286.894531 L 502.726562 286.824219 L 501.773438 286.800781 L 499.253906 286.800781 L 496.972656 286.882812 L 495.640625 286.976562 L 494.6875 287.070312 L 493.359375 287.246094 L 492.550781 287.386719 L 492.074219 287.480469 L 490.648438 287.84375 L 489.695312 288.175781 L 489.171875 288.398438 L 488.507812 288.75 L 488.03125 289.066406 L 487.507812 289.539062 L 487.222656 289.890625 L 486.84375 290.6875 L 486.792969 292.804688 L 486.9375 293.25 L 487.222656 293.730469 L 487.601562 294.15625 L 488.171875 294.601562 L 488.746094 294.941406 L 489.742188 295.398438 L 490.597656 295.707031 L 491.265625 295.90625 L 492.550781 296.222656 L 493.070312 296.328125 L 494.308594 296.539062 L 495.59375 296.703125 L 497.164062 296.84375 L 498.351562 296.914062 L 500.253906 296.972656 L 502.679688 296.972656 L 505.53125 296.902344 L 507.339844 296.808594 L 508.578125 296.714844 L 509.386719 296.632812 L 510.382812 296.503906 L 511.097656 296.386719 L 511.761719 296.257812 L 512.570312 296.058594 L 512.570312 293.25 L 500.824219 293.238281 L 500.824219 291.921875 L 519.085938 291.910156 L 519.132812 296.503906 L 518.136719 296.820312 L 516.898438 297.125 L 515.710938 297.363281 L 514.472656 297.5625 L 512.714844 297.785156 L 511.289062 297.925781 L 509.097656 298.089844 L 507.101562 298.195312 L 505.007812 298.265625 L 503.15625 298.300781 L 500.96875 298.3125 L 499.015625 298.289062 L 496.925781 298.21875 L 495.261719 298.125 L 493.738281 298.007812 L 492.214844 297.855469 L 490.3125 297.609375 L 489.078125 297.410156 L 487.792969 297.160156 L 486.507812 296.867188 L 485.367188 296.550781 L 484.605469 296.304688 L 483.847656 296.023438 L 483.039062 295.667969 L 482.277344 295.269531 L 481.707031 294.90625 L 481.183594 294.496094 L 480.800781 294.105469 L 480.421875 293.578125 L 480.230469 293.15625 L 480.136719 292.792969 Z M 480.136719 290.957031 "/>
<path style=" stroke:none;fill-rule:nonzero;fill:rgb(83.921569%,15.686275%,22.352941%);fill-opacity:1;" d="M 480.136719 299.492188 L 519.132812 299.492188 L 519.132812 300.09375 L 502.882812 300.097656 L 502.882812 305.109375 L 496.34375 305.109375 L 496.34375 300.105469 L 496.246094 300.09375 L 480.136719 300.09375 Z M 480.136719 299.492188 "/>
<path style=" stroke:none;fill-rule:nonzero;fill:rgb(6.27451%,58.823529%,28.235294%);fill-opacity:1;" d="M 521.1875 309.476562 L 521.226562 309.476562 L 538.101562 306.613281 L 543.226562 306.613281 L 560.183594 309.480469 L 554.226562 309.480469 L 549.976562 308.730469 L 531.351562 308.730469 L 527.1875 309.476562 L 521.1875 309.476562 L 533.144531 308.421875 L 548.269531 308.417969 L 540.726562 307.082031 L 540.644531 307.078125 L 540.5625 307.085938 L 533.101562 308.417969 L 533.144531 308.421875 Z M 521.1875 309.476562 "/>
<path style=" stroke:none;fill-rule:nonzero;fill:rgb(14.509804%,36.078431%,60%);fill-opacity:1;" d="M 521.1875 314.136719 L 521.234375 314.136719 L 521.234375 314.128906 L 521.378906 314.113281 L 522.042969 314.082031 L 522.898438 314.0625 L 524.089844 314.039062 L 525.324219 314.023438 L 526.226562 314.011719 L 527.035156 314.003906 L 528.890625 313.992188 L 530.082031 313.984375 L 531.363281 313.976562 L 532.933594 313.972656 L 534.074219 313.96875 L 536.644531 313.960938 L 538.546875 313.960938 L 540.019531 313.957031 L 543.207031 313.957031 L 545.109375 313.960938 L 546.488281 313.960938 L 548.011719 313.964844 L 549.292969 313.96875 L 551.53125 313.976562 L 553.527344 313.988281 L 554.429688 313.992188 L 555.855469 314.003906 L 556.949219 314.015625 L 557.710938 314.027344 L 558.566406 314.039062 L 559.328125 314.058594 L 559.898438 314.074219 L 560.183594 314.09375 L 553.527344 314.09375 L 553.195312 314.078125 L 552.8125 314.066406 L 552.101562 314.050781 L 551.386719 314.039062 L 550.386719 314.027344 L 549.484375 314.019531 L 548.246094 314.015625 L 547.152344 314.007812 L 546.011719 314.003906 L 544.917969 314.003906 L 542.824219 314 L 540.402344 314 L 539.496094 314.003906 L 537.640625 314.003906 L 536.644531 314.007812 L 535.214844 314.011719 L 534.21875 314.019531 L 533.027344 314.023438 L 532.21875 314.03125 L 531.222656 314.042969 L 530.507812 314.050781 L 529.699219 314.0625 L 529.222656 314.070312 L 528.796875 314.082031 L 528.414062 314.09375 L 528.128906 314.109375 L 527.941406 314.121094 L 527.84375 314.136719 L 527.84375 314.195312 L 527.941406 314.207031 L 528.179688 314.222656 L 528.796875 314.246094 L 529.699219 314.265625 L 530.746094 314.28125 L 531.746094 314.292969 L 532.316406 314.300781 L 533.078125 314.304688 L 534.265625 314.3125 L 535.976562 314.320312 L 536.976562 314.324219 L 538.5 314.328125 L 544.015625 314.328125 L 545.25 314.324219 L 546.535156 314.320312 L 548.296875 314.316406 L 549.390625 314.308594 L 550.339844 314.300781 L 551.054688 314.292969 L 551.53125 314.289062 L 552.242188 314.277344 L 552.8125 314.265625 L 553.242188 314.25 L 553.527344 314.238281 L 560.183594 314.238281 L 559.898438 314.253906 L 559.472656 314.269531 L 559.042969 314.277344 L 558.378906 314.292969 L 557.617188 314.304688 L 556.523438 314.316406 L 555.621094 314.324219 L 554.429688 314.335938 L 553.335938 314.34375 L 552.148438 314.347656 L 550.386719 314.355469 L 549.246094 314.359375 L 548.011719 314.363281 L 546.535156 314.367188 L 544.679688 314.367188 L 542.683594 314.371094 L 538.832031 314.371094 L 537.355469 314.367188 L 535.40625 314.363281 L 532.980469 314.359375 L 531.222656 314.351562 L 529.84375 314.34375 L 528.652344 314.335938 L 527.320312 314.328125 L 525.609375 314.308594 L 524.5625 314.296875 L 523.851562 314.285156 L 523.042969 314.273438 L 522.472656 314.257812 L 521.804688 314.238281 L 521.328125 314.210938 L 521.1875 314.191406 Z M 521.1875 314.136719 "/>
<path style=" stroke:none;fill-rule:nonzero;fill:rgb(96.862745%,70.196078%,16.862745%);fill-opacity:1;" d="M 521.1875 303.441406 L 521.234375 303.4375 L 521.234375 303.375 L 521.425781 303.230469 L 521.898438 303.035156 L 522.519531 302.871094 L 523.183594 302.746094 L 523.613281 302.679688 L 524.324219 302.582031 L 524.945312 302.511719 L 526.511719 302.371094 L 528.511719 302.238281 L 529.605469 302.179688 L 530.839844 302.125 L 532.601562 302.066406 L 533.410156 302.042969 L 535.882812 301.992188 L 538.6875 301.960938 L 541.78125 301.949219 L 543.207031 301.953125 L 545.15625 301.964844 L 547.820312 302 L 549.339844 302.03125 L 550.53125 302.066406 L 551.765625 302.105469 L 553.289062 302.171875 L 554.714844 302.246094 L 555.855469 302.324219 L 557 302.417969 L 557.949219 302.519531 L 558.757812 302.632812 L 559.472656 302.765625 L 559.898438 302.875 L 560.183594 302.988281 L 553.574219 302.988281 L 553.195312 302.875 L 552.765625 302.789062 L 552.050781 302.683594 L 551.339844 302.609375 L 550.625 302.546875 L 549.292969 302.464844 L 548.152344 302.414062 L 546.726562 302.371094 L 545.347656 302.339844 L 543.777344 302.324219 L 542.824219 302.316406 L 540.304688 302.316406 L 538.023438 302.339844 L 536.691406 302.363281 L 535.738281 302.390625 L 534.40625 302.4375 L 533.601562 302.476562 L 533.125 302.5 L 531.699219 302.597656 L 530.746094 302.6875 L 530.222656 302.75 L 529.558594 302.84375 L 529.082031 302.929688 L 528.558594 303.058594 L 528.273438 303.152344 L 527.894531 303.367188 L 527.84375 303.941406 L 527.988281 304.0625 L 528.273438 304.191406 L 528.652344 304.308594 L 529.222656 304.429688 L 529.796875 304.519531 L 530.792969 304.644531 L 531.648438 304.726562 L 532.316406 304.78125 L 533.601562 304.867188 L 534.121094 304.894531 L 535.359375 304.953125 L 536.644531 304.996094 L 538.210938 305.035156 L 539.402344 305.054688 L 541.304688 305.070312 L 543.730469 305.070312 L 546.582031 305.050781 L 548.390625 305.027344 L 549.625 305 L 550.433594 304.976562 L 551.433594 304.941406 L 552.148438 304.910156 L 552.8125 304.875 L 553.621094 304.824219 L 553.621094 304.0625 L 541.875 304.058594 L 541.875 303.703125 L 560.136719 303.699219 L 560.183594 304.941406 L 559.1875 305.027344 L 557.949219 305.113281 L 556.761719 305.175781 L 555.523438 305.230469 L 553.765625 305.289062 L 552.335938 305.328125 L 550.148438 305.371094 L 548.152344 305.402344 L 546.058594 305.421875 L 544.207031 305.429688 L 542.015625 305.433594 L 540.066406 305.425781 L 537.976562 305.40625 L 536.308594 305.382812 L 534.789062 305.351562 L 533.265625 305.308594 L 531.363281 305.242188 L 530.128906 305.1875 L 528.84375 305.121094 L 527.558594 305.042969 L 526.417969 304.957031 L 525.65625 304.890625 L 524.894531 304.8125 L 524.089844 304.71875 L 523.328125 304.609375 L 522.757812 304.511719 L 522.234375 304.398438 L 521.851562 304.292969 L 521.472656 304.152344 L 521.28125 304.035156 L 521.1875 303.9375 Z M 521.1875 303.441406 "/>
<path style=" stroke:none;fill-rule:nonzero;fill:rgb(83.921569%,15.686275%,22.352941%);fill-opacity:1;" d="M 521.1875 310.660156 L 560.183594 310.660156 L 560.183594 310.886719 L 543.933594 310.890625 L 543.933594 312.777344 L 537.394531 312.777344 L 537.394531 310.890625 L 537.296875 310.886719 L 521.1875 310.886719 Z M 521.1875 310.660156 "/>
<path style=" stroke:none;fill-rule:nonzero;fill:rgb(6.27451%,58.823529%,28.235294%);fill-opacity:1;" d="M 562.238281 311.214844 L 562.277344 311.214844 L 579.152344 310.242188 L 584.277344 310.242188 L 601.234375 311.214844 L 595.277344 311.214844 L 591.027344 310.960938 L 572.402344 310.960938 L 568.238281 311.214844 L 562.238281 311.214844 L 574.195312 310.855469 L 589.320312 310.855469 L 581.777344 310.402344 L 581.695312 310.398438 L 581.613281 310.402344 L 574.152344 310.855469 L 574.195312 310.855469 Z M 562.238281 311.214844 "/>
<path style=" stroke:none;fill-rule:nonzero;fill:rgb(14.509804%,36.078431%,60%);fill-opacity:1;" d="M 562.238281 312.769531 L 562.285156 312.769531 L 562.285156 312.75 L 562.429688 312.71875 L 562.761719 312.683594 L 563.09375 312.65625 L 563.949219 312.609375 L 565.136719 312.566406 L 566.375 312.53125 L 567.277344 312.511719 L 568.085938 312.496094 L 569.941406 312.464844 L 571.132812 312.449219 L 572.414062 312.4375 L 573.984375 312.425781 L 575.125 312.417969 L 577.695312 312.402344 L 579.597656 312.398438 L 581.070312 312.394531 L 584.257812 312.394531 L 586.160156 312.398438 L 587.539062 312.402344 L 589.0625 312.410156 L 590.34375 312.417969 L 592.578125 312.433594 L 594.578125 312.457031 L 595.480469 312.46875 L 596.90625 312.492188 L 598 312.515625 L 598.761719 312.535156 L 599.617188 312.566406 L 600.378906 312.601562 L 600.949219 312.640625 L 601.234375 312.675781 L 594.578125 312.675781 L 594.246094 312.644531 L 593.863281 312.617188 L 593.152344 312.585938 L 592.4375 312.5625 L 591.4375 312.542969 L 590.535156 312.527344 L 589.296875 312.511719 L 588.203125 312.5 L 587.0625 312.496094 L 585.96875 312.488281 L 583.875 312.484375 L 581.453125 312.484375 L 580.546875 312.488281 L 578.691406 312.492188 L 577.695312 312.5 L 576.265625 312.511719 L 575.269531 312.519531 L 574.078125 312.535156 L 573.269531 312.550781 L 572.273438 312.570312 L 571.558594 312.585938 L 570.75 312.613281 L 570.273438 312.632812 L 569.847656 312.65625 L 569.464844 312.679688 L 569.179688 312.707031 L 568.992188 312.738281 L 568.894531 312.765625 L 568.894531 312.886719 L 568.992188 312.914062 L 569.230469 312.949219 L 569.847656 312.996094 L 570.75 313.039062 L 571.796875 313.070312 L 572.796875 313.09375 L 573.367188 313.105469 L 574.128906 313.117188 L 575.316406 313.132812 L 577.027344 313.148438 L 578.027344 313.15625 L 579.550781 313.160156 L 581.117188 313.164062 L 583.210938 313.164062 L 585.066406 313.160156 L 586.300781 313.15625 L 587.585938 313.152344 L 589.347656 313.136719 L 590.441406 313.125 L 591.390625 313.109375 L 592.105469 313.097656 L 592.578125 313.082031 L 593.292969 313.058594 L 593.863281 313.03125 L 594.292969 313.003906 L 594.578125 312.976562 L 601.234375 312.976562 L 600.949219 313.007812 L 600.523438 313.039062 L 600.09375 313.0625 L 599.429688 313.089844 L 598.667969 313.113281 L 597.574219 313.140625 L 596.671875 313.160156 L 595.480469 313.179688 L 594.386719 313.195312 L 593.199219 313.207031 L 591.4375 313.222656 L 590.296875 313.230469 L 589.0625 313.238281 L 587.585938 313.246094 L 585.730469 313.25 L 583.734375 313.253906 L 579.882812 313.253906 L 578.40625 313.25 L 576.457031 313.242188 L 574.03125 313.226562 L 572.273438 313.214844 L 570.894531 313.199219 L 569.703125 313.183594 L 568.371094 313.160156 L 566.660156 313.128906 L 565.613281 313.101562 L 564.902344 313.078125 L 564.09375 313.046875 L 563.523438 313.019531 L 562.855469 312.976562 L 562.378906 312.921875 L 562.238281 312.878906 Z M 562.238281 312.769531 "/>
<path style=" stroke:none;fill-rule:nonzero;fill:rgb(83.921569%,15.686275%,22.352941%);fill-opacity:1;" d="M 562.238281 307.789062 L 601.234375 307.789062 L 601.234375 307.925781 L 584.984375 307.925781 L 584.984375 309.0625 L 578.441406 309.0625 L 578.441406 307.925781 L 562.238281 307.925781 Z M 562.238281 307.789062 "/>
<path style=" stroke:none;fill-rule:nonzero;fill:rgb(6.27451%,58.823529%,28.235294%);fill-opacity:1;" d="M 603.289062 307.894531 L 603.328125 307.890625 L 620.203125 304.488281 L 625.328125 304.488281 L 642.285156 307.898438 L 636.328125 307.898438 L 632.078125 307.007812 L 613.453125 307.007812 L 609.289062 307.894531 L 603.289062 307.894531 L 615.246094 306.640625 L 630.371094 306.636719 L 622.828125 305.046875 L 622.746094 305.042969 L 622.664062 305.050781 L 615.203125 306.636719 L 615.246094 306.640625 Z M 603.289062 307.894531 "/>
<path style=" stroke:none;fill-rule:nonzero;fill:rgb(14.509804%,36.078431%,60%);fill-opacity:1;" d="M 603.289062 313.703125 L 603.335938 313.703125 L 603.335938 313.675781 L 603.476562 313.636719 L 603.8125 313.585938 L 604.144531 313.550781 L 605 313.484375 L 606.1875 313.425781 L 607.425781 313.375 L 608.328125 313.347656 L 609.136719 313.328125 L 610.992188 313.285156 L 612.183594 313.265625 L 613.464844 313.25 L 615.035156 313.230469 L 616.175781 313.21875 L 618.746094 313.203125 L 620.648438 313.195312 L 622.121094 313.191406 L 625.308594 313.191406 L 627.210938 313.195312 L 628.589844 313.199219 L 630.109375 313.210938 L 631.394531 313.21875 L 633.628906 313.242188 L 635.628906 313.273438 L 636.53125 313.289062 L 637.957031 313.324219 L 639.050781 313.355469 L 639.8125 313.382812 L 640.667969 313.425781 L 641.429688 313.472656 L 642 313.527344 L 642.285156 313.574219 L 635.628906 313.574219 L 635.296875 313.53125 L 634.914062 313.496094 L 634.203125 313.453125 L 633.488281 313.421875 L 632.488281 313.390625 L 631.585938 313.371094 L 630.347656 313.347656 L 629.253906 313.335938 L 628.113281 313.328125 L 627.019531 313.320312 L 624.925781 313.3125 L 622.5 313.3125 L 621.597656 313.316406 L 619.742188 313.324219 L 618.746094 313.332031 L 617.316406 313.347656 L 616.320312 313.363281 L 615.128906 313.382812 L 614.320312 313.402344 L 613.324219 313.429688 L 612.609375 313.453125 L 611.800781 313.488281 L 611.324219 313.515625 L 610.898438 313.546875 L 610.515625 313.582031 L 610.230469 313.621094 L 610.042969 313.660156 L 609.945312 313.699219 L 609.945312 313.867188 L 610.042969 313.90625 L 610.28125 313.949219 L 610.898438 314.015625 L 611.800781 314.074219 L 612.847656 314.117188 L 613.847656 314.152344 L 614.417969 314.164062 L 615.179688 314.183594 L 616.367188 314.203125 L 618.078125 314.226562 L 619.078125 314.234375 L 620.597656 314.242188 L 622.167969 314.246094 L 624.261719 314.246094 L 626.117188 314.242188 L 627.351562 314.238281 L 628.636719 314.230469 L 630.398438 314.210938 L 631.492188 314.195312 L 632.441406 314.171875 L 633.15625 314.152344 L 633.628906 314.136719 L 634.34375 314.101562 L 634.914062 314.066406 L 635.34375 314.027344 L 635.628906 313.992188 L 642.285156 313.992188 L 642 314.035156 L 641.574219 314.078125 L 641.144531 314.109375 L 640.480469 314.144531 L 639.71875 314.179688 L 638.625 314.214844 L 637.722656 314.242188 L 636.53125 314.269531 L 635.4375 314.289062 L 634.25 314.308594 L 632.488281 314.328125 L 631.347656 314.339844 L 630.109375 314.347656 L 628.636719 314.359375 L 626.78125 314.367188 L 624.785156 314.371094 L 622.929688 314.371094 L 620.933594 314.367188 L 619.457031 314.363281 L 617.507812 314.355469 L 615.082031 314.335938 L 613.324219 314.316406 L 611.945312 314.292969 L 610.753906 314.273438 L 609.421875 314.242188 L 607.710938 314.195312 L 606.664062 314.160156 L 605.953125 314.128906 L 605.144531 314.085938 L 604.574219 314.050781 L 603.90625 313.988281 L 603.429688 313.914062 L 603.289062 313.851562 Z M 603.289062 313.703125 "/>
<path style=" stroke:none;fill-rule:nonzero;fill:rgb(96.862745%,70.196078%,16.862745%);fill-opacity:1;" d="M 603.289062 299.40625 L 603.335938 299.402344 L 603.335938 299.277344 L 603.527344 298.996094 L 604 298.609375 L 604.621094 298.292969 L 605.285156 298.042969 L 605.714844 297.914062 L 606.425781 297.726562 L 607.046875 297.589844 L 608.613281 297.308594 L 610.613281 297.046875 L 611.707031 296.933594 L 612.941406 296.828125 L 614.703125 296.710938 L 615.511719 296.667969 L 617.984375 296.566406 L 620.789062 296.503906 L 623.882812 296.484375 L 625.308594 296.492188 L 627.257812 296.515625 L 629.921875 296.585938 L 631.441406 296.648438 L 632.632812 296.710938 L 633.867188 296.792969 L 635.390625 296.914062 L 636.816406 297.066406 L 637.957031 297.214844 L 639.101562 297.402344 L 640.050781 297.601562 L 640.859375 297.820312 L 641.574219 298.082031 L 642 298.296875 L 642.285156 298.515625 L 635.675781 298.515625 L 635.296875 298.296875 L 634.867188 298.128906 L 634.152344 297.925781 L 633.441406 297.777344 L 632.726562 297.65625 L 631.394531 297.496094 L 630.253906 297.394531 L 628.828125 297.308594 L 627.449219 297.253906 L 625.878906 297.214844 L 624.925781 297.203125 L 622.40625 297.203125 L 620.125 297.246094 L 618.792969 297.296875 L 617.839844 297.34375 L 616.507812 297.4375 L 615.699219 297.515625 L 615.226562 297.5625 L 613.796875 297.757812 L 612.847656 297.929688 L 612.324219 298.050781 L 611.660156 298.238281 L 611.183594 298.40625 L 610.660156 298.652344 L 610.375 298.839844 L 609.992188 299.265625 L 609.945312 300.386719 L 610.089844 300.621094 L 610.375 300.878906 L 610.753906 301.101562 L 611.324219 301.339844 L 611.894531 301.519531 L 612.894531 301.761719 L 613.75 301.925781 L 614.417969 302.03125 L 615.699219 302.199219 L 616.222656 302.253906 L 617.460938 302.367188 L 618.746094 302.453125 L 620.3125 302.53125 L 621.503906 302.566406 L 623.40625 302.597656 L 625.832031 302.597656 L 628.683594 302.558594 L 630.492188 302.511719 L 631.726562 302.460938 L 632.535156 302.417969 L 633.535156 302.347656 L 634.25 302.285156 L 634.914062 302.21875 L 635.722656 302.113281 L 635.722656 300.621094 L 623.976562 300.617188 L 623.976562 299.917969 L 642.238281 299.914062 L 642.285156 302.347656 L 641.289062 302.515625 L 640.050781 302.679688 L 638.863281 302.804688 L 637.625 302.910156 L 635.867188 303.027344 L 634.4375 303.101562 L 632.25 303.191406 L 630.253906 303.246094 L 628.160156 303.285156 L 626.304688 303.300781 L 624.117188 303.308594 L 622.167969 303.296875 L 620.078125 303.257812 L 618.410156 303.207031 L 616.890625 303.144531 L 615.367188 303.066406 L 613.464844 302.933594 L 612.230469 302.828125 L 610.945312 302.699219 L 609.660156 302.542969 L 608.519531 302.375 L 607.757812 302.242188 L 606.996094 302.09375 L 606.1875 301.90625 L 605.429688 301.695312 L 604.859375 301.5 L 604.335938 301.285156 L 603.953125 301.078125 L 603.574219 300.796875 L 603.382812 300.574219 L 603.289062 300.378906 Z M 603.289062 299.40625 "/>
<path style=" stroke:none;fill-rule:nonzero;fill:rgb(83.921569%,15.686275%,22.352941%);fill-opacity:1;" d="M 603.289062 309.078125 L 642.285156 309.078125 L 642.285156 309.390625 L 626.03125 309.394531 L 626.03125 312.011719 L 619.492188 312.011719 L 619.492188 309.398438 L 619.398438 309.390625 L 603.289062 309.390625 Z M 603.289062 309.078125 "/>
<path style=" stroke:none;fill-rule:nonzero;fill:rgb(6.27451%,58.823529%,28.235294%);fill-opacity:1;" d="M 644.339844 309.316406 L 644.378906 309.3125 L 661.253906 305.605469 L 666.378906 305.605469 L 683.335938 309.320312 L 677.378906 309.320312 L 673.128906 308.351562 L 654.503906 308.351562 L 650.339844 309.316406 L 644.339844 309.316406 L 656.296875 307.949219 L 671.421875 307.945312 L 663.878906 306.214844 L 663.796875 306.210938 L 663.714844 306.222656 L 656.253906 307.945312 L 656.296875 307.949219 Z M 644.339844 309.316406 "/>
<path style=" stroke:none;fill-rule:nonzero;fill:rgb(14.509804%,36.078431%,60%);fill-opacity:1;" d="M 644.339844 313.855469 L 644.386719 313.855469 L 644.386719 313.835938 L 644.527344 313.804688 L 644.863281 313.765625 L 645.195312 313.738281 L 646.050781 313.6875 L 647.238281 313.640625 L 648.476562 313.605469 L 649.378906 313.582031 L 650.1875 313.566406 L 652.042969 313.535156 L 653.230469 313.519531 L 654.515625 313.503906 L 656.085938 313.492188 L 657.226562 313.484375 L 659.796875 313.46875 L 661.699219 313.464844 L 663.171875 313.460938 L 666.359375 313.460938 L 668.261719 313.464844 L 669.640625 313.46875 L 671.160156 313.476562 L 672.445312 313.484375 L 674.679688 313.5 L 676.679688 313.523438 L 677.582031 313.539062 L 679.007812 313.5625 L 680.101562 313.589844 L 680.863281 313.609375 L 681.71875 313.640625 L 682.480469 313.679688 L 683.050781 313.71875 L 683.335938 313.757812 L 676.679688 313.757812 L 676.347656 313.722656 L 675.964844 313.695312 L 675.253906 313.664062 L 674.539062 313.640625 L 673.539062 313.613281 L 672.636719 313.597656 L 671.398438 313.582031 L 670.304688 313.574219 L 669.164062 313.566406 L 668.070312 313.5625 L 665.976562 313.554688 L 663.550781 313.554688 L 662.648438 313.558594 L 660.792969 313.5625 L 659.796875 313.570312 L 658.367188 313.582031 L 657.371094 313.59375 L 656.179688 313.609375 L 655.371094 313.625 L 654.375 313.644531 L 653.660156 313.664062 L 652.851562 313.691406 L 652.375 313.710938 L 651.949219 313.734375 L 651.566406 313.761719 L 651.28125 313.792969 L 651.09375 313.824219 L 650.996094 313.851562 L 650.996094 313.980469 L 651.09375 314.011719 L 651.328125 314.046875 L 651.949219 314.097656 L 652.851562 314.140625 L 653.898438 314.175781 L 654.898438 314.199219 L 655.46875 314.210938 L 656.230469 314.226562 L 657.417969 314.242188 L 659.128906 314.257812 L 660.128906 314.265625 L 661.648438 314.273438 L 663.21875 314.277344 L 665.3125 314.277344 L 667.167969 314.273438 L 668.402344 314.269531 L 669.6875 314.261719 L 671.449219 314.246094 L 672.542969 314.234375 L 673.492188 314.21875 L 674.207031 314.203125 L 674.679688 314.1875 L 675.394531 314.164062 L 675.964844 314.136719 L 676.394531 314.105469 L 676.679688 314.078125 L 683.335938 314.078125 L 683.050781 314.109375 L 682.625 314.144531 L 682.195312 314.167969 L 681.53125 314.195312 L 680.769531 314.222656 L 679.675781 314.25 L 678.769531 314.269531 L 677.582031 314.292969 L 676.488281 314.308594 L 675.300781 314.320312 L 673.539062 314.339844 L 672.398438 314.347656 L 671.160156 314.355469 L 669.6875 314.359375 L 667.832031 314.367188 L 665.835938 314.371094 L 663.980469 314.371094 L 661.984375 314.367188 L 660.507812 314.367188 L 658.558594 314.359375 L 656.132812 314.34375 L 654.375 314.328125 L 652.996094 314.3125 L 651.804688 314.296875 L 650.472656 314.273438 L 648.761719 314.234375 L 647.714844 314.207031 L 647.003906 314.183594 L 646.195312 314.152344 L 645.621094 314.121094 L 644.957031 314.078125 L 644.480469 314.015625 L 644.339844 313.972656 Z M 644.339844 313.855469 "/>
<path style=" stroke:none;fill-rule:nonzero;fill:rgb(96.862745%,70.196078%,16.862745%);fill-opacity:1;" d="M 644.339844 301.746094 L 644.386719 301.742188 L 644.386719 301.65625 L 644.578125 301.464844 L 645.050781 301.199219 L 645.671875 300.980469 L 646.335938 300.808594 L 646.765625 300.71875 L 647.476562 300.589844 L 648.097656 300.496094 L 649.664062 300.300781 L 651.664062 300.121094 L 652.757812 300.046875 L 653.992188 299.972656 L 655.753906 299.890625 L 656.5625 299.859375 L 659.035156 299.792969 L 661.839844 299.75 L 664.933594 299.738281 L 666.359375 299.742188 L 668.308594 299.757812 L 670.972656 299.804688 L 672.492188 299.847656 L 673.683594 299.890625 L 674.917969 299.945312 L 676.441406 300.03125 L 677.867188 300.136719 L 679.007812 300.238281 L 680.152344 300.367188 L 681.101562 300.503906 L 681.910156 300.652344 L 682.625 300.832031 L 683.050781 300.984375 L 683.335938 301.132812 L 676.726562 301.132812 L 676.347656 300.984375 L 675.917969 300.867188 L 675.203125 300.726562 L 674.492188 300.625 L 673.777344 300.542969 L 672.445312 300.429688 L 671.304688 300.363281 L 669.878906 300.300781 L 668.5 300.265625 L 666.929688 300.238281 L 665.976562 300.230469 L 663.457031 300.230469 L 661.175781 300.257812 L 659.84375 300.292969 L 658.890625 300.328125 L 657.558594 300.390625 L 656.75 300.445312 L 656.277344 300.476562 L 654.847656 300.609375 L 653.898438 300.730469 L 653.375 300.8125 L 652.710938 300.941406 L 652.234375 301.054688 L 651.710938 301.226562 L 651.425781 301.355469 L 651.042969 301.648438 L 650.996094 302.417969 L 651.140625 302.582031 L 651.425781 302.757812 L 651.804688 302.910156 L 652.375 303.074219 L 652.945312 303.199219 L 653.945312 303.367188 L 654.800781 303.476562 L 655.46875 303.550781 L 656.75 303.664062 L 657.273438 303.703125 L 658.511719 303.78125 L 659.796875 303.839844 L 661.363281 303.890625 L 662.554688 303.917969 L 664.457031 303.941406 L 666.882812 303.941406 L 669.734375 303.914062 L 671.542969 303.878906 L 672.777344 303.84375 L 673.585938 303.816406 L 674.585938 303.769531 L 675.300781 303.726562 L 675.964844 303.679688 L 676.773438 303.605469 L 676.773438 302.582031 L 665.027344 302.578125 L 665.027344 302.097656 L 683.289062 302.09375 L 683.335938 303.769531 L 682.339844 303.882812 L 681.101562 303.996094 L 679.914062 304.082031 L 678.675781 304.152344 L 676.917969 304.234375 L 675.488281 304.285156 L 673.300781 304.347656 L 671.304688 304.386719 L 669.210938 304.410156 L 667.355469 304.421875 L 665.167969 304.429688 L 663.21875 304.417969 L 661.128906 304.394531 L 659.460938 304.359375 L 657.941406 304.316406 L 656.417969 304.261719 L 654.515625 304.171875 L 653.28125 304.097656 L 651.996094 304.007812 L 650.710938 303.902344 L 649.570312 303.785156 L 648.808594 303.695312 L 648.046875 303.59375 L 647.238281 303.464844 L 646.480469 303.316406 L 645.910156 303.183594 L 645.386719 303.035156 L 645.003906 302.894531 L 644.625 302.703125 L 644.433594 302.546875 L 644.339844 302.414062 Z M 644.339844 301.746094 "/>
<path style=" stroke:none;fill-rule:nonzero;fill:rgb(83.921569%,15.686275%,22.352941%);fill-opacity:1;" d="M 644.339844 310.5 L 683.335938 310.5 L 683.335938 310.691406 L 667.082031 310.691406 L 667.082031 312.28125 L 660.542969 312.28125 L 660.542969 310.695312 L 660.449219 310.691406 L 644.339844 310.691406 Z M 644.339844 310.5 "/>
<g style="fill:rgb(0%,0%,0%);fill-opacity:1;">
  <use xlink:href="#glyph0-1" x="21.957031" y="318.198242"/>
  <use xlink:href="#glyph0-2" x="27.291016" y="318.198242"/>
  <use xlink:href="#glyph0-1" x="29.958008" y="318.198242"/>
</g>
<g style="fill:rgb(0%,0%,0%);fill-opacity:1;">
  <use xlink:href="#glyph0-1" x="21.957031" y="244.475586"/>
  <use xlink:href="#glyph0-2" x="27.291016" y="244.475586"/>
  <use xlink:href="#glyph0-3" x="29.958008" y="244.475586"/>
</g>
<g style="fill:rgb(0%,0%,0%);fill-opacity:1;">
  <use xlink:href="#glyph0-4" x="21.957031" y="170.75293"/>
  <use xlink:href="#glyph0-2" x="27.291016" y="170.75293"/>
  <use xlink:href="#glyph0-1" x="29.958008" y="170.75293"/>
</g>
<g style="fill:rgb(0%,0%,0%);fill-opacity:1;">
  <use xlink:href="#glyph0-4" x="21.957031" y="97.03418"/>
  <use xlink:href="#glyph0-2" x="27.291016" y="97.03418"/>
  <use xlink:href="#glyph0-3" x="29.958008" y="97.03418"/>
</g>
<g style="fill:rgb(0%,0%,0%);fill-opacity:1;">
  <use xlink:href="#glyph0-5" x="21.957031" y="23.311523"/>
  <use xlink:href="#glyph0-2" x="27.291016" y="23.311523"/>
  <use xlink:href="#glyph0-1" x="29.958008" y="23.311523"/>
</g>
<g style="fill:rgb(0%,0%,0%);fill-opacity:1;">
  <use xlink:href="#glyph0-4" x="86.128906" y="338.19043"/>
</g>
<g style="fill:rgb(0%,0%,0%);fill-opacity:1;">
  <use xlink:href="#glyph0-5" x="127.179688" y="338.19043"/>
</g>
<g style="fill:rgb(0%,0%,0%);fill-opacity:1;">
  <use xlink:href="#glyph0-6" x="168.230469" y="338.19043"/>
</g>
<g style="fill:rgb(0%,0%,0%);fill-opacity:1;">
  <use xlink:href="#glyph0-7" x="209.28125" y="338.19043"/>
</g>
<g style="fill:rgb(0%,0%,0%);fill-opacity:1;">
  <use xlink:href="#glyph0-3" x="250.332031" y="338.19043"/>
</g>
<g style="fill:rgb(0%,0%,0%);fill-opacity:1;">
  <use xlink:href="#glyph0-8" x="291.382812" y="338.19043"/>
</g>
<g style="fill:rgb(0%,0%,0%);fill-opacity:1;">
  <use xlink:href="#glyph0-9" x="332.433594" y="338.19043"/>
</g>
<g style="fill:rgb(0%,0%,0%);fill-opacity:1;">
  <use xlink:href="#glyph0-10" x="373.484375" y="338.19043"/>
</g>
<g style="fill:rgb(0%,0%,0%);fill-opacity:1;">
  <use xlink:href="#glyph0-11" x="414.535156" y="338.19043"/>
</g>
<g style="fill:rgb(0%,0%,0%);fill-opacity:1;">
  <use xlink:href="#glyph0-4" x="453.085938" y="338.19043"/>
  <use xlink:href="#glyph0-1" x="458.419922" y="338.19043"/>
</g>
<g style="fill:rgb(0%,0%,0%);fill-opacity:1;">
  <use xlink:href="#glyph0-4" x="494.136719" y="338.19043"/>
  <use xlink:href="#glyph0-4" x="499.470703" y="338.19043"/>
</g>
<g style="fill:rgb(0%,0%,0%);fill-opacity:1;">
  <use xlink:href="#glyph0-4" x="535.1875" y="338.19043"/>
  <use xlink:href="#glyph0-5" x="540.521484" y="338.19043"/>
</g>
<g style="fill:rgb(0%,0%,0%);fill-opacity:1;">
  <use xlink:href="#glyph0-4" x="576.238281" y="338.19043"/>
  <use xlink:href="#glyph0-6" x="581.572266" y="338.19043"/>
</g>
<g style="fill:rgb(0%,0%,0%);fill-opacity:1;">
  <use xlink:href="#glyph0-4" x="617.289062" y="338.19043"/>
  <use xlink:href="#glyph0-7" x="622.623047" y="338.19043"/>
</g>
<g style="fill:rgb(0%,0%,0%);fill-opacity:1;">
  <use xlink:href="#glyph0-4" x="658.339844" y="338.19043"/>
  <use xlink:href="#glyph0-3" x="663.673828" y="338.19043"/>
</g>
<g style="fill:rgb(0%,0%,0%);fill-opacity:1;">
  <use xlink:href="#glyph1-1" x="14.412109" y="178.015625"/>
  <use xlink:href="#glyph1-2" x="14.412109" y="170.011719"/>
  <use xlink:href="#glyph1-3" x="14.412109" y="167.347656"/>
  <use xlink:href="#glyph1-4" x="14.412109" y="164.011719"/>
</g>
</g>
</svg>
