<?xml version="1.0" encoding="UTF-8"?>
<svg xmlns="http://www.w3.org/2000/svg" xmlns:xlink="http://www.w3.org/1999/xlink" width="720pt" height="360pt" viewBox="0 0 720 360" version="1.1">
<defs>
<g>
<symbol overflow="visible" id="glyph0-0">
<path style="stroke:none;" d=""/>
</symbol>
<symbol overflow="visible" id="glyph0-1">
<path style="stroke:none;" d="M 2.640625 -6.796875 C 2 -6.796875 1.421875 -6.53125 1.078125 -6.046875 C 0.640625 -5.453125 0.40625 -4.546875 0.40625 -3.296875 C 0.40625 -1 1.1875 0.21875 2.640625 0.21875 C 4.078125 0.21875 4.859375 -1 4.859375 -3.234375 C 4.859375 -4.5625 4.65625 -5.4375 4.203125 -6.046875 C 3.84375 -6.53125 3.28125 -6.796875 2.640625 -6.796875 Z M 2.640625 -6.046875 C 3.546875 -6.046875 4 -5.125 4 -3.3125 C 4 -1.375 3.5625 -0.484375 2.625 -0.484375 C 1.734375 -0.484375 1.28125 -1.421875 1.28125 -3.28125 C 1.28125 -5.140625 1.734375 -6.046875 2.640625 -6.046875 Z M 2.640625 -6.046875 "/>
</symbol>
<symbol overflow="visible" id="glyph0-2">
<path style="stroke:none;" d="M 1.828125 -1 L 0.828125 -1 L 0.828125 0 L 1.828125 0 Z M 1.828125 -1 "/>
</symbol>
<symbol overflow="visible" id="glyph0-3">
<path style="stroke:none;" d="M 4.5625 -6.796875 L 1.0625 -6.796875 L 0.546875 -3.09375 L 1.328125 -3.09375 C 1.71875 -3.5625 2.046875 -3.734375 2.578125 -3.734375 C 3.484375 -3.734375 4.0625 -3.109375 4.0625 -2.09375 C 4.0625 -1.125 3.484375 -0.53125 2.578125 -0.53125 C 1.828125 -0.53125 1.375 -0.90625 1.1875 -1.671875 L 0.328125 -1.671875 C 0.453125 -1.109375 0.546875 -0.84375 0.75 -0.59375 C 1.125 -0.078125 1.828125 0.21875 2.59375 0.21875 C 3.96875 0.21875 4.921875 -0.78125 4.921875 -2.21875 C 4.921875 -3.5625 4.03125 -4.484375 2.71875 -4.484375 C 2.25 -4.484375 1.859375 -4.359375 1.46875 -4.0625 L 1.734375 -5.96875 L 4.5625 -5.96875 Z M 4.5625 -6.796875 "/>
</symbol>
<symbol overflow="visible" id="glyph0-4">
<path style="stroke:none;" d="M 2.484375 -4.84375 L 2.484375 0 L 3.328125 0 L 3.328125 -6.796875 L 2.765625 -6.796875 C 2.46875 -5.75 2.28125 -5.609375 0.984375 -5.453125 L 0.984375 -4.84375 Z M 2.484375 -4.84375 "/>
</symbol>
<symbol overflow="visible" id="glyph0-5">
<path style="stroke:none;" d="M 4.859375 -0.828125 L 1.28125 -0.828125 C 1.359375 -1.390625 1.671875 -1.75 2.5 -2.234375 L 3.46875 -2.75 C 4.40625 -3.265625 4.90625 -3.96875 4.90625 -4.8125 C 4.90625 -5.375 4.671875 -5.90625 4.265625 -6.265625 C 3.859375 -6.625 3.375 -6.796875 2.71875 -6.796875 C 1.859375 -6.796875 1.21875 -6.5 0.84375 -5.921875 C 0.609375 -5.5625 0.5 -5.125 0.484375 -4.4375 L 1.328125 -4.4375 C 1.359375 -4.90625 1.40625 -5.1875 1.53125 -5.40625 C 1.75 -5.8125 2.1875 -6.0625 2.703125 -6.0625 C 3.46875 -6.0625 4.03125 -5.515625 4.03125 -4.78125 C 4.03125 -4.25 3.71875 -3.796875 3.125 -3.4375 L 2.234375 -2.9375 C 0.8125 -2.140625 0.40625 -1.5 0.328125 0 L 4.859375 0 Z M 4.859375 -0.828125 "/>
</symbol>
<symbol overflow="visible" id="glyph0-6">
<path style="stroke:none;" d="M 2.125 -3.125 L 2.578125 -3.125 C 3.515625 -3.125 3.984375 -2.703125 3.984375 -1.890625 C 3.984375 -1.03125 3.46875 -0.53125 2.578125 -0.53125 C 1.65625 -0.53125 1.203125 -0.984375 1.15625 -1.96875 L 0.3125 -1.96875 C 0.34375 -1.421875 0.4375 -1.078125 0.609375 -0.765625 C 0.953125 -0.109375 1.625 0.21875 2.546875 0.21875 C 3.953125 0.21875 4.859375 -0.609375 4.859375 -1.90625 C 4.859375 -2.765625 4.515625 -3.25 3.703125 -3.515625 C 4.34375 -3.765625 4.65625 -4.25 4.65625 -4.9375 C 4.65625 -6.109375 3.875 -6.796875 2.578125 -6.796875 C 1.203125 -6.796875 0.484375 -6.046875 0.453125 -4.609375 L 1.296875 -4.609375 C 1.3125 -5.015625 1.34375 -5.25 1.453125 -5.453125 C 1.640625 -5.828125 2.0625 -6.0625 2.59375 -6.0625 C 3.34375 -6.0625 3.796875 -5.625 3.796875 -4.90625 C 3.796875 -4.421875 3.609375 -4.140625 3.25 -3.984375 C 3.015625 -3.890625 2.71875 -3.84375 2.125 -3.84375 Z M 2.125 -3.125 "/>
</symbol>
<symbol overflow="visible" id="glyph0-7">
<path style="stroke:none;" d="M 3.140625 -1.625 L 3.140625 0 L 3.984375 0 L 3.984375 -1.625 L 4.984375 -1.625 L 4.984375 -2.390625 L 3.984375 -2.390625 L 3.984375 -6.796875 L 3.359375 -6.796875 L 0.265625 -2.515625 L 0.265625 -1.625 Z M 3.140625 -2.390625 L 1 -2.390625 L 3.140625 -5.359375 Z M 3.140625 -2.390625 "/>
</symbol>
<symbol overflow="visible" id="glyph0-8">
<path style="stroke:none;" d="M 4.78125 -5.03125 C 4.609375 -6.140625 3.890625 -6.796875 2.84375 -6.796875 C 2.09375 -6.796875 1.421875 -6.4375 1.03125 -5.828125 C 0.609375 -5.171875 0.40625 -4.34375 0.40625 -3.09375 C 0.40625 -1.953125 0.578125 -1.234375 0.984375 -0.625 C 1.359375 -0.078125 1.953125 0.21875 2.703125 0.21875 C 3.984375 0.21875 4.921875 -0.734375 4.921875 -2.078125 C 4.921875 -3.34375 4.0625 -4.234375 2.84375 -4.234375 C 2.171875 -4.234375 1.640625 -3.96875 1.28125 -3.46875 C 1.28125 -5.125 1.828125 -6.046875 2.796875 -6.046875 C 3.390625 -6.046875 3.796875 -5.671875 3.9375 -5.03125 Z M 2.734375 -3.484375 C 3.546875 -3.484375 4.0625 -2.921875 4.0625 -2 C 4.0625 -1.15625 3.484375 -0.53125 2.703125 -0.53125 C 1.921875 -0.53125 1.328125 -1.1875 1.328125 -2.046875 C 1.328125 -2.890625 1.90625 -3.484375 2.734375 -3.484375 Z M 2.734375 -3.484375 "/>
</symbol>
<symbol overflow="visible" id="glyph0-9">
<path style="stroke:none;" d="M 4.984375 -6.796875 L 0.4375 -6.796875 L 0.4375 -5.96875 L 4.109375 -5.96875 C 2.5 -3.65625 1.828125 -2.234375 1.328125 0 L 2.21875 0 C 2.59375 -2.171875 3.453125 -4.046875 4.984375 -6.09375 Z M 4.984375 -6.796875 "/>
</symbol>
<symbol overflow="visible" id="glyph0-10">
<path style="stroke:none;" d="M 3.75 -3.578125 C 4.453125 -4 4.6875 -4.34375 4.6875 -4.984375 C 4.6875 -6.046875 3.84375 -6.796875 2.640625 -6.796875 C 1.4375 -6.796875 0.59375 -6.046875 0.59375 -4.984375 C 0.59375 -4.359375 0.828125 -4.015625 1.515625 -3.578125 C 0.734375 -3.203125 0.359375 -2.640625 0.359375 -1.890625 C 0.359375 -0.640625 1.296875 0.21875 2.640625 0.21875 C 3.984375 0.21875 4.921875 -0.640625 4.921875 -1.875 C 4.921875 -2.640625 4.53125 -3.203125 3.75 -3.578125 Z M 2.640625 -6.046875 C 3.359375 -6.046875 3.8125 -5.625 3.8125 -4.96875 C 3.8125 -4.34375 3.34375 -3.921875 2.640625 -3.921875 C 1.921875 -3.921875 1.453125 -4.34375 1.453125 -4.984375 C 1.453125 -5.625 1.921875 -6.046875 2.640625 -6.046875 Z M 2.640625 -3.203125 C 3.484375 -3.203125 4.0625 -2.671875 4.0625 -1.875 C 4.0625 -1.0625 3.484375 -0.53125 2.625 -0.53125 C 1.796875 -0.53125 1.21875 -1.078125 1.21875 -1.875 C 1.21875 -2.671875 1.796875 -3.203125 2.640625 -3.203125 Z M 2.640625 -3.203125 "/>
</symbol>
<symbol overflow="visible" id="glyph0-11">
<path style="stroke:none;" d="M 0.515625 -1.546875 C 0.671875 -0.4375 1.40625 0.21875 2.4375 0.21875 C 3.1875 0.21875 3.859375 -0.140625 4.265625 -0.75 C 4.6875 -1.40625 4.890625 -2.25 4.890625 -3.484375 C 4.890625 -4.625 4.703125 -5.359375 4.3125 -5.953125 C 3.9375 -6.5 3.34375 -6.796875 2.59375 -6.796875 C 1.296875 -6.796875 0.359375 -5.84375 0.359375 -4.515625 C 0.359375 -3.25 1.234375 -2.34375 2.453125 -2.34375 C 3.09375 -2.34375 3.5625 -2.578125 4.015625 -3.109375 C 4 -1.453125 3.46875 -0.53125 2.5 -0.53125 C 1.90625 -0.53125 1.484375 -0.90625 1.359375 -1.546875 Z M 2.578125 -6.0625 C 3.375 -6.0625 3.96875 -5.40625 3.96875 -4.53125 C 3.96875 -3.6875 3.375 -3.09375 2.546875 -3.09375 C 1.734375 -3.09375 1.234375 -3.671875 1.234375 -4.578125 C 1.234375 -5.4375 1.796875 -6.0625 2.578125 -6.0625 Z M 2.578125 -6.0625 "/>
</symbol>
<symbol overflow="visible" id="glyph1-0">
<path style="stroke:none;" d=""/>
</symbol>
<symbol overflow="visible" id="glyph1-1">
<path style="stroke:none;" d="M 0 -0.953125 L 0 -4.890625 C 0 -5.71875 -0.234375 -6.34375 -0.734375 -6.796875 C -1.1875 -7.234375 -1.8125 -7.46875 -2.5 -7.46875 C -3.546875 -7.46875 -4.1875 -7 -4.625 -5.875 C -4.984375 -6.671875 -5.640625 -7.09375 -6.53125 -7.09375 C -7.15625 -7.09375 -7.734375 -6.859375 -8.140625 -6.390625 C -8.5625 -5.9375 -8.75 -5.34375 -8.75 -4.5 L -8.75 -0.953125 Z M -4.984375 -2.0625 L -7.765625 -2.0625 L -7.765625 -4.21875 C -7.765625 -4.84375 -7.6875 -5.203125 -7.453125 -5.5 C -7.21875 -5.8125 -6.859375 -5.96875 -6.375 -5.96875 C -5.90625 -5.96875 -5.53125 -5.8125 -5.296875 -5.5 C -5.0625 -5.203125 -4.984375 -4.84375 -4.984375 -4.21875 Z M -0.984375 -2.0625 L -4 -2.0625 L -4 -4.78125 C -4 -5.328125 -3.859375 -5.6875 -3.578125 -5.953125 C -3.296875 -6.21875 -2.921875 -6.359375 -2.484375 -6.359375 C -2.0625 -6.359375 -1.6875 -6.21875 -1.40625 -5.953125 C -1.109375 -5.6875 -0.984375 -5.328125 -0.984375 -4.78125 Z M -0.984375 -2.0625 "/>
</symbol>
<symbol overflow="visible" id="glyph1-2">
<path style="stroke:none;" d="M -6.28125 -1.796875 L -6.28125 -0.796875 L 0 -0.796875 L 0 -1.796875 Z M -8.75 -1.796875 L -8.75 -0.796875 L -7.484375 -0.796875 L -7.484375 -1.796875 Z M -8.75 -1.796875 "/>
</symbol>
<symbol overflow="visible" id="glyph1-3">
<path style="stroke:none;" d="M -6.28125 -3.046875 L -6.28125 -2.015625 L -8.015625 -2.015625 L -8.015625 -1.015625 L -6.28125 -1.015625 L -6.28125 -0.171875 L -5.46875 -0.171875 L -5.46875 -1.015625 L -0.71875 -1.015625 C -0.078125 -1.015625 0.28125 -1.453125 0.28125 -2.234375 C 0.28125 -2.46875 0.25 -2.71875 0.1875 -3.046875 L -0.640625 -3.046875 C -0.609375 -2.921875 -0.59375 -2.765625 -0.59375 -2.5625 C -0.59375 -2.140625 -0.71875 -2.015625 -1.15625 -2.015625 L -5.46875 -2.015625 L -5.46875 -3.046875 Z M -6.28125 -3.046875 "/>
</symbol>
<symbol overflow="visible" id="glyph1-4">
<path style="stroke:none;" d="M -4.53125 -5.25 C -5.765625 -5.25 -6.46875 -4.421875 -6.46875 -2.96875 C -6.46875 -1.515625 -5.71875 -0.5625 -4.546875 -0.5625 C -3.5625 -0.5625 -3.09375 -1.0625 -2.734375 -2.5625 L -2.515625 -3.484375 C -2.34375 -4.1875 -2.09375 -4.46875 -1.625 -4.46875 C -1.046875 -4.46875 -0.640625 -3.875 -0.640625 -3 C -0.640625 -2.453125 -0.796875 -2 -1.0625 -1.75 C -1.25 -1.59375 -1.421875 -1.53125 -1.875 -1.46875 L -1.875 -0.40625 C -0.421875 -0.453125 0.28125 -1.265625 0.28125 -2.921875 C 0.28125 -4.5 -0.5 -5.515625 -1.71875 -5.515625 C -2.65625 -5.515625 -3.171875 -4.984375 -3.46875 -3.734375 L -3.703125 -2.765625 C -3.890625 -1.953125 -4.15625 -1.609375 -4.59375 -1.609375 C -5.171875 -1.609375 -5.546875 -2.125 -5.546875 -2.9375 C -5.546875 -3.75 -5.203125 -4.171875 -4.53125 -4.203125 Z M -4.53125 -5.25 "/>
</symbol>
</g>
</defs>
<g id="surface117377">
<rect x="0" y="0" width="720" height="360" style="fill:rgb(100%,100%,100%);fill-opacity:1;stroke:none;"/>
<path style=" stroke:none;fill-rule:nonzero;fill:rgb(6.27451%,58.823529%,28.235294%);fill-opacity:1;" d="M 69.628906 314.0625 L 69.671875 314.050781 L 86.546875 299.808594 L 91.671875 299.808594 L 108.628906 314.078125 L 102.667969 314.078125 L 98.417969 310.351562 L 79.796875 310.351562 L 75.628906 314.0625 L 69.628906 314.0625 L 81.585938 308.8125 L 96.710938 308.796875 L 89.171875 302.136719 L 89.085938 302.125 L 89.003906 302.164062 L 81.546875 308.796875 L 81.585938 308.8125 Z M 69.628906 314.0625 "/>
<path style=" stroke:none;fill-rule:nonzero;fill:rgb(14.509804%,36.078431%,60%);fill-opacity:1;" d="M 69.628906 287.90625 L 69.675781 287.890625 L 69.675781 287.472656 L 69.820312 286.8125 L 70.152344 285.980469 L 70.484375 285.410156 L 71.339844 284.386719 L 72.53125 283.394531 L 73.765625 282.632812 L 74.671875 282.183594 L 75.480469 281.835938 L 77.332031 281.191406 L 78.523438 280.863281 L 79.808594 280.570312 L 81.375 280.273438 L 82.519531 280.101562 L 85.085938 279.824219 L 86.988281 279.703125 L 88.460938 279.648438 L 91.648438 279.648438 L 93.550781 279.71875 L 94.929688 279.804688 L 96.453125 279.945312 L 97.738281 280.101562 L 99.972656 280.480469 L 101.96875 280.96875 L 102.871094 281.246094 L 104.300781 281.78125 L 105.394531 282.304688 L 106.15625 282.753906 L 107.011719 283.394531 L 107.769531 284.175781 L 108.34375 285.0625 L 108.628906 285.808594 L 101.96875 285.808594 L 101.636719 285.113281 L 101.257812 284.574219 L 100.542969 283.863281 L 99.828125 283.363281 L 98.832031 282.859375 L 97.925781 282.527344 L 96.691406 282.199219 L 95.597656 281.992188 L 94.453125 281.835938 L 93.359375 281.730469 L 91.269531 281.628906 L 88.84375 281.628906 L 87.9375 281.660156 L 86.085938 281.800781 L 85.085938 281.921875 L 83.660156 282.164062 L 82.660156 282.390625 L 81.472656 282.738281 L 80.664062 283.03125 L 79.664062 283.484375 L 78.949219 283.882812 L 78.140625 284.453125 L 77.667969 284.886719 L 77.238281 285.375 L 76.859375 285.945312 L 76.574219 286.554688 L 76.382812 287.195312 L 76.289062 287.820312 L 76.289062 290.507812 L 76.382812 291.132812 L 76.621094 291.863281 L 77.238281 292.921875 L 78.140625 293.839844 L 79.1875 294.566406 L 80.1875 295.089844 L 80.757812 295.332031 L 81.519531 295.609375 L 82.707031 295.957031 L 84.421875 296.304688 L 85.417969 296.441406 L 86.941406 296.582031 L 88.511719 296.648438 L 90.601562 296.648438 L 92.457031 296.582031 L 93.695312 296.492188 L 94.976562 296.355469 L 96.738281 296.058594 L 97.832031 295.78125 L 98.78125 295.453125 L 99.496094 295.125 L 99.972656 294.84375 L 100.683594 294.308594 L 101.257812 293.71875 L 101.683594 293.109375 L 101.96875 292.519531 L 108.628906 292.519531 L 108.34375 293.214844 L 107.914062 293.890625 L 107.484375 294.394531 L 106.820312 295 L 106.058594 295.539062 L 104.964844 296.148438 L 104.0625 296.546875 L 102.871094 296.980469 L 101.777344 297.308594 L 100.589844 297.605469 L 98.832031 297.949219 L 97.6875 298.125 L 96.453125 298.28125 L 94.976562 298.417969 L 93.125 298.539062 L 91.125 298.609375 L 89.269531 298.628906 L 87.273438 298.59375 L 85.800781 298.523438 L 83.847656 298.367188 L 81.425781 298.054688 L 79.664062 297.726562 L 78.285156 297.394531 L 77.097656 297.046875 L 75.765625 296.582031 L 74.050781 295.816406 L 73.007812 295.226562 L 72.292969 294.742188 L 71.484375 294.066406 L 70.914062 293.457031 L 70.246094 292.488281 L 69.773438 291.253906 L 69.628906 290.300781 Z M 69.628906 287.90625 "/>
<path style=" stroke:none;fill-rule:nonzero;fill:rgb(83.921569%,15.686275%,22.352941%);fill-opacity:1;" d="M 69.628906 228.003906 L 108.628906 228.003906 L 108.628906 233.40625 L 92.375 233.453125 L 92.375 278.46875 L 85.835938 278.46875 L 85.835938 233.5 L 85.742188 233.40625 L 69.628906 233.40625 Z M 69.628906 228.003906 "/>
<path style=" stroke:none;fill-rule:nonzero;fill:rgb(6.27451%,58.823529%,28.235294%);fill-opacity:1;" d="M 110.679688 314.371094 L 110.722656 314.371094 L 127.597656 313.625 L 132.71875 313.625 L 149.679688 314.371094 L 143.71875 314.371094 L 139.46875 314.175781 L 120.847656 314.175781 L 116.679688 314.371094 L 110.679688 314.371094 L 122.636719 314.09375 L 137.761719 314.09375 L 130.222656 313.746094 L 130.136719 313.746094 L 130.054688 313.75 L 122.597656 314.09375 L 122.636719 314.09375 Z M 110.679688 314.371094 "/>
<path style=" stroke:none;fill-rule:nonzero;fill:rgb(96.862745%,70.196078%,16.862745%);fill-opacity:1;" d="M 110.679688 150.539062 L 110.726562 150.28125 L 110.726562 145.109375 L 110.917969 133.472656 L 111.394531 117.4375 L 112.011719 104.246094 L 112.675781 93.898438 L 113.105469 88.46875 L 113.820312 80.710938 L 114.4375 75.019531 L 116.007812 63.382812 L 118.003906 52.519531 L 119.097656 47.863281 L 120.335938 43.464844 L 122.09375 38.550781 L 122.902344 36.742188 L 125.375 32.605469 L 128.179688 30.015625 L 131.273438 29.242188 L 132.699219 29.5 L 134.648438 30.535156 L 137.3125 33.378906 L 138.835938 35.964844 L 140.023438 38.550781 L 141.261719 41.914062 L 142.78125 47.085938 L 144.207031 53.292969 L 145.351562 59.5 L 146.492188 67.261719 L 147.441406 75.535156 L 148.25 84.589844 L 148.964844 95.453125 L 149.394531 104.503906 L 149.679688 113.554688 L 143.066406 113.554688 L 142.6875 104.503906 L 142.257812 97.519531 L 141.546875 88.984375 L 140.832031 82.777344 L 140.117188 77.863281 L 138.789062 71.140625 L 137.644531 67.003906 L 136.21875 63.382812 L 134.839844 61.054688 L 133.269531 59.5 L 132.320312 58.984375 L 129.796875 58.984375 L 127.515625 60.792969 L 126.183594 62.863281 L 125.234375 64.933594 L 123.902344 68.8125 L 123.09375 71.917969 L 122.617188 73.984375 L 121.191406 82.003906 L 120.238281 89.246094 L 119.714844 94.160156 L 119.050781 101.917969 L 118.574219 108.902344 L 118.050781 119.246094 L 117.765625 127.003906 L 117.386719 144.59375 L 117.339844 191.148438 L 117.480469 200.972656 L 117.765625 211.578125 L 118.148438 220.890625 L 118.71875 230.71875 L 119.289062 238.21875 L 120.285156 248.304688 L 121.144531 255.027344 L 121.808594 259.425781 L 123.09375 266.410156 L 123.617188 268.738281 L 124.851562 273.390625 L 126.136719 277.011719 L 127.707031 280.117188 L 128.894531 281.667969 L 130.796875 282.960938 L 133.222656 282.960938 L 136.078125 281.410156 L 137.882812 279.339844 L 139.121094 277.273438 L 139.929688 275.460938 L 140.925781 272.617188 L 141.640625 270.03125 L 142.304688 267.183594 L 143.113281 262.789062 L 143.113281 200.972656 L 131.367188 200.714844 L 131.367188 171.75 L 149.628906 171.492188 L 149.679688 272.617188 L 148.679688 279.597656 L 147.441406 286.324219 L 146.253906 291.496094 L 145.015625 295.894531 L 143.257812 300.808594 L 141.832031 303.910156 L 139.644531 307.53125 L 137.644531 309.859375 L 135.554688 311.410156 L 133.699219 312.1875 L 131.511719 312.445312 L 129.5625 311.929688 L 127.46875 310.375 L 125.804688 308.308594 L 124.28125 305.722656 L 122.761719 302.359375 L 120.859375 296.929688 L 119.621094 292.53125 L 118.335938 287.101562 L 117.054688 280.632812 L 115.910156 273.652344 L 115.152344 268.21875 L 114.390625 262.011719 L 113.582031 254.253906 L 112.820312 245.460938 L 112.25 237.441406 L 111.726562 228.390625 L 111.347656 219.855469 L 110.964844 208.214844 L 110.773438 198.90625 L 110.679688 190.886719 Z M 110.679688 150.539062 "/>
<path style=" stroke:none;fill-rule:nonzero;fill:rgb(6.27451%,58.823529%,28.235294%);fill-opacity:1;" d="M 151.730469 313.367188 L 151.773438 313.355469 L 168.648438 301.871094 L 173.769531 301.871094 L 190.730469 313.378906 L 184.769531 313.378906 L 180.519531 310.375 L 161.898438 310.375 L 157.730469 313.367188 L 151.730469 313.367188 L 163.6875 309.132812 L 178.8125 309.121094 L 171.269531 303.75 L 171.1875 303.738281 L 171.105469 303.773438 L 163.648438 309.121094 L 163.6875 309.132812 Z M 151.730469 313.367188 "/>
<path style=" stroke:none;fill-rule:nonzero;fill:rgb(96.862745%,70.196078%,16.862745%);fill-opacity:1;" d="M 151.730469 263.910156 L 151.777344 263.878906 L 151.777344 263.28125 L 151.96875 261.9375 L 152.445312 260.085938 L 153.0625 258.566406 L 153.726562 257.371094 L 154.15625 256.742188 L 154.871094 255.847656 L 155.488281 255.191406 L 157.058594 253.847656 L 159.054688 252.59375 L 160.148438 252.058594 L 161.386719 251.550781 L 163.144531 250.980469 L 163.953125 250.773438 L 166.425781 250.296875 L 169.230469 249.996094 L 172.324219 249.90625 L 173.75 249.9375 L 175.699219 250.054688 L 178.363281 250.386719 L 179.886719 250.683594 L 181.074219 250.980469 L 182.3125 251.371094 L 183.832031 251.96875 L 185.257812 252.683594 L 186.402344 253.398438 L 187.542969 254.296875 L 188.492188 255.25 L 189.300781 256.296875 L 190.015625 257.550781 L 190.445312 258.59375 L 190.730469 259.640625 L 184.117188 259.640625 L 183.738281 258.59375 L 183.308594 257.789062 L 182.597656 256.804688 L 181.882812 256.085938 L 181.167969 255.519531 L 179.839844 254.742188 L 178.695312 254.265625 L 177.269531 253.847656 L 175.890625 253.578125 L 174.320312 253.398438 L 173.371094 253.339844 L 170.847656 253.339844 L 168.566406 253.550781 L 167.234375 253.789062 L 166.285156 254.027344 L 164.953125 254.476562 L 164.144531 254.832031 L 163.667969 255.070312 L 162.242188 255.996094 L 161.289062 256.832031 L 160.765625 257.402344 L 160.101562 258.296875 L 159.625 259.101562 L 159.101562 260.296875 L 158.816406 261.191406 L 158.4375 263.222656 L 158.390625 268.597656 L 158.53125 269.730469 L 158.816406 270.953125 L 159.199219 272.027344 L 159.769531 273.164062 L 160.339844 274.027344 L 161.335938 275.195312 L 162.195312 275.96875 L 162.859375 276.476562 L 164.144531 277.285156 L 164.667969 277.550781 L 165.902344 278.089844 L 167.1875 278.507812 L 168.757812 278.867188 L 169.945312 279.042969 L 171.847656 279.195312 L 174.273438 279.195312 L 177.128906 279.015625 L 178.933594 278.777344 L 180.171875 278.535156 L 180.980469 278.328125 L 181.976562 278 L 182.691406 277.703125 L 183.355469 277.371094 L 184.164062 276.867188 L 184.164062 269.730469 L 172.417969 269.699219 L 172.417969 266.355469 L 190.679688 266.328125 L 190.730469 278 L 189.730469 278.804688 L 188.492188 279.582031 L 187.304688 280.179688 L 186.066406 280.6875 L 184.308594 281.253906 L 182.882812 281.613281 L 180.695312 282.03125 L 178.695312 282.296875 L 176.605469 282.476562 L 174.75 282.566406 L 172.5625 282.597656 L 170.613281 282.539062 L 168.519531 282.359375 L 166.855469 282.121094 L 165.332031 281.820312 L 163.8125 281.433594 L 161.910156 280.804688 L 160.671875 280.296875 L 159.386719 279.671875 L 158.105469 278.925781 L 156.960938 278.117188 L 156.203125 277.492188 L 155.441406 276.777344 L 154.632812 275.878906 L 153.871094 274.863281 L 153.300781 273.941406 L 152.777344 272.894531 L 152.398438 271.910156 L 152.015625 270.566406 L 151.824219 269.492188 L 151.730469 268.566406 Z M 151.730469 263.910156 "/>
<path style=" stroke:none;fill-rule:nonzero;fill:rgb(83.921569%,15.686275%,22.352941%);fill-opacity:1;" d="M 151.730469 283.777344 L 190.730469 283.777344 L 190.730469 285.585938 L 174.476562 285.601562 L 174.476562 300.691406 L 167.9375 300.691406 L 167.9375 285.617188 L 167.839844 285.585938 L 151.730469 285.585938 Z M 151.730469 283.777344 "/>
<path style=" stroke:none;fill-rule:nonzero;fill:rgb(14.509804%,36.078431%,60%);fill-opacity:1;" d="M 192.78125 165.601562 L 192.828125 165.378906 L 192.828125 160.050781 L 192.972656 151.617188 L 193.304688 140.960938 L 193.636719 133.636719 L 194.492188 120.542969 L 195.683594 107.890625 L 196.917969 98.125 L 197.824219 92.351562 L 198.632812 87.914062 L 200.484375 79.699219 L 201.675781 75.484375 L 202.957031 71.710938 L 204.527344 67.9375 L 205.667969 65.71875 L 208.238281 62.164062 L 210.140625 60.613281 L 211.613281 59.945312 L 214.800781 59.945312 L 216.703125 60.835938 L 218.082031 61.945312 L 219.605469 63.71875 L 220.886719 65.71875 L 223.125 70.601562 L 225.121094 76.816406 L 226.023438 80.367188 L 227.453125 87.246094 L 228.546875 93.90625 L 229.304688 99.675781 L 230.164062 107.890625 L 230.921875 117.878906 L 231.496094 129.199219 L 231.78125 138.742188 L 225.121094 138.742188 L 224.789062 129.863281 L 224.40625 122.984375 L 223.695312 113.882812 L 222.980469 107.445312 L 221.984375 101.007812 L 221.078125 96.792969 L 219.84375 92.574219 L 218.75 89.910156 L 217.605469 87.914062 L 216.511719 86.582031 L 214.421875 85.25 L 211.996094 85.25 L 211.089844 85.695312 L 209.238281 87.46875 L 208.238281 89.023438 L 206.8125 92.128906 L 205.8125 95.015625 L 204.625 99.457031 L 203.816406 103.230469 L 202.816406 109 L 202.101562 114.105469 L 201.292969 121.429688 L 200.820312 126.980469 L 200.390625 133.195312 L 200.011719 140.519531 L 199.726562 148.285156 L 199.535156 156.5 L 199.441406 164.488281 L 199.441406 198.894531 L 199.535156 206.882812 L 199.773438 216.207031 L 200.390625 229.746094 L 201.292969 241.511719 L 202.339844 250.832031 L 203.339844 257.492188 L 203.910156 260.597656 L 204.671875 264.152344 L 205.859375 268.589844 L 207.570312 273.027344 L 208.570312 274.804688 L 210.09375 276.582031 L 211.664062 277.46875 L 213.753906 277.46875 L 215.609375 276.582031 L 216.847656 275.46875 L 218.128906 273.695312 L 219.890625 269.921875 L 220.984375 266.371094 L 221.933594 262.152344 L 222.648438 257.9375 L 223.125 254.382812 L 223.835938 247.503906 L 224.40625 239.957031 L 224.835938 232.1875 L 225.121094 224.640625 L 231.78125 224.640625 L 231.496094 233.519531 L 231.066406 242.175781 L 230.636719 248.613281 L 229.972656 256.382812 L 229.210938 263.261719 L 228.117188 271.03125 L 227.214844 276.136719 L 226.023438 281.683594 L 224.929688 285.902344 L 223.742188 289.675781 L 221.984375 294.117188 L 220.839844 296.335938 L 219.605469 298.332031 L 218.128906 300.109375 L 216.277344 301.660156 L 214.277344 302.550781 L 212.421875 302.773438 L 210.425781 302.328125 L 208.953125 301.441406 L 207 299.441406 L 204.574219 295.445312 L 202.816406 291.230469 L 201.4375 287.011719 L 200.25 282.574219 L 198.917969 276.582031 L 197.203125 266.8125 L 196.15625 259.265625 L 195.445312 253.050781 L 194.636719 244.394531 L 194.066406 236.628906 L 193.398438 224.199219 L 192.925781 208.4375 L 192.78125 196.230469 Z M 192.78125 165.601562 "/>
<path style=" stroke:none;fill-rule:nonzero;fill:rgb(83.921569%,15.686275%,22.352941%);fill-opacity:1;" d="M 192.78125 303.953125 L 231.78125 303.953125 L 231.78125 305.066406 L 215.527344 305.078125 L 215.527344 314.371094 L 208.988281 314.371094 L 208.988281 305.085938 L 208.890625 305.066406 L 192.78125 305.066406 Z M 192.78125 303.953125 "/>
<path style=" stroke:none;fill-rule:nonzero;fill:rgb(96.862745%,70.196078%,16.862745%);fill-opacity:1;" d="M 233.832031 146.460938 L 233.878906 146.191406 L 233.878906 140.828125 L 234.070312 128.757812 L 234.546875 112.128906 L 235.164062 98.449219 L 235.828125 87.71875 L 236.257812 82.085938 L 236.972656 74.039062 L 237.589844 68.140625 L 239.160156 56.070312 L 241.15625 44.804688 L 242.25 39.976562 L 243.488281 35.414062 L 245.246094 30.320312 L 246.054688 28.441406 L 248.527344 24.148438 L 251.332031 21.46875 L 254.425781 20.664062 L 255.851562 20.929688 L 257.800781 22.003906 L 260.464844 24.953125 L 261.988281 27.636719 L 263.175781 30.320312 L 264.414062 33.804688 L 265.933594 39.171875 L 267.359375 45.609375 L 268.503906 52.046875 L 269.644531 60.09375 L 270.59375 68.675781 L 271.402344 78.0625 L 272.117188 89.328125 L 272.542969 98.714844 L 272.832031 108.105469 L 266.21875 108.105469 L 265.839844 98.714844 L 265.410156 91.476562 L 264.699219 82.625 L 263.984375 76.1875 L 263.269531 71.089844 L 261.9375 64.117188 L 260.796875 59.824219 L 259.371094 56.070312 L 257.992188 53.65625 L 256.421875 52.046875 L 255.472656 51.507812 L 252.949219 51.507812 L 250.667969 53.386719 L 249.335938 55.53125 L 248.386719 57.679688 L 247.054688 61.703125 L 246.246094 64.921875 L 245.769531 67.066406 L 244.34375 75.382812 L 243.390625 82.890625 L 242.867188 87.988281 L 242.203125 96.035156 L 241.726562 103.277344 L 241.203125 114.003906 L 240.917969 122.050781 L 240.539062 140.292969 L 240.492188 188.574219 L 240.632812 198.765625 L 240.917969 209.761719 L 241.296875 219.417969 L 241.871094 229.609375 L 242.441406 237.390625 L 243.4375 247.851562 L 244.296875 254.824219 L 244.960938 259.382812 L 246.246094 266.625 L 246.769531 269.039062 L 248.003906 273.867188 L 249.289062 277.625 L 250.859375 280.84375 L 252.046875 282.453125 L 253.949219 283.792969 L 256.375 283.792969 L 259.226562 282.183594 L 261.035156 280.039062 L 262.273438 277.890625 L 263.082031 276.015625 L 264.078125 273.0625 L 264.792969 270.382812 L 265.457031 267.429688 L 266.265625 262.871094 L 266.265625 198.765625 L 254.519531 198.496094 L 254.519531 168.457031 L 272.78125 168.1875 L 272.832031 273.0625 L 271.832031 280.304688 L 270.59375 287.28125 L 269.40625 292.644531 L 268.167969 297.203125 L 266.410156 302.300781 L 264.984375 305.519531 L 262.796875 309.273438 L 260.796875 311.6875 L 258.707031 313.296875 L 256.851562 314.101562 L 254.664062 314.371094 L 252.710938 313.835938 L 250.621094 312.226562 L 248.957031 310.078125 L 247.433594 307.398438 L 245.910156 303.910156 L 244.007812 298.277344 L 242.773438 293.71875 L 241.488281 288.085938 L 240.203125 281.378906 L 239.0625 274.136719 L 238.300781 268.503906 L 237.542969 262.066406 L 236.734375 254.019531 L 235.972656 244.898438 L 235.402344 236.585938 L 234.878906 227.195312 L 234.496094 218.34375 L 234.117188 206.277344 L 233.925781 196.621094 L 233.832031 188.304688 Z M 233.832031 146.460938 "/>
<path style=" stroke:none;fill-rule:nonzero;fill:rgb(96.862745%,70.196078%,16.862745%);fill-opacity:1;" d="M 274.882812 146.460938 L 274.929688 146.191406 L 274.929688 140.828125 L 275.121094 128.757812 L 275.597656 112.128906 L 276.214844 98.449219 L 276.878906 87.71875 L 277.308594 82.085938 L 278.023438 74.039062 L 278.640625 68.140625 L 280.210938 56.070312 L 282.207031 44.804688 L 283.300781 39.976562 L 284.539062 35.414062 L 286.296875 30.320312 L 287.105469 28.441406 L 289.578125 24.148438 L 292.382812 21.46875 L 295.476562 20.664062 L 296.902344 20.929688 L 298.851562 22.003906 L 301.515625 24.953125 L 303.039062 27.636719 L 304.226562 30.320312 L 305.464844 33.804688 L 306.984375 39.171875 L 308.410156 45.609375 L 309.554688 52.046875 L 310.695312 60.09375 L 311.644531 68.675781 L 312.453125 78.0625 L 313.167969 89.328125 L 313.59375 98.714844 L 313.882812 108.105469 L 307.269531 108.105469 L 306.890625 98.714844 L 306.460938 91.476562 L 305.75 82.625 L 305.035156 76.1875 L 304.320312 71.089844 L 302.988281 64.117188 L 301.847656 59.824219 L 300.421875 56.070312 L 299.042969 53.65625 L 297.472656 52.046875 L 296.523438 51.507812 L 294 51.507812 L 291.71875 53.386719 L 290.386719 55.53125 L 289.4375 57.679688 L 288.105469 61.703125 L 287.296875 64.921875 L 286.820312 67.066406 L 285.394531 75.382812 L 284.441406 82.890625 L 283.917969 87.988281 L 283.253906 96.035156 L 282.777344 103.277344 L 282.253906 114.003906 L 281.96875 122.050781 L 281.589844 140.292969 L 281.539062 188.574219 L 281.683594 198.765625 L 281.96875 209.761719 L 282.347656 219.417969 L 282.921875 229.609375 L 283.492188 237.390625 L 284.488281 247.851562 L 285.34375 254.824219 L 286.011719 259.382812 L 287.296875 266.625 L 287.820312 269.039062 L 289.054688 273.867188 L 290.339844 277.625 L 291.910156 280.84375 L 293.097656 282.453125 L 295 283.792969 L 297.425781 283.792969 L 300.277344 282.183594 L 302.085938 280.039062 L 303.324219 277.890625 L 304.132812 276.015625 L 305.128906 273.0625 L 305.84375 270.382812 L 306.507812 267.429688 L 307.316406 262.871094 L 307.316406 198.765625 L 295.570312 198.496094 L 295.570312 168.457031 L 313.832031 168.1875 L 313.882812 273.0625 L 312.882812 280.304688 L 311.644531 287.28125 L 310.457031 292.644531 L 309.21875 297.203125 L 307.460938 302.300781 L 306.035156 305.519531 L 303.847656 309.273438 L 301.847656 311.6875 L 299.757812 313.296875 L 297.902344 314.101562 L 295.714844 314.371094 L 293.761719 313.835938 L 291.671875 312.226562 L 290.007812 310.078125 L 288.484375 307.398438 L 286.960938 303.910156 L 285.058594 298.277344 L 283.824219 293.71875 L 282.539062 288.085938 L 281.253906 281.378906 L 280.113281 274.136719 L 279.351562 268.503906 L 278.59375 262.066406 L 277.785156 254.019531 L 277.023438 244.898438 L 276.453125 236.585938 L 275.929688 227.195312 L 275.546875 218.34375 L 275.167969 206.277344 L 274.976562 196.621094 L 274.882812 188.304688 Z M 274.882812 146.460938 "/>
<path style=" stroke:none;fill-rule:nonzero;fill:rgb(6.27451%,58.823529%,28.235294%);fill-opacity:1;" d="M 315.933594 314.367188 L 315.976562 314.367188 L 332.847656 311.914062 L 337.972656 311.914062 L 354.929688 314.371094 L 348.972656 314.371094 L 344.722656 313.730469 L 326.101562 313.730469 L 321.933594 314.367188 L 315.933594 314.367188 L 327.890625 313.464844 L 343.015625 313.460938 L 335.472656 312.316406 L 335.390625 312.3125 L 335.308594 312.320312 L 327.847656 313.460938 L 327.890625 313.464844 Z M 315.933594 314.367188 "/>
<path style=" stroke:none;fill-rule:nonzero;fill:rgb(14.509804%,36.078431%,60%);fill-opacity:1;" d="M 315.933594 297.773438 L 315.980469 297.753906 L 315.980469 297.25 L 316.125 296.453125 L 316.457031 295.445312 L 316.789062 294.753906 L 317.644531 293.515625 L 318.835938 292.320312 L 320.070312 291.398438 L 320.976562 290.851562 L 321.78125 290.433594 L 323.636719 289.65625 L 324.828125 289.257812 L 326.109375 288.902344 L 327.679688 288.546875 L 328.820312 288.335938 L 331.390625 288 L 333.292969 287.851562 L 334.765625 287.789062 L 337.953125 287.789062 L 339.855469 287.875 L 341.234375 287.980469 L 342.757812 288.148438 L 344.039062 288.335938 L 346.277344 288.796875 L 348.273438 289.382812 L 349.175781 289.71875 L 350.605469 290.371094 L 351.699219 291 L 352.457031 291.542969 L 353.316406 292.320312 L 354.074219 293.265625 L 354.644531 294.332031 L 354.929688 295.234375 L 348.273438 295.234375 L 347.941406 294.398438 L 347.558594 293.746094 L 346.847656 292.886719 L 346.132812 292.277344 L 345.132812 291.671875 L 344.230469 291.273438 L 342.996094 290.875 L 341.902344 290.621094 L 340.757812 290.433594 L 339.664062 290.308594 L 337.574219 290.179688 L 335.148438 290.179688 L 334.242188 290.222656 L 332.390625 290.390625 L 331.390625 290.539062 L 329.964844 290.832031 L 328.964844 291.105469 L 327.777344 291.523438 L 326.96875 291.878906 L 325.96875 292.425781 L 325.253906 292.90625 L 324.445312 293.601562 L 323.972656 294.125 L 323.542969 294.710938 L 323.164062 295.402344 L 322.878906 296.136719 L 322.6875 296.914062 L 322.589844 297.667969 L 322.589844 300.917969 L 322.6875 301.675781 L 322.925781 302.554688 L 323.542969 303.835938 L 324.445312 304.945312 L 325.492188 305.828125 L 326.492188 306.457031 L 327.0625 306.75 L 327.824219 307.085938 L 329.011719 307.503906 L 330.722656 307.925781 L 331.722656 308.09375 L 333.246094 308.261719 L 334.8125 308.34375 L 336.90625 308.34375 L 338.761719 308.261719 L 340 308.15625 L 341.28125 307.988281 L 343.042969 307.632812 L 344.136719 307.296875 L 345.085938 306.898438 L 345.800781 306.5 L 346.277344 306.164062 L 346.988281 305.511719 L 347.558594 304.800781 L 347.988281 304.066406 L 348.273438 303.351562 L 354.929688 303.351562 L 354.644531 304.191406 L 354.21875 305.007812 L 353.789062 305.617188 L 353.125 306.351562 L 352.363281 307.003906 L 351.269531 307.734375 L 350.367188 308.21875 L 349.175781 308.742188 L 348.082031 309.140625 L 346.894531 309.496094 L 345.132812 309.917969 L 343.992188 310.128906 L 342.757812 310.316406 L 341.28125 310.484375 L 339.425781 310.628906 L 337.429688 310.714844 L 335.574219 310.734375 L 333.578125 310.695312 L 332.101562 310.609375 L 330.152344 310.421875 L 327.726562 310.042969 L 325.96875 309.644531 L 324.589844 309.246094 L 323.398438 308.828125 L 322.070312 308.261719 L 320.355469 307.335938 L 319.308594 306.625 L 318.597656 306.039062 L 317.789062 305.21875 L 317.21875 304.484375 L 316.550781 303.3125 L 316.074219 301.820312 L 315.933594 300.667969 Z M 315.933594 297.773438 "/>
<path style=" stroke:none;fill-rule:nonzero;fill:rgb(83.921569%,15.686275%,22.352941%);fill-opacity:1;" d="M 315.933594 118.914062 L 354.929688 118.914062 L 354.929688 136.867188 L 338.679688 137.023438 L 338.679688 286.609375 L 332.140625 286.609375 L 332.140625 137.179688 L 332.042969 136.867188 L 315.933594 136.867188 Z M 315.933594 118.914062 "/>
<path style=" stroke:none;fill-rule:nonzero;fill:rgb(96.862745%,70.196078%,16.862745%);fill-opacity:1;" d="M 356.984375 150.085938 L 357.03125 149.824219 L 357.03125 144.625 L 357.222656 132.917969 L 357.699219 116.789062 L 358.316406 103.523438 L 358.980469 93.121094 L 359.410156 87.65625 L 360.121094 79.851562 L 360.742188 74.128906 L 362.3125 62.425781 L 364.308594 51.5 L 365.402344 46.816406 L 366.636719 42.394531 L 368.398438 37.453125 L 369.207031 35.632812 L 371.679688 31.46875 L 374.484375 28.871094 L 377.578125 28.089844 L 379.003906 28.347656 L 380.953125 29.390625 L 383.617188 32.25 L 385.140625 34.851562 L 386.328125 37.453125 L 387.5625 40.835938 L 389.085938 46.039062 L 390.511719 52.28125 L 391.65625 58.523438 L 392.796875 66.328125 L 393.746094 74.652344 L 394.554688 83.753906 L 395.269531 94.679688 L 395.695312 103.785156 L 395.980469 112.886719 L 389.371094 112.886719 L 388.992188 103.785156 L 388.5625 96.761719 L 387.851562 88.175781 L 387.136719 81.933594 L 386.421875 76.992188 L 385.089844 70.230469 L 383.949219 66.066406 L 382.523438 62.425781 L 381.144531 60.082031 L 379.574219 58.523438 L 378.625 58.003906 L 376.101562 58.003906 L 373.820312 59.824219 L 372.488281 61.90625 L 371.535156 63.984375 L 370.207031 67.886719 L 369.398438 71.007812 L 368.921875 73.089844 L 367.496094 81.152344 L 366.542969 88.4375 L 366.019531 93.378906 L 365.355469 101.183594 L 364.878906 108.207031 L 364.355469 118.609375 L 364.070312 126.414062 L 363.691406 144.101562 L 363.640625 190.925781 L 363.785156 200.808594 L 364.070312 211.472656 L 364.449219 220.839844 L 365.023438 230.722656 L 365.59375 238.265625 L 366.589844 248.410156 L 367.445312 255.175781 L 368.113281 259.597656 L 369.398438 266.621094 L 369.921875 268.960938 L 371.15625 273.644531 L 372.441406 277.285156 L 374.011719 280.40625 L 375.199219 281.96875 L 377.101562 283.265625 L 379.527344 283.265625 L 382.378906 281.707031 L 384.1875 279.625 L 385.425781 277.542969 L 386.234375 275.722656 L 387.230469 272.863281 L 387.945312 270.261719 L 388.609375 267.398438 L 389.417969 262.976562 L 389.417969 200.808594 L 377.671875 200.550781 L 377.671875 171.414062 L 395.933594 171.15625 L 395.980469 272.863281 L 394.984375 279.886719 L 393.746094 286.648438 L 392.558594 291.851562 L 391.320312 296.273438 L 389.5625 301.214844 L 388.136719 304.335938 L 385.949219 307.980469 L 383.949219 310.320312 L 381.855469 311.878906 L 380.003906 312.660156 L 377.816406 312.921875 L 375.863281 312.402344 L 373.773438 310.839844 L 372.109375 308.757812 L 370.585938 306.15625 L 369.0625 302.777344 L 367.160156 297.3125 L 365.925781 292.890625 L 364.640625 287.429688 L 363.355469 280.925781 L 362.214844 273.902344 L 361.453125 268.441406 L 360.695312 262.199219 L 359.886719 254.394531 L 359.125 245.550781 L 358.554688 237.484375 L 358.03125 228.382812 L 357.648438 219.796875 L 357.269531 208.09375 L 357.078125 198.726562 L 356.984375 190.664062 Z M 356.984375 150.085938 "/>
<path style=" stroke:none;fill-rule:nonzero;fill:rgb(6.27451%,58.823529%,28.235294%);fill-opacity:1;" d="M 398.035156 301.394531 L 398.078125 301.378906 L 414.949219 284.402344 L 420.074219 284.402344 L 437.03125 301.410156 L 431.074219 301.410156 L 426.824219 296.96875 L 408.199219 296.96875 L 404.035156 301.394531 L 398.035156 301.394531 L 409.992188 295.132812 L 425.117188 295.117188 L 417.574219 287.179688 L 417.492188 287.164062 L 417.410156 287.210938 L 409.949219 295.117188 L 409.992188 295.132812 Z M 398.035156 301.394531 "/>
<path style=" stroke:none;fill-rule:nonzero;fill:rgb(14.509804%,36.078431%,60%);fill-opacity:1;" d="M 398.035156 305.625 L 398.082031 305.617188 L 398.082031 305.464844 L 398.226562 305.222656 L 398.558594 304.914062 L 398.890625 304.707031 L 399.746094 304.328125 L 400.9375 303.964844 L 402.171875 303.683594 L 403.074219 303.519531 L 403.882812 303.390625 L 405.738281 303.15625 L 406.929688 303.035156 L 408.210938 302.925781 L 409.78125 302.820312 L 410.921875 302.753906 L 413.492188 302.652344 L 415.394531 302.609375 L 416.867188 302.589844 L 420.054688 302.589844 L 421.957031 302.613281 L 423.335938 302.648438 L 424.859375 302.699219 L 426.140625 302.753906 L 428.378906 302.894531 L 430.375 303.074219 L 431.277344 303.175781 L 432.707031 303.375 L 433.800781 303.5625 L 434.558594 303.730469 L 435.414062 303.964844 L 436.175781 304.253906 L 436.746094 304.578125 L 437.03125 304.851562 L 430.375 304.851562 L 430.042969 304.597656 L 429.660156 304.398438 L 428.949219 304.136719 L 428.234375 303.953125 L 427.234375 303.769531 L 426.332031 303.648438 L 425.097656 303.527344 L 424 303.449219 L 422.859375 303.390625 L 421.765625 303.355469 L 419.675781 303.316406 L 417.25 303.316406 L 416.34375 303.328125 L 414.488281 303.378906 L 413.492188 303.425781 L 412.066406 303.511719 L 411.066406 303.597656 L 409.875 303.722656 L 409.070312 303.832031 L 408.070312 303.996094 L 407.355469 304.144531 L 406.546875 304.355469 L 406.070312 304.515625 L 405.644531 304.691406 L 405.265625 304.902344 L 404.976562 305.125 L 404.789062 305.363281 L 404.691406 305.589844 L 404.691406 306.578125 L 404.789062 306.808594 L 405.027344 307.078125 L 405.644531 307.464844 L 406.546875 307.804688 L 407.59375 308.070312 L 408.59375 308.261719 L 409.164062 308.351562 L 409.925781 308.453125 L 411.113281 308.582031 L 412.824219 308.707031 L 413.824219 308.757812 L 415.347656 308.808594 L 416.914062 308.835938 L 419.007812 308.835938 L 420.863281 308.808594 L 422.097656 308.777344 L 423.382812 308.726562 L 425.144531 308.617188 L 426.238281 308.515625 L 427.1875 308.394531 L 427.902344 308.273438 L 428.378906 308.171875 L 429.089844 307.976562 L 429.660156 307.757812 L 430.089844 307.535156 L 430.375 307.320312 L 437.03125 307.320312 L 436.746094 307.574219 L 436.320312 307.824219 L 435.890625 308.007812 L 435.226562 308.230469 L 434.464844 308.429688 L 433.371094 308.652344 L 432.46875 308.796875 L 431.277344 308.957031 L 430.183594 309.078125 L 428.996094 309.1875 L 427.234375 309.3125 L 426.09375 309.378906 L 424.859375 309.433594 L 423.382812 309.484375 L 421.527344 309.53125 L 419.53125 309.554688 L 417.675781 309.5625 L 415.679688 309.550781 L 414.203125 309.523438 L 412.253906 309.46875 L 409.828125 309.351562 L 408.070312 309.230469 L 406.691406 309.109375 L 405.5 308.984375 L 404.167969 308.808594 L 402.457031 308.53125 L 401.410156 308.3125 L 400.699219 308.132812 L 399.890625 307.886719 L 399.320312 307.664062 L 398.652344 307.304688 L 398.175781 306.851562 L 398.035156 306.503906 Z M 398.035156 305.625 "/>
<path style=" stroke:none;fill-rule:nonzero;fill:rgb(96.862745%,70.196078%,16.862745%);fill-opacity:1;" d="M 398.035156 230.59375 L 398.082031 230.511719 L 398.082031 228.828125 L 398.273438 225.046875 L 398.75 219.832031 L 399.367188 215.546875 L 400.03125 212.183594 L 400.460938 210.417969 L 401.171875 207.894531 L 401.792969 206.046875 L 403.363281 202.261719 L 405.359375 198.730469 L 406.453125 197.21875 L 407.6875 195.789062 L 409.449219 194.191406 L 410.257812 193.605469 L 412.730469 192.257812 L 415.535156 191.417969 L 418.628906 191.164062 L 420.054688 191.25 L 422.003906 191.585938 L 424.667969 192.511719 L 426.191406 193.351562 L 427.378906 194.191406 L 428.613281 195.285156 L 430.136719 196.964844 L 431.5625 198.984375 L 432.707031 201 L 433.847656 203.523438 L 434.796875 206.214844 L 435.605469 209.15625 L 436.320312 212.6875 L 436.746094 215.628906 L 437.03125 218.574219 L 430.421875 218.574219 L 430.042969 215.628906 L 429.613281 213.359375 L 428.902344 210.585938 L 428.1875 208.566406 L 427.472656 206.972656 L 426.140625 204.785156 L 425 203.441406 L 423.574219 202.261719 L 422.195312 201.507812 L 420.625 201 L 419.675781 200.832031 L 417.152344 200.832031 L 414.871094 201.421875 L 413.539062 202.09375 L 412.585938 202.765625 L 411.257812 204.027344 L 410.449219 205.039062 L 409.972656 205.710938 L 408.546875 208.316406 L 407.59375 210.671875 L 407.070312 212.265625 L 406.40625 214.789062 L 405.929688 217.058594 L 405.40625 220.421875 L 405.121094 222.945312 L 404.742188 228.660156 L 404.691406 243.792969 L 404.835938 246.988281 L 405.121094 250.433594 L 405.5 253.460938 L 406.070312 256.65625 L 406.644531 259.09375 L 407.640625 262.371094 L 408.496094 264.558594 L 409.164062 265.988281 L 410.449219 268.257812 L 410.972656 269.015625 L 412.207031 270.527344 L 413.492188 271.703125 L 415.0625 272.714844 L 416.25 273.21875 L 418.152344 273.636719 L 420.578125 273.636719 L 423.429688 273.132812 L 425.238281 272.460938 L 426.476562 271.789062 L 427.285156 271.199219 L 428.28125 270.277344 L 428.996094 269.433594 L 429.660156 268.511719 L 430.46875 267.082031 L 430.46875 246.988281 L 418.722656 246.902344 L 418.722656 237.488281 L 436.984375 237.402344 L 437.03125 270.277344 L 436.035156 272.546875 L 434.796875 274.730469 L 433.609375 276.414062 L 432.371094 277.839844 L 430.613281 279.4375 L 429.1875 280.449219 L 427 281.625 L 425 282.382812 L 422.90625 282.886719 L 421.054688 283.136719 L 418.867188 283.222656 L 416.914062 283.054688 L 414.824219 282.550781 L 413.160156 281.878906 L 411.636719 281.035156 L 410.113281 279.945312 L 408.210938 278.179688 L 406.976562 276.75 L 405.691406 274.984375 L 404.40625 272.882812 L 403.265625 270.613281 L 402.503906 268.847656 L 401.746094 266.828125 L 400.9375 264.304688 L 400.175781 261.449219 L 399.605469 258.84375 L 399.082031 255.898438 L 398.699219 253.125 L 398.320312 249.34375 L 398.128906 246.316406 L 398.035156 243.710938 Z M 398.035156 230.59375 "/>
<path style=" stroke:none;fill-rule:nonzero;fill:rgb(83.921569%,15.686275%,22.352941%);fill-opacity:1;" d="M 398.035156 310.742188 L 437.03125 310.742188 L 437.03125 311.128906 L 420.78125 311.132812 L 420.78125 314.371094 L 414.242188 314.371094 L 414.242188 311.136719 L 414.144531 311.128906 L 398.035156 311.128906 Z M 398.035156 310.742188 "/>
<path style=" stroke:none;fill-rule:nonzero;fill:rgb(6.27451%,58.823529%,28.235294%);fill-opacity:1;" d="M 439.085938 290.910156 L 439.128906 290.898438 L 456 278.246094 L 461.125 278.246094 L 478.082031 290.921875 L 472.125 290.921875 L 467.875 287.613281 L 449.25 287.613281 L 445.085938 290.910156 L 439.085938 290.910156 L 451.042969 286.246094 L 466.167969 286.234375 L 458.625 280.316406 L 458.542969 280.304688 L 458.460938 280.339844 L 451 286.234375 L 451.042969 286.246094 Z M 439.085938 290.910156 "/>
<path style=" stroke:none;fill-rule:nonzero;fill:rgb(14.509804%,36.078431%,60%);fill-opacity:1;" d="M 439.085938 297.207031 L 439.132812 297.199219 L 439.132812 296.941406 L 439.277344 296.53125 L 439.609375 296.015625 L 439.941406 295.664062 L 440.796875 295.03125 L 441.988281 294.417969 L 443.222656 293.945312 L 444.125 293.667969 L 444.933594 293.453125 L 446.789062 293.054688 L 447.980469 292.851562 L 449.261719 292.671875 L 450.832031 292.488281 L 451.972656 292.378906 L 454.542969 292.210938 L 456.445312 292.132812 L 457.917969 292.101562 L 461.105469 292.101562 L 463.007812 292.144531 L 464.386719 292.199219 L 465.910156 292.285156 L 467.191406 292.378906 L 469.429688 292.617188 L 471.425781 292.917969 L 472.328125 293.089844 L 473.753906 293.421875 L 474.851562 293.742188 L 475.609375 294.023438 L 476.464844 294.417969 L 477.226562 294.902344 L 477.796875 295.449219 L 478.082031 295.910156 L 471.425781 295.910156 L 471.09375 295.480469 L 470.710938 295.148438 L 470 294.707031 L 469.285156 294.398438 L 468.285156 294.085938 L 467.382812 293.882812 L 466.144531 293.679688 L 465.050781 293.550781 L 463.910156 293.453125 L 462.816406 293.390625 L 460.726562 293.324219 L 458.300781 293.324219 L 457.394531 293.347656 L 455.539062 293.433594 L 454.542969 293.507812 L 453.117188 293.65625 L 452.117188 293.796875 L 450.925781 294.011719 L 450.117188 294.195312 L 449.121094 294.472656 L 448.40625 294.71875 L 447.597656 295.074219 L 447.121094 295.339844 L 446.695312 295.640625 L 446.3125 295.996094 L 446.027344 296.371094 L 445.839844 296.769531 L 445.742188 297.15625 L 445.742188 298.816406 L 445.839844 299.203125 L 446.078125 299.652344 L 446.695312 300.308594 L 447.597656 300.875 L 448.644531 301.328125 L 449.644531 301.648438 L 450.214844 301.800781 L 450.976562 301.972656 L 452.164062 302.1875 L 453.875 302.398438 L 454.875 302.484375 L 456.398438 302.570312 L 457.964844 302.613281 L 460.058594 302.613281 L 461.914062 302.570312 L 463.148438 302.519531 L 464.433594 302.433594 L 466.195312 302.25 L 467.289062 302.078125 L 468.238281 301.875 L 468.953125 301.671875 L 469.429688 301.5 L 470.140625 301.167969 L 470.710938 300.800781 L 471.140625 300.425781 L 471.425781 300.0625 L 478.082031 300.0625 L 477.796875 300.492188 L 477.371094 300.910156 L 476.941406 301.21875 L 476.277344 301.59375 L 475.515625 301.929688 L 474.421875 302.304688 L 473.519531 302.550781 L 472.328125 302.820312 L 471.234375 303.023438 L 470.046875 303.203125 L 468.285156 303.417969 L 467.144531 303.527344 L 465.910156 303.625 L 464.433594 303.707031 L 462.578125 303.785156 L 460.582031 303.828125 L 458.726562 303.835938 L 456.730469 303.816406 L 455.253906 303.773438 L 453.304688 303.675781 L 450.878906 303.484375 L 449.121094 303.28125 L 447.742188 303.074219 L 446.550781 302.863281 L 445.21875 302.570312 L 443.507812 302.101562 L 442.460938 301.734375 L 441.75 301.433594 L 440.941406 301.015625 L 440.371094 300.640625 L 439.703125 300.039062 L 439.226562 299.277344 L 439.085938 298.6875 Z M 439.085938 297.207031 "/>
<path style=" stroke:none;fill-rule:nonzero;fill:rgb(96.862745%,70.196078%,16.862745%);fill-opacity:1;" d="M 439.085938 314.148438 L 439.132812 314.148438 L 439.132812 314.140625 L 439.324219 314.125 L 439.800781 314.105469 L 440.417969 314.085938 L 441.082031 314.070312 L 441.511719 314.0625 L 442.222656 314.054688 L 442.84375 314.046875 L 444.410156 314.03125 L 446.410156 314.015625 L 447.503906 314.007812 L 448.738281 314.003906 L 450.5 313.996094 L 451.308594 313.992188 L 453.78125 313.988281 L 456.585938 313.984375 L 463.054688 313.984375 L 465.71875 313.988281 L 467.242188 313.992188 L 468.429688 313.996094 L 469.664062 314 L 471.1875 314.007812 L 472.613281 314.015625 L 473.753906 314.023438 L 474.898438 314.035156 L 475.847656 314.046875 L 476.65625 314.058594 L 477.371094 314.074219 L 477.796875 314.085938 L 478.082031 314.097656 L 471.472656 314.097656 L 471.09375 314.085938 L 470.664062 314.078125 L 469.949219 314.066406 L 469.238281 314.054688 L 468.523438 314.050781 L 467.191406 314.039062 L 466.050781 314.035156 L 464.625 314.03125 L 463.246094 314.027344 L 461.675781 314.023438 L 458.203125 314.023438 L 455.921875 314.027344 L 454.589844 314.027344 L 453.636719 314.03125 L 452.308594 314.035156 L 451.5 314.042969 L 451.023438 314.042969 L 449.597656 314.054688 L 448.644531 314.066406 L 448.121094 314.070312 L 447.457031 314.082031 L 446.980469 314.09375 L 446.457031 314.105469 L 446.171875 314.117188 L 445.792969 314.140625 L 445.742188 314.203125 L 445.886719 314.21875 L 446.171875 314.234375 L 446.550781 314.246094 L 447.121094 314.257812 L 447.695312 314.269531 L 448.691406 314.28125 L 449.546875 314.292969 L 450.214844 314.296875 L 451.5 314.308594 L 452.019531 314.3125 L 453.257812 314.316406 L 454.542969 314.320312 L 456.113281 314.328125 L 457.300781 314.328125 L 459.203125 314.332031 L 461.628906 314.332031 L 464.480469 314.328125 L 466.289062 314.324219 L 467.527344 314.324219 L 468.335938 314.320312 L 469.332031 314.316406 L 470.046875 314.3125 L 470.710938 314.308594 L 471.519531 314.300781 L 471.519531 314.21875 L 459.773438 314.21875 L 459.773438 314.179688 L 478.035156 314.175781 L 478.082031 314.316406 L 477.085938 314.324219 L 475.847656 314.335938 L 474.660156 314.34375 L 473.421875 314.347656 L 471.664062 314.355469 L 470.238281 314.359375 L 468.046875 314.363281 L 466.050781 314.367188 L 463.957031 314.371094 L 457.964844 314.371094 L 455.875 314.367188 L 454.210938 314.363281 L 452.6875 314.363281 L 451.164062 314.355469 L 449.261719 314.347656 L 448.027344 314.34375 L 445.457031 314.328125 L 444.316406 314.316406 L 443.554688 314.308594 L 442.796875 314.300781 L 441.988281 314.289062 L 441.226562 314.277344 L 440.65625 314.269531 L 440.132812 314.253906 L 439.75 314.242188 L 439.371094 314.226562 L 439.179688 314.214844 L 439.085938 314.203125 Z M 439.085938 314.148438 "/>
<path style=" stroke:none;fill-rule:nonzero;fill:rgb(83.921569%,15.686275%,22.352941%);fill-opacity:1;" d="M 439.085938 305.015625 L 478.082031 305.015625 L 478.082031 305.851562 L 461.832031 305.859375 L 461.832031 312.804688 L 455.292969 312.804688 L 455.292969 305.867188 L 455.195312 305.851562 L 439.085938 305.851562 Z M 439.085938 305.015625 "/>
<path style=" stroke:none;fill-rule:nonzero;fill:rgb(6.27451%,58.823529%,28.235294%);fill-opacity:1;" d="M 480.136719 297.3125 L 480.179688 297.300781 L 497.050781 286.367188 L 502.175781 286.367188 L 519.132812 297.320312 L 513.175781 297.320312 L 508.925781 294.460938 L 490.300781 294.460938 L 486.136719 297.3125 L 480.136719 297.3125 L 492.09375 293.28125 L 507.21875 293.269531 L 499.675781 288.15625 L 499.59375 288.148438 L 499.511719 288.179688 L 492.050781 293.269531 L 492.09375 293.28125 Z M 480.136719 297.3125 "/>
<path style=" stroke:none;fill-rule:nonzero;fill:rgb(14.509804%,36.078431%,60%);fill-opacity:1;" d="M 480.136719 312.171875 L 480.183594 312.171875 L 480.183594 312.085938 L 480.328125 311.949219 L 480.660156 311.777344 L 480.992188 311.660156 L 481.847656 311.453125 L 483.039062 311.25 L 484.273438 311.09375 L 485.175781 311 L 485.984375 310.929688 L 487.839844 310.796875 L 489.03125 310.730469 L 490.3125 310.671875 L 491.882812 310.609375 L 493.023438 310.574219 L 495.59375 310.515625 L 497.496094 310.492188 L 498.96875 310.480469 L 502.15625 310.480469 L 504.058594 310.496094 L 505.4375 310.515625 L 506.960938 310.542969 L 508.242188 310.574219 L 510.480469 310.652344 L 512.476562 310.75 L 513.378906 310.808594 L 514.804688 310.917969 L 515.898438 311.027344 L 516.660156 311.117188 L 517.515625 311.25 L 518.277344 311.410156 L 518.847656 311.589844 L 519.132812 311.742188 L 512.476562 311.742188 L 512.144531 311.601562 L 511.761719 311.492188 L 511.050781 311.34375 L 510.335938 311.242188 L 509.335938 311.140625 L 508.433594 311.070312 L 507.195312 311.003906 L 506.101562 310.960938 L 504.960938 310.929688 L 503.867188 310.910156 L 501.773438 310.886719 L 499.351562 310.886719 L 498.445312 310.894531 L 496.589844 310.921875 L 495.59375 310.949219 L 494.164062 310.996094 L 493.167969 311.042969 L 491.976562 311.113281 L 491.167969 311.175781 L 490.171875 311.265625 L 489.457031 311.347656 L 488.648438 311.464844 L 488.171875 311.554688 L 487.746094 311.65625 L 487.363281 311.773438 L 487.078125 311.898438 L 486.890625 312.027344 L 486.792969 312.15625 L 486.792969 312.707031 L 486.890625 312.835938 L 487.128906 312.984375 L 487.746094 313.199219 L 488.648438 313.390625 L 489.695312 313.539062 L 490.695312 313.644531 L 491.265625 313.695312 L 492.027344 313.753906 L 493.214844 313.824219 L 494.925781 313.894531 L 495.925781 313.921875 L 497.449219 313.953125 L 499.015625 313.964844 L 501.109375 313.964844 L 502.964844 313.953125 L 504.199219 313.933594 L 505.484375 313.90625 L 507.246094 313.84375 L 508.339844 313.789062 L 509.289062 313.71875 L 510.003906 313.652344 L 510.480469 313.597656 L 511.191406 313.484375 L 511.761719 313.363281 L 512.191406 313.242188 L 512.476562 313.121094 L 519.132812 313.121094 L 518.847656 313.261719 L 518.421875 313.398438 L 517.992188 313.503906 L 517.328125 313.628906 L 516.566406 313.738281 L 515.472656 313.863281 L 514.570312 313.945312 L 513.378906 314.03125 L 512.285156 314.101562 L 511.097656 314.160156 L 509.335938 314.230469 L 508.195312 314.265625 L 506.960938 314.300781 L 505.484375 314.328125 L 503.628906 314.351562 L 501.632812 314.367188 L 499.777344 314.371094 L 497.78125 314.363281 L 496.304688 314.347656 L 494.355469 314.316406 L 491.929688 314.253906 L 490.171875 314.1875 L 488.792969 314.117188 L 487.601562 314.046875 L 486.269531 313.953125 L 484.558594 313.792969 L 483.511719 313.675781 L 482.800781 313.574219 L 481.992188 313.4375 L 481.421875 313.3125 L 480.753906 313.113281 L 480.277344 312.859375 L 480.136719 312.664062 Z M 480.136719 312.171875 "/>
<path style=" stroke:none;fill-rule:nonzero;fill:rgb(96.862745%,70.196078%,16.862745%);fill-opacity:1;" d="M 480.136719 250.300781 L 480.183594 250.246094 L 480.183594 249.132812 L 480.375 246.625 L 480.847656 243.167969 L 481.46875 240.328125 L 482.132812 238.097656 L 482.5625 236.925781 L 483.273438 235.253906 L 483.894531 234.027344 L 485.460938 231.519531 L 487.460938 229.179688 L 488.554688 228.175781 L 489.789062 227.230469 L 491.550781 226.171875 L 492.359375 225.78125 L 494.832031 224.890625 L 497.636719 224.332031 L 500.730469 224.164062 L 502.15625 224.21875 L 504.105469 224.441406 L 506.769531 225.054688 L 508.289062 225.613281 L 509.480469 226.171875 L 510.714844 226.894531 L 512.238281 228.011719 L 513.664062 229.347656 L 514.804688 230.683594 L 515.949219 232.355469 L 516.898438 234.140625 L 517.707031 236.089844 L 518.421875 238.429688 L 518.847656 240.382812 L 519.132812 242.332031 L 512.523438 242.332031 L 512.144531 240.382812 L 511.714844 238.878906 L 511 237.039062 L 510.289062 235.699219 L 509.574219 234.640625 L 508.242188 233.191406 L 507.101562 232.300781 L 505.675781 231.519531 L 504.296875 231.019531 L 502.726562 230.683594 L 501.773438 230.574219 L 499.253906 230.574219 L 496.972656 230.964844 L 495.640625 231.410156 L 494.6875 231.855469 L 493.359375 232.691406 L 492.550781 233.359375 L 492.074219 233.804688 L 490.648438 235.535156 L 489.695312 237.09375 L 489.171875 238.152344 L 488.507812 239.824219 L 488.03125 241.328125 L 487.507812 243.558594 L 487.222656 245.230469 L 486.84375 249.019531 L 486.792969 259.050781 L 486.9375 261.167969 L 487.222656 263.453125 L 487.601562 265.460938 L 488.171875 267.578125 L 488.746094 269.195312 L 489.742188 271.367188 L 490.597656 272.816406 L 491.265625 273.765625 L 492.550781 275.269531 L 493.070312 275.769531 L 494.308594 276.773438 L 495.59375 277.554688 L 497.164062 278.222656 L 498.351562 278.558594 L 500.253906 278.835938 L 502.679688 278.835938 L 505.53125 278.5 L 507.339844 278.054688 L 508.578125 277.609375 L 509.386719 277.21875 L 510.382812 276.605469 L 511.097656 276.050781 L 511.761719 275.4375 L 512.570312 274.488281 L 512.570312 261.167969 L 500.824219 261.113281 L 500.824219 254.871094 L 519.085938 254.816406 L 519.132812 276.605469 L 518.136719 278.109375 L 516.898438 279.558594 L 515.710938 280.675781 L 514.472656 281.621094 L 512.714844 282.679688 L 511.289062 283.347656 L 509.097656 284.128906 L 507.101562 284.632812 L 505.007812 284.964844 L 503.15625 285.132812 L 500.96875 285.1875 L 499.015625 285.078125 L 496.925781 284.742188 L 495.261719 284.296875 L 493.738281 283.738281 L 492.214844 283.015625 L 490.3125 281.84375 L 489.078125 280.898438 L 487.792969 279.726562 L 486.507812 278.332031 L 485.367188 276.828125 L 484.605469 275.660156 L 483.847656 274.320312 L 483.039062 272.648438 L 482.277344 270.753906 L 481.707031 269.027344 L 481.183594 267.078125 L 480.800781 265.238281 L 480.421875 262.730469 L 480.230469 260.722656 L 480.136719 258.996094 Z M 480.136719 250.300781 "/>
<path style=" stroke:none;fill-rule:nonzero;fill:rgb(83.921569%,15.686275%,22.352941%);fill-opacity:1;" d="M 480.136719 298.5 L 519.132812 298.5 L 519.132812 299.65625 L 502.882812 299.667969 L 502.882812 309.300781 L 496.34375 309.300781 L 496.34375 299.679688 L 496.246094 299.65625 L 480.136719 299.65625 Z M 480.136719 298.5 "/>
<path style=" stroke:none;fill-rule:nonzero;fill:rgb(6.27451%,58.823529%,28.235294%);fill-opacity:1;" d="M 521.1875 300.785156 L 521.226562 300.777344 L 538.101562 290.140625 L 543.226562 290.140625 L 560.183594 300.796875 L 554.226562 300.796875 L 549.976562 298.015625 L 531.351562 298.015625 L 527.1875 300.785156 L 521.1875 300.785156 L 533.144531 296.863281 L 548.269531 296.855469 L 540.726562 291.882812 L 540.644531 291.871094 L 540.5625 291.902344 L 533.101562 296.855469 L 533.144531 296.863281 Z M 521.1875 300.785156 "/>
<path style=" stroke:none;fill-rule:nonzero;fill:rgb(14.509804%,36.078431%,60%);fill-opacity:1;" d="M 521.1875 312.03125 L 521.234375 312.027344 L 521.234375 311.9375 L 521.378906 311.792969 L 521.710938 311.609375 L 522.042969 311.484375 L 522.898438 311.261719 L 524.089844 311.046875 L 525.324219 310.878906 L 526.226562 310.78125 L 527.035156 310.707031 L 528.890625 310.566406 L 530.082031 310.496094 L 531.363281 310.429688 L 532.933594 310.367188 L 534.074219 310.328125 L 536.644531 310.265625 L 538.546875 310.242188 L 540.019531 310.230469 L 543.207031 310.230469 L 545.109375 310.246094 L 546.488281 310.261719 L 548.011719 310.292969 L 549.292969 310.328125 L 551.53125 310.410156 L 553.527344 310.515625 L 554.429688 310.578125 L 555.855469 310.695312 L 556.949219 310.808594 L 557.710938 310.90625 L 558.566406 311.046875 L 559.328125 311.21875 L 559.898438 311.410156 L 560.183594 311.574219 L 553.527344 311.574219 L 553.195312 311.421875 L 552.8125 311.304688 L 552.101562 311.148438 L 551.386719 311.039062 L 550.386719 310.929688 L 549.484375 310.859375 L 548.246094 310.785156 L 547.152344 310.742188 L 546.011719 310.707031 L 544.917969 310.683594 L 542.824219 310.660156 L 540.402344 310.660156 L 539.496094 310.667969 L 537.640625 310.699219 L 536.644531 310.726562 L 535.214844 310.777344 L 534.21875 310.828125 L 533.027344 310.902344 L 532.21875 310.96875 L 531.222656 311.066406 L 530.507812 311.152344 L 529.699219 311.277344 L 529.222656 311.371094 L 528.796875 311.476562 L 528.414062 311.601562 L 528.128906 311.734375 L 527.941406 311.875 L 527.84375 312.011719 L 527.84375 312.597656 L 527.941406 312.734375 L 528.179688 312.894531 L 528.796875 313.125 L 529.699219 313.324219 L 530.746094 313.484375 L 531.746094 313.597656 L 532.316406 313.652344 L 533.078125 313.710938 L 534.265625 313.789062 L 535.976562 313.863281 L 536.976562 313.894531 L 538.5 313.925781 L 540.066406 313.9375 L 542.160156 313.9375 L 544.015625 313.925781 L 545.25 313.90625 L 546.535156 313.875 L 548.296875 313.808594 L 549.390625 313.75 L 550.339844 313.679688 L 551.054688 313.605469 L 551.53125 313.546875 L 552.242188 313.429688 L 552.8125 313.300781 L 553.242188 313.167969 L 553.527344 313.039062 L 560.183594 313.039062 L 559.898438 313.191406 L 559.472656 313.335938 L 559.042969 313.445312 L 558.378906 313.578125 L 557.617188 313.695312 L 556.523438 313.828125 L 555.621094 313.917969 L 554.429688 314.011719 L 553.335938 314.082031 L 552.148438 314.148438 L 550.386719 314.222656 L 549.246094 314.261719 L 548.011719 314.296875 L 546.535156 314.324219 L 544.679688 314.351562 L 542.683594 314.367188 L 540.828125 314.371094 L 538.832031 314.363281 L 537.355469 314.347656 L 535.40625 314.3125 L 532.980469 314.246094 L 531.222656 314.171875 L 529.84375 314.101562 L 528.652344 314.027344 L 527.320312 313.925781 L 525.609375 313.757812 L 524.5625 313.628906 L 523.851562 313.523438 L 523.042969 313.375 L 522.472656 313.242188 L 521.804688 313.03125 L 521.328125 312.761719 L 521.1875 312.554688 Z M 521.1875 312.03125 "/>
<path style=" stroke:none;fill-rule:nonzero;fill:rgb(96.862745%,70.196078%,16.862745%);fill-opacity:1;" d="M 521.1875 267.222656 L 521.234375 267.1875 L 521.234375 266.496094 L 521.425781 264.933594 L 521.898438 262.78125 L 522.519531 261.007812 L 523.183594 259.621094 L 523.613281 258.890625 L 524.324219 257.847656 L 524.945312 257.085938 L 526.511719 255.523438 L 528.511719 254.0625 L 529.605469 253.4375 L 530.839844 252.847656 L 532.601562 252.1875 L 533.410156 251.945312 L 535.882812 251.390625 L 538.6875 251.042969 L 541.78125 250.9375 L 543.207031 250.972656 L 545.15625 251.113281 L 547.820312 251.496094 L 549.339844 251.839844 L 550.53125 252.1875 L 551.765625 252.640625 L 553.289062 253.335938 L 554.714844 254.167969 L 555.855469 255 L 557 256.042969 L 557.949219 257.152344 L 558.757812 258.371094 L 559.472656 259.828125 L 559.898438 261.042969 L 560.183594 262.257812 L 553.574219 262.257812 L 553.195312 261.042969 L 552.765625 260.105469 L 552.050781 258.960938 L 551.339844 258.125 L 550.625 257.464844 L 549.292969 256.5625 L 548.152344 256.007812 L 546.726562 255.523438 L 545.347656 255.210938 L 543.777344 255 L 542.824219 254.933594 L 540.304688 254.933594 L 538.023438 255.175781 L 536.691406 255.453125 L 535.738281 255.730469 L 534.40625 256.25 L 533.601562 256.667969 L 533.125 256.945312 L 531.699219 258.023438 L 530.746094 258.996094 L 530.222656 259.65625 L 529.558594 260.695312 L 529.082031 261.632812 L 528.558594 263.023438 L 528.273438 264.0625 L 527.894531 266.425781 L 527.84375 272.675781 L 527.988281 273.996094 L 528.273438 275.417969 L 528.652344 276.667969 L 529.222656 277.988281 L 529.796875 278.996094 L 530.792969 280.347656 L 531.648438 281.253906 L 532.316406 281.84375 L 533.601562 282.78125 L 534.121094 283.09375 L 535.359375 283.71875 L 536.644531 284.203125 L 538.210938 284.621094 L 539.402344 284.828125 L 541.304688 285.003906 L 543.730469 285.003906 L 546.582031 284.792969 L 548.390625 284.515625 L 549.625 284.238281 L 550.433594 283.996094 L 551.433594 283.613281 L 552.148438 283.265625 L 552.8125 282.882812 L 553.621094 282.292969 L 553.621094 273.996094 L 541.875 273.960938 L 541.875 270.070312 L 560.136719 270.035156 L 560.183594 283.613281 L 559.1875 284.550781 L 557.949219 285.453125 L 556.761719 286.148438 L 555.523438 286.738281 L 553.765625 287.398438 L 552.335938 287.816406 L 550.148438 288.300781 L 548.152344 288.613281 L 546.058594 288.820312 L 544.207031 288.925781 L 542.015625 288.960938 L 540.066406 288.890625 L 537.976562 288.683594 L 536.308594 288.40625 L 534.789062 288.058594 L 533.265625 287.605469 L 531.363281 286.878906 L 530.128906 286.285156 L 528.84375 285.558594 L 527.558594 284.691406 L 526.417969 283.753906 L 525.65625 283.023438 L 524.894531 282.191406 L 524.089844 281.148438 L 523.328125 279.96875 L 522.757812 278.890625 L 522.234375 277.675781 L 521.851562 276.53125 L 521.472656 274.96875 L 521.28125 273.71875 L 521.1875 272.640625 Z M 521.1875 267.222656 "/>
<path style=" stroke:none;fill-rule:nonzero;fill:rgb(83.921569%,15.686275%,22.352941%);fill-opacity:1;" d="M 521.1875 301.976562 L 560.183594 301.976562 L 560.183594 302.734375 L 543.933594 302.738281 L 543.933594 309.050781 L 537.394531 309.050781 L 537.394531 302.746094 L 537.296875 302.734375 L 521.1875 302.734375 Z M 521.1875 301.976562 "/>
<path style=" stroke:none;fill-rule:nonzero;fill:rgb(6.27451%,58.823529%,28.235294%);fill-opacity:1;" d="M 562.238281 307.375 L 562.277344 307.371094 L 579.152344 302.707031 L 584.277344 302.707031 L 601.234375 307.378906 L 595.277344 307.378906 L 591.027344 306.160156 L 572.402344 306.160156 L 568.238281 307.375 L 562.238281 307.375 L 574.195312 305.652344 L 589.320312 305.648438 L 581.777344 303.46875 L 581.695312 303.464844 L 581.613281 303.476562 L 574.152344 305.648438 L 574.195312 305.652344 Z M 562.238281 307.375 "/>
<path style=" stroke:none;fill-rule:nonzero;fill:rgb(14.509804%,36.078431%,60%);fill-opacity:1;" d="M 562.238281 310.203125 L 562.285156 310.199219 L 562.285156 310.117188 L 562.429688 309.984375 L 562.761719 309.820312 L 563.09375 309.703125 L 563.949219 309.5 L 565.136719 309.304688 L 566.375 309.152344 L 567.277344 309.0625 L 568.085938 308.992188 L 569.941406 308.863281 L 571.132812 308.800781 L 572.414062 308.742188 L 573.984375 308.683594 L 575.125 308.648438 L 577.695312 308.59375 L 579.597656 308.566406 L 581.070312 308.558594 L 584.257812 308.558594 L 586.160156 308.570312 L 587.539062 308.589844 L 589.0625 308.617188 L 590.34375 308.648438 L 592.578125 308.722656 L 594.578125 308.820312 L 595.480469 308.875 L 596.90625 308.984375 L 598 309.085938 L 598.761719 309.175781 L 599.617188 309.304688 L 600.378906 309.460938 L 600.949219 309.636719 L 601.234375 309.785156 L 594.578125 309.785156 L 594.246094 309.644531 L 593.863281 309.539062 L 593.152344 309.398438 L 592.4375 309.296875 L 591.4375 309.195312 L 590.535156 309.132812 L 589.296875 309.066406 L 588.203125 309.023438 L 587.0625 308.992188 L 585.96875 308.972656 L 583.875 308.953125 L 581.453125 308.953125 L 580.546875 308.957031 L 578.691406 308.984375 L 577.695312 309.011719 L 576.265625 309.058594 L 575.269531 309.101562 L 574.078125 309.171875 L 573.269531 309.230469 L 572.273438 309.320312 L 571.558594 309.402344 L 570.75 309.515625 L 570.273438 309.601562 L 569.847656 309.699219 L 569.464844 309.8125 L 569.179688 309.933594 L 568.992188 310.058594 L 568.894531 310.183594 L 568.894531 310.71875 L 568.992188 310.84375 L 569.230469 310.988281 L 569.847656 311.199219 L 570.75 311.382812 L 571.796875 311.527344 L 572.796875 311.632812 L 573.367188 311.679688 L 574.128906 311.734375 L 575.316406 311.804688 L 577.027344 311.875 L 578.027344 311.902344 L 579.550781 311.929688 L 581.117188 311.941406 L 583.210938 311.941406 L 585.066406 311.929688 L 586.300781 311.914062 L 587.585938 311.882812 L 589.347656 311.824219 L 590.441406 311.769531 L 591.390625 311.703125 L 592.105469 311.640625 L 592.578125 311.582031 L 593.292969 311.476562 L 593.863281 311.359375 L 594.292969 311.238281 L 594.578125 311.121094 L 601.234375 311.121094 L 600.949219 311.257812 L 600.523438 311.394531 L 600.09375 311.492188 L 599.429688 311.613281 L 598.667969 311.722656 L 597.574219 311.84375 L 596.671875 311.921875 L 595.480469 312.007812 L 594.386719 312.074219 L 593.199219 312.132812 L 591.4375 312.203125 L 590.296875 312.238281 L 589.0625 312.269531 L 587.585938 312.296875 L 585.730469 312.320312 L 583.734375 312.332031 L 581.878906 312.335938 L 579.882812 312.332031 L 578.40625 312.316406 L 576.457031 312.285156 L 574.03125 312.222656 L 572.273438 312.15625 L 570.894531 312.089844 L 569.703125 312.023438 L 568.371094 311.929688 L 566.660156 311.777344 L 565.613281 311.660156 L 564.902344 311.5625 L 564.09375 311.429688 L 563.523438 311.308594 L 562.855469 311.113281 L 562.378906 310.867188 L 562.238281 310.679688 Z M 562.238281 310.203125 "/>
<path style=" stroke:none;fill-rule:nonzero;fill:rgb(96.862745%,70.196078%,16.862745%);fill-opacity:1;" d="M 562.238281 313.882812 L 562.285156 313.882812 L 562.285156 313.867188 L 562.476562 313.832031 L 562.949219 313.78125 L 563.570312 313.742188 L 564.234375 313.710938 L 564.664062 313.695312 L 565.375 313.671875 L 565.996094 313.65625 L 567.5625 313.621094 L 569.5625 313.585938 L 570.65625 313.574219 L 571.890625 313.558594 L 573.652344 313.542969 L 574.460938 313.539062 L 576.933594 313.527344 L 579.738281 313.519531 L 582.832031 313.515625 L 584.257812 313.515625 L 586.207031 313.519531 L 588.871094 313.527344 L 590.390625 313.535156 L 591.582031 313.542969 L 592.816406 313.554688 L 594.339844 313.570312 L 595.765625 313.589844 L 596.90625 313.609375 L 598.050781 313.632812 L 599 313.65625 L 599.808594 313.683594 L 600.523438 313.714844 L 600.949219 313.742188 L 601.234375 313.769531 L 594.625 313.769531 L 594.246094 313.742188 L 593.816406 313.722656 L 593.101562 313.695312 L 592.390625 313.679688 L 591.675781 313.664062 L 590.34375 313.644531 L 589.203125 313.628906 L 587.777344 313.621094 L 586.398438 313.613281 L 584.828125 313.609375 L 583.875 313.605469 L 581.355469 313.605469 L 579.074219 313.613281 L 577.742188 313.617188 L 576.789062 313.625 L 575.457031 313.636719 L 574.648438 313.644531 L 574.175781 313.652344 L 572.746094 313.675781 L 571.796875 313.699219 L 571.273438 313.710938 L 570.609375 313.734375 L 570.132812 313.757812 L 569.609375 313.789062 L 569.324219 313.8125 L 568.941406 313.863281 L 568.894531 314.003906 L 569.039062 314.035156 L 569.324219 314.066406 L 569.703125 314.09375 L 570.273438 314.125 L 570.84375 314.148438 L 571.84375 314.175781 L 572.699219 314.199219 L 573.367188 314.210938 L 574.648438 314.230469 L 575.171875 314.238281 L 576.410156 314.253906 L 577.695312 314.265625 L 579.261719 314.273438 L 580.453125 314.277344 L 582.355469 314.28125 L 584.78125 314.28125 L 587.632812 314.277344 L 589.441406 314.269531 L 590.675781 314.265625 L 591.484375 314.257812 L 592.484375 314.25 L 593.199219 314.242188 L 593.863281 314.234375 L 594.671875 314.222656 L 594.671875 314.035156 L 582.925781 314.035156 L 582.925781 313.945312 L 601.1875 313.945312 L 601.234375 314.25 L 600.238281 314.273438 L 599 314.292969 L 597.8125 314.308594 L 596.574219 314.320312 L 594.816406 314.335938 L 593.386719 314.34375 L 591.199219 314.355469 L 589.203125 314.363281 L 587.109375 314.367188 L 585.257812 314.371094 L 583.066406 314.371094 L 581.117188 314.367188 L 579.027344 314.363281 L 577.359375 314.359375 L 575.839844 314.351562 L 574.316406 314.339844 L 572.414062 314.324219 L 571.179688 314.3125 L 568.609375 314.273438 L 567.46875 314.253906 L 566.707031 314.238281 L 565.945312 314.21875 L 565.136719 314.195312 L 564.378906 314.167969 L 563.808594 314.144531 L 563.285156 314.117188 L 562.902344 314.089844 L 562.523438 314.054688 L 562.332031 314.027344 L 562.238281 314.003906 Z M 562.238281 313.882812 "/>
<path style=" stroke:none;fill-rule:nonzero;fill:rgb(83.921569%,15.686275%,22.352941%);fill-opacity:1;" d="M 562.238281 294.324219 L 601.234375 294.324219 L 601.234375 295.09375 L 584.984375 295.101562 L 584.984375 301.527344 L 578.441406 301.527344 L 578.441406 295.105469 L 578.347656 295.09375 L 562.238281 295.09375 Z M 562.238281 294.324219 "/>
<path style=" stroke:none;fill-rule:nonzero;fill:rgb(6.27451%,58.823529%,28.235294%);fill-opacity:1;" d="M 603.289062 308.738281 L 603.328125 308.726562 L 620.203125 298.679688 L 625.328125 298.679688 L 642.285156 308.746094 L 636.328125 308.746094 L 632.078125 306.117188 L 613.453125 306.117188 L 609.289062 308.738281 L 603.289062 308.738281 L 615.246094 305.03125 L 630.371094 305.023438 L 622.828125 300.324219 L 622.746094 300.3125 L 622.664062 300.34375 L 615.203125 305.023438 L 615.246094 305.03125 Z M 603.289062 308.738281 "/>
<path style=" stroke:none;fill-rule:nonzero;fill:rgb(14.509804%,36.078431%,60%);fill-opacity:1;" d="M 603.289062 311.859375 L 603.335938 311.855469 L 603.335938 311.757812 L 603.476562 311.605469 L 603.8125 311.410156 L 604.144531 311.273438 L 605 311.035156 L 606.1875 310.804688 L 607.425781 310.625 L 608.328125 310.519531 L 609.136719 310.4375 L 610.992188 310.289062 L 612.183594 310.210938 L 613.464844 310.140625 L 615.035156 310.074219 L 616.175781 310.03125 L 618.746094 309.96875 L 620.648438 309.9375 L 622.121094 309.925781 L 625.308594 309.925781 L 627.210938 309.941406 L 628.589844 309.964844 L 630.109375 309.996094 L 631.394531 310.03125 L 633.628906 310.121094 L 635.628906 310.234375 L 636.53125 310.300781 L 637.957031 310.425781 L 639.050781 310.546875 L 639.8125 310.652344 L 640.667969 310.804688 L 641.429688 310.988281 L 642 311.195312 L 642.285156 311.367188 L 635.628906 311.367188 L 635.296875 311.207031 L 634.914062 311.082031 L 634.203125 310.914062 L 633.488281 310.796875 L 632.488281 310.679688 L 631.585938 310.601562 L 630.347656 310.523438 L 629.253906 310.476562 L 628.113281 310.4375 L 627.019531 310.414062 L 624.925781 310.390625 L 622.5 310.390625 L 621.597656 310.398438 L 619.742188 310.429688 L 618.746094 310.457031 L 617.316406 310.515625 L 616.320312 310.566406 L 615.128906 310.648438 L 614.320312 310.71875 L 613.324219 310.824219 L 612.609375 310.917969 L 611.800781 311.050781 L 611.324219 311.152344 L 610.898438 311.265625 L 610.515625 311.402344 L 610.230469 311.542969 L 610.042969 311.695312 L 609.945312 311.839844 L 609.945312 312.46875 L 610.042969 312.617188 L 610.28125 312.785156 L 610.898438 313.035156 L 611.800781 313.25 L 612.847656 313.421875 L 613.847656 313.542969 L 614.417969 313.597656 L 615.179688 313.664062 L 616.367188 313.746094 L 618.078125 313.828125 L 619.078125 313.859375 L 620.597656 313.890625 L 622.167969 313.90625 L 624.261719 313.90625 L 626.117188 313.890625 L 627.351562 313.871094 L 628.636719 313.839844 L 630.398438 313.769531 L 631.492188 313.703125 L 632.441406 313.628906 L 633.15625 313.550781 L 633.628906 313.484375 L 634.34375 313.359375 L 634.914062 313.222656 L 635.34375 313.078125 L 635.628906 312.941406 L 642.285156 312.941406 L 642 313.101562 L 641.574219 313.261719 L 641.144531 313.378906 L 640.480469 313.523438 L 639.71875 313.648438 L 638.625 313.789062 L 637.722656 313.882812 L 636.53125 313.984375 L 635.4375 314.0625 L 634.25 314.132812 L 632.488281 314.210938 L 631.347656 314.253906 L 630.109375 314.289062 L 628.636719 314.320312 L 626.78125 314.351562 L 624.785156 314.367188 L 622.929688 314.371094 L 620.933594 314.363281 L 619.457031 314.347656 L 617.507812 314.308594 L 615.082031 314.238281 L 613.324219 314.160156 L 611.945312 314.082031 L 610.753906 314 L 609.421875 313.890625 L 607.710938 313.710938 L 606.664062 313.574219 L 605.953125 313.460938 L 605.144531 313.300781 L 604.574219 313.160156 L 603.90625 312.933594 L 603.429688 312.644531 L 603.289062 312.421875 Z M 603.289062 311.859375 "/>
<path style=" stroke:none;fill-rule:nonzero;fill:rgb(96.862745%,70.196078%,16.862745%);fill-opacity:1;" d="M 603.289062 255.179688 L 603.335938 255.128906 L 603.335938 254.136719 L 603.527344 251.902344 L 604 248.824219 L 604.621094 246.292969 L 605.285156 244.308594 L 605.714844 243.265625 L 606.425781 241.773438 L 607.046875 240.683594 L 608.613281 238.449219 L 610.613281 236.363281 L 611.707031 235.472656 L 612.941406 234.628906 L 614.703125 233.683594 L 615.511719 233.335938 L 617.984375 232.542969 L 620.789062 232.046875 L 623.882812 231.898438 L 625.308594 231.945312 L 627.257812 232.144531 L 629.921875 232.691406 L 631.441406 233.1875 L 632.632812 233.683594 L 633.867188 234.328125 L 635.390625 235.324219 L 636.816406 236.511719 L 637.957031 237.703125 L 639.101562 239.195312 L 640.050781 240.78125 L 640.859375 242.519531 L 641.574219 244.605469 L 642 246.34375 L 642.285156 248.078125 L 635.675781 248.078125 L 635.296875 246.34375 L 634.867188 245 L 634.152344 243.363281 L 633.441406 242.171875 L 632.726562 241.230469 L 631.394531 239.9375 L 630.253906 239.144531 L 628.828125 238.449219 L 627.449219 238.003906 L 625.878906 237.703125 L 624.925781 237.605469 L 622.40625 237.605469 L 620.125 237.953125 L 618.792969 238.351562 L 617.839844 238.746094 L 616.507812 239.492188 L 615.699219 240.085938 L 615.226562 240.484375 L 613.796875 242.023438 L 612.847656 243.414062 L 612.324219 244.355469 L 611.660156 245.847656 L 611.183594 247.1875 L 610.660156 249.171875 L 610.375 250.660156 L 609.992188 254.035156 L 609.945312 262.972656 L 610.089844 264.859375 L 610.375 266.894531 L 610.753906 268.679688 L 611.324219 270.566406 L 611.894531 272.003906 L 612.894531 273.941406 L 613.75 275.230469 L 614.417969 276.074219 L 615.699219 277.417969 L 616.222656 277.863281 L 617.460938 278.757812 L 618.746094 279.453125 L 620.3125 280.046875 L 621.503906 280.34375 L 623.40625 280.59375 L 625.832031 280.59375 L 628.683594 280.296875 L 630.492188 279.898438 L 631.726562 279.5 L 632.535156 279.152344 L 633.535156 278.609375 L 634.25 278.109375 L 634.914062 277.566406 L 635.722656 276.722656 L 635.722656 264.859375 L 623.976562 264.808594 L 623.976562 259.25 L 642.238281 259.199219 L 642.285156 278.609375 L 641.289062 279.949219 L 640.050781 281.238281 L 638.863281 282.230469 L 637.625 283.074219 L 635.867188 284.019531 L 634.4375 284.613281 L 632.25 285.308594 L 630.253906 285.753906 L 628.160156 286.054688 L 626.304688 286.203125 L 624.117188 286.253906 L 622.167969 286.152344 L 620.078125 285.855469 L 618.410156 285.457031 L 616.890625 284.960938 L 615.367188 284.316406 L 613.464844 283.273438 L 612.230469 282.429688 L 610.945312 281.386719 L 609.660156 280.144531 L 608.519531 278.804688 L 607.757812 277.765625 L 606.996094 276.574219 L 606.1875 275.082031 L 605.429688 273.394531 L 604.859375 271.855469 L 604.335938 270.121094 L 603.953125 268.480469 L 603.574219 266.246094 L 603.382812 264.460938 L 603.289062 262.921875 Z M 603.289062 255.179688 "/>
<path style=" stroke:none;fill-rule:nonzero;fill:rgb(83.921569%,15.686275%,22.352941%);fill-opacity:1;" d="M 603.289062 287.429688 L 642.285156 287.429688 L 642.285156 288.507812 L 626.03125 288.519531 L 626.03125 297.5 L 619.492188 297.5 L 619.492188 288.527344 L 619.398438 288.507812 L 603.289062 288.507812 Z M 603.289062 287.429688 "/>
<path style=" stroke:none;fill-rule:nonzero;fill:rgb(6.27451%,58.823529%,28.235294%);fill-opacity:1;" d="M 644.339844 303.003906 L 644.378906 302.992188 L 661.253906 290.132812 L 666.378906 290.132812 L 683.335938 303.015625 L 677.378906 303.015625 L 673.128906 299.652344 L 654.503906 299.652344 L 650.339844 303.003906 L 644.339844 303.003906 L 656.296875 298.261719 L 671.421875 298.25 L 663.878906 292.238281 L 663.796875 292.222656 L 663.714844 292.261719 L 656.253906 298.25 L 656.296875 298.261719 Z M 644.339844 303.003906 "/>
<path style=" stroke:none;fill-rule:nonzero;fill:rgb(14.509804%,36.078431%,60%);fill-opacity:1;" d="M 644.339844 312.085938 L 644.386719 312.082031 L 644.386719 311.992188 L 644.527344 311.851562 L 644.863281 311.675781 L 645.195312 311.554688 L 646.050781 311.335938 L 647.238281 311.125 L 648.476562 310.960938 L 649.378906 310.867188 L 650.1875 310.792969 L 652.042969 310.65625 L 653.230469 310.585938 L 654.515625 310.523438 L 656.085938 310.457031 L 657.226562 310.421875 L 659.796875 310.363281 L 661.699219 310.335938 L 663.171875 310.324219 L 666.359375 310.324219 L 668.261719 310.339844 L 669.640625 310.359375 L 671.160156 310.386719 L 672.445312 310.421875 L 674.679688 310.503906 L 676.679688 310.605469 L 677.582031 310.664062 L 679.007812 310.78125 L 680.101562 310.890625 L 680.863281 310.988281 L 681.71875 311.125 L 682.480469 311.289062 L 683.050781 311.480469 L 683.335938 311.636719 L 676.679688 311.636719 L 676.347656 311.492188 L 675.964844 311.375 L 675.253906 311.222656 L 674.539062 311.117188 L 673.539062 311.007812 L 672.636719 310.941406 L 671.398438 310.871094 L 670.304688 310.824219 L 669.164062 310.792969 L 668.070312 310.769531 L 665.976562 310.746094 L 663.550781 310.746094 L 662.648438 310.753906 L 660.792969 310.785156 L 659.796875 310.808594 L 658.367188 310.863281 L 657.371094 310.910156 L 656.179688 310.984375 L 655.371094 311.046875 L 654.375 311.144531 L 653.660156 311.226562 L 652.851562 311.351562 L 652.375 311.441406 L 651.949219 311.546875 L 651.566406 311.667969 L 651.28125 311.796875 L 651.09375 311.933594 L 650.996094 312.066406 L 650.996094 312.640625 L 651.09375 312.773438 L 651.328125 312.929688 L 651.949219 313.152344 L 652.851562 313.351562 L 653.898438 313.503906 L 654.898438 313.617188 L 655.46875 313.667969 L 656.230469 313.726562 L 657.417969 313.800781 L 659.128906 313.875 L 660.128906 313.90625 L 661.648438 313.933594 L 663.21875 313.949219 L 665.3125 313.949219 L 667.167969 313.933594 L 668.402344 313.914062 L 669.6875 313.886719 L 671.449219 313.824219 L 672.542969 313.765625 L 673.492188 313.695312 L 674.207031 313.625 L 674.679688 313.566406 L 675.394531 313.449219 L 675.964844 313.324219 L 676.394531 313.195312 L 676.679688 313.070312 L 683.335938 313.070312 L 683.050781 313.21875 L 682.625 313.359375 L 682.195312 313.46875 L 681.53125 313.597656 L 680.769531 313.710938 L 679.675781 313.84375 L 678.769531 313.925781 L 677.582031 314.019531 L 676.488281 314.089844 L 675.300781 314.152344 L 673.539062 314.226562 L 672.398438 314.261719 L 671.160156 314.296875 L 669.6875 314.328125 L 667.832031 314.351562 L 665.835938 314.367188 L 663.980469 314.371094 L 661.984375 314.363281 L 660.507812 314.347656 L 658.558594 314.316406 L 656.132812 314.25 L 654.375 314.179688 L 652.996094 314.109375 L 651.804688 314.035156 L 650.472656 313.933594 L 648.761719 313.773438 L 647.714844 313.644531 L 647.003906 313.542969 L 646.195312 313.398438 L 645.621094 313.269531 L 644.957031 313.0625 L 644.480469 312.800781 L 644.339844 312.597656 Z M 644.339844 312.085938 "/>
<path style=" stroke:none;fill-rule:nonzero;fill:rgb(96.862745%,70.196078%,16.862745%);fill-opacity:1;" d="M 644.339844 269.980469 L 644.386719 269.953125 L 644.386719 269.34375 L 644.578125 267.980469 L 645.050781 266.101562 L 645.671875 264.558594 L 646.335938 263.347656 L 646.765625 262.710938 L 647.476562 261.800781 L 648.097656 261.132812 L 649.664062 259.769531 L 651.664062 258.496094 L 652.757812 257.953125 L 653.992188 257.4375 L 655.753906 256.859375 L 656.5625 256.648438 L 659.035156 256.164062 L 661.839844 255.859375 L 664.933594 255.769531 L 666.359375 255.800781 L 668.308594 255.921875 L 670.972656 256.253906 L 672.492188 256.558594 L 673.683594 256.859375 L 674.917969 257.253906 L 676.441406 257.859375 L 677.867188 258.589844 L 679.007812 259.316406 L 680.152344 260.222656 L 681.101562 261.195312 L 681.910156 262.253906 L 682.625 263.527344 L 683.050781 264.589844 L 683.335938 265.648438 L 676.726562 265.648438 L 676.347656 264.589844 L 675.917969 263.769531 L 675.203125 262.769531 L 674.492188 262.042969 L 673.777344 261.46875 L 672.445312 260.679688 L 671.304688 260.195312 L 669.878906 259.769531 L 668.5 259.496094 L 666.929688 259.316406 L 665.976562 259.253906 L 663.457031 259.253906 L 661.175781 259.46875 L 659.84375 259.710938 L 658.890625 259.953125 L 657.558594 260.40625 L 656.75 260.769531 L 656.277344 261.011719 L 654.847656 261.953125 L 653.898438 262.800781 L 653.375 263.375 L 652.710938 264.285156 L 652.234375 265.101562 L 651.710938 266.316406 L 651.425781 267.222656 L 651.042969 269.285156 L 650.996094 274.738281 L 651.140625 275.890625 L 651.425781 277.132812 L 651.804688 278.222656 L 652.375 279.375 L 652.945312 280.253906 L 653.945312 281.4375 L 654.800781 282.222656 L 655.46875 282.738281 L 656.75 283.558594 L 657.273438 283.832031 L 658.511719 284.375 L 659.796875 284.800781 L 661.363281 285.164062 L 662.554688 285.34375 L 664.457031 285.496094 L 666.882812 285.496094 L 669.734375 285.316406 L 671.542969 285.074219 L 672.777344 284.832031 L 673.585938 284.617188 L 674.585938 284.285156 L 675.300781 283.980469 L 675.964844 283.648438 L 676.773438 283.132812 L 676.773438 275.890625 L 665.027344 275.859375 L 665.027344 272.46875 L 683.289062 272.4375 L 683.335938 284.285156 L 682.339844 285.101562 L 681.101562 285.890625 L 679.914062 286.496094 L 678.675781 287.011719 L 676.917969 287.589844 L 675.488281 287.953125 L 673.300781 288.375 L 671.304688 288.648438 L 669.210938 288.832031 L 667.355469 288.921875 L 665.167969 288.953125 L 663.21875 288.890625 L 661.128906 288.710938 L 659.460938 288.464844 L 657.941406 288.164062 L 656.417969 287.769531 L 654.515625 287.132812 L 653.28125 286.617188 L 651.996094 285.980469 L 650.710938 285.222656 L 649.570312 284.40625 L 648.808594 283.769531 L 648.046875 283.042969 L 647.238281 282.132812 L 646.480469 281.101562 L 645.910156 280.164062 L 645.386719 279.101562 L 645.003906 278.101562 L 644.625 276.738281 L 644.433594 275.648438 L 644.339844 274.710938 Z M 644.339844 269.980469 "/>
<path style=" stroke:none;fill-rule:nonzero;fill:rgb(83.921569%,15.686275%,22.352941%);fill-opacity:1;" d="M 644.339844 304.195312 L 683.335938 304.195312 L 683.335938 304.726562 L 667.082031 304.730469 L 667.082031 309.144531 L 660.542969 309.144531 L 660.542969 304.734375 L 660.449219 304.726562 L 644.339844 304.726562 Z M 644.339844 304.195312 "/>
<g style="fill:rgb(0%,0%,0%);fill-opacity:1;">
  <use xlink:href="#glyph0-1" x="21.957031" y="318.198242"/>
  <use xlink:href="#glyph0-2" x="27.291016" y="318.198242"/>
  <use xlink:href="#glyph0-1" x="29.958008" y="318.198242"/>
</g>
<g style="fill:rgb(0%,0%,0%);fill-opacity:1;">
  <use xlink:href="#glyph0-1" x="21.957031" y="244.475586"/>
  <use xlink:href="#glyph0-2" x="27.291016" y="244.475586"/>
  <use xlink:href="#glyph0-3" x="29.958008" y="244.475586"/>
</g>
<g style="fill:rgb(0%,0%,0%);fill-opacity:1;">
  <use xlink:href="#glyph0-4" x="21.957031" y="170.75293"/>
  <use xlink:href="#glyph0-2" x="27.291016" y="170.75293"/>
  <use xlink:href="#glyph0-1" x="29.958008" y="170.75293"/>
</g>
<g style="fill:rgb(0%,0%,0%);fill-opacity:1;">
  <use xlink:href="#glyph0-4" x="21.957031" y="97.03418"/>
  <use xlink:href="#glyph0-2" x="27.291016" y="97.03418"/>
  <use xlink:href="#glyph0-3" x="29.958008" y="97.03418"/>
</g>
<g style="fill:rgb(0%,0%,0%);fill-opacity:1;">
  <use xlink:href="#glyph0-5" x="21.957031" y="23.311523"/>
  <use xlink:href="#glyph0-2" x="27.291016" y="23.311523"/>
  <use xlink:href="#glyph0-1" x="29.958008" y="23.311523"/>
</g>
<g style="fill:rgb(0%,0%,0%);fill-opacity:1;">
  <use xlink:href="#glyph0-4" x="86.128906" y="338.19043"/>
</g>
<g style="fill:rgb(0%,0%,0%);fill-opacity:1;">
  <use xlink:href="#glyph0-5" x="127.179688" y="338.19043"/>
</g>
<g style="fill:rgb(0%,0%,0%);fill-opacity:1;">
  <use xlink:href="#glyph0-6" x="168.230469" y="338.19043"/>
</g>
<g style="fill:rgb(0%,0%,0%);fill-opacity:1;">
  <use xlink:href="#glyph0-7" x="209.28125" y="338.19043"/>
</g>
<g style="fill:rgb(0%,0%,0%);fill-opacity:1;">
  <use xlink:href="#glyph0-3" x="250.332031" y="338.19043"/>
</g>
<g style="fill:rgb(0%,0%,0%);fill-opacity:1;">
  <use xlink:href="#glyph0-8" x="291.382812" y="338.19043"/>
</g>
<g style="fill:rgb(0%,0%,0%);fill-opacity:1;">
  <use xlink:href="#glyph0-9" x="332.433594" y="338.19043"/>
</g>
<g style="fill:rgb(0%,0%,0%);fill-opacity:1;">
  <use xlink:href="#glyph0-10" x="373.484375" y="338.19043"/>
</g>
<g style="fill:rgb(0%,0%,0%);fill-opacity:1;">
  <use xlink:href="#glyph0-11" x="414.535156" y="338.19043"/>
</g>
<g style="fill:rgb(0%,0%,0%);fill-opacity:1;">
  <use xlink:href="#glyph0-4" x="453.085938" y="338.19043"/>
  <use xlink:href="#glyph0-1" x="458.419922" y="338.19043"/>
</g>
<g style="fill:rgb(0%,0%,0%);fill-opacity:1;">
  <use xlink:href="#glyph0-4" x="494.136719" y="338.19043"/>
  <use xlink:href="#glyph0-4" x="499.470703" y="338.19043"/>
</g>
<g style="fill:rgb(0%,0%,0%);fill-opacity:1;">
  <use xlink:href="#glyph0-4" x="535.1875" y="338.19043"/>
  <use xlink:href="#glyph0-5" x="540.521484" y="338.19043"/>
</g>
<g style="fill:rgb(0%,0%,0%);fill-opacity:1;">
  <use xlink:href="#glyph0-4" x="576.238281" y="338.19043"/>
  <use xlink:href="#glyph0-6" x="581.572266" y="338.19043"/>
</g>
<g style="fill:rgb(0%,0%,0%);fill-opacity:1;">
  <use xlink:href="#glyph0-4" x="617.289062" y="338.19043"/>
  <use xlink:href="#glyph0-7" x="622.623047" y="338.19043"/>
</g>
<g style="fill:rgb(0%,0%,0%);fill-opacity:1;">
  <use xlink:href="#glyph0-4" x="658.339844" y="338.19043"/>
  <use xlink:href="#glyph0-3" x="663.673828" y="338.19043"/>
</g>
<g style="fill:rgb(0%,0%,0%);fill-opacity:1;">
  <use xlink:href="#glyph1-1" x="14.412109" y="178.015625"/>
  <use xlink:href="#glyph1-2" x="14.412109" y="170.011719"/>
  <use xlink:href="#glyph1-3" x="14.412109" y="167.347656"/>
  <use xlink:href="#glyph1-4" x="14.412109" y="164.011719"/>
</g>
</g>
</svg>
