<?xml version="1.0" encoding="UTF-8"?>
<svg xmlns="http://www.w3.org/2000/svg" xmlns:xlink="http://www.w3.org/1999/xlink" width="720pt" height="360pt" viewBox="0 0 720 360" version="1.1">
<defs>
<g>
<symbol overflow="visible" id="glyph0-0">
<path style="stroke:none;" d=""/>
</symbol>
<symbol overflow="visible" id="glyph0-1">
<path style="stroke:none;" d="M 2.640625 -6.796875 C 2 -6.796875 1.421875 -6.53125 1.078125 -6.046875 C 0.640625 -5.453125 0.40625 -4.546875 0.40625 -3.296875 C 0.40625 -1 1.1875 0.21875 2.640625 0.21875 C 4.078125 0.21875 4.859375 -1 4.859375 -3.234375 C 4.859375 -4.5625 4.65625 -5.4375 4.203125 -6.046875 C 3.84375 -6.53125 3.28125 -6.796875 2.640625 -6.796875 Z M 2.640625 -6.046875 C 3.546875 -6.046875 4 -5.125 4 -3.3125 C 4 -1.375 3.5625 -0.484375 2.625 -0.484375 C 1.734375 -0.484375 1.28125 -1.421875 1.28125 -3.28125 C 1.28125 -5.140625 1.734375 -6.046875 2.640625 -6.046875 Z M 2.640625 -6.046875 "/>
</symbol>
<symbol overflow="visible" id="glyph0-2">
<path style="stroke:none;" d="M 1.828125 -1 L 0.828125 -1 L 0.828125 0 L 1.828125 0 Z M 1.828125 -1 "/>
</symbol>
<symbol overflow="visible" id="glyph0-3">
<path style="stroke:none;" d="M 4.5625 -6.796875 L 1.0625 -6.796875 L 0.546875 -3.09375 L 1.328125 -3.09375 C 1.71875 -3.5625 2.046875 -3.734375 2.578125 -3.734375 C 3.484375 -3.734375 4.0625 -3.109375 4.0625 -2.09375 C 4.0625 -1.125 3.484375 -0.53125 2.578125 -0.53125 C 1.828125 -0.53125 1.375 -0.90625 1.1875 -1.671875 L 0.328125 -1.671875 C 0.453125 -1.109375 0.546875 -0.84375 0.75 -0.59375 C 1.125 -0.078125 1.828125 0.21875 2.59375 0.21875 C 3.96875 0.21875 4.921875 -0.78125 4.921875 -2.21875 C 4.921875 -3.5625 4.03125 -4.484375 2.71875 -4.484375 C 2.25 -4.484375 1.859375 -4.359375 1.46875 -4.0625 L 1.734375 -5.96875 L 4.5625 -5.96875 Z M 4.5625 -6.796875 "/>
</symbol>
<symbol overflow="visible" id="glyph0-4">
<path style="stroke:none;" d="M 2.484375 -4.84375 L 2.484375 0 L 3.328125 0 L 3.328125 -6.796875 L 2.765625 -6.796875 C 2.46875 -5.75 2.28125 -5.609375 0.984375 -5.453125 L 0.984375 -4.84375 Z M 2.484375 -4.84375 "/>
</symbol>
<symbol overflow="visible" id="glyph0-5">
<path style="stroke:none;" d="M 4.859375 -0.828125 L 1.28125 -0.828125 C 1.359375 -1.390625 1.671875 -1.75 2.5 -2.234375 L 3.46875 -2.75 C 4.40625 -3.265625 4.90625 -3.96875 4.90625 -4.8125 C 4.90625 -5.375 4.671875 -5.90625 4.265625 -6.265625 C 3.859375 -6.625 3.375 -6.796875 2.71875 -6.796875 C 1.859375 -6.796875 1.21875 -6.5 0.84375 -5.921875 C 0.609375 -5.5625 0.5 -5.125 0.484375 -4.4375 L 1.328125 -4.4375 C 1.359375 -4.90625 1.40625 -5.1875 1.53125 -5.40625 C 1.75 -5.8125 2.1875 -6.0625 2.703125 -6.0625 C 3.46875 -6.0625 4.03125 -5.515625 4.03125 -4.78125 C 4.03125 -4.25 3.71875 -3.796875 3.125 -3.4375 L 2.234375 -2.9375 C 0.8125 -2.140625 0.40625 -1.5 0.328125 0 L 4.859375 0 Z M 4.859375 -0.828125 "/>
</symbol>
<symbol overflow="visible" id="glyph0-6">
<path style="stroke:none;" d="M 2.125 -3.125 L 2.578125 -3.125 C 3.515625 -3.125 3.984375 -2.703125 3.984375 -1.890625 C 3.984375 -1.03125 3.46875 -0.53125 2.578125 -0.53125 C 1.65625 -0.53125 1.203125 -0.984375 1.15625 -1.96875 L 0.3125 -1.96875 C 0.34375 -1.421875 0.4375 -1.078125 0.609375 -0.765625 C 0.953125 -0.109375 1.625 0.21875 2.546875 0.21875 C 3.953125 0.21875 4.859375 -0.609375 4.859375 -1.90625 C 4.859375 -2.765625 4.515625 -3.25 3.703125 -3.515625 C 4.34375 -3.765625 4.65625 -4.25 4.65625 -4.9375 C 4.65625 -6.109375 3.875 -6.796875 2.578125 -6.796875 C 1.203125 -6.796875 0.484375 -6.046875 0.453125 -4.609375 L 1.296875 -4.609375 C 1.3125 -5.015625 1.34375 -5.25 1.453125 -5.453125 C 1.640625 -5.828125 2.0625 -6.0625 2.59375 -6.0625 C 3.34375 -6.0625 3.796875 -5.625 3.796875 -4.90625 C 3.796875 -4.421875 3.609375 -4.140625 3.25 -3.984375 C 3.015625 -3.890625 2.71875 -3.84375 2.125 -3.84375 Z M 2.125 -3.125 "/>
</symbol>
<symbol overflow="visible" id="glyph0-7">
<path style="stroke:none;" d="M 3.140625 -1.625 L 3.140625 0 L 3.984375 0 L 3.984375 -1.625 L 4.984375 -1.625 L 4.984375 -2.390625 L 3.984375 -2.390625 L 3.984375 -6.796875 L 3.359375 -6.796875 L 0.265625 -2.515625 L 0.265625 -1.625 Z M 3.140625 -2.390625 L 1 -2.390625 L 3.140625 -5.359375 Z M 3.140625 -2.390625 "/>
</symbol>
<symbol overflow="visible" id="glyph0-8">
<path style="stroke:none;" d="M 4.78125 -5.03125 C 4.609375 -6.140625 3.890625 -6.796875 2.84375 -6.796875 C 2.09375 -6.796875 1.421875 -6.4375 1.03125 -5.828125 C 0.609375 -5.171875 0.40625 -4.34375 0.40625 -3.09375 C 0.40625 -1.953125 0.578125 -1.234375 0.984375 -0.625 C 1.359375 -0.078125 1.953125 0.21875 2.703125 0.21875 C 3.984375 0.21875 4.921875 -0.734375 4.921875 -2.078125 C 4.921875 -3.34375 4.0625 -4.234375 2.84375 -4.234375 C 2.171875 -4.234375 1.640625 -3.96875 1.28125 -3.46875 C 1.28125 -5.125 1.828125 -6.046875 2.796875 -6.046875 C 3.390625 -6.046875 3.796875 -5.671875 3.9375 -5.03125 Z M 2.734375 -3.484375 C 3.546875 -3.484375 4.0625 -2.921875 4.0625 -2 C 4.0625 -1.15625 3.484375 -0.53125 2.703125 -0.53125 C 1.921875 -0.53125 1.328125 -1.1875 1.328125 -2.046875 C 1.328125 -2.890625 1.90625 -3.484375 2.734375 -3.484375 Z M 2.734375 -3.484375 "/>
</symbol>
<symbol overflow="visible" id="glyph0-9">
<path style="stroke:none;" d="M 4.984375 -6.796875 L 0.4375 -6.796875 L 0.4375 -5.96875 L 4.109375 -5.96875 C 2.5 -3.65625 1.828125 -2.234375 1.328125 0 L 2.21875 0 C 2.59375 -2.171875 3.453125 -4.046875 4.984375 -6.09375 Z M 4.984375 -6.796875 "/>
</symbol>
<symbol overflow="visible" id="glyph0-10">
<path style="stroke:none;" d="M 3.75 -3.578125 C 4.453125 -4 4.6875 -4.34375 4.6875 -4.984375 C 4.6875 -6.046875 3.84375 -6.796875 2.640625 -6.796875 C 1.4375 -6.796875 0.59375 -6.046875 0.59375 -4.984375 C 0.59375 -4.359375 0.828125 -4.015625 1.515625 -3.578125 C 0.734375 -3.203125 0.359375 -2.640625 0.359375 -1.890625 C 0.359375 -0.640625 1.296875 0.21875 2.640625 0.21875 C 3.984375 0.21875 4.921875 -0.640625 4.921875 -1.875 C 4.921875 -2.640625 4.53125 -3.203125 3.75 -3.578125 Z M 2.640625 -6.046875 C 3.359375 -6.046875 3.8125 -5.625 3.8125 -4.96875 C 3.8125 -4.34375 3.34375 -3.921875 2.640625 -3.921875 C 1.921875 -3.921875 1.453125 -4.34375 1.453125 -4.984375 C 1.453125 -5.625 1.921875 -6.046875 2.640625 -6.046875 Z M 2.640625 -3.203125 C 3.484375 -3.203125 4.0625 -2.671875 4.0625 -1.875 C 4.0625 -1.0625 3.484375 -0.53125 2.625 -0.53125 C 1.796875 -0.53125 1.21875 -1.078125 1.21875 -1.875 C 1.21875 -2.671875 1.796875 -3.203125 2.640625 -3.203125 Z M 2.640625 -3.203125 "/>
</symbol>
<symbol overflow="visible" id="glyph0-11">
<path style="stroke:none;" d="M 0.515625 -1.546875 C 0.671875 -0.4375 1.40625 0.21875 2.4375 0.21875 C 3.1875 0.21875 3.859375 -0.140625 4.265625 -0.75 C 4.6875 -1.40625 4.890625 -2.25 4.890625 -3.484375 C 4.890625 -4.625 4.703125 -5.359375 4.3125 -5.953125 C 3.9375 -6.5 3.34375 -6.796875 2.59375 -6.796875 C 1.296875 -6.796875 0.359375 -5.84375 0.359375 -4.515625 C 0.359375 -3.25 1.234375 -2.34375 2.453125 -2.34375 C 3.09375 -2.34375 3.5625 -2.578125 4.015625 -3.109375 C 4 -1.453125 3.46875 -0.53125 2.5 -0.53125 C 1.90625 -0.53125 1.484375 -0.90625 1.359375 -1.546875 Z M 2.578125 -6.0625 C 3.375 -6.0625 3.96875 -5.40625 3.96875 -4.53125 C 3.96875 -3.6875 3.375 -3.09375 2.546875 -3.09375 C 1.734375 -3.09375 1.234375 -3.671875 1.234375 -4.578125 C 1.234375 -5.4375 1.796875 -6.0625 2.578125 -6.0625 Z M 2.578125 -6.0625 "/>
</symbol>
<symbol overflow="visible" id="glyph1-0">
<path style="stroke:none;" d=""/>
</symbol>
<symbol overflow="visible" id="glyph1-1">
<path style="stroke:none;" d="M 0 -0.953125 L 0 -4.890625 C 0 -5.71875 -0.234375 -6.34375 -0.734375 -6.796875 C -1.1875 -7.234375 -1.8125 -7.46875 -2.5 -7.46875 C -3.546875 -7.46875 -4.1875 -7 -4.625 -5.875 C -4.984375 -6.671875 -5.640625 -7.09375 -6.53125 -7.09375 C -7.15625 -7.09375 -7.734375 -6.859375 -8.140625 -6.390625 C -8.5625 -5.9375 -8.75 -5.34375 -8.75 -4.5 L -8.75 -0.953125 Z M -4.984375 -2.0625 L -7.765625 -2.0625 L -7.765625 -4.21875 C -7.765625 -4.84375 -7.6875 -5.203125 -7.453125 -5.5 C -7.21875 -5.8125 -6.859375 -5.96875 -6.375 -5.96875 C -5.90625 -5.96875 -5.53125 -5.8125 -5.296875 -5.5 C -5.0625 -5.203125 -4.984375 -4.84375 -4.984375 -4.21875 Z M -0.984375 -2.0625 L -4 -2.0625 L -4 -4.78125 C -4 -5.328125 -3.859375 -5.6875 -3.578125 -5.953125 C -3.296875 -6.21875 -2.921875 -6.359375 -2.484375 -6.359375 C -2.0625 -6.359375 -1.6875 -6.21875 -1.40625 -5.953125 C -1.109375 -5.6875 -0.984375 -5.328125 -0.984375 -4.78125 Z M -0.984375 -2.0625 "/>
</symbol>
<symbol overflow="visible" id="glyph1-2">
<path style="stroke:none;" d="M -6.28125 -1.796875 L -6.28125 -0.796875 L 0 -0.796875 L 0 -1.796875 Z M -8.75 -1.796875 L -8.75 -0.796875 L -7.484375 -0.796875 L -7.484375 -1.796875 Z M -8.75 -1.796875 "/>
</symbol>
<symbol overflow="visible" id="glyph1-3">
<path style="stroke:none;" d="M -6.28125 -3.046875 L -6.28125 -2.015625 L -8.015625 -2.015625 L -8.015625 -1.015625 L -6.28125 -1.015625 L -6.28125 -0.171875 L -5.46875 -0.171875 L -5.46875 -1.015625 L -0.71875 -1.015625 C -0.078125 -1.015625 0.28125 -1.453125 0.28125 -2.234375 C 0.28125 -2.46875 0.25 -2.71875 0.1875 -3.046875 L -0.640625 -3.046875 C -0.609375 -2.921875 -0.59375 -2.765625 -0.59375 -2.5625 C -0.59375 -2.140625 -0.71875 -2.015625 -1.15625 -2.015625 L -5.46875 -2.015625 L -5.46875 -3.046875 Z M -6.28125 -3.046875 "/>
</symbol>
<symbol overflow="visible" id="glyph1-4">
<path style="stroke:none;" d="M -4.53125 -5.25 C -5.765625 -5.25 -6.46875 -4.421875 -6.46875 -2.96875 C -6.46875 -1.515625 -5.71875 -0.5625 -4.546875 -0.5625 C -3.5625 -0.5625 -3.09375 -1.0625 -2.734375 -2.5625 L -2.515625 -3.484375 C -2.34375 -4.1875 -2.09375 -4.46875 -1.625 -4.46875 C -1.046875 -4.46875 -0.640625 -3.875 -0.640625 -3 C -0.640625 -2.453125 -0.796875 -2 -1.0625 -1.75 C -1.25 -1.59375 -1.421875 -1.53125 -1.875 -1.46875 L -1.875 -0.40625 C -0.421875 -0.453125 0.28125 -1.265625 0.28125 -2.921875 C 0.28125 -4.5 -0.5 -5.515625 -1.71875 -5.515625 C -2.65625 -5.515625 -3.171875 -4.984375 -3.46875 -3.734375 L -3.703125 -2.765625 C -3.890625 -1.953125 -4.15625 -1.609375 -4.59375 -1.609375 C -5.171875 -1.609375 -5.546875 -2.125 -5.546875 -2.9375 C -5.546875 -3.75 -5.203125 -4.171875 -4.53125 -4.203125 Z M -4.53125 -5.25 "/>
</symbol>
</g>
</defs>
<g id="surface123997">
<rect x="0" y="0" width="720" height="360" style="fill:rgb(100%,100%,100%);fill-opacity:1;stroke:none;"/>
<path style=" stroke:none;fill-rule:nonzero;fill:rgb(6.27451%,58.823529%,28.235294%);fill-opacity:1;" d="M 69.628906 314.371094 L 69.6875 314.367188 L 92.722656 313.207031 L 99.722656 313.207031 L 122.875 314.371094 L 114.738281 314.371094 L 108.9375 314.066406 L 83.507812 314.066406 L 77.820312 314.371094 L 69.628906 314.371094 L 85.957031 313.941406 L 106.605469 313.941406 L 96.308594 313.394531 L 96.195312 313.394531 L 96.082031 313.398438 L 85.898438 313.941406 L 85.957031 313.941406 Z M 69.628906 314.371094 "/>
<path style=" stroke:none;fill-rule:nonzero;fill:rgb(14.509804%,36.078431%,60%);fill-opacity:1;" d="M 69.628906 306.847656 L 69.695312 306.84375 L 69.695312 306.757812 L 69.890625 306.617188 L 70.34375 306.441406 L 70.796875 306.320312 L 71.96875 306.101562 L 73.589844 305.894531 L 75.277344 305.730469 L 76.511719 305.636719 L 77.617188 305.5625 L 80.148438 305.425781 L 81.773438 305.355469 L 83.523438 305.292969 L 85.667969 305.230469 L 87.226562 305.195312 L 90.730469 305.136719 L 93.328125 305.109375 L 95.34375 305.101562 L 99.691406 305.101562 L 102.289062 305.113281 L 104.171875 305.132812 L 106.25 305.164062 L 108.003906 305.195312 L 111.054688 305.277344 L 113.78125 305.378906 L 115.015625 305.4375 L 116.964844 305.550781 L 118.457031 305.660156 L 119.496094 305.757812 L 120.664062 305.894531 L 121.703125 306.058594 L 122.484375 306.246094 L 122.875 306.402344 L 113.78125 306.402344 L 113.328125 306.257812 L 112.808594 306.144531 L 111.835938 305.992188 L 110.859375 305.886719 L 109.496094 305.78125 L 108.265625 305.710938 L 106.574219 305.640625 L 105.082031 305.597656 L 103.523438 305.5625 L 102.03125 305.539062 L 99.171875 305.519531 L 95.863281 305.519531 L 94.628906 305.527344 L 92.097656 305.554688 L 90.730469 305.582031 L 88.785156 305.632812 L 87.421875 305.679688 L 85.796875 305.753906 L 84.695312 305.816406 L 83.328125 305.910156 L 82.355469 305.996094 L 81.253906 306.117188 L 80.601562 306.210938 L 80.019531 306.3125 L 79.5 306.433594 L 79.109375 306.5625 L 78.851562 306.699219 L 78.71875 306.828125 L 78.71875 307.398438 L 78.851562 307.53125 L 79.175781 307.683594 L 80.019531 307.910156 L 81.253906 308.105469 L 82.679688 308.257812 L 84.042969 308.367188 L 84.824219 308.417969 L 85.863281 308.476562 L 87.484375 308.550781 L 89.824219 308.625 L 91.1875 308.65625 L 93.265625 308.683594 L 95.40625 308.699219 L 98.265625 308.699219 L 100.796875 308.683594 L 102.484375 308.664062 L 104.238281 308.636719 L 106.640625 308.574219 L 108.132812 308.515625 L 109.433594 308.445312 L 110.40625 308.375 L 111.054688 308.316406 L 112.03125 308.203125 L 112.808594 308.078125 L 113.394531 307.949219 L 113.78125 307.824219 L 122.875 307.824219 L 122.484375 307.972656 L 121.898438 308.113281 L 121.316406 308.222656 L 120.40625 308.351562 L 119.367188 308.464844 L 117.875 308.59375 L 116.640625 308.675781 L 115.015625 308.769531 L 113.523438 308.839844 L 111.898438 308.902344 L 109.496094 308.972656 L 107.9375 309.011719 L 106.25 309.042969 L 104.238281 309.074219 L 101.707031 309.097656 L 98.976562 309.113281 L 96.445312 309.117188 L 93.71875 309.109375 L 91.707031 309.09375 L 89.042969 309.0625 L 85.730469 308.996094 L 83.328125 308.925781 L 81.445312 308.855469 L 79.824219 308.785156 L 78.003906 308.683594 L 75.667969 308.523438 L 74.238281 308.398438 L 73.265625 308.292969 L 72.160156 308.152344 L 71.382812 308.023438 L 70.472656 307.816406 L 69.824219 307.558594 L 69.628906 307.355469 Z M 69.628906 306.847656 "/>
<path style=" stroke:none;fill-rule:nonzero;fill:rgb(96.862745%,70.196078%,16.862745%);fill-opacity:1;" d="M 69.628906 311.039062 L 69.695312 311.035156 L 69.695312 311.003906 L 69.953125 310.933594 L 70.601562 310.835938 L 71.449219 310.753906 L 72.355469 310.691406 L 72.941406 310.660156 L 73.914062 310.609375 L 74.757812 310.578125 L 76.902344 310.503906 L 79.628906 310.4375 L 81.121094 310.410156 L 82.808594 310.382812 L 85.214844 310.355469 L 86.316406 310.34375 L 89.691406 310.316406 L 93.523438 310.300781 L 97.746094 310.296875 L 99.691406 310.296875 L 102.355469 310.304688 L 105.992188 310.320312 L 108.070312 310.339844 L 109.691406 310.355469 L 111.378906 310.375 L 113.457031 310.40625 L 115.40625 310.445312 L 116.964844 310.480469 L 118.523438 310.527344 L 119.820312 310.578125 L 120.925781 310.636719 L 121.898438 310.703125 L 122.484375 310.757812 L 122.875 310.8125 L 113.847656 310.8125 L 113.328125 310.757812 L 112.742188 310.714844 L 111.769531 310.660156 L 110.796875 310.625 L 109.820312 310.59375 L 108.003906 310.554688 L 106.445312 310.527344 L 104.496094 310.503906 L 102.613281 310.492188 L 100.472656 310.480469 L 95.730469 310.480469 L 92.613281 310.488281 L 90.796875 310.503906 L 89.5 310.515625 L 87.679688 310.539062 L 86.578125 310.558594 L 85.925781 310.570312 L 83.980469 310.617188 L 82.679688 310.664062 L 81.964844 310.695312 L 81.058594 310.742188 L 80.40625 310.785156 L 79.695312 310.847656 L 79.304688 310.894531 L 78.785156 311 L 78.71875 311.285156 L 78.914062 311.34375 L 79.304688 311.410156 L 79.824219 311.46875 L 80.601562 311.527344 L 81.382812 311.574219 L 82.746094 311.632812 L 83.914062 311.675781 L 84.824219 311.703125 L 86.578125 311.746094 L 87.289062 311.757812 L 88.980469 311.789062 L 90.730469 311.808594 L 92.875 311.828125 L 94.5 311.839844 L 97.09375 311.847656 L 100.40625 311.847656 L 104.304688 311.835938 L 106.769531 311.824219 L 108.457031 311.8125 L 109.5625 311.800781 L 110.925781 311.785156 L 111.898438 311.765625 L 112.808594 311.75 L 113.914062 311.722656 L 113.914062 311.34375 L 97.875 311.34375 L 97.875 311.167969 L 122.808594 311.164062 L 122.875 311.785156 L 121.511719 311.824219 L 119.820312 311.867188 L 118.199219 311.898438 L 116.511719 311.925781 L 114.109375 311.957031 L 112.160156 311.972656 L 109.171875 311.996094 L 106.445312 312.011719 L 103.589844 312.019531 L 101.054688 312.023438 L 98.070312 312.027344 L 95.40625 312.023438 L 92.550781 312.015625 L 90.277344 312 L 88.199219 311.984375 L 86.121094 311.964844 L 83.523438 311.933594 L 81.835938 311.90625 L 80.082031 311.871094 L 78.332031 311.832031 L 76.773438 311.789062 L 75.734375 311.757812 L 74.695312 311.71875 L 73.589844 311.671875 L 72.550781 311.617188 L 71.773438 311.570312 L 71.058594 311.511719 L 70.539062 311.460938 L 70.019531 311.390625 L 69.757812 311.332031 L 69.628906 311.285156 Z M 69.628906 311.039062 "/>
<path style=" stroke:none;fill-rule:nonzero;fill:rgb(83.921569%,15.686275%,22.352941%);fill-opacity:1;" d="M 69.628906 298.632812 L 122.875 298.632812 L 122.875 299.199219 L 100.683594 299.203125 L 100.683594 303.921875 L 91.753906 303.921875 L 91.753906 299.207031 L 91.625 299.199219 L 69.628906 299.199219 Z M 69.628906 298.632812 "/>
<path style=" stroke:none;fill-rule:nonzero;fill:rgb(6.27451%,58.823529%,28.235294%);fill-opacity:1;" d="M 125.675781 314.367188 L 125.734375 314.363281 L 148.769531 309.859375 L 155.769531 309.859375 L 178.917969 314.371094 L 170.785156 314.371094 L 164.984375 313.191406 L 139.554688 313.191406 L 133.867188 314.367188 L 125.675781 314.367188 L 142 312.707031 L 162.652344 312.703125 L 152.355469 310.597656 L 152.242188 310.59375 L 152.128906 310.605469 L 141.945312 312.703125 L 142 312.707031 Z M 125.675781 314.367188 "/>
<path style=" stroke:none;fill-rule:nonzero;fill:rgb(14.509804%,36.078431%,60%);fill-opacity:1;" d="M 125.675781 248.828125 L 125.742188 248.769531 L 125.742188 247.359375 L 125.933594 245.125 L 126.390625 242.308594 L 126.84375 240.367188 L 128.011719 236.902344 L 129.636719 233.554688 L 131.324219 230.96875 L 132.558594 229.441406 L 133.664062 228.269531 L 136.195312 226.09375 L 137.816406 224.976562 L 139.570312 223.980469 L 141.714844 222.980469 L 143.273438 222.394531 L 146.777344 221.453125 L 149.375 221.042969 L 151.390625 220.867188 L 155.738281 220.867188 L 158.335938 221.101562 L 160.21875 221.394531 L 162.296875 221.867188 L 164.050781 222.394531 L 167.101562 223.6875 L 169.828125 225.332031 L 171.0625 226.269531 L 173.011719 228.089844 L 174.503906 229.855469 L 175.542969 231.382812 L 176.710938 233.554688 L 177.75 236.199219 L 178.53125 239.195312 L 178.917969 241.71875 L 169.828125 241.71875 L 169.375 239.371094 L 168.855469 237.546875 L 167.882812 235.140625 L 166.90625 233.4375 L 165.542969 231.734375 L 164.308594 230.617188 L 162.621094 229.5 L 161.128906 228.796875 L 159.570312 228.269531 L 158.078125 227.914062 L 155.21875 227.5625 L 151.90625 227.5625 L 150.675781 227.679688 L 148.140625 228.152344 L 146.777344 228.5625 L 144.832031 229.382812 L 143.46875 230.148438 L 141.84375 231.324219 L 140.738281 232.320312 L 139.375 233.847656 L 138.402344 235.199219 L 137.296875 237.136719 L 136.648438 238.605469 L 136.066406 240.25 L 135.546875 242.1875 L 135.15625 244.246094 L 134.894531 246.417969 L 134.765625 248.53125 L 134.765625 257.636719 L 134.894531 259.753906 L 135.21875 262.21875 L 136.066406 265.800781 L 137.296875 268.914062 L 138.726562 271.382812 L 140.089844 273.144531 L 140.871094 273.96875 L 141.910156 274.90625 L 143.53125 276.082031 L 145.871094 277.257812 L 147.234375 277.726562 L 149.3125 278.195312 L 151.453125 278.429688 L 154.3125 278.429688 L 156.84375 278.195312 L 158.53125 277.902344 L 160.285156 277.433594 L 162.6875 276.433594 L 164.179688 275.496094 L 165.480469 274.378906 L 166.453125 273.261719 L 167.101562 272.324219 L 168.074219 270.5 L 168.855469 268.503906 L 169.441406 266.449219 L 169.828125 264.453125 L 178.917969 264.453125 L 178.53125 266.800781 L 177.945312 269.09375 L 177.363281 270.796875 L 176.453125 272.851562 L 175.414062 274.671875 L 173.921875 276.726562 L 172.6875 278.078125 L 171.0625 279.546875 L 169.570312 280.664062 L 167.945312 281.664062 L 165.542969 282.835938 L 163.984375 283.425781 L 162.296875 283.953125 L 160.285156 284.421875 L 157.753906 284.835938 L 155.023438 285.070312 L 152.492188 285.128906 L 149.765625 285.011719 L 147.753906 284.777344 L 145.089844 284.246094 L 141.777344 283.1875 L 139.375 282.074219 L 137.492188 280.957031 L 135.871094 279.78125 L 134.050781 278.195312 L 131.714844 275.613281 L 130.285156 273.613281 L 129.3125 271.96875 L 128.207031 269.679688 L 127.429688 267.625 L 126.519531 264.335938 L 125.871094 260.164062 L 125.675781 256.933594 Z M 125.675781 248.828125 "/>
<path style=" stroke:none;fill-rule:nonzero;fill:rgb(96.862745%,70.196078%,16.862745%);fill-opacity:1;" d="M 125.675781 303.390625 L 125.742188 303.382812 L 125.742188 303.210938 L 126 302.832031 L 126.648438 302.308594 L 127.492188 301.878906 L 128.402344 301.539062 L 128.988281 301.363281 L 129.960938 301.109375 L 130.804688 300.921875 L 132.949219 300.542969 L 135.675781 300.1875 L 137.167969 300.035156 L 138.855469 299.890625 L 141.257812 299.730469 L 142.363281 299.671875 L 145.738281 299.535156 L 149.570312 299.453125 L 153.792969 299.425781 L 155.738281 299.4375 L 158.402344 299.46875 L 162.039062 299.5625 L 164.117188 299.648438 L 165.738281 299.730469 L 167.425781 299.839844 L 169.503906 300.011719 L 171.453125 300.214844 L 173.011719 300.414062 L 174.570312 300.667969 L 175.867188 300.941406 L 176.972656 301.234375 L 177.945312 301.589844 L 178.53125 301.886719 L 178.917969 302.183594 L 169.894531 302.183594 L 169.375 301.886719 L 168.789062 301.65625 L 167.816406 301.378906 L 166.84375 301.175781 L 165.867188 301.015625 L 164.050781 300.796875 L 162.492188 300.660156 L 160.542969 300.542969 L 158.660156 300.464844 L 156.519531 300.414062 L 155.21875 300.398438 L 151.777344 300.398438 L 148.660156 300.457031 L 146.84375 300.527344 L 145.542969 300.59375 L 143.726562 300.71875 L 142.621094 300.820312 L 141.972656 300.890625 L 140.027344 301.152344 L 138.726562 301.386719 L 138.011719 301.546875 L 137.105469 301.800781 L 136.453125 302.03125 L 135.738281 302.367188 L 135.351562 302.621094 L 134.832031 303.195312 L 134.765625 304.71875 L 134.960938 305.039062 L 135.351562 305.382812 L 135.871094 305.6875 L 136.648438 306.011719 L 137.429688 306.253906 L 138.792969 306.585938 L 139.960938 306.804688 L 140.871094 306.949219 L 142.621094 307.175781 L 143.335938 307.253906 L 145.023438 307.402344 L 146.777344 307.523438 L 148.921875 307.625 L 150.542969 307.675781 L 153.140625 307.71875 L 156.453125 307.71875 L 160.347656 307.667969 L 162.816406 307.597656 L 164.503906 307.53125 L 165.609375 307.472656 L 166.972656 307.378906 L 167.945312 307.292969 L 168.855469 307.203125 L 169.960938 307.058594 L 169.960938 305.039062 L 153.921875 305.03125 L 153.921875 304.082031 L 178.855469 304.074219 L 178.917969 307.378906 L 177.554688 307.605469 L 175.867188 307.828125 L 174.246094 307.996094 L 172.554688 308.140625 L 170.152344 308.300781 L 168.207031 308.402344 L 165.21875 308.519531 L 162.492188 308.59375 L 159.636719 308.644531 L 157.101562 308.671875 L 154.117188 308.679688 L 151.453125 308.664062 L 148.597656 308.613281 L 146.324219 308.546875 L 144.246094 308.460938 L 142.167969 308.351562 L 139.570312 308.171875 L 137.882812 308.03125 L 136.128906 307.851562 L 134.375 307.640625 L 132.816406 307.414062 L 131.777344 307.234375 L 130.742188 307.03125 L 129.636719 306.777344 L 128.597656 306.492188 L 127.820312 306.230469 L 127.105469 305.933594 L 126.585938 305.65625 L 126.066406 305.273438 L 125.804688 304.96875 L 125.675781 304.707031 Z M 125.675781 303.390625 "/>
<path style=" stroke:none;fill-rule:nonzero;fill:rgb(83.921569%,15.686275%,22.352941%);fill-opacity:1;" d="M 125.675781 286.308594 L 178.917969 286.308594 L 178.917969 287.585938 L 156.730469 287.597656 L 156.730469 298.246094 L 147.800781 298.246094 L 147.800781 287.609375 L 147.671875 287.585938 L 125.675781 287.585938 Z M 125.675781 286.308594 "/>
<path style=" stroke:none;fill-rule:nonzero;fill:rgb(6.27451%,58.823529%,28.235294%);fill-opacity:1;" d="M 181.722656 282.148438 L 181.777344 282.085938 L 204.816406 215.734375 L 211.8125 215.734375 L 234.964844 282.210938 L 226.832031 282.210938 L 221.03125 264.859375 L 195.601562 264.859375 L 189.914062 282.148438 L 181.722656 282.148438 L 198.046875 257.679688 L 218.695312 257.617188 L 208.402344 226.597656 L 208.289062 226.535156 L 208.171875 226.722656 L 197.992188 257.617188 L 198.046875 257.679688 Z M 181.722656 282.148438 "/>
<path style=" stroke:none;fill-rule:nonzero;fill:rgb(14.509804%,36.078431%,60%);fill-opacity:1;" d="M 181.722656 305.761719 L 181.785156 305.75 L 181.785156 305.511719 L 181.980469 305.136719 L 182.4375 304.664062 L 182.890625 304.335938 L 184.058594 303.753906 L 185.683594 303.1875 L 187.371094 302.753906 L 188.605469 302.496094 L 189.707031 302.300781 L 192.242188 301.933594 L 193.863281 301.746094 L 195.617188 301.578125 L 197.761719 301.410156 L 199.320312 301.308594 L 202.824219 301.152344 L 205.421875 301.082031 L 207.433594 301.054688 L 211.785156 301.054688 L 214.382812 301.09375 L 216.265625 301.140625 L 218.34375 301.222656 L 220.097656 301.308594 L 223.148438 301.527344 L 225.875 301.804688 L 227.109375 301.960938 L 229.058594 302.269531 L 230.550781 302.566406 L 231.589844 302.824219 L 232.757812 303.1875 L 233.796875 303.632812 L 234.578125 304.136719 L 234.964844 304.5625 L 225.875 304.5625 L 225.421875 304.167969 L 224.902344 303.859375 L 223.925781 303.457031 L 222.953125 303.167969 L 221.589844 302.882812 L 220.355469 302.695312 L 218.667969 302.507812 L 217.175781 302.386719 L 215.617188 302.300781 L 214.121094 302.238281 L 211.265625 302.179688 L 207.953125 302.179688 L 206.722656 302.199219 L 204.1875 302.277344 L 202.824219 302.347656 L 200.875 302.488281 L 199.511719 302.617188 L 197.890625 302.8125 L 196.785156 302.980469 L 195.421875 303.238281 L 194.449219 303.464844 L 193.34375 303.792969 L 192.695312 304.039062 L 192.109375 304.316406 L 191.589844 304.640625 L 191.203125 304.988281 L 190.941406 305.355469 L 190.8125 305.710938 L 190.8125 307.242188 L 190.941406 307.597656 L 191.265625 308.015625 L 192.109375 308.617188 L 193.34375 309.140625 L 194.773438 309.558594 L 196.136719 309.855469 L 196.917969 309.992188 L 197.953125 310.152344 L 199.578125 310.347656 L 201.914062 310.546875 L 203.28125 310.625 L 205.355469 310.703125 L 207.5 310.742188 L 210.355469 310.742188 L 212.890625 310.703125 L 214.578125 310.65625 L 216.332031 310.574219 L 218.734375 310.40625 L 220.226562 310.25 L 221.523438 310.0625 L 222.5 309.875 L 223.148438 309.714844 L 224.121094 309.410156 L 224.902344 309.074219 L 225.484375 308.726562 L 225.875 308.390625 L 234.964844 308.390625 L 234.578125 308.785156 L 233.992188 309.171875 L 233.40625 309.457031 L 232.5 309.804688 L 231.460938 310.109375 L 229.964844 310.457031 L 228.734375 310.683594 L 227.109375 310.933594 L 225.617188 311.121094 L 223.992188 311.289062 L 221.589844 311.484375 L 220.03125 311.585938 L 218.34375 311.671875 L 216.332031 311.753906 L 213.796875 311.820312 L 211.070312 311.859375 L 208.539062 311.871094 L 205.8125 311.851562 L 203.800781 311.8125 L 201.136719 311.722656 L 197.824219 311.542969 L 195.421875 311.355469 L 193.539062 311.167969 L 191.917969 310.972656 L 190.097656 310.703125 L 187.761719 310.269531 L 186.332031 309.933594 L 185.359375 309.65625 L 184.253906 309.269531 L 183.476562 308.925781 L 182.566406 308.371094 L 181.917969 307.667969 L 181.722656 307.125 Z M 181.722656 305.761719 "/>
<path style=" stroke:none;fill-rule:nonzero;fill:rgb(96.862745%,70.196078%,16.862745%);fill-opacity:1;" d="M 181.722656 290.449219 L 181.785156 290.433594 L 181.785156 290.132812 L 182.046875 289.457031 L 182.695312 288.523438 L 183.539062 287.753906 L 184.449219 287.152344 L 185.035156 286.835938 L 186.007812 286.386719 L 186.851562 286.054688 L 188.996094 285.375 L 191.722656 284.746094 L 193.214844 284.472656 L 194.902344 284.21875 L 197.304688 283.929688 L 198.410156 283.828125 L 201.785156 283.585938 L 205.617188 283.433594 L 209.835938 283.390625 L 211.785156 283.40625 L 214.449219 283.464844 L 218.082031 283.628906 L 220.160156 283.78125 L 221.785156 283.929688 L 223.472656 284.128906 L 225.550781 284.429688 L 227.5 284.789062 L 229.058594 285.152344 L 230.617188 285.601562 L 231.914062 286.085938 L 233.019531 286.609375 L 233.992188 287.242188 L 234.578125 287.769531 L 234.964844 288.296875 L 225.941406 288.296875 L 225.421875 287.769531 L 224.835938 287.363281 L 223.863281 286.867188 L 222.890625 286.503906 L 221.914062 286.21875 L 220.097656 285.828125 L 218.539062 285.585938 L 216.589844 285.375 L 214.707031 285.242188 L 212.566406 285.152344 L 211.265625 285.121094 L 207.824219 285.121094 L 204.707031 285.226562 L 202.890625 285.347656 L 201.589844 285.46875 L 199.773438 285.691406 L 198.667969 285.875 L 198.019531 285.992188 L 196.070312 286.460938 L 194.773438 286.882812 L 194.058594 287.167969 L 193.148438 287.621094 L 192.5 288.027344 L 191.785156 288.628906 L 191.398438 289.078125 L 190.878906 290.105469 L 190.8125 292.8125 L 191.007812 293.386719 L 191.398438 294.003906 L 191.917969 294.542969 L 192.695312 295.117188 L 193.476562 295.554688 L 194.839844 296.140625 L 196.007812 296.53125 L 196.917969 296.789062 L 198.667969 297.195312 L 199.382812 297.328125 L 201.070312 297.601562 L 202.824219 297.8125 L 204.96875 297.992188 L 206.589844 298.082031 L 209.1875 298.15625 L 212.5 298.15625 L 216.394531 298.066406 L 218.863281 297.945312 L 220.550781 297.824219 L 221.65625 297.722656 L 223.019531 297.554688 L 223.992188 297.40625 L 224.902344 297.238281 L 226.003906 296.984375 L 226.003906 293.386719 L 209.96875 293.371094 L 209.96875 291.683594 L 234.902344 291.667969 L 234.964844 297.554688 L 233.601562 297.960938 L 231.914062 298.351562 L 230.292969 298.652344 L 228.601562 298.910156 L 226.199219 299.195312 L 224.253906 299.375 L 221.265625 299.585938 L 218.539062 299.722656 L 215.679688 299.8125 L 213.148438 299.859375 L 210.164062 299.875 L 207.5 299.84375 L 204.644531 299.753906 L 202.371094 299.632812 L 200.292969 299.480469 L 198.214844 299.285156 L 195.617188 298.96875 L 193.929688 298.714844 L 192.175781 298.398438 L 190.421875 298.023438 L 188.863281 297.617188 L 187.824219 297.300781 L 186.785156 296.9375 L 185.683594 296.488281 L 184.644531 295.972656 L 183.863281 295.507812 L 183.152344 294.980469 L 182.632812 294.484375 L 182.113281 293.808594 L 181.851562 293.265625 L 181.722656 292.796875 Z M 181.722656 290.449219 "/>
<path style=" stroke:none;fill-rule:nonzero;fill:rgb(83.921569%,15.686275%,22.352941%);fill-opacity:1;" d="M 181.722656 313.050781 L 234.964844 313.050781 L 234.964844 313.191406 L 212.777344 313.191406 L 212.777344 314.371094 L 203.847656 314.371094 L 203.847656 313.195312 L 203.71875 313.191406 L 181.722656 313.191406 Z M 181.722656 313.050781 "/>
<path style=" stroke:none;fill-rule:nonzero;fill:rgb(14.509804%,36.078431%,60%);fill-opacity:1;" d="M 237.769531 148.457031 L 237.832031 148.1875 L 237.832031 141.742188 L 238.027344 131.542969 L 238.484375 118.65625 L 238.9375 109.796875 L 240.105469 93.957031 L 241.730469 78.652344 L 243.417969 66.839844 L 244.652344 59.859375 L 245.753906 54.492188 L 248.289062 44.558594 L 249.910156 39.457031 L 251.664062 34.890625 L 253.804688 30.328125 L 255.363281 27.644531 L 258.871094 23.347656 L 261.46875 21.46875 L 263.480469 20.664062 L 267.832031 20.664062 L 270.429688 21.738281 L 272.3125 23.078125 L 274.390625 25.226562 L 276.144531 27.644531 L 279.195312 33.550781 L 281.921875 41.066406 L 283.15625 45.363281 L 285.105469 53.683594 L 286.597656 61.738281 L 287.636719 68.71875 L 288.804688 78.652344 L 289.84375 90.734375 L 290.621094 104.425781 L 291.011719 115.96875 L 281.921875 115.96875 L 281.46875 105.230469 L 280.949219 96.910156 L 279.972656 85.902344 L 279 78.117188 L 277.636719 70.332031 L 276.402344 65.230469 L 274.714844 60.128906 L 273.222656 56.90625 L 271.664062 54.492188 L 270.167969 52.878906 L 267.3125 51.269531 L 264 51.269531 L 262.765625 51.804688 L 260.234375 53.953125 L 258.871094 55.832031 L 256.921875 59.589844 L 255.558594 63.082031 L 253.9375 68.449219 L 252.832031 73.015625 L 251.46875 79.996094 L 250.496094 86.171875 L 249.390625 95.03125 L 248.742188 101.742188 L 248.15625 109.257812 L 247.636719 118.117188 L 247.25 127.515625 L 246.988281 137.449219 L 246.859375 147.113281 L 246.859375 188.726562 L 246.988281 198.390625 L 247.3125 209.667969 L 248.15625 226.042969 L 249.390625 240.273438 L 250.820312 251.546875 L 252.183594 259.601562 L 252.960938 263.359375 L 254 267.65625 L 255.625 273.027344 L 257.960938 278.394531 L 259.324219 280.542969 L 261.402344 282.691406 L 263.546875 283.765625 L 266.402344 283.765625 L 268.9375 282.691406 L 270.625 281.347656 L 272.378906 279.199219 L 274.78125 274.636719 L 276.273438 270.339844 L 277.570312 265.242188 L 278.546875 260.140625 L 279.195312 255.84375 L 280.167969 247.519531 L 280.949219 238.394531 L 281.53125 228.996094 L 281.921875 219.867188 L 291.011719 219.867188 L 290.621094 230.609375 L 290.039062 241.078125 L 289.453125 248.863281 L 288.546875 258.261719 L 287.507812 266.582031 L 286.011719 275.980469 L 284.777344 282.152344 L 283.15625 288.867188 L 281.664062 293.96875 L 280.039062 298.53125 L 277.636719 303.898438 L 276.078125 306.585938 L 274.390625 309 L 272.378906 311.148438 L 269.84375 313.027344 L 267.117188 314.101562 L 264.585938 314.371094 L 261.859375 313.832031 L 259.84375 312.761719 L 257.183594 310.34375 L 253.871094 305.511719 L 251.46875 300.410156 L 249.585938 295.308594 L 247.960938 289.941406 L 246.144531 282.691406 L 243.808594 270.878906 L 242.378906 261.75 L 241.40625 254.234375 L 240.300781 243.761719 L 239.523438 234.367188 L 238.613281 219.332031 L 237.964844 200.269531 L 237.769531 185.503906 Z M 237.769531 148.457031 "/>
<path style=" stroke:none;fill-rule:nonzero;fill:rgb(6.27451%,58.823529%,28.235294%);fill-opacity:1;" d="M 293.816406 313.609375 L 293.871094 313.335938 L 316.910156 23.289062 L 323.90625 23.289062 L 347.058594 313.882812 L 338.925781 313.882812 L 333.121094 238.027344 L 307.695312 238.027344 L 302.007812 313.609375 L 293.816406 313.609375 L 310.140625 206.648438 L 330.789062 206.375 L 320.492188 70.765625 L 320.378906 70.492188 L 320.265625 71.3125 L 310.082031 206.375 L 310.140625 206.648438 Z M 293.816406 313.609375 "/>
<path style=" stroke:none;fill-rule:nonzero;fill:rgb(14.509804%,36.078431%,60%);fill-opacity:1;" d="M 349.859375 148.457031 L 349.925781 148.1875 L 349.925781 141.742188 L 350.121094 131.542969 L 350.574219 118.65625 L 351.03125 109.796875 L 352.199219 93.957031 L 353.820312 78.652344 L 355.511719 66.839844 L 356.742188 59.859375 L 357.847656 54.492188 L 360.378906 44.558594 L 362.003906 39.457031 L 363.757812 34.890625 L 365.898438 30.328125 L 367.457031 27.644531 L 370.964844 23.347656 L 373.5625 21.46875 L 375.574219 20.664062 L 379.925781 20.664062 L 382.523438 21.738281 L 384.40625 23.078125 L 386.484375 25.226562 L 388.234375 27.644531 L 391.289062 33.550781 L 394.015625 41.066406 L 395.25 45.363281 L 397.195312 53.683594 L 398.691406 61.738281 L 399.730469 68.71875 L 400.898438 78.652344 L 401.9375 90.734375 L 402.714844 104.425781 L 403.105469 115.96875 L 394.015625 115.96875 L 393.558594 105.230469 L 393.039062 96.910156 L 392.066406 85.902344 L 391.09375 78.117188 L 389.730469 70.332031 L 388.496094 65.230469 L 386.808594 60.128906 L 385.3125 56.90625 L 383.753906 54.492188 L 382.261719 52.878906 L 379.40625 51.269531 L 376.09375 51.269531 L 374.859375 51.804688 L 372.328125 53.953125 L 370.964844 55.832031 L 369.015625 59.589844 L 367.652344 63.082031 L 366.027344 68.449219 L 364.925781 73.015625 L 363.5625 79.996094 L 362.585938 86.171875 L 361.484375 95.03125 L 360.835938 101.742188 L 360.25 109.257812 L 359.730469 118.117188 L 359.339844 127.515625 L 359.082031 137.449219 L 358.953125 147.113281 L 358.953125 188.726562 L 359.082031 198.390625 L 359.40625 209.667969 L 360.25 226.042969 L 361.484375 240.273438 L 362.914062 251.546875 L 364.277344 259.601562 L 365.054688 263.359375 L 366.09375 267.65625 L 367.71875 273.027344 L 370.054688 278.394531 L 371.417969 280.542969 L 373.496094 282.691406 L 375.640625 283.765625 L 378.496094 283.765625 L 381.027344 282.691406 L 382.714844 281.347656 L 384.46875 279.199219 L 386.871094 274.636719 L 388.367188 270.339844 L 389.664062 265.242188 L 390.636719 260.140625 L 391.289062 255.84375 L 392.261719 247.519531 L 393.039062 238.394531 L 393.625 228.996094 L 394.015625 219.867188 L 403.105469 219.867188 L 402.714844 230.609375 L 402.132812 241.078125 L 401.546875 248.863281 L 400.636719 258.261719 L 399.597656 266.582031 L 398.105469 275.980469 L 396.871094 282.152344 L 395.25 288.867188 L 393.753906 293.96875 L 392.132812 298.53125 L 389.730469 303.898438 L 388.171875 306.585938 L 386.484375 309 L 384.46875 311.148438 L 381.9375 313.027344 L 379.210938 314.101562 L 376.679688 314.371094 L 373.949219 313.832031 L 371.9375 312.761719 L 369.277344 310.34375 L 365.964844 305.511719 L 363.5625 300.410156 L 361.679688 295.308594 L 360.054688 289.941406 L 358.238281 282.691406 L 355.898438 270.878906 L 354.472656 261.75 L 353.496094 254.234375 L 352.394531 243.761719 L 351.613281 234.367188 L 350.707031 219.332031 L 350.054688 200.269531 L 349.859375 185.503906 Z M 349.859375 148.457031 "/>
<path style=" stroke:none;fill-rule:nonzero;fill:rgb(96.862745%,70.196078%,16.862745%);fill-opacity:1;" d="M 405.90625 146.460938 L 405.972656 146.191406 L 405.972656 140.828125 L 406.230469 128.757812 L 406.882812 112.128906 L 407.726562 98.449219 L 408.632812 87.71875 L 409.21875 82.085938 L 410.191406 74.039062 L 411.039062 68.140625 L 413.179688 56.070312 L 415.90625 44.804688 L 417.402344 39.976562 L 419.089844 35.414062 L 421.492188 30.320312 L 422.59375 28.441406 L 425.972656 24.148438 L 429.800781 21.46875 L 434.023438 20.664062 L 435.972656 20.929688 L 438.632812 22.003906 L 442.269531 24.953125 L 444.347656 27.636719 L 445.96875 30.320312 L 447.660156 33.804688 L 449.738281 39.171875 L 451.683594 45.609375 L 453.242188 52.046875 L 454.800781 60.09375 L 456.101562 68.675781 L 457.203125 78.0625 L 458.175781 89.328125 L 458.761719 98.714844 L 459.152344 108.105469 L 450.125 108.105469 L 449.605469 98.714844 L 449.023438 91.476562 L 448.046875 82.625 L 447.074219 76.1875 L 446.101562 71.089844 L 444.28125 64.117188 L 442.722656 59.824219 L 440.777344 56.070312 L 438.894531 53.65625 L 436.75 52.046875 L 435.453125 51.507812 L 432.011719 51.507812 L 428.894531 53.386719 L 427.074219 55.53125 L 425.777344 57.679688 L 423.957031 61.703125 L 422.855469 64.921875 L 422.207031 67.066406 L 420.257812 75.382812 L 418.957031 82.890625 L 418.246094 87.988281 L 417.335938 96.035156 L 416.6875 103.277344 L 415.972656 114.003906 L 415.582031 122.050781 L 415.0625 140.292969 L 414.996094 188.574219 L 415.191406 198.765625 L 415.582031 209.761719 L 416.101562 219.417969 L 416.882812 229.609375 L 417.660156 237.390625 L 419.023438 247.851562 L 420.191406 254.824219 L 421.101562 259.382812 L 422.855469 266.625 L 423.570312 269.039062 L 425.257812 273.867188 L 427.011719 277.625 L 429.152344 280.84375 L 430.777344 282.453125 L 433.375 283.792969 L 436.683594 283.792969 L 440.582031 282.183594 L 443.046875 280.039062 L 444.738281 277.890625 L 445.839844 276.015625 L 447.203125 273.0625 L 448.179688 270.382812 L 449.085938 267.429688 L 450.191406 262.871094 L 450.191406 198.765625 L 434.152344 198.496094 L 434.152344 168.457031 L 459.085938 168.1875 L 459.152344 273.0625 L 457.789062 280.304688 L 456.101562 287.28125 L 454.476562 292.644531 L 452.789062 297.203125 L 450.386719 302.300781 L 448.4375 305.519531 L 445.449219 309.273438 L 442.722656 311.6875 L 439.867188 313.296875 L 437.335938 314.101562 L 434.347656 314.371094 L 431.683594 313.835938 L 428.828125 312.226562 L 426.554688 310.078125 L 424.476562 307.398438 L 422.398438 303.910156 L 419.804688 298.277344 L 418.113281 293.71875 L 416.363281 288.085938 L 414.609375 281.378906 L 413.050781 274.136719 L 412.011719 268.503906 L 410.972656 262.066406 L 409.867188 254.019531 L 408.828125 244.898438 L 408.050781 236.585938 L 407.335938 227.195312 L 406.816406 218.34375 L 406.296875 206.277344 L 406.039062 196.621094 L 405.90625 188.304688 Z M 405.90625 146.460938 "/>
<path style=" stroke:none;fill-rule:nonzero;fill:rgb(83.921569%,15.686275%,22.352941%);fill-opacity:1;" d="M 461.953125 20.664062 L 515.199219 20.664062 L 515.199219 52.101562 L 493.007812 52.378906 L 493.007812 314.371094 L 484.078125 314.371094 L 484.078125 52.652344 L 483.949219 52.101562 L 461.953125 52.101562 Z M 461.953125 20.664062 "/>
<path style=" stroke:none;fill-rule:nonzero;fill:rgb(96.862745%,70.196078%,16.862745%);fill-opacity:1;" d="M 518 146.460938 L 518.066406 146.191406 L 518.066406 140.828125 L 518.324219 128.757812 L 518.972656 112.128906 L 519.816406 98.449219 L 520.726562 87.71875 L 521.3125 82.085938 L 522.285156 74.039062 L 523.128906 68.140625 L 525.273438 56.070312 L 528 44.804688 L 529.492188 39.976562 L 531.179688 35.414062 L 533.582031 30.320312 L 534.6875 28.441406 L 538.0625 24.148438 L 541.894531 21.46875 L 546.117188 20.664062 L 548.0625 20.929688 L 550.726562 22.003906 L 554.363281 24.953125 L 556.441406 27.636719 L 558.0625 30.320312 L 559.75 33.804688 L 561.828125 39.171875 L 563.777344 45.609375 L 565.335938 52.046875 L 566.894531 60.09375 L 568.191406 68.675781 L 569.296875 78.0625 L 570.269531 89.328125 L 570.855469 98.714844 L 571.246094 108.105469 L 562.21875 108.105469 L 561.699219 98.714844 L 561.113281 91.476562 L 560.140625 82.625 L 559.167969 76.1875 L 558.191406 71.089844 L 556.375 64.117188 L 554.816406 59.824219 L 552.867188 56.070312 L 550.984375 53.65625 L 548.84375 52.046875 L 547.542969 51.507812 L 544.101562 51.507812 L 540.984375 53.386719 L 539.167969 55.53125 L 537.871094 57.679688 L 536.050781 61.703125 L 534.949219 64.921875 L 534.296875 67.066406 L 532.351562 75.382812 L 531.050781 82.890625 L 530.335938 87.988281 L 529.429688 96.035156 L 528.777344 103.277344 L 528.066406 114.003906 L 527.675781 122.050781 L 527.15625 140.292969 L 527.089844 188.574219 L 527.285156 198.765625 L 527.675781 209.761719 L 528.195312 219.417969 L 528.972656 229.609375 L 529.753906 237.390625 L 531.117188 247.851562 L 532.285156 254.824219 L 533.195312 259.382812 L 534.949219 266.625 L 535.660156 269.039062 L 537.351562 273.867188 L 539.101562 277.625 L 541.246094 280.84375 L 542.867188 282.453125 L 545.464844 283.792969 L 548.777344 283.792969 L 552.671875 282.183594 L 555.140625 280.039062 L 556.828125 277.890625 L 557.933594 276.015625 L 559.296875 273.0625 L 560.269531 270.382812 L 561.179688 267.429688 L 562.285156 262.871094 L 562.285156 198.765625 L 546.246094 198.496094 L 546.246094 168.457031 L 571.179688 168.1875 L 571.246094 273.0625 L 569.878906 280.304688 L 568.191406 287.28125 L 566.570312 292.644531 L 564.882812 297.203125 L 562.476562 302.300781 L 560.53125 305.519531 L 557.542969 309.273438 L 554.816406 311.6875 L 551.960938 313.296875 L 549.425781 314.101562 L 546.441406 314.371094 L 543.777344 313.835938 L 540.921875 312.226562 L 538.648438 310.078125 L 536.570312 307.398438 L 534.492188 303.910156 L 531.894531 298.277344 L 530.207031 293.71875 L 528.453125 288.085938 L 526.699219 281.378906 L 525.144531 274.136719 L 524.105469 268.503906 L 523.066406 262.066406 L 521.960938 254.019531 L 520.921875 244.898438 L 520.144531 236.585938 L 519.429688 227.195312 L 518.910156 218.34375 L 518.390625 206.277344 L 518.128906 196.621094 L 518 188.304688 Z M 518 146.460938 "/>
<path style=" stroke:none;fill-rule:nonzero;fill:rgb(14.509804%,36.078431%,60%);fill-opacity:1;" d="M 574.046875 202.878906 L 574.113281 202.78125 L 574.113281 200.433594 L 574.304688 196.714844 L 574.761719 192.019531 L 575.214844 188.792969 L 576.382812 183.019531 L 578.007812 177.445312 L 579.695312 173.140625 L 580.929688 170.597656 L 582.035156 168.640625 L 584.566406 165.019531 L 586.1875 163.164062 L 587.941406 161.5 L 590.085938 159.835938 L 591.644531 158.859375 L 595.148438 157.292969 L 597.746094 156.609375 L 599.757812 156.316406 L 604.109375 156.316406 L 606.707031 156.707031 L 608.589844 157.195312 L 610.667969 157.976562 L 612.421875 158.859375 L 615.472656 161.011719 L 618.199219 163.75 L 619.433594 165.3125 L 621.382812 168.347656 L 622.875 171.28125 L 623.914062 173.824219 L 625.082031 177.445312 L 626.121094 181.847656 L 626.902344 186.835938 L 627.289062 191.042969 L 618.199219 191.042969 L 617.746094 187.128906 L 617.226562 184.097656 L 616.253906 180.085938 L 615.277344 177.25 L 613.914062 174.410156 L 612.679688 172.554688 L 610.992188 170.695312 L 609.5 169.519531 L 607.941406 168.640625 L 606.449219 168.054688 L 603.589844 167.464844 L 600.277344 167.464844 L 599.046875 167.664062 L 596.511719 168.445312 L 595.148438 169.128906 L 593.203125 170.5 L 591.839844 171.769531 L 590.214844 173.726562 L 589.109375 175.390625 L 587.746094 177.933594 L 586.773438 180.183594 L 585.667969 183.410156 L 585.019531 185.855469 L 584.4375 188.59375 L 583.917969 191.824219 L 583.527344 195.246094 L 583.265625 198.867188 L 583.136719 202.386719 L 583.136719 217.550781 L 583.265625 221.070312 L 583.589844 225.179688 L 584.4375 231.148438 L 585.667969 236.332031 L 587.097656 240.441406 L 588.460938 243.375 L 589.242188 244.746094 L 590.28125 246.308594 L 591.902344 248.265625 L 594.242188 250.222656 L 595.605469 251.003906 L 597.683594 251.789062 L 599.824219 252.179688 L 602.679688 252.179688 L 605.214844 251.789062 L 606.902344 251.296875 L 608.65625 250.515625 L 611.058594 248.851562 L 612.550781 247.289062 L 613.851562 245.429688 L 614.824219 243.570312 L 615.472656 242.003906 L 616.445312 238.972656 L 617.226562 235.648438 L 617.8125 232.222656 L 618.199219 228.898438 L 627.289062 228.898438 L 626.902344 232.808594 L 626.316406 236.625 L 625.730469 239.460938 L 624.824219 242.886719 L 623.785156 245.917969 L 622.289062 249.34375 L 621.058594 251.59375 L 619.433594 254.039062 L 617.941406 255.894531 L 616.316406 257.558594 L 613.914062 259.515625 L 612.355469 260.492188 L 610.667969 261.375 L 608.65625 262.15625 L 606.121094 262.839844 L 603.394531 263.234375 L 600.863281 263.332031 L 598.136719 263.132812 L 596.125 262.742188 L 593.460938 261.863281 L 590.148438 260.101562 L 587.746094 258.242188 L 585.863281 256.386719 L 584.242188 254.429688 L 582.421875 251.789062 L 580.085938 247.484375 L 578.65625 244.15625 L 577.683594 241.417969 L 576.578125 237.605469 L 575.800781 234.179688 L 574.890625 228.703125 L 574.242188 221.757812 L 574.046875 216.375 Z M 574.046875 202.878906 "/>
<path style=" stroke:none;fill-rule:nonzero;fill:rgb(83.921569%,15.686275%,22.352941%);fill-opacity:1;" d="M 574.046875 264.511719 L 627.289062 264.511719 L 627.289062 269.820312 L 605.101562 269.863281 L 605.101562 314.105469 L 596.171875 314.105469 L 596.171875 269.910156 L 596.042969 269.820312 L 574.046875 269.820312 Z M 574.046875 264.511719 "/>
<path style=" stroke:none;fill-rule:nonzero;fill:rgb(6.27451%,58.823529%,28.235294%);fill-opacity:1;" d="M 630.09375 314.316406 L 630.148438 314.261719 L 653.1875 255.949219 L 660.183594 255.949219 L 683.335938 314.371094 L 675.203125 314.371094 L 669.398438 299.121094 L 643.972656 299.121094 L 638.285156 314.316406 L 630.09375 314.316406 L 646.417969 292.8125 L 667.066406 292.757812 L 656.773438 265.492188 L 656.65625 265.4375 L 656.542969 265.601562 L 646.363281 292.757812 L 646.417969 292.8125 Z M 630.09375 314.316406 "/>
<path style=" stroke:none;fill-rule:nonzero;fill:rgb(96.862745%,70.196078%,16.862745%);fill-opacity:1;" d="M 630.09375 202.292969 L 630.15625 202.210938 L 630.15625 200.53125 L 630.417969 196.761719 L 631.066406 191.5625 L 631.910156 187.289062 L 632.820312 183.933594 L 633.40625 182.175781 L 634.378906 179.660156 L 635.222656 177.816406 L 637.367188 174.042969 L 640.09375 170.523438 L 641.585938 169.015625 L 643.273438 167.589844 L 645.675781 165.996094 L 646.78125 165.410156 L 650.15625 164.066406 L 653.988281 163.230469 L 658.207031 162.976562 L 660.15625 163.0625 L 662.820312 163.398438 L 666.453125 164.320312 L 668.53125 165.15625 L 670.15625 165.996094 L 671.84375 167.085938 L 673.921875 168.761719 L 675.871094 170.773438 L 677.429688 172.785156 L 678.988281 175.300781 L 680.285156 177.984375 L 681.390625 180.917969 L 682.363281 184.4375 L 682.949219 187.371094 L 683.335938 190.304688 L 674.3125 190.304688 L 673.792969 187.371094 L 673.207031 185.109375 L 672.234375 182.34375 L 671.257812 180.332031 L 670.285156 178.738281 L 668.46875 176.558594 L 666.910156 175.21875 L 664.960938 174.042969 L 663.078125 173.289062 L 660.9375 172.785156 L 659.636719 172.617188 L 656.195312 172.617188 L 653.078125 173.207031 L 651.261719 173.875 L 649.960938 174.546875 L 648.144531 175.804688 L 647.039062 176.808594 L 646.390625 177.480469 L 644.441406 180.078125 L 643.144531 182.425781 L 642.429688 184.019531 L 641.519531 186.535156 L 640.871094 188.796875 L 640.15625 192.148438 L 639.769531 194.664062 L 639.25 200.363281 L 639.183594 215.453125 L 639.378906 218.640625 L 639.769531 222.074219 L 640.289062 225.09375 L 641.066406 228.277344 L 641.84375 230.710938 L 643.210938 233.980469 L 644.378906 236.160156 L 645.285156 237.582031 L 647.039062 239.847656 L 647.753906 240.601562 L 649.441406 242.109375 L 651.195312 243.285156 L 653.339844 244.289062 L 654.960938 244.792969 L 657.558594 245.210938 L 660.871094 245.210938 L 664.765625 244.710938 L 667.234375 244.039062 L 668.921875 243.367188 L 670.027344 242.78125 L 671.390625 241.859375 L 672.363281 241.019531 L 673.273438 240.097656 L 674.375 238.671875 L 674.375 218.640625 L 658.339844 218.554688 L 658.339844 209.167969 L 683.273438 209.082031 L 683.335938 241.859375 L 681.972656 244.121094 L 680.285156 246.300781 L 678.660156 247.976562 L 676.972656 249.402344 L 674.570312 250.996094 L 672.625 252.003906 L 669.636719 253.175781 L 666.910156 253.929688 L 664.050781 254.433594 L 661.519531 254.683594 L 658.53125 254.769531 L 655.871094 254.601562 L 653.015625 254.097656 L 650.742188 253.425781 L 648.664062 252.589844 L 646.585938 251.5 L 643.988281 249.738281 L 642.300781 248.3125 L 640.546875 246.554688 L 638.792969 244.457031 L 637.234375 242.195312 L 636.195312 240.433594 L 635.15625 238.421875 L 634.054688 235.90625 L 633.015625 233.058594 L 632.234375 230.457031 L 631.523438 227.523438 L 631.003906 224.757812 L 630.484375 220.984375 L 630.222656 217.96875 L 630.09375 215.371094 Z M 630.09375 202.292969 "/>
<g style="fill:rgb(0%,0%,0%);fill-opacity:1;">
  <use xlink:href="#glyph0-1" x="21.957031" y="318.198242"/>
  <use xlink:href="#glyph0-2" x="27.291016" y="318.198242"/>
  <use xlink:href="#glyph0-1" x="29.958008" y="318.198242"/>
</g>
<g style="fill:rgb(0%,0%,0%);fill-opacity:1;">
  <use xlink:href="#glyph0-1" x="21.957031" y="244.475586"/>
  <use xlink:href="#glyph0-2" x="27.291016" y="244.475586"/>
  <use xlink:href="#glyph0-3" x="29.958008" y="244.475586"/>
</g>
<g style="fill:rgb(0%,0%,0%);fill-opacity:1;">
  <use xlink:href="#glyph0-4" x="21.957031" y="170.75293"/>
  <use xlink:href="#glyph0-2" x="27.291016" y="170.75293"/>
  <use xlink:href="#glyph0-1" x="29.958008" y="170.75293"/>
</g>
<g style="fill:rgb(0%,0%,0%);fill-opacity:1;">
  <use xlink:href="#glyph0-4" x="21.957031" y="97.03418"/>
  <use xlink:href="#glyph0-2" x="27.291016" y="97.03418"/>
  <use xlink:href="#glyph0-3" x="29.958008" y="97.03418"/>
</g>
<g style="fill:rgb(0%,0%,0%);fill-opacity:1;">
  <use xlink:href="#glyph0-5" x="21.957031" y="23.311523"/>
  <use xlink:href="#glyph0-2" x="27.291016" y="23.311523"/>
  <use xlink:href="#glyph0-1" x="29.958008" y="23.311523"/>
</g>
<g style="fill:rgb(0%,0%,0%);fill-opacity:1;">
  <use xlink:href="#glyph0-4" x="93.25" y="338.19043"/>
</g>
<g style="fill:rgb(0%,0%,0%);fill-opacity:1;">
  <use xlink:href="#glyph0-5" x="149.296875" y="338.19043"/>
</g>
<g style="fill:rgb(0%,0%,0%);fill-opacity:1;">
  <use xlink:href="#glyph0-6" x="205.34375" y="338.19043"/>
</g>
<g style="fill:rgb(0%,0%,0%);fill-opacity:1;">
  <use xlink:href="#glyph0-7" x="261.390625" y="338.19043"/>
</g>
<g style="fill:rgb(0%,0%,0%);fill-opacity:1;">
  <use xlink:href="#glyph0-3" x="317.4375" y="338.19043"/>
</g>
<g style="fill:rgb(0%,0%,0%);fill-opacity:1;">
  <use xlink:href="#glyph0-8" x="373.484375" y="338.19043"/>
</g>
<g style="fill:rgb(0%,0%,0%);fill-opacity:1;">
  <use xlink:href="#glyph0-9" x="429.53125" y="338.19043"/>
</g>
<g style="fill:rgb(0%,0%,0%);fill-opacity:1;">
  <use xlink:href="#glyph0-10" x="485.574219" y="338.19043"/>
</g>
<g style="fill:rgb(0%,0%,0%);fill-opacity:1;">
  <use xlink:href="#glyph0-11" x="541.621094" y="338.19043"/>
</g>
<g style="fill:rgb(0%,0%,0%);fill-opacity:1;">
  <use xlink:href="#glyph0-4" x="595.167969" y="338.19043"/>
  <use xlink:href="#glyph0-1" x="600.501953" y="338.19043"/>
</g>
<g style="fill:rgb(0%,0%,0%);fill-opacity:1;">
  <use xlink:href="#glyph0-4" x="651.214844" y="338.19043"/>
  <use xlink:href="#glyph0-4" x="656.548828" y="338.19043"/>
</g>
<g style="fill:rgb(0%,0%,0%);fill-opacity:1;">
  <use xlink:href="#glyph1-1" x="14.412109" y="178.015625"/>
  <use xlink:href="#glyph1-2" x="14.412109" y="170.011719"/>
  <use xlink:href="#glyph1-3" x="14.412109" y="167.347656"/>
  <use xlink:href="#glyph1-4" x="14.412109" y="164.011719"/>
</g>
</g>
</svg>
