<?xml version="1.0" encoding="UTF-8"?>
<svg xmlns="http://www.w3.org/2000/svg" xmlns:xlink="http://www.w3.org/1999/xlink" width="720pt" height="360pt" viewBox="0 0 720 360" version="1.1">
<defs>
<g>
<symbol overflow="visible" id="glyph0-0">
<path style="stroke:none;" d=""/>
</symbol>
<symbol overflow="visible" id="glyph0-1">
<path style="stroke:none;" d="M 2.640625 -6.796875 C 2 -6.796875 1.421875 -6.53125 1.078125 -6.046875 C 0.640625 -5.453125 0.40625 -4.546875 0.40625 -3.296875 C 0.40625 -1 1.1875 0.21875 2.640625 0.21875 C 4.078125 0.21875 4.859375 -1 4.859375 -3.234375 C 4.859375 -4.5625 4.65625 -5.4375 4.203125 -6.046875 C 3.84375 -6.53125 3.28125 -6.796875 2.640625 -6.796875 Z M 2.640625 -6.046875 C 3.546875 -6.046875 4 -5.125 4 -3.3125 C 4 -1.375 3.5625 -0.484375 2.625 -0.484375 C 1.734375 -0.484375 1.28125 -1.421875 1.28125 -3.28125 C 1.28125 -5.140625 1.734375 -6.046875 2.640625 -6.046875 Z M 2.640625 -6.046875 "/>
</symbol>
<symbol overflow="visible" id="glyph0-2">
<path style="stroke:none;" d="M 1.828125 -1 L 0.828125 -1 L 0.828125 0 L 1.828125 0 Z M 1.828125 -1 "/>
</symbol>
<symbol overflow="visible" id="glyph0-3">
<path style="stroke:none;" d="M 4.5625 -6.796875 L 1.0625 -6.796875 L 0.546875 -3.09375 L 1.328125 -3.09375 C 1.71875 -3.5625 2.046875 -3.734375 2.578125 -3.734375 C 3.484375 -3.734375 4.0625 -3.109375 4.0625 -2.09375 C 4.0625 -1.125 3.484375 -0.53125 2.578125 -0.53125 C 1.828125 -0.53125 1.375 -0.90625 1.1875 -1.671875 L 0.328125 -1.671875 C 0.453125 -1.109375 0.546875 -0.84375 0.75 -0.59375 C 1.125 -0.078125 1.828125 0.21875 2.59375 0.21875 C 3.96875 0.21875 4.921875 -0.78125 4.921875 -2.21875 C 4.921875 -3.5625 4.03125 -4.484375 2.71875 -4.484375 C 2.25 -4.484375 1.859375 -4.359375 1.46875 -4.0625 L 1.734375 -5.96875 L 4.5625 -5.96875 Z M 4.5625 -6.796875 "/>
</symbol>
<symbol overflow="visible" id="glyph0-4">
<path style="stroke:none;" d="M 2.484375 -4.84375 L 2.484375 0 L 3.328125 0 L 3.328125 -6.796875 L 2.765625 -6.796875 C 2.46875 -5.75 2.28125 -5.609375 0.984375 -5.453125 L 0.984375 -4.84375 Z M 2.484375 -4.84375 "/>
</symbol>
<symbol overflow="visible" id="glyph0-5">
<path style="stroke:none;" d="M 4.859375 -0.828125 L 1.28125 -0.828125 C 1.359375 -1.390625 1.671875 -1.75 2.5 -2.234375 L 3.46875 -2.75 C 4.40625 -3.265625 4.90625 -3.96875 4.90625 -4.8125 C 4.90625 -5.375 4.671875 -5.90625 4.265625 -6.265625 C 3.859375 -6.625 3.375 -6.796875 2.71875 -6.796875 C 1.859375 -6.796875 1.21875 -6.5 0.84375 -5.921875 C 0.609375 -5.5625 0.5 -5.125 0.484375 -4.4375 L 1.328125 -4.4375 C 1.359375 -4.90625 1.40625 -5.1875 1.53125 -5.40625 C 1.75 -5.8125 2.1875 -6.0625 2.703125 -6.0625 C 3.46875 -6.0625 4.03125 -5.515625 4.03125 -4.78125 C 4.03125 -4.25 3.71875 -3.796875 3.125 -3.4375 L 2.234375 -2.9375 C 0.8125 -2.140625 0.40625 -1.5 0.328125 0 L 4.859375 0 Z M 4.859375 -0.828125 "/>
</symbol>
<symbol overflow="visible" id="glyph0-6">
<path style="stroke:none;" d="M 2.125 -3.125 L 2.578125 -3.125 C 3.515625 -3.125 3.984375 -2.703125 3.984375 -1.890625 C 3.984375 -1.03125 3.46875 -0.53125 2.578125 -0.53125 C 1.65625 -0.53125 1.203125 -0.984375 1.15625 -1.96875 L 0.3125 -1.96875 C 0.34375 -1.421875 0.4375 -1.078125 0.609375 -0.765625 C 0.953125 -0.109375 1.625 0.21875 2.546875 0.21875 C 3.953125 0.21875 4.859375 -0.609375 4.859375 -1.90625 C 4.859375 -2.765625 4.515625 -3.25 3.703125 -3.515625 C 4.34375 -3.765625 4.65625 -4.25 4.65625 -4.9375 C 4.65625 -6.109375 3.875 -6.796875 2.578125 -6.796875 C 1.203125 -6.796875 0.484375 -6.046875 0.453125 -4.609375 L 1.296875 -4.609375 C 1.3125 -5.015625 1.34375 -5.25 1.453125 -5.453125 C 1.640625 -5.828125 2.0625 -6.0625 2.59375 -6.0625 C 3.34375 -6.0625 3.796875 -5.625 3.796875 -4.90625 C 3.796875 -4.421875 3.609375 -4.140625 3.25 -3.984375 C 3.015625 -3.890625 2.71875 -3.84375 2.125 -3.84375 Z M 2.125 -3.125 "/>
</symbol>
<symbol overflow="visible" id="glyph0-7">
<path style="stroke:none;" d="M 3.140625 -1.625 L 3.140625 0 L 3.984375 0 L 3.984375 -1.625 L 4.984375 -1.625 L 4.984375 -2.390625 L 3.984375 -2.390625 L 3.984375 -6.796875 L 3.359375 -6.796875 L 0.265625 -2.515625 L 0.265625 -1.625 Z M 3.140625 -2.390625 L 1 -2.390625 L 3.140625 -5.359375 Z M 3.140625 -2.390625 "/>
</symbol>
<symbol overflow="visible" id="glyph0-8">
<path style="stroke:none;" d="M 4.78125 -5.03125 C 4.609375 -6.140625 3.890625 -6.796875 2.84375 -6.796875 C 2.09375 -6.796875 1.421875 -6.4375 1.03125 -5.828125 C 0.609375 -5.171875 0.40625 -4.34375 0.40625 -3.09375 C 0.40625 -1.953125 0.578125 -1.234375 0.984375 -0.625 C 1.359375 -0.078125 1.953125 0.21875 2.703125 0.21875 C 3.984375 0.21875 4.921875 -0.734375 4.921875 -2.078125 C 4.921875 -3.34375 4.0625 -4.234375 2.84375 -4.234375 C 2.171875 -4.234375 1.640625 -3.96875 1.28125 -3.46875 C 1.28125 -5.125 1.828125 -6.046875 2.796875 -6.046875 C 3.390625 -6.046875 3.796875 -5.671875 3.9375 -5.03125 Z M 2.734375 -3.484375 C 3.546875 -3.484375 4.0625 -2.921875 4.0625 -2 C 4.0625 -1.15625 3.484375 -0.53125 2.703125 -0.53125 C 1.921875 -0.53125 1.328125 -1.1875 1.328125 -2.046875 C 1.328125 -2.890625 1.90625 -3.484375 2.734375 -3.484375 Z M 2.734375 -3.484375 "/>
</symbol>
<symbol overflow="visible" id="glyph0-9">
<path style="stroke:none;" d="M 4.984375 -6.796875 L 0.4375 -6.796875 L 0.4375 -5.96875 L 4.109375 -5.96875 C 2.5 -3.65625 1.828125 -2.234375 1.328125 0 L 2.21875 0 C 2.59375 -2.171875 3.453125 -4.046875 4.984375 -6.09375 Z M 4.984375 -6.796875 "/>
</symbol>
<symbol overflow="visible" id="glyph0-10">
<path style="stroke:none;" d="M 3.75 -3.578125 C 4.453125 -4 4.6875 -4.34375 4.6875 -4.984375 C 4.6875 -6.046875 3.84375 -6.796875 2.640625 -6.796875 C 1.4375 -6.796875 0.59375 -6.046875 0.59375 -4.984375 C 0.59375 -4.359375 0.828125 -4.015625 1.515625 -3.578125 C 0.734375 -3.203125 0.359375 -2.640625 0.359375 -1.890625 C 0.359375 -0.640625 1.296875 0.21875 2.640625 0.21875 C 3.984375 0.21875 4.921875 -0.640625 4.921875 -1.875 C 4.921875 -2.640625 4.53125 -3.203125 3.75 -3.578125 Z M 2.640625 -6.046875 C 3.359375 -6.046875 3.8125 -5.625 3.8125 -4.96875 C 3.8125 -4.34375 3.34375 -3.921875 2.640625 -3.921875 C 1.921875 -3.921875 1.453125 -4.34375 1.453125 -4.984375 C 1.453125 -5.625 1.921875 -6.046875 2.640625 -6.046875 Z M 2.640625 -3.203125 C 3.484375 -3.203125 4.0625 -2.671875 4.0625 -1.875 C 4.0625 -1.0625 3.484375 -0.53125 2.625 -0.53125 C 1.796875 -0.53125 1.21875 -1.078125 1.21875 -1.875 C 1.21875 -2.671875 1.796875 -3.203125 2.640625 -3.203125 Z M 2.640625 -3.203125 "/>
</symbol>
<symbol overflow="visible" id="glyph0-11">
<path style="stroke:none;" d="M 0.515625 -1.546875 C 0.671875 -0.4375 1.40625 0.21875 2.4375 0.21875 C 3.1875 0.21875 3.859375 -0.140625 4.265625 -0.75 C 4.6875 -1.40625 4.890625 -2.25 4.890625 -3.484375 C 4.890625 -4.625 4.703125 -5.359375 4.3125 -5.953125 C 3.9375 -6.5 3.34375 -6.796875 2.59375 -6.796875 C 1.296875 -6.796875 0.359375 -5.84375 0.359375 -4.515625 C 0.359375 -3.25 1.234375 -2.34375 2.453125 -2.34375 C 3.09375 -2.34375 3.5625 -2.578125 4.015625 -3.109375 C 4 -1.453125 3.46875 -0.53125 2.5 -0.53125 C 1.90625 -0.53125 1.484375 -0.90625 1.359375 -1.546875 Z M 2.578125 -6.0625 C 3.375 -6.0625 3.96875 -5.40625 3.96875 -4.53125 C 3.96875 -3.6875 3.375 -3.09375 2.546875 -3.09375 C 1.734375 -3.09375 1.234375 -3.671875 1.234375 -4.578125 C 1.234375 -5.4375 1.796875 -6.0625 2.578125 -6.0625 Z M 2.578125 -6.0625 "/>
</symbol>
<symbol overflow="visible" id="glyph1-0">
<path style="stroke:none;" d=""/>
</symbol>
<symbol overflow="visible" id="glyph1-1">
<path style="stroke:none;" d="M 0 -0.953125 L 0 -4.890625 C 0 -5.71875 -0.234375 -6.34375 -0.734375 -6.796875 C -1.1875 -7.234375 -1.8125 -7.46875 -2.5 -7.46875 C -3.546875 -7.46875 -4.1875 -7 -4.625 -5.875 C -4.984375 -6.671875 -5.640625 -7.09375 -6.53125 -7.09375 C -7.15625 -7.09375 -7.734375 -6.859375 -8.140625 -6.390625 C -8.5625 -5.9375 -8.75 -5.34375 -8.75 -4.5 L -8.75 -0.953125 Z M -4.984375 -2.0625 L -7.765625 -2.0625 L -7.765625 -4.21875 C -7.765625 -4.84375 -7.6875 -5.203125 -7.453125 -5.5 C -7.21875 -5.8125 -6.859375 -5.96875 -6.375 -5.96875 C -5.90625 -5.96875 -5.53125 -5.8125 -5.296875 -5.5 C -5.0625 -5.203125 -4.984375 -4.84375 -4.984375 -4.21875 Z M -0.984375 -2.0625 L -4 -2.0625 L -4 -4.78125 C -4 -5.328125 -3.859375 -5.6875 -3.578125 -5.953125 C -3.296875 -6.21875 -2.921875 -6.359375 -2.484375 -6.359375 C -2.0625 -6.359375 -1.6875 -6.21875 -1.40625 -5.953125 C -1.109375 -5.6875 -0.984375 -5.328125 -0.984375 -4.78125 Z M -0.984375 -2.0625 "/>
</symbol>
<symbol overflow="visible" id="glyph1-2">
<path style="stroke:none;" d="M -6.28125 -1.796875 L -6.28125 -0.796875 L 0 -0.796875 L 0 -1.796875 Z M -8.75 -1.796875 L -8.75 -0.796875 L -7.484375 -0.796875 L -7.484375 -1.796875 Z M -8.75 -1.796875 "/>
</symbol>
<symbol overflow="visible" id="glyph1-3">
<path style="stroke:none;" d="M -6.28125 -3.046875 L -6.28125 -2.015625 L -8.015625 -2.015625 L -8.015625 -1.015625 L -6.28125 -1.015625 L -6.28125 -0.171875 L -5.46875 -0.171875 L -5.46875 -1.015625 L -0.71875 -1.015625 C -0.078125 -1.015625 0.28125 -1.453125 0.28125 -2.234375 C 0.28125 -2.46875 0.25 -2.71875 0.1875 -3.046875 L -0.640625 -3.046875 C -0.609375 -2.921875 -0.59375 -2.765625 -0.59375 -2.5625 C -0.59375 -2.140625 -0.71875 -2.015625 -1.15625 -2.015625 L -5.46875 -2.015625 L -5.46875 -3.046875 Z M -6.28125 -3.046875 "/>
</symbol>
<symbol overflow="visible" id="glyph1-4">
<path style="stroke:none;" d="M -4.53125 -5.25 C -5.765625 -5.25 -6.46875 -4.421875 -6.46875 -2.96875 C -6.46875 -1.515625 -5.71875 -0.5625 -4.546875 -0.5625 C -3.5625 -0.5625 -3.09375 -1.0625 -2.734375 -2.5625 L -2.515625 -3.484375 C -2.34375 -4.1875 -2.09375 -4.46875 -1.625 -4.46875 C -1.046875 -4.46875 -0.640625 -3.875 -0.640625 -3 C -0.640625 -2.453125 -0.796875 -2 -1.0625 -1.75 C -1.25 -1.59375 -1.421875 -1.53125 -1.875 -1.46875 L -1.875 -0.40625 C -0.421875 -0.453125 0.28125 -1.265625 0.28125 -2.921875 C 0.28125 -4.5 -0.5 -5.515625 -1.71875 -5.515625 C -2.65625 -5.515625 -3.171875 -4.984375 -3.46875 -3.734375 L -3.703125 -2.765625 C -3.890625 -1.953125 -4.15625 -1.609375 -4.59375 -1.609375 C -5.171875 -1.609375 -5.546875 -2.125 -5.546875 -2.9375 C -5.546875 -3.75 -5.203125 -4.171875 -4.53125 -4.203125 Z M -4.53125 -5.25 "/>
</symbol>
</g>
</defs>
<g id="surface129119">
<rect x="0" y="0" width="720" height="360" style="fill:rgb(100%,100%,100%);fill-opacity:1;stroke:none;"/>
<path style=" stroke:none;fill-rule:nonzero;fill:rgb(6.27451%,58.823529%,28.235294%);fill-opacity:1;" d="M 69.628906 304.242188 L 69.691406 304.238281 L 95.046875 297.988281 L 102.746094 297.988281 L 128.222656 304.25 L 119.273438 304.25 L 112.886719 302.613281 L 84.902344 302.613281 L 78.644531 304.242188 L 69.628906 304.242188 L 87.597656 301.9375 L 110.320312 301.933594 L 98.988281 299.011719 L 98.863281 299.003906 L 98.738281 299.023438 L 87.535156 301.933594 L 87.597656 301.9375 Z M 69.628906 304.242188 "/>
<path style=" stroke:none;fill-rule:nonzero;fill:rgb(14.509804%,36.078431%,60%);fill-opacity:1;" d="M 69.628906 313.519531 L 69.699219 313.519531 L 69.699219 313.488281 L 69.914062 313.433594 L 70.414062 313.367188 L 70.914062 313.324219 L 72.203125 313.242188 L 73.988281 313.164062 L 75.847656 313.101562 L 77.203125 313.066406 L 78.417969 313.039062 L 81.207031 312.988281 L 82.992188 312.960938 L 84.921875 312.9375 L 87.28125 312.917969 L 88.996094 312.902344 L 92.851562 312.878906 L 95.710938 312.871094 L 97.925781 312.867188 L 102.714844 312.867188 L 105.574219 312.871094 L 107.644531 312.878906 L 109.929688 312.890625 L 111.859375 312.902344 L 115.21875 312.933594 L 118.21875 312.972656 L 119.578125 312.992188 L 121.722656 313.035156 L 123.367188 313.078125 L 124.507812 313.113281 L 125.796875 313.164062 L 126.9375 313.226562 L 127.796875 313.296875 L 128.222656 313.355469 L 118.21875 313.355469 L 117.71875 313.300781 L 117.148438 313.257812 L 116.078125 313.199219 L 115.003906 313.160156 L 113.503906 313.121094 L 112.148438 313.09375 L 110.289062 313.070312 L 108.644531 313.050781 L 106.929688 313.039062 L 105.285156 313.03125 L 102.140625 313.023438 L 98.5 313.023438 L 97.140625 313.027344 L 94.355469 313.035156 L 92.851562 313.046875 L 90.710938 313.066406 L 89.207031 313.082031 L 87.421875 313.109375 L 86.207031 313.132812 L 84.707031 313.171875 L 83.636719 313.203125 L 82.421875 313.246094 L 81.707031 313.28125 L 81.0625 313.320312 L 80.492188 313.367188 L 80.0625 313.414062 L 79.777344 313.464844 L 79.632812 313.515625 L 79.632812 313.726562 L 79.777344 313.777344 L 80.132812 313.835938 L 81.0625 313.917969 L 82.421875 313.992188 L 83.992188 314.050781 L 85.492188 314.089844 L 86.351562 314.109375 L 87.492188 314.132812 L 89.28125 314.160156 L 91.851562 314.1875 L 93.351562 314.199219 L 95.640625 314.207031 L 97.996094 314.214844 L 101.140625 314.214844 L 103.929688 314.207031 L 105.785156 314.203125 L 107.714844 314.191406 L 110.359375 314.167969 L 112.003906 314.144531 L 113.433594 314.117188 L 114.503906 314.09375 L 115.21875 314.070312 L 116.292969 314.027344 L 117.148438 313.980469 L 117.792969 313.933594 L 118.21875 313.886719 L 128.222656 313.886719 L 127.796875 313.941406 L 127.152344 313.996094 L 126.507812 314.035156 L 125.507812 314.082031 L 124.367188 314.125 L 122.722656 314.175781 L 121.363281 314.207031 L 119.578125 314.238281 L 117.933594 314.265625 L 116.148438 314.289062 L 113.503906 314.316406 L 111.789062 314.332031 L 109.929688 314.34375 L 107.714844 314.355469 L 104.929688 314.363281 L 101.929688 314.371094 L 99.140625 314.371094 L 96.140625 314.367188 L 93.925781 314.363281 L 90.996094 314.351562 L 87.351562 314.324219 L 84.707031 314.300781 L 82.632812 314.273438 L 80.847656 314.246094 L 78.847656 314.207031 L 76.273438 314.148438 L 74.703125 314.101562 L 73.632812 314.0625 L 72.417969 314.007812 L 71.558594 313.960938 L 70.558594 313.882812 L 69.84375 313.785156 L 69.628906 313.710938 Z M 69.628906 313.519531 "/>
<path style=" stroke:none;fill-rule:nonzero;fill:rgb(96.862745%,70.196078%,16.862745%);fill-opacity:1;" d="M 69.628906 310.292969 L 69.699219 310.289062 L 69.699219 310.246094 L 69.988281 310.144531 L 70.703125 310.007812 L 71.628906 309.894531 L 72.628906 309.804688 L 73.273438 309.757812 L 74.34375 309.691406 L 75.273438 309.640625 L 77.632812 309.542969 L 80.632812 309.449219 L 82.277344 309.40625 L 84.136719 309.371094 L 86.777344 309.328125 L 87.992188 309.3125 L 91.710938 309.277344 L 95.925781 309.253906 L 100.570312 309.246094 L 102.714844 309.25 L 105.644531 309.257812 L 109.644531 309.28125 L 111.933594 309.304688 L 113.71875 309.328125 L 115.578125 309.355469 L 117.863281 309.402344 L 120.007812 309.453125 L 121.722656 309.507812 L 123.4375 309.574219 L 124.867188 309.644531 L 126.082031 309.722656 L 127.152344 309.816406 L 127.796875 309.894531 L 128.222656 309.972656 L 118.292969 309.972656 L 117.71875 309.894531 L 117.078125 309.835938 L 116.003906 309.761719 L 114.933594 309.707031 L 113.863281 309.667969 L 111.859375 309.609375 L 110.144531 309.574219 L 108.003906 309.542969 L 105.929688 309.523438 L 103.570312 309.507812 L 102.140625 309.503906 L 98.355469 309.503906 L 94.925781 309.519531 L 92.925781 309.539062 L 91.496094 309.554688 L 89.496094 309.589844 L 88.28125 309.613281 L 87.566406 309.632812 L 85.421875 309.703125 L 83.992188 309.765625 L 83.207031 309.808594 L 82.207031 309.875 L 81.492188 309.933594 L 80.707031 310.023438 L 80.277344 310.089844 L 79.703125 310.242188 L 79.632812 310.640625 L 79.847656 310.726562 L 80.277344 310.816406 L 80.847656 310.898438 L 81.707031 310.984375 L 82.5625 311.046875 L 84.0625 311.132812 L 85.351562 311.191406 L 86.351562 311.230469 L 88.28125 311.289062 L 89.066406 311.308594 L 90.921875 311.351562 L 92.851562 311.382812 L 95.210938 311.410156 L 96.996094 311.421875 L 99.855469 311.433594 L 103.5 311.433594 L 107.789062 311.417969 L 110.503906 311.402344 L 112.359375 311.382812 L 113.574219 311.367188 L 115.078125 311.34375 L 116.148438 311.320312 L 117.148438 311.296875 L 118.363281 311.257812 L 118.363281 310.726562 L 100.714844 310.722656 L 100.714844 310.476562 L 128.152344 310.472656 L 128.222656 311.34375 L 126.722656 311.402344 L 124.867188 311.460938 L 123.078125 311.507812 L 121.222656 311.542969 L 118.578125 311.585938 L 116.433594 311.613281 L 113.148438 311.644531 L 110.144531 311.664062 L 107 311.679688 L 104.214844 311.683594 L 100.929688 311.6875 L 97.996094 311.683594 L 94.855469 311.667969 L 92.351562 311.652344 L 90.066406 311.628906 L 87.78125 311.601562 L 84.921875 311.554688 L 83.0625 311.515625 L 81.132812 311.46875 L 79.203125 311.414062 L 77.488281 311.351562 L 76.347656 311.304688 L 75.203125 311.253906 L 73.988281 311.1875 L 72.84375 311.109375 L 71.988281 311.039062 L 71.203125 310.964844 L 70.628906 310.890625 L 70.058594 310.789062 L 69.773438 310.710938 L 69.628906 310.640625 Z M 69.628906 310.292969 "/>
<path style=" stroke:none;fill-rule:nonzero;fill:rgb(83.921569%,15.686275%,22.352941%);fill-opacity:1;" d="M 69.628906 305.429688 L 128.222656 305.429688 L 128.222656 305.710938 L 103.804688 305.714844 L 103.804688 308.066406 L 93.980469 308.066406 L 93.980469 305.714844 L 93.835938 305.710938 L 69.628906 305.710938 Z M 69.628906 305.429688 "/>
<path style=" stroke:none;fill-rule:nonzero;fill:rgb(6.27451%,58.823529%,28.235294%);fill-opacity:1;" d="M 131.308594 291.085938 L 131.371094 291.058594 L 156.726562 263.164062 L 164.425781 263.164062 L 189.902344 291.113281 L 180.953125 291.113281 L 174.566406 283.816406 L 146.582031 283.816406 L 140.324219 291.085938 L 131.308594 291.085938 L 149.273438 280.796875 L 172 280.773438 L 160.667969 267.730469 L 160.542969 267.703125 L 160.417969 267.78125 L 149.210938 280.773438 L 149.273438 280.796875 Z M 131.308594 291.085938 "/>
<path style=" stroke:none;fill-rule:nonzero;fill:rgb(14.509804%,36.078431%,60%);fill-opacity:1;" d="M 131.308594 312.421875 L 131.378906 312.417969 L 131.378906 312.339844 L 131.59375 312.222656 L 132.09375 312.070312 L 132.59375 311.964844 L 133.882812 311.78125 L 135.667969 311.601562 L 137.523438 311.460938 L 138.882812 311.378906 L 140.097656 311.316406 L 142.882812 311.199219 L 144.671875 311.140625 L 146.601562 311.085938 L 148.957031 311.03125 L 150.671875 311 L 154.53125 310.949219 L 157.390625 310.929688 L 159.605469 310.917969 L 164.394531 310.917969 L 167.25 310.929688 L 169.324219 310.945312 L 171.609375 310.972656 L 173.539062 311 L 176.898438 311.070312 L 179.898438 311.160156 L 181.257812 311.207031 L 183.402344 311.308594 L 185.042969 311.402344 L 186.1875 311.484375 L 187.472656 311.601562 L 188.617188 311.742188 L 189.476562 311.902344 L 189.902344 312.039062 L 179.898438 312.039062 L 179.398438 311.914062 L 178.828125 311.816406 L 177.757812 311.683594 L 176.683594 311.59375 L 175.183594 311.503906 L 173.824219 311.441406 L 171.96875 311.382812 L 170.324219 311.34375 L 168.609375 311.316406 L 166.964844 311.296875 L 163.820312 311.277344 L 160.175781 311.277344 L 158.820312 311.285156 L 156.03125 311.308594 L 154.53125 311.332031 L 152.386719 311.375 L 150.886719 311.417969 L 149.101562 311.480469 L 147.886719 311.535156 L 146.386719 311.617188 L 145.3125 311.6875 L 144.097656 311.792969 L 143.386719 311.871094 L 142.742188 311.960938 L 142.171875 312.0625 L 141.742188 312.175781 L 141.457031 312.292969 L 141.3125 312.40625 L 141.3125 312.894531 L 141.457031 313.007812 L 141.8125 313.140625 L 142.742188 313.332031 L 144.097656 313.5 L 145.671875 313.632812 L 147.171875 313.726562 L 148.03125 313.769531 L 149.171875 313.820312 L 150.960938 313.882812 L 153.53125 313.949219 L 155.03125 313.972656 L 157.320312 314 L 159.675781 314.011719 L 162.820312 314.011719 L 165.609375 314 L 167.464844 313.984375 L 169.394531 313.957031 L 172.039062 313.902344 L 173.683594 313.851562 L 175.113281 313.792969 L 176.183594 313.734375 L 176.898438 313.683594 L 177.96875 313.585938 L 178.828125 313.476562 L 179.472656 313.367188 L 179.898438 313.261719 L 189.902344 313.261719 L 189.476562 313.386719 L 188.832031 313.507812 L 188.1875 313.601562 L 187.1875 313.710938 L 186.046875 313.808594 L 184.402344 313.917969 L 183.042969 313.992188 L 181.257812 314.070312 L 179.613281 314.128906 L 177.828125 314.183594 L 175.183594 314.246094 L 173.46875 314.277344 L 171.609375 314.308594 L 169.394531 314.332031 L 166.609375 314.355469 L 163.605469 314.367188 L 160.820312 314.371094 L 157.820312 314.363281 L 155.605469 314.351562 L 152.675781 314.324219 L 149.03125 314.265625 L 146.386719 314.207031 L 144.3125 314.148438 L 142.527344 314.082031 L 140.527344 314 L 137.953125 313.859375 L 136.382812 313.753906 L 135.308594 313.664062 L 134.09375 313.539062 L 133.238281 313.429688 L 132.238281 313.253906 L 131.523438 313.03125 L 131.308594 312.855469 Z M 131.308594 312.421875 "/>
<path style=" stroke:none;fill-rule:nonzero;fill:rgb(96.862745%,70.196078%,16.862745%);fill-opacity:1;" d="M 131.308594 296.164062 L 131.378906 296.15625 L 131.378906 295.988281 L 131.664062 295.617188 L 132.378906 295.105469 L 133.308594 294.6875 L 134.308594 294.355469 L 134.953125 294.183594 L 136.023438 293.933594 L 136.953125 293.753906 L 139.3125 293.382812 L 142.3125 293.035156 L 143.957031 292.886719 L 145.8125 292.746094 L 148.457031 292.589844 L 149.671875 292.53125 L 153.390625 292.398438 L 157.605469 292.316406 L 162.25 292.292969 L 164.394531 292.300781 L 167.324219 292.332031 L 171.324219 292.425781 L 173.613281 292.507812 L 175.398438 292.589844 L 177.253906 292.695312 L 179.542969 292.863281 L 181.6875 293.058594 L 183.402344 293.257812 L 185.117188 293.503906 L 186.546875 293.769531 L 187.761719 294.058594 L 188.832031 294.40625 L 189.476562 294.695312 L 189.902344 294.984375 L 179.972656 294.984375 L 179.398438 294.695312 L 178.757812 294.472656 L 177.683594 294.199219 L 176.613281 294 L 175.539062 293.84375 L 173.539062 293.628906 L 171.824219 293.496094 L 169.679688 293.382812 L 167.609375 293.308594 L 165.25 293.257812 L 163.820312 293.242188 L 160.035156 293.242188 L 156.605469 293.300781 L 154.605469 293.367188 L 153.175781 293.429688 L 151.171875 293.554688 L 149.957031 293.652344 L 149.246094 293.71875 L 147.101562 293.976562 L 145.671875 294.207031 L 144.886719 294.363281 L 143.886719 294.613281 L 143.171875 294.835938 L 142.382812 295.164062 L 141.957031 295.410156 L 141.382812 295.972656 L 141.3125 297.457031 L 141.527344 297.773438 L 141.957031 298.109375 L 142.527344 298.40625 L 143.386719 298.722656 L 144.242188 298.960938 L 145.742188 299.28125 L 147.027344 299.496094 L 148.03125 299.636719 L 149.957031 299.859375 L 150.746094 299.933594 L 152.601562 300.082031 L 154.53125 300.199219 L 156.890625 300.296875 L 158.675781 300.347656 L 161.535156 300.386719 L 165.179688 300.386719 L 169.46875 300.339844 L 172.183594 300.273438 L 174.039062 300.207031 L 175.253906 300.148438 L 176.753906 300.058594 L 177.828125 299.976562 L 178.828125 299.886719 L 180.042969 299.746094 L 180.042969 297.773438 L 162.390625 297.765625 L 162.390625 296.839844 L 189.832031 296.832031 L 189.902344 300.058594 L 188.402344 300.28125 L 186.546875 300.496094 L 184.757812 300.660156 L 182.902344 300.800781 L 180.257812 300.957031 L 178.113281 301.058594 L 174.824219 301.171875 L 171.824219 301.246094 L 168.679688 301.296875 L 165.894531 301.320312 L 162.605469 301.328125 L 159.675781 301.3125 L 156.53125 301.261719 L 154.03125 301.195312 L 151.746094 301.113281 L 149.457031 301.007812 L 146.601562 300.835938 L 144.742188 300.695312 L 142.8125 300.519531 L 140.882812 300.3125 L 139.167969 300.089844 L 138.027344 299.917969 L 136.882812 299.71875 L 135.667969 299.472656 L 134.523438 299.191406 L 133.667969 298.9375 L 132.878906 298.648438 L 132.308594 298.375 L 131.738281 298.003906 L 131.453125 297.707031 L 131.308594 297.449219 Z M 131.308594 296.164062 "/>
<path style=" stroke:none;fill-rule:nonzero;fill:rgb(83.921569%,15.686275%,22.352941%);fill-opacity:1;" d="M 131.308594 302.507812 L 189.902344 302.507812 L 189.902344 303.28125 L 165.484375 303.289062 L 165.484375 309.738281 L 155.65625 309.738281 L 155.65625 303.296875 L 155.515625 303.28125 L 131.308594 303.28125 Z M 131.308594 302.507812 "/>
<path style=" stroke:none;fill-rule:nonzero;fill:rgb(6.27451%,58.823529%,28.235294%);fill-opacity:1;" d="M 192.988281 287.332031 L 193.050781 287.175781 L 218.402344 122.433594 L 226.105469 122.433594 L 251.582031 287.488281 L 242.628906 287.488281 L 236.246094 244.402344 L 208.261719 244.402344 L 202.003906 287.332031 L 192.988281 287.332031 L 210.953125 226.578125 L 233.679688 226.425781 L 222.347656 149.398438 L 222.222656 149.246094 L 222.097656 149.710938 L 210.890625 226.425781 L 210.953125 226.578125 Z M 192.988281 287.332031 "/>
<path style=" stroke:none;fill-rule:nonzero;fill:rgb(14.509804%,36.078431%,60%);fill-opacity:1;" d="M 192.988281 313.925781 L 193.058594 313.925781 L 193.058594 313.90625 L 193.273438 313.878906 L 193.773438 313.84375 L 194.273438 313.820312 L 195.558594 313.777344 L 197.347656 313.738281 L 199.203125 313.707031 L 200.5625 313.6875 L 201.777344 313.671875 L 204.5625 313.644531 L 206.351562 313.632812 L 208.28125 313.621094 L 210.636719 313.609375 L 212.351562 313.601562 L 216.210938 313.589844 L 219.070312 313.585938 L 221.285156 313.582031 L 226.074219 313.582031 L 228.929688 313.585938 L 231.003906 313.589844 L 233.289062 313.59375 L 235.21875 313.601562 L 238.578125 313.617188 L 241.578125 313.636719 L 242.9375 313.648438 L 245.082031 313.671875 L 246.722656 313.691406 L 247.867188 313.710938 L 249.152344 313.738281 L 250.296875 313.769531 L 251.152344 313.808594 L 251.582031 313.839844 L 241.578125 313.839844 L 241.078125 313.808594 L 240.507812 313.785156 L 239.433594 313.757812 L 238.363281 313.738281 L 236.863281 313.714844 L 235.503906 313.703125 L 233.648438 313.6875 L 232.003906 313.679688 L 230.289062 313.671875 L 228.644531 313.667969 L 225.5 313.664062 L 220.5 313.664062 L 217.710938 313.671875 L 216.210938 313.675781 L 214.066406 313.6875 L 212.566406 313.695312 L 210.78125 313.710938 L 209.566406 313.722656 L 208.066406 313.742188 L 206.992188 313.757812 L 205.777344 313.78125 L 205.0625 313.800781 L 204.421875 313.820312 L 203.847656 313.84375 L 203.421875 313.867188 L 203.132812 313.894531 L 202.992188 313.921875 L 202.992188 314.035156 L 203.132812 314.058594 L 203.492188 314.089844 L 204.421875 314.132812 L 205.777344 314.171875 L 207.351562 314.203125 L 208.851562 314.222656 L 209.707031 314.234375 L 210.851562 314.246094 L 212.636719 314.257812 L 215.210938 314.273438 L 216.710938 314.28125 L 219 314.285156 L 221.355469 314.289062 L 224.5 314.289062 L 227.289062 314.285156 L 229.144531 314.28125 L 231.074219 314.277344 L 233.71875 314.265625 L 235.363281 314.253906 L 236.792969 314.238281 L 237.863281 314.226562 L 238.578125 314.214844 L 239.648438 314.191406 L 240.507812 314.167969 L 241.148438 314.140625 L 241.578125 314.117188 L 251.582031 314.117188 L 251.152344 314.144531 L 250.511719 314.175781 L 249.867188 314.195312 L 248.867188 314.21875 L 247.722656 314.242188 L 246.082031 314.269531 L 244.722656 314.285156 L 242.9375 314.300781 L 241.292969 314.316406 L 239.507812 314.328125 L 236.863281 314.34375 L 235.148438 314.351562 L 233.289062 314.355469 L 231.074219 314.363281 L 228.289062 314.367188 L 225.285156 314.371094 L 219.5 314.371094 L 217.285156 314.367188 L 214.351562 314.359375 L 210.710938 314.347656 L 208.066406 314.332031 L 205.992188 314.320312 L 204.207031 314.304688 L 202.207031 314.285156 L 199.632812 314.253906 L 198.0625 314.230469 L 196.988281 314.210938 L 195.773438 314.179688 L 194.917969 314.15625 L 193.917969 314.117188 L 193.203125 314.0625 L 192.988281 314.023438 Z M 192.988281 313.925781 "/>
<path style=" stroke:none;fill-rule:nonzero;fill:rgb(96.862745%,70.196078%,16.862745%);fill-opacity:1;" d="M 192.988281 307.265625 L 193.058594 307.257812 L 193.058594 307.09375 L 193.34375 306.726562 L 194.058594 306.214844 L 194.988281 305.796875 L 195.988281 305.46875 L 196.632812 305.296875 L 197.703125 305.050781 L 198.632812 304.871094 L 200.992188 304.5 L 203.992188 304.15625 L 205.636719 304.007812 L 207.492188 303.871094 L 210.136719 303.714844 L 211.351562 303.65625 L 215.066406 303.523438 L 219.285156 303.441406 L 223.929688 303.417969 L 226.074219 303.425781 L 229.003906 303.460938 L 233.003906 303.550781 L 235.289062 303.632812 L 237.078125 303.714844 L 238.933594 303.820312 L 241.222656 303.984375 L 243.367188 304.183594 L 245.082031 304.378906 L 246.796875 304.625 L 248.222656 304.886719 L 249.4375 305.175781 L 250.511719 305.519531 L 251.152344 305.804688 L 251.582031 306.09375 L 241.648438 306.09375 L 241.078125 305.804688 L 240.433594 305.585938 L 239.363281 305.3125 L 238.292969 305.117188 L 237.21875 304.960938 L 235.21875 304.746094 L 233.503906 304.617188 L 231.359375 304.5 L 229.289062 304.429688 L 226.929688 304.378906 L 225.5 304.363281 L 221.714844 304.363281 L 218.285156 304.417969 L 216.28125 304.484375 L 214.855469 304.550781 L 212.851562 304.675781 L 211.636719 304.773438 L 210.921875 304.839844 L 208.78125 305.09375 L 207.351562 305.320312 L 206.566406 305.476562 L 205.5625 305.722656 L 204.851562 305.945312 L 204.0625 306.273438 L 203.636719 306.519531 L 203.0625 307.078125 L 202.992188 308.554688 L 203.207031 308.867188 L 203.636719 309.203125 L 204.207031 309.5 L 205.0625 309.808594 L 205.921875 310.046875 L 207.421875 310.367188 L 208.707031 310.582031 L 209.707031 310.722656 L 211.636719 310.941406 L 212.425781 311.015625 L 214.28125 311.164062 L 216.210938 311.277344 L 218.570312 311.378906 L 220.355469 311.425781 L 223.214844 311.46875 L 226.859375 311.46875 L 231.144531 311.417969 L 233.863281 311.351562 L 235.71875 311.285156 L 236.933594 311.230469 L 238.433594 311.140625 L 239.507812 311.058594 L 240.507812 310.96875 L 241.722656 310.828125 L 241.722656 308.867188 L 224.070312 308.859375 L 224.070312 307.9375 L 251.511719 307.929688 L 251.582031 311.140625 L 250.082031 311.359375 L 248.222656 311.574219 L 246.4375 311.738281 L 244.578125 311.878906 L 241.9375 312.035156 L 239.792969 312.132812 L 236.503906 312.246094 L 233.503906 312.320312 L 230.359375 312.371094 L 227.574219 312.394531 L 224.285156 312.402344 L 221.355469 312.386719 L 218.210938 312.335938 L 215.710938 312.273438 L 213.425781 312.191406 L 211.136719 312.082031 L 208.28125 311.910156 L 206.421875 311.769531 L 204.492188 311.597656 L 202.5625 311.394531 L 200.847656 311.171875 L 199.703125 311 L 198.5625 310.804688 L 197.347656 310.558594 L 196.203125 310.277344 L 195.347656 310.023438 L 194.558594 309.734375 L 193.988281 309.464844 L 193.417969 309.097656 L 193.128906 308.800781 L 192.988281 308.546875 Z M 192.988281 307.265625 "/>
<path style=" stroke:none;fill-rule:nonzero;fill:rgb(83.921569%,15.686275%,22.352941%);fill-opacity:1;" d="M 192.988281 288.667969 L 251.582031 288.667969 L 251.582031 290.121094 L 227.164062 290.132812 L 227.164062 302.238281 L 217.335938 302.238281 L 217.335938 290.144531 L 217.195312 290.121094 L 192.988281 290.121094 Z M 192.988281 288.667969 "/>
<path style=" stroke:none;fill-rule:nonzero;fill:rgb(96.862745%,70.196078%,16.862745%);fill-opacity:1;" d="M 254.667969 179.03125 L 254.738281 178.863281 L 254.738281 175.492188 L 255.023438 167.914062 L 255.738281 157.476562 L 256.667969 148.886719 L 257.667969 142.152344 L 258.3125 138.613281 L 259.382812 133.5625 L 260.3125 129.855469 L 262.671875 122.28125 L 265.671875 115.207031 L 267.316406 112.175781 L 269.171875 109.3125 L 271.816406 106.113281 L 273.03125 104.933594 L 276.746094 102.238281 L 280.964844 100.554688 L 285.609375 100.050781 L 287.75 100.21875 L 290.679688 100.890625 L 294.683594 102.746094 L 296.96875 104.429688 L 298.757812 106.113281 L 300.613281 108.300781 L 302.902344 111.671875 L 305.042969 115.710938 L 306.757812 119.753906 L 308.472656 124.804688 L 309.902344 130.195312 L 311.117188 136.089844 L 312.191406 143.160156 L 312.832031 149.054688 L 313.261719 154.949219 L 303.328125 154.949219 L 302.757812 149.054688 L 302.113281 144.507812 L 301.042969 138.949219 L 299.972656 134.910156 L 298.898438 131.710938 L 296.898438 127.332031 L 295.183594 124.636719 L 293.039062 122.28125 L 290.96875 120.765625 L 288.609375 119.753906 L 287.179688 119.417969 L 283.394531 119.417969 L 279.960938 120.59375 L 277.960938 121.941406 L 276.53125 123.289062 L 274.53125 125.816406 L 273.316406 127.835938 L 272.601562 129.183594 L 270.457031 134.402344 L 269.03125 139.121094 L 268.242188 142.320312 L 267.242188 147.371094 L 266.527344 151.917969 L 265.742188 158.652344 L 265.3125 163.707031 L 264.742188 175.15625 L 264.671875 205.46875 L 264.886719 211.867188 L 265.3125 218.773438 L 265.886719 224.835938 L 266.742188 231.234375 L 267.601562 236.117188 L 269.101562 242.683594 L 270.386719 247.0625 L 271.386719 249.925781 L 273.316406 254.472656 L 274.101562 255.988281 L 275.960938 259.019531 L 277.890625 261.378906 L 280.25 263.398438 L 282.035156 264.410156 L 284.894531 265.25 L 288.539062 265.25 L 292.824219 264.242188 L 295.539062 262.894531 L 297.398438 261.546875 L 298.613281 260.367188 L 300.113281 258.515625 L 301.1875 256.832031 L 302.1875 254.980469 L 303.402344 252.117188 L 303.402344 211.867188 L 285.75 211.699219 L 285.75 192.839844 L 313.191406 192.671875 L 313.261719 258.515625 L 311.761719 263.0625 L 309.902344 267.441406 L 308.117188 270.808594 L 306.257812 273.671875 L 303.617188 276.871094 L 301.472656 278.890625 L 298.183594 281.25 L 295.183594 282.765625 L 292.039062 283.773438 L 289.253906 284.28125 L 285.964844 284.449219 L 283.035156 284.113281 L 279.890625 283.101562 L 277.390625 281.753906 L 275.105469 280.070312 L 272.816406 277.882812 L 269.957031 274.34375 L 268.101562 271.480469 L 266.171875 267.945312 L 264.242188 263.734375 L 262.527344 259.1875 L 261.382812 255.652344 L 260.242188 251.609375 L 259.027344 246.558594 L 257.882812 240.832031 L 257.023438 235.613281 L 256.238281 229.71875 L 255.667969 224.160156 L 255.09375 216.582031 L 254.808594 210.519531 L 254.667969 205.300781 Z M 254.667969 179.03125 "/>
<path style=" stroke:none;fill-rule:nonzero;fill:rgb(83.921569%,15.686275%,22.352941%);fill-opacity:1;" d="M 254.667969 285.628906 L 313.261719 285.628906 L 313.261719 288.589844 L 288.839844 288.617188 L 288.839844 313.296875 L 279.015625 313.296875 L 279.015625 288.640625 L 278.875 288.589844 L 254.667969 288.589844 Z M 254.667969 285.628906 "/>
<path style=" stroke:none;fill-rule:nonzero;fill:rgb(6.27451%,58.823529%,28.235294%);fill-opacity:1;" d="M 316.347656 289.082031 L 316.410156 288.890625 L 341.761719 84.019531 L 349.460938 84.019531 L 374.941406 289.273438 L 365.988281 289.273438 L 359.605469 235.695312 L 331.621094 235.695312 L 325.359375 289.082031 L 316.347656 289.082031 L 334.3125 213.53125 L 357.039062 213.339844 L 345.707031 117.554688 L 345.582031 117.363281 L 345.457031 117.941406 L 334.25 213.339844 L 334.3125 213.53125 Z M 316.347656 289.082031 "/>
<path style=" stroke:none;fill-rule:nonzero;fill:rgb(96.862745%,70.196078%,16.862745%);fill-opacity:1;" d="M 316.347656 300.449219 L 316.417969 300.429688 L 316.417969 300 L 316.703125 299.042969 L 317.417969 297.722656 L 318.347656 296.636719 L 319.347656 295.78125 L 319.992188 295.335938 L 321.0625 294.695312 L 321.992188 294.226562 L 324.347656 293.269531 L 327.351562 292.371094 L 328.992188 291.988281 L 330.851562 291.625 L 333.496094 291.222656 L 334.710938 291.074219 L 338.425781 290.730469 L 342.640625 290.519531 L 347.289062 290.453125 L 349.429688 290.476562 L 352.359375 290.5625 L 356.363281 290.796875 L 358.648438 291.007812 L 360.433594 291.222656 L 362.292969 291.5 L 364.578125 291.925781 L 366.722656 292.4375 L 368.4375 292.949219 L 370.152344 293.585938 L 371.582031 294.269531 L 372.796875 295.015625 L 373.871094 295.910156 L 374.511719 296.65625 L 374.941406 297.402344 L 365.007812 297.402344 L 364.4375 296.65625 L 363.792969 296.082031 L 362.722656 295.378906 L 361.648438 294.867188 L 360.578125 294.460938 L 358.578125 293.90625 L 356.863281 293.566406 L 354.71875 293.269531 L 352.644531 293.074219 L 350.289062 292.949219 L 348.859375 292.90625 L 345.070312 292.90625 L 341.640625 293.054688 L 339.640625 293.226562 L 338.210938 293.394531 L 336.210938 293.714844 L 334.996094 293.972656 L 334.28125 294.140625 L 332.136719 294.800781 L 330.707031 295.398438 L 329.921875 295.804688 L 328.921875 296.441406 L 328.207031 297.019531 L 327.421875 297.871094 L 326.992188 298.511719 L 326.421875 299.960938 L 326.351562 303.796875 L 326.5625 304.605469 L 326.992188 305.480469 L 327.566406 306.246094 L 328.421875 307.054688 L 329.28125 307.671875 L 330.78125 308.503906 L 332.066406 309.058594 L 333.066406 309.421875 L 334.996094 309.996094 L 335.78125 310.1875 L 337.640625 310.570312 L 339.570312 310.871094 L 341.929688 311.125 L 343.714844 311.253906 L 346.574219 311.359375 L 350.21875 311.359375 L 354.503906 311.230469 L 357.21875 311.0625 L 359.078125 310.890625 L 360.292969 310.742188 L 361.792969 310.507812 L 362.863281 310.292969 L 363.867188 310.058594 L 365.078125 309.699219 L 365.078125 304.605469 L 347.429688 304.582031 L 347.429688 302.195312 L 374.871094 302.175781 L 374.941406 310.507812 L 373.441406 311.082031 L 371.582031 311.636719 L 369.796875 312.0625 L 367.9375 312.425781 L 365.292969 312.832031 L 363.152344 313.085938 L 359.863281 313.382812 L 356.863281 313.578125 L 353.71875 313.703125 L 350.929688 313.769531 L 347.644531 313.789062 L 344.714844 313.746094 L 341.570312 313.617188 L 339.070312 313.449219 L 336.78125 313.234375 L 334.496094 312.957031 L 331.636719 312.511719 L 329.78125 312.148438 L 327.851562 311.699219 L 325.921875 311.167969 L 324.207031 310.59375 L 323.0625 310.144531 L 321.917969 309.632812 L 320.703125 308.996094 L 319.5625 308.269531 L 318.703125 307.609375 L 317.917969 306.863281 L 317.347656 306.160156 L 316.773438 305.203125 L 316.488281 304.433594 L 316.347656 303.773438 Z M 316.347656 300.449219 "/>
<path style=" stroke:none;fill-rule:nonzero;fill:rgb(6.27451%,58.823529%,28.235294%);fill-opacity:1;" d="M 378.023438 313.820312 L 378.085938 313.785156 L 403.441406 274.492188 L 411.140625 274.492188 L 436.621094 313.859375 L 427.667969 313.859375 L 421.28125 303.582031 L 393.300781 303.582031 L 387.039062 313.820312 L 378.023438 313.820312 L 395.992188 299.332031 L 418.714844 299.292969 L 407.386719 280.921875 L 407.261719 280.886719 L 407.136719 280.996094 L 395.929688 299.292969 L 395.992188 299.332031 Z M 378.023438 313.820312 "/>
<path style=" stroke:none;fill-rule:nonzero;fill:rgb(83.921569%,15.686275%,22.352941%);fill-opacity:1;" d="M 378.023438 124.554688 L 436.621094 124.554688 L 436.621094 140.476562 L 412.199219 140.617188 L 412.199219 273.3125 L 402.375 273.3125 L 402.375 140.757812 L 402.230469 140.476562 L 378.023438 140.476562 Z M 378.023438 124.554688 "/>
<path style=" stroke:none;fill-rule:nonzero;fill:rgb(6.27451%,58.823529%,28.235294%);fill-opacity:1;" d="M 439.703125 296.929688 L 439.765625 296.917969 L 465.121094 284.074219 L 472.820312 284.074219 L 498.300781 296.941406 L 489.347656 296.941406 L 482.960938 293.582031 L 454.980469 293.582031 L 448.71875 296.929688 L 439.703125 296.929688 L 457.671875 292.191406 L 480.394531 292.179688 L 469.066406 286.175781 L 468.9375 286.164062 L 468.8125 286.199219 L 457.609375 292.179688 L 457.671875 292.191406 Z M 439.703125 296.929688 "/>
<path style=" stroke:none;fill-rule:nonzero;fill:rgb(14.509804%,36.078431%,60%);fill-opacity:1;" d="M 439.703125 302.28125 L 439.777344 302.273438 L 439.777344 302.0625 L 439.988281 301.730469 L 440.492188 301.3125 L 440.992188 301.023438 L 442.277344 300.507812 L 444.0625 300.007812 L 445.921875 299.625 L 447.277344 299.398438 L 448.492188 299.222656 L 451.28125 298.898438 L 453.066406 298.734375 L 454.996094 298.582031 L 457.355469 298.433594 L 459.070312 298.347656 L 462.929688 298.207031 L 465.785156 298.148438 L 468 298.121094 L 472.789062 298.121094 L 475.648438 298.15625 L 477.71875 298.199219 L 480.007812 298.269531 L 481.9375 298.347656 L 485.292969 298.539062 L 488.296875 298.785156 L 489.652344 298.925781 L 491.796875 299.195312 L 493.441406 299.457031 L 494.582031 299.683594 L 495.871094 300.007812 L 497.011719 300.402344 L 497.871094 300.847656 L 498.300781 301.222656 L 488.296875 301.222656 L 487.796875 300.875 L 487.222656 300.601562 L 486.152344 300.246094 L 485.078125 299.992188 L 483.578125 299.738281 L 482.222656 299.570312 L 480.363281 299.40625 L 478.71875 299.300781 L 477.003906 299.222656 L 475.363281 299.167969 L 472.21875 299.117188 L 468.574219 299.117188 L 467.214844 299.132812 L 464.429688 299.203125 L 462.929688 299.265625 L 460.785156 299.386719 L 459.285156 299.5 L 457.496094 299.675781 L 456.28125 299.824219 L 454.78125 300.050781 L 453.710938 300.253906 L 452.496094 300.542969 L 451.78125 300.761719 L 451.136719 301.003906 L 450.566406 301.292969 L 450.136719 301.597656 L 449.851562 301.921875 L 449.707031 302.238281 L 449.707031 303.59375 L 449.851562 303.90625 L 450.207031 304.273438 L 451.136719 304.808594 L 452.496094 305.269531 L 454.066406 305.636719 L 455.566406 305.898438 L 456.425781 306.023438 L 457.570312 306.160156 L 459.355469 306.335938 L 461.925781 306.511719 L 463.429688 306.582031 L 465.714844 306.652344 L 468.074219 306.6875 L 471.21875 306.6875 L 474.003906 306.652344 L 475.863281 306.609375 L 477.792969 306.539062 L 480.433594 306.390625 L 482.078125 306.25 L 483.507812 306.082031 L 484.578125 305.917969 L 485.292969 305.777344 L 486.367188 305.507812 L 487.222656 305.210938 L 487.867188 304.902344 L 488.296875 304.605469 L 498.300781 304.605469 L 497.871094 304.957031 L 497.226562 305.296875 L 496.585938 305.550781 L 495.585938 305.855469 L 494.441406 306.125 L 492.796875 306.433594 L 491.441406 306.632812 L 489.652344 306.851562 L 488.007812 307.019531 L 486.222656 307.167969 L 483.578125 307.339844 L 481.863281 307.429688 L 480.007812 307.507812 L 477.792969 307.578125 L 475.003906 307.640625 L 472.003906 307.671875 L 469.214844 307.683594 L 466.214844 307.664062 L 464 307.628906 L 461.070312 307.550781 L 457.425781 307.394531 L 454.78125 307.226562 L 452.710938 307.0625 L 450.921875 306.886719 L 448.921875 306.652344 L 446.351562 306.265625 L 444.777344 305.96875 L 443.707031 305.726562 L 442.492188 305.382812 L 441.632812 305.078125 L 440.632812 304.589844 L 439.917969 303.96875 L 439.703125 303.488281 Z M 439.703125 302.28125 "/>
<path style=" stroke:none;fill-rule:nonzero;fill:rgb(96.862745%,70.196078%,16.862745%);fill-opacity:1;" d="M 439.703125 311.222656 L 439.777344 311.214844 L 439.777344 311.117188 L 440.0625 310.890625 L 440.777344 310.578125 L 441.707031 310.320312 L 442.707031 310.121094 L 443.347656 310.015625 L 444.421875 309.863281 L 445.347656 309.753906 L 447.707031 309.527344 L 450.707031 309.316406 L 452.351562 309.222656 L 454.210938 309.140625 L 456.855469 309.042969 L 458.070312 309.007812 L 461.785156 308.925781 L 466 308.878906 L 470.644531 308.863281 L 472.789062 308.867188 L 475.71875 308.886719 L 479.71875 308.941406 L 482.007812 308.992188 L 483.792969 309.042969 L 485.652344 309.109375 L 487.9375 309.210938 L 490.082031 309.328125 L 491.796875 309.449219 L 493.511719 309.601562 L 494.941406 309.761719 L 496.15625 309.9375 L 497.226562 310.148438 L 497.871094 310.324219 L 498.300781 310.503906 L 488.367188 310.503906 L 487.796875 310.324219 L 487.152344 310.191406 L 486.082031 310.023438 L 485.007812 309.902344 L 483.9375 309.808594 L 481.9375 309.675781 L 480.222656 309.597656 L 478.078125 309.527344 L 476.003906 309.480469 L 473.648438 309.449219 L 472.21875 309.441406 L 468.429688 309.441406 L 465 309.476562 L 463 309.515625 L 461.570312 309.554688 L 459.570312 309.632812 L 458.355469 309.691406 L 457.640625 309.730469 L 455.496094 309.886719 L 454.066406 310.027344 L 453.28125 310.125 L 452.28125 310.277344 L 451.566406 310.410156 L 450.78125 310.613281 L 450.351562 310.761719 L 449.78125 311.105469 L 449.707031 312.011719 L 449.921875 312.203125 L 450.351562 312.410156 L 450.921875 312.589844 L 451.78125 312.78125 L 452.636719 312.925781 L 454.140625 313.125 L 455.425781 313.253906 L 456.425781 313.339844 L 458.355469 313.476562 L 459.140625 313.519531 L 461 313.609375 L 462.929688 313.679688 L 465.285156 313.742188 L 467.074219 313.773438 L 469.929688 313.796875 L 473.574219 313.796875 L 477.863281 313.765625 L 480.578125 313.726562 L 482.4375 313.6875 L 483.652344 313.652344 L 485.152344 313.597656 L 486.222656 313.546875 L 487.222656 313.492188 L 488.4375 313.40625 L 488.4375 312.203125 L 470.789062 312.199219 L 470.789062 311.632812 L 498.226562 311.628906 L 498.300781 313.597656 L 496.800781 313.730469 L 494.941406 313.863281 L 493.15625 313.964844 L 491.296875 314.046875 L 488.652344 314.144531 L 486.507812 314.203125 L 483.222656 314.273438 L 480.222656 314.320312 L 477.078125 314.351562 L 474.289062 314.367188 L 471.003906 314.371094 L 468.074219 314.359375 L 464.929688 314.332031 L 462.429688 314.289062 L 460.140625 314.238281 L 457.855469 314.175781 L 454.996094 314.070312 L 453.136719 313.984375 L 451.210938 313.878906 L 449.28125 313.75 L 447.566406 313.617188 L 446.421875 313.511719 L 445.277344 313.390625 L 444.0625 313.238281 L 442.921875 313.066406 L 442.0625 312.910156 L 441.277344 312.734375 L 440.703125 312.570312 L 440.132812 312.34375 L 439.847656 312.164062 L 439.703125 312.007812 Z M 439.703125 311.222656 "/>
<path style=" stroke:none;fill-rule:nonzero;fill:rgb(83.921569%,15.686275%,22.352941%);fill-opacity:1;" d="M 439.703125 190.792969 L 498.300781 190.792969 L 498.300781 200.652344 L 473.878906 200.738281 L 473.878906 282.894531 L 464.054688 282.894531 L 464.054688 200.828125 L 463.910156 200.652344 L 439.703125 200.652344 Z M 439.703125 190.792969 "/>
<path style=" stroke:none;fill-rule:nonzero;fill:rgb(6.27451%,58.823529%,28.235294%);fill-opacity:1;" d="M 501.382812 314.097656 L 501.445312 314.097656 L 526.800781 313.917969 L 534.5 313.917969 L 559.980469 314.097656 L 551.027344 314.097656 L 544.640625 314.050781 L 516.660156 314.050781 L 510.398438 314.097656 L 501.382812 314.097656 L 519.351562 314.03125 L 542.074219 314.03125 L 530.742188 313.949219 L 530.492188 313.949219 L 519.289062 314.03125 L 519.351562 314.03125 Z M 501.382812 314.097656 "/>
<path style=" stroke:none;fill-rule:nonzero;fill:rgb(14.509804%,36.078431%,60%);fill-opacity:1;" d="M 501.382812 146.949219 L 501.453125 146.683594 L 501.453125 140.316406 L 501.667969 130.234375 L 502.167969 117.5 L 502.667969 108.746094 L 503.957031 93.089844 L 505.742188 77.96875 L 507.601562 66.296875 L 508.957031 59.398438 L 510.171875 54.089844 L 512.960938 44.273438 L 514.746094 39.234375 L 516.675781 34.722656 L 519.035156 30.214844 L 520.75 27.5625 L 524.605469 23.316406 L 527.464844 21.457031 L 529.679688 20.664062 L 534.46875 20.664062 L 537.328125 21.722656 L 539.398438 23.050781 L 541.6875 25.171875 L 543.613281 27.5625 L 546.972656 33.398438 L 549.976562 40.828125 L 551.332031 45.070312 L 553.476562 53.296875 L 555.121094 61.253906 L 556.261719 68.152344 L 557.550781 77.96875 L 558.691406 89.90625 L 559.550781 103.4375 L 559.980469 114.847656 L 549.976562 114.847656 L 549.472656 104.234375 L 548.902344 96.011719 L 547.832031 85.132812 L 546.757812 77.4375 L 545.257812 69.746094 L 543.902344 64.703125 L 542.042969 59.664062 L 540.398438 56.480469 L 538.683594 54.089844 L 537.039062 52.5 L 533.898438 50.90625 L 530.253906 50.90625 L 528.894531 51.4375 L 526.109375 53.5625 L 524.605469 55.417969 L 522.464844 59.132812 L 520.960938 62.582031 L 519.175781 67.886719 L 517.960938 72.398438 L 516.460938 79.296875 L 515.390625 85.398438 L 514.175781 94.152344 L 513.460938 100.785156 L 512.816406 108.214844 L 512.246094 116.96875 L 511.816406 126.253906 L 511.53125 136.070312 L 511.386719 145.621094 L 511.386719 186.746094 L 511.53125 196.296875 L 511.886719 207.4375 L 512.816406 223.621094 L 514.175781 237.683594 L 515.746094 248.828125 L 517.246094 256.785156 L 518.105469 260.5 L 519.246094 264.746094 L 521.035156 270.050781 L 523.605469 275.359375 L 525.105469 277.480469 L 527.394531 279.601562 L 529.753906 280.664062 L 532.894531 280.664062 L 535.683594 279.601562 L 537.542969 278.277344 L 539.46875 276.152344 L 542.113281 271.644531 L 543.757812 267.398438 L 545.1875 262.359375 L 546.257812 257.316406 L 546.972656 253.070312 L 548.046875 244.847656 L 548.902344 235.828125 L 549.546875 226.542969 L 549.976562 217.519531 L 559.980469 217.519531 L 559.550781 228.132812 L 558.90625 238.480469 L 558.265625 246.171875 L 557.261719 255.460938 L 556.121094 263.683594 L 554.476562 272.96875 L 553.117188 279.070312 L 551.332031 285.703125 L 549.6875 290.746094 L 547.902344 295.253906 L 545.257812 300.5625 L 543.542969 303.214844 L 541.6875 305.601562 L 539.46875 307.726562 L 536.683594 309.582031 L 533.683594 310.644531 L 530.894531 310.910156 L 527.894531 310.378906 L 525.679688 309.316406 L 522.75 306.929688 L 519.105469 302.152344 L 516.460938 297.113281 L 514.390625 292.070312 L 512.601562 286.765625 L 510.601562 279.601562 L 508.027344 267.929688 L 506.457031 258.910156 L 505.386719 251.480469 L 504.171875 241.132812 L 503.3125 231.847656 L 502.3125 216.988281 L 501.597656 198.152344 L 501.382812 183.5625 Z M 501.382812 146.949219 "/>
<path style=" stroke:none;fill-rule:nonzero;fill:rgb(83.921569%,15.686275%,22.352941%);fill-opacity:1;" d="M 501.382812 312.089844 L 559.980469 312.089844 L 559.980469 312.15625 L 535.558594 312.160156 L 535.558594 312.738281 L 525.734375 312.738281 L 525.734375 312.160156 L 525.589844 312.15625 L 501.382812 312.15625 Z M 501.382812 312.089844 "/>
<path style=" stroke:none;fill-rule:nonzero;fill:rgb(14.509804%,36.078431%,60%);fill-opacity:1;" d="M 563.0625 310.351562 L 563.132812 310.351562 L 563.132812 310.339844 L 563.347656 310.320312 L 563.847656 310.296875 L 564.347656 310.28125 L 565.636719 310.253906 L 567.421875 310.226562 L 569.28125 310.203125 L 570.636719 310.191406 L 571.851562 310.183594 L 574.640625 310.164062 L 576.425781 310.15625 L 578.355469 310.148438 L 580.710938 310.140625 L 582.425781 310.132812 L 586.285156 310.125 L 589.144531 310.125 L 591.359375 310.121094 L 596.148438 310.121094 L 599.003906 310.125 L 601.078125 310.125 L 603.363281 310.128906 L 605.292969 310.132812 L 608.652344 310.144531 L 611.652344 310.160156 L 613.011719 310.167969 L 615.15625 310.179688 L 616.796875 310.195312 L 617.941406 310.207031 L 619.226562 310.226562 L 620.371094 310.246094 L 621.230469 310.273438 L 621.65625 310.292969 L 611.652344 310.292969 L 611.152344 310.273438 L 610.582031 310.257812 L 609.511719 310.238281 L 608.4375 310.226562 L 606.9375 310.210938 L 605.578125 310.203125 L 603.722656 310.191406 L 602.078125 310.1875 L 600.363281 310.183594 L 598.71875 310.179688 L 595.574219 310.175781 L 591.929688 310.175781 L 590.574219 310.179688 L 587.785156 310.179688 L 586.285156 310.183594 L 584.144531 310.191406 L 582.640625 310.199219 L 580.855469 310.207031 L 579.640625 310.214844 L 578.140625 310.226562 L 577.066406 310.238281 L 575.855469 310.253906 L 575.140625 310.269531 L 574.496094 310.28125 L 573.925781 310.296875 L 573.496094 310.3125 L 573.210938 310.332031 L 573.066406 310.347656 L 573.066406 310.425781 L 573.210938 310.441406 L 573.566406 310.460938 L 574.496094 310.492188 L 575.855469 310.515625 L 577.425781 310.539062 L 578.925781 310.550781 L 579.785156 310.558594 L 580.925781 310.566406 L 582.714844 310.574219 L 585.285156 310.585938 L 586.785156 310.589844 L 589.074219 310.59375 L 597.363281 310.59375 L 599.21875 310.589844 L 601.148438 310.585938 L 603.792969 310.578125 L 605.4375 310.570312 L 606.867188 310.5625 L 607.9375 310.554688 L 608.652344 310.546875 L 609.722656 310.53125 L 610.582031 310.511719 L 611.226562 310.496094 L 611.652344 310.480469 L 621.65625 310.480469 L 621.230469 310.5 L 620.585938 310.519531 L 619.941406 310.53125 L 618.941406 310.550781 L 617.800781 310.5625 L 616.15625 310.582031 L 614.796875 310.59375 L 613.011719 310.605469 L 611.367188 310.613281 L 609.582031 310.621094 L 606.9375 310.632812 L 605.222656 310.636719 L 603.363281 310.640625 L 601.148438 310.644531 L 598.363281 310.648438 L 587.359375 310.648438 L 584.429688 310.644531 L 580.785156 310.632812 L 578.140625 310.625 L 576.066406 310.617188 L 574.28125 310.605469 L 572.28125 310.59375 L 569.707031 310.570312 L 568.136719 310.554688 L 567.0625 310.542969 L 565.847656 310.523438 L 564.992188 310.507812 L 563.992188 310.480469 L 563.277344 310.445312 L 563.0625 310.417969 Z M 563.0625 310.351562 "/>
<path style=" stroke:none;fill-rule:nonzero;fill:rgb(83.921569%,15.686275%,22.352941%);fill-opacity:1;" d="M 563.0625 311.828125 L 621.65625 311.828125 L 621.65625 311.875 L 597.238281 311.875 L 597.238281 312.246094 L 587.410156 312.246094 L 587.410156 311.875 L 563.0625 311.875 Z M 563.0625 311.828125 "/>
<path style=" stroke:none;fill-rule:nonzero;fill:rgb(6.27451%,58.823529%,28.235294%);fill-opacity:1;" d="M 624.742188 311.253906 L 624.804688 311.25 L 650.15625 309.808594 L 657.859375 309.808594 L 683.335938 311.253906 L 674.386719 311.253906 L 668 310.875 L 640.015625 310.875 L 633.757812 311.253906 L 624.742188 311.253906 L 642.707031 310.71875 L 665.433594 310.71875 L 654.101562 310.042969 L 653.976562 310.042969 L 653.851562 310.046875 L 642.644531 310.71875 L 642.707031 310.71875 Z M 624.742188 311.253906 "/>
<path style=" stroke:none;fill-rule:nonzero;fill:rgb(14.509804%,36.078431%,60%);fill-opacity:1;" d="M 624.742188 314.15625 L 624.8125 314.15625 L 624.8125 314.148438 L 625.027344 314.136719 L 625.527344 314.121094 L 626.027344 314.109375 L 627.3125 314.085938 L 629.101562 314.066406 L 630.957031 314.050781 L 632.316406 314.042969 L 633.53125 314.035156 L 636.316406 314.023438 L 638.105469 314.015625 L 640.035156 314.011719 L 642.390625 314.003906 L 644.105469 314.003906 L 647.964844 313.996094 L 650.824219 313.996094 L 653.039062 313.992188 L 657.828125 313.992188 L 660.683594 313.996094 L 662.757812 313.996094 L 665.042969 314 L 666.972656 314.003906 L 670.332031 314.011719 L 673.332031 314.019531 L 674.691406 314.023438 L 676.835938 314.035156 L 678.476562 314.046875 L 679.621094 314.054688 L 680.90625 314.066406 L 682.050781 314.082031 L 682.910156 314.101562 L 683.335938 314.117188 L 673.332031 314.117188 L 672.832031 314.101562 L 672.261719 314.089844 L 671.1875 314.078125 L 670.117188 314.066406 L 668.617188 314.058594 L 667.257812 314.050781 L 665.402344 314.042969 L 663.757812 314.039062 L 662.042969 314.035156 L 660.398438 314.035156 L 657.253906 314.03125 L 653.609375 314.03125 L 652.253906 314.035156 L 649.464844 314.035156 L 647.964844 314.039062 L 645.820312 314.042969 L 644.320312 314.046875 L 642.535156 314.054688 L 641.320312 314.0625 L 639.820312 314.070312 L 638.746094 314.078125 L 637.53125 314.089844 L 636.816406 314.097656 L 636.175781 314.105469 L 635.601562 314.117188 L 635.175781 314.128906 L 634.890625 314.144531 L 634.746094 314.15625 L 634.746094 314.210938 L 634.890625 314.222656 L 635.246094 314.234375 L 636.175781 314.257812 L 637.53125 314.277344 L 639.105469 314.289062 L 640.605469 314.300781 L 641.464844 314.304688 L 642.605469 314.3125 L 644.394531 314.316406 L 646.964844 314.324219 L 648.464844 314.328125 L 650.753906 314.328125 L 653.109375 314.332031 L 656.253906 314.332031 L 659.042969 314.328125 L 660.898438 314.328125 L 662.828125 314.324219 L 665.472656 314.320312 L 667.117188 314.3125 L 668.546875 314.308594 L 669.617188 314.300781 L 670.332031 314.296875 L 671.402344 314.285156 L 672.261719 314.273438 L 672.902344 314.261719 L 673.332031 314.25 L 683.335938 314.25 L 682.910156 314.261719 L 682.265625 314.277344 L 681.621094 314.285156 L 680.621094 314.296875 L 679.476562 314.308594 L 677.835938 314.320312 L 676.476562 314.328125 L 674.691406 314.335938 L 673.046875 314.34375 L 671.261719 314.351562 L 668.617188 314.355469 L 666.902344 314.359375 L 665.042969 314.363281 L 662.828125 314.367188 L 660.042969 314.367188 L 657.039062 314.371094 L 651.253906 314.371094 L 649.039062 314.367188 L 646.109375 314.367188 L 642.464844 314.359375 L 639.820312 314.351562 L 637.746094 314.347656 L 635.960938 314.339844 L 633.960938 314.328125 L 631.386719 314.316406 L 629.816406 314.304688 L 628.742188 314.292969 L 627.527344 314.28125 L 626.671875 314.269531 L 625.671875 314.25 L 624.957031 314.222656 L 624.742188 314.207031 Z M 624.742188 314.15625 "/>
<path style=" stroke:none;fill-rule:nonzero;fill:rgb(96.862745%,70.196078%,16.862745%);fill-opacity:1;" d="M 624.742188 307.683594 L 624.8125 307.683594 L 624.8125 307.652344 L 625.097656 307.585938 L 625.8125 307.492188 L 626.742188 307.414062 L 627.742188 307.355469 L 628.386719 307.324219 L 629.457031 307.277344 L 630.386719 307.246094 L 632.746094 307.179688 L 635.746094 307.113281 L 637.390625 307.085938 L 639.246094 307.0625 L 641.890625 307.035156 L 643.105469 307.023438 L 646.820312 307 L 651.039062 306.984375 L 655.683594 306.980469 L 657.828125 306.980469 L 660.757812 306.988281 L 664.757812 307.003906 L 667.042969 307.019531 L 668.832031 307.035156 L 670.6875 307.054688 L 672.976562 307.082031 L 675.121094 307.121094 L 676.835938 307.15625 L 678.550781 307.199219 L 679.980469 307.25 L 681.191406 307.300781 L 682.265625 307.363281 L 682.910156 307.417969 L 683.335938 307.46875 L 673.40625 307.46875 L 672.832031 307.417969 L 672.191406 307.375 L 671.117188 307.328125 L 670.046875 307.289062 L 668.972656 307.261719 L 666.972656 307.222656 L 665.257812 307.199219 L 663.113281 307.179688 L 661.042969 307.164062 L 658.683594 307.15625 L 657.253906 307.152344 L 653.46875 307.152344 L 650.039062 307.164062 L 648.035156 307.175781 L 646.609375 307.1875 L 644.605469 307.210938 L 643.390625 307.226562 L 642.675781 307.238281 L 640.535156 307.285156 L 639.105469 307.328125 L 638.320312 307.355469 L 637.316406 307.402344 L 636.605469 307.441406 L 635.816406 307.503906 L 635.390625 307.546875 L 634.816406 307.652344 L 634.746094 307.921875 L 634.960938 307.980469 L 635.390625 308.039062 L 635.960938 308.09375 L 636.816406 308.152344 L 637.675781 308.195312 L 639.175781 308.253906 L 640.460938 308.292969 L 641.464844 308.320312 L 643.390625 308.359375 L 644.179688 308.375 L 646.035156 308.402344 L 647.964844 308.421875 L 650.324219 308.441406 L 652.109375 308.449219 L 654.96875 308.457031 L 658.613281 308.457031 L 662.898438 308.449219 L 665.617188 308.433594 L 667.472656 308.421875 L 668.6875 308.414062 L 670.1875 308.394531 L 671.261719 308.382812 L 672.261719 308.363281 L 673.476562 308.339844 L 673.476562 307.980469 L 655.824219 307.976562 L 655.824219 307.808594 L 683.265625 307.808594 L 683.335938 308.394531 L 681.835938 308.4375 L 679.980469 308.476562 L 678.191406 308.507812 L 676.335938 308.53125 L 673.691406 308.558594 L 671.546875 308.578125 L 668.257812 308.597656 L 665.257812 308.613281 L 662.113281 308.621094 L 659.328125 308.625 L 656.039062 308.628906 L 653.109375 308.625 L 649.964844 308.617188 L 647.464844 308.605469 L 645.179688 308.589844 L 642.890625 308.570312 L 640.035156 308.539062 L 638.175781 308.511719 L 636.246094 308.480469 L 634.316406 308.441406 L 632.601562 308.402344 L 631.457031 308.371094 L 630.316406 308.335938 L 629.101562 308.289062 L 627.957031 308.238281 L 627.101562 308.191406 L 626.3125 308.140625 L 625.742188 308.089844 L 625.171875 308.019531 L 624.882812 307.96875 L 624.742188 307.921875 Z M 624.742188 307.683594 "/>
<path style=" stroke:none;fill-rule:nonzero;fill:rgb(83.921569%,15.686275%,22.352941%);fill-opacity:1;" d="M 624.742188 312.433594 L 683.335938 312.433594 L 683.335938 312.472656 L 658.917969 312.476562 L 658.917969 312.8125 L 649.089844 312.8125 L 649.089844 312.476562 L 648.949219 312.472656 L 624.742188 312.472656 Z M 624.742188 312.433594 "/>
<g style="fill:rgb(0%,0%,0%);fill-opacity:1;">
  <use xlink:href="#glyph0-1" x="21.957031" y="318.198242"/>
  <use xlink:href="#glyph0-2" x="27.291016" y="318.198242"/>
  <use xlink:href="#glyph0-1" x="29.958008" y="318.198242"/>
</g>
<g style="fill:rgb(0%,0%,0%);fill-opacity:1;">
  <use xlink:href="#glyph0-1" x="21.957031" y="240.291992"/>
  <use xlink:href="#glyph0-2" x="27.291016" y="240.291992"/>
  <use xlink:href="#glyph0-3" x="29.958008" y="240.291992"/>
</g>
<g style="fill:rgb(0%,0%,0%);fill-opacity:1;">
  <use xlink:href="#glyph0-4" x="21.957031" y="162.381836"/>
  <use xlink:href="#glyph0-2" x="27.291016" y="162.381836"/>
  <use xlink:href="#glyph0-1" x="29.958008" y="162.381836"/>
</g>
<g style="fill:rgb(0%,0%,0%);fill-opacity:1;">
  <use xlink:href="#glyph0-4" x="21.957031" y="84.475586"/>
  <use xlink:href="#glyph0-2" x="27.291016" y="84.475586"/>
  <use xlink:href="#glyph0-3" x="29.958008" y="84.475586"/>
</g>
<g style="fill:rgb(0%,0%,0%);fill-opacity:1;">
  <use xlink:href="#glyph0-4" x="95.925781" y="338.19043"/>
</g>
<g style="fill:rgb(0%,0%,0%);fill-opacity:1;">
  <use xlink:href="#glyph0-5" x="157.605469" y="338.19043"/>
</g>
<g style="fill:rgb(0%,0%,0%);fill-opacity:1;">
  <use xlink:href="#glyph0-6" x="219.285156" y="338.19043"/>
</g>
<g style="fill:rgb(0%,0%,0%);fill-opacity:1;">
  <use xlink:href="#glyph0-7" x="280.964844" y="338.19043"/>
</g>
<g style="fill:rgb(0%,0%,0%);fill-opacity:1;">
  <use xlink:href="#glyph0-3" x="342.644531" y="338.19043"/>
</g>
<g style="fill:rgb(0%,0%,0%);fill-opacity:1;">
  <use xlink:href="#glyph0-8" x="404.324219" y="338.19043"/>
</g>
<g style="fill:rgb(0%,0%,0%);fill-opacity:1;">
  <use xlink:href="#glyph0-9" x="466" y="338.19043"/>
</g>
<g style="fill:rgb(0%,0%,0%);fill-opacity:1;">
  <use xlink:href="#glyph0-10" x="527.679688" y="338.19043"/>
</g>
<g style="fill:rgb(0%,0%,0%);fill-opacity:1;">
  <use xlink:href="#glyph0-11" x="589.359375" y="338.19043"/>
</g>
<g style="fill:rgb(0%,0%,0%);fill-opacity:1;">
  <use xlink:href="#glyph0-4" x="648.539062" y="338.19043"/>
  <use xlink:href="#glyph0-1" x="653.873047" y="338.19043"/>
</g>
<g style="fill:rgb(0%,0%,0%);fill-opacity:1;">
  <use xlink:href="#glyph1-1" x="14.412109" y="178.015625"/>
  <use xlink:href="#glyph1-2" x="14.412109" y="170.011719"/>
  <use xlink:href="#glyph1-3" x="14.412109" y="167.347656"/>
  <use xlink:href="#glyph1-4" x="14.412109" y="164.011719"/>
</g>
</g>
</svg>
