<?xml version="1.0" encoding="UTF-8"?>
<svg xmlns="http://www.w3.org/2000/svg" xmlns:xlink="http://www.w3.org/1999/xlink" width="720pt" height="360pt" viewBox="0 0 720 360" version="1.1">
<defs>
<g>
<symbol overflow="visible" id="glyph0-0">
<path style="stroke:none;" d=""/>
</symbol>
<symbol overflow="visible" id="glyph0-1">
<path style="stroke:none;" d="M 2.640625 -6.796875 C 2 -6.796875 1.421875 -6.53125 1.078125 -6.046875 C 0.640625 -5.453125 0.40625 -4.546875 0.40625 -3.296875 C 0.40625 -1 1.1875 0.21875 2.640625 0.21875 C 4.078125 0.21875 4.859375 -1 4.859375 -3.234375 C 4.859375 -4.5625 4.65625 -5.4375 4.203125 -6.046875 C 3.84375 -6.53125 3.28125 -6.796875 2.640625 -6.796875 Z M 2.640625 -6.046875 C 3.546875 -6.046875 4 -5.125 4 -3.3125 C 4 -1.375 3.5625 -0.484375 2.625 -0.484375 C 1.734375 -0.484375 1.28125 -1.421875 1.28125 -3.28125 C 1.28125 -5.140625 1.734375 -6.046875 2.640625 -6.046875 Z M 2.640625 -6.046875 "/>
</symbol>
<symbol overflow="visible" id="glyph0-2">
<path style="stroke:none;" d="M 1.828125 -1 L 0.828125 -1 L 0.828125 0 L 1.828125 0 Z M 1.828125 -1 "/>
</symbol>
<symbol overflow="visible" id="glyph0-3">
<path style="stroke:none;" d="M 4.5625 -6.796875 L 1.0625 -6.796875 L 0.546875 -3.09375 L 1.328125 -3.09375 C 1.71875 -3.5625 2.046875 -3.734375 2.578125 -3.734375 C 3.484375 -3.734375 4.0625 -3.109375 4.0625 -2.09375 C 4.0625 -1.125 3.484375 -0.53125 2.578125 -0.53125 C 1.828125 -0.53125 1.375 -0.90625 1.1875 -1.671875 L 0.328125 -1.671875 C 0.453125 -1.109375 0.546875 -0.84375 0.75 -0.59375 C 1.125 -0.078125 1.828125 0.21875 2.59375 0.21875 C 3.96875 0.21875 4.921875 -0.78125 4.921875 -2.21875 C 4.921875 -3.5625 4.03125 -4.484375 2.71875 -4.484375 C 2.25 -4.484375 1.859375 -4.359375 1.46875 -4.0625 L 1.734375 -5.96875 L 4.5625 -5.96875 Z M 4.5625 -6.796875 "/>
</symbol>
<symbol overflow="visible" id="glyph0-4">
<path style="stroke:none;" d="M 2.484375 -4.84375 L 2.484375 0 L 3.328125 0 L 3.328125 -6.796875 L 2.765625 -6.796875 C 2.46875 -5.75 2.28125 -5.609375 0.984375 -5.453125 L 0.984375 -4.84375 Z M 2.484375 -4.84375 "/>
</symbol>
<symbol overflow="visible" id="glyph0-5">
<path style="stroke:none;" d="M 4.859375 -0.828125 L 1.28125 -0.828125 C 1.359375 -1.390625 1.671875 -1.75 2.5 -2.234375 L 3.46875 -2.75 C 4.40625 -3.265625 4.90625 -3.96875 4.90625 -4.8125 C 4.90625 -5.375 4.671875 -5.90625 4.265625 -6.265625 C 3.859375 -6.625 3.375 -6.796875 2.71875 -6.796875 C 1.859375 -6.796875 1.21875 -6.5 0.84375 -5.921875 C 0.609375 -5.5625 0.5 -5.125 0.484375 -4.4375 L 1.328125 -4.4375 C 1.359375 -4.90625 1.40625 -5.1875 1.53125 -5.40625 C 1.75 -5.8125 2.1875 -6.0625 2.703125 -6.0625 C 3.46875 -6.0625 4.03125 -5.515625 4.03125 -4.78125 C 4.03125 -4.25 3.71875 -3.796875 3.125 -3.4375 L 2.234375 -2.9375 C 0.8125 -2.140625 0.40625 -1.5 0.328125 0 L 4.859375 0 Z M 4.859375 -0.828125 "/>
</symbol>
<symbol overflow="visible" id="glyph0-6">
<path style="stroke:none;" d="M 2.125 -3.125 L 2.578125 -3.125 C 3.515625 -3.125 3.984375 -2.703125 3.984375 -1.890625 C 3.984375 -1.03125 3.46875 -0.53125 2.578125 -0.53125 C 1.65625 -0.53125 1.203125 -0.984375 1.15625 -1.96875 L 0.3125 -1.96875 C 0.34375 -1.421875 0.4375 -1.078125 0.609375 -0.765625 C 0.953125 -0.109375 1.625 0.21875 2.546875 0.21875 C 3.953125 0.21875 4.859375 -0.609375 4.859375 -1.90625 C 4.859375 -2.765625 4.515625 -3.25 3.703125 -3.515625 C 4.34375 -3.765625 4.65625 -4.25 4.65625 -4.9375 C 4.65625 -6.109375 3.875 -6.796875 2.578125 -6.796875 C 1.203125 -6.796875 0.484375 -6.046875 0.453125 -4.609375 L 1.296875 -4.609375 C 1.3125 -5.015625 1.34375 -5.25 1.453125 -5.453125 C 1.640625 -5.828125 2.0625 -6.0625 2.59375 -6.0625 C 3.34375 -6.0625 3.796875 -5.625 3.796875 -4.90625 C 3.796875 -4.421875 3.609375 -4.140625 3.25 -3.984375 C 3.015625 -3.890625 2.71875 -3.84375 2.125 -3.84375 Z M 2.125 -3.125 "/>
</symbol>
<symbol overflow="visible" id="glyph0-7">
<path style="stroke:none;" d="M 3.140625 -1.625 L 3.140625 0 L 3.984375 0 L 3.984375 -1.625 L 4.984375 -1.625 L 4.984375 -2.390625 L 3.984375 -2.390625 L 3.984375 -6.796875 L 3.359375 -6.796875 L 0.265625 -2.515625 L 0.265625 -1.625 Z M 3.140625 -2.390625 L 1 -2.390625 L 3.140625 -5.359375 Z M 3.140625 -2.390625 "/>
</symbol>
<symbol overflow="visible" id="glyph0-8">
<path style="stroke:none;" d="M 4.78125 -5.03125 C 4.609375 -6.140625 3.890625 -6.796875 2.84375 -6.796875 C 2.09375 -6.796875 1.421875 -6.4375 1.03125 -5.828125 C 0.609375 -5.171875 0.40625 -4.34375 0.40625 -3.09375 C 0.40625 -1.953125 0.578125 -1.234375 0.984375 -0.625 C 1.359375 -0.078125 1.953125 0.21875 2.703125 0.21875 C 3.984375 0.21875 4.921875 -0.734375 4.921875 -2.078125 C 4.921875 -3.34375 4.0625 -4.234375 2.84375 -4.234375 C 2.171875 -4.234375 1.640625 -3.96875 1.28125 -3.46875 C 1.28125 -5.125 1.828125 -6.046875 2.796875 -6.046875 C 3.390625 -6.046875 3.796875 -5.671875 3.9375 -5.03125 Z M 2.734375 -3.484375 C 3.546875 -3.484375 4.0625 -2.921875 4.0625 -2 C 4.0625 -1.15625 3.484375 -0.53125 2.703125 -0.53125 C 1.921875 -0.53125 1.328125 -1.1875 1.328125 -2.046875 C 1.328125 -2.890625 1.90625 -3.484375 2.734375 -3.484375 Z M 2.734375 -3.484375 "/>
</symbol>
<symbol overflow="visible" id="glyph0-9">
<path style="stroke:none;" d="M 4.984375 -6.796875 L 0.4375 -6.796875 L 0.4375 -5.96875 L 4.109375 -5.96875 C 2.5 -3.65625 1.828125 -2.234375 1.328125 0 L 2.21875 0 C 2.59375 -2.171875 3.453125 -4.046875 4.984375 -6.09375 Z M 4.984375 -6.796875 "/>
</symbol>
<symbol overflow="visible" id="glyph0-10">
<path style="stroke:none;" d="M 3.75 -3.578125 C 4.453125 -4 4.6875 -4.34375 4.6875 -4.984375 C 4.6875 -6.046875 3.84375 -6.796875 2.640625 -6.796875 C 1.4375 -6.796875 0.59375 -6.046875 0.59375 -4.984375 C 0.59375 -4.359375 0.828125 -4.015625 1.515625 -3.578125 C 0.734375 -3.203125 0.359375 -2.640625 0.359375 -1.890625 C 0.359375 -0.640625 1.296875 0.21875 2.640625 0.21875 C 3.984375 0.21875 4.921875 -0.640625 4.921875 -1.875 C 4.921875 -2.640625 4.53125 -3.203125 3.75 -3.578125 Z M 2.640625 -6.046875 C 3.359375 -6.046875 3.8125 -5.625 3.8125 -4.96875 C 3.8125 -4.34375 3.34375 -3.921875 2.640625 -3.921875 C 1.921875 -3.921875 1.453125 -4.34375 1.453125 -4.984375 C 1.453125 -5.625 1.921875 -6.046875 2.640625 -6.046875 Z M 2.640625 -3.203125 C 3.484375 -3.203125 4.0625 -2.671875 4.0625 -1.875 C 4.0625 -1.0625 3.484375 -0.53125 2.625 -0.53125 C 1.796875 -0.53125 1.21875 -1.078125 1.21875 -1.875 C 1.21875 -2.671875 1.796875 -3.203125 2.640625 -3.203125 Z M 2.640625 -3.203125 "/>
</symbol>
<symbol overflow="visible" id="glyph0-11">
<path style="stroke:none;" d="M 0.515625 -1.546875 C 0.671875 -0.4375 1.40625 0.21875 2.4375 0.21875 C 3.1875 0.21875 3.859375 -0.140625 4.265625 -0.75 C 4.6875 -1.40625 4.890625 -2.25 4.890625 -3.484375 C 4.890625 -4.625 4.703125 -5.359375 4.3125 -5.953125 C 3.9375 -6.5 3.34375 -6.796875 2.59375 -6.796875 C 1.296875 -6.796875 0.359375 -5.84375 0.359375 -4.515625 C 0.359375 -3.25 1.234375 -2.34375 2.453125 -2.34375 C 3.09375 -2.34375 3.5625 -2.578125 4.015625 -3.109375 C 4 -1.453125 3.46875 -0.53125 2.5 -0.53125 C 1.90625 -0.53125 1.484375 -0.90625 1.359375 -1.546875 Z M 2.578125 -6.0625 C 3.375 -6.0625 3.96875 -5.40625 3.96875 -4.53125 C 3.96875 -3.6875 3.375 -3.09375 2.546875 -3.09375 C 1.734375 -3.09375 1.234375 -3.671875 1.234375 -4.578125 C 1.234375 -5.4375 1.796875 -6.0625 2.578125 -6.0625 Z M 2.578125 -6.0625 "/>
</symbol>
<symbol overflow="visible" id="glyph1-0">
<path style="stroke:none;" d=""/>
</symbol>
<symbol overflow="visible" id="glyph1-1">
<path style="stroke:none;" d="M 0 -0.953125 L 0 -4.890625 C 0 -5.71875 -0.234375 -6.34375 -0.734375 -6.796875 C -1.1875 -7.234375 -1.8125 -7.46875 -2.5 -7.46875 C -3.546875 -7.46875 -4.1875 -7 -4.625 -5.875 C -4.984375 -6.671875 -5.640625 -7.09375 -6.53125 -7.09375 C -7.15625 -7.09375 -7.734375 -6.859375 -8.140625 -6.390625 C -8.5625 -5.9375 -8.75 -5.34375 -8.75 -4.5 L -8.75 -0.953125 Z M -4.984375 -2.0625 L -7.765625 -2.0625 L -7.765625 -4.21875 C -7.765625 -4.84375 -7.6875 -5.203125 -7.453125 -5.5 C -7.21875 -5.8125 -6.859375 -5.96875 -6.375 -5.96875 C -5.90625 -5.96875 -5.53125 -5.8125 -5.296875 -5.5 C -5.0625 -5.203125 -4.984375 -4.84375 -4.984375 -4.21875 Z M -0.984375 -2.0625 L -4 -2.0625 L -4 -4.78125 C -4 -5.328125 -3.859375 -5.6875 -3.578125 -5.953125 C -3.296875 -6.21875 -2.921875 -6.359375 -2.484375 -6.359375 C -2.0625 -6.359375 -1.6875 -6.21875 -1.40625 -5.953125 C -1.109375 -5.6875 -0.984375 -5.328125 -0.984375 -4.78125 Z M -0.984375 -2.0625 "/>
</symbol>
<symbol overflow="visible" id="glyph1-2">
<path style="stroke:none;" d="M -6.28125 -1.796875 L -6.28125 -0.796875 L 0 -0.796875 L 0 -1.796875 Z M -8.75 -1.796875 L -8.75 -0.796875 L -7.484375 -0.796875 L -7.484375 -1.796875 Z M -8.75 -1.796875 "/>
</symbol>
<symbol overflow="visible" id="glyph1-3">
<path style="stroke:none;" d="M -6.28125 -3.046875 L -6.28125 -2.015625 L -8.015625 -2.015625 L -8.015625 -1.015625 L -6.28125 -1.015625 L -6.28125 -0.171875 L -5.46875 -0.171875 L -5.46875 -1.015625 L -0.71875 -1.015625 C -0.078125 -1.015625 0.28125 -1.453125 0.28125 -2.234375 C 0.28125 -2.46875 0.25 -2.71875 0.1875 -3.046875 L -0.640625 -3.046875 C -0.609375 -2.921875 -0.59375 -2.765625 -0.59375 -2.5625 C -0.59375 -2.140625 -0.71875 -2.015625 -1.15625 -2.015625 L -5.46875 -2.015625 L -5.46875 -3.046875 Z M -6.28125 -3.046875 "/>
</symbol>
<symbol overflow="visible" id="glyph1-4">
<path style="stroke:none;" d="M -4.53125 -5.25 C -5.765625 -5.25 -6.46875 -4.421875 -6.46875 -2.96875 C -6.46875 -1.515625 -5.71875 -0.5625 -4.546875 -0.5625 C -3.5625 -0.5625 -3.09375 -1.0625 -2.734375 -2.5625 L -2.515625 -3.484375 C -2.34375 -4.1875 -2.09375 -4.46875 -1.625 -4.46875 C -1.046875 -4.46875 -0.640625 -3.875 -0.640625 -3 C -0.640625 -2.453125 -0.796875 -2 -1.0625 -1.75 C -1.25 -1.59375 -1.421875 -1.53125 -1.875 -1.46875 L -1.875 -0.40625 C -0.421875 -0.453125 0.28125 -1.265625 0.28125 -2.921875 C 0.28125 -4.5 -0.5 -5.515625 -1.71875 -5.515625 C -2.65625 -5.515625 -3.171875 -4.984375 -3.46875 -3.734375 L -3.703125 -2.765625 C -3.890625 -1.953125 -4.15625 -1.609375 -4.59375 -1.609375 C -5.171875 -1.609375 -5.546875 -2.125 -5.546875 -2.9375 C -5.546875 -3.75 -5.203125 -4.171875 -4.53125 -4.203125 Z M -4.53125 -5.25 "/>
</symbol>
</g>
</defs>
<g id="surface129035">
<rect x="0" y="0" width="720" height="360" style="fill:rgb(100%,100%,100%);fill-opacity:1;stroke:none;"/>
<path style=" stroke:none;fill-rule:nonzero;fill:rgb(6.27451%,58.823529%,28.235294%);fill-opacity:1;" d="M 69.628906 311.300781 L 69.691406 311.296875 L 95.046875 309.832031 L 102.746094 309.832031 L 128.222656 311.300781 L 119.273438 311.300781 L 112.886719 310.917969 L 84.902344 310.917969 L 78.644531 311.300781 L 69.628906 311.300781 L 87.597656 310.757812 L 110.320312 310.757812 L 98.988281 310.070312 L 98.863281 310.070312 L 98.738281 310.074219 L 87.535156 310.757812 L 87.597656 310.757812 Z M 69.628906 311.300781 "/>
<path style=" stroke:none;fill-rule:nonzero;fill:rgb(14.509804%,36.078431%,60%);fill-opacity:1;" d="M 69.628906 302.367188 L 69.699219 302.363281 L 69.699219 302.292969 L 69.914062 302.175781 L 70.414062 302.03125 L 70.914062 301.929688 L 72.203125 301.75 L 73.988281 301.578125 L 75.847656 301.445312 L 77.203125 301.367188 L 78.417969 301.304688 L 81.207031 301.191406 L 82.992188 301.136719 L 84.921875 301.082031 L 87.28125 301.03125 L 88.996094 301.003906 L 92.851562 300.953125 L 95.710938 300.933594 L 97.925781 300.921875 L 102.714844 300.921875 L 105.574219 300.933594 L 107.644531 300.949219 L 109.929688 300.976562 L 111.859375 301.003906 L 115.21875 301.070312 L 118.21875 301.152344 L 119.578125 301.203125 L 121.722656 301.296875 L 123.367188 301.386719 L 124.507812 301.464844 L 125.796875 301.578125 L 126.9375 301.714844 L 127.796875 301.871094 L 128.222656 302 L 118.21875 302 L 117.71875 301.878906 L 117.148438 301.785156 L 116.078125 301.660156 L 115.003906 301.574219 L 113.503906 301.484375 L 112.148438 301.425781 L 110.289062 301.371094 L 108.644531 301.332031 L 106.929688 301.304688 L 105.285156 301.289062 L 102.140625 301.269531 L 98.5 301.269531 L 97.140625 301.273438 L 94.355469 301.300781 L 92.851562 301.320312 L 90.710938 301.363281 L 89.207031 301.402344 L 87.421875 301.464844 L 86.207031 301.515625 L 84.707031 301.59375 L 83.636719 301.664062 L 82.421875 301.765625 L 81.707031 301.839844 L 81.0625 301.925781 L 80.492188 302.023438 L 80.0625 302.132812 L 79.777344 302.242188 L 79.632812 302.351562 L 79.632812 302.824219 L 79.777344 302.933594 L 80.132812 303.058594 L 81.0625 303.246094 L 82.421875 303.40625 L 83.992188 303.535156 L 85.492188 303.625 L 86.351562 303.667969 L 87.492188 303.714844 L 89.28125 303.777344 L 91.851562 303.835938 L 93.351562 303.859375 L 95.640625 303.886719 L 97.996094 303.898438 L 101.140625 303.898438 L 103.929688 303.886719 L 105.785156 303.871094 L 107.714844 303.847656 L 110.359375 303.792969 L 112.003906 303.746094 L 113.433594 303.6875 L 114.503906 303.628906 L 115.21875 303.582031 L 116.292969 303.488281 L 117.148438 303.382812 L 117.792969 303.277344 L 118.21875 303.175781 L 128.222656 303.175781 L 127.796875 303.296875 L 127.152344 303.414062 L 126.507812 303.503906 L 125.507812 303.609375 L 124.367188 303.703125 L 122.722656 303.808594 L 121.363281 303.878906 L 119.578125 303.953125 L 117.933594 304.011719 L 116.148438 304.0625 L 113.503906 304.125 L 111.789062 304.15625 L 109.929688 304.183594 L 107.714844 304.207031 L 104.929688 304.226562 L 101.929688 304.242188 L 99.140625 304.242188 L 96.140625 304.238281 L 93.925781 304.226562 L 90.996094 304.199219 L 87.351562 304.144531 L 84.707031 304.085938 L 82.632812 304.027344 L 80.847656 303.96875 L 78.847656 303.886719 L 76.273438 303.75 L 74.703125 303.648438 L 73.632812 303.5625 L 72.417969 303.445312 L 71.558594 303.339844 L 70.558594 303.167969 L 69.84375 302.953125 L 69.628906 302.785156 Z M 69.628906 302.367188 "/>
<path style=" stroke:none;fill-rule:nonzero;fill:rgb(96.862745%,70.196078%,16.862745%);fill-opacity:1;" d="M 69.628906 312.785156 L 69.699219 312.785156 L 69.699219 312.769531 L 69.988281 312.742188 L 70.703125 312.699219 L 71.628906 312.667969 L 72.628906 312.640625 L 73.273438 312.625 L 74.34375 312.605469 L 75.273438 312.59375 L 77.632812 312.5625 L 80.632812 312.535156 L 82.277344 312.523438 L 84.136719 312.511719 L 86.777344 312.5 L 87.992188 312.496094 L 91.710938 312.484375 L 95.925781 312.476562 L 102.714844 312.476562 L 105.644531 312.480469 L 109.644531 312.484375 L 111.933594 312.492188 L 113.71875 312.5 L 115.578125 312.507812 L 117.863281 312.519531 L 120.007812 312.535156 L 121.722656 312.550781 L 123.4375 312.574219 L 124.867188 312.59375 L 126.082031 312.617188 L 127.152344 312.644531 L 127.796875 312.667969 L 128.222656 312.691406 L 118.292969 312.691406 L 117.71875 312.667969 L 117.078125 312.648438 L 116.003906 312.628906 L 113.863281 312.597656 L 111.859375 312.582031 L 110.144531 312.570312 L 108.003906 312.5625 L 105.929688 312.558594 L 103.570312 312.550781 L 98.355469 312.550781 L 94.925781 312.554688 L 92.925781 312.5625 L 91.496094 312.566406 L 89.496094 312.578125 L 88.28125 312.585938 L 87.566406 312.589844 L 85.421875 312.609375 L 83.992188 312.628906 L 83.207031 312.640625 L 82.207031 312.660156 L 81.492188 312.679688 L 80.707031 312.703125 L 80.277344 312.722656 L 79.703125 312.769531 L 79.632812 312.886719 L 79.847656 312.914062 L 80.277344 312.9375 L 80.847656 312.964844 L 81.707031 312.988281 L 82.5625 313.007812 L 84.0625 313.03125 L 85.351562 313.050781 L 86.351562 313.0625 L 88.28125 313.078125 L 89.066406 313.085938 L 90.921875 313.097656 L 92.851562 313.105469 L 95.210938 313.113281 L 96.996094 313.117188 L 99.855469 313.121094 L 103.5 313.121094 L 107.789062 313.117188 L 110.503906 313.113281 L 112.359375 313.105469 L 113.574219 313.101562 L 115.078125 313.09375 L 116.148438 313.089844 L 117.148438 313.082031 L 118.363281 313.070312 L 118.363281 312.914062 L 100.714844 312.910156 L 100.714844 312.839844 L 128.152344 312.835938 L 128.222656 313.09375 L 126.722656 313.113281 L 124.867188 313.128906 L 123.078125 313.140625 L 121.222656 313.152344 L 118.578125 313.167969 L 116.433594 313.175781 L 113.148438 313.183594 L 110.144531 313.1875 L 107 313.191406 L 104.214844 313.195312 L 97.996094 313.195312 L 94.855469 313.191406 L 92.351562 313.183594 L 90.066406 313.179688 L 87.78125 313.171875 L 84.921875 313.15625 L 83.0625 313.144531 L 81.132812 313.132812 L 79.203125 313.113281 L 77.488281 313.097656 L 76.347656 313.082031 L 75.203125 313.066406 L 73.988281 313.046875 L 72.84375 313.027344 L 71.988281 313.003906 L 71.203125 312.980469 L 70.628906 312.960938 L 70.058594 312.929688 L 69.773438 312.90625 L 69.628906 312.886719 Z M 69.628906 312.785156 "/>
<path style=" stroke:none;fill-rule:nonzero;fill:rgb(83.921569%,15.686275%,22.352941%);fill-opacity:1;" d="M 69.628906 305.417969 L 128.222656 305.417969 L 128.222656 305.765625 L 103.804688 305.769531 L 103.804688 308.65625 L 93.980469 308.65625 L 93.980469 305.769531 L 93.835938 305.765625 L 69.628906 305.765625 Z M 69.628906 305.417969 "/>
<path style=" stroke:none;fill-rule:nonzero;fill:rgb(6.27451%,58.823529%,28.235294%);fill-opacity:1;" d="M 131.308594 312.652344 L 131.371094 312.648438 L 156.726562 306.074219 L 164.425781 306.074219 L 189.902344 312.660156 L 180.953125 312.660156 L 174.566406 310.941406 L 146.582031 310.941406 L 140.324219 312.652344 L 131.308594 312.652344 L 149.273438 310.230469 L 172 310.222656 L 160.667969 307.152344 L 160.542969 307.144531 L 160.417969 307.164062 L 149.210938 310.222656 L 149.273438 310.230469 Z M 131.308594 312.652344 "/>
<path style=" stroke:none;fill-rule:nonzero;fill:rgb(14.509804%,36.078431%,60%);fill-opacity:1;" d="M 131.308594 298.589844 L 131.378906 298.582031 L 131.378906 298.335938 L 131.59375 297.949219 L 132.09375 297.457031 L 132.59375 297.121094 L 133.882812 296.519531 L 135.667969 295.9375 L 137.523438 295.488281 L 138.882812 295.222656 L 140.097656 295.019531 L 142.882812 294.640625 L 144.671875 294.445312 L 146.601562 294.273438 L 148.957031 294.101562 L 150.671875 293.996094 L 154.53125 293.835938 L 157.390625 293.761719 L 159.605469 293.730469 L 164.394531 293.730469 L 167.25 293.773438 L 169.324219 293.824219 L 171.609375 293.90625 L 173.539062 293.996094 L 176.898438 294.222656 L 179.898438 294.507812 L 181.257812 294.671875 L 183.402344 294.988281 L 185.042969 295.292969 L 186.1875 295.558594 L 187.472656 295.9375 L 188.617188 296.398438 L 189.476562 296.917969 L 189.902344 297.355469 L 179.898438 297.355469 L 179.398438 296.949219 L 178.828125 296.632812 L 177.757812 296.214844 L 176.683594 295.917969 L 175.183594 295.621094 L 173.824219 295.425781 L 171.96875 295.234375 L 170.324219 295.109375 L 168.609375 295.019531 L 166.964844 294.957031 L 163.820312 294.894531 L 160.175781 294.894531 L 158.820312 294.917969 L 156.03125 295 L 154.53125 295.070312 L 152.386719 295.210938 L 150.886719 295.34375 L 149.101562 295.550781 L 147.886719 295.722656 L 146.386719 295.988281 L 145.3125 296.222656 L 144.097656 296.558594 L 143.386719 296.816406 L 142.742188 297.101562 L 142.171875 297.4375 L 141.742188 297.796875 L 141.457031 298.171875 L 141.3125 298.539062 L 141.3125 300.125 L 141.457031 300.492188 L 141.8125 300.917969 L 142.742188 301.542969 L 144.097656 302.082031 L 145.671875 302.511719 L 147.171875 302.816406 L 148.03125 302.960938 L 149.171875 303.125 L 150.960938 303.328125 L 153.53125 303.53125 L 155.03125 303.613281 L 157.320312 303.695312 L 159.675781 303.738281 L 162.820312 303.738281 L 165.609375 303.695312 L 167.464844 303.644531 L 169.394531 303.5625 L 172.039062 303.390625 L 173.683594 303.226562 L 175.113281 303.03125 L 176.183594 302.839844 L 176.898438 302.675781 L 177.96875 302.359375 L 178.828125 302.011719 L 179.472656 301.65625 L 179.898438 301.308594 L 189.902344 301.308594 L 189.476562 301.714844 L 188.832031 302.113281 L 188.1875 302.410156 L 187.1875 302.765625 L 186.046875 303.082031 L 184.402344 303.441406 L 183.042969 303.675781 L 181.257812 303.929688 L 179.613281 304.125 L 177.828125 304.296875 L 175.183594 304.503906 L 173.46875 304.605469 L 171.609375 304.695312 L 169.394531 304.777344 L 166.609375 304.851562 L 163.605469 304.890625 L 160.820312 304.902344 L 157.820312 304.878906 L 155.605469 304.839844 L 152.675781 304.746094 L 149.03125 304.5625 L 146.386719 304.371094 L 144.3125 304.175781 L 142.527344 303.972656 L 140.527344 303.695312 L 137.953125 303.246094 L 136.382812 302.898438 L 135.308594 302.613281 L 134.09375 302.214844 L 133.238281 301.859375 L 132.238281 301.285156 L 131.523438 300.5625 L 131.308594 300 Z M 131.308594 298.589844 "/>
<path style=" stroke:none;fill-rule:nonzero;fill:rgb(96.862745%,70.196078%,16.862745%);fill-opacity:1;" d="M 131.308594 170.613281 L 131.378906 170.417969 L 131.378906 166.523438 L 131.664062 157.757812 L 132.378906 145.679688 L 133.308594 135.746094 L 134.308594 127.953125 L 134.953125 123.863281 L 136.023438 118.019531 L 136.953125 113.734375 L 139.3125 104.96875 L 142.3125 96.785156 L 143.957031 93.28125 L 145.8125 89.96875 L 148.457031 86.265625 L 149.671875 84.902344 L 153.390625 81.785156 L 157.605469 79.839844 L 162.25 79.253906 L 164.394531 79.449219 L 167.324219 80.230469 L 171.324219 82.371094 L 173.613281 84.320312 L 175.398438 86.265625 L 177.253906 88.800781 L 179.542969 92.695312 L 181.6875 97.371094 L 183.402344 102.046875 L 185.117188 107.890625 L 186.546875 114.125 L 187.761719 120.941406 L 188.832031 129.121094 L 189.476562 135.941406 L 189.902344 142.757812 L 179.972656 142.757812 L 179.398438 135.941406 L 178.757812 130.679688 L 177.683594 124.253906 L 176.613281 119.578125 L 175.539062 115.875 L 173.539062 110.8125 L 171.824219 107.695312 L 169.679688 104.96875 L 167.609375 103.214844 L 165.25 102.046875 L 163.820312 101.65625 L 160.035156 101.65625 L 156.605469 103.019531 L 154.605469 104.578125 L 153.175781 106.136719 L 151.171875 109.058594 L 149.957031 111.394531 L 149.246094 112.953125 L 147.101562 118.992188 L 145.671875 124.449219 L 144.886719 128.148438 L 143.886719 133.992188 L 143.171875 139.253906 L 142.382812 147.042969 L 141.957031 152.886719 L 141.382812 166.132812 L 141.3125 201.199219 L 141.527344 208.601562 L 141.957031 216.585938 L 142.527344 223.597656 L 143.386719 231 L 144.242188 236.652344 L 145.742188 244.246094 L 147.027344 249.3125 L 148.03125 252.625 L 149.957031 257.882812 L 150.746094 259.636719 L 152.601562 263.144531 L 154.53125 265.871094 L 156.890625 268.207031 L 158.675781 269.375 L 161.535156 270.351562 L 165.179688 270.351562 L 169.46875 269.183594 L 172.183594 267.625 L 174.039062 266.066406 L 175.253906 264.703125 L 176.753906 262.558594 L 177.828125 260.609375 L 178.828125 258.46875 L 180.042969 255.15625 L 180.042969 208.601562 L 162.390625 208.40625 L 162.390625 186.585938 L 189.832031 186.394531 L 189.902344 262.558594 L 188.402344 267.816406 L 186.546875 272.882812 L 184.757812 276.777344 L 182.902344 280.089844 L 180.257812 283.792969 L 178.113281 286.128906 L 174.824219 288.855469 L 171.824219 290.609375 L 168.679688 291.777344 L 165.894531 292.363281 L 162.605469 292.558594 L 159.675781 292.167969 L 156.53125 291 L 154.03125 289.441406 L 151.746094 287.492188 L 149.457031 284.960938 L 146.601562 280.871094 L 144.742188 277.558594 L 142.8125 273.46875 L 140.882812 268.597656 L 139.167969 263.335938 L 138.027344 259.246094 L 136.882812 254.570312 L 135.667969 248.726562 L 134.523438 242.105469 L 133.667969 236.066406 L 132.878906 229.25 L 132.308594 222.820312 L 131.738281 214.054688 L 131.453125 207.042969 L 131.308594 201.003906 Z M 131.308594 170.613281 "/>
<path style=" stroke:none;fill-rule:nonzero;fill:rgb(6.27451%,58.823529%,28.235294%);fill-opacity:1;" d="M 192.988281 312.859375 L 193.050781 312.832031 L 218.402344 285.25 L 226.105469 285.25 L 251.582031 312.886719 L 242.628906 312.886719 L 236.246094 305.671875 L 208.261719 305.671875 L 202.003906 312.859375 L 192.988281 312.859375 L 210.953125 302.6875 L 233.679688 302.660156 L 222.347656 289.765625 L 222.222656 289.738281 L 222.097656 289.816406 L 210.890625 302.660156 L 210.953125 302.6875 Z M 192.988281 312.859375 "/>
<path style=" stroke:none;fill-rule:nonzero;fill:rgb(14.509804%,36.078431%,60%);fill-opacity:1;" d="M 192.988281 171.449219 L 193.058594 171.265625 L 193.058594 166.894531 L 193.273438 159.96875 L 193.773438 151.21875 L 194.273438 145.207031 L 195.558594 134.453125 L 197.347656 124.066406 L 199.203125 116.046875 L 200.5625 111.308594 L 201.777344 107.664062 L 204.5625 100.921875 L 206.351562 97.460938 L 208.28125 94.359375 L 210.636719 91.261719 L 212.351562 89.441406 L 216.210938 86.523438 L 219.070312 85.25 L 221.285156 84.703125 L 226.074219 84.703125 L 228.929688 85.429688 L 231.003906 86.34375 L 233.289062 87.800781 L 235.21875 89.441406 L 238.578125 93.449219 L 241.578125 98.554688 L 242.9375 101.46875 L 245.082031 107.117188 L 246.722656 112.585938 L 247.867188 117.324219 L 249.152344 124.066406 L 250.296875 132.265625 L 251.152344 141.5625 L 251.582031 149.398438 L 241.578125 149.398438 L 241.078125 142.109375 L 240.507812 136.457031 L 239.433594 128.988281 L 238.363281 123.703125 L 236.863281 118.417969 L 235.503906 114.953125 L 233.648438 111.492188 L 232.003906 109.304688 L 230.289062 107.664062 L 228.644531 106.570312 L 225.5 105.476562 L 221.855469 105.476562 L 220.5 105.84375 L 217.710938 107.300781 L 216.210938 108.574219 L 214.066406 111.128906 L 212.566406 113.496094 L 210.78125 117.140625 L 209.566406 120.238281 L 208.066406 124.976562 L 206.992188 129.167969 L 205.777344 135.183594 L 205.0625 139.738281 L 204.421875 144.84375 L 203.847656 150.855469 L 203.421875 157.234375 L 203.132812 163.976562 L 202.992188 170.539062 L 202.992188 198.785156 L 203.132812 205.347656 L 203.492188 213 L 204.421875 224.117188 L 205.777344 233.773438 L 207.351562 241.429688 L 208.851562 246.898438 L 209.707031 249.449219 L 210.851562 252.363281 L 212.636719 256.007812 L 215.210938 259.652344 L 216.710938 261.109375 L 219 262.570312 L 221.355469 263.296875 L 224.5 263.296875 L 227.289062 262.570312 L 229.144531 261.65625 L 231.074219 260.199219 L 233.71875 257.101562 L 235.363281 254.1875 L 236.792969 250.722656 L 237.863281 247.261719 L 238.578125 244.34375 L 239.648438 238.695312 L 240.507812 232.5 L 241.148438 226.121094 L 241.578125 219.925781 L 251.582031 219.925781 L 251.152344 227.214844 L 250.511719 234.320312 L 249.867188 239.605469 L 248.867188 245.984375 L 247.722656 251.636719 L 246.082031 258.011719 L 244.722656 262.203125 L 242.9375 266.761719 L 241.292969 270.222656 L 239.507812 273.320312 L 236.863281 276.964844 L 235.148438 278.789062 L 233.289062 280.429688 L 231.074219 281.886719 L 228.289062 283.164062 L 225.285156 283.890625 L 222.5 284.074219 L 219.5 283.710938 L 217.285156 282.980469 L 214.351562 281.339844 L 210.710938 278.058594 L 208.066406 274.597656 L 205.992188 271.132812 L 204.207031 267.488281 L 202.207031 262.570312 L 199.632812 254.550781 L 198.0625 248.355469 L 196.988281 243.25 L 195.773438 236.144531 L 194.917969 229.765625 L 193.917969 219.558594 L 193.203125 206.621094 L 192.988281 196.597656 Z M 192.988281 171.449219 "/>
<path style=" stroke:none;fill-rule:nonzero;fill:rgb(6.27451%,58.823529%,28.235294%);fill-opacity:1;" d="M 254.667969 296.070312 L 254.730469 295.847656 L 280.082031 58.101562 L 287.78125 58.101562 L 313.261719 296.292969 L 304.308594 296.292969 L 297.925781 234.117188 L 269.941406 234.117188 L 263.679688 296.070312 L 254.667969 296.070312 L 272.632812 208.398438 L 295.359375 208.175781 L 284.027344 97.015625 L 283.902344 96.792969 L 283.777344 97.464844 L 272.570312 208.175781 L 272.632812 208.398438 Z M 254.667969 296.070312 "/>
<path style=" stroke:none;fill-rule:nonzero;fill:rgb(96.862745%,70.196078%,16.862745%);fill-opacity:1;" d="M 254.667969 303.03125 L 254.738281 303.019531 L 254.738281 302.785156 L 255.023438 302.25 L 255.738281 301.515625 L 256.667969 300.910156 L 257.667969 300.433594 L 258.3125 300.1875 L 259.382812 299.832031 L 260.3125 299.570312 L 262.671875 299.035156 L 265.671875 298.539062 L 267.316406 298.324219 L 269.171875 298.121094 L 271.816406 297.898438 L 273.03125 297.8125 L 276.746094 297.625 L 280.964844 297.503906 L 285.609375 297.46875 L 287.75 297.480469 L 290.679688 297.527344 L 294.683594 297.660156 L 296.96875 297.777344 L 298.757812 297.898438 L 300.613281 298.050781 L 302.902344 298.289062 L 305.042969 298.574219 L 306.757812 298.855469 L 308.472656 299.214844 L 309.902344 299.59375 L 311.117188 300.007812 L 312.191406 300.507812 L 312.832031 300.921875 L 313.261719 301.335938 L 303.328125 301.335938 L 302.757812 300.921875 L 302.113281 300.601562 L 301.042969 300.210938 L 299.972656 299.925781 L 298.898438 299.699219 L 296.898438 299.390625 L 295.183594 299.203125 L 293.039062 299.035156 L 290.96875 298.929688 L 288.609375 298.855469 L 287.179688 298.832031 L 283.394531 298.832031 L 279.960938 298.917969 L 277.960938 299.011719 L 276.53125 299.105469 L 274.53125 299.285156 L 273.316406 299.425781 L 272.601562 299.523438 L 270.457031 299.890625 L 269.03125 300.222656 L 268.242188 300.445312 L 267.242188 300.804688 L 266.527344 301.125 L 265.742188 301.597656 L 265.3125 301.953125 L 264.742188 302.761719 L 264.671875 304.894531 L 264.886719 305.347656 L 265.3125 305.832031 L 265.886719 306.257812 L 266.742188 306.710938 L 267.601562 307.054688 L 269.101562 307.515625 L 270.386719 307.824219 L 271.386719 308.027344 L 273.316406 308.347656 L 274.101562 308.453125 L 275.960938 308.667969 L 277.890625 308.832031 L 280.25 308.976562 L 282.035156 309.046875 L 284.894531 309.105469 L 288.539062 309.105469 L 292.824219 309.035156 L 295.539062 308.941406 L 297.398438 308.84375 L 298.613281 308.761719 L 300.113281 308.632812 L 301.1875 308.511719 L 302.1875 308.382812 L 303.402344 308.179688 L 303.402344 305.347656 L 285.75 305.335938 L 285.75 304.003906 L 313.191406 303.992188 L 313.261719 308.632812 L 311.761719 308.953125 L 309.902344 309.261719 L 308.117188 309.496094 L 306.257812 309.699219 L 303.617188 309.925781 L 301.472656 310.066406 L 298.183594 310.234375 L 295.183594 310.339844 L 292.039062 310.410156 L 289.253906 310.445312 L 285.964844 310.457031 L 283.035156 310.433594 L 279.890625 310.363281 L 277.390625 310.269531 L 275.105469 310.152344 L 272.816406 309.996094 L 269.957031 309.746094 L 268.101562 309.546875 L 266.171875 309.296875 L 264.242188 309 L 262.527344 308.679688 L 261.382812 308.429688 L 260.242188 308.144531 L 259.027344 307.789062 L 257.882812 307.386719 L 257.023438 307.019531 L 256.238281 306.605469 L 255.667969 306.210938 L 255.09375 305.679688 L 254.808594 305.25 L 254.667969 304.882812 Z M 254.667969 303.03125 "/>
<path style=" stroke:none;fill-rule:nonzero;fill:rgb(83.921569%,15.686275%,22.352941%);fill-opacity:1;" d="M 254.667969 311.632812 L 313.261719 311.632812 L 313.261719 311.796875 L 288.839844 311.796875 L 288.839844 313.15625 L 279.015625 313.15625 L 279.015625 311.800781 L 278.875 311.796875 L 254.667969 311.796875 Z M 254.667969 311.632812 "/>
<path style=" stroke:none;fill-rule:nonzero;fill:rgb(14.509804%,36.078431%,60%);fill-opacity:1;" d="M 316.347656 145.410156 L 316.417969 145.148438 L 316.417969 138.855469 L 316.632812 128.898438 L 317.132812 116.320312 L 317.632812 107.671875 L 318.917969 92.207031 L 320.703125 77.269531 L 322.5625 65.738281 L 323.921875 58.925781 L 325.136719 53.683594 L 327.921875 43.988281 L 329.707031 39.007812 L 331.636719 34.550781 L 333.996094 30.097656 L 335.710938 27.476562 L 339.570312 23.285156 L 342.429688 21.449219 L 344.644531 20.664062 L 349.429688 20.664062 L 352.289062 21.710938 L 354.363281 23.023438 L 356.648438 25.117188 L 358.578125 27.476562 L 361.9375 33.242188 L 364.9375 40.582031 L 366.292969 44.773438 L 368.4375 52.898438 L 370.082031 60.761719 L 371.226562 67.574219 L 372.511719 77.269531 L 373.65625 89.0625 L 374.511719 102.429688 L 374.941406 113.699219 L 364.9375 113.699219 L 364.4375 103.214844 L 363.867188 95.089844 L 362.792969 84.347656 L 361.722656 76.746094 L 360.222656 69.144531 L 358.863281 64.167969 L 357.003906 59.1875 L 355.363281 56.042969 L 353.648438 53.683594 L 352.003906 52.113281 L 348.859375 50.539062 L 345.214844 50.539062 L 343.855469 51.0625 L 341.070312 53.160156 L 339.570312 54.996094 L 337.425781 58.664062 L 335.925781 62.070312 L 334.140625 67.3125 L 332.925781 71.765625 L 331.421875 78.582031 L 330.351562 84.609375 L 329.136719 93.257812 L 328.421875 99.808594 L 327.777344 107.144531 L 327.207031 115.792969 L 326.777344 124.96875 L 326.492188 134.664062 L 326.351562 144.097656 L 326.351562 184.71875 L 326.492188 194.152344 L 326.851562 205.160156 L 327.777344 221.148438 L 329.136719 235.035156 L 330.707031 246.042969 L 332.210938 253.90625 L 333.066406 257.574219 L 334.210938 261.769531 L 335.996094 267.007812 L 338.570312 272.25 L 340.070312 274.347656 L 342.355469 276.445312 L 344.714844 277.492188 L 347.859375 277.492188 L 350.644531 276.445312 L 352.503906 275.132812 L 354.433594 273.039062 L 357.078125 268.582031 L 358.71875 264.390625 L 360.148438 259.410156 L 361.222656 254.429688 L 361.9375 250.238281 L 363.007812 242.113281 L 363.867188 233.203125 L 364.507812 224.03125 L 364.9375 215.121094 L 374.941406 215.121094 L 374.511719 225.601562 L 373.871094 235.824219 L 373.226562 243.421875 L 372.226562 252.597656 L 371.082031 260.71875 L 369.4375 269.890625 L 368.082031 275.921875 L 366.292969 282.472656 L 364.652344 287.453125 L 362.863281 291.90625 L 360.222656 297.148438 L 358.507812 299.769531 L 356.648438 302.128906 L 354.433594 304.222656 L 351.644531 306.058594 L 348.644531 307.105469 L 345.859375 307.367188 L 342.855469 306.84375 L 340.640625 305.796875 L 337.710938 303.4375 L 334.066406 298.71875 L 331.421875 293.742188 L 329.351562 288.761719 L 327.566406 283.519531 L 325.5625 276.445312 L 322.992188 264.914062 L 321.417969 256.003906 L 320.347656 248.664062 L 319.132812 238.445312 L 318.273438 229.273438 L 317.273438 214.59375 L 316.558594 195.988281 L 316.347656 181.574219 Z M 316.347656 145.410156 "/>
<path style=" stroke:none;fill-rule:nonzero;fill:rgb(83.921569%,15.686275%,22.352941%);fill-opacity:1;" d="M 316.347656 308.542969 L 374.941406 308.542969 L 374.941406 308.90625 L 350.519531 308.910156 L 350.519531 311.945312 L 340.695312 311.945312 L 340.695312 308.914062 L 340.554688 308.90625 L 316.347656 308.90625 Z M 316.347656 308.542969 "/>
<path style=" stroke:none;fill-rule:nonzero;fill:rgb(6.27451%,58.823529%,28.235294%);fill-opacity:1;" d="M 378.023438 311.941406 L 378.085938 311.9375 L 403.441406 308.542969 L 411.140625 308.542969 L 436.621094 311.945312 L 427.667969 311.945312 L 421.28125 311.058594 L 393.300781 311.058594 L 387.039062 311.941406 L 378.023438 311.941406 L 395.992188 310.691406 L 418.714844 310.6875 L 407.386719 309.097656 L 407.261719 309.097656 L 407.136719 309.105469 L 395.929688 310.6875 L 395.992188 310.691406 Z M 378.023438 311.941406 "/>
<path style=" stroke:none;fill-rule:nonzero;fill:rgb(96.862745%,70.196078%,16.862745%);fill-opacity:1;" d="M 378.023438 143.460938 L 378.097656 143.199219 L 378.097656 137.964844 L 378.382812 126.179688 L 379.097656 109.949219 L 380.027344 96.59375 L 381.027344 86.121094 L 381.667969 80.621094 L 382.742188 72.765625 L 383.671875 67.007812 L 386.027344 55.226562 L 389.03125 44.226562 L 390.671875 39.515625 L 392.53125 35.0625 L 395.175781 30.089844 L 396.390625 28.257812 L 400.105469 24.066406 L 404.320312 21.449219 L 408.964844 20.664062 L 411.109375 20.925781 L 414.039062 21.972656 L 418.042969 24.851562 L 420.328125 27.46875 L 422.113281 30.089844 L 423.972656 33.492188 L 426.257812 38.730469 L 428.402344 45.011719 L 430.117188 51.296875 L 431.832031 59.152344 L 433.261719 67.53125 L 434.476562 76.695312 L 435.546875 87.691406 L 436.191406 96.855469 L 436.621094 106.019531 L 426.6875 106.019531 L 426.117188 96.855469 L 425.472656 89.785156 L 424.402344 81.144531 L 423.328125 74.863281 L 422.257812 69.886719 L 420.257812 63.078125 L 418.542969 58.890625 L 416.398438 55.226562 L 414.324219 52.867188 L 411.96875 51.296875 L 410.539062 50.773438 L 406.75 50.773438 L 403.320312 52.605469 L 401.320312 54.699219 L 399.890625 56.796875 L 397.890625 60.722656 L 396.675781 63.863281 L 395.960938 65.960938 L 393.816406 74.078125 L 392.386719 81.40625 L 391.601562 86.382812 L 390.601562 94.238281 L 389.886719 101.308594 L 389.101562 111.78125 L 388.671875 119.636719 L 388.101562 137.441406 L 388.027344 184.570312 L 388.242188 194.519531 L 388.671875 205.253906 L 389.242188 214.679688 L 390.101562 224.628906 L 390.960938 232.222656 L 392.460938 242.433594 L 393.746094 249.242188 L 394.746094 253.691406 L 396.675781 260.761719 L 397.460938 263.117188 L 399.320312 267.832031 L 401.25 271.496094 L 403.605469 274.640625 L 405.394531 276.210938 L 408.25 277.519531 L 411.894531 277.519531 L 416.183594 275.949219 L 418.898438 273.855469 L 420.757812 271.757812 L 421.972656 269.925781 L 423.472656 267.046875 L 424.542969 264.429688 L 425.542969 261.546875 L 426.757812 257.097656 L 426.757812 194.519531 L 409.109375 194.257812 L 409.109375 164.933594 L 436.550781 164.671875 L 436.621094 267.046875 L 435.121094 274.117188 L 433.261719 280.921875 L 431.476562 286.160156 L 429.617188 290.613281 L 426.972656 295.585938 L 424.828125 298.726562 L 421.542969 302.394531 L 418.542969 304.75 L 415.398438 306.320312 L 412.609375 307.105469 L 409.324219 307.367188 L 406.394531 306.84375 L 403.25 305.273438 L 400.75 303.179688 L 398.460938 300.5625 L 396.175781 297.15625 L 393.316406 291.660156 L 391.460938 287.207031 L 389.53125 281.710938 L 387.601562 275.164062 L 385.886719 268.09375 L 384.742188 262.59375 L 383.597656 256.3125 L 382.382812 248.457031 L 381.242188 239.554688 L 380.382812 231.4375 L 379.597656 222.273438 L 379.027344 213.632812 L 378.453125 201.851562 L 378.167969 192.425781 L 378.023438 184.308594 Z M 378.023438 143.460938 "/>
<path style=" stroke:none;fill-rule:nonzero;fill:rgb(6.27451%,58.823529%,28.235294%);fill-opacity:1;" d="M 439.703125 313.152344 L 439.765625 313.152344 L 465.121094 311.632812 L 472.820312 311.632812 L 498.300781 313.15625 L 489.347656 313.15625 L 482.960938 312.757812 L 454.980469 312.757812 L 448.71875 313.152344 L 439.703125 313.152344 L 457.671875 312.59375 L 480.394531 312.59375 L 469.066406 311.882812 L 468.9375 311.878906 L 468.8125 311.886719 L 457.609375 312.59375 L 457.671875 312.59375 Z M 439.703125 313.152344 "/>
<path style=" stroke:none;fill-rule:nonzero;fill:rgb(14.509804%,36.078431%,60%);fill-opacity:1;" d="M 439.703125 303.121094 L 439.777344 303.109375 L 439.777344 302.824219 L 439.988281 302.375 L 440.492188 301.804688 L 440.992188 301.410156 L 442.277344 300.710938 L 444.0625 300.035156 L 445.921875 299.511719 L 447.277344 299.203125 L 448.492188 298.964844 L 451.28125 298.527344 L 453.066406 298.300781 L 454.996094 298.097656 L 457.355469 297.898438 L 459.070312 297.777344 L 462.929688 297.589844 L 465.785156 297.503906 L 468 297.46875 L 472.789062 297.46875 L 475.648438 297.515625 L 477.71875 297.578125 L 480.007812 297.671875 L 481.9375 297.777344 L 485.292969 298.039062 L 488.296875 298.371094 L 489.652344 298.5625 L 491.796875 298.929688 L 493.441406 299.285156 L 494.582031 299.59375 L 495.871094 300.035156 L 497.011719 300.570312 L 497.871094 301.175781 L 498.300781 301.683594 L 488.296875 301.683594 L 487.796875 301.210938 L 487.222656 300.839844 L 486.152344 300.355469 L 485.078125 300.011719 L 483.578125 299.667969 L 482.222656 299.441406 L 480.363281 299.214844 L 478.71875 299.074219 L 477.003906 298.964844 L 475.363281 298.894531 L 472.21875 298.824219 L 468.574219 298.824219 L 467.214844 298.847656 L 464.429688 298.941406 L 462.929688 299.023438 L 460.785156 299.191406 L 459.285156 299.34375 L 457.496094 299.582031 L 456.28125 299.785156 L 454.78125 300.09375 L 453.710938 300.367188 L 452.496094 300.757812 L 451.78125 301.054688 L 451.136719 301.386719 L 450.566406 301.78125 L 450.136719 302.195312 L 449.851562 302.632812 L 449.707031 303.0625 L 449.707031 304.902344 L 449.851562 305.328125 L 450.207031 305.828125 L 451.136719 306.550781 L 452.496094 307.183594 L 454.066406 307.679688 L 455.566406 308.035156 L 456.425781 308.203125 L 457.570312 308.394531 L 459.355469 308.628906 L 461.925781 308.867188 L 463.429688 308.960938 L 465.714844 309.058594 L 468.074219 309.105469 L 471.21875 309.105469 L 474.003906 309.058594 L 475.863281 309 L 477.792969 308.902344 L 480.433594 308.703125 L 482.078125 308.511719 L 483.507812 308.285156 L 484.578125 308.058594 L 485.292969 307.871094 L 486.367188 307.503906 L 487.222656 307.097656 L 487.867188 306.683594 L 488.296875 306.28125 L 498.300781 306.28125 L 497.871094 306.753906 L 497.226562 307.21875 L 496.585938 307.5625 L 495.585938 307.976562 L 494.441406 308.34375 L 492.796875 308.761719 L 491.441406 309.035156 L 489.652344 309.332031 L 488.007812 309.554688 L 486.222656 309.757812 L 483.578125 309.996094 L 481.863281 310.113281 L 480.007812 310.222656 L 477.792969 310.316406 L 475.003906 310.398438 L 472.003906 310.445312 L 469.214844 310.457031 L 466.214844 310.433594 L 464 310.386719 L 461.070312 310.28125 L 457.425781 310.066406 L 454.78125 309.839844 L 452.710938 309.617188 L 450.921875 309.378906 L 448.921875 309.058594 L 446.351562 308.535156 L 444.777344 308.132812 L 443.707031 307.800781 L 442.492188 307.335938 L 441.632812 306.921875 L 440.632812 306.253906 L 439.917969 305.414062 L 439.703125 304.757812 Z M 439.703125 303.121094 "/>
<path style=" stroke:none;fill-rule:nonzero;fill:rgb(83.921569%,15.686275%,22.352941%);fill-opacity:1;" d="M 439.703125 58.101562 L 498.300781 58.101562 L 498.300781 83.597656 L 473.878906 83.820312 L 473.878906 296.292969 L 464.054688 296.292969 L 464.054688 84.046875 L 463.910156 83.597656 L 439.703125 83.597656 Z M 439.703125 58.101562 "/>
<path style=" stroke:none;fill-rule:nonzero;fill:rgb(96.862745%,70.196078%,16.862745%);fill-opacity:1;" d="M 501.382812 170.09375 L 501.453125 169.914062 L 501.453125 166.273438 L 501.742188 158.078125 L 502.457031 146.789062 L 503.382812 137.503906 L 504.382812 130.222656 L 505.027344 126.398438 L 506.101562 120.933594 L 507.027344 116.929688 L 509.386719 108.734375 L 512.386719 101.089844 L 514.03125 97.8125 L 515.890625 94.714844 L 518.535156 91.257812 L 519.75 89.984375 L 523.464844 87.070312 L 527.679688 85.25 L 532.324219 84.703125 L 534.46875 84.882812 L 537.398438 85.613281 L 541.398438 87.617188 L 543.6875 89.4375 L 545.472656 91.257812 L 547.332031 93.625 L 549.617188 97.265625 L 551.761719 101.636719 L 553.476562 106.003906 L 555.191406 111.46875 L 556.621094 117.292969 L 557.835938 123.667969 L 558.90625 131.3125 L 559.550781 137.6875 L 559.980469 144.058594 L 550.046875 144.058594 L 549.472656 137.6875 L 548.832031 132.769531 L 547.757812 126.761719 L 546.6875 122.390625 L 545.617188 118.933594 L 543.613281 114.199219 L 541.898438 111.285156 L 539.757812 108.734375 L 537.683594 107.097656 L 535.324219 106.003906 L 533.898438 105.640625 L 530.109375 105.640625 L 526.679688 106.914062 L 524.679688 108.371094 L 523.25 109.828125 L 521.25 112.558594 L 520.035156 114.746094 L 519.320312 116.203125 L 517.175781 121.84375 L 515.746094 126.945312 L 514.960938 130.402344 L 513.960938 135.867188 L 513.246094 140.78125 L 512.460938 148.0625 L 512.03125 153.527344 L 511.460938 165.90625 L 511.386719 198.679688 L 511.601562 205.601562 L 512.03125 213.066406 L 512.601562 219.621094 L 513.460938 226.539062 L 514.316406 231.820312 L 515.816406 238.917969 L 517.105469 243.652344 L 518.105469 246.75 L 520.035156 251.664062 L 520.820312 253.304688 L 522.679688 256.582031 L 524.605469 259.128906 L 526.964844 261.3125 L 528.75 262.40625 L 531.609375 263.316406 L 535.253906 263.316406 L 539.542969 262.226562 L 542.257812 260.769531 L 544.113281 259.3125 L 545.328125 258.035156 L 546.832031 256.035156 L 547.902344 254.214844 L 548.902344 252.210938 L 550.117188 249.117188 L 550.117188 205.601562 L 532.46875 205.417969 L 532.46875 185.023438 L 559.90625 184.84375 L 559.980469 256.035156 L 558.476562 260.949219 L 556.621094 265.683594 L 554.832031 269.324219 L 552.976562 272.421875 L 550.332031 275.878906 L 548.1875 278.066406 L 544.902344 280.613281 L 541.898438 282.253906 L 538.753906 283.34375 L 535.96875 283.890625 L 532.683594 284.074219 L 529.753906 283.710938 L 526.609375 282.617188 L 524.105469 281.160156 L 521.820312 279.339844 L 519.535156 276.972656 L 516.675781 273.148438 L 514.816406 270.054688 L 512.886719 266.230469 L 510.957031 261.679688 L 509.242188 256.761719 L 508.101562 252.9375 L 506.957031 248.570312 L 505.742188 243.105469 L 504.597656 236.917969 L 503.742188 231.273438 L 502.957031 224.898438 L 502.382812 218.890625 L 501.8125 210.699219 L 501.527344 204.144531 L 501.382812 198.5 Z M 501.382812 170.09375 "/>
<path style=" stroke:none;fill-rule:nonzero;fill:rgb(83.921569%,15.686275%,22.352941%);fill-opacity:1;" d="M 501.382812 285.25 L 559.980469 285.25 L 559.980469 288.207031 L 535.558594 288.234375 L 535.558594 312.886719 L 525.734375 312.886719 L 525.734375 288.257812 L 525.589844 288.207031 L 501.382812 288.207031 Z M 501.382812 285.25 "/>
<path style=" stroke:none;fill-rule:nonzero;fill:rgb(14.509804%,36.078431%,60%);fill-opacity:1;" d="M 563.0625 172.0625 L 563.132812 171.867188 L 563.132812 167.1875 L 563.347656 159.78125 L 563.847656 150.421875 L 564.347656 143.988281 L 565.636719 132.484375 L 567.421875 121.371094 L 569.28125 112.789062 L 570.636719 107.722656 L 571.851562 103.820312 L 574.640625 96.609375 L 576.425781 92.902344 L 578.355469 89.589844 L 580.710938 86.273438 L 582.425781 84.324219 L 586.285156 81.203125 L 589.144531 79.839844 L 591.359375 79.253906 L 596.148438 79.253906 L 599.003906 80.035156 L 601.078125 81.007812 L 603.363281 82.570312 L 605.292969 84.324219 L 608.652344 88.613281 L 611.652344 94.074219 L 613.011719 97.191406 L 615.15625 103.238281 L 616.796875 109.085938 L 617.941406 114.15625 L 619.226562 121.371094 L 620.371094 130.144531 L 621.230469 140.085938 L 621.65625 148.472656 L 611.652344 148.472656 L 611.152344 140.671875 L 610.582031 134.628906 L 609.511719 126.632812 L 608.4375 120.980469 L 606.9375 115.324219 L 605.578125 111.621094 L 603.722656 107.914062 L 602.078125 105.578125 L 600.363281 103.820312 L 598.71875 102.652344 L 595.574219 101.480469 L 591.929688 101.480469 L 590.574219 101.871094 L 587.785156 103.429688 L 586.285156 104.796875 L 584.144531 107.527344 L 582.640625 110.0625 L 580.855469 113.960938 L 579.640625 117.273438 L 578.140625 122.34375 L 577.066406 126.828125 L 575.855469 133.261719 L 575.140625 138.136719 L 574.496094 143.597656 L 573.925781 150.03125 L 573.496094 156.855469 L 573.210938 164.070312 L 573.066406 171.089844 L 573.066406 201.308594 L 573.210938 208.328125 L 573.566406 216.515625 L 574.496094 228.410156 L 575.855469 238.746094 L 577.425781 246.933594 L 578.925781 252.78125 L 579.785156 255.511719 L 580.925781 258.632812 L 582.714844 262.53125 L 585.285156 266.429688 L 586.785156 267.992188 L 589.074219 269.550781 L 591.429688 270.332031 L 594.574219 270.332031 L 597.363281 269.550781 L 599.21875 268.574219 L 601.148438 267.015625 L 603.792969 263.699219 L 605.4375 260.582031 L 606.867188 256.875 L 607.9375 253.171875 L 608.652344 250.054688 L 609.722656 244.007812 L 610.582031 237.378906 L 611.226562 230.554688 L 611.652344 223.925781 L 621.65625 223.925781 L 621.230469 231.726562 L 620.585938 239.328125 L 619.941406 244.984375 L 618.941406 251.808594 L 617.800781 257.851562 L 616.15625 264.675781 L 614.796875 269.160156 L 613.011719 274.035156 L 611.367188 277.738281 L 609.582031 281.054688 L 606.9375 284.953125 L 605.222656 286.902344 L 603.363281 288.65625 L 601.148438 290.21875 L 598.363281 291.582031 L 595.363281 292.363281 L 592.574219 292.558594 L 589.574219 292.167969 L 587.359375 291.386719 L 584.429688 289.632812 L 580.785156 286.125 L 578.140625 282.417969 L 576.066406 278.714844 L 574.28125 274.816406 L 572.28125 269.550781 L 569.707031 260.972656 L 568.136719 254.34375 L 567.0625 248.882812 L 565.847656 241.277344 L 564.992188 234.453125 L 563.992188 223.535156 L 563.277344 209.691406 L 563.0625 198.96875 Z M 563.0625 172.0625 "/>
<path style=" stroke:none;fill-rule:nonzero;fill:rgb(96.862745%,70.196078%,16.862745%);fill-opacity:1;" d="M 563.0625 298.515625 L 563.132812 298.503906 L 563.132812 298.300781 L 563.421875 297.84375 L 564.132812 297.210938 L 565.0625 296.691406 L 566.0625 296.28125 L 566.707031 296.066406 L 567.777344 295.761719 L 568.707031 295.539062 L 571.066406 295.078125 L 574.066406 294.648438 L 575.710938 294.464844 L 577.570312 294.292969 L 580.210938 294.097656 L 581.425781 294.027344 L 585.144531 293.863281 L 589.359375 293.761719 L 594.003906 293.730469 L 596.148438 293.742188 L 599.078125 293.78125 L 603.078125 293.894531 L 605.367188 293.996094 L 607.152344 294.097656 L 609.011719 294.230469 L 611.296875 294.4375 L 613.441406 294.679688 L 615.15625 294.925781 L 616.871094 295.230469 L 618.300781 295.558594 L 619.515625 295.914062 L 620.585938 296.34375 L 621.230469 296.699219 L 621.65625 297.058594 L 611.726562 297.058594 L 611.152344 296.699219 L 610.511719 296.425781 L 609.4375 296.089844 L 608.367188 295.84375 L 607.292969 295.648438 L 605.292969 295.382812 L 603.578125 295.222656 L 601.433594 295.078125 L 599.363281 294.988281 L 597.003906 294.925781 L 595.574219 294.90625 L 591.789062 294.90625 L 588.359375 294.976562 L 586.359375 295.058594 L 584.929688 295.140625 L 582.929688 295.292969 L 581.714844 295.414062 L 581 295.496094 L 578.855469 295.8125 L 577.425781 296.097656 L 576.640625 296.292969 L 575.640625 296.597656 L 574.925781 296.875 L 574.136719 297.28125 L 573.710938 297.585938 L 573.136719 298.28125 L 573.066406 300.117188 L 573.28125 300.503906 L 573.710938 300.921875 L 574.28125 301.289062 L 575.140625 301.679688 L 575.996094 301.972656 L 577.496094 302.371094 L 578.785156 302.636719 L 579.785156 302.808594 L 581.714844 303.085938 L 582.5 303.175781 L 584.355469 303.359375 L 586.285156 303.503906 L 588.644531 303.625 L 590.429688 303.6875 L 593.289062 303.738281 L 596.933594 303.738281 L 601.222656 303.675781 L 603.9375 303.59375 L 605.792969 303.515625 L 607.007812 303.441406 L 608.507812 303.332031 L 609.582031 303.226562 L 610.582031 303.117188 L 611.796875 302.941406 L 611.796875 300.503906 L 594.148438 300.496094 L 594.148438 299.351562 L 621.585938 299.34375 L 621.65625 303.332031 L 620.15625 303.605469 L 618.300781 303.871094 L 616.511719 304.074219 L 614.65625 304.25 L 612.011719 304.441406 L 609.867188 304.5625 L 606.582031 304.707031 L 603.578125 304.800781 L 600.433594 304.859375 L 597.648438 304.890625 L 594.359375 304.902344 L 591.429688 304.878906 L 588.289062 304.820312 L 585.785156 304.738281 L 583.5 304.636719 L 581.210938 304.503906 L 578.355469 304.289062 L 576.496094 304.117188 L 574.566406 303.902344 L 572.636719 303.644531 L 570.921875 303.371094 L 569.78125 303.15625 L 568.636719 302.910156 L 567.421875 302.605469 L 566.277344 302.257812 L 565.421875 301.941406 L 564.632812 301.585938 L 564.0625 301.25 L 563.492188 300.789062 L 563.207031 300.421875 L 563.0625 300.105469 Z M 563.0625 298.515625 "/>
<path style=" stroke:none;fill-rule:nonzero;fill:rgb(83.921569%,15.686275%,22.352941%);fill-opacity:1;" d="M 563.0625 306.074219 L 621.65625 306.074219 L 621.65625 306.78125 L 597.238281 306.785156 L 597.238281 312.660156 L 587.410156 312.660156 L 587.410156 306.792969 L 587.269531 306.78125 L 563.0625 306.78125 Z M 563.0625 306.074219 "/>
<g style="fill:rgb(0%,0%,0%);fill-opacity:1;">
  <use xlink:href="#glyph0-1" x="21.957031" y="317.018555"/>
  <use xlink:href="#glyph0-2" x="27.291016" y="317.018555"/>
  <use xlink:href="#glyph0-1" x="29.958008" y="317.018555"/>
</g>
<g style="fill:rgb(0%,0%,0%);fill-opacity:1;">
  <use xlink:href="#glyph0-1" x="21.957031" y="237.233398"/>
  <use xlink:href="#glyph0-2" x="27.291016" y="237.233398"/>
  <use xlink:href="#glyph0-3" x="29.958008" y="237.233398"/>
</g>
<g style="fill:rgb(0%,0%,0%);fill-opacity:1;">
  <use xlink:href="#glyph0-4" x="21.957031" y="157.452148"/>
  <use xlink:href="#glyph0-2" x="27.291016" y="157.452148"/>
  <use xlink:href="#glyph0-1" x="29.958008" y="157.452148"/>
</g>
<g style="fill:rgb(0%,0%,0%);fill-opacity:1;">
  <use xlink:href="#glyph0-4" x="21.957031" y="77.666992"/>
  <use xlink:href="#glyph0-2" x="27.291016" y="77.666992"/>
  <use xlink:href="#glyph0-3" x="29.958008" y="77.666992"/>
</g>
<g style="fill:rgb(0%,0%,0%);fill-opacity:1;">
  <use xlink:href="#glyph0-4" x="95.925781" y="338.19043"/>
</g>
<g style="fill:rgb(0%,0%,0%);fill-opacity:1;">
  <use xlink:href="#glyph0-5" x="157.605469" y="338.19043"/>
</g>
<g style="fill:rgb(0%,0%,0%);fill-opacity:1;">
  <use xlink:href="#glyph0-6" x="219.285156" y="338.19043"/>
</g>
<g style="fill:rgb(0%,0%,0%);fill-opacity:1;">
  <use xlink:href="#glyph0-7" x="280.964844" y="338.19043"/>
</g>
<g style="fill:rgb(0%,0%,0%);fill-opacity:1;">
  <use xlink:href="#glyph0-3" x="342.644531" y="338.19043"/>
</g>
<g style="fill:rgb(0%,0%,0%);fill-opacity:1;">
  <use xlink:href="#glyph0-8" x="404.324219" y="338.19043"/>
</g>
<g style="fill:rgb(0%,0%,0%);fill-opacity:1;">
  <use xlink:href="#glyph0-9" x="466" y="338.19043"/>
</g>
<g style="fill:rgb(0%,0%,0%);fill-opacity:1;">
  <use xlink:href="#glyph0-10" x="527.679688" y="338.19043"/>
</g>
<g style="fill:rgb(0%,0%,0%);fill-opacity:1;">
  <use xlink:href="#glyph0-11" x="589.359375" y="338.19043"/>
</g>
<g style="fill:rgb(0%,0%,0%);fill-opacity:1;">
  <use xlink:href="#glyph0-4" x="648.539062" y="338.19043"/>
  <use xlink:href="#glyph0-1" x="653.873047" y="338.19043"/>
</g>
<g style="fill:rgb(0%,0%,0%);fill-opacity:1;">
  <use xlink:href="#glyph1-1" x="14.412109" y="178.015625"/>
  <use xlink:href="#glyph1-2" x="14.412109" y="170.011719"/>
  <use xlink:href="#glyph1-3" x="14.412109" y="167.347656"/>
  <use xlink:href="#glyph1-4" x="14.412109" y="164.011719"/>
</g>
</g>
</svg>
