<?xml version="1.0" encoding="UTF-8"?>
<svg xmlns="http://www.w3.org/2000/svg" xmlns:xlink="http://www.w3.org/1999/xlink" width="720pt" height="360pt" viewBox="0 0 720 360" version="1.1">
<defs>
<g>
<symbol overflow="visible" id="glyph0-0">
<path style="stroke:none;" d=""/>
</symbol>
<symbol overflow="visible" id="glyph0-1">
<path style="stroke:none;" d="M 2.640625 -6.796875 C 2 -6.796875 1.421875 -6.53125 1.078125 -6.046875 C 0.640625 -5.453125 0.40625 -4.546875 0.40625 -3.296875 C 0.40625 -1 1.1875 0.21875 2.640625 0.21875 C 4.078125 0.21875 4.859375 -1 4.859375 -3.234375 C 4.859375 -4.5625 4.65625 -5.4375 4.203125 -6.046875 C 3.84375 -6.53125 3.28125 -6.796875 2.640625 -6.796875 Z M 2.640625 -6.046875 C 3.546875 -6.046875 4 -5.125 4 -3.3125 C 4 -1.375 3.5625 -0.484375 2.625 -0.484375 C 1.734375 -0.484375 1.28125 -1.421875 1.28125 -3.28125 C 1.28125 -5.140625 1.734375 -6.046875 2.640625 -6.046875 Z M 2.640625 -6.046875 "/>
</symbol>
<symbol overflow="visible" id="glyph0-2">
<path style="stroke:none;" d="M 1.828125 -1 L 0.828125 -1 L 0.828125 0 L 1.828125 0 Z M 1.828125 -1 "/>
</symbol>
<symbol overflow="visible" id="glyph0-3">
<path style="stroke:none;" d="M 4.5625 -6.796875 L 1.0625 -6.796875 L 0.546875 -3.09375 L 1.328125 -3.09375 C 1.71875 -3.5625 2.046875 -3.734375 2.578125 -3.734375 C 3.484375 -3.734375 4.0625 -3.109375 4.0625 -2.09375 C 4.0625 -1.125 3.484375 -0.53125 2.578125 -0.53125 C 1.828125 -0.53125 1.375 -0.90625 1.1875 -1.671875 L 0.328125 -1.671875 C 0.453125 -1.109375 0.546875 -0.84375 0.75 -0.59375 C 1.125 -0.078125 1.828125 0.21875 2.59375 0.21875 C 3.96875 0.21875 4.921875 -0.78125 4.921875 -2.21875 C 4.921875 -3.5625 4.03125 -4.484375 2.71875 -4.484375 C 2.25 -4.484375 1.859375 -4.359375 1.46875 -4.0625 L 1.734375 -5.96875 L 4.5625 -5.96875 Z M 4.5625 -6.796875 "/>
</symbol>
<symbol overflow="visible" id="glyph0-4">
<path style="stroke:none;" d="M 2.484375 -4.84375 L 2.484375 0 L 3.328125 0 L 3.328125 -6.796875 L 2.765625 -6.796875 C 2.46875 -5.75 2.28125 -5.609375 0.984375 -5.453125 L 0.984375 -4.84375 Z M 2.484375 -4.84375 "/>
</symbol>
<symbol overflow="visible" id="glyph0-5">
<path style="stroke:none;" d="M 4.859375 -0.828125 L 1.28125 -0.828125 C 1.359375 -1.390625 1.671875 -1.75 2.5 -2.234375 L 3.46875 -2.75 C 4.40625 -3.265625 4.90625 -3.96875 4.90625 -4.8125 C 4.90625 -5.375 4.671875 -5.90625 4.265625 -6.265625 C 3.859375 -6.625 3.375 -6.796875 2.71875 -6.796875 C 1.859375 -6.796875 1.21875 -6.5 0.84375 -5.921875 C 0.609375 -5.5625 0.5 -5.125 0.484375 -4.4375 L 1.328125 -4.4375 C 1.359375 -4.90625 1.40625 -5.1875 1.53125 -5.40625 C 1.75 -5.8125 2.1875 -6.0625 2.703125 -6.0625 C 3.46875 -6.0625 4.03125 -5.515625 4.03125 -4.78125 C 4.03125 -4.25 3.71875 -3.796875 3.125 -3.4375 L 2.234375 -2.9375 C 0.8125 -2.140625 0.40625 -1.5 0.328125 0 L 4.859375 0 Z M 4.859375 -0.828125 "/>
</symbol>
<symbol overflow="visible" id="glyph0-6">
<path style="stroke:none;" d="M 2.125 -3.125 L 2.578125 -3.125 C 3.515625 -3.125 3.984375 -2.703125 3.984375 -1.890625 C 3.984375 -1.03125 3.46875 -0.53125 2.578125 -0.53125 C 1.65625 -0.53125 1.203125 -0.984375 1.15625 -1.96875 L 0.3125 -1.96875 C 0.34375 -1.421875 0.4375 -1.078125 0.609375 -0.765625 C 0.953125 -0.109375 1.625 0.21875 2.546875 0.21875 C 3.953125 0.21875 4.859375 -0.609375 4.859375 -1.90625 C 4.859375 -2.765625 4.515625 -3.25 3.703125 -3.515625 C 4.34375 -3.765625 4.65625 -4.25 4.65625 -4.9375 C 4.65625 -6.109375 3.875 -6.796875 2.578125 -6.796875 C 1.203125 -6.796875 0.484375 -6.046875 0.453125 -4.609375 L 1.296875 -4.609375 C 1.3125 -5.015625 1.34375 -5.25 1.453125 -5.453125 C 1.640625 -5.828125 2.0625 -6.0625 2.59375 -6.0625 C 3.34375 -6.0625 3.796875 -5.625 3.796875 -4.90625 C 3.796875 -4.421875 3.609375 -4.140625 3.25 -3.984375 C 3.015625 -3.890625 2.71875 -3.84375 2.125 -3.84375 Z M 2.125 -3.125 "/>
</symbol>
<symbol overflow="visible" id="glyph0-7">
<path style="stroke:none;" d="M 3.140625 -1.625 L 3.140625 0 L 3.984375 0 L 3.984375 -1.625 L 4.984375 -1.625 L 4.984375 -2.390625 L 3.984375 -2.390625 L 3.984375 -6.796875 L 3.359375 -6.796875 L 0.265625 -2.515625 L 0.265625 -1.625 Z M 3.140625 -2.390625 L 1 -2.390625 L 3.140625 -5.359375 Z M 3.140625 -2.390625 "/>
</symbol>
<symbol overflow="visible" id="glyph0-8">
<path style="stroke:none;" d="M 4.78125 -5.03125 C 4.609375 -6.140625 3.890625 -6.796875 2.84375 -6.796875 C 2.09375 -6.796875 1.421875 -6.4375 1.03125 -5.828125 C 0.609375 -5.171875 0.40625 -4.34375 0.40625 -3.09375 C 0.40625 -1.953125 0.578125 -1.234375 0.984375 -0.625 C 1.359375 -0.078125 1.953125 0.21875 2.703125 0.21875 C 3.984375 0.21875 4.921875 -0.734375 4.921875 -2.078125 C 4.921875 -3.34375 4.0625 -4.234375 2.84375 -4.234375 C 2.171875 -4.234375 1.640625 -3.96875 1.28125 -3.46875 C 1.28125 -5.125 1.828125 -6.046875 2.796875 -6.046875 C 3.390625 -6.046875 3.796875 -5.671875 3.9375 -5.03125 Z M 2.734375 -3.484375 C 3.546875 -3.484375 4.0625 -2.921875 4.0625 -2 C 4.0625 -1.15625 3.484375 -0.53125 2.703125 -0.53125 C 1.921875 -0.53125 1.328125 -1.1875 1.328125 -2.046875 C 1.328125 -2.890625 1.90625 -3.484375 2.734375 -3.484375 Z M 2.734375 -3.484375 "/>
</symbol>
<symbol overflow="visible" id="glyph0-9">
<path style="stroke:none;" d="M 4.984375 -6.796875 L 0.4375 -6.796875 L 0.4375 -5.96875 L 4.109375 -5.96875 C 2.5 -3.65625 1.828125 -2.234375 1.328125 0 L 2.21875 0 C 2.59375 -2.171875 3.453125 -4.046875 4.984375 -6.09375 Z M 4.984375 -6.796875 "/>
</symbol>
<symbol overflow="visible" id="glyph0-10">
<path style="stroke:none;" d="M 3.75 -3.578125 C 4.453125 -4 4.6875 -4.34375 4.6875 -4.984375 C 4.6875 -6.046875 3.84375 -6.796875 2.640625 -6.796875 C 1.4375 -6.796875 0.59375 -6.046875 0.59375 -4.984375 C 0.59375 -4.359375 0.828125 -4.015625 1.515625 -3.578125 C 0.734375 -3.203125 0.359375 -2.640625 0.359375 -1.890625 C 0.359375 -0.640625 1.296875 0.21875 2.640625 0.21875 C 3.984375 0.21875 4.921875 -0.640625 4.921875 -1.875 C 4.921875 -2.640625 4.53125 -3.203125 3.75 -3.578125 Z M 2.640625 -6.046875 C 3.359375 -6.046875 3.8125 -5.625 3.8125 -4.96875 C 3.8125 -4.34375 3.34375 -3.921875 2.640625 -3.921875 C 1.921875 -3.921875 1.453125 -4.34375 1.453125 -4.984375 C 1.453125 -5.625 1.921875 -6.046875 2.640625 -6.046875 Z M 2.640625 -3.203125 C 3.484375 -3.203125 4.0625 -2.671875 4.0625 -1.875 C 4.0625 -1.0625 3.484375 -0.53125 2.625 -0.53125 C 1.796875 -0.53125 1.21875 -1.078125 1.21875 -1.875 C 1.21875 -2.671875 1.796875 -3.203125 2.640625 -3.203125 Z M 2.640625 -3.203125 "/>
</symbol>
<symbol overflow="visible" id="glyph0-11">
<path style="stroke:none;" d="M 0.515625 -1.546875 C 0.671875 -0.4375 1.40625 0.21875 2.4375 0.21875 C 3.1875 0.21875 3.859375 -0.140625 4.265625 -0.75 C 4.6875 -1.40625 4.890625 -2.25 4.890625 -3.484375 C 4.890625 -4.625 4.703125 -5.359375 4.3125 -5.953125 C 3.9375 -6.5 3.34375 -6.796875 2.59375 -6.796875 C 1.296875 -6.796875 0.359375 -5.84375 0.359375 -4.515625 C 0.359375 -3.25 1.234375 -2.34375 2.453125 -2.34375 C 3.09375 -2.34375 3.5625 -2.578125 4.015625 -3.109375 C 4 -1.453125 3.46875 -0.53125 2.5 -0.53125 C 1.90625 -0.53125 1.484375 -0.90625 1.359375 -1.546875 Z M 2.578125 -6.0625 C 3.375 -6.0625 3.96875 -5.40625 3.96875 -4.53125 C 3.96875 -3.6875 3.375 -3.09375 2.546875 -3.09375 C 1.734375 -3.09375 1.234375 -3.671875 1.234375 -4.578125 C 1.234375 -5.4375 1.796875 -6.0625 2.578125 -6.0625 Z M 2.578125 -6.0625 "/>
</symbol>
<symbol overflow="visible" id="glyph1-0">
<path style="stroke:none;" d=""/>
</symbol>
<symbol overflow="visible" id="glyph1-1">
<path style="stroke:none;" d="M 0 -0.953125 L 0 -4.890625 C 0 -5.71875 -0.234375 -6.34375 -0.734375 -6.796875 C -1.1875 -7.234375 -1.8125 -7.46875 -2.5 -7.46875 C -3.546875 -7.46875 -4.1875 -7 -4.625 -5.875 C -4.984375 -6.671875 -5.640625 -7.09375 -6.53125 -7.09375 C -7.15625 -7.09375 -7.734375 -6.859375 -8.140625 -6.390625 C -8.5625 -5.9375 -8.75 -5.34375 -8.75 -4.5 L -8.75 -0.953125 Z M -4.984375 -2.0625 L -7.765625 -2.0625 L -7.765625 -4.21875 C -7.765625 -4.84375 -7.6875 -5.203125 -7.453125 -5.5 C -7.21875 -5.8125 -6.859375 -5.96875 -6.375 -5.96875 C -5.90625 -5.96875 -5.53125 -5.8125 -5.296875 -5.5 C -5.0625 -5.203125 -4.984375 -4.84375 -4.984375 -4.21875 Z M -0.984375 -2.0625 L -4 -2.0625 L -4 -4.78125 C -4 -5.328125 -3.859375 -5.6875 -3.578125 -5.953125 C -3.296875 -6.21875 -2.921875 -6.359375 -2.484375 -6.359375 C -2.0625 -6.359375 -1.6875 -6.21875 -1.40625 -5.953125 C -1.109375 -5.6875 -0.984375 -5.328125 -0.984375 -4.78125 Z M -0.984375 -2.0625 "/>
</symbol>
<symbol overflow="visible" id="glyph1-2">
<path style="stroke:none;" d="M -6.28125 -1.796875 L -6.28125 -0.796875 L 0 -0.796875 L 0 -1.796875 Z M -8.75 -1.796875 L -8.75 -0.796875 L -7.484375 -0.796875 L -7.484375 -1.796875 Z M -8.75 -1.796875 "/>
</symbol>
<symbol overflow="visible" id="glyph1-3">
<path style="stroke:none;" d="M -6.28125 -3.046875 L -6.28125 -2.015625 L -8.015625 -2.015625 L -8.015625 -1.015625 L -6.28125 -1.015625 L -6.28125 -0.171875 L -5.46875 -0.171875 L -5.46875 -1.015625 L -0.71875 -1.015625 C -0.078125 -1.015625 0.28125 -1.453125 0.28125 -2.234375 C 0.28125 -2.46875 0.25 -2.71875 0.1875 -3.046875 L -0.640625 -3.046875 C -0.609375 -2.921875 -0.59375 -2.765625 -0.59375 -2.5625 C -0.59375 -2.140625 -0.71875 -2.015625 -1.15625 -2.015625 L -5.46875 -2.015625 L -5.46875 -3.046875 Z M -6.28125 -3.046875 "/>
</symbol>
<symbol overflow="visible" id="glyph1-4">
<path style="stroke:none;" d="M -4.53125 -5.25 C -5.765625 -5.25 -6.46875 -4.421875 -6.46875 -2.96875 C -6.46875 -1.515625 -5.71875 -0.5625 -4.546875 -0.5625 C -3.5625 -0.5625 -3.09375 -1.0625 -2.734375 -2.5625 L -2.515625 -3.484375 C -2.34375 -4.1875 -2.09375 -4.46875 -1.625 -4.46875 C -1.046875 -4.46875 -0.640625 -3.875 -0.640625 -3 C -0.640625 -2.453125 -0.796875 -2 -1.0625 -1.75 C -1.25 -1.59375 -1.421875 -1.53125 -1.875 -1.46875 L -1.875 -0.40625 C -0.421875 -0.453125 0.28125 -1.265625 0.28125 -2.921875 C 0.28125 -4.5 -0.5 -5.515625 -1.71875 -5.515625 C -2.65625 -5.515625 -3.171875 -4.984375 -3.46875 -3.734375 L -3.703125 -2.765625 C -3.890625 -1.953125 -4.15625 -1.609375 -4.59375 -1.609375 C -5.171875 -1.609375 -5.546875 -2.125 -5.546875 -2.9375 C -5.546875 -3.75 -5.203125 -4.171875 -4.53125 -4.203125 Z M -4.53125 -5.25 "/>
</symbol>
</g>
</defs>
<g id="surface49495">
<rect x="0" y="0" width="720" height="360" style="fill:rgb(100%,100%,100%);fill-opacity:1;stroke:none;"/>
<path style=" stroke:none;fill-rule:nonzero;fill:rgb(6.27451%,58.823529%,28.235294%);fill-opacity:1;" d="M 69.628906 311.246094 L 69.667969 311.246094 L 85.484375 308.863281 L 90.289062 308.863281 L 106.183594 311.25 L 100.597656 311.25 L 96.613281 310.628906 L 79.15625 310.628906 L 75.253906 311.246094 L 69.628906 311.246094 L 80.835938 310.371094 L 95.011719 310.367188 L 87.945312 309.253906 L 87.867188 309.25 L 87.789062 309.257812 L 80.796875 310.367188 L 80.835938 310.371094 Z M 69.628906 311.246094 "/>
<path style=" stroke:none;fill-rule:nonzero;fill:rgb(14.509804%,36.078431%,60%);fill-opacity:1;" d="M 69.628906 296.792969 L 69.675781 296.785156 L 69.675781 296.59375 L 69.808594 296.296875 L 70.121094 295.917969 L 70.433594 295.65625 L 71.234375 295.191406 L 72.347656 294.742188 L 73.507812 294.394531 L 74.355469 294.191406 L 75.113281 294.03125 L 76.851562 293.742188 L 77.964844 293.589844 L 79.167969 293.457031 L 80.640625 293.324219 L 81.710938 293.242188 L 84.117188 293.117188 L 85.898438 293.0625 L 87.28125 293.039062 L 90.269531 293.039062 L 92.050781 293.070312 L 93.34375 293.109375 L 94.769531 293.171875 L 95.972656 293.242188 L 98.070312 293.417969 L 99.941406 293.636719 L 100.789062 293.765625 L 102.125 294.007812 L 103.152344 294.246094 L 103.863281 294.449219 L 104.667969 294.742188 L 105.378906 295.097656 L 105.914062 295.5 L 106.183594 295.839844 L 99.941406 295.839844 L 99.628906 295.523438 L 99.273438 295.277344 L 98.605469 294.953125 L 97.9375 294.726562 L 97 294.496094 L 96.152344 294.347656 L 94.992188 294.199219 L 93.96875 294.101562 L 92.898438 294.03125 L 91.875 293.984375 L 89.910156 293.9375 L 87.636719 293.9375 L 86.792969 293.953125 L 85.054688 294.015625 L 84.117188 294.070312 L 82.78125 294.183594 L 81.84375 294.285156 L 80.730469 294.441406 L 79.972656 294.578125 L 79.035156 294.78125 L 78.367188 294.964844 L 77.609375 295.222656 L 77.164062 295.421875 L 76.761719 295.640625 L 76.40625 295.902344 L 76.136719 296.175781 L 75.960938 296.46875 L 75.871094 296.753906 L 75.871094 297.976562 L 75.960938 298.257812 L 76.183594 298.589844 L 76.761719 299.070312 L 77.609375 299.488281 L 78.589844 299.820312 L 79.527344 300.058594 L 80.058594 300.167969 L 80.773438 300.292969 L 81.886719 300.453125 L 83.492188 300.609375 L 84.429688 300.671875 L 85.855469 300.734375 L 87.328125 300.765625 L 89.289062 300.765625 L 91.027344 300.734375 L 92.183594 300.695312 L 93.390625 300.632812 L 95.039062 300.5 L 96.0625 300.371094 L 96.953125 300.222656 L 97.625 300.074219 L 98.070312 299.945312 L 98.738281 299.703125 L 99.273438 299.433594 L 99.675781 299.160156 L 99.941406 298.890625 L 106.183594 298.890625 L 105.914062 299.207031 L 105.515625 299.511719 L 105.113281 299.742188 L 104.488281 300.019531 L 103.773438 300.261719 L 102.75 300.539062 L 101.902344 300.71875 L 100.789062 300.917969 L 99.761719 301.066406 L 98.648438 301.199219 L 97 301.359375 L 95.929688 301.4375 L 94.769531 301.507812 L 93.390625 301.570312 L 91.648438 301.625 L 89.777344 301.660156 L 88.039062 301.667969 L 86.167969 301.648438 L 84.785156 301.617188 L 82.957031 301.546875 L 80.683594 301.40625 L 79.035156 301.257812 L 77.742188 301.105469 L 76.628906 300.949219 L 75.378906 300.734375 L 73.773438 300.386719 L 72.792969 300.121094 L 72.125 299.898438 L 71.367188 299.59375 L 70.832031 299.316406 L 70.207031 298.875 L 69.761719 298.316406 L 69.628906 297.878906 Z M 69.628906 296.792969 "/>
<path style=" stroke:none;fill-rule:nonzero;fill:rgb(96.862745%,70.196078%,16.862745%);fill-opacity:1;" d="M 69.628906 313.261719 L 69.675781 313.257812 L 69.675781 313.222656 L 69.851562 313.144531 L 70.296875 313.035156 L 70.878906 312.945312 L 71.5 312.871094 L 71.902344 312.835938 L 72.570312 312.78125 L 73.152344 312.742188 L 74.621094 312.664062 L 76.496094 312.589844 L 77.519531 312.558594 L 78.679688 312.527344 L 80.328125 312.492188 L 81.085938 312.480469 L 83.402344 312.453125 L 86.035156 312.433594 L 88.929688 312.429688 L 90.269531 312.429688 L 92.097656 312.4375 L 94.59375 312.457031 L 96.019531 312.476562 L 97.132812 312.492188 L 98.292969 312.515625 L 99.71875 312.550781 L 101.054688 312.59375 L 102.125 312.636719 L 103.195312 312.691406 L 104.085938 312.746094 L 104.84375 312.808594 L 105.515625 312.882812 L 105.914062 312.945312 L 106.183594 313.007812 L 99.984375 313.007812 L 99.628906 312.945312 L 99.226562 312.898438 L 98.558594 312.839844 L 97.890625 312.796875 L 97.222656 312.761719 L 95.972656 312.71875 L 94.90625 312.6875 L 93.566406 312.664062 L 92.273438 312.648438 L 90.804688 312.636719 L 89.910156 312.632812 L 87.550781 312.632812 L 85.410156 312.644531 L 84.160156 312.660156 L 83.269531 312.675781 L 82.023438 312.699219 L 81.265625 312.722656 L 80.816406 312.738281 L 79.480469 312.792969 L 78.589844 312.839844 L 78.097656 312.875 L 77.476562 312.929688 L 77.027344 312.976562 L 76.539062 313.046875 L 76.269531 313.101562 L 75.914062 313.21875 L 75.871094 313.539062 L 76.003906 313.605469 L 76.269531 313.679688 L 76.628906 313.742188 L 77.164062 313.8125 L 77.699219 313.863281 L 78.632812 313.929688 L 79.4375 313.976562 L 80.058594 314.007812 L 81.265625 314.054688 L 81.753906 314.070312 L 82.914062 314.101562 L 84.117188 314.128906 L 85.589844 314.148438 L 86.703125 314.160156 L 88.484375 314.167969 L 90.757812 314.167969 L 93.433594 314.15625 L 95.128906 314.144531 L 96.285156 314.128906 L 97.042969 314.117188 L 97.980469 314.097656 L 98.648438 314.078125 L 99.273438 314.058594 L 100.03125 314.03125 L 100.03125 313.605469 L 89.019531 313.605469 L 89.019531 313.40625 L 106.136719 313.40625 L 106.183594 314.097656 L 105.246094 314.144531 L 104.085938 314.191406 L 102.972656 314.226562 L 101.8125 314.257812 L 100.164062 314.289062 L 98.828125 314.3125 L 96.777344 314.335938 L 94.90625 314.351562 L 92.941406 314.363281 L 91.203125 314.367188 L 89.152344 314.371094 L 87.328125 314.367188 L 85.363281 314.355469 L 83.804688 314.34375 L 82.378906 314.324219 L 80.953125 314.300781 L 79.167969 314.265625 L 78.011719 314.234375 L 76.804688 314.195312 L 75.601562 314.152344 L 74.53125 314.105469 L 73.820312 314.066406 L 73.105469 314.023438 L 72.347656 313.972656 L 71.636719 313.910156 L 71.101562 313.855469 L 70.609375 313.792969 L 70.253906 313.734375 L 69.898438 313.65625 L 69.71875 313.59375 L 69.628906 313.539062 Z M 69.628906 313.261719 "/>
<path style=" stroke:none;fill-rule:nonzero;fill:rgb(83.921569%,15.686275%,22.352941%);fill-opacity:1;" d="M 69.628906 302.84375 L 106.183594 302.84375 L 106.183594 303.363281 L 90.949219 303.367188 L 90.949219 307.683594 L 84.820312 307.683594 L 84.820312 303.371094 L 84.730469 303.363281 L 69.628906 303.363281 Z M 69.628906 302.84375 "/>
<path style=" stroke:none;fill-rule:nonzero;fill:rgb(6.27451%,58.823529%,28.235294%);fill-opacity:1;" d="M 108.105469 310 L 108.144531 310 L 123.960938 307.082031 L 128.765625 307.082031 L 144.660156 310.003906 L 139.074219 310.003906 L 135.089844 309.242188 L 117.636719 309.242188 L 113.730469 310 L 108.105469 310 L 119.3125 308.925781 L 133.492188 308.921875 L 126.421875 307.558594 L 126.34375 307.558594 L 126.265625 307.566406 L 119.273438 308.921875 L 119.3125 308.925781 Z M 108.105469 310 "/>
<path style=" stroke:none;fill-rule:nonzero;fill:rgb(14.509804%,36.078431%,60%);fill-opacity:1;" d="M 108.105469 313.914062 L 108.152344 313.914062 L 108.152344 313.898438 L 108.285156 313.871094 L 108.597656 313.835938 L 108.910156 313.808594 L 109.710938 313.765625 L 110.824219 313.722656 L 111.984375 313.691406 L 112.832031 313.671875 L 113.589844 313.660156 L 115.328125 313.632812 L 116.441406 313.617188 L 117.644531 313.605469 L 119.117188 313.59375 L 120.1875 313.585938 L 122.59375 313.574219 L 124.375 313.566406 L 128.746094 313.566406 L 130.527344 313.570312 L 131.820312 313.570312 L 133.246094 313.578125 L 134.453125 313.585938 L 136.546875 313.601562 L 138.417969 313.621094 L 139.265625 313.632812 L 140.601562 313.65625 L 141.628906 313.679688 L 142.339844 313.695312 L 143.144531 313.722656 L 143.855469 313.757812 L 144.390625 313.796875 L 144.660156 313.828125 L 138.417969 313.828125 L 138.105469 313.796875 L 137.75 313.773438 L 137.082031 313.746094 L 136.414062 313.722656 L 135.476562 313.703125 L 134.628906 313.6875 L 133.46875 313.671875 L 132.445312 313.664062 L 131.375 313.660156 L 130.351562 313.652344 L 128.390625 313.648438 L 126.117188 313.648438 L 125.269531 313.652344 L 123.53125 313.65625 L 122.59375 313.660156 L 121.257812 313.671875 L 120.320312 313.683594 L 119.207031 313.695312 L 118.449219 313.710938 L 117.511719 313.726562 L 116.84375 313.746094 L 116.085938 313.769531 L 115.640625 313.789062 L 115.238281 313.808594 L 114.882812 313.832031 L 114.613281 313.859375 L 114.4375 313.886719 L 114.347656 313.914062 L 114.347656 314.027344 L 114.4375 314.050781 L 114.660156 314.082031 L 115.238281 314.128906 L 116.085938 314.167969 L 117.066406 314.199219 L 118.003906 314.21875 L 118.539062 314.230469 L 119.25 314.242188 L 120.363281 314.257812 L 121.96875 314.273438 L 122.90625 314.277344 L 124.332031 314.285156 L 129.503906 314.285156 L 130.664062 314.28125 L 131.867188 314.273438 L 133.515625 314.261719 L 134.539062 314.25 L 135.433594 314.234375 L 136.101562 314.222656 L 136.546875 314.210938 L 137.214844 314.1875 L 137.75 314.164062 L 138.152344 314.136719 L 138.417969 314.113281 L 144.660156 314.113281 L 144.390625 314.140625 L 143.992188 314.167969 L 143.589844 314.191406 L 142.964844 314.21875 L 142.253906 314.238281 L 141.226562 314.265625 L 140.378906 314.28125 L 139.265625 314.300781 L 138.242188 314.316406 L 137.125 314.328125 L 135.476562 314.34375 L 134.40625 314.347656 L 133.246094 314.355469 L 131.867188 314.363281 L 130.128906 314.367188 L 128.253906 314.371094 L 124.644531 314.371094 L 123.261719 314.367188 L 121.433594 314.359375 L 119.160156 314.347656 L 117.511719 314.332031 L 116.21875 314.320312 L 115.105469 314.304688 L 113.855469 314.285156 L 112.253906 314.25 L 111.269531 314.226562 L 110.601562 314.207031 L 109.84375 314.175781 L 109.308594 314.152344 L 108.6875 314.109375 L 108.238281 314.058594 L 108.105469 314.015625 Z M 108.105469 313.914062 "/>
<path style=" stroke:none;fill-rule:nonzero;fill:rgb(96.862745%,70.196078%,16.862745%);fill-opacity:1;" d="M 108.105469 311.699219 L 108.152344 311.699219 L 108.152344 311.675781 L 108.328125 311.625 L 108.773438 311.558594 L 109.355469 311.503906 L 109.980469 311.457031 L 110.378906 311.433594 L 111.046875 311.402344 L 111.628906 311.378906 L 113.097656 311.328125 L 114.972656 311.28125 L 115.996094 311.261719 L 117.15625 311.246094 L 118.804688 311.222656 L 119.5625 311.214844 L 121.878906 311.199219 L 124.511719 311.1875 L 127.40625 311.183594 L 128.746094 311.183594 L 130.574219 311.1875 L 133.070312 311.203125 L 134.496094 311.210938 L 135.609375 311.222656 L 136.769531 311.238281 L 138.195312 311.257812 L 139.53125 311.285156 L 140.601562 311.3125 L 141.671875 311.34375 L 142.5625 311.378906 L 143.320312 311.417969 L 143.992188 311.464844 L 144.390625 311.503906 L 144.660156 311.542969 L 138.464844 311.542969 L 138.105469 311.503906 L 137.707031 311.472656 L 137.035156 311.4375 L 136.367188 311.410156 L 135.699219 311.390625 L 134.453125 311.363281 L 133.382812 311.34375 L 132.042969 311.328125 L 130.75 311.320312 L 129.28125 311.3125 L 128.390625 311.308594 L 126.027344 311.308594 L 123.886719 311.316406 L 122.636719 311.328125 L 121.746094 311.335938 L 120.5 311.351562 L 119.742188 311.363281 L 119.296875 311.375 L 117.957031 311.40625 L 117.066406 311.4375 L 116.574219 311.460938 L 115.953125 311.492188 L 115.507812 311.523438 L 115.015625 311.566406 L 114.75 311.597656 L 114.390625 311.671875 L 114.347656 311.871094 L 114.480469 311.914062 L 114.75 311.957031 L 115.105469 311.996094 L 115.640625 312.039062 L 116.175781 312.070312 L 117.109375 312.113281 L 117.914062 312.140625 L 118.539062 312.160156 L 119.742188 312.191406 L 120.230469 312.199219 L 121.390625 312.21875 L 122.59375 312.234375 L 124.066406 312.25 L 125.179688 312.253906 L 126.960938 312.261719 L 129.234375 312.261719 L 131.910156 312.253906 L 133.605469 312.246094 L 134.761719 312.238281 L 135.519531 312.230469 L 136.457031 312.21875 L 137.125 312.207031 L 137.75 312.195312 L 138.507812 312.175781 L 138.507812 311.914062 L 127.496094 311.910156 L 127.496094 311.789062 L 144.613281 311.789062 L 144.660156 312.21875 L 143.722656 312.246094 L 142.5625 312.273438 L 141.449219 312.296875 L 140.289062 312.316406 L 138.640625 312.335938 L 137.304688 312.351562 L 135.253906 312.363281 L 133.382812 312.375 L 131.421875 312.382812 L 129.679688 312.386719 L 127.632812 312.386719 L 125.804688 312.382812 L 123.84375 312.378906 L 122.28125 312.367188 L 120.855469 312.359375 L 119.429688 312.34375 L 117.644531 312.320312 L 116.488281 312.300781 L 115.285156 312.277344 L 114.078125 312.25 L 113.011719 312.222656 L 112.296875 312.199219 L 111.582031 312.171875 L 110.824219 312.140625 L 110.113281 312.101562 L 109.578125 312.066406 L 109.085938 312.027344 L 108.730469 311.992188 L 108.375 311.945312 L 108.195312 311.902344 L 108.105469 311.871094 Z M 108.105469 311.699219 "/>
<path style=" stroke:none;fill-rule:nonzero;fill:rgb(83.921569%,15.686275%,22.352941%);fill-opacity:1;" d="M 108.105469 302.320312 L 144.660156 302.320312 L 144.660156 302.703125 L 129.425781 302.707031 L 129.425781 305.902344 L 123.296875 305.902344 L 123.296875 302.710938 L 123.207031 302.703125 L 108.105469 302.703125 Z M 108.105469 302.320312 "/>
<path style=" stroke:none;fill-rule:nonzero;fill:rgb(6.27451%,58.823529%,28.235294%);fill-opacity:1;" d="M 146.582031 314.371094 L 146.621094 314.371094 L 162.4375 313.65625 L 167.242188 313.65625 L 183.136719 314.371094 L 177.550781 314.371094 L 173.570312 314.183594 L 156.113281 314.183594 L 152.207031 314.371094 L 146.582031 314.371094 L 157.792969 314.105469 L 171.96875 314.105469 L 164.898438 313.773438 L 164.820312 313.769531 L 164.742188 313.773438 L 157.753906 314.105469 L 157.792969 314.105469 Z M 146.582031 314.371094 "/>
<path style=" stroke:none;fill-rule:nonzero;fill:rgb(14.509804%,36.078431%,60%);fill-opacity:1;" d="M 146.582031 312.070312 L 146.628906 312.070312 L 146.628906 312.054688 L 146.761719 312.03125 L 147.074219 312 L 147.386719 311.976562 L 148.1875 311.9375 L 149.300781 311.902344 L 150.460938 311.871094 L 151.308594 311.855469 L 152.066406 311.84375 L 153.804688 311.816406 L 154.917969 311.804688 L 156.121094 311.792969 L 157.59375 311.78125 L 158.664062 311.777344 L 161.070312 311.765625 L 162.855469 311.761719 L 164.234375 311.757812 L 167.222656 311.757812 L 169.003906 311.761719 L 170.296875 311.765625 L 171.726562 311.769531 L 172.929688 311.777344 L 175.023438 311.789062 L 176.894531 311.808594 L 177.742188 311.820312 L 179.078125 311.839844 L 180.105469 311.859375 L 180.820312 311.875 L 181.621094 311.902344 L 182.335938 311.929688 L 182.867188 311.964844 L 183.136719 311.992188 L 176.894531 311.992188 L 176.582031 311.964844 L 176.226562 311.945312 L 175.558594 311.917969 L 174.890625 311.898438 L 173.953125 311.878906 L 173.105469 311.867188 L 171.949219 311.855469 L 170.921875 311.847656 L 169.851562 311.84375 L 168.828125 311.839844 L 166.867188 311.832031 L 164.59375 311.832031 L 163.746094 311.835938 L 162.007812 311.839844 L 161.070312 311.84375 L 159.734375 311.855469 L 158.796875 311.863281 L 157.683594 311.875 L 156.925781 311.886719 L 155.988281 311.902344 L 155.320312 311.917969 L 154.5625 311.941406 L 154.117188 311.957031 L 153.714844 311.976562 L 153.359375 311.996094 L 153.089844 312.019531 L 152.914062 312.042969 L 152.824219 312.066406 L 152.824219 312.167969 L 152.914062 312.191406 L 153.136719 312.21875 L 153.714844 312.261719 L 154.5625 312.292969 L 155.542969 312.320312 L 156.480469 312.339844 L 157.015625 312.351562 L 157.726562 312.363281 L 158.84375 312.375 L 160.445312 312.386719 L 161.382812 312.394531 L 162.808594 312.398438 L 164.28125 312.402344 L 166.242188 312.402344 L 167.980469 312.398438 L 169.140625 312.394531 L 170.34375 312.390625 L 171.992188 312.378906 L 173.015625 312.367188 L 173.910156 312.355469 L 174.578125 312.34375 L 175.023438 312.332031 L 175.691406 312.3125 L 176.226562 312.289062 L 176.628906 312.265625 L 176.894531 312.246094 L 183.136719 312.246094 L 182.867188 312.269531 L 182.46875 312.296875 L 182.066406 312.316406 L 181.441406 312.339844 L 180.730469 312.359375 L 179.703125 312.382812 L 178.855469 312.398438 L 177.742188 312.414062 L 176.71875 312.425781 L 175.601562 312.4375 L 173.953125 312.449219 L 172.882812 312.457031 L 171.726562 312.460938 L 170.34375 312.46875 L 168.605469 312.472656 L 166.730469 312.472656 L 164.992188 312.476562 L 163.121094 312.472656 L 161.738281 312.472656 L 159.910156 312.464844 L 157.636719 312.453125 L 155.988281 312.441406 L 154.695312 312.429688 L 153.582031 312.414062 L 152.332031 312.398438 L 150.730469 312.371094 L 149.75 312.347656 L 149.078125 312.328125 L 148.320312 312.304688 L 147.785156 312.28125 L 147.164062 312.242188 L 146.71875 312.195312 L 146.582031 312.160156 Z M 146.582031 312.070312 "/>
<path style=" stroke:none;fill-rule:nonzero;fill:rgb(96.862745%,70.196078%,16.862745%);fill-opacity:1;" d="M 146.582031 309.214844 L 146.628906 309.210938 L 146.628906 309.167969 L 146.804688 309.070312 L 147.25 308.933594 L 147.832031 308.824219 L 148.457031 308.738281 L 148.855469 308.691406 L 149.523438 308.625 L 150.105469 308.578125 L 151.574219 308.480469 L 153.449219 308.386719 L 154.472656 308.347656 L 155.632812 308.3125 L 157.28125 308.269531 L 158.039062 308.253906 L 160.359375 308.21875 L 162.988281 308.199219 L 165.886719 308.191406 L 167.222656 308.195312 L 169.050781 308.203125 L 171.546875 308.226562 L 172.972656 308.25 L 174.085938 308.269531 L 175.246094 308.296875 L 176.671875 308.34375 L 178.011719 308.394531 L 179.078125 308.445312 L 180.148438 308.511719 L 181.042969 308.582031 L 181.800781 308.660156 L 182.46875 308.75 L 182.867188 308.828125 L 183.136719 308.902344 L 176.941406 308.902344 L 176.582031 308.828125 L 176.183594 308.765625 L 175.515625 308.695312 L 174.84375 308.644531 L 174.175781 308.601562 L 172.929688 308.542969 L 171.859375 308.511719 L 170.519531 308.480469 L 169.226562 308.460938 L 167.757812 308.445312 L 166.867188 308.441406 L 164.503906 308.441406 L 162.363281 308.457031 L 161.117188 308.476562 L 160.222656 308.492188 L 158.976562 308.523438 L 158.21875 308.550781 L 157.773438 308.570312 L 156.433594 308.636719 L 155.542969 308.699219 L 155.054688 308.738281 L 154.429688 308.804688 L 153.984375 308.863281 L 153.492188 308.949219 L 153.226562 309.015625 L 152.867188 309.164062 L 152.824219 309.558594 L 152.957031 309.640625 L 153.226562 309.730469 L 153.582031 309.808594 L 154.117188 309.890625 L 154.652344 309.953125 L 155.585938 310.039062 L 156.390625 310.09375 L 157.015625 310.132812 L 158.21875 310.191406 L 158.707031 310.210938 L 159.867188 310.25 L 161.070312 310.28125 L 162.542969 310.308594 L 163.65625 310.320312 L 165.4375 310.332031 L 167.710938 310.332031 L 170.386719 310.316406 L 172.082031 310.300781 L 173.242188 310.285156 L 174 310.269531 L 174.933594 310.242188 L 175.601562 310.222656 L 176.226562 310.199219 L 176.984375 310.160156 L 176.984375 309.640625 L 165.972656 309.636719 L 165.972656 309.394531 L 183.09375 309.390625 L 183.136719 310.242188 L 182.199219 310.304688 L 181.042969 310.359375 L 179.925781 310.402344 L 178.769531 310.441406 L 177.117188 310.480469 L 175.78125 310.507812 L 173.730469 310.539062 L 171.859375 310.558594 L 169.898438 310.570312 L 168.160156 310.578125 L 166.109375 310.578125 L 164.28125 310.574219 L 162.320312 310.5625 L 160.757812 310.546875 L 159.332031 310.523438 L 157.90625 310.496094 L 156.121094 310.449219 L 154.964844 310.410156 L 153.761719 310.367188 L 152.554688 310.3125 L 151.488281 310.253906 L 150.773438 310.207031 L 150.058594 310.15625 L 149.300781 310.089844 L 148.589844 310.015625 L 148.054688 309.949219 L 147.5625 309.871094 L 147.207031 309.800781 L 146.851562 309.699219 L 146.671875 309.621094 L 146.582031 309.554688 Z M 146.582031 309.214844 "/>
<path style=" stroke:none;fill-rule:nonzero;fill:rgb(83.921569%,15.686275%,22.352941%);fill-opacity:1;" d="M 146.582031 304.402344 L 183.136719 304.402344 L 183.136719 304.679688 L 167.902344 304.683594 L 167.902344 307.011719 L 161.773438 307.011719 L 161.773438 304.683594 L 161.683594 304.679688 L 146.582031 304.679688 Z M 146.582031 304.402344 "/>
<path style=" stroke:none;fill-rule:nonzero;fill:rgb(6.27451%,58.823529%,28.235294%);fill-opacity:1;" d="M 185.058594 310.199219 L 185.097656 310.199219 L 200.914062 308.023438 L 205.71875 308.023438 L 221.613281 310.203125 L 216.027344 310.203125 L 212.046875 309.632812 L 194.589844 309.632812 L 190.683594 310.199219 L 185.058594 310.199219 L 196.269531 309.398438 L 210.445312 309.398438 L 203.375 308.378906 L 203.296875 308.378906 L 203.21875 308.382812 L 196.230469 309.398438 L 196.269531 309.398438 Z M 185.058594 310.199219 "/>
<path style=" stroke:none;fill-rule:nonzero;fill:rgb(14.509804%,36.078431%,60%);fill-opacity:1;" d="M 185.058594 314.1875 L 185.105469 314.1875 L 185.105469 314.179688 L 185.238281 314.167969 L 185.550781 314.152344 L 185.863281 314.144531 L 186.664062 314.125 L 187.78125 314.109375 L 188.9375 314.097656 L 189.785156 314.089844 L 190.542969 314.082031 L 192.28125 314.070312 L 193.394531 314.066406 L 194.601562 314.0625 L 196.070312 314.054688 L 197.140625 314.054688 L 199.546875 314.046875 L 208.773438 314.046875 L 210.203125 314.050781 L 211.40625 314.054688 L 213.5 314.058594 L 215.371094 314.066406 L 216.21875 314.074219 L 217.558594 314.082031 L 218.582031 314.089844 L 219.296875 314.097656 L 220.097656 314.109375 L 220.8125 314.121094 L 221.347656 314.136719 L 221.613281 314.152344 L 215.371094 314.152344 L 215.0625 314.140625 L 214.703125 314.128906 L 214.035156 314.117188 L 213.367188 314.109375 L 212.429688 314.101562 L 211.582031 314.09375 L 210.425781 314.089844 L 209.398438 314.085938 L 208.328125 314.082031 L 207.304688 314.082031 L 205.34375 314.078125 L 202.222656 314.078125 L 200.484375 314.082031 L 199.546875 314.085938 L 198.210938 314.089844 L 197.273438 314.09375 L 196.160156 314.097656 L 195.402344 314.101562 L 194.464844 314.109375 L 193.796875 314.117188 L 193.039062 314.128906 L 192.59375 314.136719 L 192.191406 314.144531 L 191.835938 314.152344 L 191.570312 314.164062 L 191.390625 314.175781 L 191.300781 314.183594 L 191.300781 314.230469 L 191.390625 314.242188 L 191.613281 314.253906 L 192.191406 314.273438 L 193.039062 314.289062 L 194.019531 314.300781 L 194.957031 314.308594 L 195.492188 314.3125 L 196.203125 314.320312 L 197.320312 314.324219 L 198.921875 314.332031 L 199.859375 314.332031 L 201.285156 314.335938 L 207.617188 314.335938 L 208.820312 314.332031 L 210.46875 314.328125 L 211.496094 314.320312 L 212.386719 314.316406 L 213.054688 314.308594 L 213.5 314.304688 L 214.167969 314.296875 L 214.703125 314.285156 L 215.105469 314.277344 L 215.371094 314.265625 L 221.613281 314.265625 L 221.347656 314.277344 L 220.945312 314.289062 L 220.542969 314.296875 L 219.917969 314.308594 L 219.207031 314.316406 L 218.179688 314.328125 L 217.335938 314.335938 L 216.21875 314.34375 L 215.195312 314.347656 L 214.078125 314.351562 L 212.429688 314.359375 L 211.359375 314.363281 L 210.203125 314.363281 L 208.820312 314.367188 L 207.082031 314.371094 L 201.597656 314.371094 L 200.214844 314.367188 L 198.390625 314.367188 L 196.117188 314.359375 L 194.464844 314.355469 L 193.171875 314.347656 L 192.058594 314.34375 L 190.8125 314.335938 L 189.207031 314.324219 L 188.226562 314.3125 L 187.554688 314.304688 L 186.796875 314.292969 L 186.265625 314.28125 L 185.640625 314.265625 L 185.195312 314.246094 L 185.058594 314.226562 Z M 185.058594 314.1875 "/>
<path style=" stroke:none;fill-rule:nonzero;fill:rgb(96.862745%,70.196078%,16.862745%);fill-opacity:1;" d="M 185.058594 312.015625 L 185.105469 312.015625 L 185.105469 311.988281 L 185.28125 311.929688 L 185.730469 311.84375 L 186.308594 311.773438 L 186.933594 311.71875 L 187.332031 311.691406 L 188.003906 311.652344 L 188.582031 311.621094 L 190.054688 311.5625 L 191.925781 311.503906 L 192.949219 311.480469 L 194.109375 311.457031 L 195.757812 311.429688 L 196.515625 311.421875 L 198.835938 311.398438 L 201.464844 311.386719 L 204.363281 311.382812 L 205.699219 311.382812 L 207.527344 311.390625 L 210.023438 311.402344 L 211.449219 311.417969 L 212.5625 311.429688 L 213.722656 311.449219 L 215.148438 311.476562 L 216.488281 311.507812 L 217.558594 311.539062 L 218.625 311.582031 L 219.519531 311.625 L 220.277344 311.671875 L 220.945312 311.730469 L 221.347656 311.777344 L 221.613281 311.824219 L 215.417969 311.824219 L 215.0625 311.777344 L 214.660156 311.738281 L 213.992188 311.695312 L 213.320312 311.664062 L 212.652344 311.636719 L 211.40625 311.601562 L 210.335938 311.578125 L 209 311.5625 L 207.707031 311.546875 L 206.234375 311.539062 L 202.980469 311.539062 L 200.839844 311.546875 L 199.59375 311.558594 L 198.699219 311.570312 L 197.453125 311.589844 L 196.695312 311.605469 L 196.25 311.617188 L 194.910156 311.660156 L 194.019531 311.695312 L 193.53125 311.722656 L 192.90625 311.761719 L 192.460938 311.800781 L 191.96875 311.851562 L 191.703125 311.894531 L 191.34375 311.984375 L 191.300781 312.230469 L 191.433594 312.28125 L 191.703125 312.335938 L 192.058594 312.386719 L 192.59375 312.4375 L 193.128906 312.476562 L 194.066406 312.53125 L 194.867188 312.566406 L 195.492188 312.585938 L 196.695312 312.625 L 197.183594 312.636719 L 198.34375 312.660156 L 199.546875 312.679688 L 201.019531 312.695312 L 202.132812 312.703125 L 203.917969 312.710938 L 206.191406 312.710938 L 208.863281 312.703125 L 210.558594 312.691406 L 211.71875 312.679688 L 212.476562 312.671875 L 213.410156 312.65625 L 214.078125 312.644531 L 214.703125 312.628906 L 215.460938 312.605469 L 215.460938 312.28125 L 204.453125 312.28125 L 204.453125 312.128906 L 221.570312 312.128906 L 221.613281 312.65625 L 220.675781 312.695312 L 219.519531 312.730469 L 218.402344 312.753906 L 217.246094 312.777344 L 215.59375 312.804688 L 214.257812 312.820312 L 212.207031 312.839844 L 210.335938 312.851562 L 208.375 312.859375 L 206.636719 312.863281 L 204.585938 312.867188 L 202.757812 312.863281 L 200.796875 312.855469 L 199.234375 312.84375 L 197.808594 312.832031 L 196.382812 312.8125 L 194.601562 312.785156 L 193.441406 312.761719 L 192.238281 312.734375 L 191.035156 312.699219 L 189.964844 312.664062 L 189.25 312.632812 L 188.539062 312.601562 L 187.78125 312.5625 L 187.066406 312.515625 L 186.53125 312.472656 L 186.039062 312.425781 L 185.683594 312.378906 L 185.328125 312.320312 L 185.148438 312.269531 L 185.058594 312.230469 Z M 185.058594 312.015625 "/>
<path style=" stroke:none;fill-rule:nonzero;fill:rgb(83.921569%,15.686275%,22.352941%);fill-opacity:1;" d="M 185.058594 304.085938 L 221.613281 304.085938 L 221.613281 304.382812 L 206.378906 304.386719 L 206.378906 306.84375 L 200.25 306.84375 L 200.25 304.386719 L 200.160156 304.382812 L 185.058594 304.382812 Z M 185.058594 304.085938 "/>
<path style=" stroke:none;fill-rule:nonzero;fill:rgb(6.27451%,58.823529%,28.235294%);fill-opacity:1;" d="M 223.539062 311.890625 L 223.578125 311.882812 L 239.390625 303.183594 L 244.195312 303.183594 L 260.089844 311.898438 L 254.503906 311.898438 L 250.523438 309.621094 L 233.066406 309.621094 L 229.160156 311.890625 L 223.539062 311.890625 L 234.746094 308.683594 L 248.921875 308.671875 L 241.851562 304.605469 L 241.773438 304.597656 L 241.695312 304.625 L 234.707031 308.671875 L 234.746094 308.683594 Z M 223.539062 311.890625 "/>
<path style=" stroke:none;fill-rule:nonzero;fill:rgb(14.509804%,36.078431%,60%);fill-opacity:1;" d="M 223.539062 313.640625 L 223.582031 313.636719 L 223.582031 313.609375 L 223.714844 313.566406 L 224.027344 313.507812 L 224.339844 313.46875 L 225.140625 313.398438 L 226.257812 313.332031 L 227.414062 313.28125 L 228.261719 313.25 L 229.019531 313.226562 L 230.757812 313.183594 L 231.875 313.160156 L 233.078125 313.140625 L 234.546875 313.121094 L 235.617188 313.109375 L 238.023438 313.089844 L 239.808594 313.082031 L 241.191406 313.078125 L 244.175781 313.078125 L 245.960938 313.082031 L 247.253906 313.085938 L 248.679688 313.097656 L 249.882812 313.109375 L 251.976562 313.132812 L 253.847656 313.167969 L 254.695312 313.1875 L 256.035156 313.222656 L 257.058594 313.257812 L 257.773438 313.289062 L 258.574219 313.332031 L 259.289062 313.386719 L 259.824219 313.445312 L 260.089844 313.496094 L 253.847656 313.496094 L 253.539062 313.449219 L 253.179688 313.414062 L 252.511719 313.363281 L 251.84375 313.328125 L 250.90625 313.296875 L 250.058594 313.273438 L 248.902344 313.25 L 247.875 313.238281 L 246.804688 313.226562 L 245.78125 313.21875 L 243.820312 313.210938 L 241.546875 313.210938 L 240.699219 313.214844 L 238.960938 313.222656 L 238.023438 313.230469 L 236.6875 313.25 L 235.75 313.265625 L 234.636719 313.289062 L 233.878906 313.308594 L 232.941406 313.339844 L 232.273438 313.367188 L 231.515625 313.40625 L 231.070312 313.433594 L 230.667969 313.46875 L 230.3125 313.507812 L 230.046875 313.546875 L 229.867188 313.589844 L 229.777344 313.632812 L 229.777344 313.816406 L 229.867188 313.859375 L 230.089844 313.910156 L 230.667969 313.980469 L 231.515625 314.042969 L 232.496094 314.09375 L 233.433594 314.128906 L 233.96875 314.144531 L 234.679688 314.164062 L 235.796875 314.1875 L 237.402344 314.210938 L 238.335938 314.222656 L 239.761719 314.230469 L 241.234375 314.234375 L 243.195312 314.234375 L 244.933594 314.230469 L 246.09375 314.226562 L 247.296875 314.214844 L 248.945312 314.195312 L 249.972656 314.175781 L 250.863281 314.152344 L 251.53125 314.132812 L 251.976562 314.113281 L 252.644531 314.078125 L 253.179688 314.035156 L 253.582031 313.996094 L 253.847656 313.953125 L 260.089844 313.953125 L 259.824219 314 L 259.421875 314.046875 L 259.019531 314.082031 L 258.394531 314.125 L 257.683594 314.160156 L 256.65625 314.203125 L 255.8125 314.230469 L 254.695312 314.257812 L 253.671875 314.28125 L 252.558594 314.300781 L 250.90625 314.324219 L 249.835938 314.335938 L 248.679688 314.347656 L 247.296875 314.355469 L 245.558594 314.363281 L 243.6875 314.371094 L 241.949219 314.371094 L 240.074219 314.367188 L 238.695312 314.363281 L 236.867188 314.351562 L 234.59375 314.332031 L 232.941406 314.308594 L 231.648438 314.285156 L 230.535156 314.261719 L 229.289062 314.230469 L 227.683594 314.179688 L 226.703125 314.140625 L 226.035156 314.105469 L 225.277344 314.058594 L 224.742188 314.019531 L 224.117188 313.953125 L 223.671875 313.867188 L 223.539062 313.804688 Z M 223.539062 313.640625 "/>
<path style=" stroke:none;fill-rule:nonzero;fill:rgb(96.862745%,70.196078%,16.862745%);fill-opacity:1;" d="M 223.539062 168.347656 L 223.582031 168.132812 L 223.582031 163.863281 L 223.761719 154.257812 L 224.207031 141.019531 L 224.785156 130.128906 L 225.410156 121.589844 L 225.8125 117.105469 L 226.480469 110.699219 L 227.058594 106.003906 L 228.53125 96.394531 L 230.402344 87.429688 L 231.425781 83.585938 L 232.585938 79.957031 L 234.234375 75.898438 L 234.992188 74.402344 L 237.3125 70.988281 L 239.941406 68.851562 L 242.839844 68.210938 L 244.175781 68.425781 L 246.003906 69.28125 L 248.5 71.628906 L 249.925781 73.765625 L 251.042969 75.898438 L 252.199219 78.675781 L 253.625 82.945312 L 254.964844 88.070312 L 256.035156 93.191406 L 257.105469 99.597656 L 257.996094 106.429688 L 258.753906 113.902344 L 259.421875 122.871094 L 259.824219 130.34375 L 260.089844 137.816406 L 253.894531 137.816406 L 253.539062 130.34375 L 253.136719 124.578125 L 252.46875 117.53125 L 251.800781 112.410156 L 251.128906 108.351562 L 249.882812 102.800781 L 248.8125 99.382812 L 247.476562 96.394531 L 246.183594 94.472656 L 244.710938 93.191406 L 243.820312 92.765625 L 241.457031 92.765625 L 239.316406 94.261719 L 238.070312 95.96875 L 237.179688 97.675781 L 235.929688 100.878906 L 235.171875 103.441406 L 234.726562 105.148438 L 233.390625 111.769531 L 232.496094 117.746094 L 232.007812 121.804688 L 231.382812 128.207031 L 230.9375 133.972656 L 230.445312 142.511719 L 230.179688 148.917969 L 229.824219 163.4375 L 229.777344 201.867188 L 229.910156 209.980469 L 230.179688 218.734375 L 230.535156 226.421875 L 231.070312 234.535156 L 231.605469 240.726562 L 232.542969 249.054688 L 233.34375 254.605469 L 233.96875 258.234375 L 235.171875 264 L 235.664062 265.921875 L 236.820312 269.765625 L 238.023438 272.753906 L 239.496094 275.316406 L 240.609375 276.597656 L 242.394531 277.664062 L 244.667969 277.664062 L 247.339844 276.382812 L 249.035156 274.675781 L 250.195312 272.964844 L 250.953125 271.472656 L 251.886719 269.125 L 252.558594 266.988281 L 253.179688 264.640625 L 253.9375 261.011719 L 253.9375 209.980469 L 242.929688 209.769531 L 242.929688 185.855469 L 260.046875 185.640625 L 260.089844 269.125 L 259.152344 274.886719 L 257.996094 280.441406 L 256.878906 284.710938 L 255.722656 288.339844 L 254.074219 292.394531 L 252.734375 294.957031 L 250.683594 297.945312 L 248.8125 299.867188 L 246.851562 301.148438 L 245.113281 301.789062 L 243.0625 302.003906 L 241.234375 301.578125 L 239.273438 300.296875 L 237.710938 298.585938 L 236.285156 296.453125 L 234.859375 293.675781 L 233.078125 289.191406 L 231.917969 285.5625 L 230.714844 281.078125 L 229.511719 275.742188 L 228.441406 269.976562 L 227.726562 265.492188 L 227.015625 260.371094 L 226.257812 253.964844 L 225.542969 246.707031 L 225.007812 240.085938 L 224.519531 232.613281 L 224.160156 225.566406 L 223.804688 215.960938 L 223.625 208.273438 L 223.539062 201.65625 Z M 223.539062 168.347656 "/>
<path style=" stroke:none;fill-rule:nonzero;fill:rgb(14.509804%,36.078431%,60%);fill-opacity:1;" d="M 262.015625 148.457031 L 262.058594 148.1875 L 262.058594 141.742188 L 262.191406 131.542969 L 262.503906 118.65625 L 262.816406 109.796875 L 263.617188 93.957031 L 264.734375 78.652344 L 265.890625 66.839844 L 266.738281 59.859375 L 267.496094 54.492188 L 269.234375 44.558594 L 270.351562 39.457031 L 271.554688 34.890625 L 273.023438 30.328125 L 274.09375 27.644531 L 276.5 23.347656 L 278.285156 21.46875 L 279.667969 20.664062 L 282.652344 20.664062 L 284.4375 21.738281 L 285.730469 23.078125 L 287.15625 25.226562 L 288.359375 27.644531 L 290.453125 33.550781 L 292.328125 41.066406 L 293.171875 45.363281 L 294.511719 53.683594 L 295.535156 61.738281 L 296.25 68.71875 L 297.050781 78.652344 L 297.765625 90.734375 L 298.300781 104.425781 L 298.566406 115.96875 L 292.328125 115.96875 L 292.015625 105.230469 L 291.65625 96.910156 L 290.988281 85.902344 L 290.320312 78.117188 L 289.382812 70.332031 L 288.539062 65.230469 L 287.378906 60.128906 L 286.351562 56.90625 L 285.285156 54.492188 L 284.257812 52.878906 L 282.296875 51.269531 L 280.023438 51.269531 L 279.175781 51.804688 L 277.4375 53.953125 L 276.5 55.832031 L 275.164062 59.589844 L 274.226562 63.082031 L 273.113281 68.449219 L 272.355469 73.015625 L 271.421875 79.996094 L 270.75 86.171875 L 269.992188 95.03125 L 269.546875 101.742188 L 269.148438 109.257812 L 268.789062 118.117188 L 268.523438 127.515625 L 268.34375 137.449219 L 268.253906 147.113281 L 268.253906 188.726562 L 268.34375 198.390625 L 268.566406 209.667969 L 269.148438 226.042969 L 269.992188 240.273438 L 270.972656 251.546875 L 271.910156 259.601562 L 272.445312 263.359375 L 273.160156 267.65625 L 274.273438 273.027344 L 275.878906 278.394531 L 276.8125 280.542969 L 278.238281 282.691406 L 279.710938 283.765625 L 281.671875 283.765625 L 283.410156 282.691406 L 284.570312 281.347656 L 285.773438 279.199219 L 287.421875 274.636719 L 288.449219 270.339844 L 289.339844 265.242188 L 290.007812 260.140625 L 290.453125 255.84375 L 291.121094 247.519531 L 291.65625 238.394531 L 292.058594 228.996094 L 292.328125 219.867188 L 298.566406 219.867188 L 298.300781 230.609375 L 297.898438 241.078125 L 297.496094 248.863281 L 296.875 258.261719 L 296.160156 266.582031 L 295.136719 275.980469 L 294.289062 282.152344 L 293.171875 288.867188 L 292.148438 293.96875 L 291.035156 298.53125 L 289.382812 303.898438 L 288.316406 306.585938 L 287.15625 309 L 285.773438 311.148438 L 284.035156 313.027344 L 282.164062 314.101562 L 280.425781 314.371094 L 278.550781 313.832031 L 277.171875 312.761719 L 275.34375 310.34375 L 273.070312 305.511719 L 271.421875 300.410156 L 270.128906 295.308594 L 269.011719 289.941406 L 267.765625 282.691406 L 266.160156 270.878906 L 265.179688 261.75 L 264.511719 254.234375 L 263.753906 243.761719 L 263.21875 234.367188 L 262.59375 219.332031 L 262.148438 200.269531 L 262.015625 185.503906 Z M 262.015625 148.457031 "/>
<path style=" stroke:none;fill-rule:nonzero;fill:rgb(14.509804%,36.078431%,60%);fill-opacity:1;" d="M 300.492188 311.941406 L 300.535156 311.9375 L 300.535156 311.84375 L 300.667969 311.691406 L 300.980469 311.503906 L 301.292969 311.375 L 302.097656 311.144531 L 303.210938 310.917969 L 304.371094 310.746094 L 305.214844 310.644531 L 305.972656 310.566406 L 307.710938 310.417969 L 308.828125 310.34375 L 310.03125 310.277344 L 311.5 310.210938 L 312.570312 310.171875 L 314.980469 310.109375 L 316.761719 310.082031 L 318.144531 310.070312 L 321.128906 310.070312 L 322.914062 310.085938 L 324.207031 310.105469 L 325.632812 310.136719 L 326.835938 310.171875 L 328.929688 310.257812 L 330.804688 310.367188 L 331.652344 310.429688 L 332.988281 310.554688 L 334.011719 310.671875 L 334.726562 310.773438 L 335.527344 310.917969 L 336.242188 311.09375 L 336.777344 311.296875 L 337.042969 311.464844 L 330.804688 311.464844 L 330.492188 311.308594 L 330.136719 311.1875 L 329.464844 311.023438 L 328.796875 310.910156 L 327.863281 310.796875 L 327.015625 310.722656 L 325.855469 310.648438 L 324.832031 310.601562 L 323.761719 310.566406 L 322.734375 310.542969 L 320.773438 310.519531 L 318.5 310.519531 L 317.652344 310.527344 L 315.914062 310.558594 L 314.980469 310.585938 L 313.640625 310.640625 L 312.707031 310.691406 L 311.589844 310.769531 L 310.832031 310.835938 L 309.898438 310.9375 L 309.226562 311.027344 L 308.46875 311.160156 L 308.023438 311.257812 L 307.625 311.367188 L 307.265625 311.496094 L 307 311.632812 L 306.820312 311.78125 L 306.730469 311.921875 L 306.730469 312.53125 L 306.820312 312.671875 L 307.042969 312.835938 L 307.625 313.078125 L 308.46875 313.285156 L 309.449219 313.449219 L 310.386719 313.570312 L 310.921875 313.625 L 311.636719 313.6875 L 312.75 313.765625 L 314.355469 313.84375 L 315.289062 313.875 L 316.71875 313.90625 L 318.1875 313.921875 L 320.148438 313.921875 L 321.886719 313.90625 L 323.046875 313.886719 L 324.25 313.855469 L 325.898438 313.789062 L 326.925781 313.726562 L 327.816406 313.652344 L 328.484375 313.578125 L 328.929688 313.511719 L 329.601562 313.390625 L 330.136719 313.257812 L 330.535156 313.121094 L 330.804688 312.988281 L 337.042969 312.988281 L 336.777344 313.144531 L 336.375 313.296875 L 335.972656 313.410156 L 335.351562 313.550781 L 334.636719 313.671875 L 333.613281 313.808594 L 332.765625 313.898438 L 331.652344 313.996094 L 330.625 314.070312 L 329.511719 314.140625 L 327.863281 314.21875 L 326.792969 314.257812 L 325.632812 314.292969 L 324.25 314.324219 L 322.511719 314.351562 L 320.640625 314.367188 L 318.902344 314.371094 L 317.027344 314.363281 L 315.648438 314.347656 L 313.820312 314.3125 L 311.546875 314.242188 L 309.898438 314.167969 L 308.605469 314.089844 L 307.488281 314.011719 L 306.242188 313.90625 L 304.636719 313.734375 L 303.65625 313.601562 L 302.988281 313.488281 L 302.230469 313.335938 L 301.695312 313.199219 L 301.070312 312.980469 L 300.625 312.699219 L 300.492188 312.484375 Z M 300.492188 311.941406 "/>
<path style=" stroke:none;fill-rule:nonzero;fill:rgb(83.921569%,15.686275%,22.352941%);fill-opacity:1;" d="M 300.492188 41.515625 L 337.042969 41.515625 L 337.042969 70.136719 L 321.808594 70.390625 L 321.808594 308.890625 L 315.679688 308.890625 L 315.679688 70.640625 L 315.59375 70.136719 L 300.492188 70.136719 Z M 300.492188 41.515625 "/>
<path style=" stroke:none;fill-rule:nonzero;fill:rgb(6.27451%,58.823529%,28.235294%);fill-opacity:1;" d="M 338.96875 301.785156 L 339.007812 301.566406 L 354.824219 68.210938 L 359.625 68.210938 L 375.519531 302.003906 L 369.9375 302.003906 L 365.953125 240.976562 L 348.496094 240.976562 L 344.589844 301.785156 L 338.96875 301.785156 L 350.175781 215.730469 L 364.351562 215.511719 L 357.285156 106.410156 L 357.207031 106.191406 L 357.128906 106.847656 L 350.136719 215.511719 L 350.175781 215.730469 Z M 338.96875 301.785156 "/>
<path style=" stroke:none;fill-rule:nonzero;fill:rgb(14.509804%,36.078431%,60%);fill-opacity:1;" d="M 338.96875 313.640625 L 339.011719 313.636719 L 339.011719 313.609375 L 339.144531 313.566406 L 339.457031 313.507812 L 339.769531 313.46875 L 340.574219 313.398438 L 341.6875 313.332031 L 342.847656 313.28125 L 343.691406 313.25 L 344.449219 313.226562 L 346.191406 313.183594 L 347.304688 313.160156 L 348.507812 313.140625 L 349.980469 313.121094 L 351.046875 313.109375 L 353.457031 313.089844 L 355.238281 313.082031 L 356.621094 313.078125 L 359.605469 313.078125 L 361.390625 313.082031 L 362.683594 313.085938 L 364.109375 313.097656 L 365.3125 313.109375 L 367.410156 313.132812 L 369.28125 313.167969 L 370.128906 313.1875 L 371.464844 313.222656 L 372.488281 313.257812 L 373.203125 313.289062 L 374.003906 313.332031 L 374.71875 313.386719 L 375.253906 313.445312 L 375.519531 313.496094 L 369.28125 313.496094 L 368.96875 313.449219 L 368.613281 313.414062 L 367.941406 313.363281 L 367.273438 313.328125 L 366.339844 313.296875 L 365.492188 313.273438 L 364.332031 313.25 L 363.308594 313.238281 L 362.238281 313.226562 L 361.210938 313.21875 L 359.25 313.210938 L 356.976562 313.210938 L 356.128906 313.214844 L 354.390625 313.222656 L 353.457031 313.230469 L 352.117188 313.25 L 351.183594 313.265625 L 350.066406 313.289062 L 349.308594 313.308594 L 348.375 313.339844 L 347.707031 313.367188 L 346.949219 313.40625 L 346.5 313.433594 L 346.101562 313.46875 L 345.742188 313.507812 L 345.476562 313.546875 L 345.296875 313.589844 L 345.207031 313.632812 L 345.207031 313.816406 L 345.296875 313.859375 L 345.519531 313.910156 L 346.101562 313.980469 L 346.949219 314.042969 L 347.929688 314.09375 L 348.863281 314.128906 L 349.398438 314.144531 L 350.113281 314.164062 L 351.226562 314.1875 L 352.832031 314.210938 L 353.769531 314.222656 L 355.195312 314.230469 L 356.664062 314.234375 L 358.625 314.234375 L 360.363281 314.230469 L 361.523438 314.226562 L 362.726562 314.214844 L 364.378906 314.195312 L 365.402344 314.175781 L 366.292969 314.152344 L 366.960938 314.132812 L 367.410156 314.113281 L 368.078125 314.078125 L 368.613281 314.035156 L 369.011719 313.996094 L 369.28125 313.953125 L 375.519531 313.953125 L 375.253906 314 L 374.851562 314.046875 L 374.453125 314.082031 L 373.828125 314.125 L 373.113281 314.160156 L 372.089844 314.203125 L 371.242188 314.230469 L 370.128906 314.257812 L 369.101562 314.28125 L 367.988281 314.300781 L 366.339844 314.324219 L 365.269531 314.335938 L 364.109375 314.347656 L 362.726562 314.355469 L 360.988281 314.363281 L 359.117188 314.371094 L 357.378906 314.371094 L 355.507812 314.367188 L 354.125 314.363281 L 352.296875 314.351562 L 350.023438 314.332031 L 348.375 314.308594 L 347.082031 314.285156 L 345.964844 314.261719 L 344.71875 314.230469 L 343.113281 314.179688 L 342.132812 314.140625 L 341.464844 314.105469 L 340.707031 314.058594 L 340.171875 314.019531 L 339.546875 313.953125 L 339.101562 313.867188 L 338.96875 313.804688 Z M 338.96875 313.640625 "/>
<path style=" stroke:none;fill-rule:nonzero;fill:rgb(83.921569%,15.686275%,22.352941%);fill-opacity:1;" d="M 338.96875 303.183594 L 375.519531 303.183594 L 375.519531 304.117188 L 360.285156 304.125 L 360.285156 311.898438 L 354.15625 311.898438 L 354.15625 304.132812 L 354.070312 304.117188 L 338.96875 304.117188 Z M 338.96875 303.183594 "/>
<path style=" stroke:none;fill-rule:nonzero;fill:rgb(14.509804%,36.078431%,60%);fill-opacity:1;" d="M 377.445312 148.457031 L 377.488281 148.1875 L 377.488281 141.742188 L 377.625 131.542969 L 377.933594 118.65625 L 378.246094 109.796875 L 379.050781 93.957031 L 380.164062 78.652344 L 381.324219 66.839844 L 382.171875 59.859375 L 382.929688 54.492188 L 384.667969 44.558594 L 385.78125 39.457031 L 386.984375 34.890625 L 388.457031 30.328125 L 389.527344 27.644531 L 391.933594 23.347656 L 393.714844 21.46875 L 395.097656 20.664062 L 398.085938 20.664062 L 399.867188 21.738281 L 401.160156 23.078125 L 402.585938 25.226562 L 403.789062 27.644531 L 405.886719 33.550781 L 407.757812 41.066406 L 408.605469 45.363281 L 409.941406 53.683594 L 410.96875 61.738281 L 411.679688 68.71875 L 412.484375 78.652344 L 413.195312 90.734375 L 413.730469 104.425781 L 414 115.96875 L 407.757812 115.96875 L 407.445312 105.230469 L 407.089844 96.910156 L 406.421875 85.902344 L 405.75 78.117188 L 404.816406 70.332031 L 403.96875 65.230469 L 402.808594 60.128906 L 401.785156 56.90625 L 400.714844 54.492188 L 399.6875 52.878906 L 397.726562 51.269531 L 395.453125 51.269531 L 394.605469 51.804688 L 392.867188 53.953125 L 391.933594 55.832031 L 390.59375 59.589844 L 389.660156 63.082031 L 388.542969 68.449219 L 387.785156 73.015625 L 386.851562 79.996094 L 386.183594 86.171875 L 385.425781 95.03125 L 384.980469 101.742188 L 384.578125 109.257812 L 384.222656 118.117188 L 383.953125 127.515625 L 383.773438 137.449219 L 383.6875 147.113281 L 383.6875 188.726562 L 383.773438 198.390625 L 383.996094 209.667969 L 384.578125 226.042969 L 385.425781 240.273438 L 386.40625 251.546875 L 387.339844 259.601562 L 387.875 263.359375 L 388.589844 267.65625 L 389.703125 273.027344 L 391.308594 278.394531 L 392.246094 280.542969 L 393.671875 282.691406 L 395.140625 283.765625 L 397.105469 283.765625 L 398.84375 282.691406 L 400 281.347656 L 401.203125 279.199219 L 402.855469 274.636719 L 403.878906 270.339844 L 404.769531 265.242188 L 405.441406 260.140625 L 405.886719 255.84375 L 406.554688 247.519531 L 407.089844 238.394531 L 407.488281 228.996094 L 407.757812 219.867188 L 414 219.867188 L 413.730469 230.609375 L 413.328125 241.078125 L 412.929688 248.863281 L 412.304688 258.261719 L 411.589844 266.582031 L 410.566406 275.980469 L 409.71875 282.152344 L 408.605469 288.867188 L 407.578125 293.96875 L 406.464844 298.53125 L 404.816406 303.898438 L 403.746094 306.585938 L 402.585938 309 L 401.203125 311.148438 L 399.464844 313.027344 L 397.59375 314.101562 L 395.855469 314.371094 L 393.984375 313.832031 L 392.601562 312.761719 L 390.773438 310.34375 L 388.5 305.511719 L 386.851562 300.410156 L 385.558594 295.308594 L 384.445312 289.941406 L 383.195312 282.691406 L 381.589844 270.878906 L 380.609375 261.75 L 379.941406 254.234375 L 379.183594 243.761719 L 378.648438 234.367188 L 378.023438 219.332031 L 377.578125 200.269531 L 377.445312 185.503906 Z M 377.445312 148.457031 "/>
<path style=" stroke:none;fill-rule:nonzero;fill:rgb(14.509804%,36.078431%,60%);fill-opacity:1;" d="M 415.921875 284.589844 L 415.964844 284.539062 L 415.964844 283.382812 L 416.101562 281.554688 L 416.414062 279.238281 L 416.722656 277.648438 L 417.527344 274.804688 L 418.640625 272.058594 L 419.800781 269.9375 L 420.648438 268.6875 L 421.40625 267.722656 L 423.144531 265.9375 L 424.257812 265.023438 L 425.460938 264.203125 L 426.933594 263.386719 L 428.003906 262.902344 L 430.410156 262.132812 L 432.191406 261.796875 L 433.574219 261.652344 L 436.5625 261.652344 L 438.34375 261.84375 L 439.636719 262.085938 L 441.0625 262.46875 L 442.265625 262.902344 L 444.363281 263.964844 L 446.234375 265.3125 L 447.082031 266.082031 L 448.417969 267.578125 L 449.445312 269.023438 L 450.15625 270.277344 L 450.960938 272.058594 L 451.671875 274.226562 L 452.207031 276.6875 L 452.476562 278.757812 L 446.234375 278.757812 L 445.921875 276.832031 L 445.566406 275.335938 L 444.898438 273.359375 L 444.226562 271.964844 L 443.292969 270.566406 L 442.445312 269.648438 L 441.285156 268.734375 L 440.261719 268.15625 L 439.191406 267.722656 L 438.164062 267.433594 L 436.203125 267.144531 L 433.929688 267.144531 L 433.085938 267.242188 L 431.347656 267.625 L 430.410156 267.964844 L 429.074219 268.636719 L 428.136719 269.265625 L 427.023438 270.226562 L 426.265625 271.046875 L 425.328125 272.300781 L 424.660156 273.410156 L 423.902344 275 L 423.457031 276.203125 L 423.054688 277.554688 L 422.699219 279.144531 L 422.429688 280.832031 L 422.253906 282.613281 L 422.164062 284.347656 L 422.164062 291.816406 L 422.253906 293.550781 L 422.476562 295.578125 L 423.054688 298.515625 L 423.902344 301.070312 L 424.882812 303.09375 L 425.816406 304.539062 L 426.351562 305.214844 L 427.066406 305.984375 L 428.179688 306.949219 L 429.785156 307.914062 L 430.722656 308.296875 L 432.148438 308.683594 L 433.621094 308.878906 L 435.582031 308.878906 L 437.320312 308.683594 L 438.476562 308.441406 L 439.679688 308.058594 L 441.332031 307.238281 L 442.355469 306.46875 L 443.246094 305.550781 L 443.917969 304.636719 L 444.363281 303.863281 L 445.03125 302.371094 L 445.566406 300.734375 L 445.96875 299.046875 L 446.234375 297.40625 L 452.476562 297.40625 L 452.207031 299.335938 L 451.804688 301.214844 L 451.40625 302.613281 L 450.78125 304.300781 L 450.066406 305.792969 L 449.042969 307.480469 L 448.195312 308.585938 L 447.082031 309.792969 L 446.054688 310.707031 L 444.941406 311.527344 L 443.292969 312.492188 L 442.222656 312.972656 L 441.0625 313.40625 L 439.679688 313.792969 L 437.941406 314.128906 L 436.070312 314.324219 L 434.332031 314.371094 L 432.460938 314.273438 L 431.078125 314.082031 L 429.25 313.648438 L 426.976562 312.78125 L 425.328125 311.863281 L 424.035156 310.949219 L 422.921875 309.984375 L 421.671875 308.683594 L 420.066406 306.5625 L 419.085938 304.925781 L 418.417969 303.574219 L 417.660156 301.695312 L 417.125 300.011719 L 416.5 297.3125 L 416.054688 293.890625 L 415.921875 291.238281 Z M 415.921875 284.589844 "/>
<path style=" stroke:none;fill-rule:nonzero;fill:rgb(83.921569%,15.686275%,22.352941%);fill-opacity:1;" d="M 415.921875 157.023438 L 452.476562 157.023438 L 452.476562 168.09375 L 437.242188 168.191406 L 437.242188 260.472656 L 431.113281 260.472656 L 431.113281 168.289062 L 431.023438 168.09375 L 415.921875 168.09375 Z M 415.921875 157.023438 "/>
<path style=" stroke:none;fill-rule:nonzero;fill:rgb(6.27451%,58.823529%,28.235294%);fill-opacity:1;" d="M 454.398438 314.371094 L 454.4375 314.367188 L 470.253906 312.839844 L 475.058594 312.839844 L 490.953125 314.371094 L 485.367188 314.371094 L 481.382812 313.972656 L 463.929688 313.972656 L 460.023438 314.371094 L 454.398438 314.371094 L 465.605469 313.804688 L 479.78125 313.804688 L 472.714844 313.089844 L 472.636719 313.089844 L 472.558594 313.09375 L 465.566406 313.804688 L 465.605469 313.804688 Z M 454.398438 314.371094 "/>
<path style=" stroke:none;fill-rule:nonzero;fill:rgb(96.862745%,70.196078%,16.862745%);fill-opacity:1;" d="M 454.398438 157.746094 L 454.445312 157.503906 L 454.445312 152.675781 L 454.621094 141.804688 L 455.066406 126.832031 L 455.648438 114.511719 L 456.269531 104.851562 L 456.671875 99.777344 L 457.339844 92.53125 L 457.921875 87.21875 L 459.390625 76.347656 L 461.265625 66.203125 L 462.289062 61.855469 L 463.449219 57.75 L 465.097656 53.160156 L 465.855469 51.472656 L 468.171875 47.605469 L 470.804688 45.191406 L 473.699219 44.464844 L 475.039062 44.707031 L 476.867188 45.675781 L 479.363281 48.332031 L 480.789062 50.746094 L 481.902344 53.160156 L 483.0625 56.300781 L 484.488281 61.132812 L 485.824219 66.929688 L 486.894531 72.726562 L 487.964844 79.972656 L 488.855469 87.703125 L 489.613281 96.15625 L 490.285156 106.300781 L 490.683594 114.753906 L 490.953125 123.207031 L 484.757812 123.207031 L 484.398438 114.753906 L 484 108.230469 L 483.328125 100.261719 L 482.660156 94.464844 L 481.992188 89.875 L 480.742188 83.59375 L 479.675781 79.730469 L 478.335938 76.347656 L 477.042969 74.175781 L 475.574219 72.726562 L 474.679688 72.242188 L 472.320312 72.242188 L 470.179688 73.933594 L 468.929688 75.867188 L 468.039062 77.796875 L 466.792969 81.421875 L 466.035156 84.320312 L 465.585938 86.253906 L 464.25 93.738281 L 463.359375 100.503906 L 462.867188 105.09375 L 462.246094 112.339844 L 461.800781 118.859375 L 461.308594 128.519531 L 461.042969 135.765625 L 460.683594 152.191406 L 460.640625 195.667969 L 460.773438 204.847656 L 461.042969 214.75 L 461.398438 223.445312 L 461.933594 232.625 L 462.46875 239.628906 L 463.402344 249.046875 L 464.207031 255.328125 L 464.828125 259.433594 L 466.035156 265.957031 L 466.523438 268.128906 L 467.683594 272.476562 L 468.886719 275.859375 L 470.359375 278.757812 L 471.472656 280.207031 L 473.253906 281.414062 L 475.527344 281.414062 L 478.203125 279.964844 L 479.898438 278.03125 L 481.054688 276.101562 L 481.8125 274.410156 L 482.75 271.753906 L 483.417969 269.335938 L 484.042969 266.679688 L 484.800781 262.574219 L 484.800781 204.847656 L 473.789062 204.605469 L 473.789062 177.554688 L 490.90625 177.3125 L 490.953125 271.753906 L 490.015625 278.273438 L 488.855469 284.554688 L 487.742188 289.382812 L 486.582031 293.492188 L 484.933594 298.078125 L 483.597656 300.976562 L 481.546875 304.359375 L 479.675781 306.535156 L 477.710938 307.984375 L 475.972656 308.707031 L 473.921875 308.949219 L 472.097656 308.464844 L 470.132812 307.015625 L 468.574219 305.085938 L 467.148438 302.667969 L 465.722656 299.527344 L 463.9375 294.457031 L 462.78125 290.351562 L 461.574219 285.277344 L 460.371094 279.238281 L 459.300781 272.71875 L 458.589844 267.644531 L 457.875 261.847656 L 457.117188 254.601562 L 456.40625 246.390625 L 455.871094 238.902344 L 455.378906 230.449219 L 455.023438 222.480469 L 454.667969 211.609375 L 454.488281 202.914062 L 454.398438 195.425781 Z M 454.398438 157.746094 "/>
<path style=" stroke:none;fill-rule:nonzero;fill:rgb(83.921569%,15.686275%,22.352941%);fill-opacity:1;" d="M 454.398438 310.128906 L 490.953125 310.128906 L 490.953125 310.292969 L 475.71875 310.292969 L 475.71875 311.660156 L 469.589844 311.660156 L 469.589844 310.296875 L 469.5 310.292969 L 454.398438 310.292969 Z M 454.398438 310.128906 "/>
<path style=" stroke:none;fill-rule:nonzero;fill:rgb(6.27451%,58.823529%,28.235294%);fill-opacity:1;" d="M 492.875 314.367188 L 492.914062 314.367188 L 508.730469 312.023438 L 513.535156 312.023438 L 529.429688 314.371094 L 523.84375 314.371094 L 519.859375 313.757812 L 502.40625 313.757812 L 498.5 314.367188 L 492.875 314.367188 L 504.085938 313.503906 L 518.261719 313.503906 L 511.191406 312.40625 L 511.113281 312.40625 L 511.035156 312.410156 L 504.046875 313.503906 L 504.085938 313.503906 Z M 492.875 314.367188 "/>
<path style=" stroke:none;fill-rule:nonzero;fill:rgb(14.509804%,36.078431%,60%);fill-opacity:1;" d="M 492.875 309.519531 L 492.921875 309.515625 L 492.921875 309.464844 L 493.054688 309.382812 L 493.367188 309.28125 L 493.679688 309.210938 L 494.480469 309.082031 L 495.59375 308.960938 L 496.753906 308.867188 L 497.601562 308.808594 L 498.359375 308.765625 L 500.097656 308.6875 L 501.210938 308.648438 L 502.414062 308.609375 L 503.886719 308.574219 L 504.957031 308.554688 L 507.363281 308.519531 L 509.148438 308.503906 L 510.527344 308.496094 L 513.515625 308.496094 L 515.296875 308.503906 L 516.589844 308.515625 L 518.015625 308.535156 L 519.222656 308.554688 L 521.316406 308.601562 L 523.1875 308.660156 L 524.035156 308.695312 L 525.371094 308.761719 L 526.398438 308.824219 L 527.109375 308.882812 L 527.914062 308.960938 L 528.625 309.058594 L 529.160156 309.167969 L 529.429688 309.257812 L 523.1875 309.257812 L 522.875 309.171875 L 522.519531 309.105469 L 521.851562 309.019531 L 521.183594 308.957031 L 520.246094 308.894531 L 519.398438 308.851562 L 518.242188 308.8125 L 517.214844 308.785156 L 516.144531 308.765625 L 515.121094 308.753906 L 513.160156 308.742188 L 510.886719 308.742188 L 510.039062 308.746094 L 508.300781 308.761719 L 507.363281 308.777344 L 506.027344 308.808594 L 505.089844 308.835938 L 503.976562 308.878906 L 503.21875 308.914062 L 502.28125 308.972656 L 501.613281 309.019531 L 500.855469 309.089844 L 500.410156 309.144531 L 500.007812 309.207031 L 499.652344 309.277344 L 499.382812 309.351562 L 499.207031 309.429688 L 499.117188 309.507812 L 499.117188 309.839844 L 499.207031 309.917969 L 499.429688 310.007812 L 500.007812 310.136719 L 500.855469 310.253906 L 501.835938 310.34375 L 502.773438 310.40625 L 503.308594 310.4375 L 504.019531 310.472656 L 505.132812 310.515625 L 506.738281 310.558594 L 507.675781 310.574219 L 509.101562 310.589844 L 510.574219 310.597656 L 512.535156 310.597656 L 514.273438 310.589844 L 515.433594 310.582031 L 516.636719 310.5625 L 518.285156 310.527344 L 519.308594 310.492188 L 520.203125 310.453125 L 520.871094 310.410156 L 521.316406 310.375 L 521.984375 310.308594 L 522.519531 310.238281 L 522.921875 310.160156 L 523.1875 310.089844 L 529.429688 310.089844 L 529.160156 310.175781 L 528.761719 310.257812 L 528.359375 310.320312 L 527.734375 310.394531 L 527.023438 310.460938 L 525.996094 310.539062 L 525.148438 310.585938 L 524.035156 310.640625 L 523.011719 310.679688 L 521.894531 310.71875 L 520.246094 310.761719 L 519.175781 310.78125 L 518.015625 310.800781 L 516.636719 310.820312 L 514.898438 310.832031 L 513.023438 310.84375 L 511.285156 310.84375 L 509.414062 310.839844 L 508.03125 310.832031 L 506.203125 310.8125 L 503.929688 310.773438 L 502.28125 310.734375 L 500.988281 310.691406 L 499.875 310.648438 L 498.625 310.589844 L 497.023438 310.496094 L 496.039062 310.421875 L 495.371094 310.363281 L 494.613281 310.28125 L 494.078125 310.203125 L 493.457031 310.085938 L 493.007812 309.933594 L 492.875 309.8125 Z M 492.875 309.519531 "/>
<path style=" stroke:none;fill-rule:nonzero;fill:rgb(96.862745%,70.196078%,16.862745%);fill-opacity:1;" d="M 492.875 295.894531 L 492.921875 295.878906 L 492.921875 295.511719 L 493.097656 294.691406 L 493.542969 293.558594 L 494.125 292.628906 L 494.75 291.898438 L 495.148438 291.515625 L 495.816406 290.96875 L 496.398438 290.566406 L 497.867188 289.746094 L 499.742188 288.980469 L 500.765625 288.652344 L 501.925781 288.339844 L 503.574219 287.996094 L 504.332031 287.867188 L 506.648438 287.574219 L 509.28125 287.394531 L 512.179688 287.339844 L 513.515625 287.355469 L 515.34375 287.429688 L 517.839844 287.628906 L 519.265625 287.8125 L 520.378906 287.996094 L 521.539062 288.230469 L 522.964844 288.597656 L 524.304688 289.035156 L 525.371094 289.472656 L 526.441406 290.019531 L 527.335938 290.605469 L 528.09375 291.242188 L 528.761719 292.007812 L 529.160156 292.648438 L 529.429688 293.285156 L 523.234375 293.285156 L 522.875 292.648438 L 522.476562 292.15625 L 521.804688 291.554688 L 521.136719 291.113281 L 520.46875 290.769531 L 519.222656 290.292969 L 518.152344 290.003906 L 516.8125 289.746094 L 515.519531 289.582031 L 514.050781 289.472656 L 513.160156 289.4375 L 510.796875 289.4375 L 508.65625 289.5625 L 507.40625 289.710938 L 506.515625 289.855469 L 505.269531 290.128906 L 504.511719 290.347656 L 504.066406 290.496094 L 502.726562 291.058594 L 501.835938 291.570312 L 501.34375 291.917969 L 500.722656 292.464844 L 500.277344 292.957031 L 499.785156 293.6875 L 499.519531 294.234375 L 499.160156 295.476562 L 499.117188 298.761719 L 499.25 299.453125 L 499.519531 300.203125 L 499.875 300.859375 L 500.410156 301.550781 L 500.945312 302.082031 L 501.878906 302.792969 L 502.683594 303.265625 L 503.308594 303.578125 L 504.511719 304.070312 L 505 304.234375 L 506.160156 304.5625 L 507.363281 304.816406 L 508.835938 305.035156 L 509.949219 305.144531 L 511.730469 305.238281 L 514.003906 305.238281 L 516.679688 305.128906 L 518.375 304.980469 L 519.53125 304.835938 L 520.289062 304.707031 L 521.226562 304.507812 L 521.894531 304.324219 L 522.519531 304.125 L 523.277344 303.8125 L 523.277344 299.453125 L 512.265625 299.433594 L 512.265625 297.390625 L 529.382812 297.375 L 529.429688 304.507812 L 528.492188 305 L 527.335938 305.476562 L 526.21875 305.839844 L 525.0625 306.148438 L 523.410156 306.496094 L 522.074219 306.714844 L 520.023438 306.972656 L 518.152344 307.136719 L 516.191406 307.246094 L 514.453125 307.300781 L 512.402344 307.316406 L 510.574219 307.28125 L 508.613281 307.171875 L 507.050781 307.027344 L 505.625 306.84375 L 504.199219 306.605469 L 502.414062 306.222656 L 501.257812 305.914062 L 500.054688 305.53125 L 498.847656 305.074219 L 497.78125 304.582031 L 497.066406 304.199219 L 496.351562 303.757812 L 495.59375 303.210938 L 494.882812 302.59375 L 494.347656 302.027344 L 493.855469 301.386719 L 493.5 300.785156 L 493.144531 299.964844 L 492.964844 299.308594 L 492.875 298.742188 Z M 492.875 295.894531 "/>
<path style=" stroke:none;fill-rule:nonzero;fill:rgb(83.921569%,15.686275%,22.352941%);fill-opacity:1;" d="M 492.875 139.222656 L 529.429688 139.222656 L 529.429688 154.953125 L 514.195312 155.089844 L 514.195312 286.160156 L 508.066406 286.160156 L 508.066406 155.230469 L 507.976562 154.953125 L 492.875 154.953125 Z M 492.875 139.222656 "/>
<path style=" stroke:none;fill-rule:nonzero;fill:rgb(6.27451%,58.823529%,28.235294%);fill-opacity:1;" d="M 531.351562 296.257812 L 531.390625 296.246094 L 547.207031 281.742188 L 552.011719 281.742188 L 567.90625 296.273438 L 562.320312 296.273438 L 558.339844 292.480469 L 540.882812 292.480469 L 536.976562 296.257812 L 531.351562 296.257812 L 542.5625 290.910156 L 556.738281 290.898438 L 549.667969 284.117188 L 549.589844 284.101562 L 549.511719 284.144531 L 542.523438 290.898438 L 542.5625 290.910156 Z M 531.351562 296.257812 "/>
<path style=" stroke:none;fill-rule:nonzero;fill:rgb(14.509804%,36.078431%,60%);fill-opacity:1;" d="M 531.351562 313.492188 L 531.398438 313.492188 L 531.398438 313.457031 L 531.53125 313.40625 L 531.84375 313.335938 L 532.15625 313.289062 L 532.957031 313.207031 L 534.070312 313.125 L 535.230469 313.0625 L 536.078125 313.027344 L 536.835938 312.996094 L 538.574219 312.945312 L 539.6875 312.917969 L 540.890625 312.894531 L 542.363281 312.871094 L 543.433594 312.855469 L 545.839844 312.832031 L 547.625 312.824219 L 549.003906 312.816406 L 551.992188 312.816406 L 553.773438 312.824219 L 555.066406 312.832031 L 556.496094 312.84375 L 557.699219 312.855469 L 559.792969 312.886719 L 561.664062 312.925781 L 562.511719 312.949219 L 563.851562 312.992188 L 564.875 313.035156 L 565.589844 313.074219 L 566.390625 313.125 L 567.105469 313.1875 L 567.636719 313.261719 L 567.90625 313.320312 L 561.664062 313.320312 L 561.351562 313.265625 L 560.996094 313.222656 L 560.328125 313.164062 L 559.660156 313.121094 L 558.722656 313.082031 L 557.875 313.054688 L 556.71875 313.027344 L 555.691406 313.011719 L 554.621094 312.996094 L 553.597656 312.988281 L 551.636719 312.980469 L 549.363281 312.980469 L 548.515625 312.984375 L 546.777344 312.996094 L 545.839844 313.003906 L 544.503906 313.023438 L 543.566406 313.042969 L 542.453125 313.070312 L 541.695312 313.09375 L 540.757812 313.132812 L 540.089844 313.164062 L 539.332031 313.210938 L 538.886719 313.246094 L 538.484375 313.285156 L 538.128906 313.332031 L 537.859375 313.382812 L 537.683594 313.4375 L 537.59375 313.488281 L 537.59375 313.707031 L 537.683594 313.757812 L 537.90625 313.816406 L 538.484375 313.902344 L 539.332031 313.980469 L 540.3125 314.039062 L 541.25 314.082031 L 541.785156 314.101562 L 542.496094 314.125 L 543.613281 314.152344 L 545.214844 314.179688 L 546.152344 314.191406 L 547.578125 314.203125 L 549.050781 314.207031 L 551.011719 314.207031 L 552.75 314.203125 L 553.910156 314.195312 L 555.113281 314.183594 L 556.761719 314.160156 L 557.789062 314.136719 L 558.679688 314.109375 L 559.347656 314.085938 L 559.792969 314.0625 L 560.460938 314.015625 L 560.996094 313.96875 L 561.398438 313.917969 L 561.664062 313.871094 L 567.90625 313.871094 L 567.636719 313.929688 L 567.238281 313.984375 L 566.835938 314.023438 L 566.210938 314.074219 L 565.5 314.117188 L 564.472656 314.167969 L 563.625 314.199219 L 562.511719 314.234375 L 561.488281 314.261719 L 560.371094 314.285156 L 558.722656 314.316406 L 557.652344 314.328125 L 556.496094 314.34375 L 555.113281 314.355469 L 553.375 314.363281 L 551.5 314.371094 L 549.761719 314.371094 L 547.890625 314.367188 L 546.507812 314.363281 L 544.679688 314.347656 L 542.40625 314.324219 L 540.757812 314.296875 L 539.464844 314.269531 L 538.351562 314.242188 L 537.101562 314.203125 L 535.5 314.140625 L 534.519531 314.09375 L 533.847656 314.054688 L 533.089844 313.996094 L 532.554688 313.949219 L 531.933594 313.867188 L 531.488281 313.769531 L 531.351562 313.691406 Z M 531.351562 313.492188 "/>
<path style=" stroke:none;fill-rule:nonzero;fill:rgb(96.862745%,70.196078%,16.862745%);fill-opacity:1;" d="M 531.351562 308.605469 L 531.398438 308.597656 L 531.398438 308.503906 L 531.574219 308.285156 L 532.023438 307.984375 L 532.601562 307.734375 L 533.226562 307.542969 L 533.625 307.441406 L 534.296875 307.292969 L 534.875 307.1875 L 536.34375 306.96875 L 538.21875 306.765625 L 539.242188 306.679688 L 540.402344 306.597656 L 542.050781 306.503906 L 542.808594 306.46875 L 545.128906 306.394531 L 547.757812 306.34375 L 550.65625 306.328125 L 551.992188 306.335938 L 553.820312 306.355469 L 556.316406 306.40625 L 557.742188 306.457031 L 558.855469 306.503906 L 560.015625 306.566406 L 561.441406 306.664062 L 562.78125 306.78125 L 563.851562 306.898438 L 564.917969 307.042969 L 565.8125 307.199219 L 566.570312 307.367188 L 567.238281 307.570312 L 567.636719 307.742188 L 567.90625 307.910156 L 561.710938 307.910156 L 561.351562 307.742188 L 560.953125 307.609375 L 560.285156 307.449219 L 559.613281 307.332031 L 558.945312 307.242188 L 557.699219 307.117188 L 556.628906 307.039062 L 555.289062 306.96875 L 554 306.925781 L 552.527344 306.898438 L 551.636719 306.886719 L 549.273438 306.886719 L 547.132812 306.921875 L 545.886719 306.960938 L 544.992188 307 L 543.746094 307.070312 L 542.988281 307.128906 L 542.542969 307.167969 L 541.203125 307.320312 L 540.3125 307.453125 L 539.824219 307.546875 L 539.199219 307.691406 L 538.753906 307.824219 L 538.261719 308.015625 L 537.996094 308.164062 L 537.636719 308.492188 L 537.59375 309.363281 L 537.726562 309.550781 L 537.996094 309.746094 L 538.351562 309.921875 L 538.886719 310.105469 L 539.421875 310.246094 L 540.359375 310.4375 L 541.160156 310.5625 L 541.785156 310.644531 L 542.988281 310.777344 L 543.476562 310.820312 L 544.636719 310.90625 L 545.839844 310.972656 L 547.3125 311.03125 L 548.425781 311.0625 L 550.210938 311.085938 L 552.484375 311.085938 L 555.15625 311.058594 L 556.851562 311.019531 L 558.011719 310.980469 L 558.769531 310.945312 L 559.703125 310.890625 L 560.371094 310.84375 L 560.996094 310.789062 L 561.753906 310.707031 L 561.753906 309.550781 L 550.742188 309.542969 L 550.742188 309 L 567.863281 308.996094 L 567.90625 310.890625 L 566.96875 311.023438 L 565.8125 311.148438 L 564.695312 311.246094 L 563.539062 311.328125 L 561.886719 311.421875 L 560.550781 311.480469 L 558.5 311.546875 L 556.628906 311.589844 L 554.667969 311.621094 L 552.929688 311.632812 L 550.878906 311.640625 L 549.050781 311.628906 L 547.089844 311.601562 L 545.527344 311.5625 L 544.101562 311.511719 L 542.675781 311.449219 L 540.890625 311.347656 L 539.734375 311.265625 L 538.53125 311.164062 L 537.328125 311.042969 L 536.257812 310.910156 L 535.542969 310.808594 L 534.828125 310.695312 L 534.070312 310.546875 L 533.359375 310.382812 L 532.824219 310.234375 L 532.332031 310.0625 L 531.976562 309.902344 L 531.621094 309.683594 L 531.441406 309.511719 L 531.351562 309.359375 Z M 531.351562 308.605469 "/>
<path style=" stroke:none;fill-rule:nonzero;fill:rgb(83.921569%,15.686275%,22.352941%);fill-opacity:1;" d="M 531.351562 297.453125 L 567.90625 297.453125 L 567.90625 298.277344 L 552.671875 298.28125 L 552.671875 305.152344 L 546.542969 305.152344 L 546.542969 298.289062 L 546.453125 298.277344 L 531.351562 298.277344 Z M 531.351562 297.453125 "/>
<path style=" stroke:none;fill-rule:nonzero;fill:rgb(6.27451%,58.823529%,28.235294%);fill-opacity:1;" d="M 569.828125 314.371094 L 569.867188 314.371094 L 585.683594 314.355469 L 590.488281 314.355469 L 606.382812 314.371094 L 600.796875 314.371094 L 596.816406 314.367188 L 579.359375 314.367188 L 575.453125 314.371094 L 569.828125 314.371094 L 581.039062 314.363281 L 595.214844 314.363281 L 588.144531 314.359375 L 587.988281 314.359375 L 581 314.363281 L 581.039062 314.363281 Z M 569.828125 314.371094 "/>
<path style=" stroke:none;fill-rule:nonzero;fill:rgb(14.509804%,36.078431%,60%);fill-opacity:1;" d="M 569.828125 308.136719 L 569.875 308.136719 L 569.875 308.105469 L 570.007812 308.054688 L 570.320312 307.992188 L 570.632812 307.945312 L 571.433594 307.867188 L 572.550781 307.792969 L 573.707031 307.734375 L 574.554688 307.699219 L 575.3125 307.675781 L 577.050781 307.625 L 578.164062 307.601562 L 579.371094 307.578125 L 580.839844 307.554688 L 581.910156 307.542969 L 584.316406 307.519531 L 586.101562 307.511719 L 587.484375 307.507812 L 590.46875 307.507812 L 592.253906 307.511719 L 593.542969 307.519531 L 594.972656 307.53125 L 596.175781 307.542969 L 598.269531 307.570312 L 600.140625 307.609375 L 600.988281 307.628906 L 602.328125 307.671875 L 603.351562 307.710938 L 604.066406 307.742188 L 604.867188 307.792969 L 605.582031 307.851562 L 606.117188 307.921875 L 606.382812 307.976562 L 600.140625 307.976562 L 599.832031 307.925781 L 599.472656 307.882812 L 598.804688 307.828125 L 598.136719 307.789062 L 597.199219 307.753906 L 596.351562 307.726562 L 595.195312 307.703125 L 594.167969 307.6875 L 593.097656 307.675781 L 592.074219 307.667969 L 590.113281 307.65625 L 587.839844 307.65625 L 586.992188 307.660156 L 585.253906 307.671875 L 584.316406 307.679688 L 582.980469 307.699219 L 582.042969 307.714844 L 580.929688 307.742188 L 580.171875 307.765625 L 579.234375 307.800781 L 578.566406 307.832031 L 577.808594 307.875 L 577.363281 307.90625 L 576.960938 307.945312 L 576.605469 307.988281 L 576.339844 308.035156 L 576.160156 308.082031 L 576.070312 308.128906 L 576.070312 308.335938 L 576.160156 308.382812 L 576.382812 308.4375 L 576.960938 308.519531 L 577.808594 308.589844 L 578.789062 308.644531 L 579.726562 308.683594 L 580.261719 308.703125 L 580.972656 308.726562 L 582.089844 308.75 L 583.695312 308.777344 L 584.628906 308.789062 L 586.054688 308.800781 L 587.527344 308.804688 L 589.488281 308.804688 L 591.226562 308.800781 L 592.386719 308.792969 L 593.589844 308.78125 L 595.238281 308.757812 L 596.265625 308.738281 L 597.15625 308.714844 L 597.824219 308.6875 L 598.269531 308.667969 L 598.9375 308.625 L 599.472656 308.582031 L 599.875 308.535156 L 600.140625 308.488281 L 606.382812 308.488281 L 606.117188 308.542969 L 605.714844 308.59375 L 605.3125 308.632812 L 604.6875 308.679688 L 603.976562 308.71875 L 602.949219 308.765625 L 602.105469 308.796875 L 600.988281 308.828125 L 599.964844 308.855469 L 598.847656 308.878906 L 597.199219 308.902344 L 596.128906 308.917969 L 594.972656 308.929688 L 593.589844 308.941406 L 591.851562 308.949219 L 589.980469 308.953125 L 588.242188 308.957031 L 586.367188 308.953125 L 584.984375 308.949219 L 583.160156 308.9375 L 580.886719 308.910156 L 579.234375 308.886719 L 577.941406 308.863281 L 576.828125 308.835938 L 575.582031 308.800781 L 573.976562 308.742188 L 572.996094 308.695312 L 572.328125 308.660156 L 571.570312 308.605469 L 571.035156 308.5625 L 570.410156 308.488281 L 569.964844 308.394531 L 569.828125 308.320312 Z M 569.828125 308.136719 "/>
<path style=" stroke:none;fill-rule:nonzero;fill:rgb(96.862745%,70.196078%,16.862745%);fill-opacity:1;" d="M 569.828125 312.757812 L 569.875 312.757812 L 569.875 312.742188 L 570.054688 312.714844 L 570.5 312.671875 L 571.078125 312.636719 L 571.703125 312.613281 L 572.101562 312.597656 L 572.773438 312.578125 L 573.351562 312.5625 L 574.824219 312.53125 L 576.695312 312.503906 L 577.71875 312.492188 L 578.878906 312.480469 L 580.527344 312.46875 L 581.285156 312.464844 L 583.605469 312.453125 L 586.234375 312.445312 L 590.46875 312.445312 L 592.296875 312.449219 L 594.792969 312.457031 L 596.21875 312.460938 L 597.332031 312.46875 L 598.492188 312.476562 L 599.917969 312.492188 L 601.257812 312.507812 L 602.328125 312.523438 L 603.394531 312.542969 L 604.289062 312.5625 L 605.046875 312.585938 L 605.714844 312.617188 L 606.117188 312.640625 L 606.382812 312.664062 L 600.1875 312.664062 L 599.832031 312.640625 L 599.429688 312.621094 L 598.761719 312.597656 L 598.089844 312.582031 L 597.421875 312.570312 L 596.175781 312.550781 L 595.105469 312.542969 L 593.769531 312.53125 L 592.476562 312.527344 L 591.003906 312.523438 L 590.113281 312.519531 L 587.75 312.519531 L 585.609375 312.527344 L 584.363281 312.53125 L 583.46875 312.535156 L 582.222656 312.546875 L 581.464844 312.554688 L 581.019531 312.558594 L 579.679688 312.582031 L 578.789062 312.597656 L 578.300781 312.613281 L 577.675781 312.632812 L 577.230469 312.648438 L 576.738281 312.675781 L 576.472656 312.695312 L 576.117188 312.742188 L 576.070312 312.863281 L 576.203125 312.886719 L 576.472656 312.914062 L 576.828125 312.941406 L 577.363281 312.964844 L 577.898438 312.984375 L 578.835938 313.011719 L 579.636719 313.027344 L 580.261719 313.039062 L 581.464844 313.058594 L 581.953125 313.0625 L 583.113281 313.074219 L 584.316406 313.085938 L 585.789062 313.09375 L 586.902344 313.097656 L 588.6875 313.101562 L 590.960938 313.101562 L 593.632812 313.097656 L 595.328125 313.089844 L 596.488281 313.085938 L 597.246094 313.082031 L 598.179688 313.074219 L 598.847656 313.066406 L 599.472656 313.058594 L 600.230469 313.046875 L 600.230469 312.886719 L 589.222656 312.886719 L 589.222656 312.8125 L 606.339844 312.8125 L 606.382812 313.074219 L 605.445312 313.089844 L 604.289062 313.109375 L 603.171875 313.121094 L 602.015625 313.132812 L 600.363281 313.144531 L 599.027344 313.152344 L 596.976562 313.164062 L 595.105469 313.167969 L 593.144531 313.171875 L 591.40625 313.175781 L 587.527344 313.175781 L 585.566406 313.171875 L 584.003906 313.164062 L 582.578125 313.160156 L 581.152344 313.148438 L 579.371094 313.136719 L 578.210938 313.125 L 575.804688 313.09375 L 574.734375 313.074219 L 574.019531 313.0625 L 573.308594 313.046875 L 572.550781 313.027344 L 571.835938 313.003906 L 571.300781 312.980469 L 570.8125 312.957031 L 570.453125 312.9375 L 570.097656 312.90625 L 569.917969 312.882812 L 569.828125 312.863281 Z M 569.828125 312.757812 "/>
<path style=" stroke:none;fill-rule:nonzero;fill:rgb(83.921569%,15.686275%,22.352941%);fill-opacity:1;" d="M 569.828125 310.136719 L 606.382812 310.136719 L 606.382812 310.257812 L 591.148438 310.257812 L 591.148438 311.265625 L 585.019531 311.265625 L 585.019531 310.257812 L 569.828125 310.257812 Z M 569.828125 310.136719 "/>
<path style=" stroke:none;fill-rule:nonzero;fill:rgb(6.27451%,58.823529%,28.235294%);fill-opacity:1;" d="M 608.308594 309.722656 L 608.347656 309.722656 L 624.164062 308.546875 L 628.964844 308.546875 L 644.859375 309.726562 L 639.277344 309.726562 L 635.292969 309.417969 L 617.835938 309.417969 L 613.929688 309.722656 L 608.308594 309.722656 L 619.515625 309.289062 L 633.691406 309.289062 L 626.621094 308.738281 L 626.542969 308.738281 L 626.464844 308.742188 L 619.476562 309.289062 L 619.515625 309.289062 Z M 608.308594 309.722656 "/>
<path style=" stroke:none;fill-rule:nonzero;fill:rgb(14.509804%,36.078431%,60%);fill-opacity:1;" d="M 608.308594 312.976562 L 608.351562 312.976562 L 608.351562 312.972656 L 608.484375 312.96875 L 608.796875 312.960938 L 609.109375 312.957031 L 609.910156 312.949219 L 611.027344 312.941406 L 612.183594 312.9375 L 613.03125 312.933594 L 613.789062 312.929688 L 615.527344 312.925781 L 616.644531 312.925781 L 617.847656 312.921875 L 619.316406 312.921875 L 620.386719 312.917969 L 622.792969 312.917969 L 624.578125 312.914062 L 630.730469 312.914062 L 632.023438 312.917969 L 634.652344 312.917969 L 636.746094 312.921875 L 638.621094 312.925781 L 639.464844 312.925781 L 640.804688 312.929688 L 641.828125 312.933594 L 642.542969 312.9375 L 643.34375 312.941406 L 644.058594 312.949219 L 644.59375 312.953125 L 644.859375 312.960938 L 638.621094 312.960938 L 638.308594 312.957031 L 637.949219 312.953125 L 637.28125 312.945312 L 636.613281 312.941406 L 635.675781 312.9375 L 634.832031 312.9375 L 633.671875 312.933594 L 632.644531 312.933594 L 631.574219 312.929688 L 623.730469 312.929688 L 622.792969 312.933594 L 620.519531 312.933594 L 619.40625 312.9375 L 618.648438 312.941406 L 617.710938 312.941406 L 617.042969 312.945312 L 616.285156 312.949219 L 615.839844 312.953125 L 615.4375 312.957031 L 615.082031 312.960938 L 614.816406 312.964844 L 614.636719 312.96875 L 614.546875 312.976562 L 614.546875 312.996094 L 614.636719 313 L 614.859375 313.003906 L 615.4375 313.011719 L 616.285156 313.019531 L 617.265625 313.023438 L 618.203125 313.027344 L 618.738281 313.03125 L 619.453125 313.03125 L 620.566406 313.035156 L 622.171875 313.035156 L 623.105469 313.039062 L 630.863281 313.039062 L 632.066406 313.035156 L 633.714844 313.035156 L 634.742188 313.03125 L 635.632812 313.03125 L 636.300781 313.027344 L 636.746094 313.027344 L 637.414062 313.023438 L 637.949219 313.019531 L 638.351562 313.011719 L 638.621094 313.007812 L 644.859375 313.007812 L 644.59375 313.015625 L 643.789062 313.023438 L 643.167969 313.027344 L 642.453125 313.03125 L 641.425781 313.035156 L 640.582031 313.039062 L 639.464844 313.042969 L 638.441406 313.042969 L 637.328125 313.046875 L 635.675781 313.046875 L 634.605469 313.050781 L 630.328125 313.050781 L 628.457031 313.054688 L 624.84375 313.054688 L 623.464844 313.050781 L 619.363281 313.050781 L 617.710938 313.046875 L 616.421875 313.042969 L 615.304688 313.042969 L 614.058594 313.039062 L 612.453125 313.03125 L 611.472656 313.027344 L 610.804688 313.023438 L 610.046875 313.019531 L 609.511719 313.015625 L 608.886719 313.007812 L 608.441406 313 L 608.308594 312.992188 Z M 608.308594 312.976562 "/>
<path style=" stroke:none;fill-rule:nonzero;fill:rgb(96.862745%,70.196078%,16.862745%);fill-opacity:1;" d="M 608.308594 314.292969 L 608.351562 314.292969 L 608.351562 314.289062 L 608.53125 314.285156 L 608.976562 314.277344 L 609.554688 314.269531 L 610.179688 314.265625 L 610.582031 314.261719 L 611.25 314.257812 L 611.828125 314.253906 L 613.300781 314.25 L 615.171875 314.246094 L 616.195312 314.242188 L 617.355469 314.238281 L 619.761719 314.238281 L 622.082031 314.234375 L 634.695312 314.234375 L 635.8125 314.238281 L 636.96875 314.238281 L 638.394531 314.242188 L 639.734375 314.246094 L 640.804688 314.246094 L 641.875 314.25 L 642.765625 314.253906 L 643.523438 314.257812 L 644.191406 314.265625 L 644.59375 314.269531 L 644.859375 314.273438 L 638.664062 314.273438 L 638.308594 314.269531 L 637.90625 314.265625 L 636.570312 314.257812 L 635.898438 314.257812 L 634.652344 314.253906 L 633.582031 314.25 L 630.953125 314.25 L 629.480469 314.246094 L 626.226562 314.246094 L 624.085938 314.25 L 621.949219 314.25 L 620.699219 314.253906 L 619.496094 314.253906 L 618.160156 314.257812 L 617.265625 314.261719 L 616.777344 314.265625 L 616.152344 314.269531 L 615.707031 314.273438 L 615.214844 314.277344 L 614.949219 314.28125 L 614.59375 314.289062 L 614.546875 314.3125 L 614.679688 314.316406 L 614.949219 314.320312 L 615.304688 314.324219 L 615.839844 314.332031 L 616.375 314.335938 L 617.3125 314.339844 L 618.113281 314.34375 L 618.738281 314.34375 L 619.941406 314.347656 L 620.433594 314.347656 L 621.589844 314.351562 L 622.792969 314.351562 L 624.265625 314.355469 L 634.964844 314.355469 L 635.722656 314.351562 L 637.328125 314.351562 L 637.949219 314.347656 L 638.707031 314.347656 L 638.707031 314.316406 L 627.699219 314.316406 L 627.699219 314.300781 L 644.816406 314.300781 L 644.859375 314.351562 L 643.925781 314.355469 L 642.765625 314.359375 L 641.652344 314.359375 L 640.492188 314.363281 L 638.84375 314.363281 L 637.503906 314.367188 L 635.453125 314.367188 L 633.582031 314.371094 L 624.042969 314.371094 L 622.480469 314.367188 L 619.628906 314.367188 L 617.847656 314.363281 L 616.6875 314.359375 L 615.484375 314.359375 L 614.28125 314.355469 L 613.210938 314.351562 L 612.496094 314.347656 L 611.785156 314.347656 L 611.027344 314.34375 L 610.3125 314.339844 L 609.777344 314.335938 L 609.289062 314.328125 L 608.929688 314.324219 L 608.574219 314.320312 L 608.394531 314.316406 L 608.308594 314.3125 Z M 608.308594 314.292969 "/>
<path style=" stroke:none;fill-rule:nonzero;fill:rgb(83.921569%,15.686275%,22.352941%);fill-opacity:1;" d="M 608.308594 310.90625 L 644.859375 310.90625 L 644.859375 310.992188 L 629.625 310.996094 L 629.625 311.734375 L 623.496094 311.734375 L 623.496094 310.996094 L 623.40625 310.992188 L 608.308594 310.992188 Z M 608.308594 310.90625 "/>
<path style=" stroke:none;fill-rule:nonzero;fill:rgb(6.27451%,58.823529%,28.235294%);fill-opacity:1;" d="M 646.785156 312.570312 L 646.824219 312.570312 L 662.640625 312.4375 L 667.441406 312.4375 L 683.335938 312.574219 L 677.753906 312.574219 L 673.769531 312.535156 L 656.3125 312.535156 L 652.40625 312.570312 L 646.785156 312.570312 L 657.992188 312.523438 L 672.167969 312.523438 L 665.097656 312.457031 L 664.941406 312.457031 L 657.953125 312.523438 L 657.992188 312.523438 Z M 646.785156 312.570312 "/>
<path style=" stroke:none;fill-rule:nonzero;fill:rgb(83.921569%,15.686275%,22.352941%);fill-opacity:1;" d="M 646.785156 311.121094 L 683.335938 311.121094 L 683.335938 311.132812 L 668.101562 311.136719 L 668.101562 311.257812 L 661.972656 311.257812 L 661.972656 311.136719 L 661.886719 311.132812 L 646.785156 311.132812 Z M 646.785156 311.121094 "/>
<g style="fill:rgb(0%,0%,0%);fill-opacity:1;">
  <use xlink:href="#glyph0-1" x="21.957031" y="318.198242"/>
  <use xlink:href="#glyph0-2" x="27.291016" y="318.198242"/>
  <use xlink:href="#glyph0-1" x="29.958008" y="318.198242"/>
</g>
<g style="fill:rgb(0%,0%,0%);fill-opacity:1;">
  <use xlink:href="#glyph0-1" x="21.957031" y="244.475586"/>
  <use xlink:href="#glyph0-2" x="27.291016" y="244.475586"/>
  <use xlink:href="#glyph0-3" x="29.958008" y="244.475586"/>
</g>
<g style="fill:rgb(0%,0%,0%);fill-opacity:1;">
  <use xlink:href="#glyph0-4" x="21.957031" y="170.75293"/>
  <use xlink:href="#glyph0-2" x="27.291016" y="170.75293"/>
  <use xlink:href="#glyph0-1" x="29.958008" y="170.75293"/>
</g>
<g style="fill:rgb(0%,0%,0%);fill-opacity:1;">
  <use xlink:href="#glyph0-4" x="21.957031" y="97.03418"/>
  <use xlink:href="#glyph0-2" x="27.291016" y="97.03418"/>
  <use xlink:href="#glyph0-3" x="29.958008" y="97.03418"/>
</g>
<g style="fill:rgb(0%,0%,0%);fill-opacity:1;">
  <use xlink:href="#glyph0-5" x="21.957031" y="23.311523"/>
  <use xlink:href="#glyph0-2" x="27.291016" y="23.311523"/>
  <use xlink:href="#glyph0-1" x="29.958008" y="23.311523"/>
</g>
<g style="fill:rgb(0%,0%,0%);fill-opacity:1;">
  <use xlink:href="#glyph0-4" x="84.90625" y="338.19043"/>
</g>
<g style="fill:rgb(0%,0%,0%);fill-opacity:1;">
  <use xlink:href="#glyph0-5" x="123.382812" y="338.19043"/>
</g>
<g style="fill:rgb(0%,0%,0%);fill-opacity:1;">
  <use xlink:href="#glyph0-6" x="161.859375" y="338.19043"/>
</g>
<g style="fill:rgb(0%,0%,0%);fill-opacity:1;">
  <use xlink:href="#glyph0-7" x="200.335938" y="338.19043"/>
</g>
<g style="fill:rgb(0%,0%,0%);fill-opacity:1;">
  <use xlink:href="#glyph0-3" x="238.8125" y="338.19043"/>
</g>
<g style="fill:rgb(0%,0%,0%);fill-opacity:1;">
  <use xlink:href="#glyph0-8" x="277.289062" y="338.19043"/>
</g>
<g style="fill:rgb(0%,0%,0%);fill-opacity:1;">
  <use xlink:href="#glyph0-9" x="315.769531" y="338.19043"/>
</g>
<g style="fill:rgb(0%,0%,0%);fill-opacity:1;">
  <use xlink:href="#glyph0-10" x="354.246094" y="338.19043"/>
</g>
<g style="fill:rgb(0%,0%,0%);fill-opacity:1;">
  <use xlink:href="#glyph0-11" x="392.722656" y="338.19043"/>
</g>
<g style="fill:rgb(0%,0%,0%);fill-opacity:1;">
  <use xlink:href="#glyph0-4" x="428.699219" y="338.19043"/>
  <use xlink:href="#glyph0-1" x="434.033203" y="338.19043"/>
</g>
<g style="fill:rgb(0%,0%,0%);fill-opacity:1;">
  <use xlink:href="#glyph0-4" x="467.175781" y="338.19043"/>
  <use xlink:href="#glyph0-4" x="472.509766" y="338.19043"/>
</g>
<g style="fill:rgb(0%,0%,0%);fill-opacity:1;">
  <use xlink:href="#glyph0-4" x="505.652344" y="338.19043"/>
  <use xlink:href="#glyph0-5" x="510.986328" y="338.19043"/>
</g>
<g style="fill:rgb(0%,0%,0%);fill-opacity:1;">
  <use xlink:href="#glyph0-4" x="544.128906" y="338.19043"/>
  <use xlink:href="#glyph0-6" x="549.462891" y="338.19043"/>
</g>
<g style="fill:rgb(0%,0%,0%);fill-opacity:1;">
  <use xlink:href="#glyph0-4" x="582.605469" y="338.19043"/>
  <use xlink:href="#glyph0-7" x="587.939453" y="338.19043"/>
</g>
<g style="fill:rgb(0%,0%,0%);fill-opacity:1;">
  <use xlink:href="#glyph0-4" x="621.082031" y="338.19043"/>
  <use xlink:href="#glyph0-3" x="626.416016" y="338.19043"/>
</g>
<g style="fill:rgb(0%,0%,0%);fill-opacity:1;">
  <use xlink:href="#glyph0-4" x="659.558594" y="338.19043"/>
  <use xlink:href="#glyph0-8" x="664.892578" y="338.19043"/>
</g>
<g style="fill:rgb(0%,0%,0%);fill-opacity:1;">
  <use xlink:href="#glyph1-1" x="14.412109" y="178.015625"/>
  <use xlink:href="#glyph1-2" x="14.412109" y="170.011719"/>
  <use xlink:href="#glyph1-3" x="14.412109" y="167.347656"/>
  <use xlink:href="#glyph1-4" x="14.412109" y="164.011719"/>
</g>
</g>
</svg>
