<?xml version="1.0" encoding="UTF-8"?>
<svg xmlns="http://www.w3.org/2000/svg" xmlns:xlink="http://www.w3.org/1999/xlink" width="720pt" height="360pt" viewBox="0 0 720 360" version="1.1">
<defs>
<g>
<symbol overflow="visible" id="glyph0-0">
<path style="stroke:none;" d=""/>
</symbol>
<symbol overflow="visible" id="glyph0-1">
<path style="stroke:none;" d="M 2.640625 -6.796875 C 2 -6.796875 1.421875 -6.53125 1.078125 -6.046875 C 0.640625 -5.453125 0.40625 -4.546875 0.40625 -3.296875 C 0.40625 -1 1.1875 0.21875 2.640625 0.21875 C 4.078125 0.21875 4.859375 -1 4.859375 -3.234375 C 4.859375 -4.5625 4.65625 -5.4375 4.203125 -6.046875 C 3.84375 -6.53125 3.28125 -6.796875 2.640625 -6.796875 Z M 2.640625 -6.046875 C 3.546875 -6.046875 4 -5.125 4 -3.3125 C 4 -1.375 3.5625 -0.484375 2.625 -0.484375 C 1.734375 -0.484375 1.28125 -1.421875 1.28125 -3.28125 C 1.28125 -5.140625 1.734375 -6.046875 2.640625 -6.046875 Z M 2.640625 -6.046875 "/>
</symbol>
<symbol overflow="visible" id="glyph0-2">
<path style="stroke:none;" d="M 1.828125 -1 L 0.828125 -1 L 0.828125 0 L 1.828125 0 Z M 1.828125 -1 "/>
</symbol>
<symbol overflow="visible" id="glyph0-3">
<path style="stroke:none;" d="M 4.5625 -6.796875 L 1.0625 -6.796875 L 0.546875 -3.09375 L 1.328125 -3.09375 C 1.71875 -3.5625 2.046875 -3.734375 2.578125 -3.734375 C 3.484375 -3.734375 4.0625 -3.109375 4.0625 -2.09375 C 4.0625 -1.125 3.484375 -0.53125 2.578125 -0.53125 C 1.828125 -0.53125 1.375 -0.90625 1.1875 -1.671875 L 0.328125 -1.671875 C 0.453125 -1.109375 0.546875 -0.84375 0.75 -0.59375 C 1.125 -0.078125 1.828125 0.21875 2.59375 0.21875 C 3.96875 0.21875 4.921875 -0.78125 4.921875 -2.21875 C 4.921875 -3.5625 4.03125 -4.484375 2.71875 -4.484375 C 2.25 -4.484375 1.859375 -4.359375 1.46875 -4.0625 L 1.734375 -5.96875 L 4.5625 -5.96875 Z M 4.5625 -6.796875 "/>
</symbol>
<symbol overflow="visible" id="glyph0-4">
<path style="stroke:none;" d="M 2.484375 -4.84375 L 2.484375 0 L 3.328125 0 L 3.328125 -6.796875 L 2.765625 -6.796875 C 2.46875 -5.75 2.28125 -5.609375 0.984375 -5.453125 L 0.984375 -4.84375 Z M 2.484375 -4.84375 "/>
</symbol>
<symbol overflow="visible" id="glyph0-5">
<path style="stroke:none;" d="M 4.859375 -0.828125 L 1.28125 -0.828125 C 1.359375 -1.390625 1.671875 -1.75 2.5 -2.234375 L 3.46875 -2.75 C 4.40625 -3.265625 4.90625 -3.96875 4.90625 -4.8125 C 4.90625 -5.375 4.671875 -5.90625 4.265625 -6.265625 C 3.859375 -6.625 3.375 -6.796875 2.71875 -6.796875 C 1.859375 -6.796875 1.21875 -6.5 0.84375 -5.921875 C 0.609375 -5.5625 0.5 -5.125 0.484375 -4.4375 L 1.328125 -4.4375 C 1.359375 -4.90625 1.40625 -5.1875 1.53125 -5.40625 C 1.75 -5.8125 2.1875 -6.0625 2.703125 -6.0625 C 3.46875 -6.0625 4.03125 -5.515625 4.03125 -4.78125 C 4.03125 -4.25 3.71875 -3.796875 3.125 -3.4375 L 2.234375 -2.9375 C 0.8125 -2.140625 0.40625 -1.5 0.328125 0 L 4.859375 0 Z M 4.859375 -0.828125 "/>
</symbol>
<symbol overflow="visible" id="glyph0-6">
<path style="stroke:none;" d="M 2.125 -3.125 L 2.578125 -3.125 C 3.515625 -3.125 3.984375 -2.703125 3.984375 -1.890625 C 3.984375 -1.03125 3.46875 -0.53125 2.578125 -0.53125 C 1.65625 -0.53125 1.203125 -0.984375 1.15625 -1.96875 L 0.3125 -1.96875 C 0.34375 -1.421875 0.4375 -1.078125 0.609375 -0.765625 C 0.953125 -0.109375 1.625 0.21875 2.546875 0.21875 C 3.953125 0.21875 4.859375 -0.609375 4.859375 -1.90625 C 4.859375 -2.765625 4.515625 -3.25 3.703125 -3.515625 C 4.34375 -3.765625 4.65625 -4.25 4.65625 -4.9375 C 4.65625 -6.109375 3.875 -6.796875 2.578125 -6.796875 C 1.203125 -6.796875 0.484375 -6.046875 0.453125 -4.609375 L 1.296875 -4.609375 C 1.3125 -5.015625 1.34375 -5.25 1.453125 -5.453125 C 1.640625 -5.828125 2.0625 -6.0625 2.59375 -6.0625 C 3.34375 -6.0625 3.796875 -5.625 3.796875 -4.90625 C 3.796875 -4.421875 3.609375 -4.140625 3.25 -3.984375 C 3.015625 -3.890625 2.71875 -3.84375 2.125 -3.84375 Z M 2.125 -3.125 "/>
</symbol>
<symbol overflow="visible" id="glyph0-7">
<path style="stroke:none;" d="M 3.140625 -1.625 L 3.140625 0 L 3.984375 0 L 3.984375 -1.625 L 4.984375 -1.625 L 4.984375 -2.390625 L 3.984375 -2.390625 L 3.984375 -6.796875 L 3.359375 -6.796875 L 0.265625 -2.515625 L 0.265625 -1.625 Z M 3.140625 -2.390625 L 1 -2.390625 L 3.140625 -5.359375 Z M 3.140625 -2.390625 "/>
</symbol>
<symbol overflow="visible" id="glyph0-8">
<path style="stroke:none;" d="M 4.78125 -5.03125 C 4.609375 -6.140625 3.890625 -6.796875 2.84375 -6.796875 C 2.09375 -6.796875 1.421875 -6.4375 1.03125 -5.828125 C 0.609375 -5.171875 0.40625 -4.34375 0.40625 -3.09375 C 0.40625 -1.953125 0.578125 -1.234375 0.984375 -0.625 C 1.359375 -0.078125 1.953125 0.21875 2.703125 0.21875 C 3.984375 0.21875 4.921875 -0.734375 4.921875 -2.078125 C 4.921875 -3.34375 4.0625 -4.234375 2.84375 -4.234375 C 2.171875 -4.234375 1.640625 -3.96875 1.28125 -3.46875 C 1.28125 -5.125 1.828125 -6.046875 2.796875 -6.046875 C 3.390625 -6.046875 3.796875 -5.671875 3.9375 -5.03125 Z M 2.734375 -3.484375 C 3.546875 -3.484375 4.0625 -2.921875 4.0625 -2 C 4.0625 -1.15625 3.484375 -0.53125 2.703125 -0.53125 C 1.921875 -0.53125 1.328125 -1.1875 1.328125 -2.046875 C 1.328125 -2.890625 1.90625 -3.484375 2.734375 -3.484375 Z M 2.734375 -3.484375 "/>
</symbol>
<symbol overflow="visible" id="glyph0-9">
<path style="stroke:none;" d="M 4.984375 -6.796875 L 0.4375 -6.796875 L 0.4375 -5.96875 L 4.109375 -5.96875 C 2.5 -3.65625 1.828125 -2.234375 1.328125 0 L 2.21875 0 C 2.59375 -2.171875 3.453125 -4.046875 4.984375 -6.09375 Z M 4.984375 -6.796875 "/>
</symbol>
<symbol overflow="visible" id="glyph0-10">
<path style="stroke:none;" d="M 3.75 -3.578125 C 4.453125 -4 4.6875 -4.34375 4.6875 -4.984375 C 4.6875 -6.046875 3.84375 -6.796875 2.640625 -6.796875 C 1.4375 -6.796875 0.59375 -6.046875 0.59375 -4.984375 C 0.59375 -4.359375 0.828125 -4.015625 1.515625 -3.578125 C 0.734375 -3.203125 0.359375 -2.640625 0.359375 -1.890625 C 0.359375 -0.640625 1.296875 0.21875 2.640625 0.21875 C 3.984375 0.21875 4.921875 -0.640625 4.921875 -1.875 C 4.921875 -2.640625 4.53125 -3.203125 3.75 -3.578125 Z M 2.640625 -6.046875 C 3.359375 -6.046875 3.8125 -5.625 3.8125 -4.96875 C 3.8125 -4.34375 3.34375 -3.921875 2.640625 -3.921875 C 1.921875 -3.921875 1.453125 -4.34375 1.453125 -4.984375 C 1.453125 -5.625 1.921875 -6.046875 2.640625 -6.046875 Z M 2.640625 -3.203125 C 3.484375 -3.203125 4.0625 -2.671875 4.0625 -1.875 C 4.0625 -1.0625 3.484375 -0.53125 2.625 -0.53125 C 1.796875 -0.53125 1.21875 -1.078125 1.21875 -1.875 C 1.21875 -2.671875 1.796875 -3.203125 2.640625 -3.203125 Z M 2.640625 -3.203125 "/>
</symbol>
<symbol overflow="visible" id="glyph0-11">
<path style="stroke:none;" d="M 0.515625 -1.546875 C 0.671875 -0.4375 1.40625 0.21875 2.4375 0.21875 C 3.1875 0.21875 3.859375 -0.140625 4.265625 -0.75 C 4.6875 -1.40625 4.890625 -2.25 4.890625 -3.484375 C 4.890625 -4.625 4.703125 -5.359375 4.3125 -5.953125 C 3.9375 -6.5 3.34375 -6.796875 2.59375 -6.796875 C 1.296875 -6.796875 0.359375 -5.84375 0.359375 -4.515625 C 0.359375 -3.25 1.234375 -2.34375 2.453125 -2.34375 C 3.09375 -2.34375 3.5625 -2.578125 4.015625 -3.109375 C 4 -1.453125 3.46875 -0.53125 2.5 -0.53125 C 1.90625 -0.53125 1.484375 -0.90625 1.359375 -1.546875 Z M 2.578125 -6.0625 C 3.375 -6.0625 3.96875 -5.40625 3.96875 -4.53125 C 3.96875 -3.6875 3.375 -3.09375 2.546875 -3.09375 C 1.734375 -3.09375 1.234375 -3.671875 1.234375 -4.578125 C 1.234375 -5.4375 1.796875 -6.0625 2.578125 -6.0625 Z M 2.578125 -6.0625 "/>
</symbol>
<symbol overflow="visible" id="glyph1-0">
<path style="stroke:none;" d=""/>
</symbol>
<symbol overflow="visible" id="glyph1-1">
<path style="stroke:none;" d="M 0 -0.953125 L 0 -4.890625 C 0 -5.71875 -0.234375 -6.34375 -0.734375 -6.796875 C -1.1875 -7.234375 -1.8125 -7.46875 -2.5 -7.46875 C -3.546875 -7.46875 -4.1875 -7 -4.625 -5.875 C -4.984375 -6.671875 -5.640625 -7.09375 -6.53125 -7.09375 C -7.15625 -7.09375 -7.734375 -6.859375 -8.140625 -6.390625 C -8.5625 -5.9375 -8.75 -5.34375 -8.75 -4.5 L -8.75 -0.953125 Z M -4.984375 -2.0625 L -7.765625 -2.0625 L -7.765625 -4.21875 C -7.765625 -4.84375 -7.6875 -5.203125 -7.453125 -5.5 C -7.21875 -5.8125 -6.859375 -5.96875 -6.375 -5.96875 C -5.90625 -5.96875 -5.53125 -5.8125 -5.296875 -5.5 C -5.0625 -5.203125 -4.984375 -4.84375 -4.984375 -4.21875 Z M -0.984375 -2.0625 L -4 -2.0625 L -4 -4.78125 C -4 -5.328125 -3.859375 -5.6875 -3.578125 -5.953125 C -3.296875 -6.21875 -2.921875 -6.359375 -2.484375 -6.359375 C -2.0625 -6.359375 -1.6875 -6.21875 -1.40625 -5.953125 C -1.109375 -5.6875 -0.984375 -5.328125 -0.984375 -4.78125 Z M -0.984375 -2.0625 "/>
</symbol>
<symbol overflow="visible" id="glyph1-2">
<path style="stroke:none;" d="M -6.28125 -1.796875 L -6.28125 -0.796875 L 0 -0.796875 L 0 -1.796875 Z M -8.75 -1.796875 L -8.75 -0.796875 L -7.484375 -0.796875 L -7.484375 -1.796875 Z M -8.75 -1.796875 "/>
</symbol>
<symbol overflow="visible" id="glyph1-3">
<path style="stroke:none;" d="M -6.28125 -3.046875 L -6.28125 -2.015625 L -8.015625 -2.015625 L -8.015625 -1.015625 L -6.28125 -1.015625 L -6.28125 -0.171875 L -5.46875 -0.171875 L -5.46875 -1.015625 L -0.71875 -1.015625 C -0.078125 -1.015625 0.28125 -1.453125 0.28125 -2.234375 C 0.28125 -2.46875 0.25 -2.71875 0.1875 -3.046875 L -0.640625 -3.046875 C -0.609375 -2.921875 -0.59375 -2.765625 -0.59375 -2.5625 C -0.59375 -2.140625 -0.71875 -2.015625 -1.15625 -2.015625 L -5.46875 -2.015625 L -5.46875 -3.046875 Z M -6.28125 -3.046875 "/>
</symbol>
<symbol overflow="visible" id="glyph1-4">
<path style="stroke:none;" d="M -4.53125 -5.25 C -5.765625 -5.25 -6.46875 -4.421875 -6.46875 -2.96875 C -6.46875 -1.515625 -5.71875 -0.5625 -4.546875 -0.5625 C -3.5625 -0.5625 -3.09375 -1.0625 -2.734375 -2.5625 L -2.515625 -3.484375 C -2.34375 -4.1875 -2.09375 -4.46875 -1.625 -4.46875 C -1.046875 -4.46875 -0.640625 -3.875 -0.640625 -3 C -0.640625 -2.453125 -0.796875 -2 -1.0625 -1.75 C -1.25 -1.59375 -1.421875 -1.53125 -1.875 -1.46875 L -1.875 -0.40625 C -0.421875 -0.453125 0.28125 -1.265625 0.28125 -2.921875 C 0.28125 -4.5 -0.5 -5.515625 -1.71875 -5.515625 C -2.65625 -5.515625 -3.171875 -4.984375 -3.46875 -3.734375 L -3.703125 -2.765625 C -3.890625 -1.953125 -4.15625 -1.609375 -4.59375 -1.609375 C -5.171875 -1.609375 -5.546875 -2.125 -5.546875 -2.9375 C -5.546875 -3.75 -5.203125 -4.171875 -4.53125 -4.203125 Z M -4.53125 -5.25 "/>
</symbol>
</g>
</defs>
<g id="surface46512">
<rect x="0" y="0" width="720" height="360" style="fill:rgb(100%,100%,100%);fill-opacity:1;stroke:none;"/>
<path style=" stroke:none;fill-rule:nonzero;fill:rgb(6.27451%,58.823529%,28.235294%);fill-opacity:1;" d="M 69.628906 311.203125 L 69.675781 311.203125 L 87.757812 309.035156 L 93.25 309.035156 L 111.421875 311.207031 L 105.039062 311.207031 L 100.484375 310.640625 L 80.523438 310.640625 L 76.058594 311.203125 L 69.628906 311.203125 L 82.445312 310.40625 L 98.652344 310.402344 L 90.570312 309.390625 L 90.480469 309.386719 L 90.390625 309.394531 L 82.398438 310.402344 L 82.445312 310.40625 Z M 69.628906 311.203125 "/>
<path style=" stroke:none;fill-rule:nonzero;fill:rgb(14.509804%,36.078431%,60%);fill-opacity:1;" d="M 69.628906 299.71875 L 69.679688 299.714844 L 69.679688 299.5625 L 69.832031 299.328125 L 70.191406 299.027344 L 70.546875 298.820312 L 71.464844 298.453125 L 72.738281 298.097656 L 74.0625 297.824219 L 75.03125 297.660156 L 75.898438 297.535156 L 77.886719 297.304688 L 79.160156 297.1875 L 80.535156 297.082031 L 82.21875 296.976562 L 83.441406 296.914062 L 86.195312 296.8125 L 88.234375 296.769531 L 89.8125 296.75 L 93.226562 296.75 L 95.265625 296.773438 L 96.746094 296.804688 L 98.375 296.855469 L 99.75 296.914062 L 102.148438 297.050781 L 104.289062 297.222656 L 105.257812 297.324219 L 106.785156 297.515625 L 107.957031 297.703125 L 108.773438 297.867188 L 109.691406 298.097656 L 110.503906 298.378906 L 111.117188 298.695312 L 111.421875 298.964844 L 104.289062 298.964844 L 103.929688 298.714844 L 103.523438 298.523438 L 102.757812 298.265625 L 101.992188 298.085938 L 100.921875 297.902344 L 99.957031 297.785156 L 98.628906 297.667969 L 97.457031 297.59375 L 96.234375 297.535156 L 95.0625 297.5 L 92.820312 297.460938 L 90.21875 297.460938 L 89.253906 297.472656 L 87.265625 297.523438 L 86.195312 297.566406 L 84.664062 297.65625 L 83.59375 297.734375 L 82.320312 297.859375 L 81.453125 297.964844 L 80.382812 298.128906 L 79.617188 298.273438 L 78.753906 298.476562 L 78.242188 298.632812 L 77.785156 298.808594 L 77.375 299.015625 L 77.070312 299.234375 L 76.867188 299.464844 L 76.765625 299.6875 L 76.765625 300.65625 L 76.867188 300.878906 L 77.121094 301.140625 L 77.785156 301.523438 L 78.753906 301.851562 L 79.875 302.113281 L 80.945312 302.300781 L 81.554688 302.390625 L 82.371094 302.488281 L 83.644531 302.613281 L 85.480469 302.738281 L 86.550781 302.789062 L 88.183594 302.839844 L 89.863281 302.863281 L 92.105469 302.863281 L 94.09375 302.839844 L 95.417969 302.808594 L 96.796875 302.757812 L 98.679688 302.652344 L 99.851562 302.550781 L 100.871094 302.433594 L 101.636719 302.316406 L 102.148438 302.214844 L 102.910156 302.019531 L 103.523438 301.808594 L 103.980469 301.589844 L 104.289062 301.378906 L 111.421875 301.378906 L 111.117188 301.628906 L 110.660156 301.871094 L 110.199219 302.050781 L 109.484375 302.269531 L 108.671875 302.464844 L 107.5 302.683594 L 106.53125 302.824219 L 105.257812 302.980469 L 104.082031 303.101562 L 102.808594 303.207031 L 100.921875 303.332031 L 99.699219 303.394531 L 98.375 303.449219 L 96.796875 303.5 L 94.808594 303.542969 L 92.667969 303.570312 L 90.679688 303.574219 L 88.539062 303.5625 L 86.957031 303.539062 L 84.867188 303.480469 L 82.269531 303.367188 L 80.382812 303.25 L 78.90625 303.132812 L 77.632812 303.007812 L 76.203125 302.839844 L 74.371094 302.5625 L 73.25 302.351562 L 72.484375 302.175781 L 71.617188 301.933594 L 71.003906 301.714844 L 70.292969 301.367188 L 69.78125 300.921875 L 69.628906 300.582031 Z M 69.628906 299.71875 "/>
<path style=" stroke:none;fill-rule:nonzero;fill:rgb(96.862745%,70.196078%,16.862745%);fill-opacity:1;" d="M 69.628906 306.082031 L 69.679688 306.078125 L 69.679688 306.023438 L 69.882812 305.894531 L 70.394531 305.71875 L 71.054688 305.574219 L 71.769531 305.460938 L 72.230469 305.402344 L 72.992188 305.316406 L 73.65625 305.253906 L 75.335938 305.128906 L 77.476562 305.007812 L 78.652344 304.957031 L 79.976562 304.910156 L 81.863281 304.855469 L 82.726562 304.835938 L 85.378906 304.789062 L 88.386719 304.761719 L 91.699219 304.753906 L 93.226562 304.757812 L 95.316406 304.769531 L 98.171875 304.800781 L 99.800781 304.828125 L 101.078125 304.855469 L 102.402344 304.894531 L 104.03125 304.949219 L 105.5625 305.019531 L 106.785156 305.085938 L 108.007812 305.171875 L 109.027344 305.261719 L 109.894531 305.359375 L 110.660156 305.480469 L 111.117188 305.578125 L 111.421875 305.675781 L 104.339844 305.675781 L 103.929688 305.578125 L 103.472656 305.503906 L 102.707031 305.410156 L 101.941406 305.339844 L 101.179688 305.285156 L 99.75 305.214844 L 98.527344 305.167969 L 97 305.128906 L 95.519531 305.101562 L 93.839844 305.085938 L 92.820312 305.078125 L 90.117188 305.078125 L 87.671875 305.101562 L 86.246094 305.121094 L 85.226562 305.144531 L 83.796875 305.1875 L 82.933594 305.222656 L 82.421875 305.246094 L 80.894531 305.332031 L 79.875 305.410156 L 79.3125 305.464844 L 78.601562 305.550781 L 78.089844 305.625 L 77.53125 305.738281 L 77.222656 305.824219 L 76.816406 306.015625 L 76.765625 306.527344 L 76.917969 306.636719 L 77.222656 306.75 L 77.632812 306.851562 L 78.242188 306.960938 L 78.855469 307.042969 L 79.925781 307.152344 L 80.84375 307.226562 L 81.554688 307.273438 L 82.933594 307.351562 L 83.492188 307.378906 L 84.816406 307.429688 L 86.195312 307.46875 L 87.875 307.5 L 89.148438 307.519531 L 91.1875 307.53125 L 93.789062 307.53125 L 96.847656 307.515625 L 98.78125 307.492188 L 100.109375 307.46875 L 100.976562 307.449219 L 102.046875 307.417969 L 102.808594 307.390625 L 103.523438 307.359375 L 104.390625 307.3125 L 104.390625 306.636719 L 91.800781 306.632812 L 91.800781 306.316406 L 111.371094 306.3125 L 111.421875 307.417969 L 110.351562 307.496094 L 109.027344 307.570312 L 107.753906 307.625 L 106.429688 307.675781 L 104.542969 307.726562 L 103.011719 307.761719 L 100.667969 307.800781 L 98.527344 307.828125 L 96.285156 307.84375 L 94.296875 307.851562 L 91.953125 307.855469 L 89.863281 307.851562 L 87.621094 307.832031 L 85.835938 307.808594 L 84.207031 307.78125 L 82.574219 307.746094 L 80.535156 307.6875 L 79.210938 307.636719 L 77.835938 307.578125 L 76.460938 307.507812 L 75.234375 307.429688 L 74.421875 307.371094 L 73.605469 307.304688 L 72.738281 307.21875 L 71.921875 307.121094 L 71.3125 307.035156 L 70.75 306.933594 L 70.34375 306.839844 L 69.933594 306.714844 L 69.730469 306.613281 L 69.628906 306.523438 Z M 69.628906 306.082031 "/>
<path style=" stroke:none;fill-rule:nonzero;fill:rgb(83.921569%,15.686275%,22.352941%);fill-opacity:1;" d="M 69.628906 312.386719 L 111.421875 312.386719 L 111.421875 312.597656 L 94.003906 312.601562 L 94.003906 314.371094 L 86.996094 314.371094 L 86.996094 312.601562 L 86.894531 312.597656 L 69.628906 312.597656 Z M 69.628906 312.386719 "/>
<path style=" stroke:none;fill-rule:nonzero;fill:rgb(6.27451%,58.823529%,28.235294%);fill-opacity:1;" d="M 113.621094 312.402344 L 113.667969 312.394531 L 131.75 303.152344 L 137.242188 303.152344 L 155.417969 312.414062 L 149.03125 312.414062 L 144.476562 309.996094 L 124.519531 309.996094 L 120.050781 312.402344 L 113.621094 312.402344 L 126.4375 308.996094 L 142.644531 308.988281 L 134.5625 304.664062 L 134.476562 304.65625 L 134.386719 304.679688 L 126.394531 308.988281 L 126.4375 308.996094 Z M 113.621094 312.402344 "/>
<path style=" stroke:none;fill-rule:nonzero;fill:rgb(14.509804%,36.078431%,60%);fill-opacity:1;" d="M 113.621094 290.839844 L 113.671875 290.824219 L 113.671875 290.390625 L 113.828125 289.707031 L 114.183594 288.84375 L 114.539062 288.246094 L 115.457031 287.183594 L 116.730469 286.160156 L 118.058594 285.367188 L 119.023438 284.898438 L 119.890625 284.539062 L 121.878906 283.871094 L 123.152344 283.527344 L 124.53125 283.222656 L 126.210938 282.917969 L 127.433594 282.738281 L 130.1875 282.449219 L 132.226562 282.320312 L 133.804688 282.269531 L 137.222656 282.269531 L 139.257812 282.339844 L 140.738281 282.429688 L 142.367188 282.574219 L 143.746094 282.738281 L 146.140625 283.132812 L 148.28125 283.636719 L 149.25 283.925781 L 150.777344 284.484375 L 151.949219 285.023438 L 152.765625 285.492188 L 153.683594 286.160156 L 154.5 286.96875 L 155.109375 287.886719 L 155.417969 288.660156 L 148.28125 288.660156 L 147.925781 287.941406 L 147.515625 287.382812 L 146.75 286.644531 L 145.988281 286.121094 L 144.917969 285.601562 L 143.949219 285.257812 L 142.625 284.914062 L 141.453125 284.699219 L 140.226562 284.539062 L 139.054688 284.429688 L 136.8125 284.320312 L 134.214844 284.320312 L 133.246094 284.355469 L 131.257812 284.5 L 130.1875 284.628906 L 128.660156 284.878906 L 127.589844 285.113281 L 126.3125 285.472656 L 125.449219 285.78125 L 124.378906 286.25 L 123.613281 286.664062 L 122.746094 287.257812 L 122.234375 287.707031 L 121.777344 288.210938 L 121.371094 288.804688 L 121.0625 289.4375 L 120.859375 290.101562 L 120.757812 290.75 L 120.757812 293.542969 L 120.859375 294.191406 L 121.113281 294.949219 L 121.777344 296.046875 L 122.746094 297 L 123.867188 297.757812 L 124.9375 298.296875 L 125.550781 298.550781 L 126.363281 298.835938 L 127.640625 299.199219 L 129.472656 299.558594 L 130.542969 299.703125 L 132.175781 299.847656 L 133.855469 299.917969 L 136.097656 299.917969 L 138.085938 299.847656 L 139.414062 299.757812 L 140.789062 299.613281 L 142.675781 299.304688 L 143.847656 299.019531 L 144.867188 298.675781 L 145.628906 298.332031 L 146.140625 298.046875 L 146.90625 297.488281 L 147.515625 296.875 L 147.976562 296.242188 L 148.28125 295.632812 L 155.417969 295.632812 L 155.109375 296.351562 L 154.652344 297.054688 L 154.191406 297.578125 L 153.480469 298.207031 L 152.664062 298.765625 L 151.492188 299.394531 L 150.523438 299.808594 L 149.25 300.261719 L 148.078125 300.601562 L 146.804688 300.910156 L 144.917969 301.269531 L 143.695312 301.449219 L 142.367188 301.609375 L 140.789062 301.753906 L 138.800781 301.882812 L 136.660156 301.953125 L 134.671875 301.972656 L 132.53125 301.933594 L 130.953125 301.863281 L 128.863281 301.703125 L 126.261719 301.378906 L 124.378906 301.035156 L 122.898438 300.691406 L 121.625 300.332031 L 120.199219 299.847656 L 118.363281 299.054688 L 117.242188 298.441406 L 116.476562 297.9375 L 115.609375 297.234375 L 115 296.605469 L 114.285156 295.597656 L 113.777344 294.316406 L 113.621094 293.328125 Z M 113.621094 290.839844 "/>
<path style=" stroke:none;fill-rule:nonzero;fill:rgb(96.862745%,70.196078%,16.862745%);fill-opacity:1;" d="M 113.621094 313.925781 L 113.671875 313.925781 L 113.671875 313.910156 L 113.878906 313.878906 L 114.386719 313.835938 L 115.050781 313.796875 L 115.761719 313.769531 L 116.222656 313.753906 L 116.988281 313.734375 L 117.648438 313.71875 L 119.332031 313.6875 L 121.472656 313.65625 L 122.644531 313.644531 L 123.96875 313.632812 L 125.855469 313.617188 L 126.722656 313.613281 L 129.371094 313.601562 L 132.378906 313.59375 L 137.222656 313.59375 L 139.3125 313.597656 L 142.164062 313.605469 L 143.796875 313.609375 L 145.070312 313.617188 L 146.394531 313.628906 L 148.027344 313.640625 L 149.554688 313.660156 L 150.777344 313.675781 L 152 313.695312 L 153.019531 313.71875 L 153.886719 313.746094 L 154.652344 313.773438 L 155.109375 313.800781 L 155.417969 313.824219 L 148.332031 313.824219 L 147.925781 313.800781 L 147.464844 313.78125 L 146.699219 313.757812 L 145.9375 313.738281 L 145.171875 313.726562 L 143.746094 313.707031 L 142.523438 313.695312 L 140.992188 313.6875 L 139.515625 313.679688 L 137.832031 313.675781 L 134.113281 313.675781 L 131.664062 313.679688 L 130.238281 313.683594 L 129.21875 313.691406 L 127.792969 313.699219 L 126.925781 313.710938 L 126.414062 313.714844 L 124.886719 313.738281 L 123.867188 313.757812 L 123.304688 313.769531 L 122.59375 313.792969 L 122.082031 313.8125 L 121.523438 313.839844 L 121.21875 313.859375 L 120.808594 313.910156 L 120.757812 314.039062 L 120.910156 314.0625 L 121.21875 314.09375 L 121.625 314.117188 L 122.234375 314.144531 L 122.847656 314.167969 L 123.917969 314.195312 L 124.835938 314.210938 L 125.550781 314.226562 L 126.925781 314.246094 L 127.484375 314.25 L 128.8125 314.261719 L 130.1875 314.273438 L 131.871094 314.28125 L 133.144531 314.285156 L 135.183594 314.289062 L 137.78125 314.289062 L 140.839844 314.285156 L 142.777344 314.28125 L 144.101562 314.273438 L 144.96875 314.269531 L 146.039062 314.261719 L 146.804688 314.253906 L 147.515625 314.246094 L 148.382812 314.234375 L 148.382812 314.0625 L 135.792969 314.0625 L 135.792969 313.984375 L 155.367188 313.984375 L 155.417969 314.261719 L 154.347656 314.28125 L 153.019531 314.300781 L 151.746094 314.3125 L 150.421875 314.324219 L 148.535156 314.339844 L 147.007812 314.347656 L 144.664062 314.355469 L 142.523438 314.363281 L 140.277344 314.367188 L 138.292969 314.371094 L 133.855469 314.371094 L 131.613281 314.363281 L 129.832031 314.359375 L 128.199219 314.351562 L 126.570312 314.34375 L 124.53125 314.328125 L 123.203125 314.316406 L 120.453125 314.285156 L 119.230469 314.265625 L 118.414062 314.25 L 117.597656 314.230469 L 116.730469 314.210938 L 115.917969 314.1875 L 115.304688 314.164062 L 114.742188 314.140625 L 114.335938 314.117188 L 113.929688 314.085938 L 113.726562 314.058594 L 113.621094 314.035156 Z M 113.621094 313.925781 "/>
<path style=" stroke:none;fill-rule:nonzero;fill:rgb(83.921569%,15.686275%,22.352941%);fill-opacity:1;" d="M 113.621094 250.945312 L 155.417969 250.945312 L 155.417969 254.171875 L 138 254.199219 L 138 281.089844 L 130.988281 281.089844 L 130.988281 254.226562 L 130.886719 254.171875 L 113.621094 254.171875 Z M 113.621094 250.945312 "/>
<path style=" stroke:none;fill-rule:nonzero;fill:rgb(6.27451%,58.823529%,28.235294%);fill-opacity:1;" d="M 157.617188 285.222656 L 157.660156 285.070312 L 175.746094 122.261719 L 181.238281 122.261719 L 199.410156 285.378906 L 193.023438 285.378906 L 188.46875 242.796875 L 168.511719 242.796875 L 164.046875 285.222656 L 157.617188 285.222656 L 170.429688 225.183594 L 186.640625 225.03125 L 178.558594 148.910156 L 178.46875 148.757812 L 178.378906 149.21875 L 170.386719 225.03125 L 170.429688 225.183594 Z M 157.617188 285.222656 "/>
<path style=" stroke:none;fill-rule:nonzero;fill:rgb(14.509804%,36.078431%,60%);fill-opacity:1;" d="M 157.617188 311.761719 L 157.667969 311.757812 L 157.667969 311.65625 L 157.820312 311.496094 L 158.175781 311.292969 L 158.535156 311.152344 L 159.449219 310.902344 L 160.726562 310.664062 L 162.050781 310.476562 L 163.019531 310.367188 L 163.886719 310.285156 L 165.871094 310.128906 L 167.148438 310.046875 L 168.523438 309.976562 L 170.207031 309.902344 L 171.429688 309.859375 L 174.179688 309.792969 L 176.21875 309.765625 L 177.800781 309.75 L 181.214844 309.75 L 183.253906 309.769531 L 184.730469 309.789062 L 186.363281 309.824219 L 187.738281 309.859375 L 190.132812 309.953125 L 192.273438 310.074219 L 193.242188 310.140625 L 194.773438 310.269531 L 195.945312 310.398438 L 196.757812 310.507812 L 197.675781 310.664062 L 198.492188 310.855469 L 199.105469 311.070312 L 199.410156 311.25 L 192.273438 311.25 L 191.917969 311.082031 L 191.511719 310.949219 L 190.746094 310.777344 L 189.980469 310.65625 L 188.910156 310.53125 L 187.941406 310.453125 L 186.617188 310.371094 L 185.445312 310.320312 L 184.222656 310.285156 L 183.050781 310.257812 L 180.804688 310.234375 L 178.207031 310.234375 L 177.238281 310.242188 L 175.25 310.273438 L 174.179688 310.304688 L 172.652344 310.363281 L 171.582031 310.417969 L 170.308594 310.503906 L 169.441406 310.574219 L 168.371094 310.683594 L 167.605469 310.78125 L 166.738281 310.921875 L 166.230469 311.027344 L 165.769531 311.144531 L 165.363281 311.285156 L 165.058594 311.433594 L 164.855469 311.589844 L 164.75 311.738281 L 164.75 312.394531 L 164.855469 312.546875 L 165.109375 312.722656 L 165.769531 312.980469 L 166.738281 313.207031 L 167.859375 313.382812 L 168.929688 313.507812 L 169.542969 313.570312 L 170.359375 313.636719 L 171.632812 313.71875 L 173.46875 313.804688 L 174.539062 313.839844 L 176.167969 313.871094 L 177.851562 313.890625 L 180.09375 313.890625 L 182.082031 313.871094 L 183.40625 313.851562 L 184.78125 313.816406 L 186.667969 313.746094 L 187.839844 313.679688 L 188.859375 313.597656 L 189.625 313.519531 L 190.132812 313.449219 L 190.898438 313.320312 L 191.511719 313.175781 L 191.96875 313.027344 L 192.273438 312.882812 L 199.410156 312.882812 L 199.105469 313.054688 L 198.644531 313.21875 L 198.1875 313.339844 L 197.472656 313.488281 L 196.65625 313.617188 L 195.484375 313.765625 L 194.515625 313.863281 L 193.242188 313.96875 L 192.070312 314.050781 L 190.796875 314.121094 L 188.910156 314.207031 L 187.6875 314.25 L 186.363281 314.285156 L 184.78125 314.320312 L 182.792969 314.347656 L 180.652344 314.367188 L 178.664062 314.371094 L 176.523438 314.363281 L 174.945312 314.34375 L 172.855469 314.308594 L 170.257812 314.230469 L 168.371094 314.152344 L 166.890625 314.070312 L 165.617188 313.988281 L 164.191406 313.871094 L 162.355469 313.6875 L 161.234375 313.542969 L 160.46875 313.425781 L 159.605469 313.261719 L 158.992188 313.113281 L 158.277344 312.875 L 157.769531 312.578125 L 157.617188 312.34375 Z M 157.617188 311.761719 "/>
<path style=" stroke:none;fill-rule:nonzero;fill:rgb(96.862745%,70.196078%,16.862745%);fill-opacity:1;" d="M 157.617188 291.847656 L 157.667969 291.835938 L 157.667969 291.609375 L 157.871094 291.101562 L 158.378906 290.402344 L 159.042969 289.828125 L 159.757812 289.375 L 160.214844 289.140625 L 160.980469 288.800781 L 161.640625 288.554688 L 163.324219 288.046875 L 165.464844 287.570312 L 166.636719 287.367188 L 167.960938 287.175781 L 169.847656 286.960938 L 170.714844 286.882812 L 173.363281 286.703125 L 176.371094 286.589844 L 179.683594 286.558594 L 181.214844 286.566406 L 183.304688 286.613281 L 186.15625 286.738281 L 187.789062 286.851562 L 189.0625 286.960938 L 190.386719 287.109375 L 192.019531 287.335938 L 193.546875 287.605469 L 194.773438 287.875 L 195.996094 288.214844 L 197.015625 288.574219 L 197.878906 288.96875 L 198.644531 289.445312 L 199.105469 289.839844 L 199.410156 290.234375 L 192.324219 290.234375 L 191.917969 289.839844 L 191.457031 289.535156 L 190.695312 289.164062 L 189.929688 288.890625 L 189.164062 288.675781 L 187.738281 288.382812 L 186.515625 288.203125 L 184.984375 288.046875 L 183.507812 287.945312 L 181.824219 287.875 L 180.804688 287.855469 L 178.105469 287.855469 L 175.660156 287.933594 L 174.230469 288.023438 L 173.210938 288.113281 L 171.785156 288.28125 L 170.917969 288.417969 L 170.410156 288.507812 L 168.878906 288.859375 L 167.859375 289.171875 L 167.300781 289.386719 L 166.585938 289.726562 L 166.078125 290.03125 L 165.515625 290.480469 L 165.210938 290.820312 L 164.800781 291.585938 L 164.75 293.617188 L 164.90625 294.046875 L 165.210938 294.507812 L 165.617188 294.914062 L 166.230469 295.34375 L 166.839844 295.671875 L 167.910156 296.109375 L 168.828125 296.402344 L 169.542969 296.59375 L 170.917969 296.898438 L 171.480469 297 L 172.804688 297.203125 L 174.179688 297.363281 L 175.863281 297.496094 L 177.136719 297.566406 L 179.175781 297.621094 L 181.773438 297.621094 L 184.832031 297.554688 L 186.769531 297.464844 L 188.09375 297.375 L 188.960938 297.292969 L 190.03125 297.171875 L 190.796875 297.058594 L 191.511719 296.933594 L 192.375 296.742188 L 192.375 294.046875 L 179.789062 294.035156 L 179.789062 292.773438 L 199.359375 292.761719 L 199.410156 297.171875 L 198.339844 297.476562 L 197.015625 297.769531 L 195.738281 297.992188 L 194.414062 298.1875 L 192.527344 298.398438 L 191 298.535156 L 188.65625 298.691406 L 186.515625 298.792969 L 184.273438 298.863281 L 182.285156 298.894531 L 179.941406 298.90625 L 177.851562 298.886719 L 175.609375 298.816406 L 173.824219 298.726562 L 172.191406 298.613281 L 170.5625 298.46875 L 168.523438 298.230469 L 167.199219 298.039062 L 165.820312 297.800781 L 164.445312 297.519531 L 163.222656 297.214844 L 162.40625 296.980469 L 161.589844 296.707031 L 160.726562 296.371094 L 159.910156 295.984375 L 159.296875 295.636719 L 158.738281 295.242188 L 158.328125 294.871094 L 157.921875 294.363281 L 157.71875 293.957031 L 157.617188 293.605469 Z M 157.617188 291.847656 "/>
<path style=" stroke:none;fill-rule:nonzero;fill:rgb(83.921569%,15.686275%,22.352941%);fill-opacity:1;" d="M 157.617188 300.085938 L 199.410156 300.085938 L 199.410156 300.996094 L 181.992188 301.003906 L 181.992188 308.570312 L 174.984375 308.570312 L 174.984375 301.011719 L 174.882812 300.996094 L 157.617188 300.996094 Z M 157.617188 300.085938 "/>
<path style=" stroke:none;fill-rule:nonzero;fill:rgb(6.27451%,58.823529%,28.235294%);fill-opacity:1;" d="M 201.609375 305.167969 L 201.652344 304.898438 L 219.738281 20.664062 L 225.230469 20.664062 L 243.402344 305.433594 L 237.019531 305.433594 L 232.464844 231.101562 L 212.503906 231.101562 L 208.039062 305.167969 L 201.609375 305.167969 L 214.425781 200.351562 L 230.632812 200.082031 L 222.550781 67.1875 L 222.460938 66.921875 L 222.371094 67.722656 L 214.378906 200.082031 L 214.425781 200.351562 Z M 201.609375 305.167969 "/>
<path style=" stroke:none;fill-rule:nonzero;fill:rgb(96.862745%,70.196078%,16.862745%);fill-opacity:1;" d="M 201.609375 313.34375 L 201.660156 313.339844 L 201.660156 313.308594 L 201.863281 313.234375 L 202.375 313.132812 L 203.035156 313.046875 L 203.75 312.980469 L 204.207031 312.949219 L 204.972656 312.898438 L 205.636719 312.863281 L 207.316406 312.789062 L 209.457031 312.71875 L 210.628906 312.691406 L 211.957031 312.660156 L 213.84375 312.628906 L 214.707031 312.621094 L 217.359375 312.59375 L 220.367188 312.578125 L 223.679688 312.570312 L 225.207031 312.574219 L 227.296875 312.578125 L 230.152344 312.597656 L 231.78125 312.613281 L 233.058594 312.628906 L 234.382812 312.652344 L 236.011719 312.683594 L 237.542969 312.722656 L 238.765625 312.765625 L 239.988281 312.8125 L 241.007812 312.867188 L 241.875 312.921875 L 242.640625 312.992188 L 243.097656 313.050781 L 243.402344 313.105469 L 236.320312 313.105469 L 235.910156 313.050781 L 235.453125 313.003906 L 234.6875 312.949219 L 233.921875 312.910156 L 233.160156 312.878906 L 231.730469 312.835938 L 230.507812 312.8125 L 228.980469 312.789062 L 227.5 312.773438 L 225.820312 312.765625 L 224.800781 312.761719 L 222.097656 312.761719 L 219.652344 312.773438 L 218.226562 312.785156 L 217.207031 312.796875 L 215.777344 312.824219 L 214.914062 312.84375 L 214.402344 312.855469 L 212.875 312.90625 L 211.855469 312.953125 L 211.292969 312.984375 L 210.578125 313.035156 L 210.070312 313.078125 L 209.507812 313.144531 L 209.203125 313.191406 L 208.796875 313.304688 L 208.746094 313.601562 L 208.898438 313.664062 L 209.203125 313.730469 L 209.613281 313.789062 L 210.222656 313.851562 L 210.835938 313.898438 L 211.90625 313.964844 L 212.824219 314.007812 L 213.535156 314.035156 L 214.914062 314.078125 L 215.472656 314.09375 L 216.796875 314.121094 L 218.175781 314.144531 L 219.855469 314.164062 L 221.128906 314.175781 L 223.167969 314.183594 L 225.769531 314.183594 L 228.828125 314.171875 L 230.761719 314.160156 L 232.089844 314.148438 L 232.953125 314.136719 L 234.023438 314.117188 L 234.789062 314.101562 L 235.503906 314.082031 L 236.371094 314.054688 L 236.371094 313.664062 L 223.78125 313.660156 L 223.78125 313.476562 L 243.351562 313.476562 L 243.402344 314.117188 L 242.332031 314.160156 L 241.007812 314.203125 L 239.734375 314.238281 L 238.410156 314.265625 L 236.523438 314.296875 L 234.992188 314.316406 L 232.648438 314.339844 L 230.507812 314.355469 L 228.265625 314.363281 L 226.277344 314.367188 L 223.933594 314.371094 L 221.84375 314.367188 L 219.601562 314.359375 L 217.816406 314.34375 L 216.1875 314.328125 L 214.554688 314.304688 L 212.515625 314.273438 L 211.191406 314.246094 L 209.816406 314.210938 L 208.4375 314.167969 L 207.214844 314.125 L 206.402344 314.089844 L 205.585938 314.050781 L 204.71875 314 L 203.902344 313.945312 L 203.292969 313.894531 L 202.730469 313.835938 L 202.324219 313.78125 L 201.914062 313.707031 L 201.710938 313.648438 L 201.609375 313.597656 Z M 201.609375 313.34375 "/>
<path style=" stroke:none;fill-rule:nonzero;fill:rgb(83.921569%,15.686275%,22.352941%);fill-opacity:1;" d="M 201.609375 306.613281 L 243.402344 306.613281 L 243.402344 307.125 L 225.984375 307.128906 L 225.984375 311.390625 L 218.976562 311.390625 L 218.976562 307.132812 L 218.875 307.125 L 201.609375 307.125 Z M 201.609375 306.613281 "/>
<path style=" stroke:none;fill-rule:nonzero;fill:rgb(6.27451%,58.823529%,28.235294%);fill-opacity:1;" d="M 245.601562 311.710938 L 245.648438 311.699219 L 263.730469 297.042969 L 269.222656 297.042969 L 287.398438 311.726562 L 281.011719 311.726562 L 276.457031 307.894531 L 256.496094 307.894531 L 252.03125 311.710938 L 245.601562 311.710938 L 258.417969 306.308594 L 274.625 306.292969 L 266.542969 299.441406 L 266.457031 299.425781 L 266.367188 299.46875 L 258.375 306.292969 L 258.417969 306.308594 Z M 245.601562 311.710938 "/>
<path style=" stroke:none;fill-rule:nonzero;fill:rgb(96.862745%,70.196078%,16.862745%);fill-opacity:1;" d="M 245.601562 313.535156 L 245.652344 313.53125 L 245.652344 313.503906 L 245.859375 313.445312 L 246.367188 313.363281 L 247.03125 313.292969 L 247.742188 313.242188 L 248.203125 313.210938 L 248.964844 313.171875 L 249.628906 313.144531 L 251.3125 313.082031 L 253.453125 313.027344 L 254.625 313.003906 L 255.949219 312.980469 L 257.835938 312.953125 L 258.703125 312.945312 L 261.351562 312.921875 L 264.359375 312.910156 L 267.671875 312.90625 L 269.199219 312.90625 L 271.289062 312.914062 L 274.144531 312.925781 L 275.777344 312.941406 L 277.050781 312.953125 L 278.375 312.972656 L 280.007812 313 L 281.535156 313.03125 L 282.757812 313.0625 L 283.980469 313.101562 L 285 313.144531 L 285.867188 313.191406 L 286.632812 313.25 L 287.089844 313.296875 L 287.398438 313.34375 L 280.3125 313.34375 L 279.90625 313.296875 L 279.445312 313.257812 L 278.679688 313.214844 L 277.917969 313.183594 L 277.152344 313.15625 L 275.726562 313.121094 L 274.5 313.101562 L 272.972656 313.082031 L 271.496094 313.070312 L 269.8125 313.0625 L 268.792969 313.058594 L 266.09375 313.058594 L 263.644531 313.070312 L 262.21875 313.078125 L 261.199219 313.089844 L 259.773438 313.109375 L 258.90625 313.125 L 258.394531 313.136719 L 256.867188 313.179688 L 255.847656 313.214844 L 255.285156 313.242188 L 254.574219 313.28125 L 254.0625 313.316406 L 253.503906 313.371094 L 253.195312 313.410156 L 252.789062 313.503906 L 252.738281 313.742188 L 252.890625 313.792969 L 253.195312 313.847656 L 253.605469 313.898438 L 254.214844 313.949219 L 254.828125 313.988281 L 255.898438 314.039062 L 256.816406 314.074219 L 257.53125 314.097656 L 258.90625 314.132812 L 259.464844 314.144531 L 260.792969 314.167969 L 262.167969 314.1875 L 263.847656 314.203125 L 265.125 314.210938 L 267.164062 314.21875 L 269.761719 314.21875 L 272.820312 314.210938 L 274.757812 314.199219 L 276.082031 314.1875 L 276.949219 314.179688 L 278.019531 314.164062 L 278.78125 314.152344 L 279.496094 314.136719 L 280.363281 314.113281 L 280.363281 313.792969 L 267.773438 313.792969 L 267.773438 313.644531 L 287.34375 313.640625 L 287.398438 314.164062 L 286.328125 314.199219 L 285 314.234375 L 283.726562 314.261719 L 282.402344 314.285156 L 280.515625 314.308594 L 278.988281 314.328125 L 276.640625 314.34375 L 274.5 314.355469 L 272.257812 314.367188 L 270.269531 314.371094 L 267.925781 314.371094 L 265.835938 314.367188 L 263.59375 314.359375 L 261.8125 314.347656 L 260.179688 314.335938 L 258.546875 314.320312 L 256.511719 314.289062 L 255.183594 314.269531 L 252.433594 314.207031 L 251.210938 314.171875 L 249.578125 314.109375 L 248.710938 314.070312 L 247.894531 314.023438 L 247.285156 313.984375 L 246.722656 313.9375 L 246.316406 313.890625 L 245.910156 313.832031 L 245.703125 313.785156 L 245.601562 313.742188 Z M 245.601562 313.535156 "/>
<path style=" stroke:none;fill-rule:nonzero;fill:rgb(83.921569%,15.686275%,22.352941%);fill-opacity:1;" d="M 245.601562 51.144531 L 287.398438 51.144531 L 287.398438 77.339844 L 269.976562 77.570312 L 269.976562 295.863281 L 262.96875 295.863281 L 262.96875 77.800781 L 262.867188 77.339844 L 245.601562 77.339844 Z M 245.601562 51.144531 "/>
<path style=" stroke:none;fill-rule:nonzero;fill:rgb(6.27451%,58.823529%,28.235294%);fill-opacity:1;" d="M 289.597656 294.210938 L 289.640625 293.996094 L 307.726562 63.777344 L 313.21875 63.777344 L 331.390625 294.429688 L 325.003906 294.429688 L 320.449219 234.222656 L 300.492188 234.222656 L 296.027344 294.210938 L 289.597656 294.210938 L 302.410156 209.316406 L 318.621094 209.097656 L 310.539062 101.460938 L 310.449219 101.246094 L 310.359375 101.894531 L 302.367188 209.097656 L 302.410156 209.316406 Z M 289.597656 294.210938 "/>
<path style=" stroke:none;fill-rule:nonzero;fill:rgb(14.509804%,36.078431%,60%);fill-opacity:1;" d="M 289.597656 311.136719 L 289.648438 311.136719 L 289.648438 311.105469 L 289.800781 311.058594 L 290.15625 311.003906 L 290.515625 310.964844 L 291.429688 310.890625 L 292.707031 310.824219 L 294.03125 310.769531 L 295 310.738281 L 295.867188 310.714844 L 297.851562 310.671875 L 299.128906 310.648438 L 300.503906 310.628906 L 302.183594 310.609375 L 303.410156 310.597656 L 306.160156 310.578125 L 308.199219 310.566406 L 313.195312 310.566406 L 315.234375 310.570312 L 316.710938 310.574219 L 318.34375 310.585938 L 319.71875 310.597656 L 322.113281 310.621094 L 324.253906 310.65625 L 325.222656 310.675781 L 326.75 310.710938 L 327.925781 310.75 L 328.738281 310.78125 L 329.65625 310.824219 L 330.472656 310.878906 L 331.085938 310.9375 L 331.390625 310.992188 L 324.253906 310.992188 L 323.898438 310.941406 L 323.488281 310.90625 L 322.726562 310.855469 L 321.960938 310.820312 L 320.890625 310.785156 L 319.921875 310.765625 L 318.597656 310.742188 L 317.425781 310.726562 L 316.203125 310.714844 L 315.027344 310.707031 L 312.785156 310.703125 L 309.21875 310.703125 L 307.230469 310.714844 L 306.160156 310.722656 L 304.632812 310.738281 L 303.5625 310.753906 L 302.289062 310.777344 L 301.421875 310.796875 L 300.351562 310.828125 L 299.585938 310.859375 L 298.71875 310.898438 L 298.210938 310.925781 L 297.75 310.960938 L 297.34375 311 L 297.039062 311.042969 L 296.832031 311.085938 L 296.730469 311.128906 L 296.730469 311.316406 L 296.832031 311.359375 L 297.089844 311.410156 L 297.75 311.484375 L 298.71875 311.546875 L 299.839844 311.597656 L 300.910156 311.632812 L 301.523438 311.648438 L 302.339844 311.667969 L 303.613281 311.691406 L 305.449219 311.71875 L 306.519531 311.726562 L 308.148438 311.734375 L 309.832031 311.742188 L 312.074219 311.742188 L 314.0625 311.734375 L 315.386719 311.730469 L 316.761719 311.71875 L 318.648438 311.699219 L 319.820312 311.679688 L 320.839844 311.65625 L 321.605469 311.636719 L 322.113281 311.617188 L 322.878906 311.578125 L 323.488281 311.539062 L 323.949219 311.496094 L 324.253906 311.457031 L 331.390625 311.457031 L 331.085938 311.503906 L 330.625 311.550781 L 330.167969 311.585938 L 329.453125 311.628906 L 328.636719 311.664062 L 327.464844 311.707031 L 326.496094 311.734375 L 325.222656 311.765625 L 324.050781 311.785156 L 322.777344 311.808594 L 320.890625 311.832031 L 319.667969 311.84375 L 318.34375 311.855469 L 316.761719 311.863281 L 314.773438 311.871094 L 312.632812 311.875 L 310.644531 311.878906 L 308.503906 311.875 L 306.925781 311.871094 L 304.835938 311.859375 L 302.234375 311.839844 L 300.351562 311.816406 L 298.871094 311.792969 L 297.597656 311.769531 L 296.171875 311.734375 L 294.335938 311.683594 L 293.214844 311.644531 L 292.449219 311.609375 L 291.585938 311.5625 L 290.972656 311.519531 L 290.257812 311.453125 L 289.75 311.367188 L 289.597656 311.300781 Z M 289.597656 311.136719 "/>
<path style=" stroke:none;fill-rule:nonzero;fill:rgb(96.862745%,70.196078%,16.862745%);fill-opacity:1;" d="M 289.597656 313.621094 L 289.648438 313.617188 L 289.648438 313.59375 L 289.851562 313.539062 L 290.359375 313.464844 L 291.023438 313.40625 L 291.738281 313.355469 L 292.195312 313.332031 L 292.960938 313.296875 L 293.621094 313.269531 L 295.304688 313.214844 L 297.445312 313.164062 L 298.617188 313.144531 L 299.941406 313.125 L 301.828125 313.101562 L 302.695312 313.09375 L 305.34375 313.074219 L 308.351562 313.0625 L 311.664062 313.058594 L 313.195312 313.058594 L 315.285156 313.0625 L 318.136719 313.078125 L 319.769531 313.089844 L 321.042969 313.101562 L 322.367188 313.117188 L 324 313.140625 L 325.527344 313.167969 L 326.75 313.199219 L 327.976562 313.234375 L 328.996094 313.273438 L 329.859375 313.3125 L 330.625 313.363281 L 331.085938 313.40625 L 331.390625 313.449219 L 324.304688 313.449219 L 323.898438 313.40625 L 323.4375 313.375 L 322.675781 313.335938 L 321.910156 313.304688 L 321.144531 313.28125 L 319.71875 313.25 L 318.496094 313.234375 L 316.964844 313.214844 L 315.488281 313.203125 L 313.804688 313.199219 L 312.785156 313.195312 L 310.085938 313.195312 L 307.640625 313.203125 L 306.210938 313.214844 L 305.191406 313.222656 L 303.765625 313.242188 L 302.898438 313.253906 L 302.390625 313.265625 L 300.859375 313.300781 L 299.839844 313.335938 L 299.28125 313.359375 L 298.566406 313.394531 L 298.058594 313.425781 L 297.496094 313.476562 L 297.191406 313.511719 L 296.78125 313.59375 L 296.730469 313.808594 L 296.882812 313.855469 L 297.191406 313.902344 L 297.597656 313.945312 L 298.210938 313.992188 L 298.820312 314.027344 L 299.890625 314.074219 L 300.808594 314.105469 L 301.523438 314.125 L 302.898438 314.15625 L 303.460938 314.167969 L 304.785156 314.191406 L 306.160156 314.207031 L 307.84375 314.222656 L 309.117188 314.226562 L 311.15625 314.234375 L 313.753906 314.234375 L 316.8125 314.226562 L 318.75 314.21875 L 320.074219 314.207031 L 320.941406 314.199219 L 322.011719 314.1875 L 322.777344 314.175781 L 323.488281 314.160156 L 324.355469 314.140625 L 324.355469 313.855469 L 311.765625 313.851562 L 311.765625 313.71875 L 331.339844 313.71875 L 331.390625 314.1875 L 330.320312 314.21875 L 328.996094 314.25 L 327.71875 314.273438 L 326.394531 314.292969 L 324.507812 314.316406 L 322.980469 314.332031 L 320.636719 314.347656 L 318.496094 314.359375 L 316.253906 314.367188 L 314.265625 314.371094 L 311.921875 314.371094 L 309.832031 314.367188 L 307.589844 314.359375 L 305.804688 314.351562 L 304.171875 314.339844 L 302.542969 314.324219 L 300.503906 314.296875 L 299.179688 314.277344 L 297.800781 314.253906 L 296.425781 314.222656 L 295.203125 314.191406 L 293.570312 314.136719 L 292.707031 314.101562 L 291.890625 314.058594 L 291.277344 314.023438 L 290.71875 313.980469 L 290.308594 313.941406 L 289.902344 313.886719 L 289.699219 313.84375 L 289.597656 313.808594 Z M 289.597656 313.621094 "/>
<path style=" stroke:none;fill-rule:nonzero;fill:rgb(83.921569%,15.686275%,22.352941%);fill-opacity:1;" d="M 289.597656 295.609375 L 331.390625 295.609375 L 331.390625 297.082031 L 313.972656 297.09375 L 313.972656 309.386719 L 306.964844 309.386719 L 306.964844 297.109375 L 306.863281 297.082031 L 289.597656 297.082031 Z M 289.597656 295.609375 "/>
<path style=" stroke:none;fill-rule:nonzero;fill:rgb(6.27451%,58.823529%,28.235294%);fill-opacity:1;" d="M 333.589844 308.730469 L 333.632812 308.726562 L 351.71875 304.277344 L 357.210938 304.277344 L 375.382812 308.734375 L 369 308.734375 L 364.445312 307.570312 L 344.484375 307.570312 L 340.019531 308.730469 L 333.589844 308.730469 L 346.40625 307.089844 L 362.613281 307.085938 L 354.53125 305.003906 L 354.441406 305 L 354.351562 305.011719 L 346.359375 307.085938 L 346.40625 307.089844 Z M 333.589844 308.730469 "/>
<path style=" stroke:none;fill-rule:nonzero;fill:rgb(14.509804%,36.078431%,60%);fill-opacity:1;" d="M 333.589844 310.625 L 333.640625 310.625 L 333.640625 310.589844 L 333.792969 310.53125 L 334.148438 310.460938 L 334.507812 310.410156 L 335.425781 310.324219 L 336.699219 310.238281 L 338.023438 310.171875 L 338.992188 310.132812 L 339.859375 310.101562 L 341.847656 310.046875 L 343.121094 310.019531 L 344.496094 309.992188 L 346.179688 309.96875 L 347.402344 309.953125 L 350.152344 309.929688 L 352.191406 309.917969 L 353.773438 309.914062 L 357.1875 309.914062 L 359.226562 309.917969 L 360.703125 309.925781 L 362.335938 309.9375 L 363.710938 309.953125 L 366.105469 309.984375 L 368.246094 310.027344 L 369.214844 310.050781 L 370.746094 310.097656 L 371.917969 310.140625 L 372.734375 310.179688 L 373.652344 310.238281 L 374.464844 310.304688 L 375.078125 310.378906 L 375.382812 310.445312 L 368.246094 310.445312 L 367.890625 310.386719 L 367.484375 310.339844 L 366.71875 310.277344 L 365.953125 310.234375 L 364.882812 310.191406 L 363.914062 310.160156 L 362.589844 310.132812 L 361.417969 310.117188 L 360.195312 310.101562 L 359.023438 310.09375 L 356.78125 310.085938 L 353.210938 310.085938 L 351.222656 310.097656 L 350.152344 310.109375 L 348.625 310.128906 L 347.554688 310.148438 L 346.28125 310.179688 L 345.414062 310.207031 L 344.34375 310.246094 L 343.578125 310.277344 L 342.714844 310.328125 L 342.203125 310.367188 L 341.746094 310.40625 L 341.335938 310.457031 L 341.03125 310.507812 L 340.828125 310.566406 L 340.726562 310.617188 L 340.726562 310.851562 L 340.828125 310.90625 L 341.082031 310.96875 L 341.746094 311.058594 L 342.714844 311.140625 L 343.835938 311.203125 L 344.90625 311.246094 L 345.515625 311.265625 L 346.332031 311.292969 L 347.605469 311.320312 L 349.441406 311.351562 L 350.511719 311.363281 L 352.140625 311.375 L 353.824219 311.382812 L 356.066406 311.382812 L 358.054688 311.375 L 359.378906 311.367188 L 360.753906 311.355469 L 362.640625 311.332031 L 363.8125 311.304688 L 364.832031 311.277344 L 365.597656 311.25 L 366.105469 311.226562 L 366.871094 311.179688 L 367.484375 311.128906 L 367.941406 311.074219 L 368.246094 311.023438 L 375.382812 311.023438 L 375.078125 311.085938 L 374.617188 311.144531 L 374.160156 311.1875 L 373.445312 311.238281 L 372.632812 311.285156 L 371.457031 311.339844 L 370.492188 311.371094 L 369.214844 311.410156 L 368.042969 311.4375 L 366.769531 311.464844 L 364.882812 311.492188 L 363.660156 311.507812 L 362.335938 311.523438 L 360.753906 311.535156 L 358.769531 311.542969 L 356.628906 311.550781 L 352.5 311.550781 L 350.917969 311.542969 L 348.828125 311.53125 L 346.230469 311.503906 L 344.34375 311.472656 L 342.867188 311.445312 L 341.589844 311.414062 L 340.164062 311.375 L 338.328125 311.308594 L 337.207031 311.257812 L 336.445312 311.214844 L 335.578125 311.15625 L 334.964844 311.105469 L 334.253906 311.023438 L 333.742188 310.914062 L 333.589844 310.832031 Z M 333.589844 310.625 "/>
<path style=" stroke:none;fill-rule:nonzero;fill:rgb(96.862745%,70.196078%,16.862745%);fill-opacity:1;" d="M 333.589844 313.433594 L 333.640625 313.433594 L 333.640625 313.402344 L 333.84375 313.335938 L 334.355469 313.242188 L 335.015625 313.164062 L 335.730469 313.105469 L 336.1875 313.074219 L 336.953125 313.03125 L 337.617188 312.996094 L 339.296875 312.929688 L 341.4375 312.867188 L 342.609375 312.839844 L 343.9375 312.8125 L 345.820312 312.785156 L 346.6875 312.773438 L 349.339844 312.75 L 352.347656 312.734375 L 355.660156 312.730469 L 357.1875 312.734375 L 359.277344 312.738281 L 362.132812 312.753906 L 363.761719 312.769531 L 365.035156 312.785156 L 366.363281 312.804688 L 367.992188 312.835938 L 369.523438 312.871094 L 370.746094 312.90625 L 371.96875 312.953125 L 372.988281 313 L 373.855469 313.050781 L 374.617188 313.113281 L 375.078125 313.167969 L 375.382812 313.21875 L 368.296875 313.21875 L 367.890625 313.167969 L 367.433594 313.125 L 366.667969 313.078125 L 365.902344 313.042969 L 365.140625 313.011719 L 363.710938 312.972656 L 362.488281 312.949219 L 360.960938 312.929688 L 359.480469 312.914062 L 357.800781 312.90625 L 356.78125 312.902344 L 354.078125 312.902344 L 351.632812 312.914062 L 350.207031 312.925781 L 349.1875 312.9375 L 347.757812 312.960938 L 346.890625 312.980469 L 346.382812 312.992188 L 344.855469 313.035156 L 343.835938 313.078125 L 343.273438 313.109375 L 342.558594 313.152344 L 342.050781 313.191406 L 341.488281 313.253906 L 341.183594 313.296875 L 340.777344 313.398438 L 340.726562 313.667969 L 340.878906 313.726562 L 341.183594 313.785156 L 341.589844 313.839844 L 342.203125 313.898438 L 342.816406 313.941406 L 343.886719 314 L 344.800781 314.039062 L 345.515625 314.0625 L 346.890625 314.105469 L 347.453125 314.117188 L 348.777344 314.144531 L 350.152344 314.164062 L 351.835938 314.183594 L 353.109375 314.191406 L 355.148438 314.199219 L 357.75 314.199219 L 360.804688 314.191406 L 362.742188 314.179688 L 364.070312 314.167969 L 364.933594 314.15625 L 366.003906 314.140625 L 366.769531 314.125 L 367.484375 314.109375 L 368.351562 314.082031 L 368.351562 313.726562 L 355.761719 313.722656 L 355.761719 313.554688 L 375.332031 313.554688 L 375.382812 314.140625 L 374.3125 314.179688 L 372.988281 314.21875 L 371.714844 314.25 L 370.386719 314.273438 L 368.503906 314.304688 L 366.972656 314.320312 L 364.628906 314.34375 L 362.488281 314.355469 L 360.246094 314.363281 L 358.257812 314.371094 L 355.914062 314.371094 L 353.824219 314.367188 L 351.582031 314.359375 L 349.796875 314.347656 L 348.167969 314.332031 L 346.535156 314.3125 L 344.496094 314.28125 L 343.171875 314.253906 L 341.796875 314.222656 L 340.417969 314.1875 L 339.195312 314.144531 L 338.378906 314.113281 L 337.566406 314.078125 L 336.699219 314.035156 L 335.882812 313.984375 L 335.273438 313.9375 L 334.710938 313.882812 L 334.304688 313.835938 L 333.894531 313.765625 L 333.691406 313.714844 L 333.589844 313.667969 Z M 333.589844 313.433594 "/>
<path style=" stroke:none;fill-rule:nonzero;fill:rgb(83.921569%,15.686275%,22.352941%);fill-opacity:1;" d="M 333.589844 33.703125 L 375.382812 33.703125 L 375.382812 62.539062 L 357.964844 62.792969 L 357.964844 303.097656 L 350.957031 303.097656 L 350.957031 63.046875 L 350.855469 62.539062 L 333.589844 62.539062 Z M 333.589844 33.703125 "/>
<path style=" stroke:none;fill-rule:nonzero;fill:rgb(6.27451%,58.823529%,28.235294%);fill-opacity:1;" d="M 377.582031 314.363281 L 377.628906 314.359375 L 395.710938 308.292969 L 401.203125 308.292969 L 419.375 314.371094 L 412.992188 314.371094 L 408.4375 312.785156 L 388.476562 312.785156 L 384.011719 314.363281 L 377.582031 314.363281 L 390.398438 312.128906 L 406.605469 312.121094 L 398.523438 309.285156 L 398.433594 309.28125 L 398.347656 309.296875 L 390.351562 312.121094 L 390.398438 312.128906 Z M 377.582031 314.363281 "/>
<path style=" stroke:none;fill-rule:nonzero;fill:rgb(14.509804%,36.078431%,60%);fill-opacity:1;" d="M 377.582031 291.300781 L 377.632812 291.289062 L 377.632812 290.957031 L 377.785156 290.429688 L 378.144531 289.765625 L 378.5 289.308594 L 379.417969 288.492188 L 380.691406 287.703125 L 382.015625 287.09375 L 382.984375 286.730469 L 383.851562 286.457031 L 385.839844 285.941406 L 387.113281 285.679688 L 388.488281 285.445312 L 390.171875 285.210938 L 391.394531 285.070312 L 394.148438 284.847656 L 396.1875 284.753906 L 397.765625 284.710938 L 401.179688 284.710938 L 403.21875 284.765625 L 404.699219 284.835938 L 406.328125 284.945312 L 407.703125 285.070312 L 410.101562 285.375 L 412.242188 285.761719 L 413.210938 285.984375 L 414.738281 286.414062 L 415.910156 286.828125 L 416.726562 287.1875 L 417.644531 287.703125 L 418.460938 288.324219 L 419.070312 289.03125 L 419.375 289.625 L 412.242188 289.625 L 411.882812 289.070312 L 411.476562 288.644531 L 410.710938 288.074219 L 409.949219 287.671875 L 408.878906 287.273438 L 407.910156 287.007812 L 406.582031 286.746094 L 405.410156 286.578125 L 404.1875 286.457031 L 403.015625 286.371094 L 400.773438 286.289062 L 398.175781 286.289062 L 397.207031 286.316406 L 395.21875 286.425781 L 394.148438 286.523438 L 392.617188 286.71875 L 391.546875 286.898438 L 390.273438 287.175781 L 389.40625 287.410156 L 388.335938 287.769531 L 387.574219 288.089844 L 386.707031 288.546875 L 386.195312 288.890625 L 385.738281 289.28125 L 385.332031 289.738281 L 385.023438 290.222656 L 384.820312 290.734375 L 384.71875 291.230469 L 384.71875 293.378906 L 384.820312 293.875 L 385.074219 294.457031 L 385.738281 295.304688 L 386.707031 296.035156 L 387.828125 296.617188 L 388.898438 297.035156 L 389.507812 297.226562 L 390.324219 297.449219 L 391.597656 297.726562 L 393.433594 298.003906 L 394.503906 298.113281 L 396.136719 298.222656 L 397.816406 298.28125 L 400.058594 298.28125 L 402.046875 298.222656 L 403.371094 298.15625 L 404.75 298.042969 L 406.632812 297.808594 L 407.808594 297.585938 L 408.828125 297.324219 L 409.589844 297.0625 L 410.101562 296.839844 L 410.863281 296.410156 L 411.476562 295.941406 L 411.933594 295.453125 L 412.242188 294.984375 L 419.375 294.984375 L 419.070312 295.539062 L 418.613281 296.078125 L 418.152344 296.480469 L 417.441406 296.964844 L 416.625 297.394531 L 415.453125 297.878906 L 414.484375 298.195312 L 413.210938 298.542969 L 412.039062 298.804688 L 410.761719 299.042969 L 408.878906 299.316406 L 407.652344 299.457031 L 406.328125 299.582031 L 404.75 299.691406 L 402.761719 299.789062 L 400.621094 299.84375 L 398.632812 299.859375 L 396.492188 299.832031 L 394.914062 299.773438 L 392.824219 299.648438 L 390.222656 299.402344 L 388.335938 299.136719 L 386.859375 298.875 L 385.585938 298.597656 L 384.15625 298.222656 L 382.324219 297.613281 L 381.203125 297.144531 L 380.4375 296.757812 L 379.570312 296.214844 L 378.960938 295.730469 L 378.246094 294.957031 L 377.734375 293.972656 L 377.582031 293.210938 Z M 377.582031 291.300781 "/>
<path style=" stroke:none;fill-rule:nonzero;fill:rgb(96.862745%,70.196078%,16.862745%);fill-opacity:1;" d="M 377.582031 303.640625 L 377.632812 303.632812 L 377.632812 303.523438 L 377.835938 303.273438 L 378.347656 302.929688 L 379.011719 302.648438 L 379.722656 302.425781 L 380.183594 302.308594 L 380.945312 302.140625 L 381.609375 302.019531 L 383.292969 301.769531 L 385.433594 301.535156 L 386.605469 301.4375 L 387.929688 301.34375 L 389.816406 301.238281 L 390.683594 301.199219 L 393.332031 301.109375 L 396.339844 301.054688 L 399.652344 301.039062 L 401.179688 301.042969 L 403.269531 301.066406 L 406.125 301.125 L 407.757812 301.183594 L 409.03125 301.238281 L 410.355469 301.308594 L 411.988281 301.421875 L 413.515625 301.554688 L 414.738281 301.6875 L 415.960938 301.851562 L 416.980469 302.03125 L 417.847656 302.226562 L 418.613281 302.457031 L 419.070312 302.652344 L 419.375 302.847656 L 412.292969 302.847656 L 411.882812 302.652344 L 411.425781 302.503906 L 410.660156 302.320312 L 409.898438 302.1875 L 409.132812 302.082031 L 407.703125 301.9375 L 406.480469 301.847656 L 404.953125 301.769531 L 403.476562 301.71875 L 401.792969 301.6875 L 400.773438 301.675781 L 398.070312 301.675781 L 395.625 301.714844 L 394.199219 301.757812 L 393.179688 301.804688 L 391.753906 301.886719 L 390.886719 301.953125 L 390.375 301.996094 L 388.847656 302.167969 L 387.828125 302.324219 L 387.265625 302.429688 L 386.554688 302.597656 L 386.042969 302.746094 L 385.484375 302.96875 L 385.175781 303.136719 L 384.769531 303.511719 L 384.71875 304.511719 L 384.871094 304.722656 L 385.175781 304.949219 L 385.585938 305.148438 L 386.195312 305.359375 L 386.808594 305.523438 L 387.878906 305.738281 L 388.796875 305.882812 L 389.507812 305.976562 L 390.886719 306.125 L 391.445312 306.175781 L 392.769531 306.277344 L 394.148438 306.355469 L 395.828125 306.421875 L 397.105469 306.453125 L 399.140625 306.480469 L 401.742188 306.480469 L 404.800781 306.449219 L 406.738281 306.402344 L 408.0625 306.359375 L 408.929688 306.320312 L 410 306.257812 L 410.761719 306.203125 L 411.476562 306.144531 L 412.34375 306.046875 L 412.34375 304.722656 L 399.753906 304.71875 L 399.753906 304.09375 L 419.324219 304.089844 L 419.375 306.257812 L 418.304688 306.410156 L 416.980469 306.554688 L 415.707031 306.664062 L 414.382812 306.757812 L 412.496094 306.863281 L 410.96875 306.929688 L 408.621094 307.007812 L 406.480469 307.058594 L 404.238281 307.09375 L 402.25 307.109375 L 399.90625 307.113281 L 397.816406 307.101562 L 395.574219 307.070312 L 393.789062 307.027344 L 392.160156 306.96875 L 390.527344 306.898438 L 388.488281 306.78125 L 387.164062 306.6875 L 385.789062 306.570312 L 384.414062 306.433594 L 383.191406 306.28125 L 382.375 306.164062 L 381.558594 306.03125 L 380.691406 305.867188 L 379.875 305.675781 L 379.265625 305.503906 L 378.703125 305.3125 L 378.296875 305.128906 L 377.890625 304.878906 L 377.683594 304.679688 L 377.582031 304.507812 Z M 377.582031 303.640625 "/>
<path style=" stroke:none;fill-rule:nonzero;fill:rgb(83.921569%,15.686275%,22.352941%);fill-opacity:1;" d="M 377.582031 134.140625 L 419.375 134.140625 L 419.375 150.132812 L 401.957031 150.273438 L 401.957031 283.53125 L 394.949219 283.53125 L 394.949219 150.414062 L 394.847656 150.132812 L 377.582031 150.132812 Z M 377.582031 134.140625 "/>
<path style=" stroke:none;fill-rule:nonzero;fill:rgb(6.27451%,58.823529%,28.235294%);fill-opacity:1;" d="M 421.578125 298.195312 L 421.621094 298.183594 L 439.703125 284.519531 L 445.195312 284.519531 L 463.371094 298.207031 L 456.984375 298.207031 L 452.429688 294.636719 L 432.472656 294.636719 L 428.007812 298.195312 L 421.578125 298.195312 L 434.390625 293.15625 L 450.601562 293.144531 L 442.519531 286.753906 L 442.429688 286.742188 L 442.339844 286.78125 L 434.347656 293.144531 L 434.390625 293.15625 Z M 421.578125 298.195312 "/>
<path style=" stroke:none;fill-rule:nonzero;fill:rgb(14.509804%,36.078431%,60%);fill-opacity:1;" d="M 421.578125 313.941406 L 421.628906 313.941406 L 421.628906 313.925781 L 421.78125 313.898438 L 422.136719 313.863281 L 422.492188 313.839844 L 423.410156 313.800781 L 424.683594 313.761719 L 426.011719 313.730469 L 426.980469 313.710938 L 427.84375 313.699219 L 429.832031 313.671875 L 431.105469 313.660156 L 432.484375 313.648438 L 434.164062 313.636719 L 435.390625 313.628906 L 438.140625 313.617188 L 440.179688 313.613281 L 441.757812 313.609375 L 445.175781 313.609375 L 447.214844 313.613281 L 448.691406 313.617188 L 450.324219 313.621094 L 451.699219 313.628906 L 454.09375 313.644531 L 456.234375 313.664062 L 457.203125 313.675781 L 458.730469 313.695312 L 459.90625 313.71875 L 460.71875 313.734375 L 461.636719 313.761719 L 462.453125 313.792969 L 463.0625 313.828125 L 463.371094 313.855469 L 456.234375 313.855469 L 455.878906 313.828125 L 455.46875 313.808594 L 454.707031 313.78125 L 453.941406 313.757812 L 452.871094 313.738281 L 451.902344 313.726562 L 450.578125 313.710938 L 449.40625 313.703125 L 448.183594 313.699219 L 447.007812 313.695312 L 444.765625 313.691406 L 441.199219 313.691406 L 439.210938 313.695312 L 438.140625 313.703125 L 436.613281 313.710938 L 435.542969 313.71875 L 434.265625 313.734375 L 433.402344 313.746094 L 432.332031 313.765625 L 431.566406 313.78125 L 430.699219 313.804688 L 430.191406 313.820312 L 429.730469 313.839844 L 429.324219 313.863281 L 429.019531 313.886719 L 428.8125 313.914062 L 428.710938 313.9375 L 428.710938 314.046875 L 428.8125 314.070312 L 429.070312 314.101562 L 429.730469 314.140625 L 430.699219 314.179688 L 431.820312 314.207031 L 432.890625 314.230469 L 433.503906 314.238281 L 434.320312 314.25 L 435.59375 314.265625 L 437.425781 314.277344 L 438.496094 314.28125 L 440.128906 314.289062 L 441.8125 314.292969 L 444.054688 314.292969 L 446.042969 314.289062 L 447.367188 314.285156 L 448.742188 314.28125 L 450.628906 314.269531 L 451.800781 314.257812 L 452.820312 314.242188 L 453.585938 314.230469 L 454.09375 314.21875 L 454.859375 314.199219 L 455.46875 314.175781 L 455.929688 314.148438 L 456.234375 314.125 L 463.371094 314.125 L 463.0625 314.152344 L 462.605469 314.179688 L 462.148438 314.199219 L 461.433594 314.226562 L 460.617188 314.246094 L 459.445312 314.269531 L 458.476562 314.289062 L 457.203125 314.304688 L 456.03125 314.316406 L 454.757812 314.328125 L 452.871094 314.34375 L 451.648438 314.351562 L 450.324219 314.355469 L 448.742188 314.363281 L 446.753906 314.367188 L 444.613281 314.371094 L 440.484375 314.371094 L 438.90625 314.367188 L 436.816406 314.359375 L 434.214844 314.347656 L 432.332031 314.335938 L 430.851562 314.320312 L 429.578125 314.308594 L 428.152344 314.289062 L 426.316406 314.257812 L 425.195312 314.234375 L 424.429688 314.214844 L 423.5625 314.1875 L 422.953125 314.164062 L 422.238281 314.125 L 421.730469 314.074219 L 421.578125 314.039062 Z M 421.578125 313.941406 "/>
<path style=" stroke:none;fill-rule:nonzero;fill:rgb(96.862745%,70.196078%,16.862745%);fill-opacity:1;" d="M 421.578125 264.792969 L 421.628906 264.765625 L 421.628906 264.171875 L 421.832031 262.839844 L 422.339844 261.003906 L 423.003906 259.492188 L 423.71875 258.308594 L 424.175781 257.683594 L 424.941406 256.796875 L 425.601562 256.144531 L 427.285156 254.8125 L 429.425781 253.566406 L 430.597656 253.035156 L 431.921875 252.53125 L 433.808594 251.96875 L 434.675781 251.761719 L 437.324219 251.285156 L 440.332031 250.988281 L 443.644531 250.902344 L 445.175781 250.929688 L 447.265625 251.050781 L 450.117188 251.375 L 451.75 251.671875 L 453.023438 251.96875 L 454.347656 252.351562 L 455.980469 252.945312 L 457.507812 253.65625 L 458.730469 254.367188 L 459.957031 255.257812 L 460.976562 256.203125 L 461.839844 257.242188 L 462.605469 258.484375 L 463.0625 259.523438 L 463.371094 260.558594 L 456.285156 260.558594 L 455.878906 259.523438 L 455.417969 258.722656 L 454.65625 257.746094 L 453.890625 257.035156 L 453.125 256.46875 L 451.699219 255.699219 L 450.476562 255.226562 L 448.945312 254.8125 L 447.46875 254.542969 L 445.785156 254.367188 L 444.765625 254.308594 L 442.066406 254.308594 L 439.617188 254.515625 L 438.191406 254.753906 L 437.171875 254.988281 L 435.746094 255.433594 L 434.878906 255.789062 L 434.371094 256.027344 L 432.839844 256.945312 L 431.820312 257.773438 L 431.261719 258.335938 L 430.546875 259.226562 L 430.035156 260.023438 L 429.476562 261.210938 L 429.171875 262.097656 L 428.761719 264.113281 L 428.710938 269.445312 L 428.863281 270.570312 L 429.171875 271.785156 L 429.578125 272.851562 L 430.191406 273.976562 L 430.800781 274.835938 L 431.871094 275.992188 L 432.789062 276.761719 L 433.503906 277.265625 L 434.878906 278.066406 L 435.441406 278.332031 L 436.765625 278.867188 L 438.140625 279.28125 L 439.824219 279.636719 L 441.097656 279.8125 L 443.136719 279.960938 L 445.734375 279.960938 L 448.792969 279.785156 L 450.730469 279.546875 L 452.054688 279.308594 L 452.921875 279.101562 L 453.992188 278.777344 L 454.757812 278.480469 L 455.46875 278.15625 L 456.335938 277.652344 L 456.335938 270.570312 L 443.746094 270.542969 L 443.746094 267.222656 L 463.320312 267.195312 L 463.371094 278.777344 L 462.300781 279.578125 L 460.976562 280.347656 L 459.699219 280.941406 L 458.375 281.441406 L 456.488281 282.007812 L 454.960938 282.363281 L 452.617188 282.777344 L 450.476562 283.042969 L 448.234375 283.21875 L 446.246094 283.308594 L 443.898438 283.339844 L 441.8125 283.28125 L 439.566406 283.101562 L 437.785156 282.863281 L 436.152344 282.570312 L 434.523438 282.183594 L 432.484375 281.5625 L 431.160156 281.058594 L 429.78125 280.4375 L 428.40625 279.695312 L 427.183594 278.894531 L 426.367188 278.273438 L 425.550781 277.5625 L 424.683594 276.671875 L 423.871094 275.667969 L 423.257812 274.75 L 422.699219 273.710938 L 422.289062 272.734375 L 421.882812 271.402344 L 421.679688 270.335938 L 421.578125 269.414062 Z M 421.578125 264.792969 "/>
<path style=" stroke:none;fill-rule:nonzero;fill:rgb(83.921569%,15.686275%,22.352941%);fill-opacity:1;" d="M 421.578125 299.386719 L 463.371094 299.386719 L 463.371094 300.785156 L 445.953125 300.796875 L 445.953125 312.429688 L 438.945312 312.429688 L 438.945312 300.808594 L 438.84375 300.785156 L 421.578125 300.785156 Z M 421.578125 299.386719 "/>
<path style=" stroke:none;fill-rule:nonzero;fill:rgb(6.27451%,58.823529%,28.235294%);fill-opacity:1;" d="M 465.570312 308.128906 L 465.613281 308.125 L 483.699219 302.25 L 489.191406 302.25 L 507.363281 308.136719 L 500.976562 308.136719 L 496.425781 306.597656 L 476.464844 306.597656 L 472 308.128906 L 465.570312 308.128906 L 478.382812 305.960938 L 494.59375 305.957031 L 486.511719 303.210938 L 486.421875 303.203125 L 486.332031 303.222656 L 478.339844 305.957031 L 478.382812 305.960938 Z M 465.570312 308.128906 "/>
<path style=" stroke:none;fill-rule:nonzero;fill:rgb(14.509804%,36.078431%,60%);fill-opacity:1;" d="M 465.570312 297.625 L 465.621094 297.621094 L 465.621094 297.484375 L 465.773438 297.273438 L 466.128906 297.007812 L 466.488281 296.824219 L 467.40625 296.496094 L 468.679688 296.175781 L 470.003906 295.933594 L 470.972656 295.785156 L 471.839844 295.675781 L 473.828125 295.46875 L 475.101562 295.363281 L 476.476562 295.269531 L 478.160156 295.175781 L 479.382812 295.117188 L 482.132812 295.027344 L 484.171875 294.988281 L 485.753906 294.972656 L 489.167969 294.972656 L 491.207031 294.996094 L 492.683594 295.023438 L 494.316406 295.066406 L 495.691406 295.117188 L 498.085938 295.242188 L 500.226562 295.398438 L 501.195312 295.484375 L 502.726562 295.660156 L 503.898438 295.824219 L 504.714844 295.972656 L 505.628906 296.175781 L 506.445312 296.425781 L 507.058594 296.710938 L 507.363281 296.953125 L 500.226562 296.953125 L 499.871094 296.726562 L 499.464844 296.554688 L 498.699219 296.328125 L 497.933594 296.164062 L 496.863281 296.003906 L 495.894531 295.898438 L 494.570312 295.792969 L 493.398438 295.726562 L 492.175781 295.675781 L 491.003906 295.640625 L 488.761719 295.609375 L 486.160156 295.609375 L 485.191406 295.621094 L 483.203125 295.664062 L 482.132812 295.703125 L 480.605469 295.78125 L 479.535156 295.855469 L 478.261719 295.964844 L 477.394531 296.058594 L 476.324219 296.203125 L 475.558594 296.332031 L 474.691406 296.515625 L 474.183594 296.65625 L 473.726562 296.8125 L 473.316406 296.996094 L 473.011719 297.191406 L 472.808594 297.398438 L 472.707031 297.597656 L 472.707031 298.460938 L 472.808594 298.660156 L 473.0625 298.894531 L 473.726562 299.234375 L 474.691406 299.53125 L 475.8125 299.765625 L 476.882812 299.933594 L 477.496094 300.011719 L 478.3125 300.097656 L 479.585938 300.210938 L 481.421875 300.320312 L 482.492188 300.367188 L 484.121094 300.410156 L 485.804688 300.433594 L 488.046875 300.433594 L 490.035156 300.410156 L 491.359375 300.382812 L 492.734375 300.339844 L 494.621094 300.242188 L 495.792969 300.15625 L 496.8125 300.050781 L 497.578125 299.941406 L 498.085938 299.855469 L 498.851562 299.679688 L 499.464844 299.492188 L 499.921875 299.296875 L 500.226562 299.105469 L 507.363281 299.105469 L 507.058594 299.332031 L 506.597656 299.546875 L 506.140625 299.710938 L 505.425781 299.902344 L 504.609375 300.078125 L 503.4375 300.273438 L 502.46875 300.398438 L 501.195312 300.539062 L 500.023438 300.644531 L 498.75 300.738281 L 496.863281 300.851562 L 495.640625 300.90625 L 494.316406 300.957031 L 492.734375 301 L 490.746094 301.039062 L 488.605469 301.0625 L 486.621094 301.070312 L 484.480469 301.058594 L 482.898438 301.035156 L 480.808594 300.984375 L 478.210938 300.882812 L 476.324219 300.777344 L 474.847656 300.671875 L 473.570312 300.5625 L 472.144531 300.410156 L 470.308594 300.164062 L 469.1875 299.976562 L 468.425781 299.820312 L 467.558594 299.601562 L 466.945312 299.410156 L 466.230469 299.097656 L 465.722656 298.699219 L 465.570312 298.394531 Z M 465.570312 297.625 "/>
<path style=" stroke:none;fill-rule:nonzero;fill:rgb(96.862745%,70.196078%,16.862745%);fill-opacity:1;" d="M 465.570312 310.410156 L 465.621094 310.410156 L 465.621094 310.363281 L 465.824219 310.257812 L 466.335938 310.113281 L 466.996094 309.992188 L 467.710938 309.898438 L 468.167969 309.851562 L 468.933594 309.78125 L 469.597656 309.730469 L 471.277344 309.625 L 473.417969 309.523438 L 474.589844 309.484375 L 475.917969 309.445312 L 477.800781 309.398438 L 478.667969 309.382812 L 481.320312 309.34375 L 484.324219 309.320312 L 487.640625 309.316406 L 489.167969 309.316406 L 491.257812 309.328125 L 494.113281 309.351562 L 495.742188 309.375 L 497.015625 309.398438 L 498.34375 309.429688 L 499.972656 309.476562 L 501.503906 309.53125 L 502.726562 309.589844 L 503.949219 309.660156 L 504.96875 309.734375 L 505.835938 309.816406 L 506.597656 309.914062 L 507.058594 309.996094 L 507.363281 310.078125 L 500.277344 310.078125 L 499.871094 309.996094 L 499.414062 309.933594 L 498.648438 309.855469 L 497.882812 309.800781 L 497.117188 309.753906 L 495.691406 309.695312 L 494.46875 309.65625 L 492.941406 309.625 L 491.460938 309.601562 L 489.78125 309.589844 L 488.761719 309.582031 L 486.058594 309.582031 L 483.613281 309.601562 L 482.183594 309.617188 L 481.164062 309.636719 L 479.738281 309.671875 L 478.871094 309.699219 L 478.363281 309.71875 L 476.832031 309.792969 L 475.8125 309.859375 L 475.253906 309.902344 L 474.539062 309.972656 L 474.03125 310.035156 L 473.46875 310.128906 L 473.164062 310.199219 L 472.757812 310.359375 L 472.707031 310.78125 L 472.859375 310.867188 L 473.164062 310.964844 L 473.570312 311.046875 L 474.183594 311.136719 L 474.796875 311.207031 L 475.867188 311.296875 L 476.78125 311.355469 L 477.496094 311.398438 L 478.871094 311.460938 L 479.433594 311.480469 L 480.757812 311.523438 L 482.132812 311.554688 L 483.816406 311.585938 L 485.089844 311.597656 L 487.128906 311.609375 L 489.730469 311.609375 L 492.785156 311.597656 L 494.722656 311.578125 L 496.046875 311.558594 L 496.914062 311.542969 L 497.984375 311.515625 L 498.75 311.492188 L 499.464844 311.46875 L 500.328125 311.425781 L 500.328125 310.867188 L 487.742188 310.867188 L 487.742188 310.605469 L 507.3125 310.601562 L 507.363281 311.515625 L 506.292969 311.578125 L 504.96875 311.640625 L 503.695312 311.6875 L 502.367188 311.726562 L 500.484375 311.769531 L 498.953125 311.800781 L 496.609375 311.832031 L 494.46875 311.851562 L 492.226562 311.867188 L 490.238281 311.875 L 487.894531 311.875 L 485.804688 311.871094 L 483.5625 311.859375 L 481.777344 311.839844 L 480.148438 311.816406 L 478.515625 311.785156 L 476.476562 311.734375 L 475.152344 311.695312 L 473.777344 311.648438 L 472.398438 311.589844 L 471.175781 311.527344 L 470.359375 311.476562 L 469.546875 311.421875 L 468.679688 311.351562 L 467.863281 311.269531 L 467.25 311.199219 L 466.691406 311.117188 L 466.285156 311.039062 L 465.875 310.933594 L 465.671875 310.847656 L 465.570312 310.777344 Z M 465.570312 310.410156 "/>
<path style=" stroke:none;fill-rule:nonzero;fill:rgb(83.921569%,15.686275%,22.352941%);fill-opacity:1;" d="M 465.570312 313.054688 L 507.363281 313.054688 L 507.363281 313.195312 L 489.945312 313.199219 L 489.945312 314.371094 L 482.9375 314.371094 L 482.9375 313.199219 L 482.835938 313.195312 L 465.570312 313.195312 Z M 465.570312 313.054688 "/>
<path style=" stroke:none;fill-rule:nonzero;fill:rgb(6.27451%,58.823529%,28.235294%);fill-opacity:1;" d="M 509.5625 310.011719 L 509.609375 310.007812 L 527.691406 308.03125 L 533.183594 308.03125 L 551.355469 310.011719 L 544.972656 310.011719 L 540.417969 309.496094 L 520.457031 309.496094 L 515.992188 310.011719 L 509.5625 310.011719 L 522.378906 309.28125 L 538.585938 309.28125 L 530.503906 308.355469 L 530.414062 308.351562 L 530.324219 308.359375 L 522.332031 309.28125 L 522.378906 309.28125 Z M 509.5625 310.011719 "/>
<path style=" stroke:none;fill-rule:nonzero;fill:rgb(14.509804%,36.078431%,60%);fill-opacity:1;" d="M 509.5625 314.238281 L 509.613281 314.238281 L 509.613281 314.230469 L 509.765625 314.222656 L 510.125 314.210938 L 510.480469 314.207031 L 511.398438 314.191406 L 512.671875 314.179688 L 513.996094 314.171875 L 514.964844 314.164062 L 515.832031 314.160156 L 517.820312 314.152344 L 519.09375 314.148438 L 520.46875 314.144531 L 522.152344 314.140625 L 523.375 314.140625 L 526.128906 314.136719 L 528.167969 314.132812 L 535.199219 314.132812 L 536.679688 314.136719 L 538.308594 314.136719 L 539.683594 314.140625 L 542.082031 314.144531 L 544.222656 314.148438 L 545.191406 314.152344 L 546.71875 314.160156 L 547.890625 314.167969 L 548.707031 314.171875 L 549.625 314.179688 L 550.441406 314.191406 L 551.050781 314.203125 L 551.355469 314.210938 L 544.222656 314.210938 L 543.863281 314.203125 L 543.457031 314.195312 L 542.691406 314.1875 L 541.929688 314.179688 L 540.859375 314.171875 L 539.890625 314.167969 L 538.5625 314.164062 L 537.390625 314.164062 L 536.167969 314.160156 L 526.128906 314.160156 L 524.597656 314.164062 L 523.527344 314.167969 L 522.253906 314.171875 L 521.386719 314.175781 L 520.316406 314.179688 L 519.554688 314.1875 L 518.6875 314.195312 L 518.175781 314.199219 L 517.71875 314.207031 L 517.308594 314.210938 L 517.003906 314.21875 L 516.800781 314.226562 L 516.699219 314.234375 L 516.699219 314.269531 L 516.800781 314.277344 L 517.054688 314.285156 L 517.71875 314.300781 L 518.6875 314.3125 L 519.808594 314.320312 L 520.878906 314.328125 L 521.488281 314.328125 L 522.304688 314.332031 L 523.578125 314.335938 L 525.414062 314.339844 L 526.484375 314.34375 L 528.117188 314.34375 L 529.796875 314.347656 L 532.039062 314.347656 L 534.027344 314.34375 L 536.730469 314.34375 L 538.613281 314.339844 L 539.789062 314.335938 L 540.804688 314.332031 L 541.570312 314.328125 L 542.082031 314.324219 L 542.84375 314.316406 L 543.457031 314.308594 L 543.914062 314.300781 L 544.222656 314.292969 L 551.355469 314.292969 L 551.050781 314.304688 L 550.59375 314.3125 L 550.132812 314.316406 L 549.421875 314.324219 L 548.605469 314.332031 L 547.433594 314.339844 L 546.464844 314.34375 L 545.191406 314.351562 L 544.015625 314.355469 L 542.742188 314.359375 L 540.859375 314.363281 L 539.632812 314.363281 L 538.308594 314.367188 L 536.730469 314.367188 L 534.742188 314.371094 L 526.890625 314.371094 L 524.800781 314.367188 L 522.203125 314.363281 L 520.316406 314.359375 L 518.839844 314.355469 L 517.566406 314.351562 L 516.136719 314.34375 L 514.304688 314.335938 L 513.183594 314.328125 L 512.417969 314.320312 L 511.550781 314.3125 L 510.9375 314.304688 L 510.226562 314.292969 L 509.714844 314.277344 L 509.5625 314.265625 Z M 509.5625 314.238281 "/>
<path style=" stroke:none;fill-rule:nonzero;fill:rgb(96.862745%,70.196078%,16.862745%);fill-opacity:1;" d="M 509.5625 311.945312 L 509.613281 311.945312 L 509.613281 311.914062 L 509.816406 311.839844 L 510.328125 311.742188 L 510.992188 311.660156 L 511.703125 311.59375 L 512.164062 311.558594 L 512.925781 311.511719 L 513.589844 311.476562 L 515.273438 311.402344 L 517.414062 311.335938 L 518.585938 311.308594 L 519.910156 311.28125 L 521.796875 311.25 L 522.660156 311.238281 L 525.3125 311.210938 L 528.320312 311.195312 L 531.632812 311.191406 L 533.160156 311.191406 L 535.25 311.199219 L 538.105469 311.21875 L 539.734375 311.234375 L 541.011719 311.25 L 542.335938 311.269531 L 543.964844 311.300781 L 545.496094 311.339844 L 546.71875 311.378906 L 547.941406 311.429688 L 548.960938 311.480469 L 549.828125 311.535156 L 550.59375 311.605469 L 551.050781 311.660156 L 551.355469 311.714844 L 544.273438 311.714844 L 543.863281 311.660156 L 543.40625 311.617188 L 542.640625 311.5625 L 541.875 311.523438 L 541.113281 311.496094 L 539.683594 311.453125 L 538.460938 311.425781 L 536.933594 311.402344 L 535.453125 311.390625 L 533.773438 311.378906 L 532.753906 311.375 L 530.050781 311.375 L 527.605469 311.386719 L 526.179688 311.402344 L 525.160156 311.414062 L 523.730469 311.4375 L 522.867188 311.457031 L 522.355469 311.46875 L 520.828125 311.519531 L 519.808594 311.566406 L 519.246094 311.59375 L 518.535156 311.644531 L 518.023438 311.6875 L 517.464844 311.75 L 517.15625 311.800781 L 516.75 311.910156 L 516.699219 312.199219 L 516.851562 312.261719 L 517.15625 312.328125 L 517.566406 312.382812 L 518.175781 312.445312 L 518.789062 312.492188 L 519.859375 312.554688 L 520.777344 312.597656 L 521.488281 312.625 L 522.867188 312.667969 L 523.425781 312.683594 L 524.75 312.710938 L 526.128906 312.734375 L 527.808594 312.753906 L 529.082031 312.761719 L 531.121094 312.769531 L 533.722656 312.769531 L 536.78125 312.761719 L 538.71875 312.75 L 540.042969 312.734375 L 540.910156 312.722656 L 541.980469 312.707031 L 542.742188 312.691406 L 543.457031 312.671875 L 544.324219 312.644531 L 544.324219 312.261719 L 531.734375 312.257812 L 531.734375 312.078125 L 551.304688 312.078125 L 551.355469 312.707031 L 550.285156 312.75 L 548.960938 312.792969 L 547.6875 312.824219 L 546.363281 312.851562 L 544.476562 312.882812 L 542.945312 312.902344 L 540.601562 312.921875 L 538.460938 312.9375 L 536.21875 312.949219 L 534.230469 312.953125 L 531.886719 312.953125 L 529.796875 312.949219 L 527.554688 312.941406 L 525.769531 312.929688 L 524.140625 312.914062 L 522.507812 312.890625 L 520.46875 312.859375 L 519.144531 312.832031 L 517.769531 312.796875 L 516.394531 312.757812 L 515.167969 312.710938 L 514.355469 312.679688 L 513.539062 312.640625 L 512.671875 312.59375 L 511.855469 312.539062 L 511.246094 312.488281 L 510.683594 312.429688 L 510.277344 312.378906 L 509.867188 312.304688 L 509.664062 312.246094 L 509.5625 312.199219 Z M 509.5625 311.945312 "/>
<path style=" stroke:none;fill-rule:nonzero;fill:rgb(83.921569%,15.686275%,22.352941%);fill-opacity:1;" d="M 509.5625 304.652344 L 551.355469 304.652344 L 551.355469 304.890625 L 533.9375 304.890625 L 533.9375 306.851562 L 526.929688 306.851562 L 526.929688 304.894531 L 526.828125 304.890625 L 509.5625 304.890625 Z M 509.5625 304.652344 "/>
<path style=" stroke:none;fill-rule:nonzero;fill:rgb(6.27451%,58.823529%,28.235294%);fill-opacity:1;" d="M 553.554688 288.070312 L 553.601562 288.039062 L 571.683594 254.457031 L 577.175781 254.457031 L 595.351562 288.101562 L 588.964844 288.101562 L 584.410156 279.320312 L 564.453125 279.320312 L 559.988281 288.070312 L 553.554688 288.070312 L 566.371094 275.6875 L 582.578125 275.652344 L 574.5 259.953125 L 574.410156 259.921875 L 574.320312 260.015625 L 566.328125 275.652344 L 566.371094 275.6875 Z M 553.554688 288.070312 "/>
<path style=" stroke:none;fill-rule:nonzero;fill:rgb(14.509804%,36.078431%,60%);fill-opacity:1;" d="M 553.554688 312.277344 L 553.609375 312.273438 L 553.609375 312.191406 L 553.761719 312.0625 L 554.117188 311.898438 L 554.472656 311.789062 L 555.390625 311.589844 L 556.664062 311.394531 L 557.992188 311.246094 L 558.960938 311.15625 L 559.824219 311.089844 L 561.8125 310.964844 L 563.085938 310.898438 L 564.464844 310.84375 L 566.144531 310.785156 L 567.367188 310.75 L 570.121094 310.695312 L 572.160156 310.671875 L 573.738281 310.664062 L 577.15625 310.664062 L 579.195312 310.675781 L 580.671875 310.691406 L 582.300781 310.71875 L 583.679688 310.75 L 586.074219 310.824219 L 588.214844 310.921875 L 589.183594 310.972656 L 590.710938 311.078125 L 591.882812 311.179688 L 592.699219 311.269531 L 593.617188 311.394531 L 594.433594 311.546875 L 595.042969 311.71875 L 595.351562 311.867188 L 588.214844 311.867188 L 587.859375 311.730469 L 587.449219 311.625 L 586.6875 311.488281 L 585.921875 311.386719 L 584.851562 311.289062 L 583.882812 311.226562 L 582.558594 311.160156 L 581.386719 311.121094 L 580.160156 311.089844 L 578.988281 311.070312 L 576.746094 311.050781 L 574.148438 311.050781 L 573.179688 311.054688 L 571.191406 311.082031 L 570.121094 311.105469 L 568.59375 311.152344 L 567.523438 311.199219 L 566.246094 311.265625 L 565.382812 311.324219 L 564.3125 311.410156 L 563.546875 311.488281 L 562.679688 311.601562 L 562.171875 311.6875 L 561.710938 311.78125 L 561.304688 311.894531 L 560.996094 312.011719 L 560.792969 312.136719 L 560.691406 312.257812 L 560.691406 312.785156 L 560.792969 312.90625 L 561.050781 313.046875 L 561.710938 313.253906 L 562.679688 313.433594 L 563.800781 313.578125 L 564.871094 313.679688 L 565.484375 313.726562 L 566.296875 313.78125 L 567.574219 313.847656 L 569.40625 313.917969 L 570.476562 313.945312 L 572.109375 313.972656 L 573.789062 313.984375 L 576.035156 313.984375 L 578.019531 313.972656 L 579.347656 313.953125 L 580.722656 313.925781 L 582.609375 313.867188 L 583.78125 313.816406 L 584.800781 313.75 L 585.5625 313.6875 L 586.074219 313.632812 L 586.839844 313.527344 L 587.449219 313.410156 L 587.910156 313.292969 L 588.214844 313.175781 L 595.351562 313.175781 L 595.042969 313.3125 L 594.585938 313.445312 L 594.128906 313.542969 L 593.414062 313.664062 L 592.597656 313.765625 L 591.425781 313.886719 L 590.457031 313.964844 L 589.183594 314.046875 L 588.011719 314.113281 L 586.738281 314.171875 L 584.851562 314.238281 L 583.628906 314.273438 L 582.300781 314.304688 L 580.722656 314.328125 L 578.734375 314.355469 L 576.59375 314.367188 L 574.605469 314.371094 L 572.464844 314.363281 L 570.886719 314.351562 L 568.796875 314.320312 L 566.195312 314.257812 L 564.3125 314.195312 L 562.832031 314.128906 L 561.558594 314.0625 L 560.132812 313.972656 L 558.296875 313.820312 L 557.175781 313.707031 L 556.410156 313.613281 L 555.542969 313.480469 L 554.933594 313.359375 L 554.21875 313.171875 L 553.710938 312.929688 L 553.554688 312.742188 Z M 553.554688 312.277344 "/>
<path style=" stroke:none;fill-rule:nonzero;fill:rgb(96.862745%,70.196078%,16.862745%);fill-opacity:1;" d="M 553.554688 293.746094 L 553.609375 293.738281 L 553.609375 293.546875 L 553.8125 293.117188 L 554.320312 292.527344 L 554.984375 292.042969 L 555.695312 291.660156 L 556.15625 291.460938 L 556.921875 291.175781 L 557.582031 290.964844 L 559.265625 290.539062 L 561.40625 290.136719 L 562.578125 289.964844 L 563.902344 289.804688 L 565.789062 289.621094 L 566.65625 289.554688 L 569.304688 289.402344 L 572.3125 289.308594 L 575.625 289.28125 L 577.15625 289.289062 L 579.246094 289.328125 L 582.097656 289.433594 L 583.730469 289.527344 L 585.003906 289.621094 L 586.328125 289.746094 L 587.960938 289.9375 L 589.488281 290.164062 L 590.710938 290.394531 L 591.933594 290.679688 L 592.953125 290.984375 L 593.820312 291.316406 L 594.585938 291.71875 L 595.042969 292.050781 L 595.351562 292.382812 L 588.265625 292.382812 L 587.859375 292.050781 L 587.398438 291.792969 L 586.632812 291.480469 L 585.871094 291.25 L 585.105469 291.070312 L 583.679688 290.824219 L 582.457031 290.671875 L 580.925781 290.539062 L 579.449219 290.453125 L 577.765625 290.394531 L 576.746094 290.375 L 574.046875 290.375 L 571.597656 290.441406 L 570.171875 290.519531 L 569.152344 290.59375 L 567.726562 290.738281 L 566.859375 290.851562 L 566.347656 290.925781 L 564.820312 291.222656 L 563.800781 291.488281 L 563.242188 291.671875 L 562.527344 291.957031 L 562.015625 292.214844 L 561.457031 292.59375 L 561.152344 292.878906 L 560.742188 293.527344 L 560.691406 295.242188 L 560.84375 295.605469 L 561.152344 295.992188 L 561.558594 296.335938 L 562.171875 296.699219 L 562.78125 296.976562 L 563.851562 297.347656 L 564.769531 297.59375 L 565.484375 297.757812 L 566.859375 298.011719 L 567.417969 298.097656 L 568.746094 298.269531 L 570.121094 298.402344 L 571.804688 298.519531 L 573.078125 298.574219 L 575.117188 298.621094 L 577.714844 298.621094 L 580.773438 298.566406 L 582.710938 298.488281 L 584.035156 298.414062 L 584.902344 298.347656 L 585.972656 298.242188 L 586.738281 298.144531 L 587.449219 298.042969 L 588.316406 297.878906 L 588.316406 295.605469 L 575.726562 295.59375 L 575.726562 294.527344 L 595.300781 294.519531 L 595.351562 298.242188 L 594.28125 298.5 L 592.953125 298.746094 L 591.679688 298.9375 L 590.355469 299.097656 L 588.46875 299.28125 L 586.941406 299.394531 L 584.597656 299.527344 L 582.457031 299.613281 L 580.210938 299.671875 L 578.226562 299.699219 L 575.878906 299.707031 L 573.789062 299.6875 L 571.546875 299.632812 L 569.765625 299.554688 L 568.132812 299.460938 L 566.503906 299.335938 L 564.464844 299.136719 L 563.136719 298.976562 L 561.761719 298.773438 L 560.386719 298.535156 L 559.164062 298.28125 L 558.347656 298.078125 L 557.53125 297.851562 L 556.664062 297.566406 L 555.851562 297.242188 L 555.238281 296.945312 L 554.679688 296.613281 L 554.269531 296.300781 L 553.863281 295.871094 L 553.660156 295.527344 L 553.554688 295.230469 Z M 553.554688 293.746094 "/>
<path style=" stroke:none;fill-rule:nonzero;fill:rgb(83.921569%,15.686275%,22.352941%);fill-opacity:1;" d="M 553.554688 300.886719 L 595.351562 300.886719 L 595.351562 301.808594 L 577.933594 301.816406 L 577.933594 309.484375 L 570.925781 309.484375 L 570.925781 301.824219 L 570.824219 301.808594 L 553.554688 301.808594 Z M 553.554688 300.886719 "/>
<path style=" stroke:none;fill-rule:nonzero;fill:rgb(6.27451%,58.823529%,28.235294%);fill-opacity:1;" d="M 641.542969 308.097656 L 641.589844 308.097656 L 659.671875 306 L 665.164062 306 L 683.335938 308.101562 L 676.953125 308.101562 L 672.398438 307.550781 L 652.4375 307.550781 L 647.972656 308.097656 L 641.542969 308.097656 L 654.359375 307.324219 L 670.566406 307.324219 L 662.484375 306.34375 L 662.394531 306.34375 L 662.304688 306.347656 L 654.3125 307.324219 L 654.359375 307.324219 Z M 641.542969 308.097656 "/>
<path style=" stroke:none;fill-rule:nonzero;fill:rgb(14.509804%,36.078431%,60%);fill-opacity:1;" d="M 641.542969 312.335938 L 641.59375 312.335938 L 641.59375 312.3125 L 641.746094 312.277344 L 642.105469 312.230469 L 642.460938 312.199219 L 643.378906 312.144531 L 644.652344 312.089844 L 645.976562 312.046875 L 646.945312 312.023438 L 647.8125 312.003906 L 649.800781 311.96875 L 651.074219 311.953125 L 652.449219 311.933594 L 654.132812 311.917969 L 655.355469 311.910156 L 658.109375 311.894531 L 660.148438 311.886719 L 661.726562 311.882812 L 665.140625 311.882812 L 667.179688 311.886719 L 668.660156 311.894531 L 670.289062 311.902344 L 671.664062 311.910156 L 674.0625 311.929688 L 676.203125 311.957031 L 677.167969 311.972656 L 678.699219 312 L 679.871094 312.03125 L 680.6875 312.054688 L 681.605469 312.089844 L 682.417969 312.132812 L 683.03125 312.179688 L 683.335938 312.222656 L 676.203125 312.222656 L 675.84375 312.183594 L 675.4375 312.15625 L 674.671875 312.117188 L 673.90625 312.089844 L 672.835938 312.058594 L 671.871094 312.042969 L 670.542969 312.023438 L 669.371094 312.011719 L 668.148438 312.003906 L 666.976562 312 L 664.734375 311.992188 L 662.132812 311.992188 L 661.164062 311.996094 L 659.179688 312.003906 L 658.109375 312.007812 L 656.578125 312.023438 L 655.507812 312.035156 L 654.234375 312.054688 L 653.367188 312.070312 L 652.296875 312.09375 L 651.53125 312.117188 L 650.667969 312.148438 L 650.15625 312.171875 L 649.699219 312.199219 L 649.289062 312.230469 L 648.984375 312.261719 L 648.78125 312.296875 L 648.679688 312.332031 L 648.679688 312.480469 L 648.78125 312.511719 L 649.035156 312.554688 L 649.699219 312.609375 L 650.667969 312.660156 L 651.789062 312.703125 L 652.859375 312.730469 L 653.46875 312.742188 L 654.285156 312.757812 L 655.558594 312.777344 L 657.394531 312.796875 L 658.464844 312.804688 L 660.09375 312.8125 L 661.777344 312.816406 L 664.019531 312.816406 L 666.007812 312.8125 L 667.332031 312.808594 L 668.710938 312.800781 L 670.59375 312.78125 L 671.765625 312.769531 L 672.785156 312.75 L 673.550781 312.730469 L 674.0625 312.714844 L 674.824219 312.6875 L 675.4375 312.65625 L 675.894531 312.621094 L 676.203125 312.589844 L 683.335938 312.589844 L 683.03125 312.628906 L 682.574219 312.664062 L 682.113281 312.691406 L 681.398438 312.726562 L 680.585938 312.753906 L 679.414062 312.789062 L 678.445312 312.808594 L 677.167969 312.832031 L 675.996094 312.851562 L 674.722656 312.867188 L 672.835938 312.886719 L 671.613281 312.894531 L 670.289062 312.90625 L 668.710938 312.914062 L 666.722656 312.917969 L 664.582031 312.921875 L 660.453125 312.921875 L 658.871094 312.917969 L 656.78125 312.910156 L 654.183594 312.890625 L 652.296875 312.875 L 650.820312 312.855469 L 649.546875 312.835938 L 648.117188 312.8125 L 646.285156 312.769531 L 645.160156 312.738281 L 644.398438 312.710938 L 643.53125 312.675781 L 642.917969 312.640625 L 642.207031 312.585938 L 641.695312 312.519531 L 641.542969 312.46875 Z M 641.542969 312.335938 "/>
<path style=" stroke:none;fill-rule:nonzero;fill:rgb(96.862745%,70.196078%,16.862745%);fill-opacity:1;" d="M 641.542969 314.21875 L 641.59375 314.21875 L 641.59375 314.210938 L 641.796875 314.203125 L 642.308594 314.1875 L 642.96875 314.175781 L 643.683594 314.164062 L 644.144531 314.160156 L 644.90625 314.152344 L 645.570312 314.148438 L 647.25 314.136719 L 649.390625 314.125 L 650.566406 314.121094 L 651.890625 314.117188 L 653.777344 314.113281 L 654.640625 314.109375 L 657.292969 314.105469 L 660.300781 314.105469 L 663.613281 314.101562 L 665.140625 314.105469 L 670.085938 314.105469 L 671.714844 314.109375 L 672.992188 314.113281 L 674.316406 314.117188 L 675.945312 314.121094 L 677.476562 314.125 L 679.921875 314.140625 L 680.941406 314.148438 L 681.808594 314.15625 L 682.574219 314.164062 L 683.335938 314.183594 L 676.253906 314.183594 L 675.84375 314.175781 L 675.386719 314.167969 L 673.855469 314.152344 L 673.09375 314.148438 L 671.664062 314.144531 L 670.441406 314.140625 L 668.914062 314.136719 L 667.433594 314.132812 L 659.585938 314.132812 L 658.160156 314.136719 L 657.140625 314.136719 L 655.710938 314.140625 L 654.847656 314.144531 L 654.335938 314.144531 L 652.808594 314.152344 L 651.789062 314.160156 L 651.226562 314.164062 L 650.515625 314.171875 L 650.003906 314.179688 L 649.441406 314.1875 L 649.136719 314.195312 L 648.730469 314.210938 L 648.679688 314.257812 L 648.832031 314.265625 L 649.136719 314.277344 L 649.546875 314.285156 L 650.15625 314.292969 L 650.769531 314.300781 L 651.839844 314.308594 L 652.757812 314.316406 L 653.46875 314.320312 L 654.847656 314.328125 L 655.40625 314.328125 L 656.730469 314.332031 L 658.109375 314.335938 L 659.789062 314.339844 L 661.0625 314.339844 L 663.101562 314.34375 L 665.703125 314.34375 L 668.761719 314.339844 L 670.695312 314.339844 L 672.023438 314.335938 L 672.886719 314.335938 L 673.957031 314.332031 L 674.722656 314.332031 L 675.4375 314.328125 L 676.304688 314.324219 L 676.304688 314.265625 L 663.714844 314.265625 L 663.714844 314.238281 L 683.285156 314.238281 L 683.335938 314.332031 L 682.265625 314.339844 L 680.941406 314.347656 L 679.667969 314.351562 L 678.34375 314.355469 L 676.457031 314.359375 L 674.925781 314.363281 L 672.582031 314.367188 L 670.441406 314.367188 L 668.199219 314.371094 L 661.777344 314.371094 L 659.535156 314.367188 L 657.75 314.367188 L 656.121094 314.363281 L 654.488281 314.359375 L 652.449219 314.355469 L 651.125 314.351562 L 649.75 314.347656 L 648.371094 314.339844 L 647.148438 314.335938 L 646.335938 314.328125 L 645.519531 314.324219 L 644.652344 314.316406 L 643.835938 314.308594 L 643.226562 314.300781 L 642.664062 314.292969 L 642.257812 314.285156 L 641.847656 314.273438 L 641.644531 314.261719 L 641.542969 314.257812 Z M 641.542969 314.21875 "/>
<path style=" stroke:none;fill-rule:nonzero;fill:rgb(83.921569%,15.686275%,22.352941%);fill-opacity:1;" d="M 641.542969 309.28125 L 683.335938 309.28125 L 683.335938 309.433594 L 665.917969 309.433594 L 665.917969 310.707031 L 658.910156 310.707031 L 658.910156 309.433594 L 641.542969 309.433594 Z M 641.542969 309.28125 "/>
<g style="fill:rgb(0%,0%,0%);fill-opacity:1;">
  <use xlink:href="#glyph0-1" x="21.957031" y="318.198242"/>
  <use xlink:href="#glyph0-2" x="27.291016" y="318.198242"/>
  <use xlink:href="#glyph0-1" x="29.958008" y="318.198242"/>
</g>
<g style="fill:rgb(0%,0%,0%);fill-opacity:1;">
  <use xlink:href="#glyph0-1" x="21.957031" y="235.19043"/>
  <use xlink:href="#glyph0-2" x="27.291016" y="235.19043"/>
  <use xlink:href="#glyph0-3" x="29.958008" y="235.19043"/>
</g>
<g style="fill:rgb(0%,0%,0%);fill-opacity:1;">
  <use xlink:href="#glyph0-4" x="21.957031" y="152.182617"/>
  <use xlink:href="#glyph0-2" x="27.291016" y="152.182617"/>
  <use xlink:href="#glyph0-1" x="29.958008" y="152.182617"/>
</g>
<g style="fill:rgb(0%,0%,0%);fill-opacity:1;">
  <use xlink:href="#glyph0-4" x="21.957031" y="69.174805"/>
  <use xlink:href="#glyph0-2" x="27.291016" y="69.174805"/>
  <use xlink:href="#glyph0-3" x="29.958008" y="69.174805"/>
</g>
<g style="fill:rgb(0%,0%,0%);fill-opacity:1;">
  <use xlink:href="#glyph0-4" x="87.527344" y="338.19043"/>
</g>
<g style="fill:rgb(0%,0%,0%);fill-opacity:1;">
  <use xlink:href="#glyph0-5" x="131.519531" y="338.19043"/>
</g>
<g style="fill:rgb(0%,0%,0%);fill-opacity:1;">
  <use xlink:href="#glyph0-6" x="175.511719" y="338.19043"/>
</g>
<g style="fill:rgb(0%,0%,0%);fill-opacity:1;">
  <use xlink:href="#glyph0-7" x="219.507812" y="338.19043"/>
</g>
<g style="fill:rgb(0%,0%,0%);fill-opacity:1;">
  <use xlink:href="#glyph0-3" x="263.5" y="338.19043"/>
</g>
<g style="fill:rgb(0%,0%,0%);fill-opacity:1;">
  <use xlink:href="#glyph0-8" x="307.492188" y="338.19043"/>
</g>
<g style="fill:rgb(0%,0%,0%);fill-opacity:1;">
  <use xlink:href="#glyph0-9" x="351.488281" y="338.19043"/>
</g>
<g style="fill:rgb(0%,0%,0%);fill-opacity:1;">
  <use xlink:href="#glyph0-10" x="395.480469" y="338.19043"/>
</g>
<g style="fill:rgb(0%,0%,0%);fill-opacity:1;">
  <use xlink:href="#glyph0-11" x="439.472656" y="338.19043"/>
</g>
<g style="fill:rgb(0%,0%,0%);fill-opacity:1;">
  <use xlink:href="#glyph0-4" x="480.964844" y="338.19043"/>
  <use xlink:href="#glyph0-1" x="486.298828" y="338.19043"/>
</g>
<g style="fill:rgb(0%,0%,0%);fill-opacity:1;">
  <use xlink:href="#glyph0-4" x="524.960938" y="338.19043"/>
  <use xlink:href="#glyph0-4" x="530.294922" y="338.19043"/>
</g>
<g style="fill:rgb(0%,0%,0%);fill-opacity:1;">
  <use xlink:href="#glyph0-4" x="568.953125" y="338.19043"/>
  <use xlink:href="#glyph0-5" x="574.287109" y="338.19043"/>
</g>
<g style="fill:rgb(0%,0%,0%);fill-opacity:1;">
  <use xlink:href="#glyph0-4" x="612.945312" y="338.19043"/>
  <use xlink:href="#glyph0-6" x="618.279297" y="338.19043"/>
</g>
<g style="fill:rgb(0%,0%,0%);fill-opacity:1;">
  <use xlink:href="#glyph0-4" x="656.941406" y="338.19043"/>
  <use xlink:href="#glyph0-7" x="662.275391" y="338.19043"/>
</g>
<g style="fill:rgb(0%,0%,0%);fill-opacity:1;">
  <use xlink:href="#glyph1-1" x="14.412109" y="178.015625"/>
  <use xlink:href="#glyph1-2" x="14.412109" y="170.011719"/>
  <use xlink:href="#glyph1-3" x="14.412109" y="167.347656"/>
  <use xlink:href="#glyph1-4" x="14.412109" y="164.011719"/>
</g>
</g>
</svg>
