<?xml version="1.0" encoding="UTF-8"?>
<svg xmlns="http://www.w3.org/2000/svg" xmlns:xlink="http://www.w3.org/1999/xlink" width="720pt" height="360pt" viewBox="0 0 720 360" version="1.1">
<defs>
<g>
<symbol overflow="visible" id="glyph0-0">
<path style="stroke:none;" d=""/>
</symbol>
<symbol overflow="visible" id="glyph0-1">
<path style="stroke:none;" d="M 2.640625 -6.796875 C 2 -6.796875 1.421875 -6.53125 1.078125 -6.046875 C 0.640625 -5.453125 0.40625 -4.546875 0.40625 -3.296875 C 0.40625 -1 1.1875 0.21875 2.640625 0.21875 C 4.078125 0.21875 4.859375 -1 4.859375 -3.234375 C 4.859375 -4.5625 4.65625 -5.4375 4.203125 -6.046875 C 3.84375 -6.53125 3.28125 -6.796875 2.640625 -6.796875 Z M 2.640625 -6.046875 C 3.546875 -6.046875 4 -5.125 4 -3.3125 C 4 -1.375 3.5625 -0.484375 2.625 -0.484375 C 1.734375 -0.484375 1.28125 -1.421875 1.28125 -3.28125 C 1.28125 -5.140625 1.734375 -6.046875 2.640625 -6.046875 Z M 2.640625 -6.046875 "/>
</symbol>
<symbol overflow="visible" id="glyph0-2">
<path style="stroke:none;" d="M 1.828125 -1 L 0.828125 -1 L 0.828125 0 L 1.828125 0 Z M 1.828125 -1 "/>
</symbol>
<symbol overflow="visible" id="glyph0-3">
<path style="stroke:none;" d="M 4.5625 -6.796875 L 1.0625 -6.796875 L 0.546875 -3.09375 L 1.328125 -3.09375 C 1.71875 -3.5625 2.046875 -3.734375 2.578125 -3.734375 C 3.484375 -3.734375 4.0625 -3.109375 4.0625 -2.09375 C 4.0625 -1.125 3.484375 -0.53125 2.578125 -0.53125 C 1.828125 -0.53125 1.375 -0.90625 1.1875 -1.671875 L 0.328125 -1.671875 C 0.453125 -1.109375 0.546875 -0.84375 0.75 -0.59375 C 1.125 -0.078125 1.828125 0.21875 2.59375 0.21875 C 3.96875 0.21875 4.921875 -0.78125 4.921875 -2.21875 C 4.921875 -3.5625 4.03125 -4.484375 2.71875 -4.484375 C 2.25 -4.484375 1.859375 -4.359375 1.46875 -4.0625 L 1.734375 -5.96875 L 4.5625 -5.96875 Z M 4.5625 -6.796875 "/>
</symbol>
<symbol overflow="visible" id="glyph0-4">
<path style="stroke:none;" d="M 2.484375 -4.84375 L 2.484375 0 L 3.328125 0 L 3.328125 -6.796875 L 2.765625 -6.796875 C 2.46875 -5.75 2.28125 -5.609375 0.984375 -5.453125 L 0.984375 -4.84375 Z M 2.484375 -4.84375 "/>
</symbol>
<symbol overflow="visible" id="glyph0-5">
<path style="stroke:none;" d="M 4.859375 -0.828125 L 1.28125 -0.828125 C 1.359375 -1.390625 1.671875 -1.75 2.5 -2.234375 L 3.46875 -2.75 C 4.40625 -3.265625 4.90625 -3.96875 4.90625 -4.8125 C 4.90625 -5.375 4.671875 -5.90625 4.265625 -6.265625 C 3.859375 -6.625 3.375 -6.796875 2.71875 -6.796875 C 1.859375 -6.796875 1.21875 -6.5 0.84375 -5.921875 C 0.609375 -5.5625 0.5 -5.125 0.484375 -4.4375 L 1.328125 -4.4375 C 1.359375 -4.90625 1.40625 -5.1875 1.53125 -5.40625 C 1.75 -5.8125 2.1875 -6.0625 2.703125 -6.0625 C 3.46875 -6.0625 4.03125 -5.515625 4.03125 -4.78125 C 4.03125 -4.25 3.71875 -3.796875 3.125 -3.4375 L 2.234375 -2.9375 C 0.8125 -2.140625 0.40625 -1.5 0.328125 0 L 4.859375 0 Z M 4.859375 -0.828125 "/>
</symbol>
<symbol overflow="visible" id="glyph0-6">
<path style="stroke:none;" d="M 2.125 -3.125 L 2.578125 -3.125 C 3.515625 -3.125 3.984375 -2.703125 3.984375 -1.890625 C 3.984375 -1.03125 3.46875 -0.53125 2.578125 -0.53125 C 1.65625 -0.53125 1.203125 -0.984375 1.15625 -1.96875 L 0.3125 -1.96875 C 0.34375 -1.421875 0.4375 -1.078125 0.609375 -0.765625 C 0.953125 -0.109375 1.625 0.21875 2.546875 0.21875 C 3.953125 0.21875 4.859375 -0.609375 4.859375 -1.90625 C 4.859375 -2.765625 4.515625 -3.25 3.703125 -3.515625 C 4.34375 -3.765625 4.65625 -4.25 4.65625 -4.9375 C 4.65625 -6.109375 3.875 -6.796875 2.578125 -6.796875 C 1.203125 -6.796875 0.484375 -6.046875 0.453125 -4.609375 L 1.296875 -4.609375 C 1.3125 -5.015625 1.34375 -5.25 1.453125 -5.453125 C 1.640625 -5.828125 2.0625 -6.0625 2.59375 -6.0625 C 3.34375 -6.0625 3.796875 -5.625 3.796875 -4.90625 C 3.796875 -4.421875 3.609375 -4.140625 3.25 -3.984375 C 3.015625 -3.890625 2.71875 -3.84375 2.125 -3.84375 Z M 2.125 -3.125 "/>
</symbol>
<symbol overflow="visible" id="glyph0-7">
<path style="stroke:none;" d="M 3.140625 -1.625 L 3.140625 0 L 3.984375 0 L 3.984375 -1.625 L 4.984375 -1.625 L 4.984375 -2.390625 L 3.984375 -2.390625 L 3.984375 -6.796875 L 3.359375 -6.796875 L 0.265625 -2.515625 L 0.265625 -1.625 Z M 3.140625 -2.390625 L 1 -2.390625 L 3.140625 -5.359375 Z M 3.140625 -2.390625 "/>
</symbol>
<symbol overflow="visible" id="glyph0-8">
<path style="stroke:none;" d="M 4.78125 -5.03125 C 4.609375 -6.140625 3.890625 -6.796875 2.84375 -6.796875 C 2.09375 -6.796875 1.421875 -6.4375 1.03125 -5.828125 C 0.609375 -5.171875 0.40625 -4.34375 0.40625 -3.09375 C 0.40625 -1.953125 0.578125 -1.234375 0.984375 -0.625 C 1.359375 -0.078125 1.953125 0.21875 2.703125 0.21875 C 3.984375 0.21875 4.921875 -0.734375 4.921875 -2.078125 C 4.921875 -3.34375 4.0625 -4.234375 2.84375 -4.234375 C 2.171875 -4.234375 1.640625 -3.96875 1.28125 -3.46875 C 1.28125 -5.125 1.828125 -6.046875 2.796875 -6.046875 C 3.390625 -6.046875 3.796875 -5.671875 3.9375 -5.03125 Z M 2.734375 -3.484375 C 3.546875 -3.484375 4.0625 -2.921875 4.0625 -2 C 4.0625 -1.15625 3.484375 -0.53125 2.703125 -0.53125 C 1.921875 -0.53125 1.328125 -1.1875 1.328125 -2.046875 C 1.328125 -2.890625 1.90625 -3.484375 2.734375 -3.484375 Z M 2.734375 -3.484375 "/>
</symbol>
<symbol overflow="visible" id="glyph0-9">
<path style="stroke:none;" d="M 4.984375 -6.796875 L 0.4375 -6.796875 L 0.4375 -5.96875 L 4.109375 -5.96875 C 2.5 -3.65625 1.828125 -2.234375 1.328125 0 L 2.21875 0 C 2.59375 -2.171875 3.453125 -4.046875 4.984375 -6.09375 Z M 4.984375 -6.796875 "/>
</symbol>
<symbol overflow="visible" id="glyph0-10">
<path style="stroke:none;" d="M 3.75 -3.578125 C 4.453125 -4 4.6875 -4.34375 4.6875 -4.984375 C 4.6875 -6.046875 3.84375 -6.796875 2.640625 -6.796875 C 1.4375 -6.796875 0.59375 -6.046875 0.59375 -4.984375 C 0.59375 -4.359375 0.828125 -4.015625 1.515625 -3.578125 C 0.734375 -3.203125 0.359375 -2.640625 0.359375 -1.890625 C 0.359375 -0.640625 1.296875 0.21875 2.640625 0.21875 C 3.984375 0.21875 4.921875 -0.640625 4.921875 -1.875 C 4.921875 -2.640625 4.53125 -3.203125 3.75 -3.578125 Z M 2.640625 -6.046875 C 3.359375 -6.046875 3.8125 -5.625 3.8125 -4.96875 C 3.8125 -4.34375 3.34375 -3.921875 2.640625 -3.921875 C 1.921875 -3.921875 1.453125 -4.34375 1.453125 -4.984375 C 1.453125 -5.625 1.921875 -6.046875 2.640625 -6.046875 Z M 2.640625 -3.203125 C 3.484375 -3.203125 4.0625 -2.671875 4.0625 -1.875 C 4.0625 -1.0625 3.484375 -0.53125 2.625 -0.53125 C 1.796875 -0.53125 1.21875 -1.078125 1.21875 -1.875 C 1.21875 -2.671875 1.796875 -3.203125 2.640625 -3.203125 Z M 2.640625 -3.203125 "/>
</symbol>
<symbol overflow="visible" id="glyph0-11">
<path style="stroke:none;" d="M 0.515625 -1.546875 C 0.671875 -0.4375 1.40625 0.21875 2.4375 0.21875 C 3.1875 0.21875 3.859375 -0.140625 4.265625 -0.75 C 4.6875 -1.40625 4.890625 -2.25 4.890625 -3.484375 C 4.890625 -4.625 4.703125 -5.359375 4.3125 -5.953125 C 3.9375 -6.5 3.34375 -6.796875 2.59375 -6.796875 C 1.296875 -6.796875 0.359375 -5.84375 0.359375 -4.515625 C 0.359375 -3.25 1.234375 -2.34375 2.453125 -2.34375 C 3.09375 -2.34375 3.5625 -2.578125 4.015625 -3.109375 C 4 -1.453125 3.46875 -0.53125 2.5 -0.53125 C 1.90625 -0.53125 1.484375 -0.90625 1.359375 -1.546875 Z M 2.578125 -6.0625 C 3.375 -6.0625 3.96875 -5.40625 3.96875 -4.53125 C 3.96875 -3.6875 3.375 -3.09375 2.546875 -3.09375 C 1.734375 -3.09375 1.234375 -3.671875 1.234375 -4.578125 C 1.234375 -5.4375 1.796875 -6.0625 2.578125 -6.0625 Z M 2.578125 -6.0625 "/>
</symbol>
<symbol overflow="visible" id="glyph1-0">
<path style="stroke:none;" d=""/>
</symbol>
<symbol overflow="visible" id="glyph1-1">
<path style="stroke:none;" d="M 0 -0.953125 L 0 -4.890625 C 0 -5.71875 -0.234375 -6.34375 -0.734375 -6.796875 C -1.1875 -7.234375 -1.8125 -7.46875 -2.5 -7.46875 C -3.546875 -7.46875 -4.1875 -7 -4.625 -5.875 C -4.984375 -6.671875 -5.640625 -7.09375 -6.53125 -7.09375 C -7.15625 -7.09375 -7.734375 -6.859375 -8.140625 -6.390625 C -8.5625 -5.9375 -8.75 -5.34375 -8.75 -4.5 L -8.75 -0.953125 Z M -4.984375 -2.0625 L -7.765625 -2.0625 L -7.765625 -4.21875 C -7.765625 -4.84375 -7.6875 -5.203125 -7.453125 -5.5 C -7.21875 -5.8125 -6.859375 -5.96875 -6.375 -5.96875 C -5.90625 -5.96875 -5.53125 -5.8125 -5.296875 -5.5 C -5.0625 -5.203125 -4.984375 -4.84375 -4.984375 -4.21875 Z M -0.984375 -2.0625 L -4 -2.0625 L -4 -4.78125 C -4 -5.328125 -3.859375 -5.6875 -3.578125 -5.953125 C -3.296875 -6.21875 -2.921875 -6.359375 -2.484375 -6.359375 C -2.0625 -6.359375 -1.6875 -6.21875 -1.40625 -5.953125 C -1.109375 -5.6875 -0.984375 -5.328125 -0.984375 -4.78125 Z M -0.984375 -2.0625 "/>
</symbol>
<symbol overflow="visible" id="glyph1-2">
<path style="stroke:none;" d="M -6.28125 -1.796875 L -6.28125 -0.796875 L 0 -0.796875 L 0 -1.796875 Z M -8.75 -1.796875 L -8.75 -0.796875 L -7.484375 -0.796875 L -7.484375 -1.796875 Z M -8.75 -1.796875 "/>
</symbol>
<symbol overflow="visible" id="glyph1-3">
<path style="stroke:none;" d="M -6.28125 -3.046875 L -6.28125 -2.015625 L -8.015625 -2.015625 L -8.015625 -1.015625 L -6.28125 -1.015625 L -6.28125 -0.171875 L -5.46875 -0.171875 L -5.46875 -1.015625 L -0.71875 -1.015625 C -0.078125 -1.015625 0.28125 -1.453125 0.28125 -2.234375 C 0.28125 -2.46875 0.25 -2.71875 0.1875 -3.046875 L -0.640625 -3.046875 C -0.609375 -2.921875 -0.59375 -2.765625 -0.59375 -2.5625 C -0.59375 -2.140625 -0.71875 -2.015625 -1.15625 -2.015625 L -5.46875 -2.015625 L -5.46875 -3.046875 Z M -6.28125 -3.046875 "/>
</symbol>
<symbol overflow="visible" id="glyph1-4">
<path style="stroke:none;" d="M -4.53125 -5.25 C -5.765625 -5.25 -6.46875 -4.421875 -6.46875 -2.96875 C -6.46875 -1.515625 -5.71875 -0.5625 -4.546875 -0.5625 C -3.5625 -0.5625 -3.09375 -1.0625 -2.734375 -2.5625 L -2.515625 -3.484375 C -2.34375 -4.1875 -2.09375 -4.46875 -1.625 -4.46875 C -1.046875 -4.46875 -0.640625 -3.875 -0.640625 -3 C -0.640625 -2.453125 -0.796875 -2 -1.0625 -1.75 C -1.25 -1.59375 -1.421875 -1.53125 -1.875 -1.46875 L -1.875 -0.40625 C -0.421875 -0.453125 0.28125 -1.265625 0.28125 -2.921875 C 0.28125 -4.5 -0.5 -5.515625 -1.71875 -5.515625 C -2.65625 -5.515625 -3.171875 -4.984375 -3.46875 -3.734375 L -3.703125 -2.765625 C -3.890625 -1.953125 -4.15625 -1.609375 -4.59375 -1.609375 C -5.171875 -1.609375 -5.546875 -2.125 -5.546875 -2.9375 C -5.546875 -3.75 -5.203125 -4.171875 -4.53125 -4.203125 Z M -4.53125 -5.25 "/>
</symbol>
</g>
</defs>
<g id="surface49922">
<rect x="0" y="0" width="720" height="360" style="fill:rgb(100%,100%,100%);fill-opacity:1;stroke:none;"/>
<path style=" stroke:none;fill-rule:nonzero;fill:rgb(6.27451%,58.823529%,28.235294%);fill-opacity:1;" d="M 113.621094 307.179688 L 113.667969 307.175781 L 131.75 303.730469 L 137.242188 303.730469 L 155.417969 307.179688 L 149.03125 307.179688 L 144.476562 306.28125 L 124.519531 306.28125 L 120.050781 307.179688 L 113.621094 307.179688 L 126.4375 305.90625 L 142.644531 305.902344 L 134.5625 304.292969 L 134.476562 304.289062 L 134.386719 304.300781 L 126.394531 305.902344 L 126.4375 305.90625 Z M 113.621094 307.179688 "/>
<path style=" stroke:none;fill-rule:nonzero;fill:rgb(14.509804%,36.078431%,60%);fill-opacity:1;" d="M 113.621094 312.988281 L 113.671875 312.988281 L 113.671875 312.980469 L 113.828125 312.96875 L 114.183594 312.949219 L 114.539062 312.941406 L 115.457031 312.921875 L 116.730469 312.902344 L 118.058594 312.886719 L 119.023438 312.878906 L 119.890625 312.871094 L 121.878906 312.859375 L 123.152344 312.851562 L 124.53125 312.847656 L 126.210938 312.839844 L 127.433594 312.835938 L 130.1875 312.832031 L 132.226562 312.828125 L 139.257812 312.828125 L 140.738281 312.832031 L 142.367188 312.835938 L 143.746094 312.835938 L 146.140625 312.84375 L 148.28125 312.855469 L 149.25 312.859375 L 150.777344 312.871094 L 151.949219 312.878906 L 152.765625 312.886719 L 153.683594 312.902344 L 154.5 312.917969 L 155.109375 312.933594 L 155.417969 312.949219 L 148.28125 312.949219 L 147.925781 312.933594 L 147.515625 312.921875 L 146.75 312.910156 L 145.988281 312.898438 L 144.917969 312.890625 L 143.949219 312.882812 L 142.625 312.878906 L 141.453125 312.875 L 140.226562 312.871094 L 139.054688 312.867188 L 133.246094 312.867188 L 131.257812 312.871094 L 130.1875 312.871094 L 128.660156 312.878906 L 127.589844 312.882812 L 126.3125 312.886719 L 125.449219 312.894531 L 124.378906 312.902344 L 123.613281 312.910156 L 122.746094 312.921875 L 122.234375 312.929688 L 121.777344 312.9375 L 121.371094 312.949219 L 121.0625 312.960938 L 120.859375 312.972656 L 120.757812 312.988281 L 120.757812 313.039062 L 120.859375 313.050781 L 121.113281 313.066406 L 121.777344 313.085938 L 122.746094 313.101562 L 123.867188 313.117188 L 124.9375 313.128906 L 125.550781 313.132812 L 126.363281 313.136719 L 127.640625 313.144531 L 129.472656 313.152344 L 130.542969 313.152344 L 132.175781 313.15625 L 139.414062 313.15625 L 140.789062 313.152344 L 142.675781 313.144531 L 143.847656 313.140625 L 144.867188 313.132812 L 145.628906 313.128906 L 146.140625 313.121094 L 146.90625 313.113281 L 147.515625 313.101562 L 147.976562 313.089844 L 148.28125 313.078125 L 155.417969 313.078125 L 155.109375 313.089844 L 154.652344 313.105469 L 154.191406 313.113281 L 153.480469 313.125 L 152.664062 313.136719 L 151.492188 313.148438 L 150.523438 313.15625 L 149.25 313.164062 L 148.078125 313.171875 L 146.804688 313.175781 L 144.917969 313.183594 L 143.695312 313.1875 L 142.367188 313.1875 L 140.789062 313.191406 L 138.800781 313.195312 L 130.953125 313.195312 L 128.863281 313.191406 L 126.261719 313.183594 L 124.378906 313.179688 L 122.898438 313.171875 L 121.625 313.164062 L 120.199219 313.15625 L 118.363281 313.140625 L 117.242188 313.128906 L 116.476562 313.121094 L 115.609375 313.109375 L 115 313.097656 L 114.285156 313.078125 L 113.777344 313.054688 L 113.621094 313.035156 Z M 113.621094 312.988281 "/>
<path style=" stroke:none;fill-rule:nonzero;fill:rgb(96.862745%,70.196078%,16.862745%);fill-opacity:1;" d="M 113.621094 309.769531 L 113.671875 309.765625 L 113.671875 309.707031 L 113.878906 309.570312 L 114.386719 309.382812 L 115.050781 309.230469 L 115.761719 309.109375 L 116.222656 309.046875 L 116.988281 308.957031 L 117.648438 308.890625 L 119.332031 308.753906 L 121.472656 308.625 L 122.644531 308.574219 L 123.96875 308.523438 L 125.855469 308.464844 L 126.722656 308.441406 L 129.371094 308.394531 L 132.378906 308.363281 L 135.691406 308.355469 L 137.222656 308.359375 L 139.3125 308.371094 L 142.164062 308.402344 L 143.796875 308.433594 L 145.070312 308.464844 L 146.394531 308.503906 L 148.027344 308.5625 L 149.554688 308.636719 L 150.777344 308.707031 L 152 308.796875 L 153.019531 308.894531 L 153.886719 309 L 154.652344 309.125 L 155.109375 309.230469 L 155.417969 309.335938 L 148.332031 309.335938 L 147.925781 309.230469 L 147.464844 309.152344 L 146.699219 309.050781 L 145.9375 308.980469 L 145.171875 308.921875 L 143.746094 308.84375 L 142.523438 308.796875 L 140.992188 308.753906 L 139.515625 308.726562 L 137.832031 308.707031 L 136.8125 308.703125 L 134.113281 308.703125 L 131.664062 308.722656 L 130.238281 308.746094 L 129.21875 308.773438 L 127.792969 308.816406 L 126.925781 308.851562 L 126.414062 308.875 L 124.886719 308.96875 L 123.867188 309.054688 L 123.304688 309.113281 L 122.59375 309.203125 L 122.082031 309.285156 L 121.523438 309.402344 L 121.21875 309.496094 L 120.808594 309.699219 L 120.757812 310.242188 L 120.910156 310.355469 L 121.21875 310.480469 L 121.625 310.585938 L 122.234375 310.703125 L 122.847656 310.789062 L 123.917969 310.90625 L 124.835938 310.984375 L 125.550781 311.035156 L 126.925781 311.117188 L 127.484375 311.144531 L 128.8125 311.199219 L 130.1875 311.242188 L 131.871094 311.277344 L 133.144531 311.296875 L 135.183594 311.308594 L 137.78125 311.308594 L 140.839844 311.292969 L 142.777344 311.269531 L 144.101562 311.242188 L 144.96875 311.222656 L 146.039062 311.191406 L 146.804688 311.160156 L 147.515625 311.125 L 148.382812 311.074219 L 148.382812 310.355469 L 135.792969 310.351562 L 135.792969 310.015625 L 155.367188 310.011719 L 155.417969 311.191406 L 154.347656 311.269531 L 153.019531 311.347656 L 151.746094 311.410156 L 150.421875 311.460938 L 148.535156 311.519531 L 147.007812 311.554688 L 144.664062 311.597656 L 142.523438 311.625 L 140.277344 311.640625 L 138.292969 311.652344 L 135.945312 311.652344 L 133.855469 311.648438 L 131.613281 311.628906 L 129.832031 311.605469 L 128.199219 311.574219 L 126.570312 311.535156 L 124.53125 311.472656 L 123.203125 311.421875 L 121.828125 311.359375 L 120.453125 311.28125 L 119.230469 311.203125 L 118.414062 311.136719 L 117.597656 311.066406 L 116.730469 310.976562 L 115.917969 310.875 L 115.304688 310.78125 L 114.742188 310.675781 L 114.335938 310.574219 L 113.929688 310.441406 L 113.726562 310.332031 L 113.621094 310.238281 Z M 113.621094 309.769531 "/>
<path style=" stroke:none;fill-rule:nonzero;fill:rgb(83.921569%,15.686275%,22.352941%);fill-opacity:1;" d="M 113.621094 298.949219 L 155.417969 298.949219 L 155.417969 299.335938 L 138 299.335938 L 138 302.554688 L 130.988281 302.554688 L 130.988281 299.339844 L 130.886719 299.335938 L 113.621094 299.335938 Z M 113.621094 298.949219 "/>
<path style=" stroke:none;fill-rule:nonzero;fill:rgb(6.27451%,58.823529%,28.235294%);fill-opacity:1;" d="M 157.617188 285.9375 L 157.660156 285.898438 L 175.746094 246.992188 L 181.238281 246.992188 L 199.410156 285.972656 L 193.023438 285.972656 L 188.46875 275.796875 L 168.511719 275.796875 L 164.046875 285.9375 L 157.617188 285.9375 L 170.429688 271.589844 L 186.640625 271.550781 L 178.558594 253.363281 L 178.46875 253.324219 L 178.378906 253.4375 L 170.386719 271.550781 L 170.429688 271.589844 Z M 157.617188 285.9375 "/>
<path style=" stroke:none;fill-rule:nonzero;fill:rgb(14.509804%,36.078431%,60%);fill-opacity:1;" d="M 157.617188 311.9375 L 157.667969 311.933594 L 157.667969 311.886719 L 157.820312 311.808594 L 158.175781 311.710938 L 158.535156 311.644531 L 159.449219 311.523438 L 160.726562 311.40625 L 162.050781 311.316406 L 163.019531 311.265625 L 163.886719 311.222656 L 165.871094 311.148438 L 167.148438 311.109375 L 168.523438 311.074219 L 170.207031 311.042969 L 171.429688 311.019531 L 174.179688 310.988281 L 176.21875 310.972656 L 177.800781 310.96875 L 181.214844 310.96875 L 183.253906 310.976562 L 184.730469 310.984375 L 186.363281 311.003906 L 187.738281 311.019531 L 190.132812 311.066406 L 192.273438 311.121094 L 193.242188 311.15625 L 194.773438 311.21875 L 195.945312 311.28125 L 196.757812 311.332031 L 197.675781 311.40625 L 198.492188 311.5 L 199.105469 311.601562 L 199.410156 311.691406 L 192.273438 311.691406 L 191.917969 311.609375 L 191.511719 311.546875 L 190.746094 311.460938 L 189.980469 311.402344 L 188.910156 311.34375 L 187.941406 311.304688 L 186.617188 311.265625 L 185.445312 311.242188 L 184.222656 311.222656 L 183.050781 311.210938 L 180.804688 311.199219 L 178.207031 311.199219 L 177.238281 311.203125 L 175.25 311.21875 L 174.179688 311.234375 L 172.652344 311.261719 L 171.582031 311.289062 L 170.308594 311.332031 L 169.441406 311.363281 L 168.371094 311.417969 L 167.605469 311.464844 L 166.738281 311.53125 L 166.230469 311.582031 L 165.769531 311.640625 L 165.363281 311.707031 L 165.058594 311.777344 L 164.855469 311.855469 L 164.75 311.925781 L 164.75 312.242188 L 164.855469 312.316406 L 165.109375 312.402344 L 165.769531 312.527344 L 166.738281 312.632812 L 167.859375 312.71875 L 168.929688 312.78125 L 169.542969 312.808594 L 170.359375 312.839844 L 171.632812 312.882812 L 173.46875 312.921875 L 174.539062 312.9375 L 176.167969 312.957031 L 177.851562 312.964844 L 180.09375 312.964844 L 182.082031 312.957031 L 183.40625 312.945312 L 184.78125 312.929688 L 186.667969 312.894531 L 187.839844 312.863281 L 188.859375 312.824219 L 189.625 312.785156 L 190.132812 312.75 L 190.898438 312.6875 L 191.511719 312.621094 L 191.96875 312.546875 L 192.273438 312.480469 L 199.410156 312.480469 L 199.105469 312.558594 L 198.644531 312.640625 L 198.1875 312.699219 L 197.472656 312.769531 L 196.65625 312.832031 L 195.484375 312.90625 L 194.515625 312.953125 L 193.242188 313.003906 L 192.070312 313.042969 L 190.796875 313.074219 L 188.910156 313.117188 L 187.6875 313.136719 L 186.363281 313.15625 L 184.78125 313.171875 L 182.792969 313.1875 L 180.652344 313.195312 L 178.664062 313.195312 L 176.523438 313.191406 L 174.945312 313.183594 L 172.855469 313.164062 L 170.257812 313.128906 L 168.371094 313.089844 L 166.890625 313.050781 L 165.617188 313.011719 L 164.191406 312.957031 L 162.355469 312.867188 L 161.234375 312.796875 L 160.46875 312.738281 L 159.605469 312.660156 L 158.992188 312.589844 L 158.277344 312.476562 L 157.769531 312.332031 L 157.617188 312.21875 Z M 157.617188 311.9375 "/>
<path style=" stroke:none;fill-rule:nonzero;fill:rgb(96.862745%,70.196078%,16.862745%);fill-opacity:1;" d="M 157.617188 304.628906 L 157.667969 304.621094 L 157.667969 304.457031 L 157.871094 304.082031 L 158.378906 303.574219 L 159.042969 303.152344 L 159.757812 302.820312 L 160.214844 302.648438 L 160.980469 302.402344 L 161.640625 302.21875 L 163.324219 301.847656 L 165.464844 301.5 L 166.636719 301.351562 L 167.960938 301.214844 L 169.847656 301.054688 L 170.714844 301 L 173.363281 300.867188 L 176.371094 300.785156 L 179.683594 300.757812 L 181.214844 300.765625 L 183.304688 300.800781 L 186.15625 300.890625 L 187.789062 300.972656 L 189.0625 301.054688 L 190.386719 301.164062 L 192.019531 301.328125 L 193.546875 301.527344 L 194.773438 301.722656 L 195.996094 301.972656 L 197.015625 302.234375 L 197.878906 302.523438 L 198.644531 302.871094 L 199.105469 303.160156 L 199.410156 303.449219 L 192.324219 303.449219 L 191.917969 303.160156 L 191.457031 302.9375 L 190.695312 302.664062 L 189.929688 302.46875 L 189.164062 302.308594 L 187.738281 302.097656 L 186.515625 301.964844 L 184.984375 301.847656 L 183.507812 301.773438 L 181.824219 301.722656 L 180.804688 301.707031 L 178.105469 301.707031 L 175.660156 301.765625 L 174.230469 301.832031 L 173.210938 301.898438 L 171.785156 302.019531 L 170.917969 302.121094 L 170.410156 302.1875 L 168.878906 302.441406 L 167.859375 302.671875 L 167.300781 302.828125 L 166.585938 303.078125 L 166.078125 303.300781 L 165.515625 303.628906 L 165.210938 303.878906 L 164.800781 304.4375 L 164.75 305.921875 L 164.90625 306.238281 L 165.210938 306.574219 L 165.617188 306.871094 L 166.230469 307.1875 L 166.839844 307.425781 L 167.910156 307.746094 L 168.828125 307.960938 L 169.542969 308.101562 L 170.917969 308.324219 L 171.480469 308.398438 L 172.804688 308.546875 L 174.179688 308.664062 L 175.863281 308.761719 L 177.136719 308.8125 L 179.175781 308.851562 L 181.773438 308.851562 L 184.832031 308.804688 L 186.769531 308.738281 L 188.09375 308.671875 L 188.960938 308.613281 L 190.03125 308.523438 L 190.796875 308.441406 L 191.511719 308.347656 L 192.375 308.207031 L 192.375 306.238281 L 179.789062 306.230469 L 179.789062 305.304688 L 199.359375 305.296875 L 199.410156 308.523438 L 198.339844 308.746094 L 197.015625 308.960938 L 195.738281 309.125 L 194.414062 309.265625 L 192.527344 309.421875 L 191 309.519531 L 188.65625 309.636719 L 186.515625 309.710938 L 184.273438 309.761719 L 182.285156 309.785156 L 179.941406 309.792969 L 177.851562 309.777344 L 175.609375 309.726562 L 173.824219 309.660156 L 172.191406 309.578125 L 170.5625 309.472656 L 168.523438 309.296875 L 167.199219 309.15625 L 165.820312 308.984375 L 164.445312 308.777344 L 163.222656 308.554688 L 162.40625 308.382812 L 161.589844 308.183594 L 160.726562 307.9375 L 159.910156 307.65625 L 159.296875 307.402344 L 158.738281 307.113281 L 158.328125 306.839844 L 157.921875 306.46875 L 157.71875 306.171875 L 157.617188 305.914062 Z M 157.617188 304.628906 "/>
<path style=" stroke:none;fill-rule:nonzero;fill:rgb(83.921569%,15.686275%,22.352941%);fill-opacity:1;" d="M 157.617188 287.148438 L 199.410156 287.148438 L 199.410156 288.480469 L 181.992188 288.492188 L 181.992188 299.585938 L 174.984375 299.585938 L 174.984375 288.503906 L 174.882812 288.480469 L 157.617188 288.480469 Z M 157.617188 287.148438 "/>
<path style=" stroke:none;fill-rule:nonzero;fill:rgb(6.27451%,58.823529%,28.235294%);fill-opacity:1;" d="M 201.609375 288.757812 L 201.652344 288.738281 L 219.738281 269.148438 L 225.230469 269.148438 L 243.402344 288.773438 L 237.019531 288.773438 L 232.464844 283.652344 L 212.503906 283.652344 L 208.039062 288.757812 L 201.609375 288.757812 L 214.425781 281.53125 L 230.632812 281.515625 L 222.550781 272.355469 L 222.460938 272.335938 L 222.371094 272.390625 L 214.378906 281.515625 L 214.425781 281.53125 Z M 201.609375 288.757812 "/>
<path style=" stroke:none;fill-rule:nonzero;fill:rgb(14.509804%,36.078431%,60%);fill-opacity:1;" d="M 201.609375 312.582031 L 201.660156 312.582031 L 201.660156 312.558594 L 201.8125 312.519531 L 202.171875 312.472656 L 202.527344 312.4375 L 203.445312 312.378906 L 204.71875 312.324219 L 206.042969 312.28125 L 207.011719 312.253906 L 207.878906 312.234375 L 209.867188 312.199219 L 211.140625 312.179688 L 212.515625 312.164062 L 214.199219 312.144531 L 215.421875 312.136719 L 218.175781 312.121094 L 220.210938 312.113281 L 221.792969 312.109375 L 225.207031 312.109375 L 227.246094 312.113281 L 228.722656 312.117188 L 230.355469 312.125 L 231.730469 312.136719 L 234.128906 312.15625 L 236.269531 312.183594 L 237.234375 312.199219 L 238.765625 312.230469 L 239.9375 312.261719 L 240.753906 312.289062 L 241.671875 312.324219 L 242.484375 312.367188 L 243.097656 312.417969 L 243.402344 312.460938 L 236.269531 312.460938 L 235.910156 312.421875 L 235.503906 312.390625 L 234.738281 312.351562 L 233.972656 312.320312 L 232.902344 312.292969 L 231.933594 312.273438 L 230.609375 312.253906 L 229.4375 312.242188 L 228.214844 312.234375 L 227.042969 312.230469 L 224.800781 312.222656 L 222.199219 312.222656 L 221.230469 312.226562 L 219.246094 312.234375 L 218.175781 312.238281 L 216.644531 312.253906 L 215.574219 312.265625 L 214.300781 312.285156 L 213.433594 312.304688 L 212.363281 312.328125 L 211.597656 312.351562 L 210.734375 312.382812 L 210.222656 312.410156 L 209.765625 312.4375 L 209.355469 312.46875 L 209.050781 312.503906 L 208.847656 312.542969 L 208.746094 312.578125 L 208.746094 312.730469 L 208.847656 312.765625 L 209.101562 312.808594 L 209.765625 312.867188 L 210.734375 312.921875 L 211.855469 312.964844 L 212.925781 312.992188 L 213.535156 313.007812 L 214.351562 313.023438 L 215.625 313.042969 L 217.460938 313.0625 L 218.53125 313.070312 L 220.160156 313.078125 L 221.84375 313.082031 L 224.085938 313.082031 L 226.074219 313.078125 L 227.398438 313.074219 L 228.777344 313.066406 L 230.660156 313.050781 L 231.832031 313.03125 L 232.851562 313.015625 L 233.617188 312.996094 L 234.128906 312.980469 L 234.890625 312.949219 L 235.503906 312.914062 L 235.960938 312.878906 L 236.269531 312.847656 L 243.402344 312.847656 L 243.097656 312.886719 L 242.640625 312.925781 L 242.179688 312.953125 L 241.464844 312.988281 L 240.652344 313.019531 L 239.480469 313.054688 L 238.511719 313.078125 L 237.234375 313.101562 L 236.0625 313.121094 L 234.789062 313.136719 L 232.902344 313.15625 L 231.679688 313.167969 L 230.355469 313.175781 L 228.777344 313.183594 L 226.789062 313.191406 L 224.648438 313.195312 L 220.519531 313.195312 L 218.9375 313.191406 L 216.847656 313.179688 L 214.25 313.164062 L 212.363281 313.144531 L 210.886719 313.125 L 209.613281 313.105469 L 208.183594 313.078125 L 206.347656 313.035156 L 205.226562 313 L 204.464844 312.972656 L 203.597656 312.933594 L 202.984375 312.898438 L 202.273438 312.84375 L 201.761719 312.773438 L 201.609375 312.71875 Z M 201.609375 312.582031 "/>
<path style=" stroke:none;fill-rule:nonzero;fill:rgb(96.862745%,70.196078%,16.862745%);fill-opacity:1;" d="M 201.609375 307.210938 L 201.660156 307.207031 L 201.660156 307.085938 L 201.863281 306.820312 L 202.375 306.449219 L 203.035156 306.144531 L 203.75 305.910156 L 204.207031 305.785156 L 204.972656 305.605469 L 205.636719 305.472656 L 207.316406 305.207031 L 209.457031 304.957031 L 210.628906 304.851562 L 211.957031 304.75 L 213.84375 304.636719 L 214.707031 304.59375 L 217.359375 304.5 L 220.367188 304.4375 L 223.679688 304.421875 L 225.207031 304.425781 L 227.296875 304.453125 L 230.152344 304.515625 L 231.78125 304.578125 L 233.058594 304.636719 L 234.382812 304.714844 L 236.011719 304.832031 L 237.542969 304.976562 L 238.765625 305.117188 L 239.988281 305.296875 L 241.007812 305.484375 L 241.875 305.695312 L 242.640625 305.945312 L 243.097656 306.152344 L 243.402344 306.359375 L 236.320312 306.359375 L 235.910156 306.152344 L 235.453125 305.992188 L 234.6875 305.796875 L 233.921875 305.652344 L 233.160156 305.539062 L 231.730469 305.386719 L 230.507812 305.289062 L 228.980469 305.207031 L 227.5 305.152344 L 225.820312 305.117188 L 224.800781 305.105469 L 222.097656 305.105469 L 219.652344 305.148438 L 218.226562 305.195312 L 217.207031 305.242188 L 215.777344 305.332031 L 214.914062 305.402344 L 214.402344 305.449219 L 212.875 305.636719 L 211.855469 305.800781 L 211.292969 305.914062 L 210.578125 306.09375 L 210.070312 306.253906 L 209.507812 306.492188 L 209.203125 306.667969 L 208.796875 307.074219 L 208.746094 308.144531 L 208.898438 308.371094 L 209.203125 308.613281 L 209.613281 308.828125 L 210.222656 309.054688 L 210.835938 309.226562 L 211.90625 309.460938 L 212.824219 309.613281 L 213.535156 309.714844 L 214.914062 309.875 L 215.472656 309.929688 L 216.796875 310.035156 L 218.175781 310.121094 L 219.855469 310.191406 L 221.128906 310.226562 L 223.167969 310.257812 L 225.769531 310.257812 L 228.828125 310.222656 L 230.761719 310.171875 L 232.089844 310.125 L 232.953125 310.085938 L 234.023438 310.019531 L 234.789062 309.960938 L 235.503906 309.894531 L 236.371094 309.792969 L 236.371094 308.371094 L 223.78125 308.363281 L 223.78125 307.699219 L 243.351562 307.691406 L 243.402344 310.019531 L 242.332031 310.179688 L 241.007812 310.332031 L 239.734375 310.453125 L 238.410156 310.554688 L 236.523438 310.667969 L 234.992188 310.738281 L 232.648438 310.820312 L 230.507812 310.875 L 228.265625 310.910156 L 226.277344 310.929688 L 223.933594 310.933594 L 221.84375 310.921875 L 219.601562 310.886719 L 217.816406 310.839844 L 216.1875 310.78125 L 214.554688 310.703125 L 212.515625 310.578125 L 211.191406 310.476562 L 209.816406 310.351562 L 208.4375 310.203125 L 207.214844 310.042969 L 206.402344 309.917969 L 205.585938 309.773438 L 204.71875 309.597656 L 203.902344 309.394531 L 203.292969 309.210938 L 202.730469 309 L 202.324219 308.804688 L 201.914062 308.539062 L 201.710938 308.324219 L 201.609375 308.140625 Z M 201.609375 307.210938 "/>
<path style=" stroke:none;fill-rule:nonzero;fill:rgb(83.921569%,15.686275%,22.352941%);fill-opacity:1;" d="M 201.609375 289.949219 L 243.402344 289.949219 L 243.402344 291.375 L 225.984375 291.386719 L 225.984375 303.246094 L 218.976562 303.246094 L 218.976562 291.398438 L 218.875 291.375 L 201.609375 291.375 Z M 201.609375 289.949219 "/>
<path style=" stroke:none;fill-rule:nonzero;fill:rgb(6.27451%,58.823529%,28.235294%);fill-opacity:1;" d="M 245.601562 299.320312 L 245.648438 299.3125 L 263.730469 288.535156 L 269.222656 288.535156 L 287.398438 299.332031 L 281.011719 299.332031 L 276.457031 296.511719 L 256.496094 296.511719 L 252.03125 299.320312 L 245.601562 299.320312 L 258.417969 295.347656 L 274.625 295.335938 L 266.542969 290.296875 L 266.457031 290.289062 L 266.367188 290.320312 L 258.375 295.335938 L 258.417969 295.347656 Z M 245.601562 299.320312 "/>
<path style=" stroke:none;fill-rule:nonzero;fill:rgb(14.509804%,36.078431%,60%);fill-opacity:1;" d="M 245.601562 304.382812 L 245.652344 304.375 L 245.652344 304.179688 L 245.808594 303.871094 L 246.164062 303.480469 L 246.519531 303.210938 L 247.4375 302.730469 L 248.710938 302.265625 L 250.035156 301.90625 L 251.003906 301.695312 L 251.871094 301.53125 L 253.859375 301.230469 L 255.132812 301.078125 L 256.511719 300.9375 L 258.191406 300.800781 L 259.414062 300.71875 L 262.167969 300.589844 L 264.207031 300.53125 L 265.785156 300.507812 L 269.199219 300.507812 L 271.238281 300.539062 L 272.71875 300.582031 L 274.347656 300.644531 L 275.726562 300.71875 L 278.121094 300.898438 L 280.261719 301.125 L 281.230469 301.257812 L 282.757812 301.507812 L 283.929688 301.753906 L 284.746094 301.964844 L 285.664062 302.265625 L 286.480469 302.632812 L 287.089844 303.046875 L 287.398438 303.398438 L 280.261719 303.398438 L 279.90625 303.070312 L 279.496094 302.820312 L 278.730469 302.484375 L 277.96875 302.25 L 276.898438 302.011719 L 275.929688 301.859375 L 274.605469 301.703125 L 273.429688 301.605469 L 272.207031 301.53125 L 271.035156 301.484375 L 268.792969 301.433594 L 266.195312 301.433594 L 265.226562 301.453125 L 263.238281 301.515625 L 262.167969 301.574219 L 260.636719 301.6875 L 259.566406 301.792969 L 258.292969 301.957031 L 257.425781 302.09375 L 256.355469 302.304688 L 255.59375 302.492188 L 254.726562 302.761719 L 254.214844 302.964844 L 253.757812 303.195312 L 253.351562 303.460938 L 253.042969 303.746094 L 252.839844 304.050781 L 252.738281 304.34375 L 252.738281 305.605469 L 252.839844 305.898438 L 253.09375 306.238281 L 253.757812 306.734375 L 254.726562 307.167969 L 255.847656 307.507812 L 256.917969 307.753906 L 257.53125 307.867188 L 258.34375 308 L 259.617188 308.160156 L 261.453125 308.324219 L 262.523438 308.390625 L 264.15625 308.453125 L 265.835938 308.488281 L 268.078125 308.488281 L 270.066406 308.453125 L 271.394531 308.414062 L 272.769531 308.347656 L 274.65625 308.210938 L 275.828125 308.078125 L 276.847656 307.925781 L 277.609375 307.769531 L 278.121094 307.640625 L 278.886719 307.386719 L 279.496094 307.109375 L 279.957031 306.824219 L 280.261719 306.546875 L 287.398438 306.546875 L 287.089844 306.875 L 286.632812 307.191406 L 286.171875 307.429688 L 285.460938 307.714844 L 284.644531 307.964844 L 283.472656 308.25 L 282.503906 308.4375 L 281.230469 308.640625 L 280.058594 308.796875 L 278.78125 308.933594 L 276.898438 309.097656 L 275.675781 309.179688 L 274.347656 309.253906 L 272.769531 309.316406 L 270.78125 309.375 L 268.640625 309.40625 L 266.652344 309.414062 L 264.511719 309.398438 L 262.933594 309.367188 L 260.84375 309.292969 L 258.242188 309.144531 L 256.355469 308.992188 L 254.878906 308.835938 L 253.605469 308.675781 L 252.179688 308.453125 L 250.34375 308.097656 L 249.222656 307.820312 L 248.457031 307.589844 L 247.589844 307.273438 L 246.980469 306.988281 L 246.265625 306.53125 L 245.753906 305.953125 L 245.601562 305.507812 Z M 245.601562 304.382812 "/>
<path style=" stroke:none;fill-rule:nonzero;fill:rgb(96.862745%,70.196078%,16.862745%);fill-opacity:1;" d="M 245.601562 266.777344 L 245.652344 266.742188 L 245.652344 266.085938 L 245.859375 264.605469 L 246.367188 262.566406 L 247.03125 260.890625 L 247.742188 259.574219 L 248.203125 258.882812 L 248.964844 257.898438 L 249.628906 257.175781 L 251.3125 255.695312 L 253.453125 254.3125 L 254.625 253.722656 L 255.949219 253.164062 L 257.835938 252.539062 L 258.703125 252.308594 L 261.351562 251.78125 L 264.359375 251.453125 L 267.671875 251.355469 L 269.199219 251.386719 L 271.289062 251.519531 L 274.144531 251.878906 L 275.777344 252.210938 L 277.050781 252.539062 L 278.375 252.964844 L 280.007812 253.625 L 281.535156 254.414062 L 282.757812 255.203125 L 283.980469 256.1875 L 285 257.242188 L 285.867188 258.390625 L 286.632812 259.773438 L 287.089844 260.921875 L 287.398438 262.074219 L 280.3125 262.074219 L 279.90625 260.921875 L 279.445312 260.035156 L 278.679688 258.949219 L 277.917969 258.160156 L 277.152344 257.535156 L 275.726562 256.679688 L 274.5 256.15625 L 272.972656 255.695312 L 271.496094 255.398438 L 269.8125 255.203125 L 268.792969 255.136719 L 266.09375 255.136719 L 263.644531 255.367188 L 262.21875 255.628906 L 261.199219 255.890625 L 259.773438 256.386719 L 258.90625 256.78125 L 258.394531 257.042969 L 256.867188 258.0625 L 255.847656 258.984375 L 255.285156 259.609375 L 254.574219 260.59375 L 254.0625 261.480469 L 253.503906 262.796875 L 253.195312 263.785156 L 252.789062 266.019531 L 252.738281 271.9375 L 252.890625 273.1875 L 253.195312 274.535156 L 253.605469 275.71875 L 254.214844 276.96875 L 254.828125 277.921875 L 255.898438 279.203125 L 256.816406 280.058594 L 257.53125 280.617188 L 258.90625 281.507812 L 259.464844 281.800781 L 260.792969 282.394531 L 262.167969 282.855469 L 263.847656 283.25 L 265.125 283.445312 L 267.164062 283.609375 L 269.761719 283.609375 L 272.820312 283.414062 L 274.757812 283.152344 L 276.082031 282.886719 L 276.949219 282.65625 L 278.019531 282.296875 L 278.78125 281.964844 L 279.496094 281.605469 L 280.363281 281.046875 L 280.363281 273.1875 L 267.773438 273.15625 L 267.773438 269.472656 L 287.34375 269.4375 L 287.398438 282.296875 L 286.328125 283.183594 L 285 284.039062 L 283.726562 284.695312 L 282.402344 285.253906 L 280.515625 285.878906 L 278.988281 286.273438 L 276.640625 286.734375 L 274.5 287.03125 L 272.257812 287.226562 L 270.269531 287.328125 L 267.925781 287.359375 L 265.835938 287.292969 L 263.59375 287.097656 L 261.8125 286.832031 L 260.179688 286.503906 L 258.546875 286.078125 L 256.511719 285.386719 L 255.183594 284.828125 L 253.808594 284.136719 L 252.433594 283.316406 L 251.210938 282.425781 L 250.394531 281.738281 L 249.578125 280.949219 L 248.710938 279.960938 L 247.894531 278.84375 L 247.285156 277.824219 L 246.722656 276.671875 L 246.316406 275.585938 L 245.910156 274.109375 L 245.703125 272.925781 L 245.601562 271.90625 Z M 245.601562 266.777344 "/>
<path style=" stroke:none;fill-rule:nonzero;fill:rgb(83.921569%,15.686275%,22.352941%);fill-opacity:1;" d="M 245.601562 310.589844 L 287.398438 310.589844 L 287.398438 310.867188 L 269.976562 310.871094 L 269.976562 313.195312 L 262.96875 313.195312 L 262.96875 310.875 L 262.867188 310.867188 L 245.601562 310.867188 Z M 245.601562 310.589844 "/>
<path style=" stroke:none;fill-rule:nonzero;fill:rgb(6.27451%,58.823529%,28.235294%);fill-opacity:1;" d="M 289.597656 284.757812 L 289.640625 284.742188 L 307.726562 267.003906 L 313.21875 267.003906 L 331.390625 284.777344 L 325.003906 284.777344 L 320.449219 280.136719 L 300.492188 280.136719 L 296.027344 284.757812 L 289.597656 284.757812 L 302.410156 278.21875 L 318.621094 278.199219 L 310.539062 269.90625 L 310.449219 269.890625 L 310.359375 269.941406 L 302.367188 278.199219 L 302.410156 278.21875 Z M 289.597656 284.757812 "/>
<path style=" stroke:none;fill-rule:nonzero;fill:rgb(14.509804%,36.078431%,60%);fill-opacity:1;" d="M 289.597656 291.417969 L 289.648438 291.40625 L 289.648438 291.128906 L 289.800781 290.691406 L 290.15625 290.140625 L 290.515625 289.761719 L 291.429688 289.085938 L 292.707031 288.429688 L 294.03125 287.925781 L 295 287.628906 L 295.867188 287.398438 L 297.851562 286.972656 L 299.128906 286.753906 L 300.503906 286.558594 L 302.183594 286.363281 L 303.410156 286.25 L 306.160156 286.066406 L 308.199219 285.984375 L 309.78125 285.949219 L 313.195312 285.949219 L 315.234375 285.996094 L 316.710938 286.054688 L 318.34375 286.144531 L 319.71875 286.25 L 322.113281 286.5 L 324.253906 286.824219 L 325.222656 287.007812 L 326.75 287.363281 L 327.925781 287.707031 L 328.738281 288.007812 L 329.65625 288.429688 L 330.472656 288.949219 L 331.085938 289.53125 L 331.390625 290.027344 L 324.253906 290.027344 L 323.898438 289.566406 L 323.488281 289.210938 L 322.726562 288.742188 L 321.960938 288.40625 L 320.890625 288.074219 L 319.921875 287.855469 L 318.597656 287.636719 L 317.425781 287.5 L 316.203125 287.398438 L 315.027344 287.328125 L 312.785156 287.257812 L 310.1875 287.257812 L 309.21875 287.28125 L 307.230469 287.375 L 306.160156 287.453125 L 304.632812 287.617188 L 303.5625 287.765625 L 302.289062 287.996094 L 301.421875 288.191406 L 300.351562 288.488281 L 299.585938 288.753906 L 298.71875 289.132812 L 298.210938 289.417969 L 297.75 289.738281 L 297.34375 290.117188 L 297.039062 290.519531 L 296.832031 290.945312 L 296.730469 291.359375 L 296.730469 293.136719 L 296.832031 293.550781 L 297.089844 294.035156 L 297.75 294.734375 L 298.71875 295.34375 L 299.839844 295.824219 L 300.910156 296.167969 L 301.523438 296.332031 L 302.339844 296.515625 L 303.613281 296.742188 L 305.449219 296.972656 L 306.519531 297.066406 L 308.148438 297.15625 L 309.832031 297.203125 L 312.074219 297.203125 L 314.0625 297.15625 L 315.386719 297.101562 L 316.761719 297.007812 L 318.648438 296.8125 L 319.820312 296.628906 L 320.839844 296.410156 L 321.605469 296.191406 L 322.113281 296.007812 L 322.878906 295.652344 L 323.488281 295.261719 L 323.949219 294.859375 L 324.253906 294.46875 L 331.390625 294.46875 L 331.085938 294.929688 L 330.625 295.378906 L 330.167969 295.710938 L 329.453125 296.113281 L 328.636719 296.46875 L 327.464844 296.871094 L 326.496094 297.132812 L 325.222656 297.421875 L 324.050781 297.640625 L 322.777344 297.835938 L 320.890625 298.0625 L 319.667969 298.179688 L 318.34375 298.28125 L 316.761719 298.375 L 314.773438 298.453125 L 312.632812 298.5 L 310.644531 298.511719 L 308.503906 298.488281 L 306.925781 298.441406 L 304.835938 298.339844 L 302.234375 298.132812 L 300.351562 297.914062 L 298.871094 297.695312 L 297.597656 297.46875 L 296.171875 297.15625 L 294.335938 296.652344 L 293.214844 296.261719 L 292.449219 295.941406 L 291.585938 295.492188 L 290.972656 295.089844 L 290.257812 294.449219 L 289.75 293.632812 L 289.597656 293 Z M 289.597656 291.417969 "/>
<path style=" stroke:none;fill-rule:nonzero;fill:rgb(96.862745%,70.196078%,16.862745%);fill-opacity:1;" d="M 289.597656 305.066406 L 289.648438 305.054688 L 289.648438 304.828125 L 289.851562 304.308594 L 290.359375 303.597656 L 291.023438 303.015625 L 291.738281 302.554688 L 292.195312 302.3125 L 292.960938 301.96875 L 293.621094 301.71875 L 295.304688 301.203125 L 297.445312 300.71875 L 298.617188 300.511719 L 299.941406 300.316406 L 301.828125 300.101562 L 302.695312 300.019531 L 305.34375 299.835938 L 308.351562 299.722656 L 311.664062 299.6875 L 313.195312 299.699219 L 315.285156 299.746094 L 318.136719 299.871094 L 319.769531 299.984375 L 321.042969 300.101562 L 322.367188 300.25 L 324 300.476562 L 325.527344 300.753906 L 326.75 301.027344 L 327.976562 301.375 L 328.996094 301.742188 L 329.859375 302.140625 L 330.625 302.625 L 331.085938 303.023438 L 331.390625 303.425781 L 324.304688 303.425781 L 323.898438 303.023438 L 323.4375 302.714844 L 322.675781 302.335938 L 321.910156 302.0625 L 321.144531 301.84375 L 319.71875 301.546875 L 318.496094 301.363281 L 316.964844 301.203125 L 315.488281 301.097656 L 313.804688 301.027344 L 312.785156 301.007812 L 310.085938 301.007812 L 307.640625 301.085938 L 306.210938 301.179688 L 305.191406 301.269531 L 303.765625 301.441406 L 302.898438 301.578125 L 302.390625 301.671875 L 300.859375 302.027344 L 299.839844 302.347656 L 299.28125 302.566406 L 298.566406 302.910156 L 298.058594 303.21875 L 297.496094 303.679688 L 297.191406 304.023438 L 296.78125 304.804688 L 296.730469 306.867188 L 296.882812 307.304688 L 297.191406 307.773438 L 297.597656 308.1875 L 298.210938 308.625 L 298.820312 308.957031 L 299.890625 309.402344 L 300.808594 309.703125 L 301.523438 309.898438 L 302.898438 310.207031 L 303.460938 310.308594 L 304.785156 310.515625 L 306.160156 310.675781 L 307.84375 310.816406 L 309.117188 310.882812 L 311.15625 310.941406 L 313.753906 310.941406 L 316.8125 310.871094 L 318.75 310.78125 L 320.074219 310.6875 L 320.941406 310.609375 L 322.011719 310.480469 L 322.777344 310.367188 L 323.488281 310.242188 L 324.355469 310.046875 L 324.355469 307.304688 L 311.765625 307.292969 L 311.765625 306.007812 L 331.339844 305.996094 L 331.390625 310.480469 L 330.320312 310.792969 L 328.996094 311.089844 L 327.71875 311.320312 L 326.394531 311.515625 L 324.507812 311.730469 L 322.980469 311.871094 L 320.636719 312.03125 L 318.496094 312.132812 L 316.253906 312.203125 L 314.265625 312.238281 L 311.921875 312.25 L 309.832031 312.226562 L 307.589844 312.15625 L 305.804688 312.066406 L 304.171875 311.949219 L 302.542969 311.800781 L 300.503906 311.558594 L 299.179688 311.363281 L 297.800781 311.125 L 296.425781 310.835938 L 295.203125 310.527344 L 294.386719 310.285156 L 293.570312 310.011719 L 292.707031 309.667969 L 291.890625 309.277344 L 291.277344 308.921875 L 290.71875 308.519531 L 290.308594 308.140625 L 289.902344 307.625 L 289.699219 307.210938 L 289.597656 306.855469 Z M 289.597656 305.066406 "/>
<path style=" stroke:none;fill-rule:nonzero;fill:rgb(6.27451%,58.823529%,28.235294%);fill-opacity:1;" d="M 333.589844 313.183594 L 333.632812 313.175781 L 351.71875 301.789062 L 357.210938 301.789062 L 375.382812 313.195312 L 369 313.195312 L 364.445312 310.21875 L 344.484375 310.21875 L 340.019531 313.183594 L 333.589844 313.183594 L 346.40625 308.984375 L 362.613281 308.976562 L 354.53125 303.652344 L 354.441406 303.640625 L 354.351562 303.671875 L 346.359375 308.976562 L 346.40625 308.984375 Z M 333.589844 313.183594 "/>
<path style=" stroke:none;fill-rule:nonzero;fill:rgb(96.862745%,70.196078%,16.862745%);fill-opacity:1;" d="M 333.589844 164.613281 L 333.640625 164.394531 L 333.640625 160.050781 L 333.84375 150.273438 L 334.355469 136.804688 L 335.015625 125.726562 L 335.730469 117.035156 L 336.1875 112.472656 L 336.953125 105.953125 L 337.617188 101.175781 L 339.296875 91.398438 L 341.4375 82.273438 L 342.609375 78.363281 L 343.9375 74.671875 L 345.820312 70.542969 L 346.6875 69.023438 L 349.339844 65.546875 L 352.347656 63.375 L 355.660156 62.722656 L 357.1875 62.9375 L 359.277344 63.808594 L 362.132812 66.199219 L 363.761719 68.371094 L 365.035156 70.542969 L 366.363281 73.367188 L 367.992188 77.710938 L 369.523438 82.925781 L 370.746094 88.140625 L 371.96875 94.65625 L 372.988281 101.609375 L 373.855469 109.214844 L 374.617188 118.339844 L 375.078125 125.941406 L 375.382812 133.546875 L 368.296875 133.546875 L 367.890625 125.941406 L 367.433594 120.078125 L 366.667969 112.90625 L 365.902344 107.691406 L 365.140625 103.566406 L 363.710938 97.917969 L 362.488281 94.441406 L 360.960938 91.398438 L 359.480469 89.445312 L 357.800781 88.140625 L 356.78125 87.707031 L 354.078125 87.707031 L 351.632812 89.226562 L 350.207031 90.964844 L 349.1875 92.703125 L 347.757812 95.960938 L 346.890625 98.566406 L 346.382812 100.304688 L 344.855469 107.042969 L 343.835938 113.125 L 343.273438 117.25 L 342.558594 123.769531 L 342.050781 129.636719 L 341.488281 138.324219 L 341.183594 144.84375 L 340.777344 159.617188 L 340.726562 198.722656 L 340.878906 206.976562 L 341.183594 215.882812 L 341.589844 223.707031 L 342.203125 231.960938 L 342.816406 238.261719 L 343.886719 246.734375 L 344.800781 252.382812 L 345.515625 256.078125 L 346.890625 261.941406 L 347.453125 263.898438 L 348.777344 267.808594 L 350.152344 270.851562 L 351.835938 273.457031 L 353.109375 274.761719 L 355.148438 275.847656 L 357.75 275.847656 L 360.804688 274.542969 L 362.742188 272.804688 L 364.070312 271.066406 L 364.933594 269.546875 L 366.003906 267.15625 L 366.769531 264.984375 L 367.484375 262.59375 L 368.351562 258.902344 L 368.351562 206.976562 L 355.761719 206.761719 L 355.761719 182.429688 L 375.332031 182.210938 L 375.382812 267.15625 L 374.3125 273.023438 L 372.988281 278.671875 L 371.714844 283.015625 L 370.386719 286.710938 L 368.503906 290.835938 L 366.972656 293.445312 L 364.628906 296.484375 L 362.488281 298.441406 L 360.246094 299.746094 L 358.257812 300.394531 L 355.914062 300.613281 L 353.824219 300.179688 L 351.582031 298.875 L 349.796875 297.136719 L 348.167969 294.964844 L 346.535156 292.140625 L 344.496094 287.578125 L 343.171875 283.886719 L 341.796875 279.324219 L 340.417969 273.890625 L 339.195312 268.027344 L 338.378906 263.464844 L 337.566406 258.25 L 336.699219 251.730469 L 335.882812 244.34375 L 335.273438 237.609375 L 334.710938 230.007812 L 334.304688 222.835938 L 333.894531 213.058594 L 333.691406 205.238281 L 333.589844 198.503906 Z M 333.589844 164.613281 "/>
<path style=" stroke:none;fill-rule:nonzero;fill:rgb(96.862745%,70.196078%,16.862745%);fill-opacity:1;" d="M 377.582031 145.957031 L 377.632812 145.691406 L 377.632812 140.347656 L 377.835938 128.324219 L 378.347656 111.761719 L 379.011719 98.136719 L 379.722656 87.453125 L 380.183594 81.839844 L 380.945312 73.828125 L 381.609375 67.949219 L 383.292969 55.925781 L 385.433594 44.707031 L 386.605469 39.898438 L 387.929688 35.355469 L 389.816406 30.28125 L 390.683594 28.410156 L 393.332031 24.136719 L 396.339844 21.464844 L 399.652344 20.664062 L 401.179688 20.929688 L 403.269531 22 L 406.125 24.9375 L 407.757812 27.609375 L 409.03125 30.28125 L 410.355469 33.753906 L 411.988281 39.097656 L 413.515625 45.507812 L 414.738281 51.917969 L 415.960938 59.933594 L 416.980469 68.484375 L 417.847656 77.832031 L 418.613281 89.054688 L 419.070312 98.40625 L 419.375 107.753906 L 412.292969 107.753906 L 411.882812 98.40625 L 411.425781 91.191406 L 410.660156 82.375 L 409.898438 75.964844 L 409.132812 70.886719 L 407.703125 63.941406 L 406.480469 59.667969 L 404.953125 55.925781 L 403.476562 53.523438 L 401.792969 51.917969 L 400.773438 51.386719 L 398.070312 51.386719 L 395.625 53.253906 L 394.199219 55.394531 L 393.179688 57.53125 L 391.753906 61.539062 L 390.886719 64.742188 L 390.375 66.878906 L 388.847656 75.164062 L 387.828125 82.640625 L 387.265625 87.71875 L 386.554688 95.734375 L 386.042969 102.945312 L 385.484375 113.632812 L 385.175781 121.648438 L 384.769531 139.8125 L 384.71875 187.902344 L 384.871094 198.054688 L 385.175781 209.007812 L 385.585938 218.625 L 386.195312 228.773438 L 386.808594 236.523438 L 387.878906 246.941406 L 388.796875 253.886719 L 389.507812 258.429688 L 390.886719 265.640625 L 391.445312 268.046875 L 392.769531 272.855469 L 394.148438 276.597656 L 395.828125 279.800781 L 397.105469 281.40625 L 399.140625 282.742188 L 401.742188 282.742188 L 404.800781 281.136719 L 406.738281 279 L 408.0625 276.863281 L 408.929688 274.992188 L 410 272.054688 L 410.761719 269.382812 L 411.476562 266.445312 L 412.34375 261.902344 L 412.34375 198.054688 L 399.753906 197.785156 L 399.753906 167.863281 L 419.324219 167.597656 L 419.375 272.054688 L 418.304688 279.265625 L 416.980469 286.214844 L 415.707031 291.554688 L 414.382812 296.097656 L 412.496094 301.175781 L 410.96875 304.378906 L 408.621094 308.121094 L 406.480469 310.523438 L 404.238281 312.128906 L 402.25 312.929688 L 399.90625 313.195312 L 397.816406 312.660156 L 395.574219 311.058594 L 393.789062 308.921875 L 392.160156 306.25 L 390.527344 302.777344 L 388.488281 297.167969 L 387.164062 292.625 L 385.789062 287.015625 L 384.414062 280.335938 L 383.191406 273.121094 L 382.375 267.511719 L 381.558594 261.101562 L 380.691406 253.085938 L 379.875 244.003906 L 379.265625 235.722656 L 378.703125 226.371094 L 378.296875 217.554688 L 377.890625 205.53125 L 377.683594 195.914062 L 377.582031 187.632812 Z M 377.582031 145.957031 "/>
<path style=" stroke:none;fill-rule:nonzero;fill:rgb(6.27451%,58.823529%,28.235294%);fill-opacity:1;" d="M 421.578125 307.433594 L 421.621094 307.1875 L 439.703125 41.601562 L 445.195312 41.601562 L 463.371094 307.683594 L 456.984375 307.683594 L 452.429688 238.226562 L 432.472656 238.226562 L 428.007812 307.433594 L 421.578125 307.433594 L 434.390625 209.496094 L 450.601562 209.246094 L 442.519531 85.074219 L 442.429688 84.824219 L 442.339844 85.574219 L 434.347656 209.246094 L 434.390625 209.496094 Z M 421.578125 307.433594 "/>
<path style=" stroke:none;fill-rule:nonzero;fill:rgb(83.921569%,15.686275%,22.352941%);fill-opacity:1;" d="M 421.578125 308.859375 L 463.371094 308.859375 L 463.371094 309.324219 L 445.953125 309.328125 L 445.953125 313.195312 L 438.945312 313.195312 L 438.945312 309.332031 L 438.84375 309.324219 L 421.578125 309.324219 Z M 421.578125 308.859375 "/>
<path style=" stroke:none;fill-rule:nonzero;fill:rgb(6.27451%,58.823529%,28.235294%);fill-opacity:1;" d="M 465.570312 298.242188 L 465.613281 298.027344 L 483.699219 68.75 L 489.191406 68.75 L 507.363281 298.457031 L 500.976562 298.457031 L 496.425781 238.496094 L 476.464844 238.496094 L 472 298.242188 L 465.570312 298.242188 L 478.382812 213.691406 L 494.59375 213.476562 L 486.511719 106.28125 L 486.421875 106.0625 L 486.332031 106.710938 L 478.339844 213.476562 L 478.382812 213.691406 Z M 465.570312 298.242188 "/>
<path style=" stroke:none;fill-rule:nonzero;fill:rgb(83.921569%,15.686275%,22.352941%);fill-opacity:1;" d="M 465.570312 299.632812 L 507.363281 299.632812 L 507.363281 301.085938 L 489.945312 301.097656 L 489.945312 313.195312 L 482.9375 313.195312 L 482.9375 301.109375 L 482.835938 301.085938 L 465.570312 301.085938 Z M 465.570312 299.632812 "/>
<path style=" stroke:none;fill-rule:nonzero;fill:rgb(6.27451%,58.823529%,28.235294%);fill-opacity:1;" d="M 509.5625 311.988281 L 509.609375 311.980469 L 527.691406 307.140625 L 533.183594 307.140625 L 551.355469 311.992188 L 544.972656 311.992188 L 540.417969 310.726562 L 520.457031 310.726562 L 515.992188 311.988281 L 509.5625 311.988281 L 522.378906 310.203125 L 538.585938 310.199219 L 530.503906 307.933594 L 530.414062 307.929688 L 530.324219 307.945312 L 522.332031 310.199219 L 522.378906 310.203125 Z M 509.5625 311.988281 "/>
<path style=" stroke:none;fill-rule:nonzero;fill:rgb(14.509804%,36.078431%,60%);fill-opacity:1;" d="M 509.5625 288.257812 L 509.613281 288.226562 L 509.613281 287.539062 L 509.765625 286.453125 L 510.125 285.074219 L 510.480469 284.128906 L 511.398438 282.4375 L 512.671875 280.804688 L 513.996094 279.542969 L 514.964844 278.800781 L 515.832031 278.226562 L 517.820312 277.167969 L 519.09375 276.621094 L 520.46875 276.132812 L 522.152344 275.648438 L 523.375 275.359375 L 526.128906 274.902344 L 528.167969 274.703125 L 529.746094 274.617188 L 533.160156 274.617188 L 535.199219 274.730469 L 536.679688 274.875 L 538.308594 275.101562 L 539.683594 275.359375 L 542.082031 275.992188 L 544.222656 276.792969 L 545.191406 277.253906 L 546.71875 278.140625 L 547.890625 279 L 548.707031 279.746094 L 549.625 280.804688 L 550.441406 282.09375 L 551.050781 283.558594 L 551.355469 284.789062 L 544.222656 284.789062 L 543.863281 283.644531 L 543.457031 282.753906 L 542.691406 281.578125 L 541.929688 280.75 L 540.859375 279.917969 L 539.890625 279.371094 L 538.5625 278.828125 L 537.390625 278.484375 L 536.167969 278.226562 L 534.996094 278.054688 L 532.753906 277.882812 L 530.152344 277.882812 L 529.1875 277.941406 L 527.199219 278.167969 L 526.128906 278.371094 L 524.597656 278.769531 L 523.527344 279.144531 L 522.253906 279.714844 L 521.386719 280.203125 L 520.316406 280.949219 L 519.554688 281.609375 L 518.6875 282.554688 L 518.175781 283.269531 L 517.71875 284.074219 L 517.308594 285.019531 L 517.003906 286.023438 L 516.800781 287.082031 L 516.699219 288.113281 L 516.699219 292.554688 L 516.800781 293.585938 L 517.054688 294.789062 L 517.71875 296.539062 L 518.6875 298.058594 L 519.808594 299.261719 L 520.878906 300.121094 L 521.488281 300.523438 L 522.304688 300.980469 L 523.578125 301.554688 L 525.414062 302.128906 L 526.484375 302.355469 L 528.117188 302.585938 L 529.796875 302.699219 L 532.039062 302.699219 L 534.027344 302.585938 L 535.351562 302.441406 L 536.730469 302.214844 L 538.613281 301.726562 L 539.789062 301.269531 L 540.804688 300.722656 L 541.570312 300.179688 L 542.082031 299.71875 L 542.84375 298.832031 L 543.457031 297.855469 L 543.914062 296.855469 L 544.222656 295.878906 L 551.355469 295.878906 L 551.050781 297.027344 L 550.59375 298.144531 L 550.132812 298.976562 L 549.421875 299.976562 L 548.605469 300.867188 L 547.433594 301.871094 L 546.464844 302.527344 L 545.191406 303.246094 L 544.015625 303.789062 L 542.742188 304.277344 L 540.859375 304.851562 L 539.632812 305.136719 L 538.308594 305.394531 L 536.730469 305.625 L 534.742188 305.824219 L 532.601562 305.9375 L 530.613281 305.96875 L 528.472656 305.910156 L 526.890625 305.796875 L 524.800781 305.539062 L 522.203125 305.023438 L 520.316406 304.476562 L 518.839844 303.933594 L 517.566406 303.359375 L 516.136719 302.585938 L 514.304688 301.324219 L 513.183594 300.351562 L 512.417969 299.546875 L 511.550781 298.429688 L 510.9375 297.425781 L 510.226562 295.824219 L 509.714844 293.789062 L 509.5625 292.210938 Z M 509.5625 288.257812 "/>
<path style=" stroke:none;fill-rule:nonzero;fill:rgb(96.862745%,70.196078%,16.862745%);fill-opacity:1;" d="M 509.5625 227.96875 L 509.613281 227.894531 L 509.613281 226.441406 L 509.816406 223.175781 L 510.328125 218.671875 L 510.992188 214.964844 L 511.703125 212.058594 L 512.164062 210.535156 L 512.925781 208.355469 L 513.589844 206.757812 L 515.273438 203.488281 L 517.414062 200.4375 L 518.585938 199.128906 L 519.910156 197.894531 L 521.796875 196.515625 L 522.660156 196.007812 L 525.3125 194.84375 L 528.320312 194.117188 L 531.632812 193.902344 L 533.160156 193.972656 L 535.25 194.265625 L 538.105469 195.0625 L 539.734375 195.789062 L 541.011719 196.515625 L 542.335938 197.460938 L 543.964844 198.914062 L 545.496094 200.65625 L 546.71875 202.398438 L 547.941406 204.578125 L 548.960938 206.902344 L 549.828125 209.445312 L 550.59375 212.496094 L 551.050781 215.039062 L 551.355469 217.582031 L 544.273438 217.582031 L 543.863281 215.039062 L 543.40625 213.078125 L 542.640625 210.679688 L 541.875 208.9375 L 541.113281 207.558594 L 539.683594 205.667969 L 538.460938 204.507812 L 536.933594 203.488281 L 535.453125 202.835938 L 533.773438 202.398438 L 532.753906 202.253906 L 530.050781 202.253906 L 527.605469 202.761719 L 526.179688 203.34375 L 525.160156 203.925781 L 523.730469 205.015625 L 522.867188 205.886719 L 522.355469 206.46875 L 520.828125 208.71875 L 519.808594 210.753906 L 519.246094 212.132812 L 518.535156 214.3125 L 518.023438 216.273438 L 517.464844 219.179688 L 517.15625 221.359375 L 516.75 226.296875 L 516.699219 239.371094 L 516.851562 242.132812 L 517.15625 245.113281 L 517.566406 247.726562 L 518.175781 250.488281 L 518.789062 252.59375 L 519.859375 255.425781 L 520.777344 257.316406 L 521.488281 258.550781 L 522.867188 260.511719 L 523.425781 261.164062 L 524.75 262.472656 L 526.128906 263.488281 L 527.808594 264.359375 L 529.082031 264.796875 L 531.121094 265.160156 L 533.722656 265.160156 L 536.78125 264.722656 L 538.71875 264.144531 L 540.042969 263.5625 L 540.910156 263.054688 L 541.980469 262.253906 L 542.742188 261.527344 L 543.457031 260.730469 L 544.324219 259.492188 L 544.324219 242.132812 L 531.734375 242.058594 L 531.734375 233.925781 L 551.304688 233.851562 L 551.355469 262.253906 L 550.285156 264.214844 L 548.960938 266.105469 L 547.6875 267.558594 L 546.363281 268.792969 L 544.476562 270.171875 L 542.945312 271.042969 L 540.601562 272.0625 L 538.460938 272.714844 L 536.21875 273.148438 L 534.230469 273.367188 L 531.886719 273.441406 L 529.796875 273.296875 L 527.554688 272.859375 L 525.769531 272.277344 L 524.140625 271.550781 L 522.507812 270.609375 L 520.46875 269.082031 L 519.144531 267.847656 L 517.769531 266.320312 L 516.394531 264.507812 L 515.167969 262.542969 L 514.355469 261.019531 L 513.539062 259.277344 L 512.671875 257.097656 L 511.855469 254.628906 L 511.246094 252.375 L 510.683594 249.832031 L 510.277344 247.4375 L 509.867188 244.167969 L 509.664062 241.550781 L 509.5625 239.300781 Z M 509.5625 227.96875 "/>
<path style=" stroke:none;fill-rule:nonzero;fill:rgb(83.921569%,15.686275%,22.352941%);fill-opacity:1;" d="M 509.5625 313.164062 L 551.355469 313.164062 L 551.355469 313.167969 L 533.9375 313.167969 L 533.9375 313.195312 L 526.929688 313.195312 L 526.929688 313.167969 L 509.5625 313.167969 Z M 509.5625 313.164062 "/>
<path style=" stroke:none;fill-rule:nonzero;fill:rgb(6.27451%,58.823529%,28.235294%);fill-opacity:1;" d="M 553.554688 308.546875 L 553.601562 308.539062 L 571.683594 300.449219 L 577.175781 300.449219 L 595.351562 308.554688 L 588.964844 308.554688 L 584.410156 306.441406 L 564.453125 306.441406 L 559.988281 308.546875 L 553.554688 308.546875 L 566.371094 305.566406 L 582.578125 305.558594 L 574.5 301.773438 L 574.410156 301.765625 L 574.320312 301.789062 L 566.328125 305.558594 L 566.371094 305.566406 Z M 553.554688 308.546875 "/>
<path style=" stroke:none;fill-rule:nonzero;fill:rgb(14.509804%,36.078431%,60%);fill-opacity:1;" d="M 553.554688 292.074219 L 553.609375 292.0625 L 553.609375 291.785156 L 553.761719 291.339844 L 554.117188 290.78125 L 554.472656 290.398438 L 555.390625 289.710938 L 556.664062 289.046875 L 557.992188 288.53125 L 558.960938 288.230469 L 559.824219 287.996094 L 561.8125 287.566406 L 563.085938 287.34375 L 564.464844 287.148438 L 566.144531 286.949219 L 567.367188 286.832031 L 570.121094 286.644531 L 572.160156 286.5625 L 573.738281 286.527344 L 577.15625 286.527344 L 579.195312 286.574219 L 580.671875 286.632812 L 582.300781 286.726562 L 583.679688 286.832031 L 586.074219 287.089844 L 588.214844 287.414062 L 589.183594 287.601562 L 590.710938 287.960938 L 591.882812 288.3125 L 592.699219 288.613281 L 593.617188 289.046875 L 594.433594 289.570312 L 595.042969 290.164062 L 595.351562 290.664062 L 588.214844 290.664062 L 587.859375 290.199219 L 587.449219 289.839844 L 586.6875 289.359375 L 585.921875 289.023438 L 584.851562 288.683594 L 583.882812 288.464844 L 582.558594 288.242188 L 581.386719 288.101562 L 580.160156 287.996094 L 578.988281 287.925781 L 576.746094 287.855469 L 574.148438 287.855469 L 573.179688 287.878906 L 571.191406 287.972656 L 570.121094 288.054688 L 568.59375 288.21875 L 567.523438 288.371094 L 566.246094 288.601562 L 565.382812 288.800781 L 564.3125 289.105469 L 563.546875 289.371094 L 562.679688 289.757812 L 562.171875 290.046875 L 561.710938 290.375 L 561.304688 290.757812 L 560.996094 291.167969 L 560.792969 291.597656 L 560.691406 292.015625 L 560.691406 293.824219 L 560.792969 294.242188 L 561.050781 294.730469 L 561.710938 295.441406 L 562.679688 296.058594 L 563.800781 296.546875 L 564.871094 296.898438 L 565.484375 297.0625 L 566.296875 297.246094 L 567.574219 297.480469 L 569.40625 297.714844 L 570.476562 297.808594 L 572.109375 297.898438 L 573.789062 297.945312 L 576.035156 297.945312 L 578.019531 297.898438 L 579.347656 297.84375 L 580.722656 297.75 L 582.609375 297.550781 L 583.78125 297.363281 L 584.800781 297.144531 L 585.5625 296.921875 L 586.074219 296.734375 L 586.839844 296.375 L 587.449219 295.976562 L 587.910156 295.570312 L 588.214844 295.175781 L 595.351562 295.175781 L 595.042969 295.640625 L 594.585938 296.09375 L 594.128906 296.433594 L 593.414062 296.839844 L 592.597656 297.203125 L 591.425781 297.609375 L 590.457031 297.878906 L 589.183594 298.167969 L 588.011719 298.390625 L 586.738281 298.585938 L 584.851562 298.820312 L 583.628906 298.9375 L 582.300781 299.042969 L 580.722656 299.136719 L 578.734375 299.21875 L 576.59375 299.261719 L 574.605469 299.273438 L 572.464844 299.25 L 570.886719 299.207031 L 568.796875 299.101562 L 566.195312 298.890625 L 564.3125 298.667969 L 562.832031 298.449219 L 561.558594 298.214844 L 560.132812 297.898438 L 558.296875 297.386719 L 557.175781 296.992188 L 556.410156 296.664062 L 555.542969 296.210938 L 554.933594 295.804688 L 554.21875 295.152344 L 553.710938 294.324219 L 553.554688 293.683594 Z M 553.554688 292.074219 "/>
<path style=" stroke:none;fill-rule:nonzero;fill:rgb(96.862745%,70.196078%,16.862745%);fill-opacity:1;" d="M 553.554688 311.214844 L 553.609375 311.210938 L 553.609375 311.148438 L 553.8125 311.003906 L 554.320312 310.808594 L 554.984375 310.648438 L 555.695312 310.523438 L 556.15625 310.457031 L 556.921875 310.359375 L 557.582031 310.289062 L 559.265625 310.148438 L 561.40625 310.015625 L 562.578125 309.957031 L 563.902344 309.90625 L 565.789062 309.84375 L 566.65625 309.820312 L 569.304688 309.773438 L 572.3125 309.738281 L 575.625 309.730469 L 577.15625 309.734375 L 579.246094 309.746094 L 582.097656 309.78125 L 583.730469 309.8125 L 585.003906 309.84375 L 586.328125 309.886719 L 587.960938 309.949219 L 589.488281 310.023438 L 590.710938 310.101562 L 591.933594 310.195312 L 592.953125 310.296875 L 593.820312 310.40625 L 594.585938 310.539062 L 595.042969 310.652344 L 595.351562 310.761719 L 588.265625 310.761719 L 587.859375 310.652344 L 587.398438 310.566406 L 586.632812 310.460938 L 585.871094 310.386719 L 585.105469 310.324219 L 583.679688 310.242188 L 582.457031 310.191406 L 580.925781 310.148438 L 579.449219 310.121094 L 577.765625 310.101562 L 576.746094 310.09375 L 574.046875 310.09375 L 571.597656 310.117188 L 570.171875 310.140625 L 569.152344 310.167969 L 567.726562 310.214844 L 566.859375 310.253906 L 566.347656 310.277344 L 564.820312 310.375 L 563.800781 310.464844 L 563.242188 310.523438 L 562.527344 310.621094 L 562.015625 310.707031 L 561.457031 310.832031 L 561.152344 310.925781 L 560.742188 311.140625 L 560.691406 311.710938 L 560.84375 311.832031 L 561.152344 311.960938 L 561.558594 312.074219 L 562.171875 312.195312 L 562.78125 312.289062 L 563.851562 312.410156 L 564.769531 312.492188 L 565.484375 312.546875 L 566.859375 312.632812 L 567.417969 312.660156 L 568.746094 312.71875 L 570.121094 312.761719 L 571.804688 312.800781 L 573.078125 312.820312 L 575.117188 312.835938 L 577.714844 312.835938 L 580.773438 312.816406 L 582.710938 312.789062 L 584.035156 312.765625 L 584.902344 312.742188 L 585.972656 312.707031 L 586.738281 312.675781 L 587.449219 312.640625 L 588.316406 312.589844 L 588.316406 311.832031 L 575.726562 311.828125 L 575.726562 311.472656 L 595.300781 311.472656 L 595.351562 312.707031 L 594.28125 312.792969 L 592.953125 312.875 L 591.679688 312.941406 L 590.355469 312.992188 L 588.46875 313.054688 L 586.941406 313.089844 L 584.597656 313.136719 L 582.457031 313.164062 L 580.210938 313.183594 L 578.226562 313.191406 L 575.878906 313.195312 L 573.789062 313.191406 L 571.546875 313.171875 L 569.765625 313.144531 L 568.132812 313.113281 L 566.503906 313.074219 L 564.464844 313.007812 L 563.136719 312.953125 L 561.761719 312.886719 L 560.386719 312.804688 L 559.164062 312.722656 L 558.347656 312.65625 L 557.53125 312.578125 L 556.664062 312.484375 L 555.851562 312.375 L 555.238281 312.277344 L 554.679688 312.167969 L 554.269531 312.0625 L 553.863281 311.921875 L 553.660156 311.804688 L 553.554688 311.707031 Z M 553.554688 311.214844 "/>
<path style=" stroke:none;fill-rule:nonzero;fill:rgb(83.921569%,15.686275%,22.352941%);fill-opacity:1;" d="M 553.554688 158.148438 L 595.351562 158.148438 L 595.351562 171.765625 L 577.933594 171.882812 L 577.933594 285.355469 L 570.925781 285.355469 L 570.925781 172.003906 L 570.824219 171.765625 L 553.554688 171.765625 Z M 553.554688 158.148438 "/>
<path style=" stroke:none;fill-rule:nonzero;fill:rgb(6.27451%,58.823529%,28.235294%);fill-opacity:1;" d="M 597.550781 308.726562 L 597.59375 308.722656 L 615.679688 306.464844 L 621.171875 306.464844 L 639.34375 308.726562 L 632.957031 308.726562 L 628.402344 308.136719 L 608.445312 308.136719 L 603.980469 308.726562 L 597.550781 308.726562 L 610.363281 307.890625 L 626.574219 307.890625 L 618.492188 306.832031 L 618.402344 306.832031 L 618.3125 306.839844 L 610.320312 307.890625 L 610.363281 307.890625 Z M 597.550781 308.726562 "/>
<path style=" stroke:none;fill-rule:nonzero;fill:rgb(14.509804%,36.078431%,60%);fill-opacity:1;" d="M 597.550781 313.082031 L 597.601562 313.082031 L 597.601562 313.078125 L 597.753906 313.070312 L 598.109375 313.0625 L 598.46875 313.054688 L 599.386719 313.046875 L 600.660156 313.035156 L 601.984375 313.027344 L 602.953125 313.023438 L 603.820312 313.019531 L 605.808594 313.011719 L 607.082031 313.007812 L 608.457031 313.003906 L 610.140625 313.003906 L 611.363281 313 L 614.113281 312.996094 L 624.664062 312.996094 L 626.296875 313 L 627.671875 313 L 630.066406 313.003906 L 632.207031 313.007812 L 633.175781 313.011719 L 634.707031 313.019531 L 635.878906 313.023438 L 636.691406 313.027344 L 637.609375 313.035156 L 638.425781 313.042969 L 639.039062 313.050781 L 639.34375 313.0625 L 632.207031 313.0625 L 631.851562 313.054688 L 631.445312 313.046875 L 630.679688 313.039062 L 629.914062 313.035156 L 628.84375 313.03125 L 627.875 313.027344 L 626.550781 313.023438 L 625.378906 313.019531 L 622.984375 313.019531 L 620.742188 313.015625 L 617.171875 313.015625 L 615.183594 313.019531 L 614.113281 313.019531 L 612.585938 313.023438 L 611.515625 313.023438 L 610.242188 313.027344 L 609.375 313.03125 L 608.304688 313.035156 L 607.539062 313.039062 L 606.671875 313.046875 L 606.164062 313.050781 L 605.703125 313.054688 L 605.296875 313.0625 L 604.992188 313.070312 L 604.789062 313.074219 L 604.683594 313.082031 L 604.683594 313.109375 L 604.789062 313.117188 L 605.042969 313.125 L 605.703125 313.136719 L 606.671875 313.144531 L 607.792969 313.152344 L 608.863281 313.160156 L 609.476562 313.160156 L 610.292969 313.164062 L 611.566406 313.167969 L 613.402344 313.171875 L 614.472656 313.171875 L 616.101562 313.175781 L 622.015625 313.175781 L 623.339844 313.171875 L 624.714844 313.171875 L 626.601562 313.167969 L 627.773438 313.164062 L 628.792969 313.164062 L 629.558594 313.160156 L 630.066406 313.15625 L 630.832031 313.148438 L 631.445312 313.144531 L 631.902344 313.136719 L 632.207031 313.132812 L 639.34375 313.132812 L 639.039062 313.140625 L 638.578125 313.144531 L 638.121094 313.152344 L 637.40625 313.15625 L 636.589844 313.164062 L 635.417969 313.167969 L 634.449219 313.175781 L 633.175781 313.179688 L 632.003906 313.183594 L 630.730469 313.183594 L 628.84375 313.1875 L 627.621094 313.191406 L 626.296875 313.191406 L 624.714844 313.195312 L 614.878906 313.195312 L 612.789062 313.191406 L 610.191406 313.191406 L 608.304688 313.1875 L 606.824219 313.183594 L 605.550781 313.179688 L 604.125 313.175781 L 602.289062 313.167969 L 601.167969 313.160156 L 600.402344 313.15625 L 599.539062 313.148438 L 598.925781 313.140625 L 598.210938 313.132812 L 597.703125 313.117188 L 597.550781 313.109375 Z M 597.550781 313.082031 "/>
<path style=" stroke:none;fill-rule:nonzero;fill:rgb(96.862745%,70.196078%,16.862745%);fill-opacity:1;" d="M 597.550781 310.722656 L 597.601562 310.722656 L 597.601562 310.6875 L 597.804688 310.609375 L 598.316406 310.5 L 598.976562 310.410156 L 599.691406 310.339844 L 600.148438 310.304688 L 600.914062 310.25 L 601.578125 310.210938 L 603.257812 310.132812 L 605.398438 310.058594 L 606.570312 310.027344 L 607.894531 310 L 609.78125 309.964844 L 610.648438 309.953125 L 613.300781 309.925781 L 616.304688 309.90625 L 619.617188 309.902344 L 621.148438 309.902344 L 623.238281 309.910156 L 626.09375 309.929688 L 627.722656 309.949219 L 628.996094 309.964844 L 630.324219 309.988281 L 631.953125 310.023438 L 633.480469 310.066406 L 634.707031 310.105469 L 635.929688 310.160156 L 636.949219 310.214844 L 637.816406 310.277344 L 638.578125 310.351562 L 639.039062 310.410156 L 639.34375 310.472656 L 632.257812 310.472656 L 631.851562 310.410156 L 631.394531 310.363281 L 630.628906 310.308594 L 629.863281 310.265625 L 629.097656 310.230469 L 627.671875 310.1875 L 626.449219 310.15625 L 624.917969 310.132812 L 623.441406 310.117188 L 621.757812 310.105469 L 620.742188 310.101562 L 618.039062 310.101562 L 615.59375 310.117188 L 614.164062 310.128906 L 613.144531 310.144531 L 611.71875 310.171875 L 610.851562 310.191406 L 610.34375 310.203125 L 608.8125 310.257812 L 607.792969 310.308594 L 607.234375 310.339844 L 606.519531 310.394531 L 606.011719 310.441406 L 605.449219 310.511719 L 605.144531 310.5625 L 604.738281 310.683594 L 604.683594 311 L 604.839844 311.066406 L 605.144531 311.136719 L 605.550781 311.199219 L 606.164062 311.265625 L 606.773438 311.316406 L 607.84375 311.386719 L 608.761719 311.433594 L 609.476562 311.460938 L 610.851562 311.507812 L 611.414062 311.523438 L 612.738281 311.554688 L 614.113281 311.582031 L 615.796875 311.601562 L 617.070312 311.613281 L 619.109375 311.621094 L 621.707031 311.621094 L 624.765625 311.609375 L 626.703125 311.597656 L 628.027344 311.582031 L 628.894531 311.570312 L 629.964844 311.550781 L 630.730469 311.535156 L 631.445312 311.515625 L 632.308594 311.484375 L 632.308594 311.066406 L 619.722656 311.0625 L 619.722656 310.867188 L 639.292969 310.867188 L 639.34375 311.550781 L 638.273438 311.597656 L 636.949219 311.644531 L 635.675781 311.679688 L 634.347656 311.707031 L 632.464844 311.742188 L 630.933594 311.761719 L 628.589844 311.789062 L 626.449219 311.804688 L 624.207031 311.8125 L 622.21875 311.820312 L 619.875 311.820312 L 617.785156 311.816406 L 615.542969 311.808594 L 613.757812 311.792969 L 612.125 311.773438 L 610.496094 311.753906 L 608.457031 311.714844 L 607.132812 311.6875 L 605.753906 311.648438 L 604.378906 311.605469 L 603.15625 311.558594 L 602.339844 311.519531 L 601.527344 311.480469 L 600.660156 311.425781 L 599.84375 311.367188 L 599.230469 311.3125 L 598.671875 311.25 L 598.261719 311.195312 L 597.855469 311.113281 L 597.652344 311.050781 L 597.550781 310.996094 Z M 597.550781 310.722656 "/>
<path style=" stroke:none;fill-rule:nonzero;fill:rgb(83.921569%,15.686275%,22.352941%);fill-opacity:1;" d="M 597.550781 302.910156 L 639.34375 302.910156 L 639.34375 303.167969 L 621.925781 303.167969 L 621.925781 305.289062 L 614.917969 305.289062 L 614.917969 303.171875 L 614.816406 303.167969 L 597.550781 303.167969 Z M 597.550781 302.910156 "/>
<g style="fill:rgb(0%,0%,0%);fill-opacity:1;">
  <use xlink:href="#glyph0-1" x="21.957031" y="317.018555"/>
  <use xlink:href="#glyph0-2" x="27.291016" y="317.018555"/>
  <use xlink:href="#glyph0-1" x="29.958008" y="317.018555"/>
</g>
<g style="fill:rgb(0%,0%,0%);fill-opacity:1;">
  <use xlink:href="#glyph0-1" x="21.957031" y="243.592773"/>
  <use xlink:href="#glyph0-2" x="27.291016" y="243.592773"/>
  <use xlink:href="#glyph0-3" x="29.958008" y="243.592773"/>
</g>
<g style="fill:rgb(0%,0%,0%);fill-opacity:1;">
  <use xlink:href="#glyph0-4" x="21.957031" y="170.163086"/>
  <use xlink:href="#glyph0-2" x="27.291016" y="170.163086"/>
  <use xlink:href="#glyph0-1" x="29.958008" y="170.163086"/>
</g>
<g style="fill:rgb(0%,0%,0%);fill-opacity:1;">
  <use xlink:href="#glyph0-4" x="21.957031" y="96.737305"/>
  <use xlink:href="#glyph0-2" x="27.291016" y="96.737305"/>
  <use xlink:href="#glyph0-3" x="29.958008" y="96.737305"/>
</g>
<g style="fill:rgb(0%,0%,0%);fill-opacity:1;">
  <use xlink:href="#glyph0-5" x="21.957031" y="23.311523"/>
  <use xlink:href="#glyph0-2" x="27.291016" y="23.311523"/>
  <use xlink:href="#glyph0-1" x="29.958008" y="23.311523"/>
</g>
<g style="fill:rgb(0%,0%,0%);fill-opacity:1;">
  <use xlink:href="#glyph0-4" x="87.527344" y="338.19043"/>
</g>
<g style="fill:rgb(0%,0%,0%);fill-opacity:1;">
  <use xlink:href="#glyph0-5" x="131.519531" y="338.19043"/>
</g>
<g style="fill:rgb(0%,0%,0%);fill-opacity:1;">
  <use xlink:href="#glyph0-6" x="175.511719" y="338.19043"/>
</g>
<g style="fill:rgb(0%,0%,0%);fill-opacity:1;">
  <use xlink:href="#glyph0-7" x="219.507812" y="338.19043"/>
</g>
<g style="fill:rgb(0%,0%,0%);fill-opacity:1;">
  <use xlink:href="#glyph0-3" x="263.5" y="338.19043"/>
</g>
<g style="fill:rgb(0%,0%,0%);fill-opacity:1;">
  <use xlink:href="#glyph0-8" x="307.492188" y="338.19043"/>
</g>
<g style="fill:rgb(0%,0%,0%);fill-opacity:1;">
  <use xlink:href="#glyph0-9" x="351.488281" y="338.19043"/>
</g>
<g style="fill:rgb(0%,0%,0%);fill-opacity:1;">
  <use xlink:href="#glyph0-10" x="395.480469" y="338.19043"/>
</g>
<g style="fill:rgb(0%,0%,0%);fill-opacity:1;">
  <use xlink:href="#glyph0-11" x="439.472656" y="338.19043"/>
</g>
<g style="fill:rgb(0%,0%,0%);fill-opacity:1;">
  <use xlink:href="#glyph0-4" x="480.964844" y="338.19043"/>
  <use xlink:href="#glyph0-1" x="486.298828" y="338.19043"/>
</g>
<g style="fill:rgb(0%,0%,0%);fill-opacity:1;">
  <use xlink:href="#glyph0-4" x="524.960938" y="338.19043"/>
  <use xlink:href="#glyph0-4" x="530.294922" y="338.19043"/>
</g>
<g style="fill:rgb(0%,0%,0%);fill-opacity:1;">
  <use xlink:href="#glyph0-4" x="568.953125" y="338.19043"/>
  <use xlink:href="#glyph0-5" x="574.287109" y="338.19043"/>
</g>
<g style="fill:rgb(0%,0%,0%);fill-opacity:1;">
  <use xlink:href="#glyph0-4" x="612.945312" y="338.19043"/>
  <use xlink:href="#glyph0-6" x="618.279297" y="338.19043"/>
</g>
<g style="fill:rgb(0%,0%,0%);fill-opacity:1;">
  <use xlink:href="#glyph0-4" x="656.941406" y="338.19043"/>
  <use xlink:href="#glyph0-7" x="662.275391" y="338.19043"/>
</g>
<g style="fill:rgb(0%,0%,0%);fill-opacity:1;">
  <use xlink:href="#glyph1-1" x="14.412109" y="178.015625"/>
  <use xlink:href="#glyph1-2" x="14.412109" y="170.011719"/>
  <use xlink:href="#glyph1-3" x="14.412109" y="167.347656"/>
  <use xlink:href="#glyph1-4" x="14.412109" y="164.011719"/>
</g>
</g>
</svg>
