<?xml version="1.0" encoding="UTF-8"?>
<svg xmlns="http://www.w3.org/2000/svg" xmlns:xlink="http://www.w3.org/1999/xlink" width="720pt" height="360pt" viewBox="0 0 720 360" version="1.1">
<defs>
<g>
<symbol overflow="visible" id="glyph0-0">
<path style="stroke:none;" d=""/>
</symbol>
<symbol overflow="visible" id="glyph0-1">
<path style="stroke:none;" d="M 2.640625 -6.796875 C 2 -6.796875 1.421875 -6.53125 1.078125 -6.046875 C 0.640625 -5.453125 0.40625 -4.546875 0.40625 -3.296875 C 0.40625 -1 1.1875 0.21875 2.640625 0.21875 C 4.078125 0.21875 4.859375 -1 4.859375 -3.234375 C 4.859375 -4.5625 4.65625 -5.4375 4.203125 -6.046875 C 3.84375 -6.53125 3.28125 -6.796875 2.640625 -6.796875 Z M 2.640625 -6.046875 C 3.546875 -6.046875 4 -5.125 4 -3.3125 C 4 -1.375 3.5625 -0.484375 2.625 -0.484375 C 1.734375 -0.484375 1.28125 -1.421875 1.28125 -3.28125 C 1.28125 -5.140625 1.734375 -6.046875 2.640625 -6.046875 Z M 2.640625 -6.046875 "/>
</symbol>
<symbol overflow="visible" id="glyph0-2">
<path style="stroke:none;" d="M 1.828125 -1 L 0.828125 -1 L 0.828125 0 L 1.828125 0 Z M 1.828125 -1 "/>
</symbol>
<symbol overflow="visible" id="glyph0-3">
<path style="stroke:none;" d="M 4.5625 -6.796875 L 1.0625 -6.796875 L 0.546875 -3.09375 L 1.328125 -3.09375 C 1.71875 -3.5625 2.046875 -3.734375 2.578125 -3.734375 C 3.484375 -3.734375 4.0625 -3.109375 4.0625 -2.09375 C 4.0625 -1.125 3.484375 -0.53125 2.578125 -0.53125 C 1.828125 -0.53125 1.375 -0.90625 1.1875 -1.671875 L 0.328125 -1.671875 C 0.453125 -1.109375 0.546875 -0.84375 0.75 -0.59375 C 1.125 -0.078125 1.828125 0.21875 2.59375 0.21875 C 3.96875 0.21875 4.921875 -0.78125 4.921875 -2.21875 C 4.921875 -3.5625 4.03125 -4.484375 2.71875 -4.484375 C 2.25 -4.484375 1.859375 -4.359375 1.46875 -4.0625 L 1.734375 -5.96875 L 4.5625 -5.96875 Z M 4.5625 -6.796875 "/>
</symbol>
<symbol overflow="visible" id="glyph0-4">
<path style="stroke:none;" d="M 2.484375 -4.84375 L 2.484375 0 L 3.328125 0 L 3.328125 -6.796875 L 2.765625 -6.796875 C 2.46875 -5.75 2.28125 -5.609375 0.984375 -5.453125 L 0.984375 -4.84375 Z M 2.484375 -4.84375 "/>
</symbol>
<symbol overflow="visible" id="glyph0-5">
<path style="stroke:none;" d="M 4.859375 -0.828125 L 1.28125 -0.828125 C 1.359375 -1.390625 1.671875 -1.75 2.5 -2.234375 L 3.46875 -2.75 C 4.40625 -3.265625 4.90625 -3.96875 4.90625 -4.8125 C 4.90625 -5.375 4.671875 -5.90625 4.265625 -6.265625 C 3.859375 -6.625 3.375 -6.796875 2.71875 -6.796875 C 1.859375 -6.796875 1.21875 -6.5 0.84375 -5.921875 C 0.609375 -5.5625 0.5 -5.125 0.484375 -4.4375 L 1.328125 -4.4375 C 1.359375 -4.90625 1.40625 -5.1875 1.53125 -5.40625 C 1.75 -5.8125 2.1875 -6.0625 2.703125 -6.0625 C 3.46875 -6.0625 4.03125 -5.515625 4.03125 -4.78125 C 4.03125 -4.25 3.71875 -3.796875 3.125 -3.4375 L 2.234375 -2.9375 C 0.8125 -2.140625 0.40625 -1.5 0.328125 0 L 4.859375 0 Z M 4.859375 -0.828125 "/>
</symbol>
<symbol overflow="visible" id="glyph0-6">
<path style="stroke:none;" d="M 2.125 -3.125 L 2.578125 -3.125 C 3.515625 -3.125 3.984375 -2.703125 3.984375 -1.890625 C 3.984375 -1.03125 3.46875 -0.53125 2.578125 -0.53125 C 1.65625 -0.53125 1.203125 -0.984375 1.15625 -1.96875 L 0.3125 -1.96875 C 0.34375 -1.421875 0.4375 -1.078125 0.609375 -0.765625 C 0.953125 -0.109375 1.625 0.21875 2.546875 0.21875 C 3.953125 0.21875 4.859375 -0.609375 4.859375 -1.90625 C 4.859375 -2.765625 4.515625 -3.25 3.703125 -3.515625 C 4.34375 -3.765625 4.65625 -4.25 4.65625 -4.9375 C 4.65625 -6.109375 3.875 -6.796875 2.578125 -6.796875 C 1.203125 -6.796875 0.484375 -6.046875 0.453125 -4.609375 L 1.296875 -4.609375 C 1.3125 -5.015625 1.34375 -5.25 1.453125 -5.453125 C 1.640625 -5.828125 2.0625 -6.0625 2.59375 -6.0625 C 3.34375 -6.0625 3.796875 -5.625 3.796875 -4.90625 C 3.796875 -4.421875 3.609375 -4.140625 3.25 -3.984375 C 3.015625 -3.890625 2.71875 -3.84375 2.125 -3.84375 Z M 2.125 -3.125 "/>
</symbol>
<symbol overflow="visible" id="glyph0-7">
<path style="stroke:none;" d="M 3.140625 -1.625 L 3.140625 0 L 3.984375 0 L 3.984375 -1.625 L 4.984375 -1.625 L 4.984375 -2.390625 L 3.984375 -2.390625 L 3.984375 -6.796875 L 3.359375 -6.796875 L 0.265625 -2.515625 L 0.265625 -1.625 Z M 3.140625 -2.390625 L 1 -2.390625 L 3.140625 -5.359375 Z M 3.140625 -2.390625 "/>
</symbol>
<symbol overflow="visible" id="glyph0-8">
<path style="stroke:none;" d="M 4.78125 -5.03125 C 4.609375 -6.140625 3.890625 -6.796875 2.84375 -6.796875 C 2.09375 -6.796875 1.421875 -6.4375 1.03125 -5.828125 C 0.609375 -5.171875 0.40625 -4.34375 0.40625 -3.09375 C 0.40625 -1.953125 0.578125 -1.234375 0.984375 -0.625 C 1.359375 -0.078125 1.953125 0.21875 2.703125 0.21875 C 3.984375 0.21875 4.921875 -0.734375 4.921875 -2.078125 C 4.921875 -3.34375 4.0625 -4.234375 2.84375 -4.234375 C 2.171875 -4.234375 1.640625 -3.96875 1.28125 -3.46875 C 1.28125 -5.125 1.828125 -6.046875 2.796875 -6.046875 C 3.390625 -6.046875 3.796875 -5.671875 3.9375 -5.03125 Z M 2.734375 -3.484375 C 3.546875 -3.484375 4.0625 -2.921875 4.0625 -2 C 4.0625 -1.15625 3.484375 -0.53125 2.703125 -0.53125 C 1.921875 -0.53125 1.328125 -1.1875 1.328125 -2.046875 C 1.328125 -2.890625 1.90625 -3.484375 2.734375 -3.484375 Z M 2.734375 -3.484375 "/>
</symbol>
<symbol overflow="visible" id="glyph0-9">
<path style="stroke:none;" d="M 4.984375 -6.796875 L 0.4375 -6.796875 L 0.4375 -5.96875 L 4.109375 -5.96875 C 2.5 -3.65625 1.828125 -2.234375 1.328125 0 L 2.21875 0 C 2.59375 -2.171875 3.453125 -4.046875 4.984375 -6.09375 Z M 4.984375 -6.796875 "/>
</symbol>
<symbol overflow="visible" id="glyph0-10">
<path style="stroke:none;" d="M 3.75 -3.578125 C 4.453125 -4 4.6875 -4.34375 4.6875 -4.984375 C 4.6875 -6.046875 3.84375 -6.796875 2.640625 -6.796875 C 1.4375 -6.796875 0.59375 -6.046875 0.59375 -4.984375 C 0.59375 -4.359375 0.828125 -4.015625 1.515625 -3.578125 C 0.734375 -3.203125 0.359375 -2.640625 0.359375 -1.890625 C 0.359375 -0.640625 1.296875 0.21875 2.640625 0.21875 C 3.984375 0.21875 4.921875 -0.640625 4.921875 -1.875 C 4.921875 -2.640625 4.53125 -3.203125 3.75 -3.578125 Z M 2.640625 -6.046875 C 3.359375 -6.046875 3.8125 -5.625 3.8125 -4.96875 C 3.8125 -4.34375 3.34375 -3.921875 2.640625 -3.921875 C 1.921875 -3.921875 1.453125 -4.34375 1.453125 -4.984375 C 1.453125 -5.625 1.921875 -6.046875 2.640625 -6.046875 Z M 2.640625 -3.203125 C 3.484375 -3.203125 4.0625 -2.671875 4.0625 -1.875 C 4.0625 -1.0625 3.484375 -0.53125 2.625 -0.53125 C 1.796875 -0.53125 1.21875 -1.078125 1.21875 -1.875 C 1.21875 -2.671875 1.796875 -3.203125 2.640625 -3.203125 Z M 2.640625 -3.203125 "/>
</symbol>
<symbol overflow="visible" id="glyph0-11">
<path style="stroke:none;" d="M 0.515625 -1.546875 C 0.671875 -0.4375 1.40625 0.21875 2.4375 0.21875 C 3.1875 0.21875 3.859375 -0.140625 4.265625 -0.75 C 4.6875 -1.40625 4.890625 -2.25 4.890625 -3.484375 C 4.890625 -4.625 4.703125 -5.359375 4.3125 -5.953125 C 3.9375 -6.5 3.34375 -6.796875 2.59375 -6.796875 C 1.296875 -6.796875 0.359375 -5.84375 0.359375 -4.515625 C 0.359375 -3.25 1.234375 -2.34375 2.453125 -2.34375 C 3.09375 -2.34375 3.5625 -2.578125 4.015625 -3.109375 C 4 -1.453125 3.46875 -0.53125 2.5 -0.53125 C 1.90625 -0.53125 1.484375 -0.90625 1.359375 -1.546875 Z M 2.578125 -6.0625 C 3.375 -6.0625 3.96875 -5.40625 3.96875 -4.53125 C 3.96875 -3.6875 3.375 -3.09375 2.546875 -3.09375 C 1.734375 -3.09375 1.234375 -3.671875 1.234375 -4.578125 C 1.234375 -5.4375 1.796875 -6.0625 2.578125 -6.0625 Z M 2.578125 -6.0625 "/>
</symbol>
<symbol overflow="visible" id="glyph1-0">
<path style="stroke:none;" d=""/>
</symbol>
<symbol overflow="visible" id="glyph1-1">
<path style="stroke:none;" d="M 0 -0.953125 L 0 -4.890625 C 0 -5.71875 -0.234375 -6.34375 -0.734375 -6.796875 C -1.1875 -7.234375 -1.8125 -7.46875 -2.5 -7.46875 C -3.546875 -7.46875 -4.1875 -7 -4.625 -5.875 C -4.984375 -6.671875 -5.640625 -7.09375 -6.53125 -7.09375 C -7.15625 -7.09375 -7.734375 -6.859375 -8.140625 -6.390625 C -8.5625 -5.9375 -8.75 -5.34375 -8.75 -4.5 L -8.75 -0.953125 Z M -4.984375 -2.0625 L -7.765625 -2.0625 L -7.765625 -4.21875 C -7.765625 -4.84375 -7.6875 -5.203125 -7.453125 -5.5 C -7.21875 -5.8125 -6.859375 -5.96875 -6.375 -5.96875 C -5.90625 -5.96875 -5.53125 -5.8125 -5.296875 -5.5 C -5.0625 -5.203125 -4.984375 -4.84375 -4.984375 -4.21875 Z M -0.984375 -2.0625 L -4 -2.0625 L -4 -4.78125 C -4 -5.328125 -3.859375 -5.6875 -3.578125 -5.953125 C -3.296875 -6.21875 -2.921875 -6.359375 -2.484375 -6.359375 C -2.0625 -6.359375 -1.6875 -6.21875 -1.40625 -5.953125 C -1.109375 -5.6875 -0.984375 -5.328125 -0.984375 -4.78125 Z M -0.984375 -2.0625 "/>
</symbol>
<symbol overflow="visible" id="glyph1-2">
<path style="stroke:none;" d="M -6.28125 -1.796875 L -6.28125 -0.796875 L 0 -0.796875 L 0 -1.796875 Z M -8.75 -1.796875 L -8.75 -0.796875 L -7.484375 -0.796875 L -7.484375 -1.796875 Z M -8.75 -1.796875 "/>
</symbol>
<symbol overflow="visible" id="glyph1-3">
<path style="stroke:none;" d="M -6.28125 -3.046875 L -6.28125 -2.015625 L -8.015625 -2.015625 L -8.015625 -1.015625 L -6.28125 -1.015625 L -6.28125 -0.171875 L -5.46875 -0.171875 L -5.46875 -1.015625 L -0.71875 -1.015625 C -0.078125 -1.015625 0.28125 -1.453125 0.28125 -2.234375 C 0.28125 -2.46875 0.25 -2.71875 0.1875 -3.046875 L -0.640625 -3.046875 C -0.609375 -2.921875 -0.59375 -2.765625 -0.59375 -2.5625 C -0.59375 -2.140625 -0.71875 -2.015625 -1.15625 -2.015625 L -5.46875 -2.015625 L -5.46875 -3.046875 Z M -6.28125 -3.046875 "/>
</symbol>
<symbol overflow="visible" id="glyph1-4">
<path style="stroke:none;" d="M -4.53125 -5.25 C -5.765625 -5.25 -6.46875 -4.421875 -6.46875 -2.96875 C -6.46875 -1.515625 -5.71875 -0.5625 -4.546875 -0.5625 C -3.5625 -0.5625 -3.09375 -1.0625 -2.734375 -2.5625 L -2.515625 -3.484375 C -2.34375 -4.1875 -2.09375 -4.46875 -1.625 -4.46875 C -1.046875 -4.46875 -0.640625 -3.875 -0.640625 -3 C -0.640625 -2.453125 -0.796875 -2 -1.0625 -1.75 C -1.25 -1.59375 -1.421875 -1.53125 -1.875 -1.46875 L -1.875 -0.40625 C -0.421875 -0.453125 0.28125 -1.265625 0.28125 -2.921875 C 0.28125 -4.5 -0.5 -5.515625 -1.71875 -5.515625 C -2.65625 -5.515625 -3.171875 -4.984375 -3.46875 -3.734375 L -3.703125 -2.765625 C -3.890625 -1.953125 -4.15625 -1.609375 -4.59375 -1.609375 C -5.171875 -1.609375 -5.546875 -2.125 -5.546875 -2.9375 C -5.546875 -3.75 -5.203125 -4.171875 -4.53125 -4.203125 Z M -4.53125 -5.25 "/>
</symbol>
</g>
</defs>
<g id="surface47740">
<rect x="0" y="0" width="720" height="360" style="fill:rgb(100%,100%,100%);fill-opacity:1;stroke:none;"/>
<path style=" stroke:none;fill-rule:nonzero;fill:rgb(6.27451%,58.823529%,28.235294%);fill-opacity:1;" d="M 105.835938 304.773438 L 105.871094 304.769531 L 120.757812 299.78125 L 125.277344 299.78125 L 140.234375 304.78125 L 134.976562 304.78125 L 131.230469 303.476562 L 114.804688 303.476562 L 111.128906 304.773438 L 105.835938 304.773438 L 116.382812 302.9375 L 129.722656 302.929688 L 123.070312 300.597656 L 122.996094 300.59375 L 122.925781 300.609375 L 116.347656 302.929688 L 116.382812 302.9375 Z M 105.835938 304.773438 "/>
<path style=" stroke:none;fill-rule:nonzero;fill:rgb(14.509804%,36.078431%,60%);fill-opacity:1;" d="M 105.835938 307.394531 L 105.878906 307.394531 L 105.878906 307.320312 L 106.003906 307.207031 L 106.296875 307.058594 L 106.589844 306.960938 L 107.347656 306.78125 L 108.394531 306.609375 L 109.484375 306.476562 L 110.28125 306.398438 L 110.996094 306.335938 L 112.632812 306.222656 L 113.679688 306.167969 L 114.8125 306.113281 L 116.195312 306.0625 L 117.203125 306.035156 L 119.46875 305.984375 L 121.148438 305.964844 L 122.449219 305.953125 L 125.257812 305.953125 L 126.9375 305.964844 L 128.152344 305.980469 L 129.496094 306.007812 L 130.628906 306.035156 L 132.597656 306.101562 L 134.359375 306.183594 L 135.15625 306.234375 L 136.414062 306.328125 L 137.378906 306.417969 L 138.050781 306.496094 L 138.808594 306.609375 L 139.476562 306.746094 L 139.980469 306.898438 L 140.234375 307.03125 L 134.359375 307.03125 L 134.066406 306.910156 L 133.730469 306.816406 L 133.101562 306.691406 L 132.472656 306.601562 L 131.589844 306.515625 L 130.792969 306.457031 L 129.703125 306.398438 L 128.738281 306.363281 L 127.734375 306.335938 L 126.769531 306.316406 L 124.921875 306.300781 L 122.78125 306.300781 L 121.984375 306.304688 L 120.351562 306.332031 L 119.46875 306.351562 L 118.210938 306.394531 L 117.328125 306.433594 L 116.28125 306.492188 L 115.566406 306.546875 L 114.6875 306.625 L 114.058594 306.695312 L 113.34375 306.792969 L 112.925781 306.871094 L 112.546875 306.953125 L 112.210938 307.054688 L 111.960938 307.160156 L 111.792969 307.273438 L 111.707031 307.382812 L 111.707031 307.851562 L 111.792969 307.960938 L 112.003906 308.085938 L 112.546875 308.273438 L 113.34375 308.433594 L 114.269531 308.558594 L 115.148438 308.652344 L 115.652344 308.691406 L 116.324219 308.742188 L 117.371094 308.800781 L 118.882812 308.863281 L 119.761719 308.886719 L 121.105469 308.910156 L 122.488281 308.921875 L 124.335938 308.921875 L 125.972656 308.910156 L 127.0625 308.894531 L 128.195312 308.871094 L 129.746094 308.820312 L 130.710938 308.773438 L 131.550781 308.714844 L 132.179688 308.65625 L 132.597656 308.609375 L 133.226562 308.515625 L 133.730469 308.410156 L 134.109375 308.304688 L 134.359375 308.203125 L 140.234375 308.203125 L 139.980469 308.324219 L 139.605469 308.441406 L 139.226562 308.527344 L 138.640625 308.636719 L 137.96875 308.730469 L 137.003906 308.835938 L 136.207031 308.90625 L 135.15625 308.980469 L 134.191406 309.039062 L 133.144531 309.089844 L 131.589844 309.148438 L 130.585938 309.179688 L 129.496094 309.207031 L 128.195312 309.230469 L 126.558594 309.253906 L 124.796875 309.265625 L 123.160156 309.269531 L 121.398438 309.261719 L 120.097656 309.25 L 118.378906 309.222656 L 116.238281 309.167969 L 114.6875 309.109375 L 113.46875 309.054688 L 112.421875 308.992188 L 111.246094 308.910156 L 109.738281 308.777344 L 108.816406 308.675781 L 108.183594 308.589844 L 107.472656 308.472656 L 106.96875 308.367188 L 106.382812 308.195312 L 105.960938 307.980469 L 105.835938 307.8125 Z M 105.835938 307.394531 "/>
<path style=" stroke:none;fill-rule:nonzero;fill:rgb(96.862745%,70.196078%,16.862745%);fill-opacity:1;" d="M 105.835938 311.621094 L 105.878906 311.621094 L 105.878906 311.570312 L 106.046875 311.457031 L 106.464844 311.300781 L 107.011719 311.171875 L 107.597656 311.070312 L 107.976562 311.019531 L 108.605469 310.945312 L 109.148438 310.886719 L 110.535156 310.773438 L 112.296875 310.667969 L 113.261719 310.625 L 114.351562 310.582031 L 115.902344 310.535156 L 116.617188 310.515625 L 118.796875 310.476562 L 121.273438 310.449219 L 124 310.441406 L 125.257812 310.445312 L 126.976562 310.457031 L 129.328125 310.484375 L 130.667969 310.507812 L 131.71875 310.535156 L 132.808594 310.566406 L 134.152344 310.617188 L 135.410156 310.675781 L 136.414062 310.738281 L 137.421875 310.8125 L 138.261719 310.894531 L 138.972656 310.980469 L 139.605469 311.085938 L 139.980469 311.175781 L 140.234375 311.261719 L 134.402344 311.261719 L 134.066406 311.175781 L 133.6875 311.105469 L 133.058594 311.023438 L 132.429688 310.964844 L 131.800781 310.914062 L 130.628906 310.851562 L 129.621094 310.808594 L 128.363281 310.773438 L 127.144531 310.753906 L 125.761719 310.738281 L 124.921875 310.730469 L 122.699219 310.730469 L 120.6875 310.75 L 119.511719 310.769531 L 118.671875 310.789062 L 117.496094 310.828125 L 116.785156 310.859375 L 116.363281 310.878906 L 115.105469 310.957031 L 114.269531 311.027344 L 113.804688 311.074219 L 113.21875 311.148438 L 112.800781 311.21875 L 112.339844 311.316406 L 112.085938 311.394531 L 111.75 311.5625 L 111.707031 312.015625 L 111.835938 312.113281 L 112.085938 312.214844 L 112.421875 312.304688 L 112.925781 312.402344 L 113.429688 312.472656 L 114.308594 312.574219 L 115.066406 312.636719 L 115.652344 312.679688 L 116.785156 312.75 L 117.246094 312.769531 L 118.335938 312.816406 L 119.46875 312.851562 L 120.851562 312.882812 L 121.902344 312.898438 L 123.578125 312.910156 L 125.71875 312.910156 L 128.234375 312.894531 L 129.828125 312.875 L 130.921875 312.855469 L 131.632812 312.835938 L 132.515625 312.808594 L 133.144531 312.785156 L 133.730469 312.757812 L 134.445312 312.714844 L 134.445312 312.113281 L 124.082031 312.109375 L 124.082031 311.828125 L 140.191406 311.824219 L 140.234375 312.808594 L 139.351562 312.875 L 138.261719 312.941406 L 137.210938 312.992188 L 136.121094 313.035156 L 134.570312 313.082031 L 133.3125 313.113281 L 131.382812 313.148438 L 129.621094 313.171875 L 127.773438 313.1875 L 126.136719 313.191406 L 124.210938 313.195312 L 122.488281 313.191406 L 120.644531 313.175781 L 119.175781 313.15625 L 117.832031 313.128906 L 116.492188 313.097656 L 114.8125 313.046875 L 113.722656 313.003906 L 112.589844 312.949219 L 111.457031 312.886719 L 110.449219 312.820312 L 109.78125 312.765625 L 109.109375 312.707031 L 108.394531 312.628906 L 107.722656 312.542969 L 107.21875 312.46875 L 106.757812 312.378906 L 106.421875 312.296875 L 106.089844 312.183594 L 105.921875 312.09375 L 105.835938 312.015625 Z M 105.835938 311.621094 "/>
<path style=" stroke:none;fill-rule:nonzero;fill:rgb(83.921569%,15.686275%,22.352941%);fill-opacity:1;" d="M 105.835938 286.316406 L 140.234375 286.316406 L 140.234375 287.632812 L 125.898438 287.644531 L 125.898438 298.609375 L 120.128906 298.609375 L 120.128906 287.65625 L 120.046875 287.632812 L 105.835938 287.632812 Z M 105.835938 286.316406 "/>
<path style=" stroke:none;fill-rule:nonzero;fill:rgb(14.509804%,36.078431%,60%);fill-opacity:1;" d="M 142.042969 310.664062 L 142.085938 310.664062 L 142.210938 310.660156 L 142.503906 310.660156 L 142.796875 310.65625 L 143.554688 310.65625 L 144.601562 310.652344 L 146.488281 310.652344 L 147.203125 310.648438 L 151.019531 310.648438 L 152.402344 310.644531 L 166.832031 310.644531 L 168.804688 310.648438 L 172.621094 310.648438 L 173.585938 310.652344 L 175.011719 310.652344 L 175.683594 310.65625 L 176.1875 310.65625 L 176.441406 310.660156 L 170.566406 310.660156 L 170.273438 310.65625 L 169.9375 310.65625 L 169.308594 310.652344 L 165.910156 310.652344 L 164.945312 310.648438 L 154.417969 310.648438 L 153.535156 310.652344 L 150.265625 310.652344 L 149.550781 310.65625 L 148.753906 310.65625 L 148.417969 310.660156 L 148 310.660156 L 147.914062 310.664062 L 147.914062 310.667969 L 148 310.671875 L 148.210938 310.671875 L 148.753906 310.675781 L 149.550781 310.675781 L 150.472656 310.679688 L 153.578125 310.679688 L 155.089844 310.683594 L 164.402344 310.683594 L 165.953125 310.679688 L 168.804688 310.679688 L 169.433594 310.675781 L 170.316406 310.675781 L 170.566406 310.671875 L 176.441406 310.671875 L 176.1875 310.675781 L 175.8125 310.675781 L 175.433594 310.679688 L 174.175781 310.679688 L 173.210938 310.683594 L 169.351562 310.683594 L 167.796875 310.6875 L 152.445312 310.6875 L 150.894531 310.683594 L 147.453125 310.683594 L 145.945312 310.679688 L 144.390625 310.679688 L 143.679688 310.675781 L 143.175781 310.675781 L 142.589844 310.671875 L 142.167969 310.671875 L 142.042969 310.667969 Z M 142.042969 310.664062 "/>
<path style=" stroke:none;fill-rule:nonzero;fill:rgb(6.27451%,58.823529%,28.235294%);fill-opacity:1;" d="M 178.25 313.195312 L 178.285156 313.191406 L 193.171875 311.765625 L 197.691406 311.765625 L 212.648438 313.195312 L 207.390625 313.195312 L 203.644531 312.824219 L 187.21875 312.824219 L 183.542969 313.195312 L 178.25 313.195312 L 188.796875 312.667969 L 202.136719 312.667969 L 195.484375 312 L 195.410156 312 L 195.339844 312.003906 L 188.761719 312.667969 L 188.796875 312.667969 Z M 178.25 313.195312 "/>
<path style=" stroke:none;fill-rule:nonzero;fill:rgb(14.509804%,36.078431%,60%);fill-opacity:1;" d="M 178.25 304.597656 L 178.292969 304.59375 L 178.292969 304.5 L 178.417969 304.351562 L 178.710938 304.167969 L 179.003906 304.039062 L 179.761719 303.8125 L 180.808594 303.589844 L 181.898438 303.417969 L 182.695312 303.320312 L 183.410156 303.242188 L 185.046875 303.097656 L 186.09375 303.023438 L 187.226562 302.960938 L 188.609375 302.894531 L 189.617188 302.855469 L 191.882812 302.792969 L 193.5625 302.765625 L 194.859375 302.753906 L 197.671875 302.753906 L 199.347656 302.769531 L 200.566406 302.789062 L 201.910156 302.820312 L 203.039062 302.855469 L 205.011719 302.941406 L 206.773438 303.046875 L 207.570312 303.109375 L 208.828125 303.230469 L 209.792969 303.347656 L 210.464844 303.445312 L 211.21875 303.589844 L 211.890625 303.765625 L 212.394531 303.960938 L 212.648438 304.128906 L 206.773438 304.128906 L 206.480469 303.972656 L 206.144531 303.851562 L 205.515625 303.695312 L 204.886719 303.582031 L 204.003906 303.46875 L 203.207031 303.398438 L 202.117188 303.324219 L 201.152344 303.277344 L 200.148438 303.242188 L 199.183594 303.21875 L 197.335938 303.195312 L 195.195312 303.195312 L 194.398438 303.203125 L 192.765625 303.234375 L 191.882812 303.261719 L 190.625 303.316406 L 189.742188 303.367188 L 188.695312 303.441406 L 187.980469 303.507812 L 187.101562 303.609375 L 186.472656 303.699219 L 185.757812 303.824219 L 185.339844 303.921875 L 184.960938 304.03125 L 184.625 304.160156 L 184.375 304.292969 L 184.207031 304.4375 L 184.121094 304.578125 L 184.121094 305.175781 L 184.207031 305.316406 L 184.417969 305.476562 L 184.960938 305.714844 L 185.757812 305.917969 L 186.679688 306.082031 L 187.5625 306.199219 L 188.066406 306.253906 L 188.738281 306.3125 L 189.785156 306.390625 L 191.296875 306.46875 L 192.175781 306.5 L 193.519531 306.53125 L 194.902344 306.546875 L 196.75 306.546875 L 198.386719 306.53125 L 199.476562 306.511719 L 200.609375 306.480469 L 202.160156 306.414062 L 203.125 306.351562 L 203.964844 306.277344 L 204.59375 306.207031 L 205.011719 306.144531 L 205.640625 306.023438 L 206.144531 305.890625 L 206.523438 305.757812 L 206.773438 305.625 L 212.648438 305.625 L 212.394531 305.78125 L 212.015625 305.929688 L 211.640625 306.042969 L 211.054688 306.179688 L 210.382812 306.296875 L 209.417969 306.433594 L 208.621094 306.523438 L 207.570312 306.621094 L 206.605469 306.691406 L 205.558594 306.757812 L 204.003906 306.835938 L 203 306.875 L 201.910156 306.910156 L 200.609375 306.941406 L 198.972656 306.96875 L 197.210938 306.984375 L 195.574219 306.988281 L 193.8125 306.980469 L 192.511719 306.964844 L 190.792969 306.929688 L 188.652344 306.859375 L 187.101562 306.785156 L 185.882812 306.710938 L 184.835938 306.636719 L 183.660156 306.53125 L 182.152344 306.359375 L 181.226562 306.230469 L 180.597656 306.121094 L 179.886719 305.96875 L 179.382812 305.835938 L 178.796875 305.617188 L 178.375 305.34375 L 178.25 305.128906 Z M 178.25 304.597656 "/>
<path style=" stroke:none;fill-rule:nonzero;fill:rgb(96.862745%,70.196078%,16.862745%);fill-opacity:1;" d="M 178.25 309.203125 L 178.292969 309.199219 L 178.292969 309.15625 L 178.460938 309.054688 L 178.878906 308.917969 L 179.425781 308.804688 L 180.011719 308.71875 L 180.390625 308.671875 L 181.019531 308.605469 L 181.5625 308.554688 L 182.949219 308.453125 L 184.710938 308.363281 L 185.675781 308.320312 L 186.765625 308.285156 L 188.316406 308.242188 L 189.03125 308.226562 L 191.210938 308.191406 L 193.6875 308.167969 L 196.414062 308.160156 L 197.671875 308.164062 L 199.390625 308.171875 L 201.742188 308.199219 L 203.082031 308.21875 L 204.132812 308.242188 L 205.222656 308.269531 L 206.5625 308.316406 L 207.824219 308.367188 L 208.828125 308.421875 L 209.835938 308.488281 L 210.675781 308.558594 L 211.386719 308.636719 L 212.015625 308.730469 L 212.394531 308.808594 L 212.648438 308.886719 L 206.816406 308.886719 L 206.480469 308.808594 L 206.101562 308.746094 L 205.472656 308.675781 L 204.84375 308.621094 L 204.214844 308.578125 L 203.039062 308.523438 L 202.035156 308.484375 L 200.777344 308.453125 L 199.558594 308.433594 L 198.175781 308.421875 L 197.335938 308.417969 L 195.113281 308.417969 L 193.097656 308.433594 L 191.925781 308.449219 L 191.085938 308.46875 L 189.910156 308.5 L 189.199219 308.527344 L 188.777344 308.546875 L 187.519531 308.613281 L 186.679688 308.675781 L 186.21875 308.71875 L 185.632812 308.785156 L 185.214844 308.84375 L 184.753906 308.933594 L 184.5 309 L 184.164062 309.152344 L 184.121094 309.550781 L 184.25 309.636719 L 184.5 309.726562 L 184.835938 309.804688 L 185.339844 309.890625 L 185.84375 309.957031 L 186.722656 310.042969 L 187.480469 310.097656 L 188.066406 310.136719 L 189.199219 310.195312 L 189.660156 310.21875 L 190.75 310.257812 L 191.882812 310.289062 L 193.265625 310.316406 L 194.316406 310.328125 L 195.992188 310.339844 L 198.132812 310.339844 L 200.648438 310.324219 L 202.242188 310.308594 L 203.335938 310.289062 L 204.046875 310.273438 L 204.929688 310.25 L 205.558594 310.226562 L 206.144531 310.203125 L 206.859375 310.167969 L 206.859375 309.636719 L 196.496094 309.632812 L 196.496094 309.386719 L 212.605469 309.382812 L 212.648438 310.25 L 211.765625 310.308594 L 210.675781 310.367188 L 209.625 310.414062 L 208.535156 310.449219 L 206.984375 310.492188 L 205.726562 310.519531 L 203.796875 310.550781 L 202.035156 310.570312 L 200.1875 310.582031 L 198.550781 310.589844 L 196.621094 310.59375 L 194.902344 310.585938 L 193.058594 310.574219 L 191.589844 310.558594 L 190.246094 310.535156 L 188.90625 310.503906 L 187.226562 310.460938 L 186.136719 310.421875 L 185.003906 310.375 L 183.871094 310.320312 L 182.863281 310.257812 L 182.191406 310.210938 L 181.523438 310.160156 L 180.808594 310.09375 L 180.136719 310.015625 L 179.632812 309.949219 L 179.171875 309.871094 L 178.835938 309.796875 L 178.5 309.699219 L 178.335938 309.617188 L 178.25 309.550781 Z M 178.25 309.203125 "/>
<path style=" stroke:none;fill-rule:nonzero;fill:rgb(83.921569%,15.686275%,22.352941%);fill-opacity:1;" d="M 178.25 294.34375 L 212.648438 294.34375 L 212.648438 295.117188 L 198.3125 295.125 L 198.3125 301.578125 L 192.542969 301.578125 L 192.542969 295.132812 L 192.460938 295.117188 L 178.25 295.117188 Z M 178.25 294.34375 "/>
<path style=" stroke:none;fill-rule:nonzero;fill:rgb(6.27451%,58.823529%,28.235294%);fill-opacity:1;" d="M 214.457031 313.195312 L 214.492188 313.191406 L 229.378906 311.683594 L 233.898438 311.683594 L 248.855469 313.195312 L 243.597656 313.195312 L 239.851562 312.800781 L 223.421875 312.800781 L 219.75 313.195312 L 214.457031 313.195312 L 225.003906 312.636719 L 238.34375 312.636719 L 231.691406 311.929688 L 231.617188 311.929688 L 231.546875 311.933594 L 224.96875 312.636719 L 225.003906 312.636719 Z M 214.457031 313.195312 "/>
<path style=" stroke:none;fill-rule:nonzero;fill:rgb(14.509804%,36.078431%,60%);fill-opacity:1;" d="M 214.457031 293.863281 L 214.5 293.847656 L 214.5 293.472656 L 214.625 292.878906 L 214.917969 292.128906 L 215.210938 291.613281 L 215.96875 290.691406 L 217.015625 289.800781 L 218.105469 289.113281 L 218.902344 288.707031 L 219.617188 288.394531 L 221.253906 287.816406 L 222.300781 287.519531 L 223.433594 287.253906 L 224.816406 286.988281 L 225.824219 286.832031 L 228.089844 286.582031 L 229.769531 286.472656 L 231.066406 286.425781 L 233.878906 286.425781 L 235.554688 286.488281 L 236.773438 286.566406 L 238.117188 286.691406 L 239.246094 286.832031 L 241.21875 287.175781 L 242.980469 287.613281 L 243.777344 287.863281 L 245.035156 288.347656 L 246 288.816406 L 246.671875 289.222656 L 247.425781 289.800781 L 248.097656 290.503906 L 248.601562 291.300781 L 248.855469 291.972656 L 242.980469 291.972656 L 242.6875 291.347656 L 242.351562 290.863281 L 241.722656 290.222656 L 241.09375 289.769531 L 240.210938 289.316406 L 239.414062 289.019531 L 238.324219 288.722656 L 237.359375 288.535156 L 236.351562 288.394531 L 235.390625 288.300781 L 233.542969 288.207031 L 231.402344 288.207031 L 230.605469 288.238281 L 228.972656 288.363281 L 228.089844 288.472656 L 226.832031 288.691406 L 225.949219 288.894531 L 224.902344 289.207031 L 224.1875 289.472656 L 223.308594 289.878906 L 222.679688 290.238281 L 221.964844 290.753906 L 221.546875 291.144531 L 221.167969 291.582031 L 220.832031 292.097656 L 220.582031 292.644531 L 220.414062 293.222656 L 220.328125 293.785156 L 220.328125 296.207031 L 220.414062 296.769531 L 220.625 297.425781 L 221.167969 298.378906 L 221.964844 299.210938 L 222.886719 299.867188 L 223.769531 300.335938 L 224.273438 300.554688 L 224.945312 300.804688 L 225.992188 301.117188 L 227.503906 301.429688 L 228.382812 301.554688 L 229.726562 301.679688 L 231.109375 301.742188 L 232.957031 301.742188 L 234.589844 301.679688 L 235.683594 301.601562 L 236.816406 301.476562 L 238.367188 301.210938 L 239.332031 300.960938 L 240.171875 300.664062 L 240.800781 300.367188 L 241.21875 300.117188 L 241.847656 299.632812 L 242.351562 299.101562 L 242.730469 298.550781 L 242.980469 298.019531 L 248.855469 298.019531 L 248.601562 298.644531 L 248.222656 299.257812 L 247.847656 299.710938 L 247.257812 300.257812 L 246.589844 300.742188 L 245.625 301.289062 L 244.828125 301.648438 L 243.777344 302.039062 L 242.8125 302.335938 L 241.765625 302.601562 L 240.210938 302.914062 L 239.207031 303.070312 L 238.117188 303.210938 L 236.816406 303.335938 L 235.179688 303.445312 L 233.417969 303.507812 L 231.78125 303.523438 L 230.019531 303.492188 L 228.71875 303.429688 L 227 303.289062 L 224.859375 303.007812 L 223.308594 302.710938 L 222.089844 302.414062 L 221.042969 302.101562 L 219.867188 301.679688 L 218.359375 300.992188 L 217.433594 300.460938 L 216.804688 300.023438 L 216.09375 299.414062 L 215.589844 298.867188 L 215.003906 297.988281 L 214.582031 296.878906 L 214.457031 296.019531 Z M 214.457031 293.863281 "/>
<path style=" stroke:none;fill-rule:nonzero;fill:rgb(96.862745%,70.196078%,16.862745%);fill-opacity:1;" d="M 214.457031 307.1875 L 214.5 307.179688 L 214.5 307.074219 L 214.667969 306.835938 L 215.085938 306.507812 L 215.632812 306.238281 L 216.21875 306.023438 L 216.597656 305.914062 L 217.226562 305.753906 L 217.769531 305.636719 L 219.15625 305.398438 L 220.917969 305.175781 L 221.882812 305.078125 L 222.972656 304.988281 L 224.523438 304.886719 L 225.238281 304.851562 L 227.417969 304.765625 L 229.894531 304.714844 L 232.621094 304.695312 L 233.878906 304.703125 L 235.597656 304.722656 L 237.949219 304.78125 L 239.289062 304.835938 L 240.339844 304.886719 L 241.429688 304.957031 L 242.769531 305.0625 L 244.03125 305.191406 L 245.035156 305.316406 L 246.042969 305.476562 L 246.882812 305.648438 L 247.59375 305.832031 L 248.222656 306.054688 L 248.601562 306.242188 L 248.855469 306.425781 L 243.023438 306.425781 L 242.6875 306.242188 L 242.308594 306.097656 L 241.679688 305.921875 L 241.050781 305.796875 L 240.421875 305.695312 L 239.246094 305.558594 L 238.242188 305.472656 L 236.984375 305.398438 L 235.765625 305.351562 L 234.382812 305.316406 L 233.542969 305.308594 L 231.320312 305.308594 L 229.304688 305.34375 L 228.132812 305.386719 L 227.292969 305.429688 L 226.117188 305.507812 L 225.40625 305.574219 L 224.984375 305.617188 L 223.726562 305.78125 L 222.886719 305.929688 L 222.425781 306.03125 L 221.839844 306.1875 L 221.421875 306.332031 L 220.957031 306.542969 L 220.707031 306.703125 L 220.371094 307.0625 L 220.328125 308.019531 L 220.457031 308.222656 L 220.707031 308.4375 L 221.042969 308.628906 L 221.546875 308.832031 L 222.050781 308.984375 L 222.929688 309.191406 L 223.683594 309.332031 L 224.273438 309.421875 L 225.40625 309.5625 L 225.867188 309.613281 L 226.957031 309.707031 L 228.089844 309.78125 L 229.472656 309.84375 L 230.523438 309.878906 L 232.199219 309.902344 L 234.339844 309.902344 L 236.855469 309.871094 L 238.449219 309.828125 L 239.542969 309.785156 L 240.253906 309.75 L 241.136719 309.691406 L 241.765625 309.636719 L 242.351562 309.578125 L 243.066406 309.488281 L 243.066406 308.222656 L 232.703125 308.214844 L 232.703125 307.621094 L 248.8125 307.617188 L 248.855469 309.691406 L 247.972656 309.835938 L 246.882812 309.972656 L 245.832031 310.078125 L 244.742188 310.167969 L 243.191406 310.269531 L 241.933594 310.332031 L 240.003906 310.40625 L 238.242188 310.457031 L 236.394531 310.488281 L 234.757812 310.503906 L 232.828125 310.507812 L 231.109375 310.5 L 229.265625 310.464844 L 227.796875 310.425781 L 226.453125 310.371094 L 225.113281 310.300781 L 223.433594 310.191406 L 222.34375 310.101562 L 221.210938 309.988281 L 220.078125 309.855469 L 219.070312 309.710938 L 218.398438 309.601562 L 217.730469 309.472656 L 217.015625 309.316406 L 216.34375 309.132812 L 215.839844 308.96875 L 215.378906 308.785156 L 215.042969 308.609375 L 214.707031 308.371094 L 214.539062 308.179688 L 214.457031 308.015625 Z M 214.457031 307.1875 "/>
<path style=" stroke:none;fill-rule:nonzero;fill:rgb(83.921569%,15.686275%,22.352941%);fill-opacity:1;" d="M 214.457031 260.09375 L 248.855469 260.09375 L 248.855469 262.785156 L 234.519531 262.808594 L 234.519531 285.25 L 228.75 285.25 L 228.75 262.832031 L 228.667969 262.785156 L 214.457031 262.785156 Z M 214.457031 260.09375 "/>
<path style=" stroke:none;fill-rule:nonzero;fill:rgb(6.27451%,58.823529%,28.235294%);fill-opacity:1;" d="M 250.664062 313.191406 L 250.699219 313.191406 L 265.582031 310.277344 L 270.105469 310.277344 L 285.0625 313.195312 L 279.804688 313.195312 L 276.058594 312.433594 L 259.628906 312.433594 L 255.957031 313.191406 L 250.664062 313.191406 L 261.210938 312.121094 L 274.550781 312.117188 L 267.898438 310.753906 L 267.824219 310.753906 L 267.753906 310.761719 L 261.175781 312.117188 L 261.210938 312.121094 Z M 250.664062 313.191406 "/>
<path style=" stroke:none;fill-rule:nonzero;fill:rgb(14.509804%,36.078431%,60%);fill-opacity:1;" d="M 250.664062 222.386719 L 250.707031 222.289062 L 250.707031 219.980469 L 250.832031 216.324219 L 251.125 211.710938 L 251.417969 208.535156 L 252.175781 202.859375 L 253.222656 197.378906 L 254.3125 193.148438 L 255.109375 190.644531 L 255.824219 188.722656 L 257.460938 185.164062 L 258.507812 183.335938 L 259.640625 181.703125 L 261.023438 180.066406 L 262.03125 179.105469 L 264.296875 177.566406 L 265.976562 176.894531 L 267.273438 176.605469 L 270.085938 176.605469 L 271.761719 176.988281 L 272.980469 177.46875 L 274.320312 178.238281 L 275.453125 179.105469 L 277.425781 181.222656 L 279.1875 183.914062 L 279.984375 185.453125 L 281.242188 188.433594 L 282.207031 191.320312 L 282.878906 193.820312 L 283.632812 197.378906 L 284.304688 201.707031 L 284.808594 206.613281 L 285.0625 210.746094 L 279.1875 210.746094 L 278.894531 206.902344 L 278.558594 203.917969 L 277.929688 199.976562 L 277.300781 197.1875 L 276.417969 194.398438 L 275.621094 192.570312 L 274.53125 190.742188 L 273.566406 189.589844 L 272.558594 188.722656 L 271.59375 188.144531 L 269.75 187.570312 L 267.609375 187.570312 L 266.8125 187.761719 L 265.179688 188.53125 L 264.296875 189.203125 L 263.039062 190.550781 L 262.15625 191.800781 L 261.109375 193.722656 L 260.394531 195.359375 L 259.515625 197.859375 L 258.886719 200.070312 L 258.171875 203.246094 L 257.753906 205.648438 L 257.375 208.34375 L 257.039062 211.515625 L 256.789062 214.882812 L 256.621094 218.441406 L 256.535156 221.90625 L 256.535156 236.8125 L 256.621094 240.273438 L 256.832031 244.3125 L 257.375 250.179688 L 258.171875 255.277344 L 259.09375 259.316406 L 259.976562 262.203125 L 260.480469 263.550781 L 261.152344 265.089844 L 262.199219 267.011719 L 263.710938 268.933594 L 264.589844 269.703125 L 265.933594 270.472656 L 267.316406 270.859375 L 269.164062 270.859375 L 270.796875 270.472656 L 271.890625 269.992188 L 273.023438 269.222656 L 274.574219 267.589844 L 275.539062 266.050781 L 276.378906 264.222656 L 277.007812 262.394531 L 277.425781 260.855469 L 278.054688 257.875 L 278.558594 254.605469 L 278.9375 251.238281 L 279.1875 247.96875 L 285.0625 247.96875 L 284.808594 251.816406 L 284.429688 255.566406 L 284.054688 258.355469 L 283.464844 261.722656 L 282.796875 264.703125 L 281.832031 268.070312 L 281.035156 270.28125 L 279.984375 272.6875 L 279.019531 274.515625 L 277.972656 276.148438 L 276.417969 278.074219 L 275.414062 279.035156 L 274.320312 279.898438 L 273.023438 280.667969 L 271.386719 281.34375 L 269.625 281.726562 L 267.988281 281.824219 L 266.226562 281.632812 L 264.925781 281.246094 L 263.207031 280.378906 L 261.066406 278.648438 L 259.515625 276.820312 L 258.296875 274.996094 L 257.25 273.070312 L 256.074219 270.472656 L 254.566406 266.242188 L 253.640625 262.972656 L 253.011719 260.28125 L 252.300781 256.527344 L 251.796875 253.164062 L 251.210938 247.777344 L 250.789062 240.949219 L 250.664062 235.65625 Z M 250.664062 222.386719 "/>
<path style=" stroke:none;fill-rule:nonzero;fill:rgb(96.862745%,70.196078%,16.862745%);fill-opacity:1;" d="M 250.664062 291.257812 L 250.707031 291.242188 L 250.707031 290.886719 L 250.875 290.097656 L 251.292969 289.003906 L 251.839844 288.105469 L 252.425781 287.402344 L 252.804688 287.03125 L 253.433594 286.503906 L 253.976562 286.117188 L 255.363281 285.324219 L 257.125 284.582031 L 258.089844 284.265625 L 259.179688 283.96875 L 260.730469 283.632812 L 261.445312 283.507812 L 263.625 283.226562 L 266.101562 283.050781 L 268.828125 283 L 270.085938 283.015625 L 271.804688 283.085938 L 274.15625 283.28125 L 275.496094 283.457031 L 276.546875 283.632812 L 277.636719 283.859375 L 278.976562 284.214844 L 280.238281 284.636719 L 281.242188 285.058594 L 282.25 285.585938 L 283.089844 286.152344 L 283.800781 286.765625 L 284.429688 287.507812 L 284.808594 288.125 L 285.0625 288.738281 L 279.230469 288.738281 L 278.894531 288.125 L 278.515625 287.648438 L 277.886719 287.066406 L 277.257812 286.644531 L 276.628906 286.308594 L 275.453125 285.851562 L 274.449219 285.570312 L 273.191406 285.324219 L 271.972656 285.164062 L 270.589844 285.058594 L 269.75 285.023438 L 267.527344 285.023438 L 265.511719 285.148438 L 264.339844 285.289062 L 263.5 285.429688 L 262.324219 285.691406 L 261.613281 285.902344 L 261.191406 286.046875 L 259.933594 286.589844 L 259.09375 287.085938 L 258.632812 287.417969 L 258.046875 287.945312 L 257.628906 288.421875 L 257.164062 289.128906 L 256.914062 289.65625 L 256.578125 290.851562 L 256.535156 294.023438 L 256.664062 294.691406 L 256.914062 295.414062 L 257.25 296.050781 L 257.753906 296.71875 L 258.257812 297.230469 L 259.136719 297.914062 L 259.890625 298.375 L 260.480469 298.671875 L 261.613281 299.148438 L 262.074219 299.308594 L 263.164062 299.625 L 264.296875 299.871094 L 265.679688 300.082031 L 266.730469 300.1875 L 268.40625 300.277344 L 270.546875 300.277344 L 273.0625 300.171875 L 274.65625 300.027344 L 275.75 299.886719 L 276.460938 299.765625 L 277.34375 299.570312 L 277.972656 299.394531 L 278.558594 299.203125 L 279.273438 298.902344 L 279.273438 294.691406 L 268.910156 294.675781 L 268.910156 292.703125 L 285.019531 292.683594 L 285.0625 299.570312 L 284.179688 300.046875 L 283.089844 300.503906 L 282.039062 300.855469 L 280.949219 301.15625 L 279.398438 301.492188 L 278.140625 301.703125 L 276.210938 301.949219 L 274.449219 302.109375 L 272.601562 302.214844 L 270.964844 302.265625 L 269.035156 302.285156 L 267.316406 302.25 L 265.472656 302.144531 L 264.003906 302 L 262.660156 301.824219 L 261.320312 301.597656 L 259.640625 301.226562 L 258.550781 300.925781 L 257.417969 300.558594 L 256.285156 300.117188 L 255.277344 299.640625 L 254.605469 299.273438 L 253.9375 298.847656 L 253.222656 298.320312 L 252.550781 297.722656 L 252.046875 297.175781 L 251.585938 296.558594 L 251.25 295.976562 L 250.914062 295.1875 L 250.746094 294.550781 L 250.664062 294.003906 Z M 250.664062 291.257812 "/>
<path style=" stroke:none;fill-rule:nonzero;fill:rgb(83.921569%,15.686275%,22.352941%);fill-opacity:1;" d="M 250.664062 303.457031 L 285.0625 303.457031 L 285.0625 304.0625 L 270.726562 304.066406 L 270.726562 309.105469 L 264.957031 309.105469 L 264.957031 304.074219 L 264.875 304.0625 L 250.664062 304.0625 Z M 250.664062 303.457031 "/>
<path style=" stroke:none;fill-rule:nonzero;fill:rgb(6.27451%,58.823529%,28.235294%);fill-opacity:1;" d="M 286.871094 308.25 L 286.90625 308.246094 L 301.789062 304.484375 L 306.3125 304.484375 L 321.269531 308.25 L 316.011719 308.25 L 312.265625 307.269531 L 295.835938 307.269531 L 292.164062 308.25 L 286.871094 308.25 L 297.417969 306.859375 L 310.757812 306.859375 L 304.105469 305.097656 L 304.03125 305.09375 L 303.960938 305.105469 L 297.382812 306.859375 L 297.417969 306.859375 Z M 286.871094 308.25 "/>
<path style=" stroke:none;fill-rule:nonzero;fill:rgb(14.509804%,36.078431%,60%);fill-opacity:1;" d="M 286.871094 309.992188 L 286.914062 309.988281 L 286.914062 309.960938 L 287.039062 309.917969 L 287.332031 309.859375 L 287.625 309.820312 L 288.382812 309.75 L 289.429688 309.683594 L 290.519531 309.628906 L 291.316406 309.601562 L 292.03125 309.574219 L 293.667969 309.53125 L 294.714844 309.507812 L 295.847656 309.488281 L 297.230469 309.46875 L 298.238281 309.457031 L 300.503906 309.4375 L 302.183594 309.429688 L 303.480469 309.425781 L 306.292969 309.425781 L 307.96875 309.429688 L 309.1875 309.4375 L 310.527344 309.445312 L 311.660156 309.457031 L 313.632812 309.484375 L 315.394531 309.515625 L 316.191406 309.535156 L 317.449219 309.574219 L 318.414062 309.609375 L 319.085938 309.640625 L 319.839844 309.683594 L 320.511719 309.734375 L 321.015625 309.796875 L 321.269531 309.847656 L 315.394531 309.847656 L 315.101562 309.800781 L 314.765625 309.761719 L 314.136719 309.714844 L 313.507812 309.679688 L 312.625 309.644531 L 311.828125 309.625 L 310.738281 309.601562 L 309.773438 309.585938 L 308.765625 309.574219 L 307.800781 309.570312 L 305.957031 309.5625 L 303.019531 309.5625 L 301.382812 309.574219 L 300.503906 309.582031 L 299.246094 309.597656 L 298.363281 309.613281 L 297.316406 309.636719 L 296.601562 309.65625 L 295.722656 309.6875 L 295.09375 309.714844 L 294.378906 309.753906 L 293.960938 309.785156 L 293.582031 309.816406 L 293.246094 309.855469 L 292.996094 309.898438 L 292.828125 309.941406 L 292.742188 309.984375 L 292.742188 310.167969 L 292.828125 310.210938 L 293.039062 310.261719 L 293.582031 310.332031 L 294.378906 310.398438 L 295.300781 310.445312 L 296.183594 310.480469 L 296.6875 310.5 L 297.359375 310.515625 L 298.40625 310.542969 L 299.917969 310.566406 L 300.796875 310.574219 L 302.140625 310.582031 L 303.523438 310.589844 L 305.371094 310.589844 L 307.003906 310.582031 L 308.097656 310.578125 L 309.230469 310.570312 L 310.78125 310.546875 L 311.746094 310.53125 L 312.585938 310.507812 L 313.214844 310.484375 L 313.632812 310.464844 L 314.261719 310.429688 L 314.765625 310.386719 L 315.144531 310.347656 L 315.394531 310.304688 L 321.269531 310.304688 L 321.015625 310.355469 L 320.636719 310.398438 L 320.261719 310.433594 L 319.671875 310.476562 L 319.003906 310.511719 L 318.039062 310.554688 L 317.242188 310.582031 L 316.191406 310.609375 L 315.226562 310.632812 L 314.179688 310.652344 L 312.625 310.675781 L 311.621094 310.691406 L 310.527344 310.699219 L 309.230469 310.710938 L 307.59375 310.71875 L 305.832031 310.722656 L 302.433594 310.722656 L 301.132812 310.714844 L 299.414062 310.707031 L 297.273438 310.683594 L 295.722656 310.664062 L 294.503906 310.640625 L 293.457031 310.617188 L 292.28125 310.582031 L 290.773438 310.53125 L 289.847656 310.492188 L 289.21875 310.457031 L 288.507812 310.410156 L 288.003906 310.371094 L 287.417969 310.304688 L 286.996094 310.21875 L 286.871094 310.15625 Z M 286.871094 309.992188 "/>
<path style=" stroke:none;fill-rule:nonzero;fill:rgb(96.862745%,70.196078%,16.862745%);fill-opacity:1;" d="M 286.871094 312.453125 L 286.914062 312.453125 L 286.914062 312.429688 L 287.082031 312.375 L 287.5 312.300781 L 288.046875 312.242188 L 288.632812 312.195312 L 289.011719 312.171875 L 289.640625 312.132812 L 290.183594 312.109375 L 291.570312 312.054688 L 293.332031 312.003906 L 294.296875 311.984375 L 295.386719 311.964844 L 296.9375 311.941406 L 297.652344 311.933594 L 299.832031 311.914062 L 302.308594 311.902344 L 305.035156 311.898438 L 306.292969 311.898438 L 308.011719 311.90625 L 310.363281 311.917969 L 311.703125 311.929688 L 312.753906 311.941406 L 313.84375 311.957031 L 315.183594 311.980469 L 316.445312 312.007812 L 317.449219 312.039062 L 318.457031 312.074219 L 319.296875 312.109375 L 320.007812 312.152344 L 320.636719 312.203125 L 321.015625 312.242188 L 321.269531 312.285156 L 315.4375 312.285156 L 315.101562 312.242188 L 314.722656 312.210938 L 314.09375 312.171875 L 313.464844 312.144531 L 312.835938 312.121094 L 311.660156 312.089844 L 310.65625 312.070312 L 309.398438 312.054688 L 308.179688 312.042969 L 306.796875 312.039062 L 305.957031 312.035156 L 303.734375 312.035156 L 301.71875 312.042969 L 300.546875 312.050781 L 299.707031 312.0625 L 298.53125 312.078125 L 297.820312 312.09375 L 297.398438 312.105469 L 296.140625 312.140625 L 295.300781 312.171875 L 294.839844 312.195312 L 294.253906 312.230469 L 293.835938 312.261719 L 293.371094 312.3125 L 293.121094 312.347656 L 292.785156 312.425781 L 292.742188 312.640625 L 292.871094 312.683594 L 293.121094 312.734375 L 293.457031 312.777344 L 293.960938 312.820312 L 294.464844 312.855469 L 295.34375 312.902344 L 296.097656 312.933594 L 296.6875 312.953125 L 297.820312 312.984375 L 298.28125 312.996094 L 299.371094 313.015625 L 300.503906 313.035156 L 301.886719 313.046875 L 302.9375 313.054688 L 304.613281 313.0625 L 306.753906 313.0625 L 309.269531 313.054688 L 310.863281 313.042969 L 311.957031 313.035156 L 312.667969 313.027344 L 313.550781 313.011719 L 314.179688 313 L 314.765625 312.988281 L 315.480469 312.96875 L 315.480469 312.683594 L 305.117188 312.683594 L 305.117188 312.550781 L 321.226562 312.550781 L 321.269531 313.011719 L 320.386719 313.046875 L 319.296875 313.078125 L 318.246094 313.101562 L 317.15625 313.121094 L 315.605469 313.140625 L 314.347656 313.15625 L 312.417969 313.171875 L 310.65625 313.183594 L 308.808594 313.191406 L 307.171875 313.195312 L 303.523438 313.195312 L 301.679688 313.1875 L 300.210938 313.175781 L 298.867188 313.164062 L 297.527344 313.148438 L 295.847656 313.125 L 294.757812 313.105469 L 292.492188 313.050781 L 291.484375 313.019531 L 290.8125 312.992188 L 290.144531 312.964844 L 289.429688 312.929688 L 288.757812 312.890625 L 288.253906 312.851562 L 287.792969 312.8125 L 287.457031 312.773438 L 287.121094 312.71875 L 286.953125 312.675781 L 286.871094 312.640625 Z M 286.871094 312.453125 "/>
<path style=" stroke:none;fill-rule:nonzero;fill:rgb(83.921569%,15.686275%,22.352941%);fill-opacity:1;" d="M 286.871094 64.703125 L 321.269531 64.703125 L 321.269531 90.242188 L 306.933594 90.464844 L 306.933594 303.308594 L 301.164062 303.308594 L 301.164062 90.691406 L 301.082031 90.242188 L 286.871094 90.242188 Z M 286.871094 64.703125 "/>
<path style=" stroke:none;fill-rule:nonzero;fill:rgb(6.27451%,58.823529%,28.235294%);fill-opacity:1;" d="M 323.078125 310.65625 L 323.113281 310.648438 L 337.996094 304.234375 L 342.519531 304.234375 L 357.472656 310.664062 L 352.21875 310.664062 L 348.472656 308.984375 L 332.042969 308.984375 L 328.371094 310.65625 L 323.078125 310.65625 L 333.625 308.289062 L 346.964844 308.285156 L 340.3125 305.285156 L 340.238281 305.28125 L 340.164062 305.296875 L 333.589844 308.285156 L 333.625 308.289062 Z M 323.078125 310.65625 "/>
<path style=" stroke:none;fill-rule:nonzero;fill:rgb(96.862745%,70.196078%,16.862745%);fill-opacity:1;" d="M 323.078125 312.417969 L 323.121094 312.417969 L 323.121094 312.394531 L 323.289062 312.335938 L 323.707031 312.261719 L 324.253906 312.195312 L 324.839844 312.148438 L 325.21875 312.121094 L 325.847656 312.085938 L 326.390625 312.058594 L 327.777344 312 L 329.539062 311.949219 L 330.503906 311.925781 L 331.59375 311.90625 L 333.144531 311.882812 L 333.859375 311.871094 L 336.039062 311.851562 L 338.515625 311.839844 L 341.242188 311.835938 L 342.5 311.839844 L 344.21875 311.84375 L 346.566406 311.855469 L 347.910156 311.871094 L 348.960938 311.882812 L 350.050781 311.898438 L 351.390625 311.921875 L 352.652344 311.953125 L 353.65625 311.980469 L 354.664062 312.019531 L 355.503906 312.058594 L 356.214844 312.101562 L 356.84375 312.15625 L 357.222656 312.199219 L 357.472656 312.242188 L 351.644531 312.242188 L 351.308594 312.199219 L 350.929688 312.164062 L 350.300781 312.125 L 349.671875 312.09375 L 349.042969 312.070312 L 347.867188 312.039062 L 346.863281 312.019531 L 345.605469 312 L 344.386719 311.988281 L 343.003906 311.980469 L 339.941406 311.980469 L 337.925781 311.988281 L 336.753906 312 L 335.914062 312.007812 L 334.738281 312.027344 L 334.027344 312.042969 L 333.605469 312.050781 L 332.347656 312.089844 L 331.507812 312.125 L 331.046875 312.148438 L 330.460938 312.1875 L 330.042969 312.21875 L 329.578125 312.269531 L 329.328125 312.304688 L 328.992188 312.390625 L 328.949219 312.613281 L 329.078125 312.660156 L 329.328125 312.710938 L 329.664062 312.757812 L 330.167969 312.804688 L 330.671875 312.839844 L 331.550781 312.886719 L 332.304688 312.921875 L 332.894531 312.941406 L 334.027344 312.976562 L 334.488281 312.984375 L 335.578125 313.007812 L 336.710938 313.027344 L 338.09375 313.039062 L 339.144531 313.046875 L 340.820312 313.054688 L 342.960938 313.054688 L 345.476562 313.046875 L 347.070312 313.035156 L 348.164062 313.027344 L 348.875 313.019531 L 349.757812 313.003906 L 350.386719 312.992188 L 350.972656 312.980469 L 351.6875 312.957031 L 351.6875 312.660156 L 341.324219 312.660156 L 341.324219 312.519531 L 357.433594 312.519531 L 357.472656 313.003906 L 356.59375 313.039062 L 355.503906 313.070312 L 354.453125 313.09375 L 353.363281 313.117188 L 351.8125 313.140625 L 350.554688 313.15625 L 348.625 313.171875 L 346.863281 313.183594 L 345.015625 313.191406 L 343.378906 313.195312 L 341.449219 313.195312 L 339.730469 313.191406 L 337.886719 313.1875 L 336.417969 313.175781 L 335.074219 313.164062 L 333.734375 313.148438 L 332.054688 313.121094 L 330.964844 313.101562 L 329.832031 313.074219 L 328.699219 313.042969 L 327.019531 312.984375 L 326.351562 312.953125 L 325.636719 312.917969 L 324.964844 312.875 L 324.460938 312.835938 L 324 312.792969 L 323.664062 312.75 L 323.328125 312.695312 L 323.160156 312.652344 L 323.078125 312.613281 Z M 323.078125 312.417969 "/>
<path style=" stroke:none;fill-rule:nonzero;fill:rgb(83.921569%,15.686275%,22.352941%);fill-opacity:1;" d="M 323.078125 61.011719 L 357.472656 61.011719 L 357.472656 86.917969 L 343.140625 87.148438 L 343.140625 303.0625 L 337.371094 303.0625 L 337.371094 87.375 L 337.289062 86.917969 L 323.078125 86.917969 Z M 323.078125 61.011719 "/>
<path style=" stroke:none;fill-rule:nonzero;fill:rgb(6.27451%,58.823529%,28.235294%);fill-opacity:1;" d="M 359.285156 310.117188 L 359.320312 309.855469 L 374.203125 32.527344 L 378.726562 32.527344 L 393.679688 310.378906 L 388.425781 310.378906 L 384.679688 237.847656 L 368.25 237.847656 L 364.578125 310.117188 L 359.285156 310.117188 L 369.832031 207.847656 L 383.171875 207.585938 L 376.519531 77.921875 L 376.445312 77.660156 L 376.371094 78.445312 L 369.796875 207.585938 L 369.832031 207.847656 Z M 359.285156 310.117188 "/>
<path style=" stroke:none;fill-rule:nonzero;fill:rgb(83.921569%,15.686275%,22.352941%);fill-opacity:1;" d="M 359.285156 311.550781 L 393.679688 311.550781 L 393.679688 311.726562 L 379.347656 311.730469 L 379.347656 313.195312 L 373.578125 313.195312 L 373.578125 311.730469 L 373.496094 311.726562 L 359.285156 311.726562 Z M 359.285156 311.550781 "/>
<path style=" stroke:none;fill-rule:nonzero;fill:rgb(83.921569%,15.686275%,22.352941%);fill-opacity:1;" d="M 395.492188 20.664062 L 429.886719 20.664062 L 429.886719 51.976562 L 415.554688 52.25 L 415.554688 313.195312 L 409.785156 313.195312 L 409.785156 52.527344 L 409.703125 51.976562 L 395.492188 51.976562 Z M 395.492188 20.664062 "/>
<path style=" stroke:none;fill-rule:nonzero;fill:rgb(14.509804%,36.078431%,60%);fill-opacity:1;" d="M 431.699219 147.945312 L 431.742188 147.675781 L 431.742188 141.257812 L 431.867188 131.097656 L 432.160156 118.261719 L 432.453125 109.4375 L 433.207031 93.664062 L 434.257812 78.421875 L 435.347656 66.65625 L 436.144531 59.703125 L 436.859375 54.355469 L 438.496094 44.460938 L 439.542969 39.378906 L 440.675781 34.835938 L 442.058594 30.289062 L 443.066406 27.617188 L 445.332031 23.335938 L 447.007812 21.464844 L 448.308594 20.664062 L 451.121094 20.664062 L 452.796875 21.734375 L 454.015625 23.070312 L 455.355469 25.207031 L 456.488281 27.617188 L 458.460938 33.5 L 460.222656 40.984375 L 461.019531 45.261719 L 462.277344 53.554688 L 463.242188 61.574219 L 463.914062 68.527344 L 464.667969 78.421875 L 465.339844 90.453125 L 465.84375 104.089844 L 466.09375 115.589844 L 460.222656 115.589844 L 459.929688 104.894531 L 459.59375 96.605469 L 458.964844 85.640625 L 458.335938 77.886719 L 457.453125 70.132812 L 456.65625 65.050781 L 455.566406 59.96875 L 454.601562 56.761719 L 453.59375 54.355469 L 452.628906 52.75 L 450.785156 51.144531 L 448.644531 51.144531 L 447.847656 51.679688 L 446.210938 53.820312 L 445.332031 55.691406 L 444.074219 59.4375 L 443.191406 62.910156 L 442.144531 68.257812 L 441.429688 72.804688 L 440.550781 79.757812 L 439.921875 85.90625 L 439.207031 94.730469 L 438.789062 101.417969 L 438.410156 108.902344 L 438.074219 117.726562 L 437.824219 127.085938 L 437.65625 136.980469 L 437.570312 146.605469 L 437.570312 188.054688 L 437.65625 197.679688 L 437.863281 208.910156 L 438.410156 225.222656 L 439.207031 239.394531 L 440.128906 250.625 L 441.011719 258.648438 L 441.515625 262.390625 L 442.183594 266.667969 L 443.234375 272.015625 L 444.746094 277.363281 L 445.625 279.503906 L 446.96875 281.644531 L 448.351562 282.710938 L 450.199219 282.710938 L 451.832031 281.644531 L 452.925781 280.304688 L 454.054688 278.167969 L 455.609375 273.621094 L 456.574219 269.34375 L 457.414062 264.261719 L 458.042969 259.179688 L 458.460938 254.902344 L 459.089844 246.613281 L 459.59375 237.523438 L 459.972656 228.164062 L 460.222656 219.070312 L 466.09375 219.070312 L 465.84375 229.769531 L 465.464844 240.195312 L 465.089844 247.949219 L 464.5 257.308594 L 463.832031 265.597656 L 462.867188 274.957031 L 462.070312 281.109375 L 461.019531 287.792969 L 460.054688 292.875 L 459.007812 297.417969 L 457.453125 302.765625 L 456.449219 305.441406 L 455.355469 307.847656 L 454.054688 309.988281 L 452.421875 311.859375 L 450.660156 312.929688 L 449.023438 313.195312 L 447.261719 312.660156 L 445.960938 311.589844 L 444.242188 309.183594 L 442.101562 304.371094 L 440.550781 299.292969 L 439.332031 294.210938 L 438.285156 288.863281 L 437.109375 281.644531 L 435.601562 269.878906 L 434.675781 260.785156 L 434.046875 253.296875 L 433.335938 242.871094 L 432.832031 233.511719 L 432.242188 218.539062 L 431.824219 199.550781 L 431.699219 184.84375 Z M 431.699219 147.945312 "/>
<path style=" stroke:none;fill-rule:nonzero;fill:rgb(6.27451%,58.823529%,28.235294%);fill-opacity:1;" d="M 467.90625 277.144531 L 467.941406 277.050781 L 482.824219 176.074219 L 487.34375 176.074219 L 502.300781 277.238281 L 497.046875 277.238281 L 493.300781 250.832031 L 476.871094 250.832031 L 473.199219 277.144531 L 467.90625 277.144531 L 478.453125 239.90625 L 491.792969 239.8125 L 485.140625 192.601562 L 485.066406 192.507812 L 484.992188 192.792969 L 478.414062 239.8125 L 478.453125 239.90625 Z M 467.90625 277.144531 "/>
<path style=" stroke:none;fill-rule:nonzero;fill:rgb(96.862745%,70.196078%,16.862745%);fill-opacity:1;" d="M 467.90625 307.542969 L 467.949219 307.535156 L 467.949219 307.351562 L 468.117188 306.945312 L 468.535156 306.386719 L 469.082031 305.925781 L 469.667969 305.566406 L 470.046875 305.375 L 470.675781 305.105469 L 471.21875 304.90625 L 472.605469 304.5 L 474.367188 304.121094 L 475.332031 303.957031 L 476.421875 303.804688 L 477.972656 303.632812 L 478.6875 303.570312 L 480.867188 303.425781 L 483.34375 303.335938 L 486.070312 303.308594 L 487.328125 303.316406 L 489.046875 303.351562 L 491.394531 303.453125 L 492.738281 303.542969 L 493.785156 303.632812 L 494.878906 303.75 L 496.21875 303.929688 L 497.476562 304.148438 L 498.484375 304.363281 L 499.492188 304.632812 L 500.332031 304.921875 L 501.042969 305.238281 L 501.671875 305.617188 L 502.050781 305.933594 L 502.300781 306.25 L 496.472656 306.25 L 496.136719 305.933594 L 495.757812 305.691406 L 495.128906 305.394531 L 494.5 305.175781 L 493.871094 305.003906 L 492.695312 304.769531 L 491.691406 304.625 L 490.429688 304.5 L 489.214844 304.417969 L 487.832031 304.363281 L 486.992188 304.34375 L 484.769531 304.34375 L 482.753906 304.410156 L 481.582031 304.480469 L 480.742188 304.554688 L 479.566406 304.6875 L 478.855469 304.796875 L 478.433594 304.871094 L 477.175781 305.148438 L 476.335938 305.402344 L 475.875 305.574219 L 475.289062 305.84375 L 474.867188 306.089844 L 474.40625 306.449219 L 474.15625 306.71875 L 473.820312 307.335938 L 473.777344 308.960938 L 473.902344 309.304688 L 474.15625 309.671875 L 474.492188 310 L 474.996094 310.34375 L 475.5 310.605469 L 476.378906 310.957031 L 477.132812 311.191406 L 477.722656 311.34375 L 478.855469 311.589844 L 479.316406 311.667969 L 480.40625 311.832031 L 481.539062 311.957031 L 482.921875 312.066406 L 483.972656 312.121094 L 485.648438 312.167969 L 487.789062 312.167969 L 490.304688 312.113281 L 491.898438 312.039062 L 492.988281 311.96875 L 493.703125 311.90625 L 494.585938 311.804688 L 495.214844 311.714844 L 495.800781 311.617188 L 496.511719 311.460938 L 496.511719 309.304688 L 486.152344 309.292969 L 486.152344 308.28125 L 502.261719 308.273438 L 502.300781 311.804688 L 501.421875 312.050781 L 500.332031 312.285156 L 499.28125 312.464844 L 498.191406 312.617188 L 496.640625 312.789062 L 495.382812 312.898438 L 493.453125 313.023438 L 491.691406 313.105469 L 489.84375 313.160156 L 488.207031 313.1875 L 486.277344 313.195312 L 484.558594 313.179688 L 482.714844 313.125 L 481.246094 313.050781 L 479.902344 312.960938 L 478.558594 312.84375 L 476.882812 312.652344 L 475.792969 312.5 L 474.660156 312.3125 L 473.527344 312.085938 L 472.519531 311.839844 L 471.847656 311.652344 L 471.175781 311.433594 L 470.464844 311.164062 L 469.792969 310.855469 L 469.289062 310.578125 L 468.828125 310.261719 L 468.492188 309.960938 L 468.15625 309.554688 L 467.988281 309.230469 L 467.90625 308.953125 Z M 467.90625 307.542969 "/>
<path style=" stroke:none;fill-rule:nonzero;fill:rgb(83.921569%,15.686275%,22.352941%);fill-opacity:1;" d="M 467.90625 278.414062 L 502.300781 278.414062 L 502.300781 280.953125 L 487.96875 280.976562 L 487.96875 302.132812 L 482.199219 302.132812 L 482.199219 280.996094 L 482.117188 280.953125 L 467.90625 280.953125 Z M 467.90625 278.414062 "/>
<path style=" stroke:none;fill-rule:nonzero;fill:rgb(6.27451%,58.823529%,28.235294%);fill-opacity:1;" d="M 504.113281 299.589844 L 504.148438 299.578125 L 519.03125 286.429688 L 523.550781 286.429688 L 538.507812 299.601562 L 533.253906 299.601562 L 529.507812 296.164062 L 513.078125 296.164062 L 509.40625 299.589844 L 504.113281 299.589844 L 514.660156 294.742188 L 528 294.730469 L 521.347656 288.582031 L 521.273438 288.570312 L 521.199219 288.605469 L 514.621094 294.730469 L 514.660156 294.742188 Z M 504.113281 299.589844 "/>
<path style=" stroke:none;fill-rule:nonzero;fill:rgb(14.509804%,36.078431%,60%);fill-opacity:1;" d="M 504.113281 304.210938 L 504.15625 304.203125 L 504.15625 304.027344 L 504.28125 303.753906 L 504.574219 303.410156 L 504.867188 303.171875 L 505.621094 302.746094 L 506.671875 302.335938 L 507.761719 302.019531 L 508.558594 301.832031 L 509.273438 301.6875 L 510.90625 301.417969 L 511.957031 301.28125 L 513.089844 301.160156 L 514.472656 301.039062 L 515.480469 300.964844 L 517.746094 300.851562 L 519.421875 300.800781 L 520.722656 300.777344 L 523.535156 300.777344 L 525.210938 300.804688 L 526.429688 300.84375 L 527.769531 300.898438 L 528.902344 300.964844 L 530.875 301.125 L 532.636719 301.324219 L 533.433594 301.441406 L 534.691406 301.664062 L 535.65625 301.878906 L 536.328125 302.066406 L 537.082031 302.335938 L 537.753906 302.660156 L 538.257812 303.027344 L 538.507812 303.335938 L 532.636719 303.335938 L 532.34375 303.046875 L 532.007812 302.824219 L 531.378906 302.53125 L 530.75 302.320312 L 529.867188 302.113281 L 529.070312 301.972656 L 527.980469 301.835938 L 527.015625 301.75 L 526.007812 301.6875 L 525.042969 301.644531 L 523.199219 301.597656 L 521.058594 301.597656 L 520.261719 301.613281 L 518.625 301.671875 L 517.746094 301.722656 L 516.488281 301.824219 L 515.605469 301.917969 L 514.558594 302.0625 L 513.84375 302.183594 L 512.964844 302.371094 L 512.335938 302.535156 L 511.621094 302.773438 L 511.203125 302.953125 L 510.824219 303.15625 L 510.488281 303.394531 L 510.238281 303.648438 L 510.070312 303.914062 L 509.984375 304.171875 L 509.984375 305.289062 L 510.070312 305.550781 L 510.277344 305.851562 L 510.824219 306.292969 L 511.621094 306.675781 L 512.542969 306.976562 L 513.425781 307.195312 L 513.929688 307.296875 L 514.597656 307.410156 L 515.648438 307.554688 L 517.15625 307.699219 L 518.039062 307.757812 L 519.382812 307.8125 L 520.765625 307.84375 L 522.609375 307.84375 L 524.246094 307.8125 L 525.335938 307.777344 L 526.46875 307.71875 L 528.023438 307.597656 L 528.988281 307.484375 L 529.828125 307.34375 L 530.457031 307.207031 L 530.875 307.09375 L 531.503906 306.871094 L 532.007812 306.625 L 532.386719 306.371094 L 532.636719 306.128906 L 538.507812 306.128906 L 538.257812 306.414062 L 537.878906 306.695312 L 537.503906 306.90625 L 536.914062 307.15625 L 536.242188 307.382812 L 535.28125 307.632812 L 534.480469 307.800781 L 533.433594 307.980469 L 532.46875 308.117188 L 531.421875 308.238281 L 529.867188 308.382812 L 528.863281 308.457031 L 527.769531 308.519531 L 526.46875 308.578125 L 524.835938 308.628906 L 523.074219 308.65625 L 521.4375 308.664062 L 519.675781 308.652344 L 518.375 308.621094 L 516.65625 308.558594 L 514.515625 308.425781 L 512.964844 308.289062 L 511.746094 308.152344 L 510.699219 308.007812 L 509.523438 307.8125 L 508.015625 307.496094 L 507.089844 307.25 L 506.460938 307.050781 L 505.75 306.769531 L 505.246094 306.515625 L 504.65625 306.113281 L 504.238281 305.601562 L 504.113281 305.203125 Z M 504.113281 304.210938 "/>
<path style=" stroke:none;fill-rule:nonzero;fill:rgb(96.862745%,70.196078%,16.862745%);fill-opacity:1;" d="M 504.113281 258.726562 L 504.15625 258.6875 L 504.15625 257.839844 L 504.324219 255.929688 L 504.742188 253.304688 L 505.289062 251.144531 L 505.875 249.449219 L 506.253906 248.558594 L 506.882812 247.285156 L 507.425781 246.355469 L 508.8125 244.449219 L 510.574219 242.667969 L 511.539062 241.90625 L 512.628906 241.183594 L 514.179688 240.378906 L 514.894531 240.082031 L 517.074219 239.40625 L 519.550781 238.980469 L 522.277344 238.855469 L 523.535156 238.894531 L 525.253906 239.066406 L 527.601562 239.53125 L 528.945312 239.957031 L 529.992188 240.378906 L 531.085938 240.929688 L 532.425781 241.777344 L 533.683594 242.796875 L 534.691406 243.8125 L 535.699219 245.082031 L 536.539062 246.4375 L 537.25 247.921875 L 537.878906 249.703125 L 538.257812 251.183594 L 538.507812 252.667969 L 532.679688 252.667969 L 532.34375 251.183594 L 531.964844 250.042969 L 531.335938 248.644531 L 530.707031 247.625 L 530.078125 246.820312 L 528.902344 245.71875 L 527.898438 245.039062 L 526.636719 244.449219 L 525.421875 244.066406 L 524.039062 243.8125 L 523.199219 243.726562 L 520.976562 243.726562 L 518.960938 244.023438 L 517.789062 244.363281 L 516.949219 244.703125 L 515.773438 245.335938 L 515.0625 245.847656 L 514.640625 246.183594 L 513.382812 247.5 L 512.542969 248.683594 L 512.082031 249.488281 L 511.496094 250.761719 L 511.074219 251.90625 L 510.613281 253.601562 L 510.363281 254.871094 L 510.027344 257.753906 L 509.984375 265.378906 L 510.109375 266.992188 L 510.363281 268.726562 L 510.699219 270.253906 L 511.203125 271.863281 L 511.707031 273.09375 L 512.585938 274.746094 L 513.339844 275.847656 L 513.929688 276.566406 L 515.0625 277.710938 L 515.523438 278.09375 L 516.613281 278.855469 L 517.746094 279.449219 L 519.128906 279.957031 L 520.179688 280.210938 L 521.855469 280.425781 L 523.996094 280.425781 L 526.511719 280.167969 L 528.105469 279.832031 L 529.195312 279.492188 L 529.910156 279.195312 L 530.789062 278.730469 L 531.421875 278.304688 L 532.007812 277.839844 L 532.71875 277.117188 L 532.71875 266.992188 L 522.359375 266.949219 L 522.359375 262.203125 L 538.46875 262.160156 L 538.507812 278.730469 L 537.628906 279.875 L 536.539062 280.976562 L 535.488281 281.824219 L 534.398438 282.542969 L 532.847656 283.347656 L 531.589844 283.855469 L 529.660156 284.449219 L 527.898438 284.832031 L 526.050781 285.085938 L 524.414062 285.210938 L 522.484375 285.253906 L 520.765625 285.171875 L 518.921875 284.914062 L 517.453125 284.578125 L 516.109375 284.152344 L 514.765625 283.601562 L 513.089844 282.710938 L 512 281.992188 L 510.867188 281.101562 L 509.734375 280.042969 L 508.726562 278.898438 L 508.054688 278.007812 L 507.382812 276.992188 L 506.671875 275.71875 L 506 274.28125 L 505.496094 272.964844 L 505.035156 271.484375 L 504.699219 270.085938 L 504.363281 268.175781 L 504.195312 266.652344 L 504.113281 265.339844 Z M 504.113281 258.726562 "/>
<path style=" stroke:none;fill-rule:nonzero;fill:rgb(83.921569%,15.686275%,22.352941%);fill-opacity:1;" d="M 504.113281 309.839844 L 538.507812 309.839844 L 538.507812 310.199219 L 524.175781 310.203125 L 524.175781 313.195312 L 518.40625 313.195312 L 518.40625 310.207031 L 518.324219 310.199219 L 504.113281 310.199219 Z M 504.113281 309.839844 "/>
<path style=" stroke:none;fill-rule:nonzero;fill:rgb(6.27451%,58.823529%,28.235294%);fill-opacity:1;" d="M 540.320312 310.898438 L 540.355469 310.894531 L 555.238281 308.539062 L 559.757812 308.539062 L 574.714844 310.898438 L 569.460938 310.898438 L 565.710938 310.285156 L 549.285156 310.285156 L 545.613281 310.898438 L 540.320312 310.898438 L 550.867188 310.027344 L 564.207031 310.027344 L 557.554688 308.925781 L 557.480469 308.925781 L 557.40625 308.929688 L 550.828125 310.027344 L 550.867188 310.027344 Z M 540.320312 310.898438 "/>
<path style=" stroke:none;fill-rule:nonzero;fill:rgb(14.509804%,36.078431%,60%);fill-opacity:1;" d="M 540.320312 305.433594 L 540.363281 305.433594 L 540.363281 305.355469 L 540.488281 305.238281 L 540.78125 305.089844 L 541.074219 304.984375 L 541.828125 304.800781 L 542.878906 304.621094 L 543.96875 304.484375 L 544.765625 304.402344 L 545.480469 304.339844 L 547.113281 304.226562 L 548.164062 304.167969 L 549.296875 304.113281 L 550.679688 304.058594 L 551.6875 304.027344 L 553.953125 303.980469 L 555.628906 303.957031 L 556.929688 303.949219 L 559.742188 303.949219 L 561.417969 303.960938 L 562.636719 303.976562 L 563.976562 304 L 565.109375 304.027344 L 567.082031 304.097656 L 568.84375 304.183594 L 569.640625 304.234375 L 570.898438 304.332031 L 571.863281 304.425781 L 572.535156 304.507812 L 573.289062 304.621094 L 573.960938 304.761719 L 574.464844 304.921875 L 574.714844 305.058594 L 568.84375 305.058594 L 568.550781 304.933594 L 568.214844 304.835938 L 567.585938 304.707031 L 566.957031 304.617188 L 566.074219 304.527344 L 565.277344 304.464844 L 564.1875 304.40625 L 563.222656 304.371094 L 562.214844 304.339844 L 561.25 304.324219 L 559.40625 304.304688 L 557.265625 304.304688 L 556.46875 304.308594 L 554.832031 304.335938 L 553.953125 304.355469 L 552.695312 304.402344 L 551.8125 304.441406 L 550.765625 304.503906 L 550.050781 304.558594 L 549.171875 304.636719 L 548.542969 304.710938 L 547.828125 304.8125 L 547.410156 304.890625 L 547.03125 304.980469 L 546.695312 305.082031 L 546.445312 305.191406 L 546.277344 305.308594 L 546.191406 305.417969 L 546.191406 305.902344 L 546.277344 306.015625 L 546.484375 306.148438 L 547.03125 306.339844 L 547.828125 306.503906 L 548.75 306.636719 L 549.632812 306.730469 L 550.136719 306.773438 L 550.804688 306.824219 L 551.855469 306.886719 L 553.363281 306.949219 L 554.246094 306.972656 L 555.589844 306.996094 L 556.972656 307.011719 L 558.816406 307.011719 L 560.453125 306.996094 L 561.542969 306.980469 L 562.675781 306.957031 L 564.230469 306.902344 L 565.195312 306.855469 L 566.03125 306.792969 L 566.664062 306.734375 L 567.082031 306.683594 L 567.710938 306.589844 L 568.214844 306.480469 L 568.59375 306.371094 L 568.84375 306.265625 L 574.714844 306.265625 L 574.464844 306.390625 L 574.085938 306.511719 L 573.710938 306.605469 L 573.121094 306.714844 L 572.449219 306.808594 L 571.484375 306.917969 L 570.6875 306.992188 L 569.640625 307.070312 L 568.675781 307.128906 L 567.628906 307.183594 L 566.074219 307.246094 L 565.070312 307.277344 L 563.976562 307.304688 L 562.675781 307.328125 L 561.042969 307.351562 L 559.28125 307.363281 L 557.644531 307.367188 L 555.882812 307.359375 L 554.582031 307.347656 L 552.863281 307.320312 L 550.722656 307.261719 L 549.171875 307.203125 L 547.953125 307.144531 L 546.90625 307.082031 L 545.730469 306.996094 L 544.21875 306.859375 L 543.296875 306.753906 L 542.667969 306.667969 L 541.957031 306.542969 L 541.453125 306.433594 L 540.863281 306.261719 L 540.445312 306.039062 L 540.320312 305.867188 Z M 540.320312 305.433594 "/>
<path style=" stroke:none;fill-rule:nonzero;fill:rgb(96.862745%,70.196078%,16.862745%);fill-opacity:1;" d="M 540.320312 312.554688 L 540.363281 312.554688 L 540.363281 312.53125 L 540.53125 312.488281 L 540.949219 312.421875 L 541.492188 312.371094 L 542.082031 312.332031 L 542.457031 312.308594 L 543.089844 312.277344 L 543.632812 312.253906 L 545.019531 312.210938 L 546.78125 312.167969 L 547.746094 312.148438 L 548.835938 312.128906 L 550.386719 312.109375 L 551.101562 312.105469 L 553.28125 312.085938 L 555.757812 312.078125 L 558.484375 312.074219 L 559.742188 312.074219 L 561.460938 312.078125 L 563.808594 312.089844 L 565.152344 312.101562 L 566.199219 312.109375 L 567.292969 312.125 L 568.632812 312.144531 L 569.890625 312.167969 L 570.898438 312.195312 L 571.90625 312.226562 L 572.746094 312.257812 L 573.457031 312.292969 L 574.085938 312.335938 L 574.464844 312.371094 L 574.714844 312.40625 L 568.886719 312.40625 L 568.550781 312.371094 L 568.171875 312.34375 L 567.542969 312.3125 L 566.914062 312.285156 L 566.285156 312.265625 L 565.109375 312.238281 L 564.105469 312.222656 L 562.84375 312.210938 L 561.628906 312.199219 L 560.246094 312.195312 L 559.40625 312.191406 L 557.183594 312.191406 L 555.167969 312.199219 L 553.996094 312.207031 L 553.15625 312.214844 L 551.980469 312.230469 L 551.269531 312.242188 L 550.847656 312.25 L 549.589844 312.28125 L 548.75 312.3125 L 548.289062 312.332031 L 547.703125 312.363281 L 547.28125 312.390625 L 546.820312 312.429688 L 546.570312 312.460938 L 546.234375 312.53125 L 546.191406 312.714844 L 546.316406 312.753906 L 546.570312 312.796875 L 546.90625 312.832031 L 547.410156 312.871094 L 547.910156 312.902344 L 548.792969 312.941406 L 549.546875 312.96875 L 550.136719 312.984375 L 551.269531 313.011719 L 551.730469 313.023438 L 552.820312 313.042969 L 553.953125 313.054688 L 555.335938 313.066406 L 556.386719 313.074219 L 558.0625 313.078125 L 560.203125 313.078125 L 562.71875 313.074219 L 564.3125 313.066406 L 565.402344 313.054688 L 566.117188 313.050781 L 566.996094 313.039062 L 567.628906 313.027344 L 568.214844 313.015625 L 568.925781 313 L 568.925781 312.753906 L 558.566406 312.753906 L 558.566406 312.636719 L 574.675781 312.636719 L 574.714844 313.039062 L 573.835938 313.066406 L 572.746094 313.09375 L 571.695312 313.113281 L 570.605469 313.128906 L 569.054688 313.148438 L 567.796875 313.160156 L 565.867188 313.175781 L 564.105469 313.1875 L 562.257812 313.191406 L 560.621094 313.195312 L 556.972656 313.195312 L 555.125 313.1875 L 553.660156 313.179688 L 550.972656 313.15625 L 549.296875 313.132812 L 548.207031 313.117188 L 545.941406 313.070312 L 544.933594 313.042969 L 543.589844 312.996094 L 542.878906 312.964844 L 542.207031 312.929688 L 541.703125 312.898438 L 541.242188 312.863281 L 540.90625 312.828125 L 540.570312 312.78125 L 540.402344 312.746094 L 540.320312 312.714844 Z M 540.320312 312.554688 "/>
<path style=" stroke:none;fill-rule:nonzero;fill:rgb(83.921569%,15.686275%,22.352941%);fill-opacity:1;" d="M 540.320312 296.703125 L 574.714844 296.703125 L 574.714844 297.355469 L 560.378906 297.359375 L 560.378906 302.773438 L 554.613281 302.773438 L 554.613281 297.367188 L 554.53125 297.355469 L 540.320312 297.355469 Z M 540.320312 296.703125 "/>
<path style=" stroke:none;fill-rule:nonzero;fill:rgb(6.27451%,58.823529%,28.235294%);fill-opacity:1;" d="M 576.527344 308.339844 L 576.5625 308.335938 L 591.445312 305.402344 L 595.964844 305.402344 L 610.921875 308.34375 L 605.667969 308.34375 L 601.917969 307.574219 L 585.492188 307.574219 L 581.816406 308.339844 L 576.527344 308.339844 L 587.074219 307.257812 L 600.414062 307.253906 L 593.761719 305.882812 L 593.6875 305.878906 L 593.613281 305.886719 L 587.035156 307.253906 L 587.074219 307.257812 Z M 576.527344 308.339844 "/>
<path style=" stroke:none;fill-rule:nonzero;fill:rgb(14.509804%,36.078431%,60%);fill-opacity:1;" d="M 576.527344 310.160156 L 576.570312 310.15625 L 576.570312 310.125 L 576.695312 310.074219 L 576.988281 310.007812 L 577.28125 309.964844 L 578.035156 309.886719 L 579.085938 309.808594 L 580.175781 309.75 L 580.972656 309.714844 L 581.6875 309.6875 L 583.320312 309.636719 L 584.371094 309.613281 L 585.503906 309.589844 L 586.886719 309.566406 L 587.894531 309.554688 L 590.160156 309.53125 L 591.835938 309.523438 L 593.136719 309.519531 L 595.949219 309.519531 L 597.625 309.523438 L 598.84375 309.53125 L 600.183594 309.542969 L 601.316406 309.554688 L 603.289062 309.582031 L 605.050781 309.621094 L 605.847656 309.640625 L 607.105469 309.683594 L 608.070312 309.722656 L 608.742188 309.757812 L 609.496094 309.808594 L 610.167969 309.871094 L 610.671875 309.9375 L 610.921875 309.996094 L 605.050781 309.996094 L 604.757812 309.941406 L 604.421875 309.898438 L 603.792969 309.84375 L 603.164062 309.804688 L 602.28125 309.765625 L 601.484375 309.742188 L 600.394531 309.714844 L 599.429688 309.699219 L 598.421875 309.6875 L 597.457031 309.679688 L 595.613281 309.671875 L 593.472656 309.671875 L 592.675781 309.675781 L 591.039062 309.683594 L 590.160156 309.695312 L 588.902344 309.714844 L 588.019531 309.730469 L 586.972656 309.757812 L 586.257812 309.78125 L 585.378906 309.816406 L 584.75 309.847656 L 584.035156 309.890625 L 583.617188 309.925781 L 583.238281 309.960938 L 582.902344 310.007812 L 582.652344 310.054688 L 582.484375 310.101562 L 582.398438 310.152344 L 582.398438 310.359375 L 582.484375 310.410156 L 582.691406 310.464844 L 583.238281 310.546875 L 584.035156 310.617188 L 584.957031 310.675781 L 585.839844 310.714844 L 586.34375 310.734375 L 587.011719 310.757812 L 588.0625 310.78125 L 589.570312 310.808594 L 590.453125 310.820312 L 591.796875 310.832031 L 593.179688 310.835938 L 595.023438 310.835938 L 596.660156 310.832031 L 597.75 310.824219 L 598.882812 310.8125 L 600.4375 310.792969 L 601.402344 310.769531 L 602.238281 310.742188 L 602.871094 310.71875 L 603.289062 310.695312 L 603.917969 310.65625 L 604.421875 310.609375 L 604.800781 310.5625 L 605.050781 310.515625 L 610.921875 310.515625 L 610.671875 310.570312 L 610.292969 310.621094 L 609.917969 310.660156 L 609.328125 310.707031 L 608.65625 310.75 L 607.691406 310.796875 L 606.894531 310.828125 L 605.847656 310.863281 L 604.882812 310.886719 L 603.835938 310.910156 L 602.28125 310.9375 L 601.273438 310.949219 L 600.183594 310.964844 L 598.882812 310.972656 L 597.25 310.984375 L 595.488281 310.988281 L 592.089844 310.988281 L 590.789062 310.980469 L 589.070312 310.96875 L 586.929688 310.945312 L 585.378906 310.921875 L 584.160156 310.894531 L 583.113281 310.867188 L 581.9375 310.832031 L 580.425781 310.773438 L 579.503906 310.726562 L 578.875 310.6875 L 578.164062 310.636719 L 577.660156 310.589844 L 577.070312 310.515625 L 576.652344 310.417969 L 576.527344 310.34375 Z M 576.527344 310.160156 "/>
<path style=" stroke:none;fill-rule:nonzero;fill:rgb(96.862745%,70.196078%,16.862745%);fill-opacity:1;" d="M 576.527344 312.605469 L 576.570312 312.605469 L 576.570312 312.585938 L 576.734375 312.542969 L 577.15625 312.484375 L 577.699219 312.4375 L 578.289062 312.398438 L 578.664062 312.378906 L 579.296875 312.351562 L 579.839844 312.332031 L 581.226562 312.289062 L 582.988281 312.25 L 583.953125 312.234375 L 585.042969 312.214844 L 586.59375 312.199219 L 587.308594 312.191406 L 589.488281 312.175781 L 591.964844 312.167969 L 594.691406 312.164062 L 595.949219 312.164062 L 597.667969 312.167969 L 600.015625 312.179688 L 601.359375 312.191406 L 602.40625 312.199219 L 603.5 312.210938 L 604.839844 312.230469 L 606.097656 312.253906 L 607.105469 312.273438 L 608.113281 312.304688 L 608.953125 312.332031 L 609.664062 312.367188 L 610.292969 312.40625 L 610.671875 312.4375 L 610.921875 312.472656 L 605.09375 312.472656 L 604.757812 312.4375 L 604.378906 312.414062 L 603.75 312.382812 L 603.121094 312.359375 L 602.492188 312.34375 L 601.316406 312.316406 L 600.308594 312.300781 L 599.050781 312.289062 L 597.835938 312.28125 L 596.453125 312.273438 L 593.390625 312.273438 L 591.375 312.28125 L 590.203125 312.289062 L 589.363281 312.292969 L 588.1875 312.308594 L 587.476562 312.320312 L 587.054688 312.328125 L 585.796875 312.355469 L 584.957031 312.382812 L 584.496094 312.402344 L 583.910156 312.429688 L 583.488281 312.453125 L 583.027344 312.492188 L 582.777344 312.519531 L 582.441406 312.585938 L 582.398438 312.753906 L 582.523438 312.789062 L 582.777344 312.828125 L 583.113281 312.863281 L 583.617188 312.898438 L 584.117188 312.925781 L 585 312.960938 L 585.753906 312.988281 L 586.34375 313.003906 L 587.476562 313.027344 L 587.9375 313.035156 L 589.027344 313.054688 L 590.160156 313.066406 L 591.542969 313.078125 L 592.59375 313.082031 L 594.269531 313.089844 L 596.410156 313.089844 L 598.925781 313.082031 L 600.519531 313.074219 L 601.609375 313.066406 L 602.324219 313.0625 L 603.203125 313.050781 L 603.835938 313.042969 L 604.421875 313.03125 L 605.132812 313.015625 L 605.132812 312.789062 L 594.773438 312.789062 L 594.773438 312.683594 L 610.882812 312.683594 L 610.921875 313.050781 L 610.042969 313.078125 L 608.953125 313.101562 L 607.902344 313.121094 L 606.8125 313.136719 L 605.261719 313.152344 L 604 313.164062 L 602.074219 313.179688 L 600.308594 313.1875 L 598.464844 313.191406 L 596.828125 313.195312 L 593.179688 313.195312 L 591.332031 313.1875 L 589.867188 313.179688 L 588.523438 313.171875 L 587.179688 313.160156 L 585.503906 313.140625 L 584.414062 313.125 L 583.28125 313.105469 L 582.148438 313.078125 L 581.140625 313.054688 L 580.46875 313.035156 L 579.796875 313.011719 L 579.085938 312.984375 L 578.414062 312.953125 L 577.910156 312.921875 L 577.449219 312.890625 L 577.113281 312.859375 L 576.777344 312.816406 L 576.609375 312.78125 L 576.527344 312.753906 Z M 576.527344 312.605469 "/>
<path style=" stroke:none;fill-rule:nonzero;fill:rgb(83.921569%,15.686275%,22.352941%);fill-opacity:1;" d="M 576.527344 299.667969 L 610.921875 299.667969 L 610.921875 300.152344 L 596.585938 300.160156 L 596.585938 304.226562 L 590.820312 304.226562 L 590.820312 300.164062 L 590.738281 300.152344 L 576.527344 300.152344 Z M 576.527344 299.667969 "/>
<path style=" stroke:none;fill-rule:nonzero;fill:rgb(6.27451%,58.823529%,28.235294%);fill-opacity:1;" d="M 612.734375 307.65625 L 612.769531 307.652344 L 627.652344 303.652344 L 632.171875 303.652344 L 647.128906 307.660156 L 641.875 307.660156 L 638.125 306.613281 L 621.699219 306.613281 L 618.023438 307.65625 L 612.734375 307.65625 L 623.28125 306.179688 L 636.621094 306.175781 L 629.96875 304.308594 L 629.894531 304.304688 L 629.820312 304.316406 L 623.242188 306.175781 L 623.28125 306.179688 Z M 612.734375 307.65625 "/>
<path style=" stroke:none;fill-rule:nonzero;fill:rgb(14.509804%,36.078431%,60%);fill-opacity:1;" d="M 612.734375 309.644531 L 612.777344 309.640625 L 612.777344 309.601562 L 612.902344 309.535156 L 613.195312 309.453125 L 613.488281 309.398438 L 614.242188 309.296875 L 615.292969 309.199219 L 616.382812 309.125 L 617.179688 309.082031 L 617.894531 309.046875 L 619.527344 308.984375 L 620.578125 308.953125 L 621.710938 308.921875 L 623.09375 308.894531 L 624.101562 308.878906 L 626.367188 308.851562 L 628.042969 308.839844 L 629.34375 308.832031 L 632.15625 308.832031 L 633.832031 308.839844 L 635.050781 308.847656 L 636.390625 308.863281 L 637.523438 308.878906 L 639.496094 308.914062 L 641.257812 308.964844 L 642.054688 308.988281 L 643.3125 309.042969 L 644.277344 309.09375 L 644.949219 309.136719 L 645.703125 309.199219 L 646.375 309.277344 L 646.878906 309.363281 L 647.128906 309.4375 L 641.257812 309.4375 L 640.964844 309.371094 L 640.628906 309.316406 L 640 309.246094 L 639.371094 309.199219 L 638.488281 309.148438 L 637.691406 309.117188 L 636.601562 309.082031 L 635.636719 309.0625 L 634.628906 309.046875 L 633.664062 309.039062 L 631.820312 309.027344 L 629.679688 309.027344 L 628.882812 309.03125 L 627.246094 309.042969 L 626.367188 309.054688 L 625.109375 309.082031 L 624.226562 309.101562 L 623.179688 309.136719 L 622.464844 309.164062 L 621.585938 309.210938 L 620.957031 309.25 L 620.242188 309.304688 L 619.824219 309.347656 L 619.445312 309.394531 L 619.109375 309.453125 L 618.859375 309.511719 L 618.691406 309.574219 L 618.605469 309.636719 L 618.605469 309.898438 L 618.691406 309.960938 L 618.898438 310.03125 L 619.445312 310.136719 L 620.242188 310.226562 L 621.164062 310.296875 L 622.046875 310.347656 L 622.550781 310.371094 L 623.21875 310.398438 L 624.269531 310.433594 L 625.777344 310.46875 L 626.660156 310.480469 L 628.003906 310.496094 L 629.386719 310.5 L 631.230469 310.5 L 632.867188 310.496094 L 633.957031 310.484375 L 635.089844 310.472656 L 636.644531 310.445312 L 637.609375 310.417969 L 638.445312 310.382812 L 639.078125 310.351562 L 639.496094 310.324219 L 640.125 310.273438 L 640.628906 310.214844 L 641.003906 310.152344 L 641.257812 310.097656 L 647.128906 310.097656 L 646.878906 310.164062 L 646.5 310.230469 L 646.125 310.28125 L 645.535156 310.339844 L 644.863281 310.390625 L 643.898438 310.453125 L 643.101562 310.492188 L 642.054688 310.535156 L 641.089844 310.566406 L 640.042969 310.59375 L 638.488281 310.628906 L 637.480469 310.644531 L 636.390625 310.660156 L 635.089844 310.675781 L 633.457031 310.6875 L 631.695312 310.695312 L 630.058594 310.695312 L 628.296875 310.691406 L 626.996094 310.683594 L 625.277344 310.667969 L 623.136719 310.640625 L 621.585938 310.605469 L 620.367188 310.574219 L 619.320312 310.539062 L 618.144531 310.496094 L 616.632812 310.417969 L 615.710938 310.363281 L 615.082031 310.3125 L 614.371094 310.246094 L 613.867188 310.1875 L 613.277344 310.09375 L 612.859375 309.972656 L 612.734375 309.878906 Z M 612.734375 309.644531 "/>
<path style=" stroke:none;fill-rule:nonzero;fill:rgb(96.862745%,70.196078%,16.862745%);fill-opacity:1;" d="M 612.734375 312.4375 L 612.777344 312.4375 L 612.777344 312.414062 L 612.941406 312.359375 L 613.363281 312.28125 L 613.90625 312.222656 L 614.496094 312.171875 L 614.871094 312.148438 L 615.503906 312.109375 L 616.046875 312.085938 L 617.429688 312.03125 L 619.191406 311.980469 L 620.15625 311.957031 L 621.25 311.9375 L 622.800781 311.914062 L 623.515625 311.90625 L 625.695312 311.886719 L 628.171875 311.875 L 630.898438 311.871094 L 632.15625 311.871094 L 633.875 311.875 L 636.222656 311.890625 L 637.566406 311.902344 L 638.613281 311.914062 L 639.707031 311.929688 L 641.046875 311.953125 L 642.304688 311.984375 L 643.3125 312.011719 L 644.320312 312.046875 L 645.160156 312.085938 L 645.871094 312.128906 L 646.5 312.179688 L 646.878906 312.222656 L 647.128906 312.265625 L 641.300781 312.265625 L 640.964844 312.222656 L 640.585938 312.191406 L 639.957031 312.148438 L 639.328125 312.121094 L 638.699219 312.097656 L 637.523438 312.066406 L 636.515625 312.046875 L 635.257812 312.03125 L 634.042969 312.019531 L 632.660156 312.011719 L 631.820312 312.007812 L 629.597656 312.007812 L 627.582031 312.019531 L 626.410156 312.027344 L 625.570312 312.039062 L 624.394531 312.054688 L 623.683594 312.070312 L 623.261719 312.078125 L 622.003906 312.117188 L 621.164062 312.152344 L 620.703125 312.175781 L 620.117188 312.210938 L 619.695312 312.242188 L 619.234375 312.292969 L 618.984375 312.328125 L 618.648438 312.410156 L 618.605469 312.628906 L 618.730469 312.675781 L 618.984375 312.722656 L 619.320312 312.765625 L 619.824219 312.8125 L 620.324219 312.847656 L 621.207031 312.894531 L 621.960938 312.925781 L 622.550781 312.949219 L 623.683594 312.980469 L 624.144531 312.992188 L 625.234375 313.011719 L 626.367188 313.03125 L 627.75 313.042969 L 628.800781 313.050781 L 630.476562 313.058594 L 632.617188 313.058594 L 635.132812 313.050781 L 636.726562 313.039062 L 637.816406 313.03125 L 638.53125 313.023438 L 639.410156 313.007812 L 640.042969 312.996094 L 640.628906 312.984375 L 641.339844 312.964844 L 641.339844 312.675781 L 630.980469 312.671875 L 630.980469 312.539062 L 647.089844 312.535156 L 647.128906 313.007812 L 646.25 313.042969 L 645.160156 313.074219 L 644.109375 313.097656 L 643.019531 313.117188 L 641.46875 313.140625 L 640.207031 313.15625 L 638.277344 313.171875 L 636.515625 313.183594 L 634.671875 313.191406 L 633.035156 313.195312 L 629.386719 313.195312 L 627.539062 313.1875 L 626.074219 313.175781 L 624.730469 313.164062 L 623.386719 313.148438 L 621.710938 313.125 L 620.621094 313.101562 L 619.488281 313.078125 L 618.355469 313.046875 L 617.347656 313.015625 L 616.003906 312.960938 L 615.292969 312.921875 L 614.621094 312.882812 L 614.117188 312.84375 L 613.65625 312.800781 L 613.320312 312.761719 L 612.984375 312.707031 L 612.816406 312.664062 L 612.734375 312.625 Z M 612.734375 312.4375 "/>
<path style=" stroke:none;fill-rule:nonzero;fill:rgb(83.921569%,15.686275%,22.352941%);fill-opacity:1;" d="M 612.734375 296.507812 L 647.128906 296.507812 L 647.128906 297.148438 L 632.792969 297.152344 L 632.792969 302.480469 L 627.027344 302.480469 L 627.027344 297.160156 L 626.945312 297.148438 L 612.734375 297.148438 Z M 612.734375 296.507812 "/>
<path style=" stroke:none;fill-rule:nonzero;fill:rgb(6.27451%,58.823529%,28.235294%);fill-opacity:1;" d="M 648.941406 300.613281 L 648.976562 300.609375 L 663.859375 294.40625 L 668.378906 294.40625 L 683.335938 300.621094 L 678.082031 300.621094 L 674.332031 298.996094 L 657.90625 298.996094 L 654.230469 300.613281 L 648.941406 300.613281 L 659.488281 298.328125 L 672.828125 298.320312 L 666.175781 295.421875 L 666.101562 295.417969 L 666.027344 295.433594 L 659.449219 298.320312 L 659.488281 298.328125 Z M 648.941406 300.613281 "/>
<path style=" stroke:none;fill-rule:nonzero;fill:rgb(14.509804%,36.078431%,60%);fill-opacity:1;" d="M 648.941406 312.617188 L 648.980469 312.617188 L 648.980469 312.59375 L 649.109375 312.558594 L 649.402344 312.515625 L 649.695312 312.484375 L 650.449219 312.429688 L 651.5 312.375 L 652.589844 312.335938 L 653.386719 312.3125 L 654.101562 312.292969 L 655.734375 312.257812 L 656.785156 312.238281 L 657.917969 312.222656 L 659.300781 312.207031 L 660.308594 312.199219 L 662.574219 312.183594 L 664.25 312.175781 L 668.363281 312.175781 L 670.039062 312.179688 L 671.257812 312.183594 L 672.597656 312.191406 L 673.730469 312.199219 L 675.703125 312.21875 L 677.464844 312.246094 L 678.261719 312.261719 L 679.519531 312.289062 L 680.484375 312.316406 L 681.15625 312.34375 L 681.910156 312.375 L 682.582031 312.417969 L 683.085938 312.464844 L 683.335938 312.507812 L 677.464844 312.507812 L 677.171875 312.46875 L 676.835938 312.441406 L 676.207031 312.402344 L 675.578125 312.375 L 674.695312 312.347656 L 673.898438 312.328125 L 672.808594 312.3125 L 671.84375 312.300781 L 670.835938 312.292969 L 669.871094 312.285156 L 668.027344 312.28125 L 665.089844 312.28125 L 663.453125 312.289062 L 662.574219 312.296875 L 661.316406 312.308594 L 660.433594 312.320312 L 659.386719 312.339844 L 658.671875 312.355469 L 657.792969 312.382812 L 657.160156 312.402344 L 656.449219 312.433594 L 656.03125 312.457031 L 655.652344 312.484375 L 655.316406 312.511719 L 655.066406 312.546875 L 654.898438 312.582031 L 654.8125 312.613281 L 654.8125 312.757812 L 654.898438 312.792969 L 655.105469 312.832031 L 655.652344 312.890625 L 656.449219 312.9375 L 657.371094 312.976562 L 658.253906 313.003906 L 658.757812 313.019531 L 659.425781 313.035156 L 660.476562 313.050781 L 661.984375 313.070312 L 662.867188 313.078125 L 664.210938 313.085938 L 665.59375 313.089844 L 667.4375 313.089844 L 669.074219 313.085938 L 670.164062 313.082031 L 671.296875 313.074219 L 672.851562 313.058594 L 673.816406 313.042969 L 674.652344 313.023438 L 675.28125 313.007812 L 675.703125 312.992188 L 676.332031 312.964844 L 676.835938 312.933594 L 677.210938 312.898438 L 677.464844 312.867188 L 683.335938 312.867188 L 683.085938 312.90625 L 682.707031 312.941406 L 682.332031 312.96875 L 681.742188 313 L 681.070312 313.03125 L 680.105469 313.0625 L 679.308594 313.082031 L 678.261719 313.105469 L 677.296875 313.125 L 676.246094 313.140625 L 674.695312 313.160156 L 673.6875 313.167969 L 672.597656 313.175781 L 671.296875 313.183594 L 669.664062 313.191406 L 667.902344 313.195312 L 664.503906 313.195312 L 663.203125 313.191406 L 661.484375 313.183594 L 659.34375 313.164062 L 657.792969 313.148438 L 656.574219 313.128906 L 655.527344 313.109375 L 654.351562 313.085938 L 652.839844 313.042969 L 651.917969 313.011719 L 651.289062 312.988281 L 650.578125 312.949219 L 650.074219 312.917969 L 649.484375 312.867188 L 649.066406 312.800781 L 648.941406 312.746094 Z M 648.941406 312.617188 "/>
<path style=" stroke:none;fill-rule:nonzero;fill:rgb(96.862745%,70.196078%,16.862745%);fill-opacity:1;" d="M 648.941406 309.503906 L 648.980469 309.5 L 648.980469 309.453125 L 649.148438 309.34375 L 649.570312 309.195312 L 650.113281 309.074219 L 650.703125 308.980469 L 651.078125 308.929688 L 651.707031 308.859375 L 652.253906 308.804688 L 653.636719 308.699219 L 655.398438 308.597656 L 656.363281 308.554688 L 657.457031 308.511719 L 659.007812 308.46875 L 659.722656 308.453125 L 661.902344 308.414062 L 664.378906 308.390625 L 667.105469 308.382812 L 668.363281 308.382812 L 670.082031 308.394531 L 672.429688 308.421875 L 673.773438 308.445312 L 674.820312 308.46875 L 675.914062 308.5 L 677.253906 308.546875 L 678.511719 308.605469 L 679.519531 308.660156 L 680.527344 308.734375 L 681.367188 308.808594 L 682.078125 308.894531 L 682.707031 308.992188 L 683.085938 309.078125 L 683.335938 309.160156 L 677.507812 309.160156 L 677.171875 309.078125 L 676.792969 309.011719 L 676.164062 308.933594 L 675.535156 308.875 L 674.90625 308.832031 L 673.730469 308.769531 L 672.722656 308.730469 L 671.464844 308.699219 L 670.25 308.675781 L 668.867188 308.660156 L 668.027344 308.65625 L 665.804688 308.65625 L 663.789062 308.671875 L 662.613281 308.691406 L 661.777344 308.710938 L 660.601562 308.746094 L 659.886719 308.777344 L 659.46875 308.796875 L 658.210938 308.871094 L 657.371094 308.9375 L 656.910156 308.980469 L 656.324219 309.054688 L 655.902344 309.117188 L 655.441406 309.214844 L 655.191406 309.285156 L 654.855469 309.449219 L 654.8125 309.878906 L 654.9375 309.96875 L 655.191406 310.066406 L 655.527344 310.152344 L 656.03125 310.246094 L 656.53125 310.3125 L 657.414062 310.40625 L 658.167969 310.46875 L 658.757812 310.511719 L 659.886719 310.574219 L 660.351562 310.597656 L 661.441406 310.640625 L 662.574219 310.671875 L 663.957031 310.699219 L 665.007812 310.714844 L 666.683594 310.726562 L 668.824219 310.726562 L 671.339844 310.714844 L 672.933594 310.695312 L 674.023438 310.675781 L 674.738281 310.65625 L 675.617188 310.632812 L 676.246094 310.609375 L 676.835938 310.582031 L 677.546875 310.539062 L 677.546875 309.96875 L 667.1875 309.96875 L 667.1875 309.699219 L 683.296875 309.695312 L 683.335938 310.632812 L 682.457031 310.695312 L 681.367188 310.757812 L 680.316406 310.804688 L 679.226562 310.847656 L 677.675781 310.890625 L 676.414062 310.921875 L 674.484375 310.953125 L 672.722656 310.976562 L 670.878906 310.992188 L 669.242188 310.996094 L 667.3125 311 L 665.59375 310.996094 L 663.746094 310.980469 L 662.28125 310.960938 L 660.9375 310.9375 L 659.59375 310.90625 L 657.917969 310.855469 L 656.828125 310.816406 L 655.695312 310.765625 L 654.5625 310.707031 L 653.554688 310.640625 L 652.882812 310.589844 L 652.210938 310.535156 L 651.5 310.460938 L 650.828125 310.378906 L 650.324219 310.304688 L 649.863281 310.222656 L 649.527344 310.144531 L 649.191406 310.035156 L 649.023438 309.949219 L 648.941406 309.875 Z M 648.941406 309.503906 "/>
<path style=" stroke:none;fill-rule:nonzero;fill:rgb(83.921569%,15.686275%,22.352941%);fill-opacity:1;" d="M 648.941406 301.792969 L 683.335938 301.792969 L 683.335938 302.375 L 669 302.378906 L 669 307.207031 L 663.234375 307.207031 L 663.234375 302.382812 L 663.152344 302.375 L 648.941406 302.375 Z M 648.941406 301.792969 "/>
<g style="fill:rgb(0%,0%,0%);fill-opacity:1;">
  <use xlink:href="#glyph0-1" x="21.957031" y="317.018555"/>
  <use xlink:href="#glyph0-2" x="27.291016" y="317.018555"/>
  <use xlink:href="#glyph0-1" x="29.958008" y="317.018555"/>
</g>
<g style="fill:rgb(0%,0%,0%);fill-opacity:1;">
  <use xlink:href="#glyph0-1" x="21.957031" y="243.592773"/>
  <use xlink:href="#glyph0-2" x="27.291016" y="243.592773"/>
  <use xlink:href="#glyph0-3" x="29.958008" y="243.592773"/>
</g>
<g style="fill:rgb(0%,0%,0%);fill-opacity:1;">
  <use xlink:href="#glyph0-4" x="21.957031" y="170.163086"/>
  <use xlink:href="#glyph0-2" x="27.291016" y="170.163086"/>
  <use xlink:href="#glyph0-1" x="29.958008" y="170.163086"/>
</g>
<g style="fill:rgb(0%,0%,0%);fill-opacity:1;">
  <use xlink:href="#glyph0-4" x="21.957031" y="96.737305"/>
  <use xlink:href="#glyph0-2" x="27.291016" y="96.737305"/>
  <use xlink:href="#glyph0-3" x="29.958008" y="96.737305"/>
</g>
<g style="fill:rgb(0%,0%,0%);fill-opacity:1;">
  <use xlink:href="#glyph0-5" x="21.957031" y="23.311523"/>
  <use xlink:href="#glyph0-2" x="27.291016" y="23.311523"/>
  <use xlink:href="#glyph0-1" x="29.958008" y="23.311523"/>
</g>
<g style="fill:rgb(0%,0%,0%);fill-opacity:1;">
  <use xlink:href="#glyph0-4" x="83.828125" y="338.19043"/>
</g>
<g style="fill:rgb(0%,0%,0%);fill-opacity:1;">
  <use xlink:href="#glyph0-5" x="120.035156" y="338.19043"/>
</g>
<g style="fill:rgb(0%,0%,0%);fill-opacity:1;">
  <use xlink:href="#glyph0-6" x="156.242188" y="338.19043"/>
</g>
<g style="fill:rgb(0%,0%,0%);fill-opacity:1;">
  <use xlink:href="#glyph0-7" x="192.449219" y="338.19043"/>
</g>
<g style="fill:rgb(0%,0%,0%);fill-opacity:1;">
  <use xlink:href="#glyph0-3" x="228.65625" y="338.19043"/>
</g>
<g style="fill:rgb(0%,0%,0%);fill-opacity:1;">
  <use xlink:href="#glyph0-8" x="264.863281" y="338.19043"/>
</g>
<g style="fill:rgb(0%,0%,0%);fill-opacity:1;">
  <use xlink:href="#glyph0-9" x="301.070312" y="338.19043"/>
</g>
<g style="fill:rgb(0%,0%,0%);fill-opacity:1;">
  <use xlink:href="#glyph0-10" x="337.277344" y="338.19043"/>
</g>
<g style="fill:rgb(0%,0%,0%);fill-opacity:1;">
  <use xlink:href="#glyph0-11" x="373.484375" y="338.19043"/>
</g>
<g style="fill:rgb(0%,0%,0%);fill-opacity:1;">
  <use xlink:href="#glyph0-4" x="407.191406" y="338.19043"/>
  <use xlink:href="#glyph0-1" x="412.525391" y="338.19043"/>
</g>
<g style="fill:rgb(0%,0%,0%);fill-opacity:1;">
  <use xlink:href="#glyph0-4" x="443.398438" y="338.19043"/>
  <use xlink:href="#glyph0-4" x="448.732422" y="338.19043"/>
</g>
<g style="fill:rgb(0%,0%,0%);fill-opacity:1;">
  <use xlink:href="#glyph0-4" x="479.605469" y="338.19043"/>
  <use xlink:href="#glyph0-5" x="484.939453" y="338.19043"/>
</g>
<g style="fill:rgb(0%,0%,0%);fill-opacity:1;">
  <use xlink:href="#glyph0-4" x="515.8125" y="338.19043"/>
  <use xlink:href="#glyph0-6" x="521.146484" y="338.19043"/>
</g>
<g style="fill:rgb(0%,0%,0%);fill-opacity:1;">
  <use xlink:href="#glyph0-4" x="552.019531" y="338.19043"/>
  <use xlink:href="#glyph0-7" x="557.353516" y="338.19043"/>
</g>
<g style="fill:rgb(0%,0%,0%);fill-opacity:1;">
  <use xlink:href="#glyph0-4" x="588.226562" y="338.19043"/>
  <use xlink:href="#glyph0-3" x="593.560547" y="338.19043"/>
</g>
<g style="fill:rgb(0%,0%,0%);fill-opacity:1;">
  <use xlink:href="#glyph0-4" x="624.433594" y="338.19043"/>
  <use xlink:href="#glyph0-8" x="629.767578" y="338.19043"/>
</g>
<g style="fill:rgb(0%,0%,0%);fill-opacity:1;">
  <use xlink:href="#glyph0-4" x="660.640625" y="338.19043"/>
  <use xlink:href="#glyph0-9" x="665.974609" y="338.19043"/>
</g>
<g style="fill:rgb(0%,0%,0%);fill-opacity:1;">
  <use xlink:href="#glyph1-1" x="14.412109" y="178.015625"/>
  <use xlink:href="#glyph1-2" x="14.412109" y="170.011719"/>
  <use xlink:href="#glyph1-3" x="14.412109" y="167.347656"/>
  <use xlink:href="#glyph1-4" x="14.412109" y="164.011719"/>
</g>
</g>
</svg>
