<?xml version="1.0" encoding="UTF-8"?>
<svg xmlns="http://www.w3.org/2000/svg" xmlns:xlink="http://www.w3.org/1999/xlink" width="720pt" height="360pt" viewBox="0 0 720 360" version="1.1">
<defs>
<g>
<symbol overflow="visible" id="glyph0-0">
<path style="stroke:none;" d=""/>
</symbol>
<symbol overflow="visible" id="glyph0-1">
<path style="stroke:none;" d="M 2.640625 -6.796875 C 2 -6.796875 1.421875 -6.53125 1.078125 -6.046875 C 0.640625 -5.453125 0.40625 -4.546875 0.40625 -3.296875 C 0.40625 -1 1.1875 0.21875 2.640625 0.21875 C 4.078125 0.21875 4.859375 -1 4.859375 -3.234375 C 4.859375 -4.5625 4.65625 -5.4375 4.203125 -6.046875 C 3.84375 -6.53125 3.28125 -6.796875 2.640625 -6.796875 Z M 2.640625 -6.046875 C 3.546875 -6.046875 4 -5.125 4 -3.3125 C 4 -1.375 3.5625 -0.484375 2.625 -0.484375 C 1.734375 -0.484375 1.28125 -1.421875 1.28125 -3.28125 C 1.28125 -5.140625 1.734375 -6.046875 2.640625 -6.046875 Z M 2.640625 -6.046875 "/>
</symbol>
<symbol overflow="visible" id="glyph0-2">
<path style="stroke:none;" d="M 1.828125 -1 L 0.828125 -1 L 0.828125 0 L 1.828125 0 Z M 1.828125 -1 "/>
</symbol>
<symbol overflow="visible" id="glyph0-3">
<path style="stroke:none;" d="M 4.5625 -6.796875 L 1.0625 -6.796875 L 0.546875 -3.09375 L 1.328125 -3.09375 C 1.71875 -3.5625 2.046875 -3.734375 2.578125 -3.734375 C 3.484375 -3.734375 4.0625 -3.109375 4.0625 -2.09375 C 4.0625 -1.125 3.484375 -0.53125 2.578125 -0.53125 C 1.828125 -0.53125 1.375 -0.90625 1.1875 -1.671875 L 0.328125 -1.671875 C 0.453125 -1.109375 0.546875 -0.84375 0.75 -0.59375 C 1.125 -0.078125 1.828125 0.21875 2.59375 0.21875 C 3.96875 0.21875 4.921875 -0.78125 4.921875 -2.21875 C 4.921875 -3.5625 4.03125 -4.484375 2.71875 -4.484375 C 2.25 -4.484375 1.859375 -4.359375 1.46875 -4.0625 L 1.734375 -5.96875 L 4.5625 -5.96875 Z M 4.5625 -6.796875 "/>
</symbol>
<symbol overflow="visible" id="glyph0-4">
<path style="stroke:none;" d="M 2.484375 -4.84375 L 2.484375 0 L 3.328125 0 L 3.328125 -6.796875 L 2.765625 -6.796875 C 2.46875 -5.75 2.28125 -5.609375 0.984375 -5.453125 L 0.984375 -4.84375 Z M 2.484375 -4.84375 "/>
</symbol>
<symbol overflow="visible" id="glyph0-5">
<path style="stroke:none;" d="M 4.859375 -0.828125 L 1.28125 -0.828125 C 1.359375 -1.390625 1.671875 -1.75 2.5 -2.234375 L 3.46875 -2.75 C 4.40625 -3.265625 4.90625 -3.96875 4.90625 -4.8125 C 4.90625 -5.375 4.671875 -5.90625 4.265625 -6.265625 C 3.859375 -6.625 3.375 -6.796875 2.71875 -6.796875 C 1.859375 -6.796875 1.21875 -6.5 0.84375 -5.921875 C 0.609375 -5.5625 0.5 -5.125 0.484375 -4.4375 L 1.328125 -4.4375 C 1.359375 -4.90625 1.40625 -5.1875 1.53125 -5.40625 C 1.75 -5.8125 2.1875 -6.0625 2.703125 -6.0625 C 3.46875 -6.0625 4.03125 -5.515625 4.03125 -4.78125 C 4.03125 -4.25 3.71875 -3.796875 3.125 -3.4375 L 2.234375 -2.9375 C 0.8125 -2.140625 0.40625 -1.5 0.328125 0 L 4.859375 0 Z M 4.859375 -0.828125 "/>
</symbol>
<symbol overflow="visible" id="glyph0-6">
<path style="stroke:none;" d="M 2.125 -3.125 L 2.578125 -3.125 C 3.515625 -3.125 3.984375 -2.703125 3.984375 -1.890625 C 3.984375 -1.03125 3.46875 -0.53125 2.578125 -0.53125 C 1.65625 -0.53125 1.203125 -0.984375 1.15625 -1.96875 L 0.3125 -1.96875 C 0.34375 -1.421875 0.4375 -1.078125 0.609375 -0.765625 C 0.953125 -0.109375 1.625 0.21875 2.546875 0.21875 C 3.953125 0.21875 4.859375 -0.609375 4.859375 -1.90625 C 4.859375 -2.765625 4.515625 -3.25 3.703125 -3.515625 C 4.34375 -3.765625 4.65625 -4.25 4.65625 -4.9375 C 4.65625 -6.109375 3.875 -6.796875 2.578125 -6.796875 C 1.203125 -6.796875 0.484375 -6.046875 0.453125 -4.609375 L 1.296875 -4.609375 C 1.3125 -5.015625 1.34375 -5.25 1.453125 -5.453125 C 1.640625 -5.828125 2.0625 -6.0625 2.59375 -6.0625 C 3.34375 -6.0625 3.796875 -5.625 3.796875 -4.90625 C 3.796875 -4.421875 3.609375 -4.140625 3.25 -3.984375 C 3.015625 -3.890625 2.71875 -3.84375 2.125 -3.84375 Z M 2.125 -3.125 "/>
</symbol>
<symbol overflow="visible" id="glyph0-7">
<path style="stroke:none;" d="M 3.140625 -1.625 L 3.140625 0 L 3.984375 0 L 3.984375 -1.625 L 4.984375 -1.625 L 4.984375 -2.390625 L 3.984375 -2.390625 L 3.984375 -6.796875 L 3.359375 -6.796875 L 0.265625 -2.515625 L 0.265625 -1.625 Z M 3.140625 -2.390625 L 1 -2.390625 L 3.140625 -5.359375 Z M 3.140625 -2.390625 "/>
</symbol>
<symbol overflow="visible" id="glyph0-8">
<path style="stroke:none;" d="M 4.78125 -5.03125 C 4.609375 -6.140625 3.890625 -6.796875 2.84375 -6.796875 C 2.09375 -6.796875 1.421875 -6.4375 1.03125 -5.828125 C 0.609375 -5.171875 0.40625 -4.34375 0.40625 -3.09375 C 0.40625 -1.953125 0.578125 -1.234375 0.984375 -0.625 C 1.359375 -0.078125 1.953125 0.21875 2.703125 0.21875 C 3.984375 0.21875 4.921875 -0.734375 4.921875 -2.078125 C 4.921875 -3.34375 4.0625 -4.234375 2.84375 -4.234375 C 2.171875 -4.234375 1.640625 -3.96875 1.28125 -3.46875 C 1.28125 -5.125 1.828125 -6.046875 2.796875 -6.046875 C 3.390625 -6.046875 3.796875 -5.671875 3.9375 -5.03125 Z M 2.734375 -3.484375 C 3.546875 -3.484375 4.0625 -2.921875 4.0625 -2 C 4.0625 -1.15625 3.484375 -0.53125 2.703125 -0.53125 C 1.921875 -0.53125 1.328125 -1.1875 1.328125 -2.046875 C 1.328125 -2.890625 1.90625 -3.484375 2.734375 -3.484375 Z M 2.734375 -3.484375 "/>
</symbol>
<symbol overflow="visible" id="glyph0-9">
<path style="stroke:none;" d="M 4.984375 -6.796875 L 0.4375 -6.796875 L 0.4375 -5.96875 L 4.109375 -5.96875 C 2.5 -3.65625 1.828125 -2.234375 1.328125 0 L 2.21875 0 C 2.59375 -2.171875 3.453125 -4.046875 4.984375 -6.09375 Z M 4.984375 -6.796875 "/>
</symbol>
<symbol overflow="visible" id="glyph0-10">
<path style="stroke:none;" d="M 3.75 -3.578125 C 4.453125 -4 4.6875 -4.34375 4.6875 -4.984375 C 4.6875 -6.046875 3.84375 -6.796875 2.640625 -6.796875 C 1.4375 -6.796875 0.59375 -6.046875 0.59375 -4.984375 C 0.59375 -4.359375 0.828125 -4.015625 1.515625 -3.578125 C 0.734375 -3.203125 0.359375 -2.640625 0.359375 -1.890625 C 0.359375 -0.640625 1.296875 0.21875 2.640625 0.21875 C 3.984375 0.21875 4.921875 -0.640625 4.921875 -1.875 C 4.921875 -2.640625 4.53125 -3.203125 3.75 -3.578125 Z M 2.640625 -6.046875 C 3.359375 -6.046875 3.8125 -5.625 3.8125 -4.96875 C 3.8125 -4.34375 3.34375 -3.921875 2.640625 -3.921875 C 1.921875 -3.921875 1.453125 -4.34375 1.453125 -4.984375 C 1.453125 -5.625 1.921875 -6.046875 2.640625 -6.046875 Z M 2.640625 -3.203125 C 3.484375 -3.203125 4.0625 -2.671875 4.0625 -1.875 C 4.0625 -1.0625 3.484375 -0.53125 2.625 -0.53125 C 1.796875 -0.53125 1.21875 -1.078125 1.21875 -1.875 C 1.21875 -2.671875 1.796875 -3.203125 2.640625 -3.203125 Z M 2.640625 -3.203125 "/>
</symbol>
<symbol overflow="visible" id="glyph0-11">
<path style="stroke:none;" d="M 0.515625 -1.546875 C 0.671875 -0.4375 1.40625 0.21875 2.4375 0.21875 C 3.1875 0.21875 3.859375 -0.140625 4.265625 -0.75 C 4.6875 -1.40625 4.890625 -2.25 4.890625 -3.484375 C 4.890625 -4.625 4.703125 -5.359375 4.3125 -5.953125 C 3.9375 -6.5 3.34375 -6.796875 2.59375 -6.796875 C 1.296875 -6.796875 0.359375 -5.84375 0.359375 -4.515625 C 0.359375 -3.25 1.234375 -2.34375 2.453125 -2.34375 C 3.09375 -2.34375 3.5625 -2.578125 4.015625 -3.109375 C 4 -1.453125 3.46875 -0.53125 2.5 -0.53125 C 1.90625 -0.53125 1.484375 -0.90625 1.359375 -1.546875 Z M 2.578125 -6.0625 C 3.375 -6.0625 3.96875 -5.40625 3.96875 -4.53125 C 3.96875 -3.6875 3.375 -3.09375 2.546875 -3.09375 C 1.734375 -3.09375 1.234375 -3.671875 1.234375 -4.578125 C 1.234375 -5.4375 1.796875 -6.0625 2.578125 -6.0625 Z M 2.578125 -6.0625 "/>
</symbol>
<symbol overflow="visible" id="glyph1-0">
<path style="stroke:none;" d=""/>
</symbol>
<symbol overflow="visible" id="glyph1-1">
<path style="stroke:none;" d="M 0 -0.953125 L 0 -4.890625 C 0 -5.71875 -0.234375 -6.34375 -0.734375 -6.796875 C -1.1875 -7.234375 -1.8125 -7.46875 -2.5 -7.46875 C -3.546875 -7.46875 -4.1875 -7 -4.625 -5.875 C -4.984375 -6.671875 -5.640625 -7.09375 -6.53125 -7.09375 C -7.15625 -7.09375 -7.734375 -6.859375 -8.140625 -6.390625 C -8.5625 -5.9375 -8.75 -5.34375 -8.75 -4.5 L -8.75 -0.953125 Z M -4.984375 -2.0625 L -7.765625 -2.0625 L -7.765625 -4.21875 C -7.765625 -4.84375 -7.6875 -5.203125 -7.453125 -5.5 C -7.21875 -5.8125 -6.859375 -5.96875 -6.375 -5.96875 C -5.90625 -5.96875 -5.53125 -5.8125 -5.296875 -5.5 C -5.0625 -5.203125 -4.984375 -4.84375 -4.984375 -4.21875 Z M -0.984375 -2.0625 L -4 -2.0625 L -4 -4.78125 C -4 -5.328125 -3.859375 -5.6875 -3.578125 -5.953125 C -3.296875 -6.21875 -2.921875 -6.359375 -2.484375 -6.359375 C -2.0625 -6.359375 -1.6875 -6.21875 -1.40625 -5.953125 C -1.109375 -5.6875 -0.984375 -5.328125 -0.984375 -4.78125 Z M -0.984375 -2.0625 "/>
</symbol>
<symbol overflow="visible" id="glyph1-2">
<path style="stroke:none;" d="M -6.28125 -1.796875 L -6.28125 -0.796875 L 0 -0.796875 L 0 -1.796875 Z M -8.75 -1.796875 L -8.75 -0.796875 L -7.484375 -0.796875 L -7.484375 -1.796875 Z M -8.75 -1.796875 "/>
</symbol>
<symbol overflow="visible" id="glyph1-3">
<path style="stroke:none;" d="M -6.28125 -3.046875 L -6.28125 -2.015625 L -8.015625 -2.015625 L -8.015625 -1.015625 L -6.28125 -1.015625 L -6.28125 -0.171875 L -5.46875 -0.171875 L -5.46875 -1.015625 L -0.71875 -1.015625 C -0.078125 -1.015625 0.28125 -1.453125 0.28125 -2.234375 C 0.28125 -2.46875 0.25 -2.71875 0.1875 -3.046875 L -0.640625 -3.046875 C -0.609375 -2.921875 -0.59375 -2.765625 -0.59375 -2.5625 C -0.59375 -2.140625 -0.71875 -2.015625 -1.15625 -2.015625 L -5.46875 -2.015625 L -5.46875 -3.046875 Z M -6.28125 -3.046875 "/>
</symbol>
<symbol overflow="visible" id="glyph1-4">
<path style="stroke:none;" d="M -4.53125 -5.25 C -5.765625 -5.25 -6.46875 -4.421875 -6.46875 -2.96875 C -6.46875 -1.515625 -5.71875 -0.5625 -4.546875 -0.5625 C -3.5625 -0.5625 -3.09375 -1.0625 -2.734375 -2.5625 L -2.515625 -3.484375 C -2.34375 -4.1875 -2.09375 -4.46875 -1.625 -4.46875 C -1.046875 -4.46875 -0.640625 -3.875 -0.640625 -3 C -0.640625 -2.453125 -0.796875 -2 -1.0625 -1.75 C -1.25 -1.59375 -1.421875 -1.53125 -1.875 -1.46875 L -1.875 -0.40625 C -0.421875 -0.453125 0.28125 -1.265625 0.28125 -2.921875 C 0.28125 -4.5 -0.5 -5.515625 -1.71875 -5.515625 C -2.65625 -5.515625 -3.171875 -4.984375 -3.46875 -3.734375 L -3.703125 -2.765625 C -3.890625 -1.953125 -4.15625 -1.609375 -4.59375 -1.609375 C -5.171875 -1.609375 -5.546875 -2.125 -5.546875 -2.9375 C -5.546875 -3.75 -5.203125 -4.171875 -4.53125 -4.203125 Z M -4.53125 -5.25 "/>
</symbol>
</g>
</defs>
<g id="surface36634">
<rect x="0" y="0" width="720" height="360" style="fill:rgb(100%,100%,100%);fill-opacity:1;stroke:none;"/>
<path style=" stroke:none;fill-rule:nonzero;fill:rgb(14.509804%,36.078431%,60%);fill-opacity:1;" d="M 69.628906 294.414062 L 69.683594 294.382812 L 69.683594 293.605469 L 69.847656 292.378906 L 70.234375 290.828125 L 70.617188 289.761719 L 71.605469 287.859375 L 72.976562 286.019531 L 74.40625 284.597656 L 75.449219 283.757812 L 76.382812 283.109375 L 78.523438 281.917969 L 79.894531 281.304688 L 81.378906 280.753906 L 83.191406 280.203125 L 84.507812 279.882812 L 87.472656 279.367188 L 89.667969 279.140625 L 91.371094 279.042969 L 95.050781 279.042969 L 97.246094 279.171875 L 98.839844 279.332031 L 100.59375 279.589844 L 102.078125 279.882812 L 104.65625 280.59375 L 106.964844 281.496094 L 108.007812 282.011719 L 109.652344 283.015625 L 110.917969 283.984375 L 111.796875 284.824219 L 112.785156 286.019531 L 113.660156 287.472656 L 114.320312 289.117188 L 114.648438 290.507812 L 106.964844 290.507812 L 106.578125 289.214844 L 106.140625 288.214844 L 105.316406 286.890625 L 104.492188 285.953125 L 103.339844 285.015625 L 102.296875 284.402344 L 100.871094 283.789062 L 99.605469 283.402344 L 98.289062 283.109375 L 97.027344 282.917969 L 94.609375 282.722656 L 91.808594 282.722656 L 90.765625 282.789062 L 88.625 283.046875 L 87.472656 283.273438 L 85.824219 283.726562 L 84.671875 284.144531 L 83.300781 284.789062 L 82.367188 285.339844 L 81.214844 286.179688 L 80.390625 286.921875 L 79.457031 287.988281 L 78.90625 288.792969 L 78.414062 289.699219 L 77.976562 290.765625 L 77.644531 291.894531 L 77.425781 293.089844 L 77.316406 294.253906 L 77.316406 299.257812 L 77.425781 300.421875 L 77.699219 301.777344 L 78.414062 303.746094 L 79.457031 305.457031 L 80.664062 306.8125 L 81.816406 307.78125 L 82.476562 308.234375 L 83.355469 308.75 L 84.726562 309.398438 L 86.703125 310.042969 L 87.855469 310.300781 L 89.613281 310.558594 L 91.425781 310.6875 L 93.84375 310.6875 L 95.984375 310.558594 L 97.410156 310.398438 L 98.894531 310.140625 L 100.925781 309.589844 L 102.1875 309.074219 L 103.285156 308.460938 L 104.109375 307.847656 L 104.65625 307.332031 L 105.480469 306.328125 L 106.140625 305.230469 L 106.632812 304.101562 L 106.964844 303.003906 L 114.648438 303.003906 L 114.320312 304.296875 L 113.828125 305.554688 L 113.332031 306.492188 L 112.5625 307.621094 L 111.6875 308.621094 L 110.421875 309.753906 L 109.378906 310.496094 L 108.007812 311.304688 L 106.746094 311.917969 L 105.371094 312.464844 L 103.339844 313.109375 L 102.023438 313.433594 L 100.59375 313.726562 L 98.894531 313.984375 L 96.75 314.210938 L 94.445312 314.339844 L 92.304688 314.371094 L 90 314.304688 L 88.296875 314.175781 L 86.046875 313.886719 L 83.246094 313.304688 L 81.214844 312.691406 L 79.621094 312.078125 L 78.25 311.433594 L 76.710938 310.558594 L 74.734375 309.140625 L 73.527344 308.042969 L 72.703125 307.136719 L 71.769531 305.878906 L 71.113281 304.746094 L 70.34375 302.9375 L 69.792969 300.644531 L 69.628906 298.871094 Z M 69.628906 294.414062 "/>
<path style=" stroke:none;fill-rule:nonzero;fill:rgb(83.921569%,15.686275%,22.352941%);fill-opacity:1;" d="M 69.628906 124.394531 L 114.648438 124.394531 L 114.648438 140.820312 L 95.886719 140.964844 L 95.886719 277.863281 L 88.339844 277.863281 L 88.339844 141.109375 L 88.230469 140.820312 L 69.628906 140.820312 Z M 69.628906 124.394531 "/>
<path style=" stroke:none;fill-rule:nonzero;fill:rgb(96.862745%,70.196078%,16.862745%);fill-opacity:1;" d="M 117.019531 146.460938 L 117.074219 146.191406 L 117.074219 140.828125 L 117.292969 128.757812 L 117.84375 112.128906 L 118.558594 98.449219 L 119.324219 87.71875 L 119.820312 82.085938 L 120.644531 74.039062 L 121.355469 68.140625 L 123.167969 56.070312 L 125.476562 44.804688 L 126.738281 39.976562 L 128.164062 35.414062 L 130.195312 30.320312 L 131.128906 28.441406 L 133.984375 24.148438 L 137.222656 21.46875 L 140.792969 20.664062 L 142.441406 20.929688 L 144.691406 22.003906 L 147.765625 24.953125 L 149.523438 27.636719 L 150.894531 30.320312 L 152.324219 33.804688 L 154.078125 39.171875 L 155.726562 45.609375 L 157.042969 52.046875 L 158.363281 60.09375 L 159.460938 68.675781 L 160.394531 78.0625 L 161.21875 89.328125 L 161.710938 98.714844 L 162.039062 108.105469 L 154.410156 108.105469 L 153.96875 98.714844 L 153.476562 91.476562 L 152.652344 82.625 L 151.828125 76.1875 L 151.003906 71.089844 L 149.46875 64.117188 L 148.148438 59.824219 L 146.503906 56.070312 L 144.910156 53.65625 L 143.097656 52.046875 L 142 51.507812 L 139.089844 51.507812 L 136.457031 53.386719 L 134.917969 55.53125 L 133.820312 57.679688 L 132.28125 61.703125 L 131.351562 64.921875 L 130.800781 67.066406 L 129.152344 75.382812 L 128.054688 82.890625 L 127.453125 87.988281 L 126.683594 96.035156 L 126.132812 103.277344 L 125.53125 114.003906 L 125.199219 122.050781 L 124.761719 140.292969 L 124.707031 188.574219 L 124.871094 198.765625 L 125.199219 209.761719 L 125.640625 219.417969 L 126.296875 229.609375 L 126.957031 237.390625 L 128.109375 247.851562 L 129.097656 254.824219 L 129.867188 259.382812 L 131.351562 266.625 L 131.953125 269.039062 L 133.382812 273.867188 L 134.863281 277.625 L 136.675781 280.84375 L 138.046875 282.453125 L 140.246094 283.792969 L 143.042969 283.792969 L 146.339844 282.183594 L 148.425781 280.039062 L 149.851562 277.890625 L 150.785156 276.015625 L 151.9375 273.0625 L 152.761719 270.382812 L 153.53125 267.429688 L 154.464844 262.871094 L 154.464844 198.765625 L 140.902344 198.496094 L 140.902344 168.457031 L 161.984375 168.1875 L 162.039062 273.0625 L 160.886719 280.304688 L 159.460938 287.28125 L 158.085938 292.644531 L 156.660156 297.203125 L 154.628906 302.300781 L 152.980469 305.519531 L 150.457031 309.273438 L 148.148438 311.6875 L 145.734375 313.296875 L 143.59375 314.101562 L 141.066406 314.371094 L 138.816406 313.835938 L 136.402344 312.226562 L 134.480469 310.078125 L 132.722656 307.398438 L 130.964844 303.910156 L 128.769531 298.277344 L 127.339844 293.71875 L 125.859375 288.085938 L 124.378906 281.378906 L 123.058594 274.136719 L 122.179688 268.503906 L 121.300781 262.066406 L 120.367188 254.019531 L 119.492188 244.898438 L 118.832031 236.585938 L 118.226562 227.195312 L 117.789062 218.34375 L 117.347656 206.277344 L 117.128906 196.621094 L 117.019531 188.304688 Z M 117.019531 146.460938 "/>
<path style=" stroke:none;fill-rule:nonzero;fill:rgb(96.862745%,70.196078%,16.862745%);fill-opacity:1;" d="M 164.410156 146.460938 L 164.464844 146.191406 L 164.464844 140.828125 L 164.683594 128.757812 L 165.234375 112.128906 L 165.949219 98.449219 L 166.714844 87.71875 L 167.210938 82.085938 L 168.035156 74.039062 L 168.746094 68.140625 L 170.558594 56.070312 L 172.867188 44.804688 L 174.128906 39.976562 L 175.554688 35.414062 L 177.585938 30.320312 L 178.519531 28.441406 L 181.375 24.148438 L 184.613281 21.46875 L 188.183594 20.664062 L 189.832031 20.929688 L 192.082031 22.003906 L 195.15625 24.953125 L 196.914062 27.636719 L 198.285156 30.320312 L 199.714844 33.804688 L 201.46875 39.171875 L 203.117188 45.609375 L 204.433594 52.046875 L 205.753906 60.09375 L 206.851562 68.675781 L 207.785156 78.0625 L 208.609375 89.328125 L 209.101562 98.714844 L 209.429688 108.105469 L 201.800781 108.105469 L 201.359375 98.714844 L 200.867188 91.476562 L 200.042969 82.625 L 199.21875 76.1875 L 198.394531 71.089844 L 196.859375 64.117188 L 195.539062 59.824219 L 193.894531 56.070312 L 192.300781 53.65625 L 190.488281 52.046875 L 189.390625 51.507812 L 186.480469 51.507812 L 183.847656 53.386719 L 182.308594 55.53125 L 181.210938 57.679688 L 179.671875 61.703125 L 178.742188 64.921875 L 178.191406 67.066406 L 176.542969 75.382812 L 175.445312 82.890625 L 174.84375 87.988281 L 174.074219 96.035156 L 173.523438 103.277344 L 172.921875 114.003906 L 172.589844 122.050781 L 172.152344 140.292969 L 172.097656 188.574219 L 172.261719 198.765625 L 172.589844 209.761719 L 173.03125 219.417969 L 173.6875 229.609375 L 174.347656 237.390625 L 175.5 247.851562 L 176.488281 254.824219 L 177.257812 259.382812 L 178.742188 266.625 L 179.34375 269.039062 L 180.773438 273.867188 L 182.253906 277.625 L 184.066406 280.84375 L 185.4375 282.453125 L 187.632812 283.792969 L 190.433594 283.792969 L 193.730469 282.183594 L 195.816406 280.039062 L 197.242188 277.890625 L 198.175781 276.015625 L 199.328125 273.0625 L 200.152344 270.382812 L 200.921875 267.429688 L 201.855469 262.871094 L 201.855469 198.765625 L 188.292969 198.496094 L 188.292969 168.457031 L 209.375 168.1875 L 209.429688 273.0625 L 208.277344 280.304688 L 206.851562 287.28125 L 205.476562 292.644531 L 204.050781 297.203125 L 202.019531 302.300781 L 200.371094 305.519531 L 197.847656 309.273438 L 195.539062 311.6875 L 193.125 313.296875 L 190.984375 314.101562 L 188.457031 314.371094 L 186.207031 313.835938 L 183.792969 312.226562 L 181.871094 310.078125 L 180.113281 307.398438 L 178.355469 303.910156 L 176.160156 298.277344 L 174.730469 293.71875 L 173.25 288.085938 L 171.765625 281.378906 L 170.449219 274.136719 L 169.570312 268.503906 L 168.691406 262.066406 L 167.757812 254.019531 L 166.882812 244.898438 L 166.222656 236.585938 L 165.617188 227.195312 L 165.179688 218.34375 L 164.738281 206.277344 L 164.519531 196.621094 L 164.410156 188.304688 Z M 164.410156 146.460938 "/>
<path style=" stroke:none;fill-rule:nonzero;fill:rgb(96.862745%,70.196078%,16.862745%);fill-opacity:1;" d="M 211.800781 146.460938 L 211.855469 146.191406 L 211.855469 140.828125 L 212.074219 128.757812 L 212.625 112.128906 L 213.339844 98.449219 L 214.105469 87.71875 L 214.601562 82.085938 L 215.425781 74.039062 L 216.136719 68.140625 L 217.949219 56.070312 L 220.257812 44.804688 L 221.519531 39.976562 L 222.945312 35.414062 L 224.976562 30.320312 L 225.910156 28.441406 L 228.765625 24.148438 L 232.003906 21.46875 L 235.574219 20.664062 L 237.222656 20.929688 L 239.472656 22.003906 L 242.546875 24.953125 L 244.304688 27.636719 L 245.675781 30.320312 L 247.105469 33.804688 L 248.859375 39.171875 L 250.507812 45.609375 L 251.824219 52.046875 L 253.144531 60.09375 L 254.242188 68.675781 L 255.175781 78.0625 L 256 89.328125 L 256.492188 98.714844 L 256.820312 108.105469 L 249.191406 108.105469 L 248.75 98.714844 L 248.257812 91.476562 L 247.433594 82.625 L 246.609375 76.1875 L 245.785156 71.089844 L 244.25 64.117188 L 242.929688 59.824219 L 241.285156 56.070312 L 239.691406 53.65625 L 237.878906 52.046875 L 236.78125 51.507812 L 233.871094 51.507812 L 231.238281 53.386719 L 229.699219 55.53125 L 228.601562 57.679688 L 227.0625 61.703125 L 226.132812 64.921875 L 225.582031 67.066406 L 223.933594 75.382812 L 222.835938 82.890625 L 222.234375 87.988281 L 221.464844 96.035156 L 220.914062 103.277344 L 220.3125 114.003906 L 219.980469 122.050781 L 219.542969 140.292969 L 219.488281 188.574219 L 219.652344 198.765625 L 219.980469 209.761719 L 220.421875 219.417969 L 221.078125 229.609375 L 221.738281 237.390625 L 222.890625 247.851562 L 223.878906 254.824219 L 224.648438 259.382812 L 226.132812 266.625 L 226.734375 269.039062 L 228.164062 273.867188 L 229.644531 277.625 L 231.457031 280.84375 L 232.828125 282.453125 L 235.023438 283.792969 L 237.824219 283.792969 L 241.121094 282.183594 L 243.207031 280.039062 L 244.632812 277.890625 L 245.566406 276.015625 L 246.71875 273.0625 L 247.542969 270.382812 L 248.3125 267.429688 L 249.246094 262.871094 L 249.246094 198.765625 L 235.683594 198.496094 L 235.683594 168.457031 L 256.765625 168.1875 L 256.820312 273.0625 L 255.667969 280.304688 L 254.242188 287.28125 L 252.867188 292.644531 L 251.441406 297.203125 L 249.410156 302.300781 L 247.761719 305.519531 L 245.238281 309.273438 L 242.929688 311.6875 L 240.515625 313.296875 L 238.375 314.101562 L 235.847656 314.371094 L 233.597656 313.835938 L 231.183594 312.226562 L 229.261719 310.078125 L 227.503906 307.398438 L 225.746094 303.910156 L 223.550781 298.277344 L 222.121094 293.71875 L 220.640625 288.085938 L 219.15625 281.378906 L 217.839844 274.136719 L 216.960938 268.503906 L 216.082031 262.066406 L 215.148438 254.019531 L 214.273438 244.898438 L 213.613281 236.585938 L 213.007812 227.195312 L 212.570312 218.34375 L 212.128906 206.277344 L 211.910156 196.621094 L 211.800781 188.304688 Z M 211.800781 146.460938 "/>
<path style=" stroke:none;fill-rule:nonzero;fill:rgb(6.27451%,58.823529%,28.235294%);fill-opacity:1;" d="M 259.191406 290.890625 L 259.238281 290.738281 L 278.71875 128.917969 L 284.636719 128.917969 L 304.210938 291.042969 L 297.335938 291.042969 L 292.429688 248.722656 L 270.929688 248.722656 L 266.117188 290.890625 L 259.191406 290.890625 L 272.996094 231.214844 L 290.457031 231.0625 L 281.75 155.40625 L 281.652344 155.253906 L 281.558594 155.710938 L 272.949219 231.0625 L 272.996094 231.214844 Z M 259.191406 290.890625 "/>
<path style=" stroke:none;fill-rule:nonzero;fill:rgb(14.509804%,36.078431%,60%);fill-opacity:1;" d="M 259.191406 312.011719 L 259.246094 312.007812 L 259.246094 311.917969 L 259.410156 311.773438 L 259.796875 311.589844 L 260.179688 311.464844 L 261.167969 311.238281 L 262.539062 311.019531 L 263.96875 310.851562 L 265.011719 310.753906 L 265.945312 310.675781 L 268.085938 310.535156 L 269.457031 310.464844 L 270.941406 310.398438 L 272.753906 310.332031 L 274.070312 310.296875 L 277.035156 310.234375 L 279.230469 310.207031 L 280.933594 310.195312 L 284.613281 310.195312 L 286.808594 310.210938 L 288.398438 310.230469 L 290.15625 310.261719 L 291.640625 310.296875 L 294.21875 310.378906 L 296.527344 310.484375 L 297.570312 310.546875 L 299.214844 310.664062 L 300.480469 310.78125 L 301.359375 310.878906 L 302.347656 311.019531 L 303.222656 311.191406 L 303.882812 311.386719 L 304.210938 311.550781 L 296.527344 311.550781 L 296.140625 311.398438 L 295.703125 311.28125 L 294.878906 311.125 L 294.054688 311.011719 L 292.902344 310.902344 L 291.859375 310.828125 L 290.433594 310.757812 L 289.167969 310.710938 L 287.851562 310.675781 L 286.589844 310.652344 L 284.171875 310.632812 L 281.371094 310.632812 L 280.328125 310.640625 L 278.1875 310.667969 L 277.035156 310.695312 L 275.386719 310.75 L 274.234375 310.800781 L 272.863281 310.875 L 271.929688 310.941406 L 270.777344 311.039062 L 269.953125 311.128906 L 269.019531 311.253906 L 268.46875 311.347656 L 267.976562 311.457031 L 267.535156 311.582031 L 267.207031 311.714844 L 266.988281 311.855469 L 266.878906 311.992188 L 266.878906 312.585938 L 266.988281 312.722656 L 267.261719 312.882812 L 267.976562 313.113281 L 269.019531 313.316406 L 270.226562 313.476562 L 271.378906 313.59375 L 272.039062 313.644531 L 272.917969 313.707031 L 274.289062 313.78125 L 276.265625 313.859375 L 277.417969 313.890625 L 279.175781 313.921875 L 280.988281 313.9375 L 283.402344 313.9375 L 285.546875 313.921875 L 286.972656 313.902344 L 288.457031 313.871094 L 290.488281 313.804688 L 291.75 313.746094 L 292.847656 313.671875 L 293.671875 313.601562 L 294.21875 313.539062 L 295.042969 313.421875 L 295.703125 313.289062 L 296.195312 313.15625 L 296.527344 313.027344 L 304.210938 313.027344 L 303.882812 313.179688 L 303.390625 313.328125 L 302.894531 313.441406 L 302.125 313.574219 L 301.246094 313.691406 L 299.984375 313.824219 L 298.941406 313.914062 L 297.570312 314.007812 L 296.304688 314.082031 L 294.933594 314.144531 L 292.902344 314.222656 L 291.585938 314.261719 L 290.15625 314.292969 L 288.457031 314.324219 L 286.3125 314.351562 L 284.007812 314.367188 L 281.867188 314.371094 L 279.5625 314.363281 L 277.859375 314.347656 L 275.609375 314.3125 L 272.808594 314.246094 L 270.777344 314.171875 L 269.183594 314.101562 L 267.8125 314.023438 L 266.273438 313.921875 L 264.296875 313.753906 L 263.089844 313.621094 L 262.265625 313.515625 L 261.332031 313.367188 L 260.675781 313.234375 L 259.90625 313.019531 L 259.355469 312.75 L 259.191406 312.539062 Z M 259.191406 312.011719 "/>
<path style=" stroke:none;fill-rule:nonzero;fill:rgb(96.862745%,70.196078%,16.862745%);fill-opacity:1;" d="M 259.191406 296.335938 L 259.246094 296.328125 L 259.246094 296.152344 L 259.464844 295.757812 L 260.015625 295.210938 L 260.730469 294.765625 L 261.496094 294.414062 L 261.992188 294.230469 L 262.816406 293.96875 L 263.527344 293.773438 L 265.339844 293.378906 L 267.648438 293.011719 L 268.910156 292.851562 L 270.335938 292.703125 L 272.367188 292.539062 L 273.300781 292.476562 L 276.15625 292.335938 L 279.394531 292.246094 L 282.964844 292.222656 L 284.613281 292.230469 L 286.863281 292.265625 L 289.9375 292.363281 L 291.695312 292.449219 L 293.066406 292.539062 L 294.496094 292.652344 L 296.25 292.828125 L 297.898438 293.039062 L 299.214844 293.246094 L 300.535156 293.511719 L 301.632812 293.792969 L 302.566406 294.097656 L 303.390625 294.46875 L 303.882812 294.773438 L 304.210938 295.082031 L 296.582031 295.082031 L 296.140625 294.773438 L 295.648438 294.539062 L 294.824219 294.246094 L 294 294.039062 L 293.175781 293.871094 L 291.640625 293.640625 L 290.320312 293.503906 L 288.675781 293.378906 L 287.082031 293.300781 L 285.269531 293.246094 L 284.171875 293.230469 L 281.261719 293.230469 L 278.628906 293.292969 L 277.089844 293.363281 L 275.992188 293.433594 L 274.453125 293.5625 L 273.519531 293.667969 L 272.972656 293.738281 L 271.324219 294.011719 L 270.226562 294.257812 L 269.625 294.421875 L 268.855469 294.6875 L 268.304688 294.921875 L 267.703125 295.273438 L 267.371094 295.539062 L 266.933594 296.132812 L 266.878906 297.710938 L 267.042969 298.046875 L 267.371094 298.40625 L 267.8125 298.722656 L 268.46875 299.054688 L 269.128906 299.308594 L 270.28125 299.652344 L 271.269531 299.878906 L 272.039062 300.027344 L 273.519531 300.265625 L 274.125 300.34375 L 275.554688 300.503906 L 277.035156 300.625 L 278.847656 300.730469 L 280.21875 300.78125 L 282.414062 300.828125 L 285.214844 300.828125 L 288.511719 300.773438 L 290.597656 300.703125 L 292.023438 300.632812 L 292.957031 300.570312 L 294.109375 300.476562 L 294.933594 300.386719 L 295.703125 300.292969 L 296.636719 300.140625 L 296.636719 298.046875 L 283.074219 298.039062 L 283.074219 297.054688 L 304.15625 297.046875 L 304.210938 300.476562 L 303.058594 300.710938 L 301.632812 300.941406 L 300.257812 301.117188 L 298.832031 301.265625 L 296.800781 301.433594 L 295.152344 301.539062 L 292.628906 301.660156 L 290.320312 301.738281 L 287.90625 301.792969 L 285.765625 301.816406 L 283.238281 301.828125 L 280.988281 301.808594 L 278.574219 301.757812 L 276.652344 301.6875 L 274.894531 301.597656 L 273.136719 301.484375 L 270.941406 301.300781 L 269.511719 301.152344 L 268.03125 300.96875 L 266.546875 300.746094 L 265.230469 300.511719 L 264.351562 300.328125 L 263.472656 300.117188 L 262.539062 299.851562 L 261.664062 299.554688 L 261.003906 299.28125 L 260.398438 298.976562 L 259.960938 298.6875 L 259.519531 298.292969 L 259.300781 297.976562 L 259.191406 297.703125 Z M 259.191406 296.335938 "/>
<path style=" stroke:none;fill-rule:nonzero;fill:rgb(83.921569%,15.686275%,22.352941%);fill-opacity:1;" d="M 259.191406 303.007812 L 304.210938 303.007812 L 304.210938 303.648438 L 285.449219 303.65625 L 285.449219 309.015625 L 277.898438 309.015625 L 277.898438 303.660156 L 277.789062 303.648438 L 259.191406 303.648438 Z M 259.191406 303.007812 "/>
<path style=" stroke:none;fill-rule:nonzero;fill:rgb(6.27451%,58.823529%,28.235294%);fill-opacity:1;" d="M 306.582031 298.1875 L 306.628906 298.179688 L 326.109375 287.121094 L 332.027344 287.121094 L 351.601562 298.199219 L 344.726562 298.199219 L 339.820312 295.308594 L 318.320312 295.308594 L 313.507812 298.1875 L 306.582031 298.1875 L 320.386719 294.113281 L 337.847656 294.101562 L 329.140625 288.933594 L 329.042969 288.921875 L 328.949219 288.953125 L 320.339844 294.101562 L 320.386719 294.113281 Z M 306.582031 298.1875 "/>
<path style=" stroke:none;fill-rule:nonzero;fill:rgb(14.509804%,36.078431%,60%);fill-opacity:1;" d="M 306.582031 313.003906 L 306.636719 313 L 306.636719 312.949219 L 306.800781 312.863281 L 307.1875 312.757812 L 307.570312 312.683594 L 308.558594 312.554688 L 309.929688 312.429688 L 311.359375 312.332031 L 312.402344 312.273438 L 313.335938 312.230469 L 315.476562 312.148438 L 316.847656 312.105469 L 318.332031 312.066406 L 320.144531 312.03125 L 321.460938 312.007812 L 324.425781 311.972656 L 326.621094 311.957031 L 328.324219 311.949219 L 332.003906 311.949219 L 334.199219 311.957031 L 335.789062 311.96875 L 337.546875 311.988281 L 339.03125 312.007812 L 341.609375 312.054688 L 343.917969 312.117188 L 344.960938 312.152344 L 346.605469 312.222656 L 347.871094 312.289062 L 348.75 312.347656 L 349.738281 312.429688 L 350.613281 312.527344 L 351.273438 312.640625 L 351.601562 312.734375 L 343.917969 312.734375 L 343.53125 312.648438 L 343.09375 312.578125 L 342.269531 312.488281 L 341.445312 312.421875 L 340.292969 312.359375 L 339.25 312.316406 L 337.824219 312.273438 L 336.558594 312.25 L 335.242188 312.230469 L 333.980469 312.214844 L 331.5625 312.203125 L 328.761719 312.203125 L 327.71875 312.207031 L 325.578125 312.222656 L 324.425781 312.238281 L 322.777344 312.269531 L 321.625 312.300781 L 320.253906 312.34375 L 319.320312 312.382812 L 318.167969 312.4375 L 317.34375 312.488281 L 316.410156 312.5625 L 315.859375 312.617188 L 315.367188 312.679688 L 314.925781 312.753906 L 314.597656 312.832031 L 314.378906 312.914062 L 314.269531 312.992188 L 314.269531 313.335938 L 314.378906 313.414062 L 314.652344 313.507812 L 315.367188 313.644531 L 316.410156 313.761719 L 317.617188 313.851562 L 318.769531 313.917969 L 319.429688 313.949219 L 320.308594 313.984375 L 321.679688 314.03125 L 323.65625 314.074219 L 324.808594 314.09375 L 326.566406 314.109375 L 328.378906 314.117188 L 330.792969 314.117188 L 332.9375 314.109375 L 334.363281 314.097656 L 335.847656 314.082031 L 337.878906 314.042969 L 339.140625 314.007812 L 340.238281 313.964844 L 341.0625 313.921875 L 341.609375 313.886719 L 342.433594 313.820312 L 343.09375 313.746094 L 343.585938 313.667969 L 343.917969 313.59375 L 351.601562 313.59375 L 351.273438 313.679688 L 350.78125 313.765625 L 350.285156 313.832031 L 349.515625 313.910156 L 348.636719 313.976562 L 347.375 314.054688 L 346.332031 314.105469 L 344.960938 314.160156 L 343.695312 314.203125 L 342.324219 314.238281 L 340.292969 314.285156 L 338.976562 314.304688 L 337.546875 314.328125 L 335.847656 314.34375 L 333.703125 314.359375 L 331.398438 314.367188 L 329.257812 314.371094 L 326.953125 314.367188 L 325.25 314.355469 L 323 314.335938 L 320.199219 314.296875 L 318.167969 314.253906 L 316.574219 314.214844 L 315.203125 314.167969 L 313.664062 314.109375 L 311.6875 314.011719 L 310.480469 313.9375 L 309.65625 313.875 L 308.722656 313.789062 L 308.066406 313.710938 L 307.296875 313.585938 L 306.746094 313.429688 L 306.582031 313.308594 Z M 306.582031 313.003906 "/>
<path style=" stroke:none;fill-rule:nonzero;fill:rgb(96.862745%,70.196078%,16.862745%);fill-opacity:1;" d="M 306.582031 302.679688 L 306.636719 302.675781 L 306.636719 302.53125 L 306.855469 302.214844 L 307.40625 301.78125 L 308.121094 301.421875 L 308.886719 301.140625 L 309.382812 300.992188 L 310.207031 300.78125 L 310.917969 300.625 L 312.730469 300.308594 L 315.039062 300.011719 L 316.300781 299.886719 L 317.726562 299.765625 L 319.757812 299.632812 L 320.691406 299.582031 L 323.546875 299.46875 L 326.785156 299.398438 L 330.355469 299.378906 L 332.003906 299.386719 L 334.253906 299.414062 L 337.328125 299.492188 L 339.085938 299.5625 L 340.457031 299.632812 L 341.886719 299.722656 L 343.640625 299.863281 L 345.289062 300.035156 L 346.605469 300.203125 L 347.925781 300.414062 L 349.023438 300.640625 L 349.957031 300.886719 L 350.78125 301.179688 L 351.273438 301.425781 L 351.601562 301.675781 L 343.972656 301.675781 L 343.53125 301.425781 L 343.039062 301.238281 L 342.214844 301.003906 L 341.390625 300.835938 L 340.566406 300.703125 L 339.03125 300.519531 L 337.710938 300.40625 L 336.066406 300.308594 L 334.472656 300.246094 L 332.660156 300.203125 L 331.5625 300.1875 L 328.652344 300.1875 L 326.019531 300.238281 L 324.480469 300.292969 L 323.382812 300.351562 L 321.84375 300.457031 L 320.910156 300.539062 L 320.363281 300.597656 L 318.714844 300.816406 L 317.617188 301.011719 L 317.015625 301.144531 L 316.246094 301.355469 L 315.695312 301.546875 L 315.09375 301.828125 L 314.761719 302.039062 L 314.324219 302.519531 L 314.269531 303.785156 L 314.433594 304.054688 L 314.761719 304.34375 L 315.203125 304.597656 L 315.859375 304.863281 L 316.519531 305.066406 L 317.671875 305.34375 L 318.660156 305.527344 L 319.429688 305.644531 L 320.910156 305.835938 L 321.515625 305.898438 L 322.945312 306.027344 L 324.425781 306.125 L 326.238281 306.207031 L 327.609375 306.25 L 329.804688 306.285156 L 332.605469 306.285156 L 335.902344 306.242188 L 337.988281 306.1875 L 339.414062 306.132812 L 340.347656 306.082031 L 341.5 306.003906 L 342.324219 305.933594 L 343.09375 305.855469 L 344.027344 305.738281 L 344.027344 304.054688 L 330.464844 304.046875 L 330.464844 303.257812 L 351.546875 303.25 L 351.601562 306.003906 L 350.449219 306.195312 L 349.023438 306.378906 L 347.648438 306.519531 L 346.222656 306.636719 L 344.191406 306.773438 L 342.542969 306.855469 L 340.019531 306.953125 L 337.710938 307.019531 L 335.296875 307.0625 L 333.15625 307.082031 L 330.628906 307.089844 L 328.378906 307.074219 L 325.964844 307.03125 L 324.042969 306.976562 L 322.285156 306.90625 L 320.527344 306.8125 L 318.332031 306.667969 L 316.902344 306.546875 L 315.421875 306.398438 L 313.9375 306.222656 L 312.621094 306.03125 L 311.742188 305.882812 L 310.863281 305.714844 L 309.929688 305.503906 L 309.054688 305.265625 L 308.394531 305.046875 L 307.789062 304.800781 L 307.351562 304.566406 L 306.910156 304.25 L 306.691406 303.996094 L 306.582031 303.78125 Z M 306.582031 302.679688 "/>
<path style=" stroke:none;fill-rule:nonzero;fill:rgb(83.921569%,15.686275%,22.352941%);fill-opacity:1;" d="M 306.582031 308.269531 L 351.601562 308.269531 L 351.601562 308.535156 L 332.839844 308.539062 L 332.839844 310.769531 L 325.289062 310.769531 L 325.289062 308.539062 L 325.179688 308.535156 L 306.582031 308.535156 Z M 306.582031 308.269531 "/>
<path style=" stroke:none;fill-rule:nonzero;fill:rgb(6.27451%,58.823529%,28.235294%);fill-opacity:1;" d="M 353.972656 304.0625 L 354.019531 304.046875 L 373.5 287.609375 L 379.417969 287.609375 L 398.992188 304.078125 L 392.117188 304.078125 L 387.210938 299.777344 L 365.707031 299.777344 L 360.898438 304.0625 L 353.972656 304.0625 L 367.777344 298 L 385.238281 297.984375 L 376.53125 290.300781 L 376.433594 290.285156 L 376.339844 290.332031 L 367.730469 297.984375 L 367.777344 298 Z M 353.972656 304.0625 "/>
<path style=" stroke:none;fill-rule:nonzero;fill:rgb(14.509804%,36.078431%,60%);fill-opacity:1;" d="M 353.972656 312.574219 L 354.027344 312.570312 L 354.027344 312.5 L 354.191406 312.390625 L 354.578125 312.25 L 354.960938 312.15625 L 355.949219 311.984375 L 357.320312 311.816406 L 358.75 311.691406 L 359.792969 311.613281 L 360.726562 311.554688 L 362.867188 311.449219 L 364.238281 311.394531 L 365.722656 311.34375 L 367.535156 311.292969 L 368.851562 311.265625 L 371.816406 311.21875 L 374.011719 311.199219 L 375.714844 311.191406 L 379.394531 311.191406 L 381.589844 311.203125 L 383.179688 311.214844 L 384.9375 311.238281 L 386.421875 311.265625 L 389 311.328125 L 391.308594 311.410156 L 392.351562 311.457031 L 393.996094 311.546875 L 395.261719 311.636719 L 396.140625 311.710938 L 397.128906 311.816406 L 398.003906 311.949219 L 398.664062 312.097656 L 398.992188 312.222656 L 391.308594 312.222656 L 390.921875 312.105469 L 390.484375 312.015625 L 389.660156 311.898438 L 388.835938 311.8125 L 387.683594 311.726562 L 386.640625 311.671875 L 385.210938 311.617188 L 383.949219 311.582031 L 382.632812 311.554688 L 381.371094 311.539062 L 378.953125 311.523438 L 376.152344 311.523438 L 375.109375 311.527344 L 372.96875 311.550781 L 371.816406 311.570312 L 370.167969 311.613281 L 369.015625 311.648438 L 367.644531 311.707031 L 366.710938 311.757812 L 365.558594 311.832031 L 364.734375 311.898438 L 363.800781 311.996094 L 363.25 312.066406 L 362.757812 312.148438 L 362.316406 312.246094 L 361.988281 312.347656 L 361.769531 312.453125 L 361.660156 312.558594 L 361.660156 313.011719 L 361.769531 313.113281 L 362.042969 313.238281 L 362.757812 313.414062 L 363.800781 313.566406 L 365.007812 313.691406 L 366.160156 313.777344 L 366.820312 313.816406 L 367.699219 313.863281 L 369.070312 313.921875 L 371.046875 313.980469 L 372.199219 314.003906 L 373.957031 314.027344 L 375.769531 314.039062 L 378.183594 314.039062 L 380.328125 314.027344 L 381.753906 314.011719 L 383.238281 313.988281 L 385.269531 313.941406 L 386.53125 313.894531 L 387.628906 313.839844 L 388.453125 313.785156 L 389 313.738281 L 389.824219 313.648438 L 390.484375 313.546875 L 390.976562 313.445312 L 391.308594 313.347656 L 398.992188 313.347656 L 398.664062 313.464844 L 398.171875 313.578125 L 397.675781 313.660156 L 396.90625 313.761719 L 396.027344 313.851562 L 394.765625 313.953125 L 393.722656 314.023438 L 392.351562 314.09375 L 391.085938 314.148438 L 389.714844 314.199219 L 387.683594 314.257812 L 386.367188 314.285156 L 384.9375 314.3125 L 383.238281 314.335938 L 381.09375 314.355469 L 378.789062 314.367188 L 376.648438 314.371094 L 374.34375 314.363281 L 372.640625 314.351562 L 370.390625 314.328125 L 367.589844 314.273438 L 365.558594 314.21875 L 363.964844 314.164062 L 362.59375 314.105469 L 361.054688 314.027344 L 359.078125 313.898438 L 357.871094 313.800781 L 357.046875 313.71875 L 356.113281 313.605469 L 355.453125 313.503906 L 354.6875 313.339844 L 354.136719 313.136719 L 353.972656 312.976562 Z M 353.972656 312.574219 "/>
<path style=" stroke:none;fill-rule:nonzero;fill:rgb(96.862745%,70.196078%,16.862745%);fill-opacity:1;" d="M 353.972656 307.292969 L 354.027344 307.289062 L 354.027344 307.203125 L 354.246094 307.007812 L 354.796875 306.738281 L 355.511719 306.515625 L 356.277344 306.339844 L 356.773438 306.25 L 357.597656 306.121094 L 358.308594 306.023438 L 360.121094 305.828125 L 362.429688 305.648438 L 363.691406 305.570312 L 365.117188 305.496094 L 367.148438 305.414062 L 368.082031 305.382812 L 370.9375 305.3125 L 374.175781 305.269531 L 377.746094 305.257812 L 379.394531 305.261719 L 381.644531 305.277344 L 384.71875 305.324219 L 386.476562 305.371094 L 387.847656 305.414062 L 389.277344 305.46875 L 391.03125 305.554688 L 392.679688 305.660156 L 393.996094 305.765625 L 395.316406 305.894531 L 396.414062 306.035156 L 397.347656 306.183594 L 398.171875 306.367188 L 398.664062 306.519531 L 398.992188 306.671875 L 391.363281 306.671875 L 390.921875 306.519531 L 390.429688 306.402344 L 389.605469 306.257812 L 388.78125 306.15625 L 387.957031 306.074219 L 386.421875 305.960938 L 385.101562 305.890625 L 383.457031 305.828125 L 381.863281 305.789062 L 380.050781 305.765625 L 378.953125 305.753906 L 376.042969 305.753906 L 373.410156 305.785156 L 371.871094 305.820312 L 370.773438 305.855469 L 369.234375 305.921875 L 368.300781 305.972656 L 367.753906 306.007812 L 366.105469 306.140625 L 365.007812 306.261719 L 364.40625 306.347656 L 363.636719 306.476562 L 363.085938 306.59375 L 362.484375 306.765625 L 362.152344 306.898438 L 361.714844 307.191406 L 361.660156 307.972656 L 361.824219 308.140625 L 362.152344 308.316406 L 362.59375 308.472656 L 363.25 308.636719 L 363.910156 308.765625 L 365.0625 308.933594 L 366.050781 309.046875 L 366.820312 309.121094 L 368.300781 309.238281 L 368.90625 309.277344 L 370.332031 309.355469 L 371.816406 309.414062 L 373.628906 309.46875 L 375 309.492188 L 377.195312 309.515625 L 379.996094 309.515625 L 383.292969 309.488281 L 385.378906 309.453125 L 386.804688 309.421875 L 387.738281 309.390625 L 388.890625 309.34375 L 389.714844 309.296875 L 390.484375 309.25 L 391.417969 309.175781 L 391.417969 308.140625 L 377.855469 308.136719 L 377.855469 307.648438 L 398.9375 307.644531 L 398.992188 309.34375 L 397.839844 309.460938 L 396.414062 309.570312 L 395.039062 309.660156 L 393.613281 309.734375 L 391.582031 309.816406 L 389.933594 309.867188 L 387.410156 309.929688 L 385.101562 309.96875 L 382.6875 309.992188 L 380.546875 310.007812 L 378.019531 310.011719 L 375.769531 310 L 373.355469 309.976562 L 371.433594 309.941406 L 369.675781 309.898438 L 367.917969 309.839844 L 365.722656 309.75 L 364.292969 309.675781 L 362.8125 309.585938 L 361.328125 309.476562 L 360.011719 309.359375 L 359.132812 309.269531 L 358.253906 309.164062 L 357.320312 309.035156 L 356.441406 308.886719 L 355.785156 308.75 L 355.179688 308.597656 L 354.742188 308.457031 L 354.300781 308.261719 L 354.082031 308.105469 L 353.972656 307.96875 Z M 353.972656 307.292969 "/>
<path style=" stroke:none;fill-rule:nonzero;fill:rgb(83.921569%,15.686275%,22.352941%);fill-opacity:1;" d="M 353.972656 252.601562 L 398.992188 252.601562 L 398.992188 256.222656 L 380.230469 256.253906 L 380.230469 286.429688 L 372.679688 286.429688 L 372.679688 256.285156 L 372.570312 256.222656 L 353.972656 256.222656 Z M 353.972656 252.601562 "/>
<path style=" stroke:none;fill-rule:nonzero;fill:rgb(14.509804%,36.078431%,60%);fill-opacity:1;" d="M 401.363281 301.957031 L 401.417969 301.9375 L 401.417969 301.453125 L 401.582031 300.691406 L 401.96875 299.726562 L 402.351562 299.0625 L 403.339844 297.878906 L 404.710938 296.734375 L 406.140625 295.847656 L 407.183594 295.328125 L 408.117188 294.925781 L 410.257812 294.179688 L 411.628906 293.800781 L 413.113281 293.457031 L 414.925781 293.117188 L 416.242188 292.914062 L 419.207031 292.59375 L 421.402344 292.453125 L 423.105469 292.394531 L 426.785156 292.394531 L 428.980469 292.472656 L 430.570312 292.574219 L 432.328125 292.734375 L 433.8125 292.914062 L 436.390625 293.359375 L 438.699219 293.921875 L 439.742188 294.242188 L 441.386719 294.863281 L 442.652344 295.46875 L 443.527344 295.988281 L 444.515625 296.734375 L 445.394531 297.636719 L 446.054688 298.660156 L 446.382812 299.523438 L 438.699219 299.523438 L 438.3125 298.722656 L 437.875 298.097656 L 437.050781 297.273438 L 436.226562 296.691406 L 435.074219 296.109375 L 434.03125 295.726562 L 432.601562 295.347656 L 431.339844 295.105469 L 430.023438 294.925781 L 428.761719 294.804688 L 426.34375 294.683594 L 423.542969 294.683594 L 422.5 294.722656 L 420.359375 294.882812 L 419.207031 295.023438 L 417.558594 295.304688 L 416.40625 295.566406 L 415.035156 295.96875 L 414.101562 296.3125 L 412.949219 296.832031 L 412.125 297.296875 L 411.191406 297.957031 L 410.640625 298.460938 L 410.148438 299.023438 L 409.707031 299.6875 L 409.378906 300.390625 L 409.160156 301.132812 L 409.050781 301.855469 L 409.050781 304.96875 L 409.160156 305.691406 L 409.433594 306.535156 L 410.148438 307.761719 L 411.191406 308.824219 L 412.398438 309.667969 L 413.550781 310.273438 L 414.210938 310.554688 L 415.089844 310.875 L 416.460938 311.277344 L 418.4375 311.679688 L 419.589844 311.839844 L 421.347656 312 L 423.160156 312.082031 L 425.574219 312.082031 L 427.71875 312 L 429.144531 311.898438 L 430.625 311.738281 L 432.660156 311.398438 L 433.921875 311.074219 L 435.019531 310.695312 L 435.84375 310.3125 L 436.390625 309.992188 L 437.214844 309.367188 L 437.875 308.683594 L 438.367188 307.980469 L 438.699219 307.300781 L 446.382812 307.300781 L 446.054688 308.101562 L 445.5625 308.886719 L 445.066406 309.46875 L 444.296875 310.171875 L 443.417969 310.792969 L 442.15625 311.496094 L 441.113281 311.960938 L 439.742188 312.460938 L 438.476562 312.84375 L 437.105469 313.183594 L 435.074219 313.585938 L 433.757812 313.789062 L 432.328125 313.96875 L 430.625 314.128906 L 428.484375 314.269531 L 426.179688 314.351562 L 424.039062 314.371094 L 421.734375 314.332031 L 420.03125 314.25 L 417.78125 314.070312 L 414.980469 313.707031 L 412.949219 313.324219 L 411.355469 312.945312 L 409.984375 312.542969 L 408.445312 312 L 406.46875 311.117188 L 405.261719 310.433594 L 404.4375 309.871094 L 403.503906 309.085938 L 402.84375 308.382812 L 402.078125 307.257812 L 401.527344 305.832031 L 401.363281 304.726562 Z M 401.363281 301.957031 "/>
<path style=" stroke:none;fill-rule:nonzero;fill:rgb(83.921569%,15.686275%,22.352941%);fill-opacity:1;" d="M 401.363281 91.332031 L 446.382812 91.332031 L 446.382812 112.730469 L 427.621094 112.917969 L 427.621094 291.214844 L 420.070312 291.214844 L 420.070312 113.105469 L 419.960938 112.730469 L 401.363281 112.730469 Z M 401.363281 91.332031 "/>
<path style=" stroke:none;fill-rule:nonzero;fill:rgb(6.27451%,58.823529%,28.235294%);fill-opacity:1;" d="M 448.753906 314.371094 L 448.800781 314.367188 L 468.28125 312.765625 L 474.199219 312.765625 L 493.773438 314.371094 L 486.898438 314.371094 L 481.992188 313.953125 L 460.488281 313.953125 L 455.679688 314.371094 L 448.753906 314.371094 L 462.558594 313.777344 L 480.019531 313.777344 L 471.3125 313.027344 L 471.214844 313.027344 L 471.121094 313.03125 L 462.511719 313.777344 L 462.558594 313.777344 Z M 448.753906 314.371094 "/>
<path style=" stroke:none;fill-rule:nonzero;fill:rgb(96.862745%,70.196078%,16.862745%);fill-opacity:1;" d="M 448.753906 151.988281 L 448.808594 151.730469 L 448.808594 146.632812 L 449.027344 135.160156 L 449.578125 119.351562 L 450.292969 106.351562 L 451.058594 96.152344 L 451.554688 90.796875 L 452.378906 83.148438 L 453.089844 77.542969 L 454.902344 66.066406 L 457.207031 55.359375 L 458.472656 50.769531 L 459.898438 46.4375 L 461.929688 41.59375 L 462.863281 39.808594 L 465.71875 35.730469 L 468.957031 33.179688 L 472.527344 32.414062 L 474.175781 32.667969 L 476.425781 33.691406 L 479.5 36.492188 L 481.257812 39.042969 L 482.628906 41.59375 L 484.058594 44.90625 L 485.8125 50.007812 L 487.460938 56.125 L 488.777344 62.242188 L 490.097656 69.894531 L 491.195312 78.050781 L 492.128906 86.972656 L 492.953125 97.683594 L 493.445312 106.605469 L 493.773438 115.527344 L 486.144531 115.527344 L 485.703125 106.605469 L 485.210938 99.722656 L 484.386719 91.308594 L 483.5625 85.191406 L 482.738281 80.34375 L 481.203125 73.71875 L 479.882812 69.636719 L 478.238281 66.066406 L 476.644531 63.773438 L 474.832031 62.242188 L 473.734375 61.734375 L 470.824219 61.734375 L 468.191406 63.519531 L 466.652344 65.558594 L 465.554688 67.597656 L 464.015625 71.421875 L 463.082031 74.480469 L 462.535156 76.519531 L 460.886719 84.425781 L 459.789062 91.5625 L 459.183594 96.40625 L 458.417969 104.054688 L 457.867188 110.941406 L 457.265625 121.136719 L 456.933594 128.785156 L 456.496094 146.121094 L 456.441406 192.015625 L 456.605469 201.703125 L 456.933594 212.15625 L 457.375 221.332031 L 458.03125 231.019531 L 458.691406 238.414062 L 459.84375 248.359375 L 460.832031 254.988281 L 461.601562 259.320312 L 463.082031 266.203125 L 463.6875 268.5 L 465.113281 273.089844 L 466.597656 276.65625 L 468.410156 279.71875 L 469.78125 281.246094 L 471.976562 282.519531 L 474.777344 282.519531 L 478.074219 280.992188 L 480.160156 278.953125 L 481.585938 276.914062 L 482.519531 275.128906 L 483.671875 272.324219 L 484.496094 269.773438 L 485.265625 266.96875 L 486.199219 262.636719 L 486.199219 201.703125 L 472.636719 201.445312 L 472.636719 172.894531 L 493.71875 172.636719 L 493.773438 272.324219 L 492.621094 279.207031 L 491.195312 285.835938 L 489.820312 290.933594 L 488.394531 295.269531 L 486.363281 300.113281 L 484.714844 303.171875 L 482.191406 306.742188 L 479.882812 309.035156 L 477.46875 310.566406 L 475.328125 311.332031 L 472.800781 311.585938 L 470.550781 311.074219 L 468.136719 309.546875 L 466.214844 307.507812 L 464.457031 304.957031 L 462.699219 301.644531 L 460.503906 296.289062 L 459.074219 291.953125 L 457.59375 286.601562 L 456.109375 280.226562 L 454.792969 273.34375 L 453.914062 267.988281 L 453.035156 261.871094 L 452.101562 254.222656 L 451.222656 245.554688 L 450.566406 237.648438 L 449.960938 228.726562 L 449.523438 220.3125 L 449.082031 208.839844 L 448.863281 199.664062 L 448.753906 191.757812 Z M 448.753906 151.988281 "/>
<path style=" stroke:none;fill-rule:nonzero;fill:rgb(83.921569%,15.686275%,22.352941%);fill-opacity:1;" d="M 496.144531 20.664062 L 541.164062 20.664062 L 541.164062 52.101562 L 522.402344 52.378906 L 522.402344 314.371094 L 514.851562 314.371094 L 514.851562 52.652344 L 514.742188 52.101562 L 496.144531 52.101562 Z M 496.144531 20.664062 "/>
<path style=" stroke:none;fill-rule:nonzero;fill:rgb(6.27451%,58.823529%,28.235294%);fill-opacity:1;" d="M 543.535156 314.09375 L 543.582031 313.820312 L 563.0625 20.664062 L 568.980469 20.664062 L 588.554688 314.371094 L 581.675781 314.371094 L 576.773438 237.703125 L 555.269531 237.703125 L 550.460938 314.09375 L 543.535156 314.09375 L 557.339844 205.988281 L 574.800781 205.710938 L 566.09375 68.648438 L 565.996094 68.375 L 565.902344 69.199219 L 557.292969 205.710938 L 557.339844 205.988281 Z M 543.535156 314.09375 "/>
<path style=" stroke:none;fill-rule:nonzero;fill:rgb(96.862745%,70.196078%,16.862745%);fill-opacity:1;" d="M 590.925781 146.460938 L 590.980469 146.191406 L 590.980469 140.828125 L 591.199219 128.757812 L 591.75 112.128906 L 592.460938 98.449219 L 593.230469 87.71875 L 593.726562 82.085938 L 594.550781 74.039062 L 595.261719 68.140625 L 597.074219 56.070312 L 599.378906 44.804688 L 600.644531 39.976562 L 602.070312 35.414062 L 604.101562 30.320312 L 605.035156 28.441406 L 607.890625 24.148438 L 611.128906 21.46875 L 614.699219 20.664062 L 616.347656 20.929688 L 618.597656 22.003906 L 621.671875 24.953125 L 623.429688 27.636719 L 624.800781 30.320312 L 626.230469 33.804688 L 627.984375 39.171875 L 629.632812 45.609375 L 630.949219 52.046875 L 632.269531 60.09375 L 633.367188 68.675781 L 634.300781 78.0625 L 635.121094 89.328125 L 635.617188 98.714844 L 635.945312 108.105469 L 628.316406 108.105469 L 627.875 98.714844 L 627.382812 91.476562 L 626.558594 82.625 L 625.734375 76.1875 L 624.910156 71.089844 L 623.375 64.117188 L 622.054688 59.824219 L 620.410156 56.070312 L 618.816406 53.65625 L 617.003906 52.046875 L 615.90625 51.507812 L 612.996094 51.507812 L 610.363281 53.386719 L 608.824219 55.53125 L 607.726562 57.679688 L 606.1875 61.703125 L 605.253906 64.921875 L 604.707031 67.066406 L 603.058594 75.382812 L 601.960938 82.890625 L 601.355469 87.988281 L 600.589844 96.035156 L 600.039062 103.277344 L 599.433594 114.003906 L 599.105469 122.050781 L 598.667969 140.292969 L 598.613281 188.574219 L 598.777344 198.765625 L 599.105469 209.761719 L 599.546875 219.417969 L 600.203125 229.609375 L 600.863281 237.390625 L 602.015625 247.851562 L 603.003906 254.824219 L 603.773438 259.382812 L 605.253906 266.625 L 605.859375 269.039062 L 607.285156 273.867188 L 608.769531 277.625 L 610.582031 280.84375 L 611.953125 282.453125 L 614.148438 283.792969 L 616.949219 283.792969 L 620.242188 282.183594 L 622.332031 280.039062 L 623.757812 277.890625 L 624.691406 276.015625 L 625.84375 273.0625 L 626.667969 270.382812 L 627.4375 267.429688 L 628.371094 262.871094 L 628.371094 198.765625 L 614.808594 198.496094 L 614.808594 168.457031 L 635.890625 168.1875 L 635.945312 273.0625 L 634.792969 280.304688 L 633.367188 287.28125 L 631.992188 292.644531 L 630.566406 297.203125 L 628.535156 302.300781 L 626.886719 305.519531 L 624.363281 309.273438 L 622.054688 311.6875 L 619.640625 313.296875 L 617.5 314.101562 L 614.972656 314.371094 L 612.722656 313.835938 L 610.304688 312.226562 L 608.386719 310.078125 L 606.628906 307.398438 L 604.871094 303.910156 L 602.675781 298.277344 L 601.246094 293.71875 L 599.765625 288.085938 L 598.28125 281.378906 L 596.964844 274.136719 L 596.085938 268.503906 L 595.207031 262.066406 L 594.273438 254.019531 L 593.394531 244.898438 L 592.738281 236.585938 L 592.132812 227.195312 L 591.695312 218.34375 L 591.253906 206.277344 L 591.035156 196.621094 L 590.925781 188.304688 Z M 590.925781 146.460938 "/>
<path style=" stroke:none;fill-rule:nonzero;fill:rgb(83.921569%,15.686275%,22.352941%);fill-opacity:1;" d="M 638.316406 20.664062 L 683.335938 20.664062 L 683.335938 52.101562 L 664.574219 52.378906 L 664.574219 314.371094 L 657.023438 314.371094 L 657.023438 52.652344 L 656.914062 52.101562 L 638.316406 52.101562 Z M 638.316406 20.664062 "/>
<g style="fill:rgb(0%,0%,0%);fill-opacity:1;">
  <use xlink:href="#glyph0-1" x="21.957031" y="318.198242"/>
  <use xlink:href="#glyph0-2" x="27.291016" y="318.198242"/>
  <use xlink:href="#glyph0-1" x="29.958008" y="318.198242"/>
</g>
<g style="fill:rgb(0%,0%,0%);fill-opacity:1;">
  <use xlink:href="#glyph0-1" x="21.957031" y="244.475586"/>
  <use xlink:href="#glyph0-2" x="27.291016" y="244.475586"/>
  <use xlink:href="#glyph0-3" x="29.958008" y="244.475586"/>
</g>
<g style="fill:rgb(0%,0%,0%);fill-opacity:1;">
  <use xlink:href="#glyph0-4" x="21.957031" y="170.75293"/>
  <use xlink:href="#glyph0-2" x="27.291016" y="170.75293"/>
  <use xlink:href="#glyph0-1" x="29.958008" y="170.75293"/>
</g>
<g style="fill:rgb(0%,0%,0%);fill-opacity:1;">
  <use xlink:href="#glyph0-4" x="21.957031" y="97.03418"/>
  <use xlink:href="#glyph0-2" x="27.291016" y="97.03418"/>
  <use xlink:href="#glyph0-3" x="29.958008" y="97.03418"/>
</g>
<g style="fill:rgb(0%,0%,0%);fill-opacity:1;">
  <use xlink:href="#glyph0-5" x="21.957031" y="23.311523"/>
  <use xlink:href="#glyph0-2" x="27.291016" y="23.311523"/>
  <use xlink:href="#glyph0-1" x="29.958008" y="23.311523"/>
</g>
<g style="fill:rgb(0%,0%,0%);fill-opacity:1;">
  <use xlink:href="#glyph0-4" x="89.140625" y="338.19043"/>
</g>
<g style="fill:rgb(0%,0%,0%);fill-opacity:1;">
  <use xlink:href="#glyph0-5" x="136.53125" y="338.19043"/>
</g>
<g style="fill:rgb(0%,0%,0%);fill-opacity:1;">
  <use xlink:href="#glyph0-6" x="183.921875" y="338.19043"/>
</g>
<g style="fill:rgb(0%,0%,0%);fill-opacity:1;">
  <use xlink:href="#glyph0-7" x="231.3125" y="338.19043"/>
</g>
<g style="fill:rgb(0%,0%,0%);fill-opacity:1;">
  <use xlink:href="#glyph0-3" x="278.703125" y="338.19043"/>
</g>
<g style="fill:rgb(0%,0%,0%);fill-opacity:1;">
  <use xlink:href="#glyph0-8" x="326.09375" y="338.19043"/>
</g>
<g style="fill:rgb(0%,0%,0%);fill-opacity:1;">
  <use xlink:href="#glyph0-9" x="373.484375" y="338.19043"/>
</g>
<g style="fill:rgb(0%,0%,0%);fill-opacity:1;">
  <use xlink:href="#glyph0-10" x="420.875" y="338.19043"/>
</g>
<g style="fill:rgb(0%,0%,0%);fill-opacity:1;">
  <use xlink:href="#glyph0-11" x="468.265625" y="338.19043"/>
</g>
<g style="fill:rgb(0%,0%,0%);fill-opacity:1;">
  <use xlink:href="#glyph0-4" x="513.15625" y="338.19043"/>
  <use xlink:href="#glyph0-1" x="518.490234" y="338.19043"/>
</g>
<g style="fill:rgb(0%,0%,0%);fill-opacity:1;">
  <use xlink:href="#glyph0-4" x="560.546875" y="338.19043"/>
  <use xlink:href="#glyph0-4" x="565.880859" y="338.19043"/>
</g>
<g style="fill:rgb(0%,0%,0%);fill-opacity:1;">
  <use xlink:href="#glyph0-4" x="607.9375" y="338.19043"/>
  <use xlink:href="#glyph0-5" x="613.271484" y="338.19043"/>
</g>
<g style="fill:rgb(0%,0%,0%);fill-opacity:1;">
  <use xlink:href="#glyph0-4" x="655.328125" y="338.19043"/>
  <use xlink:href="#glyph0-6" x="660.662109" y="338.19043"/>
</g>
<g style="fill:rgb(0%,0%,0%);fill-opacity:1;">
  <use xlink:href="#glyph1-1" x="14.412109" y="178.015625"/>
  <use xlink:href="#glyph1-2" x="14.412109" y="170.011719"/>
  <use xlink:href="#glyph1-3" x="14.412109" y="167.347656"/>
  <use xlink:href="#glyph1-4" x="14.412109" y="164.011719"/>
</g>
</g>
</svg>
