<?xml version="1.0" encoding="UTF-8"?>
<svg xmlns="http://www.w3.org/2000/svg" xmlns:xlink="http://www.w3.org/1999/xlink" width="720pt" height="360pt" viewBox="0 0 720 360" version="1.1">
<defs>
<g>
<symbol overflow="visible" id="glyph0-0">
<path style="stroke:none;" d=""/>
</symbol>
<symbol overflow="visible" id="glyph0-1">
<path style="stroke:none;" d="M 2.640625 -6.796875 C 2 -6.796875 1.421875 -6.53125 1.078125 -6.046875 C 0.640625 -5.453125 0.40625 -4.546875 0.40625 -3.296875 C 0.40625 -1 1.1875 0.21875 2.640625 0.21875 C 4.078125 0.21875 4.859375 -1 4.859375 -3.234375 C 4.859375 -4.5625 4.65625 -5.4375 4.203125 -6.046875 C 3.84375 -6.53125 3.28125 -6.796875 2.640625 -6.796875 Z M 2.640625 -6.046875 C 3.546875 -6.046875 4 -5.125 4 -3.3125 C 4 -1.375 3.5625 -0.484375 2.625 -0.484375 C 1.734375 -0.484375 1.28125 -1.421875 1.28125 -3.28125 C 1.28125 -5.140625 1.734375 -6.046875 2.640625 -6.046875 Z M 2.640625 -6.046875 "/>
</symbol>
<symbol overflow="visible" id="glyph0-2">
<path style="stroke:none;" d="M 1.828125 -1 L 0.828125 -1 L 0.828125 0 L 1.828125 0 Z M 1.828125 -1 "/>
</symbol>
<symbol overflow="visible" id="glyph0-3">
<path style="stroke:none;" d="M 4.5625 -6.796875 L 1.0625 -6.796875 L 0.546875 -3.09375 L 1.328125 -3.09375 C 1.71875 -3.5625 2.046875 -3.734375 2.578125 -3.734375 C 3.484375 -3.734375 4.0625 -3.109375 4.0625 -2.09375 C 4.0625 -1.125 3.484375 -0.53125 2.578125 -0.53125 C 1.828125 -0.53125 1.375 -0.90625 1.1875 -1.671875 L 0.328125 -1.671875 C 0.453125 -1.109375 0.546875 -0.84375 0.75 -0.59375 C 1.125 -0.078125 1.828125 0.21875 2.59375 0.21875 C 3.96875 0.21875 4.921875 -0.78125 4.921875 -2.21875 C 4.921875 -3.5625 4.03125 -4.484375 2.71875 -4.484375 C 2.25 -4.484375 1.859375 -4.359375 1.46875 -4.0625 L 1.734375 -5.96875 L 4.5625 -5.96875 Z M 4.5625 -6.796875 "/>
</symbol>
<symbol overflow="visible" id="glyph0-4">
<path style="stroke:none;" d="M 2.484375 -4.84375 L 2.484375 0 L 3.328125 0 L 3.328125 -6.796875 L 2.765625 -6.796875 C 2.46875 -5.75 2.28125 -5.609375 0.984375 -5.453125 L 0.984375 -4.84375 Z M 2.484375 -4.84375 "/>
</symbol>
<symbol overflow="visible" id="glyph0-5">
<path style="stroke:none;" d="M 4.859375 -0.828125 L 1.28125 -0.828125 C 1.359375 -1.390625 1.671875 -1.75 2.5 -2.234375 L 3.46875 -2.75 C 4.40625 -3.265625 4.90625 -3.96875 4.90625 -4.8125 C 4.90625 -5.375 4.671875 -5.90625 4.265625 -6.265625 C 3.859375 -6.625 3.375 -6.796875 2.71875 -6.796875 C 1.859375 -6.796875 1.21875 -6.5 0.84375 -5.921875 C 0.609375 -5.5625 0.5 -5.125 0.484375 -4.4375 L 1.328125 -4.4375 C 1.359375 -4.90625 1.40625 -5.1875 1.53125 -5.40625 C 1.75 -5.8125 2.1875 -6.0625 2.703125 -6.0625 C 3.46875 -6.0625 4.03125 -5.515625 4.03125 -4.78125 C 4.03125 -4.25 3.71875 -3.796875 3.125 -3.4375 L 2.234375 -2.9375 C 0.8125 -2.140625 0.40625 -1.5 0.328125 0 L 4.859375 0 Z M 4.859375 -0.828125 "/>
</symbol>
<symbol overflow="visible" id="glyph0-6">
<path style="stroke:none;" d="M 2.125 -3.125 L 2.578125 -3.125 C 3.515625 -3.125 3.984375 -2.703125 3.984375 -1.890625 C 3.984375 -1.03125 3.46875 -0.53125 2.578125 -0.53125 C 1.65625 -0.53125 1.203125 -0.984375 1.15625 -1.96875 L 0.3125 -1.96875 C 0.34375 -1.421875 0.4375 -1.078125 0.609375 -0.765625 C 0.953125 -0.109375 1.625 0.21875 2.546875 0.21875 C 3.953125 0.21875 4.859375 -0.609375 4.859375 -1.90625 C 4.859375 -2.765625 4.515625 -3.25 3.703125 -3.515625 C 4.34375 -3.765625 4.65625 -4.25 4.65625 -4.9375 C 4.65625 -6.109375 3.875 -6.796875 2.578125 -6.796875 C 1.203125 -6.796875 0.484375 -6.046875 0.453125 -4.609375 L 1.296875 -4.609375 C 1.3125 -5.015625 1.34375 -5.25 1.453125 -5.453125 C 1.640625 -5.828125 2.0625 -6.0625 2.59375 -6.0625 C 3.34375 -6.0625 3.796875 -5.625 3.796875 -4.90625 C 3.796875 -4.421875 3.609375 -4.140625 3.25 -3.984375 C 3.015625 -3.890625 2.71875 -3.84375 2.125 -3.84375 Z M 2.125 -3.125 "/>
</symbol>
<symbol overflow="visible" id="glyph0-7">
<path style="stroke:none;" d="M 3.140625 -1.625 L 3.140625 0 L 3.984375 0 L 3.984375 -1.625 L 4.984375 -1.625 L 4.984375 -2.390625 L 3.984375 -2.390625 L 3.984375 -6.796875 L 3.359375 -6.796875 L 0.265625 -2.515625 L 0.265625 -1.625 Z M 3.140625 -2.390625 L 1 -2.390625 L 3.140625 -5.359375 Z M 3.140625 -2.390625 "/>
</symbol>
<symbol overflow="visible" id="glyph0-8">
<path style="stroke:none;" d="M 4.78125 -5.03125 C 4.609375 -6.140625 3.890625 -6.796875 2.84375 -6.796875 C 2.09375 -6.796875 1.421875 -6.4375 1.03125 -5.828125 C 0.609375 -5.171875 0.40625 -4.34375 0.40625 -3.09375 C 0.40625 -1.953125 0.578125 -1.234375 0.984375 -0.625 C 1.359375 -0.078125 1.953125 0.21875 2.703125 0.21875 C 3.984375 0.21875 4.921875 -0.734375 4.921875 -2.078125 C 4.921875 -3.34375 4.0625 -4.234375 2.84375 -4.234375 C 2.171875 -4.234375 1.640625 -3.96875 1.28125 -3.46875 C 1.28125 -5.125 1.828125 -6.046875 2.796875 -6.046875 C 3.390625 -6.046875 3.796875 -5.671875 3.9375 -5.03125 Z M 2.734375 -3.484375 C 3.546875 -3.484375 4.0625 -2.921875 4.0625 -2 C 4.0625 -1.15625 3.484375 -0.53125 2.703125 -0.53125 C 1.921875 -0.53125 1.328125 -1.1875 1.328125 -2.046875 C 1.328125 -2.890625 1.90625 -3.484375 2.734375 -3.484375 Z M 2.734375 -3.484375 "/>
</symbol>
<symbol overflow="visible" id="glyph0-9">
<path style="stroke:none;" d="M 4.984375 -6.796875 L 0.4375 -6.796875 L 0.4375 -5.96875 L 4.109375 -5.96875 C 2.5 -3.65625 1.828125 -2.234375 1.328125 0 L 2.21875 0 C 2.59375 -2.171875 3.453125 -4.046875 4.984375 -6.09375 Z M 4.984375 -6.796875 "/>
</symbol>
<symbol overflow="visible" id="glyph0-10">
<path style="stroke:none;" d="M 3.75 -3.578125 C 4.453125 -4 4.6875 -4.34375 4.6875 -4.984375 C 4.6875 -6.046875 3.84375 -6.796875 2.640625 -6.796875 C 1.4375 -6.796875 0.59375 -6.046875 0.59375 -4.984375 C 0.59375 -4.359375 0.828125 -4.015625 1.515625 -3.578125 C 0.734375 -3.203125 0.359375 -2.640625 0.359375 -1.890625 C 0.359375 -0.640625 1.296875 0.21875 2.640625 0.21875 C 3.984375 0.21875 4.921875 -0.640625 4.921875 -1.875 C 4.921875 -2.640625 4.53125 -3.203125 3.75 -3.578125 Z M 2.640625 -6.046875 C 3.359375 -6.046875 3.8125 -5.625 3.8125 -4.96875 C 3.8125 -4.34375 3.34375 -3.921875 2.640625 -3.921875 C 1.921875 -3.921875 1.453125 -4.34375 1.453125 -4.984375 C 1.453125 -5.625 1.921875 -6.046875 2.640625 -6.046875 Z M 2.640625 -3.203125 C 3.484375 -3.203125 4.0625 -2.671875 4.0625 -1.875 C 4.0625 -1.0625 3.484375 -0.53125 2.625 -0.53125 C 1.796875 -0.53125 1.21875 -1.078125 1.21875 -1.875 C 1.21875 -2.671875 1.796875 -3.203125 2.640625 -3.203125 Z M 2.640625 -3.203125 "/>
</symbol>
<symbol overflow="visible" id="glyph0-11">
<path style="stroke:none;" d="M 0.515625 -1.546875 C 0.671875 -0.4375 1.40625 0.21875 2.4375 0.21875 C 3.1875 0.21875 3.859375 -0.140625 4.265625 -0.75 C 4.6875 -1.40625 4.890625 -2.25 4.890625 -3.484375 C 4.890625 -4.625 4.703125 -5.359375 4.3125 -5.953125 C 3.9375 -6.5 3.34375 -6.796875 2.59375 -6.796875 C 1.296875 -6.796875 0.359375 -5.84375 0.359375 -4.515625 C 0.359375 -3.25 1.234375 -2.34375 2.453125 -2.34375 C 3.09375 -2.34375 3.5625 -2.578125 4.015625 -3.109375 C 4 -1.453125 3.46875 -0.53125 2.5 -0.53125 C 1.90625 -0.53125 1.484375 -0.90625 1.359375 -1.546875 Z M 2.578125 -6.0625 C 3.375 -6.0625 3.96875 -5.40625 3.96875 -4.53125 C 3.96875 -3.6875 3.375 -3.09375 2.546875 -3.09375 C 1.734375 -3.09375 1.234375 -3.671875 1.234375 -4.578125 C 1.234375 -5.4375 1.796875 -6.0625 2.578125 -6.0625 Z M 2.578125 -6.0625 "/>
</symbol>
<symbol overflow="visible" id="glyph1-0">
<path style="stroke:none;" d=""/>
</symbol>
<symbol overflow="visible" id="glyph1-1">
<path style="stroke:none;" d="M 0 -0.953125 L 0 -4.890625 C 0 -5.71875 -0.234375 -6.34375 -0.734375 -6.796875 C -1.1875 -7.234375 -1.8125 -7.46875 -2.5 -7.46875 C -3.546875 -7.46875 -4.1875 -7 -4.625 -5.875 C -4.984375 -6.671875 -5.640625 -7.09375 -6.53125 -7.09375 C -7.15625 -7.09375 -7.734375 -6.859375 -8.140625 -6.390625 C -8.5625 -5.9375 -8.75 -5.34375 -8.75 -4.5 L -8.75 -0.953125 Z M -4.984375 -2.0625 L -7.765625 -2.0625 L -7.765625 -4.21875 C -7.765625 -4.84375 -7.6875 -5.203125 -7.453125 -5.5 C -7.21875 -5.8125 -6.859375 -5.96875 -6.375 -5.96875 C -5.90625 -5.96875 -5.53125 -5.8125 -5.296875 -5.5 C -5.0625 -5.203125 -4.984375 -4.84375 -4.984375 -4.21875 Z M -0.984375 -2.0625 L -4 -2.0625 L -4 -4.78125 C -4 -5.328125 -3.859375 -5.6875 -3.578125 -5.953125 C -3.296875 -6.21875 -2.921875 -6.359375 -2.484375 -6.359375 C -2.0625 -6.359375 -1.6875 -6.21875 -1.40625 -5.953125 C -1.109375 -5.6875 -0.984375 -5.328125 -0.984375 -4.78125 Z M -0.984375 -2.0625 "/>
</symbol>
<symbol overflow="visible" id="glyph1-2">
<path style="stroke:none;" d="M -6.28125 -1.796875 L -6.28125 -0.796875 L 0 -0.796875 L 0 -1.796875 Z M -8.75 -1.796875 L -8.75 -0.796875 L -7.484375 -0.796875 L -7.484375 -1.796875 Z M -8.75 -1.796875 "/>
</symbol>
<symbol overflow="visible" id="glyph1-3">
<path style="stroke:none;" d="M -6.28125 -3.046875 L -6.28125 -2.015625 L -8.015625 -2.015625 L -8.015625 -1.015625 L -6.28125 -1.015625 L -6.28125 -0.171875 L -5.46875 -0.171875 L -5.46875 -1.015625 L -0.71875 -1.015625 C -0.078125 -1.015625 0.28125 -1.453125 0.28125 -2.234375 C 0.28125 -2.46875 0.25 -2.71875 0.1875 -3.046875 L -0.640625 -3.046875 C -0.609375 -2.921875 -0.59375 -2.765625 -0.59375 -2.5625 C -0.59375 -2.140625 -0.71875 -2.015625 -1.15625 -2.015625 L -5.46875 -2.015625 L -5.46875 -3.046875 Z M -6.28125 -3.046875 "/>
</symbol>
<symbol overflow="visible" id="glyph1-4">
<path style="stroke:none;" d="M -4.53125 -5.25 C -5.765625 -5.25 -6.46875 -4.421875 -6.46875 -2.96875 C -6.46875 -1.515625 -5.71875 -0.5625 -4.546875 -0.5625 C -3.5625 -0.5625 -3.09375 -1.0625 -2.734375 -2.5625 L -2.515625 -3.484375 C -2.34375 -4.1875 -2.09375 -4.46875 -1.625 -4.46875 C -1.046875 -4.46875 -0.640625 -3.875 -0.640625 -3 C -0.640625 -2.453125 -0.796875 -2 -1.0625 -1.75 C -1.25 -1.59375 -1.421875 -1.53125 -1.875 -1.46875 L -1.875 -0.40625 C -0.421875 -0.453125 0.28125 -1.265625 0.28125 -2.921875 C 0.28125 -4.5 -0.5 -5.515625 -1.71875 -5.515625 C -2.65625 -5.515625 -3.171875 -4.984375 -3.46875 -3.734375 L -3.703125 -2.765625 C -3.890625 -1.953125 -4.15625 -1.609375 -4.59375 -1.609375 C -5.171875 -1.609375 -5.546875 -2.125 -5.546875 -2.9375 C -5.546875 -3.75 -5.203125 -4.171875 -4.53125 -4.203125 Z M -4.53125 -5.25 "/>
</symbol>
</g>
</defs>
<g id="surface39602">
<rect x="0" y="0" width="720" height="360" style="fill:rgb(100%,100%,100%);fill-opacity:1;stroke:none;"/>
<path style=" stroke:none;fill-rule:nonzero;fill:rgb(6.27451%,58.823529%,28.235294%);fill-opacity:1;" d="M 69.628906 314.308594 L 69.699219 314.242188 L 97.886719 246.988281 L 106.445312 246.988281 L 134.773438 314.371094 L 124.820312 314.371094 L 117.71875 296.78125 L 86.609375 296.78125 L 79.652344 314.308594 L 69.628906 314.308594 L 89.601562 289.503906 L 114.867188 289.441406 L 102.269531 257.996094 L 102.128906 257.933594 L 101.992188 258.125 L 89.535156 289.441406 L 89.601562 289.503906 Z M 69.628906 314.308594 "/>
<path style=" stroke:none;fill-rule:nonzero;fill:rgb(96.862745%,70.196078%,16.862745%);fill-opacity:1;" d="M 69.628906 201.058594 L 69.707031 200.984375 L 69.707031 199.554688 L 70.027344 196.339844 L 70.820312 191.90625 L 71.855469 188.261719 L 72.964844 185.402344 L 73.679688 183.898438 L 74.871094 181.753906 L 75.90625 180.183594 L 78.527344 176.964844 L 81.863281 173.964844 L 83.691406 172.675781 L 85.757812 171.460938 L 88.695312 170.101562 L 90.046875 169.601562 L 94.175781 168.457031 L 98.863281 167.742188 L 104.027344 167.53125 L 106.410156 167.601562 L 109.667969 167.886719 L 114.117188 168.671875 L 116.660156 169.386719 L 118.644531 170.101562 L 120.710938 171.03125 L 123.253906 172.460938 L 125.636719 174.179688 L 127.542969 175.894531 L 129.449219 178.039062 L 131.039062 180.324219 L 132.386719 182.828125 L 133.578125 185.832031 L 134.292969 188.332031 L 134.773438 190.835938 L 123.730469 190.835938 L 123.09375 188.332031 L 122.378906 186.402344 L 121.1875 184.042969 L 119.996094 182.328125 L 118.804688 180.96875 L 116.578125 179.109375 L 114.671875 177.96875 L 112.289062 176.964844 L 109.984375 176.324219 L 107.363281 175.894531 L 105.773438 175.75 L 101.566406 175.75 L 97.75 176.25 L 95.527344 176.824219 L 93.9375 177.394531 L 91.714844 178.46875 L 90.363281 179.324219 L 89.570312 179.898438 L 87.1875 182.113281 L 85.597656 184.113281 L 84.722656 185.472656 L 83.609375 187.617188 L 82.816406 189.546875 L 81.941406 192.40625 L 81.464844 194.550781 L 80.832031 199.414062 L 80.75 212.28125 L 80.988281 214.996094 L 81.464844 217.929688 L 82.101562 220.503906 L 83.054688 223.21875 L 84.007812 225.292969 L 85.675781 228.082031 L 87.105469 229.9375 L 88.21875 231.152344 L 90.363281 233.085938 L 91.238281 233.726562 L 93.304688 235.015625 L 95.449219 236.015625 L 98.070312 236.875 L 100.054688 237.300781 L 103.234375 237.660156 L 107.285156 237.660156 L 112.050781 237.230469 L 115.070312 236.660156 L 117.136719 236.085938 L 118.484375 235.585938 L 120.152344 234.800781 L 121.347656 234.085938 L 122.457031 233.300781 L 123.808594 232.082031 L 123.808594 214.996094 L 104.1875 214.925781 L 104.1875 206.917969 L 134.691406 206.847656 L 134.773438 234.800781 L 133.101562 236.730469 L 131.039062 238.589844 L 129.050781 240.019531 L 126.984375 241.234375 L 124.046875 242.59375 L 121.664062 243.449219 L 118.007812 244.449219 L 114.671875 245.09375 L 111.175781 245.523438 L 108.078125 245.738281 L 104.425781 245.808594 L 101.167969 245.667969 L 97.671875 245.238281 L 94.890625 244.664062 L 92.351562 243.949219 L 89.808594 243.019531 L 86.628906 241.519531 L 84.5625 240.304688 L 82.417969 238.804688 L 80.273438 237.015625 L 78.367188 235.085938 L 77.097656 233.585938 L 75.824219 231.867188 L 74.476562 229.722656 L 73.203125 227.292969 L 72.25 225.078125 L 71.378906 222.574219 L 70.742188 220.214844 L 70.105469 217 L 69.789062 214.425781 L 69.628906 212.210938 Z M 69.628906 201.058594 "/>
<path style=" stroke:none;fill-rule:nonzero;fill:rgb(96.862745%,70.196078%,16.862745%);fill-opacity:1;" d="M 138.199219 146.460938 L 138.28125 146.191406 L 138.28125 140.828125 L 138.597656 128.757812 L 139.390625 112.128906 L 140.425781 98.449219 L 141.535156 87.71875 L 142.25 82.085938 L 143.441406 74.039062 L 144.476562 68.140625 L 147.097656 56.070312 L 150.433594 44.804688 L 152.261719 39.976562 L 154.328125 35.414062 L 157.265625 30.320312 L 158.617188 28.441406 L 162.746094 24.148438 L 167.433594 21.46875 L 172.597656 20.664062 L 174.980469 20.929688 L 178.238281 22.003906 L 182.6875 24.953125 L 185.230469 27.636719 L 187.214844 30.320312 L 189.28125 33.804688 L 191.824219 39.171875 L 194.207031 45.609375 L 196.113281 52.046875 L 198.019531 60.09375 L 199.609375 68.675781 L 200.957031 78.0625 L 202.152344 89.328125 L 202.867188 98.714844 L 203.34375 108.105469 L 192.300781 108.105469 L 191.664062 98.714844 L 190.949219 91.476562 L 189.757812 82.625 L 188.566406 76.1875 L 187.375 71.089844 L 185.148438 64.117188 L 183.242188 59.824219 L 180.859375 56.070312 L 178.554688 53.65625 L 175.933594 52.046875 L 174.347656 51.507812 L 170.136719 51.507812 L 166.324219 53.386719 L 164.097656 55.53125 L 162.507812 57.679688 L 160.285156 61.703125 L 158.933594 64.921875 L 158.140625 67.066406 L 155.757812 75.382812 L 154.167969 82.890625 L 153.292969 87.988281 L 152.183594 96.035156 L 151.386719 103.277344 L 150.511719 114.003906 L 150.035156 122.050781 L 149.402344 140.292969 L 149.320312 188.574219 L 149.558594 198.765625 L 150.035156 209.761719 L 150.671875 219.417969 L 151.625 229.609375 L 152.578125 237.390625 L 154.246094 247.851562 L 155.675781 254.824219 L 156.789062 259.382812 L 158.933594 266.625 L 159.808594 269.039062 L 161.875 273.867188 L 164.019531 277.625 L 166.640625 280.84375 L 168.625 282.453125 L 171.804688 283.792969 L 175.855469 283.792969 L 180.621094 282.183594 L 183.640625 280.039062 L 185.707031 277.890625 L 187.058594 276.015625 L 188.726562 273.0625 L 189.917969 270.382812 L 191.027344 267.429688 L 192.378906 262.871094 L 192.378906 198.765625 L 172.757812 198.496094 L 172.757812 168.457031 L 203.261719 168.1875 L 203.34375 273.0625 L 201.675781 280.304688 L 199.609375 287.28125 L 197.621094 292.644531 L 195.558594 297.203125 L 192.617188 302.300781 L 190.234375 305.519531 L 186.578125 309.273438 L 183.242188 311.6875 L 179.746094 313.296875 L 176.648438 314.101562 L 172.996094 314.371094 L 169.738281 313.835938 L 166.242188 312.226562 L 163.460938 310.078125 L 160.921875 307.398438 L 158.378906 303.910156 L 155.199219 298.277344 L 153.136719 293.71875 L 150.988281 288.085938 L 148.84375 281.378906 L 146.9375 274.136719 L 145.667969 268.503906 L 144.398438 262.066406 L 143.046875 254.019531 L 141.773438 244.898438 L 140.820312 236.585938 L 139.949219 227.195312 L 139.3125 218.34375 L 138.675781 206.277344 L 138.359375 196.621094 L 138.199219 188.304688 Z M 138.199219 146.460938 "/>
<path style=" stroke:none;fill-rule:nonzero;fill:rgb(6.27451%,58.823529%,28.235294%);fill-opacity:1;" d="M 206.769531 314.09375 L 206.839844 313.820312 L 235.027344 20.664062 L 243.585938 20.664062 L 271.914062 314.371094 L 261.960938 314.371094 L 254.863281 237.703125 L 223.753906 237.703125 L 216.792969 314.09375 L 206.769531 314.09375 L 226.746094 205.988281 L 252.007812 205.710938 L 239.410156 68.648438 L 239.273438 68.375 L 239.132812 69.199219 L 226.675781 205.710938 L 226.746094 205.988281 Z M 206.769531 314.09375 "/>
<path style=" stroke:none;fill-rule:nonzero;fill:rgb(6.27451%,58.823529%,28.235294%);fill-opacity:1;" d="M 275.339844 314.09375 L 275.410156 313.820312 L 303.597656 20.664062 L 312.15625 20.664062 L 340.484375 314.371094 L 330.53125 314.371094 L 323.433594 237.703125 L 292.324219 237.703125 L 285.363281 314.09375 L 275.339844 314.09375 L 295.316406 205.988281 L 320.578125 205.710938 L 307.980469 68.648438 L 307.84375 68.375 L 307.703125 69.199219 L 295.246094 205.710938 L 295.316406 205.988281 Z M 275.339844 314.09375 "/>
<path style=" stroke:none;fill-rule:nonzero;fill:rgb(6.27451%,58.823529%,28.235294%);fill-opacity:1;" d="M 343.914062 311.171875 L 343.980469 311.167969 L 372.167969 310.789062 L 380.730469 310.789062 L 409.054688 311.171875 L 399.101562 311.171875 L 392.003906 311.070312 L 360.894531 311.070312 L 353.933594 311.171875 L 343.914062 311.171875 L 363.886719 311.027344 L 389.148438 311.027344 L 376.554688 310.851562 L 376.273438 310.851562 L 363.816406 311.027344 L 363.886719 311.027344 Z M 343.914062 311.171875 "/>
<path style=" stroke:none;fill-rule:nonzero;fill:rgb(96.862745%,70.196078%,16.862745%);fill-opacity:1;" d="M 343.914062 312.375 L 343.992188 312.375 L 344.308594 312.371094 L 345.105469 312.367188 L 346.136719 312.363281 L 347.964844 312.363281 L 349.15625 312.359375 L 350.1875 312.359375 L 352.808594 312.355469 L 357.972656 312.355469 L 360.039062 312.351562 L 394.992188 312.351562 L 397.535156 312.355469 L 401.824219 312.355469 L 403.730469 312.359375 L 406.671875 312.359375 L 407.863281 312.363281 L 408.578125 312.367188 L 409.054688 312.367188 L 397.375 312.367188 L 396.660156 312.363281 L 395.46875 312.363281 L 394.277344 312.359375 L 388.957031 312.359375 L 386.574219 312.355469 L 368.222656 312.355469 L 365.996094 312.359375 L 361.46875 312.359375 L 359.878906 312.363281 L 357.894531 312.363281 L 357.097656 312.367188 L 356.226562 312.367188 L 355.75 312.371094 L 355.113281 312.375 L 355.035156 312.382812 L 355.273438 312.386719 L 355.75 312.386719 L 356.382812 312.390625 L 358.292969 312.390625 L 359.960938 312.394531 L 361.390625 312.394531 L 362.5 312.398438 L 369.730469 312.398438 L 372.351562 312.402344 L 389.351562 312.402344 L 391.417969 312.398438 L 398.089844 312.398438 L 398.089844 312.386719 L 378.46875 312.386719 L 378.46875 312.378906 L 408.976562 312.378906 L 409.054688 312.398438 L 407.386719 312.402344 L 401.269531 312.402344 L 398.328125 312.40625 L 364.089844 312.40625 L 360.914062 312.402344 L 354.558594 312.402344 L 352.652344 312.398438 L 350.109375 312.398438 L 348.757812 312.394531 L 347.488281 312.394531 L 346.535156 312.390625 L 345.660156 312.390625 L 345.023438 312.386719 L 344.390625 312.386719 L 344.070312 312.382812 L 343.914062 312.382812 Z M 343.914062 312.375 "/>
<path style=" stroke:none;fill-rule:nonzero;fill:rgb(83.921569%,15.686275%,22.352941%);fill-opacity:1;" d="M 481.054688 20.664062 L 546.195312 20.664062 L 546.195312 52.101562 L 519.046875 52.378906 L 519.046875 314.371094 L 508.125 314.371094 L 508.125 52.652344 L 507.964844 52.101562 L 481.054688 52.101562 Z M 481.054688 20.664062 "/>
<path style=" stroke:none;fill-rule:nonzero;fill:rgb(83.921569%,15.686275%,22.352941%);fill-opacity:1;" d="M 549.625 20.664062 L 614.765625 20.664062 L 614.765625 52.101562 L 587.617188 52.378906 L 587.617188 314.371094 L 576.695312 314.371094 L 576.695312 52.652344 L 576.535156 52.101562 L 549.625 52.101562 Z M 549.625 20.664062 "/>
<path style=" stroke:none;fill-rule:nonzero;fill:rgb(14.509804%,36.078431%,60%);fill-opacity:1;" d="M 618.195312 148.457031 L 618.273438 148.1875 L 618.273438 141.742188 L 618.511719 131.542969 L 619.070312 118.65625 L 619.625 109.796875 L 621.054688 93.957031 L 623.039062 78.652344 L 625.105469 66.839844 L 626.617188 59.859375 L 627.964844 54.492188 L 631.0625 44.558594 L 633.050781 39.457031 L 635.195312 34.890625 L 637.816406 30.328125 L 639.722656 27.644531 L 644.011719 23.347656 L 647.191406 21.46875 L 649.652344 20.664062 L 654.976562 20.664062 L 658.152344 21.738281 L 660.457031 23.078125 L 663 25.226562 L 665.144531 27.644531 L 668.878906 33.550781 L 672.214844 41.066406 L 673.722656 45.363281 L 676.109375 53.683594 L 677.933594 61.738281 L 679.207031 68.71875 L 680.636719 78.652344 L 681.90625 90.734375 L 682.859375 104.425781 L 683.335938 115.96875 L 672.214844 115.96875 L 671.660156 105.230469 L 671.023438 96.910156 L 669.832031 85.902344 L 668.640625 78.117188 L 666.972656 70.332031 L 665.460938 65.230469 L 663.398438 60.128906 L 661.570312 56.90625 L 659.664062 54.492188 L 657.835938 52.878906 L 654.339844 51.269531 L 650.289062 51.269531 L 648.78125 51.804688 L 645.683594 53.953125 L 644.011719 55.832031 L 641.628906 59.589844 L 639.960938 63.082031 L 637.976562 68.449219 L 636.625 73.015625 L 634.957031 79.996094 L 633.765625 86.171875 L 632.414062 95.03125 L 631.621094 101.742188 L 630.90625 109.257812 L 630.269531 118.117188 L 629.792969 127.515625 L 629.476562 137.449219 L 629.316406 147.113281 L 629.316406 188.726562 L 629.476562 198.390625 L 629.871094 209.667969 L 630.90625 226.042969 L 632.414062 240.273438 L 634.164062 251.546875 L 635.832031 259.601562 L 636.785156 263.359375 L 638.054688 267.65625 L 640.042969 273.027344 L 642.902344 278.394531 L 644.570312 280.542969 L 647.113281 282.691406 L 649.734375 283.765625 L 653.230469 283.765625 L 656.328125 282.691406 L 658.390625 281.347656 L 660.539062 279.199219 L 663.476562 274.636719 L 665.304688 270.339844 L 666.894531 265.242188 L 668.085938 260.140625 L 668.878906 255.84375 L 670.070312 247.519531 L 671.023438 238.394531 L 671.738281 228.996094 L 672.214844 219.867188 L 683.335938 219.867188 L 682.859375 230.609375 L 682.144531 241.078125 L 681.429688 248.863281 L 680.316406 258.261719 L 679.046875 266.582031 L 677.21875 275.980469 L 675.710938 282.152344 L 673.722656 288.867188 L 671.898438 293.96875 L 669.910156 298.53125 L 666.972656 303.898438 L 665.066406 306.585938 L 663 309 L 660.539062 311.148438 L 657.4375 313.027344 L 654.101562 314.101562 L 651.003906 314.371094 L 647.667969 313.832031 L 645.203125 312.761719 L 641.949219 310.34375 L 637.894531 305.511719 L 634.957031 300.410156 L 632.652344 295.308594 L 630.667969 289.941406 L 628.441406 282.691406 L 625.582031 270.878906 L 623.835938 261.75 L 622.644531 254.234375 L 621.292969 243.761719 L 620.339844 234.367188 L 619.226562 219.332031 L 618.433594 200.269531 L 618.195312 185.503906 Z M 618.195312 148.457031 "/>
<g style="fill:rgb(0%,0%,0%);fill-opacity:1;">
  <use xlink:href="#glyph0-1" x="21.957031" y="318.198242"/>
  <use xlink:href="#glyph0-2" x="27.291016" y="318.198242"/>
  <use xlink:href="#glyph0-1" x="29.958008" y="318.198242"/>
</g>
<g style="fill:rgb(0%,0%,0%);fill-opacity:1;">
  <use xlink:href="#glyph0-1" x="21.957031" y="244.475586"/>
  <use xlink:href="#glyph0-2" x="27.291016" y="244.475586"/>
  <use xlink:href="#glyph0-3" x="29.958008" y="244.475586"/>
</g>
<g style="fill:rgb(0%,0%,0%);fill-opacity:1;">
  <use xlink:href="#glyph0-4" x="21.957031" y="170.75293"/>
  <use xlink:href="#glyph0-2" x="27.291016" y="170.75293"/>
  <use xlink:href="#glyph0-1" x="29.958008" y="170.75293"/>
</g>
<g style="fill:rgb(0%,0%,0%);fill-opacity:1;">
  <use xlink:href="#glyph0-4" x="21.957031" y="97.03418"/>
  <use xlink:href="#glyph0-2" x="27.291016" y="97.03418"/>
  <use xlink:href="#glyph0-3" x="29.958008" y="97.03418"/>
</g>
<g style="fill:rgb(0%,0%,0%);fill-opacity:1;">
  <use xlink:href="#glyph0-5" x="21.957031" y="23.311523"/>
  <use xlink:href="#glyph0-2" x="27.291016" y="23.311523"/>
  <use xlink:href="#glyph0-1" x="29.958008" y="23.311523"/>
</g>
<g style="fill:rgb(0%,0%,0%);fill-opacity:1;">
  <use xlink:href="#glyph0-4" x="99.199219" y="338.19043"/>
</g>
<g style="fill:rgb(0%,0%,0%);fill-opacity:1;">
  <use xlink:href="#glyph0-5" x="167.769531" y="338.19043"/>
</g>
<g style="fill:rgb(0%,0%,0%);fill-opacity:1;">
  <use xlink:href="#glyph0-6" x="236.34375" y="338.19043"/>
</g>
<g style="fill:rgb(0%,0%,0%);fill-opacity:1;">
  <use xlink:href="#glyph0-7" x="304.914062" y="338.19043"/>
</g>
<g style="fill:rgb(0%,0%,0%);fill-opacity:1;">
  <use xlink:href="#glyph0-3" x="373.484375" y="338.19043"/>
</g>
<g style="fill:rgb(0%,0%,0%);fill-opacity:1;">
  <use xlink:href="#glyph0-8" x="442.054688" y="338.19043"/>
</g>
<g style="fill:rgb(0%,0%,0%);fill-opacity:1;">
  <use xlink:href="#glyph0-9" x="510.625" y="338.19043"/>
</g>
<g style="fill:rgb(0%,0%,0%);fill-opacity:1;">
  <use xlink:href="#glyph0-10" x="579.195312" y="338.19043"/>
</g>
<g style="fill:rgb(0%,0%,0%);fill-opacity:1;">
  <use xlink:href="#glyph0-11" x="647.765625" y="338.19043"/>
</g>
<g style="fill:rgb(0%,0%,0%);fill-opacity:1;">
  <use xlink:href="#glyph1-1" x="14.412109" y="178.015625"/>
  <use xlink:href="#glyph1-2" x="14.412109" y="170.011719"/>
  <use xlink:href="#glyph1-3" x="14.412109" y="167.347656"/>
  <use xlink:href="#glyph1-4" x="14.412109" y="164.011719"/>
</g>
</g>
</svg>
