<?xml version="1.0" encoding="UTF-8"?>
<svg xmlns="http://www.w3.org/2000/svg" xmlns:xlink="http://www.w3.org/1999/xlink" width="720pt" height="360pt" viewBox="0 0 720 360" version="1.1">
<defs>
<g>
<symbol overflow="visible" id="glyph0-0">
<path style="stroke:none;" d=""/>
</symbol>
<symbol overflow="visible" id="glyph0-1">
<path style="stroke:none;" d="M 2.640625 -6.796875 C 2 -6.796875 1.421875 -6.53125 1.078125 -6.046875 C 0.640625 -5.453125 0.40625 -4.546875 0.40625 -3.296875 C 0.40625 -1 1.1875 0.21875 2.640625 0.21875 C 4.078125 0.21875 4.859375 -1 4.859375 -3.234375 C 4.859375 -4.5625 4.65625 -5.4375 4.203125 -6.046875 C 3.84375 -6.53125 3.28125 -6.796875 2.640625 -6.796875 Z M 2.640625 -6.046875 C 3.546875 -6.046875 4 -5.125 4 -3.3125 C 4 -1.375 3.5625 -0.484375 2.625 -0.484375 C 1.734375 -0.484375 1.28125 -1.421875 1.28125 -3.28125 C 1.28125 -5.140625 1.734375 -6.046875 2.640625 -6.046875 Z M 2.640625 -6.046875 "/>
</symbol>
<symbol overflow="visible" id="glyph0-2">
<path style="stroke:none;" d="M 1.828125 -1 L 0.828125 -1 L 0.828125 0 L 1.828125 0 Z M 1.828125 -1 "/>
</symbol>
<symbol overflow="visible" id="glyph0-3">
<path style="stroke:none;" d="M 4.5625 -6.796875 L 1.0625 -6.796875 L 0.546875 -3.09375 L 1.328125 -3.09375 C 1.71875 -3.5625 2.046875 -3.734375 2.578125 -3.734375 C 3.484375 -3.734375 4.0625 -3.109375 4.0625 -2.09375 C 4.0625 -1.125 3.484375 -0.53125 2.578125 -0.53125 C 1.828125 -0.53125 1.375 -0.90625 1.1875 -1.671875 L 0.328125 -1.671875 C 0.453125 -1.109375 0.546875 -0.84375 0.75 -0.59375 C 1.125 -0.078125 1.828125 0.21875 2.59375 0.21875 C 3.96875 0.21875 4.921875 -0.78125 4.921875 -2.21875 C 4.921875 -3.5625 4.03125 -4.484375 2.71875 -4.484375 C 2.25 -4.484375 1.859375 -4.359375 1.46875 -4.0625 L 1.734375 -5.96875 L 4.5625 -5.96875 Z M 4.5625 -6.796875 "/>
</symbol>
<symbol overflow="visible" id="glyph0-4">
<path style="stroke:none;" d="M 2.484375 -4.84375 L 2.484375 0 L 3.328125 0 L 3.328125 -6.796875 L 2.765625 -6.796875 C 2.46875 -5.75 2.28125 -5.609375 0.984375 -5.453125 L 0.984375 -4.84375 Z M 2.484375 -4.84375 "/>
</symbol>
<symbol overflow="visible" id="glyph0-5">
<path style="stroke:none;" d="M 4.859375 -0.828125 L 1.28125 -0.828125 C 1.359375 -1.390625 1.671875 -1.75 2.5 -2.234375 L 3.46875 -2.75 C 4.40625 -3.265625 4.90625 -3.96875 4.90625 -4.8125 C 4.90625 -5.375 4.671875 -5.90625 4.265625 -6.265625 C 3.859375 -6.625 3.375 -6.796875 2.71875 -6.796875 C 1.859375 -6.796875 1.21875 -6.5 0.84375 -5.921875 C 0.609375 -5.5625 0.5 -5.125 0.484375 -4.4375 L 1.328125 -4.4375 C 1.359375 -4.90625 1.40625 -5.1875 1.53125 -5.40625 C 1.75 -5.8125 2.1875 -6.0625 2.703125 -6.0625 C 3.46875 -6.0625 4.03125 -5.515625 4.03125 -4.78125 C 4.03125 -4.25 3.71875 -3.796875 3.125 -3.4375 L 2.234375 -2.9375 C 0.8125 -2.140625 0.40625 -1.5 0.328125 0 L 4.859375 0 Z M 4.859375 -0.828125 "/>
</symbol>
<symbol overflow="visible" id="glyph0-6">
<path style="stroke:none;" d="M 2.125 -3.125 L 2.578125 -3.125 C 3.515625 -3.125 3.984375 -2.703125 3.984375 -1.890625 C 3.984375 -1.03125 3.46875 -0.53125 2.578125 -0.53125 C 1.65625 -0.53125 1.203125 -0.984375 1.15625 -1.96875 L 0.3125 -1.96875 C 0.34375 -1.421875 0.4375 -1.078125 0.609375 -0.765625 C 0.953125 -0.109375 1.625 0.21875 2.546875 0.21875 C 3.953125 0.21875 4.859375 -0.609375 4.859375 -1.90625 C 4.859375 -2.765625 4.515625 -3.25 3.703125 -3.515625 C 4.34375 -3.765625 4.65625 -4.25 4.65625 -4.9375 C 4.65625 -6.109375 3.875 -6.796875 2.578125 -6.796875 C 1.203125 -6.796875 0.484375 -6.046875 0.453125 -4.609375 L 1.296875 -4.609375 C 1.3125 -5.015625 1.34375 -5.25 1.453125 -5.453125 C 1.640625 -5.828125 2.0625 -6.0625 2.59375 -6.0625 C 3.34375 -6.0625 3.796875 -5.625 3.796875 -4.90625 C 3.796875 -4.421875 3.609375 -4.140625 3.25 -3.984375 C 3.015625 -3.890625 2.71875 -3.84375 2.125 -3.84375 Z M 2.125 -3.125 "/>
</symbol>
<symbol overflow="visible" id="glyph0-7">
<path style="stroke:none;" d="M 3.140625 -1.625 L 3.140625 0 L 3.984375 0 L 3.984375 -1.625 L 4.984375 -1.625 L 4.984375 -2.390625 L 3.984375 -2.390625 L 3.984375 -6.796875 L 3.359375 -6.796875 L 0.265625 -2.515625 L 0.265625 -1.625 Z M 3.140625 -2.390625 L 1 -2.390625 L 3.140625 -5.359375 Z M 3.140625 -2.390625 "/>
</symbol>
<symbol overflow="visible" id="glyph0-8">
<path style="stroke:none;" d="M 4.78125 -5.03125 C 4.609375 -6.140625 3.890625 -6.796875 2.84375 -6.796875 C 2.09375 -6.796875 1.421875 -6.4375 1.03125 -5.828125 C 0.609375 -5.171875 0.40625 -4.34375 0.40625 -3.09375 C 0.40625 -1.953125 0.578125 -1.234375 0.984375 -0.625 C 1.359375 -0.078125 1.953125 0.21875 2.703125 0.21875 C 3.984375 0.21875 4.921875 -0.734375 4.921875 -2.078125 C 4.921875 -3.34375 4.0625 -4.234375 2.84375 -4.234375 C 2.171875 -4.234375 1.640625 -3.96875 1.28125 -3.46875 C 1.28125 -5.125 1.828125 -6.046875 2.796875 -6.046875 C 3.390625 -6.046875 3.796875 -5.671875 3.9375 -5.03125 Z M 2.734375 -3.484375 C 3.546875 -3.484375 4.0625 -2.921875 4.0625 -2 C 4.0625 -1.15625 3.484375 -0.53125 2.703125 -0.53125 C 1.921875 -0.53125 1.328125 -1.1875 1.328125 -2.046875 C 1.328125 -2.890625 1.90625 -3.484375 2.734375 -3.484375 Z M 2.734375 -3.484375 "/>
</symbol>
<symbol overflow="visible" id="glyph0-9">
<path style="stroke:none;" d="M 4.984375 -6.796875 L 0.4375 -6.796875 L 0.4375 -5.96875 L 4.109375 -5.96875 C 2.5 -3.65625 1.828125 -2.234375 1.328125 0 L 2.21875 0 C 2.59375 -2.171875 3.453125 -4.046875 4.984375 -6.09375 Z M 4.984375 -6.796875 "/>
</symbol>
<symbol overflow="visible" id="glyph0-10">
<path style="stroke:none;" d="M 3.75 -3.578125 C 4.453125 -4 4.6875 -4.34375 4.6875 -4.984375 C 4.6875 -6.046875 3.84375 -6.796875 2.640625 -6.796875 C 1.4375 -6.796875 0.59375 -6.046875 0.59375 -4.984375 C 0.59375 -4.359375 0.828125 -4.015625 1.515625 -3.578125 C 0.734375 -3.203125 0.359375 -2.640625 0.359375 -1.890625 C 0.359375 -0.640625 1.296875 0.21875 2.640625 0.21875 C 3.984375 0.21875 4.921875 -0.640625 4.921875 -1.875 C 4.921875 -2.640625 4.53125 -3.203125 3.75 -3.578125 Z M 2.640625 -6.046875 C 3.359375 -6.046875 3.8125 -5.625 3.8125 -4.96875 C 3.8125 -4.34375 3.34375 -3.921875 2.640625 -3.921875 C 1.921875 -3.921875 1.453125 -4.34375 1.453125 -4.984375 C 1.453125 -5.625 1.921875 -6.046875 2.640625 -6.046875 Z M 2.640625 -3.203125 C 3.484375 -3.203125 4.0625 -2.671875 4.0625 -1.875 C 4.0625 -1.0625 3.484375 -0.53125 2.625 -0.53125 C 1.796875 -0.53125 1.21875 -1.078125 1.21875 -1.875 C 1.21875 -2.671875 1.796875 -3.203125 2.640625 -3.203125 Z M 2.640625 -3.203125 "/>
</symbol>
<symbol overflow="visible" id="glyph0-11">
<path style="stroke:none;" d="M 0.515625 -1.546875 C 0.671875 -0.4375 1.40625 0.21875 2.4375 0.21875 C 3.1875 0.21875 3.859375 -0.140625 4.265625 -0.75 C 4.6875 -1.40625 4.890625 -2.25 4.890625 -3.484375 C 4.890625 -4.625 4.703125 -5.359375 4.3125 -5.953125 C 3.9375 -6.5 3.34375 -6.796875 2.59375 -6.796875 C 1.296875 -6.796875 0.359375 -5.84375 0.359375 -4.515625 C 0.359375 -3.25 1.234375 -2.34375 2.453125 -2.34375 C 3.09375 -2.34375 3.5625 -2.578125 4.015625 -3.109375 C 4 -1.453125 3.46875 -0.53125 2.5 -0.53125 C 1.90625 -0.53125 1.484375 -0.90625 1.359375 -1.546875 Z M 2.578125 -6.0625 C 3.375 -6.0625 3.96875 -5.40625 3.96875 -4.53125 C 3.96875 -3.6875 3.375 -3.09375 2.546875 -3.09375 C 1.734375 -3.09375 1.234375 -3.671875 1.234375 -4.578125 C 1.234375 -5.4375 1.796875 -6.0625 2.578125 -6.0625 Z M 2.578125 -6.0625 "/>
</symbol>
<symbol overflow="visible" id="glyph1-0">
<path style="stroke:none;" d=""/>
</symbol>
<symbol overflow="visible" id="glyph1-1">
<path style="stroke:none;" d="M 0 -0.953125 L 0 -4.890625 C 0 -5.71875 -0.234375 -6.34375 -0.734375 -6.796875 C -1.1875 -7.234375 -1.8125 -7.46875 -2.5 -7.46875 C -3.546875 -7.46875 -4.1875 -7 -4.625 -5.875 C -4.984375 -6.671875 -5.640625 -7.09375 -6.53125 -7.09375 C -7.15625 -7.09375 -7.734375 -6.859375 -8.140625 -6.390625 C -8.5625 -5.9375 -8.75 -5.34375 -8.75 -4.5 L -8.75 -0.953125 Z M -4.984375 -2.0625 L -7.765625 -2.0625 L -7.765625 -4.21875 C -7.765625 -4.84375 -7.6875 -5.203125 -7.453125 -5.5 C -7.21875 -5.8125 -6.859375 -5.96875 -6.375 -5.96875 C -5.90625 -5.96875 -5.53125 -5.8125 -5.296875 -5.5 C -5.0625 -5.203125 -4.984375 -4.84375 -4.984375 -4.21875 Z M -0.984375 -2.0625 L -4 -2.0625 L -4 -4.78125 C -4 -5.328125 -3.859375 -5.6875 -3.578125 -5.953125 C -3.296875 -6.21875 -2.921875 -6.359375 -2.484375 -6.359375 C -2.0625 -6.359375 -1.6875 -6.21875 -1.40625 -5.953125 C -1.109375 -5.6875 -0.984375 -5.328125 -0.984375 -4.78125 Z M -0.984375 -2.0625 "/>
</symbol>
<symbol overflow="visible" id="glyph1-2">
<path style="stroke:none;" d="M -6.28125 -1.796875 L -6.28125 -0.796875 L 0 -0.796875 L 0 -1.796875 Z M -8.75 -1.796875 L -8.75 -0.796875 L -7.484375 -0.796875 L -7.484375 -1.796875 Z M -8.75 -1.796875 "/>
</symbol>
<symbol overflow="visible" id="glyph1-3">
<path style="stroke:none;" d="M -6.28125 -3.046875 L -6.28125 -2.015625 L -8.015625 -2.015625 L -8.015625 -1.015625 L -6.28125 -1.015625 L -6.28125 -0.171875 L -5.46875 -0.171875 L -5.46875 -1.015625 L -0.71875 -1.015625 C -0.078125 -1.015625 0.28125 -1.453125 0.28125 -2.234375 C 0.28125 -2.46875 0.25 -2.71875 0.1875 -3.046875 L -0.640625 -3.046875 C -0.609375 -2.921875 -0.59375 -2.765625 -0.59375 -2.5625 C -0.59375 -2.140625 -0.71875 -2.015625 -1.15625 -2.015625 L -5.46875 -2.015625 L -5.46875 -3.046875 Z M -6.28125 -3.046875 "/>
</symbol>
<symbol overflow="visible" id="glyph1-4">
<path style="stroke:none;" d="M -4.53125 -5.25 C -5.765625 -5.25 -6.46875 -4.421875 -6.46875 -2.96875 C -6.46875 -1.515625 -5.71875 -0.5625 -4.546875 -0.5625 C -3.5625 -0.5625 -3.09375 -1.0625 -2.734375 -2.5625 L -2.515625 -3.484375 C -2.34375 -4.1875 -2.09375 -4.46875 -1.625 -4.46875 C -1.046875 -4.46875 -0.640625 -3.875 -0.640625 -3 C -0.640625 -2.453125 -0.796875 -2 -1.0625 -1.75 C -1.25 -1.59375 -1.421875 -1.53125 -1.875 -1.46875 L -1.875 -0.40625 C -0.421875 -0.453125 0.28125 -1.265625 0.28125 -2.921875 C 0.28125 -4.5 -0.5 -5.515625 -1.71875 -5.515625 C -2.65625 -5.515625 -3.171875 -4.984375 -3.46875 -3.734375 L -3.703125 -2.765625 C -3.890625 -1.953125 -4.15625 -1.609375 -4.59375 -1.609375 C -5.171875 -1.609375 -5.546875 -2.125 -5.546875 -2.9375 C -5.546875 -3.75 -5.203125 -4.171875 -4.53125 -4.203125 Z M -4.53125 -5.25 "/>
</symbol>
</g>
</defs>
<g id="surface40158">
<rect x="0" y="0" width="720" height="360" style="fill:rgb(100%,100%,100%);fill-opacity:1;stroke:none;"/>
<path style=" stroke:none;fill-rule:nonzero;fill:rgb(14.509804%,36.078431%,60%);fill-opacity:1;" d="M 69.628906 172.636719 L 69.679688 172.433594 L 69.679688 167.621094 L 69.832031 160.003906 L 70.191406 150.378906 L 70.546875 143.761719 L 71.464844 131.929688 L 72.738281 120.5 L 74.0625 111.679688 L 75.03125 106.464844 L 75.898438 102.453125 L 77.886719 95.035156 L 79.160156 91.226562 L 80.535156 87.816406 L 82.21875 84.40625 L 83.441406 82.402344 L 86.195312 79.195312 L 88.234375 77.789062 L 89.8125 77.1875 L 93.226562 77.1875 L 95.265625 77.992188 L 96.746094 78.992188 L 98.375 80.597656 L 99.75 82.402344 L 102.148438 86.8125 L 104.289062 92.429688 L 105.257812 95.636719 L 106.785156 101.851562 L 107.957031 107.867188 L 108.773438 113.082031 L 109.691406 120.5 L 110.503906 129.523438 L 111.117188 139.75 L 111.421875 148.371094 L 104.289062 148.371094 L 103.929688 140.351562 L 103.523438 134.136719 L 102.757812 125.914062 L 101.992188 120.101562 L 100.921875 114.285156 L 99.957031 110.476562 L 98.628906 106.664062 L 97.457031 104.257812 L 96.234375 102.453125 L 95.0625 101.25 L 92.820312 100.046875 L 90.21875 100.046875 L 89.253906 100.449219 L 87.265625 102.054688 L 86.195312 103.457031 L 84.664062 106.265625 L 83.59375 108.871094 L 82.320312 112.882812 L 81.453125 116.289062 L 80.382812 121.503906 L 79.617188 126.117188 L 78.753906 132.734375 L 78.242188 137.746094 L 77.785156 143.359375 L 77.375 149.976562 L 77.070312 156.996094 L 76.867188 164.414062 L 76.765625 171.632812 L 76.765625 202.714844 L 76.867188 209.933594 L 77.121094 218.351562 L 77.785156 230.585938 L 78.753906 241.210938 L 79.875 249.632812 L 80.945312 255.648438 L 81.554688 258.457031 L 82.371094 261.664062 L 83.644531 265.675781 L 85.480469 269.6875 L 86.550781 271.289062 L 88.183594 272.894531 L 89.863281 273.695312 L 92.105469 273.695312 L 94.09375 272.894531 L 95.417969 271.890625 L 96.796875 270.289062 L 98.679688 266.878906 L 99.851562 263.671875 L 100.871094 259.859375 L 101.636719 256.050781 L 102.148438 252.84375 L 102.910156 246.625 L 103.523438 239.808594 L 103.980469 232.789062 L 104.289062 225.972656 L 111.421875 225.972656 L 111.117188 233.992188 L 110.660156 241.8125 L 110.199219 247.628906 L 109.484375 254.648438 L 108.671875 260.863281 L 107.5 267.882812 L 106.53125 272.492188 L 105.257812 277.507812 L 104.082031 281.316406 L 102.808594 284.722656 L 100.921875 288.734375 L 99.699219 290.738281 L 98.375 292.542969 L 96.796875 294.148438 L 94.808594 295.550781 L 92.667969 296.355469 L 90.679688 296.554688 L 88.539062 296.152344 L 86.957031 295.351562 L 84.867188 293.546875 L 82.269531 289.9375 L 80.382812 286.128906 L 78.90625 282.316406 L 77.632812 278.308594 L 76.203125 272.894531 L 74.371094 264.070312 L 73.25 257.253906 L 72.484375 251.640625 L 71.617188 243.820312 L 71.003906 236.800781 L 70.292969 225.570312 L 69.78125 211.335938 L 69.628906 200.308594 Z M 69.628906 172.636719 "/>
<path style=" stroke:none;fill-rule:nonzero;fill:rgb(96.862745%,70.196078%,16.862745%);fill-opacity:1;" d="M 69.628906 304.859375 L 69.679688 304.84375 L 69.679688 304.539062 L 69.882812 303.855469 L 70.394531 302.914062 L 71.054688 302.140625 L 71.769531 301.53125 L 72.230469 301.214844 L 72.992188 300.757812 L 73.65625 300.421875 L 75.335938 299.738281 L 77.476562 299.101562 L 78.652344 298.828125 L 79.976562 298.570312 L 81.863281 298.28125 L 82.726562 298.175781 L 85.378906 297.933594 L 88.386719 297.78125 L 91.699219 297.734375 L 93.226562 297.75 L 95.316406 297.808594 L 98.171875 297.976562 L 99.800781 298.128906 L 101.078125 298.28125 L 102.402344 298.480469 L 104.03125 298.78125 L 105.5625 299.148438 L 106.785156 299.511719 L 108.007812 299.96875 L 109.027344 300.453125 L 109.894531 300.984375 L 110.660156 301.625 L 111.117188 302.15625 L 111.421875 302.6875 L 104.339844 302.6875 L 103.929688 302.15625 L 103.472656 301.746094 L 102.707031 301.242188 L 101.941406 300.878906 L 101.179688 300.589844 L 99.75 300.195312 L 98.527344 299.953125 L 97 299.738281 L 95.519531 299.601562 L 93.839844 299.511719 L 92.820312 299.480469 L 90.117188 299.480469 L 87.671875 299.589844 L 86.246094 299.710938 L 85.226562 299.832031 L 83.796875 300.058594 L 82.933594 300.242188 L 82.421875 300.363281 L 80.894531 300.832031 L 79.875 301.257812 L 79.3125 301.546875 L 78.601562 302.003906 L 78.089844 302.414062 L 77.53125 303.023438 L 77.222656 303.476562 L 76.816406 304.511719 L 76.765625 307.246094 L 76.917969 307.824219 L 77.222656 308.445312 L 77.632812 308.992188 L 78.242188 309.570312 L 78.855469 310.011719 L 79.925781 310.601562 L 80.84375 310.996094 L 81.554688 311.257812 L 82.933594 311.667969 L 83.492188 311.804688 L 84.816406 312.078125 L 86.195312 312.289062 L 87.875 312.472656 L 89.148438 312.5625 L 91.1875 312.640625 L 93.789062 312.640625 L 96.847656 312.546875 L 98.78125 312.425781 L 100.109375 312.304688 L 100.976562 312.199219 L 102.046875 312.03125 L 102.808594 311.878906 L 103.523438 311.710938 L 104.390625 311.453125 L 104.390625 307.824219 L 91.800781 307.808594 L 91.800781 306.105469 L 111.371094 306.089844 L 111.421875 312.03125 L 110.351562 312.441406 L 109.027344 312.835938 L 107.753906 313.140625 L 106.429688 313.398438 L 104.542969 313.6875 L 103.011719 313.871094 L 100.667969 314.082031 L 98.527344 314.21875 L 96.285156 314.308594 L 94.296875 314.355469 L 91.953125 314.371094 L 89.863281 314.339844 L 87.621094 314.25 L 85.835938 314.128906 L 84.207031 313.976562 L 82.574219 313.777344 L 80.535156 313.460938 L 79.210938 313.199219 L 77.835938 312.882812 L 76.460938 312.5 L 75.234375 312.089844 L 74.421875 311.773438 L 73.605469 311.40625 L 72.738281 310.953125 L 71.921875 310.4375 L 71.3125 309.964844 L 70.75 309.433594 L 70.34375 308.933594 L 69.933594 308.246094 L 69.730469 307.699219 L 69.628906 307.230469 Z M 69.628906 304.859375 "/>
<path style=" stroke:none;fill-rule:nonzero;fill:rgb(14.509804%,36.078431%,60%);fill-opacity:1;" d="M 113.621094 292.90625 L 113.671875 292.890625 L 113.671875 292.464844 L 113.828125 291.789062 L 114.183594 290.9375 L 114.539062 290.351562 L 115.457031 289.308594 L 116.730469 288.296875 L 118.058594 287.515625 L 119.023438 287.054688 L 119.890625 286.699219 L 121.878906 286.042969 L 123.152344 285.707031 L 124.53125 285.40625 L 126.210938 285.101562 L 127.433594 284.925781 L 130.1875 284.640625 L 132.226562 284.519531 L 133.804688 284.464844 L 137.222656 284.464844 L 139.257812 284.535156 L 140.738281 284.625 L 142.367188 284.765625 L 143.746094 284.925781 L 146.140625 285.316406 L 148.28125 285.8125 L 149.25 286.097656 L 150.777344 286.648438 L 151.949219 287.179688 L 152.765625 287.640625 L 153.683594 288.296875 L 154.5 289.09375 L 155.109375 290 L 155.417969 290.761719 L 148.28125 290.761719 L 147.925781 290.050781 L 147.515625 289.503906 L 146.75 288.773438 L 145.988281 288.261719 L 144.917969 287.746094 L 143.949219 287.410156 L 142.625 287.070312 L 141.453125 286.859375 L 140.226562 286.699219 L 139.054688 286.59375 L 136.8125 286.488281 L 134.214844 286.488281 L 133.246094 286.523438 L 131.257812 286.664062 L 130.1875 286.789062 L 128.660156 287.035156 L 127.589844 287.265625 L 126.3125 287.621094 L 125.449219 287.921875 L 124.378906 288.382812 L 123.613281 288.792969 L 122.746094 289.378906 L 122.234375 289.820312 L 121.777344 290.316406 L 121.371094 290.902344 L 121.0625 291.523438 L 120.859375 292.179688 L 120.757812 292.820312 L 120.757812 295.566406 L 120.859375 296.207031 L 121.113281 296.953125 L 121.777344 298.035156 L 122.746094 298.972656 L 123.867188 299.71875 L 124.9375 300.25 L 125.550781 300.5 L 126.363281 300.78125 L 127.640625 301.136719 L 129.472656 301.492188 L 130.542969 301.632812 L 132.175781 301.777344 L 133.855469 301.847656 L 136.097656 301.847656 L 138.085938 301.777344 L 139.414062 301.6875 L 140.789062 301.546875 L 142.675781 301.242188 L 143.847656 300.960938 L 144.867188 300.625 L 145.628906 300.285156 L 146.140625 300.003906 L 146.90625 299.453125 L 147.515625 298.847656 L 147.976562 298.230469 L 148.28125 297.625 L 155.417969 297.625 L 155.109375 298.335938 L 154.652344 299.027344 L 154.191406 299.542969 L 153.480469 300.160156 L 152.664062 300.710938 L 151.492188 301.332031 L 150.523438 301.742188 L 149.25 302.183594 L 148.078125 302.519531 L 146.804688 302.824219 L 144.917969 303.175781 L 143.695312 303.355469 L 142.367188 303.515625 L 140.789062 303.65625 L 138.800781 303.78125 L 136.660156 303.851562 L 134.671875 303.867188 L 132.53125 303.832031 L 130.953125 303.761719 L 128.863281 303.601562 L 126.261719 303.285156 L 124.378906 302.945312 L 122.898438 302.609375 L 121.625 302.253906 L 120.199219 301.777344 L 118.363281 300.996094 L 117.242188 300.390625 L 116.476562 299.894531 L 115.609375 299.203125 L 115 298.582031 L 114.285156 297.589844 L 113.777344 296.332031 L 113.621094 295.355469 Z M 113.621094 292.90625 "/>
<path style=" stroke:none;fill-rule:nonzero;fill:rgb(96.862745%,70.196078%,16.862745%);fill-opacity:1;" d="M 113.621094 308.859375 L 113.671875 308.851562 L 113.671875 308.691406 L 113.878906 308.324219 L 114.386719 307.820312 L 115.050781 307.40625 L 115.761719 307.082031 L 116.222656 306.910156 L 116.988281 306.667969 L 117.648438 306.488281 L 119.332031 306.121094 L 121.472656 305.78125 L 122.644531 305.632812 L 123.96875 305.496094 L 125.855469 305.339844 L 126.722656 305.285156 L 129.371094 305.152344 L 132.378906 305.074219 L 135.691406 305.046875 L 137.222656 305.054688 L 139.3125 305.089844 L 142.164062 305.179688 L 143.796875 305.261719 L 145.070312 305.339844 L 146.394531 305.445312 L 148.027344 305.609375 L 149.554688 305.804688 L 150.777344 306 L 152 306.242188 L 153.019531 306.503906 L 153.886719 306.789062 L 154.652344 307.128906 L 155.109375 307.414062 L 155.417969 307.699219 L 148.332031 307.699219 L 147.925781 307.414062 L 147.464844 307.195312 L 146.699219 306.925781 L 145.9375 306.730469 L 145.171875 306.578125 L 143.746094 306.367188 L 142.523438 306.234375 L 140.992188 306.121094 L 139.515625 306.046875 L 137.832031 306 L 136.8125 305.984375 L 134.113281 305.984375 L 131.664062 306.039062 L 130.238281 306.105469 L 129.21875 306.171875 L 127.792969 306.292969 L 126.925781 306.390625 L 126.414062 306.453125 L 124.886719 306.707031 L 123.867188 306.933594 L 123.304688 307.089844 L 122.59375 307.332031 L 122.082031 307.550781 L 121.523438 307.878906 L 121.21875 308.121094 L 120.808594 308.675781 L 120.757812 310.136719 L 120.910156 310.445312 L 121.21875 310.78125 L 121.625 311.074219 L 122.234375 311.382812 L 122.847656 311.617188 L 123.917969 311.933594 L 124.835938 312.144531 L 125.550781 312.285156 L 126.925781 312.503906 L 127.484375 312.578125 L 128.8125 312.722656 L 130.1875 312.835938 L 131.871094 312.933594 L 133.144531 312.984375 L 135.183594 313.023438 L 137.78125 313.023438 L 140.839844 312.976562 L 142.777344 312.910156 L 144.101562 312.84375 L 144.96875 312.789062 L 146.039062 312.699219 L 146.804688 312.617188 L 147.515625 312.527344 L 148.382812 312.390625 L 148.382812 310.445312 L 135.792969 310.4375 L 135.792969 309.527344 L 155.367188 309.519531 L 155.417969 312.699219 L 154.347656 312.917969 L 153.019531 313.128906 L 151.746094 313.292969 L 150.421875 313.429688 L 148.535156 313.585938 L 147.007812 313.683594 L 144.664062 313.796875 L 142.523438 313.871094 L 140.277344 313.917969 L 138.292969 313.941406 L 135.945312 313.949219 L 133.855469 313.933594 L 131.613281 313.886719 L 129.832031 313.820312 L 128.199219 313.738281 L 126.570312 313.632812 L 124.53125 313.460938 L 123.203125 313.324219 L 121.828125 313.152344 L 120.453125 312.949219 L 119.230469 312.730469 L 118.414062 312.558594 L 117.597656 312.367188 L 116.730469 312.121094 L 115.917969 311.84375 L 115.304688 311.59375 L 114.742188 311.308594 L 114.335938 311.039062 L 113.929688 310.675781 L 113.726562 310.382812 L 113.621094 310.128906 Z M 113.621094 308.859375 "/>
<path style=" stroke:none;fill-rule:nonzero;fill:rgb(83.921569%,15.686275%,22.352941%);fill-opacity:1;" d="M 113.621094 152.5625 L 155.417969 152.5625 L 155.417969 166.554688 L 138 166.679688 L 138 283.285156 L 130.988281 283.285156 L 130.988281 166.800781 L 130.886719 166.554688 L 113.621094 166.554688 Z M 113.621094 152.5625 "/>
<path style=" stroke:none;fill-rule:nonzero;fill:rgb(6.27451%,58.823529%,28.235294%);fill-opacity:1;" d="M 157.617188 314.09375 L 157.660156 313.820312 L 175.746094 20.664062 L 181.238281 20.664062 L 199.410156 314.371094 L 193.023438 314.371094 L 188.46875 237.703125 L 168.511719 237.703125 L 164.046875 314.09375 L 157.617188 314.09375 L 170.429688 205.988281 L 186.640625 205.710938 L 178.558594 68.648438 L 178.46875 68.375 L 178.378906 69.199219 L 170.386719 205.710938 L 170.429688 205.988281 Z M 157.617188 314.09375 "/>
<path style=" stroke:none;fill-rule:nonzero;fill:rgb(14.509804%,36.078431%,60%);fill-opacity:1;" d="M 201.609375 148.457031 L 201.660156 148.1875 L 201.660156 141.742188 L 201.8125 131.542969 L 202.171875 118.65625 L 202.527344 109.796875 L 203.445312 93.957031 L 204.71875 78.652344 L 206.042969 66.839844 L 207.011719 59.859375 L 207.878906 54.492188 L 209.867188 44.558594 L 211.140625 39.457031 L 212.515625 34.890625 L 214.199219 30.328125 L 215.421875 27.644531 L 218.175781 23.347656 L 220.210938 21.46875 L 221.792969 20.664062 L 225.207031 20.664062 L 227.246094 21.738281 L 228.722656 23.078125 L 230.355469 25.226562 L 231.730469 27.644531 L 234.128906 33.550781 L 236.269531 41.066406 L 237.234375 45.363281 L 238.765625 53.683594 L 239.9375 61.738281 L 240.753906 68.71875 L 241.671875 78.652344 L 242.484375 90.734375 L 243.097656 104.425781 L 243.402344 115.96875 L 236.269531 115.96875 L 235.910156 105.230469 L 235.503906 96.910156 L 234.738281 85.902344 L 233.972656 78.117188 L 232.902344 70.332031 L 231.933594 65.230469 L 230.609375 60.128906 L 229.4375 56.90625 L 228.214844 54.492188 L 227.042969 52.878906 L 224.800781 51.269531 L 222.199219 51.269531 L 221.230469 51.804688 L 219.246094 53.953125 L 218.175781 55.832031 L 216.644531 59.589844 L 215.574219 63.082031 L 214.300781 68.449219 L 213.433594 73.015625 L 212.363281 79.996094 L 211.597656 86.171875 L 210.734375 95.03125 L 210.222656 101.742188 L 209.765625 109.257812 L 209.355469 118.117188 L 209.050781 127.515625 L 208.847656 137.449219 L 208.746094 147.113281 L 208.746094 188.726562 L 208.847656 198.390625 L 209.101562 209.667969 L 209.765625 226.042969 L 210.734375 240.273438 L 211.855469 251.546875 L 212.925781 259.601562 L 213.535156 263.359375 L 214.351562 267.65625 L 215.625 273.027344 L 217.460938 278.394531 L 218.53125 280.542969 L 220.160156 282.691406 L 221.84375 283.765625 L 224.085938 283.765625 L 226.074219 282.691406 L 227.398438 281.347656 L 228.777344 279.199219 L 230.660156 274.636719 L 231.832031 270.339844 L 232.851562 265.242188 L 233.617188 260.140625 L 234.128906 255.84375 L 234.890625 247.519531 L 235.503906 238.394531 L 235.960938 228.996094 L 236.269531 219.867188 L 243.402344 219.867188 L 243.097656 230.609375 L 242.640625 241.078125 L 242.179688 248.863281 L 241.464844 258.261719 L 240.652344 266.582031 L 239.480469 275.980469 L 238.511719 282.152344 L 237.234375 288.867188 L 236.0625 293.96875 L 234.789062 298.53125 L 232.902344 303.898438 L 231.679688 306.585938 L 230.355469 309 L 228.777344 311.148438 L 226.789062 313.027344 L 224.648438 314.101562 L 222.660156 314.371094 L 220.519531 313.832031 L 218.9375 312.761719 L 216.847656 310.34375 L 214.25 305.511719 L 212.363281 300.410156 L 210.886719 295.308594 L 209.613281 289.941406 L 208.183594 282.691406 L 206.347656 270.878906 L 205.226562 261.75 L 204.464844 254.234375 L 203.597656 243.761719 L 202.984375 234.367188 L 202.273438 219.332031 L 201.761719 200.269531 L 201.609375 185.503906 Z M 201.609375 148.457031 "/>
<path style=" stroke:none;fill-rule:nonzero;fill:rgb(6.27451%,58.823529%,28.235294%);fill-opacity:1;" d="M 245.601562 314.09375 L 245.648438 313.820312 L 263.730469 20.664062 L 269.222656 20.664062 L 287.398438 314.371094 L 281.011719 314.371094 L 276.457031 237.703125 L 256.496094 237.703125 L 252.03125 314.09375 L 245.601562 314.09375 L 258.417969 205.988281 L 274.625 205.710938 L 266.542969 68.648438 L 266.457031 68.375 L 266.367188 69.199219 L 258.375 205.710938 L 258.417969 205.988281 Z M 245.601562 314.09375 "/>
<path style=" stroke:none;fill-rule:nonzero;fill:rgb(6.27451%,58.823529%,28.235294%);fill-opacity:1;" d="M 289.597656 293.996094 L 289.640625 293.976562 L 307.726562 273.542969 L 313.21875 273.542969 L 331.390625 294.015625 L 325.003906 294.015625 L 320.449219 288.671875 L 300.492188 288.671875 L 296.027344 293.996094 L 289.597656 293.996094 L 302.410156 286.460938 L 318.621094 286.441406 L 310.539062 276.886719 L 310.449219 276.867188 L 310.359375 276.925781 L 302.367188 286.441406 L 302.410156 286.460938 Z M 289.597656 293.996094 "/>
<path style=" stroke:none;fill-rule:nonzero;fill:rgb(14.509804%,36.078431%,60%);fill-opacity:1;" d="M 289.597656 307.460938 L 289.648438 307.457031 L 289.648438 307.371094 L 289.800781 307.242188 L 290.15625 307.074219 L 290.515625 306.960938 L 291.429688 306.753906 L 292.707031 306.554688 L 294.03125 306.402344 L 295 306.3125 L 295.867188 306.242188 L 297.851562 306.113281 L 299.128906 306.050781 L 300.503906 305.988281 L 302.183594 305.929688 L 303.410156 305.894531 L 306.160156 305.839844 L 308.199219 305.816406 L 309.78125 305.804688 L 313.195312 305.804688 L 315.234375 305.820312 L 316.710938 305.835938 L 318.34375 305.863281 L 319.71875 305.894531 L 322.113281 305.972656 L 324.253906 306.070312 L 325.222656 306.125 L 326.75 306.234375 L 327.925781 306.335938 L 328.738281 306.429688 L 329.65625 306.554688 L 330.472656 306.710938 L 331.085938 306.890625 L 331.390625 307.039062 L 324.253906 307.039062 L 323.898438 306.902344 L 323.488281 306.792969 L 322.726562 306.648438 L 321.960938 306.550781 L 320.890625 306.449219 L 319.921875 306.382812 L 318.597656 306.316406 L 317.425781 306.273438 L 316.203125 306.242188 L 315.027344 306.222656 L 312.785156 306.203125 L 310.1875 306.203125 L 309.21875 306.210938 L 307.230469 306.238281 L 306.160156 306.261719 L 304.632812 306.308594 L 303.5625 306.355469 L 302.289062 306.425781 L 301.421875 306.484375 L 300.351562 306.574219 L 299.585938 306.652344 L 298.71875 306.769531 L 298.210938 306.855469 L 297.75 306.953125 L 297.34375 307.066406 L 297.039062 307.1875 L 296.832031 307.316406 L 296.730469 307.441406 L 296.730469 307.980469 L 296.832031 308.105469 L 297.089844 308.25 L 297.75 308.464844 L 298.71875 308.648438 L 299.839844 308.792969 L 300.910156 308.898438 L 301.523438 308.945312 L 302.339844 309.003906 L 303.613281 309.070312 L 305.449219 309.140625 L 306.519531 309.167969 L 308.148438 309.195312 L 309.832031 309.210938 L 312.074219 309.210938 L 314.0625 309.195312 L 315.386719 309.179688 L 316.761719 309.152344 L 318.648438 309.09375 L 319.820312 309.035156 L 320.839844 308.972656 L 321.605469 308.90625 L 322.113281 308.847656 L 322.878906 308.742188 L 323.488281 308.625 L 323.949219 308.503906 L 324.253906 308.382812 L 331.390625 308.382812 L 331.085938 308.523438 L 330.625 308.660156 L 330.167969 308.757812 L 329.453125 308.878906 L 328.636719 308.988281 L 327.464844 309.109375 L 326.496094 309.191406 L 325.222656 309.277344 L 324.050781 309.34375 L 322.777344 309.402344 L 320.890625 309.472656 L 319.667969 309.507812 L 318.34375 309.539062 L 316.761719 309.566406 L 314.773438 309.589844 L 312.632812 309.601562 L 310.644531 309.605469 L 308.503906 309.601562 L 306.925781 309.585938 L 304.835938 309.554688 L 302.234375 309.492188 L 300.351562 309.425781 L 298.871094 309.359375 L 297.597656 309.289062 L 296.171875 309.195312 L 294.335938 309.042969 L 293.214844 308.925781 L 292.449219 308.828125 L 291.585938 308.691406 L 290.972656 308.570312 L 290.257812 308.375 L 289.75 308.128906 L 289.597656 307.9375 Z M 289.597656 307.460938 "/>
<path style=" stroke:none;fill-rule:nonzero;fill:rgb(96.862745%,70.196078%,16.862745%);fill-opacity:1;" d="M 289.597656 312.320312 L 289.648438 312.316406 L 289.648438 312.253906 L 289.851562 312.105469 L 290.359375 311.902344 L 291.023438 311.734375 L 291.738281 311.605469 L 292.195312 311.535156 L 292.960938 311.4375 L 293.621094 311.367188 L 295.304688 311.21875 L 297.445312 311.082031 L 298.617188 311.023438 L 299.941406 310.964844 L 301.828125 310.902344 L 302.695312 310.882812 L 305.34375 310.828125 L 308.351562 310.796875 L 311.664062 310.785156 L 313.195312 310.789062 L 315.285156 310.804688 L 318.136719 310.839844 L 319.769531 310.871094 L 321.042969 310.902344 L 322.367188 310.945312 L 324 311.011719 L 325.527344 311.089844 L 326.75 311.167969 L 327.976562 311.265625 L 328.996094 311.371094 L 329.859375 311.488281 L 330.625 311.625 L 331.085938 311.738281 L 331.390625 311.851562 L 324.304688 311.851562 L 323.898438 311.738281 L 323.4375 311.652344 L 322.675781 311.542969 L 321.910156 311.464844 L 321.144531 311.402344 L 319.71875 311.316406 L 318.496094 311.265625 L 316.964844 311.21875 L 315.488281 311.1875 L 313.804688 311.167969 L 312.785156 311.164062 L 310.085938 311.164062 L 307.640625 311.1875 L 306.210938 311.210938 L 305.191406 311.238281 L 303.765625 311.289062 L 302.898438 311.328125 L 302.390625 311.351562 L 300.859375 311.453125 L 299.839844 311.546875 L 299.28125 311.609375 L 298.566406 311.707031 L 298.058594 311.792969 L 297.496094 311.925781 L 297.191406 312.023438 L 296.78125 312.246094 L 296.730469 312.835938 L 296.882812 312.960938 L 297.191406 313.09375 L 297.597656 313.210938 L 298.210938 313.335938 L 298.820312 313.429688 L 299.890625 313.558594 L 300.808594 313.644531 L 301.523438 313.699219 L 302.898438 313.789062 L 303.460938 313.816406 L 304.785156 313.875 L 306.160156 313.921875 L 307.84375 313.960938 L 309.117188 313.980469 L 311.15625 313.996094 L 313.753906 313.996094 L 316.8125 313.976562 L 318.75 313.953125 L 320.074219 313.925781 L 320.941406 313.902344 L 322.011719 313.867188 L 322.777344 313.832031 L 323.488281 313.796875 L 324.355469 313.742188 L 324.355469 312.960938 L 311.765625 312.957031 L 311.765625 312.589844 L 331.339844 312.585938 L 331.390625 313.867188 L 330.320312 313.953125 L 328.996094 314.039062 L 327.71875 314.105469 L 326.394531 314.160156 L 324.507812 314.222656 L 322.980469 314.261719 L 320.636719 314.308594 L 318.496094 314.339844 L 316.253906 314.359375 L 314.265625 314.367188 L 311.921875 314.371094 L 309.832031 314.363281 L 307.589844 314.34375 L 305.804688 314.316406 L 304.171875 314.285156 L 302.542969 314.242188 L 300.503906 314.175781 L 299.179688 314.117188 L 297.800781 314.050781 L 296.425781 313.96875 L 295.203125 313.878906 L 294.386719 313.8125 L 293.570312 313.730469 L 292.707031 313.632812 L 291.890625 313.523438 L 291.277344 313.421875 L 290.71875 313.308594 L 290.308594 313.199219 L 289.902344 313.050781 L 289.699219 312.933594 L 289.597656 312.832031 Z M 289.597656 312.320312 "/>
<path style=" stroke:none;fill-rule:nonzero;fill:rgb(83.921569%,15.686275%,22.352941%);fill-opacity:1;" d="M 289.597656 295.195312 L 331.390625 295.195312 L 331.390625 296.207031 L 313.972656 296.214844 L 313.972656 304.625 L 306.964844 304.625 L 306.964844 296.222656 L 306.863281 296.207031 L 289.597656 296.207031 Z M 289.597656 295.195312 "/>
<path style=" stroke:none;fill-rule:nonzero;fill:rgb(6.27451%,58.823529%,28.235294%);fill-opacity:1;" d="M 333.589844 310.871094 L 333.632812 310.867188 L 351.71875 308.332031 L 357.210938 308.332031 L 375.382812 310.871094 L 369 310.871094 L 364.445312 310.207031 L 344.484375 310.207031 L 340.019531 310.871094 L 333.589844 310.871094 L 346.40625 309.933594 L 362.613281 309.933594 L 354.53125 308.746094 L 354.441406 308.742188 L 354.351562 308.75 L 346.359375 309.933594 L 346.40625 309.933594 Z M 333.589844 310.871094 "/>
<path style=" stroke:none;fill-rule:nonzero;fill:rgb(14.509804%,36.078431%,60%);fill-opacity:1;" d="M 333.589844 302.394531 L 333.640625 302.386719 L 333.640625 302.199219 L 333.792969 301.90625 L 334.148438 301.539062 L 334.507812 301.285156 L 335.425781 300.832031 L 336.699219 300.390625 L 338.023438 300.054688 L 338.992188 299.851562 L 339.859375 299.699219 L 341.847656 299.414062 L 343.121094 299.269531 L 344.496094 299.136719 L 346.179688 299.007812 L 347.402344 298.929688 L 350.152344 298.804688 L 352.191406 298.75 L 353.773438 298.730469 L 357.1875 298.730469 L 359.226562 298.757812 L 360.703125 298.796875 L 362.335938 298.859375 L 363.710938 298.929688 L 366.105469 299.097656 L 368.246094 299.3125 L 369.214844 299.4375 L 370.746094 299.675781 L 371.917969 299.90625 L 372.734375 300.105469 L 373.652344 300.390625 L 374.464844 300.738281 L 375.078125 301.128906 L 375.382812 301.460938 L 368.246094 301.460938 L 367.890625 301.152344 L 367.484375 300.914062 L 366.71875 300.597656 L 365.953125 300.375 L 364.882812 300.152344 L 363.914062 300.007812 L 362.589844 299.859375 L 361.417969 299.769531 L 360.195312 299.699219 L 359.023438 299.652344 L 356.78125 299.605469 L 354.179688 299.605469 L 353.210938 299.621094 L 351.222656 299.683594 L 350.152344 299.738281 L 348.625 299.84375 L 347.554688 299.945312 L 346.28125 300.097656 L 345.414062 300.230469 L 344.34375 300.429688 L 343.578125 300.605469 L 342.714844 300.859375 L 342.203125 301.054688 L 341.746094 301.269531 L 341.335938 301.523438 L 341.03125 301.792969 L 340.828125 302.078125 L 340.726562 302.355469 L 340.726562 303.546875 L 340.828125 303.824219 L 341.082031 304.148438 L 341.746094 304.617188 L 342.714844 305.027344 L 343.835938 305.347656 L 344.90625 305.582031 L 345.515625 305.6875 L 346.332031 305.8125 L 347.605469 305.964844 L 349.441406 306.121094 L 350.511719 306.179688 L 352.140625 306.242188 L 353.824219 306.273438 L 356.066406 306.273438 L 358.054688 306.242188 L 359.378906 306.203125 L 360.753906 306.140625 L 362.640625 306.011719 L 363.8125 305.886719 L 364.832031 305.742188 L 365.597656 305.597656 L 366.105469 305.472656 L 366.871094 305.234375 L 367.484375 304.972656 L 367.941406 304.703125 L 368.246094 304.441406 L 375.382812 304.441406 L 375.078125 304.75 L 374.617188 305.050781 L 374.160156 305.273438 L 373.445312 305.542969 L 372.632812 305.78125 L 371.457031 306.050781 L 370.492188 306.226562 L 369.214844 306.417969 L 368.042969 306.566406 L 366.769531 306.695312 L 364.882812 306.851562 L 363.660156 306.925781 L 362.335938 306.996094 L 360.753906 307.058594 L 358.769531 307.113281 L 356.628906 307.144531 L 354.640625 307.152344 L 352.5 307.136719 L 350.917969 307.105469 L 348.828125 307.035156 L 346.230469 306.898438 L 344.34375 306.75 L 342.867188 306.605469 L 341.589844 306.449219 L 340.164062 306.242188 L 338.328125 305.902344 L 337.207031 305.640625 L 336.445312 305.425781 L 335.578125 305.125 L 334.964844 304.855469 L 334.253906 304.425781 L 333.742188 303.878906 L 333.589844 303.457031 Z M 333.589844 302.394531 "/>
<path style=" stroke:none;fill-rule:nonzero;fill:rgb(96.862745%,70.196078%,16.862745%);fill-opacity:1;" d="M 333.589844 313.046875 L 333.640625 313.042969 L 333.640625 313 L 333.84375 312.90625 L 334.355469 312.773438 L 335.015625 312.667969 L 335.730469 312.582031 L 336.1875 312.535156 L 336.953125 312.472656 L 337.617188 312.425781 L 339.296875 312.332031 L 341.4375 312.242188 L 342.609375 312.203125 L 343.9375 312.167969 L 345.820312 312.128906 L 346.6875 312.113281 L 349.339844 312.078125 L 352.347656 312.058594 L 355.660156 312.050781 L 357.1875 312.054688 L 359.277344 312.0625 L 362.132812 312.085938 L 363.761719 312.105469 L 365.035156 312.128906 L 366.363281 312.15625 L 367.992188 312.199219 L 369.523438 312.25 L 370.746094 312.300781 L 371.96875 312.363281 L 372.988281 312.429688 L 373.855469 312.503906 L 374.617188 312.59375 L 375.078125 312.667969 L 375.382812 312.742188 L 368.296875 312.742188 L 367.890625 312.667969 L 367.433594 312.609375 L 366.667969 312.542969 L 365.902344 312.492188 L 365.140625 312.449219 L 363.710938 312.394531 L 362.488281 312.359375 L 360.960938 312.332031 L 359.480469 312.3125 L 357.800781 312.300781 L 356.78125 312.296875 L 354.078125 312.296875 L 351.632812 312.308594 L 350.207031 312.328125 L 349.1875 312.34375 L 347.757812 312.375 L 346.890625 312.402344 L 346.382812 312.417969 L 344.855469 312.484375 L 343.835938 312.542969 L 343.273438 312.582031 L 342.558594 312.648438 L 342.050781 312.703125 L 341.488281 312.789062 L 341.183594 312.851562 L 340.777344 312.996094 L 340.726562 313.378906 L 340.878906 313.457031 L 341.183594 313.542969 L 341.589844 313.621094 L 342.203125 313.703125 L 342.816406 313.761719 L 343.886719 313.84375 L 344.800781 313.902344 L 345.515625 313.9375 L 346.890625 313.992188 L 347.453125 314.011719 L 348.777344 314.050781 L 350.152344 314.082031 L 351.835938 314.105469 L 353.109375 314.117188 L 355.148438 314.128906 L 357.75 314.128906 L 360.804688 314.117188 L 362.742188 314.097656 L 364.070312 314.082031 L 364.933594 314.066406 L 366.003906 314.042969 L 366.769531 314.023438 L 367.484375 314 L 368.351562 313.964844 L 368.351562 313.457031 L 355.761719 313.457031 L 355.761719 313.21875 L 375.332031 313.214844 L 375.382812 314.042969 L 374.3125 314.101562 L 372.988281 314.15625 L 371.714844 314.199219 L 370.386719 314.234375 L 368.503906 314.273438 L 366.972656 314.300781 L 364.628906 314.332031 L 362.488281 314.347656 L 360.246094 314.363281 L 358.257812 314.367188 L 355.914062 314.371094 L 353.824219 314.367188 L 351.582031 314.355469 L 349.796875 314.335938 L 348.167969 314.316406 L 346.535156 314.289062 L 344.496094 314.242188 L 343.171875 314.207031 L 341.796875 314.164062 L 340.417969 314.109375 L 339.195312 314.054688 L 338.378906 314.007812 L 337.566406 313.957031 L 336.699219 313.894531 L 335.882812 313.820312 L 335.273438 313.757812 L 334.710938 313.683594 L 334.304688 313.613281 L 333.894531 313.515625 L 333.691406 313.441406 L 333.589844 313.375 Z M 333.589844 313.046875 "/>
<path style=" stroke:none;fill-rule:nonzero;fill:rgb(83.921569%,15.686275%,22.352941%);fill-opacity:1;" d="M 333.589844 286.671875 L 375.382812 286.671875 L 375.382812 287.835938 L 357.964844 287.84375 L 357.964844 297.550781 L 350.957031 297.550781 L 350.957031 287.855469 L 350.855469 287.835938 L 333.589844 287.835938 Z M 333.589844 286.671875 "/>
<path style=" stroke:none;fill-rule:nonzero;fill:rgb(6.27451%,58.823529%,28.235294%);fill-opacity:1;" d="M 377.582031 309.582031 L 377.628906 309.574219 L 395.710938 301.882812 L 401.203125 301.882812 L 419.375 309.585938 L 412.992188 309.585938 L 408.4375 307.578125 L 388.476562 307.578125 L 384.011719 309.582031 L 377.582031 309.582031 L 390.398438 306.746094 L 406.605469 306.738281 L 398.523438 303.140625 L 398.433594 303.136719 L 398.347656 303.15625 L 390.351562 306.738281 L 390.398438 306.746094 Z M 377.582031 309.582031 "/>
<path style=" stroke:none;fill-rule:nonzero;fill:rgb(14.509804%,36.078431%,60%);fill-opacity:1;" d="M 377.582031 291.914062 L 377.632812 291.898438 L 377.632812 291.558594 L 377.785156 291.015625 L 378.144531 290.335938 L 378.5 289.863281 L 379.417969 289.027344 L 380.691406 288.214844 L 382.015625 287.589844 L 382.984375 287.21875 L 383.851562 286.933594 L 385.839844 286.410156 L 387.113281 286.136719 L 388.488281 285.894531 L 390.171875 285.65625 L 391.394531 285.511719 L 394.148438 285.285156 L 396.1875 285.183594 L 397.765625 285.140625 L 401.179688 285.140625 L 403.21875 285.199219 L 404.699219 285.269531 L 406.328125 285.382812 L 407.703125 285.511719 L 410.101562 285.824219 L 412.242188 286.222656 L 413.210938 286.449219 L 414.738281 286.890625 L 415.910156 287.320312 L 416.726562 287.6875 L 417.644531 288.214844 L 418.460938 288.855469 L 419.070312 289.582031 L 419.375 290.191406 L 412.242188 290.191406 L 411.882812 289.625 L 411.476562 289.183594 L 410.710938 288.597656 L 409.949219 288.1875 L 408.878906 287.773438 L 407.910156 287.503906 L 406.582031 287.234375 L 405.410156 287.0625 L 404.1875 286.933594 L 403.015625 286.847656 L 400.773438 286.765625 L 398.175781 286.765625 L 397.207031 286.792969 L 395.21875 286.90625 L 394.148438 287.003906 L 392.617188 287.203125 L 391.546875 287.390625 L 390.273438 287.675781 L 389.40625 287.917969 L 388.335938 288.285156 L 387.574219 288.613281 L 386.707031 289.082031 L 386.195312 289.4375 L 385.738281 289.835938 L 385.332031 290.304688 L 385.023438 290.804688 L 384.820312 291.332031 L 384.71875 291.84375 L 384.71875 294.046875 L 384.820312 294.558594 L 385.074219 295.15625 L 385.738281 296.023438 L 386.707031 296.777344 L 387.828125 297.375 L 388.898438 297.800781 L 389.507812 298 L 390.324219 298.230469 L 391.597656 298.511719 L 393.433594 298.796875 L 394.503906 298.910156 L 396.136719 299.027344 L 397.816406 299.082031 L 400.058594 299.082031 L 402.046875 299.027344 L 403.371094 298.953125 L 404.75 298.839844 L 406.632812 298.597656 L 407.808594 298.371094 L 408.828125 298.101562 L 409.589844 297.832031 L 410.101562 297.601562 L 410.863281 297.164062 L 411.476562 296.679688 L 411.933594 296.179688 L 412.242188 295.695312 L 419.375 295.695312 L 419.070312 296.265625 L 418.613281 296.820312 L 418.152344 297.234375 L 417.441406 297.730469 L 416.625 298.171875 L 415.453125 298.671875 L 414.484375 298.996094 L 413.210938 299.351562 L 412.039062 299.625 L 410.761719 299.863281 L 408.878906 300.148438 L 407.652344 300.292969 L 406.328125 300.417969 L 404.75 300.535156 L 402.761719 300.632812 L 400.621094 300.691406 L 398.632812 300.703125 L 396.492188 300.675781 L 394.914062 300.617188 L 392.824219 300.492188 L 390.222656 300.234375 L 388.335938 299.964844 L 386.859375 299.695312 L 385.585938 299.410156 L 384.15625 299.027344 L 382.324219 298.398438 L 381.203125 297.917969 L 380.4375 297.519531 L 379.570312 296.964844 L 378.960938 296.464844 L 378.246094 295.667969 L 377.734375 294.660156 L 377.582031 293.875 Z M 377.582031 291.914062 "/>
<path style=" stroke:none;fill-rule:nonzero;fill:rgb(96.862745%,70.196078%,16.862745%);fill-opacity:1;" d="M 377.582031 312.308594 L 377.632812 312.308594 L 377.632812 312.242188 L 377.835938 312.09375 L 378.347656 311.890625 L 379.011719 311.722656 L 379.722656 311.589844 L 380.183594 311.519531 L 380.945312 311.421875 L 381.609375 311.347656 L 383.292969 311.203125 L 385.433594 311.0625 L 386.605469 311.003906 L 387.929688 310.949219 L 389.816406 310.886719 L 390.683594 310.863281 L 393.332031 310.808594 L 396.339844 310.777344 L 399.652344 310.765625 L 401.179688 310.769531 L 403.269531 310.785156 L 406.125 310.820312 L 407.757812 310.851562 L 409.03125 310.886719 L 410.355469 310.929688 L 411.988281 310.992188 L 413.515625 311.074219 L 414.738281 311.152344 L 415.960938 311.25 L 416.980469 311.355469 L 417.847656 311.472656 L 418.613281 311.609375 L 419.070312 311.726562 L 419.375 311.839844 L 412.292969 311.839844 L 411.882812 311.726562 L 411.425781 311.636719 L 410.660156 311.527344 L 409.898438 311.449219 L 409.132812 311.386719 L 407.703125 311.300781 L 406.480469 311.246094 L 404.953125 311.203125 L 403.476562 311.171875 L 401.792969 311.152344 L 400.773438 311.144531 L 398.070312 311.144531 L 395.625 311.167969 L 394.199219 311.195312 L 393.179688 311.222656 L 391.753906 311.269531 L 390.886719 311.308594 L 390.375 311.335938 L 388.847656 311.4375 L 387.828125 311.53125 L 387.265625 311.59375 L 386.554688 311.691406 L 386.042969 311.78125 L 385.484375 311.914062 L 385.175781 312.011719 L 384.769531 312.234375 L 384.71875 312.828125 L 384.871094 312.953125 L 385.175781 313.085938 L 385.585938 313.207031 L 386.195312 313.332031 L 386.808594 313.425781 L 387.878906 313.554688 L 388.796875 313.640625 L 389.507812 313.695312 L 390.886719 313.785156 L 391.445312 313.816406 L 392.769531 313.875 L 394.148438 313.917969 L 395.828125 313.960938 L 397.105469 313.980469 L 399.140625 313.996094 L 401.742188 313.996094 L 404.800781 313.976562 L 406.738281 313.949219 L 408.0625 313.921875 L 408.929688 313.898438 L 410 313.863281 L 410.761719 313.832031 L 411.476562 313.792969 L 412.34375 313.738281 L 412.34375 312.953125 L 399.753906 312.949219 L 399.753906 312.582031 L 419.324219 312.578125 L 419.375 313.863281 L 418.304688 313.953125 L 416.980469 314.039062 L 415.707031 314.105469 L 414.382812 314.160156 L 412.496094 314.222656 L 410.96875 314.261719 L 408.621094 314.308594 L 406.480469 314.335938 L 404.238281 314.359375 L 402.25 314.367188 L 399.90625 314.371094 L 397.816406 314.363281 L 395.574219 314.34375 L 393.789062 314.316406 L 392.160156 314.285156 L 390.527344 314.242188 L 388.488281 314.171875 L 387.164062 314.117188 L 385.789062 314.046875 L 384.414062 313.964844 L 383.191406 313.878906 L 382.375 313.808594 L 381.558594 313.730469 L 380.691406 313.628906 L 379.875 313.519531 L 379.265625 313.417969 L 378.703125 313.300781 L 378.296875 313.191406 L 377.890625 313.042969 L 377.683594 312.925781 L 377.582031 312.824219 Z M 377.582031 312.308594 "/>
<path style=" stroke:none;fill-rule:nonzero;fill:rgb(83.921569%,15.686275%,22.352941%);fill-opacity:1;" d="M 377.582031 182.984375 L 419.375 182.984375 L 419.375 193.792969 L 401.957031 193.890625 L 401.957031 283.960938 L 394.949219 283.960938 L 394.949219 193.984375 L 394.847656 193.792969 L 377.582031 193.792969 Z M 377.582031 182.984375 "/>
<path style=" stroke:none;fill-rule:nonzero;fill:rgb(14.509804%,36.078431%,60%);fill-opacity:1;" d="M 421.578125 186.527344 L 421.628906 186.375 L 421.628906 182.628906 L 421.78125 176.703125 L 422.136719 169.214844 L 422.492188 164.066406 L 423.410156 154.863281 L 424.683594 145.96875 L 426.011719 139.105469 L 426.980469 135.050781 L 427.84375 131.929688 L 429.832031 126.15625 L 431.105469 123.195312 L 432.484375 120.542969 L 434.164062 117.890625 L 435.390625 116.328125 L 438.140625 113.832031 L 440.179688 112.742188 L 441.757812 112.273438 L 445.175781 112.273438 L 447.214844 112.898438 L 448.691406 113.679688 L 450.324219 114.925781 L 451.699219 116.328125 L 454.09375 119.761719 L 456.234375 124.128906 L 457.203125 126.625 L 458.730469 131.460938 L 459.90625 136.140625 L 460.71875 140.199219 L 461.636719 145.96875 L 462.453125 152.988281 L 463.0625 160.945312 L 463.371094 167.652344 L 456.234375 167.652344 L 455.878906 161.414062 L 455.46875 156.578125 L 454.707031 150.179688 L 453.941406 145.65625 L 452.871094 141.132812 L 451.902344 138.167969 L 450.578125 135.207031 L 449.40625 133.332031 L 448.183594 131.929688 L 447.007812 130.992188 L 444.765625 130.058594 L 442.167969 130.058594 L 441.199219 130.371094 L 439.210938 131.617188 L 438.140625 132.710938 L 436.613281 134.894531 L 435.542969 136.921875 L 434.265625 140.042969 L 433.402344 142.695312 L 432.332031 146.75 L 431.566406 150.335938 L 430.699219 155.484375 L 430.191406 159.386719 L 429.730469 163.753906 L 429.324219 168.902344 L 429.019531 174.359375 L 428.8125 180.132812 L 428.710938 185.75 L 428.710938 209.929688 L 428.8125 215.542969 L 429.070312 222.097656 L 429.730469 231.613281 L 430.699219 239.878906 L 431.820312 246.433594 L 432.890625 251.113281 L 433.503906 253.296875 L 434.320312 255.792969 L 435.59375 258.914062 L 437.425781 262.03125 L 438.496094 263.28125 L 440.128906 264.527344 L 441.8125 265.152344 L 444.054688 265.152344 L 446.042969 264.527344 L 447.367188 263.75 L 448.742188 262.5 L 450.628906 259.847656 L 451.800781 257.351562 L 452.820312 254.386719 L 453.585938 251.425781 L 454.09375 248.929688 L 454.859375 244.09375 L 455.46875 238.789062 L 455.929688 233.328125 L 456.234375 228.023438 L 463.371094 228.023438 L 463.0625 234.265625 L 462.605469 240.347656 L 462.148438 244.871094 L 461.433594 250.332031 L 460.617188 255.167969 L 459.445312 260.628906 L 458.476562 264.214844 L 457.203125 268.117188 L 456.03125 271.082031 L 454.757812 273.730469 L 452.871094 276.851562 L 451.648438 278.414062 L 450.324219 279.816406 L 448.742188 281.0625 L 446.753906 282.15625 L 444.613281 282.78125 L 442.625 282.9375 L 440.484375 282.625 L 438.90625 282 L 436.816406 280.597656 L 434.214844 277.789062 L 432.332031 274.824219 L 430.851562 271.859375 L 429.578125 268.742188 L 428.152344 264.527344 L 426.316406 257.664062 L 425.195312 252.359375 L 424.429688 247.992188 L 423.5625 241.910156 L 422.953125 236.449219 L 422.238281 227.710938 L 421.730469 216.636719 L 421.578125 208.058594 Z M 421.578125 186.527344 "/>
<path style=" stroke:none;fill-rule:nonzero;fill:rgb(83.921569%,15.686275%,22.352941%);fill-opacity:1;" d="M 421.578125 284.117188 L 463.371094 284.117188 L 463.371094 287.355469 L 445.953125 287.382812 L 445.953125 314.371094 L 438.945312 314.371094 L 438.945312 287.410156 L 438.84375 287.355469 L 421.578125 287.355469 Z M 421.578125 284.117188 "/>
<path style=" stroke:none;fill-rule:nonzero;fill:rgb(14.509804%,36.078431%,60%);fill-opacity:1;" d="M 465.570312 165.179688 L 465.621094 164.957031 L 465.621094 159.597656 L 465.773438 151.117188 L 466.128906 140.402344 L 466.488281 133.035156 L 467.40625 119.867188 L 468.679688 107.140625 L 470.003906 97.320312 L 470.972656 91.515625 L 471.839844 87.050781 L 473.828125 78.792969 L 475.101562 74.550781 L 476.476562 70.757812 L 478.160156 66.960938 L 479.382812 64.730469 L 482.132812 61.160156 L 484.171875 59.597656 L 485.753906 58.925781 L 489.167969 58.925781 L 491.207031 59.820312 L 492.683594 60.9375 L 494.316406 62.722656 L 495.691406 64.730469 L 498.085938 69.640625 L 500.226562 75.890625 L 501.195312 79.464844 L 502.726562 86.382812 L 503.898438 93.078125 L 504.714844 98.882812 L 505.628906 107.140625 L 506.445312 117.1875 L 507.058594 128.570312 L 507.363281 138.167969 L 500.226562 138.167969 L 499.871094 129.242188 L 499.464844 122.320312 L 498.699219 113.167969 L 497.933594 106.695312 L 496.863281 100.222656 L 495.894531 95.980469 L 494.570312 91.738281 L 493.398438 89.0625 L 492.175781 87.050781 L 491.003906 85.714844 L 488.761719 84.375 L 486.160156 84.375 L 485.191406 84.820312 L 483.203125 86.605469 L 482.132812 88.167969 L 480.605469 91.292969 L 479.535156 94.195312 L 478.261719 98.660156 L 477.394531 102.453125 L 476.324219 108.257812 L 475.558594 113.390625 L 474.691406 120.757812 L 474.183594 126.339844 L 473.726562 132.589844 L 473.316406 139.953125 L 473.011719 147.765625 L 472.808594 156.027344 L 472.707031 164.0625 L 472.707031 198.660156 L 472.808594 206.695312 L 473.0625 216.070312 L 473.726562 229.6875 L 474.691406 241.519531 L 475.8125 250.894531 L 476.882812 257.589844 L 477.496094 260.714844 L 478.3125 264.285156 L 479.585938 268.75 L 481.421875 273.214844 L 482.492188 275 L 484.121094 276.789062 L 485.804688 277.679688 L 488.046875 277.679688 L 490.035156 276.789062 L 491.359375 275.671875 L 492.734375 273.886719 L 494.621094 270.089844 L 495.792969 266.519531 L 496.8125 262.277344 L 497.578125 258.035156 L 498.085938 254.464844 L 498.851562 247.546875 L 499.464844 239.957031 L 499.921875 232.144531 L 500.226562 224.554688 L 507.363281 224.554688 L 507.058594 233.484375 L 506.597656 242.1875 L 506.140625 248.660156 L 505.425781 256.472656 L 504.609375 263.394531 L 503.4375 271.207031 L 502.46875 276.339844 L 501.195312 281.921875 L 500.023438 286.164062 L 498.75 289.957031 L 496.863281 294.421875 L 495.640625 296.652344 L 494.316406 298.664062 L 492.734375 300.449219 L 490.746094 302.011719 L 488.605469 302.902344 L 486.621094 303.125 L 484.480469 302.679688 L 482.898438 301.789062 L 480.808594 299.777344 L 478.210938 295.761719 L 476.324219 291.519531 L 474.847656 287.277344 L 473.570312 282.8125 L 472.144531 276.789062 L 470.308594 266.964844 L 469.1875 259.375 L 468.425781 253.125 L 467.558594 244.421875 L 466.945312 236.609375 L 466.230469 224.109375 L 465.722656 208.257812 L 465.570312 195.984375 Z M 465.570312 165.179688 "/>
<path style=" stroke:none;fill-rule:nonzero;fill:rgb(96.862745%,70.196078%,16.862745%);fill-opacity:1;" d="M 465.570312 308.617188 L 465.621094 308.609375 L 465.621094 308.425781 L 465.824219 308.011719 L 466.335938 307.441406 L 466.996094 306.972656 L 467.710938 306.605469 L 468.167969 306.410156 L 468.933594 306.136719 L 469.597656 305.933594 L 471.277344 305.519531 L 473.417969 305.132812 L 474.589844 304.96875 L 475.917969 304.8125 L 477.800781 304.636719 L 478.667969 304.574219 L 481.320312 304.425781 L 484.324219 304.332031 L 487.640625 304.304688 L 489.167969 304.316406 L 491.257812 304.351562 L 494.113281 304.453125 L 495.742188 304.546875 L 497.015625 304.636719 L 498.34375 304.757812 L 499.972656 304.941406 L 501.503906 305.160156 L 502.726562 305.382812 L 503.949219 305.65625 L 504.96875 305.953125 L 505.835938 306.273438 L 506.597656 306.660156 L 507.058594 306.980469 L 507.363281 307.300781 L 500.277344 307.300781 L 499.871094 306.980469 L 499.414062 306.734375 L 498.648438 306.429688 L 497.882812 306.207031 L 497.117188 306.035156 L 495.691406 305.796875 L 494.46875 305.648438 L 492.941406 305.519531 L 491.460938 305.4375 L 489.78125 305.382812 L 488.761719 305.363281 L 486.058594 305.363281 L 483.613281 305.425781 L 482.183594 305.5 L 481.164062 305.574219 L 479.738281 305.710938 L 478.871094 305.824219 L 478.363281 305.894531 L 476.832031 306.179688 L 475.8125 306.4375 L 475.253906 306.613281 L 474.539062 306.890625 L 474.03125 307.136719 L 473.46875 307.503906 L 473.164062 307.78125 L 472.757812 308.40625 L 472.707031 310.058594 L 472.859375 310.410156 L 473.164062 310.785156 L 473.570312 311.117188 L 474.183594 311.464844 L 474.796875 311.734375 L 475.867188 312.089844 L 476.78125 312.332031 L 477.496094 312.488281 L 478.871094 312.734375 L 479.433594 312.816406 L 480.757812 312.984375 L 482.132812 313.113281 L 483.816406 313.222656 L 485.089844 313.277344 L 487.128906 313.324219 L 489.730469 313.324219 L 492.785156 313.269531 L 494.722656 313.195312 L 496.046875 313.121094 L 496.914062 313.054688 L 497.984375 312.957031 L 498.75 312.863281 L 499.464844 312.761719 L 500.328125 312.605469 L 500.328125 310.410156 L 487.742188 310.398438 L 487.742188 309.371094 L 507.3125 309.363281 L 507.363281 312.957031 L 506.292969 313.203125 L 504.96875 313.441406 L 503.695312 313.625 L 502.367188 313.78125 L 500.484375 313.957031 L 498.953125 314.066406 L 496.609375 314.195312 L 494.46875 314.277344 L 492.226562 314.332031 L 490.238281 314.363281 L 487.894531 314.371094 L 485.804688 314.351562 L 483.5625 314.296875 L 481.777344 314.222656 L 480.148438 314.132812 L 478.515625 314.011719 L 476.476562 313.820312 L 475.152344 313.664062 L 473.777344 313.46875 L 472.398438 313.238281 L 471.175781 312.992188 L 470.359375 312.800781 L 469.546875 312.578125 L 468.679688 312.300781 L 467.863281 311.988281 L 467.25 311.707031 L 466.691406 311.382812 L 466.285156 311.082031 L 465.875 310.667969 L 465.671875 310.335938 L 465.570312 310.050781 Z M 465.570312 308.617188 "/>
<path style=" stroke:none;fill-rule:nonzero;fill:rgb(14.509804%,36.078431%,60%);fill-opacity:1;" d="M 509.5625 154.085938 L 509.613281 153.832031 L 509.613281 147.722656 L 509.765625 138.042969 L 510.125 125.820312 L 510.480469 117.417969 L 511.398438 102.394531 L 512.671875 87.878906 L 513.996094 76.675781 L 514.964844 70.054688 L 515.832031 64.960938 L 517.820312 55.539062 L 519.09375 50.703125 L 520.46875 46.371094 L 522.152344 42.042969 L 523.375 39.496094 L 526.128906 35.421875 L 528.167969 33.640625 L 529.746094 32.875 L 533.160156 32.875 L 535.199219 33.894531 L 536.679688 35.167969 L 538.308594 37.207031 L 539.683594 39.496094 L 542.082031 45.097656 L 544.222656 52.230469 L 545.191406 56.304688 L 546.71875 64.199219 L 547.890625 71.835938 L 548.707031 78.457031 L 549.625 87.878906 L 550.441406 99.339844 L 551.050781 112.324219 L 551.355469 123.273438 L 544.222656 123.273438 L 543.863281 113.089844 L 543.457031 105.195312 L 542.691406 94.753906 L 541.929688 87.371094 L 540.859375 79.984375 L 539.890625 75.148438 L 538.5625 70.308594 L 537.390625 67.253906 L 536.167969 64.960938 L 534.996094 63.433594 L 532.753906 61.90625 L 530.152344 61.90625 L 529.1875 62.414062 L 527.199219 64.453125 L 526.128906 66.234375 L 524.597656 69.800781 L 523.527344 73.109375 L 522.253906 78.203125 L 521.386719 82.53125 L 520.316406 89.152344 L 519.554688 95.007812 L 518.6875 103.414062 L 518.175781 109.777344 L 517.71875 116.910156 L 517.308594 125.3125 L 517.003906 134.226562 L 516.800781 143.648438 L 516.699219 152.8125 L 516.699219 192.285156 L 516.800781 201.449219 L 517.054688 212.144531 L 517.71875 227.679688 L 518.6875 241.175781 L 519.808594 251.871094 L 520.878906 259.507812 L 521.488281 263.074219 L 522.304688 267.148438 L 523.578125 272.242188 L 525.414062 277.335938 L 526.484375 279.371094 L 528.117188 281.410156 L 529.796875 282.425781 L 532.039062 282.425781 L 534.027344 281.410156 L 535.351562 280.136719 L 536.730469 278.097656 L 538.613281 273.769531 L 539.789062 269.695312 L 540.804688 264.855469 L 541.570312 260.019531 L 542.082031 255.945312 L 542.84375 248.050781 L 543.457031 239.390625 L 543.914062 230.480469 L 544.222656 221.820312 L 551.355469 221.820312 L 551.050781 232.007812 L 550.59375 241.9375 L 550.132812 249.324219 L 549.421875 258.234375 L 548.605469 266.128906 L 547.433594 275.042969 L 546.464844 280.898438 L 545.191406 287.265625 L 544.015625 292.105469 L 542.742188 296.433594 L 540.859375 301.527344 L 539.632812 304.070312 L 538.308594 306.363281 L 536.730469 308.402344 L 534.742188 310.183594 L 532.601562 311.203125 L 530.613281 311.457031 L 528.472656 310.945312 L 526.890625 309.929688 L 524.800781 307.636719 L 522.203125 303.054688 L 520.316406 298.214844 L 518.839844 293.375 L 517.566406 288.285156 L 516.136719 281.410156 L 514.304688 270.203125 L 513.183594 261.546875 L 512.417969 254.417969 L 511.550781 244.484375 L 510.9375 235.574219 L 510.226562 221.3125 L 509.714844 203.234375 L 509.5625 189.226562 Z M 509.5625 154.085938 "/>
<path style=" stroke:none;fill-rule:nonzero;fill:rgb(83.921569%,15.686275%,22.352941%);fill-opacity:1;" d="M 509.5625 312.636719 L 551.355469 312.636719 L 551.355469 312.820312 L 533.9375 312.824219 L 533.9375 314.371094 L 526.929688 314.371094 L 526.929688 312.824219 L 526.828125 312.820312 L 509.5625 312.820312 Z M 509.5625 312.636719 "/>
<path style=" stroke:none;fill-rule:nonzero;fill:rgb(6.27451%,58.823529%,28.235294%);fill-opacity:1;" d="M 553.554688 314.09375 L 553.601562 313.820312 L 571.683594 20.664062 L 577.175781 20.664062 L 595.351562 314.371094 L 588.964844 314.371094 L 584.410156 237.703125 L 564.453125 237.703125 L 559.988281 314.09375 L 553.554688 314.09375 L 566.371094 205.988281 L 582.578125 205.710938 L 574.5 68.648438 L 574.410156 68.375 L 574.320312 69.199219 L 566.328125 205.710938 L 566.371094 205.988281 Z M 553.554688 314.09375 "/>
<path style=" stroke:none;fill-rule:nonzero;fill:rgb(96.862745%,70.196078%,16.862745%);fill-opacity:1;" d="M 597.550781 146.460938 L 597.601562 146.191406 L 597.601562 140.828125 L 597.804688 128.757812 L 598.316406 112.128906 L 598.976562 98.449219 L 599.691406 87.71875 L 600.148438 82.085938 L 600.914062 74.039062 L 601.578125 68.140625 L 603.257812 56.070312 L 605.398438 44.804688 L 606.570312 39.976562 L 607.894531 35.414062 L 609.78125 30.320312 L 610.648438 28.441406 L 613.300781 24.148438 L 616.304688 21.46875 L 619.617188 20.664062 L 621.148438 20.929688 L 623.238281 22.003906 L 626.09375 24.953125 L 627.722656 27.636719 L 628.996094 30.320312 L 630.324219 33.804688 L 631.953125 39.171875 L 633.480469 45.609375 L 634.707031 52.046875 L 635.929688 60.09375 L 636.949219 68.675781 L 637.816406 78.0625 L 638.578125 89.328125 L 639.039062 98.714844 L 639.34375 108.105469 L 632.257812 108.105469 L 631.851562 98.714844 L 631.394531 91.476562 L 630.628906 82.625 L 629.863281 76.1875 L 629.097656 71.089844 L 627.671875 64.117188 L 626.449219 59.824219 L 624.917969 56.070312 L 623.441406 53.65625 L 621.757812 52.046875 L 620.742188 51.507812 L 618.039062 51.507812 L 615.59375 53.386719 L 614.164062 55.53125 L 613.144531 57.679688 L 611.71875 61.703125 L 610.851562 64.921875 L 610.34375 67.066406 L 608.8125 75.382812 L 607.792969 82.890625 L 607.234375 87.988281 L 606.519531 96.035156 L 606.011719 103.277344 L 605.449219 114.003906 L 605.144531 122.050781 L 604.738281 140.292969 L 604.683594 188.574219 L 604.839844 198.765625 L 605.144531 209.761719 L 605.550781 219.417969 L 606.164062 229.609375 L 606.773438 237.390625 L 607.84375 247.851562 L 608.761719 254.824219 L 609.476562 259.382812 L 610.851562 266.625 L 611.414062 269.039062 L 612.738281 273.867188 L 614.113281 277.625 L 615.796875 280.84375 L 617.070312 282.453125 L 619.109375 283.792969 L 621.707031 283.792969 L 624.765625 282.183594 L 626.703125 280.039062 L 628.027344 277.890625 L 628.894531 276.015625 L 629.964844 273.0625 L 630.730469 270.382812 L 631.445312 267.429688 L 632.308594 262.871094 L 632.308594 198.765625 L 619.722656 198.496094 L 619.722656 168.457031 L 639.292969 168.1875 L 639.34375 273.0625 L 638.273438 280.304688 L 636.949219 287.28125 L 635.675781 292.644531 L 634.347656 297.203125 L 632.464844 302.300781 L 630.933594 305.519531 L 628.589844 309.273438 L 626.449219 311.6875 L 624.207031 313.296875 L 622.21875 314.101562 L 619.875 314.371094 L 617.785156 313.835938 L 615.542969 312.226562 L 613.757812 310.078125 L 612.125 307.398438 L 610.496094 303.910156 L 608.457031 298.277344 L 607.132812 293.71875 L 605.753906 288.085938 L 604.378906 281.378906 L 603.15625 274.136719 L 602.339844 268.503906 L 601.527344 262.066406 L 600.660156 254.019531 L 599.84375 244.898438 L 599.230469 236.585938 L 598.671875 227.195312 L 598.261719 218.34375 L 597.855469 206.277344 L 597.652344 196.621094 L 597.550781 188.304688 Z M 597.550781 146.460938 "/>
<path style=" stroke:none;fill-rule:nonzero;fill:rgb(6.27451%,58.823529%,28.235294%);fill-opacity:1;" d="M 641.542969 314.09375 L 641.589844 313.820312 L 659.671875 20.664062 L 665.164062 20.664062 L 683.335938 314.371094 L 676.953125 314.371094 L 672.398438 237.703125 L 652.4375 237.703125 L 647.972656 314.09375 L 641.542969 314.09375 L 654.359375 205.988281 L 670.566406 205.710938 L 662.484375 68.648438 L 662.394531 68.375 L 662.304688 69.199219 L 654.3125 205.710938 L 654.359375 205.988281 Z M 641.542969 314.09375 "/>
<g style="fill:rgb(0%,0%,0%);fill-opacity:1;">
  <use xlink:href="#glyph0-1" x="21.957031" y="318.198242"/>
  <use xlink:href="#glyph0-2" x="27.291016" y="318.198242"/>
  <use xlink:href="#glyph0-1" x="29.958008" y="318.198242"/>
</g>
<g style="fill:rgb(0%,0%,0%);fill-opacity:1;">
  <use xlink:href="#glyph0-1" x="21.957031" y="244.475586"/>
  <use xlink:href="#glyph0-2" x="27.291016" y="244.475586"/>
  <use xlink:href="#glyph0-3" x="29.958008" y="244.475586"/>
</g>
<g style="fill:rgb(0%,0%,0%);fill-opacity:1;">
  <use xlink:href="#glyph0-4" x="21.957031" y="170.75293"/>
  <use xlink:href="#glyph0-2" x="27.291016" y="170.75293"/>
  <use xlink:href="#glyph0-1" x="29.958008" y="170.75293"/>
</g>
<g style="fill:rgb(0%,0%,0%);fill-opacity:1;">
  <use xlink:href="#glyph0-4" x="21.957031" y="97.03418"/>
  <use xlink:href="#glyph0-2" x="27.291016" y="97.03418"/>
  <use xlink:href="#glyph0-3" x="29.958008" y="97.03418"/>
</g>
<g style="fill:rgb(0%,0%,0%);fill-opacity:1;">
  <use xlink:href="#glyph0-5" x="21.957031" y="23.311523"/>
  <use xlink:href="#glyph0-2" x="27.291016" y="23.311523"/>
  <use xlink:href="#glyph0-1" x="29.958008" y="23.311523"/>
</g>
<g style="fill:rgb(0%,0%,0%);fill-opacity:1;">
  <use xlink:href="#glyph0-4" x="87.527344" y="338.19043"/>
</g>
<g style="fill:rgb(0%,0%,0%);fill-opacity:1;">
  <use xlink:href="#glyph0-5" x="131.519531" y="338.19043"/>
</g>
<g style="fill:rgb(0%,0%,0%);fill-opacity:1;">
  <use xlink:href="#glyph0-6" x="175.511719" y="338.19043"/>
</g>
<g style="fill:rgb(0%,0%,0%);fill-opacity:1;">
  <use xlink:href="#glyph0-7" x="219.507812" y="338.19043"/>
</g>
<g style="fill:rgb(0%,0%,0%);fill-opacity:1;">
  <use xlink:href="#glyph0-3" x="263.5" y="338.19043"/>
</g>
<g style="fill:rgb(0%,0%,0%);fill-opacity:1;">
  <use xlink:href="#glyph0-8" x="307.492188" y="338.19043"/>
</g>
<g style="fill:rgb(0%,0%,0%);fill-opacity:1;">
  <use xlink:href="#glyph0-9" x="351.488281" y="338.19043"/>
</g>
<g style="fill:rgb(0%,0%,0%);fill-opacity:1;">
  <use xlink:href="#glyph0-10" x="395.480469" y="338.19043"/>
</g>
<g style="fill:rgb(0%,0%,0%);fill-opacity:1;">
  <use xlink:href="#glyph0-11" x="439.472656" y="338.19043"/>
</g>
<g style="fill:rgb(0%,0%,0%);fill-opacity:1;">
  <use xlink:href="#glyph0-4" x="480.964844" y="338.19043"/>
  <use xlink:href="#glyph0-1" x="486.298828" y="338.19043"/>
</g>
<g style="fill:rgb(0%,0%,0%);fill-opacity:1;">
  <use xlink:href="#glyph0-4" x="524.960938" y="338.19043"/>
  <use xlink:href="#glyph0-4" x="530.294922" y="338.19043"/>
</g>
<g style="fill:rgb(0%,0%,0%);fill-opacity:1;">
  <use xlink:href="#glyph0-4" x="568.953125" y="338.19043"/>
  <use xlink:href="#glyph0-5" x="574.287109" y="338.19043"/>
</g>
<g style="fill:rgb(0%,0%,0%);fill-opacity:1;">
  <use xlink:href="#glyph0-4" x="612.945312" y="338.19043"/>
  <use xlink:href="#glyph0-6" x="618.279297" y="338.19043"/>
</g>
<g style="fill:rgb(0%,0%,0%);fill-opacity:1;">
  <use xlink:href="#glyph0-4" x="656.941406" y="338.19043"/>
  <use xlink:href="#glyph0-7" x="662.275391" y="338.19043"/>
</g>
<g style="fill:rgb(0%,0%,0%);fill-opacity:1;">
  <use xlink:href="#glyph1-1" x="14.412109" y="178.015625"/>
  <use xlink:href="#glyph1-2" x="14.412109" y="170.011719"/>
  <use xlink:href="#glyph1-3" x="14.412109" y="167.347656"/>
  <use xlink:href="#glyph1-4" x="14.412109" y="164.011719"/>
</g>
</g>
</svg>
