<?xml version="1.0" encoding="UTF-8"?>
<svg xmlns="http://www.w3.org/2000/svg" xmlns:xlink="http://www.w3.org/1999/xlink" width="720pt" height="360pt" viewBox="0 0 720 360" version="1.1">
<defs>
<g>
<symbol overflow="visible" id="glyph0-0">
<path style="stroke:none;" d=""/>
</symbol>
<symbol overflow="visible" id="glyph0-1">
<path style="stroke:none;" d="M 2.640625 -6.796875 C 2 -6.796875 1.421875 -6.53125 1.078125 -6.046875 C 0.640625 -5.453125 0.40625 -4.546875 0.40625 -3.296875 C 0.40625 -1 1.1875 0.21875 2.640625 0.21875 C 4.078125 0.21875 4.859375 -1 4.859375 -3.234375 C 4.859375 -4.5625 4.65625 -5.4375 4.203125 -6.046875 C 3.84375 -6.53125 3.28125 -6.796875 2.640625 -6.796875 Z M 2.640625 -6.046875 C 3.546875 -6.046875 4 -5.125 4 -3.3125 C 4 -1.375 3.5625 -0.484375 2.625 -0.484375 C 1.734375 -0.484375 1.28125 -1.421875 1.28125 -3.28125 C 1.28125 -5.140625 1.734375 -6.046875 2.640625 -6.046875 Z M 2.640625 -6.046875 "/>
</symbol>
<symbol overflow="visible" id="glyph0-2">
<path style="stroke:none;" d="M 1.828125 -1 L 0.828125 -1 L 0.828125 0 L 1.828125 0 Z M 1.828125 -1 "/>
</symbol>
<symbol overflow="visible" id="glyph0-3">
<path style="stroke:none;" d="M 4.5625 -6.796875 L 1.0625 -6.796875 L 0.546875 -3.09375 L 1.328125 -3.09375 C 1.71875 -3.5625 2.046875 -3.734375 2.578125 -3.734375 C 3.484375 -3.734375 4.0625 -3.109375 4.0625 -2.09375 C 4.0625 -1.125 3.484375 -0.53125 2.578125 -0.53125 C 1.828125 -0.53125 1.375 -0.90625 1.1875 -1.671875 L 0.328125 -1.671875 C 0.453125 -1.109375 0.546875 -0.84375 0.75 -0.59375 C 1.125 -0.078125 1.828125 0.21875 2.59375 0.21875 C 3.96875 0.21875 4.921875 -0.78125 4.921875 -2.21875 C 4.921875 -3.5625 4.03125 -4.484375 2.71875 -4.484375 C 2.25 -4.484375 1.859375 -4.359375 1.46875 -4.0625 L 1.734375 -5.96875 L 4.5625 -5.96875 Z M 4.5625 -6.796875 "/>
</symbol>
<symbol overflow="visible" id="glyph0-4">
<path style="stroke:none;" d="M 2.484375 -4.84375 L 2.484375 0 L 3.328125 0 L 3.328125 -6.796875 L 2.765625 -6.796875 C 2.46875 -5.75 2.28125 -5.609375 0.984375 -5.453125 L 0.984375 -4.84375 Z M 2.484375 -4.84375 "/>
</symbol>
<symbol overflow="visible" id="glyph0-5">
<path style="stroke:none;" d="M 4.859375 -0.828125 L 1.28125 -0.828125 C 1.359375 -1.390625 1.671875 -1.75 2.5 -2.234375 L 3.46875 -2.75 C 4.40625 -3.265625 4.90625 -3.96875 4.90625 -4.8125 C 4.90625 -5.375 4.671875 -5.90625 4.265625 -6.265625 C 3.859375 -6.625 3.375 -6.796875 2.71875 -6.796875 C 1.859375 -6.796875 1.21875 -6.5 0.84375 -5.921875 C 0.609375 -5.5625 0.5 -5.125 0.484375 -4.4375 L 1.328125 -4.4375 C 1.359375 -4.90625 1.40625 -5.1875 1.53125 -5.40625 C 1.75 -5.8125 2.1875 -6.0625 2.703125 -6.0625 C 3.46875 -6.0625 4.03125 -5.515625 4.03125 -4.78125 C 4.03125 -4.25 3.71875 -3.796875 3.125 -3.4375 L 2.234375 -2.9375 C 0.8125 -2.140625 0.40625 -1.5 0.328125 0 L 4.859375 0 Z M 4.859375 -0.828125 "/>
</symbol>
<symbol overflow="visible" id="glyph0-6">
<path style="stroke:none;" d="M 2.125 -3.125 L 2.578125 -3.125 C 3.515625 -3.125 3.984375 -2.703125 3.984375 -1.890625 C 3.984375 -1.03125 3.46875 -0.53125 2.578125 -0.53125 C 1.65625 -0.53125 1.203125 -0.984375 1.15625 -1.96875 L 0.3125 -1.96875 C 0.34375 -1.421875 0.4375 -1.078125 0.609375 -0.765625 C 0.953125 -0.109375 1.625 0.21875 2.546875 0.21875 C 3.953125 0.21875 4.859375 -0.609375 4.859375 -1.90625 C 4.859375 -2.765625 4.515625 -3.25 3.703125 -3.515625 C 4.34375 -3.765625 4.65625 -4.25 4.65625 -4.9375 C 4.65625 -6.109375 3.875 -6.796875 2.578125 -6.796875 C 1.203125 -6.796875 0.484375 -6.046875 0.453125 -4.609375 L 1.296875 -4.609375 C 1.3125 -5.015625 1.34375 -5.25 1.453125 -5.453125 C 1.640625 -5.828125 2.0625 -6.0625 2.59375 -6.0625 C 3.34375 -6.0625 3.796875 -5.625 3.796875 -4.90625 C 3.796875 -4.421875 3.609375 -4.140625 3.25 -3.984375 C 3.015625 -3.890625 2.71875 -3.84375 2.125 -3.84375 Z M 2.125 -3.125 "/>
</symbol>
<symbol overflow="visible" id="glyph0-7">
<path style="stroke:none;" d="M 3.140625 -1.625 L 3.140625 0 L 3.984375 0 L 3.984375 -1.625 L 4.984375 -1.625 L 4.984375 -2.390625 L 3.984375 -2.390625 L 3.984375 -6.796875 L 3.359375 -6.796875 L 0.265625 -2.515625 L 0.265625 -1.625 Z M 3.140625 -2.390625 L 1 -2.390625 L 3.140625 -5.359375 Z M 3.140625 -2.390625 "/>
</symbol>
<symbol overflow="visible" id="glyph0-8">
<path style="stroke:none;" d="M 4.78125 -5.03125 C 4.609375 -6.140625 3.890625 -6.796875 2.84375 -6.796875 C 2.09375 -6.796875 1.421875 -6.4375 1.03125 -5.828125 C 0.609375 -5.171875 0.40625 -4.34375 0.40625 -3.09375 C 0.40625 -1.953125 0.578125 -1.234375 0.984375 -0.625 C 1.359375 -0.078125 1.953125 0.21875 2.703125 0.21875 C 3.984375 0.21875 4.921875 -0.734375 4.921875 -2.078125 C 4.921875 -3.34375 4.0625 -4.234375 2.84375 -4.234375 C 2.171875 -4.234375 1.640625 -3.96875 1.28125 -3.46875 C 1.28125 -5.125 1.828125 -6.046875 2.796875 -6.046875 C 3.390625 -6.046875 3.796875 -5.671875 3.9375 -5.03125 Z M 2.734375 -3.484375 C 3.546875 -3.484375 4.0625 -2.921875 4.0625 -2 C 4.0625 -1.15625 3.484375 -0.53125 2.703125 -0.53125 C 1.921875 -0.53125 1.328125 -1.1875 1.328125 -2.046875 C 1.328125 -2.890625 1.90625 -3.484375 2.734375 -3.484375 Z M 2.734375 -3.484375 "/>
</symbol>
<symbol overflow="visible" id="glyph0-9">
<path style="stroke:none;" d="M 4.984375 -6.796875 L 0.4375 -6.796875 L 0.4375 -5.96875 L 4.109375 -5.96875 C 2.5 -3.65625 1.828125 -2.234375 1.328125 0 L 2.21875 0 C 2.59375 -2.171875 3.453125 -4.046875 4.984375 -6.09375 Z M 4.984375 -6.796875 "/>
</symbol>
<symbol overflow="visible" id="glyph0-10">
<path style="stroke:none;" d="M 3.75 -3.578125 C 4.453125 -4 4.6875 -4.34375 4.6875 -4.984375 C 4.6875 -6.046875 3.84375 -6.796875 2.640625 -6.796875 C 1.4375 -6.796875 0.59375 -6.046875 0.59375 -4.984375 C 0.59375 -4.359375 0.828125 -4.015625 1.515625 -3.578125 C 0.734375 -3.203125 0.359375 -2.640625 0.359375 -1.890625 C 0.359375 -0.640625 1.296875 0.21875 2.640625 0.21875 C 3.984375 0.21875 4.921875 -0.640625 4.921875 -1.875 C 4.921875 -2.640625 4.53125 -3.203125 3.75 -3.578125 Z M 2.640625 -6.046875 C 3.359375 -6.046875 3.8125 -5.625 3.8125 -4.96875 C 3.8125 -4.34375 3.34375 -3.921875 2.640625 -3.921875 C 1.921875 -3.921875 1.453125 -4.34375 1.453125 -4.984375 C 1.453125 -5.625 1.921875 -6.046875 2.640625 -6.046875 Z M 2.640625 -3.203125 C 3.484375 -3.203125 4.0625 -2.671875 4.0625 -1.875 C 4.0625 -1.0625 3.484375 -0.53125 2.625 -0.53125 C 1.796875 -0.53125 1.21875 -1.078125 1.21875 -1.875 C 1.21875 -2.671875 1.796875 -3.203125 2.640625 -3.203125 Z M 2.640625 -3.203125 "/>
</symbol>
<symbol overflow="visible" id="glyph0-11">
<path style="stroke:none;" d="M 0.515625 -1.546875 C 0.671875 -0.4375 1.40625 0.21875 2.4375 0.21875 C 3.1875 0.21875 3.859375 -0.140625 4.265625 -0.75 C 4.6875 -1.40625 4.890625 -2.25 4.890625 -3.484375 C 4.890625 -4.625 4.703125 -5.359375 4.3125 -5.953125 C 3.9375 -6.5 3.34375 -6.796875 2.59375 -6.796875 C 1.296875 -6.796875 0.359375 -5.84375 0.359375 -4.515625 C 0.359375 -3.25 1.234375 -2.34375 2.453125 -2.34375 C 3.09375 -2.34375 3.5625 -2.578125 4.015625 -3.109375 C 4 -1.453125 3.46875 -0.53125 2.5 -0.53125 C 1.90625 -0.53125 1.484375 -0.90625 1.359375 -1.546875 Z M 2.578125 -6.0625 C 3.375 -6.0625 3.96875 -5.40625 3.96875 -4.53125 C 3.96875 -3.6875 3.375 -3.09375 2.546875 -3.09375 C 1.734375 -3.09375 1.234375 -3.671875 1.234375 -4.578125 C 1.234375 -5.4375 1.796875 -6.0625 2.578125 -6.0625 Z M 2.578125 -6.0625 "/>
</symbol>
<symbol overflow="visible" id="glyph1-0">
<path style="stroke:none;" d=""/>
</symbol>
<symbol overflow="visible" id="glyph1-1">
<path style="stroke:none;" d="M 0 -0.953125 L 0 -4.890625 C 0 -5.71875 -0.234375 -6.34375 -0.734375 -6.796875 C -1.1875 -7.234375 -1.8125 -7.46875 -2.5 -7.46875 C -3.546875 -7.46875 -4.1875 -7 -4.625 -5.875 C -4.984375 -6.671875 -5.640625 -7.09375 -6.53125 -7.09375 C -7.15625 -7.09375 -7.734375 -6.859375 -8.140625 -6.390625 C -8.5625 -5.9375 -8.75 -5.34375 -8.75 -4.5 L -8.75 -0.953125 Z M -4.984375 -2.0625 L -7.765625 -2.0625 L -7.765625 -4.21875 C -7.765625 -4.84375 -7.6875 -5.203125 -7.453125 -5.5 C -7.21875 -5.8125 -6.859375 -5.96875 -6.375 -5.96875 C -5.90625 -5.96875 -5.53125 -5.8125 -5.296875 -5.5 C -5.0625 -5.203125 -4.984375 -4.84375 -4.984375 -4.21875 Z M -0.984375 -2.0625 L -4 -2.0625 L -4 -4.78125 C -4 -5.328125 -3.859375 -5.6875 -3.578125 -5.953125 C -3.296875 -6.21875 -2.921875 -6.359375 -2.484375 -6.359375 C -2.0625 -6.359375 -1.6875 -6.21875 -1.40625 -5.953125 C -1.109375 -5.6875 -0.984375 -5.328125 -0.984375 -4.78125 Z M -0.984375 -2.0625 "/>
</symbol>
<symbol overflow="visible" id="glyph1-2">
<path style="stroke:none;" d="M -6.28125 -1.796875 L -6.28125 -0.796875 L 0 -0.796875 L 0 -1.796875 Z M -8.75 -1.796875 L -8.75 -0.796875 L -7.484375 -0.796875 L -7.484375 -1.796875 Z M -8.75 -1.796875 "/>
</symbol>
<symbol overflow="visible" id="glyph1-3">
<path style="stroke:none;" d="M -6.28125 -3.046875 L -6.28125 -2.015625 L -8.015625 -2.015625 L -8.015625 -1.015625 L -6.28125 -1.015625 L -6.28125 -0.171875 L -5.46875 -0.171875 L -5.46875 -1.015625 L -0.71875 -1.015625 C -0.078125 -1.015625 0.28125 -1.453125 0.28125 -2.234375 C 0.28125 -2.46875 0.25 -2.71875 0.1875 -3.046875 L -0.640625 -3.046875 C -0.609375 -2.921875 -0.59375 -2.765625 -0.59375 -2.5625 C -0.59375 -2.140625 -0.71875 -2.015625 -1.15625 -2.015625 L -5.46875 -2.015625 L -5.46875 -3.046875 Z M -6.28125 -3.046875 "/>
</symbol>
<symbol overflow="visible" id="glyph1-4">
<path style="stroke:none;" d="M -4.53125 -5.25 C -5.765625 -5.25 -6.46875 -4.421875 -6.46875 -2.96875 C -6.46875 -1.515625 -5.71875 -0.5625 -4.546875 -0.5625 C -3.5625 -0.5625 -3.09375 -1.0625 -2.734375 -2.5625 L -2.515625 -3.484375 C -2.34375 -4.1875 -2.09375 -4.46875 -1.625 -4.46875 C -1.046875 -4.46875 -0.640625 -3.875 -0.640625 -3 C -0.640625 -2.453125 -0.796875 -2 -1.0625 -1.75 C -1.25 -1.59375 -1.421875 -1.53125 -1.875 -1.46875 L -1.875 -0.40625 C -0.421875 -0.453125 0.28125 -1.265625 0.28125 -2.921875 C 0.28125 -4.5 -0.5 -5.515625 -1.71875 -5.515625 C -2.65625 -5.515625 -3.171875 -4.984375 -3.46875 -3.734375 L -3.703125 -2.765625 C -3.890625 -1.953125 -4.15625 -1.609375 -4.59375 -1.609375 C -5.171875 -1.609375 -5.546875 -2.125 -5.546875 -2.9375 C -5.546875 -3.75 -5.203125 -4.171875 -4.53125 -4.203125 Z M -4.53125 -5.25 "/>
</symbol>
</g>
</defs>
<g id="surface44038">
<rect x="0" y="0" width="720" height="360" style="fill:rgb(100%,100%,100%);fill-opacity:1;stroke:none;"/>
<path style=" stroke:none;fill-rule:nonzero;fill:rgb(96.862745%,70.196078%,16.862745%);fill-opacity:1;" d="M 69.628906 146.460938 L 69.683594 146.191406 L 69.683594 140.828125 L 69.902344 128.757812 L 70.453125 112.128906 L 71.167969 98.449219 L 71.933594 87.71875 L 72.429688 82.085938 L 73.253906 74.039062 L 73.964844 68.140625 L 75.777344 56.070312 L 78.085938 44.804688 L 79.347656 39.976562 L 80.773438 35.414062 L 82.804688 30.320312 L 83.738281 28.441406 L 86.59375 24.148438 L 89.832031 21.46875 L 93.402344 20.664062 L 95.050781 20.929688 L 97.300781 22.003906 L 100.375 24.953125 L 102.132812 27.636719 L 103.503906 30.320312 L 104.933594 33.804688 L 106.6875 39.171875 L 108.335938 45.609375 L 109.652344 52.046875 L 110.972656 60.09375 L 112.070312 68.675781 L 113.003906 78.0625 L 113.828125 89.328125 L 114.320312 98.714844 L 114.648438 108.105469 L 107.019531 108.105469 L 106.578125 98.714844 L 106.085938 91.476562 L 105.261719 82.625 L 104.4375 76.1875 L 103.613281 71.089844 L 102.078125 64.117188 L 100.757812 59.824219 L 99.113281 56.070312 L 97.519531 53.65625 L 95.707031 52.046875 L 94.609375 51.507812 L 91.699219 51.507812 L 89.066406 53.386719 L 87.527344 55.53125 L 86.429688 57.679688 L 84.890625 61.703125 L 83.960938 64.921875 L 83.410156 67.066406 L 81.761719 75.382812 L 80.664062 82.890625 L 80.0625 87.988281 L 79.292969 96.035156 L 78.742188 103.277344 L 78.140625 114.003906 L 77.808594 122.050781 L 77.371094 140.292969 L 77.316406 188.574219 L 77.480469 198.765625 L 77.808594 209.761719 L 78.25 219.417969 L 78.90625 229.609375 L 79.566406 237.390625 L 80.71875 247.851562 L 81.707031 254.824219 L 82.476562 259.382812 L 83.960938 266.625 L 84.5625 269.039062 L 85.992188 273.867188 L 87.472656 277.625 L 89.285156 280.84375 L 90.65625 282.453125 L 92.855469 283.792969 L 95.652344 283.792969 L 98.949219 282.183594 L 101.035156 280.039062 L 102.460938 277.890625 L 103.394531 276.015625 L 104.546875 273.0625 L 105.371094 270.382812 L 106.140625 267.429688 L 107.074219 262.871094 L 107.074219 198.765625 L 93.511719 198.496094 L 93.511719 168.457031 L 114.59375 168.1875 L 114.648438 273.0625 L 113.496094 280.304688 L 112.070312 287.28125 L 110.699219 292.644531 L 109.269531 297.203125 L 107.238281 302.300781 L 105.589844 305.519531 L 103.066406 309.273438 L 100.757812 311.6875 L 98.34375 313.296875 L 96.203125 314.101562 L 93.675781 314.371094 L 91.425781 313.835938 L 89.011719 312.226562 L 87.089844 310.078125 L 85.332031 307.398438 L 83.574219 303.910156 L 81.378906 298.277344 L 79.953125 293.71875 L 78.46875 288.085938 L 76.988281 281.378906 L 75.667969 274.136719 L 74.789062 268.503906 L 73.910156 262.066406 L 72.976562 254.019531 L 72.101562 244.898438 L 71.441406 236.585938 L 70.835938 227.195312 L 70.398438 218.34375 L 69.957031 206.277344 L 69.738281 196.621094 L 69.628906 188.304688 Z M 69.628906 146.460938 "/>
<path style=" stroke:none;fill-rule:nonzero;fill:rgb(14.509804%,36.078431%,60%);fill-opacity:1;" d="M 117.019531 148.457031 L 117.074219 148.1875 L 117.074219 141.742188 L 117.238281 131.542969 L 117.625 118.65625 L 118.007812 109.796875 L 118.996094 93.957031 L 120.367188 78.652344 L 121.796875 66.839844 L 122.839844 59.859375 L 123.773438 54.492188 L 125.914062 44.558594 L 127.285156 39.457031 L 128.769531 34.890625 L 130.582031 30.328125 L 131.898438 27.644531 L 134.863281 23.347656 L 137.058594 21.46875 L 138.761719 20.664062 L 142.441406 20.664062 L 144.636719 21.738281 L 146.230469 23.078125 L 147.984375 25.226562 L 149.46875 27.644531 L 152.046875 33.550781 L 154.355469 41.066406 L 155.398438 45.363281 L 157.042969 53.683594 L 158.308594 61.738281 L 159.1875 68.71875 L 160.175781 78.652344 L 161.050781 90.734375 L 161.710938 104.425781 L 162.039062 115.96875 L 154.355469 115.96875 L 153.96875 105.230469 L 153.53125 96.910156 L 152.707031 85.902344 L 151.882812 78.117188 L 150.730469 70.332031 L 149.6875 65.230469 L 148.261719 60.128906 L 146.996094 56.90625 L 145.679688 54.492188 L 144.417969 52.878906 L 142 51.269531 L 139.199219 51.269531 L 138.15625 51.804688 L 136.015625 53.953125 L 134.863281 55.832031 L 133.214844 59.589844 L 132.0625 63.082031 L 130.691406 68.449219 L 129.757812 73.015625 L 128.605469 79.996094 L 127.78125 86.171875 L 126.847656 95.03125 L 126.296875 101.742188 L 125.804688 109.257812 L 125.367188 118.117188 L 125.035156 127.515625 L 124.816406 137.449219 L 124.707031 147.113281 L 124.707031 188.726562 L 124.816406 198.390625 L 125.089844 209.667969 L 125.804688 226.042969 L 126.847656 240.273438 L 128.054688 251.546875 L 129.207031 259.601562 L 129.867188 263.359375 L 130.746094 267.65625 L 132.117188 273.027344 L 134.09375 278.394531 L 135.246094 280.542969 L 137.003906 282.691406 L 138.816406 283.765625 L 141.234375 283.765625 L 143.375 282.691406 L 144.800781 281.347656 L 146.285156 279.199219 L 148.316406 274.636719 L 149.578125 270.339844 L 150.675781 265.242188 L 151.5 260.140625 L 152.046875 255.84375 L 152.871094 247.519531 L 153.53125 238.394531 L 154.023438 228.996094 L 154.355469 219.867188 L 162.039062 219.867188 L 161.710938 230.609375 L 161.21875 241.078125 L 160.722656 248.863281 L 159.953125 258.261719 L 159.074219 266.582031 L 157.8125 275.980469 L 156.769531 282.152344 L 155.398438 288.867188 L 154.136719 293.96875 L 152.761719 298.53125 L 150.730469 303.898438 L 149.414062 306.585938 L 147.984375 309 L 146.285156 311.148438 L 144.140625 313.027344 L 141.835938 314.101562 L 139.695312 314.371094 L 137.390625 313.832031 L 135.6875 312.761719 L 133.4375 310.34375 L 130.636719 305.511719 L 128.605469 300.410156 L 127.011719 295.308594 L 125.640625 289.941406 L 124.101562 282.691406 L 122.125 270.878906 L 120.917969 261.75 L 120.09375 254.234375 L 119.160156 243.761719 L 118.503906 234.367188 L 117.734375 219.332031 L 117.183594 200.269531 L 117.019531 185.503906 Z M 117.019531 148.457031 "/>
<path style=" stroke:none;fill-rule:nonzero;fill:rgb(96.862745%,70.196078%,16.862745%);fill-opacity:1;" d="M 164.410156 146.460938 L 164.464844 146.191406 L 164.464844 140.828125 L 164.683594 128.757812 L 165.234375 112.128906 L 165.949219 98.449219 L 166.714844 87.71875 L 167.210938 82.085938 L 168.035156 74.039062 L 168.746094 68.140625 L 170.558594 56.070312 L 172.867188 44.804688 L 174.128906 39.976562 L 175.554688 35.414062 L 177.585938 30.320312 L 178.519531 28.441406 L 181.375 24.148438 L 184.613281 21.46875 L 188.183594 20.664062 L 189.832031 20.929688 L 192.082031 22.003906 L 195.15625 24.953125 L 196.914062 27.636719 L 198.285156 30.320312 L 199.714844 33.804688 L 201.46875 39.171875 L 203.117188 45.609375 L 204.433594 52.046875 L 205.753906 60.09375 L 206.851562 68.675781 L 207.785156 78.0625 L 208.609375 89.328125 L 209.101562 98.714844 L 209.429688 108.105469 L 201.800781 108.105469 L 201.359375 98.714844 L 200.867188 91.476562 L 200.042969 82.625 L 199.21875 76.1875 L 198.394531 71.089844 L 196.859375 64.117188 L 195.539062 59.824219 L 193.894531 56.070312 L 192.300781 53.65625 L 190.488281 52.046875 L 189.390625 51.507812 L 186.480469 51.507812 L 183.847656 53.386719 L 182.308594 55.53125 L 181.210938 57.679688 L 179.671875 61.703125 L 178.742188 64.921875 L 178.191406 67.066406 L 176.542969 75.382812 L 175.445312 82.890625 L 174.84375 87.988281 L 174.074219 96.035156 L 173.523438 103.277344 L 172.921875 114.003906 L 172.589844 122.050781 L 172.152344 140.292969 L 172.097656 188.574219 L 172.261719 198.765625 L 172.589844 209.761719 L 173.03125 219.417969 L 173.6875 229.609375 L 174.347656 237.390625 L 175.5 247.851562 L 176.488281 254.824219 L 177.257812 259.382812 L 178.742188 266.625 L 179.34375 269.039062 L 180.773438 273.867188 L 182.253906 277.625 L 184.066406 280.84375 L 185.4375 282.453125 L 187.632812 283.792969 L 190.433594 283.792969 L 193.730469 282.183594 L 195.816406 280.039062 L 197.242188 277.890625 L 198.175781 276.015625 L 199.328125 273.0625 L 200.152344 270.382812 L 200.921875 267.429688 L 201.855469 262.871094 L 201.855469 198.765625 L 188.292969 198.496094 L 188.292969 168.457031 L 209.375 168.1875 L 209.429688 273.0625 L 208.277344 280.304688 L 206.851562 287.28125 L 205.476562 292.644531 L 204.050781 297.203125 L 202.019531 302.300781 L 200.371094 305.519531 L 197.847656 309.273438 L 195.539062 311.6875 L 193.125 313.296875 L 190.984375 314.101562 L 188.457031 314.371094 L 186.207031 313.835938 L 183.792969 312.226562 L 181.871094 310.078125 L 180.113281 307.398438 L 178.355469 303.910156 L 176.160156 298.277344 L 174.730469 293.71875 L 173.25 288.085938 L 171.765625 281.378906 L 170.449219 274.136719 L 169.570312 268.503906 L 168.691406 262.066406 L 167.757812 254.019531 L 166.882812 244.898438 L 166.222656 236.585938 L 165.617188 227.195312 L 165.179688 218.34375 L 164.738281 206.277344 L 164.519531 196.621094 L 164.410156 188.304688 Z M 164.410156 146.460938 "/>
<path style=" stroke:none;fill-rule:nonzero;fill:rgb(6.27451%,58.823529%,28.235294%);fill-opacity:1;" d="M 211.800781 314.367188 L 211.847656 314.367188 L 231.328125 311.949219 L 237.246094 311.949219 L 256.820312 314.371094 L 249.945312 314.371094 L 245.039062 313.738281 L 223.539062 313.738281 L 218.726562 314.367188 L 211.800781 314.367188 L 225.605469 313.476562 L 243.066406 313.476562 L 234.359375 312.34375 L 234.261719 312.34375 L 234.167969 312.347656 L 225.558594 313.476562 L 225.605469 313.476562 Z M 211.800781 314.367188 "/>
<path style=" stroke:none;fill-rule:nonzero;fill:rgb(14.509804%,36.078431%,60%);fill-opacity:1;" d="M 211.800781 267.195312 L 211.855469 267.167969 L 211.855469 266.488281 L 212.019531 265.410156 L 212.40625 264.050781 L 212.789062 263.113281 L 213.777344 261.441406 L 215.148438 259.824219 L 216.578125 258.578125 L 217.621094 257.839844 L 218.554688 257.273438 L 220.695312 256.226562 L 222.066406 255.6875 L 223.550781 255.203125 L 225.363281 254.722656 L 226.679688 254.4375 L 229.644531 253.984375 L 231.839844 253.785156 L 233.542969 253.703125 L 237.222656 253.703125 L 239.417969 253.816406 L 241.011719 253.957031 L 242.765625 254.183594 L 244.25 254.4375 L 246.828125 255.0625 L 249.136719 255.855469 L 250.179688 256.308594 L 251.824219 257.1875 L 253.089844 258.039062 L 253.96875 258.777344 L 254.957031 259.824219 L 255.832031 261.101562 L 256.492188 262.546875 L 256.820312 263.765625 L 249.136719 263.765625 L 248.75 262.632812 L 248.3125 261.753906 L 247.488281 260.589844 L 246.664062 259.769531 L 245.511719 258.945312 L 244.46875 258.40625 L 243.042969 257.871094 L 241.777344 257.53125 L 240.460938 257.273438 L 239.199219 257.105469 L 236.78125 256.933594 L 233.980469 256.933594 L 232.9375 256.992188 L 230.796875 257.21875 L 229.644531 257.414062 L 227.996094 257.8125 L 226.84375 258.179688 L 225.472656 258.75 L 224.539062 259.230469 L 223.386719 259.96875 L 222.5625 260.621094 L 221.628906 261.554688 L 221.078125 262.265625 L 220.585938 263.058594 L 220.144531 263.992188 L 219.816406 264.984375 L 219.597656 266.035156 L 219.488281 267.054688 L 219.488281 271.449219 L 219.597656 272.46875 L 219.871094 273.660156 L 220.585938 275.390625 L 221.628906 276.894531 L 222.835938 278.082031 L 223.988281 278.933594 L 224.648438 279.332031 L 225.527344 279.785156 L 226.898438 280.351562 L 228.875 280.917969 L 230.027344 281.144531 L 231.785156 281.371094 L 233.597656 281.484375 L 236.011719 281.484375 L 238.15625 281.371094 L 239.582031 281.230469 L 241.066406 281.003906 L 243.097656 280.523438 L 244.359375 280.066406 L 245.457031 279.527344 L 246.28125 278.992188 L 246.828125 278.535156 L 247.652344 277.65625 L 248.3125 276.695312 L 248.804688 275.703125 L 249.136719 274.738281 L 256.820312 274.738281 L 256.492188 275.871094 L 256 276.976562 L 255.503906 277.800781 L 254.734375 278.792969 L 253.855469 279.671875 L 252.59375 280.664062 L 251.550781 281.316406 L 250.179688 282.023438 L 248.914062 282.5625 L 247.542969 283.042969 L 245.511719 283.613281 L 244.195312 283.894531 L 242.765625 284.152344 L 241.066406 284.378906 L 238.921875 284.574219 L 236.617188 284.6875 L 234.476562 284.71875 L 232.171875 284.660156 L 230.46875 284.546875 L 228.21875 284.292969 L 225.417969 283.78125 L 223.386719 283.242188 L 221.792969 282.703125 L 220.421875 282.136719 L 218.882812 281.371094 L 216.90625 280.125 L 215.699219 279.160156 L 214.875 278.367188 L 213.941406 277.261719 L 213.285156 276.269531 L 212.515625 274.679688 L 211.964844 272.667969 L 211.800781 271.109375 Z M 211.800781 267.195312 "/>
<path style=" stroke:none;fill-rule:nonzero;fill:rgb(96.862745%,70.196078%,16.862745%);fill-opacity:1;" d="M 211.800781 294.011719 L 211.855469 293.992188 L 211.855469 293.648438 L 212.074219 292.867188 L 212.625 291.796875 L 213.339844 290.914062 L 214.105469 290.222656 L 214.601562 289.859375 L 215.425781 289.339844 L 216.136719 288.957031 L 217.949219 288.179688 L 220.257812 287.453125 L 221.519531 287.140625 L 222.945312 286.847656 L 224.976562 286.519531 L 225.910156 286.398438 L 228.765625 286.121094 L 232.003906 285.949219 L 235.574219 285.898438 L 237.222656 285.914062 L 239.472656 285.984375 L 242.546875 286.171875 L 244.304688 286.347656 L 245.675781 286.519531 L 247.105469 286.746094 L 248.859375 287.089844 L 250.507812 287.503906 L 251.824219 287.921875 L 253.144531 288.441406 L 254.242188 288.992188 L 255.175781 289.597656 L 256 290.324219 L 256.492188 290.929688 L 256.820312 291.535156 L 249.191406 291.535156 L 248.75 290.929688 L 248.257812 290.464844 L 247.433594 289.894531 L 246.609375 289.476562 L 245.785156 289.148438 L 244.25 288.699219 L 242.929688 288.421875 L 241.285156 288.179688 L 239.691406 288.023438 L 237.878906 287.921875 L 236.78125 287.886719 L 233.871094 287.886719 L 231.238281 288.007812 L 229.699219 288.144531 L 228.601562 288.285156 L 227.0625 288.542969 L 226.132812 288.75 L 225.582031 288.890625 L 223.933594 289.425781 L 222.835938 289.910156 L 222.234375 290.238281 L 221.464844 290.757812 L 220.914062 291.226562 L 220.3125 291.917969 L 219.980469 292.4375 L 219.542969 293.613281 L 219.488281 296.726562 L 219.652344 297.382812 L 219.980469 298.09375 L 220.421875 298.714844 L 221.078125 299.371094 L 221.738281 299.875 L 222.890625 300.550781 L 223.878906 301 L 224.648438 301.292969 L 226.132812 301.761719 L 226.734375 301.914062 L 228.164062 302.226562 L 229.644531 302.46875 L 231.457031 302.675781 L 232.828125 302.78125 L 235.023438 302.867188 L 237.824219 302.867188 L 241.121094 302.761719 L 243.207031 302.625 L 244.632812 302.488281 L 245.566406 302.367188 L 246.71875 302.175781 L 247.542969 302.003906 L 248.3125 301.8125 L 249.246094 301.519531 L 249.246094 297.382812 L 235.683594 297.367188 L 235.683594 295.429688 L 256.765625 295.410156 L 256.820312 302.175781 L 255.667969 302.640625 L 254.242188 303.09375 L 252.867188 303.4375 L 251.441406 303.730469 L 249.410156 304.0625 L 247.761719 304.269531 L 245.238281 304.511719 L 242.929688 304.667969 L 240.515625 304.769531 L 238.375 304.820312 L 235.847656 304.839844 L 233.597656 304.804688 L 231.183594 304.699219 L 229.261719 304.5625 L 227.503906 304.390625 L 225.746094 304.164062 L 223.550781 303.800781 L 222.121094 303.507812 L 220.640625 303.144531 L 219.15625 302.710938 L 217.839844 302.246094 L 216.960938 301.882812 L 216.082031 301.464844 L 215.148438 300.945312 L 214.273438 300.359375 L 213.613281 299.824219 L 213.007812 299.21875 L 212.570312 298.644531 L 212.128906 297.867188 L 211.910156 297.246094 L 211.800781 296.707031 Z M 211.800781 294.011719 "/>
<path style=" stroke:none;fill-rule:nonzero;fill:rgb(83.921569%,15.686275%,22.352941%);fill-opacity:1;" d="M 211.800781 306.019531 L 256.820312 306.019531 L 256.820312 306.527344 L 238.058594 306.53125 L 238.058594 310.769531 L 230.507812 310.769531 L 230.507812 306.535156 L 230.398438 306.527344 L 211.800781 306.527344 Z M 211.800781 306.019531 "/>
<path style=" stroke:none;fill-rule:nonzero;fill:rgb(14.509804%,36.078431%,60%);fill-opacity:1;" d="M 259.191406 148.457031 L 259.246094 148.1875 L 259.246094 141.742188 L 259.410156 131.542969 L 259.796875 118.65625 L 260.179688 109.796875 L 261.167969 93.957031 L 262.539062 78.652344 L 263.96875 66.839844 L 265.011719 59.859375 L 265.945312 54.492188 L 268.085938 44.558594 L 269.457031 39.457031 L 270.941406 34.890625 L 272.753906 30.328125 L 274.070312 27.644531 L 277.035156 23.347656 L 279.230469 21.46875 L 280.933594 20.664062 L 284.613281 20.664062 L 286.808594 21.738281 L 288.398438 23.078125 L 290.15625 25.226562 L 291.640625 27.644531 L 294.21875 33.550781 L 296.527344 41.066406 L 297.570312 45.363281 L 299.214844 53.683594 L 300.480469 61.738281 L 301.359375 68.71875 L 302.347656 78.652344 L 303.222656 90.734375 L 303.882812 104.425781 L 304.210938 115.96875 L 296.527344 115.96875 L 296.140625 105.230469 L 295.703125 96.910156 L 294.878906 85.902344 L 294.054688 78.117188 L 292.902344 70.332031 L 291.859375 65.230469 L 290.433594 60.128906 L 289.167969 56.90625 L 287.851562 54.492188 L 286.589844 52.878906 L 284.171875 51.269531 L 281.371094 51.269531 L 280.328125 51.804688 L 278.1875 53.953125 L 277.035156 55.832031 L 275.386719 59.589844 L 274.234375 63.082031 L 272.863281 68.449219 L 271.929688 73.015625 L 270.777344 79.996094 L 269.953125 86.171875 L 269.019531 95.03125 L 268.46875 101.742188 L 267.976562 109.257812 L 267.535156 118.117188 L 267.207031 127.515625 L 266.988281 137.449219 L 266.878906 147.113281 L 266.878906 188.726562 L 266.988281 198.390625 L 267.261719 209.667969 L 267.976562 226.042969 L 269.019531 240.273438 L 270.226562 251.546875 L 271.378906 259.601562 L 272.039062 263.359375 L 272.917969 267.65625 L 274.289062 273.027344 L 276.265625 278.394531 L 277.417969 280.542969 L 279.175781 282.691406 L 280.988281 283.765625 L 283.402344 283.765625 L 285.546875 282.691406 L 286.972656 281.347656 L 288.457031 279.199219 L 290.488281 274.636719 L 291.75 270.339844 L 292.847656 265.242188 L 293.671875 260.140625 L 294.21875 255.84375 L 295.042969 247.519531 L 295.703125 238.394531 L 296.195312 228.996094 L 296.527344 219.867188 L 304.210938 219.867188 L 303.882812 230.609375 L 303.390625 241.078125 L 302.894531 248.863281 L 302.125 258.261719 L 301.246094 266.582031 L 299.984375 275.980469 L 298.941406 282.152344 L 297.570312 288.867188 L 296.304688 293.96875 L 294.933594 298.53125 L 292.902344 303.898438 L 291.585938 306.585938 L 290.15625 309 L 288.457031 311.148438 L 286.3125 313.027344 L 284.007812 314.101562 L 281.867188 314.371094 L 279.5625 313.832031 L 277.859375 312.761719 L 275.609375 310.34375 L 272.808594 305.511719 L 270.777344 300.410156 L 269.183594 295.308594 L 267.8125 289.941406 L 266.273438 282.691406 L 264.296875 270.878906 L 263.089844 261.75 L 262.265625 254.234375 L 261.332031 243.761719 L 260.675781 234.367188 L 259.90625 219.332031 L 259.355469 200.269531 L 259.191406 185.503906 Z M 259.191406 148.457031 "/>
<path style=" stroke:none;fill-rule:nonzero;fill:rgb(6.27451%,58.823529%,28.235294%);fill-opacity:1;" d="M 306.582031 302.769531 L 306.628906 302.746094 L 326.109375 280.578125 L 332.027344 280.578125 L 351.601562 302.789062 L 344.726562 302.789062 L 339.820312 296.992188 L 318.320312 296.992188 L 313.507812 302.769531 L 306.582031 302.769531 L 320.386719 294.59375 L 337.847656 294.570312 L 329.140625 284.207031 L 329.042969 284.1875 L 328.949219 284.25 L 320.339844 294.570312 L 320.386719 294.59375 Z M 306.582031 302.769531 "/>
<path style=" stroke:none;fill-rule:nonzero;fill:rgb(14.509804%,36.078431%,60%);fill-opacity:1;" d="M 306.582031 262.363281 L 306.636719 262.335938 L 306.636719 261.671875 L 306.800781 260.625 L 307.1875 259.300781 L 307.570312 258.390625 L 308.558594 256.765625 L 309.929688 255.195312 L 311.359375 253.980469 L 312.402344 253.265625 L 313.335938 252.714844 L 315.476562 251.691406 L 316.847656 251.167969 L 318.332031 250.699219 L 320.144531 250.230469 L 321.460938 249.957031 L 324.425781 249.515625 L 326.621094 249.320312 L 328.324219 249.238281 L 332.003906 249.238281 L 334.199219 249.351562 L 335.789062 249.488281 L 337.546875 249.707031 L 339.03125 249.957031 L 341.609375 250.5625 L 343.917969 251.335938 L 344.960938 251.777344 L 346.605469 252.628906 L 347.871094 253.457031 L 348.75 254.175781 L 349.738281 255.195312 L 350.613281 256.433594 L 351.273438 257.839844 L 351.601562 259.027344 L 343.917969 259.027344 L 343.53125 257.921875 L 343.09375 257.070312 L 342.269531 255.9375 L 341.445312 255.140625 L 340.292969 254.339844 L 339.25 253.816406 L 337.824219 253.292969 L 336.558594 252.960938 L 335.242188 252.714844 L 333.980469 252.546875 L 331.5625 252.382812 L 328.761719 252.382812 L 327.71875 252.4375 L 325.578125 252.65625 L 324.425781 252.851562 L 322.777344 253.238281 L 321.625 253.59375 L 320.253906 254.148438 L 319.320312 254.617188 L 318.167969 255.332031 L 317.34375 255.964844 L 316.410156 256.875 L 315.859375 257.566406 L 315.367188 258.335938 L 314.925781 259.246094 L 314.597656 260.210938 L 314.378906 261.230469 L 314.269531 262.222656 L 314.269531 266.496094 L 314.378906 267.488281 L 314.652344 268.648438 L 315.367188 270.328125 L 316.410156 271.789062 L 317.617188 272.949219 L 318.769531 273.773438 L 319.429688 274.160156 L 320.308594 274.601562 L 321.679688 275.152344 L 323.65625 275.703125 L 324.808594 275.925781 L 326.566406 276.144531 L 328.378906 276.257812 L 330.792969 276.257812 L 332.9375 276.144531 L 334.363281 276.007812 L 335.847656 275.789062 L 337.878906 275.320312 L 339.140625 274.878906 L 340.238281 274.355469 L 341.0625 273.828125 L 341.609375 273.390625 L 342.433594 272.535156 L 343.09375 271.597656 L 343.585938 270.632812 L 343.917969 269.695312 L 351.601562 269.695312 L 351.273438 270.796875 L 350.78125 271.871094 L 350.285156 272.671875 L 349.515625 273.636719 L 348.636719 274.492188 L 347.375 275.457031 L 346.332031 276.089844 L 344.960938 276.78125 L 343.695312 277.304688 L 342.324219 277.773438 L 340.292969 278.324219 L 338.976562 278.597656 L 337.546875 278.847656 L 335.847656 279.066406 L 333.703125 279.261719 L 331.398438 279.371094 L 329.257812 279.398438 L 326.953125 279.34375 L 325.25 279.234375 L 323 278.984375 L 320.199219 278.488281 L 318.167969 277.964844 L 316.574219 277.441406 L 315.203125 276.890625 L 313.664062 276.144531 L 311.6875 274.933594 L 310.480469 273.996094 L 309.65625 273.222656 L 308.722656 272.148438 L 308.066406 271.183594 L 307.296875 269.640625 L 306.746094 267.683594 L 306.582031 266.167969 Z M 306.582031 262.363281 "/>
<path style=" stroke:none;fill-rule:nonzero;fill:rgb(96.862745%,70.196078%,16.862745%);fill-opacity:1;" d="M 306.582031 308.035156 L 306.636719 308.027344 L 306.636719 307.851562 L 306.855469 307.460938 L 307.40625 306.925781 L 308.121094 306.484375 L 308.886719 306.136719 L 309.382812 305.953125 L 310.207031 305.695312 L 310.917969 305.503906 L 312.730469 305.113281 L 315.039062 304.75 L 316.300781 304.59375 L 317.726562 304.445312 L 319.757812 304.28125 L 320.691406 304.21875 L 323.546875 304.082031 L 326.785156 303.996094 L 330.355469 303.96875 L 332.003906 303.976562 L 334.253906 304.011719 L 337.328125 304.105469 L 339.085938 304.195312 L 340.457031 304.28125 L 341.886719 304.394531 L 343.640625 304.566406 L 345.289062 304.773438 L 346.605469 304.984375 L 347.925781 305.242188 L 349.023438 305.519531 L 349.957031 305.824219 L 350.78125 306.1875 L 351.273438 306.492188 L 351.601562 306.796875 L 343.972656 306.796875 L 343.53125 306.492188 L 343.039062 306.257812 L 342.214844 305.972656 L 341.390625 305.761719 L 340.566406 305.597656 L 339.03125 305.375 L 337.710938 305.234375 L 336.066406 305.113281 L 334.472656 305.035156 L 332.660156 304.984375 L 331.5625 304.964844 L 328.652344 304.964844 L 326.019531 305.027344 L 324.480469 305.09375 L 323.382812 305.164062 L 321.84375 305.296875 L 320.910156 305.398438 L 320.363281 305.46875 L 318.714844 305.738281 L 317.617188 305.980469 L 317.015625 306.144531 L 316.246094 306.40625 L 315.695312 306.640625 L 315.09375 306.984375 L 314.761719 307.246094 L 314.324219 307.835938 L 314.269531 309.394531 L 314.433594 309.726562 L 314.761719 310.082031 L 315.203125 310.394531 L 315.859375 310.722656 L 316.519531 310.972656 L 317.671875 311.3125 L 318.660156 311.539062 L 319.429688 311.683594 L 320.910156 311.917969 L 321.515625 311.996094 L 322.945312 312.152344 L 324.425781 312.273438 L 326.238281 312.378906 L 327.609375 312.429688 L 329.804688 312.472656 L 332.605469 312.472656 L 335.902344 312.421875 L 337.988281 312.351562 L 339.414062 312.28125 L 340.347656 312.222656 L 341.5 312.128906 L 342.324219 312.039062 L 343.09375 311.945312 L 344.027344 311.796875 L 344.027344 309.726562 L 330.464844 309.71875 L 330.464844 308.746094 L 351.546875 308.738281 L 351.601562 312.128906 L 350.449219 312.359375 L 349.023438 312.585938 L 347.648438 312.761719 L 346.222656 312.90625 L 344.191406 313.070312 L 342.542969 313.175781 L 340.019531 313.296875 L 337.710938 313.375 L 335.296875 313.425781 L 333.15625 313.453125 L 330.628906 313.460938 L 328.378906 313.445312 L 325.964844 313.394531 L 324.042969 313.324219 L 322.285156 313.238281 L 320.527344 313.125 L 318.332031 312.941406 L 316.902344 312.792969 L 315.421875 312.613281 L 313.9375 312.394531 L 312.621094 312.160156 L 311.742188 311.980469 L 310.863281 311.773438 L 309.929688 311.511719 L 309.054688 311.214844 L 308.394531 310.949219 L 307.789062 310.644531 L 307.351562 310.359375 L 306.910156 309.96875 L 306.691406 309.65625 L 306.582031 309.386719 Z M 306.582031 308.035156 "/>
<path style=" stroke:none;fill-rule:nonzero;fill:rgb(6.27451%,58.823529%,28.235294%);fill-opacity:1;" d="M 353.972656 314.367188 L 354.019531 314.367188 L 373.5 312.023438 L 379.417969 312.023438 L 398.992188 314.371094 L 392.117188 314.371094 L 387.210938 313.757812 L 365.707031 313.757812 L 360.898438 314.367188 L 353.972656 314.367188 L 367.777344 313.503906 L 385.238281 313.503906 L 376.53125 312.410156 L 376.433594 312.40625 L 376.339844 312.414062 L 367.730469 313.503906 L 367.777344 313.503906 Z M 353.972656 314.367188 "/>
<path style=" stroke:none;fill-rule:nonzero;fill:rgb(14.509804%,36.078431%,60%);fill-opacity:1;" d="M 353.972656 266.90625 L 354.027344 266.875 L 354.027344 266.082031 L 354.191406 264.832031 L 354.578125 263.25 L 354.960938 262.164062 L 355.949219 260.21875 L 357.320312 258.339844 L 358.75 256.890625 L 359.792969 256.03125 L 360.726562 255.375 L 362.867188 254.152344 L 364.238281 253.527344 L 365.722656 252.96875 L 367.535156 252.40625 L 368.851562 252.078125 L 371.816406 251.550781 L 374.011719 251.320312 L 375.714844 251.222656 L 379.394531 251.222656 L 381.589844 251.351562 L 383.179688 251.519531 L 384.9375 251.78125 L 386.421875 252.078125 L 389 252.804688 L 391.308594 253.726562 L 392.351562 254.253906 L 393.996094 255.273438 L 395.261719 256.261719 L 396.140625 257.121094 L 397.128906 258.339844 L 398.003906 259.824219 L 398.664062 261.503906 L 398.992188 262.921875 L 391.308594 262.921875 L 390.921875 261.601562 L 390.484375 260.582031 L 389.660156 259.230469 L 388.835938 258.273438 L 387.683594 257.316406 L 386.640625 256.691406 L 385.210938 256.066406 L 383.949219 255.671875 L 382.632812 255.375 L 381.371094 255.175781 L 378.953125 254.976562 L 376.152344 254.976562 L 375.109375 255.042969 L 372.96875 255.308594 L 371.816406 255.539062 L 370.167969 256 L 369.015625 256.429688 L 367.644531 257.085938 L 366.710938 257.648438 L 365.558594 258.503906 L 364.734375 259.261719 L 363.800781 260.351562 L 363.25 261.171875 L 362.757812 262.097656 L 362.316406 263.183594 L 361.988281 264.335938 L 361.769531 265.554688 L 361.660156 266.742188 L 361.660156 271.851562 L 361.769531 273.035156 L 362.042969 274.421875 L 362.757812 276.429688 L 363.800781 278.179688 L 365.007812 279.5625 L 366.160156 280.550781 L 366.820312 281.011719 L 367.699219 281.539062 L 369.070312 282.199219 L 371.046875 282.855469 L 372.199219 283.121094 L 373.957031 283.382812 L 375.769531 283.515625 L 378.183594 283.515625 L 380.328125 283.382812 L 381.753906 283.21875 L 383.238281 282.957031 L 385.269531 282.394531 L 386.53125 281.867188 L 387.628906 281.242188 L 388.453125 280.617188 L 389 280.089844 L 389.824219 279.066406 L 390.484375 277.945312 L 390.976562 276.792969 L 391.308594 275.671875 L 398.992188 275.671875 L 398.664062 276.992188 L 398.171875 278.277344 L 397.675781 279.230469 L 396.90625 280.386719 L 396.027344 281.40625 L 394.765625 282.5625 L 393.722656 283.320312 L 392.351562 284.144531 L 391.085938 284.769531 L 389.714844 285.328125 L 387.683594 285.988281 L 386.367188 286.316406 L 384.9375 286.613281 L 383.238281 286.878906 L 381.09375 287.109375 L 378.789062 287.242188 L 376.648438 287.273438 L 374.34375 287.207031 L 372.640625 287.074219 L 370.390625 286.777344 L 367.589844 286.1875 L 365.558594 285.558594 L 363.964844 284.933594 L 362.59375 284.273438 L 361.054688 283.382812 L 359.078125 281.933594 L 357.871094 280.8125 L 357.046875 279.890625 L 356.113281 278.605469 L 355.453125 277.453125 L 354.6875 275.609375 L 354.136719 273.269531 L 353.972656 271.457031 Z M 353.972656 266.90625 "/>
<path style=" stroke:none;fill-rule:nonzero;fill:rgb(96.862745%,70.196078%,16.862745%);fill-opacity:1;" d="M 353.972656 294.363281 L 354.027344 294.351562 L 354.027344 294.097656 L 354.246094 293.53125 L 354.796875 292.75 L 355.511719 292.109375 L 356.277344 291.605469 L 356.773438 291.339844 L 357.597656 290.960938 L 358.308594 290.683594 L 360.121094 290.117188 L 362.429688 289.585938 L 363.691406 289.359375 L 365.117188 289.144531 L 367.148438 288.90625 L 368.082031 288.816406 L 370.9375 288.617188 L 374.175781 288.492188 L 377.746094 288.453125 L 379.394531 288.464844 L 381.644531 288.515625 L 384.71875 288.65625 L 386.476562 288.78125 L 387.847656 288.90625 L 389.277344 289.070312 L 391.03125 289.324219 L 392.679688 289.625 L 393.996094 289.925781 L 395.316406 290.304688 L 396.414062 290.707031 L 397.347656 291.148438 L 398.171875 291.679688 L 398.664062 292.121094 L 398.992188 292.5625 L 391.363281 292.5625 L 390.921875 292.121094 L 390.429688 291.78125 L 389.605469 291.363281 L 388.78125 291.0625 L 387.957031 290.824219 L 386.421875 290.496094 L 385.101562 290.292969 L 383.457031 290.117188 L 381.863281 290.003906 L 380.050781 289.925781 L 378.953125 289.902344 L 376.042969 289.902344 L 373.410156 289.992188 L 371.871094 290.089844 L 370.773438 290.191406 L 369.234375 290.382812 L 368.300781 290.53125 L 367.753906 290.632812 L 366.105469 291.023438 L 365.007812 291.375 L 364.40625 291.617188 L 363.636719 291.996094 L 363.085938 292.335938 L 362.484375 292.839844 L 362.152344 293.21875 L 361.714844 294.074219 L 361.660156 296.34375 L 361.824219 296.820312 L 362.152344 297.339844 L 362.59375 297.792969 L 363.25 298.269531 L 363.910156 298.636719 L 365.0625 299.128906 L 366.050781 299.457031 L 366.820312 299.671875 L 368.300781 300.011719 L 368.90625 300.125 L 370.332031 300.351562 L 371.816406 300.527344 L 373.628906 300.679688 L 375 300.753906 L 377.195312 300.816406 L 379.996094 300.816406 L 383.292969 300.742188 L 385.378906 300.640625 L 386.804688 300.539062 L 387.738281 300.453125 L 388.890625 300.3125 L 389.714844 300.1875 L 390.484375 300.046875 L 391.417969 299.835938 L 391.417969 296.820312 L 377.855469 296.808594 L 377.855469 295.398438 L 398.9375 295.386719 L 398.992188 300.3125 L 397.839844 300.652344 L 396.414062 300.980469 L 395.039062 301.234375 L 393.613281 301.449219 L 391.582031 301.6875 L 389.933594 301.839844 L 387.410156 302.015625 L 385.101562 302.128906 L 382.6875 302.203125 L 380.546875 302.242188 L 378.019531 302.253906 L 375.769531 302.230469 L 373.355469 302.152344 L 371.433594 302.050781 L 369.675781 301.925781 L 367.917969 301.761719 L 365.722656 301.496094 L 364.292969 301.285156 L 362.8125 301.019531 L 361.328125 300.703125 L 360.011719 300.363281 L 359.132812 300.097656 L 358.253906 299.796875 L 357.320312 299.417969 L 356.441406 298.988281 L 355.785156 298.597656 L 355.179688 298.15625 L 354.742188 297.742188 L 354.300781 297.175781 L 354.082031 296.722656 L 353.972656 296.332031 Z M 353.972656 294.363281 "/>
<path style=" stroke:none;fill-rule:nonzero;fill:rgb(83.921569%,15.686275%,22.352941%);fill-opacity:1;" d="M 353.972656 303.433594 L 398.992188 303.433594 L 398.992188 304.226562 L 380.230469 304.234375 L 380.230469 310.847656 L 372.679688 310.847656 L 372.679688 304.242188 L 372.570312 304.226562 L 353.972656 304.226562 Z M 353.972656 303.433594 "/>
<path style=" stroke:none;fill-rule:nonzero;fill:rgb(6.27451%,58.823529%,28.235294%);fill-opacity:1;" d="M 401.363281 314.339844 L 401.410156 314.308594 L 420.890625 282.214844 L 426.808594 282.214844 L 446.382812 314.371094 L 439.507812 314.371094 L 434.601562 305.976562 L 413.097656 305.976562 L 408.289062 314.339844 L 401.363281 314.339844 L 415.167969 302.503906 L 432.628906 302.472656 L 423.921875 287.46875 L 423.824219 287.4375 L 423.730469 287.527344 L 415.121094 302.472656 L 415.167969 302.503906 Z M 401.363281 314.339844 "/>
<path style=" stroke:none;fill-rule:nonzero;fill:rgb(14.509804%,36.078431%,60%);fill-opacity:1;" d="M 401.363281 188.3125 L 401.417969 188.160156 L 401.417969 184.5625 L 401.582031 178.859375 L 401.96875 171.65625 L 402.351562 166.707031 L 403.339844 157.855469 L 404.710938 149.300781 L 406.140625 142.699219 L 407.183594 138.800781 L 408.117188 135.800781 L 410.257812 130.246094 L 411.628906 127.398438 L 413.113281 124.847656 L 414.925781 122.296875 L 416.242188 120.796875 L 419.207031 118.394531 L 421.402344 117.34375 L 423.105469 116.894531 L 426.785156 116.894531 L 428.980469 117.496094 L 430.570312 118.246094 L 432.328125 119.445312 L 433.8125 120.796875 L 436.390625 124.097656 L 438.699219 128.296875 L 439.742188 130.699219 L 441.386719 135.347656 L 442.652344 139.851562 L 443.527344 143.75 L 444.515625 149.300781 L 445.394531 156.054688 L 446.054688 163.707031 L 446.382812 170.15625 L 438.699219 170.15625 L 438.3125 164.15625 L 437.875 159.503906 L 437.050781 153.351562 L 436.226562 149.003906 L 435.074219 144.652344 L 434.03125 141.800781 L 432.601562 138.949219 L 431.339844 137.148438 L 430.023438 135.800781 L 428.761719 134.898438 L 426.34375 134 L 423.542969 134 L 422.5 134.296875 L 420.359375 135.5 L 419.207031 136.550781 L 417.558594 138.648438 L 416.40625 140.601562 L 415.035156 143.601562 L 414.101562 146.152344 L 412.949219 150.050781 L 412.125 153.503906 L 411.191406 158.453125 L 410.640625 162.207031 L 410.148438 166.40625 L 409.707031 171.359375 L 409.378906 176.609375 L 409.160156 182.160156 L 409.050781 187.5625 L 409.050781 210.816406 L 409.160156 216.21875 L 409.433594 222.519531 L 410.148438 231.671875 L 411.191406 239.625 L 412.398438 245.925781 L 413.550781 250.425781 L 414.210938 252.527344 L 415.089844 254.929688 L 416.460938 257.929688 L 418.4375 260.929688 L 419.589844 262.128906 L 421.347656 263.332031 L 423.160156 263.929688 L 425.574219 263.929688 L 427.71875 263.332031 L 429.144531 262.578125 L 430.625 261.378906 L 432.660156 258.828125 L 433.921875 256.429688 L 435.019531 253.578125 L 435.84375 250.726562 L 436.390625 248.328125 L 437.214844 243.675781 L 437.875 238.574219 L 438.367188 233.324219 L 438.699219 228.222656 L 446.382812 228.222656 L 446.054688 234.222656 L 445.5625 240.074219 L 445.066406 244.425781 L 444.296875 249.675781 L 443.417969 254.328125 L 442.15625 259.578125 L 441.113281 263.03125 L 439.742188 266.78125 L 438.476562 269.632812 L 437.105469 272.183594 L 435.074219 275.183594 L 433.757812 276.683594 L 432.328125 278.035156 L 430.625 279.234375 L 428.484375 280.285156 L 426.179688 280.882812 L 424.039062 281.035156 L 421.734375 280.734375 L 420.03125 280.132812 L 417.78125 278.785156 L 414.980469 276.082031 L 412.949219 273.234375 L 411.355469 270.382812 L 409.984375 267.382812 L 408.445312 263.332031 L 406.46875 256.730469 L 405.261719 251.628906 L 404.4375 247.425781 L 403.503906 241.574219 L 402.84375 236.324219 L 402.078125 227.921875 L 401.527344 217.269531 L 401.363281 209.015625 Z M 401.363281 188.3125 "/>
<path style=" stroke:none;fill-rule:nonzero;fill:rgb(83.921569%,15.686275%,22.352941%);fill-opacity:1;" d="M 448.753906 20.664062 L 493.773438 20.664062 L 493.773438 52.101562 L 475.011719 52.378906 L 475.011719 314.371094 L 467.460938 314.371094 L 467.460938 52.652344 L 467.351562 52.101562 L 448.753906 52.101562 Z M 448.753906 20.664062 "/>
<path style=" stroke:none;fill-rule:nonzero;fill:rgb(96.862745%,70.196078%,16.862745%);fill-opacity:1;" d="M 496.144531 146.460938 L 496.199219 146.191406 L 496.199219 140.828125 L 496.417969 128.757812 L 496.96875 112.128906 L 497.683594 98.449219 L 498.449219 87.71875 L 498.945312 82.085938 L 499.769531 74.039062 L 500.480469 68.140625 L 502.292969 56.070312 L 504.597656 44.804688 L 505.863281 39.976562 L 507.289062 35.414062 L 509.320312 30.320312 L 510.253906 28.441406 L 513.109375 24.148438 L 516.347656 21.46875 L 519.917969 20.664062 L 521.566406 20.929688 L 523.816406 22.003906 L 526.890625 24.953125 L 528.648438 27.636719 L 530.019531 30.320312 L 531.449219 33.804688 L 533.203125 39.171875 L 534.851562 45.609375 L 536.167969 52.046875 L 537.488281 60.09375 L 538.585938 68.675781 L 539.519531 78.0625 L 540.34375 89.328125 L 540.835938 98.714844 L 541.164062 108.105469 L 533.535156 108.105469 L 533.09375 98.714844 L 532.601562 91.476562 L 531.777344 82.625 L 530.953125 76.1875 L 530.128906 71.089844 L 528.59375 64.117188 L 527.273438 59.824219 L 525.628906 56.070312 L 524.035156 53.65625 L 522.222656 52.046875 L 521.125 51.507812 L 518.214844 51.507812 L 515.582031 53.386719 L 514.042969 55.53125 L 512.945312 57.679688 L 511.40625 61.703125 L 510.472656 64.921875 L 509.925781 67.066406 L 508.277344 75.382812 L 507.179688 82.890625 L 506.574219 87.988281 L 505.808594 96.035156 L 505.257812 103.277344 L 504.65625 114.003906 L 504.324219 122.050781 L 503.886719 140.292969 L 503.832031 188.574219 L 503.996094 198.765625 L 504.324219 209.761719 L 504.765625 219.417969 L 505.421875 229.609375 L 506.082031 237.390625 L 507.234375 247.851562 L 508.222656 254.824219 L 508.992188 259.382812 L 510.472656 266.625 L 511.078125 269.039062 L 512.503906 273.867188 L 513.988281 277.625 L 515.800781 280.84375 L 517.171875 282.453125 L 519.367188 283.792969 L 522.167969 283.792969 L 525.464844 282.183594 L 527.550781 280.039062 L 528.976562 277.890625 L 529.910156 276.015625 L 531.0625 273.0625 L 531.886719 270.382812 L 532.65625 267.429688 L 533.589844 262.871094 L 533.589844 198.765625 L 520.027344 198.496094 L 520.027344 168.457031 L 541.109375 168.1875 L 541.164062 273.0625 L 540.011719 280.304688 L 538.585938 287.28125 L 537.210938 292.644531 L 535.785156 297.203125 L 533.753906 302.300781 L 532.105469 305.519531 L 529.582031 309.273438 L 527.273438 311.6875 L 524.859375 313.296875 L 522.71875 314.101562 L 520.191406 314.371094 L 517.941406 313.835938 L 515.523438 312.226562 L 513.605469 310.078125 L 511.847656 307.398438 L 510.089844 303.910156 L 507.894531 298.277344 L 506.464844 293.71875 L 504.984375 288.085938 L 503.5 281.378906 L 502.183594 274.136719 L 501.304688 268.503906 L 500.425781 262.066406 L 499.492188 254.019531 L 498.613281 244.898438 L 497.957031 236.585938 L 497.351562 227.195312 L 496.914062 218.34375 L 496.472656 206.277344 L 496.253906 196.621094 L 496.144531 188.304688 Z M 496.144531 146.460938 "/>
<path style=" stroke:none;fill-rule:nonzero;fill:rgb(96.862745%,70.196078%,16.862745%);fill-opacity:1;" d="M 543.535156 146.460938 L 543.589844 146.191406 L 543.589844 140.828125 L 543.808594 128.757812 L 544.359375 112.128906 L 545.070312 98.449219 L 545.839844 87.71875 L 546.335938 82.085938 L 547.160156 74.039062 L 547.871094 68.140625 L 549.683594 56.070312 L 551.988281 44.804688 L 553.253906 39.976562 L 554.679688 35.414062 L 556.710938 30.320312 L 557.644531 28.441406 L 560.5 24.148438 L 563.738281 21.46875 L 567.308594 20.664062 L 568.957031 20.929688 L 571.207031 22.003906 L 574.28125 24.953125 L 576.039062 27.636719 L 577.410156 30.320312 L 578.839844 33.804688 L 580.59375 39.171875 L 582.242188 45.609375 L 583.558594 52.046875 L 584.878906 60.09375 L 585.976562 68.675781 L 586.910156 78.0625 L 587.730469 89.328125 L 588.226562 98.714844 L 588.554688 108.105469 L 580.925781 108.105469 L 580.484375 98.714844 L 579.992188 91.476562 L 579.167969 82.625 L 578.34375 76.1875 L 577.519531 71.089844 L 575.984375 64.117188 L 574.664062 59.824219 L 573.019531 56.070312 L 571.425781 53.65625 L 569.613281 52.046875 L 568.515625 51.507812 L 565.605469 51.507812 L 562.972656 53.386719 L 561.433594 55.53125 L 560.335938 57.679688 L 558.796875 61.703125 L 557.863281 64.921875 L 557.316406 67.066406 L 555.667969 75.382812 L 554.570312 82.890625 L 553.964844 87.988281 L 553.199219 96.035156 L 552.648438 103.277344 L 552.046875 114.003906 L 551.714844 122.050781 L 551.277344 140.292969 L 551.222656 188.574219 L 551.386719 198.765625 L 551.714844 209.761719 L 552.15625 219.417969 L 552.8125 229.609375 L 553.472656 237.390625 L 554.625 247.851562 L 555.613281 254.824219 L 556.382812 259.382812 L 557.863281 266.625 L 558.46875 269.039062 L 559.894531 273.867188 L 561.378906 277.625 L 563.191406 280.84375 L 564.5625 282.453125 L 566.757812 283.792969 L 569.558594 283.792969 L 572.851562 282.183594 L 574.941406 280.039062 L 576.367188 277.890625 L 577.300781 276.015625 L 578.453125 273.0625 L 579.277344 270.382812 L 580.046875 267.429688 L 580.980469 262.871094 L 580.980469 198.765625 L 567.417969 198.496094 L 567.417969 168.457031 L 588.5 168.1875 L 588.554688 273.0625 L 587.402344 280.304688 L 585.976562 287.28125 L 584.601562 292.644531 L 583.175781 297.203125 L 581.144531 302.300781 L 579.496094 305.519531 L 576.972656 309.273438 L 574.664062 311.6875 L 572.25 313.296875 L 570.109375 314.101562 L 567.582031 314.371094 L 565.332031 313.835938 L 562.914062 312.226562 L 560.996094 310.078125 L 559.238281 307.398438 L 557.480469 303.910156 L 555.285156 298.277344 L 553.855469 293.71875 L 552.375 288.085938 L 550.890625 281.378906 L 549.574219 274.136719 L 548.695312 268.503906 L 547.816406 262.066406 L 546.882812 254.019531 L 546.003906 244.898438 L 545.347656 236.585938 L 544.742188 227.195312 L 544.304688 218.34375 L 543.863281 206.277344 L 543.644531 196.621094 L 543.535156 188.304688 Z M 543.535156 146.460938 "/>
<path style=" stroke:none;fill-rule:nonzero;fill:rgb(14.509804%,36.078431%,60%);fill-opacity:1;" d="M 590.925781 202.917969 L 590.980469 202.835938 L 590.980469 200.867188 L 591.144531 197.75 L 591.53125 193.816406 L 591.914062 191.109375 L 592.902344 186.269531 L 594.273438 181.597656 L 595.703125 177.988281 L 596.746094 175.855469 L 597.679688 174.214844 L 599.820312 171.179688 L 601.191406 169.621094 L 602.675781 168.230469 L 604.488281 166.835938 L 605.804688 166.015625 L 608.769531 164.703125 L 610.964844 164.128906 L 612.667969 163.882812 L 616.347656 163.882812 L 618.542969 164.210938 L 620.132812 164.621094 L 621.890625 165.277344 L 623.375 166.015625 L 625.953125 167.820312 L 628.261719 170.113281 L 629.304688 171.425781 L 630.949219 173.96875 L 632.214844 176.429688 L 633.089844 178.5625 L 634.078125 181.597656 L 634.957031 185.285156 L 635.617188 189.46875 L 635.945312 192.996094 L 628.261719 192.996094 L 627.875 189.714844 L 627.4375 187.171875 L 626.613281 183.808594 L 625.789062 181.433594 L 624.636719 179.054688 L 623.59375 177.496094 L 622.164062 175.9375 L 620.902344 174.953125 L 619.585938 174.214844 L 618.324219 173.722656 L 615.90625 173.230469 L 613.105469 173.230469 L 612.0625 173.394531 L 609.921875 174.050781 L 608.769531 174.625 L 607.121094 175.773438 L 605.96875 176.839844 L 604.597656 178.480469 L 603.664062 179.875 L 602.511719 182.007812 L 601.6875 183.890625 L 600.753906 186.597656 L 600.203125 188.648438 L 599.710938 190.945312 L 599.269531 193.652344 L 598.941406 196.523438 L 598.722656 199.554688 L 598.613281 202.507812 L 598.613281 215.21875 L 598.722656 218.171875 L 598.996094 221.617188 L 599.710938 226.617188 L 600.753906 230.964844 L 601.960938 234.410156 L 603.113281 236.871094 L 603.773438 238.019531 L 604.652344 239.332031 L 606.023438 240.96875 L 608 242.609375 L 609.152344 243.265625 L 610.910156 243.921875 L 612.722656 244.25 L 615.136719 244.25 L 617.277344 243.921875 L 618.707031 243.511719 L 620.1875 242.855469 L 622.21875 241.460938 L 623.484375 240.148438 L 624.582031 238.59375 L 625.40625 237.035156 L 625.953125 235.722656 L 626.777344 233.179688 L 627.4375 230.390625 L 627.929688 227.519531 L 628.261719 224.734375 L 635.945312 224.734375 L 635.617188 228.011719 L 635.121094 231.210938 L 634.628906 233.589844 L 633.859375 236.460938 L 632.980469 239.003906 L 631.71875 241.871094 L 630.675781 243.757812 L 629.304688 245.808594 L 628.039062 247.367188 L 626.667969 248.761719 L 624.636719 250.402344 L 623.320312 251.222656 L 621.890625 251.960938 L 620.1875 252.617188 L 618.046875 253.191406 L 615.742188 253.519531 L 613.601562 253.601562 L 611.292969 253.4375 L 609.59375 253.109375 L 607.339844 252.371094 L 604.542969 250.894531 L 602.511719 249.335938 L 600.917969 247.777344 L 599.546875 246.136719 L 598.007812 243.921875 L 596.03125 240.3125 L 594.824219 237.527344 L 594 235.230469 L 593.066406 232.03125 L 592.40625 229.160156 L 591.640625 224.570312 L 591.089844 218.746094 L 590.925781 214.234375 Z M 590.925781 202.917969 "/>
<path style=" stroke:none;fill-rule:nonzero;fill:rgb(83.921569%,15.686275%,22.352941%);fill-opacity:1;" d="M 590.925781 254.777344 L 635.945312 254.777344 L 635.945312 261.15625 L 617.183594 261.214844 L 617.183594 314.371094 L 609.632812 314.371094 L 609.632812 261.269531 L 609.523438 261.15625 L 590.925781 261.15625 Z M 590.925781 254.777344 "/>
<path style=" stroke:none;fill-rule:nonzero;fill:rgb(6.27451%,58.823529%,28.235294%);fill-opacity:1;" d="M 638.316406 314.34375 L 638.363281 314.320312 L 657.84375 287.332031 L 663.761719 287.332031 L 683.335938 314.371094 L 676.457031 314.371094 L 671.550781 307.3125 L 650.050781 307.3125 L 645.242188 314.34375 L 638.316406 314.34375 L 652.121094 304.394531 L 669.582031 304.367188 L 660.875 291.75 L 660.777344 291.726562 L 660.683594 291.800781 L 652.074219 304.367188 L 652.121094 304.394531 Z M 638.316406 314.34375 "/>
<path style=" stroke:none;fill-rule:nonzero;fill:rgb(96.862745%,70.196078%,16.862745%);fill-opacity:1;" d="M 638.316406 182.179688 L 638.371094 182.011719 L 638.371094 178.691406 L 638.589844 171.21875 L 639.140625 160.917969 L 639.851562 152.449219 L 640.621094 145.804688 L 641.117188 142.316406 L 641.941406 137.335938 L 642.652344 133.679688 L 644.464844 126.207031 L 646.769531 119.230469 L 648.035156 116.242188 L 649.460938 113.417969 L 651.492188 110.261719 L 652.425781 109.097656 L 655.28125 106.441406 L 658.519531 104.78125 L 662.089844 104.28125 L 663.738281 104.449219 L 665.988281 105.113281 L 669.0625 106.941406 L 670.820312 108.601562 L 672.191406 110.261719 L 673.617188 112.421875 L 675.375 115.742188 L 677.023438 119.730469 L 678.339844 123.714844 L 679.660156 128.699219 L 680.757812 134.011719 L 681.691406 139.824219 L 682.511719 146.800781 L 683.007812 152.613281 L 683.335938 158.429688 L 675.707031 158.429688 L 675.265625 152.613281 L 674.773438 148.128906 L 673.949219 142.648438 L 673.125 138.664062 L 672.300781 135.507812 L 670.765625 131.1875 L 669.445312 128.53125 L 667.800781 126.207031 L 666.207031 124.710938 L 664.394531 123.714844 L 663.296875 123.382812 L 660.386719 123.382812 L 657.75 124.546875 L 656.214844 125.875 L 655.117188 127.203125 L 653.578125 129.695312 L 652.644531 131.6875 L 652.097656 133.015625 L 650.449219 138.164062 L 649.351562 142.816406 L 648.746094 145.972656 L 647.980469 150.953125 L 647.429688 155.4375 L 646.824219 162.082031 L 646.496094 167.066406 L 646.058594 178.359375 L 646.003906 208.257812 L 646.167969 214.566406 L 646.496094 221.378906 L 646.9375 227.355469 L 647.59375 233.667969 L 648.253906 238.484375 L 649.40625 244.960938 L 650.394531 249.28125 L 651.164062 252.105469 L 652.644531 256.589844 L 653.25 258.082031 L 654.675781 261.074219 L 656.160156 263.398438 L 657.972656 265.390625 L 659.34375 266.386719 L 661.539062 267.21875 L 664.339844 267.21875 L 667.632812 266.222656 L 669.722656 264.894531 L 671.148438 263.566406 L 672.082031 262.402344 L 673.234375 260.574219 L 674.058594 258.914062 L 674.828125 257.085938 L 675.761719 254.261719 L 675.761719 214.566406 L 662.199219 214.402344 L 662.199219 195.800781 L 683.28125 195.632812 L 683.335938 260.574219 L 682.183594 265.058594 L 680.757812 269.378906 L 679.382812 272.699219 L 677.957031 275.523438 L 675.925781 278.679688 L 674.277344 280.671875 L 671.753906 282.996094 L 669.445312 284.492188 L 667.03125 285.488281 L 664.890625 285.988281 L 662.363281 286.152344 L 660.113281 285.820312 L 657.695312 284.824219 L 655.773438 283.496094 L 654.019531 281.835938 L 652.261719 279.675781 L 650.066406 276.1875 L 648.636719 273.363281 L 647.15625 269.875 L 645.671875 265.722656 L 644.355469 261.238281 L 643.476562 257.75 L 642.597656 253.765625 L 641.664062 248.78125 L 640.785156 243.136719 L 640.128906 237.988281 L 639.523438 232.171875 L 639.085938 226.691406 L 638.644531 219.21875 L 638.425781 213.238281 L 638.316406 208.089844 Z M 638.316406 182.179688 "/>
<g style="fill:rgb(0%,0%,0%);fill-opacity:1;">
  <use xlink:href="#glyph0-1" x="21.957031" y="318.198242"/>
  <use xlink:href="#glyph0-2" x="27.291016" y="318.198242"/>
  <use xlink:href="#glyph0-1" x="29.958008" y="318.198242"/>
</g>
<g style="fill:rgb(0%,0%,0%);fill-opacity:1;">
  <use xlink:href="#glyph0-1" x="21.957031" y="244.475586"/>
  <use xlink:href="#glyph0-2" x="27.291016" y="244.475586"/>
  <use xlink:href="#glyph0-3" x="29.958008" y="244.475586"/>
</g>
<g style="fill:rgb(0%,0%,0%);fill-opacity:1;">
  <use xlink:href="#glyph0-4" x="21.957031" y="170.75293"/>
  <use xlink:href="#glyph0-2" x="27.291016" y="170.75293"/>
  <use xlink:href="#glyph0-1" x="29.958008" y="170.75293"/>
</g>
<g style="fill:rgb(0%,0%,0%);fill-opacity:1;">
  <use xlink:href="#glyph0-4" x="21.957031" y="97.03418"/>
  <use xlink:href="#glyph0-2" x="27.291016" y="97.03418"/>
  <use xlink:href="#glyph0-3" x="29.958008" y="97.03418"/>
</g>
<g style="fill:rgb(0%,0%,0%);fill-opacity:1;">
  <use xlink:href="#glyph0-5" x="21.957031" y="23.311523"/>
  <use xlink:href="#glyph0-2" x="27.291016" y="23.311523"/>
  <use xlink:href="#glyph0-1" x="29.958008" y="23.311523"/>
</g>
<g style="fill:rgb(0%,0%,0%);fill-opacity:1;">
  <use xlink:href="#glyph0-4" x="89.140625" y="338.19043"/>
</g>
<g style="fill:rgb(0%,0%,0%);fill-opacity:1;">
  <use xlink:href="#glyph0-5" x="136.53125" y="338.19043"/>
</g>
<g style="fill:rgb(0%,0%,0%);fill-opacity:1;">
  <use xlink:href="#glyph0-6" x="183.921875" y="338.19043"/>
</g>
<g style="fill:rgb(0%,0%,0%);fill-opacity:1;">
  <use xlink:href="#glyph0-7" x="231.3125" y="338.19043"/>
</g>
<g style="fill:rgb(0%,0%,0%);fill-opacity:1;">
  <use xlink:href="#glyph0-3" x="278.703125" y="338.19043"/>
</g>
<g style="fill:rgb(0%,0%,0%);fill-opacity:1;">
  <use xlink:href="#glyph0-8" x="326.09375" y="338.19043"/>
</g>
<g style="fill:rgb(0%,0%,0%);fill-opacity:1;">
  <use xlink:href="#glyph0-9" x="373.484375" y="338.19043"/>
</g>
<g style="fill:rgb(0%,0%,0%);fill-opacity:1;">
  <use xlink:href="#glyph0-10" x="420.875" y="338.19043"/>
</g>
<g style="fill:rgb(0%,0%,0%);fill-opacity:1;">
  <use xlink:href="#glyph0-11" x="468.265625" y="338.19043"/>
</g>
<g style="fill:rgb(0%,0%,0%);fill-opacity:1;">
  <use xlink:href="#glyph0-4" x="513.15625" y="338.19043"/>
  <use xlink:href="#glyph0-1" x="518.490234" y="338.19043"/>
</g>
<g style="fill:rgb(0%,0%,0%);fill-opacity:1;">
  <use xlink:href="#glyph0-4" x="560.546875" y="338.19043"/>
  <use xlink:href="#glyph0-4" x="565.880859" y="338.19043"/>
</g>
<g style="fill:rgb(0%,0%,0%);fill-opacity:1;">
  <use xlink:href="#glyph0-4" x="607.9375" y="338.19043"/>
  <use xlink:href="#glyph0-5" x="613.271484" y="338.19043"/>
</g>
<g style="fill:rgb(0%,0%,0%);fill-opacity:1;">
  <use xlink:href="#glyph0-4" x="655.328125" y="338.19043"/>
  <use xlink:href="#glyph0-6" x="660.662109" y="338.19043"/>
</g>
<g style="fill:rgb(0%,0%,0%);fill-opacity:1;">
  <use xlink:href="#glyph1-1" x="14.412109" y="178.015625"/>
  <use xlink:href="#glyph1-2" x="14.412109" y="170.011719"/>
  <use xlink:href="#glyph1-3" x="14.412109" y="167.347656"/>
  <use xlink:href="#glyph1-4" x="14.412109" y="164.011719"/>
</g>
</g>
</svg>
