<?xml version="1.0" encoding="UTF-8"?>
<svg xmlns="http://www.w3.org/2000/svg" xmlns:xlink="http://www.w3.org/1999/xlink" width="720pt" height="360pt" viewBox="0 0 720 360" version="1.1">
<defs>
<g>
<symbol overflow="visible" id="glyph0-0">
<path style="stroke:none;" d=""/>
</symbol>
<symbol overflow="visible" id="glyph0-1">
<path style="stroke:none;" d="M 2.640625 -6.796875 C 2 -6.796875 1.421875 -6.53125 1.078125 -6.046875 C 0.640625 -5.453125 0.40625 -4.546875 0.40625 -3.296875 C 0.40625 -1 1.1875 0.21875 2.640625 0.21875 C 4.078125 0.21875 4.859375 -1 4.859375 -3.234375 C 4.859375 -4.5625 4.65625 -5.4375 4.203125 -6.046875 C 3.84375 -6.53125 3.28125 -6.796875 2.640625 -6.796875 Z M 2.640625 -6.046875 C 3.546875 -6.046875 4 -5.125 4 -3.3125 C 4 -1.375 3.5625 -0.484375 2.625 -0.484375 C 1.734375 -0.484375 1.28125 -1.421875 1.28125 -3.28125 C 1.28125 -5.140625 1.734375 -6.046875 2.640625 -6.046875 Z M 2.640625 -6.046875 "/>
</symbol>
<symbol overflow="visible" id="glyph0-2">
<path style="stroke:none;" d="M 1.828125 -1 L 0.828125 -1 L 0.828125 0 L 1.828125 0 Z M 1.828125 -1 "/>
</symbol>
<symbol overflow="visible" id="glyph0-3">
<path style="stroke:none;" d="M 4.5625 -6.796875 L 1.0625 -6.796875 L 0.546875 -3.09375 L 1.328125 -3.09375 C 1.71875 -3.5625 2.046875 -3.734375 2.578125 -3.734375 C 3.484375 -3.734375 4.0625 -3.109375 4.0625 -2.09375 C 4.0625 -1.125 3.484375 -0.53125 2.578125 -0.53125 C 1.828125 -0.53125 1.375 -0.90625 1.1875 -1.671875 L 0.328125 -1.671875 C 0.453125 -1.109375 0.546875 -0.84375 0.75 -0.59375 C 1.125 -0.078125 1.828125 0.21875 2.59375 0.21875 C 3.96875 0.21875 4.921875 -0.78125 4.921875 -2.21875 C 4.921875 -3.5625 4.03125 -4.484375 2.71875 -4.484375 C 2.25 -4.484375 1.859375 -4.359375 1.46875 -4.0625 L 1.734375 -5.96875 L 4.5625 -5.96875 Z M 4.5625 -6.796875 "/>
</symbol>
<symbol overflow="visible" id="glyph0-4">
<path style="stroke:none;" d="M 2.484375 -4.84375 L 2.484375 0 L 3.328125 0 L 3.328125 -6.796875 L 2.765625 -6.796875 C 2.46875 -5.75 2.28125 -5.609375 0.984375 -5.453125 L 0.984375 -4.84375 Z M 2.484375 -4.84375 "/>
</symbol>
<symbol overflow="visible" id="glyph0-5">
<path style="stroke:none;" d="M 4.859375 -0.828125 L 1.28125 -0.828125 C 1.359375 -1.390625 1.671875 -1.75 2.5 -2.234375 L 3.46875 -2.75 C 4.40625 -3.265625 4.90625 -3.96875 4.90625 -4.8125 C 4.90625 -5.375 4.671875 -5.90625 4.265625 -6.265625 C 3.859375 -6.625 3.375 -6.796875 2.71875 -6.796875 C 1.859375 -6.796875 1.21875 -6.5 0.84375 -5.921875 C 0.609375 -5.5625 0.5 -5.125 0.484375 -4.4375 L 1.328125 -4.4375 C 1.359375 -4.90625 1.40625 -5.1875 1.53125 -5.40625 C 1.75 -5.8125 2.1875 -6.0625 2.703125 -6.0625 C 3.46875 -6.0625 4.03125 -5.515625 4.03125 -4.78125 C 4.03125 -4.25 3.71875 -3.796875 3.125 -3.4375 L 2.234375 -2.9375 C 0.8125 -2.140625 0.40625 -1.5 0.328125 0 L 4.859375 0 Z M 4.859375 -0.828125 "/>
</symbol>
<symbol overflow="visible" id="glyph0-6">
<path style="stroke:none;" d="M 2.125 -3.125 L 2.578125 -3.125 C 3.515625 -3.125 3.984375 -2.703125 3.984375 -1.890625 C 3.984375 -1.03125 3.46875 -0.53125 2.578125 -0.53125 C 1.65625 -0.53125 1.203125 -0.984375 1.15625 -1.96875 L 0.3125 -1.96875 C 0.34375 -1.421875 0.4375 -1.078125 0.609375 -0.765625 C 0.953125 -0.109375 1.625 0.21875 2.546875 0.21875 C 3.953125 0.21875 4.859375 -0.609375 4.859375 -1.90625 C 4.859375 -2.765625 4.515625 -3.25 3.703125 -3.515625 C 4.34375 -3.765625 4.65625 -4.25 4.65625 -4.9375 C 4.65625 -6.109375 3.875 -6.796875 2.578125 -6.796875 C 1.203125 -6.796875 0.484375 -6.046875 0.453125 -4.609375 L 1.296875 -4.609375 C 1.3125 -5.015625 1.34375 -5.25 1.453125 -5.453125 C 1.640625 -5.828125 2.0625 -6.0625 2.59375 -6.0625 C 3.34375 -6.0625 3.796875 -5.625 3.796875 -4.90625 C 3.796875 -4.421875 3.609375 -4.140625 3.25 -3.984375 C 3.015625 -3.890625 2.71875 -3.84375 2.125 -3.84375 Z M 2.125 -3.125 "/>
</symbol>
<symbol overflow="visible" id="glyph0-7">
<path style="stroke:none;" d="M 3.140625 -1.625 L 3.140625 0 L 3.984375 0 L 3.984375 -1.625 L 4.984375 -1.625 L 4.984375 -2.390625 L 3.984375 -2.390625 L 3.984375 -6.796875 L 3.359375 -6.796875 L 0.265625 -2.515625 L 0.265625 -1.625 Z M 3.140625 -2.390625 L 1 -2.390625 L 3.140625 -5.359375 Z M 3.140625 -2.390625 "/>
</symbol>
<symbol overflow="visible" id="glyph0-8">
<path style="stroke:none;" d="M 4.78125 -5.03125 C 4.609375 -6.140625 3.890625 -6.796875 2.84375 -6.796875 C 2.09375 -6.796875 1.421875 -6.4375 1.03125 -5.828125 C 0.609375 -5.171875 0.40625 -4.34375 0.40625 -3.09375 C 0.40625 -1.953125 0.578125 -1.234375 0.984375 -0.625 C 1.359375 -0.078125 1.953125 0.21875 2.703125 0.21875 C 3.984375 0.21875 4.921875 -0.734375 4.921875 -2.078125 C 4.921875 -3.34375 4.0625 -4.234375 2.84375 -4.234375 C 2.171875 -4.234375 1.640625 -3.96875 1.28125 -3.46875 C 1.28125 -5.125 1.828125 -6.046875 2.796875 -6.046875 C 3.390625 -6.046875 3.796875 -5.671875 3.9375 -5.03125 Z M 2.734375 -3.484375 C 3.546875 -3.484375 4.0625 -2.921875 4.0625 -2 C 4.0625 -1.15625 3.484375 -0.53125 2.703125 -0.53125 C 1.921875 -0.53125 1.328125 -1.1875 1.328125 -2.046875 C 1.328125 -2.890625 1.90625 -3.484375 2.734375 -3.484375 Z M 2.734375 -3.484375 "/>
</symbol>
<symbol overflow="visible" id="glyph0-9">
<path style="stroke:none;" d="M 4.984375 -6.796875 L 0.4375 -6.796875 L 0.4375 -5.96875 L 4.109375 -5.96875 C 2.5 -3.65625 1.828125 -2.234375 1.328125 0 L 2.21875 0 C 2.59375 -2.171875 3.453125 -4.046875 4.984375 -6.09375 Z M 4.984375 -6.796875 "/>
</symbol>
<symbol overflow="visible" id="glyph0-10">
<path style="stroke:none;" d="M 3.75 -3.578125 C 4.453125 -4 4.6875 -4.34375 4.6875 -4.984375 C 4.6875 -6.046875 3.84375 -6.796875 2.640625 -6.796875 C 1.4375 -6.796875 0.59375 -6.046875 0.59375 -4.984375 C 0.59375 -4.359375 0.828125 -4.015625 1.515625 -3.578125 C 0.734375 -3.203125 0.359375 -2.640625 0.359375 -1.890625 C 0.359375 -0.640625 1.296875 0.21875 2.640625 0.21875 C 3.984375 0.21875 4.921875 -0.640625 4.921875 -1.875 C 4.921875 -2.640625 4.53125 -3.203125 3.75 -3.578125 Z M 2.640625 -6.046875 C 3.359375 -6.046875 3.8125 -5.625 3.8125 -4.96875 C 3.8125 -4.34375 3.34375 -3.921875 2.640625 -3.921875 C 1.921875 -3.921875 1.453125 -4.34375 1.453125 -4.984375 C 1.453125 -5.625 1.921875 -6.046875 2.640625 -6.046875 Z M 2.640625 -3.203125 C 3.484375 -3.203125 4.0625 -2.671875 4.0625 -1.875 C 4.0625 -1.0625 3.484375 -0.53125 2.625 -0.53125 C 1.796875 -0.53125 1.21875 -1.078125 1.21875 -1.875 C 1.21875 -2.671875 1.796875 -3.203125 2.640625 -3.203125 Z M 2.640625 -3.203125 "/>
</symbol>
<symbol overflow="visible" id="glyph0-11">
<path style="stroke:none;" d="M 0.515625 -1.546875 C 0.671875 -0.4375 1.40625 0.21875 2.4375 0.21875 C 3.1875 0.21875 3.859375 -0.140625 4.265625 -0.75 C 4.6875 -1.40625 4.890625 -2.25 4.890625 -3.484375 C 4.890625 -4.625 4.703125 -5.359375 4.3125 -5.953125 C 3.9375 -6.5 3.34375 -6.796875 2.59375 -6.796875 C 1.296875 -6.796875 0.359375 -5.84375 0.359375 -4.515625 C 0.359375 -3.25 1.234375 -2.34375 2.453125 -2.34375 C 3.09375 -2.34375 3.5625 -2.578125 4.015625 -3.109375 C 4 -1.453125 3.46875 -0.53125 2.5 -0.53125 C 1.90625 -0.53125 1.484375 -0.90625 1.359375 -1.546875 Z M 2.578125 -6.0625 C 3.375 -6.0625 3.96875 -5.40625 3.96875 -4.53125 C 3.96875 -3.6875 3.375 -3.09375 2.546875 -3.09375 C 1.734375 -3.09375 1.234375 -3.671875 1.234375 -4.578125 C 1.234375 -5.4375 1.796875 -6.0625 2.578125 -6.0625 Z M 2.578125 -6.0625 "/>
</symbol>
<symbol overflow="visible" id="glyph1-0">
<path style="stroke:none;" d=""/>
</symbol>
<symbol overflow="visible" id="glyph1-1">
<path style="stroke:none;" d="M 0 -0.953125 L 0 -4.890625 C 0 -5.71875 -0.234375 -6.34375 -0.734375 -6.796875 C -1.1875 -7.234375 -1.8125 -7.46875 -2.5 -7.46875 C -3.546875 -7.46875 -4.1875 -7 -4.625 -5.875 C -4.984375 -6.671875 -5.640625 -7.09375 -6.53125 -7.09375 C -7.15625 -7.09375 -7.734375 -6.859375 -8.140625 -6.390625 C -8.5625 -5.9375 -8.75 -5.34375 -8.75 -4.5 L -8.75 -0.953125 Z M -4.984375 -2.0625 L -7.765625 -2.0625 L -7.765625 -4.21875 C -7.765625 -4.84375 -7.6875 -5.203125 -7.453125 -5.5 C -7.21875 -5.8125 -6.859375 -5.96875 -6.375 -5.96875 C -5.90625 -5.96875 -5.53125 -5.8125 -5.296875 -5.5 C -5.0625 -5.203125 -4.984375 -4.84375 -4.984375 -4.21875 Z M -0.984375 -2.0625 L -4 -2.0625 L -4 -4.78125 C -4 -5.328125 -3.859375 -5.6875 -3.578125 -5.953125 C -3.296875 -6.21875 -2.921875 -6.359375 -2.484375 -6.359375 C -2.0625 -6.359375 -1.6875 -6.21875 -1.40625 -5.953125 C -1.109375 -5.6875 -0.984375 -5.328125 -0.984375 -4.78125 Z M -0.984375 -2.0625 "/>
</symbol>
<symbol overflow="visible" id="glyph1-2">
<path style="stroke:none;" d="M -6.28125 -1.796875 L -6.28125 -0.796875 L 0 -0.796875 L 0 -1.796875 Z M -8.75 -1.796875 L -8.75 -0.796875 L -7.484375 -0.796875 L -7.484375 -1.796875 Z M -8.75 -1.796875 "/>
</symbol>
<symbol overflow="visible" id="glyph1-3">
<path style="stroke:none;" d="M -6.28125 -3.046875 L -6.28125 -2.015625 L -8.015625 -2.015625 L -8.015625 -1.015625 L -6.28125 -1.015625 L -6.28125 -0.171875 L -5.46875 -0.171875 L -5.46875 -1.015625 L -0.71875 -1.015625 C -0.078125 -1.015625 0.28125 -1.453125 0.28125 -2.234375 C 0.28125 -2.46875 0.25 -2.71875 0.1875 -3.046875 L -0.640625 -3.046875 C -0.609375 -2.921875 -0.59375 -2.765625 -0.59375 -2.5625 C -0.59375 -2.140625 -0.71875 -2.015625 -1.15625 -2.015625 L -5.46875 -2.015625 L -5.46875 -3.046875 Z M -6.28125 -3.046875 "/>
</symbol>
<symbol overflow="visible" id="glyph1-4">
<path style="stroke:none;" d="M -4.53125 -5.25 C -5.765625 -5.25 -6.46875 -4.421875 -6.46875 -2.96875 C -6.46875 -1.515625 -5.71875 -0.5625 -4.546875 -0.5625 C -3.5625 -0.5625 -3.09375 -1.0625 -2.734375 -2.5625 L -2.515625 -3.484375 C -2.34375 -4.1875 -2.09375 -4.46875 -1.625 -4.46875 C -1.046875 -4.46875 -0.640625 -3.875 -0.640625 -3 C -0.640625 -2.453125 -0.796875 -2 -1.0625 -1.75 C -1.25 -1.59375 -1.421875 -1.53125 -1.875 -1.46875 L -1.875 -0.40625 C -0.421875 -0.453125 0.28125 -1.265625 0.28125 -2.921875 C 0.28125 -4.5 -0.5 -5.515625 -1.71875 -5.515625 C -2.65625 -5.515625 -3.171875 -4.984375 -3.46875 -3.734375 L -3.703125 -2.765625 C -3.890625 -1.953125 -4.15625 -1.609375 -4.59375 -1.609375 C -5.171875 -1.609375 -5.546875 -2.125 -5.546875 -2.9375 C -5.546875 -3.75 -5.203125 -4.171875 -4.53125 -4.203125 Z M -4.53125 -5.25 "/>
</symbol>
</g>
</defs>
<g id="surface43763">
<rect x="0" y="0" width="720" height="360" style="fill:rgb(100%,100%,100%);fill-opacity:1;stroke:none;"/>
<path style=" stroke:none;fill-rule:nonzero;fill:rgb(6.27451%,58.823529%,28.235294%);fill-opacity:1;" d="M 69.628906 251.617188 L 69.667969 251.535156 L 85.484375 165.136719 L 90.289062 165.136719 L 106.183594 251.699219 L 100.597656 251.699219 L 96.613281 229.105469 L 79.15625 229.105469 L 75.253906 251.617188 L 69.628906 251.617188 L 80.835938 219.757812 L 95.011719 219.675781 L 87.945312 179.28125 L 87.867188 179.199219 L 87.789062 179.441406 L 80.796875 219.675781 L 80.835938 219.757812 Z M 69.628906 251.617188 "/>
<path style=" stroke:none;fill-rule:nonzero;fill:rgb(83.921569%,15.686275%,22.352941%);fill-opacity:1;" d="M 69.628906 252.878906 L 106.183594 252.878906 L 106.183594 259.460938 L 90.949219 259.519531 L 90.949219 314.371094 L 84.820312 314.371094 L 84.820312 259.578125 L 84.730469 259.460938 L 69.628906 259.460938 Z M 69.628906 252.878906 "/>
<path style=" stroke:none;fill-rule:nonzero;fill:rgb(14.509804%,36.078431%,60%);fill-opacity:1;" d="M 108.105469 148.457031 L 108.152344 148.1875 L 108.152344 141.742188 L 108.285156 131.542969 L 108.597656 118.65625 L 108.910156 109.796875 L 109.710938 93.957031 L 110.824219 78.652344 L 111.984375 66.839844 L 112.832031 59.859375 L 113.589844 54.492188 L 115.328125 44.558594 L 116.441406 39.457031 L 117.644531 34.890625 L 119.117188 30.328125 L 120.1875 27.644531 L 122.59375 23.347656 L 124.375 21.46875 L 125.757812 20.664062 L 128.746094 20.664062 L 130.527344 21.738281 L 131.820312 23.078125 L 133.246094 25.226562 L 134.453125 27.644531 L 136.546875 33.550781 L 138.417969 41.066406 L 139.265625 45.363281 L 140.601562 53.683594 L 141.628906 61.738281 L 142.339844 68.71875 L 143.144531 78.652344 L 143.855469 90.734375 L 144.390625 104.425781 L 144.660156 115.96875 L 138.417969 115.96875 L 138.105469 105.230469 L 137.75 96.910156 L 137.082031 85.902344 L 136.414062 78.117188 L 135.476562 70.332031 L 134.628906 65.230469 L 133.46875 60.128906 L 132.445312 56.90625 L 131.375 54.492188 L 130.351562 52.878906 L 128.390625 51.269531 L 126.117188 51.269531 L 125.269531 51.804688 L 123.53125 53.953125 L 122.59375 55.832031 L 121.257812 59.589844 L 120.320312 63.082031 L 119.207031 68.449219 L 118.449219 73.015625 L 117.511719 79.996094 L 116.84375 86.171875 L 116.085938 95.03125 L 115.640625 101.742188 L 115.238281 109.257812 L 114.882812 118.117188 L 114.613281 127.515625 L 114.4375 137.449219 L 114.347656 147.113281 L 114.347656 188.726562 L 114.4375 198.390625 L 114.660156 209.667969 L 115.238281 226.042969 L 116.085938 240.273438 L 117.066406 251.546875 L 118.003906 259.601562 L 118.539062 263.359375 L 119.25 267.65625 L 120.363281 273.027344 L 121.96875 278.394531 L 122.90625 280.542969 L 124.332031 282.691406 L 125.804688 283.765625 L 127.765625 283.765625 L 129.503906 282.691406 L 130.664062 281.347656 L 131.867188 279.199219 L 133.515625 274.636719 L 134.539062 270.339844 L 135.433594 265.242188 L 136.101562 260.140625 L 136.546875 255.84375 L 137.214844 247.519531 L 137.75 238.394531 L 138.152344 228.996094 L 138.417969 219.867188 L 144.660156 219.867188 L 144.390625 230.609375 L 143.992188 241.078125 L 143.589844 248.863281 L 142.964844 258.261719 L 142.253906 266.582031 L 141.226562 275.980469 L 140.378906 282.152344 L 139.265625 288.867188 L 138.242188 293.96875 L 137.125 298.53125 L 135.476562 303.898438 L 134.40625 306.585938 L 133.246094 309 L 131.867188 311.148438 L 130.128906 313.027344 L 128.253906 314.101562 L 126.515625 314.371094 L 124.644531 313.832031 L 123.261719 312.761719 L 121.433594 310.34375 L 119.160156 305.511719 L 117.511719 300.410156 L 116.21875 295.308594 L 115.105469 289.941406 L 113.855469 282.691406 L 112.253906 270.878906 L 111.269531 261.75 L 110.601562 254.234375 L 109.84375 243.761719 L 109.308594 234.367188 L 108.6875 219.332031 L 108.238281 200.269531 L 108.105469 185.503906 Z M 108.105469 148.457031 "/>
<path style=" stroke:none;fill-rule:nonzero;fill:rgb(6.27451%,58.823529%,28.235294%);fill-opacity:1;" d="M 146.582031 314.09375 L 146.621094 313.820312 L 162.4375 20.664062 L 167.242188 20.664062 L 183.136719 314.371094 L 177.550781 314.371094 L 173.570312 237.703125 L 156.113281 237.703125 L 152.207031 314.09375 L 146.582031 314.09375 L 157.792969 205.988281 L 171.96875 205.710938 L 164.898438 68.648438 L 164.820312 68.375 L 164.742188 69.199219 L 157.753906 205.710938 L 157.792969 205.988281 Z M 146.582031 314.09375 "/>
<path style=" stroke:none;fill-rule:nonzero;fill:rgb(6.27451%,58.823529%,28.235294%);fill-opacity:1;" d="M 185.058594 314.09375 L 185.097656 313.820312 L 200.914062 20.664062 L 205.71875 20.664062 L 221.613281 314.371094 L 216.027344 314.371094 L 212.046875 237.703125 L 194.589844 237.703125 L 190.683594 314.09375 L 185.058594 314.09375 L 196.269531 205.988281 L 210.445312 205.710938 L 203.375 68.648438 L 203.296875 68.375 L 203.21875 69.199219 L 196.230469 205.710938 L 196.269531 205.988281 Z M 185.058594 314.09375 "/>
<path style=" stroke:none;fill-rule:nonzero;fill:rgb(6.27451%,58.823529%,28.235294%);fill-opacity:1;" d="M 223.539062 310.617188 L 223.578125 310.613281 L 239.390625 308.734375 L 244.195312 308.734375 L 260.089844 310.617188 L 254.503906 310.617188 L 250.523438 310.125 L 233.066406 310.125 L 229.160156 310.617188 L 223.539062 310.617188 L 234.746094 309.921875 L 248.921875 309.921875 L 241.851562 309.042969 L 241.773438 309.039062 L 241.695312 309.046875 L 234.707031 309.921875 L 234.746094 309.921875 Z M 223.539062 310.617188 "/>
<path style=" stroke:none;fill-rule:nonzero;fill:rgb(14.509804%,36.078431%,60%);fill-opacity:1;" d="M 223.539062 314.207031 L 223.582031 314.207031 L 223.582031 314.203125 L 223.714844 314.191406 L 224.027344 314.179688 L 224.339844 314.171875 L 225.140625 314.15625 L 226.257812 314.140625 L 227.414062 314.128906 L 228.261719 314.121094 L 229.019531 314.117188 L 230.757812 314.105469 L 231.875 314.101562 L 233.078125 314.097656 L 234.546875 314.09375 L 235.617188 314.089844 L 238.023438 314.085938 L 239.808594 314.085938 L 241.191406 314.082031 L 244.175781 314.082031 L 245.960938 314.085938 L 247.253906 314.085938 L 248.679688 314.089844 L 249.882812 314.089844 L 251.976562 314.097656 L 253.847656 314.105469 L 254.695312 314.109375 L 256.035156 314.117188 L 257.058594 314.125 L 257.773438 314.128906 L 258.574219 314.140625 L 259.289062 314.152344 L 259.824219 314.164062 L 260.089844 314.175781 L 253.847656 314.175781 L 253.539062 314.167969 L 253.179688 314.15625 L 251.84375 314.140625 L 250.90625 314.132812 L 250.058594 314.128906 L 248.902344 314.121094 L 247.875 314.117188 L 246.804688 314.117188 L 245.78125 314.113281 L 240.699219 314.113281 L 238.960938 314.117188 L 238.023438 314.117188 L 236.6875 314.121094 L 235.75 314.125 L 234.636719 314.128906 L 233.878906 314.136719 L 232.941406 314.140625 L 232.273438 314.148438 L 231.515625 314.15625 L 231.070312 314.164062 L 230.667969 314.171875 L 230.3125 314.179688 L 230.046875 314.1875 L 229.867188 314.199219 L 229.777344 314.207031 L 229.777344 314.246094 L 229.867188 314.257812 L 230.089844 314.269531 L 230.667969 314.285156 L 231.515625 314.296875 L 232.496094 314.308594 L 233.433594 314.316406 L 233.96875 314.320312 L 234.679688 314.324219 L 235.796875 314.332031 L 237.402344 314.335938 L 238.335938 314.335938 L 239.761719 314.339844 L 246.09375 314.339844 L 247.296875 314.335938 L 248.945312 314.332031 L 249.972656 314.328125 L 250.863281 314.324219 L 251.53125 314.316406 L 251.976562 314.3125 L 252.644531 314.304688 L 253.179688 314.296875 L 253.582031 314.289062 L 253.847656 314.277344 L 260.089844 314.277344 L 259.824219 314.289062 L 259.421875 314.300781 L 259.019531 314.304688 L 258.394531 314.316406 L 257.683594 314.324219 L 256.65625 314.332031 L 255.8125 314.339844 L 254.695312 314.347656 L 253.671875 314.351562 L 252.558594 314.355469 L 250.90625 314.359375 L 249.835938 314.363281 L 248.679688 314.367188 L 247.296875 314.367188 L 245.558594 314.371094 L 240.074219 314.371094 L 238.695312 314.367188 L 236.867188 314.367188 L 234.59375 314.363281 L 232.941406 314.355469 L 231.648438 314.351562 L 230.535156 314.347656 L 229.289062 314.339844 L 227.683594 314.328125 L 226.703125 314.320312 L 226.035156 314.3125 L 225.277344 314.300781 L 224.742188 314.292969 L 224.117188 314.277344 L 223.671875 314.257812 L 223.539062 314.246094 Z M 223.539062 314.207031 "/>
<path style=" stroke:none;fill-rule:nonzero;fill:rgb(96.862745%,70.196078%,16.862745%);fill-opacity:1;" d="M 223.539062 312.269531 L 223.582031 312.269531 L 223.582031 312.25 L 223.761719 312.203125 L 224.207031 312.140625 L 224.785156 312.089844 L 225.410156 312.050781 L 225.8125 312.027344 L 226.480469 312 L 227.058594 311.976562 L 228.53125 311.929688 L 230.402344 311.886719 L 231.425781 311.871094 L 232.585938 311.851562 L 234.234375 311.832031 L 234.992188 311.828125 L 237.3125 311.8125 L 239.941406 311.800781 L 242.839844 311.796875 L 244.175781 311.796875 L 246.003906 311.800781 L 248.5 311.8125 L 249.925781 311.824219 L 251.042969 311.832031 L 252.199219 311.847656 L 253.625 311.867188 L 254.964844 311.890625 L 256.035156 311.914062 L 257.105469 311.945312 L 257.996094 311.976562 L 258.753906 312.015625 L 259.421875 312.054688 L 259.824219 312.089844 L 260.089844 312.125 L 253.894531 312.125 L 253.539062 312.089844 L 253.136719 312.0625 L 252.46875 312.03125 L 251.800781 312.007812 L 251.128906 311.988281 L 249.882812 311.960938 L 248.8125 311.945312 L 247.476562 311.929688 L 246.183594 311.921875 L 244.710938 311.914062 L 241.457031 311.914062 L 239.316406 311.921875 L 238.070312 311.929688 L 237.179688 311.9375 L 235.929688 311.953125 L 235.171875 311.964844 L 234.726562 311.972656 L 233.390625 312.003906 L 232.496094 312.03125 L 232.007812 312.050781 L 231.382812 312.082031 L 230.9375 312.109375 L 230.445312 312.148438 L 230.179688 312.179688 L 229.824219 312.25 L 229.777344 312.429688 L 229.910156 312.46875 L 230.179688 312.511719 L 230.535156 312.546875 L 231.070312 312.585938 L 231.605469 312.613281 L 232.542969 312.652344 L 233.34375 312.679688 L 233.96875 312.695312 L 235.171875 312.722656 L 235.664062 312.734375 L 236.820312 312.75 L 238.023438 312.765625 L 239.496094 312.777344 L 240.609375 312.785156 L 242.394531 312.789062 L 244.667969 312.789062 L 247.339844 312.78125 L 249.035156 312.773438 L 250.195312 312.765625 L 250.953125 312.757812 L 251.886719 312.75 L 252.558594 312.738281 L 253.179688 312.726562 L 253.9375 312.710938 L 253.9375 312.46875 L 242.929688 312.46875 L 242.929688 312.355469 L 260.046875 312.351562 L 260.089844 312.75 L 259.152344 312.777344 L 257.996094 312.800781 L 256.878906 312.820312 L 255.722656 312.839844 L 254.074219 312.859375 L 252.734375 312.871094 L 250.683594 312.886719 L 248.8125 312.894531 L 246.851562 312.898438 L 245.113281 312.902344 L 241.234375 312.902344 L 239.273438 312.894531 L 237.710938 312.886719 L 236.285156 312.878906 L 234.859375 312.863281 L 233.078125 312.84375 L 231.917969 312.828125 L 229.511719 312.78125 L 228.441406 312.753906 L 227.726562 312.730469 L 227.015625 312.707031 L 226.257812 312.675781 L 225.542969 312.640625 L 225.007812 312.609375 L 224.519531 312.574219 L 224.160156 312.542969 L 223.804688 312.496094 L 223.625 312.460938 L 223.539062 312.429688 Z M 223.539062 312.269531 "/>
<path style=" stroke:none;fill-rule:nonzero;fill:rgb(83.921569%,15.686275%,22.352941%);fill-opacity:1;" d="M 223.539062 305.199219 L 260.089844 305.199219 L 260.089844 305.449219 L 244.855469 305.453125 L 244.855469 307.554688 L 238.726562 307.554688 L 238.726562 305.453125 L 238.636719 305.449219 L 223.539062 305.449219 Z M 223.539062 305.199219 "/>
<path style=" stroke:none;fill-rule:nonzero;fill:rgb(6.27451%,58.823529%,28.235294%);fill-opacity:1;" d="M 262.015625 305.148438 L 262.054688 305.144531 L 277.871094 300.390625 L 282.671875 300.390625 L 298.566406 305.152344 L 292.984375 305.152344 L 289 303.910156 L 271.542969 303.910156 L 267.636719 305.148438 L 262.015625 305.148438 L 273.222656 303.394531 L 287.398438 303.390625 L 280.328125 301.167969 L 280.25 301.164062 L 280.171875 301.175781 L 273.183594 303.390625 L 273.222656 303.394531 Z M 262.015625 305.148438 "/>
<path style=" stroke:none;fill-rule:nonzero;fill:rgb(14.509804%,36.078431%,60%);fill-opacity:1;" d="M 262.015625 313.117188 L 262.058594 313.117188 L 262.058594 313.066406 L 262.191406 312.992188 L 262.503906 312.894531 L 262.816406 312.828125 L 263.617188 312.707031 L 264.734375 312.589844 L 265.890625 312.503906 L 266.738281 312.449219 L 267.496094 312.410156 L 269.234375 312.335938 L 270.351562 312.296875 L 271.554688 312.261719 L 273.023438 312.226562 L 274.09375 312.207031 L 276.5 312.175781 L 278.285156 312.160156 L 279.667969 312.152344 L 282.652344 312.152344 L 284.4375 312.164062 L 285.730469 312.171875 L 287.15625 312.1875 L 288.359375 312.207031 L 290.453125 312.25 L 292.328125 312.308594 L 293.171875 312.339844 L 294.511719 312.402344 L 295.535156 312.464844 L 296.25 312.515625 L 297.050781 312.589844 L 297.765625 312.683594 L 298.300781 312.785156 L 298.566406 312.875 L 292.328125 312.875 L 292.015625 312.792969 L 291.65625 312.730469 L 290.988281 312.644531 L 290.320312 312.585938 L 289.382812 312.527344 L 288.539062 312.492188 L 287.378906 312.453125 L 286.351562 312.425781 L 285.285156 312.410156 L 284.257812 312.398438 L 282.296875 312.386719 L 280.023438 312.386719 L 279.175781 312.390625 L 277.4375 312.40625 L 276.5 312.417969 L 275.164062 312.449219 L 274.226562 312.472656 L 273.113281 312.515625 L 272.355469 312.550781 L 271.421875 312.601562 L 270.75 312.648438 L 269.992188 312.714844 L 269.546875 312.765625 L 269.148438 312.824219 L 268.789062 312.890625 L 268.523438 312.960938 L 268.34375 313.035156 L 268.253906 313.109375 L 268.253906 313.421875 L 268.34375 313.496094 L 268.566406 313.582031 L 269.148438 313.703125 L 269.992188 313.8125 L 270.972656 313.898438 L 271.910156 313.957031 L 272.445312 313.984375 L 273.160156 314.019531 L 274.273438 314.058594 L 275.878906 314.097656 L 276.8125 314.117188 L 278.238281 314.132812 L 279.710938 314.140625 L 281.671875 314.140625 L 283.410156 314.132812 L 284.570312 314.121094 L 285.773438 314.105469 L 287.421875 314.070312 L 288.449219 314.039062 L 289.339844 314 L 290.007812 313.960938 L 290.453125 313.929688 L 291.121094 313.867188 L 291.65625 313.796875 L 292.058594 313.726562 L 292.328125 313.65625 L 298.566406 313.65625 L 298.300781 313.738281 L 297.898438 313.816406 L 297.496094 313.875 L 296.875 313.945312 L 296.160156 314.011719 L 295.136719 314.082031 L 294.289062 314.128906 L 293.171875 314.179688 L 292.148438 314.214844 L 291.035156 314.25 L 289.382812 314.292969 L 288.316406 314.3125 L 287.15625 314.332031 L 285.773438 314.347656 L 284.035156 314.359375 L 282.164062 314.367188 L 280.425781 314.371094 L 278.550781 314.367188 L 277.171875 314.359375 L 275.34375 314.339844 L 273.070312 314.304688 L 271.421875 314.265625 L 270.128906 314.226562 L 269.011719 314.1875 L 267.765625 314.132812 L 266.160156 314.042969 L 265.179688 313.972656 L 264.511719 313.917969 L 263.753906 313.835938 L 263.21875 313.765625 L 262.59375 313.652344 L 262.148438 313.507812 L 262.015625 313.398438 Z M 262.015625 313.117188 "/>
<path style=" stroke:none;fill-rule:nonzero;fill:rgb(96.862745%,70.196078%,16.862745%);fill-opacity:1;" d="M 262.015625 291.910156 L 262.058594 291.898438 L 262.058594 291.664062 L 262.238281 291.140625 L 262.683594 290.417969 L 263.261719 289.824219 L 263.886719 289.355469 L 264.289062 289.109375 L 264.957031 288.761719 L 265.535156 288.503906 L 267.007812 287.980469 L 268.878906 287.492188 L 269.90625 287.28125 L 271.0625 287.082031 L 272.710938 286.859375 L 273.46875 286.777344 L 275.789062 286.59375 L 278.417969 286.476562 L 281.316406 286.441406 L 282.652344 286.453125 L 284.480469 286.5 L 286.976562 286.628906 L 288.402344 286.742188 L 289.519531 286.859375 L 290.675781 287.011719 L 292.105469 287.246094 L 293.441406 287.523438 L 294.511719 287.804688 L 295.582031 288.15625 L 296.472656 288.527344 L 297.230469 288.9375 L 297.898438 289.425781 L 298.300781 289.835938 L 298.566406 290.242188 L 292.371094 290.242188 L 292.015625 289.835938 L 291.613281 289.519531 L 290.945312 289.132812 L 290.277344 288.855469 L 289.605469 288.632812 L 288.359375 288.328125 L 287.289062 288.144531 L 285.953125 287.980469 L 284.660156 287.875 L 283.1875 287.804688 L 282.296875 287.78125 L 279.933594 287.78125 L 277.792969 287.863281 L 276.546875 287.957031 L 275.65625 288.050781 L 274.40625 288.226562 L 273.648438 288.363281 L 273.203125 288.457031 L 271.867188 288.820312 L 270.972656 289.144531 L 270.484375 289.367188 L 269.859375 289.71875 L 269.414062 290.03125 L 268.921875 290.5 L 268.65625 290.847656 L 268.300781 291.640625 L 268.253906 293.742188 L 268.390625 294.183594 L 268.65625 294.660156 L 269.011719 295.082031 L 269.546875 295.523438 L 270.082031 295.863281 L 271.019531 296.316406 L 271.820312 296.621094 L 272.445312 296.820312 L 273.648438 297.132812 L 274.140625 297.238281 L 275.296875 297.449219 L 276.5 297.613281 L 277.972656 297.75 L 279.085938 297.820312 L 280.871094 297.878906 L 283.144531 297.878906 L 285.816406 297.808594 L 287.511719 297.71875 L 288.671875 297.625 L 289.429688 297.542969 L 290.363281 297.414062 L 291.035156 297.296875 L 291.65625 297.167969 L 292.414062 296.96875 L 292.414062 294.183594 L 281.40625 294.171875 L 281.40625 292.867188 L 298.523438 292.855469 L 298.566406 297.414062 L 297.632812 297.730469 L 296.472656 298.03125 L 295.359375 298.265625 L 294.199219 298.464844 L 292.550781 298.683594 L 291.210938 298.824219 L 289.160156 298.988281 L 287.289062 299.09375 L 285.328125 299.164062 L 283.589844 299.199219 L 281.539062 299.210938 L 279.710938 299.1875 L 277.75 299.117188 L 276.191406 299.023438 L 274.761719 298.90625 L 273.335938 298.753906 L 271.554688 298.511719 L 270.394531 298.3125 L 269.191406 298.066406 L 267.988281 297.773438 L 266.917969 297.460938 L 266.203125 297.214844 L 265.492188 296.9375 L 264.734375 296.585938 L 264.019531 296.1875 L 263.484375 295.828125 L 262.996094 295.417969 L 262.636719 295.035156 L 262.28125 294.511719 L 262.101562 294.089844 L 262.015625 293.730469 Z M 262.015625 291.910156 "/>
<path style=" stroke:none;fill-rule:nonzero;fill:rgb(83.921569%,15.686275%,22.352941%);fill-opacity:1;" d="M 262.015625 306.332031 L 298.566406 306.332031 L 298.566406 306.828125 L 283.332031 306.832031 L 283.332031 310.972656 L 277.203125 310.972656 L 277.203125 306.835938 L 277.113281 306.828125 L 262.015625 306.828125 Z M 262.015625 306.332031 "/>
<path style=" stroke:none;fill-rule:nonzero;fill:rgb(6.27451%,58.823529%,28.235294%);fill-opacity:1;" d="M 300.492188 300.597656 L 300.53125 300.589844 L 316.347656 292.605469 L 321.148438 292.605469 L 337.042969 300.605469 L 331.460938 300.605469 L 327.476562 298.515625 L 310.019531 298.515625 L 306.113281 300.597656 L 300.492188 300.597656 L 311.699219 297.652344 L 325.875 297.644531 L 318.808594 293.914062 L 318.730469 293.90625 L 318.652344 293.925781 L 311.660156 297.644531 L 311.699219 297.652344 Z M 300.492188 300.597656 "/>
<path style=" stroke:none;fill-rule:nonzero;fill:rgb(14.509804%,36.078431%,60%);fill-opacity:1;" d="M 300.492188 310.210938 L 300.535156 310.210938 L 300.535156 310.15625 L 300.667969 310.070312 L 300.980469 309.964844 L 301.292969 309.890625 L 302.097656 309.757812 L 303.210938 309.628906 L 304.371094 309.53125 L 305.214844 309.472656 L 305.972656 309.425781 L 307.710938 309.34375 L 308.828125 309.300781 L 310.03125 309.265625 L 311.5 309.226562 L 312.570312 309.203125 L 314.980469 309.167969 L 316.761719 309.152344 L 318.144531 309.144531 L 321.128906 309.144531 L 322.914062 309.152344 L 324.207031 309.164062 L 325.632812 309.183594 L 326.835938 309.203125 L 328.929688 309.253906 L 330.804688 309.316406 L 331.652344 309.351562 L 332.988281 309.421875 L 334.011719 309.488281 L 334.726562 309.546875 L 335.527344 309.628906 L 336.242188 309.730469 L 336.777344 309.84375 L 337.042969 309.941406 L 330.804688 309.941406 L 330.492188 309.851562 L 330.136719 309.78125 L 329.464844 309.691406 L 328.796875 309.625 L 327.863281 309.558594 L 327.015625 309.515625 L 325.855469 309.472656 L 324.832031 309.449219 L 323.761719 309.425781 L 322.734375 309.414062 L 320.773438 309.402344 L 318.5 309.402344 L 317.652344 309.40625 L 315.914062 309.421875 L 314.980469 309.4375 L 313.640625 309.46875 L 312.707031 309.5 L 311.589844 309.542969 L 310.832031 309.582031 L 309.898438 309.640625 L 309.226562 309.691406 L 308.46875 309.765625 L 308.023438 309.820312 L 307.625 309.886719 L 307.265625 309.957031 L 307 310.039062 L 306.820312 310.121094 L 306.730469 310.199219 L 306.730469 310.546875 L 306.820312 310.628906 L 307.042969 310.722656 L 307.625 310.859375 L 308.46875 310.980469 L 309.449219 311.074219 L 310.386719 311.140625 L 310.921875 311.171875 L 311.636719 311.207031 L 312.75 311.253906 L 314.355469 311.296875 L 315.289062 311.316406 L 316.71875 311.332031 L 318.1875 311.34375 L 320.148438 311.34375 L 321.886719 311.332031 L 323.046875 311.324219 L 324.25 311.304688 L 325.898438 311.265625 L 326.925781 311.230469 L 327.816406 311.1875 L 328.484375 311.144531 L 328.929688 311.109375 L 329.601562 311.039062 L 330.136719 310.964844 L 330.535156 310.886719 L 330.804688 310.808594 L 337.042969 310.808594 L 336.777344 310.898438 L 336.375 310.984375 L 335.972656 311.050781 L 335.351562 311.128906 L 334.636719 311.199219 L 333.613281 311.277344 L 332.765625 311.328125 L 331.652344 311.386719 L 330.625 311.429688 L 329.511719 311.464844 L 327.863281 311.511719 L 326.792969 311.53125 L 325.632812 311.554688 L 324.25 311.570312 L 322.511719 311.585938 L 320.640625 311.597656 L 318.902344 311.597656 L 317.027344 311.59375 L 315.648438 311.585938 L 313.820312 311.566406 L 311.546875 311.523438 L 309.898438 311.480469 L 308.605469 311.4375 L 307.488281 311.394531 L 306.242188 311.332031 L 304.636719 311.234375 L 303.65625 311.160156 L 302.988281 311.097656 L 302.230469 311.007812 L 301.695312 310.929688 L 301.070312 310.804688 L 300.625 310.644531 L 300.492188 310.523438 Z M 300.492188 310.210938 "/>
<path style=" stroke:none;fill-rule:nonzero;fill:rgb(96.862745%,70.196078%,16.862745%);fill-opacity:1;" d="M 300.492188 304.429688 L 300.535156 304.425781 L 300.535156 304.3125 L 300.714844 304.058594 L 301.160156 303.707031 L 301.738281 303.421875 L 302.363281 303.195312 L 302.765625 303.078125 L 303.433594 302.90625 L 304.011719 302.78125 L 305.484375 302.527344 L 307.355469 302.292969 L 308.382812 302.191406 L 309.539062 302.09375 L 311.191406 301.988281 L 311.949219 301.945312 L 314.265625 301.855469 L 316.894531 301.800781 L 319.792969 301.785156 L 321.128906 301.789062 L 322.957031 301.8125 L 325.453125 301.875 L 326.878906 301.929688 L 327.996094 301.988281 L 329.152344 302.058594 L 330.582031 302.171875 L 331.917969 302.308594 L 332.988281 302.445312 L 334.058594 302.613281 L 334.949219 302.792969 L 335.707031 302.992188 L 336.375 303.230469 L 336.777344 303.425781 L 337.042969 303.625 L 330.847656 303.625 L 330.492188 303.425781 L 330.089844 303.273438 L 329.421875 303.085938 L 328.753906 302.953125 L 328.085938 302.84375 L 326.835938 302.699219 L 325.765625 302.609375 L 324.429688 302.527344 L 323.136719 302.476562 L 321.664062 302.445312 L 320.773438 302.433594 L 318.410156 302.433594 L 316.269531 302.472656 L 315.023438 302.515625 L 314.132812 302.5625 L 312.882812 302.648438 L 312.125 302.714844 L 311.679688 302.761719 L 310.34375 302.933594 L 309.449219 303.09375 L 308.960938 303.199219 L 308.335938 303.371094 L 307.890625 303.523438 L 307.402344 303.75 L 307.132812 303.917969 L 306.777344 304.300781 L 306.730469 305.316406 L 306.867188 305.53125 L 307.132812 305.761719 L 307.488281 305.964844 L 308.023438 306.179688 L 308.558594 306.34375 L 309.496094 306.566406 L 310.296875 306.710938 L 310.921875 306.808594 L 312.125 306.960938 L 312.617188 307.011719 L 313.773438 307.113281 L 314.980469 307.191406 L 316.449219 307.257812 L 317.5625 307.292969 L 319.347656 307.320312 L 321.621094 307.320312 L 324.296875 307.289062 L 325.988281 307.242188 L 327.148438 307.199219 L 327.90625 307.15625 L 328.84375 307.097656 L 329.511719 307.039062 L 330.136719 306.976562 L 330.894531 306.882812 L 330.894531 305.53125 L 319.882812 305.527344 L 319.882812 304.894531 L 337 304.886719 L 337.042969 307.097656 L 336.109375 307.25 L 334.949219 307.394531 L 333.835938 307.507812 L 332.675781 307.605469 L 331.027344 307.710938 L 329.6875 307.777344 L 327.636719 307.859375 L 325.765625 307.910156 L 323.804688 307.941406 L 322.066406 307.960938 L 320.015625 307.964844 L 318.1875 307.953125 L 316.226562 307.921875 L 314.667969 307.875 L 313.238281 307.820312 L 311.8125 307.746094 L 310.03125 307.625 L 308.871094 307.53125 L 307.667969 307.410156 L 306.464844 307.269531 L 305.394531 307.117188 L 304.679688 307 L 303.96875 306.863281 L 303.210938 306.695312 L 302.496094 306.503906 L 301.960938 306.328125 L 301.472656 306.128906 L 301.117188 305.945312 L 300.757812 305.691406 L 300.582031 305.488281 L 300.492188 305.3125 Z M 300.492188 304.429688 "/>
<path style=" stroke:none;fill-rule:nonzero;fill:rgb(83.921569%,15.686275%,22.352941%);fill-opacity:1;" d="M 300.492188 312.777344 L 337.042969 312.777344 L 337.042969 312.949219 L 321.808594 312.949219 L 321.808594 314.371094 L 315.679688 314.371094 L 315.679688 312.953125 L 315.59375 312.949219 L 300.492188 312.949219 Z M 300.492188 312.777344 "/>
<path style=" stroke:none;fill-rule:nonzero;fill:rgb(6.27451%,58.823529%,28.235294%);fill-opacity:1;" d="M 338.96875 310.710938 L 339.007812 310.707031 L 354.824219 309.15625 L 359.625 309.15625 L 375.519531 310.710938 L 369.9375 310.710938 L 365.953125 310.304688 L 348.496094 310.304688 L 344.589844 310.710938 L 338.96875 310.710938 L 350.175781 310.136719 L 364.351562 310.136719 L 357.285156 309.410156 L 357.207031 309.410156 L 357.128906 309.414062 L 350.136719 310.136719 L 350.175781 310.136719 Z M 338.96875 310.710938 "/>
<path style=" stroke:none;fill-rule:nonzero;fill:rgb(14.509804%,36.078431%,60%);fill-opacity:1;" d="M 338.96875 312.433594 L 339.011719 312.433594 L 339.011719 312.40625 L 339.144531 312.363281 L 339.457031 312.308594 L 339.769531 312.269531 L 340.574219 312.203125 L 341.6875 312.136719 L 342.847656 312.085938 L 343.691406 312.058594 L 344.449219 312.035156 L 346.191406 311.992188 L 347.304688 311.972656 L 348.507812 311.953125 L 349.980469 311.933594 L 351.046875 311.921875 L 353.457031 311.902344 L 355.238281 311.894531 L 356.621094 311.890625 L 359.605469 311.890625 L 361.390625 311.894531 L 362.683594 311.902344 L 364.109375 311.910156 L 365.3125 311.921875 L 367.410156 311.945312 L 369.28125 311.976562 L 370.128906 311.996094 L 371.464844 312.03125 L 372.488281 312.066406 L 373.203125 312.09375 L 374.003906 312.136719 L 374.71875 312.1875 L 375.253906 312.246094 L 375.519531 312.296875 L 369.28125 312.296875 L 368.96875 312.25 L 368.613281 312.214844 L 367.941406 312.167969 L 367.273438 312.136719 L 366.339844 312.101562 L 365.492188 312.082031 L 364.332031 312.058594 L 363.308594 312.046875 L 362.238281 312.035156 L 361.210938 312.027344 L 359.25 312.019531 L 356.976562 312.019531 L 356.128906 312.023438 L 354.390625 312.03125 L 353.457031 312.039062 L 352.117188 312.054688 L 351.183594 312.070312 L 350.066406 312.09375 L 349.308594 312.113281 L 348.375 312.144531 L 347.707031 312.167969 L 346.949219 312.207031 L 346.5 312.234375 L 346.101562 312.265625 L 345.742188 312.304688 L 345.476562 312.34375 L 345.296875 312.386719 L 345.207031 312.429688 L 345.207031 312.605469 L 345.296875 312.644531 L 345.519531 312.695312 L 346.101562 312.761719 L 346.949219 312.824219 L 347.929688 312.871094 L 348.863281 312.90625 L 349.398438 312.921875 L 350.113281 312.941406 L 351.226562 312.960938 L 352.832031 312.984375 L 353.769531 312.996094 L 355.195312 313.003906 L 356.664062 313.007812 L 358.625 313.007812 L 360.363281 313.003906 L 361.523438 312.996094 L 362.726562 312.988281 L 364.378906 312.96875 L 365.402344 312.953125 L 366.292969 312.929688 L 366.960938 312.90625 L 367.410156 312.890625 L 368.078125 312.855469 L 368.613281 312.816406 L 369.011719 312.777344 L 369.28125 312.738281 L 375.519531 312.738281 L 375.253906 312.78125 L 374.851562 312.828125 L 374.453125 312.859375 L 373.828125 312.898438 L 373.113281 312.933594 L 372.089844 312.976562 L 371.242188 313 L 370.128906 313.03125 L 369.101562 313.050781 L 367.988281 313.070312 L 366.339844 313.09375 L 365.269531 313.105469 L 364.109375 313.117188 L 362.726562 313.125 L 360.988281 313.132812 L 359.117188 313.136719 L 355.507812 313.136719 L 354.125 313.132812 L 352.296875 313.121094 L 350.023438 313.101562 L 348.375 313.078125 L 347.082031 313.058594 L 345.964844 313.035156 L 344.71875 313.003906 L 343.113281 312.953125 L 342.132812 312.914062 L 341.464844 312.882812 L 340.707031 312.839844 L 340.171875 312.796875 L 339.546875 312.734375 L 339.101562 312.652344 L 338.96875 312.589844 Z M 338.96875 312.433594 "/>
<path style=" stroke:none;fill-rule:nonzero;fill:rgb(96.862745%,70.196078%,16.862745%);fill-opacity:1;" d="M 338.96875 307.023438 L 339.011719 307.019531 L 339.011719 306.988281 L 339.191406 306.921875 L 339.636719 306.828125 L 340.214844 306.75 L 340.839844 306.6875 L 341.242188 306.65625 L 341.910156 306.609375 L 342.488281 306.578125 L 343.960938 306.507812 L 345.832031 306.445312 L 346.859375 306.417969 L 348.015625 306.390625 L 349.667969 306.363281 L 350.425781 306.351562 L 352.742188 306.328125 L 355.371094 306.3125 L 358.269531 306.304688 L 359.605469 306.308594 L 361.433594 306.3125 L 363.929688 306.332031 L 365.359375 306.347656 L 366.472656 306.363281 L 367.632812 306.382812 L 369.058594 306.410156 L 370.394531 306.449219 L 371.464844 306.484375 L 372.535156 306.53125 L 373.425781 306.578125 L 374.183594 306.632812 L 374.851562 306.695312 L 375.253906 306.75 L 375.519531 306.804688 L 369.324219 306.804688 L 368.96875 306.75 L 368.566406 306.710938 L 367.898438 306.660156 L 367.230469 306.621094 L 366.5625 306.59375 L 365.3125 306.554688 L 364.242188 306.527344 L 362.90625 306.507812 L 361.613281 306.492188 L 360.140625 306.484375 L 359.25 306.480469 L 356.886719 306.480469 L 354.75 306.492188 L 353.5 306.503906 L 352.609375 306.515625 L 351.359375 306.539062 L 350.601562 306.558594 L 350.15625 306.570312 L 348.820312 306.617188 L 347.929688 306.660156 L 347.4375 306.6875 L 346.8125 306.734375 L 346.367188 306.777344 L 345.878906 306.835938 L 345.609375 306.882812 L 345.253906 306.988281 L 345.207031 307.261719 L 345.34375 307.320312 L 345.609375 307.382812 L 345.964844 307.4375 L 346.5 307.496094 L 347.035156 307.539062 L 347.972656 307.597656 L 348.773438 307.636719 L 349.398438 307.664062 L 350.601562 307.707031 L 351.09375 307.71875 L 352.253906 307.746094 L 353.457031 307.769531 L 354.925781 307.785156 L 356.042969 307.796875 L 357.824219 307.804688 L 360.097656 307.804688 L 362.773438 307.792969 L 364.464844 307.78125 L 365.625 307.769531 L 366.382812 307.757812 L 367.320312 307.742188 L 367.988281 307.726562 L 368.613281 307.710938 L 369.371094 307.683594 L 369.371094 307.320312 L 358.359375 307.316406 L 358.359375 307.148438 L 375.476562 307.144531 L 375.519531 307.742188 L 374.585938 307.785156 L 373.425781 307.824219 L 372.3125 307.851562 L 371.152344 307.878906 L 369.503906 307.910156 L 368.167969 307.925781 L 366.117188 307.949219 L 364.242188 307.960938 L 362.28125 307.972656 L 360.542969 307.976562 L 358.492188 307.976562 L 356.664062 307.972656 L 354.703125 307.964844 L 353.144531 307.953125 L 351.71875 307.9375 L 350.289062 307.917969 L 348.507812 307.886719 L 347.347656 307.859375 L 346.144531 307.828125 L 344.941406 307.789062 L 343.871094 307.75 L 343.160156 307.714844 L 342.445312 307.679688 L 341.6875 307.632812 L 340.972656 307.582031 L 340.4375 307.535156 L 339.949219 307.480469 L 339.59375 307.429688 L 339.234375 307.363281 L 339.058594 307.308594 L 338.96875 307.261719 Z M 338.96875 307.023438 "/>
<path style=" stroke:none;fill-rule:nonzero;fill:rgb(83.921569%,15.686275%,22.352941%);fill-opacity:1;" d="M 338.96875 314.316406 L 375.519531 314.316406 L 375.519531 314.324219 L 360.285156 314.324219 L 360.285156 314.371094 L 354.15625 314.371094 L 354.15625 314.324219 L 338.96875 314.324219 Z M 338.96875 314.316406 "/>
<path style=" stroke:none;fill-rule:nonzero;fill:rgb(6.27451%,58.823529%,28.235294%);fill-opacity:1;" d="M 377.445312 309.058594 L 377.484375 309.054688 L 393.300781 307.378906 L 398.105469 307.378906 L 414 309.058594 L 408.414062 309.058594 L 404.429688 308.621094 L 386.972656 308.621094 L 383.070312 309.058594 L 377.445312 309.058594 L 388.652344 308.4375 L 402.828125 308.4375 L 395.761719 307.652344 L 395.683594 307.652344 L 395.605469 307.65625 L 388.613281 308.4375 L 388.652344 308.4375 Z M 377.445312 309.058594 "/>
<path style=" stroke:none;fill-rule:nonzero;fill:rgb(14.509804%,36.078431%,60%);fill-opacity:1;" d="M 377.445312 310.703125 L 377.488281 310.703125 L 377.488281 310.679688 L 377.625 310.640625 L 377.933594 310.59375 L 378.246094 310.5625 L 379.050781 310.503906 L 380.164062 310.449219 L 381.324219 310.40625 L 382.171875 310.382812 L 382.929688 310.363281 L 384.667969 310.324219 L 385.78125 310.308594 L 386.984375 310.289062 L 388.457031 310.273438 L 389.527344 310.265625 L 391.933594 310.25 L 393.714844 310.242188 L 395.097656 310.238281 L 398.085938 310.238281 L 399.867188 310.242188 L 401.160156 310.246094 L 402.585938 310.253906 L 403.789062 310.265625 L 405.886719 310.285156 L 407.757812 310.3125 L 408.605469 310.328125 L 409.941406 310.359375 L 410.96875 310.386719 L 411.679688 310.414062 L 412.484375 310.449219 L 413.195312 310.492188 L 413.730469 310.542969 L 414 310.585938 L 407.757812 310.585938 L 407.445312 310.546875 L 407.089844 310.515625 L 406.421875 310.476562 L 405.75 310.449219 L 404.816406 310.417969 L 403.96875 310.402344 L 402.808594 310.382812 L 401.785156 310.371094 L 400.714844 310.363281 L 399.6875 310.355469 L 397.726562 310.351562 L 394.605469 310.351562 L 392.867188 310.359375 L 391.933594 310.367188 L 390.59375 310.378906 L 389.660156 310.394531 L 388.542969 310.414062 L 387.785156 310.429688 L 386.851562 310.453125 L 386.183594 310.476562 L 385.425781 310.507812 L 384.980469 310.535156 L 384.578125 310.5625 L 384.222656 310.59375 L 383.953125 310.628906 L 383.773438 310.664062 L 383.6875 310.699219 L 383.6875 310.851562 L 383.773438 310.886719 L 383.996094 310.925781 L 384.578125 310.984375 L 385.425781 311.035156 L 386.40625 311.078125 L 387.339844 311.105469 L 387.875 311.121094 L 388.589844 311.136719 L 389.703125 311.15625 L 391.308594 311.175781 L 392.246094 311.183594 L 393.671875 311.191406 L 395.140625 311.195312 L 397.105469 311.195312 L 398.84375 311.191406 L 400 311.1875 L 401.203125 311.179688 L 402.855469 311.160156 L 403.878906 311.144531 L 404.769531 311.128906 L 405.441406 311.109375 L 405.886719 311.09375 L 406.554688 311.0625 L 407.089844 311.03125 L 407.488281 310.996094 L 407.757812 310.964844 L 414 310.964844 L 413.730469 311 L 413.328125 311.039062 L 412.929688 311.066406 L 412.304688 311.101562 L 411.589844 311.132812 L 410.566406 311.167969 L 409.71875 311.1875 L 408.605469 311.214844 L 407.578125 311.230469 L 406.464844 311.25 L 404.816406 311.269531 L 403.746094 311.277344 L 402.585938 311.285156 L 401.203125 311.292969 L 399.464844 311.300781 L 397.59375 311.304688 L 393.984375 311.304688 L 392.601562 311.300781 L 390.773438 311.292969 L 388.5 311.273438 L 386.851562 311.253906 L 385.558594 311.238281 L 384.445312 311.21875 L 383.195312 311.191406 L 381.589844 311.148438 L 380.609375 311.113281 L 379.941406 311.085938 L 379.183594 311.050781 L 378.648438 311.015625 L 378.023438 310.960938 L 377.578125 310.890625 L 377.445312 310.839844 Z M 377.445312 310.703125 "/>
<path style=" stroke:none;fill-rule:nonzero;fill:rgb(96.862745%,70.196078%,16.862745%);fill-opacity:1;" d="M 377.445312 312.710938 L 377.488281 312.710938 L 377.488281 312.699219 L 377.667969 312.679688 L 378.113281 312.648438 L 378.691406 312.625 L 379.316406 312.605469 L 379.71875 312.59375 L 380.386719 312.582031 L 380.964844 312.570312 L 382.4375 312.550781 L 384.308594 312.527344 L 385.335938 312.519531 L 386.496094 312.511719 L 388.144531 312.503906 L 388.902344 312.5 L 391.21875 312.492188 L 393.847656 312.488281 L 396.746094 312.484375 L 398.085938 312.488281 L 399.910156 312.488281 L 402.410156 312.492188 L 403.835938 312.5 L 404.949219 312.503906 L 406.109375 312.507812 L 407.535156 312.519531 L 408.871094 312.53125 L 411.011719 312.554688 L 411.902344 312.570312 L 412.660156 312.589844 L 413.328125 312.609375 L 413.730469 312.625 L 414 312.640625 L 407.800781 312.640625 L 407.445312 312.625 L 407.042969 312.613281 L 406.375 312.597656 L 405.039062 312.574219 L 403.789062 312.5625 L 402.71875 312.554688 L 401.382812 312.550781 L 400.089844 312.542969 L 398.621094 312.542969 L 397.726562 312.539062 L 395.363281 312.539062 L 393.226562 312.542969 L 391.976562 312.546875 L 391.085938 312.550781 L 389.835938 312.558594 L 389.078125 312.566406 L 387.296875 312.582031 L 386.40625 312.597656 L 385.914062 312.605469 L 385.289062 312.621094 L 384.84375 312.632812 L 384.355469 312.652344 L 384.085938 312.667969 L 383.730469 312.699219 L 383.6875 312.785156 L 383.820312 312.804688 L 384.085938 312.824219 L 384.445312 312.839844 L 384.980469 312.859375 L 385.511719 312.871094 L 386.449219 312.890625 L 387.253906 312.902344 L 387.875 312.910156 L 389.078125 312.921875 L 389.570312 312.929688 L 390.730469 312.9375 L 391.933594 312.941406 L 393.402344 312.949219 L 394.519531 312.953125 L 401.25 312.953125 L 402.941406 312.949219 L 404.101562 312.945312 L 404.859375 312.941406 L 405.796875 312.933594 L 406.464844 312.929688 L 407.089844 312.925781 L 407.847656 312.917969 L 407.847656 312.804688 L 396.835938 312.800781 L 396.835938 312.75 L 413.953125 312.75 L 414 312.933594 L 413.0625 312.949219 L 411.902344 312.960938 L 410.789062 312.96875 L 409.628906 312.976562 L 407.980469 312.988281 L 406.644531 312.992188 L 404.59375 313 L 402.71875 313.003906 L 400.757812 313.007812 L 395.140625 313.007812 L 393.179688 313.003906 L 391.621094 313 L 390.195312 312.996094 L 388.769531 312.988281 L 386.984375 312.980469 L 385.824219 312.972656 L 383.417969 312.949219 L 382.347656 312.9375 L 381.636719 312.925781 L 380.921875 312.914062 L 380.164062 312.902344 L 379.449219 312.886719 L 378.917969 312.871094 L 378.425781 312.855469 L 378.070312 312.835938 L 377.710938 312.816406 L 377.535156 312.800781 L 377.445312 312.785156 Z M 377.445312 312.710938 "/>
<path style=" stroke:none;fill-rule:nonzero;fill:rgb(83.921569%,15.686275%,22.352941%);fill-opacity:1;" d="M 377.445312 314.1875 L 414 314.1875 L 414 314.207031 L 398.765625 314.207031 L 398.765625 314.371094 L 392.636719 314.371094 L 392.636719 314.207031 L 377.445312 314.207031 Z M 377.445312 314.1875 "/>
<path style=" stroke:none;fill-rule:nonzero;fill:rgb(6.27451%,58.823529%,28.235294%);fill-opacity:1;" d="M 415.921875 312.558594 L 415.960938 312.558594 L 431.777344 311.546875 L 436.582031 311.546875 L 452.476562 312.558594 L 446.890625 312.558594 L 442.90625 312.296875 L 425.449219 312.296875 L 421.546875 312.558594 L 415.921875 312.558594 L 427.128906 312.1875 L 441.304688 312.183594 L 434.238281 311.710938 L 434.160156 311.710938 L 434.082031 311.714844 L 427.089844 312.183594 L 427.128906 312.1875 Z M 415.921875 312.558594 "/>
<path style=" stroke:none;fill-rule:nonzero;fill:rgb(14.509804%,36.078431%,60%);fill-opacity:1;" d="M 415.921875 309.230469 L 415.964844 309.226562 L 415.964844 309.183594 L 416.101562 309.113281 L 416.414062 309.023438 L 416.722656 308.964844 L 417.527344 308.855469 L 418.640625 308.75 L 419.800781 308.667969 L 420.648438 308.621094 L 421.40625 308.585938 L 423.144531 308.515625 L 424.257812 308.480469 L 425.460938 308.449219 L 426.933594 308.417969 L 428.003906 308.402344 L 430.410156 308.371094 L 432.191406 308.359375 L 433.574219 308.351562 L 436.5625 308.351562 L 438.34375 308.359375 L 439.636719 308.371094 L 441.0625 308.382812 L 442.265625 308.402344 L 444.363281 308.441406 L 446.234375 308.492188 L 447.082031 308.523438 L 448.417969 308.578125 L 449.445312 308.636719 L 450.15625 308.683594 L 450.960938 308.75 L 451.671875 308.832031 L 452.207031 308.925781 L 452.476562 309.007812 L 446.234375 309.007812 L 445.921875 308.933594 L 445.566406 308.875 L 444.898438 308.800781 L 444.226562 308.746094 L 443.292969 308.695312 L 442.445312 308.660156 L 441.285156 308.625 L 440.261719 308.601562 L 439.191406 308.585938 L 438.164062 308.574219 L 436.203125 308.5625 L 433.929688 308.5625 L 433.085938 308.566406 L 431.347656 308.582031 L 430.410156 308.59375 L 429.074219 308.621094 L 428.136719 308.644531 L 427.023438 308.679688 L 426.265625 308.710938 L 425.328125 308.761719 L 424.660156 308.800781 L 423.902344 308.863281 L 423.457031 308.910156 L 423.054688 308.960938 L 422.699219 309.019531 L 422.429688 309.085938 L 422.253906 309.152344 L 422.164062 309.21875 L 422.164062 309.503906 L 422.253906 309.570312 L 422.476562 309.648438 L 423.054688 309.761719 L 423.902344 309.859375 L 424.882812 309.9375 L 425.816406 309.992188 L 426.351562 310.015625 L 427.066406 310.046875 L 428.179688 310.082031 L 429.785156 310.121094 L 430.722656 310.136719 L 432.148438 310.148438 L 433.621094 310.15625 L 435.582031 310.15625 L 437.320312 310.148438 L 438.476562 310.140625 L 439.679688 310.125 L 441.332031 310.09375 L 442.355469 310.066406 L 443.246094 310.03125 L 443.917969 309.996094 L 444.363281 309.964844 L 445.03125 309.910156 L 445.566406 309.847656 L 445.96875 309.78125 L 446.234375 309.71875 L 452.476562 309.71875 L 452.207031 309.792969 L 451.804688 309.863281 L 451.40625 309.917969 L 450.78125 309.980469 L 450.066406 310.039062 L 449.042969 310.105469 L 448.195312 310.144531 L 447.082031 310.191406 L 446.054688 310.226562 L 444.941406 310.257812 L 443.292969 310.296875 L 442.222656 310.3125 L 441.0625 310.332031 L 439.679688 310.34375 L 437.941406 310.359375 L 436.070312 310.363281 L 434.332031 310.367188 L 432.460938 310.363281 L 431.078125 310.355469 L 429.25 310.339844 L 426.976562 310.304688 L 425.328125 310.269531 L 424.035156 310.238281 L 422.921875 310.199219 L 421.671875 310.148438 L 420.066406 310.070312 L 419.085938 310.007812 L 418.417969 309.953125 L 417.660156 309.882812 L 417.125 309.820312 L 416.5 309.714844 L 416.054688 309.585938 L 415.921875 309.484375 Z M 415.921875 309.230469 "/>
<path style=" stroke:none;fill-rule:nonzero;fill:rgb(96.862745%,70.196078%,16.862745%);fill-opacity:1;" d="M 415.921875 314.007812 L 415.964844 314.007812 L 415.964844 313.996094 L 416.144531 313.972656 L 416.589844 313.9375 L 417.171875 313.90625 L 417.792969 313.882812 L 418.195312 313.871094 L 418.863281 313.855469 L 419.445312 313.839844 L 420.914062 313.816406 L 422.785156 313.789062 L 423.8125 313.78125 L 424.972656 313.769531 L 426.621094 313.761719 L 427.378906 313.753906 L 429.695312 313.746094 L 432.328125 313.742188 L 435.222656 313.738281 L 436.5625 313.738281 L 438.390625 313.742188 L 440.886719 313.75 L 442.3125 313.753906 L 443.425781 313.761719 L 444.585938 313.765625 L 446.011719 313.777344 L 447.347656 313.792969 L 448.417969 313.804688 L 449.488281 313.824219 L 450.378906 313.84375 L 451.136719 313.863281 L 451.804688 313.886719 L 452.207031 313.90625 L 452.476562 313.925781 L 446.277344 313.925781 L 445.921875 313.90625 L 445.519531 313.890625 L 444.851562 313.871094 L 443.515625 313.847656 L 442.265625 313.832031 L 441.195312 313.824219 L 439.859375 313.816406 L 438.566406 313.808594 L 437.097656 313.804688 L 433.84375 313.804688 L 431.703125 313.808594 L 430.453125 313.8125 L 429.5625 313.820312 L 428.316406 313.828125 L 427.558594 313.835938 L 427.109375 313.839844 L 425.773438 313.855469 L 424.882812 313.871094 L 424.390625 313.882812 L 423.769531 313.902344 L 423.320312 313.917969 L 422.832031 313.941406 L 422.5625 313.957031 L 422.207031 313.996094 L 422.164062 314.101562 L 422.296875 314.121094 L 422.5625 314.144531 L 422.921875 314.167969 L 423.992188 314.207031 L 424.925781 314.226562 L 425.730469 314.242188 L 426.351562 314.253906 L 427.558594 314.269531 L 428.046875 314.273438 L 429.207031 314.285156 L 430.410156 314.292969 L 431.878906 314.296875 L 432.996094 314.300781 L 434.777344 314.304688 L 437.050781 314.304688 L 439.726562 314.300781 L 441.421875 314.296875 L 442.578125 314.292969 L 443.335938 314.289062 L 444.273438 314.28125 L 444.941406 314.277344 L 445.566406 314.269531 L 446.324219 314.261719 L 446.324219 314.121094 L 435.3125 314.121094 L 435.3125 314.058594 L 452.429688 314.054688 L 452.476562 314.28125 L 451.539062 314.296875 L 450.378906 314.3125 L 449.265625 314.324219 L 448.105469 314.332031 L 446.457031 314.34375 L 445.121094 314.351562 L 443.070312 314.359375 L 441.195312 314.363281 L 439.234375 314.367188 L 437.496094 314.371094 L 433.621094 314.371094 L 431.65625 314.367188 L 430.097656 314.363281 L 427.246094 314.347656 L 425.460938 314.335938 L 424.300781 314.328125 L 423.097656 314.3125 L 421.894531 314.300781 L 420.824219 314.285156 L 420.113281 314.273438 L 419.398438 314.257812 L 418.640625 314.242188 L 417.929688 314.222656 L 417.394531 314.203125 L 416.902344 314.183594 L 416.546875 314.164062 L 416.191406 314.136719 L 416.011719 314.117188 L 415.921875 314.097656 Z M 415.921875 314.007812 "/>
<path style=" stroke:none;fill-rule:nonzero;fill:rgb(83.921569%,15.686275%,22.352941%);fill-opacity:1;" d="M 415.921875 304.109375 L 452.476562 304.109375 L 452.476562 304.4375 L 437.242188 304.441406 L 437.242188 307.171875 L 431.113281 307.171875 L 431.113281 304.445312 L 431.023438 304.4375 L 415.921875 304.4375 Z M 415.921875 304.109375 "/>
<path style=" stroke:none;fill-rule:nonzero;fill:rgb(6.27451%,58.823529%,28.235294%);fill-opacity:1;" d="M 454.398438 314.3125 L 454.4375 314.257812 L 470.253906 253.875 L 475.058594 253.875 L 490.953125 314.371094 L 485.367188 314.371094 L 481.382812 298.578125 L 463.929688 298.578125 L 460.023438 314.3125 L 454.398438 314.3125 L 465.605469 292.046875 L 479.78125 291.992188 L 472.714844 263.757812 L 472.636719 263.703125 L 472.558594 263.875 L 465.566406 291.992188 L 465.605469 292.046875 Z M 454.398438 314.3125 "/>
<path style=" stroke:none;fill-rule:nonzero;fill:rgb(14.509804%,36.078431%,60%);fill-opacity:1;" d="M 454.398438 202.878906 L 454.445312 202.800781 L 454.445312 200.867188 L 454.578125 197.800781 L 454.890625 193.933594 L 455.203125 191.273438 L 456.003906 186.515625 L 457.117188 181.921875 L 458.277344 178.375 L 459.125 176.28125 L 459.882812 174.667969 L 461.621094 171.6875 L 462.734375 170.152344 L 463.9375 168.785156 L 465.410156 167.414062 L 466.480469 166.605469 L 468.886719 165.316406 L 470.667969 164.753906 L 472.050781 164.511719 L 475.039062 164.511719 L 476.820312 164.832031 L 478.113281 165.238281 L 479.539062 165.882812 L 480.742188 166.605469 L 482.839844 168.378906 L 484.710938 170.636719 L 485.558594 171.925781 L 486.894531 174.425781 L 487.921875 176.84375 L 488.632812 178.941406 L 489.4375 181.921875 L 490.148438 185.550781 L 490.683594 189.660156 L 490.953125 193.128906 L 484.710938 193.128906 L 484.398438 189.902344 L 484.042969 187.402344 L 483.375 184.097656 L 482.707031 181.761719 L 481.769531 179.425781 L 480.921875 177.890625 L 479.761719 176.359375 L 478.738281 175.394531 L 477.667969 174.667969 L 476.644531 174.183594 L 474.679688 173.699219 L 472.40625 173.699219 L 471.5625 173.863281 L 469.824219 174.507812 L 468.886719 175.070312 L 467.550781 176.199219 L 466.613281 177.246094 L 465.5 178.859375 L 464.742188 180.230469 L 463.804688 182.324219 L 463.136719 184.179688 L 462.378906 186.839844 L 461.933594 188.855469 L 461.53125 191.113281 L 461.175781 193.773438 L 460.90625 196.59375 L 460.730469 199.574219 L 460.640625 202.476562 L 460.640625 214.972656 L 460.730469 217.875 L 460.953125 221.257812 L 461.53125 226.175781 L 462.378906 230.449219 L 463.359375 233.835938 L 464.296875 236.253906 L 464.828125 237.382812 L 465.542969 238.671875 L 466.65625 240.28125 L 468.261719 241.894531 L 469.199219 242.539062 L 470.625 243.183594 L 472.097656 243.507812 L 474.058594 243.507812 L 475.796875 243.183594 L 476.953125 242.78125 L 478.160156 242.136719 L 479.808594 240.765625 L 480.832031 239.476562 L 481.726562 237.945312 L 482.394531 236.414062 L 482.839844 235.125 L 483.507812 232.625 L 484.042969 229.882812 L 484.445312 227.0625 L 484.710938 224.324219 L 490.953125 224.324219 L 490.683594 227.546875 L 490.285156 230.691406 L 489.882812 233.027344 L 489.257812 235.847656 L 488.546875 238.347656 L 487.519531 241.167969 L 486.671875 243.023438 L 485.558594 245.039062 L 484.53125 246.570312 L 483.417969 247.941406 L 481.769531 249.554688 L 480.699219 250.359375 L 479.539062 251.085938 L 478.160156 251.730469 L 476.421875 252.292969 L 474.546875 252.617188 L 472.808594 252.695312 L 470.9375 252.535156 L 469.554688 252.210938 L 467.726562 251.488281 L 465.453125 250.035156 L 463.804688 248.503906 L 462.511719 246.972656 L 461.398438 245.359375 L 460.148438 243.183594 L 458.542969 239.636719 L 457.5625 236.898438 L 456.894531 234.640625 L 456.136719 231.496094 L 455.601562 228.675781 L 454.980469 224.160156 L 454.53125 218.4375 L 454.398438 214.003906 Z M 454.398438 202.878906 "/>
<path style=" stroke:none;fill-rule:nonzero;fill:rgb(83.921569%,15.686275%,22.352941%);fill-opacity:1;" d="M 492.875 20.664062 L 529.429688 20.664062 L 529.429688 52.101562 L 514.195312 52.378906 L 514.195312 314.371094 L 508.066406 314.371094 L 508.066406 52.652344 L 507.976562 52.101562 L 492.875 52.101562 Z M 492.875 20.664062 "/>
<path style=" stroke:none;fill-rule:nonzero;fill:rgb(83.921569%,15.686275%,22.352941%);fill-opacity:1;" d="M 531.351562 20.664062 L 567.90625 20.664062 L 567.90625 52.101562 L 552.671875 52.378906 L 552.671875 314.371094 L 546.542969 314.371094 L 546.542969 52.652344 L 546.453125 52.101562 L 531.351562 52.101562 Z M 531.351562 20.664062 "/>
<path style=" stroke:none;fill-rule:nonzero;fill:rgb(83.921569%,15.686275%,22.352941%);fill-opacity:1;" d="M 569.828125 20.664062 L 606.382812 20.664062 L 606.382812 52.101562 L 591.148438 52.378906 L 591.148438 314.371094 L 585.019531 314.371094 L 585.019531 52.652344 L 584.929688 52.101562 L 569.828125 52.101562 Z M 569.828125 20.664062 "/>
<path style=" stroke:none;fill-rule:nonzero;fill:rgb(6.27451%,58.823529%,28.235294%);fill-opacity:1;" d="M 608.308594 314.320312 L 608.347656 314.265625 L 624.164062 259.148438 L 628.964844 259.148438 L 644.859375 314.371094 L 639.277344 314.371094 L 635.292969 299.957031 L 617.835938 299.957031 L 613.929688 314.320312 L 608.308594 314.320312 L 619.515625 293.992188 L 633.691406 293.941406 L 626.621094 268.171875 L 626.542969 268.117188 L 626.464844 268.273438 L 619.476562 293.941406 L 619.515625 293.992188 Z M 608.308594 314.320312 "/>
<path style=" stroke:none;fill-rule:nonzero;fill:rgb(96.862745%,70.196078%,16.862745%);fill-opacity:1;" d="M 608.308594 201.9375 L 608.351562 201.847656 L 608.351562 200.058594 L 608.53125 196.03125 L 608.976562 190.480469 L 609.554688 185.914062 L 610.179688 182.335938 L 610.582031 180.457031 L 611.25 177.769531 L 611.828125 175.800781 L 613.300781 171.773438 L 615.171875 168.015625 L 616.195312 166.402344 L 617.355469 164.882812 L 619.003906 163.179688 L 619.761719 162.554688 L 622.082031 161.121094 L 624.710938 160.226562 L 627.609375 159.957031 L 628.945312 160.046875 L 630.773438 160.40625 L 633.269531 161.390625 L 634.695312 162.285156 L 635.8125 163.179688 L 636.96875 164.34375 L 638.394531 166.132812 L 639.734375 168.28125 L 640.804688 170.429688 L 641.875 173.117188 L 642.765625 175.980469 L 643.523438 179.113281 L 644.191406 182.871094 L 644.59375 186.003906 L 644.859375 189.136719 L 638.664062 189.136719 L 638.308594 186.003906 L 637.90625 183.589844 L 637.238281 180.636719 L 636.570312 178.488281 L 635.898438 176.785156 L 634.652344 174.457031 L 633.582031 173.027344 L 632.246094 171.773438 L 630.953125 170.96875 L 629.480469 170.429688 L 628.589844 170.253906 L 626.226562 170.253906 L 624.085938 170.878906 L 622.839844 171.59375 L 621.949219 172.3125 L 620.699219 173.652344 L 619.941406 174.726562 L 619.496094 175.445312 L 618.160156 178.21875 L 617.265625 180.722656 L 616.777344 182.425781 L 616.152344 185.109375 L 615.707031 187.527344 L 615.214844 191.105469 L 614.949219 193.792969 L 614.59375 199.878906 L 614.546875 215.988281 L 614.679688 219.390625 L 614.949219 223.0625 L 615.304688 226.285156 L 615.839844 229.683594 L 616.375 232.28125 L 617.3125 235.769531 L 618.113281 238.097656 L 618.738281 239.621094 L 619.941406 242.035156 L 620.433594 242.84375 L 621.589844 244.453125 L 622.792969 245.707031 L 624.265625 246.78125 L 625.378906 247.316406 L 627.164062 247.765625 L 629.4375 247.765625 L 632.109375 247.226562 L 633.804688 246.511719 L 634.964844 245.796875 L 635.722656 245.167969 L 636.65625 244.183594 L 637.328125 243.289062 L 637.949219 242.304688 L 638.707031 240.785156 L 638.707031 219.390625 L 627.699219 219.300781 L 627.699219 209.277344 L 644.816406 209.1875 L 644.859375 244.183594 L 643.925781 246.601562 L 642.765625 248.929688 L 641.652344 250.71875 L 640.492188 252.242188 L 638.84375 253.941406 L 637.503906 255.015625 L 635.453125 256.269531 L 633.582031 257.074219 L 631.621094 257.609375 L 629.882812 257.878906 L 627.832031 257.96875 L 626.003906 257.789062 L 624.042969 257.253906 L 622.480469 256.535156 L 621.054688 255.640625 L 619.628906 254.476562 L 617.847656 252.597656 L 616.6875 251.078125 L 615.484375 249.195312 L 614.28125 246.960938 L 613.210938 244.542969 L 612.496094 242.664062 L 611.785156 240.515625 L 611.027344 237.828125 L 610.3125 234.785156 L 609.777344 232.011719 L 609.289062 228.878906 L 608.929688 225.925781 L 608.574219 221.898438 L 608.394531 218.675781 L 608.308594 215.902344 Z M 608.308594 201.9375 "/>
<path style=" stroke:none;fill-rule:nonzero;fill:rgb(14.509804%,36.078431%,60%);fill-opacity:1;" d="M 646.785156 287.871094 L 646.828125 287.828125 L 646.828125 286.796875 L 646.960938 285.167969 L 647.273438 283.109375 L 647.585938 281.695312 L 648.390625 279.164062 L 649.503906 276.71875 L 650.660156 274.832031 L 651.507812 273.71875 L 652.265625 272.859375 L 654.003906 271.273438 L 655.121094 270.460938 L 656.324219 269.730469 L 657.792969 269 L 658.863281 268.574219 L 661.269531 267.886719 L 663.054688 267.585938 L 664.4375 267.457031 L 667.421875 267.457031 L 669.207031 267.628906 L 670.5 267.84375 L 671.925781 268.1875 L 673.128906 268.574219 L 675.222656 269.515625 L 677.097656 270.714844 L 677.941406 271.402344 L 679.28125 272.730469 L 680.304688 274.019531 L 681.019531 275.132812 L 681.820312 276.71875 L 682.535156 278.648438 L 683.070312 280.835938 L 683.335938 282.679688 L 677.097656 282.679688 L 676.785156 280.964844 L 676.425781 279.636719 L 675.757812 277.878906 L 675.089844 276.632812 L 674.152344 275.390625 L 673.308594 274.574219 L 672.148438 273.761719 L 671.121094 273.246094 L 670.054688 272.859375 L 669.027344 272.601562 L 667.066406 272.347656 L 664.792969 272.347656 L 663.945312 272.433594 L 662.207031 272.773438 L 661.269531 273.074219 L 659.933594 273.675781 L 658.996094 274.234375 L 657.882812 275.089844 L 657.125 275.820312 L 656.191406 276.933594 L 655.519531 277.921875 L 654.761719 279.335938 L 654.316406 280.40625 L 653.917969 281.609375 L 653.558594 283.023438 L 653.292969 284.523438 L 653.113281 286.109375 L 653.023438 287.65625 L 653.023438 294.300781 L 653.113281 295.84375 L 653.335938 297.648438 L 653.917969 300.261719 L 654.761719 302.535156 L 655.742188 304.335938 L 656.679688 305.621094 L 657.214844 306.222656 L 657.929688 306.910156 L 659.042969 307.765625 L 660.648438 308.625 L 661.582031 308.96875 L 663.011719 309.308594 L 664.480469 309.480469 L 666.441406 309.480469 L 668.179688 309.308594 L 669.339844 309.097656 L 670.542969 308.753906 L 672.191406 308.023438 L 673.21875 307.339844 L 674.109375 306.523438 L 674.777344 305.707031 L 675.222656 305.023438 L 675.894531 303.691406 L 676.425781 302.234375 L 676.828125 300.734375 L 677.097656 299.277344 L 683.335938 299.277344 L 683.070312 300.992188 L 682.667969 302.664062 L 682.265625 303.90625 L 681.644531 305.410156 L 680.929688 306.738281 L 679.90625 308.238281 L 679.058594 309.226562 L 677.941406 310.296875 L 676.917969 311.113281 L 675.804688 311.839844 L 674.152344 312.699219 L 673.085938 313.128906 L 671.925781 313.511719 L 670.542969 313.855469 L 668.804688 314.15625 L 666.933594 314.328125 L 665.195312 314.371094 L 663.320312 314.285156 L 661.941406 314.113281 L 660.113281 313.726562 L 657.839844 312.957031 L 656.191406 312.140625 L 654.898438 311.324219 L 653.78125 310.46875 L 652.535156 309.308594 L 650.929688 307.421875 L 649.949219 305.964844 L 649.28125 304.765625 L 648.523438 303.09375 L 647.988281 301.589844 L 647.363281 299.191406 L 646.917969 296.144531 L 646.785156 293.789062 Z M 646.785156 287.871094 "/>
<path style=" stroke:none;fill-rule:nonzero;fill:rgb(83.921569%,15.686275%,22.352941%);fill-opacity:1;" d="M 646.785156 148.269531 L 683.335938 148.269531 L 683.335938 160.902344 L 668.101562 161.011719 L 668.101562 266.277344 L 661.972656 266.277344 L 661.972656 161.125 L 661.886719 160.902344 L 646.785156 160.902344 Z M 646.785156 148.269531 "/>
<g style="fill:rgb(0%,0%,0%);fill-opacity:1;">
  <use xlink:href="#glyph0-1" x="21.957031" y="318.198242"/>
  <use xlink:href="#glyph0-2" x="27.291016" y="318.198242"/>
  <use xlink:href="#glyph0-1" x="29.958008" y="318.198242"/>
</g>
<g style="fill:rgb(0%,0%,0%);fill-opacity:1;">
  <use xlink:href="#glyph0-1" x="21.957031" y="244.475586"/>
  <use xlink:href="#glyph0-2" x="27.291016" y="244.475586"/>
  <use xlink:href="#glyph0-3" x="29.958008" y="244.475586"/>
</g>
<g style="fill:rgb(0%,0%,0%);fill-opacity:1;">
  <use xlink:href="#glyph0-4" x="21.957031" y="170.75293"/>
  <use xlink:href="#glyph0-2" x="27.291016" y="170.75293"/>
  <use xlink:href="#glyph0-1" x="29.958008" y="170.75293"/>
</g>
<g style="fill:rgb(0%,0%,0%);fill-opacity:1;">
  <use xlink:href="#glyph0-4" x="21.957031" y="97.03418"/>
  <use xlink:href="#glyph0-2" x="27.291016" y="97.03418"/>
  <use xlink:href="#glyph0-3" x="29.958008" y="97.03418"/>
</g>
<g style="fill:rgb(0%,0%,0%);fill-opacity:1;">
  <use xlink:href="#glyph0-5" x="21.957031" y="23.311523"/>
  <use xlink:href="#glyph0-2" x="27.291016" y="23.311523"/>
  <use xlink:href="#glyph0-1" x="29.958008" y="23.311523"/>
</g>
<g style="fill:rgb(0%,0%,0%);fill-opacity:1;">
  <use xlink:href="#glyph0-4" x="84.90625" y="338.19043"/>
</g>
<g style="fill:rgb(0%,0%,0%);fill-opacity:1;">
  <use xlink:href="#glyph0-5" x="123.382812" y="338.19043"/>
</g>
<g style="fill:rgb(0%,0%,0%);fill-opacity:1;">
  <use xlink:href="#glyph0-6" x="161.859375" y="338.19043"/>
</g>
<g style="fill:rgb(0%,0%,0%);fill-opacity:1;">
  <use xlink:href="#glyph0-7" x="200.335938" y="338.19043"/>
</g>
<g style="fill:rgb(0%,0%,0%);fill-opacity:1;">
  <use xlink:href="#glyph0-3" x="238.8125" y="338.19043"/>
</g>
<g style="fill:rgb(0%,0%,0%);fill-opacity:1;">
  <use xlink:href="#glyph0-8" x="277.289062" y="338.19043"/>
</g>
<g style="fill:rgb(0%,0%,0%);fill-opacity:1;">
  <use xlink:href="#glyph0-9" x="315.769531" y="338.19043"/>
</g>
<g style="fill:rgb(0%,0%,0%);fill-opacity:1;">
  <use xlink:href="#glyph0-10" x="354.246094" y="338.19043"/>
</g>
<g style="fill:rgb(0%,0%,0%);fill-opacity:1;">
  <use xlink:href="#glyph0-11" x="392.722656" y="338.19043"/>
</g>
<g style="fill:rgb(0%,0%,0%);fill-opacity:1;">
  <use xlink:href="#glyph0-4" x="428.699219" y="338.19043"/>
  <use xlink:href="#glyph0-1" x="434.033203" y="338.19043"/>
</g>
<g style="fill:rgb(0%,0%,0%);fill-opacity:1;">
  <use xlink:href="#glyph0-4" x="467.175781" y="338.19043"/>
  <use xlink:href="#glyph0-4" x="472.509766" y="338.19043"/>
</g>
<g style="fill:rgb(0%,0%,0%);fill-opacity:1;">
  <use xlink:href="#glyph0-4" x="505.652344" y="338.19043"/>
  <use xlink:href="#glyph0-5" x="510.986328" y="338.19043"/>
</g>
<g style="fill:rgb(0%,0%,0%);fill-opacity:1;">
  <use xlink:href="#glyph0-4" x="544.128906" y="338.19043"/>
  <use xlink:href="#glyph0-6" x="549.462891" y="338.19043"/>
</g>
<g style="fill:rgb(0%,0%,0%);fill-opacity:1;">
  <use xlink:href="#glyph0-4" x="582.605469" y="338.19043"/>
  <use xlink:href="#glyph0-7" x="587.939453" y="338.19043"/>
</g>
<g style="fill:rgb(0%,0%,0%);fill-opacity:1;">
  <use xlink:href="#glyph0-4" x="621.082031" y="338.19043"/>
  <use xlink:href="#glyph0-3" x="626.416016" y="338.19043"/>
</g>
<g style="fill:rgb(0%,0%,0%);fill-opacity:1;">
  <use xlink:href="#glyph0-4" x="659.558594" y="338.19043"/>
  <use xlink:href="#glyph0-8" x="664.892578" y="338.19043"/>
</g>
<g style="fill:rgb(0%,0%,0%);fill-opacity:1;">
  <use xlink:href="#glyph1-1" x="14.412109" y="178.015625"/>
  <use xlink:href="#glyph1-2" x="14.412109" y="170.011719"/>
  <use xlink:href="#glyph1-3" x="14.412109" y="167.347656"/>
  <use xlink:href="#glyph1-4" x="14.412109" y="164.011719"/>
</g>
</g>
</svg>
