<?xml version="1.0" encoding="UTF-8"?>
<svg xmlns="http://www.w3.org/2000/svg" xmlns:xlink="http://www.w3.org/1999/xlink" width="720pt" height="360pt" viewBox="0 0 720 360" version="1.1">
<defs>
<g>
<symbol overflow="visible" id="glyph0-0">
<path style="stroke:none;" d=""/>
</symbol>
<symbol overflow="visible" id="glyph0-1">
<path style="stroke:none;" d="M 2.640625 -6.796875 C 2 -6.796875 1.421875 -6.53125 1.078125 -6.046875 C 0.640625 -5.453125 0.40625 -4.546875 0.40625 -3.296875 C 0.40625 -1 1.1875 0.21875 2.640625 0.21875 C 4.078125 0.21875 4.859375 -1 4.859375 -3.234375 C 4.859375 -4.5625 4.65625 -5.4375 4.203125 -6.046875 C 3.84375 -6.53125 3.28125 -6.796875 2.640625 -6.796875 Z M 2.640625 -6.046875 C 3.546875 -6.046875 4 -5.125 4 -3.3125 C 4 -1.375 3.5625 -0.484375 2.625 -0.484375 C 1.734375 -0.484375 1.28125 -1.421875 1.28125 -3.28125 C 1.28125 -5.140625 1.734375 -6.046875 2.640625 -6.046875 Z M 2.640625 -6.046875 "/>
</symbol>
<symbol overflow="visible" id="glyph0-2">
<path style="stroke:none;" d="M 1.828125 -1 L 0.828125 -1 L 0.828125 0 L 1.828125 0 Z M 1.828125 -1 "/>
</symbol>
<symbol overflow="visible" id="glyph0-3">
<path style="stroke:none;" d="M 4.5625 -6.796875 L 1.0625 -6.796875 L 0.546875 -3.09375 L 1.328125 -3.09375 C 1.71875 -3.5625 2.046875 -3.734375 2.578125 -3.734375 C 3.484375 -3.734375 4.0625 -3.109375 4.0625 -2.09375 C 4.0625 -1.125 3.484375 -0.53125 2.578125 -0.53125 C 1.828125 -0.53125 1.375 -0.90625 1.1875 -1.671875 L 0.328125 -1.671875 C 0.453125 -1.109375 0.546875 -0.84375 0.75 -0.59375 C 1.125 -0.078125 1.828125 0.21875 2.59375 0.21875 C 3.96875 0.21875 4.921875 -0.78125 4.921875 -2.21875 C 4.921875 -3.5625 4.03125 -4.484375 2.71875 -4.484375 C 2.25 -4.484375 1.859375 -4.359375 1.46875 -4.0625 L 1.734375 -5.96875 L 4.5625 -5.96875 Z M 4.5625 -6.796875 "/>
</symbol>
<symbol overflow="visible" id="glyph0-4">
<path style="stroke:none;" d="M 2.484375 -4.84375 L 2.484375 0 L 3.328125 0 L 3.328125 -6.796875 L 2.765625 -6.796875 C 2.46875 -5.75 2.28125 -5.609375 0.984375 -5.453125 L 0.984375 -4.84375 Z M 2.484375 -4.84375 "/>
</symbol>
<symbol overflow="visible" id="glyph0-5">
<path style="stroke:none;" d="M 4.859375 -0.828125 L 1.28125 -0.828125 C 1.359375 -1.390625 1.671875 -1.75 2.5 -2.234375 L 3.46875 -2.75 C 4.40625 -3.265625 4.90625 -3.96875 4.90625 -4.8125 C 4.90625 -5.375 4.671875 -5.90625 4.265625 -6.265625 C 3.859375 -6.625 3.375 -6.796875 2.71875 -6.796875 C 1.859375 -6.796875 1.21875 -6.5 0.84375 -5.921875 C 0.609375 -5.5625 0.5 -5.125 0.484375 -4.4375 L 1.328125 -4.4375 C 1.359375 -4.90625 1.40625 -5.1875 1.53125 -5.40625 C 1.75 -5.8125 2.1875 -6.0625 2.703125 -6.0625 C 3.46875 -6.0625 4.03125 -5.515625 4.03125 -4.78125 C 4.03125 -4.25 3.71875 -3.796875 3.125 -3.4375 L 2.234375 -2.9375 C 0.8125 -2.140625 0.40625 -1.5 0.328125 0 L 4.859375 0 Z M 4.859375 -0.828125 "/>
</symbol>
<symbol overflow="visible" id="glyph0-6">
<path style="stroke:none;" d="M 2.125 -3.125 L 2.578125 -3.125 C 3.515625 -3.125 3.984375 -2.703125 3.984375 -1.890625 C 3.984375 -1.03125 3.46875 -0.53125 2.578125 -0.53125 C 1.65625 -0.53125 1.203125 -0.984375 1.15625 -1.96875 L 0.3125 -1.96875 C 0.34375 -1.421875 0.4375 -1.078125 0.609375 -0.765625 C 0.953125 -0.109375 1.625 0.21875 2.546875 0.21875 C 3.953125 0.21875 4.859375 -0.609375 4.859375 -1.90625 C 4.859375 -2.765625 4.515625 -3.25 3.703125 -3.515625 C 4.34375 -3.765625 4.65625 -4.25 4.65625 -4.9375 C 4.65625 -6.109375 3.875 -6.796875 2.578125 -6.796875 C 1.203125 -6.796875 0.484375 -6.046875 0.453125 -4.609375 L 1.296875 -4.609375 C 1.3125 -5.015625 1.34375 -5.25 1.453125 -5.453125 C 1.640625 -5.828125 2.0625 -6.0625 2.59375 -6.0625 C 3.34375 -6.0625 3.796875 -5.625 3.796875 -4.90625 C 3.796875 -4.421875 3.609375 -4.140625 3.25 -3.984375 C 3.015625 -3.890625 2.71875 -3.84375 2.125 -3.84375 Z M 2.125 -3.125 "/>
</symbol>
<symbol overflow="visible" id="glyph0-7">
<path style="stroke:none;" d="M 3.140625 -1.625 L 3.140625 0 L 3.984375 0 L 3.984375 -1.625 L 4.984375 -1.625 L 4.984375 -2.390625 L 3.984375 -2.390625 L 3.984375 -6.796875 L 3.359375 -6.796875 L 0.265625 -2.515625 L 0.265625 -1.625 Z M 3.140625 -2.390625 L 1 -2.390625 L 3.140625 -5.359375 Z M 3.140625 -2.390625 "/>
</symbol>
<symbol overflow="visible" id="glyph0-8">
<path style="stroke:none;" d="M 4.78125 -5.03125 C 4.609375 -6.140625 3.890625 -6.796875 2.84375 -6.796875 C 2.09375 -6.796875 1.421875 -6.4375 1.03125 -5.828125 C 0.609375 -5.171875 0.40625 -4.34375 0.40625 -3.09375 C 0.40625 -1.953125 0.578125 -1.234375 0.984375 -0.625 C 1.359375 -0.078125 1.953125 0.21875 2.703125 0.21875 C 3.984375 0.21875 4.921875 -0.734375 4.921875 -2.078125 C 4.921875 -3.34375 4.0625 -4.234375 2.84375 -4.234375 C 2.171875 -4.234375 1.640625 -3.96875 1.28125 -3.46875 C 1.28125 -5.125 1.828125 -6.046875 2.796875 -6.046875 C 3.390625 -6.046875 3.796875 -5.671875 3.9375 -5.03125 Z M 2.734375 -3.484375 C 3.546875 -3.484375 4.0625 -2.921875 4.0625 -2 C 4.0625 -1.15625 3.484375 -0.53125 2.703125 -0.53125 C 1.921875 -0.53125 1.328125 -1.1875 1.328125 -2.046875 C 1.328125 -2.890625 1.90625 -3.484375 2.734375 -3.484375 Z M 2.734375 -3.484375 "/>
</symbol>
<symbol overflow="visible" id="glyph0-9">
<path style="stroke:none;" d="M 4.984375 -6.796875 L 0.4375 -6.796875 L 0.4375 -5.96875 L 4.109375 -5.96875 C 2.5 -3.65625 1.828125 -2.234375 1.328125 0 L 2.21875 0 C 2.59375 -2.171875 3.453125 -4.046875 4.984375 -6.09375 Z M 4.984375 -6.796875 "/>
</symbol>
<symbol overflow="visible" id="glyph0-10">
<path style="stroke:none;" d="M 3.75 -3.578125 C 4.453125 -4 4.6875 -4.34375 4.6875 -4.984375 C 4.6875 -6.046875 3.84375 -6.796875 2.640625 -6.796875 C 1.4375 -6.796875 0.59375 -6.046875 0.59375 -4.984375 C 0.59375 -4.359375 0.828125 -4.015625 1.515625 -3.578125 C 0.734375 -3.203125 0.359375 -2.640625 0.359375 -1.890625 C 0.359375 -0.640625 1.296875 0.21875 2.640625 0.21875 C 3.984375 0.21875 4.921875 -0.640625 4.921875 -1.875 C 4.921875 -2.640625 4.53125 -3.203125 3.75 -3.578125 Z M 2.640625 -6.046875 C 3.359375 -6.046875 3.8125 -5.625 3.8125 -4.96875 C 3.8125 -4.34375 3.34375 -3.921875 2.640625 -3.921875 C 1.921875 -3.921875 1.453125 -4.34375 1.453125 -4.984375 C 1.453125 -5.625 1.921875 -6.046875 2.640625 -6.046875 Z M 2.640625 -3.203125 C 3.484375 -3.203125 4.0625 -2.671875 4.0625 -1.875 C 4.0625 -1.0625 3.484375 -0.53125 2.625 -0.53125 C 1.796875 -0.53125 1.21875 -1.078125 1.21875 -1.875 C 1.21875 -2.671875 1.796875 -3.203125 2.640625 -3.203125 Z M 2.640625 -3.203125 "/>
</symbol>
<symbol overflow="visible" id="glyph0-11">
<path style="stroke:none;" d="M 0.515625 -1.546875 C 0.671875 -0.4375 1.40625 0.21875 2.4375 0.21875 C 3.1875 0.21875 3.859375 -0.140625 4.265625 -0.75 C 4.6875 -1.40625 4.890625 -2.25 4.890625 -3.484375 C 4.890625 -4.625 4.703125 -5.359375 4.3125 -5.953125 C 3.9375 -6.5 3.34375 -6.796875 2.59375 -6.796875 C 1.296875 -6.796875 0.359375 -5.84375 0.359375 -4.515625 C 0.359375 -3.25 1.234375 -2.34375 2.453125 -2.34375 C 3.09375 -2.34375 3.5625 -2.578125 4.015625 -3.109375 C 4 -1.453125 3.46875 -0.53125 2.5 -0.53125 C 1.90625 -0.53125 1.484375 -0.90625 1.359375 -1.546875 Z M 2.578125 -6.0625 C 3.375 -6.0625 3.96875 -5.40625 3.96875 -4.53125 C 3.96875 -3.6875 3.375 -3.09375 2.546875 -3.09375 C 1.734375 -3.09375 1.234375 -3.671875 1.234375 -4.578125 C 1.234375 -5.4375 1.796875 -6.0625 2.578125 -6.0625 Z M 2.578125 -6.0625 "/>
</symbol>
<symbol overflow="visible" id="glyph1-0">
<path style="stroke:none;" d=""/>
</symbol>
<symbol overflow="visible" id="glyph1-1">
<path style="stroke:none;" d="M 0 -0.953125 L 0 -4.890625 C 0 -5.71875 -0.234375 -6.34375 -0.734375 -6.796875 C -1.1875 -7.234375 -1.8125 -7.46875 -2.5 -7.46875 C -3.546875 -7.46875 -4.1875 -7 -4.625 -5.875 C -4.984375 -6.671875 -5.640625 -7.09375 -6.53125 -7.09375 C -7.15625 -7.09375 -7.734375 -6.859375 -8.140625 -6.390625 C -8.5625 -5.9375 -8.75 -5.34375 -8.75 -4.5 L -8.75 -0.953125 Z M -4.984375 -2.0625 L -7.765625 -2.0625 L -7.765625 -4.21875 C -7.765625 -4.84375 -7.6875 -5.203125 -7.453125 -5.5 C -7.21875 -5.8125 -6.859375 -5.96875 -6.375 -5.96875 C -5.90625 -5.96875 -5.53125 -5.8125 -5.296875 -5.5 C -5.0625 -5.203125 -4.984375 -4.84375 -4.984375 -4.21875 Z M -0.984375 -2.0625 L -4 -2.0625 L -4 -4.78125 C -4 -5.328125 -3.859375 -5.6875 -3.578125 -5.953125 C -3.296875 -6.21875 -2.921875 -6.359375 -2.484375 -6.359375 C -2.0625 -6.359375 -1.6875 -6.21875 -1.40625 -5.953125 C -1.109375 -5.6875 -0.984375 -5.328125 -0.984375 -4.78125 Z M -0.984375 -2.0625 "/>
</symbol>
<symbol overflow="visible" id="glyph1-2">
<path style="stroke:none;" d="M -6.28125 -1.796875 L -6.28125 -0.796875 L 0 -0.796875 L 0 -1.796875 Z M -8.75 -1.796875 L -8.75 -0.796875 L -7.484375 -0.796875 L -7.484375 -1.796875 Z M -8.75 -1.796875 "/>
</symbol>
<symbol overflow="visible" id="glyph1-3">
<path style="stroke:none;" d="M -6.28125 -3.046875 L -6.28125 -2.015625 L -8.015625 -2.015625 L -8.015625 -1.015625 L -6.28125 -1.015625 L -6.28125 -0.171875 L -5.46875 -0.171875 L -5.46875 -1.015625 L -0.71875 -1.015625 C -0.078125 -1.015625 0.28125 -1.453125 0.28125 -2.234375 C 0.28125 -2.46875 0.25 -2.71875 0.1875 -3.046875 L -0.640625 -3.046875 C -0.609375 -2.921875 -0.59375 -2.765625 -0.59375 -2.5625 C -0.59375 -2.140625 -0.71875 -2.015625 -1.15625 -2.015625 L -5.46875 -2.015625 L -5.46875 -3.046875 Z M -6.28125 -3.046875 "/>
</symbol>
<symbol overflow="visible" id="glyph1-4">
<path style="stroke:none;" d="M -4.53125 -5.25 C -5.765625 -5.25 -6.46875 -4.421875 -6.46875 -2.96875 C -6.46875 -1.515625 -5.71875 -0.5625 -4.546875 -0.5625 C -3.5625 -0.5625 -3.09375 -1.0625 -2.734375 -2.5625 L -2.515625 -3.484375 C -2.34375 -4.1875 -2.09375 -4.46875 -1.625 -4.46875 C -1.046875 -4.46875 -0.640625 -3.875 -0.640625 -3 C -0.640625 -2.453125 -0.796875 -2 -1.0625 -1.75 C -1.25 -1.59375 -1.421875 -1.53125 -1.875 -1.46875 L -1.875 -0.40625 C -0.421875 -0.453125 0.28125 -1.265625 0.28125 -2.921875 C 0.28125 -4.5 -0.5 -5.515625 -1.71875 -5.515625 C -2.65625 -5.515625 -3.171875 -4.984375 -3.46875 -3.734375 L -3.703125 -2.765625 C -3.890625 -1.953125 -4.15625 -1.609375 -4.59375 -1.609375 C -5.171875 -1.609375 -5.546875 -2.125 -5.546875 -2.9375 C -5.546875 -3.75 -5.203125 -4.171875 -4.53125 -4.203125 Z M -4.53125 -5.25 "/>
</symbol>
</g>
</defs>
<g id="surface42459">
<rect x="0" y="0" width="720" height="360" style="fill:rgb(100%,100%,100%);fill-opacity:1;stroke:none;"/>
<path style=" stroke:none;fill-rule:nonzero;fill:rgb(6.27451%,58.823529%,28.235294%);fill-opacity:1;" d="M 69.628906 248.015625 L 69.679688 247.9375 L 90.792969 166.851562 L 97.203125 166.851562 L 118.417969 248.089844 L 110.964844 248.089844 L 105.648438 226.882812 L 82.347656 226.882812 L 77.136719 248.015625 L 69.628906 248.015625 L 84.589844 218.113281 L 103.511719 218.035156 L 94.074219 180.125 L 93.972656 180.046875 L 93.867188 180.277344 L 84.535156 218.035156 L 84.589844 218.113281 Z M 69.628906 248.015625 "/>
<path style=" stroke:none;fill-rule:nonzero;fill:rgb(96.862745%,70.196078%,16.862745%);fill-opacity:1;" d="M 69.628906 277.152344 L 69.6875 277.09375 L 69.6875 275.90625 L 69.925781 273.230469 L 70.523438 269.542969 L 71.296875 266.511719 L 72.128906 264.132812 L 72.664062 262.882812 L 73.554688 261.101562 L 74.328125 259.792969 L 76.292969 257.117188 L 78.792969 254.621094 L 80.160156 253.550781 L 81.707031 252.539062 L 83.910156 251.410156 L 84.921875 250.992188 L 88.015625 250.042969 L 91.523438 249.449219 L 95.390625 249.269531 L 97.175781 249.328125 L 99.617188 249.566406 L 102.949219 250.222656 L 104.851562 250.816406 L 106.339844 251.410156 L 107.886719 252.183594 L 109.789062 253.371094 L 111.574219 254.800781 L 113.003906 256.226562 L 114.429688 258.007812 L 115.621094 259.910156 L 116.632812 261.992188 L 117.523438 264.488281 L 118.0625 266.570312 L 118.417969 268.652344 L 110.148438 268.652344 L 109.671875 266.570312 L 109.136719 264.964844 L 108.242188 263.003906 L 107.351562 261.578125 L 106.457031 260.445312 L 104.792969 258.902344 L 103.363281 257.949219 L 101.578125 257.117188 L 99.855469 256.582031 L 97.890625 256.226562 L 96.699219 256.105469 L 93.546875 256.105469 L 90.691406 256.523438 L 89.027344 257 L 87.835938 257.472656 L 86.167969 258.367188 L 85.160156 259.078125 L 84.5625 259.554688 L 82.777344 261.398438 L 81.589844 263.0625 L 80.933594 264.191406 L 80.101562 265.976562 L 79.507812 267.582031 L 78.851562 269.960938 L 78.496094 271.742188 L 78.019531 275.785156 L 77.960938 286.488281 L 78.136719 288.746094 L 78.496094 291.183594 L 78.96875 293.324219 L 79.683594 295.582031 L 80.398438 297.308594 L 81.648438 299.625 L 82.71875 301.171875 L 83.550781 302.183594 L 85.160156 303.789062 L 85.8125 304.324219 L 87.359375 305.394531 L 88.964844 306.226562 L 90.929688 306.9375 L 92.417969 307.296875 L 94.796875 307.59375 L 97.832031 307.59375 L 101.402344 307.234375 L 103.664062 306.761719 L 105.210938 306.285156 L 106.21875 305.867188 L 107.46875 305.214844 L 108.363281 304.621094 L 109.195312 303.964844 L 110.207031 302.957031 L 110.207031 288.746094 L 95.511719 288.6875 L 95.511719 282.027344 L 118.359375 281.96875 L 118.417969 305.214844 L 117.167969 306.820312 L 115.621094 308.367188 L 114.132812 309.554688 L 112.585938 310.566406 L 110.386719 311.695312 L 108.601562 312.410156 L 105.863281 313.242188 L 103.363281 313.777344 L 100.746094 314.132812 L 98.425781 314.3125 L 95.691406 314.371094 L 93.25 314.25 L 90.632812 313.894531 L 88.550781 313.417969 L 86.644531 312.824219 L 84.742188 312.050781 L 82.363281 310.804688 L 80.816406 309.792969 L 79.207031 308.542969 L 77.601562 307.058594 L 76.175781 305.453125 L 75.222656 304.203125 L 74.269531 302.777344 L 73.257812 300.992188 L 72.308594 298.972656 L 71.59375 297.128906 L 70.9375 295.046875 L 70.460938 293.085938 L 69.988281 290.410156 L 69.75 288.269531 L 69.628906 286.429688 Z M 69.628906 277.152344 "/>
<path style=" stroke:none;fill-rule:nonzero;fill:rgb(6.27451%,58.823529%,28.235294%);fill-opacity:1;" d="M 120.984375 314.09375 L 121.039062 313.820312 L 142.148438 20.664062 L 148.558594 20.664062 L 169.773438 314.371094 L 162.320312 314.371094 L 157.003906 237.703125 L 133.703125 237.703125 L 128.492188 314.09375 L 120.984375 314.09375 L 135.945312 205.988281 L 154.867188 205.710938 L 145.433594 68.648438 L 145.328125 68.375 L 145.222656 69.199219 L 135.894531 205.710938 L 135.945312 205.988281 Z M 120.984375 314.09375 "/>
<path style=" stroke:none;fill-rule:nonzero;fill:rgb(6.27451%,58.823529%,28.235294%);fill-opacity:1;" d="M 172.34375 314.09375 L 172.394531 313.820312 L 193.503906 20.664062 L 199.914062 20.664062 L 221.128906 314.371094 L 213.675781 314.371094 L 208.359375 237.703125 L 185.058594 237.703125 L 179.847656 314.09375 L 172.34375 314.09375 L 187.300781 205.988281 L 206.222656 205.710938 L 196.789062 68.648438 L 196.683594 68.375 L 196.578125 69.199219 L 187.25 205.710938 L 187.300781 205.988281 Z M 172.34375 314.09375 "/>
<path style=" stroke:none;fill-rule:nonzero;fill:rgb(96.862745%,70.196078%,16.862745%);fill-opacity:1;" d="M 223.699219 146.460938 L 223.757812 146.191406 L 223.757812 140.828125 L 223.996094 128.757812 L 224.589844 112.128906 L 225.363281 98.449219 L 226.195312 87.71875 L 226.734375 82.085938 L 227.625 74.039062 L 228.398438 68.140625 L 230.363281 56.070312 L 232.859375 44.804688 L 234.230469 39.976562 L 235.777344 35.414062 L 237.976562 30.320312 L 238.988281 28.441406 L 242.082031 24.148438 L 245.59375 21.46875 L 249.460938 20.664062 L 251.246094 20.929688 L 253.683594 22.003906 L 257.015625 24.953125 L 258.921875 27.636719 L 260.410156 30.320312 L 261.957031 33.804688 L 263.859375 39.171875 L 265.644531 45.609375 L 267.074219 52.046875 L 268.5 60.09375 L 269.691406 68.675781 L 270.703125 78.0625 L 271.59375 89.328125 L 272.128906 98.714844 L 272.488281 108.105469 L 264.214844 108.105469 L 263.742188 98.714844 L 263.203125 91.476562 L 262.3125 82.625 L 261.421875 76.1875 L 260.527344 71.089844 L 258.863281 64.117188 L 257.433594 59.824219 L 255.648438 56.070312 L 253.921875 53.65625 L 251.960938 52.046875 L 250.769531 51.507812 L 247.617188 51.507812 L 244.761719 53.386719 L 243.09375 55.53125 L 241.90625 57.679688 L 240.238281 61.703125 L 239.226562 64.921875 L 238.632812 67.066406 L 236.847656 75.382812 L 235.65625 82.890625 L 235.003906 87.988281 L 234.167969 96.035156 L 233.574219 103.277344 L 232.921875 114.003906 L 232.5625 122.050781 L 232.085938 140.292969 L 232.027344 188.574219 L 232.207031 198.765625 L 232.5625 209.761719 L 233.039062 219.417969 L 233.753906 229.609375 L 234.46875 237.390625 L 235.71875 247.851562 L 236.789062 254.824219 L 237.621094 259.382812 L 239.226562 266.625 L 239.882812 269.039062 L 241.429688 273.867188 L 243.035156 277.625 L 245 280.84375 L 246.484375 282.453125 L 248.867188 283.792969 L 251.898438 283.792969 L 255.46875 282.183594 L 257.730469 280.039062 L 259.277344 277.890625 L 260.289062 276.015625 L 261.539062 273.0625 L 262.429688 270.382812 L 263.265625 267.429688 L 264.277344 262.871094 L 264.277344 198.765625 L 249.578125 198.496094 L 249.578125 168.457031 L 272.425781 168.1875 L 272.488281 273.0625 L 271.238281 280.304688 L 269.691406 287.28125 L 268.203125 292.644531 L 266.65625 297.203125 L 264.453125 302.300781 L 262.667969 305.519531 L 259.933594 309.273438 L 257.433594 311.6875 L 254.816406 313.296875 L 252.496094 314.101562 L 249.757812 314.371094 L 247.320312 313.835938 L 244.699219 312.226562 L 242.617188 310.078125 L 240.714844 307.398438 L 238.8125 303.910156 L 236.429688 298.277344 L 234.882812 293.71875 L 233.277344 288.085938 L 231.671875 281.378906 L 230.242188 274.136719 L 229.292969 268.503906 L 228.339844 262.066406 L 227.328125 254.019531 L 226.375 244.898438 L 225.660156 236.585938 L 225.007812 227.195312 L 224.53125 218.34375 L 224.054688 206.277344 L 223.816406 196.621094 L 223.699219 188.304688 Z M 223.699219 146.460938 "/>
<path style=" stroke:none;fill-rule:nonzero;fill:rgb(6.27451%,58.823529%,28.235294%);fill-opacity:1;" d="M 377.765625 249.480469 L 377.820312 249.402344 L 398.929688 166.253906 L 405.339844 166.253906 L 426.554688 249.558594 L 419.101562 249.558594 L 413.785156 227.8125 L 390.484375 227.8125 L 385.273438 249.480469 L 377.765625 249.480469 L 392.726562 218.820312 L 411.648438 218.742188 L 402.214844 179.863281 L 402.109375 179.785156 L 402.003906 180.019531 L 392.675781 218.742188 L 392.726562 218.820312 Z M 377.765625 249.480469 "/>
<path style=" stroke:none;fill-rule:nonzero;fill:rgb(96.862745%,70.196078%,16.862745%);fill-opacity:1;" d="M 377.765625 277.992188 L 377.828125 277.933594 L 377.828125 276.773438 L 378.066406 274.15625 L 378.660156 270.554688 L 379.433594 267.589844 L 380.265625 265.265625 L 380.800781 264.046875 L 381.695312 262.304688 L 382.46875 261.023438 L 384.429688 258.410156 L 386.929688 255.96875 L 388.296875 254.921875 L 389.84375 253.9375 L 392.046875 252.832031 L 393.058594 252.425781 L 396.152344 251.496094 L 399.664062 250.914062 L 403.53125 250.738281 L 405.316406 250.796875 L 407.753906 251.03125 L 411.085938 251.667969 L 412.988281 252.25 L 414.476562 252.832031 L 416.023438 253.585938 L 417.929688 254.75 L 419.714844 256.144531 L 421.140625 257.539062 L 422.570312 259.28125 L 423.757812 261.140625 L 424.769531 263.175781 L 425.664062 265.617188 L 426.199219 267.648438 L 426.554688 269.683594 L 418.285156 269.683594 L 417.808594 267.648438 L 417.273438 266.082031 L 416.382812 264.164062 L 415.488281 262.769531 L 414.597656 261.664062 L 412.929688 260.152344 L 411.503906 259.222656 L 409.71875 258.410156 L 407.992188 257.886719 L 406.027344 257.539062 L 404.839844 257.421875 L 401.683594 257.421875 L 398.828125 257.828125 L 397.164062 258.292969 L 395.972656 258.757812 L 394.308594 259.628906 L 393.296875 260.328125 L 392.699219 260.792969 L 390.917969 262.59375 L 389.726562 264.222656 L 389.070312 265.324219 L 388.238281 267.070312 L 387.644531 268.636719 L 386.988281 270.960938 L 386.632812 272.707031 L 386.15625 276.65625 L 386.097656 287.117188 L 386.273438 289.324219 L 386.632812 291.707031 L 387.109375 293.800781 L 387.824219 296.007812 L 388.535156 297.691406 L 389.785156 299.960938 L 390.855469 301.46875 L 391.691406 302.457031 L 393.296875 304.027344 L 393.949219 304.550781 L 395.496094 305.597656 L 397.105469 306.410156 L 399.066406 307.105469 L 400.554688 307.457031 L 402.933594 307.746094 L 405.96875 307.746094 L 409.539062 307.398438 L 411.800781 306.933594 L 413.347656 306.46875 L 414.359375 306.0625 L 415.609375 305.421875 L 416.5 304.839844 L 417.332031 304.203125 L 418.34375 303.214844 L 418.34375 289.324219 L 403.648438 289.265625 L 403.648438 282.757812 L 426.496094 282.699219 L 426.554688 305.421875 L 425.304688 306.992188 L 423.757812 308.5 L 422.273438 309.664062 L 420.726562 310.652344 L 418.523438 311.753906 L 416.738281 312.453125 L 414 313.265625 L 411.503906 313.789062 L 408.882812 314.136719 L 406.5625 314.3125 L 403.828125 314.371094 L 401.386719 314.253906 L 398.769531 313.90625 L 396.6875 313.441406 L 394.785156 312.859375 L 392.878906 312.105469 L 390.5 310.882812 L 388.953125 309.894531 L 387.347656 308.675781 L 385.738281 307.222656 L 384.3125 305.652344 L 383.359375 304.433594 L 382.40625 303.039062 L 381.394531 301.296875 L 380.445312 299.320312 L 379.730469 297.519531 L 379.074219 295.484375 L 378.601562 293.566406 L 378.125 290.953125 L 377.886719 288.859375 L 377.765625 287.058594 Z M 377.765625 277.992188 "/>
<path style=" stroke:none;fill-rule:nonzero;fill:rgb(6.27451%,58.823529%,28.235294%);fill-opacity:1;" d="M 429.125 310.746094 L 429.175781 310.746094 L 450.285156 308.804688 L 456.695312 308.804688 L 477.910156 310.75 L 470.457031 310.75 L 465.140625 310.242188 L 441.839844 310.242188 L 436.628906 310.746094 L 429.125 310.746094 L 444.082031 310.03125 L 463.003906 310.027344 L 453.570312 309.121094 L 453.464844 309.121094 L 453.359375 309.125 L 444.03125 310.027344 L 444.082031 310.03125 Z M 429.125 310.746094 "/>
<path style=" stroke:none;fill-rule:nonzero;fill:rgb(14.509804%,36.078431%,60%);fill-opacity:1;" d="M 429.125 306.300781 L 429.183594 306.296875 L 429.183594 306.246094 L 429.363281 306.164062 L 429.777344 306.0625 L 430.195312 305.992188 L 431.265625 305.867188 L 432.753906 305.742188 L 434.300781 305.648438 L 435.429688 305.59375 L 436.441406 305.550781 L 438.761719 305.472656 L 440.25 305.429688 L 441.855469 305.394531 L 443.820312 305.359375 L 445.246094 305.335938 L 448.460938 305.304688 L 450.839844 305.289062 L 452.683594 305.28125 L 456.671875 305.28125 L 459.050781 305.289062 L 460.777344 305.300781 L 462.679688 305.316406 L 464.285156 305.335938 L 467.082031 305.382812 L 469.582031 305.445312 L 470.710938 305.480469 L 472.496094 305.546875 L 473.867188 305.609375 L 474.816406 305.664062 L 475.890625 305.742188 L 476.839844 305.839844 L 477.554688 305.949219 L 477.910156 306.042969 L 469.582031 306.042969 L 469.164062 305.957031 L 468.691406 305.890625 L 467.796875 305.800781 L 466.90625 305.738281 L 465.65625 305.679688 L 464.523438 305.636719 L 462.976562 305.597656 L 461.609375 305.570312 L 460.179688 305.550781 L 458.8125 305.539062 L 456.195312 305.527344 L 453.160156 305.527344 L 452.03125 305.53125 L 449.710938 305.546875 L 448.460938 305.5625 L 446.675781 305.59375 L 445.425781 305.621094 L 443.9375 305.664062 L 442.925781 305.699219 L 441.675781 305.753906 L 440.785156 305.804688 L 439.773438 305.875 L 439.179688 305.929688 L 438.644531 305.988281 L 438.167969 306.058594 L 437.808594 306.132812 L 437.570312 306.214844 L 437.453125 306.289062 L 437.453125 306.621094 L 437.570312 306.699219 L 437.871094 306.789062 L 438.644531 306.917969 L 439.773438 307.035156 L 441.082031 307.125 L 442.332031 307.1875 L 443.046875 307.21875 L 443.996094 307.25 L 445.484375 307.292969 L 447.628906 307.335938 L 448.875 307.355469 L 450.78125 307.371094 L 452.746094 307.378906 L 455.363281 307.378906 L 457.683594 307.371094 L 459.230469 307.359375 L 460.835938 307.34375 L 463.039062 307.308594 L 464.40625 307.273438 L 465.597656 307.234375 L 466.488281 307.191406 L 467.082031 307.15625 L 467.976562 307.089844 L 468.691406 307.019531 L 469.226562 306.945312 L 469.582031 306.871094 L 477.910156 306.871094 L 477.554688 306.957031 L 477.019531 307.039062 L 476.484375 307.101562 L 475.652344 307.175781 L 474.699219 307.242188 L 473.332031 307.316406 L 472.199219 307.367188 L 470.710938 307.421875 L 469.34375 307.460938 L 467.855469 307.496094 L 465.65625 307.539062 L 464.226562 307.5625 L 462.679688 307.582031 L 460.835938 307.597656 L 458.515625 307.613281 L 456.015625 307.621094 L 453.695312 307.625 L 451.195312 307.621094 L 449.351562 307.613281 L 446.914062 307.59375 L 443.878906 307.554688 L 441.675781 307.511719 L 439.953125 307.472656 L 438.464844 307.429688 L 436.796875 307.371094 L 434.65625 307.277344 L 433.347656 307.203125 L 432.457031 307.144531 L 431.445312 307.0625 L 430.730469 306.984375 L 429.898438 306.867188 L 429.300781 306.714844 L 429.125 306.597656 Z M 429.125 306.300781 "/>
<path style=" stroke:none;fill-rule:nonzero;fill:rgb(96.862745%,70.196078%,16.862745%);fill-opacity:1;" d="M 429.125 312.300781 L 429.183594 312.300781 L 429.183594 312.285156 L 429.421875 312.25 L 430.015625 312.199219 L 430.789062 312.160156 L 431.621094 312.128906 L 432.15625 312.109375 L 433.050781 312.085938 L 433.824219 312.070312 L 435.789062 312.035156 L 438.285156 312 L 439.65625 311.984375 L 441.203125 311.972656 L 443.402344 311.957031 L 444.414062 311.953125 L 447.507812 311.9375 L 451.019531 311.929688 L 456.671875 311.929688 L 459.109375 311.933594 L 462.441406 311.941406 L 464.347656 311.949219 L 465.832031 311.957031 L 467.378906 311.96875 L 469.285156 311.984375 L 471.070312 312.003906 L 472.496094 312.019531 L 473.925781 312.046875 L 475.117188 312.070312 L 476.125 312.097656 L 477.019531 312.132812 L 477.554688 312.160156 L 477.910156 312.1875 L 469.640625 312.1875 L 469.164062 312.160156 L 468.628906 312.136719 L 467.738281 312.113281 L 466.84375 312.09375 L 465.953125 312.078125 L 464.285156 312.058594 L 462.859375 312.042969 L 461.074219 312.035156 L 459.347656 312.027344 L 457.386719 312.019531 L 453.042969 312.019531 L 450.1875 312.023438 L 448.519531 312.03125 L 447.328125 312.039062 L 445.664062 312.050781 L 444.652344 312.058594 L 444.058594 312.066406 L 442.273438 312.089844 L 441.082031 312.113281 L 440.429688 312.128906 L 439.59375 312.152344 L 439 312.171875 L 438.34375 312.203125 L 437.988281 312.230469 L 437.511719 312.28125 L 437.453125 312.425781 L 437.632812 312.457031 L 437.988281 312.488281 L 438.464844 312.515625 L 439.179688 312.546875 L 439.890625 312.570312 L 441.140625 312.601562 L 442.214844 312.621094 L 443.046875 312.636719 L 444.652344 312.65625 L 445.308594 312.664062 L 446.855469 312.679688 L 448.460938 312.691406 L 450.421875 312.699219 L 451.910156 312.703125 L 454.292969 312.707031 L 457.324219 312.707031 L 460.894531 312.703125 L 463.15625 312.695312 L 464.703125 312.691406 L 465.714844 312.683594 L 466.964844 312.675781 L 467.855469 312.667969 L 468.691406 312.660156 L 469.699219 312.644531 L 469.699219 312.457031 L 455.003906 312.457031 L 455.003906 312.367188 L 477.851562 312.367188 L 477.910156 312.675781 L 476.664062 312.699219 L 475.117188 312.71875 L 473.628906 312.734375 L 472.082031 312.746094 L 469.878906 312.761719 L 468.09375 312.773438 L 465.359375 312.785156 L 462.859375 312.789062 L 460.242188 312.796875 L 452.746094 312.796875 L 450.125 312.792969 L 448.042969 312.785156 L 446.140625 312.777344 L 444.234375 312.765625 L 441.855469 312.75 L 440.308594 312.738281 L 437.097656 312.699219 L 435.667969 312.679688 L 434.714844 312.664062 L 433.765625 312.644531 L 432.753906 312.621094 L 431.800781 312.59375 L 431.085938 312.566406 L 430.433594 312.539062 L 429.957031 312.515625 L 429.480469 312.476562 L 429.242188 312.449219 L 429.125 312.425781 Z M 429.125 312.300781 "/>
<path style=" stroke:none;fill-rule:nonzero;fill:rgb(83.921569%,15.686275%,22.352941%);fill-opacity:1;" d="M 429.125 313.976562 L 477.910156 313.976562 L 477.910156 314.019531 L 457.578125 314.019531 L 457.578125 314.371094 L 449.398438 314.371094 L 449.398438 314.019531 L 429.125 314.019531 Z M 429.125 313.976562 "/>
<path style=" stroke:none;fill-rule:nonzero;fill:rgb(14.509804%,36.078431%,60%);fill-opacity:1;" d="M 480.480469 148.457031 L 480.539062 148.1875 L 480.539062 141.742188 L 480.71875 131.542969 L 481.132812 118.65625 L 481.550781 109.796875 L 482.621094 93.957031 L 484.109375 78.652344 L 485.65625 66.839844 L 486.785156 59.859375 L 487.796875 54.492188 L 490.117188 44.558594 L 491.605469 39.457031 L 493.210938 34.890625 L 495.175781 30.328125 L 496.605469 27.644531 L 499.816406 23.347656 L 502.195312 21.46875 L 504.039062 20.664062 L 508.027344 20.664062 L 510.40625 21.738281 L 512.132812 23.078125 L 514.035156 25.226562 L 515.644531 27.644531 L 518.441406 33.550781 L 520.9375 41.066406 L 522.070312 45.363281 L 523.855469 53.683594 L 525.222656 61.738281 L 526.175781 68.71875 L 527.246094 78.652344 L 528.195312 90.734375 L 528.910156 104.425781 L 529.269531 115.96875 L 520.9375 115.96875 L 520.523438 105.230469 L 520.046875 96.910156 L 519.152344 85.902344 L 518.261719 78.117188 L 517.011719 70.332031 L 515.882812 65.230469 L 514.335938 60.128906 L 512.964844 56.90625 L 511.539062 54.492188 L 510.167969 52.878906 L 507.550781 51.269531 L 504.515625 51.269531 L 503.386719 51.804688 L 501.066406 53.953125 L 499.816406 55.832031 L 498.03125 59.589844 L 496.78125 63.082031 L 495.292969 68.449219 L 494.285156 73.015625 L 493.035156 79.996094 L 492.140625 86.171875 L 491.128906 95.03125 L 490.535156 101.742188 L 490 109.257812 L 489.523438 118.117188 L 489.167969 127.515625 L 488.929688 137.449219 L 488.808594 147.113281 L 488.808594 188.726562 L 488.929688 198.390625 L 489.226562 209.667969 L 490 226.042969 L 491.128906 240.273438 L 492.4375 251.546875 L 493.6875 259.601562 L 494.402344 263.359375 L 495.355469 267.65625 L 496.839844 273.027344 L 498.984375 278.394531 L 500.234375 280.542969 L 502.136719 282.691406 L 504.101562 283.765625 L 506.71875 283.765625 L 509.039062 282.691406 L 510.585938 281.347656 L 512.191406 279.199219 L 514.394531 274.636719 L 515.761719 270.339844 L 516.953125 265.242188 L 517.84375 260.140625 L 518.441406 255.84375 L 519.332031 247.519531 L 520.046875 238.394531 L 520.582031 228.996094 L 520.9375 219.867188 L 529.269531 219.867188 L 528.910156 230.609375 L 528.375 241.078125 L 527.839844 248.863281 L 527.007812 258.261719 L 526.054688 266.582031 L 524.6875 275.980469 L 523.554688 282.152344 L 522.070312 288.867188 L 520.699219 293.96875 L 519.214844 298.53125 L 517.011719 303.898438 L 515.582031 306.585938 L 514.035156 309 L 512.191406 311.148438 L 509.871094 313.027344 L 507.371094 314.101562 L 505.050781 314.371094 L 502.554688 313.832031 L 500.710938 312.761719 L 498.269531 310.34375 L 495.234375 305.511719 L 493.035156 300.410156 L 491.308594 295.308594 L 489.820312 289.941406 L 488.15625 282.691406 L 486.011719 270.878906 L 484.703125 261.75 L 483.8125 254.234375 L 482.800781 243.761719 L 482.085938 234.367188 L 481.253906 219.332031 L 480.65625 200.269531 L 480.480469 185.503906 Z M 480.480469 148.457031 "/>
<path style=" stroke:none;fill-rule:nonzero;fill:rgb(83.921569%,15.686275%,22.352941%);fill-opacity:1;" d="M 531.835938 20.664062 L 580.625 20.664062 L 580.625 52.101562 L 560.289062 52.378906 L 560.289062 314.371094 L 552.109375 314.371094 L 552.109375 52.652344 L 551.992188 52.101562 L 531.835938 52.101562 Z M 531.835938 20.664062 "/>
<path style=" stroke:none;fill-rule:nonzero;fill:rgb(83.921569%,15.686275%,22.352941%);fill-opacity:1;" d="M 583.191406 20.664062 L 631.980469 20.664062 L 631.980469 52.101562 L 611.648438 52.378906 L 611.648438 314.371094 L 603.464844 314.371094 L 603.464844 52.652344 L 603.347656 52.101562 L 583.191406 52.101562 Z M 583.191406 20.664062 "/>
<path style=" stroke:none;fill-rule:nonzero;fill:rgb(14.509804%,36.078431%,60%);fill-opacity:1;" d="M 634.546875 278.425781 L 634.609375 278.367188 L 634.609375 276.972656 L 634.785156 274.761719 L 635.203125 271.96875 L 635.621094 270.050781 L 636.691406 266.617188 L 638.179688 263.304688 L 639.726562 260.742188 L 640.855469 259.230469 L 641.867188 258.066406 L 644.1875 255.917969 L 645.675781 254.8125 L 647.28125 253.820312 L 649.246094 252.832031 L 650.671875 252.25 L 653.886719 251.320312 L 656.265625 250.914062 L 658.109375 250.738281 L 662.097656 250.738281 L 664.476562 250.972656 L 666.203125 251.261719 L 668.105469 251.726562 L 669.710938 252.25 L 672.507812 253.53125 L 675.007812 255.160156 L 676.136719 256.089844 L 677.921875 257.894531 L 679.292969 259.636719 L 680.242188 261.152344 L 681.3125 263.304688 L 682.265625 265.921875 L 682.980469 268.886719 L 683.335938 271.386719 L 675.007812 271.386719 L 674.589844 269.0625 L 674.113281 267.257812 L 673.222656 264.875 L 672.328125 263.1875 L 671.082031 261.5 L 669.949219 260.394531 L 668.402344 259.289062 L 667.035156 258.589844 L 665.605469 258.066406 L 664.238281 257.71875 L 661.621094 257.371094 L 658.585938 257.371094 L 657.457031 257.488281 L 655.136719 257.953125 L 653.886719 258.359375 L 652.101562 259.171875 L 650.851562 259.929688 L 649.363281 261.09375 L 648.351562 262.082031 L 647.101562 263.59375 L 646.210938 264.929688 L 645.199219 266.851562 L 644.605469 268.304688 L 644.066406 269.933594 L 643.59375 271.851562 L 643.234375 273.890625 L 642.996094 276.039062 L 642.878906 278.132812 L 642.878906 287.148438 L 642.996094 289.242188 L 643.292969 291.6875 L 644.066406 295.234375 L 645.199219 298.316406 L 646.507812 300.761719 L 647.757812 302.503906 L 648.472656 303.320312 L 649.421875 304.25 L 650.910156 305.414062 L 653.050781 306.578125 L 654.300781 307.042969 L 656.207031 307.507812 L 658.167969 307.738281 L 660.789062 307.738281 L 663.109375 307.507812 L 664.65625 307.214844 L 666.261719 306.75 L 668.460938 305.761719 L 669.832031 304.832031 L 671.019531 303.726562 L 671.914062 302.621094 L 672.507812 301.691406 L 673.402344 299.886719 L 674.113281 297.910156 L 674.648438 295.875 L 675.007812 293.898438 L 683.335938 293.898438 L 682.980469 296.222656 L 682.445312 298.492188 L 681.910156 300.179688 L 681.074219 302.214844 L 680.125 304.015625 L 678.753906 306.054688 L 677.625 307.390625 L 676.136719 308.84375 L 674.769531 309.949219 L 673.28125 310.9375 L 671.082031 312.101562 L 669.652344 312.683594 L 668.105469 313.207031 L 666.261719 313.671875 L 663.941406 314.078125 L 661.441406 314.3125 L 659.121094 314.371094 L 656.621094 314.253906 L 654.777344 314.023438 L 652.339844 313.5 L 649.304688 312.453125 L 647.101562 311.347656 L 645.378906 310.242188 L 643.890625 309.078125 L 642.222656 307.507812 L 640.082031 304.949219 L 638.773438 302.96875 L 637.878906 301.34375 L 636.867188 299.074219 L 636.15625 297.039062 L 635.320312 293.78125 L 634.726562 289.652344 L 634.546875 286.453125 Z M 634.546875 278.425781 "/>
<path style=" stroke:none;fill-rule:nonzero;fill:rgb(83.921569%,15.686275%,22.352941%);fill-opacity:1;" d="M 634.546875 166.253906 L 683.335938 166.253906 L 683.335938 175.171875 L 663.003906 175.25 L 663.003906 249.558594 L 654.824219 249.558594 L 654.824219 175.328125 L 654.703125 175.171875 L 634.546875 175.171875 Z M 634.546875 166.253906 "/>
<g style="fill:rgb(0%,0%,0%);fill-opacity:1;">
  <use xlink:href="#glyph0-1" x="21.957031" y="318.198242"/>
  <use xlink:href="#glyph0-2" x="27.291016" y="318.198242"/>
  <use xlink:href="#glyph0-1" x="29.958008" y="318.198242"/>
</g>
<g style="fill:rgb(0%,0%,0%);fill-opacity:1;">
  <use xlink:href="#glyph0-1" x="21.957031" y="244.475586"/>
  <use xlink:href="#glyph0-2" x="27.291016" y="244.475586"/>
  <use xlink:href="#glyph0-3" x="29.958008" y="244.475586"/>
</g>
<g style="fill:rgb(0%,0%,0%);fill-opacity:1;">
  <use xlink:href="#glyph0-4" x="21.957031" y="170.75293"/>
  <use xlink:href="#glyph0-2" x="27.291016" y="170.75293"/>
  <use xlink:href="#glyph0-1" x="29.958008" y="170.75293"/>
</g>
<g style="fill:rgb(0%,0%,0%);fill-opacity:1;">
  <use xlink:href="#glyph0-4" x="21.957031" y="97.03418"/>
  <use xlink:href="#glyph0-2" x="27.291016" y="97.03418"/>
  <use xlink:href="#glyph0-3" x="29.958008" y="97.03418"/>
</g>
<g style="fill:rgb(0%,0%,0%);fill-opacity:1;">
  <use xlink:href="#glyph0-5" x="21.957031" y="23.311523"/>
  <use xlink:href="#glyph0-2" x="27.291016" y="23.311523"/>
  <use xlink:href="#glyph0-1" x="29.958008" y="23.311523"/>
</g>
<g style="fill:rgb(0%,0%,0%);fill-opacity:1;">
  <use xlink:href="#glyph0-4" x="91.023438" y="338.19043"/>
</g>
<g style="fill:rgb(0%,0%,0%);fill-opacity:1;">
  <use xlink:href="#glyph0-5" x="142.378906" y="338.19043"/>
</g>
<g style="fill:rgb(0%,0%,0%);fill-opacity:1;">
  <use xlink:href="#glyph0-6" x="193.734375" y="338.19043"/>
</g>
<g style="fill:rgb(0%,0%,0%);fill-opacity:1;">
  <use xlink:href="#glyph0-7" x="245.09375" y="338.19043"/>
</g>
<g style="fill:rgb(0%,0%,0%);fill-opacity:1;">
  <use xlink:href="#glyph0-3" x="296.449219" y="338.19043"/>
</g>
<g style="fill:rgb(0%,0%,0%);fill-opacity:1;">
  <use xlink:href="#glyph0-8" x="347.804688" y="338.19043"/>
</g>
<g style="fill:rgb(0%,0%,0%);fill-opacity:1;">
  <use xlink:href="#glyph0-9" x="399.160156" y="338.19043"/>
</g>
<g style="fill:rgb(0%,0%,0%);fill-opacity:1;">
  <use xlink:href="#glyph0-10" x="450.519531" y="338.19043"/>
</g>
<g style="fill:rgb(0%,0%,0%);fill-opacity:1;">
  <use xlink:href="#glyph0-11" x="501.875" y="338.19043"/>
</g>
<g style="fill:rgb(0%,0%,0%);fill-opacity:1;">
  <use xlink:href="#glyph0-4" x="550.730469" y="338.19043"/>
  <use xlink:href="#glyph0-1" x="556.064453" y="338.19043"/>
</g>
<g style="fill:rgb(0%,0%,0%);fill-opacity:1;">
  <use xlink:href="#glyph0-4" x="602.085938" y="338.19043"/>
  <use xlink:href="#glyph0-4" x="607.419922" y="338.19043"/>
</g>
<g style="fill:rgb(0%,0%,0%);fill-opacity:1;">
  <use xlink:href="#glyph0-4" x="653.441406" y="338.19043"/>
  <use xlink:href="#glyph0-5" x="658.775391" y="338.19043"/>
</g>
<g style="fill:rgb(0%,0%,0%);fill-opacity:1;">
  <use xlink:href="#glyph1-1" x="14.412109" y="178.015625"/>
  <use xlink:href="#glyph1-2" x="14.412109" y="170.011719"/>
  <use xlink:href="#glyph1-3" x="14.412109" y="167.347656"/>
  <use xlink:href="#glyph1-4" x="14.412109" y="164.011719"/>
</g>
</g>
</svg>
