<?xml version="1.0" encoding="UTF-8"?>
<svg xmlns="http://www.w3.org/2000/svg" xmlns:xlink="http://www.w3.org/1999/xlink" width="720pt" height="360pt" viewBox="0 0 720 360" version="1.1">
<defs>
<g>
<symbol overflow="visible" id="glyph0-0">
<path style="stroke:none;" d=""/>
</symbol>
<symbol overflow="visible" id="glyph0-1">
<path style="stroke:none;" d="M 2.640625 -6.796875 C 2 -6.796875 1.421875 -6.53125 1.078125 -6.046875 C 0.640625 -5.453125 0.40625 -4.546875 0.40625 -3.296875 C 0.40625 -1 1.1875 0.21875 2.640625 0.21875 C 4.078125 0.21875 4.859375 -1 4.859375 -3.234375 C 4.859375 -4.5625 4.65625 -5.4375 4.203125 -6.046875 C 3.84375 -6.53125 3.28125 -6.796875 2.640625 -6.796875 Z M 2.640625 -6.046875 C 3.546875 -6.046875 4 -5.125 4 -3.3125 C 4 -1.375 3.5625 -0.484375 2.625 -0.484375 C 1.734375 -0.484375 1.28125 -1.421875 1.28125 -3.28125 C 1.28125 -5.140625 1.734375 -6.046875 2.640625 -6.046875 Z M 2.640625 -6.046875 "/>
</symbol>
<symbol overflow="visible" id="glyph0-2">
<path style="stroke:none;" d="M 1.828125 -1 L 0.828125 -1 L 0.828125 0 L 1.828125 0 Z M 1.828125 -1 "/>
</symbol>
<symbol overflow="visible" id="glyph0-3">
<path style="stroke:none;" d="M 4.5625 -6.796875 L 1.0625 -6.796875 L 0.546875 -3.09375 L 1.328125 -3.09375 C 1.71875 -3.5625 2.046875 -3.734375 2.578125 -3.734375 C 3.484375 -3.734375 4.0625 -3.109375 4.0625 -2.09375 C 4.0625 -1.125 3.484375 -0.53125 2.578125 -0.53125 C 1.828125 -0.53125 1.375 -0.90625 1.1875 -1.671875 L 0.328125 -1.671875 C 0.453125 -1.109375 0.546875 -0.84375 0.75 -0.59375 C 1.125 -0.078125 1.828125 0.21875 2.59375 0.21875 C 3.96875 0.21875 4.921875 -0.78125 4.921875 -2.21875 C 4.921875 -3.5625 4.03125 -4.484375 2.71875 -4.484375 C 2.25 -4.484375 1.859375 -4.359375 1.46875 -4.0625 L 1.734375 -5.96875 L 4.5625 -5.96875 Z M 4.5625 -6.796875 "/>
</symbol>
<symbol overflow="visible" id="glyph0-4">
<path style="stroke:none;" d="M 2.484375 -4.84375 L 2.484375 0 L 3.328125 0 L 3.328125 -6.796875 L 2.765625 -6.796875 C 2.46875 -5.75 2.28125 -5.609375 0.984375 -5.453125 L 0.984375 -4.84375 Z M 2.484375 -4.84375 "/>
</symbol>
<symbol overflow="visible" id="glyph0-5">
<path style="stroke:none;" d="M 4.859375 -0.828125 L 1.28125 -0.828125 C 1.359375 -1.390625 1.671875 -1.75 2.5 -2.234375 L 3.46875 -2.75 C 4.40625 -3.265625 4.90625 -3.96875 4.90625 -4.8125 C 4.90625 -5.375 4.671875 -5.90625 4.265625 -6.265625 C 3.859375 -6.625 3.375 -6.796875 2.71875 -6.796875 C 1.859375 -6.796875 1.21875 -6.5 0.84375 -5.921875 C 0.609375 -5.5625 0.5 -5.125 0.484375 -4.4375 L 1.328125 -4.4375 C 1.359375 -4.90625 1.40625 -5.1875 1.53125 -5.40625 C 1.75 -5.8125 2.1875 -6.0625 2.703125 -6.0625 C 3.46875 -6.0625 4.03125 -5.515625 4.03125 -4.78125 C 4.03125 -4.25 3.71875 -3.796875 3.125 -3.4375 L 2.234375 -2.9375 C 0.8125 -2.140625 0.40625 -1.5 0.328125 0 L 4.859375 0 Z M 4.859375 -0.828125 "/>
</symbol>
<symbol overflow="visible" id="glyph0-6">
<path style="stroke:none;" d="M 2.125 -3.125 L 2.578125 -3.125 C 3.515625 -3.125 3.984375 -2.703125 3.984375 -1.890625 C 3.984375 -1.03125 3.46875 -0.53125 2.578125 -0.53125 C 1.65625 -0.53125 1.203125 -0.984375 1.15625 -1.96875 L 0.3125 -1.96875 C 0.34375 -1.421875 0.4375 -1.078125 0.609375 -0.765625 C 0.953125 -0.109375 1.625 0.21875 2.546875 0.21875 C 3.953125 0.21875 4.859375 -0.609375 4.859375 -1.90625 C 4.859375 -2.765625 4.515625 -3.25 3.703125 -3.515625 C 4.34375 -3.765625 4.65625 -4.25 4.65625 -4.9375 C 4.65625 -6.109375 3.875 -6.796875 2.578125 -6.796875 C 1.203125 -6.796875 0.484375 -6.046875 0.453125 -4.609375 L 1.296875 -4.609375 C 1.3125 -5.015625 1.34375 -5.25 1.453125 -5.453125 C 1.640625 -5.828125 2.0625 -6.0625 2.59375 -6.0625 C 3.34375 -6.0625 3.796875 -5.625 3.796875 -4.90625 C 3.796875 -4.421875 3.609375 -4.140625 3.25 -3.984375 C 3.015625 -3.890625 2.71875 -3.84375 2.125 -3.84375 Z M 2.125 -3.125 "/>
</symbol>
<symbol overflow="visible" id="glyph0-7">
<path style="stroke:none;" d="M 3.140625 -1.625 L 3.140625 0 L 3.984375 0 L 3.984375 -1.625 L 4.984375 -1.625 L 4.984375 -2.390625 L 3.984375 -2.390625 L 3.984375 -6.796875 L 3.359375 -6.796875 L 0.265625 -2.515625 L 0.265625 -1.625 Z M 3.140625 -2.390625 L 1 -2.390625 L 3.140625 -5.359375 Z M 3.140625 -2.390625 "/>
</symbol>
<symbol overflow="visible" id="glyph0-8">
<path style="stroke:none;" d="M 4.78125 -5.03125 C 4.609375 -6.140625 3.890625 -6.796875 2.84375 -6.796875 C 2.09375 -6.796875 1.421875 -6.4375 1.03125 -5.828125 C 0.609375 -5.171875 0.40625 -4.34375 0.40625 -3.09375 C 0.40625 -1.953125 0.578125 -1.234375 0.984375 -0.625 C 1.359375 -0.078125 1.953125 0.21875 2.703125 0.21875 C 3.984375 0.21875 4.921875 -0.734375 4.921875 -2.078125 C 4.921875 -3.34375 4.0625 -4.234375 2.84375 -4.234375 C 2.171875 -4.234375 1.640625 -3.96875 1.28125 -3.46875 C 1.28125 -5.125 1.828125 -6.046875 2.796875 -6.046875 C 3.390625 -6.046875 3.796875 -5.671875 3.9375 -5.03125 Z M 2.734375 -3.484375 C 3.546875 -3.484375 4.0625 -2.921875 4.0625 -2 C 4.0625 -1.15625 3.484375 -0.53125 2.703125 -0.53125 C 1.921875 -0.53125 1.328125 -1.1875 1.328125 -2.046875 C 1.328125 -2.890625 1.90625 -3.484375 2.734375 -3.484375 Z M 2.734375 -3.484375 "/>
</symbol>
<symbol overflow="visible" id="glyph0-9">
<path style="stroke:none;" d="M 4.984375 -6.796875 L 0.4375 -6.796875 L 0.4375 -5.96875 L 4.109375 -5.96875 C 2.5 -3.65625 1.828125 -2.234375 1.328125 0 L 2.21875 0 C 2.59375 -2.171875 3.453125 -4.046875 4.984375 -6.09375 Z M 4.984375 -6.796875 "/>
</symbol>
<symbol overflow="visible" id="glyph0-10">
<path style="stroke:none;" d="M 3.75 -3.578125 C 4.453125 -4 4.6875 -4.34375 4.6875 -4.984375 C 4.6875 -6.046875 3.84375 -6.796875 2.640625 -6.796875 C 1.4375 -6.796875 0.59375 -6.046875 0.59375 -4.984375 C 0.59375 -4.359375 0.828125 -4.015625 1.515625 -3.578125 C 0.734375 -3.203125 0.359375 -2.640625 0.359375 -1.890625 C 0.359375 -0.640625 1.296875 0.21875 2.640625 0.21875 C 3.984375 0.21875 4.921875 -0.640625 4.921875 -1.875 C 4.921875 -2.640625 4.53125 -3.203125 3.75 -3.578125 Z M 2.640625 -6.046875 C 3.359375 -6.046875 3.8125 -5.625 3.8125 -4.96875 C 3.8125 -4.34375 3.34375 -3.921875 2.640625 -3.921875 C 1.921875 -3.921875 1.453125 -4.34375 1.453125 -4.984375 C 1.453125 -5.625 1.921875 -6.046875 2.640625 -6.046875 Z M 2.640625 -3.203125 C 3.484375 -3.203125 4.0625 -2.671875 4.0625 -1.875 C 4.0625 -1.0625 3.484375 -0.53125 2.625 -0.53125 C 1.796875 -0.53125 1.21875 -1.078125 1.21875 -1.875 C 1.21875 -2.671875 1.796875 -3.203125 2.640625 -3.203125 Z M 2.640625 -3.203125 "/>
</symbol>
<symbol overflow="visible" id="glyph0-11">
<path style="stroke:none;" d="M 0.515625 -1.546875 C 0.671875 -0.4375 1.40625 0.21875 2.4375 0.21875 C 3.1875 0.21875 3.859375 -0.140625 4.265625 -0.75 C 4.6875 -1.40625 4.890625 -2.25 4.890625 -3.484375 C 4.890625 -4.625 4.703125 -5.359375 4.3125 -5.953125 C 3.9375 -6.5 3.34375 -6.796875 2.59375 -6.796875 C 1.296875 -6.796875 0.359375 -5.84375 0.359375 -4.515625 C 0.359375 -3.25 1.234375 -2.34375 2.453125 -2.34375 C 3.09375 -2.34375 3.5625 -2.578125 4.015625 -3.109375 C 4 -1.453125 3.46875 -0.53125 2.5 -0.53125 C 1.90625 -0.53125 1.484375 -0.90625 1.359375 -1.546875 Z M 2.578125 -6.0625 C 3.375 -6.0625 3.96875 -5.40625 3.96875 -4.53125 C 3.96875 -3.6875 3.375 -3.09375 2.546875 -3.09375 C 1.734375 -3.09375 1.234375 -3.671875 1.234375 -4.578125 C 1.234375 -5.4375 1.796875 -6.0625 2.578125 -6.0625 Z M 2.578125 -6.0625 "/>
</symbol>
<symbol overflow="visible" id="glyph1-0">
<path style="stroke:none;" d=""/>
</symbol>
<symbol overflow="visible" id="glyph1-1">
<path style="stroke:none;" d="M 0 -0.953125 L 0 -4.890625 C 0 -5.71875 -0.234375 -6.34375 -0.734375 -6.796875 C -1.1875 -7.234375 -1.8125 -7.46875 -2.5 -7.46875 C -3.546875 -7.46875 -4.1875 -7 -4.625 -5.875 C -4.984375 -6.671875 -5.640625 -7.09375 -6.53125 -7.09375 C -7.15625 -7.09375 -7.734375 -6.859375 -8.140625 -6.390625 C -8.5625 -5.9375 -8.75 -5.34375 -8.75 -4.5 L -8.75 -0.953125 Z M -4.984375 -2.0625 L -7.765625 -2.0625 L -7.765625 -4.21875 C -7.765625 -4.84375 -7.6875 -5.203125 -7.453125 -5.5 C -7.21875 -5.8125 -6.859375 -5.96875 -6.375 -5.96875 C -5.90625 -5.96875 -5.53125 -5.8125 -5.296875 -5.5 C -5.0625 -5.203125 -4.984375 -4.84375 -4.984375 -4.21875 Z M -0.984375 -2.0625 L -4 -2.0625 L -4 -4.78125 C -4 -5.328125 -3.859375 -5.6875 -3.578125 -5.953125 C -3.296875 -6.21875 -2.921875 -6.359375 -2.484375 -6.359375 C -2.0625 -6.359375 -1.6875 -6.21875 -1.40625 -5.953125 C -1.109375 -5.6875 -0.984375 -5.328125 -0.984375 -4.78125 Z M -0.984375 -2.0625 "/>
</symbol>
<symbol overflow="visible" id="glyph1-2">
<path style="stroke:none;" d="M -6.28125 -1.796875 L -6.28125 -0.796875 L 0 -0.796875 L 0 -1.796875 Z M -8.75 -1.796875 L -8.75 -0.796875 L -7.484375 -0.796875 L -7.484375 -1.796875 Z M -8.75 -1.796875 "/>
</symbol>
<symbol overflow="visible" id="glyph1-3">
<path style="stroke:none;" d="M -6.28125 -3.046875 L -6.28125 -2.015625 L -8.015625 -2.015625 L -8.015625 -1.015625 L -6.28125 -1.015625 L -6.28125 -0.171875 L -5.46875 -0.171875 L -5.46875 -1.015625 L -0.71875 -1.015625 C -0.078125 -1.015625 0.28125 -1.453125 0.28125 -2.234375 C 0.28125 -2.46875 0.25 -2.71875 0.1875 -3.046875 L -0.640625 -3.046875 C -0.609375 -2.921875 -0.59375 -2.765625 -0.59375 -2.5625 C -0.59375 -2.140625 -0.71875 -2.015625 -1.15625 -2.015625 L -5.46875 -2.015625 L -5.46875 -3.046875 Z M -6.28125 -3.046875 "/>
</symbol>
<symbol overflow="visible" id="glyph1-4">
<path style="stroke:none;" d="M -4.53125 -5.25 C -5.765625 -5.25 -6.46875 -4.421875 -6.46875 -2.96875 C -6.46875 -1.515625 -5.71875 -0.5625 -4.546875 -0.5625 C -3.5625 -0.5625 -3.09375 -1.0625 -2.734375 -2.5625 L -2.515625 -3.484375 C -2.34375 -4.1875 -2.09375 -4.46875 -1.625 -4.46875 C -1.046875 -4.46875 -0.640625 -3.875 -0.640625 -3 C -0.640625 -2.453125 -0.796875 -2 -1.0625 -1.75 C -1.25 -1.59375 -1.421875 -1.53125 -1.875 -1.46875 L -1.875 -0.40625 C -0.421875 -0.453125 0.28125 -1.265625 0.28125 -2.921875 C 0.28125 -4.5 -0.5 -5.515625 -1.71875 -5.515625 C -2.65625 -5.515625 -3.171875 -4.984375 -3.46875 -3.734375 L -3.703125 -2.765625 C -3.890625 -1.953125 -4.15625 -1.609375 -4.59375 -1.609375 C -5.171875 -1.609375 -5.546875 -2.125 -5.546875 -2.9375 C -5.546875 -3.75 -5.203125 -4.171875 -4.53125 -4.203125 Z M -4.53125 -5.25 "/>
</symbol>
</g>
</defs>
<g id="surface44440">
<rect x="0" y="0" width="720" height="360" style="fill:rgb(100%,100%,100%);fill-opacity:1;stroke:none;"/>
<path style=" stroke:none;fill-rule:nonzero;fill:rgb(96.862745%,70.196078%,16.862745%);fill-opacity:1;" d="M 69.628906 146.460938 L 69.699219 146.191406 L 69.699219 140.828125 L 69.988281 128.757812 L 70.703125 112.128906 L 71.628906 98.449219 L 72.628906 87.71875 L 73.273438 82.085938 L 74.34375 74.039062 L 75.273438 68.140625 L 77.632812 56.070312 L 80.632812 44.804688 L 82.277344 39.976562 L 84.136719 35.414062 L 86.777344 30.320312 L 87.992188 28.441406 L 91.710938 24.148438 L 95.925781 21.46875 L 100.570312 20.664062 L 102.714844 20.929688 L 105.644531 22.003906 L 109.644531 24.953125 L 111.933594 27.636719 L 113.71875 30.320312 L 115.578125 33.804688 L 117.863281 39.171875 L 120.007812 45.609375 L 121.722656 52.046875 L 123.4375 60.09375 L 124.867188 68.675781 L 126.082031 78.0625 L 127.152344 89.328125 L 127.796875 98.714844 L 128.222656 108.105469 L 118.292969 108.105469 L 117.71875 98.714844 L 117.078125 91.476562 L 116.003906 82.625 L 114.933594 76.1875 L 113.863281 71.089844 L 111.859375 64.117188 L 110.144531 59.824219 L 108.003906 56.070312 L 105.929688 53.65625 L 103.570312 52.046875 L 102.140625 51.507812 L 98.355469 51.507812 L 94.925781 53.386719 L 92.925781 55.53125 L 91.496094 57.679688 L 89.496094 61.703125 L 88.28125 64.921875 L 87.566406 67.066406 L 85.421875 75.382812 L 83.992188 82.890625 L 83.207031 87.988281 L 82.207031 96.035156 L 81.492188 103.277344 L 80.707031 114.003906 L 80.277344 122.050781 L 79.703125 140.292969 L 79.632812 188.574219 L 79.847656 198.765625 L 80.277344 209.761719 L 80.847656 219.417969 L 81.707031 229.609375 L 82.5625 237.390625 L 84.0625 247.851562 L 85.351562 254.824219 L 86.351562 259.382812 L 88.28125 266.625 L 89.066406 269.039062 L 90.921875 273.867188 L 92.851562 277.625 L 95.210938 280.84375 L 96.996094 282.453125 L 99.855469 283.792969 L 103.5 283.792969 L 107.789062 282.183594 L 110.503906 280.039062 L 112.359375 277.890625 L 113.574219 276.015625 L 115.078125 273.0625 L 116.148438 270.382812 L 117.148438 267.429688 L 118.363281 262.871094 L 118.363281 198.765625 L 100.714844 198.496094 L 100.714844 168.457031 L 128.152344 168.1875 L 128.222656 273.0625 L 126.722656 280.304688 L 124.867188 287.28125 L 123.078125 292.644531 L 121.222656 297.203125 L 118.578125 302.300781 L 116.433594 305.519531 L 113.148438 309.273438 L 110.144531 311.6875 L 107 313.296875 L 104.214844 314.101562 L 100.929688 314.371094 L 97.996094 313.835938 L 94.855469 312.226562 L 92.351562 310.078125 L 90.066406 307.398438 L 87.78125 303.910156 L 84.921875 298.277344 L 83.0625 293.71875 L 81.132812 288.085938 L 79.203125 281.378906 L 77.488281 274.136719 L 76.347656 268.503906 L 75.203125 262.066406 L 73.988281 254.019531 L 72.84375 244.898438 L 71.988281 236.585938 L 71.203125 227.195312 L 70.628906 218.34375 L 70.058594 206.277344 L 69.773438 196.621094 L 69.628906 188.304688 Z M 69.628906 146.460938 "/>
<path style=" stroke:none;fill-rule:nonzero;fill:rgb(14.509804%,36.078431%,60%);fill-opacity:1;" d="M 131.308594 148.457031 L 131.378906 148.1875 L 131.378906 141.742188 L 131.59375 131.542969 L 132.09375 118.65625 L 132.59375 109.796875 L 133.882812 93.957031 L 135.667969 78.652344 L 137.523438 66.839844 L 138.882812 59.859375 L 140.097656 54.492188 L 142.882812 44.558594 L 144.671875 39.457031 L 146.601562 34.890625 L 148.957031 30.328125 L 150.671875 27.644531 L 154.53125 23.347656 L 157.390625 21.46875 L 159.605469 20.664062 L 164.394531 20.664062 L 167.25 21.738281 L 169.324219 23.078125 L 171.609375 25.226562 L 173.539062 27.644531 L 176.898438 33.550781 L 179.898438 41.066406 L 181.257812 45.363281 L 183.402344 53.683594 L 185.042969 61.738281 L 186.1875 68.71875 L 187.472656 78.652344 L 188.617188 90.734375 L 189.476562 104.425781 L 189.902344 115.96875 L 179.898438 115.96875 L 179.398438 105.230469 L 178.828125 96.910156 L 177.757812 85.902344 L 176.683594 78.117188 L 175.183594 70.332031 L 173.824219 65.230469 L 171.96875 60.128906 L 170.324219 56.90625 L 168.609375 54.492188 L 166.964844 52.878906 L 163.820312 51.269531 L 160.175781 51.269531 L 158.820312 51.804688 L 156.03125 53.953125 L 154.53125 55.832031 L 152.386719 59.589844 L 150.886719 63.082031 L 149.101562 68.449219 L 147.886719 73.015625 L 146.386719 79.996094 L 145.3125 86.171875 L 144.097656 95.03125 L 143.386719 101.742188 L 142.742188 109.257812 L 142.171875 118.117188 L 141.742188 127.515625 L 141.457031 137.449219 L 141.3125 147.113281 L 141.3125 188.726562 L 141.457031 198.390625 L 141.8125 209.667969 L 142.742188 226.042969 L 144.097656 240.273438 L 145.671875 251.546875 L 147.171875 259.601562 L 148.03125 263.359375 L 149.171875 267.65625 L 150.960938 273.027344 L 153.53125 278.394531 L 155.03125 280.542969 L 157.320312 282.691406 L 159.675781 283.765625 L 162.820312 283.765625 L 165.609375 282.691406 L 167.464844 281.347656 L 169.394531 279.199219 L 172.039062 274.636719 L 173.683594 270.339844 L 175.113281 265.242188 L 176.183594 260.140625 L 176.898438 255.84375 L 177.96875 247.519531 L 178.828125 238.394531 L 179.472656 228.996094 L 179.898438 219.867188 L 189.902344 219.867188 L 189.476562 230.609375 L 188.832031 241.078125 L 188.1875 248.863281 L 187.1875 258.261719 L 186.046875 266.582031 L 184.402344 275.980469 L 183.042969 282.152344 L 181.257812 288.867188 L 179.613281 293.96875 L 177.828125 298.53125 L 175.183594 303.898438 L 173.46875 306.585938 L 171.609375 309 L 169.394531 311.148438 L 166.609375 313.027344 L 163.605469 314.101562 L 160.820312 314.371094 L 157.820312 313.832031 L 155.605469 312.761719 L 152.675781 310.34375 L 149.03125 305.511719 L 146.386719 300.410156 L 144.3125 295.308594 L 142.527344 289.941406 L 140.527344 282.691406 L 137.953125 270.878906 L 136.382812 261.75 L 135.308594 254.234375 L 134.09375 243.761719 L 133.238281 234.367188 L 132.238281 219.332031 L 131.523438 200.269531 L 131.308594 185.503906 Z M 131.308594 148.457031 "/>
<path style=" stroke:none;fill-rule:nonzero;fill:rgb(96.862745%,70.196078%,16.862745%);fill-opacity:1;" d="M 192.988281 146.460938 L 193.058594 146.191406 L 193.058594 140.828125 L 193.34375 128.757812 L 194.058594 112.128906 L 194.988281 98.449219 L 195.988281 87.71875 L 196.632812 82.085938 L 197.703125 74.039062 L 198.632812 68.140625 L 200.992188 56.070312 L 203.992188 44.804688 L 205.636719 39.976562 L 207.492188 35.414062 L 210.136719 30.320312 L 211.351562 28.441406 L 215.066406 24.148438 L 219.285156 21.46875 L 223.929688 20.664062 L 226.074219 20.929688 L 229.003906 22.003906 L 233.003906 24.953125 L 235.289062 27.636719 L 237.078125 30.320312 L 238.933594 33.804688 L 241.222656 39.171875 L 243.367188 45.609375 L 245.082031 52.046875 L 246.796875 60.09375 L 248.222656 68.675781 L 249.4375 78.0625 L 250.511719 89.328125 L 251.152344 98.714844 L 251.582031 108.105469 L 241.648438 108.105469 L 241.078125 98.714844 L 240.433594 91.476562 L 239.363281 82.625 L 238.292969 76.1875 L 237.21875 71.089844 L 235.21875 64.117188 L 233.503906 59.824219 L 231.359375 56.070312 L 229.289062 53.65625 L 226.929688 52.046875 L 225.5 51.507812 L 221.714844 51.507812 L 218.285156 53.386719 L 216.28125 55.53125 L 214.855469 57.679688 L 212.851562 61.703125 L 211.636719 64.921875 L 210.921875 67.066406 L 208.78125 75.382812 L 207.351562 82.890625 L 206.566406 87.988281 L 205.5625 96.035156 L 204.851562 103.277344 L 204.0625 114.003906 L 203.636719 122.050781 L 203.0625 140.292969 L 202.992188 188.574219 L 203.207031 198.765625 L 203.636719 209.761719 L 204.207031 219.417969 L 205.0625 229.609375 L 205.921875 237.390625 L 207.421875 247.851562 L 208.707031 254.824219 L 209.707031 259.382812 L 211.636719 266.625 L 212.425781 269.039062 L 214.28125 273.867188 L 216.210938 277.625 L 218.570312 280.84375 L 220.355469 282.453125 L 223.214844 283.792969 L 226.859375 283.792969 L 231.144531 282.183594 L 233.863281 280.039062 L 235.71875 277.890625 L 236.933594 276.015625 L 238.433594 273.0625 L 239.507812 270.382812 L 240.507812 267.429688 L 241.722656 262.871094 L 241.722656 198.765625 L 224.070312 198.496094 L 224.070312 168.457031 L 251.511719 168.1875 L 251.582031 273.0625 L 250.082031 280.304688 L 248.222656 287.28125 L 246.4375 292.644531 L 244.578125 297.203125 L 241.9375 302.300781 L 239.792969 305.519531 L 236.503906 309.273438 L 233.503906 311.6875 L 230.359375 313.296875 L 227.574219 314.101562 L 224.285156 314.371094 L 221.355469 313.835938 L 218.210938 312.226562 L 215.710938 310.078125 L 213.425781 307.398438 L 211.136719 303.910156 L 208.28125 298.277344 L 206.421875 293.71875 L 204.492188 288.085938 L 202.5625 281.378906 L 200.847656 274.136719 L 199.703125 268.503906 L 198.5625 262.066406 L 197.347656 254.019531 L 196.203125 244.898438 L 195.347656 236.585938 L 194.558594 227.195312 L 193.988281 218.34375 L 193.417969 206.277344 L 193.128906 196.621094 L 192.988281 188.304688 Z M 192.988281 146.460938 "/>
<path style=" stroke:none;fill-rule:nonzero;fill:rgb(14.509804%,36.078431%,60%);fill-opacity:1;" d="M 254.667969 201.3125 L 254.738281 201.210938 L 254.738281 198.832031 L 254.953125 195.0625 L 255.453125 190.300781 L 255.953125 187.027344 L 257.238281 181.171875 L 259.027344 175.519531 L 260.882812 171.152344 L 262.242188 168.574219 L 263.457031 166.589844 L 266.242188 162.917969 L 268.03125 161.035156 L 269.957031 159.347656 L 272.316406 157.660156 L 274.03125 156.667969 L 277.890625 155.082031 L 280.75 154.386719 L 282.964844 154.089844 L 287.75 154.089844 L 290.609375 154.488281 L 292.683594 154.984375 L 294.96875 155.777344 L 296.898438 156.667969 L 300.257812 158.851562 L 303.257812 161.628906 L 304.617188 163.21875 L 306.757812 166.292969 L 308.402344 169.269531 L 309.546875 171.847656 L 310.832031 175.519531 L 311.976562 179.984375 L 312.832031 185.042969 L 313.261719 189.308594 L 303.257812 189.308594 L 302.757812 185.339844 L 302.1875 182.265625 L 301.113281 178.195312 L 300.042969 175.320312 L 298.542969 172.441406 L 297.183594 170.558594 L 295.328125 168.671875 L 293.683594 167.484375 L 291.96875 166.589844 L 290.324219 165.996094 L 287.179688 165.398438 L 283.535156 165.398438 L 282.179688 165.597656 L 279.390625 166.390625 L 277.890625 167.085938 L 275.746094 168.476562 L 274.246094 169.765625 L 272.460938 171.75 L 271.246094 173.433594 L 269.746094 176.015625 L 268.671875 178.296875 L 267.457031 181.570312 L 266.742188 184.050781 L 266.101562 186.828125 L 265.527344 190.101562 L 265.101562 193.574219 L 264.8125 197.246094 L 264.671875 200.816406 L 264.671875 216.191406 L 264.8125 219.765625 L 265.171875 223.929688 L 266.101562 229.980469 L 267.457031 235.238281 L 269.03125 239.40625 L 270.53125 242.382812 L 271.386719 243.773438 L 272.53125 245.359375 L 274.316406 247.34375 L 276.890625 249.328125 L 278.390625 250.121094 L 280.675781 250.914062 L 283.035156 251.3125 L 286.179688 251.3125 L 288.964844 250.914062 L 290.824219 250.417969 L 292.753906 249.625 L 295.398438 247.9375 L 297.042969 246.351562 L 298.46875 244.464844 L 299.542969 242.582031 L 300.257812 240.992188 L 301.328125 237.917969 L 302.1875 234.546875 L 302.828125 231.074219 L 303.257812 227.699219 L 313.261719 227.699219 L 312.832031 231.667969 L 312.191406 235.539062 L 311.546875 238.414062 L 310.546875 241.886719 L 309.402344 244.960938 L 307.761719 248.433594 L 306.402344 250.714844 L 304.617188 253.195312 L 302.972656 255.082031 L 301.1875 256.769531 L 298.542969 258.75 L 296.828125 259.742188 L 294.96875 260.636719 L 292.753906 261.429688 L 289.96875 262.125 L 286.964844 262.523438 L 284.179688 262.621094 L 281.175781 262.421875 L 278.960938 262.027344 L 276.03125 261.132812 L 272.386719 259.347656 L 269.746094 257.460938 L 267.671875 255.578125 L 265.886719 253.59375 L 263.886719 250.914062 L 261.3125 246.550781 L 259.742188 243.175781 L 258.667969 240.398438 L 257.453125 236.53125 L 256.597656 233.058594 L 255.597656 227.503906 L 254.882812 220.457031 L 254.667969 215.003906 Z M 254.667969 201.3125 "/>
<path style=" stroke:none;fill-rule:nonzero;fill:rgb(96.862745%,70.196078%,16.862745%);fill-opacity:1;" d="M 254.667969 285.460938 L 254.738281 285.414062 L 254.738281 284.492188 L 255.023438 282.410156 L 255.738281 279.546875 L 256.667969 277.191406 L 257.667969 275.347656 L 258.3125 274.375 L 259.382812 272.992188 L 260.3125 271.976562 L 262.671875 269.894531 L 265.671875 267.957031 L 267.316406 267.125 L 269.171875 266.339844 L 271.816406 265.460938 L 273.03125 265.140625 L 276.746094 264.402344 L 280.964844 263.9375 L 285.609375 263.800781 L 287.75 263.847656 L 290.679688 264.03125 L 294.683594 264.539062 L 296.96875 265 L 298.757812 265.460938 L 300.613281 266.0625 L 302.902344 266.988281 L 305.042969 268.09375 L 306.757812 269.203125 L 308.472656 270.589844 L 309.902344 272.066406 L 311.117188 273.683594 L 312.191406 275.625 L 312.832031 277.238281 L 313.261719 278.855469 L 303.328125 278.855469 L 302.757812 277.238281 L 302.113281 275.992188 L 301.042969 274.46875 L 299.972656 273.359375 L 298.898438 272.484375 L 296.898438 271.28125 L 295.183594 270.542969 L 293.039062 269.894531 L 290.96875 269.480469 L 288.609375 269.203125 L 287.179688 269.109375 L 283.394531 269.109375 L 279.960938 269.433594 L 277.960938 269.804688 L 276.53125 270.171875 L 274.53125 270.867188 L 273.316406 271.421875 L 272.601562 271.789062 L 270.457031 273.222656 L 269.03125 274.515625 L 268.242188 275.390625 L 267.242188 276.777344 L 266.527344 278.023438 L 265.742188 279.871094 L 265.3125 281.257812 L 264.742188 284.398438 L 264.671875 292.710938 L 264.886719 294.464844 L 265.3125 296.359375 L 265.886719 298.023438 L 266.742188 299.777344 L 267.601562 301.117188 L 269.101562 302.917969 L 270.386719 304.117188 L 271.386719 304.902344 L 273.316406 306.148438 L 274.101562 306.566406 L 275.960938 307.398438 L 277.890625 308.042969 L 280.25 308.597656 L 282.035156 308.875 L 284.894531 309.105469 L 288.539062 309.105469 L 292.824219 308.828125 L 295.539062 308.460938 L 297.398438 308.089844 L 298.613281 307.765625 L 300.113281 307.257812 L 301.1875 306.796875 L 302.1875 306.289062 L 303.402344 305.503906 L 303.402344 294.464844 L 285.75 294.417969 L 285.75 289.246094 L 313.191406 289.199219 L 313.261719 307.257812 L 311.761719 308.503906 L 309.902344 309.707031 L 308.117188 310.628906 L 306.257812 311.414062 L 303.617188 312.292969 L 301.472656 312.847656 L 298.183594 313.492188 L 295.183594 313.910156 L 292.039062 314.1875 L 289.253906 314.324219 L 285.964844 314.371094 L 283.035156 314.277344 L 279.890625 314 L 277.390625 313.632812 L 275.105469 313.167969 L 272.816406 312.570312 L 269.957031 311.601562 L 268.101562 310.816406 L 266.171875 309.84375 L 264.242188 308.691406 L 262.527344 307.441406 L 261.382812 306.472656 L 260.242188 305.363281 L 259.027344 303.980469 L 257.882812 302.410156 L 257.023438 300.976562 L 256.238281 299.359375 L 255.667969 297.835938 L 255.09375 295.757812 L 254.808594 294.097656 L 254.667969 292.664062 Z M 254.667969 285.460938 "/>
<path style=" stroke:none;fill-rule:nonzero;fill:rgb(14.509804%,36.078431%,60%);fill-opacity:1;" d="M 316.347656 148.457031 L 316.417969 148.1875 L 316.417969 141.742188 L 316.632812 131.542969 L 317.132812 118.65625 L 317.632812 109.796875 L 318.917969 93.957031 L 320.703125 78.652344 L 322.5625 66.839844 L 323.921875 59.859375 L 325.136719 54.492188 L 327.921875 44.558594 L 329.707031 39.457031 L 331.636719 34.890625 L 333.996094 30.328125 L 335.710938 27.644531 L 339.570312 23.347656 L 342.429688 21.46875 L 344.644531 20.664062 L 349.429688 20.664062 L 352.289062 21.738281 L 354.363281 23.078125 L 356.648438 25.226562 L 358.578125 27.644531 L 361.9375 33.550781 L 364.9375 41.066406 L 366.292969 45.363281 L 368.4375 53.683594 L 370.082031 61.738281 L 371.226562 68.71875 L 372.511719 78.652344 L 373.65625 90.734375 L 374.511719 104.425781 L 374.941406 115.96875 L 364.9375 115.96875 L 364.4375 105.230469 L 363.867188 96.910156 L 362.792969 85.902344 L 361.722656 78.117188 L 360.222656 70.332031 L 358.863281 65.230469 L 357.003906 60.128906 L 355.363281 56.90625 L 353.648438 54.492188 L 352.003906 52.878906 L 348.859375 51.269531 L 345.214844 51.269531 L 343.855469 51.804688 L 341.070312 53.953125 L 339.570312 55.832031 L 337.425781 59.589844 L 335.925781 63.082031 L 334.140625 68.449219 L 332.925781 73.015625 L 331.421875 79.996094 L 330.351562 86.171875 L 329.136719 95.03125 L 328.421875 101.742188 L 327.777344 109.257812 L 327.207031 118.117188 L 326.777344 127.515625 L 326.492188 137.449219 L 326.351562 147.113281 L 326.351562 188.726562 L 326.492188 198.390625 L 326.851562 209.667969 L 327.777344 226.042969 L 329.136719 240.273438 L 330.707031 251.546875 L 332.210938 259.601562 L 333.066406 263.359375 L 334.210938 267.65625 L 335.996094 273.027344 L 338.570312 278.394531 L 340.070312 280.542969 L 342.355469 282.691406 L 344.714844 283.765625 L 347.859375 283.765625 L 350.644531 282.691406 L 352.503906 281.347656 L 354.433594 279.199219 L 357.078125 274.636719 L 358.71875 270.339844 L 360.148438 265.242188 L 361.222656 260.140625 L 361.9375 255.84375 L 363.007812 247.519531 L 363.867188 238.394531 L 364.507812 228.996094 L 364.9375 219.867188 L 374.941406 219.867188 L 374.511719 230.609375 L 373.871094 241.078125 L 373.226562 248.863281 L 372.226562 258.261719 L 371.082031 266.582031 L 369.4375 275.980469 L 368.082031 282.152344 L 366.292969 288.867188 L 364.652344 293.96875 L 362.863281 298.53125 L 360.222656 303.898438 L 358.507812 306.585938 L 356.648438 309 L 354.433594 311.148438 L 351.644531 313.027344 L 348.644531 314.101562 L 345.859375 314.371094 L 342.855469 313.832031 L 340.640625 312.761719 L 337.710938 310.34375 L 334.066406 305.511719 L 331.421875 300.410156 L 329.351562 295.308594 L 327.566406 289.941406 L 325.5625 282.691406 L 322.992188 270.878906 L 321.417969 261.75 L 320.347656 254.234375 L 319.132812 243.761719 L 318.273438 234.367188 L 317.273438 219.332031 L 316.558594 200.269531 L 316.347656 185.503906 Z M 316.347656 148.457031 "/>
<path style=" stroke:none;fill-rule:nonzero;fill:rgb(6.27451%,58.823529%,28.235294%);fill-opacity:1;" d="M 378.023438 270.429688 L 378.085938 270.308594 L 403.441406 140.28125 L 411.140625 140.28125 L 436.621094 270.554688 L 427.667969 270.554688 L 421.28125 236.546875 L 393.300781 236.546875 L 387.039062 270.429688 L 378.023438 270.429688 L 395.992188 222.480469 L 418.714844 222.359375 L 407.386719 161.566406 L 407.261719 161.441406 L 407.136719 161.808594 L 395.929688 222.359375 L 395.992188 222.480469 Z M 378.023438 270.429688 "/>
<path style=" stroke:none;fill-rule:nonzero;fill:rgb(14.509804%,36.078431%,60%);fill-opacity:1;" d="M 378.023438 290.285156 L 378.097656 290.246094 L 378.097656 289.308594 L 378.3125 287.828125 L 378.8125 285.957031 L 379.3125 284.671875 L 380.597656 282.371094 L 382.382812 280.152344 L 384.242188 278.4375 L 385.601562 277.421875 L 386.8125 276.644531 L 389.601562 275.203125 L 391.386719 274.460938 L 393.316406 273.796875 L 395.675781 273.136719 L 397.390625 272.746094 L 401.25 272.121094 L 404.105469 271.851562 L 406.324219 271.734375 L 411.109375 271.734375 L 413.96875 271.890625 L 416.039062 272.082031 L 418.328125 272.394531 L 420.257812 272.746094 L 423.613281 273.605469 L 426.617188 274.695312 L 427.972656 275.320312 L 430.117188 276.527344 L 431.761719 277.695312 L 432.90625 278.710938 L 434.191406 280.152344 L 435.335938 281.90625 L 436.191406 283.894531 L 436.621094 285.570312 L 426.617188 285.570312 L 426.117188 284.007812 L 425.542969 282.800781 L 424.472656 281.203125 L 423.402344 280.074219 L 421.898438 278.941406 L 420.542969 278.203125 L 418.683594 277.460938 L 417.039062 276.996094 L 415.324219 276.644531 L 413.683594 276.410156 L 410.539062 276.175781 L 406.894531 276.175781 L 405.535156 276.253906 L 402.75 276.566406 L 401.25 276.839844 L 399.105469 277.382812 L 397.605469 277.890625 L 395.816406 278.671875 L 394.601562 279.332031 L 393.101562 280.347656 L 392.03125 281.242188 L 390.816406 282.527344 L 390.101562 283.503906 L 389.457031 284.59375 L 388.886719 285.878906 L 388.457031 287.246094 L 388.171875 288.6875 L 388.027344 290.089844 L 388.027344 296.128906 L 388.171875 297.535156 L 388.53125 299.171875 L 389.457031 301.546875 L 390.816406 303.613281 L 392.386719 305.25 L 393.890625 306.417969 L 394.746094 306.964844 L 395.890625 307.589844 L 397.675781 308.367188 L 400.25 309.148438 L 401.75 309.460938 L 404.035156 309.773438 L 406.394531 309.925781 L 409.539062 309.925781 L 412.324219 309.773438 L 414.183594 309.578125 L 416.113281 309.265625 L 418.757812 308.601562 L 420.398438 307.980469 L 421.828125 307.238281 L 422.902344 306.496094 L 423.613281 305.875 L 424.6875 304.667969 L 425.542969 303.339844 L 426.1875 301.976562 L 426.617188 300.652344 L 436.621094 300.652344 L 436.191406 302.210938 L 435.546875 303.730469 L 434.90625 304.859375 L 433.90625 306.226562 L 432.761719 307.433594 L 431.117188 308.796875 L 429.761719 309.695312 L 427.972656 310.667969 L 426.332031 311.410156 L 424.542969 312.070312 L 421.898438 312.851562 L 420.183594 313.242188 L 418.328125 313.589844 L 416.113281 313.902344 L 413.324219 314.175781 L 410.324219 314.332031 L 407.539062 314.371094 L 404.535156 314.292969 L 402.320312 314.136719 L 399.390625 313.785156 L 395.746094 313.085938 L 393.101562 312.34375 L 391.03125 311.601562 L 389.242188 310.824219 L 387.242188 309.773438 L 384.671875 308.058594 L 383.097656 306.730469 L 382.027344 305.640625 L 380.8125 304.121094 L 379.953125 302.757812 L 378.953125 300.574219 L 378.238281 297.804688 L 378.023438 295.664062 Z M 378.023438 290.285156 "/>
<path style=" stroke:none;fill-rule:nonzero;fill:rgb(6.27451%,58.823529%,28.235294%);fill-opacity:1;" d="M 439.703125 303.710938 L 439.765625 303.695312 L 465.121094 288.542969 L 472.820312 288.542969 L 498.300781 303.726562 L 489.347656 303.726562 L 482.960938 299.761719 L 454.980469 299.761719 L 448.71875 303.710938 L 439.703125 303.710938 L 457.671875 298.121094 L 480.394531 298.109375 L 469.066406 291.023438 L 468.9375 291.007812 L 468.8125 291.050781 L 457.609375 298.109375 L 457.671875 298.121094 Z M 439.703125 303.710938 "/>
<path style=" stroke:none;fill-rule:nonzero;fill:rgb(14.509804%,36.078431%,60%);fill-opacity:1;" d="M 439.703125 307.136719 L 439.777344 307.132812 L 439.777344 307.019531 L 439.988281 306.839844 L 440.492188 306.617188 L 440.992188 306.460938 L 442.277344 306.183594 L 444.0625 305.917969 L 445.921875 305.710938 L 447.277344 305.589844 L 448.492188 305.496094 L 451.28125 305.320312 L 453.066406 305.234375 L 454.996094 305.152344 L 457.355469 305.074219 L 459.070312 305.027344 L 462.929688 304.953125 L 465.785156 304.917969 L 468 304.90625 L 472.789062 304.90625 L 475.648438 304.921875 L 477.71875 304.945312 L 480.007812 304.984375 L 481.9375 305.027344 L 485.292969 305.128906 L 488.296875 305.261719 L 489.652344 305.335938 L 491.796875 305.480469 L 493.441406 305.621094 L 494.582031 305.742188 L 495.871094 305.917969 L 497.011719 306.128906 L 497.871094 306.367188 L 498.300781 306.570312 L 488.296875 306.570312 L 487.796875 306.382812 L 487.222656 306.234375 L 486.152344 306.042969 L 485.078125 305.90625 L 483.578125 305.773438 L 482.222656 305.683594 L 480.363281 305.59375 L 478.71875 305.539062 L 477.003906 305.496094 L 475.363281 305.46875 L 472.21875 305.4375 L 468.574219 305.4375 L 467.214844 305.449219 L 464.429688 305.484375 L 462.929688 305.519531 L 460.785156 305.585938 L 459.285156 305.644531 L 457.496094 305.738281 L 456.28125 305.820312 L 454.78125 305.941406 L 453.710938 306.046875 L 452.496094 306.203125 L 451.78125 306.320312 L 451.136719 306.453125 L 450.566406 306.605469 L 450.136719 306.769531 L 449.851562 306.945312 L 449.707031 307.113281 L 449.707031 307.839844 L 449.851562 308.007812 L 450.207031 308.207031 L 451.136719 308.492188 L 452.496094 308.738281 L 454.066406 308.9375 L 455.566406 309.078125 L 456.425781 309.144531 L 457.570312 309.21875 L 459.355469 309.3125 L 461.925781 309.40625 L 463.429688 309.441406 L 465.714844 309.480469 L 468.074219 309.5 L 471.21875 309.5 L 474.003906 309.480469 L 475.863281 309.457031 L 477.792969 309.417969 L 480.433594 309.339844 L 482.078125 309.265625 L 483.507812 309.175781 L 484.578125 309.085938 L 485.292969 309.011719 L 486.367188 308.867188 L 487.222656 308.707031 L 487.867188 308.542969 L 488.296875 308.382812 L 498.300781 308.382812 L 497.871094 308.570312 L 497.226562 308.753906 L 496.585938 308.890625 L 495.585938 309.054688 L 494.441406 309.199219 L 492.796875 309.363281 L 491.441406 309.472656 L 489.652344 309.589844 L 488.007812 309.675781 L 486.222656 309.757812 L 483.578125 309.851562 L 481.863281 309.898438 L 480.007812 309.941406 L 477.792969 309.976562 L 475.003906 310.011719 L 472.003906 310.027344 L 469.214844 310.035156 L 466.214844 310.023438 L 464 310.003906 L 461.070312 309.964844 L 457.425781 309.878906 L 454.78125 309.789062 L 452.710938 309.699219 L 450.921875 309.605469 L 448.921875 309.480469 L 446.351562 309.273438 L 444.777344 309.113281 L 443.707031 308.984375 L 442.492188 308.800781 L 441.632812 308.636719 L 440.632812 308.375 L 439.917969 308.042969 L 439.703125 307.785156 Z M 439.703125 307.136719 "/>
<path style=" stroke:none;fill-rule:nonzero;fill:rgb(96.862745%,70.196078%,16.862745%);fill-opacity:1;" d="M 439.703125 312.566406 L 439.777344 312.5625 L 439.777344 312.503906 L 440.0625 312.375 L 440.777344 312.195312 L 441.707031 312.050781 L 442.707031 311.933594 L 443.347656 311.875 L 444.421875 311.785156 L 445.347656 311.722656 L 447.707031 311.59375 L 450.707031 311.472656 L 452.351562 311.421875 L 454.210938 311.371094 L 456.855469 311.316406 L 458.070312 311.296875 L 461.785156 311.25 L 466 311.222656 L 470.644531 311.214844 L 472.789062 311.214844 L 475.71875 311.226562 L 479.71875 311.257812 L 482.007812 311.289062 L 483.792969 311.316406 L 485.652344 311.355469 L 487.9375 311.414062 L 490.082031 311.480469 L 491.796875 311.550781 L 493.511719 311.636719 L 494.941406 311.730469 L 496.15625 311.832031 L 497.226562 311.953125 L 497.871094 312.050781 L 498.300781 312.152344 L 488.367188 312.152344 L 487.796875 312.050781 L 487.152344 311.972656 L 486.082031 311.878906 L 485.007812 311.808594 L 483.9375 311.753906 L 481.9375 311.679688 L 480.222656 311.632812 L 478.078125 311.59375 L 476.003906 311.566406 L 473.648438 311.550781 L 472.21875 311.542969 L 468.429688 311.542969 L 465 311.566406 L 463 311.589844 L 461.570312 311.609375 L 459.570312 311.65625 L 458.355469 311.6875 L 457.640625 311.710938 L 455.496094 311.800781 L 454.066406 311.882812 L 453.28125 311.9375 L 452.28125 312.023438 L 451.566406 312.101562 L 450.78125 312.214844 L 450.351562 312.304688 L 449.78125 312.5 L 449.707031 313.019531 L 449.921875 313.128906 L 450.351562 313.246094 L 450.921875 313.351562 L 451.78125 313.460938 L 452.636719 313.542969 L 454.140625 313.65625 L 455.425781 313.730469 L 456.425781 313.78125 L 458.355469 313.855469 L 459.140625 313.882812 L 461 313.933594 L 462.929688 313.976562 L 465.285156 314.011719 L 467.074219 314.027344 L 469.929688 314.042969 L 473.574219 314.042969 L 477.863281 314.023438 L 480.578125 314 L 482.4375 313.976562 L 483.652344 313.957031 L 485.152344 313.925781 L 486.222656 313.898438 L 487.222656 313.867188 L 488.4375 313.816406 L 488.4375 313.128906 L 470.789062 313.125 L 470.789062 312.800781 L 498.226562 312.800781 L 498.300781 313.925781 L 496.800781 314.003906 L 494.941406 314.078125 L 493.15625 314.136719 L 491.296875 314.1875 L 488.652344 314.242188 L 486.507812 314.277344 L 483.222656 314.316406 L 480.222656 314.34375 L 477.078125 314.359375 L 474.289062 314.367188 L 471.003906 314.371094 L 468.074219 314.363281 L 464.929688 314.347656 L 462.429688 314.324219 L 460.140625 314.296875 L 457.855469 314.257812 L 454.996094 314.199219 L 453.136719 314.148438 L 451.210938 314.089844 L 449.28125 314.015625 L 447.566406 313.9375 L 446.421875 313.878906 L 445.277344 313.808594 L 444.0625 313.722656 L 442.921875 313.625 L 442.0625 313.535156 L 441.277344 313.433594 L 440.703125 313.339844 L 440.132812 313.207031 L 439.847656 313.105469 L 439.703125 313.015625 Z M 439.703125 312.566406 "/>
<path style=" stroke:none;fill-rule:nonzero;fill:rgb(83.921569%,15.686275%,22.352941%);fill-opacity:1;" d="M 439.703125 254.042969 L 498.300781 254.042969 L 498.300781 257.609375 L 473.878906 257.640625 L 473.878906 287.363281 L 464.054688 287.363281 L 464.054688 257.671875 L 463.910156 257.609375 L 439.703125 257.609375 Z M 439.703125 254.042969 "/>
<path style=" stroke:none;fill-rule:nonzero;fill:rgb(83.921569%,15.686275%,22.352941%);fill-opacity:1;" d="M 501.382812 20.664062 L 559.980469 20.664062 L 559.980469 52.101562 L 535.558594 52.378906 L 535.558594 314.371094 L 525.734375 314.371094 L 525.734375 52.652344 L 525.589844 52.101562 L 501.382812 52.101562 Z M 501.382812 20.664062 "/>
<path style=" stroke:none;fill-rule:nonzero;fill:rgb(83.921569%,15.686275%,22.352941%);fill-opacity:1;" d="M 563.0625 20.664062 L 621.65625 20.664062 L 621.65625 52.101562 L 597.238281 52.378906 L 597.238281 314.371094 L 587.410156 314.371094 L 587.410156 52.652344 L 587.269531 52.101562 L 563.0625 52.101562 Z M 563.0625 20.664062 "/>
<path style=" stroke:none;fill-rule:nonzero;fill:rgb(83.921569%,15.686275%,22.352941%);fill-opacity:1;" d="M 624.742188 20.664062 L 683.335938 20.664062 L 683.335938 52.101562 L 658.917969 52.378906 L 658.917969 314.371094 L 649.089844 314.371094 L 649.089844 52.652344 L 648.949219 52.101562 L 624.742188 52.101562 Z M 624.742188 20.664062 "/>
<g style="fill:rgb(0%,0%,0%);fill-opacity:1;">
  <use xlink:href="#glyph0-1" x="21.957031" y="318.198242"/>
  <use xlink:href="#glyph0-2" x="27.291016" y="318.198242"/>
  <use xlink:href="#glyph0-1" x="29.958008" y="318.198242"/>
</g>
<g style="fill:rgb(0%,0%,0%);fill-opacity:1;">
  <use xlink:href="#glyph0-1" x="21.957031" y="244.475586"/>
  <use xlink:href="#glyph0-2" x="27.291016" y="244.475586"/>
  <use xlink:href="#glyph0-3" x="29.958008" y="244.475586"/>
</g>
<g style="fill:rgb(0%,0%,0%);fill-opacity:1;">
  <use xlink:href="#glyph0-4" x="21.957031" y="170.75293"/>
  <use xlink:href="#glyph0-2" x="27.291016" y="170.75293"/>
  <use xlink:href="#glyph0-1" x="29.958008" y="170.75293"/>
</g>
<g style="fill:rgb(0%,0%,0%);fill-opacity:1;">
  <use xlink:href="#glyph0-4" x="21.957031" y="97.03418"/>
  <use xlink:href="#glyph0-2" x="27.291016" y="97.03418"/>
  <use xlink:href="#glyph0-3" x="29.958008" y="97.03418"/>
</g>
<g style="fill:rgb(0%,0%,0%);fill-opacity:1;">
  <use xlink:href="#glyph0-5" x="21.957031" y="23.311523"/>
  <use xlink:href="#glyph0-2" x="27.291016" y="23.311523"/>
  <use xlink:href="#glyph0-1" x="29.958008" y="23.311523"/>
</g>
<g style="fill:rgb(0%,0%,0%);fill-opacity:1;">
  <use xlink:href="#glyph0-4" x="95.925781" y="338.19043"/>
</g>
<g style="fill:rgb(0%,0%,0%);fill-opacity:1;">
  <use xlink:href="#glyph0-5" x="157.605469" y="338.19043"/>
</g>
<g style="fill:rgb(0%,0%,0%);fill-opacity:1;">
  <use xlink:href="#glyph0-6" x="219.285156" y="338.19043"/>
</g>
<g style="fill:rgb(0%,0%,0%);fill-opacity:1;">
  <use xlink:href="#glyph0-7" x="280.964844" y="338.19043"/>
</g>
<g style="fill:rgb(0%,0%,0%);fill-opacity:1;">
  <use xlink:href="#glyph0-3" x="342.644531" y="338.19043"/>
</g>
<g style="fill:rgb(0%,0%,0%);fill-opacity:1;">
  <use xlink:href="#glyph0-8" x="404.324219" y="338.19043"/>
</g>
<g style="fill:rgb(0%,0%,0%);fill-opacity:1;">
  <use xlink:href="#glyph0-9" x="466" y="338.19043"/>
</g>
<g style="fill:rgb(0%,0%,0%);fill-opacity:1;">
  <use xlink:href="#glyph0-10" x="527.679688" y="338.19043"/>
</g>
<g style="fill:rgb(0%,0%,0%);fill-opacity:1;">
  <use xlink:href="#glyph0-11" x="589.359375" y="338.19043"/>
</g>
<g style="fill:rgb(0%,0%,0%);fill-opacity:1;">
  <use xlink:href="#glyph0-4" x="648.539062" y="338.19043"/>
  <use xlink:href="#glyph0-1" x="653.873047" y="338.19043"/>
</g>
<g style="fill:rgb(0%,0%,0%);fill-opacity:1;">
  <use xlink:href="#glyph1-1" x="14.412109" y="178.015625"/>
  <use xlink:href="#glyph1-2" x="14.412109" y="170.011719"/>
  <use xlink:href="#glyph1-3" x="14.412109" y="167.347656"/>
  <use xlink:href="#glyph1-4" x="14.412109" y="164.011719"/>
</g>
</g>
</svg>
