<?xml version="1.0" encoding="UTF-8"?>
<svg xmlns="http://www.w3.org/2000/svg" xmlns:xlink="http://www.w3.org/1999/xlink" width="720pt" height="360pt" viewBox="0 0 720 360" version="1.1">
<defs>
<g>
<symbol overflow="visible" id="glyph0-0">
<path style="stroke:none;" d=""/>
</symbol>
<symbol overflow="visible" id="glyph0-1">
<path style="stroke:none;" d="M 2.640625 -6.796875 C 2 -6.796875 1.421875 -6.53125 1.078125 -6.046875 C 0.640625 -5.453125 0.40625 -4.546875 0.40625 -3.296875 C 0.40625 -1 1.1875 0.21875 2.640625 0.21875 C 4.078125 0.21875 4.859375 -1 4.859375 -3.234375 C 4.859375 -4.5625 4.65625 -5.4375 4.203125 -6.046875 C 3.84375 -6.53125 3.28125 -6.796875 2.640625 -6.796875 Z M 2.640625 -6.046875 C 3.546875 -6.046875 4 -5.125 4 -3.3125 C 4 -1.375 3.5625 -0.484375 2.625 -0.484375 C 1.734375 -0.484375 1.28125 -1.421875 1.28125 -3.28125 C 1.28125 -5.140625 1.734375 -6.046875 2.640625 -6.046875 Z M 2.640625 -6.046875 "/>
</symbol>
<symbol overflow="visible" id="glyph0-2">
<path style="stroke:none;" d="M 1.828125 -1 L 0.828125 -1 L 0.828125 0 L 1.828125 0 Z M 1.828125 -1 "/>
</symbol>
<symbol overflow="visible" id="glyph0-3">
<path style="stroke:none;" d="M 4.5625 -6.796875 L 1.0625 -6.796875 L 0.546875 -3.09375 L 1.328125 -3.09375 C 1.71875 -3.5625 2.046875 -3.734375 2.578125 -3.734375 C 3.484375 -3.734375 4.0625 -3.109375 4.0625 -2.09375 C 4.0625 -1.125 3.484375 -0.53125 2.578125 -0.53125 C 1.828125 -0.53125 1.375 -0.90625 1.1875 -1.671875 L 0.328125 -1.671875 C 0.453125 -1.109375 0.546875 -0.84375 0.75 -0.59375 C 1.125 -0.078125 1.828125 0.21875 2.59375 0.21875 C 3.96875 0.21875 4.921875 -0.78125 4.921875 -2.21875 C 4.921875 -3.5625 4.03125 -4.484375 2.71875 -4.484375 C 2.25 -4.484375 1.859375 -4.359375 1.46875 -4.0625 L 1.734375 -5.96875 L 4.5625 -5.96875 Z M 4.5625 -6.796875 "/>
</symbol>
<symbol overflow="visible" id="glyph0-4">
<path style="stroke:none;" d="M 2.484375 -4.84375 L 2.484375 0 L 3.328125 0 L 3.328125 -6.796875 L 2.765625 -6.796875 C 2.46875 -5.75 2.28125 -5.609375 0.984375 -5.453125 L 0.984375 -4.84375 Z M 2.484375 -4.84375 "/>
</symbol>
<symbol overflow="visible" id="glyph0-5">
<path style="stroke:none;" d="M 4.859375 -0.828125 L 1.28125 -0.828125 C 1.359375 -1.390625 1.671875 -1.75 2.5 -2.234375 L 3.46875 -2.75 C 4.40625 -3.265625 4.90625 -3.96875 4.90625 -4.8125 C 4.90625 -5.375 4.671875 -5.90625 4.265625 -6.265625 C 3.859375 -6.625 3.375 -6.796875 2.71875 -6.796875 C 1.859375 -6.796875 1.21875 -6.5 0.84375 -5.921875 C 0.609375 -5.5625 0.5 -5.125 0.484375 -4.4375 L 1.328125 -4.4375 C 1.359375 -4.90625 1.40625 -5.1875 1.53125 -5.40625 C 1.75 -5.8125 2.1875 -6.0625 2.703125 -6.0625 C 3.46875 -6.0625 4.03125 -5.515625 4.03125 -4.78125 C 4.03125 -4.25 3.71875 -3.796875 3.125 -3.4375 L 2.234375 -2.9375 C 0.8125 -2.140625 0.40625 -1.5 0.328125 0 L 4.859375 0 Z M 4.859375 -0.828125 "/>
</symbol>
<symbol overflow="visible" id="glyph0-6">
<path style="stroke:none;" d="M 2.125 -3.125 L 2.578125 -3.125 C 3.515625 -3.125 3.984375 -2.703125 3.984375 -1.890625 C 3.984375 -1.03125 3.46875 -0.53125 2.578125 -0.53125 C 1.65625 -0.53125 1.203125 -0.984375 1.15625 -1.96875 L 0.3125 -1.96875 C 0.34375 -1.421875 0.4375 -1.078125 0.609375 -0.765625 C 0.953125 -0.109375 1.625 0.21875 2.546875 0.21875 C 3.953125 0.21875 4.859375 -0.609375 4.859375 -1.90625 C 4.859375 -2.765625 4.515625 -3.25 3.703125 -3.515625 C 4.34375 -3.765625 4.65625 -4.25 4.65625 -4.9375 C 4.65625 -6.109375 3.875 -6.796875 2.578125 -6.796875 C 1.203125 -6.796875 0.484375 -6.046875 0.453125 -4.609375 L 1.296875 -4.609375 C 1.3125 -5.015625 1.34375 -5.25 1.453125 -5.453125 C 1.640625 -5.828125 2.0625 -6.0625 2.59375 -6.0625 C 3.34375 -6.0625 3.796875 -5.625 3.796875 -4.90625 C 3.796875 -4.421875 3.609375 -4.140625 3.25 -3.984375 C 3.015625 -3.890625 2.71875 -3.84375 2.125 -3.84375 Z M 2.125 -3.125 "/>
</symbol>
<symbol overflow="visible" id="glyph0-7">
<path style="stroke:none;" d="M 3.140625 -1.625 L 3.140625 0 L 3.984375 0 L 3.984375 -1.625 L 4.984375 -1.625 L 4.984375 -2.390625 L 3.984375 -2.390625 L 3.984375 -6.796875 L 3.359375 -6.796875 L 0.265625 -2.515625 L 0.265625 -1.625 Z M 3.140625 -2.390625 L 1 -2.390625 L 3.140625 -5.359375 Z M 3.140625 -2.390625 "/>
</symbol>
<symbol overflow="visible" id="glyph0-8">
<path style="stroke:none;" d="M 4.78125 -5.03125 C 4.609375 -6.140625 3.890625 -6.796875 2.84375 -6.796875 C 2.09375 -6.796875 1.421875 -6.4375 1.03125 -5.828125 C 0.609375 -5.171875 0.40625 -4.34375 0.40625 -3.09375 C 0.40625 -1.953125 0.578125 -1.234375 0.984375 -0.625 C 1.359375 -0.078125 1.953125 0.21875 2.703125 0.21875 C 3.984375 0.21875 4.921875 -0.734375 4.921875 -2.078125 C 4.921875 -3.34375 4.0625 -4.234375 2.84375 -4.234375 C 2.171875 -4.234375 1.640625 -3.96875 1.28125 -3.46875 C 1.28125 -5.125 1.828125 -6.046875 2.796875 -6.046875 C 3.390625 -6.046875 3.796875 -5.671875 3.9375 -5.03125 Z M 2.734375 -3.484375 C 3.546875 -3.484375 4.0625 -2.921875 4.0625 -2 C 4.0625 -1.15625 3.484375 -0.53125 2.703125 -0.53125 C 1.921875 -0.53125 1.328125 -1.1875 1.328125 -2.046875 C 1.328125 -2.890625 1.90625 -3.484375 2.734375 -3.484375 Z M 2.734375 -3.484375 "/>
</symbol>
<symbol overflow="visible" id="glyph0-9">
<path style="stroke:none;" d="M 4.984375 -6.796875 L 0.4375 -6.796875 L 0.4375 -5.96875 L 4.109375 -5.96875 C 2.5 -3.65625 1.828125 -2.234375 1.328125 0 L 2.21875 0 C 2.59375 -2.171875 3.453125 -4.046875 4.984375 -6.09375 Z M 4.984375 -6.796875 "/>
</symbol>
<symbol overflow="visible" id="glyph0-10">
<path style="stroke:none;" d="M 3.75 -3.578125 C 4.453125 -4 4.6875 -4.34375 4.6875 -4.984375 C 4.6875 -6.046875 3.84375 -6.796875 2.640625 -6.796875 C 1.4375 -6.796875 0.59375 -6.046875 0.59375 -4.984375 C 0.59375 -4.359375 0.828125 -4.015625 1.515625 -3.578125 C 0.734375 -3.203125 0.359375 -2.640625 0.359375 -1.890625 C 0.359375 -0.640625 1.296875 0.21875 2.640625 0.21875 C 3.984375 0.21875 4.921875 -0.640625 4.921875 -1.875 C 4.921875 -2.640625 4.53125 -3.203125 3.75 -3.578125 Z M 2.640625 -6.046875 C 3.359375 -6.046875 3.8125 -5.625 3.8125 -4.96875 C 3.8125 -4.34375 3.34375 -3.921875 2.640625 -3.921875 C 1.921875 -3.921875 1.453125 -4.34375 1.453125 -4.984375 C 1.453125 -5.625 1.921875 -6.046875 2.640625 -6.046875 Z M 2.640625 -3.203125 C 3.484375 -3.203125 4.0625 -2.671875 4.0625 -1.875 C 4.0625 -1.0625 3.484375 -0.53125 2.625 -0.53125 C 1.796875 -0.53125 1.21875 -1.078125 1.21875 -1.875 C 1.21875 -2.671875 1.796875 -3.203125 2.640625 -3.203125 Z M 2.640625 -3.203125 "/>
</symbol>
<symbol overflow="visible" id="glyph0-11">
<path style="stroke:none;" d="M 0.515625 -1.546875 C 0.671875 -0.4375 1.40625 0.21875 2.4375 0.21875 C 3.1875 0.21875 3.859375 -0.140625 4.265625 -0.75 C 4.6875 -1.40625 4.890625 -2.25 4.890625 -3.484375 C 4.890625 -4.625 4.703125 -5.359375 4.3125 -5.953125 C 3.9375 -6.5 3.34375 -6.796875 2.59375 -6.796875 C 1.296875 -6.796875 0.359375 -5.84375 0.359375 -4.515625 C 0.359375 -3.25 1.234375 -2.34375 2.453125 -2.34375 C 3.09375 -2.34375 3.5625 -2.578125 4.015625 -3.109375 C 4 -1.453125 3.46875 -0.53125 2.5 -0.53125 C 1.90625 -0.53125 1.484375 -0.90625 1.359375 -1.546875 Z M 2.578125 -6.0625 C 3.375 -6.0625 3.96875 -5.40625 3.96875 -4.53125 C 3.96875 -3.6875 3.375 -3.09375 2.546875 -3.09375 C 1.734375 -3.09375 1.234375 -3.671875 1.234375 -4.578125 C 1.234375 -5.4375 1.796875 -6.0625 2.578125 -6.0625 Z M 2.578125 -6.0625 "/>
</symbol>
<symbol overflow="visible" id="glyph1-0">
<path style="stroke:none;" d=""/>
</symbol>
<symbol overflow="visible" id="glyph1-1">
<path style="stroke:none;" d="M 0 -0.953125 L 0 -4.890625 C 0 -5.71875 -0.234375 -6.34375 -0.734375 -6.796875 C -1.1875 -7.234375 -1.8125 -7.46875 -2.5 -7.46875 C -3.546875 -7.46875 -4.1875 -7 -4.625 -5.875 C -4.984375 -6.671875 -5.640625 -7.09375 -6.53125 -7.09375 C -7.15625 -7.09375 -7.734375 -6.859375 -8.140625 -6.390625 C -8.5625 -5.9375 -8.75 -5.34375 -8.75 -4.5 L -8.75 -0.953125 Z M -4.984375 -2.0625 L -7.765625 -2.0625 L -7.765625 -4.21875 C -7.765625 -4.84375 -7.6875 -5.203125 -7.453125 -5.5 C -7.21875 -5.8125 -6.859375 -5.96875 -6.375 -5.96875 C -5.90625 -5.96875 -5.53125 -5.8125 -5.296875 -5.5 C -5.0625 -5.203125 -4.984375 -4.84375 -4.984375 -4.21875 Z M -0.984375 -2.0625 L -4 -2.0625 L -4 -4.78125 C -4 -5.328125 -3.859375 -5.6875 -3.578125 -5.953125 C -3.296875 -6.21875 -2.921875 -6.359375 -2.484375 -6.359375 C -2.0625 -6.359375 -1.6875 -6.21875 -1.40625 -5.953125 C -1.109375 -5.6875 -0.984375 -5.328125 -0.984375 -4.78125 Z M -0.984375 -2.0625 "/>
</symbol>
<symbol overflow="visible" id="glyph1-2">
<path style="stroke:none;" d="M -6.28125 -1.796875 L -6.28125 -0.796875 L 0 -0.796875 L 0 -1.796875 Z M -8.75 -1.796875 L -8.75 -0.796875 L -7.484375 -0.796875 L -7.484375 -1.796875 Z M -8.75 -1.796875 "/>
</symbol>
<symbol overflow="visible" id="glyph1-3">
<path style="stroke:none;" d="M -6.28125 -3.046875 L -6.28125 -2.015625 L -8.015625 -2.015625 L -8.015625 -1.015625 L -6.28125 -1.015625 L -6.28125 -0.171875 L -5.46875 -0.171875 L -5.46875 -1.015625 L -0.71875 -1.015625 C -0.078125 -1.015625 0.28125 -1.453125 0.28125 -2.234375 C 0.28125 -2.46875 0.25 -2.71875 0.1875 -3.046875 L -0.640625 -3.046875 C -0.609375 -2.921875 -0.59375 -2.765625 -0.59375 -2.5625 C -0.59375 -2.140625 -0.71875 -2.015625 -1.15625 -2.015625 L -5.46875 -2.015625 L -5.46875 -3.046875 Z M -6.28125 -3.046875 "/>
</symbol>
<symbol overflow="visible" id="glyph1-4">
<path style="stroke:none;" d="M -4.53125 -5.25 C -5.765625 -5.25 -6.46875 -4.421875 -6.46875 -2.96875 C -6.46875 -1.515625 -5.71875 -0.5625 -4.546875 -0.5625 C -3.5625 -0.5625 -3.09375 -1.0625 -2.734375 -2.5625 L -2.515625 -3.484375 C -2.34375 -4.1875 -2.09375 -4.46875 -1.625 -4.46875 C -1.046875 -4.46875 -0.640625 -3.875 -0.640625 -3 C -0.640625 -2.453125 -0.796875 -2 -1.0625 -1.75 C -1.25 -1.59375 -1.421875 -1.53125 -1.875 -1.46875 L -1.875 -0.40625 C -0.421875 -0.453125 0.28125 -1.265625 0.28125 -2.921875 C 0.28125 -4.5 -0.5 -5.515625 -1.71875 -5.515625 C -2.65625 -5.515625 -3.171875 -4.984375 -3.46875 -3.734375 L -3.703125 -2.765625 C -3.890625 -1.953125 -4.15625 -1.609375 -4.59375 -1.609375 C -5.171875 -1.609375 -5.546875 -2.125 -5.546875 -2.9375 C -5.546875 -3.75 -5.203125 -4.171875 -4.53125 -4.203125 Z M -4.53125 -5.25 "/>
</symbol>
</g>
</defs>
<g id="surface70045">
<rect x="0" y="0" width="720" height="360" style="fill:rgb(100%,100%,100%);fill-opacity:1;stroke:none;"/>
<path style=" stroke:none;fill-rule:nonzero;fill:rgb(6.27451%,58.823529%,28.235294%);fill-opacity:1;" d="M 69.628906 312.210938 L 69.667969 312.207031 L 85.484375 308.859375 L 90.289062 308.859375 L 106.183594 312.210938 L 100.597656 312.210938 L 96.613281 311.335938 L 79.15625 311.335938 L 75.253906 312.210938 L 69.628906 312.210938 L 80.835938 310.976562 L 95.011719 310.972656 L 87.945312 309.40625 L 87.867188 309.40625 L 87.789062 309.414062 L 80.796875 310.972656 L 80.835938 310.976562 Z M 69.628906 312.210938 "/>
<path style=" stroke:none;fill-rule:nonzero;fill:rgb(14.509804%,36.078431%,60%);fill-opacity:1;" d="M 69.628906 297.265625 L 69.675781 297.261719 L 69.675781 297.117188 L 69.808594 296.886719 L 70.121094 296.597656 L 70.433594 296.398438 L 71.234375 296.042969 L 72.347656 295.699219 L 73.507812 295.4375 L 74.355469 295.277344 L 75.113281 295.160156 L 76.851562 294.9375 L 77.964844 294.820312 L 79.167969 294.71875 L 80.640625 294.617188 L 81.710938 294.554688 L 84.117188 294.460938 L 85.898438 294.417969 L 87.28125 294.398438 L 90.269531 294.398438 L 92.050781 294.421875 L 93.34375 294.453125 L 94.769531 294.503906 L 95.972656 294.554688 L 98.070312 294.6875 L 99.941406 294.859375 L 100.789062 294.953125 L 102.125 295.140625 L 103.152344 295.320312 L 103.863281 295.476562 L 104.667969 295.699219 L 105.378906 295.972656 L 105.914062 296.277344 L 106.183594 296.539062 L 99.941406 296.539062 L 99.628906 296.296875 L 99.273438 296.109375 L 98.605469 295.863281 L 97.9375 295.6875 L 97 295.515625 L 96.152344 295.398438 L 94.992188 295.285156 L 93.96875 295.214844 L 92.898438 295.160156 L 91.875 295.121094 L 89.910156 295.085938 L 87.636719 295.085938 L 86.792969 295.097656 L 85.054688 295.148438 L 84.117188 295.1875 L 82.78125 295.273438 L 81.84375 295.351562 L 80.730469 295.472656 L 79.972656 295.574219 L 79.035156 295.730469 L 78.367188 295.871094 L 77.609375 296.066406 L 77.164062 296.21875 L 76.761719 296.386719 L 76.40625 296.585938 L 76.136719 296.796875 L 75.960938 297.019531 L 75.871094 297.238281 L 75.871094 298.171875 L 75.960938 298.386719 L 76.183594 298.640625 L 76.761719 299.007812 L 77.609375 299.328125 L 78.589844 299.582031 L 79.527344 299.761719 L 80.058594 299.84375 L 80.773438 299.941406 L 81.886719 300.0625 L 83.492188 300.183594 L 84.429688 300.230469 L 85.855469 300.277344 L 87.328125 300.304688 L 89.289062 300.304688 L 91.027344 300.277344 L 92.183594 300.25 L 93.390625 300.199219 L 95.039062 300.097656 L 96.0625 300 L 96.953125 299.886719 L 97.625 299.773438 L 98.070312 299.675781 L 98.738281 299.488281 L 99.273438 299.285156 L 99.675781 299.074219 L 99.941406 298.871094 L 106.183594 298.871094 L 105.914062 299.109375 L 105.515625 299.34375 L 105.113281 299.519531 L 104.488281 299.730469 L 103.773438 299.917969 L 102.75 300.128906 L 101.902344 300.265625 L 100.789062 300.417969 L 99.761719 300.53125 L 98.648438 300.632812 L 97 300.753906 L 95.929688 300.816406 L 94.769531 300.871094 L 93.390625 300.917969 L 91.648438 300.960938 L 89.777344 300.984375 L 88.039062 300.988281 L 86.167969 300.976562 L 84.785156 300.953125 L 82.957031 300.898438 L 80.683594 300.789062 L 79.035156 300.675781 L 77.742188 300.5625 L 76.628906 300.441406 L 75.378906 300.277344 L 73.773438 300.015625 L 72.792969 299.808594 L 72.125 299.640625 L 71.367188 299.40625 L 70.832031 299.195312 L 70.207031 298.855469 L 69.761719 298.429688 L 69.628906 298.097656 Z M 69.628906 297.265625 "/>
<path style=" stroke:none;fill-rule:nonzero;fill:rgb(96.862745%,70.196078%,16.862745%);fill-opacity:1;" d="M 69.628906 313.8125 L 69.675781 313.808594 L 69.675781 313.792969 L 69.851562 313.753906 L 70.296875 313.695312 L 70.878906 313.652344 L 71.5 313.617188 L 71.902344 313.597656 L 72.570312 313.570312 L 73.152344 313.550781 L 74.621094 313.511719 L 76.496094 313.472656 L 77.519531 313.457031 L 78.679688 313.441406 L 80.328125 313.425781 L 81.085938 313.417969 L 83.402344 313.402344 L 86.035156 313.394531 L 88.929688 313.390625 L 90.269531 313.394531 L 92.097656 313.394531 L 94.59375 313.40625 L 96.019531 313.414062 L 97.132812 313.425781 L 98.292969 313.4375 L 99.71875 313.453125 L 101.054688 313.476562 L 102.125 313.496094 L 103.195312 313.523438 L 104.085938 313.550781 L 104.84375 313.582031 L 105.515625 313.621094 L 105.914062 313.652344 L 106.183594 313.683594 L 99.984375 313.683594 L 99.628906 313.652344 L 99.226562 313.628906 L 98.558594 313.597656 L 97.222656 313.558594 L 95.972656 313.535156 L 94.90625 313.523438 L 93.566406 313.511719 L 92.273438 313.5 L 90.804688 313.496094 L 87.550781 313.496094 L 85.410156 313.5 L 84.160156 313.507812 L 83.269531 313.515625 L 82.023438 313.527344 L 81.265625 313.539062 L 80.816406 313.546875 L 79.480469 313.574219 L 78.589844 313.597656 L 78.097656 313.617188 L 77.476562 313.644531 L 77.027344 313.667969 L 76.539062 313.703125 L 76.269531 313.730469 L 75.914062 313.789062 L 75.871094 313.953125 L 76.003906 313.984375 L 76.269531 314.023438 L 76.628906 314.054688 L 77.164062 314.089844 L 77.699219 314.113281 L 78.632812 314.148438 L 79.4375 314.171875 L 80.058594 314.1875 L 81.265625 314.210938 L 81.753906 314.21875 L 82.914062 314.234375 L 84.117188 314.25 L 85.589844 314.257812 L 86.703125 314.265625 L 88.484375 314.269531 L 90.757812 314.269531 L 93.433594 314.261719 L 95.128906 314.257812 L 96.285156 314.25 L 97.042969 314.242188 L 97.980469 314.234375 L 98.648438 314.222656 L 99.273438 314.214844 L 100.03125 314.199219 L 100.03125 313.984375 L 89.019531 313.984375 L 89.019531 313.882812 L 106.136719 313.882812 L 106.183594 314.234375 L 105.246094 314.257812 L 104.085938 314.28125 L 102.972656 314.296875 L 101.8125 314.3125 L 100.164062 314.332031 L 98.828125 314.339844 L 96.777344 314.355469 L 94.90625 314.363281 L 92.941406 314.367188 L 91.203125 314.371094 L 89.152344 314.371094 L 87.328125 314.367188 L 85.363281 314.363281 L 83.804688 314.355469 L 82.378906 314.347656 L 80.953125 314.335938 L 79.167969 314.316406 L 78.011719 314.300781 L 76.804688 314.28125 L 75.601562 314.261719 L 74.53125 314.238281 L 73.820312 314.21875 L 73.105469 314.195312 L 72.347656 314.167969 L 71.636719 314.140625 L 71.101562 314.113281 L 70.609375 314.082031 L 70.253906 314.050781 L 69.898438 314.011719 L 69.71875 313.976562 L 69.628906 313.949219 Z M 69.628906 313.8125 "/>
<path style=" stroke:none;fill-rule:nonzero;fill:rgb(83.921569%,15.686275%,22.352941%);fill-opacity:1;" d="M 69.628906 302.167969 L 106.183594 302.167969 L 106.183594 302.757812 L 90.949219 302.765625 L 90.949219 307.679688 L 84.820312 307.679688 L 84.820312 302.769531 L 84.730469 302.757812 L 69.628906 302.757812 Z M 69.628906 302.167969 "/>
<path style=" stroke:none;fill-rule:nonzero;fill:rgb(6.27451%,58.823529%,28.235294%);fill-opacity:1;" d="M 146.582031 307.621094 L 146.621094 307.617188 L 162.4375 300.816406 L 167.242188 300.816406 L 183.136719 307.628906 L 177.550781 307.628906 L 173.570312 305.851562 L 156.113281 305.851562 L 152.207031 307.621094 L 146.582031 307.621094 L 157.792969 305.113281 L 171.96875 305.109375 L 164.898438 301.929688 L 164.820312 301.921875 L 164.742188 301.941406 L 157.753906 305.109375 L 157.792969 305.113281 Z M 146.582031 307.621094 "/>
<path style=" stroke:none;fill-rule:nonzero;fill:rgb(14.509804%,36.078431%,60%);fill-opacity:1;" d="M 146.582031 309.816406 L 146.628906 309.8125 L 146.628906 309.761719 L 146.761719 309.683594 L 147.074219 309.582031 L 147.386719 309.511719 L 148.1875 309.386719 L 149.300781 309.265625 L 150.460938 309.171875 L 151.308594 309.117188 L 152.066406 309.074219 L 153.804688 308.996094 L 154.917969 308.957031 L 156.121094 308.921875 L 157.59375 308.882812 L 158.664062 308.863281 L 161.070312 308.828125 L 162.855469 308.8125 L 164.234375 308.808594 L 167.222656 308.808594 L 169.003906 308.816406 L 170.296875 308.828125 L 171.726562 308.84375 L 172.929688 308.863281 L 175.023438 308.910156 L 176.894531 308.96875 L 177.742188 309.003906 L 179.078125 309.070312 L 180.105469 309.132812 L 180.820312 309.1875 L 181.621094 309.265625 L 182.335938 309.359375 L 182.867188 309.46875 L 183.136719 309.558594 L 176.894531 309.558594 L 176.582031 309.476562 L 176.226562 309.410156 L 175.558594 309.324219 L 174.890625 309.261719 L 173.953125 309.199219 L 173.105469 309.160156 L 171.949219 309.121094 L 170.921875 309.09375 L 169.851562 309.074219 L 168.828125 309.0625 L 166.867188 309.050781 L 164.59375 309.050781 L 163.746094 309.054688 L 162.007812 309.070312 L 161.070312 309.085938 L 159.734375 309.113281 L 158.796875 309.140625 L 157.683594 309.183594 L 156.925781 309.222656 L 155.988281 309.277344 L 155.320312 309.324219 L 154.5625 309.394531 L 154.117188 309.449219 L 153.714844 309.507812 L 153.359375 309.578125 L 153.089844 309.652344 L 152.914062 309.730469 L 152.824219 309.804688 L 152.824219 310.132812 L 152.914062 310.210938 L 153.136719 310.296875 L 153.714844 310.429688 L 154.5625 310.539062 L 155.542969 310.628906 L 156.480469 310.691406 L 157.015625 310.722656 L 157.726562 310.757812 L 158.84375 310.796875 L 160.445312 310.839844 L 161.382812 310.859375 L 162.808594 310.875 L 164.28125 310.882812 L 166.242188 310.882812 L 167.980469 310.875 L 169.140625 310.863281 L 170.34375 310.847656 L 171.992188 310.8125 L 173.015625 310.777344 L 173.910156 310.738281 L 174.578125 310.695312 L 175.023438 310.664062 L 175.691406 310.597656 L 176.226562 310.523438 L 176.628906 310.449219 L 176.894531 310.378906 L 183.136719 310.378906 L 182.867188 310.464844 L 182.46875 310.546875 L 182.066406 310.609375 L 181.441406 310.683594 L 180.730469 310.746094 L 179.703125 310.820312 L 178.855469 310.871094 L 177.742188 310.921875 L 176.71875 310.964844 L 175.601562 311 L 173.953125 311.042969 L 172.882812 311.0625 L 171.726562 311.082031 L 170.34375 311.097656 L 168.605469 311.113281 L 166.730469 311.121094 L 164.992188 311.125 L 163.121094 311.121094 L 161.738281 311.113281 L 159.910156 311.09375 L 157.636719 311.054688 L 155.988281 311.015625 L 154.695312 310.972656 L 153.582031 310.933594 L 152.332031 310.875 L 150.730469 310.78125 L 149.75 310.710938 L 149.078125 310.648438 L 148.320312 310.566406 L 147.785156 310.492188 L 147.164062 310.375 L 146.71875 310.222656 L 146.582031 310.109375 Z M 146.582031 309.816406 "/>
<path style=" stroke:none;fill-rule:nonzero;fill:rgb(96.862745%,70.196078%,16.862745%);fill-opacity:1;" d="M 146.582031 294.886719 L 146.628906 294.878906 L 146.628906 294.726562 L 146.804688 294.386719 L 147.25 293.914062 L 147.832031 293.527344 L 148.457031 293.226562 L 148.855469 293.066406 L 149.523438 292.839844 L 150.105469 292.671875 L 151.574219 292.328125 L 153.449219 292.011719 L 154.472656 291.875 L 155.632812 291.746094 L 157.28125 291.601562 L 158.039062 291.546875 L 160.359375 291.425781 L 162.988281 291.351562 L 165.886719 291.328125 L 167.222656 291.335938 L 169.050781 291.367188 L 171.546875 291.449219 L 172.972656 291.523438 L 174.085938 291.601562 L 175.246094 291.699219 L 176.671875 291.851562 L 178.011719 292.035156 L 179.078125 292.214844 L 180.148438 292.445312 L 181.042969 292.6875 L 181.800781 292.953125 L 182.46875 293.269531 L 182.867188 293.535156 L 183.136719 293.800781 L 176.941406 293.800781 L 176.582031 293.535156 L 176.183594 293.332031 L 175.515625 293.082031 L 174.84375 292.898438 L 174.175781 292.753906 L 172.929688 292.558594 L 171.859375 292.4375 L 170.519531 292.328125 L 169.226562 292.261719 L 167.757812 292.214844 L 166.867188 292.199219 L 164.503906 292.199219 L 162.363281 292.253906 L 161.117188 292.3125 L 160.222656 292.375 L 158.976562 292.488281 L 158.21875 292.578125 L 157.773438 292.640625 L 156.433594 292.875 L 155.542969 293.089844 L 155.054688 293.234375 L 154.429688 293.460938 L 153.984375 293.664062 L 153.492188 293.96875 L 153.226562 294.195312 L 152.867188 294.710938 L 152.824219 296.078125 L 152.957031 296.367188 L 153.226562 296.679688 L 153.582031 296.949219 L 154.117188 297.238281 L 154.652344 297.460938 L 155.585938 297.753906 L 156.390625 297.953125 L 157.015625 298.082031 L 158.21875 298.285156 L 158.707031 298.355469 L 159.867188 298.492188 L 161.070312 298.597656 L 162.542969 298.6875 L 163.65625 298.734375 L 165.4375 298.773438 L 167.710938 298.773438 L 170.386719 298.726562 L 172.082031 298.667969 L 173.242188 298.605469 L 174 298.550781 L 174.933594 298.46875 L 175.601562 298.394531 L 176.226562 298.308594 L 176.984375 298.179688 L 176.984375 296.367188 L 165.972656 296.359375 L 165.972656 295.507812 L 183.09375 295.5 L 183.136719 298.46875 L 182.199219 298.671875 L 181.042969 298.871094 L 179.925781 299.023438 L 178.769531 299.152344 L 177.117188 299.296875 L 175.78125 299.386719 L 173.730469 299.492188 L 171.859375 299.5625 L 169.898438 299.605469 L 168.160156 299.628906 L 166.109375 299.636719 L 164.28125 299.621094 L 162.320312 299.578125 L 160.757812 299.515625 L 159.332031 299.441406 L 157.90625 299.339844 L 156.121094 299.183594 L 154.964844 299.054688 L 153.761719 298.894531 L 152.554688 298.703125 L 151.488281 298.5 L 150.773438 298.339844 L 150.058594 298.15625 L 149.300781 297.929688 L 148.589844 297.671875 L 148.054688 297.4375 L 147.5625 297.171875 L 147.207031 296.921875 L 146.851562 296.578125 L 146.671875 296.304688 L 146.582031 296.070312 Z M 146.582031 294.886719 "/>
<path style=" stroke:none;fill-rule:nonzero;fill:rgb(83.921569%,15.686275%,22.352941%);fill-opacity:1;" d="M 146.582031 312.304688 L 183.136719 312.304688 L 183.136719 312.523438 L 167.902344 312.527344 L 167.902344 314.371094 L 161.773438 314.371094 L 161.773438 312.527344 L 161.683594 312.523438 L 146.582031 312.523438 Z M 146.582031 312.304688 "/>
<path style=" stroke:none;fill-rule:nonzero;fill:rgb(6.27451%,58.823529%,28.235294%);fill-opacity:1;" d="M 185.058594 289.882812 L 185.097656 289.855469 L 200.914062 261.066406 L 205.71875 261.066406 L 221.613281 289.910156 L 216.027344 289.910156 L 212.046875 282.378906 L 194.589844 282.378906 L 190.683594 289.882812 L 185.058594 289.882812 L 196.269531 279.265625 L 210.445312 279.238281 L 203.375 265.78125 L 203.296875 265.753906 L 203.21875 265.835938 L 196.230469 279.238281 L 196.269531 279.265625 Z M 185.058594 289.882812 "/>
<path style=" stroke:none;fill-rule:nonzero;fill:rgb(14.509804%,36.078431%,60%);fill-opacity:1;" d="M 185.058594 312.210938 L 185.105469 312.207031 L 185.105469 312.125 L 185.238281 311.992188 L 185.550781 311.824219 L 185.863281 311.707031 L 186.664062 311.5 L 187.78125 311.300781 L 188.9375 311.148438 L 189.785156 311.058594 L 190.542969 310.988281 L 192.28125 310.859375 L 193.394531 310.792969 L 194.601562 310.730469 L 196.070312 310.671875 L 197.140625 310.636719 L 199.546875 310.582031 L 201.332031 310.558594 L 202.710938 310.546875 L 205.699219 310.546875 L 207.484375 310.5625 L 208.773438 310.578125 L 210.203125 310.605469 L 211.40625 310.636719 L 213.5 310.714844 L 215.371094 310.8125 L 216.21875 310.867188 L 217.558594 310.976562 L 218.582031 311.082031 L 219.296875 311.171875 L 220.097656 311.300781 L 220.8125 311.460938 L 221.347656 311.636719 L 221.613281 311.789062 L 215.371094 311.789062 L 215.0625 311.648438 L 214.703125 311.539062 L 214.035156 311.394531 L 213.367188 311.292969 L 212.429688 311.195312 L 211.582031 311.128906 L 210.425781 311.0625 L 209.398438 311.019531 L 208.328125 310.988281 L 207.304688 310.964844 L 205.34375 310.945312 L 203.070312 310.945312 L 202.222656 310.953125 L 200.484375 310.980469 L 199.546875 311.003906 L 198.210938 311.054688 L 197.273438 311.097656 L 196.160156 311.167969 L 195.402344 311.226562 L 194.464844 311.320312 L 193.796875 311.398438 L 193.039062 311.515625 L 192.59375 311.601562 L 192.191406 311.699219 L 191.835938 311.816406 L 191.570312 311.9375 L 191.390625 312.066406 L 191.300781 312.191406 L 191.300781 312.734375 L 191.390625 312.859375 L 191.613281 313.007812 L 192.191406 313.21875 L 193.039062 313.40625 L 194.019531 313.554688 L 194.957031 313.65625 L 195.492188 313.707031 L 196.203125 313.761719 L 197.320312 313.832031 L 198.921875 313.902344 L 199.859375 313.929688 L 201.285156 313.957031 L 202.757812 313.972656 L 204.71875 313.972656 L 206.457031 313.957031 L 207.617188 313.941406 L 208.820312 313.914062 L 210.46875 313.851562 L 211.496094 313.796875 L 212.386719 313.730469 L 213.054688 313.664062 L 213.5 313.609375 L 214.167969 313.5 L 214.703125 313.382812 L 215.105469 313.257812 L 215.371094 313.140625 L 221.613281 313.140625 L 221.347656 313.28125 L 220.945312 313.417969 L 220.542969 313.519531 L 219.917969 313.640625 L 219.207031 313.75 L 218.179688 313.871094 L 217.335938 313.953125 L 216.21875 314.039062 L 215.195312 314.105469 L 214.078125 314.164062 L 212.429688 314.234375 L 211.359375 314.269531 L 210.203125 314.300781 L 208.820312 314.328125 L 207.082031 314.351562 L 205.210938 314.367188 L 203.46875 314.371094 L 201.597656 314.363281 L 200.214844 314.351562 L 198.390625 314.316406 L 196.117188 314.253906 L 194.464844 314.1875 L 193.171875 314.121094 L 192.058594 314.050781 L 190.8125 313.957031 L 189.207031 313.804688 L 188.226562 313.6875 L 187.554688 313.585938 L 186.796875 313.453125 L 186.265625 313.328125 L 185.640625 313.132812 L 185.195312 312.886719 L 185.058594 312.691406 Z M 185.058594 312.210938 "/>
<path style=" stroke:none;fill-rule:nonzero;fill:rgb(96.862745%,70.196078%,16.862745%);fill-opacity:1;" d="M 185.058594 295.820312 L 185.105469 295.8125 L 185.105469 295.609375 L 185.28125 295.15625 L 185.730469 294.53125 L 186.308594 294.015625 L 186.933594 293.613281 L 187.332031 293.398438 L 188.003906 293.097656 L 188.582031 292.875 L 190.054688 292.421875 L 191.925781 291.996094 L 192.949219 291.816406 L 194.109375 291.644531 L 195.757812 291.453125 L 196.515625 291.382812 L 198.835938 291.21875 L 201.464844 291.117188 L 204.363281 291.089844 L 205.699219 291.097656 L 207.527344 291.140625 L 210.023438 291.25 L 211.449219 291.351562 L 212.5625 291.453125 L 213.722656 291.582031 L 215.148438 291.785156 L 216.488281 292.027344 L 217.558594 292.269531 L 218.625 292.574219 L 219.519531 292.894531 L 220.277344 293.25 L 220.945312 293.671875 L 221.347656 294.027344 L 221.613281 294.378906 L 215.417969 294.378906 L 215.0625 294.027344 L 214.660156 293.753906 L 213.992188 293.421875 L 213.320312 293.179688 L 212.652344 292.984375 L 211.40625 292.722656 L 210.335938 292.5625 L 209 292.421875 L 207.707031 292.332031 L 206.234375 292.269531 L 205.34375 292.25 L 202.980469 292.25 L 200.839844 292.320312 L 199.59375 292.402344 L 198.699219 292.480469 L 197.453125 292.632812 L 196.695312 292.753906 L 196.25 292.835938 L 194.910156 293.148438 L 194.019531 293.429688 L 193.53125 293.621094 L 192.90625 293.925781 L 192.460938 294.199219 L 191.96875 294.601562 L 191.703125 294.902344 L 191.34375 295.589844 L 191.300781 297.40625 L 191.433594 297.789062 L 191.703125 298.203125 L 192.058594 298.566406 L 192.59375 298.949219 L 193.128906 299.242188 L 194.066406 299.636719 L 194.867188 299.898438 L 195.492188 300.070312 L 196.695312 300.34375 L 197.183594 300.433594 L 198.34375 300.617188 L 199.546875 300.757812 L 201.019531 300.878906 L 202.132812 300.9375 L 203.917969 300.988281 L 206.191406 300.988281 L 208.863281 300.929688 L 210.558594 300.847656 L 211.71875 300.765625 L 212.476562 300.695312 L 213.410156 300.585938 L 214.078125 300.484375 L 214.703125 300.375 L 215.460938 300.203125 L 215.460938 297.789062 L 204.453125 297.78125 L 204.453125 296.648438 L 221.570312 296.640625 L 221.613281 300.585938 L 220.675781 300.859375 L 219.519531 301.121094 L 218.402344 301.324219 L 217.246094 301.492188 L 215.59375 301.6875 L 214.257812 301.808594 L 212.207031 301.949219 L 210.335938 302.039062 L 208.375 302.101562 L 206.636719 302.128906 L 204.585938 302.140625 L 202.757812 302.121094 L 200.796875 302.058594 L 199.234375 301.976562 L 197.808594 301.878906 L 196.382812 301.746094 L 194.601562 301.535156 L 193.441406 301.363281 L 192.238281 301.152344 L 191.035156 300.898438 L 189.964844 300.625 L 189.25 300.414062 L 188.539062 300.171875 L 187.78125 299.871094 L 187.066406 299.527344 L 186.53125 299.214844 L 186.039062 298.859375 L 185.683594 298.527344 L 185.328125 298.074219 L 185.148438 297.710938 L 185.058594 297.398438 Z M 185.058594 295.820312 "/>
<path style=" stroke:none;fill-rule:nonzero;fill:rgb(83.921569%,15.686275%,22.352941%);fill-opacity:1;" d="M 185.058594 303.320312 L 221.613281 303.320312 L 221.613281 303.96875 L 206.378906 303.972656 L 206.378906 309.367188 L 200.25 309.367188 L 200.25 303.976562 L 200.160156 303.96875 L 185.058594 303.96875 Z M 185.058594 303.320312 "/>
<path style=" stroke:none;fill-rule:nonzero;fill:rgb(6.27451%,58.823529%,28.235294%);fill-opacity:1;" d="M 223.539062 303.117188 L 223.578125 303.089844 L 239.390625 276.757812 L 244.195312 276.757812 L 260.089844 303.140625 L 254.503906 303.140625 L 250.523438 296.253906 L 233.066406 296.253906 L 229.160156 303.117188 L 223.539062 303.117188 L 234.746094 293.40625 L 248.921875 293.378906 L 241.851562 281.066406 L 241.773438 281.042969 L 241.695312 281.117188 L 234.707031 293.378906 L 234.746094 293.40625 Z M 223.539062 303.117188 "/>
<path style=" stroke:none;fill-rule:nonzero;fill:rgb(14.509804%,36.078431%,60%);fill-opacity:1;" d="M 223.539062 241.644531 L 223.582031 241.589844 L 223.582031 240.269531 L 223.714844 238.183594 L 224.027344 235.546875 L 224.339844 233.738281 L 225.140625 230.496094 L 226.257812 227.367188 L 227.414062 224.953125 L 228.261719 223.523438 L 229.019531 222.425781 L 230.757812 220.394531 L 231.875 219.351562 L 233.078125 218.417969 L 234.546875 217.484375 L 235.617188 216.933594 L 238.023438 216.054688 L 239.808594 215.671875 L 241.191406 215.507812 L 244.175781 215.507812 L 245.960938 215.726562 L 247.253906 216 L 248.679688 216.441406 L 249.882812 216.933594 L 251.976562 218.140625 L 253.847656 219.679688 L 254.695312 220.558594 L 256.035156 222.261719 L 257.058594 223.90625 L 257.773438 225.335938 L 258.574219 227.367188 L 259.289062 229.839844 L 259.824219 232.636719 L 260.089844 235 L 253.847656 235 L 253.539062 232.804688 L 253.179688 231.101562 L 252.511719 228.851562 L 251.84375 227.257812 L 250.90625 225.664062 L 250.058594 224.621094 L 248.902344 223.578125 L 247.875 222.917969 L 246.804688 222.425781 L 245.78125 222.097656 L 243.820312 221.765625 L 241.546875 221.765625 L 240.699219 221.875 L 238.960938 222.316406 L 238.023438 222.699219 L 236.6875 223.46875 L 235.75 224.183594 L 234.636719 225.28125 L 233.878906 226.214844 L 232.941406 227.640625 L 232.273438 228.90625 L 231.515625 230.714844 L 231.070312 232.089844 L 230.667969 233.628906 L 230.3125 235.4375 L 230.046875 237.359375 L 229.867188 239.390625 L 229.777344 241.371094 L 229.777344 249.878906 L 229.867188 251.855469 L 230.089844 254.164062 L 230.667969 257.511719 L 231.515625 260.421875 L 232.496094 262.730469 L 233.433594 264.375 L 233.96875 265.144531 L 234.679688 266.023438 L 235.796875 267.121094 L 237.402344 268.21875 L 238.335938 268.660156 L 239.761719 269.097656 L 241.234375 269.320312 L 243.195312 269.320312 L 244.933594 269.097656 L 246.09375 268.824219 L 247.296875 268.386719 L 248.945312 267.453125 L 249.972656 266.574219 L 250.863281 265.53125 L 251.53125 264.488281 L 251.976562 263.609375 L 252.644531 261.90625 L 253.179688 260.039062 L 253.582031 258.117188 L 253.847656 256.25 L 260.089844 256.25 L 259.824219 258.445312 L 259.421875 260.585938 L 259.019531 262.179688 L 258.394531 264.101562 L 257.683594 265.804688 L 256.65625 267.726562 L 255.8125 268.988281 L 254.695312 270.363281 L 253.671875 271.40625 L 252.558594 272.339844 L 250.90625 273.4375 L 249.835938 273.984375 L 248.679688 274.480469 L 247.296875 274.917969 L 245.558594 275.304688 L 243.6875 275.523438 L 241.949219 275.578125 L 240.074219 275.46875 L 238.695312 275.25 L 236.867188 274.753906 L 234.59375 273.765625 L 232.941406 272.722656 L 231.648438 271.679688 L 230.535156 270.582031 L 229.289062 269.097656 L 227.683594 266.683594 L 226.703125 264.816406 L 226.035156 263.277344 L 225.277344 261.136719 L 224.742188 259.214844 L 224.117188 256.140625 L 223.671875 252.242188 L 223.539062 249.222656 Z M 223.539062 241.644531 "/>
<path style=" stroke:none;fill-rule:nonzero;fill:rgb(96.862745%,70.196078%,16.862745%);fill-opacity:1;" d="M 223.539062 307.75 L 223.582031 307.742188 L 223.582031 307.597656 L 223.761719 307.269531 L 224.207031 306.816406 L 224.785156 306.441406 L 225.410156 306.148438 L 225.8125 305.996094 L 226.480469 305.777344 L 227.058594 305.617188 L 228.53125 305.285156 L 230.402344 304.980469 L 231.425781 304.847656 L 232.585938 304.722656 L 234.234375 304.585938 L 234.992188 304.53125 L 237.3125 304.414062 L 239.941406 304.34375 L 242.839844 304.320312 L 244.175781 304.328125 L 246.003906 304.355469 L 248.5 304.4375 L 249.925781 304.511719 L 251.042969 304.585938 L 252.199219 304.679688 L 253.625 304.824219 L 254.964844 305 L 256.035156 305.175781 L 257.105469 305.394531 L 257.996094 305.628906 L 258.753906 305.886719 L 259.421875 306.191406 L 259.824219 306.449219 L 260.089844 306.703125 L 253.894531 306.703125 L 253.539062 306.449219 L 253.136719 306.25 L 252.46875 306.011719 L 251.800781 305.835938 L 251.128906 305.695312 L 249.882812 305.503906 L 248.8125 305.386719 L 247.476562 305.285156 L 246.183594 305.21875 L 244.710938 305.175781 L 243.820312 305.160156 L 241.457031 305.160156 L 239.316406 305.214844 L 238.070312 305.273438 L 237.179688 305.328125 L 235.929688 305.441406 L 235.171875 305.527344 L 234.726562 305.585938 L 233.390625 305.8125 L 232.496094 306.015625 L 232.007812 306.15625 L 231.382812 306.375 L 230.9375 306.574219 L 230.445312 306.867188 L 230.179688 307.085938 L 229.824219 307.582031 L 229.777344 308.898438 L 229.910156 309.175781 L 230.179688 309.476562 L 230.535156 309.738281 L 231.070312 310.019531 L 231.605469 310.230469 L 232.542969 310.515625 L 233.34375 310.707031 L 233.96875 310.828125 L 235.171875 311.027344 L 235.664062 311.09375 L 236.820312 311.226562 L 238.023438 311.328125 L 239.496094 311.414062 L 240.609375 311.457031 L 242.394531 311.496094 L 244.667969 311.496094 L 247.339844 311.453125 L 249.035156 311.394531 L 250.195312 311.335938 L 250.953125 311.28125 L 251.886719 311.203125 L 252.558594 311.128906 L 253.179688 311.050781 L 253.9375 310.925781 L 253.9375 309.175781 L 242.929688 309.167969 L 242.929688 308.351562 L 260.046875 308.34375 L 260.089844 311.203125 L 259.152344 311.398438 L 257.996094 311.589844 L 256.878906 311.738281 L 255.722656 311.859375 L 254.074219 312 L 252.734375 312.085938 L 250.683594 312.191406 L 248.8125 312.253906 L 246.851562 312.300781 L 245.113281 312.320312 L 243.0625 312.328125 L 241.234375 312.3125 L 239.273438 312.269531 L 237.710938 312.210938 L 236.285156 312.140625 L 234.859375 312.042969 L 233.078125 311.890625 L 231.917969 311.765625 L 230.714844 311.613281 L 229.511719 311.429688 L 228.441406 311.230469 L 227.726562 311.078125 L 227.015625 310.902344 L 226.257812 310.683594 L 225.542969 310.433594 L 225.007812 310.207031 L 224.519531 309.953125 L 224.160156 309.710938 L 223.804688 309.382812 L 223.625 309.117188 L 223.539062 308.890625 Z M 223.539062 307.75 "/>
<path style=" stroke:none;fill-rule:nonzero;fill:rgb(83.921569%,15.686275%,22.352941%);fill-opacity:1;" d="M 223.539062 313.507812 L 260.089844 313.507812 L 260.089844 313.601562 L 244.855469 313.601562 L 244.855469 314.371094 L 238.726562 314.371094 L 238.726562 313.601562 L 223.539062 313.601562 Z M 223.539062 313.507812 "/>
<path style=" stroke:none;fill-rule:nonzero;fill:rgb(6.27451%,58.823529%,28.235294%);fill-opacity:1;" d="M 262.015625 314.363281 L 262.054688 314.355469 L 277.871094 306.695312 L 282.671875 306.695312 L 298.566406 314.371094 L 292.984375 314.371094 L 289 312.367188 L 271.542969 312.367188 L 267.636719 314.363281 L 262.015625 314.363281 L 273.222656 311.539062 L 287.398438 311.53125 L 280.328125 307.949219 L 280.25 307.941406 L 280.171875 307.960938 L 273.183594 311.53125 L 273.222656 311.539062 Z M 262.015625 314.363281 "/>
<path style=" stroke:none;fill-rule:nonzero;fill:rgb(14.509804%,36.078431%,60%);fill-opacity:1;" d="M 262.015625 147.746094 L 262.058594 147.492188 L 262.058594 141.363281 L 262.191406 131.664062 L 262.503906 119.410156 L 262.816406 110.984375 L 263.617188 95.921875 L 264.734375 81.371094 L 265.890625 70.136719 L 266.738281 63.5 L 267.496094 58.394531 L 269.234375 48.949219 L 270.351562 44.097656 L 271.554688 39.757812 L 273.023438 35.417969 L 274.09375 32.867188 L 276.5 28.78125 L 278.285156 26.996094 L 279.667969 26.230469 L 282.652344 26.230469 L 284.4375 27.25 L 285.730469 28.527344 L 287.15625 30.570312 L 288.359375 32.867188 L 290.453125 38.484375 L 292.328125 45.628906 L 293.171875 49.714844 L 294.511719 57.628906 L 295.535156 65.289062 L 296.25 71.925781 L 297.050781 81.371094 L 297.765625 92.859375 L 298.300781 105.878906 L 298.566406 116.855469 L 292.328125 116.855469 L 292.015625 106.644531 L 291.65625 98.730469 L 290.988281 88.265625 L 290.320312 80.859375 L 289.382812 73.457031 L 288.539062 68.605469 L 287.378906 63.757812 L 286.351562 60.691406 L 285.285156 58.394531 L 284.257812 56.863281 L 282.296875 55.332031 L 280.023438 55.332031 L 279.175781 55.84375 L 277.4375 57.882812 L 276.5 59.671875 L 275.164062 63.246094 L 274.226562 66.5625 L 273.113281 71.671875 L 272.355469 76.011719 L 271.421875 82.648438 L 270.75 88.519531 L 269.992188 96.945312 L 269.546875 103.324219 L 269.148438 110.472656 L 268.789062 118.898438 L 268.523438 127.832031 L 268.34375 137.277344 L 268.253906 146.46875 L 268.253906 186.039062 L 268.34375 195.230469 L 268.566406 205.953125 L 269.148438 221.523438 L 269.992188 235.054688 L 270.972656 245.777344 L 271.910156 253.433594 L 272.445312 257.007812 L 273.160156 261.09375 L 274.273438 266.199219 L 275.878906 271.304688 L 276.8125 273.347656 L 278.238281 275.390625 L 279.710938 276.410156 L 281.671875 276.410156 L 283.410156 275.390625 L 284.570312 274.113281 L 285.773438 272.070312 L 287.421875 267.730469 L 288.449219 263.648438 L 289.339844 258.796875 L 290.007812 253.945312 L 290.453125 249.859375 L 291.121094 241.945312 L 291.65625 233.265625 L 292.058594 224.332031 L 292.328125 215.652344 L 298.566406 215.652344 L 298.300781 225.863281 L 297.898438 235.820312 L 297.496094 243.222656 L 296.875 252.160156 L 296.160156 260.074219 L 295.136719 269.007812 L 294.289062 274.878906 L 293.171875 281.261719 L 292.148438 286.113281 L 291.035156 290.453125 L 289.382812 295.558594 L 288.316406 298.109375 L 287.15625 300.40625 L 285.773438 302.449219 L 284.035156 304.238281 L 282.164062 305.257812 L 280.425781 305.515625 L 278.550781 305.003906 L 277.171875 303.980469 L 275.34375 301.683594 L 273.070312 297.089844 L 271.421875 292.238281 L 270.128906 287.386719 L 269.011719 282.28125 L 267.765625 275.390625 L 266.160156 264.15625 L 265.179688 255.476562 L 264.511719 248.328125 L 263.753906 238.375 L 263.21875 229.4375 L 262.59375 215.140625 L 262.148438 197.015625 L 262.015625 182.976562 Z M 262.015625 147.746094 "/>
<path style=" stroke:none;fill-rule:nonzero;fill:rgb(6.27451%,58.823529%,28.235294%);fill-opacity:1;" d="M 300.492188 308.144531 L 300.53125 307.871094 L 316.347656 20.664062 L 321.148438 20.664062 L 337.042969 308.414062 L 331.460938 308.414062 L 327.476562 233.300781 L 310.019531 233.300781 L 306.113281 308.144531 L 300.492188 308.144531 L 311.699219 202.230469 L 325.875 201.960938 L 318.808594 67.675781 L 318.730469 67.40625 L 318.652344 68.214844 L 311.660156 201.960938 L 311.699219 202.230469 Z M 300.492188 308.144531 "/>
<path style=" stroke:none;fill-rule:nonzero;fill:rgb(96.862745%,70.196078%,16.862745%);fill-opacity:1;" d="M 300.492188 310.363281 L 300.535156 310.363281 L 300.535156 310.328125 L 300.714844 310.253906 L 301.160156 310.152344 L 301.738281 310.070312 L 302.363281 310.003906 L 302.765625 309.96875 L 303.433594 309.917969 L 304.011719 309.882812 L 305.484375 309.808594 L 307.355469 309.742188 L 308.382812 309.710938 L 309.539062 309.683594 L 311.191406 309.652344 L 311.949219 309.640625 L 314.265625 309.613281 L 316.894531 309.597656 L 319.792969 309.59375 L 321.128906 309.59375 L 322.957031 309.601562 L 325.453125 309.621094 L 326.878906 309.636719 L 327.996094 309.652344 L 329.152344 309.671875 L 330.582031 309.707031 L 331.917969 309.746094 L 332.988281 309.785156 L 334.058594 309.835938 L 334.949219 309.886719 L 335.707031 309.945312 L 336.375 310.011719 L 336.777344 310.070312 L 337.042969 310.128906 L 330.847656 310.128906 L 330.492188 310.070312 L 330.089844 310.027344 L 329.421875 309.972656 L 328.753906 309.933594 L 328.085938 309.902344 L 326.835938 309.859375 L 325.765625 309.832031 L 324.429688 309.808594 L 323.136719 309.796875 L 321.664062 309.785156 L 320.773438 309.78125 L 318.410156 309.78125 L 316.269531 309.792969 L 315.023438 309.804688 L 314.132812 309.820312 L 312.882812 309.84375 L 312.125 309.863281 L 311.679688 309.878906 L 310.34375 309.929688 L 309.449219 309.972656 L 308.960938 310.003906 L 308.335938 310.054688 L 307.890625 310.097656 L 307.402344 310.164062 L 307.132812 310.214844 L 306.777344 310.324219 L 306.730469 310.621094 L 306.867188 310.683594 L 307.132812 310.75 L 307.488281 310.808594 L 308.023438 310.871094 L 308.558594 310.921875 L 309.496094 310.984375 L 310.296875 311.027344 L 310.921875 311.054688 L 312.125 311.097656 L 312.617188 311.113281 L 313.773438 311.144531 L 314.980469 311.167969 L 316.449219 311.1875 L 317.5625 311.195312 L 319.347656 311.203125 L 321.621094 311.203125 L 324.296875 311.195312 L 325.988281 311.183594 L 327.148438 311.167969 L 327.90625 311.15625 L 328.84375 311.140625 L 329.511719 311.121094 L 330.136719 311.105469 L 330.894531 311.078125 L 330.894531 310.683594 L 319.882812 310.683594 L 319.882812 310.5 L 337 310.496094 L 337.042969 311.140625 L 336.109375 311.183594 L 334.949219 311.226562 L 333.835938 311.257812 L 332.675781 311.285156 L 331.027344 311.316406 L 329.6875 311.335938 L 327.636719 311.359375 L 325.765625 311.375 L 323.804688 311.386719 L 322.066406 311.390625 L 318.1875 311.390625 L 316.226562 311.378906 L 314.667969 311.367188 L 313.238281 311.347656 L 311.8125 311.328125 L 310.03125 311.292969 L 308.871094 311.265625 L 307.667969 311.230469 L 306.464844 311.191406 L 305.394531 311.144531 L 304.679688 311.109375 L 303.96875 311.070312 L 303.210938 311.023438 L 302.496094 310.964844 L 301.960938 310.914062 L 301.472656 310.859375 L 301.117188 310.804688 L 300.757812 310.730469 L 300.582031 310.671875 L 300.492188 310.621094 Z M 300.492188 310.363281 "/>
<path style=" stroke:none;fill-rule:nonzero;fill:rgb(83.921569%,15.686275%,22.352941%);fill-opacity:1;" d="M 300.492188 312.570312 L 337.042969 312.570312 L 337.042969 312.765625 L 321.808594 312.765625 L 321.808594 314.371094 L 315.679688 314.371094 L 315.679688 312.765625 L 300.492188 312.765625 Z M 300.492188 312.570312 "/>
<path style=" stroke:none;fill-rule:nonzero;fill:rgb(14.509804%,36.078431%,60%);fill-opacity:1;" d="M 338.96875 150.878906 L 339.011719 150.632812 L 339.011719 144.726562 L 339.144531 135.371094 L 339.457031 123.558594 L 339.769531 115.4375 L 340.574219 100.914062 L 341.6875 86.886719 L 342.847656 76.054688 L 343.691406 69.65625 L 344.449219 64.734375 L 346.191406 55.628906 L 347.304688 50.953125 L 348.507812 46.765625 L 349.980469 42.582031 L 351.046875 40.121094 L 353.457031 36.183594 L 355.238281 34.460938 L 356.621094 33.722656 L 359.605469 33.722656 L 361.390625 34.707031 L 362.683594 35.9375 L 364.109375 37.90625 L 365.3125 40.121094 L 367.410156 45.535156 L 369.28125 52.429688 L 370.128906 56.367188 L 371.464844 63.996094 L 372.488281 71.378906 L 373.203125 77.777344 L 374.003906 86.886719 L 374.71875 97.960938 L 375.253906 110.515625 L 375.519531 121.097656 L 369.28125 121.097656 L 368.96875 111.253906 L 368.613281 103.621094 L 367.941406 93.53125 L 367.273438 86.394531 L 366.339844 79.257812 L 365.492188 74.578125 L 364.332031 69.902344 L 363.308594 66.949219 L 362.238281 64.734375 L 361.210938 63.257812 L 359.25 61.78125 L 356.976562 61.78125 L 356.128906 62.273438 L 354.390625 64.242188 L 353.457031 65.964844 L 352.117188 69.410156 L 351.183594 72.609375 L 350.066406 77.53125 L 349.308594 81.71875 L 348.375 88.117188 L 347.707031 93.777344 L 346.949219 101.898438 L 346.5 108.050781 L 346.101562 114.945312 L 345.742188 123.066406 L 345.476562 131.679688 L 345.296875 140.789062 L 345.207031 149.648438 L 345.207031 187.796875 L 345.296875 196.65625 L 345.519531 206.996094 L 346.101562 222.007812 L 346.949219 235.054688 L 347.929688 245.390625 L 348.863281 252.773438 L 349.398438 256.21875 L 350.113281 260.15625 L 351.226562 265.082031 L 352.832031 270.003906 L 353.769531 271.972656 L 355.195312 273.941406 L 356.664062 274.925781 L 358.625 274.925781 L 360.363281 273.941406 L 361.523438 272.710938 L 362.726562 270.742188 L 364.378906 266.558594 L 365.402344 262.621094 L 366.292969 257.941406 L 366.960938 253.265625 L 367.410156 249.328125 L 368.078125 241.699219 L 368.613281 233.332031 L 369.011719 224.714844 L 369.28125 216.347656 L 375.519531 216.347656 L 375.253906 226.191406 L 374.851562 235.792969 L 374.453125 242.929688 L 373.828125 251.542969 L 373.113281 259.171875 L 372.089844 267.789062 L 371.242188 273.449219 L 370.128906 279.601562 L 369.101562 284.277344 L 367.988281 288.460938 L 366.339844 293.386719 L 365.269531 295.847656 L 364.109375 298.0625 L 362.726562 300.03125 L 360.988281 301.753906 L 359.117188 302.738281 L 357.378906 302.984375 L 355.507812 302.492188 L 354.125 301.507812 L 352.296875 299.292969 L 350.023438 294.863281 L 348.375 290.183594 L 347.082031 285.507812 L 345.964844 280.585938 L 344.71875 273.941406 L 343.113281 263.113281 L 342.132812 254.742188 L 341.464844 247.851562 L 340.707031 238.253906 L 340.171875 229.636719 L 339.546875 215.855469 L 339.101562 198.378906 L 338.96875 184.84375 Z M 338.96875 150.878906 "/>
<path style=" stroke:none;fill-rule:nonzero;fill:rgb(83.921569%,15.686275%,22.352941%);fill-opacity:1;" d="M 338.96875 304.164062 L 375.519531 304.164062 L 375.519531 305.257812 L 360.285156 305.265625 L 360.285156 314.371094 L 354.15625 314.371094 L 354.15625 305.273438 L 354.070312 305.257812 L 338.96875 305.257812 Z M 338.96875 304.164062 "/>
<path style=" stroke:none;fill-rule:nonzero;fill:rgb(6.27451%,58.823529%,28.235294%);fill-opacity:1;" d="M 377.445312 314.359375 L 377.484375 314.351562 L 393.300781 304.164062 L 398.105469 304.164062 L 414 314.371094 L 408.414062 314.371094 L 404.429688 311.707031 L 386.972656 311.707031 L 383.070312 314.359375 L 377.445312 314.359375 L 388.652344 310.605469 L 402.828125 310.59375 L 395.761719 305.832031 L 395.683594 305.820312 L 395.605469 305.851562 L 388.613281 310.59375 L 388.652344 310.605469 Z M 377.445312 314.359375 "/>
<path style=" stroke:none;fill-rule:nonzero;fill:rgb(96.862745%,70.196078%,16.862745%);fill-opacity:1;" d="M 377.445312 149.050781 L 377.488281 148.804688 L 377.488281 143.886719 L 377.667969 132.820312 L 378.113281 117.574219 L 378.691406 105.035156 L 379.316406 95.199219 L 379.71875 90.035156 L 380.386719 82.65625 L 380.964844 77.246094 L 382.4375 66.183594 L 384.308594 55.855469 L 385.335938 51.425781 L 386.496094 47.246094 L 388.144531 42.574219 L 388.902344 40.855469 L 391.21875 36.917969 L 393.847656 34.460938 L 396.746094 33.722656 L 398.085938 33.96875 L 399.910156 34.953125 L 402.410156 37.65625 L 403.835938 40.117188 L 404.949219 42.574219 L 406.109375 45.773438 L 407.535156 50.691406 L 408.871094 56.589844 L 409.941406 62.492188 L 411.011719 69.871094 L 411.902344 77.738281 L 412.660156 86.34375 L 413.328125 96.671875 L 413.730469 105.28125 L 414 113.886719 L 407.800781 113.886719 L 407.445312 105.28125 L 407.042969 98.640625 L 406.375 90.527344 L 405.707031 84.625 L 405.039062 79.953125 L 403.789062 73.558594 L 402.71875 69.625 L 401.382812 66.183594 L 400.089844 63.96875 L 398.621094 62.492188 L 397.726562 62 L 395.363281 62 L 393.226562 63.722656 L 391.976562 65.691406 L 391.085938 67.65625 L 389.835938 71.34375 L 389.078125 74.296875 L 388.632812 76.261719 L 387.296875 83.886719 L 386.40625 90.773438 L 385.914062 95.445312 L 385.289062 102.820312 L 384.84375 109.460938 L 384.355469 119.296875 L 384.085938 126.671875 L 383.730469 143.394531 L 383.6875 187.65625 L 383.820312 197 L 384.085938 207.082031 L 384.445312 215.933594 L 384.980469 225.277344 L 385.511719 232.410156 L 386.449219 242 L 387.253906 248.394531 L 387.875 252.574219 L 389.078125 259.214844 L 389.570312 261.425781 L 390.730469 265.851562 L 391.933594 269.296875 L 393.402344 272.246094 L 394.519531 273.722656 L 396.300781 274.949219 L 398.574219 274.949219 L 401.25 273.476562 L 402.941406 271.507812 L 404.101562 269.542969 L 404.859375 267.820312 L 405.796875 265.113281 L 406.464844 262.65625 L 407.089844 259.949219 L 407.847656 255.769531 L 407.847656 197 L 396.835938 196.753906 L 396.835938 169.214844 L 413.953125 168.96875 L 414 265.113281 L 413.0625 271.753906 L 411.902344 278.148438 L 410.789062 283.066406 L 409.628906 287.246094 L 407.980469 291.917969 L 406.644531 294.867188 L 404.59375 298.3125 L 402.71875 300.523438 L 400.757812 302 L 399.019531 302.738281 L 396.96875 302.984375 L 395.140625 302.492188 L 393.179688 301.015625 L 391.621094 299.050781 L 390.195312 296.589844 L 388.769531 293.394531 L 386.984375 288.230469 L 385.824219 284.050781 L 384.621094 278.886719 L 383.417969 272.738281 L 382.347656 266.097656 L 381.636719 260.933594 L 380.921875 255.03125 L 380.164062 247.65625 L 379.449219 239.296875 L 378.917969 231.671875 L 378.425781 223.066406 L 378.070312 214.953125 L 377.710938 203.886719 L 377.535156 195.035156 L 377.445312 187.410156 Z M 377.445312 149.050781 "/>
<path style=" stroke:none;fill-rule:nonzero;fill:rgb(6.27451%,58.823529%,28.235294%);fill-opacity:1;" d="M 415.921875 314.367188 L 415.960938 314.367188 L 431.777344 312.570312 L 436.582031 312.570312 L 452.476562 314.371094 L 446.890625 314.371094 L 442.90625 313.902344 L 425.449219 313.902344 L 421.546875 314.367188 L 415.921875 314.367188 L 427.128906 313.707031 L 441.304688 313.703125 L 434.238281 312.867188 L 434.160156 312.863281 L 434.082031 312.867188 L 427.089844 313.703125 L 427.128906 313.707031 Z M 415.921875 314.367188 "/>
<path style=" stroke:none;fill-rule:nonzero;fill:rgb(14.509804%,36.078431%,60%);fill-opacity:1;" d="M 415.921875 310.375 L 415.964844 310.375 L 415.964844 310.335938 L 416.101562 310.273438 L 416.414062 310.191406 L 416.722656 310.140625 L 417.527344 310.042969 L 418.640625 309.949219 L 419.800781 309.875 L 420.648438 309.832031 L 421.40625 309.800781 L 423.144531 309.738281 L 424.257812 309.707031 L 425.460938 309.679688 L 426.933594 309.652344 L 428.003906 309.636719 L 430.410156 309.609375 L 432.191406 309.597656 L 433.574219 309.59375 L 436.5625 309.59375 L 438.34375 309.597656 L 439.636719 309.609375 L 441.0625 309.621094 L 442.265625 309.636719 L 444.363281 309.671875 L 446.234375 309.71875 L 447.082031 309.746094 L 448.417969 309.796875 L 449.445312 309.84375 L 450.15625 309.886719 L 450.960938 309.949219 L 451.671875 310.023438 L 452.207031 310.105469 L 452.476562 310.175781 L 446.234375 310.175781 L 445.921875 310.109375 L 445.566406 310.058594 L 444.898438 309.992188 L 444.226562 309.945312 L 443.292969 309.898438 L 442.445312 309.867188 L 441.285156 309.835938 L 440.261719 309.816406 L 439.191406 309.800781 L 438.164062 309.789062 L 436.203125 309.78125 L 433.929688 309.78125 L 433.085938 309.785156 L 431.347656 309.796875 L 430.410156 309.808594 L 429.074219 309.832031 L 428.136719 309.851562 L 427.023438 309.886719 L 426.265625 309.914062 L 425.328125 309.957031 L 424.660156 309.996094 L 423.902344 310.046875 L 423.457031 310.089844 L 423.054688 310.136719 L 422.699219 310.191406 L 422.429688 310.246094 L 422.253906 310.308594 L 422.164062 310.367188 L 422.164062 310.621094 L 422.253906 310.679688 L 422.476562 310.75 L 423.054688 310.851562 L 423.902344 310.9375 L 424.882812 311.007812 L 425.816406 311.054688 L 426.351562 311.078125 L 427.066406 311.105469 L 428.179688 311.140625 L 429.785156 311.171875 L 430.722656 311.183594 L 432.148438 311.199219 L 433.621094 311.203125 L 435.582031 311.203125 L 437.320312 311.199219 L 438.476562 311.191406 L 439.679688 311.175781 L 441.332031 311.148438 L 442.355469 311.121094 L 443.246094 311.089844 L 443.917969 311.058594 L 444.363281 311.035156 L 445.03125 310.984375 L 445.566406 310.925781 L 445.96875 310.867188 L 446.234375 310.8125 L 452.476562 310.8125 L 452.207031 310.878906 L 451.804688 310.941406 L 451.40625 310.992188 L 450.78125 311.046875 L 450.066406 311.097656 L 449.042969 311.15625 L 448.195312 311.195312 L 447.082031 311.234375 L 446.054688 311.265625 L 444.941406 311.296875 L 443.292969 311.328125 L 442.222656 311.34375 L 441.0625 311.359375 L 439.679688 311.371094 L 437.941406 311.382812 L 436.070312 311.390625 L 432.460938 311.390625 L 431.078125 311.382812 L 429.25 311.367188 L 426.976562 311.335938 L 425.328125 311.304688 L 424.035156 311.273438 L 422.921875 311.242188 L 421.671875 311.199219 L 420.066406 311.125 L 419.085938 311.070312 L 418.417969 311.023438 L 417.660156 310.960938 L 417.125 310.902344 L 416.5 310.808594 L 416.054688 310.691406 L 415.921875 310.601562 Z M 415.921875 310.375 "/>
<path style=" stroke:none;fill-rule:nonzero;fill:rgb(83.921569%,15.686275%,22.352941%);fill-opacity:1;" d="M 415.921875 20.664062 L 452.476562 20.664062 L 452.476562 51.464844 L 437.242188 51.734375 L 437.242188 308.414062 L 431.113281 308.414062 L 431.113281 52.003906 L 431.023438 51.464844 L 415.921875 51.464844 Z M 415.921875 20.664062 "/>
<path style=" stroke:none;fill-rule:nonzero;fill:rgb(96.862745%,70.196078%,16.862745%);fill-opacity:1;" d="M 454.398438 145.851562 L 454.445312 145.59375 L 454.445312 140.492188 L 454.621094 129.015625 L 455.066406 113.203125 L 455.648438 100.195312 L 456.269531 89.992188 L 456.671875 84.636719 L 457.339844 76.984375 L 457.921875 71.375 L 459.390625 59.894531 L 461.265625 49.183594 L 462.289062 44.59375 L 463.449219 40.257812 L 465.097656 35.410156 L 465.855469 33.625 L 468.171875 29.542969 L 470.804688 26.992188 L 473.699219 26.230469 L 475.039062 26.484375 L 476.867188 27.503906 L 479.363281 30.308594 L 480.789062 32.859375 L 481.902344 35.410156 L 483.0625 38.726562 L 484.488281 43.828125 L 485.824219 49.949219 L 486.894531 56.070312 L 487.964844 63.722656 L 488.855469 71.882812 L 489.613281 80.8125 L 490.285156 91.523438 L 490.683594 100.449219 L 490.953125 109.375 L 484.757812 109.375 L 484.398438 100.449219 L 484 93.5625 L 483.328125 85.148438 L 482.660156 79.023438 L 481.992188 74.179688 L 480.742188 67.546875 L 479.675781 63.46875 L 478.335938 59.894531 L 477.042969 57.601562 L 475.574219 56.070312 L 474.679688 55.558594 L 472.320312 55.558594 L 470.179688 57.34375 L 468.929688 59.386719 L 468.039062 61.425781 L 466.792969 65.253906 L 466.035156 68.3125 L 465.585938 70.351562 L 464.25 78.261719 L 463.359375 85.402344 L 462.867188 90.246094 L 462.246094 97.898438 L 461.800781 104.785156 L 461.308594 114.988281 L 461.042969 122.640625 L 460.683594 139.984375 L 460.640625 185.894531 L 460.773438 195.585938 L 461.042969 206.042969 L 461.398438 215.222656 L 461.933594 224.917969 L 462.46875 232.3125 L 463.402344 242.261719 L 464.207031 248.890625 L 464.828125 253.226562 L 466.035156 260.113281 L 466.523438 262.410156 L 467.683594 267 L 468.886719 270.570312 L 470.359375 273.632812 L 471.472656 275.164062 L 473.253906 276.4375 L 475.527344 276.4375 L 478.203125 274.90625 L 479.898438 272.867188 L 481.054688 270.828125 L 481.8125 269.042969 L 482.75 266.234375 L 483.417969 263.683594 L 484.042969 260.878906 L 484.800781 256.542969 L 484.800781 195.585938 L 473.789062 195.332031 L 473.789062 166.765625 L 490.90625 166.507812 L 490.953125 266.234375 L 490.015625 273.121094 L 488.855469 279.753906 L 487.742188 284.855469 L 486.582031 289.191406 L 484.933594 294.035156 L 483.597656 297.097656 L 481.546875 300.667969 L 479.675781 302.964844 L 477.710938 304.492188 L 475.972656 305.257812 L 473.921875 305.515625 L 472.097656 305.003906 L 470.132812 303.472656 L 468.574219 301.433594 L 467.148438 298.882812 L 465.722656 295.566406 L 463.9375 290.210938 L 462.78125 285.875 L 461.574219 280.519531 L 460.371094 274.140625 L 459.300781 267.253906 L 458.589844 261.898438 L 457.875 255.777344 L 457.117188 248.125 L 456.40625 239.453125 L 455.871094 231.546875 L 455.378906 222.621094 L 455.023438 214.203125 L 454.667969 202.726562 L 454.488281 193.542969 L 454.398438 185.636719 Z M 454.398438 145.851562 "/>
<path style=" stroke:none;fill-rule:nonzero;fill:rgb(83.921569%,15.686275%,22.352941%);fill-opacity:1;" d="M 454.398438 306.695312 L 490.953125 306.695312 L 490.953125 307.515625 L 475.71875 307.523438 L 475.71875 314.371094 L 469.589844 314.371094 L 469.589844 307.53125 L 469.5 307.515625 L 454.398438 307.515625 Z M 454.398438 306.695312 "/>
<path style=" stroke:none;fill-rule:nonzero;fill:rgb(6.27451%,58.823529%,28.235294%);fill-opacity:1;" d="M 492.875 314.371094 L 492.914062 314.367188 L 508.730469 313.507812 L 513.535156 313.507812 L 529.429688 314.371094 L 523.84375 314.371094 L 519.859375 314.144531 L 502.40625 314.144531 L 498.5 314.371094 L 492.875 314.371094 L 504.085938 314.050781 L 518.261719 314.050781 L 511.191406 313.648438 L 511.113281 313.648438 L 511.035156 313.652344 L 504.046875 314.050781 L 504.085938 314.050781 Z M 492.875 314.371094 "/>
<path style=" stroke:none;fill-rule:nonzero;fill:rgb(14.509804%,36.078431%,60%);fill-opacity:1;" d="M 492.875 307.804688 L 492.921875 307.796875 L 492.921875 307.621094 L 493.054688 307.34375 L 493.367188 306.992188 L 493.679688 306.75 L 494.480469 306.320312 L 495.59375 305.902344 L 496.753906 305.578125 L 497.601562 305.390625 L 498.359375 305.242188 L 500.097656 304.972656 L 501.210938 304.832031 L 502.414062 304.707031 L 503.886719 304.585938 L 504.957031 304.511719 L 507.363281 304.394531 L 509.148438 304.34375 L 510.527344 304.320312 L 513.515625 304.320312 L 515.296875 304.351562 L 516.589844 304.386719 L 518.015625 304.445312 L 519.222656 304.511719 L 521.316406 304.671875 L 523.1875 304.878906 L 524.035156 304.996094 L 525.371094 305.222656 L 526.398438 305.441406 L 527.109375 305.632812 L 527.914062 305.902344 L 528.625 306.230469 L 529.160156 306.605469 L 529.429688 306.917969 L 523.1875 306.917969 L 522.875 306.625 L 522.519531 306.398438 L 521.851562 306.097656 L 521.183594 305.886719 L 520.246094 305.675781 L 519.398438 305.535156 L 518.242188 305.398438 L 517.214844 305.308594 L 516.144531 305.242188 L 515.121094 305.199219 L 513.160156 305.15625 L 510.886719 305.15625 L 510.039062 305.171875 L 508.300781 305.226562 L 507.363281 305.28125 L 506.027344 305.382812 L 505.089844 305.476562 L 503.976562 305.625 L 503.21875 305.75 L 502.28125 305.9375 L 501.613281 306.105469 L 500.855469 306.347656 L 500.410156 306.53125 L 500.007812 306.738281 L 499.652344 306.976562 L 499.382812 307.234375 L 499.207031 307.503906 L 499.117188 307.769531 L 499.117188 308.902344 L 499.207031 309.167969 L 499.429688 309.472656 L 500.007812 309.921875 L 500.855469 310.308594 L 501.835938 310.617188 L 502.773438 310.835938 L 503.308594 310.9375 L 504.019531 311.054688 L 505.132812 311.203125 L 506.738281 311.347656 L 507.675781 311.40625 L 509.101562 311.464844 L 510.574219 311.496094 L 512.535156 311.496094 L 514.273438 311.464844 L 515.433594 311.429688 L 516.636719 311.371094 L 518.285156 311.246094 L 519.308594 311.128906 L 520.203125 310.988281 L 520.871094 310.851562 L 521.316406 310.734375 L 521.984375 310.507812 L 522.519531 310.257812 L 522.921875 310 L 523.1875 309.753906 L 529.429688 309.753906 L 529.160156 310.046875 L 528.761719 310.332031 L 528.359375 310.542969 L 527.734375 310.800781 L 527.023438 311.027344 L 525.996094 311.28125 L 525.148438 311.449219 L 524.035156 311.632812 L 523.011719 311.773438 L 521.894531 311.898438 L 520.246094 312.042969 L 519.175781 312.117188 L 518.015625 312.183594 L 516.636719 312.242188 L 514.898438 312.292969 L 513.023438 312.320312 L 511.285156 312.328125 L 509.414062 312.3125 L 508.03125 312.285156 L 506.203125 312.21875 L 503.929688 312.085938 L 502.28125 311.949219 L 500.988281 311.808594 L 499.875 311.664062 L 498.625 311.464844 L 497.023438 311.144531 L 496.039062 310.894531 L 495.371094 310.6875 L 494.613281 310.402344 L 494.078125 310.148438 L 493.457031 309.738281 L 493.007812 309.21875 L 492.875 308.816406 Z M 492.875 307.804688 "/>
<path style=" stroke:none;fill-rule:nonzero;fill:rgb(96.862745%,70.196078%,16.862745%);fill-opacity:1;" d="M 492.875 241.234375 L 492.921875 241.179688 L 492.921875 240.082031 L 493.097656 237.613281 L 493.542969 234.214844 L 494.125 231.417969 L 494.75 229.222656 L 495.148438 228.070312 L 495.816406 226.421875 L 496.398438 225.21875 L 497.867188 222.75 L 499.742188 220.445312 L 500.765625 219.457031 L 501.925781 218.523438 L 503.574219 217.480469 L 504.332031 217.097656 L 506.648438 216.21875 L 509.28125 215.671875 L 512.179688 215.507812 L 513.515625 215.5625 L 515.34375 215.78125 L 517.839844 216.382812 L 519.265625 216.933594 L 520.378906 217.480469 L 521.539062 218.195312 L 522.964844 219.292969 L 524.304688 220.609375 L 525.371094 221.925781 L 526.441406 223.570312 L 527.335938 225.328125 L 528.09375 227.246094 L 528.761719 229.550781 L 529.160156 231.472656 L 529.429688 233.390625 L 523.234375 233.390625 L 522.875 231.472656 L 522.476562 229.988281 L 521.804688 228.179688 L 521.136719 226.863281 L 520.46875 225.820312 L 519.222656 224.394531 L 518.152344 223.515625 L 516.8125 222.75 L 515.519531 222.253906 L 514.050781 221.925781 L 513.160156 221.816406 L 510.796875 221.816406 L 508.65625 222.199219 L 507.40625 222.636719 L 506.515625 223.078125 L 505.269531 223.898438 L 504.511719 224.558594 L 504.066406 224.996094 L 502.726562 226.699219 L 501.835938 228.234375 L 501.34375 229.277344 L 500.722656 230.921875 L 500.277344 232.402344 L 499.785156 234.597656 L 499.519531 236.242188 L 499.160156 239.972656 L 499.117188 249.847656 L 499.25 251.933594 L 499.519531 254.183594 L 499.875 256.15625 L 500.410156 258.242188 L 500.945312 259.832031 L 501.878906 261.972656 L 502.683594 263.398438 L 503.308594 264.332031 L 504.511719 265.8125 L 505 266.308594 L 506.160156 267.292969 L 507.363281 268.0625 L 508.835938 268.722656 L 509.949219 269.050781 L 511.730469 269.324219 L 514.003906 269.324219 L 516.679688 268.996094 L 518.375 268.554688 L 519.53125 268.117188 L 520.289062 267.734375 L 521.226562 267.128906 L 521.894531 266.582031 L 522.519531 265.976562 L 523.277344 265.046875 L 523.277344 251.933594 L 512.265625 251.878906 L 512.265625 245.734375 L 529.382812 245.679688 L 529.429688 267.128906 L 528.492188 268.609375 L 527.335938 270.039062 L 526.21875 271.132812 L 525.0625 272.066406 L 523.410156 273.109375 L 522.074219 273.769531 L 520.023438 274.535156 L 518.152344 275.03125 L 516.191406 275.359375 L 514.453125 275.523438 L 512.402344 275.578125 L 510.574219 275.46875 L 508.613281 275.140625 L 507.050781 274.699219 L 505.625 274.152344 L 504.199219 273.4375 L 502.414062 272.285156 L 501.257812 271.355469 L 500.054688 270.203125 L 498.847656 268.832031 L 497.78125 267.347656 L 497.066406 266.195312 L 496.351562 264.878906 L 495.59375 263.234375 L 494.882812 261.371094 L 494.347656 259.667969 L 493.855469 257.75 L 493.5 255.9375 L 493.144531 253.46875 L 492.964844 251.496094 L 492.875 249.792969 Z M 492.875 241.234375 "/>
<path style=" stroke:none;fill-rule:nonzero;fill:rgb(83.921569%,15.686275%,22.352941%);fill-opacity:1;" d="M 492.875 276.757812 L 529.429688 276.757812 L 529.429688 279.582031 L 514.195312 279.605469 L 514.195312 303.140625 L 508.066406 303.140625 L 508.066406 279.632812 L 507.976562 279.582031 L 492.875 279.582031 Z M 492.875 276.757812 "/>
<path style=" stroke:none;fill-rule:nonzero;fill:rgb(6.27451%,58.823529%,28.235294%);fill-opacity:1;" d="M 531.351562 314.363281 L 531.390625 314.359375 L 547.207031 308.316406 L 552.011719 308.316406 L 567.90625 314.371094 L 562.320312 314.371094 L 558.339844 312.789062 L 540.882812 312.789062 L 536.976562 314.363281 L 531.351562 314.363281 L 542.5625 312.136719 L 556.738281 312.128906 L 549.667969 309.304688 L 549.589844 309.300781 L 549.511719 309.316406 L 542.523438 312.128906 L 542.5625 312.136719 Z M 531.351562 314.363281 "/>
<path style=" stroke:none;fill-rule:nonzero;fill:rgb(14.509804%,36.078431%,60%);fill-opacity:1;" d="M 531.351562 290.195312 L 531.398438 290.179688 L 531.398438 289.84375 L 531.53125 289.308594 L 531.84375 288.636719 L 532.15625 288.171875 L 532.957031 287.34375 L 534.070312 286.542969 L 535.230469 285.925781 L 536.078125 285.5625 L 536.835938 285.28125 L 538.574219 284.761719 L 539.6875 284.496094 L 540.890625 284.257812 L 542.363281 284.019531 L 543.433594 283.878906 L 545.839844 283.652344 L 547.625 283.554688 L 549.003906 283.511719 L 551.992188 283.511719 L 553.773438 283.570312 L 555.066406 283.640625 L 556.496094 283.75 L 557.699219 283.878906 L 559.792969 284.1875 L 561.664062 284.578125 L 562.511719 284.804688 L 563.851562 285.238281 L 564.875 285.660156 L 565.589844 286.023438 L 566.390625 286.542969 L 567.105469 287.175781 L 567.636719 287.890625 L 567.90625 288.496094 L 561.664062 288.496094 L 561.351562 287.933594 L 560.996094 287.5 L 560.328125 286.921875 L 559.660156 286.515625 L 558.722656 286.109375 L 557.875 285.84375 L 556.71875 285.574219 L 555.691406 285.40625 L 554.621094 285.28125 L 553.597656 285.195312 L 551.636719 285.113281 L 549.363281 285.113281 L 548.515625 285.140625 L 546.777344 285.253906 L 545.839844 285.351562 L 544.503906 285.546875 L 543.566406 285.730469 L 542.453125 286.011719 L 541.695312 286.25 L 540.757812 286.613281 L 540.089844 286.9375 L 539.332031 287.402344 L 538.886719 287.75 L 538.484375 288.144531 L 538.128906 288.609375 L 537.859375 289.097656 L 537.683594 289.617188 L 537.59375 290.125 L 537.59375 292.300781 L 537.683594 292.804688 L 537.90625 293.394531 L 538.484375 294.25 L 539.332031 294.996094 L 540.3125 295.585938 L 541.25 296.003906 L 541.785156 296.203125 L 542.496094 296.425781 L 543.613281 296.707031 L 545.214844 296.988281 L 546.152344 297.101562 L 547.578125 297.210938 L 549.050781 297.269531 L 551.011719 297.269531 L 552.75 297.210938 L 553.910156 297.140625 L 555.113281 297.03125 L 556.761719 296.792969 L 557.789062 296.566406 L 558.679688 296.300781 L 559.347656 296.035156 L 559.792969 295.808594 L 560.460938 295.375 L 560.996094 294.894531 L 561.398438 294.40625 L 561.664062 293.929688 L 567.90625 293.929688 L 567.636719 294.488281 L 567.238281 295.035156 L 566.835938 295.445312 L 566.210938 295.933594 L 565.5 296.371094 L 564.472656 296.863281 L 563.625 297.183594 L 562.511719 297.535156 L 561.488281 297.800781 L 560.371094 298.039062 L 558.722656 298.320312 L 557.652344 298.460938 L 556.496094 298.589844 L 555.113281 298.699219 L 553.375 298.796875 L 551.5 298.855469 L 549.761719 298.867188 L 547.890625 298.839844 L 546.507812 298.785156 L 544.679688 298.65625 L 542.40625 298.40625 L 540.757812 298.140625 L 539.464844 297.871094 L 538.351562 297.589844 L 537.101562 297.210938 L 535.5 296.59375 L 534.519531 296.117188 L 533.847656 295.722656 L 533.089844 295.175781 L 532.554688 294.6875 L 531.933594 293.898438 L 531.488281 292.902344 L 531.351562 292.132812 Z M 531.351562 290.195312 "/>
<path style=" stroke:none;fill-rule:nonzero;fill:rgb(96.862745%,70.196078%,16.862745%);fill-opacity:1;" d="M 531.351562 303.085938 L 531.398438 303.078125 L 531.398438 302.949219 L 531.574219 302.65625 L 532.023438 302.253906 L 532.601562 301.925781 L 533.226562 301.667969 L 533.625 301.53125 L 534.296875 301.335938 L 534.875 301.195312 L 536.34375 300.902344 L 538.21875 300.628906 L 539.242188 300.515625 L 540.402344 300.402344 L 542.050781 300.28125 L 542.808594 300.234375 L 545.128906 300.132812 L 547.757812 300.066406 L 550.65625 300.046875 L 551.992188 300.054688 L 553.820312 300.082031 L 556.316406 300.152344 L 557.742188 300.214844 L 558.855469 300.28125 L 560.015625 300.367188 L 561.441406 300.496094 L 562.78125 300.648438 L 563.851562 300.804688 L 564.917969 301 L 565.8125 301.207031 L 566.570312 301.433594 L 567.238281 301.707031 L 567.636719 301.933594 L 567.90625 302.160156 L 561.710938 302.160156 L 561.351562 301.933594 L 560.953125 301.757812 L 560.285156 301.542969 L 559.613281 301.386719 L 558.945312 301.265625 L 557.699219 301.097656 L 556.628906 300.992188 L 555.289062 300.902344 L 554 300.84375 L 552.527344 300.804688 L 551.636719 300.792969 L 549.273438 300.792969 L 547.132812 300.839844 L 545.886719 300.890625 L 544.992188 300.941406 L 543.746094 301.039062 L 542.988281 301.117188 L 542.542969 301.167969 L 541.203125 301.367188 L 540.3125 301.550781 L 539.824219 301.671875 L 539.199219 301.867188 L 538.753906 302.042969 L 538.261719 302.300781 L 537.996094 302.496094 L 537.636719 302.933594 L 537.59375 304.101562 L 537.726562 304.347656 L 537.996094 304.613281 L 538.351562 304.84375 L 538.886719 305.089844 L 539.421875 305.277344 L 540.359375 305.53125 L 541.160156 305.699219 L 541.785156 305.808594 L 542.988281 305.984375 L 543.476562 306.042969 L 544.636719 306.160156 L 545.839844 306.25 L 547.3125 306.328125 L 548.425781 306.367188 L 550.210938 306.398438 L 552.484375 306.398438 L 555.15625 306.359375 L 556.851562 306.308594 L 558.011719 306.257812 L 558.769531 306.210938 L 559.703125 306.140625 L 560.371094 306.074219 L 560.996094 306.003906 L 561.753906 305.894531 L 561.753906 304.347656 L 550.742188 304.339844 L 550.742188 303.613281 L 567.863281 303.609375 L 567.90625 306.140625 L 566.96875 306.3125 L 565.8125 306.484375 L 564.695312 306.613281 L 563.539062 306.722656 L 561.886719 306.84375 L 560.550781 306.921875 L 558.5 307.011719 L 556.628906 307.070312 L 554.667969 307.109375 L 552.929688 307.128906 L 550.878906 307.136719 L 549.050781 307.125 L 547.089844 307.085938 L 545.527344 307.03125 L 544.101562 306.96875 L 542.675781 306.882812 L 540.890625 306.746094 L 539.734375 306.636719 L 538.53125 306.503906 L 537.328125 306.339844 L 536.257812 306.164062 L 535.542969 306.03125 L 534.828125 305.875 L 534.070312 305.679688 L 533.359375 305.460938 L 532.824219 305.257812 L 532.332031 305.03125 L 531.976562 304.820312 L 531.621094 304.527344 L 531.441406 304.292969 L 531.351562 304.09375 Z M 531.351562 303.085938 "/>
<path style=" stroke:none;fill-rule:nonzero;fill:rgb(83.921569%,15.686275%,22.352941%);fill-opacity:1;" d="M 531.351562 214.269531 L 567.90625 214.269531 L 567.90625 221.554688 L 552.671875 221.621094 L 552.671875 282.332031 L 546.542969 282.332031 L 546.542969 221.683594 L 546.453125 221.554688 L 531.351562 221.554688 Z M 531.351562 214.269531 "/>
<path style=" stroke:none;fill-rule:nonzero;fill:rgb(6.27451%,58.823529%,28.235294%);fill-opacity:1;" d="M 569.828125 310.949219 L 569.867188 310.949219 L 585.683594 309.589844 L 590.488281 309.589844 L 606.382812 310.953125 L 600.796875 310.953125 L 596.816406 310.59375 L 579.359375 310.59375 L 575.453125 310.949219 L 569.828125 310.949219 L 581.039062 310.449219 L 595.214844 310.445312 L 588.144531 309.8125 L 588.066406 309.808594 L 587.988281 309.8125 L 581 310.445312 L 581.039062 310.449219 Z M 569.828125 310.949219 "/>
<path style=" stroke:none;fill-rule:nonzero;fill:rgb(14.509804%,36.078431%,60%);fill-opacity:1;" d="M 569.828125 307.589844 L 569.875 307.589844 L 569.875 307.554688 L 570.007812 307.503906 L 570.320312 307.441406 L 570.632812 307.398438 L 571.433594 307.320312 L 572.550781 307.246094 L 573.707031 307.1875 L 574.554688 307.152344 L 575.3125 307.125 L 577.050781 307.078125 L 578.164062 307.050781 L 579.371094 307.027344 L 580.839844 307.007812 L 581.910156 306.992188 L 584.316406 306.972656 L 586.101562 306.960938 L 587.484375 306.957031 L 590.46875 306.957031 L 592.253906 306.964844 L 593.542969 306.96875 L 594.972656 306.980469 L 596.175781 306.992188 L 598.269531 307.023438 L 600.140625 307.058594 L 600.988281 307.082031 L 602.328125 307.121094 L 603.351562 307.160156 L 604.066406 307.195312 L 604.867188 307.246094 L 605.582031 307.304688 L 606.117188 307.371094 L 606.382812 307.429688 L 600.140625 307.429688 L 599.832031 307.375 L 599.472656 307.335938 L 598.804688 307.28125 L 598.136719 307.242188 L 597.199219 307.203125 L 596.351562 307.179688 L 595.195312 307.152344 L 594.167969 307.136719 L 593.097656 307.125 L 592.074219 307.117188 L 590.113281 307.109375 L 587.839844 307.109375 L 586.992188 307.113281 L 585.253906 307.121094 L 584.316406 307.132812 L 582.980469 307.152344 L 582.042969 307.167969 L 580.929688 307.195312 L 580.171875 307.214844 L 579.234375 307.25 L 578.566406 307.28125 L 577.808594 307.324219 L 577.363281 307.359375 L 576.960938 307.394531 L 576.605469 307.441406 L 576.339844 307.484375 L 576.160156 307.535156 L 576.070312 307.582031 L 576.070312 307.789062 L 576.160156 307.835938 L 576.382812 307.890625 L 576.960938 307.972656 L 577.808594 308.042969 L 578.789062 308.097656 L 579.726562 308.136719 L 580.261719 308.15625 L 580.972656 308.179688 L 582.089844 308.203125 L 583.695312 308.230469 L 584.628906 308.242188 L 586.054688 308.253906 L 587.527344 308.257812 L 589.488281 308.257812 L 591.226562 308.253906 L 592.386719 308.246094 L 593.589844 308.234375 L 595.238281 308.210938 L 596.265625 308.191406 L 597.15625 308.167969 L 597.824219 308.140625 L 598.269531 308.121094 L 598.9375 308.078125 L 599.472656 308.035156 L 599.875 307.988281 L 600.140625 307.941406 L 606.382812 307.941406 L 606.117188 307.996094 L 605.714844 308.046875 L 605.3125 308.085938 L 604.6875 308.132812 L 603.976562 308.171875 L 602.949219 308.21875 L 602.105469 308.25 L 600.988281 308.28125 L 599.964844 308.308594 L 598.847656 308.332031 L 597.199219 308.355469 L 596.128906 308.371094 L 594.972656 308.382812 L 593.589844 308.394531 L 591.851562 308.402344 L 589.980469 308.40625 L 588.242188 308.410156 L 586.367188 308.40625 L 584.984375 308.402344 L 583.160156 308.390625 L 580.886719 308.363281 L 579.234375 308.339844 L 577.941406 308.316406 L 576.828125 308.289062 L 575.582031 308.253906 L 573.976562 308.195312 L 572.996094 308.148438 L 572.328125 308.113281 L 571.570312 308.058594 L 571.035156 308.015625 L 570.410156 307.941406 L 569.964844 307.84375 L 569.828125 307.773438 Z M 569.828125 307.589844 "/>
<path style=" stroke:none;fill-rule:nonzero;fill:rgb(96.862745%,70.196078%,16.862745%);fill-opacity:1;" d="M 569.828125 314.34375 L 569.875 314.34375 L 570.054688 314.339844 L 570.5 314.335938 L 571.078125 314.335938 L 571.703125 314.332031 L 573.351562 314.332031 L 574.824219 314.328125 L 576.695312 314.328125 L 577.71875 314.324219 L 599.917969 314.324219 L 601.257812 314.328125 L 603.394531 314.328125 L 604.289062 314.332031 L 605.714844 314.332031 L 606.117188 314.335938 L 606.382812 314.335938 L 599.429688 314.335938 L 598.761719 314.332031 L 597.421875 314.332031 L 596.175781 314.328125 L 581.464844 314.328125 L 581.019531 314.332031 L 578.300781 314.332031 L 577.675781 314.335938 L 577.230469 314.335938 L 576.738281 314.339844 L 576.472656 314.339844 L 576.117188 314.34375 L 576.070312 314.351562 L 576.203125 314.351562 L 576.472656 314.355469 L 577.363281 314.355469 L 577.898438 314.359375 L 579.636719 314.359375 L 580.261719 314.363281 L 585.789062 314.363281 L 586.902344 314.367188 L 593.632812 314.367188 L 595.328125 314.363281 L 600.230469 314.363281 L 600.230469 314.351562 L 589.222656 314.351562 L 589.222656 314.347656 L 606.339844 314.347656 L 606.382812 314.363281 L 605.445312 314.363281 L 604.289062 314.367188 L 600.363281 314.367188 L 599.027344 314.371094 L 582.578125 314.371094 L 581.152344 314.367188 L 575.804688 314.367188 L 574.734375 314.363281 L 573.308594 314.363281 L 572.550781 314.359375 L 571.300781 314.359375 L 570.8125 314.355469 L 570.453125 314.355469 L 570.097656 314.351562 L 569.828125 314.351562 Z M 569.828125 314.34375 "/>
<path style=" stroke:none;fill-rule:nonzero;fill:rgb(83.921569%,15.686275%,22.352941%);fill-opacity:1;" d="M 569.828125 312.132812 L 606.382812 312.132812 L 606.382812 312.238281 L 591.148438 312.242188 L 591.148438 313.144531 L 585.019531 313.144531 L 585.019531 312.242188 L 584.929688 312.238281 L 569.828125 312.238281 Z M 569.828125 312.132812 "/>
<path style=" stroke:none;fill-rule:nonzero;fill:rgb(6.27451%,58.823529%,28.235294%);fill-opacity:1;" d="M 646.785156 311.261719 L 646.824219 311.261719 L 662.640625 309.855469 L 667.441406 309.855469 L 683.335938 311.265625 L 677.753906 311.265625 L 673.769531 310.898438 L 656.3125 310.898438 L 652.40625 311.261719 L 646.785156 311.261719 L 657.992188 310.746094 L 672.167969 310.742188 L 665.097656 310.085938 L 665.019531 310.085938 L 664.941406 310.089844 L 657.953125 310.742188 L 657.992188 310.746094 Z M 646.785156 311.261719 "/>
<path style=" stroke:none;fill-rule:nonzero;fill:rgb(14.509804%,36.078431%,60%);fill-opacity:1;" d="M 646.785156 312.644531 L 646.828125 312.644531 L 646.828125 312.632812 L 646.960938 312.617188 L 647.273438 312.597656 L 647.585938 312.582031 L 648.390625 312.558594 L 649.503906 312.535156 L 650.660156 312.515625 L 651.507812 312.503906 L 652.265625 312.496094 L 654.003906 312.480469 L 655.121094 312.472656 L 656.324219 312.464844 L 657.792969 312.460938 L 658.863281 312.453125 L 661.269531 312.449219 L 663.054688 312.445312 L 669.207031 312.445312 L 670.5 312.449219 L 671.925781 312.453125 L 673.128906 312.453125 L 675.222656 312.464844 L 677.097656 312.476562 L 677.941406 312.484375 L 679.28125 312.496094 L 680.304688 312.507812 L 681.019531 312.519531 L 681.820312 312.535156 L 682.535156 312.554688 L 683.070312 312.574219 L 683.335938 312.59375 L 677.097656 312.59375 L 676.785156 312.578125 L 676.425781 312.5625 L 675.757812 312.546875 L 675.089844 312.535156 L 674.152344 312.523438 L 673.308594 312.515625 L 672.148438 312.507812 L 671.121094 312.5 L 670.054688 312.496094 L 669.027344 312.496094 L 667.066406 312.492188 L 663.945312 312.492188 L 662.207031 312.496094 L 661.269531 312.5 L 659.933594 312.503906 L 658.996094 312.511719 L 657.882812 312.519531 L 657.125 312.527344 L 656.191406 312.535156 L 655.519531 312.546875 L 654.761719 312.558594 L 654.316406 312.570312 L 653.917969 312.582031 L 653.558594 312.597656 L 653.292969 312.613281 L 653.113281 312.625 L 653.023438 312.640625 L 653.023438 312.707031 L 653.113281 312.722656 L 653.335938 312.738281 L 653.917969 312.765625 L 654.761719 312.789062 L 655.742188 312.804688 L 656.679688 312.816406 L 657.214844 312.824219 L 657.929688 312.832031 L 659.042969 312.839844 L 660.648438 312.847656 L 661.582031 312.851562 L 663.011719 312.855469 L 668.179688 312.855469 L 669.339844 312.851562 L 670.542969 312.847656 L 672.191406 312.839844 L 673.21875 312.835938 L 674.109375 312.828125 L 674.777344 312.820312 L 675.222656 312.8125 L 675.894531 312.800781 L 676.425781 312.785156 L 676.828125 312.769531 L 677.097656 312.757812 L 683.335938 312.757812 L 683.070312 312.773438 L 682.667969 312.789062 L 682.265625 312.800781 L 681.644531 312.816406 L 680.929688 312.828125 L 679.90625 312.84375 L 679.058594 312.851562 L 677.941406 312.863281 L 676.917969 312.871094 L 675.804688 312.878906 L 674.152344 312.886719 L 673.085938 312.890625 L 671.925781 312.894531 L 670.542969 312.898438 L 668.804688 312.902344 L 661.941406 312.902344 L 660.113281 312.898438 L 657.839844 312.890625 L 656.191406 312.882812 L 654.898438 312.875 L 653.78125 312.867188 L 652.535156 312.855469 L 650.929688 312.835938 L 649.949219 312.820312 L 649.28125 312.808594 L 648.523438 312.792969 L 647.988281 312.777344 L 647.363281 312.753906 L 646.917969 312.726562 L 646.785156 312.703125 Z M 646.785156 312.644531 "/>
<path style=" stroke:none;fill-rule:nonzero;fill:rgb(96.862745%,70.196078%,16.862745%);fill-opacity:1;" d="M 646.785156 307.773438 L 646.828125 307.769531 L 646.828125 307.742188 L 647.007812 307.675781 L 647.453125 307.585938 L 648.03125 307.511719 L 648.65625 307.457031 L 649.058594 307.425781 L 649.726562 307.382812 L 650.304688 307.351562 L 651.777344 307.285156 L 653.648438 307.226562 L 654.675781 307.199219 L 655.832031 307.175781 L 657.480469 307.148438 L 658.238281 307.136719 L 660.558594 307.113281 L 663.1875 307.097656 L 666.085938 307.09375 L 667.421875 307.097656 L 669.25 307.101562 L 671.746094 307.117188 L 673.171875 307.132812 L 674.289062 307.148438 L 675.445312 307.164062 L 676.875 307.195312 L 678.210938 307.230469 L 679.28125 307.261719 L 680.351562 307.308594 L 681.242188 307.351562 L 682 307.402344 L 682.667969 307.464844 L 683.070312 307.515625 L 683.335938 307.566406 L 677.140625 307.566406 L 676.785156 307.515625 L 676.382812 307.476562 L 675.714844 307.429688 L 675.046875 307.394531 L 674.378906 307.367188 L 673.128906 307.328125 L 672.058594 307.304688 L 670.722656 307.285156 L 669.429688 307.273438 L 667.957031 307.261719 L 664.703125 307.261719 L 662.5625 307.269531 L 661.316406 307.28125 L 660.425781 307.292969 L 659.175781 307.316406 L 658.417969 307.332031 L 657.972656 307.34375 L 656.636719 307.390625 L 655.742188 307.429688 L 655.253906 307.457031 L 654.628906 307.5 L 654.183594 307.539062 L 653.691406 307.597656 L 653.425781 307.640625 L 653.070312 307.738281 L 653.023438 308 L 653.160156 308.054688 L 653.425781 308.113281 L 653.78125 308.164062 L 654.316406 308.21875 L 654.851562 308.261719 L 655.789062 308.316406 L 656.589844 308.355469 L 657.214844 308.378906 L 658.417969 308.417969 L 658.910156 308.433594 L 660.066406 308.457031 L 661.269531 308.476562 L 662.742188 308.496094 L 663.855469 308.503906 L 665.640625 308.511719 L 667.914062 308.511719 L 670.589844 308.503906 L 672.28125 308.492188 L 673.441406 308.480469 L 674.199219 308.46875 L 675.136719 308.453125 L 675.804688 308.4375 L 676.425781 308.421875 L 677.183594 308.398438 L 677.183594 308.054688 L 666.175781 308.050781 L 666.175781 307.890625 L 683.292969 307.890625 L 683.335938 308.453125 L 682.402344 308.492188 L 681.242188 308.53125 L 680.128906 308.558594 L 678.96875 308.582031 L 677.320312 308.609375 L 675.980469 308.628906 L 673.929688 308.648438 L 672.058594 308.660156 L 670.097656 308.671875 L 668.359375 308.675781 L 666.308594 308.675781 L 664.480469 308.671875 L 662.519531 308.664062 L 660.960938 308.652344 L 659.53125 308.636719 L 658.105469 308.621094 L 656.324219 308.589844 L 655.164062 308.566406 L 653.960938 308.535156 L 652.757812 308.5 L 651.6875 308.460938 L 650.972656 308.429688 L 650.261719 308.394531 L 649.503906 308.351562 L 648.789062 308.300781 L 648.253906 308.257812 L 647.765625 308.207031 L 647.40625 308.160156 L 647.050781 308.09375 L 646.875 308.042969 L 646.785156 307.996094 Z M 646.785156 307.773438 "/>
<path style=" stroke:none;fill-rule:nonzero;fill:rgb(83.921569%,15.686275%,22.352941%);fill-opacity:1;" d="M 646.785156 314.082031 L 683.335938 314.082031 L 683.335938 314.113281 L 668.101562 314.113281 L 668.101562 314.371094 L 661.972656 314.371094 L 661.972656 314.113281 L 646.785156 314.113281 Z M 646.785156 314.082031 "/>
<g style="fill:rgb(0%,0%,0%);fill-opacity:1;">
  <use xlink:href="#glyph0-1" x="21.957031" y="318.198242"/>
  <use xlink:href="#glyph0-2" x="27.291016" y="318.198242"/>
  <use xlink:href="#glyph0-1" x="29.958008" y="318.198242"/>
</g>
<g style="fill:rgb(0%,0%,0%);fill-opacity:1;">
  <use xlink:href="#glyph0-1" x="21.957031" y="237.944336"/>
  <use xlink:href="#glyph0-2" x="27.291016" y="237.944336"/>
  <use xlink:href="#glyph0-3" x="29.958008" y="237.944336"/>
</g>
<g style="fill:rgb(0%,0%,0%);fill-opacity:1;">
  <use xlink:href="#glyph0-4" x="21.957031" y="157.69043"/>
  <use xlink:href="#glyph0-2" x="27.291016" y="157.69043"/>
  <use xlink:href="#glyph0-1" x="29.958008" y="157.69043"/>
</g>
<g style="fill:rgb(0%,0%,0%);fill-opacity:1;">
  <use xlink:href="#glyph0-4" x="21.957031" y="77.436523"/>
  <use xlink:href="#glyph0-2" x="27.291016" y="77.436523"/>
  <use xlink:href="#glyph0-3" x="29.958008" y="77.436523"/>
</g>
<g style="fill:rgb(0%,0%,0%);fill-opacity:1;">
  <use xlink:href="#glyph0-4" x="84.90625" y="338.19043"/>
</g>
<g style="fill:rgb(0%,0%,0%);fill-opacity:1;">
  <use xlink:href="#glyph0-5" x="123.382812" y="338.19043"/>
</g>
<g style="fill:rgb(0%,0%,0%);fill-opacity:1;">
  <use xlink:href="#glyph0-6" x="161.859375" y="338.19043"/>
</g>
<g style="fill:rgb(0%,0%,0%);fill-opacity:1;">
  <use xlink:href="#glyph0-7" x="200.335938" y="338.19043"/>
</g>
<g style="fill:rgb(0%,0%,0%);fill-opacity:1;">
  <use xlink:href="#glyph0-3" x="238.8125" y="338.19043"/>
</g>
<g style="fill:rgb(0%,0%,0%);fill-opacity:1;">
  <use xlink:href="#glyph0-8" x="277.289062" y="338.19043"/>
</g>
<g style="fill:rgb(0%,0%,0%);fill-opacity:1;">
  <use xlink:href="#glyph0-9" x="315.769531" y="338.19043"/>
</g>
<g style="fill:rgb(0%,0%,0%);fill-opacity:1;">
  <use xlink:href="#glyph0-10" x="354.246094" y="338.19043"/>
</g>
<g style="fill:rgb(0%,0%,0%);fill-opacity:1;">
  <use xlink:href="#glyph0-11" x="392.722656" y="338.19043"/>
</g>
<g style="fill:rgb(0%,0%,0%);fill-opacity:1;">
  <use xlink:href="#glyph0-4" x="428.699219" y="338.19043"/>
  <use xlink:href="#glyph0-1" x="434.033203" y="338.19043"/>
</g>
<g style="fill:rgb(0%,0%,0%);fill-opacity:1;">
  <use xlink:href="#glyph0-4" x="467.175781" y="338.19043"/>
  <use xlink:href="#glyph0-4" x="472.509766" y="338.19043"/>
</g>
<g style="fill:rgb(0%,0%,0%);fill-opacity:1;">
  <use xlink:href="#glyph0-4" x="505.652344" y="338.19043"/>
  <use xlink:href="#glyph0-5" x="510.986328" y="338.19043"/>
</g>
<g style="fill:rgb(0%,0%,0%);fill-opacity:1;">
  <use xlink:href="#glyph0-4" x="544.128906" y="338.19043"/>
  <use xlink:href="#glyph0-6" x="549.462891" y="338.19043"/>
</g>
<g style="fill:rgb(0%,0%,0%);fill-opacity:1;">
  <use xlink:href="#glyph0-4" x="582.605469" y="338.19043"/>
  <use xlink:href="#glyph0-7" x="587.939453" y="338.19043"/>
</g>
<g style="fill:rgb(0%,0%,0%);fill-opacity:1;">
  <use xlink:href="#glyph0-4" x="621.082031" y="338.19043"/>
  <use xlink:href="#glyph0-3" x="626.416016" y="338.19043"/>
</g>
<g style="fill:rgb(0%,0%,0%);fill-opacity:1;">
  <use xlink:href="#glyph0-4" x="659.558594" y="338.19043"/>
  <use xlink:href="#glyph0-8" x="664.892578" y="338.19043"/>
</g>
<g style="fill:rgb(0%,0%,0%);fill-opacity:1;">
  <use xlink:href="#glyph1-1" x="14.412109" y="178.015625"/>
  <use xlink:href="#glyph1-2" x="14.412109" y="170.011719"/>
  <use xlink:href="#glyph1-3" x="14.412109" y="167.347656"/>
  <use xlink:href="#glyph1-4" x="14.412109" y="164.011719"/>
</g>
</g>
</svg>
