<?xml version="1.0" encoding="UTF-8" standalone="yes"?>
                 <!DOCTYPE svg PUBLIC "-//W3C//DTD SVG 1.0//EN" "http://www.w3.org/TR/2001/REC-SVG-20010904/DTD/svg10.dtd">
                 <svg height="170" width="720" xmlns="http://www.w3.org/2000/svg" xmlns:xlink="http://www.w3.org/1999/xlink">
                 <line x1="85" y1="120" x2="687" y2="120" style="stroke:rgb(99,99,99);stroke-width:2" />
<rect height="7.000000" width="2.000000" x="85.000000" y="120.000000" fill="rgb(0, 0, 0)" style="fill-opacity:1.00" />
<text x="107.000000" y="140">
1
</text>
<rect height="7.000000" width="2.000000" x="145.000000" y="120.000000" fill="rgb(0, 0, 0)" style="fill-opacity:1.00" />
<text x="167.000000" y="140">
2
</text>
<rect height="7.000000" width="2.000000" x="205.000000" y="120.000000" fill="rgb(0, 0, 0)" style="fill-opacity:1.00" />
<text x="227.000000" y="140">
3
</text>
<rect height="7.000000" width="2.000000" x="265.000000" y="120.000000" fill="rgb(0, 0, 0)" style="fill-opacity:1.00" />
<text x="287.000000" y="140">
4
</text>
<rect height="7.000000" width="2.000000" x="325.000000" y="120.000000" fill="rgb(0, 0, 0)" style="fill-opacity:1.00" />
<text x="347.000000" y="140">
5
</text>
<rect height="7.000000" width="2.000000" x="385.000000" y="120.000000" fill="rgb(0, 0, 0)" style="fill-opacity:1.00" />
<text x="407.000000" y="140">
6
</text>
<rect height="7.000000" width="2.000000" x="445.000000" y="120.000000" fill="rgb(0, 0, 0)" style="fill-opacity:1.00" />
<text x="467.000000" y="140">
7
</text>
<rect height="7.000000" width="2.000000" x="505.000000" y="120.000000" fill="rgb(0, 0, 0)" style="fill-opacity:1.00" />
<text x="527.000000" y="140">
8
</text>
<rect height="7.000000" width="2.000000" x="565.000000" y="120.000000" fill="rgb(0, 0, 0)" style="fill-opacity:1.00" />
<text x="587.000000" y="140">
9
</text>
<rect height="7.000000" width="2.000000" x="625.000000" y="120.000000" fill="rgb(0, 0, 0)" style="fill-opacity:1.00" />
<text x="647.000000" y="140">
10
</text>
<rect height="7.000000" width="2.000000" x="685.000000" y="120.000000" fill="rgb(0, 0, 0)" style="fill-opacity:1.00" />
<line x1="80" y1="112" x2="80" y2="10" style="stroke:rgb(99,99,99);stroke-width:2" />
<rect height="2.000000" width="7.000000" x="73.000000" y="110.000000" fill="rgb(0, 0, 0)" style="fill-opacity:1.00" />
<text x="63" y="115">
0
</text>
<rect height="2.000000" width="7.000000" x="73.000000" y="60.000000" fill="rgb(0, 0, 0)" style="fill-opacity:1.00" />
<text x="63" y="65">
1
</text>
<rect height="2.000000" width="7.000000" x="73.000000" y="10.000000" fill="rgb(0, 0, 0)" style="fill-opacity:1.00" />
<text x="63" y="15">
2
</text>
<text x="50" y="65"
transform="rotate(-90, 50, 70)">
bits
</text>
<!-- Begin 'T' -->
<rect height="0.007160" width="50.000000" x="90.000000" y="109.838706" fill="rgb(0, 100, 0)" style="fill-opacity:1.00" />
<rect height="0.044751" width="10.000000" x="110.000000" y="109.838706" fill="rgb(0, 100, 0)" style="fill-opacity:1.00" />
<!-- End 'T' -->
<!-- Begin 'G' -->
<ellipse cx="115.000000" cy="109.903415" rx="25.000000" ry="0.019958" fill="rgb(255, 165, 0)" style="fill-opacity:1.00" />
<ellipse cx="115.000000" cy="109.903415" rx="16.666667" ry="0.013306" fill="rgb(255, 255, 255)" style="fill-opacity:1.00" />
<rect height="0.019958" width="25.000000" x="115.000000" y="109.893436" fill="rgb(255, 255, 255)" style="fill-opacity:1.00" />
<rect height="0.004990" width="25.000000" x="115.000000" y="109.908405" fill="rgb(255, 165, 0)" style="fill-opacity:1.00" />
<rect height="0.014969" width="6.250000" x="133.750000" y="109.908405" fill="rgb(255, 165, 0)" style="fill-opacity:1.00" />
<!-- End 'G' -->
<!-- Begin 'A' -->
<polygon points=" 90.000000, 109.962605, 111.000000, 109.923374, 119.000000, 109.923374, 140.000000, 109.962605, 132.500000, 109.962605, 126.250000, 109.952797, 103.750000, 109.952797, 97.500000, 109.962605" fill="rgb(178, 34, 34)" style="fill-opacity:1.00" />
<!-- End 'A' -->
<!-- Begin 'C' -->
<ellipse cx="115.000000" cy="109.981302" rx="25.000000" ry="0.018698" fill="rgb(0, 0, 128)" style="fill-opacity:1.00" />
<ellipse cx="115.000000" cy="109.981302" rx="16.666667" ry="0.012465" fill="rgb(255, 255, 255)" style="fill-opacity:1.00" />
<rect height="0.018698" width="25.000000" x="115.000000" y="109.971954" fill="rgb(255, 255, 255)" style="fill-opacity:1.00" />
<!-- End 'C' -->
<!-- Begin 'C' -->
<ellipse cx="175.000000" cy="103.873994" rx="25.000000" ry="1.860774" fill="rgb(0, 0, 128)" style="fill-opacity:1.00" />
<ellipse cx="175.000000" cy="103.873994" rx="16.666667" ry="1.240516" fill="rgb(255, 255, 255)" style="fill-opacity:1.00" />
<rect height="1.860774" width="25.000000" x="175.000000" y="102.943607" fill="rgb(255, 255, 255)" style="fill-opacity:1.00" />
<!-- End 'C' -->
<!-- Begin 'G' -->
<ellipse cx="175.000000" cy="106.510508" rx="25.000000" ry="0.775740" fill="rgb(255, 165, 0)" style="fill-opacity:1.00" />
<ellipse cx="175.000000" cy="106.510508" rx="16.666667" ry="0.517160" fill="rgb(255, 255, 255)" style="fill-opacity:1.00" />
<rect height="0.775740" width="25.000000" x="175.000000" y="106.122638" fill="rgb(255, 255, 255)" style="fill-opacity:1.00" />
<rect height="0.193935" width="25.000000" x="175.000000" y="106.704443" fill="rgb(255, 165, 0)" style="fill-opacity:1.00" />
<rect height="0.581805" width="6.250000" x="193.750000" y="106.704443" fill="rgb(255, 165, 0)" style="fill-opacity:1.00" />
<!-- End 'G' -->
<!-- Begin 'A' -->
<polygon points=" 150.000000, 108.739484, 171.000000, 107.286249, 179.000000, 107.286249, 200.000000, 108.739484, 192.500000, 108.739484, 186.250000, 108.376175, 163.750000, 108.376175, 157.500000, 108.739484" fill="rgb(178, 34, 34)" style="fill-opacity:1.00" />
<!-- End 'A' -->
<!-- Begin 'T' -->
<rect height="0.201683" width="50.000000" x="150.000000" y="108.739484" fill="rgb(0, 100, 0)" style="fill-opacity:1.00" />
<rect height="1.260516" width="10.000000" x="170.000000" y="108.739484" fill="rgb(0, 100, 0)" style="fill-opacity:1.00" />
<!-- End 'T' -->
<!-- Begin 'T' -->
<rect height="15.629298" width="50.000000" x="210.000000" y="11.950808" fill="rgb(0, 100, 0)" style="fill-opacity:1.00" />
<rect height="97.683112" width="10.000000" x="230.000000" y="11.950808" fill="rgb(0, 100, 0)" style="fill-opacity:1.00" />
<!-- End 'T' -->
<!-- Begin 'A' -->
<polygon points=" 210.000000, 109.911972, 231.000000, 109.633920, 239.000000, 109.633920, 260.000000, 109.911972, 252.500000, 109.911972, 246.250000, 109.842459, 223.750000, 109.842459, 217.500000, 109.911972" fill="rgb(178, 34, 34)" style="fill-opacity:1.00" />
<!-- End 'A' -->
<!-- Begin 'G' -->
<ellipse cx="235.000000" cy="109.949218" rx="25.000000" ry="0.037246" fill="rgb(255, 165, 0)" style="fill-opacity:1.00" />
<ellipse cx="235.000000" cy="109.949218" rx="16.666667" ry="0.024831" fill="rgb(255, 255, 255)" style="fill-opacity:1.00" />
<rect height="0.037246" width="25.000000" x="235.000000" y="109.930595" fill="rgb(255, 255, 255)" style="fill-opacity:1.00" />
<rect height="0.009311" width="25.000000" x="235.000000" y="109.958529" fill="rgb(255, 165, 0)" style="fill-opacity:1.00" />
<rect height="0.027934" width="6.250000" x="253.750000" y="109.958529" fill="rgb(255, 165, 0)" style="fill-opacity:1.00" />
<!-- End 'G' -->
<!-- Begin 'C' -->
<ellipse cx="235.000000" cy="109.993232" rx="25.000000" ry="0.006768" fill="rgb(0, 0, 128)" style="fill-opacity:1.00" />
<ellipse cx="235.000000" cy="109.993232" rx="16.666667" ry="0.004512" fill="rgb(255, 255, 255)" style="fill-opacity:1.00" />
<rect height="0.006768" width="25.000000" x="235.000000" y="109.989848" fill="rgb(255, 255, 255)" style="fill-opacity:1.00" />
<!-- End 'C' -->
<!-- Begin 'G' -->
<ellipse cx="295.000000" cy="60.597440" rx="25.000000" ry="49.154578" fill="rgb(255, 165, 0)" style="fill-opacity:1.00" />
<ellipse cx="295.000000" cy="60.597440" rx="16.666667" ry="32.769719" fill="rgb(255, 255, 255)" style="fill-opacity:1.00" />
<rect height="49.154578" width="25.000000" x="295.000000" y="36.020151" fill="rgb(255, 255, 255)" style="fill-opacity:1.00" />
<rect height="12.288644" width="25.000000" x="295.000000" y="72.886084" fill="rgb(255, 165, 0)" style="fill-opacity:1.00" />
<rect height="36.865933" width="6.250000" x="313.750000" y="72.886084" fill="rgb(255, 165, 0)" style="fill-opacity:1.00" />
<!-- End 'G' -->
<!-- Begin 'T' -->
<rect height="0.020959" width="50.000000" x="270.000000" y="109.752018" fill="rgb(0, 100, 0)" style="fill-opacity:1.00" />
<rect height="0.130995" width="10.000000" x="290.000000" y="109.752018" fill="rgb(0, 100, 0)" style="fill-opacity:1.00" />
<!-- End 'T' -->
<!-- Begin 'C' -->
<ellipse cx="295.000000" cy="109.925818" rx="25.000000" ry="0.042806" fill="rgb(0, 0, 128)" style="fill-opacity:1.00" />
<ellipse cx="295.000000" cy="109.925818" rx="16.666667" ry="0.028537" fill="rgb(255, 255, 255)" style="fill-opacity:1.00" />
<rect height="0.042806" width="25.000000" x="295.000000" y="109.904415" fill="rgb(255, 255, 255)" style="fill-opacity:1.00" />
<!-- End 'C' -->
<!-- Begin 'A' -->
<polygon points=" 270.000000, 110.000000, 291.000000, 109.968623, 299.000000, 109.968623, 320.000000, 110.000000, 312.500000, 110.000000, 306.250000, 109.992156, 283.750000, 109.992156, 277.500000, 110.000000" fill="rgb(178, 34, 34)" style="fill-opacity:1.00" />
<!-- End 'A' -->
<!-- Begin 'C' -->
<ellipse cx="355.000000" cy="60.718172" rx="25.000000" ry="48.974683" fill="rgb(0, 0, 128)" style="fill-opacity:1.00" />
<ellipse cx="355.000000" cy="60.718172" rx="16.666667" ry="32.649789" fill="rgb(255, 255, 255)" style="fill-opacity:1.00" />
<rect height="48.974683" width="25.000000" x="355.000000" y="36.230830" fill="rgb(255, 255, 255)" style="fill-opacity:1.00" />
<!-- End 'C' -->
<!-- Begin 'G' -->
<ellipse cx="355.000000" cy="109.769411" rx="25.000000" ry="0.076556" fill="rgb(255, 165, 0)" style="fill-opacity:1.00" />
<ellipse cx="355.000000" cy="109.769411" rx="16.666667" ry="0.051037" fill="rgb(255, 255, 255)" style="fill-opacity:1.00" />
<rect height="0.076556" width="25.000000" x="355.000000" y="109.731133" fill="rgb(255, 255, 255)" style="fill-opacity:1.00" />
<rect height="0.019139" width="25.000000" x="355.000000" y="109.788550" fill="rgb(255, 165, 0)" style="fill-opacity:1.00" />
<rect height="0.057417" width="6.250000" x="373.750000" y="109.788550" fill="rgb(255, 165, 0)" style="fill-opacity:1.00" />
<!-- End 'G' -->
<!-- Begin 'A' -->
<polygon points=" 330.000000, 109.964069, 351.000000, 109.845967, 359.000000, 109.845967, 380.000000, 109.964069, 372.500000, 109.964069, 366.250000, 109.934543, 343.750000, 109.934543, 337.500000, 109.964069" fill="rgb(178, 34, 34)" style="fill-opacity:1.00" />
<!-- End 'A' -->
<!-- Begin 'T' -->
<rect height="0.005749" width="50.000000" x="330.000000" y="109.964069" fill="rgb(0, 100, 0)" style="fill-opacity:1.00" />
<rect height="0.035931" width="10.000000" x="350.000000" y="109.964069" fill="rgb(0, 100, 0)" style="fill-opacity:1.00" />
<!-- End 'T' -->
<!-- Begin 'C' -->
<ellipse cx="415.000000" cy="60.427701" rx="25.000000" ry="49.395992" fill="rgb(0, 0, 128)" style="fill-opacity:1.00" />
<ellipse cx="415.000000" cy="60.427701" rx="16.666667" ry="32.930662" fill="rgb(255, 255, 255)" style="fill-opacity:1.00" />
<rect height="49.395992" width="25.000000" x="415.000000" y="35.729705" fill="rgb(255, 255, 255)" style="fill-opacity:1.00" />
<!-- End 'C' -->
<!-- Begin 'T' -->
<rect height="0.019059" width="50.000000" x="390.000000" y="109.823693" fill="rgb(0, 100, 0)" style="fill-opacity:1.00" />
<rect height="0.119119" width="10.000000" x="410.000000" y="109.823693" fill="rgb(0, 100, 0)" style="fill-opacity:1.00" />
<!-- End 'T' -->
<!-- Begin 'A' -->
<polygon points=" 390.000000, 109.996857, 411.000000, 109.942812, 419.000000, 109.942812, 440.000000, 109.996857, 432.500000, 109.996857, 426.250000, 109.983346, 403.750000, 109.983346, 397.500000, 109.996857" fill="rgb(178, 34, 34)" style="fill-opacity:1.00" />
<!-- End 'A' -->
<!-- Begin 'G' -->
<ellipse cx="415.000000" cy="109.998429" rx="25.000000" ry="0.001571" fill="rgb(255, 165, 0)" style="fill-opacity:1.00" />
<ellipse cx="415.000000" cy="109.998429" rx="16.666667" ry="0.001048" fill="rgb(255, 255, 255)" style="fill-opacity:1.00" />
<rect height="0.001571" width="25.000000" x="415.000000" y="109.997643" fill="rgb(255, 255, 255)" style="fill-opacity:1.00" />
<rect height="0.000393" width="25.000000" x="415.000000" y="109.998821" fill="rgb(255, 165, 0)" style="fill-opacity:1.00" />
<rect height="0.001179" width="6.250000" x="433.750000" y="109.998821" fill="rgb(255, 165, 0)" style="fill-opacity:1.00" />
<!-- End 'G' -->
<!-- Begin 'A' -->
<polygon points=" 450.000000, 109.343657, 471.000000, 13.238863, 479.000000, 13.238863, 500.000000, 109.343657, 492.500000, 109.343657, 486.250000, 85.317458, 463.750000, 85.317458, 457.500000, 109.343657" fill="rgb(178, 34, 34)" style="fill-opacity:1.00" />
<polygon points=" 475.000000, 32.459822, 467.000000, 69.901739, 482.000000, 69.901739" fill="rgb(255, 255, 255)" style="fill-opacity:1.00" />
<!-- End 'A' -->
<!-- Begin 'C' -->
<ellipse cx="475.000000" cy="109.600215" rx="25.000000" ry="0.256558" fill="rgb(0, 0, 128)" style="fill-opacity:1.00" />
<ellipse cx="475.000000" cy="109.600215" rx="16.666667" ry="0.171039" fill="rgb(255, 255, 255)" style="fill-opacity:1.00" />
<rect height="0.256558" width="25.000000" x="475.000000" y="109.471936" fill="rgb(255, 255, 255)" style="fill-opacity:1.00" />
<!-- End 'C' -->
<!-- Begin 'T' -->
<rect height="0.018654" width="50.000000" x="450.000000" y="109.856773" fill="rgb(0, 100, 0)" style="fill-opacity:1.00" />
<rect height="0.116587" width="10.000000" x="470.000000" y="109.856773" fill="rgb(0, 100, 0)" style="fill-opacity:1.00" />
<!-- End 'T' -->
<!-- Begin 'G' -->
<ellipse cx="475.000000" cy="109.986680" rx="25.000000" ry="0.013320" fill="rgb(255, 165, 0)" style="fill-opacity:1.00" />
<ellipse cx="475.000000" cy="109.986680" rx="16.666667" ry="0.008880" fill="rgb(255, 255, 255)" style="fill-opacity:1.00" />
<rect height="0.013320" width="25.000000" x="475.000000" y="109.980020" fill="rgb(255, 255, 255)" style="fill-opacity:1.00" />
<rect height="0.003330" width="25.000000" x="475.000000" y="109.990010" fill="rgb(255, 165, 0)" style="fill-opacity:1.00" />
<rect height="0.009990" width="6.250000" x="493.750000" y="109.990010" fill="rgb(255, 165, 0)" style="fill-opacity:1.00" />
<!-- End 'G' -->
<!-- Begin 'A' -->
<polygon points=" 510.000000, 108.153439, 531.000000, 18.276093, 539.000000, 18.276093, 560.000000, 108.153439, 552.500000, 108.153439, 546.250000, 85.684103, 523.750000, 85.684103, 517.500000, 108.153439" fill="rgb(178, 34, 34)" style="fill-opacity:1.00" />
<polygon points=" 535.000000, 36.251563, 527.000000, 71.202501, 542.000000, 71.202501" fill="rgb(255, 255, 255)" style="fill-opacity:1.00" />
<!-- End 'A' -->
<!-- Begin 'G' -->
<ellipse cx="535.000000" cy="108.772660" rx="25.000000" ry="0.619221" fill="rgb(255, 165, 0)" style="fill-opacity:1.00" />
<ellipse cx="535.000000" cy="108.772660" rx="16.666667" ry="0.412814" fill="rgb(255, 255, 255)" style="fill-opacity:1.00" />
<rect height="0.619221" width="25.000000" x="535.000000" y="108.463050" fill="rgb(255, 255, 255)" style="fill-opacity:1.00" />
<rect height="0.154805" width="25.000000" x="535.000000" y="108.927466" fill="rgb(255, 165, 0)" style="fill-opacity:1.00" />
<rect height="0.464416" width="6.250000" x="553.750000" y="108.927466" fill="rgb(255, 165, 0)" style="fill-opacity:1.00" />
<!-- End 'G' -->
<!-- Begin 'C' -->
<ellipse cx="535.000000" cy="109.631576" rx="25.000000" ry="0.239694" fill="rgb(0, 0, 128)" style="fill-opacity:1.00" />
<ellipse cx="535.000000" cy="109.631576" rx="16.666667" ry="0.159796" fill="rgb(255, 255, 255)" style="fill-opacity:1.00" />
<rect height="0.239694" width="25.000000" x="535.000000" y="109.511729" fill="rgb(255, 255, 255)" style="fill-opacity:1.00" />
<!-- End 'C' -->
<!-- Begin 'T' -->
<rect height="0.020597" width="50.000000" x="510.000000" y="109.871270" fill="rgb(0, 100, 0)" style="fill-opacity:1.00" />
<rect height="0.128730" width="10.000000" x="530.000000" y="109.871270" fill="rgb(0, 100, 0)" style="fill-opacity:1.00" />
<!-- End 'T' -->
<!-- Begin 'G' -->
<ellipse cx="595.000000" cy="100.956235" rx="25.000000" ry="2.961839" fill="rgb(255, 165, 0)" style="fill-opacity:1.00" />
<ellipse cx="595.000000" cy="100.956235" rx="16.666667" ry="1.974559" fill="rgb(255, 255, 255)" style="fill-opacity:1.00" />
<rect height="2.961839" width="25.000000" x="595.000000" y="99.475315" fill="rgb(255, 255, 255)" style="fill-opacity:1.00" />
<rect height="0.740460" width="25.000000" x="595.000000" y="101.696694" fill="rgb(255, 165, 0)" style="fill-opacity:1.00" />
<rect height="2.221379" width="6.250000" x="613.750000" y="101.696694" fill="rgb(255, 165, 0)" style="fill-opacity:1.00" />
<!-- End 'G' -->
<!-- Begin 'A' -->
<polygon points=" 570.000000, 106.520797, 591.000000, 103.918074, 599.000000, 103.918074, 620.000000, 106.520797, 612.500000, 106.520797, 606.250000, 105.870116, 583.750000, 105.870116, 577.500000, 106.520797" fill="rgb(178, 34, 34)" style="fill-opacity:1.00" />
<!-- End 'A' -->
<!-- Begin 'C' -->
<ellipse cx="595.000000" cy="107.709463" rx="25.000000" ry="1.188666" fill="rgb(0, 0, 128)" style="fill-opacity:1.00" />
<ellipse cx="595.000000" cy="107.709463" rx="16.666667" ry="0.792444" fill="rgb(255, 255, 255)" style="fill-opacity:1.00" />
<rect height="1.188666" width="25.000000" x="595.000000" y="107.115130" fill="rgb(255, 255, 255)" style="fill-opacity:1.00" />
<!-- End 'C' -->
<!-- Begin 'T' -->
<rect height="0.176299" width="50.000000" x="570.000000" y="108.898128" fill="rgb(0, 100, 0)" style="fill-opacity:1.00" />
<rect height="1.101872" width="10.000000" x="590.000000" y="108.898128" fill="rgb(0, 100, 0)" style="fill-opacity:1.00" />
<!-- End 'T' -->
<!-- Begin 'T' -->
<rect height="0.027868" width="50.000000" x="630.000000" y="109.411351" fill="rgb(0, 100, 0)" style="fill-opacity:1.00" />
<rect height="0.174175" width="10.000000" x="650.000000" y="109.411351" fill="rgb(0, 100, 0)" style="fill-opacity:1.00" />
<!-- End 'T' -->
<!-- Begin 'A' -->
<polygon points=" 630.000000, 109.741083, 651.000000, 109.585526, 659.000000, 109.585526, 680.000000, 109.741083, 672.500000, 109.741083, 666.250000, 109.702194, 643.750000, 109.702194, 637.500000, 109.741083" fill="rgb(178, 34, 34)" style="fill-opacity:1.00" />
<!-- End 'A' -->
<!-- Begin 'G' -->
<ellipse cx="655.000000" cy="109.806315" rx="25.000000" ry="0.065232" fill="rgb(255, 165, 0)" style="fill-opacity:1.00" />
<ellipse cx="655.000000" cy="109.806315" rx="16.666667" ry="0.043488" fill="rgb(255, 255, 255)" style="fill-opacity:1.00" />
<rect height="0.065232" width="25.000000" x="655.000000" y="109.773699" fill="rgb(255, 255, 255)" style="fill-opacity:1.00" />
<rect height="0.016308" width="25.000000" x="655.000000" y="109.822623" fill="rgb(255, 165, 0)" style="fill-opacity:1.00" />
<rect height="0.048924" width="6.250000" x="673.750000" y="109.822623" fill="rgb(255, 165, 0)" style="fill-opacity:1.00" />
<!-- End 'G' -->
<!-- Begin 'C' -->
<ellipse cx="655.000000" cy="109.935774" rx="25.000000" ry="0.064226" fill="rgb(0, 0, 128)" style="fill-opacity:1.00" />
<ellipse cx="655.000000" cy="109.935774" rx="16.666667" ry="0.042818" fill="rgb(255, 255, 255)" style="fill-opacity:1.00" />
<rect height="0.064226" width="25.000000" x="655.000000" y="109.903661" fill="rgb(255, 255, 255)" style="fill-opacity:1.00" />
<!-- End 'C' -->
<text x="370.000000" y="165">
IC = 12.06
</text>

</svg>
