<?xml version="1.0" encoding="UTF-8" standalone="yes"?>
                 <!DOCTYPE svg PUBLIC "-//W3C//DTD SVG 1.0//EN" "http://www.w3.org/TR/2001/REC-SVG-20010904/DTD/svg10.dtd">
                 <svg height="170" width="720" xmlns="http://www.w3.org/2000/svg" xmlns:xlink="http://www.w3.org/1999/xlink">
                 <line x1="85" y1="120" x2="687" y2="120" style="stroke:rgb(99,99,99);stroke-width:2" />
<rect height="7.000000" width="2.000000" x="85.000000" y="120.000000" fill="rgb(0, 0, 0)" style="fill-opacity:1.00" />
<text x="107.000000" y="140">
1
</text>
<rect height="7.000000" width="2.000000" x="145.000000" y="120.000000" fill="rgb(0, 0, 0)" style="fill-opacity:1.00" />
<text x="167.000000" y="140">
2
</text>
<rect height="7.000000" width="2.000000" x="205.000000" y="120.000000" fill="rgb(0, 0, 0)" style="fill-opacity:1.00" />
<text x="227.000000" y="140">
3
</text>
<rect height="7.000000" width="2.000000" x="265.000000" y="120.000000" fill="rgb(0, 0, 0)" style="fill-opacity:1.00" />
<text x="287.000000" y="140">
4
</text>
<rect height="7.000000" width="2.000000" x="325.000000" y="120.000000" fill="rgb(0, 0, 0)" style="fill-opacity:1.00" />
<text x="347.000000" y="140">
5
</text>
<rect height="7.000000" width="2.000000" x="385.000000" y="120.000000" fill="rgb(0, 0, 0)" style="fill-opacity:1.00" />
<text x="407.000000" y="140">
6
</text>
<rect height="7.000000" width="2.000000" x="445.000000" y="120.000000" fill="rgb(0, 0, 0)" style="fill-opacity:1.00" />
<text x="467.000000" y="140">
7
</text>
<rect height="7.000000" width="2.000000" x="505.000000" y="120.000000" fill="rgb(0, 0, 0)" style="fill-opacity:1.00" />
<text x="527.000000" y="140">
8
</text>
<rect height="7.000000" width="2.000000" x="565.000000" y="120.000000" fill="rgb(0, 0, 0)" style="fill-opacity:1.00" />
<text x="587.000000" y="140">
9
</text>
<rect height="7.000000" width="2.000000" x="625.000000" y="120.000000" fill="rgb(0, 0, 0)" style="fill-opacity:1.00" />
<text x="647.000000" y="140">
10
</text>
<rect height="7.000000" width="2.000000" x="685.000000" y="120.000000" fill="rgb(0, 0, 0)" style="fill-opacity:1.00" />
<line x1="80" y1="112" x2="80" y2="10" style="stroke:rgb(99,99,99);stroke-width:2" />
<rect height="2.000000" width="7.000000" x="73.000000" y="110.000000" fill="rgb(0, 0, 0)" style="fill-opacity:1.00" />
<text x="63" y="115">
0
</text>
<rect height="2.000000" width="7.000000" x="73.000000" y="60.000000" fill="rgb(0, 0, 0)" style="fill-opacity:1.00" />
<text x="63" y="65">
1
</text>
<rect height="2.000000" width="7.000000" x="73.000000" y="10.000000" fill="rgb(0, 0, 0)" style="fill-opacity:1.00" />
<text x="63" y="15">
2
</text>
<text x="50" y="65"
transform="rotate(-90, 50, 70)">
bits
</text>
<!-- Begin 'G' -->
<ellipse cx="115.000000" cy="103.554536" rx="25.000000" ry="1.548396" fill="rgb(255, 165, 0)" style="fill-opacity:1.00" />
<ellipse cx="115.000000" cy="103.554536" rx="16.666667" ry="1.032264" fill="rgb(255, 255, 255)" style="fill-opacity:1.00" />
<rect height="1.548396" width="25.000000" x="115.000000" y="102.780338" fill="rgb(255, 255, 255)" style="fill-opacity:1.00" />
<rect height="0.387099" width="25.000000" x="115.000000" y="103.941635" fill="rgb(255, 165, 0)" style="fill-opacity:1.00" />
<rect height="1.161297" width="6.250000" x="133.750000" y="103.941635" fill="rgb(255, 165, 0)" style="fill-opacity:1.00" />
<!-- End 'G' -->
<!-- Begin 'A' -->
<polygon points=" 90.000000, 107.819270, 111.000000, 105.102932, 119.000000, 105.102932, 140.000000, 107.819270, 132.500000, 107.819270, 126.250000, 107.140186, 103.750000, 107.140186, 97.500000, 107.819270" fill="rgb(178, 34, 34)" style="fill-opacity:1.00" />
<!-- End 'A' -->
<!-- Begin 'C' -->
<ellipse cx="115.000000" cy="108.432607" rx="25.000000" ry="0.613337" fill="rgb(0, 0, 128)" style="fill-opacity:1.00" />
<ellipse cx="115.000000" cy="108.432607" rx="16.666667" ry="0.408891" fill="rgb(255, 255, 255)" style="fill-opacity:1.00" />
<rect height="0.613337" width="25.000000" x="115.000000" y="108.125939" fill="rgb(255, 255, 255)" style="fill-opacity:1.00" />
<!-- End 'C' -->
<!-- Begin 'T' -->
<rect height="0.152649" width="50.000000" x="90.000000" y="109.045944" fill="rgb(0, 100, 0)" style="fill-opacity:1.00" />
<rect height="0.954056" width="10.000000" x="110.000000" y="109.045944" fill="rgb(0, 100, 0)" style="fill-opacity:1.00" />
<!-- End 'T' -->
<!-- Begin 'C' -->
<ellipse cx="175.000000" cy="96.588970" rx="25.000000" ry="3.656623" fill="rgb(0, 0, 128)" style="fill-opacity:1.00" />
<ellipse cx="175.000000" cy="96.588970" rx="16.666667" ry="2.437748" fill="rgb(255, 255, 255)" style="fill-opacity:1.00" />
<rect height="3.656623" width="25.000000" x="175.000000" y="94.760659" fill="rgb(255, 255, 255)" style="fill-opacity:1.00" />
<!-- End 'C' -->
<!-- Begin 'G' -->
<ellipse cx="175.000000" cy="102.661742" rx="25.000000" ry="2.416149" fill="rgb(255, 165, 0)" style="fill-opacity:1.00" />
<ellipse cx="175.000000" cy="102.661742" rx="16.666667" ry="1.610766" fill="rgb(255, 255, 255)" style="fill-opacity:1.00" />
<rect height="2.416149" width="25.000000" x="175.000000" y="101.453667" fill="rgb(255, 255, 255)" style="fill-opacity:1.00" />
<rect height="0.604037" width="25.000000" x="175.000000" y="103.265779" fill="rgb(255, 165, 0)" style="fill-opacity:1.00" />
<rect height="1.812112" width="6.250000" x="193.750000" y="103.265779" fill="rgb(255, 165, 0)" style="fill-opacity:1.00" />
<!-- End 'G' -->
<!-- Begin 'A' -->
<polygon points=" 150.000000, 109.671544, 171.000000, 105.077891, 179.000000, 105.077891, 200.000000, 109.671544, 192.500000, 109.671544, 186.250000, 108.523130, 163.750000, 108.523130, 157.500000, 109.671544" fill="rgb(178, 34, 34)" style="fill-opacity:1.00" />
<!-- End 'A' -->
<!-- Begin 'T' -->
<rect height="0.052553" width="50.000000" x="150.000000" y="109.671544" fill="rgb(0, 100, 0)" style="fill-opacity:1.00" />
<rect height="0.328456" width="10.000000" x="170.000000" y="109.671544" fill="rgb(0, 100, 0)" style="fill-opacity:1.00" />
<!-- End 'T' -->
<!-- Begin 'C' -->
<ellipse cx="235.000000" cy="63.943878" rx="25.000000" ry="43.460783" fill="rgb(0, 0, 128)" style="fill-opacity:1.00" />
<ellipse cx="235.000000" cy="63.943878" rx="16.666667" ry="28.973856" fill="rgb(255, 255, 255)" style="fill-opacity:1.00" />
<rect height="43.460783" width="25.000000" x="235.000000" y="42.213486" fill="rgb(255, 255, 255)" style="fill-opacity:1.00" />
<!-- End 'C' -->
<!-- Begin 'A' -->
<polygon points=" 210.000000, 109.590537, 231.000000, 107.404661, 239.000000, 107.404661, 260.000000, 109.590537, 252.500000, 109.590537, 246.250000, 109.044068, 223.750000, 109.044068, 217.500000, 109.590537" fill="rgb(178, 34, 34)" style="fill-opacity:1.00" />
<!-- End 'A' -->
<!-- Begin 'G' -->
<ellipse cx="235.000000" cy="109.775261" rx="25.000000" ry="0.184724" fill="rgb(255, 165, 0)" style="fill-opacity:1.00" />
<ellipse cx="235.000000" cy="109.775261" rx="16.666667" ry="0.123149" fill="rgb(255, 255, 255)" style="fill-opacity:1.00" />
<rect height="0.184724" width="25.000000" x="235.000000" y="109.682899" fill="rgb(255, 255, 255)" style="fill-opacity:1.00" />
<rect height="0.046181" width="25.000000" x="235.000000" y="109.821442" fill="rgb(255, 165, 0)" style="fill-opacity:1.00" />
<rect height="0.138543" width="6.250000" x="253.750000" y="109.821442" fill="rgb(255, 165, 0)" style="fill-opacity:1.00" />
<!-- End 'G' -->
<!-- Begin 'T' -->
<rect height="0.006403" width="50.000000" x="210.000000" y="109.959984" fill="rgb(0, 100, 0)" style="fill-opacity:1.00" />
<rect height="0.040016" width="10.000000" x="230.000000" y="109.959984" fill="rgb(0, 100, 0)" style="fill-opacity:1.00" />
<!-- End 'T' -->
<!-- Begin 'A' -->
<polygon points=" 270.000000, 107.336881, 291.000000, 21.589910, 299.000000, 21.589910, 320.000000, 107.336881, 312.500000, 107.336881, 306.250000, 85.900138, 283.750000, 85.900138, 277.500000, 107.336881" fill="rgb(178, 34, 34)" style="fill-opacity:1.00" />
<polygon points=" 295.000000, 38.739304, 287.000000, 72.038092, 302.000000, 72.038092" fill="rgb(255, 255, 255)" style="fill-opacity:1.00" />
<!-- End 'A' -->
<!-- Begin 'G' -->
<ellipse cx="295.000000" cy="108.227361" rx="25.000000" ry="0.890480" fill="rgb(255, 165, 0)" style="fill-opacity:1.00" />
<ellipse cx="295.000000" cy="108.227361" rx="16.666667" ry="0.593653" fill="rgb(255, 255, 255)" style="fill-opacity:1.00" />
<rect height="0.890480" width="25.000000" x="295.000000" y="107.782121" fill="rgb(255, 255, 255)" style="fill-opacity:1.00" />
<rect height="0.222620" width="25.000000" x="295.000000" y="108.449981" fill="rgb(255, 165, 0)" style="fill-opacity:1.00" />
<rect height="0.667860" width="6.250000" x="313.750000" y="108.449981" fill="rgb(255, 165, 0)" style="fill-opacity:1.00" />
<!-- End 'G' -->
<!-- Begin 'T' -->
<rect height="0.093635" width="50.000000" x="270.000000" y="109.117840" fill="rgb(0, 100, 0)" style="fill-opacity:1.00" />
<rect height="0.585220" width="10.000000" x="290.000000" y="109.117840" fill="rgb(0, 100, 0)" style="fill-opacity:1.00" />
<!-- End 'T' -->
<!-- Begin 'C' -->
<ellipse cx="295.000000" cy="109.851530" rx="25.000000" ry="0.148470" fill="rgb(0, 0, 128)" style="fill-opacity:1.00" />
<ellipse cx="295.000000" cy="109.851530" rx="16.666667" ry="0.098980" fill="rgb(255, 255, 255)" style="fill-opacity:1.00" />
<rect height="0.148470" width="25.000000" x="295.000000" y="109.777295" fill="rgb(255, 255, 255)" style="fill-opacity:1.00" />
<!-- End 'C' -->
<!-- Begin 'G' -->
<ellipse cx="355.000000" cy="83.407789" rx="25.000000" ry="11.996355" fill="rgb(255, 165, 0)" style="fill-opacity:1.00" />
<ellipse cx="355.000000" cy="83.407789" rx="16.666667" ry="7.997570" fill="rgb(255, 255, 255)" style="fill-opacity:1.00" />
<rect height="11.996355" width="25.000000" x="355.000000" y="77.409611" fill="rgb(255, 255, 255)" style="fill-opacity:1.00" />
<rect height="2.999089" width="25.000000" x="355.000000" y="86.406877" fill="rgb(255, 165, 0)" style="fill-opacity:1.00" />
<rect height="8.997266" width="6.250000" x="373.750000" y="86.406877" fill="rgb(255, 165, 0)" style="fill-opacity:1.00" />
<!-- End 'G' -->
<!-- Begin 'T' -->
<rect height="1.990696" width="50.000000" x="330.000000" y="95.404143" fill="rgb(0, 100, 0)" style="fill-opacity:1.00" />
<rect height="12.441849" width="10.000000" x="350.000000" y="95.404143" fill="rgb(0, 100, 0)" style="fill-opacity:1.00" />
<!-- End 'T' -->
<!-- Begin 'C' -->
<ellipse cx="355.000000" cy="108.679158" rx="25.000000" ry="0.833166" fill="rgb(0, 0, 128)" style="fill-opacity:1.00" />
<ellipse cx="355.000000" cy="108.679158" rx="16.666667" ry="0.555444" fill="rgb(255, 255, 255)" style="fill-opacity:1.00" />
<rect height="0.833166" width="25.000000" x="355.000000" y="108.262575" fill="rgb(255, 255, 255)" style="fill-opacity:1.00" />
<!-- End 'C' -->
<!-- Begin 'A' -->
<polygon points=" 330.000000, 110.000000, 351.000000, 109.512324, 359.000000, 109.512324, 380.000000, 110.000000, 372.500000, 110.000000, 366.250000, 109.878081, 343.750000, 109.878081, 337.500000, 110.000000" fill="rgb(178, 34, 34)" style="fill-opacity:1.00" />
<!-- End 'A' -->
<!-- Begin 'C' -->
<ellipse cx="415.000000" cy="81.073493" rx="25.000000" ry="13.181279" fill="rgb(0, 0, 128)" style="fill-opacity:1.00" />
<ellipse cx="415.000000" cy="81.073493" rx="16.666667" ry="8.787520" fill="rgb(255, 255, 255)" style="fill-opacity:1.00" />
<rect height="13.181279" width="25.000000" x="415.000000" y="74.482854" fill="rgb(255, 255, 255)" style="fill-opacity:1.00" />
<!-- End 'C' -->
<!-- Begin 'A' -->
<polygon points=" 390.000000, 108.351399, 411.000000, 94.254773, 419.000000, 94.254773, 440.000000, 108.351399, 432.500000, 108.351399, 426.250000, 104.827242, 403.750000, 104.827242, 397.500000, 108.351399" fill="rgb(178, 34, 34)" style="fill-opacity:1.00" />
<polygon points=" 415.000000, 97.074098, 407.000000, 101.712748, 422.000000, 101.712748" fill="rgb(255, 255, 255)" style="fill-opacity:1.00" />
<!-- End 'A' -->
<!-- Begin 'G' -->
<ellipse cx="415.000000" cy="109.056648" rx="25.000000" ry="0.705249" fill="rgb(255, 165, 0)" style="fill-opacity:1.00" />
<ellipse cx="415.000000" cy="109.056648" rx="16.666667" ry="0.470166" fill="rgb(255, 255, 255)" style="fill-opacity:1.00" />
<rect height="0.705249" width="25.000000" x="415.000000" y="108.704023" fill="rgb(255, 255, 255)" style="fill-opacity:1.00" />
<rect height="0.176312" width="25.000000" x="415.000000" y="109.232960" fill="rgb(255, 165, 0)" style="fill-opacity:1.00" />
<rect height="0.528937" width="6.250000" x="433.750000" y="109.232960" fill="rgb(255, 165, 0)" style="fill-opacity:1.00" />
<!-- End 'G' -->
<!-- Begin 'T' -->
<rect height="0.038097" width="50.000000" x="390.000000" y="109.761897" fill="rgb(0, 100, 0)" style="fill-opacity:1.00" />
<rect height="0.238103" width="10.000000" x="410.000000" y="109.761897" fill="rgb(0, 100, 0)" style="fill-opacity:1.00" />
<!-- End 'T' -->
<!-- Begin 'T' -->
<rect height="12.567722" width="50.000000" x="450.000000" y="27.255999" fill="rgb(0, 100, 0)" style="fill-opacity:1.00" />
<rect height="78.548264" width="10.000000" x="470.000000" y="27.255999" fill="rgb(0, 100, 0)" style="fill-opacity:1.00" />
<!-- End 'T' -->
<!-- Begin 'A' -->
<polygon points=" 450.000000, 108.668630, 471.000000, 105.804263, 479.000000, 105.804263, 500.000000, 108.668630, 492.500000, 108.668630, 486.250000, 107.952538, 463.750000, 107.952538, 457.500000, 108.668630" fill="rgb(178, 34, 34)" style="fill-opacity:1.00" />
<!-- End 'A' -->
<!-- Begin 'C' -->
<ellipse cx="475.000000" cy="109.231062" rx="25.000000" ry="0.562432" fill="rgb(0, 0, 128)" style="fill-opacity:1.00" />
<ellipse cx="475.000000" cy="109.231062" rx="16.666667" ry="0.374955" fill="rgb(255, 255, 255)" style="fill-opacity:1.00" />
<rect height="0.562432" width="25.000000" x="475.000000" y="108.949846" fill="rgb(255, 255, 255)" style="fill-opacity:1.00" />
<!-- End 'C' -->
<!-- Begin 'G' -->
<ellipse cx="475.000000" cy="109.896747" rx="25.000000" ry="0.103253" fill="rgb(255, 165, 0)" style="fill-opacity:1.00" />
<ellipse cx="475.000000" cy="109.896747" rx="16.666667" ry="0.068835" fill="rgb(255, 255, 255)" style="fill-opacity:1.00" />
<rect height="0.103253" width="25.000000" x="475.000000" y="109.845120" fill="rgb(255, 255, 255)" style="fill-opacity:1.00" />
<rect height="0.025813" width="25.000000" x="475.000000" y="109.922560" fill="rgb(255, 165, 0)" style="fill-opacity:1.00" />
<rect height="0.077440" width="6.250000" x="493.750000" y="109.922560" fill="rgb(255, 165, 0)" style="fill-opacity:1.00" />
<!-- End 'G' -->
<!-- Begin 'G' -->
<ellipse cx="535.000000" cy="63.293703" rx="25.000000" ry="44.499014" fill="rgb(255, 165, 0)" style="fill-opacity:1.00" />
<ellipse cx="535.000000" cy="63.293703" rx="16.666667" ry="29.666009" fill="rgb(255, 255, 255)" style="fill-opacity:1.00" />
<rect height="44.499014" width="25.000000" x="535.000000" y="41.044196" fill="rgb(255, 255, 255)" style="fill-opacity:1.00" />
<rect height="11.124753" width="25.000000" x="535.000000" y="74.418456" fill="rgb(255, 165, 0)" style="fill-opacity:1.00" />
<rect height="33.374260" width="6.250000" x="553.750000" y="74.418456" fill="rgb(255, 165, 0)" style="fill-opacity:1.00" />
<!-- End 'G' -->
<!-- Begin 'T' -->
<rect height="0.325531" width="50.000000" x="510.000000" y="107.792717" fill="rgb(0, 100, 0)" style="fill-opacity:1.00" />
<rect height="2.034572" width="10.000000" x="530.000000" y="107.792717" fill="rgb(0, 100, 0)" style="fill-opacity:1.00" />
<!-- End 'T' -->
<!-- Begin 'A' -->
<polygon points=" 510.000000, 109.917701, 531.000000, 109.827288, 539.000000, 109.827288, 560.000000, 109.917701, 552.500000, 109.917701, 546.250000, 109.895097, 523.750000, 109.895097, 517.500000, 109.917701" fill="rgb(178, 34, 34)" style="fill-opacity:1.00" />
<!-- End 'A' -->
<!-- Begin 'C' -->
<ellipse cx="535.000000" cy="109.958850" rx="25.000000" ry="0.041150" fill="rgb(0, 0, 128)" style="fill-opacity:1.00" />
<ellipse cx="535.000000" cy="109.958850" rx="16.666667" ry="0.027433" fill="rgb(255, 255, 255)" style="fill-opacity:1.00" />
<rect height="0.041150" width="25.000000" x="535.000000" y="109.938275" fill="rgb(255, 255, 255)" style="fill-opacity:1.00" />
<!-- End 'C' -->
<!-- Begin 'G' -->
<ellipse cx="595.000000" cy="97.843764" rx="25.000000" ry="3.315001" fill="rgb(255, 165, 0)" style="fill-opacity:1.00" />
<ellipse cx="595.000000" cy="97.843764" rx="16.666667" ry="2.210001" fill="rgb(255, 255, 255)" style="fill-opacity:1.00" />
<rect height="3.315001" width="25.000000" x="595.000000" y="96.186263" fill="rgb(255, 255, 255)" style="fill-opacity:1.00" />
<rect height="0.828750" width="25.000000" x="595.000000" y="98.672514" fill="rgb(255, 165, 0)" style="fill-opacity:1.00" />
<rect height="2.486251" width="6.250000" x="613.750000" y="98.672514" fill="rgb(255, 165, 0)" style="fill-opacity:1.00" />
<!-- End 'G' -->
<!-- Begin 'C' -->
<ellipse cx="595.000000" cy="103.336708" rx="25.000000" ry="2.177943" fill="rgb(0, 0, 128)" style="fill-opacity:1.00" />
<ellipse cx="595.000000" cy="103.336708" rx="16.666667" ry="1.451962" fill="rgb(255, 255, 255)" style="fill-opacity:1.00" />
<rect height="2.177943" width="25.000000" x="595.000000" y="102.247736" fill="rgb(255, 255, 255)" style="fill-opacity:1.00" />
<!-- End 'C' -->
<!-- Begin 'T' -->
<rect height="0.647430" width="50.000000" x="570.000000" y="105.514650" fill="rgb(0, 100, 0)" style="fill-opacity:1.00" />
<rect height="4.046436" width="10.000000" x="590.000000" y="105.514650" fill="rgb(0, 100, 0)" style="fill-opacity:1.00" />
<!-- End 'T' -->
<!-- Begin 'A' -->
<polygon points=" 570.000000, 110.000000, 591.000000, 109.561086, 599.000000, 109.561086, 620.000000, 110.000000, 612.500000, 110.000000, 606.250000, 109.890272, 583.750000, 109.890272, 577.500000, 110.000000" fill="rgb(178, 34, 34)" style="fill-opacity:1.00" />
<!-- End 'A' -->
<!-- Begin 'C' -->
<ellipse cx="655.000000" cy="103.669510" rx="25.000000" ry="1.498702" fill="rgb(0, 0, 128)" style="fill-opacity:1.00" />
<ellipse cx="655.000000" cy="103.669510" rx="16.666667" ry="0.999134" fill="rgb(255, 255, 255)" style="fill-opacity:1.00" />
<rect height="1.498702" width="25.000000" x="655.000000" y="102.920159" fill="rgb(255, 255, 255)" style="fill-opacity:1.00" />
<!-- End 'C' -->
<!-- Begin 'T' -->
<rect height="0.430518" width="50.000000" x="630.000000" y="105.168212" fill="rgb(0, 100, 0)" style="fill-opacity:1.00" />
<rect height="2.690739" width="10.000000" x="650.000000" y="105.168212" fill="rgb(0, 100, 0)" style="fill-opacity:1.00" />
<!-- End 'T' -->
<!-- Begin 'G' -->
<ellipse cx="655.000000" cy="108.440230" rx="25.000000" ry="0.581280" fill="rgb(255, 165, 0)" style="fill-opacity:1.00" />
<ellipse cx="655.000000" cy="108.440230" rx="16.666667" ry="0.387520" fill="rgb(255, 255, 255)" style="fill-opacity:1.00" />
<rect height="0.581280" width="25.000000" x="655.000000" y="108.149590" fill="rgb(255, 255, 255)" style="fill-opacity:1.00" />
<rect height="0.145320" width="25.000000" x="655.000000" y="108.585550" fill="rgb(255, 165, 0)" style="fill-opacity:1.00" />
<rect height="0.435960" width="6.250000" x="673.750000" y="108.585550" fill="rgb(255, 165, 0)" style="fill-opacity:1.00" />
<!-- End 'G' -->
<!-- Begin 'A' -->
<polygon points=" 630.000000, 110.000000, 651.000000, 109.021510, 659.000000, 109.021510, 680.000000, 110.000000, 672.500000, 110.000000, 666.250000, 109.755378, 643.750000, 109.755378, 637.500000, 110.000000" fill="rgb(178, 34, 34)" style="fill-opacity:1.00" />
<!-- End 'A' -->
<text x="370.000000" y="165">
IC = 9.62
</text>

</svg>
