<?xml version="1.0" encoding="UTF-8" standalone="yes"?>
                 <!DOCTYPE svg PUBLIC "-//W3C//DTD SVG 1.0//EN" "http://www.w3.org/TR/2001/REC-SVG-20010904/DTD/svg10.dtd">
                 <svg height="170" width="900" xmlns="http://www.w3.org/2000/svg" xmlns:xlink="http://www.w3.org/1999/xlink">
                 <line x1="85" y1="120" x2="867" y2="120" style="stroke:rgb(99,99,99);stroke-width:2" />
<rect height="7.000000" width="2.000000" x="85.000000" y="120.000000" fill="rgb(0, 0, 0)" style="fill-opacity:1.00" />
<text x="107.000000" y="140">
1
</text>
<rect height="7.000000" width="2.000000" x="145.000000" y="120.000000" fill="rgb(0, 0, 0)" style="fill-opacity:1.00" />
<text x="167.000000" y="140">
2
</text>
<rect height="7.000000" width="2.000000" x="205.000000" y="120.000000" fill="rgb(0, 0, 0)" style="fill-opacity:1.00" />
<text x="227.000000" y="140">
3
</text>
<rect height="7.000000" width="2.000000" x="265.000000" y="120.000000" fill="rgb(0, 0, 0)" style="fill-opacity:1.00" />
<text x="287.000000" y="140">
4
</text>
<rect height="7.000000" width="2.000000" x="325.000000" y="120.000000" fill="rgb(0, 0, 0)" style="fill-opacity:1.00" />
<text x="347.000000" y="140">
5
</text>
<rect height="7.000000" width="2.000000" x="385.000000" y="120.000000" fill="rgb(0, 0, 0)" style="fill-opacity:1.00" />
<text x="407.000000" y="140">
6
</text>
<rect height="7.000000" width="2.000000" x="445.000000" y="120.000000" fill="rgb(0, 0, 0)" style="fill-opacity:1.00" />
<text x="467.000000" y="140">
7
</text>
<rect height="7.000000" width="2.000000" x="505.000000" y="120.000000" fill="rgb(0, 0, 0)" style="fill-opacity:1.00" />
<text x="527.000000" y="140">
8
</text>
<rect height="7.000000" width="2.000000" x="565.000000" y="120.000000" fill="rgb(0, 0, 0)" style="fill-opacity:1.00" />
<text x="587.000000" y="140">
9
</text>
<rect height="7.000000" width="2.000000" x="625.000000" y="120.000000" fill="rgb(0, 0, 0)" style="fill-opacity:1.00" />
<text x="647.000000" y="140">
10
</text>
<rect height="7.000000" width="2.000000" x="685.000000" y="120.000000" fill="rgb(0, 0, 0)" style="fill-opacity:1.00" />
<text x="707.000000" y="140">
11
</text>
<rect height="7.000000" width="2.000000" x="745.000000" y="120.000000" fill="rgb(0, 0, 0)" style="fill-opacity:1.00" />
<text x="767.000000" y="140">
12
</text>
<rect height="7.000000" width="2.000000" x="805.000000" y="120.000000" fill="rgb(0, 0, 0)" style="fill-opacity:1.00" />
<text x="827.000000" y="140">
13
</text>
<rect height="7.000000" width="2.000000" x="865.000000" y="120.000000" fill="rgb(0, 0, 0)" style="fill-opacity:1.00" />
<line x1="80" y1="112" x2="80" y2="10" style="stroke:rgb(99,99,99);stroke-width:2" />
<rect height="2.000000" width="7.000000" x="73.000000" y="110.000000" fill="rgb(0, 0, 0)" style="fill-opacity:1.00" />
<text x="63" y="115">
0
</text>
<rect height="2.000000" width="7.000000" x="73.000000" y="60.000000" fill="rgb(0, 0, 0)" style="fill-opacity:1.00" />
<text x="63" y="65">
1
</text>
<rect height="2.000000" width="7.000000" x="73.000000" y="10.000000" fill="rgb(0, 0, 0)" style="fill-opacity:1.00" />
<text x="63" y="15">
2
</text>
<text x="50" y="65"
transform="rotate(-90, 50, 70)">
bits
</text>
<!-- Begin 'T' -->
<rect height="0.154915" width="50.000000" x="90.000000" y="106.904484" fill="rgb(0, 100, 0)" style="fill-opacity:1.00" />
<rect height="0.968221" width="10.000000" x="110.000000" y="106.904484" fill="rgb(0, 100, 0)" style="fill-opacity:1.00" />
<!-- End 'T' -->
<!-- Begin 'A' -->
<polygon points=" 90.000000, 108.781464, 111.000000, 107.872705, 119.000000, 107.872705, 140.000000, 108.781464, 132.500000, 108.781464, 126.250000, 108.554274, 103.750000, 108.554274, 97.500000, 108.781464" fill="rgb(178, 34, 34)" style="fill-opacity:1.00" />
<!-- End 'A' -->
<!-- Begin 'G' -->
<ellipse cx="115.000000" cy="109.181930" rx="25.000000" ry="0.400466" fill="rgb(255, 165, 0)" style="fill-opacity:1.00" />
<ellipse cx="115.000000" cy="109.181930" rx="16.666667" ry="0.266977" fill="rgb(255, 255, 255)" style="fill-opacity:1.00" />
<rect height="0.400466" width="25.000000" x="115.000000" y="108.981697" fill="rgb(255, 255, 255)" style="fill-opacity:1.00" />
<rect height="0.100116" width="25.000000" x="115.000000" y="109.282046" fill="rgb(255, 165, 0)" style="fill-opacity:1.00" />
<rect height="0.300349" width="6.250000" x="133.750000" y="109.282046" fill="rgb(255, 165, 0)" style="fill-opacity:1.00" />
<!-- End 'G' -->
<!-- Begin 'C' -->
<ellipse cx="115.000000" cy="109.791198" rx="25.000000" ry="0.208802" fill="rgb(0, 0, 128)" style="fill-opacity:1.00" />
<ellipse cx="115.000000" cy="109.791198" rx="16.666667" ry="0.139202" fill="rgb(255, 255, 255)" style="fill-opacity:1.00" />
<rect height="0.208802" width="25.000000" x="115.000000" y="109.686796" fill="rgb(255, 255, 255)" style="fill-opacity:1.00" />
<!-- End 'C' -->
<!-- Begin 'A' -->
<polygon points=" 150.000000, 103.562124, 171.000000, 98.527810, 179.000000, 98.527810, 200.000000, 103.562124, 192.500000, 103.562124, 186.250000, 102.303545, 163.750000, 102.303545, 157.500000, 103.562124" fill="rgb(178, 34, 34)" style="fill-opacity:1.00" />
<!-- End 'A' -->
<!-- Begin 'T' -->
<rect height="0.584763" width="50.000000" x="150.000000" y="103.562124" fill="rgb(0, 100, 0)" style="fill-opacity:1.00" />
<rect height="3.654769" width="10.000000" x="170.000000" y="103.562124" fill="rgb(0, 100, 0)" style="fill-opacity:1.00" />
<!-- End 'T' -->
<!-- Begin 'G' -->
<ellipse cx="175.000000" cy="108.114534" rx="25.000000" ry="0.897641" fill="rgb(255, 165, 0)" style="fill-opacity:1.00" />
<ellipse cx="175.000000" cy="108.114534" rx="16.666667" ry="0.598428" fill="rgb(255, 255, 255)" style="fill-opacity:1.00" />
<rect height="0.897641" width="25.000000" x="175.000000" y="107.665713" fill="rgb(255, 255, 255)" style="fill-opacity:1.00" />
<rect height="0.224410" width="25.000000" x="175.000000" y="108.338944" fill="rgb(255, 165, 0)" style="fill-opacity:1.00" />
<rect height="0.673231" width="6.250000" x="193.750000" y="108.338944" fill="rgb(255, 165, 0)" style="fill-opacity:1.00" />
<!-- End 'G' -->
<!-- Begin 'C' -->
<ellipse cx="175.000000" cy="109.506088" rx="25.000000" ry="0.493912" fill="rgb(0, 0, 128)" style="fill-opacity:1.00" />
<ellipse cx="175.000000" cy="109.506088" rx="16.666667" ry="0.329275" fill="rgb(255, 255, 255)" style="fill-opacity:1.00" />
<rect height="0.493912" width="25.000000" x="175.000000" y="109.259132" fill="rgb(255, 255, 255)" style="fill-opacity:1.00" />
<!-- End 'C' -->
<!-- Begin 'T' -->
<rect height="1.584651" width="50.000000" x="210.000000" y="88.322355" fill="rgb(0, 100, 0)" style="fill-opacity:1.00" />
<rect height="9.904066" width="10.000000" x="230.000000" y="88.322355" fill="rgb(0, 100, 0)" style="fill-opacity:1.00" />
<!-- End 'T' -->
<!-- Begin 'A' -->
<polygon points=" 210.000000, 107.083164, 231.000000, 98.226421, 239.000000, 98.226421, 260.000000, 107.083164, 252.500000, 107.083164, 246.250000, 104.868978, 223.750000, 104.868978, 217.500000, 107.083164" fill="rgb(178, 34, 34)" style="fill-opacity:1.00" />
<polygon points=" 235.000000, 99.997770, 227.000000, 102.540467, 242.000000, 102.540467" fill="rgb(255, 255, 255)" style="fill-opacity:1.00" />
<!-- End 'A' -->
<!-- Begin 'G' -->
<ellipse cx="235.000000" cy="107.900021" rx="25.000000" ry="0.816857" fill="rgb(255, 165, 0)" style="fill-opacity:1.00" />
<ellipse cx="235.000000" cy="107.900021" rx="16.666667" ry="0.544571" fill="rgb(255, 255, 255)" style="fill-opacity:1.00" />
<rect height="0.816857" width="25.000000" x="235.000000" y="107.491593" fill="rgb(255, 255, 255)" style="fill-opacity:1.00" />
<rect height="0.204214" width="25.000000" x="235.000000" y="108.104235" fill="rgb(255, 165, 0)" style="fill-opacity:1.00" />
<rect height="0.612643" width="6.250000" x="253.750000" y="108.104235" fill="rgb(255, 165, 0)" style="fill-opacity:1.00" />
<!-- End 'G' -->
<!-- Begin 'C' -->
<ellipse cx="235.000000" cy="109.358439" rx="25.000000" ry="0.641561" fill="rgb(0, 0, 128)" style="fill-opacity:1.00" />
<ellipse cx="235.000000" cy="109.358439" rx="16.666667" ry="0.427707" fill="rgb(255, 255, 255)" style="fill-opacity:1.00" />
<rect height="0.641561" width="25.000000" x="235.000000" y="109.037659" fill="rgb(255, 255, 255)" style="fill-opacity:1.00" />
<!-- End 'C' -->
<!-- Begin 'A' -->
<polygon points=" 270.000000, 105.307394, 291.000000, 102.400683, 299.000000, 102.400683, 320.000000, 105.307394, 312.500000, 105.307394, 306.250000, 104.580716, 283.750000, 104.580716, 277.500000, 105.307394" fill="rgb(178, 34, 34)" style="fill-opacity:1.00" />
<!-- End 'A' -->
<!-- Begin 'G' -->
<ellipse cx="295.000000" cy="106.321681" rx="25.000000" ry="1.014287" fill="rgb(255, 165, 0)" style="fill-opacity:1.00" />
<ellipse cx="295.000000" cy="106.321681" rx="16.666667" ry="0.676192" fill="rgb(255, 255, 255)" style="fill-opacity:1.00" />
<rect height="1.014287" width="25.000000" x="295.000000" y="105.814537" fill="rgb(255, 255, 255)" style="fill-opacity:1.00" />
<rect height="0.253572" width="25.000000" x="295.000000" y="106.575253" fill="rgb(255, 165, 0)" style="fill-opacity:1.00" />
<rect height="0.760716" width="6.250000" x="313.750000" y="106.575253" fill="rgb(255, 165, 0)" style="fill-opacity:1.00" />
<!-- End 'G' -->
<!-- Begin 'T' -->
<rect height="0.323795" width="50.000000" x="270.000000" y="107.335968" fill="rgb(0, 100, 0)" style="fill-opacity:1.00" />
<rect height="2.023720" width="10.000000" x="290.000000" y="107.335968" fill="rgb(0, 100, 0)" style="fill-opacity:1.00" />
<!-- End 'T' -->
<!-- Begin 'C' -->
<ellipse cx="295.000000" cy="109.679844" rx="25.000000" ry="0.320156" fill="rgb(0, 0, 128)" style="fill-opacity:1.00" />
<ellipse cx="295.000000" cy="109.679844" rx="16.666667" ry="0.213437" fill="rgb(255, 255, 255)" style="fill-opacity:1.00" />
<rect height="0.320156" width="25.000000" x="295.000000" y="109.519766" fill="rgb(255, 255, 255)" style="fill-opacity:1.00" />
<!-- End 'C' -->
<!-- Begin 'A' -->
<polygon points=" 330.000000, 103.099565, 351.000000, 98.682563, 359.000000, 98.682563, 380.000000, 103.099565, 372.500000, 103.099565, 366.250000, 101.995315, 343.750000, 101.995315, 337.500000, 103.099565" fill="rgb(178, 34, 34)" style="fill-opacity:1.00" />
<!-- End 'A' -->
<!-- Begin 'T' -->
<rect height="0.691079" width="50.000000" x="330.000000" y="103.099565" fill="rgb(0, 100, 0)" style="fill-opacity:1.00" />
<rect height="4.319245" width="10.000000" x="350.000000" y="103.099565" fill="rgb(0, 100, 0)" style="fill-opacity:1.00" />
<!-- End 'T' -->
<!-- Begin 'G' -->
<ellipse cx="355.000000" cy="108.112185" rx="25.000000" ry="0.693374" fill="rgb(255, 165, 0)" style="fill-opacity:1.00" />
<ellipse cx="355.000000" cy="108.112185" rx="16.666667" ry="0.462250" fill="rgb(255, 255, 255)" style="fill-opacity:1.00" />
<rect height="0.693374" width="25.000000" x="355.000000" y="107.765498" fill="rgb(255, 255, 255)" style="fill-opacity:1.00" />
<rect height="0.173344" width="25.000000" x="355.000000" y="108.285528" fill="rgb(255, 165, 0)" style="fill-opacity:1.00" />
<rect height="0.520031" width="6.250000" x="373.750000" y="108.285528" fill="rgb(255, 165, 0)" style="fill-opacity:1.00" />
<!-- End 'G' -->
<!-- Begin 'C' -->
<ellipse cx="355.000000" cy="109.402780" rx="25.000000" ry="0.597220" fill="rgb(0, 0, 128)" style="fill-opacity:1.00" />
<ellipse cx="355.000000" cy="109.402780" rx="16.666667" ry="0.398147" fill="rgb(255, 255, 255)" style="fill-opacity:1.00" />
<rect height="0.597220" width="25.000000" x="355.000000" y="109.104169" fill="rgb(255, 255, 255)" style="fill-opacity:1.00" />
<!-- End 'C' -->
<!-- Begin 'G' -->
<ellipse cx="415.000000" cy="93.640512" rx="25.000000" ry="4.926927" fill="rgb(255, 165, 0)" style="fill-opacity:1.00" />
<ellipse cx="415.000000" cy="93.640512" rx="16.666667" ry="3.284618" fill="rgb(255, 255, 255)" style="fill-opacity:1.00" />
<rect height="4.926927" width="25.000000" x="415.000000" y="91.177049" fill="rgb(255, 255, 255)" style="fill-opacity:1.00" />
<rect height="1.231732" width="25.000000" x="415.000000" y="94.872244" fill="rgb(255, 165, 0)" style="fill-opacity:1.00" />
<rect height="3.695196" width="6.250000" x="433.750000" y="94.872244" fill="rgb(255, 165, 0)" style="fill-opacity:1.00" />
<!-- End 'G' -->
<!-- Begin 'A' -->
<polygon points=" 390.000000, 106.787476, 411.000000, 98.567440, 419.000000, 98.567440, 440.000000, 106.787476, 432.500000, 106.787476, 426.250000, 104.732467, 403.750000, 104.732467, 397.500000, 106.787476" fill="rgb(178, 34, 34)" style="fill-opacity:1.00" />
<polygon points=" 415.000000, 100.211447, 407.000000, 102.499461, 422.000000, 102.499461" fill="rgb(255, 255, 255)" style="fill-opacity:1.00" />
<!-- End 'A' -->
<!-- Begin 'T' -->
<rect height="0.394505" width="50.000000" x="390.000000" y="106.787476" fill="rgb(0, 100, 0)" style="fill-opacity:1.00" />
<rect height="2.465655" width="10.000000" x="410.000000" y="106.787476" fill="rgb(0, 100, 0)" style="fill-opacity:1.00" />
<!-- End 'T' -->
<!-- Begin 'C' -->
<ellipse cx="415.000000" cy="109.626565" rx="25.000000" ry="0.373435" fill="rgb(0, 0, 128)" style="fill-opacity:1.00" />
<ellipse cx="415.000000" cy="109.626565" rx="16.666667" ry="0.248957" fill="rgb(255, 255, 255)" style="fill-opacity:1.00" />
<rect height="0.373435" width="25.000000" x="415.000000" y="109.439848" fill="rgb(255, 255, 255)" style="fill-opacity:1.00" />
<!-- End 'C' -->
<!-- Begin 'G' -->
<ellipse cx="475.000000" cy="62.778918" rx="25.000000" ry="45.746171" fill="rgb(255, 165, 0)" style="fill-opacity:1.00" />
<ellipse cx="475.000000" cy="62.778918" rx="16.666667" ry="30.497448" fill="rgb(255, 255, 255)" style="fill-opacity:1.00" />
<rect height="45.746171" width="25.000000" x="475.000000" y="39.905832" fill="rgb(255, 255, 255)" style="fill-opacity:1.00" />
<rect height="11.436543" width="25.000000" x="475.000000" y="74.215461" fill="rgb(255, 165, 0)" style="fill-opacity:1.00" />
<rect height="34.309629" width="6.250000" x="493.750000" y="74.215461" fill="rgb(255, 165, 0)" style="fill-opacity:1.00" />
<!-- End 'G' -->
<!-- Begin 'T' -->
<rect height="0.127117" width="50.000000" x="450.000000" y="108.525089" fill="rgb(0, 100, 0)" style="fill-opacity:1.00" />
<rect height="0.794479" width="10.000000" x="470.000000" y="108.525089" fill="rgb(0, 100, 0)" style="fill-opacity:1.00" />
<!-- End 'T' -->
<!-- Begin 'A' -->
<polygon points=" 450.000000, 109.671692, 471.000000, 109.319568, 479.000000, 109.319568, 500.000000, 109.671692, 492.500000, 109.671692, 486.250000, 109.583661, 463.750000, 109.583661, 457.500000, 109.671692" fill="rgb(178, 34, 34)" style="fill-opacity:1.00" />
<!-- End 'A' -->
<!-- Begin 'C' -->
<ellipse cx="475.000000" cy="109.835846" rx="25.000000" ry="0.164154" fill="rgb(0, 0, 128)" style="fill-opacity:1.00" />
<ellipse cx="475.000000" cy="109.835846" rx="16.666667" ry="0.109436" fill="rgb(255, 255, 255)" style="fill-opacity:1.00" />
<rect height="0.164154" width="25.000000" x="475.000000" y="109.753769" fill="rgb(255, 255, 255)" style="fill-opacity:1.00" />
<!-- End 'C' -->
<!-- Begin 'A' -->
<polygon points=" 510.000000, 108.743884, 531.000000, 16.109693, 539.000000, 16.109693, 560.000000, 108.743884, 552.500000, 108.743884, 546.250000, 85.585336, 523.750000, 85.585336, 517.500000, 108.743884" fill="rgb(178, 34, 34)" style="fill-opacity:1.00" />
<polygon points=" 535.000000, 34.636531, 527.000000, 70.690208, 542.000000, 70.690208" fill="rgb(255, 255, 255)" style="fill-opacity:1.00" />
<!-- End 'A' -->
<!-- Begin 'G' -->
<ellipse cx="535.000000" cy="109.065554" rx="25.000000" ry="0.321670" fill="rgb(255, 165, 0)" style="fill-opacity:1.00" />
<ellipse cx="535.000000" cy="109.065554" rx="16.666667" ry="0.214447" fill="rgb(255, 255, 255)" style="fill-opacity:1.00" />
<rect height="0.321670" width="25.000000" x="535.000000" y="108.904719" fill="rgb(255, 255, 255)" style="fill-opacity:1.00" />
<rect height="0.080418" width="25.000000" x="535.000000" y="109.145972" fill="rgb(255, 165, 0)" style="fill-opacity:1.00" />
<rect height="0.241253" width="6.250000" x="553.750000" y="109.145972" fill="rgb(255, 165, 0)" style="fill-opacity:1.00" />
<!-- End 'G' -->
<!-- Begin 'C' -->
<ellipse cx="535.000000" cy="109.567155" rx="25.000000" ry="0.179931" fill="rgb(0, 0, 128)" style="fill-opacity:1.00" />
<ellipse cx="535.000000" cy="109.567155" rx="16.666667" ry="0.119954" fill="rgb(255, 255, 255)" style="fill-opacity:1.00" />
<rect height="0.179931" width="25.000000" x="535.000000" y="109.477190" fill="rgb(255, 255, 255)" style="fill-opacity:1.00" />
<!-- End 'C' -->
<!-- Begin 'T' -->
<rect height="0.040466" width="50.000000" x="510.000000" y="109.747086" fill="rgb(0, 100, 0)" style="fill-opacity:1.00" />
<rect height="0.252914" width="10.000000" x="530.000000" y="109.747086" fill="rgb(0, 100, 0)" style="fill-opacity:1.00" />
<!-- End 'T' -->
<!-- Begin 'T' -->
<rect height="12.587698" width="50.000000" x="570.000000" y="27.242144" fill="rgb(0, 100, 0)" style="fill-opacity:1.00" />
<rect height="78.673115" width="10.000000" x="590.000000" y="27.242144" fill="rgb(0, 100, 0)" style="fill-opacity:1.00" />
<!-- End 'T' -->
<!-- Begin 'A' -->
<polygon points=" 570.000000, 107.859598, 591.000000, 105.915259, 599.000000, 105.915259, 620.000000, 107.859598, 612.500000, 107.859598, 606.250000, 107.373513, 583.750000, 107.373513, 577.500000, 107.859598" fill="rgb(178, 34, 34)" style="fill-opacity:1.00" />
<!-- End 'A' -->
<!-- Begin 'G' -->
<ellipse cx="595.000000" cy="108.825696" rx="25.000000" ry="0.966098" fill="rgb(255, 165, 0)" style="fill-opacity:1.00" />
<ellipse cx="595.000000" cy="108.825696" rx="16.666667" ry="0.644065" fill="rgb(255, 255, 255)" style="fill-opacity:1.00" />
<rect height="0.966098" width="25.000000" x="595.000000" y="108.342647" fill="rgb(255, 255, 255)" style="fill-opacity:1.00" />
<rect height="0.241524" width="25.000000" x="595.000000" y="109.067221" fill="rgb(255, 165, 0)" style="fill-opacity:1.00" />
<rect height="0.724573" width="6.250000" x="613.750000" y="109.067221" fill="rgb(255, 165, 0)" style="fill-opacity:1.00" />
<!-- End 'G' -->
<!-- Begin 'C' -->
<ellipse cx="595.000000" cy="109.895897" rx="25.000000" ry="0.104103" fill="rgb(0, 0, 128)" style="fill-opacity:1.00" />
<ellipse cx="595.000000" cy="109.895897" rx="16.666667" ry="0.069402" fill="rgb(255, 255, 255)" style="fill-opacity:1.00" />
<rect height="0.104103" width="25.000000" x="595.000000" y="109.843846" fill="rgb(255, 255, 255)" style="fill-opacity:1.00" />
<!-- End 'C' -->
<!-- Begin 'A' -->
<polygon points=" 630.000000, 102.554593, 651.000000, 41.878894, 659.000000, 41.878894, 680.000000, 102.554593, 672.500000, 102.554593, 666.250000, 87.385668, 643.750000, 87.385668, 637.500000, 102.554593" fill="rgb(178, 34, 34)" style="fill-opacity:1.00" />
<polygon points=" 655.000000, 54.014034, 647.000000, 77.284313, 662.000000, 77.284313" fill="rgb(255, 255, 255)" style="fill-opacity:1.00" />
<!-- End 'A' -->
<!-- Begin 'G' -->
<ellipse cx="655.000000" cy="104.823295" rx="25.000000" ry="2.268702" fill="rgb(255, 165, 0)" style="fill-opacity:1.00" />
<ellipse cx="655.000000" cy="104.823295" rx="16.666667" ry="1.512468" fill="rgb(255, 255, 255)" style="fill-opacity:1.00" />
<rect height="2.268702" width="25.000000" x="655.000000" y="103.688944" fill="rgb(255, 255, 255)" style="fill-opacity:1.00" />
<rect height="0.567176" width="25.000000" x="655.000000" y="105.390470" fill="rgb(255, 165, 0)" style="fill-opacity:1.00" />
<rect height="1.701527" width="6.250000" x="673.750000" y="105.390470" fill="rgb(255, 165, 0)" style="fill-opacity:1.00" />
<!-- End 'G' -->
<!-- Begin 'T' -->
<rect height="0.351238" width="50.000000" x="630.000000" y="107.091997" fill="rgb(0, 100, 0)" style="fill-opacity:1.00" />
<rect height="2.195238" width="10.000000" x="650.000000" y="107.091997" fill="rgb(0, 100, 0)" style="fill-opacity:1.00" />
<!-- End 'T' -->
<!-- Begin 'C' -->
<ellipse cx="655.000000" cy="109.643618" rx="25.000000" ry="0.356382" fill="rgb(0, 0, 128)" style="fill-opacity:1.00" />
<ellipse cx="655.000000" cy="109.643618" rx="16.666667" ry="0.237588" fill="rgb(255, 255, 255)" style="fill-opacity:1.00" />
<rect height="0.356382" width="25.000000" x="655.000000" y="109.465427" fill="rgb(255, 255, 255)" style="fill-opacity:1.00" />
<!-- End 'C' -->
<!-- Begin 'A' -->
<polygon points=" 690.000000, 103.761525, 711.000000, 35.321229, 719.000000, 35.321229, 740.000000, 103.761525, 732.500000, 103.761525, 726.250000, 86.651451, 703.750000, 86.651451, 697.500000, 103.761525" fill="rgb(178, 34, 34)" style="fill-opacity:1.00" />
<polygon points=" 715.000000, 49.009289, 707.000000, 75.385407, 722.000000, 75.385407" fill="rgb(255, 255, 255)" style="fill-opacity:1.00" />
<!-- End 'A' -->
<!-- Begin 'G' -->
<ellipse cx="715.000000" cy="105.607054" rx="25.000000" ry="1.845528" fill="rgb(255, 165, 0)" style="fill-opacity:1.00" />
<ellipse cx="715.000000" cy="105.607054" rx="16.666667" ry="1.230352" fill="rgb(255, 255, 255)" style="fill-opacity:1.00" />
<rect height="1.845528" width="25.000000" x="715.000000" y="104.684290" fill="rgb(255, 255, 255)" style="fill-opacity:1.00" />
<rect height="0.461382" width="25.000000" x="715.000000" y="106.068436" fill="rgb(255, 165, 0)" style="fill-opacity:1.00" />
<rect height="1.384146" width="6.250000" x="733.750000" y="106.068436" fill="rgb(255, 165, 0)" style="fill-opacity:1.00" />
<!-- End 'G' -->
<!-- Begin 'T' -->
<rect height="0.385403" width="50.000000" x="690.000000" y="107.452582" fill="rgb(0, 100, 0)" style="fill-opacity:1.00" />
<rect height="2.408769" width="10.000000" x="710.000000" y="107.452582" fill="rgb(0, 100, 0)" style="fill-opacity:1.00" />
<!-- End 'T' -->
<!-- Begin 'C' -->
<ellipse cx="715.000000" cy="109.930676" rx="25.000000" ry="0.069324" fill="rgb(0, 0, 128)" style="fill-opacity:1.00" />
<ellipse cx="715.000000" cy="109.930676" rx="16.666667" ry="0.046216" fill="rgb(255, 255, 255)" style="fill-opacity:1.00" />
<rect height="0.069324" width="25.000000" x="715.000000" y="109.896013" fill="rgb(255, 255, 255)" style="fill-opacity:1.00" />
<!-- End 'C' -->
<!-- Begin 'G' -->
<ellipse cx="775.000000" cy="94.775539" rx="25.000000" ry="6.828135" fill="rgb(255, 165, 0)" style="fill-opacity:1.00" />
<ellipse cx="775.000000" cy="94.775539" rx="16.666667" ry="4.552090" fill="rgb(255, 255, 255)" style="fill-opacity:1.00" />
<rect height="6.828135" width="25.000000" x="775.000000" y="91.361471" fill="rgb(255, 255, 255)" style="fill-opacity:1.00" />
<rect height="1.707034" width="25.000000" x="775.000000" y="96.482573" fill="rgb(255, 165, 0)" style="fill-opacity:1.00" />
<rect height="5.121102" width="6.250000" x="793.750000" y="96.482573" fill="rgb(255, 165, 0)" style="fill-opacity:1.00" />
<!-- End 'G' -->
<!-- Begin 'T' -->
<rect height="0.512015" width="50.000000" x="750.000000" y="101.603675" fill="rgb(0, 100, 0)" style="fill-opacity:1.00" />
<rect height="3.200095" width="10.000000" x="770.000000" y="101.603675" fill="rgb(0, 100, 0)" style="fill-opacity:1.00" />
<!-- End 'T' -->
<!-- Begin 'A' -->
<polygon points=" 750.000000, 107.513322, 771.000000, 104.803769, 779.000000, 104.803769, 800.000000, 107.513322, 792.500000, 107.513322, 786.250000, 106.835934, 763.750000, 106.835934, 757.500000, 107.513322" fill="rgb(178, 34, 34)" style="fill-opacity:1.00" />
<!-- End 'A' -->
<!-- Begin 'C' -->
<ellipse cx="775.000000" cy="108.756661" rx="25.000000" ry="1.243339" fill="rgb(0, 0, 128)" style="fill-opacity:1.00" />
<ellipse cx="775.000000" cy="108.756661" rx="16.666667" ry="0.828893" fill="rgb(255, 255, 255)" style="fill-opacity:1.00" />
<rect height="1.243339" width="25.000000" x="775.000000" y="108.134991" fill="rgb(255, 255, 255)" style="fill-opacity:1.00" />
<!-- End 'C' -->
<!-- Begin 'A' -->
<polygon points=" 810.000000, 102.953069, 831.000000, 98.456842, 839.000000, 98.456842, 860.000000, 102.953069, 852.500000, 102.953069, 846.250000, 101.829012, 823.750000, 101.829012, 817.500000, 102.953069" fill="rgb(178, 34, 34)" style="fill-opacity:1.00" />
<!-- End 'A' -->
<!-- Begin 'G' -->
<ellipse cx="835.000000" cy="105.177352" rx="25.000000" ry="2.224283" fill="rgb(255, 165, 0)" style="fill-opacity:1.00" />
<ellipse cx="835.000000" cy="105.177352" rx="16.666667" ry="1.482856" fill="rgb(255, 255, 255)" style="fill-opacity:1.00" />
<rect height="2.224283" width="25.000000" x="835.000000" y="104.065210" fill="rgb(255, 255, 255)" style="fill-opacity:1.00" />
<rect height="0.556071" width="25.000000" x="835.000000" y="105.733423" fill="rgb(255, 165, 0)" style="fill-opacity:1.00" />
<rect height="1.668212" width="6.250000" x="853.750000" y="105.733423" fill="rgb(255, 165, 0)" style="fill-opacity:1.00" />
<!-- End 'G' -->
<!-- Begin 'C' -->
<ellipse cx="835.000000" cy="108.075052" rx="25.000000" ry="0.673417" fill="rgb(0, 0, 128)" style="fill-opacity:1.00" />
<ellipse cx="835.000000" cy="108.075052" rx="16.666667" ry="0.448944" fill="rgb(255, 255, 255)" style="fill-opacity:1.00" />
<rect height="0.673417" width="25.000000" x="835.000000" y="107.738344" fill="rgb(255, 255, 255)" style="fill-opacity:1.00" />
<!-- End 'C' -->
<!-- Begin 'T' -->
<rect height="0.200245" width="50.000000" x="810.000000" y="108.748469" fill="rgb(0, 100, 0)" style="fill-opacity:1.00" />
<rect height="1.251531" width="10.000000" x="830.000000" y="108.748469" fill="rgb(0, 100, 0)" style="fill-opacity:1.00" />
<!-- End 'T' -->
<text x="460.000000" y="165">
IC = 10.45
</text>

</svg>
