<?xml version="1.0" encoding="UTF-8" standalone="yes"?>
                 <!DOCTYPE svg PUBLIC "-//W3C//DTD SVG 1.0//EN" "http://www.w3.org/TR/2001/REC-SVG-20010904/DTD/svg10.dtd">
                 <svg height="170" width="960" xmlns="http://www.w3.org/2000/svg" xmlns:xlink="http://www.w3.org/1999/xlink">
                 <line x1="85" y1="120" x2="927" y2="120" style="stroke:rgb(99,99,99);stroke-width:2" />
<rect height="7.000000" width="2.000000" x="85.000000" y="120.000000" fill="rgb(0, 0, 0)" style="fill-opacity:1.00" />
<text x="107.000000" y="140">
1
</text>
<rect height="7.000000" width="2.000000" x="145.000000" y="120.000000" fill="rgb(0, 0, 0)" style="fill-opacity:1.00" />
<text x="167.000000" y="140">
2
</text>
<rect height="7.000000" width="2.000000" x="205.000000" y="120.000000" fill="rgb(0, 0, 0)" style="fill-opacity:1.00" />
<text x="227.000000" y="140">
3
</text>
<rect height="7.000000" width="2.000000" x="265.000000" y="120.000000" fill="rgb(0, 0, 0)" style="fill-opacity:1.00" />
<text x="287.000000" y="140">
4
</text>
<rect height="7.000000" width="2.000000" x="325.000000" y="120.000000" fill="rgb(0, 0, 0)" style="fill-opacity:1.00" />
<text x="347.000000" y="140">
5
</text>
<rect height="7.000000" width="2.000000" x="385.000000" y="120.000000" fill="rgb(0, 0, 0)" style="fill-opacity:1.00" />
<text x="407.000000" y="140">
6
</text>
<rect height="7.000000" width="2.000000" x="445.000000" y="120.000000" fill="rgb(0, 0, 0)" style="fill-opacity:1.00" />
<text x="467.000000" y="140">
7
</text>
<rect height="7.000000" width="2.000000" x="505.000000" y="120.000000" fill="rgb(0, 0, 0)" style="fill-opacity:1.00" />
<text x="527.000000" y="140">
8
</text>
<rect height="7.000000" width="2.000000" x="565.000000" y="120.000000" fill="rgb(0, 0, 0)" style="fill-opacity:1.00" />
<text x="587.000000" y="140">
9
</text>
<rect height="7.000000" width="2.000000" x="625.000000" y="120.000000" fill="rgb(0, 0, 0)" style="fill-opacity:1.00" />
<text x="647.000000" y="140">
10
</text>
<rect height="7.000000" width="2.000000" x="685.000000" y="120.000000" fill="rgb(0, 0, 0)" style="fill-opacity:1.00" />
<text x="707.000000" y="140">
11
</text>
<rect height="7.000000" width="2.000000" x="745.000000" y="120.000000" fill="rgb(0, 0, 0)" style="fill-opacity:1.00" />
<text x="767.000000" y="140">
12
</text>
<rect height="7.000000" width="2.000000" x="805.000000" y="120.000000" fill="rgb(0, 0, 0)" style="fill-opacity:1.00" />
<text x="827.000000" y="140">
13
</text>
<rect height="7.000000" width="2.000000" x="865.000000" y="120.000000" fill="rgb(0, 0, 0)" style="fill-opacity:1.00" />
<text x="887.000000" y="140">
14
</text>
<rect height="7.000000" width="2.000000" x="925.000000" y="120.000000" fill="rgb(0, 0, 0)" style="fill-opacity:1.00" />
<line x1="80" y1="112" x2="80" y2="10" style="stroke:rgb(99,99,99);stroke-width:2" />
<rect height="2.000000" width="7.000000" x="73.000000" y="110.000000" fill="rgb(0, 0, 0)" style="fill-opacity:1.00" />
<text x="63" y="115">
0
</text>
<rect height="2.000000" width="7.000000" x="73.000000" y="60.000000" fill="rgb(0, 0, 0)" style="fill-opacity:1.00" />
<text x="63" y="65">
1
</text>
<rect height="2.000000" width="7.000000" x="73.000000" y="10.000000" fill="rgb(0, 0, 0)" style="fill-opacity:1.00" />
<text x="63" y="15">
2
</text>
<text x="50" y="65"
transform="rotate(-90, 50, 70)">
bits
</text>
<!-- Begin 'T' -->
<rect height="0.166486" width="50.000000" x="90.000000" y="107.145947" fill="rgb(0, 100, 0)" style="fill-opacity:1.00" />
<rect height="1.040540" width="10.000000" x="110.000000" y="107.145947" fill="rgb(0, 100, 0)" style="fill-opacity:1.00" />
<!-- End 'T' -->
<!-- Begin 'G' -->
<ellipse cx="115.000000" cy="108.552163" rx="25.000000" ry="0.365676" fill="rgb(255, 165, 0)" style="fill-opacity:1.00" />
<ellipse cx="115.000000" cy="108.552163" rx="16.666667" ry="0.243784" fill="rgb(255, 255, 255)" style="fill-opacity:1.00" />
<rect height="0.365676" width="25.000000" x="115.000000" y="108.369325" fill="rgb(255, 255, 255)" style="fill-opacity:1.00" />
<rect height="0.091419" width="25.000000" x="115.000000" y="108.643581" fill="rgb(255, 165, 0)" style="fill-opacity:1.00" />
<rect height="0.274257" width="6.250000" x="133.750000" y="108.643581" fill="rgb(255, 165, 0)" style="fill-opacity:1.00" />
<!-- End 'G' -->
<!-- Begin 'A' -->
<polygon points=" 90.000000, 109.488649, 111.000000, 108.917838, 119.000000, 108.917838, 140.000000, 109.488649, 132.500000, 109.488649, 126.250000, 109.345946, 103.750000, 109.345946, 97.500000, 109.488649" fill="rgb(178, 34, 34)" style="fill-opacity:1.00" />
<!-- End 'A' -->
<!-- Begin 'C' -->
<ellipse cx="115.000000" cy="109.744324" rx="25.000000" ry="0.255676" fill="rgb(0, 0, 128)" style="fill-opacity:1.00" />
<ellipse cx="115.000000" cy="109.744324" rx="16.666667" ry="0.170450" fill="rgb(255, 255, 255)" style="fill-opacity:1.00" />
<rect height="0.255676" width="25.000000" x="115.000000" y="109.616487" fill="rgb(255, 255, 255)" style="fill-opacity:1.00" />
<!-- End 'C' -->
<!-- Begin 'T' -->
<rect height="10.281443" width="50.000000" x="150.000000" y="39.256123" fill="rgb(0, 100, 0)" style="fill-opacity:1.00" />
<rect height="64.259021" width="10.000000" x="170.000000" y="39.256123" fill="rgb(0, 100, 0)" style="fill-opacity:1.00" />
<!-- End 'T' -->
<!-- Begin 'A' -->
<polygon points=" 150.000000, 106.168040, 171.000000, 103.515145, 179.000000, 103.515145, 200.000000, 106.168040, 192.500000, 106.168040, 186.250000, 105.504816, 163.750000, 105.504816, 157.500000, 106.168040" fill="rgb(178, 34, 34)" style="fill-opacity:1.00" />
<!-- End 'A' -->
<!-- Begin 'G' -->
<ellipse cx="175.000000" cy="107.236567" rx="25.000000" ry="1.068527" fill="rgb(255, 165, 0)" style="fill-opacity:1.00" />
<ellipse cx="175.000000" cy="107.236567" rx="16.666667" ry="0.712352" fill="rgb(255, 255, 255)" style="fill-opacity:1.00" />
<rect height="1.068527" width="25.000000" x="175.000000" y="106.702304" fill="rgb(255, 255, 255)" style="fill-opacity:1.00" />
<rect height="0.267132" width="25.000000" x="175.000000" y="107.503699" fill="rgb(255, 165, 0)" style="fill-opacity:1.00" />
<rect height="0.801395" width="6.250000" x="193.750000" y="107.503699" fill="rgb(255, 165, 0)" style="fill-opacity:1.00" />
<!-- End 'G' -->
<!-- Begin 'C' -->
<ellipse cx="175.000000" cy="109.152547" rx="25.000000" ry="0.847453" fill="rgb(0, 0, 128)" style="fill-opacity:1.00" />
<ellipse cx="175.000000" cy="109.152547" rx="16.666667" ry="0.564968" fill="rgb(255, 255, 255)" style="fill-opacity:1.00" />
<rect height="0.847453" width="25.000000" x="175.000000" y="108.728821" fill="rgb(255, 255, 255)" style="fill-opacity:1.00" />
<!-- End 'C' -->
<!-- Begin 'T' -->
<rect height="9.313794" width="50.000000" x="210.000000" y="43.630923" fill="rgb(0, 100, 0)" style="fill-opacity:1.00" />
<rect height="58.211212" width="10.000000" x="230.000000" y="43.630923" fill="rgb(0, 100, 0)" style="fill-opacity:1.00" />
<!-- End 'T' -->
<!-- Begin 'C' -->
<ellipse cx="235.000000" cy="104.642080" rx="25.000000" ry="2.799945" fill="rgb(0, 0, 128)" style="fill-opacity:1.00" />
<ellipse cx="235.000000" cy="104.642080" rx="16.666667" ry="1.866630" fill="rgb(255, 255, 255)" style="fill-opacity:1.00" />
<rect height="2.799945" width="25.000000" x="235.000000" y="103.242107" fill="rgb(255, 255, 255)" style="fill-opacity:1.00" />
<!-- End 'C' -->
<!-- Begin 'G' -->
<ellipse cx="235.000000" cy="108.513609" rx="25.000000" ry="1.071584" fill="rgb(255, 165, 0)" style="fill-opacity:1.00" />
<ellipse cx="235.000000" cy="108.513609" rx="16.666667" ry="0.714389" fill="rgb(255, 255, 255)" style="fill-opacity:1.00" />
<rect height="1.071584" width="25.000000" x="235.000000" y="107.977817" fill="rgb(255, 255, 255)" style="fill-opacity:1.00" />
<rect height="0.267896" width="25.000000" x="235.000000" y="108.781505" fill="rgb(255, 165, 0)" style="fill-opacity:1.00" />
<rect height="0.803688" width="6.250000" x="253.750000" y="108.781505" fill="rgb(255, 165, 0)" style="fill-opacity:1.00" />
<!-- End 'G' -->
<!-- Begin 'A' -->
<polygon points=" 210.000000, 110.000000, 231.000000, 109.585193, 239.000000, 109.585193, 260.000000, 110.000000, 252.500000, 110.000000, 246.250000, 109.896298, 223.750000, 109.896298, 217.500000, 110.000000" fill="rgb(178, 34, 34)" style="fill-opacity:1.00" />
<!-- End 'A' -->
<!-- Begin 'C' -->
<ellipse cx="295.000000" cy="70.916493" rx="25.000000" ry="32.863121" fill="rgb(0, 0, 128)" style="fill-opacity:1.00" />
<ellipse cx="295.000000" cy="70.916493" rx="16.666667" ry="21.908747" fill="rgb(255, 255, 255)" style="fill-opacity:1.00" />
<rect height="32.863121" width="25.000000" x="295.000000" y="54.484933" fill="rgb(255, 255, 255)" style="fill-opacity:1.00" />
<!-- End 'C' -->
<!-- Begin 'A' -->
<polygon points=" 270.000000, 106.102891, 291.000000, 103.779614, 299.000000, 103.779614, 320.000000, 106.102891, 312.500000, 106.102891, 306.250000, 105.522072, 283.750000, 105.522072, 277.500000, 106.102891" fill="rgb(178, 34, 34)" style="fill-opacity:1.00" />
<!-- End 'A' -->
<!-- Begin 'T' -->
<rect height="0.323760" width="50.000000" x="270.000000" y="106.102891" fill="rgb(0, 100, 0)" style="fill-opacity:1.00" />
<rect height="2.023499" width="10.000000" x="290.000000" y="106.102891" fill="rgb(0, 100, 0)" style="fill-opacity:1.00" />
<!-- End 'T' -->
<!-- Begin 'G' -->
<ellipse cx="295.000000" cy="109.063195" rx="25.000000" ry="0.936805" fill="rgb(255, 165, 0)" style="fill-opacity:1.00" />
<ellipse cx="295.000000" cy="109.063195" rx="16.666667" ry="0.624537" fill="rgb(255, 255, 255)" style="fill-opacity:1.00" />
<rect height="0.936805" width="25.000000" x="295.000000" y="108.594792" fill="rgb(255, 255, 255)" style="fill-opacity:1.00" />
<rect height="0.234201" width="25.000000" x="295.000000" y="109.297396" fill="rgb(255, 165, 0)" style="fill-opacity:1.00" />
<rect height="0.702604" width="6.250000" x="313.750000" y="109.297396" fill="rgb(255, 165, 0)" style="fill-opacity:1.00" />
<!-- End 'G' -->
<!-- Begin 'C' -->
<ellipse cx="355.000000" cy="70.387137" rx="25.000000" ry="29.529589" fill="rgb(0, 0, 128)" style="fill-opacity:1.00" />
<ellipse cx="355.000000" cy="70.387137" rx="16.666667" ry="19.686393" fill="rgb(255, 255, 255)" style="fill-opacity:1.00" />
<rect height="29.529589" width="25.000000" x="355.000000" y="55.622342" fill="rgb(255, 255, 255)" style="fill-opacity:1.00" />
<!-- End 'C' -->
<!-- Begin 'T' -->
<rect height="1.590276" width="50.000000" x="330.000000" y="99.916726" fill="rgb(0, 100, 0)" style="fill-opacity:1.00" />
<rect height="9.939228" width="10.000000" x="350.000000" y="99.916726" fill="rgb(0, 100, 0)" style="fill-opacity:1.00" />
<!-- End 'T' -->
<!-- Begin 'G' -->
<ellipse cx="355.000000" cy="109.891965" rx="25.000000" ry="0.036012" fill="rgb(255, 165, 0)" style="fill-opacity:1.00" />
<ellipse cx="355.000000" cy="109.891965" rx="16.666667" ry="0.024008" fill="rgb(255, 255, 255)" style="fill-opacity:1.00" />
<rect height="0.036012" width="25.000000" x="355.000000" y="109.873959" fill="rgb(255, 255, 255)" style="fill-opacity:1.00" />
<rect height="0.009003" width="25.000000" x="355.000000" y="109.900968" fill="rgb(255, 165, 0)" style="fill-opacity:1.00" />
<rect height="0.027009" width="6.250000" x="373.750000" y="109.900968" fill="rgb(255, 165, 0)" style="fill-opacity:1.00" />
<!-- End 'G' -->
<!-- Begin 'A' -->
<polygon points=" 330.000000, 110.000000, 351.000000, 109.927977, 359.000000, 109.927977, 380.000000, 110.000000, 372.500000, 110.000000, 366.250000, 109.981994, 343.750000, 109.981994, 337.500000, 110.000000" fill="rgb(178, 34, 34)" style="fill-opacity:1.00" />
<!-- End 'A' -->
<!-- Begin 'T' -->
<rect height="15.667203" width="50.000000" x="390.000000" y="11.773020" fill="rgb(0, 100, 0)" style="fill-opacity:1.00" />
<rect height="97.920021" width="10.000000" x="410.000000" y="11.773020" fill="rgb(0, 100, 0)" style="fill-opacity:1.00" />
<!-- End 'T' -->
<!-- Begin 'G' -->
<ellipse cx="415.000000" cy="109.744201" rx="25.000000" ry="0.051160" fill="rgb(255, 165, 0)" style="fill-opacity:1.00" />
<ellipse cx="415.000000" cy="109.744201" rx="16.666667" ry="0.034107" fill="rgb(255, 255, 255)" style="fill-opacity:1.00" />
<rect height="0.051160" width="25.000000" x="415.000000" y="109.718621" fill="rgb(255, 255, 255)" style="fill-opacity:1.00" />
<rect height="0.012790" width="25.000000" x="415.000000" y="109.756991" fill="rgb(255, 165, 0)" style="fill-opacity:1.00" />
<rect height="0.038370" width="6.250000" x="433.750000" y="109.756991" fill="rgb(255, 165, 0)" style="fill-opacity:1.00" />
<!-- End 'G' -->
<!-- Begin 'C' -->
<ellipse cx="415.000000" cy="109.846520" rx="25.000000" ry="0.051160" fill="rgb(0, 0, 128)" style="fill-opacity:1.00" />
<ellipse cx="415.000000" cy="109.846520" rx="16.666667" ry="0.034107" fill="rgb(255, 255, 255)" style="fill-opacity:1.00" />
<rect height="0.051160" width="25.000000" x="415.000000" y="109.820940" fill="rgb(255, 255, 255)" style="fill-opacity:1.00" />
<!-- End 'C' -->
<!-- Begin 'A' -->
<polygon points=" 390.000000, 110.000000, 411.000000, 109.897680, 419.000000, 109.897680, 440.000000, 110.000000, 432.500000, 110.000000, 426.250000, 109.974420, 403.750000, 109.974420, 397.500000, 110.000000" fill="rgb(178, 34, 34)" style="fill-opacity:1.00" />
<!-- End 'A' -->
<!-- Begin 'A' -->
<polygon points=" 450.000000, 95.927388, 471.000000, 83.665288, 479.000000, 83.665288, 500.000000, 95.927388, 492.500000, 95.927388, 486.250000, 92.861863, 463.750000, 92.861863, 457.500000, 95.927388" fill="rgb(178, 34, 34)" style="fill-opacity:1.00" />
<polygon points=" 475.000000, 86.117708, 467.000000, 90.022548, 482.000000, 90.022548" fill="rgb(255, 255, 255)" style="fill-opacity:1.00" />
<!-- End 'A' -->
<!-- Begin 'G' -->
<ellipse cx="475.000000" cy="101.482367" rx="25.000000" ry="5.554978" fill="rgb(255, 165, 0)" style="fill-opacity:1.00" />
<ellipse cx="475.000000" cy="101.482367" rx="16.666667" ry="3.703319" fill="rgb(255, 255, 255)" style="fill-opacity:1.00" />
<rect height="5.554978" width="25.000000" x="475.000000" y="98.704877" fill="rgb(255, 255, 255)" style="fill-opacity:1.00" />
<rect height="1.388745" width="25.000000" x="475.000000" y="102.871111" fill="rgb(255, 165, 0)" style="fill-opacity:1.00" />
<rect height="4.166234" width="6.250000" x="493.750000" y="102.871111" fill="rgb(255, 165, 0)" style="fill-opacity:1.00" />
<!-- End 'G' -->
<!-- Begin 'C' -->
<ellipse cx="475.000000" cy="108.230637" rx="25.000000" ry="1.193292" fill="rgb(0, 0, 128)" style="fill-opacity:1.00" />
<ellipse cx="475.000000" cy="108.230637" rx="16.666667" ry="0.795528" fill="rgb(255, 255, 255)" style="fill-opacity:1.00" />
<rect height="1.193292" width="25.000000" x="475.000000" y="107.633991" fill="rgb(255, 255, 255)" style="fill-opacity:1.00" />
<!-- End 'C' -->
<!-- Begin 'T' -->
<rect height="0.092171" width="50.000000" x="450.000000" y="109.423928" fill="rgb(0, 100, 0)" style="fill-opacity:1.00" />
<rect height="0.576072" width="10.000000" x="470.000000" y="109.423928" fill="rgb(0, 100, 0)" style="fill-opacity:1.00" />
<!-- End 'T' -->
<!-- Begin 'G' -->
<ellipse cx="535.000000" cy="70.587870" rx="25.000000" ry="29.068675" fill="rgb(255, 165, 0)" style="fill-opacity:1.00" />
<ellipse cx="535.000000" cy="70.587870" rx="16.666667" ry="19.379117" fill="rgb(255, 255, 255)" style="fill-opacity:1.00" />
<rect height="29.068675" width="25.000000" x="535.000000" y="56.053532" fill="rgb(255, 255, 255)" style="fill-opacity:1.00" />
<rect height="7.267169" width="25.000000" x="535.000000" y="77.855038" fill="rgb(255, 165, 0)" style="fill-opacity:1.00" />
<rect height="21.801507" width="6.250000" x="553.750000" y="77.855038" fill="rgb(255, 165, 0)" style="fill-opacity:1.00" />
<!-- End 'G' -->
<!-- Begin 'A' -->
<polygon points=" 510.000000, 109.857332, 531.000000, 99.656545, 539.000000, 99.656545, 560.000000, 109.857332, 552.500000, 109.857332, 546.250000, 107.307135, 523.750000, 107.307135, 517.500000, 109.857332" fill="rgb(178, 34, 34)" style="fill-opacity:1.00" />
<polygon points=" 535.000000, 101.696702, 527.000000, 104.777017, 542.000000, 104.777017" fill="rgb(255, 255, 255)" style="fill-opacity:1.00" />
<!-- End 'A' -->
<!-- Begin 'T' -->
<rect height="0.011413" width="50.000000" x="510.000000" y="109.857332" fill="rgb(0, 100, 0)" style="fill-opacity:1.00" />
<rect height="0.071334" width="10.000000" x="530.000000" y="109.857332" fill="rgb(0, 100, 0)" style="fill-opacity:1.00" />
<!-- End 'T' -->
<!-- Begin 'C' -->
<ellipse cx="535.000000" cy="109.964333" rx="25.000000" ry="0.035667" fill="rgb(0, 0, 128)" style="fill-opacity:1.00" />
<ellipse cx="535.000000" cy="109.964333" rx="16.666667" ry="0.023778" fill="rgb(255, 255, 255)" style="fill-opacity:1.00" />
<rect height="0.035667" width="25.000000" x="535.000000" y="109.946499" fill="rgb(255, 255, 255)" style="fill-opacity:1.00" />
<!-- End 'C' -->
<!-- Begin 'A' -->
<polygon points=" 570.000000, 108.270916, 591.000000, 17.782206, 599.000000, 17.782206, 620.000000, 108.270916, 612.500000, 108.270916, 606.250000, 85.648739, 583.750000, 85.648739, 577.500000, 108.270916" fill="rgb(178, 34, 34)" style="fill-opacity:1.00" />
<polygon points=" 595.000000, 35.879948, 587.000000, 71.075432, 602.000000, 71.075432" fill="rgb(255, 255, 255)" style="fill-opacity:1.00" />
<!-- End 'A' -->
<!-- Begin 'G' -->
<ellipse cx="595.000000" cy="108.847278" rx="25.000000" ry="0.576361" fill="rgb(255, 165, 0)" style="fill-opacity:1.00" />
<ellipse cx="595.000000" cy="108.847278" rx="16.666667" ry="0.384241" fill="rgb(255, 255, 255)" style="fill-opacity:1.00" />
<rect height="0.576361" width="25.000000" x="595.000000" y="108.559097" fill="rgb(255, 255, 255)" style="fill-opacity:1.00" />
<rect height="0.144090" width="25.000000" x="595.000000" y="108.991368" fill="rgb(255, 165, 0)" style="fill-opacity:1.00" />
<rect height="0.432271" width="6.250000" x="613.750000" y="108.991368" fill="rgb(255, 165, 0)" style="fill-opacity:1.00" />
<!-- End 'G' -->
<!-- Begin 'T' -->
<rect height="0.076848" width="50.000000" x="570.000000" y="109.423639" fill="rgb(0, 100, 0)" style="fill-opacity:1.00" />
<rect height="0.480301" width="10.000000" x="590.000000" y="109.423639" fill="rgb(0, 100, 0)" style="fill-opacity:1.00" />
<!-- End 'T' -->
<!-- Begin 'C' -->
<ellipse cx="595.000000" cy="109.951970" rx="25.000000" ry="0.048030" fill="rgb(0, 0, 128)" style="fill-opacity:1.00" />
<ellipse cx="595.000000" cy="109.951970" rx="16.666667" ry="0.032020" fill="rgb(255, 255, 255)" style="fill-opacity:1.00" />
<rect height="0.048030" width="25.000000" x="595.000000" y="109.927955" fill="rgb(255, 255, 255)" style="fill-opacity:1.00" />
<!-- End 'C' -->
<!-- Begin 'A' -->
<polygon points=" 630.000000, 99.555424, 651.000000, 78.369737, 659.000000, 78.369737, 680.000000, 99.555424, 672.500000, 99.555424, 666.250000, 94.259002, 643.750000, 94.259002, 637.500000, 99.555424" fill="rgb(178, 34, 34)" style="fill-opacity:1.00" />
<polygon points=" 655.000000, 82.606875, 647.000000, 90.081149, 662.000000, 90.081149" fill="rgb(255, 255, 255)" style="fill-opacity:1.00" />
<!-- End 'A' -->
<!-- Begin 'G' -->
<ellipse cx="655.000000" cy="102.454864" rx="25.000000" ry="2.899441" fill="rgb(255, 165, 0)" style="fill-opacity:1.00" />
<ellipse cx="655.000000" cy="102.454864" rx="16.666667" ry="1.932960" fill="rgb(255, 255, 255)" style="fill-opacity:1.00" />
<rect height="2.899441" width="25.000000" x="655.000000" y="101.005144" fill="rgb(255, 255, 255)" style="fill-opacity:1.00" />
<rect height="0.724860" width="25.000000" x="655.000000" y="103.179725" fill="rgb(255, 165, 0)" style="fill-opacity:1.00" />
<rect height="2.174581" width="6.250000" x="673.750000" y="103.179725" fill="rgb(255, 165, 0)" style="fill-opacity:1.00" />
<!-- End 'G' -->
<!-- Begin 'C' -->
<ellipse cx="655.000000" cy="107.034663" rx="25.000000" ry="1.680358" fill="rgb(0, 0, 128)" style="fill-opacity:1.00" />
<ellipse cx="655.000000" cy="107.034663" rx="16.666667" ry="1.120238" fill="rgb(255, 255, 255)" style="fill-opacity:1.00" />
<rect height="1.680358" width="25.000000" x="655.000000" y="106.194484" fill="rgb(255, 255, 255)" style="fill-opacity:1.00" />
<!-- End 'C' -->
<!-- Begin 'T' -->
<rect height="0.205597" width="50.000000" x="630.000000" y="108.715021" fill="rgb(0, 100, 0)" style="fill-opacity:1.00" />
<rect height="1.284979" width="10.000000" x="650.000000" y="108.715021" fill="rgb(0, 100, 0)" style="fill-opacity:1.00" />
<!-- End 'T' -->
<!-- Begin 'A' -->
<polygon points=" 690.000000, 97.981847, 711.000000, 76.460967, 719.000000, 76.460967, 740.000000, 97.981847, 732.500000, 97.981847, 726.250000, 92.601627, 703.750000, 92.601627, 697.500000, 97.981847" fill="rgb(178, 34, 34)" style="fill-opacity:1.00" />
<polygon points=" 715.000000, 80.765143, 707.000000, 88.373495, 722.000000, 88.373495" fill="rgb(255, 255, 255)" style="fill-opacity:1.00" />
<!-- End 'A' -->
<!-- Begin 'G' -->
<ellipse cx="715.000000" cy="101.720051" rx="25.000000" ry="3.738205" fill="rgb(255, 165, 0)" style="fill-opacity:1.00" />
<ellipse cx="715.000000" cy="101.720051" rx="16.666667" ry="2.492136" fill="rgb(255, 255, 255)" style="fill-opacity:1.00" />
<rect height="3.738205" width="25.000000" x="715.000000" y="99.850949" fill="rgb(255, 255, 255)" style="fill-opacity:1.00" />
<rect height="0.934551" width="25.000000" x="715.000000" y="102.654602" fill="rgb(255, 165, 0)" style="fill-opacity:1.00" />
<rect height="2.803654" width="6.250000" x="733.750000" y="102.654602" fill="rgb(255, 165, 0)" style="fill-opacity:1.00" />
<!-- End 'G' -->
<!-- Begin 'T' -->
<rect height="0.681960" width="50.000000" x="690.000000" y="105.458256" fill="rgb(0, 100, 0)" style="fill-opacity:1.00" />
<rect height="4.262252" width="10.000000" x="710.000000" y="105.458256" fill="rgb(0, 100, 0)" style="fill-opacity:1.00" />
<!-- End 'T' -->
<!-- Begin 'C' -->
<ellipse cx="715.000000" cy="109.860254" rx="25.000000" ry="0.139746" fill="rgb(0, 0, 128)" style="fill-opacity:1.00" />
<ellipse cx="715.000000" cy="109.860254" rx="16.666667" ry="0.093164" fill="rgb(255, 255, 255)" style="fill-opacity:1.00" />
<rect height="0.139746" width="25.000000" x="715.000000" y="109.790381" fill="rgb(255, 255, 255)" style="fill-opacity:1.00" />
<!-- End 'C' -->
<!-- Begin 'G' -->
<ellipse cx="775.000000" cy="92.019799" rx="25.000000" ry="8.801790" fill="rgb(255, 165, 0)" style="fill-opacity:1.00" />
<ellipse cx="775.000000" cy="92.019799" rx="16.666667" ry="5.867860" fill="rgb(255, 255, 255)" style="fill-opacity:1.00" />
<rect height="8.801790" width="25.000000" x="775.000000" y="87.618904" fill="rgb(255, 255, 255)" style="fill-opacity:1.00" />
<rect height="2.200447" width="25.000000" x="775.000000" y="94.220246" fill="rgb(255, 165, 0)" style="fill-opacity:1.00" />
<rect height="6.601342" width="6.250000" x="793.750000" y="94.220246" fill="rgb(255, 165, 0)" style="fill-opacity:1.00" />
<!-- End 'G' -->
<!-- Begin 'T' -->
<rect height="0.598131" width="50.000000" x="750.000000" y="100.821588" fill="rgb(0, 100, 0)" style="fill-opacity:1.00" />
<rect height="3.738320" width="10.000000" x="770.000000" y="100.821588" fill="rgb(0, 100, 0)" style="fill-opacity:1.00" />
<!-- End 'T' -->
<!-- Begin 'A' -->
<polygon points=" 750.000000, 107.405495, 771.000000, 104.559908, 779.000000, 104.559908, 800.000000, 107.405495, 792.500000, 107.405495, 786.250000, 106.694098, 763.750000, 106.694098, 757.500000, 107.405495" fill="rgb(178, 34, 34)" style="fill-opacity:1.00" />
<!-- End 'A' -->
<!-- Begin 'C' -->
<ellipse cx="775.000000" cy="108.702747" rx="25.000000" ry="1.297253" fill="rgb(0, 0, 128)" style="fill-opacity:1.00" />
<ellipse cx="775.000000" cy="108.702747" rx="16.666667" ry="0.864835" fill="rgb(255, 255, 255)" style="fill-opacity:1.00" />
<rect height="1.297253" width="25.000000" x="775.000000" y="108.054121" fill="rgb(255, 255, 255)" style="fill-opacity:1.00" />
<!-- End 'C' -->
<!-- Begin 'C' -->
<ellipse cx="835.000000" cy="100.862839" rx="25.000000" ry="3.173961" fill="rgb(0, 0, 128)" style="fill-opacity:1.00" />
<ellipse cx="835.000000" cy="100.862839" rx="16.666667" ry="2.115974" fill="rgb(255, 255, 255)" style="fill-opacity:1.00" />
<rect height="3.173961" width="25.000000" x="835.000000" y="99.275858" fill="rgb(255, 255, 255)" style="fill-opacity:1.00" />
<!-- End 'C' -->
<!-- Begin 'A' -->
<polygon points=" 810.000000, 106.473376, 831.000000, 104.036800, 839.000000, 104.036800, 860.000000, 106.473376, 852.500000, 106.473376, 846.250000, 105.864232, 823.750000, 105.864232, 817.500000, 106.473376" fill="rgb(178, 34, 34)" style="fill-opacity:1.00" />
<!-- End 'A' -->
<!-- Begin 'T' -->
<rect height="0.324193" width="50.000000" x="810.000000" y="106.473376" fill="rgb(0, 100, 0)" style="fill-opacity:1.00" />
<rect height="2.026206" width="10.000000" x="830.000000" y="106.473376" fill="rgb(0, 100, 0)" style="fill-opacity:1.00" />
<!-- End 'T' -->
<!-- Begin 'G' -->
<ellipse cx="835.000000" cy="109.249791" rx="25.000000" ry="0.750209" fill="rgb(255, 165, 0)" style="fill-opacity:1.00" />
<ellipse cx="835.000000" cy="109.249791" rx="16.666667" ry="0.500139" fill="rgb(255, 255, 255)" style="fill-opacity:1.00" />
<rect height="0.750209" width="25.000000" x="835.000000" y="108.874686" fill="rgb(255, 255, 255)" style="fill-opacity:1.00" />
<rect height="0.187552" width="25.000000" x="835.000000" y="109.437343" fill="rgb(255, 165, 0)" style="fill-opacity:1.00" />
<rect height="0.562657" width="6.250000" x="853.750000" y="109.437343" fill="rgb(255, 165, 0)" style="fill-opacity:1.00" />
<!-- End 'G' -->
<!-- Begin 'A' -->
<polygon points=" 870.000000, 107.759205, 891.000000, 106.353961, 899.000000, 106.353961, 920.000000, 107.759205, 912.500000, 107.759205, 906.250000, 107.407894, 883.750000, 107.407894, 877.500000, 107.759205" fill="rgb(178, 34, 34)" style="fill-opacity:1.00" />
<!-- End 'A' -->
<!-- Begin 'T' -->
<rect height="0.142196" width="50.000000" x="870.000000" y="107.759205" fill="rgb(0, 100, 0)" style="fill-opacity:1.00" />
<rect height="0.888722" width="10.000000" x="890.000000" y="107.759205" fill="rgb(0, 100, 0)" style="fill-opacity:1.00" />
<!-- End 'T' -->
<!-- Begin 'C' -->
<ellipse cx="895.000000" cy="109.006834" rx="25.000000" ry="0.358907" fill="rgb(0, 0, 128)" style="fill-opacity:1.00" />
<ellipse cx="895.000000" cy="109.006834" rx="16.666667" ry="0.239271" fill="rgb(255, 255, 255)" style="fill-opacity:1.00" />
<rect height="0.358907" width="25.000000" x="895.000000" y="108.827381" fill="rgb(255, 255, 255)" style="fill-opacity:1.00" />
<!-- End 'C' -->
<!-- Begin 'G' -->
<ellipse cx="895.000000" cy="109.682871" rx="25.000000" ry="0.317129" fill="rgb(255, 165, 0)" style="fill-opacity:1.00" />
<ellipse cx="895.000000" cy="109.682871" rx="16.666667" ry="0.211420" fill="rgb(255, 255, 255)" style="fill-opacity:1.00" />
<rect height="0.317129" width="25.000000" x="895.000000" y="109.524306" fill="rgb(255, 255, 255)" style="fill-opacity:1.00" />
<rect height="0.079282" width="25.000000" x="895.000000" y="109.762153" fill="rgb(255, 165, 0)" style="fill-opacity:1.00" />
<rect height="0.237847" width="6.250000" x="913.750000" y="109.762153" fill="rgb(255, 165, 0)" style="fill-opacity:1.00" />
<!-- End 'G' -->
<text x="490.000000" y="165">
IC = 13.48
</text>

</svg>
