<?xml version="1.0" encoding="UTF-8" standalone="yes"?>
                 <!DOCTYPE svg PUBLIC "-//W3C//DTD SVG 1.0//EN" "http://www.w3.org/TR/2001/REC-SVG-20010904/DTD/svg10.dtd">
                 <svg height="170" width="780" xmlns="http://www.w3.org/2000/svg" xmlns:xlink="http://www.w3.org/1999/xlink">
                 <line x1="85" y1="120" x2="747" y2="120" style="stroke:rgb(99,99,99);stroke-width:2" />
<rect height="7.000000" width="2.000000" x="85.000000" y="120.000000" fill="rgb(0, 0, 0)" style="fill-opacity:1.00" />
<text x="107.000000" y="140">
1
</text>
<rect height="7.000000" width="2.000000" x="145.000000" y="120.000000" fill="rgb(0, 0, 0)" style="fill-opacity:1.00" />
<text x="167.000000" y="140">
2
</text>
<rect height="7.000000" width="2.000000" x="205.000000" y="120.000000" fill="rgb(0, 0, 0)" style="fill-opacity:1.00" />
<text x="227.000000" y="140">
3
</text>
<rect height="7.000000" width="2.000000" x="265.000000" y="120.000000" fill="rgb(0, 0, 0)" style="fill-opacity:1.00" />
<text x="287.000000" y="140">
4
</text>
<rect height="7.000000" width="2.000000" x="325.000000" y="120.000000" fill="rgb(0, 0, 0)" style="fill-opacity:1.00" />
<text x="347.000000" y="140">
5
</text>
<rect height="7.000000" width="2.000000" x="385.000000" y="120.000000" fill="rgb(0, 0, 0)" style="fill-opacity:1.00" />
<text x="407.000000" y="140">
6
</text>
<rect height="7.000000" width="2.000000" x="445.000000" y="120.000000" fill="rgb(0, 0, 0)" style="fill-opacity:1.00" />
<text x="467.000000" y="140">
7
</text>
<rect height="7.000000" width="2.000000" x="505.000000" y="120.000000" fill="rgb(0, 0, 0)" style="fill-opacity:1.00" />
<text x="527.000000" y="140">
8
</text>
<rect height="7.000000" width="2.000000" x="565.000000" y="120.000000" fill="rgb(0, 0, 0)" style="fill-opacity:1.00" />
<text x="587.000000" y="140">
9
</text>
<rect height="7.000000" width="2.000000" x="625.000000" y="120.000000" fill="rgb(0, 0, 0)" style="fill-opacity:1.00" />
<text x="647.000000" y="140">
10
</text>
<rect height="7.000000" width="2.000000" x="685.000000" y="120.000000" fill="rgb(0, 0, 0)" style="fill-opacity:1.00" />
<text x="707.000000" y="140">
11
</text>
<rect height="7.000000" width="2.000000" x="745.000000" y="120.000000" fill="rgb(0, 0, 0)" style="fill-opacity:1.00" />
<line x1="80" y1="112" x2="80" y2="10" style="stroke:rgb(99,99,99);stroke-width:2" />
<rect height="2.000000" width="7.000000" x="73.000000" y="110.000000" fill="rgb(0, 0, 0)" style="fill-opacity:1.00" />
<text x="63" y="115">
0
</text>
<rect height="2.000000" width="7.000000" x="73.000000" y="60.000000" fill="rgb(0, 0, 0)" style="fill-opacity:1.00" />
<text x="63" y="65">
1
</text>
<rect height="2.000000" width="7.000000" x="73.000000" y="10.000000" fill="rgb(0, 0, 0)" style="fill-opacity:1.00" />
<text x="63" y="15">
2
</text>
<text x="50" y="65"
transform="rotate(-90, 50, 70)">
bits
</text>
<!-- Begin 'A' -->
<polygon points=" 90.000000, 98.757703, 111.000000, 71.512062, 119.000000, 71.512062, 140.000000, 98.757703, 132.500000, 98.757703, 126.250000, 91.946292, 103.750000, 91.946292, 97.500000, 98.757703" fill="rgb(178, 34, 34)" style="fill-opacity:1.00" />
<polygon points=" 115.000000, 76.961190, 107.000000, 86.859446, 122.000000, 86.859446" fill="rgb(255, 255, 255)" style="fill-opacity:1.00" />
<!-- End 'A' -->
<!-- Begin 'T' -->
<rect height="1.161625" width="50.000000" x="90.000000" y="98.757703" fill="rgb(0, 100, 0)" style="fill-opacity:1.00" />
<rect height="7.260153" width="10.000000" x="110.000000" y="98.757703" fill="rgb(0, 100, 0)" style="fill-opacity:1.00" />
<!-- End 'T' -->
<!-- Begin 'G' -->
<ellipse cx="115.000000" cy="107.499305" rx="25.000000" ry="1.481449" fill="rgb(255, 165, 0)" style="fill-opacity:1.00" />
<ellipse cx="115.000000" cy="107.499305" rx="16.666667" ry="0.987633" fill="rgb(255, 255, 255)" style="fill-opacity:1.00" />
<rect height="1.481449" width="25.000000" x="115.000000" y="106.758580" fill="rgb(255, 255, 255)" style="fill-opacity:1.00" />
<rect height="0.370362" width="25.000000" x="115.000000" y="107.869667" fill="rgb(255, 165, 0)" style="fill-opacity:1.00" />
<rect height="1.111087" width="6.250000" x="133.750000" y="107.869667" fill="rgb(255, 165, 0)" style="fill-opacity:1.00" />
<!-- End 'G' -->
<!-- Begin 'C' -->
<ellipse cx="115.000000" cy="109.490377" rx="25.000000" ry="0.509623" fill="rgb(0, 0, 128)" style="fill-opacity:1.00" />
<ellipse cx="115.000000" cy="109.490377" rx="16.666667" ry="0.339748" fill="rgb(255, 255, 255)" style="fill-opacity:1.00" />
<rect height="0.509623" width="25.000000" x="115.000000" y="109.235566" fill="rgb(255, 255, 255)" style="fill-opacity:1.00" />
<!-- End 'C' -->
<!-- Begin 'G' -->
<ellipse cx="175.000000" cy="91.513543" rx="25.000000" ry="6.386746" fill="rgb(255, 165, 0)" style="fill-opacity:1.00" />
<ellipse cx="175.000000" cy="91.513543" rx="16.666667" ry="4.257831" fill="rgb(255, 255, 255)" style="fill-opacity:1.00" />
<rect height="6.386746" width="25.000000" x="175.000000" y="88.320170" fill="rgb(255, 255, 255)" style="fill-opacity:1.00" />
<rect height="1.596687" width="25.000000" x="175.000000" y="93.110229" fill="rgb(255, 165, 0)" style="fill-opacity:1.00" />
<rect height="4.790060" width="6.250000" x="193.750000" y="93.110229" fill="rgb(255, 165, 0)" style="fill-opacity:1.00" />
<!-- End 'G' -->
<!-- Begin 'A' -->
<polygon points=" 150.000000, 106.527969, 171.000000, 97.900289, 179.000000, 97.900289, 200.000000, 106.527969, 192.500000, 106.527969, 186.250000, 104.371049, 163.750000, 104.371049, 157.500000, 106.527969" fill="rgb(178, 34, 34)" style="fill-opacity:1.00" />
<polygon points=" 175.000000, 99.625825, 167.000000, 102.076897, 182.000000, 102.076897" fill="rgb(255, 255, 255)" style="fill-opacity:1.00" />
<!-- End 'A' -->
<!-- Begin 'T' -->
<rect height="0.476454" width="50.000000" x="150.000000" y="106.527969" fill="rgb(0, 100, 0)" style="fill-opacity:1.00" />
<rect height="2.977840" width="10.000000" x="170.000000" y="106.527969" fill="rgb(0, 100, 0)" style="fill-opacity:1.00" />
<!-- End 'T' -->
<!-- Begin 'C' -->
<ellipse cx="175.000000" cy="109.752905" rx="25.000000" ry="0.247095" fill="rgb(0, 0, 128)" style="fill-opacity:1.00" />
<ellipse cx="175.000000" cy="109.752905" rx="16.666667" ry="0.164730" fill="rgb(255, 255, 255)" style="fill-opacity:1.00" />
<rect height="0.247095" width="25.000000" x="175.000000" y="109.629357" fill="rgb(255, 255, 255)" style="fill-opacity:1.00" />
<!-- End 'C' -->
<!-- Begin 'A' -->
<polygon points=" 210.000000, 107.109095, 231.000000, 22.528579, 239.000000, 22.528579, 260.000000, 107.109095, 252.500000, 107.109095, 246.250000, 85.963966, 223.750000, 85.963966, 217.500000, 107.109095" fill="rgb(178, 34, 34)" style="fill-opacity:1.00" />
<polygon points=" 235.000000, 39.444682, 227.000000, 72.276888, 242.000000, 72.276888" fill="rgb(255, 255, 255)" style="fill-opacity:1.00" />
<!-- End 'A' -->
<!-- Begin 'C' -->
<ellipse cx="235.000000" cy="107.996546" rx="25.000000" ry="0.887452" fill="rgb(0, 0, 128)" style="fill-opacity:1.00" />
<ellipse cx="235.000000" cy="107.996546" rx="16.666667" ry="0.591634" fill="rgb(255, 255, 255)" style="fill-opacity:1.00" />
<rect height="0.887452" width="25.000000" x="235.000000" y="107.552820" fill="rgb(255, 255, 255)" style="fill-opacity:1.00" />
<!-- End 'C' -->
<!-- Begin 'T' -->
<rect height="0.142157" width="50.000000" x="210.000000" y="108.883998" fill="rgb(0, 100, 0)" style="fill-opacity:1.00" />
<rect height="0.888482" width="10.000000" x="230.000000" y="108.883998" fill="rgb(0, 100, 0)" style="fill-opacity:1.00" />
<!-- End 'T' -->
<!-- Begin 'G' -->
<ellipse cx="235.000000" cy="109.886240" rx="25.000000" ry="0.113760" fill="rgb(255, 165, 0)" style="fill-opacity:1.00" />
<ellipse cx="235.000000" cy="109.886240" rx="16.666667" ry="0.075840" fill="rgb(255, 255, 255)" style="fill-opacity:1.00" />
<rect height="0.113760" width="25.000000" x="235.000000" y="109.829360" fill="rgb(255, 255, 255)" style="fill-opacity:1.00" />
<rect height="0.028440" width="25.000000" x="235.000000" y="109.914680" fill="rgb(255, 165, 0)" style="fill-opacity:1.00" />
<rect height="0.085320" width="6.250000" x="253.750000" y="109.914680" fill="rgb(255, 165, 0)" style="fill-opacity:1.00" />
<!-- End 'G' -->
<!-- Begin 'T' -->
<rect height="14.432008" width="50.000000" x="270.000000" y="17.770264" fill="rgb(0, 100, 0)" style="fill-opacity:1.00" />
<rect height="90.200052" width="10.000000" x="290.000000" y="17.770264" fill="rgb(0, 100, 0)" style="fill-opacity:1.00" />
<!-- End 'T' -->
<!-- Begin 'G' -->
<ellipse cx="295.000000" cy="108.969677" rx="25.000000" ry="0.999361" fill="rgb(255, 165, 0)" style="fill-opacity:1.00" />
<ellipse cx="295.000000" cy="108.969677" rx="16.666667" ry="0.666241" fill="rgb(255, 255, 255)" style="fill-opacity:1.00" />
<rect height="0.999361" width="25.000000" x="295.000000" y="108.469996" fill="rgb(255, 255, 255)" style="fill-opacity:1.00" />
<rect height="0.249840" width="25.000000" x="295.000000" y="109.219517" fill="rgb(255, 165, 0)" style="fill-opacity:1.00" />
<rect height="0.749521" width="6.250000" x="313.750000" y="109.219517" fill="rgb(255, 165, 0)" style="fill-opacity:1.00" />
<!-- End 'G' -->
<!-- Begin 'A' -->
<polygon points=" 270.000000, 109.985788, 291.000000, 109.969038, 299.000000, 109.969038, 320.000000, 109.985788, 312.500000, 109.985788, 306.250000, 109.981601, 283.750000, 109.981601, 277.500000, 109.985788" fill="rgb(178, 34, 34)" style="fill-opacity:1.00" />
<!-- End 'A' -->
<!-- Begin 'C' -->
<ellipse cx="295.000000" cy="109.992894" rx="25.000000" ry="0.007106" fill="rgb(0, 0, 128)" style="fill-opacity:1.00" />
<ellipse cx="295.000000" cy="109.992894" rx="16.666667" ry="0.004737" fill="rgb(255, 255, 255)" style="fill-opacity:1.00" />
<rect height="0.007106" width="25.000000" x="295.000000" y="109.989341" fill="rgb(255, 255, 255)" style="fill-opacity:1.00" />
<!-- End 'C' -->
<!-- Begin 'A' -->
<polygon points=" 330.000000, 97.841166, 351.000000, 62.160911, 359.000000, 62.160911, 380.000000, 97.841166, 372.500000, 97.841166, 366.250000, 88.921102, 343.750000, 88.921102, 337.500000, 97.841166" fill="rgb(178, 34, 34)" style="fill-opacity:1.00" />
<polygon points=" 355.000000, 69.296962, 347.000000, 82.569064, 362.000000, 82.569064" fill="rgb(255, 255, 255)" style="fill-opacity:1.00" />
<!-- End 'A' -->
<!-- Begin 'T' -->
<rect height="1.384125" width="50.000000" x="330.000000" y="97.841166" fill="rgb(0, 100, 0)" style="fill-opacity:1.00" />
<rect height="8.650783" width="10.000000" x="350.000000" y="97.841166" fill="rgb(0, 100, 0)" style="fill-opacity:1.00" />
<!-- End 'T' -->
<!-- Begin 'C' -->
<ellipse cx="355.000000" cy="108.231337" rx="25.000000" ry="1.739388" fill="rgb(0, 0, 128)" style="fill-opacity:1.00" />
<ellipse cx="355.000000" cy="108.231337" rx="16.666667" ry="1.159592" fill="rgb(255, 255, 255)" style="fill-opacity:1.00" />
<rect height="1.739388" width="25.000000" x="355.000000" y="107.361643" fill="rgb(255, 255, 255)" style="fill-opacity:1.00" />
<!-- End 'C' -->
<!-- Begin 'G' -->
<ellipse cx="355.000000" cy="109.985363" rx="25.000000" ry="0.014637" fill="rgb(255, 165, 0)" style="fill-opacity:1.00" />
<ellipse cx="355.000000" cy="109.985363" rx="16.666667" ry="0.009758" fill="rgb(255, 255, 255)" style="fill-opacity:1.00" />
<rect height="0.014637" width="25.000000" x="355.000000" y="109.978044" fill="rgb(255, 255, 255)" style="fill-opacity:1.00" />
<rect height="0.003659" width="25.000000" x="355.000000" y="109.989022" fill="rgb(255, 165, 0)" style="fill-opacity:1.00" />
<rect height="0.010978" width="6.250000" x="373.750000" y="109.989022" fill="rgb(255, 165, 0)" style="fill-opacity:1.00" />
<!-- End 'G' -->
<!-- Begin 'T' -->
<rect height="12.179985" width="50.000000" x="390.000000" y="29.465947" fill="rgb(0, 100, 0)" style="fill-opacity:1.00" />
<rect height="76.124909" width="10.000000" x="410.000000" y="29.465947" fill="rgb(0, 100, 0)" style="fill-opacity:1.00" />
<!-- End 'T' -->
<!-- Begin 'C' -->
<ellipse cx="415.000000" cy="106.477870" rx="25.000000" ry="0.887014" fill="rgb(0, 0, 128)" style="fill-opacity:1.00" />
<ellipse cx="415.000000" cy="106.477870" rx="16.666667" ry="0.591342" fill="rgb(255, 255, 255)" style="fill-opacity:1.00" />
<rect height="0.887014" width="25.000000" x="415.000000" y="106.034363" fill="rgb(255, 255, 255)" style="fill-opacity:1.00" />
<!-- End 'C' -->
<!-- Begin 'A' -->
<polygon points=" 390.000000, 109.137263, 411.000000, 107.364883, 419.000000, 107.364883, 440.000000, 109.137263, 432.500000, 109.137263, 426.250000, 108.694168, 403.750000, 108.694168, 397.500000, 109.137263" fill="rgb(178, 34, 34)" style="fill-opacity:1.00" />
<!-- End 'A' -->
<!-- Begin 'G' -->
<ellipse cx="415.000000" cy="109.568632" rx="25.000000" ry="0.431368" fill="rgb(255, 165, 0)" style="fill-opacity:1.00" />
<ellipse cx="415.000000" cy="109.568632" rx="16.666667" ry="0.287579" fill="rgb(255, 255, 255)" style="fill-opacity:1.00" />
<rect height="0.431368" width="25.000000" x="415.000000" y="109.352947" fill="rgb(255, 255, 255)" style="fill-opacity:1.00" />
<rect height="0.107842" width="25.000000" x="415.000000" y="109.676474" fill="rgb(255, 165, 0)" style="fill-opacity:1.00" />
<rect height="0.323526" width="6.250000" x="433.750000" y="109.676474" fill="rgb(255, 165, 0)" style="fill-opacity:1.00" />
<!-- End 'G' -->
<!-- Begin 'T' -->
<rect height="2.371622" width="50.000000" x="450.000000" y="84.056632" fill="rgb(0, 100, 0)" style="fill-opacity:1.00" />
<rect height="14.822639" width="10.000000" x="470.000000" y="84.056632" fill="rgb(0, 100, 0)" style="fill-opacity:1.00" />
<!-- End 'T' -->
<!-- Begin 'C' -->
<ellipse cx="475.000000" cy="102.733486" rx="25.000000" ry="3.854215" fill="rgb(0, 0, 128)" style="fill-opacity:1.00" />
<ellipse cx="475.000000" cy="102.733486" rx="16.666667" ry="2.569477" fill="rgb(255, 255, 255)" style="fill-opacity:1.00" />
<rect height="3.854215" width="25.000000" x="475.000000" y="100.806378" fill="rgb(255, 255, 255)" style="fill-opacity:1.00" />
<!-- End 'C' -->
<!-- Begin 'A' -->
<polygon points=" 450.000000, 109.003903, 471.000000, 106.587702, 479.000000, 106.587702, 500.000000, 109.003903, 492.500000, 109.003903, 486.250000, 108.399853, 463.750000, 108.399853, 457.500000, 109.003903" fill="rgb(178, 34, 34)" style="fill-opacity:1.00" />
<!-- End 'A' -->
<!-- Begin 'G' -->
<ellipse cx="475.000000" cy="109.501952" rx="25.000000" ry="0.498048" fill="rgb(255, 165, 0)" style="fill-opacity:1.00" />
<ellipse cx="475.000000" cy="109.501952" rx="16.666667" ry="0.332032" fill="rgb(255, 255, 255)" style="fill-opacity:1.00" />
<rect height="0.498048" width="25.000000" x="475.000000" y="109.252928" fill="rgb(255, 255, 255)" style="fill-opacity:1.00" />
<rect height="0.124512" width="25.000000" x="475.000000" y="109.626464" fill="rgb(255, 165, 0)" style="fill-opacity:1.00" />
<rect height="0.373536" width="6.250000" x="493.750000" y="109.626464" fill="rgb(255, 165, 0)" style="fill-opacity:1.00" />
<!-- End 'G' -->
<!-- Begin 'T' -->
<rect height="3.494026" width="50.000000" x="510.000000" y="77.766753" fill="rgb(0, 100, 0)" style="fill-opacity:1.00" />
<rect height="21.837663" width="10.000000" x="530.000000" y="77.766753" fill="rgb(0, 100, 0)" style="fill-opacity:1.00" />
<!-- End 'T' -->
<!-- Begin 'A' -->
<polygon points=" 510.000000, 105.699899, 531.000000, 99.604416, 539.000000, 99.604416, 560.000000, 105.699899, 552.500000, 105.699899, 546.250000, 104.176028, 523.750000, 104.176028, 517.500000, 105.699899" fill="rgb(178, 34, 34)" style="fill-opacity:1.00" />
<!-- End 'A' -->
<!-- Begin 'C' -->
<ellipse cx="535.000000" cy="106.866511" rx="25.000000" ry="1.166612" fill="rgb(0, 0, 128)" style="fill-opacity:1.00" />
<ellipse cx="535.000000" cy="106.866511" rx="16.666667" ry="0.777741" fill="rgb(255, 255, 255)" style="fill-opacity:1.00" />
<rect height="1.166612" width="25.000000" x="535.000000" y="106.283205" fill="rgb(255, 255, 255)" style="fill-opacity:1.00" />
<!-- End 'C' -->
<!-- Begin 'G' -->
<ellipse cx="535.000000" cy="109.016561" rx="25.000000" ry="0.983439" fill="rgb(255, 165, 0)" style="fill-opacity:1.00" />
<ellipse cx="535.000000" cy="109.016561" rx="16.666667" ry="0.655626" fill="rgb(255, 255, 255)" style="fill-opacity:1.00" />
<rect height="0.983439" width="25.000000" x="535.000000" y="108.524842" fill="rgb(255, 255, 255)" style="fill-opacity:1.00" />
<rect height="0.245860" width="25.000000" x="535.000000" y="109.262421" fill="rgb(255, 165, 0)" style="fill-opacity:1.00" />
<rect height="0.737579" width="6.250000" x="553.750000" y="109.262421" fill="rgb(255, 165, 0)" style="fill-opacity:1.00" />
<!-- End 'G' -->
<!-- Begin 'T' -->
<rect height="1.159428" width="50.000000" x="570.000000" y="95.166480" fill="rgb(0, 100, 0)" style="fill-opacity:1.00" />
<rect height="7.246428" width="10.000000" x="590.000000" y="95.166480" fill="rgb(0, 100, 0)" style="fill-opacity:1.00" />
<!-- End 'T' -->
<!-- Begin 'A' -->
<polygon points=" 570.000000, 106.924173, 591.000000, 102.412908, 599.000000, 102.412908, 620.000000, 106.924173, 612.500000, 106.924173, 606.250000, 105.796357, 583.750000, 105.796357, 577.500000, 106.924173" fill="rgb(178, 34, 34)" style="fill-opacity:1.00" />
<!-- End 'A' -->
<!-- Begin 'G' -->
<ellipse cx="595.000000" cy="107.778391" rx="25.000000" ry="0.854218" fill="rgb(255, 165, 0)" style="fill-opacity:1.00" />
<ellipse cx="595.000000" cy="107.778391" rx="16.666667" ry="0.569479" fill="rgb(255, 255, 255)" style="fill-opacity:1.00" />
<rect height="0.854218" width="25.000000" x="595.000000" y="107.351282" fill="rgb(255, 255, 255)" style="fill-opacity:1.00" />
<rect height="0.213555" width="25.000000" x="595.000000" y="107.991946" fill="rgb(255, 165, 0)" style="fill-opacity:1.00" />
<rect height="0.640664" width="6.250000" x="613.750000" y="107.991946" fill="rgb(255, 165, 0)" style="fill-opacity:1.00" />
<!-- End 'G' -->
<!-- Begin 'C' -->
<ellipse cx="595.000000" cy="109.316305" rx="25.000000" ry="0.683695" fill="rgb(0, 0, 128)" style="fill-opacity:1.00" />
<ellipse cx="595.000000" cy="109.316305" rx="16.666667" ry="0.455797" fill="rgb(255, 255, 255)" style="fill-opacity:1.00" />
<rect height="0.683695" width="25.000000" x="595.000000" y="108.974457" fill="rgb(255, 255, 255)" style="fill-opacity:1.00" />
<!-- End 'C' -->
<!-- Begin 'T' -->
<rect height="0.514136" width="50.000000" x="630.000000" y="102.277785" fill="rgb(0, 100, 0)" style="fill-opacity:1.00" />
<rect height="3.213351" width="10.000000" x="650.000000" y="102.277785" fill="rgb(0, 100, 0)" style="fill-opacity:1.00" />
<!-- End 'T' -->
<!-- Begin 'A' -->
<polygon points=" 630.000000, 107.816843, 651.000000, 105.491136, 659.000000, 105.491136, 680.000000, 107.816843, 672.500000, 107.816843, 666.250000, 107.235416, 643.750000, 107.235416, 637.500000, 107.816843" fill="rgb(178, 34, 34)" style="fill-opacity:1.00" />
<!-- End 'A' -->
<!-- Begin 'C' -->
<ellipse cx="655.000000" cy="108.380483" rx="25.000000" ry="0.563640" fill="rgb(0, 0, 128)" style="fill-opacity:1.00" />
<ellipse cx="655.000000" cy="108.380483" rx="16.666667" ry="0.375760" fill="rgb(255, 255, 255)" style="fill-opacity:1.00" />
<rect height="0.563640" width="25.000000" x="655.000000" y="108.098663" fill="rgb(255, 255, 255)" style="fill-opacity:1.00" />
<!-- End 'C' -->
<!-- Begin 'G' -->
<ellipse cx="655.000000" cy="109.472061" rx="25.000000" ry="0.527939" fill="rgb(255, 165, 0)" style="fill-opacity:1.00" />
<ellipse cx="655.000000" cy="109.472061" rx="16.666667" ry="0.351959" fill="rgb(255, 255, 255)" style="fill-opacity:1.00" />
<rect height="0.527939" width="25.000000" x="655.000000" y="109.208092" fill="rgb(255, 255, 255)" style="fill-opacity:1.00" />
<rect height="0.131985" width="25.000000" x="655.000000" y="109.604046" fill="rgb(255, 165, 0)" style="fill-opacity:1.00" />
<rect height="0.395954" width="6.250000" x="673.750000" y="109.604046" fill="rgb(255, 165, 0)" style="fill-opacity:1.00" />
<!-- End 'G' -->
<!-- Begin 'T' -->
<rect height="0.435048" width="50.000000" x="690.000000" y="102.738577" fill="rgb(0, 100, 0)" style="fill-opacity:1.00" />
<rect height="2.719050" width="10.000000" x="710.000000" y="102.738577" fill="rgb(0, 100, 0)" style="fill-opacity:1.00" />
<!-- End 'T' -->
<!-- Begin 'A' -->
<polygon points=" 690.000000, 107.960603, 711.000000, 105.457627, 719.000000, 105.457627, 740.000000, 107.960603, 732.500000, 107.960603, 726.250000, 107.334859, 703.750000, 107.334859, 697.500000, 107.960603" fill="rgb(178, 34, 34)" style="fill-opacity:1.00" />
<!-- End 'A' -->
<!-- Begin 'G' -->
<ellipse cx="715.000000" cy="108.505378" rx="25.000000" ry="0.544776" fill="rgb(255, 165, 0)" style="fill-opacity:1.00" />
<ellipse cx="715.000000" cy="108.505378" rx="16.666667" ry="0.363184" fill="rgb(255, 255, 255)" style="fill-opacity:1.00" />
<rect height="0.544776" width="25.000000" x="715.000000" y="108.232990" fill="rgb(255, 255, 255)" style="fill-opacity:1.00" />
<rect height="0.136194" width="25.000000" x="715.000000" y="108.641572" fill="rgb(255, 165, 0)" style="fill-opacity:1.00" />
<rect height="0.408582" width="6.250000" x="733.750000" y="108.641572" fill="rgb(255, 165, 0)" style="fill-opacity:1.00" />
<!-- End 'G' -->
<!-- Begin 'C' -->
<ellipse cx="715.000000" cy="109.525077" rx="25.000000" ry="0.474923" fill="rgb(0, 0, 128)" style="fill-opacity:1.00" />
<ellipse cx="715.000000" cy="109.525077" rx="16.666667" ry="0.316615" fill="rgb(255, 255, 255)" style="fill-opacity:1.00" />
<rect height="0.474923" width="25.000000" x="715.000000" y="109.287616" fill="rgb(255, 255, 255)" style="fill-opacity:1.00" />
<!-- End 'C' -->
<text x="400.000000" y="165">
IC = 9.19
</text>

</svg>
