<?xml version="1.0" encoding="UTF-8" standalone="yes"?>
                 <!DOCTYPE svg PUBLIC "-//W3C//DTD SVG 1.0//EN" "http://www.w3.org/TR/2001/REC-SVG-20010904/DTD/svg10.dtd">
                 <svg height="500" width="780" xmlns="http://www.w3.org/2000/svg" xmlns:xlink="http://www.w3.org/1999/xlink">
                 <line x1="85" y1="450" x2="747" y2="450" style="stroke:rgb(99,99,99);stroke-width:2" />
<rect height="7.000000" width="2.000000" x="85.000000" y="450.000000" fill="rgb(0, 0, 0)" style="fill-opacity:1.00" />
<text x="107.000000" y="470">
1
</text>
<rect height="7.000000" width="2.000000" x="145.000000" y="450.000000" fill="rgb(0, 0, 0)" style="fill-opacity:1.00" />
<text x="167.000000" y="470">
2
</text>
<rect height="7.000000" width="2.000000" x="205.000000" y="450.000000" fill="rgb(0, 0, 0)" style="fill-opacity:1.00" />
<text x="227.000000" y="470">
3
</text>
<rect height="7.000000" width="2.000000" x="265.000000" y="450.000000" fill="rgb(0, 0, 0)" style="fill-opacity:1.00" />
<text x="287.000000" y="470">
4
</text>
<rect height="7.000000" width="2.000000" x="325.000000" y="450.000000" fill="rgb(0, 0, 0)" style="fill-opacity:1.00" />
<text x="347.000000" y="470">
5
</text>
<rect height="7.000000" width="2.000000" x="385.000000" y="450.000000" fill="rgb(0, 0, 0)" style="fill-opacity:1.00" />
<text x="407.000000" y="470">
6
</text>
<rect height="7.000000" width="2.000000" x="445.000000" y="450.000000" fill="rgb(0, 0, 0)" style="fill-opacity:1.00" />
<text x="467.000000" y="470">
7
</text>
<rect height="7.000000" width="2.000000" x="505.000000" y="450.000000" fill="rgb(0, 0, 0)" style="fill-opacity:1.00" />
<text x="527.000000" y="470">
8
</text>
<rect height="7.000000" width="2.000000" x="565.000000" y="450.000000" fill="rgb(0, 0, 0)" style="fill-opacity:1.00" />
<text x="587.000000" y="470">
9
</text>
<rect height="7.000000" width="2.000000" x="625.000000" y="450.000000" fill="rgb(0, 0, 0)" style="fill-opacity:1.00" />
<text x="647.000000" y="470">
10
</text>
<rect height="7.000000" width="2.000000" x="685.000000" y="450.000000" fill="rgb(0, 0, 0)" style="fill-opacity:1.00" />
<text x="707.000000" y="470">
11
</text>
<rect height="7.000000" width="2.000000" x="745.000000" y="450.000000" fill="rgb(0, 0, 0)" style="fill-opacity:1.00" />
<!-- Begin 'A' -->
<polygon points=" 10.000000, 110.000000, 35.200000, 10.000000, 44.800000, 10.000000, 70.000000, 110.000000, 61.000000, 110.000000, 53.500000, 85.000000, 26.500000, 85.000000, 19.000000, 110.000000" fill="rgb(178, 34, 34)" style="fill-opacity:1.00" />
<polygon points=" 40.000000, 30.000000, 30.400000, 69.000000, 48.400000, 69.000000" fill="rgb(255, 255, 255)" style="fill-opacity:1.00" />
<!-- End 'A' -->
<!-- Begin 'C' -->
<ellipse cx="40.000000" cy="170.000000" rx="30.000000" ry="50.000000" fill="rgb(0, 0, 128)" style="fill-opacity:1.00" />
<ellipse cx="40.000000" cy="170.000000" rx="20.000000" ry="33.333333" fill="rgb(255, 255, 255)" style="fill-opacity:1.00" />
<rect height="50.000000" width="30.000000" x="40.000000" y="145.000000" fill="rgb(255, 255, 255)" style="fill-opacity:1.00" />
<!-- End 'C' -->
<!-- Begin 'G' -->
<ellipse cx="40.000000" cy="280.000000" rx="30.000000" ry="50.000000" fill="rgb(255, 165, 0)" style="fill-opacity:1.00" />
<ellipse cx="40.000000" cy="280.000000" rx="20.000000" ry="33.333333" fill="rgb(255, 255, 255)" style="fill-opacity:1.00" />
<rect height="50.000000" width="30.000000" x="40.000000" y="255.000000" fill="rgb(255, 255, 255)" style="fill-opacity:1.00" />
<rect height="12.500000" width="30.000000" x="40.000000" y="292.500000" fill="rgb(255, 165, 0)" style="fill-opacity:1.00" />
<rect height="37.500000" width="7.500000" x="62.500000" y="292.500000" fill="rgb(255, 165, 0)" style="fill-opacity:1.00" />
<!-- End 'G' -->
<!-- Begin 'T' -->
<rect height="16.000000" width="60.000000" x="10.000000" y="340.000000" fill="rgb(0, 100, 0)" style="fill-opacity:1.00" />
<rect height="100.000000" width="12.000000" x="34.000000" y="340.000000" fill="rgb(0, 100, 0)" style="fill-opacity:1.00" />
<!-- End 'T' -->
<!-- Begin 'G' -->
<ellipse cx="115.000000" cy="28.475297" rx="25.000000" ry="18.475297" fill="rgb(255, 165, 0)" style="fill-opacity:0.26" />
<ellipse cx="115.000000" cy="28.475297" rx="16.666667" ry="12.316865" fill="rgb(255, 255, 255)" style="fill-opacity:1.00" />
<rect height="18.475297" width="25.000000" x="115.000000" y="19.237648" fill="rgb(255, 255, 255)" style="fill-opacity:1.00" />
<rect height="4.618824" width="25.000000" x="115.000000" y="33.094121" fill="rgb(255, 165, 0)" style="fill-opacity:0.26" />
<rect height="13.856473" width="6.250000" x="133.750000" y="33.094121" fill="rgb(255, 165, 0)" style="fill-opacity:0.26" />
<!-- End 'G' -->
<!-- Begin 'A' -->
<polygon points=" 90.000000, 68.675599, 111.000000, 46.950594, 119.000000, 46.950594, 140.000000, 68.675599, 132.500000, 68.675599, 126.250000, 63.244348, 103.750000, 63.244348, 97.500000, 68.675599" fill="rgb(178, 34, 34)" style="fill-opacity:0.26" />
<polygon points=" 115.000000, 51.295595, 107.000000, 58.985597, 122.000000, 58.985597" fill="rgb(255, 255, 255)" style="fill-opacity:1.00" />
<!-- End 'A' -->
<!-- Begin 'T' -->
<rect height="3.459387" width="50.000000" x="90.000000" y="68.675599" fill="rgb(0, 100, 0)" style="fill-opacity:0.26" />
<rect height="21.621171" width="10.000000" x="110.000000" y="68.675599" fill="rgb(0, 100, 0)" style="fill-opacity:0.26" />
<!-- End 'T' -->
<!-- Begin 'C' -->
<ellipse cx="115.000000" cy="100.148385" rx="25.000000" ry="9.851615" fill="rgb(0, 0, 128)" style="fill-opacity:0.26" />
<ellipse cx="115.000000" cy="100.148385" rx="16.666667" ry="6.567743" fill="rgb(255, 255, 255)" style="fill-opacity:1.00" />
<rect height="9.851615" width="25.000000" x="115.000000" y="95.222578" fill="rgb(255, 255, 255)" style="fill-opacity:1.00" />
<!-- End 'C' -->
<!-- Begin 'T' -->
<rect height="5.721375" width="50.000000" x="90.000000" y="120.000000" fill="rgb(0, 100, 0)" style="fill-opacity:0.25" />
<rect height="35.758592" width="10.000000" x="110.000000" y="120.000000" fill="rgb(0, 100, 0)" style="fill-opacity:0.25" />
<!-- End 'T' -->
<!-- Begin 'C' -->
<ellipse cx="115.000000" cy="170.198542" rx="25.000000" ry="14.439950" fill="rgb(0, 0, 128)" style="fill-opacity:0.25" />
<ellipse cx="115.000000" cy="170.198542" rx="16.666667" ry="9.626633" fill="rgb(255, 255, 255)" style="fill-opacity:1.00" />
<rect height="14.439950" width="25.000000" x="115.000000" y="162.978567" fill="rgb(255, 255, 255)" style="fill-opacity:1.00" />
<!-- End 'C' -->
<!-- Begin 'A' -->
<polygon points=" 90.000000, 211.758879, 111.000000, 184.638492, 119.000000, 184.638492, 140.000000, 211.758879, 132.500000, 211.758879, 126.250000, 204.978782, 103.750000, 204.978782, 97.500000, 211.758879" fill="rgb(178, 34, 34)" style="fill-opacity:0.25" />
<polygon points=" 115.000000, 190.062569, 107.000000, 199.910724, 122.000000, 199.910724" fill="rgb(255, 255, 255)" style="fill-opacity:1.00" />
<!-- End 'A' -->
<!-- Begin 'G' -->
<ellipse cx="115.000000" cy="215.879440" rx="25.000000" ry="4.120560" fill="rgb(255, 165, 0)" style="fill-opacity:0.25" />
<ellipse cx="115.000000" cy="215.879440" rx="16.666667" ry="2.747040" fill="rgb(255, 255, 255)" style="fill-opacity:1.00" />
<rect height="4.120560" width="25.000000" x="115.000000" y="213.819159" fill="rgb(255, 255, 255)" style="fill-opacity:1.00" />
<rect height="1.030140" width="25.000000" x="115.000000" y="216.909580" fill="rgb(255, 165, 0)" style="fill-opacity:0.25" />
<rect height="3.090420" width="6.250000" x="133.750000" y="216.909580" fill="rgb(255, 165, 0)" style="fill-opacity:0.25" />
<!-- End 'G' -->
<!-- Begin 'G' -->
<ellipse cx="115.000000" cy="245.859730" rx="25.000000" ry="15.859730" fill="rgb(255, 165, 0)" style="fill-opacity:0.24" />
<ellipse cx="115.000000" cy="245.859730" rx="16.666667" ry="10.573154" fill="rgb(255, 255, 255)" style="fill-opacity:1.00" />
<rect height="15.859730" width="25.000000" x="115.000000" y="237.929865" fill="rgb(255, 255, 255)" style="fill-opacity:1.00" />
<rect height="3.964933" width="25.000000" x="115.000000" y="249.824663" fill="rgb(255, 165, 0)" style="fill-opacity:0.24" />
<rect height="11.894798" width="6.250000" x="133.750000" y="249.824663" fill="rgb(255, 165, 0)" style="fill-opacity:0.24" />
<!-- End 'G' -->
<!-- Begin 'A' -->
<polygon points=" 90.000000, 288.054558, 111.000000, 261.719461, 119.000000, 261.719461, 140.000000, 288.054558, 132.500000, 288.054558, 126.250000, 281.470784, 103.750000, 281.470784, 97.500000, 288.054558" fill="rgb(178, 34, 34)" style="fill-opacity:0.24" />
<polygon points=" 115.000000, 266.986480, 107.000000, 276.520519, 122.000000, 276.520519" fill="rgb(255, 255, 255)" style="fill-opacity:1.00" />
<!-- End 'A' -->
<!-- Begin 'C' -->
<ellipse cx="115.000000" cy="298.806804" rx="25.000000" ry="10.752246" fill="rgb(0, 0, 128)" style="fill-opacity:0.24" />
<ellipse cx="115.000000" cy="298.806804" rx="16.666667" ry="7.168164" fill="rgb(255, 255, 255)" style="fill-opacity:1.00" />
<rect height="10.752246" width="25.000000" x="115.000000" y="293.430681" fill="rgb(255, 255, 255)" style="fill-opacity:1.00" />
<!-- End 'C' -->
<!-- Begin 'T' -->
<rect height="3.270552" width="50.000000" x="90.000000" y="309.559051" fill="rgb(0, 100, 0)" style="fill-opacity:0.24" />
<rect height="20.440949" width="10.000000" x="110.000000" y="309.559051" fill="rgb(0, 100, 0)" style="fill-opacity:0.24" />
<!-- End 'T' -->
<!-- Begin 'G' -->
<ellipse cx="115.000000" cy="360.209059" rx="25.000000" ry="20.209059" fill="rgb(255, 165, 0)" style="fill-opacity:0.25" />
<ellipse cx="115.000000" cy="360.209059" rx="16.666667" ry="13.472706" fill="rgb(255, 255, 255)" style="fill-opacity:1.00" />
<rect height="20.209059" width="25.000000" x="115.000000" y="350.104530" fill="rgb(255, 255, 255)" style="fill-opacity:1.00" />
<rect height="5.052265" width="25.000000" x="115.000000" y="365.261324" fill="rgb(255, 165, 0)" style="fill-opacity:0.25" />
<rect height="15.156794" width="6.250000" x="133.750000" y="365.261324" fill="rgb(255, 165, 0)" style="fill-opacity:0.25" />
<!-- End 'G' -->
<!-- Begin 'T' -->
<rect height="3.915472" width="50.000000" x="90.000000" y="380.418119" fill="rgb(0, 100, 0)" style="fill-opacity:0.25" />
<rect height="24.471697" width="10.000000" x="110.000000" y="380.418119" fill="rgb(0, 100, 0)" style="fill-opacity:0.25" />
<!-- End 'T' -->
<!-- Begin 'C' -->
<ellipse cx="115.000000" cy="415.656832" rx="25.000000" ry="10.767017" fill="rgb(0, 0, 128)" style="fill-opacity:0.25" />
<ellipse cx="115.000000" cy="415.656832" rx="16.666667" ry="7.178011" fill="rgb(255, 255, 255)" style="fill-opacity:1.00" />
<rect height="10.767017" width="25.000000" x="115.000000" y="410.273324" fill="rgb(255, 255, 255)" style="fill-opacity:1.00" />
<!-- End 'C' -->
<!-- Begin 'A' -->
<polygon points=" 90.000000, 440.000000, 111.000000, 426.423849, 119.000000, 426.423849, 140.000000, 440.000000, 132.500000, 440.000000, 126.250000, 436.605962, 103.750000, 436.605962, 97.500000, 440.000000" fill="rgb(178, 34, 34)" style="fill-opacity:0.25" />
<polygon points=" 115.000000, 429.139079, 107.000000, 433.569540, 122.000000, 433.569540" fill="rgb(255, 255, 255)" style="fill-opacity:1.00" />
<!-- End 'A' -->
<!-- Begin 'G' -->
<ellipse cx="175.000000" cy="29.750505" rx="25.000000" ry="19.750505" fill="rgb(255, 165, 0)" style="fill-opacity:0.22" />
<ellipse cx="175.000000" cy="29.750505" rx="16.666667" ry="13.167004" fill="rgb(255, 255, 255)" style="fill-opacity:1.00" />
<rect height="19.750505" width="25.000000" x="175.000000" y="19.875253" fill="rgb(255, 255, 255)" style="fill-opacity:1.00" />
<rect height="4.937626" width="25.000000" x="175.000000" y="34.688132" fill="rgb(255, 165, 0)" style="fill-opacity:0.22" />
<rect height="14.812879" width="6.250000" x="193.750000" y="34.688132" fill="rgb(255, 165, 0)" style="fill-opacity:0.22" />
<!-- End 'G' -->
<!-- Begin 'A' -->
<polygon points=" 150.000000, 78.833627, 171.000000, 49.501011, 179.000000, 49.501011, 200.000000, 78.833627, 192.500000, 78.833627, 186.250000, 71.500473, 163.750000, 71.500473, 157.500000, 78.833627" fill="rgb(178, 34, 34)" style="fill-opacity:0.22" />
<polygon points=" 175.000000, 55.367534, 167.000000, 66.100580, 182.000000, 66.100580" fill="rgb(255, 255, 255)" style="fill-opacity:1.00" />
<!-- End 'A' -->
<!-- Begin 'T' -->
<rect height="2.853712" width="50.000000" x="150.000000" y="78.833627" fill="rgb(0, 100, 0)" style="fill-opacity:0.22" />
<rect height="17.835703" width="10.000000" x="170.000000" y="78.833627" fill="rgb(0, 100, 0)" style="fill-opacity:0.22" />
<!-- End 'T' -->
<!-- Begin 'C' -->
<ellipse cx="175.000000" cy="103.334665" rx="25.000000" ry="6.665335" fill="rgb(0, 0, 128)" style="fill-opacity:0.22" />
<ellipse cx="175.000000" cy="103.334665" rx="16.666667" ry="4.443557" fill="rgb(255, 255, 255)" style="fill-opacity:1.00" />
<rect height="6.665335" width="25.000000" x="175.000000" y="100.001997" fill="rgb(255, 255, 255)" style="fill-opacity:1.00" />
<!-- End 'C' -->
<!-- Begin 'T' -->
<rect height="5.855123" width="50.000000" x="150.000000" y="120.000000" fill="rgb(0, 100, 0)" style="fill-opacity:0.23" />
<rect height="36.594519" width="10.000000" x="170.000000" y="120.000000" fill="rgb(0, 100, 0)" style="fill-opacity:0.23" />
<!-- End 'T' -->
<!-- Begin 'A' -->
<polygon points=" 150.000000, 186.304478, 171.000000, 156.594519, 179.000000, 156.594519, 200.000000, 186.304478, 192.500000, 186.304478, 186.250000, 178.876988, 163.750000, 178.876988, 157.500000, 186.304478" fill="rgb(178, 34, 34)" style="fill-opacity:0.23" />
<polygon points=" 175.000000, 162.536510, 167.000000, 173.420494, 182.000000, 173.420494" fill="rgb(255, 255, 255)" style="fill-opacity:1.00" />
<!-- End 'A' -->
<!-- Begin 'C' -->
<ellipse cx="175.000000" cy="196.356050" rx="25.000000" ry="10.051572" fill="rgb(0, 0, 128)" style="fill-opacity:0.23" />
<ellipse cx="175.000000" cy="196.356050" rx="16.666667" ry="6.701048" fill="rgb(255, 255, 255)" style="fill-opacity:1.00" />
<rect height="10.051572" width="25.000000" x="175.000000" y="191.330264" fill="rgb(255, 255, 255)" style="fill-opacity:1.00" />
<!-- End 'C' -->
<!-- Begin 'G' -->
<ellipse cx="175.000000" cy="213.203811" rx="25.000000" ry="6.796189" fill="rgb(255, 165, 0)" style="fill-opacity:0.23" />
<ellipse cx="175.000000" cy="213.203811" rx="16.666667" ry="4.530793" fill="rgb(255, 255, 255)" style="fill-opacity:1.00" />
<rect height="6.796189" width="25.000000" x="175.000000" y="209.805717" fill="rgb(255, 255, 255)" style="fill-opacity:1.00" />
<rect height="1.699047" width="25.000000" x="175.000000" y="214.902858" fill="rgb(255, 165, 0)" style="fill-opacity:0.23" />
<rect height="5.097142" width="6.250000" x="193.750000" y="214.902858" fill="rgb(255, 165, 0)" style="fill-opacity:0.23" />
<!-- End 'G' -->
<!-- Begin 'G' -->
<ellipse cx="175.000000" cy="247.679221" rx="25.000000" ry="17.679221" fill="rgb(255, 165, 0)" style="fill-opacity:0.30" />
<ellipse cx="175.000000" cy="247.679221" rx="16.666667" ry="11.786147" fill="rgb(255, 255, 255)" style="fill-opacity:1.00" />
<rect height="17.679221" width="25.000000" x="175.000000" y="238.839610" fill="rgb(255, 255, 255)" style="fill-opacity:1.00" />
<rect height="4.419805" width="25.000000" x="175.000000" y="252.099026" fill="rgb(255, 165, 0)" style="fill-opacity:0.30" />
<rect height="13.259416" width="6.250000" x="193.750000" y="252.099026" fill="rgb(255, 165, 0)" style="fill-opacity:0.30" />
<!-- End 'G' -->
<!-- Begin 'A' -->
<polygon points=" 150.000000, 289.403134, 171.000000, 265.358442, 179.000000, 265.358442, 200.000000, 289.403134, 192.500000, 289.403134, 186.250000, 283.391961, 163.750000, 283.391961, 157.500000, 289.403134" fill="rgb(178, 34, 34)" style="fill-opacity:0.30" />
<polygon points=" 175.000000, 270.167380, 167.000000, 278.785257, 182.000000, 278.785257" fill="rgb(255, 255, 255)" style="fill-opacity:1.00" />
<!-- End 'A' -->
<!-- Begin 'T' -->
<rect height="3.300994" width="50.000000" x="150.000000" y="289.403134" fill="rgb(0, 100, 0)" style="fill-opacity:0.30" />
<rect height="20.631212" width="10.000000" x="170.000000" y="289.403134" fill="rgb(0, 100, 0)" style="fill-opacity:0.30" />
<!-- End 'T' -->
<!-- Begin 'C' -->
<ellipse cx="175.000000" cy="320.017173" rx="25.000000" ry="9.982827" fill="rgb(0, 0, 128)" style="fill-opacity:0.30" />
<ellipse cx="175.000000" cy="320.017173" rx="16.666667" ry="6.655218" fill="rgb(255, 255, 255)" style="fill-opacity:1.00" />
<rect height="9.982827" width="25.000000" x="175.000000" y="315.025759" fill="rgb(255, 255, 255)" style="fill-opacity:1.00" />
<!-- End 'C' -->
<!-- Begin 'G' -->
<ellipse cx="175.000000" cy="365.327735" rx="25.000000" ry="25.327735" fill="rgb(255, 165, 0)" style="fill-opacity:0.25" />
<ellipse cx="175.000000" cy="365.327735" rx="16.666667" ry="16.885156" fill="rgb(255, 255, 255)" style="fill-opacity:1.00" />
<rect height="25.327735" width="25.000000" x="175.000000" y="352.663867" fill="rgb(255, 255, 255)" style="fill-opacity:1.00" />
<rect height="6.331934" width="25.000000" x="175.000000" y="371.659668" fill="rgb(255, 165, 0)" style="fill-opacity:0.25" />
<rect height="18.995801" width="6.250000" x="193.750000" y="371.659668" fill="rgb(255, 165, 0)" style="fill-opacity:0.25" />
<!-- End 'G' -->
<!-- Begin 'T' -->
<rect height="3.448201" width="50.000000" x="150.000000" y="390.655469" fill="rgb(0, 100, 0)" style="fill-opacity:0.25" />
<rect height="21.551258" width="10.000000" x="170.000000" y="390.655469" fill="rgb(0, 100, 0)" style="fill-opacity:0.25" />
<!-- End 'T' -->
<!-- Begin 'C' -->
<ellipse cx="175.000000" cy="419.971424" rx="25.000000" ry="7.764697" fill="rgb(0, 0, 128)" style="fill-opacity:0.25" />
<ellipse cx="175.000000" cy="419.971424" rx="16.666667" ry="5.176465" fill="rgb(255, 255, 255)" style="fill-opacity:1.00" />
<rect height="7.764697" width="25.000000" x="175.000000" y="416.089075" fill="rgb(255, 255, 255)" style="fill-opacity:1.00" />
<!-- End 'C' -->
<!-- Begin 'A' -->
<polygon points=" 150.000000, 440.000000, 171.000000, 427.736121, 179.000000, 427.736121, 200.000000, 440.000000, 192.500000, 440.000000, 186.250000, 436.934030, 163.750000, 436.934030, 157.500000, 440.000000" fill="rgb(178, 34, 34)" style="fill-opacity:0.25" />
<polygon points=" 175.000000, 430.188897, 167.000000, 434.094448, 182.000000, 434.094448" fill="rgb(255, 255, 255)" style="fill-opacity:1.00" />
<!-- End 'A' -->
<!-- Begin 'A' -->
<polygon points=" 210.000000, 56.385033, 231.000000, 10.000000, 239.000000, 10.000000, 260.000000, 56.385033, 252.500000, 56.385033, 246.250000, 44.788774, 223.750000, 44.788774, 217.500000, 56.385033" fill="rgb(178, 34, 34)" style="fill-opacity:0.24" />
<polygon points=" 235.000000, 19.277007, 227.000000, 36.831020, 242.000000, 36.831020" fill="rgb(255, 255, 255)" style="fill-opacity:1.00" />
<!-- End 'A' -->
<!-- Begin 'G' -->
<ellipse cx="235.000000" cy="76.284921" rx="25.000000" ry="19.899889" fill="rgb(255, 165, 0)" style="fill-opacity:0.24" />
<ellipse cx="235.000000" cy="76.284921" rx="16.666667" ry="13.266592" fill="rgb(255, 255, 255)" style="fill-opacity:1.00" />
<rect height="19.899889" width="25.000000" x="235.000000" y="66.334977" fill="rgb(255, 255, 255)" style="fill-opacity:1.00" />
<rect height="4.974972" width="25.000000" x="235.000000" y="81.259893" fill="rgb(255, 165, 0)" style="fill-opacity:0.24" />
<rect height="14.924916" width="6.250000" x="253.750000" y="81.259893" fill="rgb(255, 165, 0)" style="fill-opacity:0.24" />
<!-- End 'G' -->
<!-- Begin 'C' -->
<ellipse cx="235.000000" cy="101.952239" rx="25.000000" ry="5.767429" fill="rgb(0, 0, 128)" style="fill-opacity:0.24" />
<ellipse cx="235.000000" cy="101.952239" rx="16.666667" ry="3.844953" fill="rgb(255, 255, 255)" style="fill-opacity:1.00" />
<rect height="5.767429" width="25.000000" x="235.000000" y="99.068525" fill="rgb(255, 255, 255)" style="fill-opacity:1.00" />
<!-- End 'C' -->
<!-- Begin 'T' -->
<rect height="0.364853" width="50.000000" x="210.000000" y="107.719669" fill="rgb(0, 100, 0)" style="fill-opacity:0.24" />
<rect height="2.280331" width="10.000000" x="230.000000" y="107.719669" fill="rgb(0, 100, 0)" style="fill-opacity:0.24" />
<!-- End 'T' -->
<!-- Begin 'A' -->
<polygon points=" 210.000000, 185.729238, 231.000000, 120.000000, 239.000000, 120.000000, 260.000000, 185.729238, 252.500000, 185.729238, 246.250000, 169.296928, 223.750000, 169.296928, 217.500000, 185.729238" fill="rgb(178, 34, 34)" style="fill-opacity:0.17" />
<polygon points=" 235.000000, 133.145848, 227.000000, 158.437543, 242.000000, 158.437543" fill="rgb(255, 255, 255)" style="fill-opacity:1.00" />
<!-- End 'A' -->
<!-- Begin 'C' -->
<ellipse cx="235.000000" cy="194.850245" rx="25.000000" ry="9.121008" fill="rgb(0, 0, 128)" style="fill-opacity:0.17" />
<ellipse cx="235.000000" cy="194.850245" rx="16.666667" ry="6.080672" fill="rgb(255, 255, 255)" style="fill-opacity:1.00" />
<rect height="9.121008" width="25.000000" x="235.000000" y="190.289741" fill="rgb(255, 255, 255)" style="fill-opacity:1.00" />
<!-- End 'C' -->
<!-- Begin 'G' -->
<ellipse cx="235.000000" cy="209.842827" rx="25.000000" ry="5.871574" fill="rgb(255, 165, 0)" style="fill-opacity:0.17" />
<ellipse cx="235.000000" cy="209.842827" rx="16.666667" ry="3.914382" fill="rgb(255, 255, 255)" style="fill-opacity:1.00" />
<rect height="5.871574" width="25.000000" x="235.000000" y="206.907040" fill="rgb(255, 255, 255)" style="fill-opacity:1.00" />
<rect height="1.467893" width="25.000000" x="235.000000" y="211.310720" fill="rgb(255, 165, 0)" style="fill-opacity:0.17" />
<rect height="4.403680" width="6.250000" x="253.750000" y="211.310720" fill="rgb(255, 165, 0)" style="fill-opacity:0.17" />
<!-- End 'G' -->
<!-- Begin 'T' -->
<rect height="0.685696" width="50.000000" x="210.000000" y="215.714400" fill="rgb(0, 100, 0)" style="fill-opacity:0.17" />
<rect height="4.285600" width="10.000000" x="230.000000" y="215.714400" fill="rgb(0, 100, 0)" style="fill-opacity:0.17" />
<!-- End 'T' -->
<!-- Begin 'A' -->
<polygon points=" 210.000000, 273.560651, 231.000000, 230.000000, 239.000000, 230.000000, 260.000000, 273.560651, 252.500000, 273.560651, 246.250000, 262.670488, 223.750000, 262.670488, 217.500000, 273.560651" fill="rgb(178, 34, 34)" style="fill-opacity:0.35" />
<polygon points=" 235.000000, 238.712130, 227.000000, 255.136390, 242.000000, 255.136390" fill="rgb(255, 255, 255)" style="fill-opacity:1.00" />
<!-- End 'A' -->
<!-- Begin 'G' -->
<ellipse cx="235.000000" cy="287.895691" rx="25.000000" ry="14.335040" fill="rgb(255, 165, 0)" style="fill-opacity:0.35" />
<ellipse cx="235.000000" cy="287.895691" rx="16.666667" ry="9.556694" fill="rgb(255, 255, 255)" style="fill-opacity:1.00" />
<rect height="14.335040" width="25.000000" x="235.000000" y="280.728171" fill="rgb(255, 255, 255)" style="fill-opacity:1.00" />
<rect height="3.583760" width="25.000000" x="235.000000" y="291.479451" fill="rgb(255, 165, 0)" style="fill-opacity:0.35" />
<rect height="10.751280" width="6.250000" x="253.750000" y="291.479451" fill="rgb(255, 165, 0)" style="fill-opacity:0.35" />
<!-- End 'G' -->
<!-- Begin 'C' -->
<ellipse cx="235.000000" cy="313.612598" rx="25.000000" ry="11.381867" fill="rgb(0, 0, 128)" style="fill-opacity:0.35" />
<ellipse cx="235.000000" cy="313.612598" rx="16.666667" ry="7.587911" fill="rgb(255, 255, 255)" style="fill-opacity:1.00" />
<rect height="11.381867" width="25.000000" x="235.000000" y="307.921665" fill="rgb(255, 255, 255)" style="fill-opacity:1.00" />
<!-- End 'C' -->
<!-- Begin 'T' -->
<rect height="0.800886" width="50.000000" x="210.000000" y="324.994465" fill="rgb(0, 100, 0)" style="fill-opacity:0.35" />
<rect height="5.005535" width="10.000000" x="230.000000" y="324.994465" fill="rgb(0, 100, 0)" style="fill-opacity:0.35" />
<!-- End 'T' -->
<!-- Begin 'A' -->
<polygon points=" 210.000000, 375.666147, 231.000000, 340.000000, 239.000000, 340.000000, 260.000000, 375.666147, 252.500000, 375.666147, 246.250000, 366.749610, 223.750000, 366.749610, 217.500000, 375.666147" fill="rgb(178, 34, 34)" style="fill-opacity:0.24" />
<polygon points=" 235.000000, 347.133229, 227.000000, 360.399688, 242.000000, 360.399688" fill="rgb(255, 255, 255)" style="fill-opacity:1.00" />
<!-- End 'A' -->
<!-- Begin 'G' -->
<ellipse cx="235.000000" cy="392.840071" rx="25.000000" ry="17.173924" fill="rgb(255, 165, 0)" style="fill-opacity:0.24" />
<ellipse cx="235.000000" cy="392.840071" rx="16.666667" ry="11.449283" fill="rgb(255, 255, 255)" style="fill-opacity:1.00" />
<rect height="17.173924" width="25.000000" x="235.000000" y="384.253109" fill="rgb(255, 255, 255)" style="fill-opacity:1.00" />
<rect height="4.293481" width="25.000000" x="235.000000" y="397.133552" fill="rgb(255, 165, 0)" style="fill-opacity:0.24" />
<rect height="12.880443" width="6.250000" x="253.750000" y="397.133552" fill="rgb(255, 165, 0)" style="fill-opacity:0.24" />
<!-- End 'G' -->
<!-- Begin 'C' -->
<ellipse cx="235.000000" cy="423.776594" rx="25.000000" ry="13.762598" fill="rgb(0, 0, 128)" style="fill-opacity:0.24" />
<ellipse cx="235.000000" cy="423.776594" rx="16.666667" ry="9.175065" fill="rgb(255, 255, 255)" style="fill-opacity:1.00" />
<rect height="13.762598" width="25.000000" x="235.000000" y="416.895295" fill="rgb(255, 255, 255)" style="fill-opacity:1.00" />
<!-- End 'C' -->
<!-- Begin 'T' -->
<rect height="0.393729" width="50.000000" x="210.000000" y="437.539192" fill="rgb(0, 100, 0)" style="fill-opacity:0.24" />
<rect height="2.460808" width="10.000000" x="230.000000" y="437.539192" fill="rgb(0, 100, 0)" style="fill-opacity:0.24" />
<!-- End 'T' -->
<!-- Begin 'T' -->
<rect height="15.984380" width="50.000000" x="270.000000" y="10.000000" fill="rgb(0, 100, 0)" style="fill-opacity:0.46" />
<rect height="99.902378" width="10.000000" x="290.000000" y="10.000000" fill="rgb(0, 100, 0)" style="fill-opacity:0.46" />
<!-- End 'T' -->
<!-- Begin 'A' -->
<polygon points=" 270.000000, 109.944490, 291.000000, 109.902378, 299.000000, 109.902378, 320.000000, 109.944490, 312.500000, 109.944490, 306.250000, 109.933962, 283.750000, 109.933962, 277.500000, 109.944490" fill="rgb(178, 34, 34)" style="fill-opacity:0.46" />
<!-- End 'A' -->
<!-- Begin 'C' -->
<ellipse cx="295.000000" cy="109.961815" rx="25.000000" ry="0.017325" fill="rgb(0, 0, 128)" style="fill-opacity:0.46" />
<ellipse cx="295.000000" cy="109.961815" rx="16.666667" ry="0.011550" fill="rgb(255, 255, 255)" style="fill-opacity:1.00" />
<rect height="0.017325" width="25.000000" x="295.000000" y="109.953153" fill="rgb(255, 255, 255)" style="fill-opacity:1.00" />
<!-- End 'C' -->
<!-- Begin 'G' -->
<ellipse cx="295.000000" cy="109.989570" rx="25.000000" ry="0.010430" fill="rgb(255, 165, 0)" style="fill-opacity:0.46" />
<ellipse cx="295.000000" cy="109.989570" rx="16.666667" ry="0.006953" fill="rgb(255, 255, 255)" style="fill-opacity:1.00" />
<rect height="0.010430" width="25.000000" x="295.000000" y="109.984355" fill="rgb(255, 255, 255)" style="fill-opacity:1.00" />
<rect height="0.002607" width="25.000000" x="295.000000" y="109.992178" fill="rgb(255, 165, 0)" style="fill-opacity:0.46" />
<rect height="0.007822" width="6.250000" x="313.750000" y="109.992178" fill="rgb(255, 165, 0)" style="fill-opacity:0.46" />
<!-- End 'G' -->
<!-- Begin 'T' -->
<rect height="15.995043" width="50.000000" x="270.000000" y="120.000000" fill="rgb(0, 100, 0)" style="fill-opacity:0.20" />
<rect height="99.969018" width="10.000000" x="290.000000" y="120.000000" fill="rgb(0, 100, 0)" style="fill-opacity:0.20" />
<!-- End 'T' -->
<!-- Begin 'A' -->
<polygon points=" 270.000000, 219.985637, 291.000000, 219.969018, 299.000000, 219.969018, 320.000000, 219.985637, 312.500000, 219.985637, 306.250000, 219.981482, 283.750000, 219.981482, 277.500000, 219.985637" fill="rgb(178, 34, 34)" style="fill-opacity:0.20" />
<!-- End 'A' -->
<!-- Begin 'C' -->
<ellipse cx="295.000000" cy="219.992744" rx="25.000000" ry="0.007107" fill="rgb(0, 0, 128)" style="fill-opacity:0.20" />
<ellipse cx="295.000000" cy="219.992744" rx="16.666667" ry="0.004738" fill="rgb(255, 255, 255)" style="fill-opacity:1.00" />
<rect height="0.007107" width="25.000000" x="295.000000" y="219.989190" fill="rgb(255, 255, 255)" style="fill-opacity:1.00" />
<!-- End 'C' -->
<!-- Begin 'G' -->
<ellipse cx="295.000000" cy="219.999926" rx="25.000000" ry="0.000074" fill="rgb(255, 165, 0)" style="fill-opacity:0.20" />
<ellipse cx="295.000000" cy="219.999926" rx="16.666667" ry="0.000050" fill="rgb(255, 255, 255)" style="fill-opacity:1.00" />
<rect height="0.000074" width="25.000000" x="295.000000" y="219.999888" fill="rgb(255, 255, 255)" style="fill-opacity:1.00" />
<rect height="0.000019" width="25.000000" x="295.000000" y="219.999944" fill="rgb(255, 165, 0)" style="fill-opacity:0.20" />
<rect height="0.000056" width="6.250000" x="313.750000" y="219.999944" fill="rgb(255, 165, 0)" style="fill-opacity:0.20" />
<!-- End 'G' -->
<!-- Begin 'T' -->
<rect height="15.988056" width="50.000000" x="270.000000" y="230.000000" fill="rgb(0, 100, 0)" style="fill-opacity:0.30" />
<rect height="99.925351" width="10.000000" x="290.000000" y="230.000000" fill="rgb(0, 100, 0)" style="fill-opacity:0.30" />
<!-- End 'T' -->
<!-- Begin 'A' -->
<polygon points=" 270.000000, 329.962860, 291.000000, 329.925351, 299.000000, 329.925351, 320.000000, 329.962860, 312.500000, 329.962860, 306.250000, 329.953483, 283.750000, 329.953483, 277.500000, 329.962860" fill="rgb(178, 34, 34)" style="fill-opacity:0.30" />
<!-- End 'A' -->
<!-- Begin 'G' -->
<ellipse cx="295.000000" cy="329.976303" rx="25.000000" ry="0.013443" fill="rgb(255, 165, 0)" style="fill-opacity:0.30" />
<ellipse cx="295.000000" cy="329.976303" rx="16.666667" ry="0.008962" fill="rgb(255, 255, 255)" style="fill-opacity:1.00" />
<rect height="0.013443" width="25.000000" x="295.000000" y="329.969582" fill="rgb(255, 255, 255)" style="fill-opacity:1.00" />
<rect height="0.003361" width="25.000000" x="295.000000" y="329.979664" fill="rgb(255, 165, 0)" style="fill-opacity:0.30" />
<rect height="0.010082" width="6.250000" x="313.750000" y="329.979664" fill="rgb(255, 165, 0)" style="fill-opacity:0.30" />
<!-- End 'G' -->
<!-- Begin 'C' -->
<ellipse cx="295.000000" cy="329.994873" rx="25.000000" ry="0.005127" fill="rgb(0, 0, 128)" style="fill-opacity:0.30" />
<ellipse cx="295.000000" cy="329.994873" rx="16.666667" ry="0.003418" fill="rgb(255, 255, 255)" style="fill-opacity:1.00" />
<rect height="0.005127" width="25.000000" x="295.000000" y="329.992310" fill="rgb(255, 255, 255)" style="fill-opacity:1.00" />
<!-- End 'C' -->
<!-- Begin 'T' -->
<rect height="15.999973" width="50.000000" x="270.000000" y="340.000000" fill="rgb(0, 100, 0)" style="fill-opacity:0.04" />
<rect height="99.999834" width="10.000000" x="290.000000" y="340.000000" fill="rgb(0, 100, 0)" style="fill-opacity:0.04" />
<!-- End 'T' -->
<!-- Begin 'G' -->
<ellipse cx="295.000000" cy="439.999917" rx="25.000000" ry="0.000083" fill="rgb(255, 165, 0)" style="fill-opacity:0.04" />
<ellipse cx="295.000000" cy="439.999917" rx="16.666667" ry="0.000055" fill="rgb(255, 255, 255)" style="fill-opacity:1.00" />
<rect height="0.000083" width="25.000000" x="295.000000" y="439.999876" fill="rgb(255, 255, 255)" style="fill-opacity:1.00" />
<rect height="0.000021" width="25.000000" x="295.000000" y="439.999938" fill="rgb(255, 165, 0)" style="fill-opacity:0.04" />
<rect height="0.000062" width="6.250000" x="313.750000" y="439.999938" fill="rgb(255, 165, 0)" style="fill-opacity:0.04" />
<!-- End 'G' -->
<!-- Begin 'A' -->
<polygon points=" 270.000000, 440.000000, 291.000000, 440.000000, 299.000000, 440.000000, 320.000000, 440.000000, 312.500000, 440.000000, 306.250000, 440.000000, 283.750000, 440.000000, 277.500000, 440.000000" fill="rgb(178, 34, 34)" style="fill-opacity:0.04" />
<!-- End 'A' -->
<!-- Begin 'C' -->
<ellipse cx="295.000000" cy="440.000000" rx="25.000000" ry="0.000000" fill="rgb(0, 0, 128)" style="fill-opacity:0.04" />
<ellipse cx="295.000000" cy="440.000000" rx="16.666667" ry="0.000000" fill="rgb(255, 255, 255)" style="fill-opacity:1.00" />
<rect height="0.000000" width="25.000000" x="295.000000" y="440.000000" fill="rgb(255, 255, 255)" style="fill-opacity:1.00" />
<!-- End 'C' -->
<!-- Begin 'G' -->
<ellipse cx="355.000000" cy="59.993064" rx="25.000000" ry="49.993064" fill="rgb(255, 165, 0)" style="fill-opacity:0.00" />
<ellipse cx="355.000000" cy="59.993064" rx="16.666667" ry="33.328709" fill="rgb(255, 255, 255)" style="fill-opacity:1.00" />
<rect height="49.993064" width="25.000000" x="355.000000" y="34.996532" fill="rgb(255, 255, 255)" style="fill-opacity:1.00" />
<rect height="12.498266" width="25.000000" x="355.000000" y="72.491330" fill="rgb(255, 165, 0)" style="fill-opacity:0.00" />
<rect height="37.494798" width="6.250000" x="373.750000" y="72.491330" fill="rgb(255, 165, 0)" style="fill-opacity:0.00" />
<!-- End 'G' -->
<!-- Begin 'T' -->
<rect height="0.000844" width="50.000000" x="330.000000" y="109.986128" fill="rgb(0, 100, 0)" style="fill-opacity:0.00" />
<rect height="0.005277" width="10.000000" x="350.000000" y="109.986128" fill="rgb(0, 100, 0)" style="fill-opacity:0.00" />
<!-- End 'T' -->
<!-- Begin 'C' -->
<ellipse cx="355.000000" cy="109.993780" rx="25.000000" ry="0.002375" fill="rgb(0, 0, 128)" style="fill-opacity:0.00" />
<ellipse cx="355.000000" cy="109.993780" rx="16.666667" ry="0.001583" fill="rgb(255, 255, 255)" style="fill-opacity:1.00" />
<rect height="0.002375" width="25.000000" x="355.000000" y="109.992593" fill="rgb(255, 255, 255)" style="fill-opacity:1.00" />
<!-- End 'C' -->
<!-- Begin 'A' -->
<polygon points=" 330.000000, 110.000000, 351.000000, 109.996155, 359.000000, 109.996155, 380.000000, 110.000000, 372.500000, 110.000000, 366.250000, 109.999039, 343.750000, 109.999039, 337.500000, 110.000000" fill="rgb(178, 34, 34)" style="fill-opacity:0.00" />
<!-- End 'A' -->
<!-- Begin 'G' -->
<ellipse cx="355.000000" cy="169.996519" rx="25.000000" ry="49.996519" fill="rgb(255, 165, 0)" style="fill-opacity:0.00" />
<ellipse cx="355.000000" cy="169.996519" rx="16.666667" ry="33.331012" fill="rgb(255, 255, 255)" style="fill-opacity:1.00" />
<rect height="49.996519" width="25.000000" x="355.000000" y="144.998259" fill="rgb(255, 255, 255)" style="fill-opacity:1.00" />
<rect height="12.499130" width="25.000000" x="355.000000" y="182.495648" fill="rgb(255, 165, 0)" style="fill-opacity:0.00" />
<rect height="37.497389" width="6.250000" x="373.750000" y="182.495648" fill="rgb(255, 165, 0)" style="fill-opacity:0.00" />
<!-- End 'G' -->
<!-- Begin 'C' -->
<ellipse cx="355.000000" cy="219.995581" rx="25.000000" ry="0.002544" fill="rgb(0, 0, 128)" style="fill-opacity:0.00" />
<ellipse cx="355.000000" cy="219.995581" rx="16.666667" ry="0.001696" fill="rgb(255, 255, 255)" style="fill-opacity:1.00" />
<rect height="0.002544" width="25.000000" x="355.000000" y="219.994309" fill="rgb(255, 255, 255)" style="fill-opacity:1.00" />
<!-- End 'C' -->
<!-- Begin 'A' -->
<polygon points=" 330.000000, 219.999190, 351.000000, 219.998125, 359.000000, 219.998125, 380.000000, 219.999190, 372.500000, 219.999190, 366.250000, 219.998924, 343.750000, 219.998924, 337.500000, 219.999190" fill="rgb(178, 34, 34)" style="fill-opacity:0.00" />
<!-- End 'A' -->
<!-- Begin 'T' -->
<rect height="0.000130" width="50.000000" x="330.000000" y="219.999190" fill="rgb(0, 100, 0)" style="fill-opacity:0.00" />
<rect height="0.000810" width="10.000000" x="350.000000" y="219.999190" fill="rgb(0, 100, 0)" style="fill-opacity:0.00" />
<!-- End 'T' -->
<!-- Begin 'G' -->
<ellipse cx="355.000000" cy="279.983088" rx="25.000000" ry="49.983088" fill="rgb(255, 165, 0)" style="fill-opacity:0.00" />
<ellipse cx="355.000000" cy="279.983088" rx="16.666667" ry="33.322059" fill="rgb(255, 255, 255)" style="fill-opacity:1.00" />
<rect height="49.983088" width="25.000000" x="355.000000" y="254.991544" fill="rgb(255, 255, 255)" style="fill-opacity:1.00" />
<rect height="12.495772" width="25.000000" x="355.000000" y="292.478861" fill="rgb(255, 165, 0)" style="fill-opacity:0.00" />
<rect height="37.487316" width="6.250000" x="373.750000" y="292.478861" fill="rgb(255, 165, 0)" style="fill-opacity:0.00" />
<!-- End 'G' -->
<!-- Begin 'A' -->
<polygon points=" 330.000000, 329.988271, 351.000000, 329.966177, 359.000000, 329.966177, 380.000000, 329.988271, 372.500000, 329.988271, 366.250000, 329.982748, 343.750000, 329.982748, 337.500000, 329.988271" fill="rgb(178, 34, 34)" style="fill-opacity:0.00" />
<!-- End 'A' -->
<!-- Begin 'C' -->
<ellipse cx="355.000000" cy="329.993605" rx="25.000000" ry="0.005334" fill="rgb(0, 0, 128)" style="fill-opacity:0.00" />
<ellipse cx="355.000000" cy="329.993605" rx="16.666667" ry="0.003556" fill="rgb(255, 255, 255)" style="fill-opacity:1.00" />
<rect height="0.005334" width="25.000000" x="355.000000" y="329.990938" fill="rgb(255, 255, 255)" style="fill-opacity:1.00" />
<!-- End 'C' -->
<!-- Begin 'T' -->
<rect height="0.000170" width="50.000000" x="330.000000" y="329.998938" fill="rgb(0, 100, 0)" style="fill-opacity:0.00" />
<rect height="0.001062" width="10.000000" x="350.000000" y="329.998938" fill="rgb(0, 100, 0)" style="fill-opacity:0.00" />
<!-- End 'T' -->
<!-- Begin 'G' -->
<ellipse cx="355.000000" cy="386.563622" rx="25.000000" ry="46.563622" fill="rgb(255, 165, 0)" style="fill-opacity:1.00" />
<ellipse cx="355.000000" cy="386.563622" rx="16.666667" ry="31.042415" fill="rgb(255, 255, 255)" style="fill-opacity:1.00" />
<rect height="46.563622" width="25.000000" x="355.000000" y="363.281811" fill="rgb(255, 255, 255)" style="fill-opacity:1.00" />
<rect height="11.640905" width="25.000000" x="355.000000" y="398.204527" fill="rgb(255, 165, 0)" style="fill-opacity:1.00" />
<rect height="34.922716" width="6.250000" x="373.750000" y="398.204527" fill="rgb(255, 165, 0)" style="fill-opacity:1.00" />
<!-- End 'G' -->
<!-- Begin 'T' -->
<rect height="1.061276" width="50.000000" x="330.000000" y="433.127244" fill="rgb(0, 100, 0)" style="fill-opacity:1.00" />
<rect height="6.632973" width="10.000000" x="350.000000" y="433.127244" fill="rgb(0, 100, 0)" style="fill-opacity:1.00" />
<!-- End 'T' -->
<!-- Begin 'A' -->
<polygon points=" 330.000000, 439.894485, 351.000000, 439.760217, 359.000000, 439.760217, 380.000000, 439.894485, 372.500000, 439.894485, 366.250000, 439.860918, 343.750000, 439.860918, 337.500000, 439.894485" fill="rgb(178, 34, 34)" style="fill-opacity:1.00" />
<!-- End 'A' -->
<!-- Begin 'C' -->
<ellipse cx="355.000000" cy="439.947242" rx="25.000000" ry="0.052758" fill="rgb(0, 0, 128)" style="fill-opacity:1.00" />
<ellipse cx="355.000000" cy="439.947242" rx="16.666667" ry="0.035172" fill="rgb(255, 255, 255)" style="fill-opacity:1.00" />
<rect height="0.052758" width="25.000000" x="355.000000" y="439.920863" fill="rgb(255, 255, 255)" style="fill-opacity:1.00" />
<!-- End 'C' -->
<!-- Begin 'A' -->
<polygon points=" 390.000000, 109.992756, 411.000000, 10.000000, 419.000000, 10.000000, 440.000000, 109.992756, 432.500000, 109.992756, 426.250000, 84.994567, 403.750000, 84.994567, 397.500000, 109.992756" fill="rgb(178, 34, 34)" style="fill-opacity:0.00" />
<polygon points=" 415.000000, 29.998551, 407.000000, 68.995654, 422.000000, 68.995654" fill="rgb(255, 255, 255)" style="fill-opacity:1.00" />
<!-- End 'A' -->
<!-- Begin 'T' -->
<rect height="0.001058" width="50.000000" x="390.000000" y="109.992756" fill="rgb(0, 100, 0)" style="fill-opacity:0.00" />
<rect height="0.006611" width="10.000000" x="410.000000" y="109.992756" fill="rgb(0, 100, 0)" style="fill-opacity:0.00" />
<!-- End 'T' -->
<!-- Begin 'C' -->
<ellipse cx="415.000000" cy="109.999648" rx="25.000000" ry="0.000281" fill="rgb(0, 0, 128)" style="fill-opacity:0.00" />
<ellipse cx="415.000000" cy="109.999648" rx="16.666667" ry="0.000187" fill="rgb(255, 255, 255)" style="fill-opacity:1.00" />
<rect height="0.000281" width="25.000000" x="415.000000" y="109.999507" fill="rgb(255, 255, 255)" style="fill-opacity:1.00" />
<!-- End 'C' -->
<!-- Begin 'G' -->
<ellipse cx="415.000000" cy="109.999964" rx="25.000000" ry="0.000036" fill="rgb(255, 165, 0)" style="fill-opacity:0.00" />
<ellipse cx="415.000000" cy="109.999964" rx="16.666667" ry="0.000024" fill="rgb(255, 255, 255)" style="fill-opacity:1.00" />
<rect height="0.000036" width="25.000000" x="415.000000" y="109.999947" fill="rgb(255, 255, 255)" style="fill-opacity:1.00" />
<rect height="0.000009" width="25.000000" x="415.000000" y="109.999973" fill="rgb(255, 165, 0)" style="fill-opacity:0.00" />
<rect height="0.000027" width="6.250000" x="433.750000" y="109.999973" fill="rgb(255, 165, 0)" style="fill-opacity:0.00" />
<!-- End 'G' -->
<!-- Begin 'A' -->
<polygon points=" 390.000000, 219.997173, 411.000000, 120.000000, 419.000000, 120.000000, 440.000000, 219.997173, 432.500000, 219.997173, 426.250000, 194.997880, 403.750000, 194.997880, 397.500000, 219.997173" fill="rgb(178, 34, 34)" style="fill-opacity:0.00" />
<polygon points=" 415.000000, 139.999435, 407.000000, 178.998304, 422.000000, 178.998304" fill="rgb(255, 255, 255)" style="fill-opacity:1.00" />
<!-- End 'A' -->
<!-- Begin 'T' -->
<rect height="0.000399" width="50.000000" x="390.000000" y="219.997173" fill="rgb(0, 100, 0)" style="fill-opacity:0.00" />
<rect height="0.002492" width="10.000000" x="410.000000" y="219.997173" fill="rgb(0, 100, 0)" style="fill-opacity:0.00" />
<!-- End 'T' -->
<!-- Begin 'G' -->
<ellipse cx="415.000000" cy="219.999808" rx="25.000000" ry="0.000143" fill="rgb(255, 165, 0)" style="fill-opacity:0.00" />
<ellipse cx="415.000000" cy="219.999808" rx="16.666667" ry="0.000095" fill="rgb(255, 255, 255)" style="fill-opacity:1.00" />
<rect height="0.000143" width="25.000000" x="415.000000" y="219.999737" fill="rgb(255, 255, 255)" style="fill-opacity:1.00" />
<rect height="0.000036" width="25.000000" x="415.000000" y="219.999844" fill="rgb(255, 165, 0)" style="fill-opacity:0.00" />
<rect height="0.000107" width="6.250000" x="433.750000" y="219.999844" fill="rgb(255, 165, 0)" style="fill-opacity:0.00" />
<!-- End 'G' -->
<!-- Begin 'C' -->
<ellipse cx="415.000000" cy="219.999976" rx="25.000000" ry="0.000024" fill="rgb(0, 0, 128)" style="fill-opacity:0.00" />
<ellipse cx="415.000000" cy="219.999976" rx="16.666667" ry="0.000016" fill="rgb(255, 255, 255)" style="fill-opacity:1.00" />
<rect height="0.000024" width="25.000000" x="415.000000" y="219.999963" fill="rgb(255, 255, 255)" style="fill-opacity:1.00" />
<!-- End 'C' -->
<!-- Begin 'A' -->
<polygon points=" 390.000000, 328.216030, 411.000000, 230.000000, 419.000000, 230.000000, 440.000000, 328.216030, 432.500000, 328.216030, 426.250000, 303.662023, 403.750000, 303.662023, 397.500000, 328.216030" fill="rgb(178, 34, 34)" style="fill-opacity:0.93" />
<polygon points=" 415.000000, 249.643206, 407.000000, 287.929618, 422.000000, 287.929618" fill="rgb(255, 255, 255)" style="fill-opacity:1.00" />
<!-- End 'A' -->
<!-- Begin 'T' -->
<rect height="0.216693" width="50.000000" x="390.000000" y="328.216030" fill="rgb(0, 100, 0)" style="fill-opacity:0.93" />
<rect height="1.354332" width="10.000000" x="410.000000" y="328.216030" fill="rgb(0, 100, 0)" style="fill-opacity:0.93" />
<!-- End 'T' -->
<!-- Begin 'C' -->
<ellipse cx="415.000000" cy="329.737318" rx="25.000000" ry="0.166956" fill="rgb(0, 0, 128)" style="fill-opacity:0.93" />
<ellipse cx="415.000000" cy="329.737318" rx="16.666667" ry="0.111304" fill="rgb(255, 255, 255)" style="fill-opacity:1.00" />
<rect height="0.166956" width="25.000000" x="415.000000" y="329.653840" fill="rgb(255, 255, 255)" style="fill-opacity:1.00" />
<!-- End 'C' -->
<!-- Begin 'G' -->
<ellipse cx="415.000000" cy="329.952137" rx="25.000000" ry="0.047863" fill="rgb(255, 165, 0)" style="fill-opacity:0.93" />
<ellipse cx="415.000000" cy="329.952137" rx="16.666667" ry="0.031909" fill="rgb(255, 255, 255)" style="fill-opacity:1.00" />
<rect height="0.047863" width="25.000000" x="415.000000" y="329.928205" fill="rgb(255, 255, 255)" style="fill-opacity:1.00" />
<rect height="0.011966" width="25.000000" x="415.000000" y="329.964102" fill="rgb(255, 165, 0)" style="fill-opacity:0.93" />
<rect height="0.035898" width="6.250000" x="433.750000" y="329.964102" fill="rgb(255, 165, 0)" style="fill-opacity:0.93" />
<!-- End 'G' -->
<!-- Begin 'A' -->
<polygon points=" 390.000000, 439.999888, 411.000000, 340.000000, 419.000000, 340.000000, 440.000000, 439.999888, 432.500000, 439.999888, 426.250000, 414.999916, 403.750000, 414.999916, 397.500000, 439.999888" fill="rgb(178, 34, 34)" style="fill-opacity:0.07" />
<polygon points=" 415.000000, 359.999978, 407.000000, 398.999933, 422.000000, 398.999933" fill="rgb(255, 255, 255)" style="fill-opacity:1.00" />
<!-- End 'A' -->
<!-- Begin 'T' -->
<rect height="0.000016" width="50.000000" x="390.000000" y="439.999888" fill="rgb(0, 100, 0)" style="fill-opacity:0.07" />
<rect height="0.000102" width="10.000000" x="410.000000" y="439.999888" fill="rgb(0, 100, 0)" style="fill-opacity:0.07" />
<!-- End 'T' -->
<!-- Begin 'G' -->
<ellipse cx="415.000000" cy="439.999994" rx="25.000000" ry="0.000004" fill="rgb(255, 165, 0)" style="fill-opacity:0.07" />
<ellipse cx="415.000000" cy="439.999994" rx="16.666667" ry="0.000003" fill="rgb(255, 255, 255)" style="fill-opacity:1.00" />
<rect height="0.000004" width="25.000000" x="415.000000" y="439.999992" fill="rgb(255, 255, 255)" style="fill-opacity:1.00" />
<rect height="0.000001" width="25.000000" x="415.000000" y="439.999995" fill="rgb(255, 165, 0)" style="fill-opacity:0.07" />
<rect height="0.000003" width="6.250000" x="433.750000" y="439.999995" fill="rgb(255, 165, 0)" style="fill-opacity:0.07" />
<!-- End 'G' -->
<!-- Begin 'C' -->
<ellipse cx="415.000000" cy="439.999999" rx="25.000000" ry="0.000001" fill="rgb(0, 0, 128)" style="fill-opacity:0.07" />
<ellipse cx="415.000000" cy="439.999999" rx="16.666667" ry="0.000001" fill="rgb(255, 255, 255)" style="fill-opacity:1.00" />
<rect height="0.000001" width="25.000000" x="415.000000" y="439.999998" fill="rgb(255, 255, 255)" style="fill-opacity:1.00" />
<!-- End 'C' -->
<!-- Begin 'C' -->
<ellipse cx="475.000000" cy="33.343262" rx="25.000000" ry="23.343262" fill="rgb(0, 0, 128)" style="fill-opacity:0.98" />
<ellipse cx="475.000000" cy="33.343262" rx="16.666667" ry="15.562174" fill="rgb(255, 255, 255)" style="fill-opacity:1.00" />
<rect height="23.343262" width="25.000000" x="475.000000" y="21.671631" fill="rgb(255, 255, 255)" style="fill-opacity:1.00" />
<!-- End 'C' -->
<!-- Begin 'G' -->
<ellipse cx="475.000000" cy="79.677172" rx="25.000000" ry="22.990649" fill="rgb(255, 165, 0)" style="fill-opacity:0.98" />
<ellipse cx="475.000000" cy="79.677172" rx="16.666667" ry="15.327099" fill="rgb(255, 255, 255)" style="fill-opacity:1.00" />
<rect height="22.990649" width="25.000000" x="475.000000" y="68.181848" fill="rgb(255, 255, 255)" style="fill-opacity:1.00" />
<rect height="5.747662" width="25.000000" x="475.000000" y="85.424834" fill="rgb(255, 165, 0)" style="fill-opacity:0.98" />
<rect height="17.242987" width="6.250000" x="493.750000" y="85.424834" fill="rgb(255, 165, 0)" style="fill-opacity:0.98" />
<!-- End 'G' -->
<!-- Begin 'T' -->
<rect height="0.606602" width="50.000000" x="450.000000" y="102.667821" fill="rgb(0, 100, 0)" style="fill-opacity:0.98" />
<rect height="3.791264" width="10.000000" x="470.000000" y="102.667821" fill="rgb(0, 100, 0)" style="fill-opacity:0.98" />
<!-- End 'T' -->
<!-- Begin 'A' -->
<polygon points=" 450.000000, 110.000000, 471.000000, 106.459085, 479.000000, 106.459085, 500.000000, 110.000000, 492.500000, 110.000000, 486.250000, 109.114771, 463.750000, 109.114771, 457.500000, 110.000000" fill="rgb(178, 34, 34)" style="fill-opacity:0.98" />
<!-- End 'A' -->
<!-- Begin 'G' -->
<ellipse cx="475.000000" cy="169.002071" rx="25.000000" ry="49.002071" fill="rgb(255, 165, 0)" style="fill-opacity:0.00" />
<ellipse cx="475.000000" cy="169.002071" rx="16.666667" ry="32.668047" fill="rgb(255, 255, 255)" style="fill-opacity:1.00" />
<rect height="49.002071" width="25.000000" x="475.000000" y="144.501035" fill="rgb(255, 255, 255)" style="fill-opacity:1.00" />
<rect height="12.250518" width="25.000000" x="475.000000" y="181.252589" fill="rgb(255, 165, 0)" style="fill-opacity:0.00" />
<rect height="36.751553" width="6.250000" x="493.750000" y="181.252589" fill="rgb(255, 165, 0)" style="fill-opacity:0.00" />
<!-- End 'G' -->
<!-- Begin 'C' -->
<ellipse cx="475.000000" cy="218.970087" rx="25.000000" ry="0.965945" fill="rgb(0, 0, 128)" style="fill-opacity:0.00" />
<ellipse cx="475.000000" cy="218.970087" rx="16.666667" ry="0.643964" fill="rgb(255, 255, 255)" style="fill-opacity:1.00" />
<rect height="0.965945" width="25.000000" x="475.000000" y="218.487115" fill="rgb(255, 255, 255)" style="fill-opacity:1.00" />
<!-- End 'C' -->
<!-- Begin 'T' -->
<rect height="0.010135" width="50.000000" x="450.000000" y="219.936032" fill="rgb(0, 100, 0)" style="fill-opacity:0.00" />
<rect height="0.063346" width="10.000000" x="470.000000" y="219.936032" fill="rgb(0, 100, 0)" style="fill-opacity:0.00" />
<!-- End 'T' -->
<!-- Begin 'A' -->
<polygon points=" 450.000000, 220.000000, 471.000000, 219.999379, 479.000000, 219.999379, 500.000000, 220.000000, 492.500000, 220.000000, 486.250000, 219.999845, 463.750000, 219.999845, 457.500000, 220.000000" fill="rgb(178, 34, 34)" style="fill-opacity:0.00" />
<!-- End 'A' -->
<!-- Begin 'C' -->
<ellipse cx="475.000000" cy="275.929046" rx="25.000000" ry="45.929046" fill="rgb(0, 0, 128)" style="fill-opacity:0.00" />
<ellipse cx="475.000000" cy="275.929046" rx="16.666667" ry="30.619364" fill="rgb(255, 255, 255)" style="fill-opacity:1.00" />
<rect height="45.929046" width="25.000000" x="475.000000" y="252.964523" fill="rgb(255, 255, 255)" style="fill-opacity:1.00" />
<!-- End 'C' -->
<!-- Begin 'G' -->
<ellipse cx="475.000000" cy="325.907938" rx="25.000000" ry="4.049845" fill="rgb(255, 165, 0)" style="fill-opacity:0.00" />
<ellipse cx="475.000000" cy="325.907938" rx="16.666667" ry="2.699897" fill="rgb(255, 255, 255)" style="fill-opacity:1.00" />
<rect height="4.049845" width="25.000000" x="475.000000" y="323.883015" fill="rgb(255, 255, 255)" style="fill-opacity:1.00" />
<rect height="1.012461" width="25.000000" x="475.000000" y="326.920399" fill="rgb(255, 165, 0)" style="fill-opacity:0.00" />
<rect height="3.037384" width="6.250000" x="493.750000" y="326.920399" fill="rgb(255, 165, 0)" style="fill-opacity:0.00" />
<!-- End 'G' -->
<!-- Begin 'T' -->
<rect height="0.006713" width="50.000000" x="450.000000" y="329.957783" fill="rgb(0, 100, 0)" style="fill-opacity:0.00" />
<rect height="0.041953" width="10.000000" x="470.000000" y="329.957783" fill="rgb(0, 100, 0)" style="fill-opacity:0.00" />
<!-- End 'T' -->
<!-- Begin 'A' -->
<polygon points=" 450.000000, 330.000000, 471.000000, 329.999736, 479.000000, 329.999736, 500.000000, 330.000000, 492.500000, 330.000000, 486.250000, 329.999934, 463.750000, 329.999934, 457.500000, 330.000000" fill="rgb(178, 34, 34)" style="fill-opacity:0.00" />
<!-- End 'A' -->
<!-- Begin 'G' -->
<ellipse cx="475.000000" cy="389.460286" rx="25.000000" ry="49.460286" fill="rgb(255, 165, 0)" style="fill-opacity:0.01" />
<ellipse cx="475.000000" cy="389.460286" rx="16.666667" ry="32.973524" fill="rgb(255, 255, 255)" style="fill-opacity:1.00" />
<rect height="49.460286" width="25.000000" x="475.000000" y="364.730143" fill="rgb(255, 255, 255)" style="fill-opacity:1.00" />
<rect height="12.365072" width="25.000000" x="475.000000" y="401.825358" fill="rgb(255, 165, 0)" style="fill-opacity:0.01" />
<rect height="37.095215" width="6.250000" x="493.750000" y="401.825358" fill="rgb(255, 165, 0)" style="fill-opacity:0.01" />
<!-- End 'G' -->
<!-- Begin 'C' -->
<ellipse cx="475.000000" cy="439.439953" rx="25.000000" ry="0.519381" fill="rgb(0, 0, 128)" style="fill-opacity:0.01" />
<ellipse cx="475.000000" cy="439.439953" rx="16.666667" ry="0.346254" fill="rgb(255, 255, 255)" style="fill-opacity:1.00" />
<rect height="0.519381" width="25.000000" x="475.000000" y="439.180263" fill="rgb(255, 255, 255)" style="fill-opacity:1.00" />
<!-- End 'C' -->
<!-- Begin 'T' -->
<rect height="0.006505" width="50.000000" x="450.000000" y="439.959334" fill="rgb(0, 100, 0)" style="fill-opacity:0.01" />
<rect height="0.040655" width="10.000000" x="470.000000" y="439.959334" fill="rgb(0, 100, 0)" style="fill-opacity:0.01" />
<!-- End 'T' -->
<!-- Begin 'A' -->
<polygon points=" 450.000000, 440.000000, 471.000000, 439.999989, 479.000000, 439.999989, 500.000000, 440.000000, 492.500000, 440.000000, 486.250000, 439.999997, 463.750000, 439.999997, 457.500000, 440.000000" fill="rgb(178, 34, 34)" style="fill-opacity:0.01" />
<!-- End 'A' -->
<!-- Begin 'T' -->
<rect height="15.999991" width="50.000000" x="510.000000" y="10.000000" fill="rgb(0, 100, 0)" style="fill-opacity:0.03" />
<rect height="99.999944" width="10.000000" x="530.000000" y="10.000000" fill="rgb(0, 100, 0)" style="fill-opacity:0.03" />
<!-- End 'T' -->
<!-- Begin 'A' -->
<polygon points=" 510.000000, 109.999993, 531.000000, 109.999944, 539.000000, 109.999944, 560.000000, 109.999993, 552.500000, 109.999993, 546.250000, 109.999981, 523.750000, 109.999981, 517.500000, 109.999993" fill="rgb(178, 34, 34)" style="fill-opacity:0.03" />
<!-- End 'A' -->
<!-- Begin 'G' -->
<ellipse cx="535.000000" cy="109.999996" rx="25.000000" ry="0.000003" fill="rgb(255, 165, 0)" style="fill-opacity:0.03" />
<ellipse cx="535.000000" cy="109.999996" rx="16.666667" ry="0.000002" fill="rgb(255, 255, 255)" style="fill-opacity:1.00" />
<rect height="0.000003" width="25.000000" x="535.000000" y="109.999995" fill="rgb(255, 255, 255)" style="fill-opacity:1.00" />
<rect height="0.000001" width="25.000000" x="535.000000" y="109.999997" fill="rgb(255, 165, 0)" style="fill-opacity:0.03" />
<rect height="0.000002" width="6.250000" x="553.750000" y="109.999997" fill="rgb(255, 165, 0)" style="fill-opacity:0.03" />
<!-- End 'G' -->
<!-- Begin 'C' -->
<ellipse cx="535.000000" cy="109.999999" rx="25.000000" ry="0.000001" fill="rgb(0, 0, 128)" style="fill-opacity:0.03" />
<ellipse cx="535.000000" cy="109.999999" rx="16.666667" ry="0.000000" fill="rgb(255, 255, 255)" style="fill-opacity:1.00" />
<rect height="0.000001" width="25.000000" x="535.000000" y="109.999999" fill="rgb(255, 255, 255)" style="fill-opacity:1.00" />
<!-- End 'C' -->
<!-- Begin 'T' -->
<rect height="15.402870" width="50.000000" x="510.000000" y="120.000000" fill="rgb(0, 100, 0)" style="fill-opacity:0.46" />
<rect height="96.267938" width="10.000000" x="530.000000" y="120.000000" fill="rgb(0, 100, 0)" style="fill-opacity:0.46" />
<!-- End 'T' -->
<!-- Begin 'A' -->
<polygon points=" 510.000000, 219.488537, 531.000000, 216.267938, 539.000000, 216.267938, 560.000000, 219.488537, 552.500000, 219.488537, 546.250000, 218.683387, 523.750000, 218.683387, 517.500000, 219.488537" fill="rgb(178, 34, 34)" style="fill-opacity:0.46" />
<!-- End 'A' -->
<!-- Begin 'G' -->
<ellipse cx="535.000000" cy="219.739572" rx="25.000000" ry="0.251035" fill="rgb(255, 165, 0)" style="fill-opacity:0.46" />
<ellipse cx="535.000000" cy="219.739572" rx="16.666667" ry="0.167357" fill="rgb(255, 255, 255)" style="fill-opacity:1.00" />
<rect height="0.251035" width="25.000000" x="535.000000" y="219.614055" fill="rgb(255, 255, 255)" style="fill-opacity:1.00" />
<rect height="0.062759" width="25.000000" x="535.000000" y="219.802331" fill="rgb(255, 165, 0)" style="fill-opacity:0.46" />
<rect height="0.188276" width="6.250000" x="553.750000" y="219.802331" fill="rgb(255, 165, 0)" style="fill-opacity:0.46" />
<!-- End 'G' -->
<!-- Begin 'C' -->
<ellipse cx="535.000000" cy="219.995304" rx="25.000000" ry="0.004696" fill="rgb(0, 0, 128)" style="fill-opacity:0.46" />
<ellipse cx="535.000000" cy="219.995304" rx="16.666667" ry="0.003131" fill="rgb(255, 255, 255)" style="fill-opacity:1.00" />
<rect height="0.004696" width="25.000000" x="535.000000" y="219.992955" fill="rgb(255, 255, 255)" style="fill-opacity:1.00" />
<!-- End 'C' -->
<!-- Begin 'T' -->
<rect height="15.989755" width="50.000000" x="510.000000" y="230.000000" fill="rgb(0, 100, 0)" style="fill-opacity:0.47" />
<rect height="99.935967" width="10.000000" x="530.000000" y="230.000000" fill="rgb(0, 100, 0)" style="fill-opacity:0.47" />
<!-- End 'T' -->
<!-- Begin 'C' -->
<ellipse cx="535.000000" cy="329.953408" rx="25.000000" ry="0.017442" fill="rgb(0, 0, 128)" style="fill-opacity:0.47" />
<ellipse cx="535.000000" cy="329.953408" rx="16.666667" ry="0.011628" fill="rgb(255, 255, 255)" style="fill-opacity:1.00" />
<rect height="0.017442" width="25.000000" x="535.000000" y="329.944687" fill="rgb(255, 255, 255)" style="fill-opacity:1.00" />
<!-- End 'C' -->
<!-- Begin 'A' -->
<polygon points=" 510.000000, 329.986060, 531.000000, 329.970850, 539.000000, 329.970850, 560.000000, 329.986060, 552.500000, 329.986060, 546.250000, 329.982257, 523.750000, 329.982257, 517.500000, 329.986060" fill="rgb(178, 34, 34)" style="fill-opacity:0.47" />
<!-- End 'A' -->
<!-- Begin 'G' -->
<ellipse cx="535.000000" cy="329.993030" rx="25.000000" ry="0.006970" fill="rgb(255, 165, 0)" style="fill-opacity:0.47" />
<ellipse cx="535.000000" cy="329.993030" rx="16.666667" ry="0.004647" fill="rgb(255, 255, 255)" style="fill-opacity:1.00" />
<rect height="0.006970" width="25.000000" x="535.000000" y="329.989545" fill="rgb(255, 255, 255)" style="fill-opacity:1.00" />
<rect height="0.001743" width="25.000000" x="535.000000" y="329.994772" fill="rgb(255, 165, 0)" style="fill-opacity:0.47" />
<rect height="0.005228" width="6.250000" x="553.750000" y="329.994772" fill="rgb(255, 165, 0)" style="fill-opacity:0.47" />
<!-- End 'G' -->
<!-- Begin 'T' -->
<rect height="15.961101" width="50.000000" x="510.000000" y="340.000000" fill="rgb(0, 100, 0)" style="fill-opacity:0.04" />
<rect height="99.756879" width="10.000000" x="530.000000" y="340.000000" fill="rgb(0, 100, 0)" style="fill-opacity:0.04" />
<!-- End 'T' -->
<!-- Begin 'A' -->
<polygon points=" 510.000000, 439.972529, 531.000000, 439.756879, 539.000000, 439.756879, 560.000000, 439.972529, 552.500000, 439.972529, 546.250000, 439.918617, 523.750000, 439.918617, 517.500000, 439.972529" fill="rgb(178, 34, 34)" style="fill-opacity:0.04" />
<!-- End 'A' -->
<!-- Begin 'G' -->
<ellipse cx="535.000000" cy="439.986174" rx="25.000000" ry="0.013644" fill="rgb(255, 165, 0)" style="fill-opacity:0.04" />
<ellipse cx="535.000000" cy="439.986174" rx="16.666667" ry="0.009096" fill="rgb(255, 255, 255)" style="fill-opacity:1.00" />
<rect height="0.013644" width="25.000000" x="535.000000" y="439.979352" fill="rgb(255, 255, 255)" style="fill-opacity:1.00" />
<rect height="0.003411" width="25.000000" x="535.000000" y="439.989585" fill="rgb(255, 165, 0)" style="fill-opacity:0.04" />
<rect height="0.010233" width="6.250000" x="553.750000" y="439.989585" fill="rgb(255, 165, 0)" style="fill-opacity:0.04" />
<!-- End 'G' -->
<!-- Begin 'C' -->
<ellipse cx="535.000000" cy="439.999909" rx="25.000000" ry="0.000091" fill="rgb(0, 0, 128)" style="fill-opacity:0.04" />
<ellipse cx="535.000000" cy="439.999909" rx="16.666667" ry="0.000061" fill="rgb(255, 255, 255)" style="fill-opacity:1.00" />
<rect height="0.000091" width="25.000000" x="535.000000" y="439.999863" fill="rgb(255, 255, 255)" style="fill-opacity:1.00" />
<!-- End 'C' -->
<!-- Begin 'C' -->
<ellipse cx="595.000000" cy="58.509445" rx="25.000000" ry="48.509445" fill="rgb(0, 0, 128)" style="fill-opacity:0.01" />
<ellipse cx="595.000000" cy="58.509445" rx="16.666667" ry="32.339630" fill="rgb(255, 255, 255)" style="fill-opacity:1.00" />
<rect height="48.509445" width="25.000000" x="595.000000" y="34.254723" fill="rgb(255, 255, 255)" style="fill-opacity:1.00" />
<!-- End 'C' -->
<!-- Begin 'A' -->
<polygon points=" 570.000000, 109.995542, 591.000000, 107.018891, 599.000000, 107.018891, 620.000000, 109.995542, 612.500000, 109.995542, 606.250000, 109.251379, 583.750000, 109.251379, 577.500000, 109.995542" fill="rgb(178, 34, 34)" style="fill-opacity:0.01" />
<!-- End 'A' -->
<!-- Begin 'G' -->
<ellipse cx="595.000000" cy="109.997596" rx="25.000000" ry="0.002054" fill="rgb(255, 165, 0)" style="fill-opacity:0.01" />
<ellipse cx="595.000000" cy="109.997596" rx="16.666667" ry="0.001369" fill="rgb(255, 255, 255)" style="fill-opacity:1.00" />
<rect height="0.002054" width="25.000000" x="595.000000" y="109.996569" fill="rgb(255, 255, 255)" style="fill-opacity:1.00" />
<rect height="0.000514" width="25.000000" x="595.000000" y="109.998110" fill="rgb(255, 165, 0)" style="fill-opacity:0.01" />
<rect height="0.001541" width="6.250000" x="613.750000" y="109.998110" fill="rgb(255, 165, 0)" style="fill-opacity:0.01" />
<!-- End 'G' -->
<!-- Begin 'T' -->
<rect height="0.000056" width="50.000000" x="570.000000" y="109.999651" fill="rgb(0, 100, 0)" style="fill-opacity:0.01" />
<rect height="0.000349" width="10.000000" x="590.000000" y="109.999651" fill="rgb(0, 100, 0)" style="fill-opacity:0.01" />
<!-- End 'T' -->
<!-- Begin 'C' -->
<ellipse cx="595.000000" cy="168.670018" rx="25.000000" ry="48.670018" fill="rgb(0, 0, 128)" style="fill-opacity:0.00" />
<ellipse cx="595.000000" cy="168.670018" rx="16.666667" ry="32.446679" fill="rgb(255, 255, 255)" style="fill-opacity:1.00" />
<rect height="48.670018" width="25.000000" x="595.000000" y="144.335009" fill="rgb(255, 255, 255)" style="fill-opacity:1.00" />
<!-- End 'C' -->
<!-- Begin 'A' -->
<polygon points=" 570.000000, 219.999354, 591.000000, 217.340037, 599.000000, 217.340037, 620.000000, 219.999354, 612.500000, 219.999354, 606.250000, 219.334525, 583.750000, 219.334525, 577.500000, 219.999354" fill="rgb(178, 34, 34)" style="fill-opacity:0.00" />
<!-- End 'A' -->
<!-- Begin 'T' -->
<rect height="0.000101" width="50.000000" x="570.000000" y="219.999354" fill="rgb(0, 100, 0)" style="fill-opacity:0.00" />
<rect height="0.000634" width="10.000000" x="590.000000" y="219.999354" fill="rgb(0, 100, 0)" style="fill-opacity:0.00" />
<!-- End 'T' -->
<!-- Begin 'G' -->
<ellipse cx="595.000000" cy="219.999994" rx="25.000000" ry="0.000006" fill="rgb(255, 165, 0)" style="fill-opacity:0.00" />
<ellipse cx="595.000000" cy="219.999994" rx="16.666667" ry="0.000004" fill="rgb(255, 255, 255)" style="fill-opacity:1.00" />
<rect height="0.000006" width="25.000000" x="595.000000" y="219.999991" fill="rgb(255, 255, 255)" style="fill-opacity:1.00" />
<rect height="0.000001" width="25.000000" x="595.000000" y="219.999996" fill="rgb(255, 165, 0)" style="fill-opacity:0.00" />
<rect height="0.000004" width="6.250000" x="613.750000" y="219.999996" fill="rgb(255, 165, 0)" style="fill-opacity:0.00" />
<!-- End 'G' -->
<!-- Begin 'C' -->
<ellipse cx="595.000000" cy="279.940533" rx="25.000000" ry="49.940533" fill="rgb(0, 0, 128)" style="fill-opacity:0.00" />
<ellipse cx="595.000000" cy="279.940533" rx="16.666667" ry="33.293689" fill="rgb(255, 255, 255)" style="fill-opacity:1.00" />
<rect height="49.940533" width="25.000000" x="595.000000" y="254.970266" fill="rgb(255, 255, 255)" style="fill-opacity:1.00" />
<!-- End 'C' -->
<!-- Begin 'A' -->
<polygon points=" 570.000000, 329.979392, 591.000000, 329.881066, 599.000000, 329.881066, 620.000000, 329.979392, 612.500000, 329.979392, 606.250000, 329.954810, 583.750000, 329.954810, 577.500000, 329.979392" fill="rgb(178, 34, 34)" style="fill-opacity:0.00" />
<!-- End 'A' -->
<!-- Begin 'T' -->
<rect height="0.003279" width="50.000000" x="570.000000" y="329.979392" fill="rgb(0, 100, 0)" style="fill-opacity:0.00" />
<rect height="0.020492" width="10.000000" x="590.000000" y="329.979392" fill="rgb(0, 100, 0)" style="fill-opacity:0.00" />
<!-- End 'T' -->
<!-- Begin 'G' -->
<ellipse cx="595.000000" cy="329.999942" rx="25.000000" ry="0.000058" fill="rgb(255, 165, 0)" style="fill-opacity:0.00" />
<ellipse cx="595.000000" cy="329.999942" rx="16.666667" ry="0.000039" fill="rgb(255, 255, 255)" style="fill-opacity:1.00" />
<rect height="0.000058" width="25.000000" x="595.000000" y="329.999913" fill="rgb(255, 255, 255)" style="fill-opacity:1.00" />
<rect height="0.000014" width="25.000000" x="595.000000" y="329.999957" fill="rgb(255, 165, 0)" style="fill-opacity:0.00" />
<rect height="0.000043" width="6.250000" x="613.750000" y="329.999957" fill="rgb(255, 165, 0)" style="fill-opacity:0.00" />
<!-- End 'G' -->
<!-- Begin 'C' -->
<ellipse cx="595.000000" cy="386.412756" rx="25.000000" ry="46.412756" fill="rgb(0, 0, 128)" style="fill-opacity:0.98" />
<ellipse cx="595.000000" cy="386.412756" rx="16.666667" ry="30.941838" fill="rgb(255, 255, 255)" style="fill-opacity:1.00" />
<rect height="46.412756" width="25.000000" x="595.000000" y="363.206378" fill="rgb(255, 255, 255)" style="fill-opacity:1.00" />
<!-- End 'C' -->
<!-- Begin 'A' -->
<polygon points=" 570.000000, 439.699912, 591.000000, 432.825513, 599.000000, 432.825513, 620.000000, 439.699912, 612.500000, 439.699912, 606.250000, 437.981312, 583.750000, 437.981312, 577.500000, 439.699912" fill="rgb(178, 34, 34)" style="fill-opacity:0.98" />
<!-- End 'A' -->
<!-- Begin 'T' -->
<rect height="0.026721" width="50.000000" x="570.000000" y="439.699912" fill="rgb(0, 100, 0)" style="fill-opacity:0.98" />
<rect height="0.167005" width="10.000000" x="590.000000" y="439.699912" fill="rgb(0, 100, 0)" style="fill-opacity:0.98" />
<!-- End 'T' -->
<!-- Begin 'G' -->
<ellipse cx="595.000000" cy="439.933458" rx="25.000000" ry="0.066542" fill="rgb(255, 165, 0)" style="fill-opacity:0.98" />
<ellipse cx="595.000000" cy="439.933458" rx="16.666667" ry="0.044361" fill="rgb(255, 255, 255)" style="fill-opacity:1.00" />
<rect height="0.066542" width="25.000000" x="595.000000" y="439.900188" fill="rgb(255, 255, 255)" style="fill-opacity:1.00" />
<rect height="0.016635" width="25.000000" x="595.000000" y="439.950094" fill="rgb(255, 165, 0)" style="fill-opacity:0.98" />
<rect height="0.049906" width="6.250000" x="613.750000" y="439.950094" fill="rgb(255, 165, 0)" style="fill-opacity:0.98" />
<!-- End 'G' -->
<!-- Begin 'A' -->
<polygon points=" 630.000000, 109.645171, 651.000000, 10.000000, 659.000000, 10.000000, 680.000000, 109.645171, 672.500000, 109.645171, 666.250000, 84.733878, 643.750000, 84.733878, 637.500000, 109.645171" fill="rgb(178, 34, 34)" style="fill-opacity:0.07" />
<polygon points=" 655.000000, 29.929034, 647.000000, 68.787103, 662.000000, 68.787103" fill="rgb(255, 255, 255)" style="fill-opacity:1.00" />
<!-- End 'A' -->
<!-- Begin 'T' -->
<rect height="0.051679" width="50.000000" x="630.000000" y="109.645171" fill="rgb(0, 100, 0)" style="fill-opacity:0.07" />
<rect height="0.322992" width="10.000000" x="650.000000" y="109.645171" fill="rgb(0, 100, 0)" style="fill-opacity:0.07" />
<!-- End 'T' -->
<!-- Begin 'G' -->
<ellipse cx="655.000000" cy="109.976759" rx="25.000000" ry="0.008596" fill="rgb(255, 165, 0)" style="fill-opacity:0.07" />
<ellipse cx="655.000000" cy="109.976759" rx="16.666667" ry="0.005731" fill="rgb(255, 255, 255)" style="fill-opacity:1.00" />
<rect height="0.008596" width="25.000000" x="655.000000" y="109.972461" fill="rgb(255, 255, 255)" style="fill-opacity:1.00" />
<rect height="0.002149" width="25.000000" x="655.000000" y="109.978908" fill="rgb(255, 165, 0)" style="fill-opacity:0.07" />
<rect height="0.006447" width="6.250000" x="673.750000" y="109.978908" fill="rgb(255, 165, 0)" style="fill-opacity:0.07" />
<!-- End 'G' -->
<!-- Begin 'C' -->
<ellipse cx="655.000000" cy="109.992678" rx="25.000000" ry="0.007322" fill="rgb(0, 0, 128)" style="fill-opacity:0.07" />
<ellipse cx="655.000000" cy="109.992678" rx="16.666667" ry="0.004882" fill="rgb(255, 255, 255)" style="fill-opacity:1.00" />
<rect height="0.007322" width="25.000000" x="655.000000" y="109.989017" fill="rgb(255, 255, 255)" style="fill-opacity:1.00" />
<!-- End 'C' -->
<!-- Begin 'A' -->
<polygon points=" 630.000000, 219.893092, 651.000000, 120.000000, 659.000000, 120.000000, 680.000000, 219.893092, 672.500000, 219.893092, 666.250000, 194.919819, 643.750000, 194.919819, 637.500000, 219.893092" fill="rgb(178, 34, 34)" style="fill-opacity:0.93" />
<polygon points=" 655.000000, 139.978618, 647.000000, 178.935855, 662.000000, 178.935855" fill="rgb(255, 255, 255)" style="fill-opacity:1.00" />
<!-- End 'A' -->
<!-- Begin 'T' -->
<rect height="0.009482" width="50.000000" x="630.000000" y="219.893092" fill="rgb(0, 100, 0)" style="fill-opacity:0.93" />
<rect height="0.059260" width="10.000000" x="650.000000" y="219.893092" fill="rgb(0, 100, 0)" style="fill-opacity:0.93" />
<!-- End 'T' -->
<!-- Begin 'G' -->
<ellipse cx="655.000000" cy="219.970605" rx="25.000000" ry="0.018253" fill="rgb(255, 165, 0)" style="fill-opacity:0.93" />
<ellipse cx="655.000000" cy="219.970605" rx="16.666667" ry="0.012169" fill="rgb(255, 255, 255)" style="fill-opacity:1.00" />
<rect height="0.018253" width="25.000000" x="655.000000" y="219.961479" fill="rgb(255, 255, 255)" style="fill-opacity:1.00" />
<rect height="0.004563" width="25.000000" x="655.000000" y="219.975169" fill="rgb(255, 165, 0)" style="fill-opacity:0.93" />
<rect height="0.013690" width="6.250000" x="673.750000" y="219.975169" fill="rgb(255, 165, 0)" style="fill-opacity:0.93" />
<!-- End 'G' -->
<!-- Begin 'C' -->
<ellipse cx="655.000000" cy="219.994429" rx="25.000000" ry="0.005571" fill="rgb(0, 0, 128)" style="fill-opacity:0.93" />
<ellipse cx="655.000000" cy="219.994429" rx="16.666667" ry="0.003714" fill="rgb(255, 255, 255)" style="fill-opacity:1.00" />
<rect height="0.005571" width="25.000000" x="655.000000" y="219.991644" fill="rgb(255, 255, 255)" style="fill-opacity:1.00" />
<!-- End 'C' -->
<!-- Begin 'A' -->
<polygon points=" 630.000000, 329.981793, 651.000000, 230.000000, 659.000000, 230.000000, 680.000000, 329.981793, 672.500000, 329.981793, 666.250000, 304.986344, 643.750000, 304.986344, 637.500000, 329.981793" fill="rgb(178, 34, 34)" style="fill-opacity:0.00" />
<polygon points=" 655.000000, 249.996359, 647.000000, 288.989076, 662.000000, 288.989076" fill="rgb(255, 255, 255)" style="fill-opacity:1.00" />
<!-- End 'A' -->
<!-- Begin 'T' -->
<rect height="0.002727" width="50.000000" x="630.000000" y="329.981793" fill="rgb(0, 100, 0)" style="fill-opacity:0.00" />
<rect height="0.017043" width="10.000000" x="650.000000" y="329.981793" fill="rgb(0, 100, 0)" style="fill-opacity:0.00" />
<!-- End 'T' -->
<!-- Begin 'G' -->
<ellipse cx="655.000000" cy="329.999259" rx="25.000000" ry="0.000424" fill="rgb(255, 165, 0)" style="fill-opacity:0.00" />
<ellipse cx="655.000000" cy="329.999259" rx="16.666667" ry="0.000283" fill="rgb(255, 255, 255)" style="fill-opacity:1.00" />
<rect height="0.000424" width="25.000000" x="655.000000" y="329.999047" fill="rgb(255, 255, 255)" style="fill-opacity:1.00" />
<rect height="0.000106" width="25.000000" x="655.000000" y="329.999365" fill="rgb(255, 165, 0)" style="fill-opacity:0.00" />
<rect height="0.000318" width="6.250000" x="673.750000" y="329.999365" fill="rgb(255, 165, 0)" style="fill-opacity:0.00" />
<!-- End 'G' -->
<!-- Begin 'C' -->
<ellipse cx="655.000000" cy="329.999842" rx="25.000000" ry="0.000158" fill="rgb(0, 0, 128)" style="fill-opacity:0.00" />
<ellipse cx="655.000000" cy="329.999842" rx="16.666667" ry="0.000105" fill="rgb(255, 255, 255)" style="fill-opacity:1.00" />
<rect height="0.000158" width="25.000000" x="655.000000" y="329.999763" fill="rgb(255, 255, 255)" style="fill-opacity:1.00" />
<!-- End 'C' -->
<!-- Begin 'A' -->
<polygon points=" 630.000000, 439.996258, 651.000000, 340.000000, 659.000000, 340.000000, 680.000000, 439.996258, 672.500000, 439.996258, 666.250000, 414.997193, 643.750000, 414.997193, 637.500000, 439.996258" fill="rgb(178, 34, 34)" style="fill-opacity:0.00" />
<polygon points=" 655.000000, 359.999252, 647.000000, 398.997755, 662.000000, 398.997755" fill="rgb(255, 255, 255)" style="fill-opacity:1.00" />
<!-- End 'A' -->
<!-- Begin 'T' -->
<rect height="0.000247" width="50.000000" x="630.000000" y="439.996258" fill="rgb(0, 100, 0)" style="fill-opacity:0.00" />
<rect height="0.001544" width="10.000000" x="650.000000" y="439.996258" fill="rgb(0, 100, 0)" style="fill-opacity:0.00" />
<!-- End 'T' -->
<!-- Begin 'C' -->
<ellipse cx="655.000000" cy="439.998379" rx="25.000000" ry="0.000578" fill="rgb(0, 0, 128)" style="fill-opacity:0.00" />
<ellipse cx="655.000000" cy="439.998379" rx="16.666667" ry="0.000385" fill="rgb(255, 255, 255)" style="fill-opacity:1.00" />
<rect height="0.000578" width="25.000000" x="655.000000" y="439.998090" fill="rgb(255, 255, 255)" style="fill-opacity:1.00" />
<!-- End 'C' -->
<!-- Begin 'G' -->
<ellipse cx="655.000000" cy="439.999479" rx="25.000000" ry="0.000521" fill="rgb(255, 165, 0)" style="fill-opacity:0.00" />
<ellipse cx="655.000000" cy="439.999479" rx="16.666667" ry="0.000348" fill="rgb(255, 255, 255)" style="fill-opacity:1.00" />
<rect height="0.000521" width="25.000000" x="655.000000" y="439.999218" fill="rgb(255, 255, 255)" style="fill-opacity:1.00" />
<rect height="0.000130" width="25.000000" x="655.000000" y="439.999609" fill="rgb(255, 165, 0)" style="fill-opacity:0.00" />
<rect height="0.000391" width="6.250000" x="673.750000" y="439.999609" fill="rgb(255, 165, 0)" style="fill-opacity:0.00" />
<!-- End 'G' -->
<!-- Begin 'T' -->
<rect height="7.404389" width="50.000000" x="690.000000" y="10.000000" fill="rgb(0, 100, 0)" style="fill-opacity:1.00" />
<rect height="46.277432" width="10.000000" x="710.000000" y="10.000000" fill="rgb(0, 100, 0)" style="fill-opacity:1.00" />
<!-- End 'T' -->
<!-- Begin 'C' -->
<ellipse cx="715.000000" cy="71.019505" rx="25.000000" ry="14.742073" fill="rgb(0, 0, 128)" style="fill-opacity:1.00" />
<ellipse cx="715.000000" cy="71.019505" rx="16.666667" ry="9.828049" fill="rgb(255, 255, 255)" style="fill-opacity:1.00" />
<rect height="14.742073" width="25.000000" x="715.000000" y="63.648468" fill="rgb(255, 255, 255)" style="fill-opacity:1.00" />
<!-- End 'C' -->
<!-- Begin 'G' -->
<ellipse cx="715.000000" cy="96.074877" rx="25.000000" ry="10.313299" fill="rgb(255, 165, 0)" style="fill-opacity:1.00" />
<ellipse cx="715.000000" cy="96.074877" rx="16.666667" ry="6.875533" fill="rgb(255, 255, 255)" style="fill-opacity:1.00" />
<rect height="10.313299" width="25.000000" x="715.000000" y="90.918228" fill="rgb(255, 255, 255)" style="fill-opacity:1.00" />
<rect height="2.578325" width="25.000000" x="715.000000" y="98.653202" fill="rgb(255, 165, 0)" style="fill-opacity:1.00" />
<rect height="7.734974" width="6.250000" x="733.750000" y="98.653202" fill="rgb(255, 165, 0)" style="fill-opacity:1.00" />
<!-- End 'G' -->
<!-- Begin 'A' -->
<polygon points=" 690.000000, 110.000000, 711.000000, 106.388177, 719.000000, 106.388177, 740.000000, 110.000000, 732.500000, 110.000000, 726.250000, 109.097044, 703.750000, 109.097044, 697.500000, 110.000000" fill="rgb(178, 34, 34)" style="fill-opacity:1.00" />
<!-- End 'A' -->
<!-- Begin 'T' -->
<rect height="8.846508" width="50.000000" x="690.000000" y="120.000000" fill="rgb(0, 100, 0)" style="fill-opacity:0.00" />
<rect height="55.290677" width="10.000000" x="710.000000" y="120.000000" fill="rgb(0, 100, 0)" style="fill-opacity:0.00" />
<!-- End 'T' -->
<!-- Begin 'G' -->
<ellipse cx="715.000000" cy="192.862340" rx="25.000000" ry="17.571663" fill="rgb(255, 165, 0)" style="fill-opacity:0.00" />
<ellipse cx="715.000000" cy="192.862340" rx="16.666667" ry="11.714442" fill="rgb(255, 255, 255)" style="fill-opacity:1.00" />
<rect height="17.571663" width="25.000000" x="715.000000" y="184.076508" fill="rgb(255, 255, 255)" style="fill-opacity:1.00" />
<rect height="4.392916" width="25.000000" x="715.000000" y="197.255256" fill="rgb(255, 165, 0)" style="fill-opacity:0.00" />
<rect height="13.178747" width="6.250000" x="733.750000" y="197.255256" fill="rgb(255, 165, 0)" style="fill-opacity:0.00" />
<!-- End 'G' -->
<!-- Begin 'C' -->
<ellipse cx="715.000000" cy="213.256648" rx="25.000000" ry="2.822645" fill="rgb(0, 0, 128)" style="fill-opacity:0.00" />
<ellipse cx="715.000000" cy="213.256648" rx="16.666667" ry="1.881763" fill="rgb(255, 255, 255)" style="fill-opacity:1.00" />
<rect height="2.822645" width="25.000000" x="715.000000" y="211.845325" fill="rgb(255, 255, 255)" style="fill-opacity:1.00" />
<!-- End 'C' -->
<!-- Begin 'A' -->
<polygon points=" 690.000000, 220.000000, 711.000000, 216.079293, 719.000000, 216.079293, 740.000000, 220.000000, 732.500000, 220.000000, 726.250000, 219.019823, 703.750000, 219.019823, 697.500000, 220.000000" fill="rgb(178, 34, 34)" style="fill-opacity:0.00" />
<!-- End 'A' -->
<!-- Begin 'G' -->
<ellipse cx="715.000000" cy="263.159730" rx="25.000000" ry="33.159730" fill="rgb(255, 165, 0)" style="fill-opacity:0.00" />
<ellipse cx="715.000000" cy="263.159730" rx="16.666667" ry="22.106486" fill="rgb(255, 255, 255)" style="fill-opacity:1.00" />
<rect height="33.159730" width="25.000000" x="715.000000" y="246.579865" fill="rgb(255, 255, 255)" style="fill-opacity:1.00" />
<rect height="8.289932" width="25.000000" x="715.000000" y="271.449662" fill="rgb(255, 165, 0)" style="fill-opacity:0.00" />
<rect height="24.869797" width="6.250000" x="733.750000" y="271.449662" fill="rgb(255, 165, 0)" style="fill-opacity:0.00" />
<!-- End 'G' -->
<!-- Begin 'C' -->
<ellipse cx="715.000000" cy="310.831830" rx="25.000000" ry="14.512370" fill="rgb(0, 0, 128)" style="fill-opacity:0.00" />
<ellipse cx="715.000000" cy="310.831830" rx="16.666667" ry="9.674914" fill="rgb(255, 255, 255)" style="fill-opacity:1.00" />
<rect height="14.512370" width="25.000000" x="715.000000" y="303.575644" fill="rgb(255, 255, 255)" style="fill-opacity:1.00" />
<!-- End 'C' -->
<!-- Begin 'T' -->
<rect height="0.700451" width="50.000000" x="690.000000" y="325.344200" fill="rgb(0, 100, 0)" style="fill-opacity:0.00" />
<rect height="4.377819" width="10.000000" x="710.000000" y="325.344200" fill="rgb(0, 100, 0)" style="fill-opacity:0.00" />
<!-- End 'T' -->
<!-- Begin 'A' -->
<polygon points=" 690.000000, 330.000000, 711.000000, 329.722019, 719.000000, 329.722019, 740.000000, 330.000000, 732.500000, 330.000000, 726.250000, 329.930505, 703.750000, 329.930505, 697.500000, 330.000000" fill="rgb(178, 34, 34)" style="fill-opacity:0.00" />
<!-- End 'A' -->
<!-- Begin 'G' -->
<ellipse cx="715.000000" cy="380.647947" rx="25.000000" ry="40.647947" fill="rgb(255, 165, 0)" style="fill-opacity:0.00" />
<ellipse cx="715.000000" cy="380.647947" rx="16.666667" ry="27.098631" fill="rgb(255, 255, 255)" style="fill-opacity:1.00" />
<rect height="40.647947" width="25.000000" x="715.000000" y="360.323973" fill="rgb(255, 255, 255)" style="fill-opacity:1.00" />
<rect height="10.161987" width="25.000000" x="715.000000" y="390.809934" fill="rgb(255, 165, 0)" style="fill-opacity:0.00" />
<rect height="30.485960" width="6.250000" x="733.750000" y="390.809934" fill="rgb(255, 165, 0)" style="fill-opacity:0.00" />
<!-- End 'G' -->
<!-- Begin 'T' -->
<rect height="2.331897" width="50.000000" x="690.000000" y="421.295894" fill="rgb(0, 100, 0)" style="fill-opacity:0.00" />
<rect height="14.574358" width="10.000000" x="710.000000" y="421.295894" fill="rgb(0, 100, 0)" style="fill-opacity:0.00" />
<!-- End 'T' -->
<!-- Begin 'C' -->
<ellipse cx="715.000000" cy="437.259537" rx="25.000000" ry="1.389286" fill="rgb(0, 0, 128)" style="fill-opacity:0.00" />
<ellipse cx="715.000000" cy="437.259537" rx="16.666667" ry="0.926190" fill="rgb(255, 255, 255)" style="fill-opacity:1.00" />
<rect height="1.389286" width="25.000000" x="715.000000" y="436.564894" fill="rgb(255, 255, 255)" style="fill-opacity:1.00" />
<!-- End 'C' -->
<!-- Begin 'A' -->
<polygon points=" 690.000000, 440.000000, 711.000000, 438.648823, 719.000000, 438.648823, 740.000000, 440.000000, 732.500000, 440.000000, 726.250000, 439.662206, 703.750000, 439.662206, 697.500000, 440.000000" fill="rgb(178, 34, 34)" style="fill-opacity:0.00" />
<!-- End 'A' -->
<text x="400.000000" y="495">
IC = 12.26
</text>

</svg>
