<?xml version="1.0" encoding="UTF-8" standalone="yes"?>
                 <!DOCTYPE svg PUBLIC "-//W3C//DTD SVG 1.0//EN" "http://www.w3.org/TR/2001/REC-SVG-20010904/DTD/svg10.dtd">
                 <svg height="500" width="720" xmlns="http://www.w3.org/2000/svg" xmlns:xlink="http://www.w3.org/1999/xlink">
                 <line x1="85" y1="450" x2="687" y2="450" style="stroke:rgb(99,99,99);stroke-width:2" />
<rect height="7.000000" width="2.000000" x="85.000000" y="450.000000" fill="rgb(0, 0, 0)" style="fill-opacity:1.00" />
<text x="107.000000" y="470">
1
</text>
<rect height="7.000000" width="2.000000" x="145.000000" y="450.000000" fill="rgb(0, 0, 0)" style="fill-opacity:1.00" />
<text x="167.000000" y="470">
2
</text>
<rect height="7.000000" width="2.000000" x="205.000000" y="450.000000" fill="rgb(0, 0, 0)" style="fill-opacity:1.00" />
<text x="227.000000" y="470">
3
</text>
<rect height="7.000000" width="2.000000" x="265.000000" y="450.000000" fill="rgb(0, 0, 0)" style="fill-opacity:1.00" />
<text x="287.000000" y="470">
4
</text>
<rect height="7.000000" width="2.000000" x="325.000000" y="450.000000" fill="rgb(0, 0, 0)" style="fill-opacity:1.00" />
<text x="347.000000" y="470">
5
</text>
<rect height="7.000000" width="2.000000" x="385.000000" y="450.000000" fill="rgb(0, 0, 0)" style="fill-opacity:1.00" />
<text x="407.000000" y="470">
6
</text>
<rect height="7.000000" width="2.000000" x="445.000000" y="450.000000" fill="rgb(0, 0, 0)" style="fill-opacity:1.00" />
<text x="467.000000" y="470">
7
</text>
<rect height="7.000000" width="2.000000" x="505.000000" y="450.000000" fill="rgb(0, 0, 0)" style="fill-opacity:1.00" />
<text x="527.000000" y="470">
8
</text>
<rect height="7.000000" width="2.000000" x="565.000000" y="450.000000" fill="rgb(0, 0, 0)" style="fill-opacity:1.00" />
<text x="587.000000" y="470">
9
</text>
<rect height="7.000000" width="2.000000" x="625.000000" y="450.000000" fill="rgb(0, 0, 0)" style="fill-opacity:1.00" />
<text x="647.000000" y="470">
10
</text>
<rect height="7.000000" width="2.000000" x="685.000000" y="450.000000" fill="rgb(0, 0, 0)" style="fill-opacity:1.00" />
<!-- Begin 'A' -->
<polygon points=" 10.000000, 110.000000, 35.200000, 10.000000, 44.800000, 10.000000, 70.000000, 110.000000, 61.000000, 110.000000, 53.500000, 85.000000, 26.500000, 85.000000, 19.000000, 110.000000" fill="rgb(178, 34, 34)" style="fill-opacity:1.00" />
<polygon points=" 40.000000, 30.000000, 30.400000, 69.000000, 48.400000, 69.000000" fill="rgb(255, 255, 255)" style="fill-opacity:1.00" />
<!-- End 'A' -->
<!-- Begin 'C' -->
<ellipse cx="40.000000" cy="170.000000" rx="30.000000" ry="50.000000" fill="rgb(0, 0, 128)" style="fill-opacity:1.00" />
<ellipse cx="40.000000" cy="170.000000" rx="20.000000" ry="33.333333" fill="rgb(255, 255, 255)" style="fill-opacity:1.00" />
<rect height="50.000000" width="30.000000" x="40.000000" y="145.000000" fill="rgb(255, 255, 255)" style="fill-opacity:1.00" />
<!-- End 'C' -->
<!-- Begin 'G' -->
<ellipse cx="40.000000" cy="280.000000" rx="30.000000" ry="50.000000" fill="rgb(255, 165, 0)" style="fill-opacity:1.00" />
<ellipse cx="40.000000" cy="280.000000" rx="20.000000" ry="33.333333" fill="rgb(255, 255, 255)" style="fill-opacity:1.00" />
<rect height="50.000000" width="30.000000" x="40.000000" y="255.000000" fill="rgb(255, 255, 255)" style="fill-opacity:1.00" />
<rect height="12.500000" width="30.000000" x="40.000000" y="292.500000" fill="rgb(255, 165, 0)" style="fill-opacity:1.00" />
<rect height="37.500000" width="7.500000" x="62.500000" y="292.500000" fill="rgb(255, 165, 0)" style="fill-opacity:1.00" />
<!-- End 'G' -->
<!-- Begin 'T' -->
<rect height="16.000000" width="60.000000" x="10.000000" y="340.000000" fill="rgb(0, 100, 0)" style="fill-opacity:1.00" />
<rect height="100.000000" width="12.000000" x="34.000000" y="340.000000" fill="rgb(0, 100, 0)" style="fill-opacity:1.00" />
<!-- End 'T' -->
<!-- Begin 'A' -->
<polygon points=" 90.000000, 75.453385, 111.000000, 10.000000, 119.000000, 10.000000, 140.000000, 75.453385, 132.500000, 75.453385, 126.250000, 59.090038, 103.750000, 59.090038, 97.500000, 75.453385" fill="rgb(178, 34, 34)" style="fill-opacity:0.24" />
<polygon points=" 115.000000, 23.090677, 107.000000, 48.272031, 122.000000, 48.272031" fill="rgb(255, 255, 255)" style="fill-opacity:1.00" />
<!-- End 'A' -->
<!-- Begin 'G' -->
<ellipse cx="115.000000" cy="91.538363" rx="25.000000" ry="16.084978" fill="rgb(255, 165, 0)" style="fill-opacity:0.24" />
<ellipse cx="115.000000" cy="91.538363" rx="16.666667" ry="10.723319" fill="rgb(255, 255, 255)" style="fill-opacity:1.00" />
<rect height="16.084978" width="25.000000" x="115.000000" y="83.495874" fill="rgb(255, 255, 255)" style="fill-opacity:1.00" />
<rect height="4.021245" width="25.000000" x="115.000000" y="95.559608" fill="rgb(255, 165, 0)" style="fill-opacity:0.24" />
<rect height="12.063734" width="6.250000" x="133.750000" y="95.559608" fill="rgb(255, 165, 0)" style="fill-opacity:0.24" />
<!-- End 'G' -->
<!-- Begin 'C' -->
<ellipse cx="115.000000" cy="108.759841" rx="25.000000" ry="1.136500" fill="rgb(0, 0, 128)" style="fill-opacity:0.24" />
<ellipse cx="115.000000" cy="108.759841" rx="16.666667" ry="0.757666" fill="rgb(255, 255, 255)" style="fill-opacity:1.00" />
<rect height="1.136500" width="25.000000" x="115.000000" y="108.191591" fill="rgb(255, 255, 255)" style="fill-opacity:1.00" />
<!-- End 'C' -->
<!-- Begin 'T' -->
<rect height="0.016586" width="50.000000" x="90.000000" y="109.896341" fill="rgb(0, 100, 0)" style="fill-opacity:0.24" />
<rect height="0.103659" width="10.000000" x="110.000000" y="109.896341" fill="rgb(0, 100, 0)" style="fill-opacity:0.24" />
<!-- End 'T' -->
<!-- Begin 'A' -->
<polygon points=" 90.000000, 190.170462, 111.000000, 120.000000, 119.000000, 120.000000, 140.000000, 190.170462, 132.500000, 190.170462, 126.250000, 172.627846, 103.750000, 172.627846, 97.500000, 190.170462" fill="rgb(178, 34, 34)" style="fill-opacity:0.25" />
<polygon points=" 115.000000, 134.034092, 107.000000, 161.102277, 122.000000, 161.102277" fill="rgb(255, 255, 255)" style="fill-opacity:1.00" />
<!-- End 'A' -->
<!-- Begin 'C' -->
<ellipse cx="115.000000" cy="197.721159" rx="25.000000" ry="7.550697" fill="rgb(0, 0, 128)" style="fill-opacity:0.25" />
<ellipse cx="115.000000" cy="197.721159" rx="16.666667" ry="5.033798" fill="rgb(255, 255, 255)" style="fill-opacity:1.00" />
<rect height="7.550697" width="25.000000" x="115.000000" y="193.945810" fill="rgb(255, 255, 255)" style="fill-opacity:1.00" />
<!-- End 'C' -->
<!-- Begin 'G' -->
<ellipse cx="115.000000" cy="211.927418" rx="25.000000" ry="6.655562" fill="rgb(255, 165, 0)" style="fill-opacity:0.25" />
<ellipse cx="115.000000" cy="211.927418" rx="16.666667" ry="4.437042" fill="rgb(255, 255, 255)" style="fill-opacity:1.00" />
<rect height="6.655562" width="25.000000" x="115.000000" y="208.599637" fill="rgb(255, 255, 255)" style="fill-opacity:1.00" />
<rect height="1.663891" width="25.000000" x="115.000000" y="213.591308" fill="rgb(255, 165, 0)" style="fill-opacity:0.25" />
<rect height="4.991672" width="6.250000" x="133.750000" y="213.591308" fill="rgb(255, 165, 0)" style="fill-opacity:0.25" />
<!-- End 'G' -->
<!-- Begin 'T' -->
<rect height="0.226723" width="50.000000" x="90.000000" y="218.582980" fill="rgb(0, 100, 0)" style="fill-opacity:0.25" />
<rect height="1.417020" width="10.000000" x="110.000000" y="218.582980" fill="rgb(0, 100, 0)" style="fill-opacity:0.25" />
<!-- End 'T' -->
<!-- Begin 'A' -->
<polygon points=" 90.000000, 289.973233, 111.000000, 230.000000, 119.000000, 230.000000, 140.000000, 289.973233, 132.500000, 289.973233, 126.250000, 274.979925, 103.750000, 274.979925, 97.500000, 289.973233" fill="rgb(178, 34, 34)" style="fill-opacity:0.26" />
<polygon points=" 115.000000, 241.994647, 107.000000, 264.983940, 122.000000, 264.983940" fill="rgb(255, 255, 255)" style="fill-opacity:1.00" />
<!-- End 'A' -->
<!-- Begin 'G' -->
<ellipse cx="115.000000" cy="305.262940" rx="25.000000" ry="15.289707" fill="rgb(255, 165, 0)" style="fill-opacity:0.26" />
<ellipse cx="115.000000" cy="305.262940" rx="16.666667" ry="10.193138" fill="rgb(255, 255, 255)" style="fill-opacity:1.00" />
<rect height="15.289707" width="25.000000" x="115.000000" y="297.618087" fill="rgb(255, 255, 255)" style="fill-opacity:1.00" />
<rect height="3.822427" width="25.000000" x="115.000000" y="309.085367" fill="rgb(255, 165, 0)" style="fill-opacity:0.26" />
<rect height="11.467280" width="6.250000" x="133.750000" y="309.085367" fill="rgb(255, 165, 0)" style="fill-opacity:0.26" />
<!-- End 'G' -->
<!-- Begin 'C' -->
<ellipse cx="115.000000" cy="325.051900" rx="25.000000" ry="4.499253" fill="rgb(0, 0, 128)" style="fill-opacity:0.26" />
<ellipse cx="115.000000" cy="325.051900" rx="16.666667" ry="2.999502" fill="rgb(255, 255, 255)" style="fill-opacity:1.00" />
<rect height="4.499253" width="25.000000" x="115.000000" y="322.802274" fill="rgb(255, 255, 255)" style="fill-opacity:1.00" />
<!-- End 'C' -->
<!-- Begin 'T' -->
<rect height="0.071815" width="50.000000" x="90.000000" y="329.551154" fill="rgb(0, 100, 0)" style="fill-opacity:0.26" />
<rect height="0.448846" width="10.000000" x="110.000000" y="329.551154" fill="rgb(0, 100, 0)" style="fill-opacity:0.26" />
<!-- End 'T' -->
<!-- Begin 'G' -->
<ellipse cx="115.000000" cy="368.295229" rx="25.000000" ry="28.295229" fill="rgb(255, 165, 0)" style="fill-opacity:0.24" />
<ellipse cx="115.000000" cy="368.295229" rx="16.666667" ry="18.863486" fill="rgb(255, 255, 255)" style="fill-opacity:1.00" />
<rect height="28.295229" width="25.000000" x="115.000000" y="354.147615" fill="rgb(255, 255, 255)" style="fill-opacity:1.00" />
<rect height="7.073807" width="25.000000" x="115.000000" y="375.369037" fill="rgb(255, 165, 0)" style="fill-opacity:0.24" />
<rect height="21.221422" width="6.250000" x="133.750000" y="375.369037" fill="rgb(255, 165, 0)" style="fill-opacity:0.24" />
<!-- End 'G' -->
<!-- Begin 'A' -->
<polygon points=" 90.000000, 432.927883, 111.000000, 396.590459, 119.000000, 396.590459, 140.000000, 432.927883, 132.500000, 432.927883, 126.250000, 423.843527, 103.750000, 423.843527, 97.500000, 432.927883" fill="rgb(178, 34, 34)" style="fill-opacity:0.24" />
<polygon points=" 115.000000, 403.857944, 107.000000, 417.392913, 122.000000, 417.392913" fill="rgb(255, 255, 255)" style="fill-opacity:1.00" />
<!-- End 'A' -->
<!-- Begin 'C' -->
<ellipse cx="115.000000" cy="436.452292" rx="25.000000" ry="3.524409" fill="rgb(0, 0, 128)" style="fill-opacity:0.24" />
<ellipse cx="115.000000" cy="436.452292" rx="16.666667" ry="2.349606" fill="rgb(255, 255, 255)" style="fill-opacity:1.00" />
<rect height="3.524409" width="25.000000" x="115.000000" y="434.690087" fill="rgb(255, 255, 255)" style="fill-opacity:1.00" />
<!-- End 'C' -->
<!-- Begin 'T' -->
<rect height="0.003728" width="50.000000" x="90.000000" y="439.976701" fill="rgb(0, 100, 0)" style="fill-opacity:0.24" />
<rect height="0.023299" width="10.000000" x="110.000000" y="439.976701" fill="rgb(0, 100, 0)" style="fill-opacity:0.24" />
<!-- End 'T' -->
<!-- Begin 'T' -->
<rect height="14.885606" width="50.000000" x="150.000000" y="10.000000" fill="rgb(0, 100, 0)" style="fill-opacity:0.60" />
<rect height="93.035037" width="10.000000" x="170.000000" y="10.000000" fill="rgb(0, 100, 0)" style="fill-opacity:0.60" />
<!-- End 'T' -->
<!-- Begin 'A' -->
<polygon points=" 150.000000, 107.327100, 171.000000, 103.035037, 179.000000, 103.035037, 200.000000, 107.327100, 192.500000, 107.327100, 186.250000, 106.254084, 163.750000, 106.254084, 157.500000, 107.327100" fill="rgb(178, 34, 34)" style="fill-opacity:0.60" />
<!-- End 'A' -->
<!-- Begin 'C' -->
<ellipse cx="175.000000" cy="108.160884" rx="25.000000" ry="0.833784" fill="rgb(0, 0, 128)" style="fill-opacity:0.60" />
<ellipse cx="175.000000" cy="108.160884" rx="16.666667" ry="0.555856" fill="rgb(255, 255, 255)" style="fill-opacity:1.00" />
<rect height="0.833784" width="25.000000" x="175.000000" y="107.743992" fill="rgb(255, 255, 255)" style="fill-opacity:1.00" />
<!-- End 'C' -->
<!-- Begin 'G' -->
<ellipse cx="175.000000" cy="109.497334" rx="25.000000" ry="0.502666" fill="rgb(255, 165, 0)" style="fill-opacity:0.60" />
<ellipse cx="175.000000" cy="109.497334" rx="16.666667" ry="0.335110" fill="rgb(255, 255, 255)" style="fill-opacity:1.00" />
<rect height="0.502666" width="25.000000" x="175.000000" y="109.246001" fill="rgb(255, 255, 255)" style="fill-opacity:1.00" />
<rect height="0.125666" width="25.000000" x="175.000000" y="109.623001" fill="rgb(255, 165, 0)" style="fill-opacity:0.60" />
<rect height="0.376999" width="6.250000" x="193.750000" y="109.623001" fill="rgb(255, 165, 0)" style="fill-opacity:0.60" />
<!-- End 'G' -->
<!-- Begin 'T' -->
<rect height="14.380274" width="50.000000" x="150.000000" y="120.000000" fill="rgb(0, 100, 0)" style="fill-opacity:0.08" />
<rect height="89.876711" width="10.000000" x="170.000000" y="120.000000" fill="rgb(0, 100, 0)" style="fill-opacity:0.08" />
<!-- End 'T' -->
<!-- Begin 'C' -->
<ellipse cx="175.000000" cy="212.835525" rx="25.000000" ry="2.958815" fill="rgb(0, 0, 128)" style="fill-opacity:0.08" />
<ellipse cx="175.000000" cy="212.835525" rx="16.666667" ry="1.972543" fill="rgb(255, 255, 255)" style="fill-opacity:1.00" />
<rect height="2.958815" width="25.000000" x="175.000000" y="211.356118" fill="rgb(255, 255, 255)" style="fill-opacity:1.00" />
<!-- End 'C' -->
<!-- Begin 'A' -->
<polygon points=" 150.000000, 219.602147, 171.000000, 215.794340, 179.000000, 215.794340, 200.000000, 219.602147, 192.500000, 219.602147, 186.250000, 218.650195, 163.750000, 218.650195, 157.500000, 219.602147" fill="rgb(178, 34, 34)" style="fill-opacity:0.08" />
<!-- End 'A' -->
<!-- Begin 'G' -->
<ellipse cx="175.000000" cy="219.801074" rx="25.000000" ry="0.198926" fill="rgb(255, 165, 0)" style="fill-opacity:0.08" />
<ellipse cx="175.000000" cy="219.801074" rx="16.666667" ry="0.132618" fill="rgb(255, 255, 255)" style="fill-opacity:1.00" />
<rect height="0.198926" width="25.000000" x="175.000000" y="219.701610" fill="rgb(255, 255, 255)" style="fill-opacity:1.00" />
<rect height="0.049732" width="25.000000" x="175.000000" y="219.850805" fill="rgb(255, 165, 0)" style="fill-opacity:0.08" />
<rect height="0.149195" width="6.250000" x="193.750000" y="219.850805" fill="rgb(255, 165, 0)" style="fill-opacity:0.08" />
<!-- End 'G' -->
<!-- Begin 'T' -->
<rect height="15.266908" width="50.000000" x="150.000000" y="230.000000" fill="rgb(0, 100, 0)" style="fill-opacity:0.32" />
<rect height="95.418176" width="10.000000" x="170.000000" y="230.000000" fill="rgb(0, 100, 0)" style="fill-opacity:0.32" />
<!-- End 'T' -->
<!-- Begin 'C' -->
<ellipse cx="175.000000" cy="326.561442" rx="25.000000" ry="1.143267" fill="rgb(0, 0, 128)" style="fill-opacity:0.32" />
<ellipse cx="175.000000" cy="326.561442" rx="16.666667" ry="0.762178" fill="rgb(255, 255, 255)" style="fill-opacity:1.00" />
<rect height="1.143267" width="25.000000" x="175.000000" y="325.989809" fill="rgb(255, 255, 255)" style="fill-opacity:1.00" />
<!-- End 'C' -->
<!-- Begin 'G' -->
<ellipse cx="175.000000" cy="328.285066" rx="25.000000" ry="0.580357" fill="rgb(255, 165, 0)" style="fill-opacity:0.32" />
<ellipse cx="175.000000" cy="328.285066" rx="16.666667" ry="0.386904" fill="rgb(255, 255, 255)" style="fill-opacity:1.00" />
<rect height="0.580357" width="25.000000" x="175.000000" y="327.994887" fill="rgb(255, 255, 255)" style="fill-opacity:1.00" />
<rect height="0.145089" width="25.000000" x="175.000000" y="328.430155" fill="rgb(255, 165, 0)" style="fill-opacity:0.32" />
<rect height="0.435267" width="6.250000" x="193.750000" y="328.430155" fill="rgb(255, 165, 0)" style="fill-opacity:0.32" />
<!-- End 'G' -->
<!-- Begin 'A' -->
<polygon points=" 150.000000, 330.000000, 171.000000, 328.865422, 179.000000, 328.865422, 200.000000, 330.000000, 192.500000, 330.000000, 186.250000, 329.716356, 163.750000, 329.716356, 157.500000, 330.000000" fill="rgb(178, 34, 34)" style="fill-opacity:0.32" />
<!-- End 'A' -->
<!-- Begin 'C' -->
<ellipse cx="175.000000" cy="366.287234" rx="25.000000" ry="26.287234" fill="rgb(0, 0, 128)" style="fill-opacity:0.00" />
<ellipse cx="175.000000" cy="366.287234" rx="16.666667" ry="17.524822" fill="rgb(255, 255, 255)" style="fill-opacity:1.00" />
<rect height="26.287234" width="25.000000" x="175.000000" y="353.143617" fill="rgb(255, 255, 255)" style="fill-opacity:1.00" />
<!-- End 'C' -->
<!-- Begin 'T' -->
<rect height="6.888581" width="50.000000" x="150.000000" y="392.574467" fill="rgb(0, 100, 0)" style="fill-opacity:0.00" />
<rect height="43.053629" width="10.000000" x="170.000000" y="392.574467" fill="rgb(0, 100, 0)" style="fill-opacity:0.00" />
<!-- End 'T' -->
<!-- Begin 'G' -->
<ellipse cx="175.000000" cy="436.973643" rx="25.000000" ry="1.345547" fill="rgb(255, 165, 0)" style="fill-opacity:0.00" />
<ellipse cx="175.000000" cy="436.973643" rx="16.666667" ry="0.897031" fill="rgb(255, 255, 255)" style="fill-opacity:1.00" />
<rect height="1.345547" width="25.000000" x="175.000000" y="436.300870" fill="rgb(255, 255, 255)" style="fill-opacity:1.00" />
<rect height="0.336387" width="25.000000" x="175.000000" y="437.310030" fill="rgb(255, 165, 0)" style="fill-opacity:0.00" />
<rect height="1.009160" width="6.250000" x="193.750000" y="437.310030" fill="rgb(255, 165, 0)" style="fill-opacity:0.00" />
<!-- End 'G' -->
<!-- Begin 'A' -->
<polygon points=" 150.000000, 440.000000, 171.000000, 438.319190, 179.000000, 438.319190, 200.000000, 440.000000, 192.500000, 440.000000, 186.250000, 439.579797, 163.750000, 439.579797, 157.500000, 440.000000" fill="rgb(178, 34, 34)" style="fill-opacity:0.00" />
<!-- End 'A' -->
<!-- Begin 'C' -->
<ellipse cx="235.000000" cy="59.378641" rx="25.000000" ry="49.378641" fill="rgb(0, 0, 128)" style="fill-opacity:0.03" />
<ellipse cx="235.000000" cy="59.378641" rx="16.666667" ry="32.919094" fill="rgb(255, 255, 255)" style="fill-opacity:1.00" />
<rect height="49.378641" width="25.000000" x="235.000000" y="34.689320" fill="rgb(255, 255, 255)" style="fill-opacity:1.00" />
<!-- End 'C' -->
<!-- Begin 'A' -->
<polygon points=" 210.000000, 109.459642, 231.000000, 108.757282, 239.000000, 108.757282, 260.000000, 109.459642, 252.500000, 109.459642, 246.250000, 109.284052, 223.750000, 109.284052, 217.500000, 109.459642" fill="rgb(178, 34, 34)" style="fill-opacity:0.03" />
<!-- End 'A' -->
<!-- Begin 'T' -->
<rect height="0.084776" width="50.000000" x="210.000000" y="109.459642" fill="rgb(0, 100, 0)" style="fill-opacity:0.03" />
<rect height="0.529851" width="10.000000" x="230.000000" y="109.459642" fill="rgb(0, 100, 0)" style="fill-opacity:0.03" />
<!-- End 'T' -->
<!-- Begin 'G' -->
<ellipse cx="235.000000" cy="109.994747" rx="25.000000" ry="0.005253" fill="rgb(255, 165, 0)" style="fill-opacity:0.03" />
<ellipse cx="235.000000" cy="109.994747" rx="16.666667" ry="0.003502" fill="rgb(255, 255, 255)" style="fill-opacity:1.00" />
<rect height="0.005253" width="25.000000" x="235.000000" y="109.992120" fill="rgb(255, 255, 255)" style="fill-opacity:1.00" />
<rect height="0.001313" width="25.000000" x="235.000000" y="109.996060" fill="rgb(255, 165, 0)" style="fill-opacity:0.03" />
<rect height="0.003940" width="6.250000" x="253.750000" y="109.996060" fill="rgb(255, 165, 0)" style="fill-opacity:0.03" />
<!-- End 'G' -->
<!-- Begin 'C' -->
<ellipse cx="235.000000" cy="169.276985" rx="25.000000" ry="49.276985" fill="rgb(0, 0, 128)" style="fill-opacity:0.02" />
<ellipse cx="235.000000" cy="169.276985" rx="16.666667" ry="32.851323" fill="rgb(255, 255, 255)" style="fill-opacity:1.00" />
<rect height="49.276985" width="25.000000" x="235.000000" y="144.638492" fill="rgb(255, 255, 255)" style="fill-opacity:1.00" />
<!-- End 'C' -->
<!-- Begin 'A' -->
<polygon points=" 210.000000, 219.869887, 231.000000, 218.553969, 239.000000, 218.553969, 260.000000, 219.869887, 252.500000, 219.869887, 246.250000, 219.540907, 223.750000, 219.540907, 217.500000, 219.869887" fill="rgb(178, 34, 34)" style="fill-opacity:0.02" />
<!-- End 'A' -->
<!-- Begin 'G' -->
<ellipse cx="235.000000" cy="219.909566" rx="25.000000" ry="0.039679" fill="rgb(255, 165, 0)" style="fill-opacity:0.02" />
<ellipse cx="235.000000" cy="219.909566" rx="16.666667" ry="0.026453" fill="rgb(255, 255, 255)" style="fill-opacity:1.00" />
<rect height="0.039679" width="25.000000" x="235.000000" y="219.889726" fill="rgb(255, 255, 255)" style="fill-opacity:1.00" />
<rect height="0.009920" width="25.000000" x="235.000000" y="219.919486" fill="rgb(255, 165, 0)" style="fill-opacity:0.02" />
<rect height="0.029760" width="6.250000" x="253.750000" y="219.919486" fill="rgb(255, 165, 0)" style="fill-opacity:0.02" />
<!-- End 'G' -->
<!-- Begin 'T' -->
<rect height="0.008121" width="50.000000" x="210.000000" y="219.949246" fill="rgb(0, 100, 0)" style="fill-opacity:0.02" />
<rect height="0.050754" width="10.000000" x="230.000000" y="219.949246" fill="rgb(0, 100, 0)" style="fill-opacity:0.02" />
<!-- End 'T' -->
<!-- Begin 'C' -->
<ellipse cx="235.000000" cy="279.441705" rx="25.000000" ry="49.441705" fill="rgb(0, 0, 128)" style="fill-opacity:0.01" />
<ellipse cx="235.000000" cy="279.441705" rx="16.666667" ry="32.961136" fill="rgb(255, 255, 255)" style="fill-opacity:1.00" />
<rect height="49.441705" width="25.000000" x="235.000000" y="254.720852" fill="rgb(255, 255, 255)" style="fill-opacity:1.00" />
<!-- End 'C' -->
<!-- Begin 'A' -->
<polygon points=" 210.000000, 329.977119, 231.000000, 328.883409, 239.000000, 328.883409, 260.000000, 329.977119, 252.500000, 329.977119, 246.250000, 329.703692, 223.750000, 329.703692, 217.500000, 329.977119" fill="rgb(178, 34, 34)" style="fill-opacity:0.01" />
<!-- End 'A' -->
<!-- Begin 'G' -->
<ellipse cx="235.000000" cy="329.988271" rx="25.000000" ry="0.011152" fill="rgb(255, 165, 0)" style="fill-opacity:0.01" />
<ellipse cx="235.000000" cy="329.988271" rx="16.666667" ry="0.007435" fill="rgb(255, 255, 255)" style="fill-opacity:1.00" />
<rect height="0.011152" width="25.000000" x="235.000000" y="329.982695" fill="rgb(255, 255, 255)" style="fill-opacity:1.00" />
<rect height="0.002788" width="25.000000" x="235.000000" y="329.991059" fill="rgb(255, 165, 0)" style="fill-opacity:0.01" />
<rect height="0.008364" width="6.250000" x="253.750000" y="329.991059" fill="rgb(255, 165, 0)" style="fill-opacity:0.01" />
<!-- End 'G' -->
<!-- Begin 'T' -->
<rect height="0.000092" width="50.000000" x="210.000000" y="329.999423" fill="rgb(0, 100, 0)" style="fill-opacity:0.01" />
<rect height="0.000577" width="10.000000" x="230.000000" y="329.999423" fill="rgb(0, 100, 0)" style="fill-opacity:0.01" />
<!-- End 'T' -->
<!-- Begin 'C' -->
<ellipse cx="235.000000" cy="386.038651" rx="25.000000" ry="46.038651" fill="rgb(0, 0, 128)" style="fill-opacity:0.93" />
<ellipse cx="235.000000" cy="386.038651" rx="16.666667" ry="30.692434" fill="rgb(255, 255, 255)" style="fill-opacity:1.00" />
<rect height="46.038651" width="25.000000" x="235.000000" y="363.019326" fill="rgb(255, 255, 255)" style="fill-opacity:1.00" />
<!-- End 'C' -->
<!-- Begin 'G' -->
<ellipse cx="235.000000" cy="435.836319" rx="25.000000" ry="3.759017" fill="rgb(255, 165, 0)" style="fill-opacity:0.93" />
<ellipse cx="235.000000" cy="435.836319" rx="16.666667" ry="2.506011" fill="rgb(255, 255, 255)" style="fill-opacity:1.00" />
<rect height="3.759017" width="25.000000" x="235.000000" y="433.956811" fill="rgb(255, 255, 255)" style="fill-opacity:1.00" />
<rect height="0.939754" width="25.000000" x="235.000000" y="436.776074" fill="rgb(255, 165, 0)" style="fill-opacity:0.93" />
<rect height="2.819262" width="6.250000" x="253.750000" y="436.776074" fill="rgb(255, 165, 0)" style="fill-opacity:0.93" />
<!-- End 'G' -->
<!-- Begin 'A' -->
<polygon points=" 210.000000, 439.835513, 231.000000, 439.595336, 239.000000, 439.595336, 260.000000, 439.835513, 252.500000, 439.835513, 246.250000, 439.775469, 223.750000, 439.775469, 217.500000, 439.835513" fill="rgb(178, 34, 34)" style="fill-opacity:0.93" />
<!-- End 'A' -->
<!-- Begin 'T' -->
<rect height="0.026318" width="50.000000" x="210.000000" y="439.835513" fill="rgb(0, 100, 0)" style="fill-opacity:0.93" />
<rect height="0.164487" width="10.000000" x="230.000000" y="439.835513" fill="rgb(0, 100, 0)" style="fill-opacity:0.93" />
<!-- End 'T' -->
<!-- Begin 'A' -->
<polygon points=" 270.000000, 108.639044, 291.000000, 10.000000, 299.000000, 10.000000, 320.000000, 108.639044, 312.500000, 108.639044, 306.250000, 83.979283, 283.750000, 83.979283, 277.500000, 108.639044" fill="rgb(178, 34, 34)" style="fill-opacity:0.00" />
<polygon points=" 295.000000, 29.727809, 287.000000, 68.183427, 302.000000, 68.183427" fill="rgb(255, 255, 255)" style="fill-opacity:1.00" />
<!-- End 'A' -->
<!-- Begin 'G' -->
<ellipse cx="295.000000" cy="109.123914" rx="25.000000" ry="0.484870" fill="rgb(255, 165, 0)" style="fill-opacity:0.00" />
<ellipse cx="295.000000" cy="109.123914" rx="16.666667" ry="0.323246" fill="rgb(255, 255, 255)" style="fill-opacity:1.00" />
<rect height="0.484870" width="25.000000" x="295.000000" y="108.881479" fill="rgb(255, 255, 255)" style="fill-opacity:1.00" />
<rect height="0.121217" width="25.000000" x="295.000000" y="109.245131" fill="rgb(255, 165, 0)" style="fill-opacity:0.00" />
<rect height="0.363652" width="6.250000" x="313.750000" y="109.245131" fill="rgb(255, 165, 0)" style="fill-opacity:0.00" />
<!-- End 'G' -->
<!-- Begin 'T' -->
<rect height="0.058931" width="50.000000" x="270.000000" y="109.608783" fill="rgb(0, 100, 0)" style="fill-opacity:0.00" />
<rect height="0.368321" width="10.000000" x="290.000000" y="109.608783" fill="rgb(0, 100, 0)" style="fill-opacity:0.00" />
<!-- End 'T' -->
<!-- Begin 'C' -->
<ellipse cx="295.000000" cy="109.988552" rx="25.000000" ry="0.011448" fill="rgb(0, 0, 128)" style="fill-opacity:0.00" />
<ellipse cx="295.000000" cy="109.988552" rx="16.666667" ry="0.007632" fill="rgb(255, 255, 255)" style="fill-opacity:1.00" />
<rect height="0.011448" width="25.000000" x="295.000000" y="109.982828" fill="rgb(255, 255, 255)" style="fill-opacity:1.00" />
<!-- End 'C' -->
<!-- Begin 'A' -->
<polygon points=" 270.000000, 217.036457, 291.000000, 120.000000, 299.000000, 120.000000, 320.000000, 217.036457, 312.500000, 217.036457, 306.250000, 192.777343, 283.750000, 192.777343, 277.500000, 217.036457" fill="rgb(178, 34, 34)" style="fill-opacity:0.93" />
<polygon points=" 295.000000, 139.407291, 287.000000, 177.221874, 302.000000, 177.221874" fill="rgb(255, 255, 255)" style="fill-opacity:1.00" />
<!-- End 'A' -->
<!-- Begin 'T' -->
<rect height="0.309452" width="50.000000" x="270.000000" y="217.036457" fill="rgb(0, 100, 0)" style="fill-opacity:0.93" />
<rect height="1.934073" width="10.000000" x="290.000000" y="217.036457" fill="rgb(0, 100, 0)" style="fill-opacity:0.93" />
<!-- End 'T' -->
<!-- Begin 'G' -->
<ellipse cx="295.000000" cy="219.463414" rx="25.000000" ry="0.492883" fill="rgb(255, 165, 0)" style="fill-opacity:0.93" />
<ellipse cx="295.000000" cy="219.463414" rx="16.666667" ry="0.328589" fill="rgb(255, 255, 255)" style="fill-opacity:1.00" />
<rect height="0.492883" width="25.000000" x="295.000000" y="219.216972" fill="rgb(255, 255, 255)" style="fill-opacity:1.00" />
<rect height="0.123221" width="25.000000" x="295.000000" y="219.586634" fill="rgb(255, 165, 0)" style="fill-opacity:0.93" />
<rect height="0.369662" width="6.250000" x="313.750000" y="219.586634" fill="rgb(255, 165, 0)" style="fill-opacity:0.93" />
<!-- End 'G' -->
<!-- Begin 'C' -->
<ellipse cx="295.000000" cy="219.978148" rx="25.000000" ry="0.021852" fill="rgb(0, 0, 128)" style="fill-opacity:0.93" />
<ellipse cx="295.000000" cy="219.978148" rx="16.666667" ry="0.014568" fill="rgb(255, 255, 255)" style="fill-opacity:1.00" />
<rect height="0.021852" width="25.000000" x="295.000000" y="219.967223" fill="rgb(255, 255, 255)" style="fill-opacity:1.00" />
<!-- End 'C' -->
<!-- Begin 'G' -->
<ellipse cx="295.000000" cy="271.912174" rx="25.000000" ry="41.912174" fill="rgb(255, 165, 0)" style="fill-opacity:0.07" />
<ellipse cx="295.000000" cy="271.912174" rx="16.666667" ry="27.941449" fill="rgb(255, 255, 255)" style="fill-opacity:1.00" />
<rect height="41.912174" width="25.000000" x="295.000000" y="250.956087" fill="rgb(255, 255, 255)" style="fill-opacity:1.00" />
<rect height="10.478043" width="25.000000" x="295.000000" y="282.390217" fill="rgb(255, 165, 0)" style="fill-opacity:0.07" />
<rect height="31.434130" width="6.250000" x="313.750000" y="282.390217" fill="rgb(255, 165, 0)" style="fill-opacity:0.07" />
<!-- End 'G' -->
<!-- Begin 'A' -->
<polygon points=" 270.000000, 329.988984, 291.000000, 313.824347, 299.000000, 313.824347, 320.000000, 329.988984, 312.500000, 329.988984, 306.250000, 325.947825, 283.750000, 325.947825, 277.500000, 329.988984" fill="rgb(178, 34, 34)" style="fill-opacity:0.07" />
<polygon points=" 295.000000, 317.057275, 287.000000, 322.523129, 302.000000, 322.523129" fill="rgb(255, 255, 255)" style="fill-opacity:1.00" />
<!-- End 'A' -->
<!-- Begin 'C' -->
<ellipse cx="295.000000" cy="329.993889" rx="25.000000" ry="0.004905" fill="rgb(0, 0, 128)" style="fill-opacity:0.07" />
<ellipse cx="295.000000" cy="329.993889" rx="16.666667" ry="0.003270" fill="rgb(255, 255, 255)" style="fill-opacity:1.00" />
<rect height="0.004905" width="25.000000" x="295.000000" y="329.991436" fill="rgb(255, 255, 255)" style="fill-opacity:1.00" />
<!-- End 'C' -->
<!-- Begin 'T' -->
<rect height="0.000193" width="50.000000" x="270.000000" y="329.998793" fill="rgb(0, 100, 0)" style="fill-opacity:0.07" />
<rect height="0.001207" width="10.000000" x="290.000000" y="329.998793" fill="rgb(0, 100, 0)" style="fill-opacity:0.07" />
<!-- End 'T' -->
<!-- Begin 'A' -->
<polygon points=" 270.000000, 439.732442, 291.000000, 340.000000, 299.000000, 340.000000, 320.000000, 439.732442, 312.500000, 439.732442, 306.250000, 414.799331, 283.750000, 414.799331, 277.500000, 439.732442" fill="rgb(178, 34, 34)" style="fill-opacity:0.00" />
<polygon points=" 295.000000, 359.946488, 287.000000, 398.839465, 302.000000, 398.839465" fill="rgb(255, 255, 255)" style="fill-opacity:1.00" />
<!-- End 'A' -->
<!-- Begin 'G' -->
<ellipse cx="295.000000" cy="439.846628" rx="25.000000" ry="0.114186" fill="rgb(255, 165, 0)" style="fill-opacity:0.00" />
<ellipse cx="295.000000" cy="439.846628" rx="16.666667" ry="0.076124" fill="rgb(255, 255, 255)" style="fill-opacity:1.00" />
<rect height="0.114186" width="25.000000" x="295.000000" y="439.789535" fill="rgb(255, 255, 255)" style="fill-opacity:1.00" />
<rect height="0.028546" width="25.000000" x="295.000000" y="439.875174" fill="rgb(255, 165, 0)" style="fill-opacity:0.00" />
<rect height="0.085639" width="6.250000" x="313.750000" y="439.875174" fill="rgb(255, 165, 0)" style="fill-opacity:0.00" />
<!-- End 'G' -->
<!-- Begin 'C' -->
<ellipse cx="295.000000" cy="439.973336" rx="25.000000" ry="0.012522" fill="rgb(0, 0, 128)" style="fill-opacity:0.00" />
<ellipse cx="295.000000" cy="439.973336" rx="16.666667" ry="0.008348" fill="rgb(255, 255, 255)" style="fill-opacity:1.00" />
<rect height="0.012522" width="25.000000" x="295.000000" y="439.967075" fill="rgb(255, 255, 255)" style="fill-opacity:1.00" />
<!-- End 'C' -->
<!-- Begin 'T' -->
<rect height="0.002263" width="50.000000" x="270.000000" y="439.985857" fill="rgb(0, 100, 0)" style="fill-opacity:0.00" />
<rect height="0.014143" width="10.000000" x="290.000000" y="439.985857" fill="rgb(0, 100, 0)" style="fill-opacity:0.00" />
<!-- End 'T' -->
<!-- Begin 'C' -->
<ellipse cx="355.000000" cy="40.275629" rx="25.000000" ry="30.275629" fill="rgb(0, 0, 128)" style="fill-opacity:0.91" />
<ellipse cx="355.000000" cy="40.275629" rx="16.666667" ry="20.183753" fill="rgb(255, 255, 255)" style="fill-opacity:1.00" />
<rect height="30.275629" width="25.000000" x="355.000000" y="25.137814" fill="rgb(255, 255, 255)" style="fill-opacity:1.00" />
<!-- End 'C' -->
<!-- Begin 'G' -->
<ellipse cx="355.000000" cy="89.339345" rx="25.000000" ry="18.788088" fill="rgb(255, 165, 0)" style="fill-opacity:0.91" />
<ellipse cx="355.000000" cy="89.339345" rx="16.666667" ry="12.525392" fill="rgb(255, 255, 255)" style="fill-opacity:1.00" />
<rect height="18.788088" width="25.000000" x="355.000000" y="79.945302" fill="rgb(255, 255, 255)" style="fill-opacity:1.00" />
<rect height="4.697022" width="25.000000" x="355.000000" y="94.036367" fill="rgb(255, 165, 0)" style="fill-opacity:0.91" />
<rect height="14.091066" width="6.250000" x="373.750000" y="94.036367" fill="rgb(255, 165, 0)" style="fill-opacity:0.91" />
<!-- End 'G' -->
<!-- Begin 'T' -->
<rect height="0.286551" width="50.000000" x="330.000000" y="108.127433" fill="rgb(0, 100, 0)" style="fill-opacity:0.91" />
<rect height="1.790941" width="10.000000" x="350.000000" y="108.127433" fill="rgb(0, 100, 0)" style="fill-opacity:0.91" />
<!-- End 'T' -->
<!-- Begin 'A' -->
<polygon points=" 330.000000, 110.000000, 351.000000, 109.918375, 359.000000, 109.918375, 380.000000, 110.000000, 372.500000, 110.000000, 366.250000, 109.979594, 343.750000, 109.979594, 337.500000, 110.000000" fill="rgb(178, 34, 34)" style="fill-opacity:0.91" />
<!-- End 'A' -->
<!-- Begin 'T' -->
<rect height="9.124662" width="50.000000" x="330.000000" y="120.000000" fill="rgb(0, 100, 0)" style="fill-opacity:0.00" />
<rect height="57.029138" width="10.000000" x="350.000000" y="120.000000" fill="rgb(0, 100, 0)" style="fill-opacity:0.00" />
<!-- End 'T' -->
<!-- Begin 'C' -->
<ellipse cx="355.000000" cy="198.444250" rx="25.000000" ry="21.415112" fill="rgb(0, 0, 128)" style="fill-opacity:0.00" />
<ellipse cx="355.000000" cy="198.444250" rx="16.666667" ry="14.276741" fill="rgb(255, 255, 255)" style="fill-opacity:1.00" />
<rect height="21.415112" width="25.000000" x="355.000000" y="187.736694" fill="rgb(255, 255, 255)" style="fill-opacity:1.00" />
<!-- End 'C' -->
<!-- Begin 'A' -->
<polygon points=" 330.000000, 219.998891, 351.000000, 219.859362, 359.000000, 219.859362, 380.000000, 219.998891, 372.500000, 219.998891, 366.250000, 219.964009, 343.750000, 219.964009, 337.500000, 219.998891" fill="rgb(178, 34, 34)" style="fill-opacity:0.00" />
<!-- End 'A' -->
<!-- Begin 'G' -->
<ellipse cx="355.000000" cy="219.999446" rx="25.000000" ry="0.000554" fill="rgb(255, 165, 0)" style="fill-opacity:0.00" />
<ellipse cx="355.000000" cy="219.999446" rx="16.666667" ry="0.000370" fill="rgb(255, 255, 255)" style="fill-opacity:1.00" />
<rect height="0.000554" width="25.000000" x="355.000000" y="219.999169" fill="rgb(255, 255, 255)" style="fill-opacity:1.00" />
<rect height="0.000139" width="25.000000" x="355.000000" y="219.999584" fill="rgb(255, 165, 0)" style="fill-opacity:0.00" />
<rect height="0.000416" width="6.250000" x="373.750000" y="219.999584" fill="rgb(255, 165, 0)" style="fill-opacity:0.00" />
<!-- End 'G' -->
<!-- Begin 'G' -->
<ellipse cx="355.000000" cy="249.213885" rx="25.000000" ry="19.213885" fill="rgb(255, 165, 0)" style="fill-opacity:0.07" />
<ellipse cx="355.000000" cy="249.213885" rx="16.666667" ry="12.809257" fill="rgb(255, 255, 255)" style="fill-opacity:1.00" />
<rect height="19.213885" width="25.000000" x="355.000000" y="239.606942" fill="rgb(255, 255, 255)" style="fill-opacity:1.00" />
<rect height="4.803471" width="25.000000" x="355.000000" y="254.017356" fill="rgb(255, 165, 0)" style="fill-opacity:0.07" />
<rect height="14.410414" width="6.250000" x="373.750000" y="254.017356" fill="rgb(255, 165, 0)" style="fill-opacity:0.07" />
<!-- End 'G' -->
<!-- Begin 'C' -->
<ellipse cx="355.000000" cy="287.295582" rx="25.000000" ry="18.867813" fill="rgb(0, 0, 128)" style="fill-opacity:0.07" />
<ellipse cx="355.000000" cy="287.295582" rx="16.666667" ry="12.578542" fill="rgb(255, 255, 255)" style="fill-opacity:1.00" />
<rect height="18.867813" width="25.000000" x="355.000000" y="277.861676" fill="rgb(255, 255, 255)" style="fill-opacity:1.00" />
<!-- End 'C' -->
<!-- Begin 'T' -->
<rect height="3.813818" width="50.000000" x="330.000000" y="306.163395" fill="rgb(0, 100, 0)" style="fill-opacity:0.07" />
<rect height="23.836363" width="10.000000" x="350.000000" y="306.163395" fill="rgb(0, 100, 0)" style="fill-opacity:0.07" />
<!-- End 'T' -->
<!-- Begin 'A' -->
<polygon points=" 330.000000, 330.000000, 351.000000, 329.999758, 359.000000, 329.999758, 380.000000, 330.000000, 372.500000, 330.000000, 366.250000, 329.999940, 343.750000, 329.999940, 337.500000, 330.000000" fill="rgb(178, 34, 34)" style="fill-opacity:0.07" />
<!-- End 'A' -->
<!-- Begin 'G' -->
<ellipse cx="355.000000" cy="368.578952" rx="25.000000" ry="28.578952" fill="rgb(255, 165, 0)" style="fill-opacity:0.02" />
<ellipse cx="355.000000" cy="368.578952" rx="16.666667" ry="19.052634" fill="rgb(255, 255, 255)" style="fill-opacity:1.00" />
<rect height="28.578952" width="25.000000" x="355.000000" y="354.289476" fill="rgb(255, 255, 255)" style="fill-opacity:1.00" />
<rect height="7.144738" width="25.000000" x="355.000000" y="375.723690" fill="rgb(255, 165, 0)" style="fill-opacity:0.02" />
<rect height="21.434214" width="6.250000" x="373.750000" y="375.723690" fill="rgb(255, 165, 0)" style="fill-opacity:0.02" />
<!-- End 'G' -->
<!-- Begin 'C' -->
<ellipse cx="355.000000" cy="418.303159" rx="25.000000" ry="21.145255" fill="rgb(0, 0, 128)" style="fill-opacity:0.02" />
<ellipse cx="355.000000" cy="418.303159" rx="16.666667" ry="14.096837" fill="rgb(255, 255, 255)" style="fill-opacity:1.00" />
<rect height="21.145255" width="25.000000" x="355.000000" y="407.730531" fill="rgb(255, 255, 255)" style="fill-opacity:1.00" />
<!-- End 'C' -->
<!-- Begin 'T' -->
<rect height="0.071791" width="50.000000" x="330.000000" y="439.448414" fill="rgb(0, 100, 0)" style="fill-opacity:0.02" />
<rect height="0.448693" width="10.000000" x="350.000000" y="439.448414" fill="rgb(0, 100, 0)" style="fill-opacity:0.02" />
<!-- End 'T' -->
<!-- Begin 'A' -->
<polygon points=" 330.000000, 440.000000, 351.000000, 439.897108, 359.000000, 439.897108, 380.000000, 440.000000, 372.500000, 440.000000, 366.250000, 439.974277, 343.750000, 439.974277, 337.500000, 440.000000" fill="rgb(178, 34, 34)" style="fill-opacity:0.02" />
<!-- End 'A' -->
<!-- Begin 'G' -->
<ellipse cx="415.000000" cy="53.778430" rx="25.000000" ry="43.778430" fill="rgb(255, 165, 0)" style="fill-opacity:0.00" />
<ellipse cx="415.000000" cy="53.778430" rx="16.666667" ry="29.185620" fill="rgb(255, 255, 255)" style="fill-opacity:1.00" />
<rect height="43.778430" width="25.000000" x="415.000000" y="31.889215" fill="rgb(255, 255, 255)" style="fill-opacity:1.00" />
<rect height="10.944607" width="25.000000" x="415.000000" y="64.723037" fill="rgb(255, 165, 0)" style="fill-opacity:0.00" />
<rect height="32.833822" width="6.250000" x="433.750000" y="64.723037" fill="rgb(255, 165, 0)" style="fill-opacity:0.00" />
<!-- End 'G' -->
<!-- Begin 'C' -->
<ellipse cx="415.000000" cy="103.620814" rx="25.000000" ry="6.063954" fill="rgb(0, 0, 128)" style="fill-opacity:0.00" />
<ellipse cx="415.000000" cy="103.620814" rx="16.666667" ry="4.042636" fill="rgb(255, 255, 255)" style="fill-opacity:1.00" />
<rect height="6.063954" width="25.000000" x="415.000000" y="100.588837" fill="rgb(255, 255, 255)" style="fill-opacity:1.00" />
<!-- End 'C' -->
<!-- Begin 'A' -->
<polygon points=" 390.000000, 109.948812, 411.000000, 109.684767, 419.000000, 109.684767, 440.000000, 109.948812, 432.500000, 109.948812, 426.250000, 109.882801, 403.750000, 109.882801, 397.500000, 109.948812" fill="rgb(178, 34, 34)" style="fill-opacity:0.00" />
<!-- End 'A' -->
<!-- Begin 'T' -->
<rect height="0.008190" width="50.000000" x="390.000000" y="109.948812" fill="rgb(0, 100, 0)" style="fill-opacity:0.00" />
<rect height="0.051188" width="10.000000" x="410.000000" y="109.948812" fill="rgb(0, 100, 0)" style="fill-opacity:0.00" />
<!-- End 'T' -->
<!-- Begin 'C' -->
<ellipse cx="415.000000" cy="150.717542" rx="25.000000" ry="30.717542" fill="rgb(0, 0, 128)" style="fill-opacity:0.59" />
<ellipse cx="415.000000" cy="150.717542" rx="16.666667" ry="20.478361" fill="rgb(255, 255, 255)" style="fill-opacity:1.00" />
<rect height="30.717542" width="25.000000" x="415.000000" y="135.358771" fill="rgb(255, 255, 255)" style="fill-opacity:1.00" />
<!-- End 'C' -->
<!-- Begin 'G' -->
<ellipse cx="415.000000" cy="198.118568" rx="25.000000" ry="16.683484" fill="rgb(255, 165, 0)" style="fill-opacity:0.59" />
<ellipse cx="415.000000" cy="198.118568" rx="16.666667" ry="11.122322" fill="rgb(255, 255, 255)" style="fill-opacity:1.00" />
<rect height="16.683484" width="25.000000" x="415.000000" y="189.776826" fill="rgb(255, 255, 255)" style="fill-opacity:1.00" />
<rect height="4.170871" width="25.000000" x="415.000000" y="202.289439" fill="rgb(255, 165, 0)" style="fill-opacity:0.59" />
<rect height="12.512613" width="6.250000" x="433.750000" y="202.289439" fill="rgb(255, 165, 0)" style="fill-opacity:0.59" />
<!-- End 'G' -->
<!-- Begin 'A' -->
<polygon points=" 390.000000, 219.824607, 411.000000, 214.802052, 419.000000, 214.802052, 440.000000, 219.824607, 432.500000, 219.824607, 426.250000, 218.568968, 403.750000, 218.568968, 397.500000, 219.824607" fill="rgb(178, 34, 34)" style="fill-opacity:0.59" />
<!-- End 'A' -->
<!-- Begin 'T' -->
<rect height="0.028063" width="50.000000" x="390.000000" y="219.824607" fill="rgb(0, 100, 0)" style="fill-opacity:0.59" />
<rect height="0.175393" width="10.000000" x="410.000000" y="219.824607" fill="rgb(0, 100, 0)" style="fill-opacity:0.59" />
<!-- End 'T' -->
<!-- Begin 'G' -->
<ellipse cx="415.000000" cy="276.886988" rx="25.000000" ry="46.886988" fill="rgb(255, 165, 0)" style="fill-opacity:0.38" />
<ellipse cx="415.000000" cy="276.886988" rx="16.666667" ry="31.257992" fill="rgb(255, 255, 255)" style="fill-opacity:1.00" />
<rect height="46.886988" width="25.000000" x="415.000000" y="253.443494" fill="rgb(255, 255, 255)" style="fill-opacity:1.00" />
<rect height="11.721747" width="25.000000" x="415.000000" y="288.608735" fill="rgb(255, 165, 0)" style="fill-opacity:0.38" />
<rect height="35.165241" width="6.250000" x="433.750000" y="288.608735" fill="rgb(255, 165, 0)" style="fill-opacity:0.38" />
<!-- End 'G' -->
<!-- Begin 'C' -->
<ellipse cx="415.000000" cy="326.136019" rx="25.000000" ry="2.362043" fill="rgb(0, 0, 128)" style="fill-opacity:0.38" />
<ellipse cx="415.000000" cy="326.136019" rx="16.666667" ry="1.574696" fill="rgb(255, 255, 255)" style="fill-opacity:1.00" />
<rect height="2.362043" width="25.000000" x="415.000000" y="324.954997" fill="rgb(255, 255, 255)" style="fill-opacity:1.00" />
<!-- End 'C' -->
<!-- Begin 'A' -->
<polygon points=" 390.000000, 329.997523, 411.000000, 328.498062, 419.000000, 328.498062, 440.000000, 329.997523, 432.500000, 329.997523, 426.250000, 329.622658, 403.750000, 329.622658, 397.500000, 329.997523" fill="rgb(178, 34, 34)" style="fill-opacity:0.38" />
<!-- End 'A' -->
<!-- Begin 'T' -->
<rect height="0.000396" width="50.000000" x="390.000000" y="329.997523" fill="rgb(0, 100, 0)" style="fill-opacity:0.38" />
<rect height="0.002477" width="10.000000" x="410.000000" y="329.997523" fill="rgb(0, 100, 0)" style="fill-opacity:0.38" />
<!-- End 'T' -->
<!-- Begin 'G' -->
<ellipse cx="415.000000" cy="382.385828" rx="25.000000" ry="42.385828" fill="rgb(255, 165, 0)" style="fill-opacity:0.03" />
<ellipse cx="415.000000" cy="382.385828" rx="16.666667" ry="28.257219" fill="rgb(255, 255, 255)" style="fill-opacity:1.00" />
<rect height="42.385828" width="25.000000" x="415.000000" y="361.192914" fill="rgb(255, 255, 255)" style="fill-opacity:1.00" />
<rect height="10.596457" width="25.000000" x="415.000000" y="392.982285" fill="rgb(255, 165, 0)" style="fill-opacity:0.03" />
<rect height="31.789371" width="6.250000" x="433.750000" y="392.982285" fill="rgb(255, 165, 0)" style="fill-opacity:0.03" />
<!-- End 'G' -->
<!-- Begin 'C' -->
<ellipse cx="415.000000" cy="431.809503" rx="25.000000" ry="7.037847" fill="rgb(0, 0, 128)" style="fill-opacity:0.03" />
<ellipse cx="415.000000" cy="431.809503" rx="16.666667" ry="4.691898" fill="rgb(255, 255, 255)" style="fill-opacity:1.00" />
<rect height="7.037847" width="25.000000" x="415.000000" y="428.290579" fill="rgb(255, 255, 255)" style="fill-opacity:1.00" />
<!-- End 'C' -->
<!-- Begin 'A' -->
<polygon points=" 390.000000, 439.999842, 411.000000, 438.847349, 419.000000, 438.847349, 440.000000, 439.999842, 432.500000, 439.999842, 426.250000, 439.711719, 403.750000, 439.711719, 397.500000, 439.999842" fill="rgb(178, 34, 34)" style="fill-opacity:0.03" />
<!-- End 'A' -->
<!-- Begin 'T' -->
<rect height="0.000025" width="50.000000" x="390.000000" y="439.999842" fill="rgb(0, 100, 0)" style="fill-opacity:0.03" />
<rect height="0.000158" width="10.000000" x="410.000000" y="439.999842" fill="rgb(0, 100, 0)" style="fill-opacity:0.03" />
<!-- End 'T' -->
<!-- Begin 'C' -->
<ellipse cx="475.000000" cy="44.816022" rx="25.000000" ry="34.816022" fill="rgb(0, 0, 128)" style="fill-opacity:0.04" />
<ellipse cx="475.000000" cy="44.816022" rx="16.666667" ry="23.210681" fill="rgb(255, 255, 255)" style="fill-opacity:1.00" />
<rect height="34.816022" width="25.000000" x="475.000000" y="27.408011" fill="rgb(255, 255, 255)" style="fill-opacity:1.00" />
<!-- End 'C' -->
<!-- Begin 'T' -->
<rect height="4.261873" width="50.000000" x="450.000000" y="79.632044" fill="rgb(0, 100, 0)" style="fill-opacity:0.04" />
<rect height="26.636708" width="10.000000" x="470.000000" y="79.632044" fill="rgb(0, 100, 0)" style="fill-opacity:0.04" />
<!-- End 'T' -->
<!-- Begin 'G' -->
<ellipse cx="475.000000" cy="107.701890" rx="25.000000" ry="1.433138" fill="rgb(255, 165, 0)" style="fill-opacity:0.04" />
<ellipse cx="475.000000" cy="107.701890" rx="16.666667" ry="0.955425" fill="rgb(255, 255, 255)" style="fill-opacity:1.00" />
<rect height="1.433138" width="25.000000" x="475.000000" y="106.985321" fill="rgb(255, 255, 255)" style="fill-opacity:1.00" />
<rect height="0.358284" width="25.000000" x="475.000000" y="108.060174" fill="rgb(255, 165, 0)" style="fill-opacity:0.04" />
<rect height="1.074853" width="6.250000" x="493.750000" y="108.060174" fill="rgb(255, 165, 0)" style="fill-opacity:0.04" />
<!-- End 'G' -->
<!-- Begin 'A' -->
<polygon points=" 450.000000, 110.000000, 471.000000, 109.135027, 479.000000, 109.135027, 500.000000, 110.000000, 492.500000, 110.000000, 486.250000, 109.783757, 463.750000, 109.783757, 457.500000, 110.000000" fill="rgb(178, 34, 34)" style="fill-opacity:0.04" />
<!-- End 'A' -->
<!-- Begin 'T' -->
<rect height="14.676490" width="50.000000" x="450.000000" y="120.000000" fill="rgb(0, 100, 0)" style="fill-opacity:0.38" />
<rect height="91.728060" width="10.000000" x="470.000000" y="120.000000" fill="rgb(0, 100, 0)" style="fill-opacity:0.38" />
<!-- End 'T' -->
<!-- Begin 'C' -->
<ellipse cx="475.000000" cy="215.040247" rx="25.000000" ry="3.312188" fill="rgb(0, 0, 128)" style="fill-opacity:0.38" />
<ellipse cx="475.000000" cy="215.040247" rx="16.666667" ry="2.208125" fill="rgb(255, 255, 255)" style="fill-opacity:1.00" />
<rect height="3.312188" width="25.000000" x="475.000000" y="213.384154" fill="rgb(255, 255, 255)" style="fill-opacity:1.00" />
<!-- End 'C' -->
<!-- Begin 'A' -->
<polygon points=" 450.000000, 219.999999, 471.000000, 218.352435, 479.000000, 218.352435, 500.000000, 219.999999, 492.500000, 219.999999, 486.250000, 219.588108, 463.750000, 219.588108, 457.500000, 219.999999" fill="rgb(178, 34, 34)" style="fill-opacity:0.38" />
<!-- End 'A' -->
<!-- Begin 'G' -->
<ellipse cx="475.000000" cy="220.000000" rx="25.000000" ry="0.000000" fill="rgb(255, 165, 0)" style="fill-opacity:0.38" />
<ellipse cx="475.000000" cy="220.000000" rx="16.666667" ry="0.000000" fill="rgb(255, 255, 255)" style="fill-opacity:1.00" />
<rect height="0.000000" width="25.000000" x="475.000000" y="219.999999" fill="rgb(255, 255, 255)" style="fill-opacity:1.00" />
<rect height="0.000000" width="25.000000" x="475.000000" y="220.000000" fill="rgb(255, 165, 0)" style="fill-opacity:0.38" />
<rect height="0.000000" width="6.250000" x="493.750000" y="220.000000" fill="rgb(255, 165, 0)" style="fill-opacity:0.38" />
<!-- End 'G' -->
<!-- Begin 'T' -->
<rect height="15.063720" width="50.000000" x="450.000000" y="230.000000" fill="rgb(0, 100, 0)" style="fill-opacity:0.58" />
<rect height="94.148249" width="10.000000" x="470.000000" y="230.000000" fill="rgb(0, 100, 0)" style="fill-opacity:0.58" />
<!-- End 'T' -->
<!-- Begin 'C' -->
<ellipse cx="475.000000" cy="326.231936" rx="25.000000" ry="2.083687" fill="rgb(0, 0, 128)" style="fill-opacity:0.58" />
<ellipse cx="475.000000" cy="326.231936" rx="16.666667" ry="1.389124" fill="rgb(255, 255, 255)" style="fill-opacity:1.00" />
<rect height="2.083687" width="25.000000" x="475.000000" y="325.190092" fill="rgb(255, 255, 255)" style="fill-opacity:1.00" />
<!-- End 'C' -->
<!-- Begin 'A' -->
<polygon points=" 450.000000, 329.971596, 471.000000, 328.315622, 479.000000, 328.315622, 500.000000, 329.971596, 492.500000, 329.971596, 486.250000, 329.557603, 463.750000, 329.557603, 457.500000, 329.971596" fill="rgb(178, 34, 34)" style="fill-opacity:0.58" />
<!-- End 'A' -->
<!-- Begin 'G' -->
<ellipse cx="475.000000" cy="329.985798" rx="25.000000" ry="0.014202" fill="rgb(255, 165, 0)" style="fill-opacity:0.58" />
<ellipse cx="475.000000" cy="329.985798" rx="16.666667" ry="0.009468" fill="rgb(255, 255, 255)" style="fill-opacity:1.00" />
<rect height="0.014202" width="25.000000" x="475.000000" y="329.978697" fill="rgb(255, 255, 255)" style="fill-opacity:1.00" />
<rect height="0.003550" width="25.000000" x="475.000000" y="329.989349" fill="rgb(255, 165, 0)" style="fill-opacity:0.58" />
<rect height="0.010651" width="6.250000" x="493.750000" y="329.989349" fill="rgb(255, 165, 0)" style="fill-opacity:0.58" />
<!-- End 'G' -->
<!-- Begin 'T' -->
<rect height="15.050797" width="50.000000" x="450.000000" y="340.000000" fill="rgb(0, 100, 0)" style="fill-opacity:0.00" />
<rect height="94.067482" width="10.000000" x="470.000000" y="340.000000" fill="rgb(0, 100, 0)" style="fill-opacity:0.00" />
<!-- End 'T' -->
<!-- Begin 'C' -->
<ellipse cx="475.000000" cy="436.215923" rx="25.000000" ry="2.148441" fill="rgb(0, 0, 128)" style="fill-opacity:0.00" />
<ellipse cx="475.000000" cy="436.215923" rx="16.666667" ry="1.432294" fill="rgb(255, 255, 255)" style="fill-opacity:1.00" />
<rect height="2.148441" width="25.000000" x="475.000000" y="435.141703" fill="rgb(255, 255, 255)" style="fill-opacity:1.00" />
<!-- End 'C' -->
<!-- Begin 'G' -->
<ellipse cx="475.000000" cy="439.182080" rx="25.000000" ry="0.817716" fill="rgb(255, 165, 0)" style="fill-opacity:0.00" />
<ellipse cx="475.000000" cy="439.182080" rx="16.666667" ry="0.545144" fill="rgb(255, 255, 255)" style="fill-opacity:1.00" />
<rect height="0.817716" width="25.000000" x="475.000000" y="438.773222" fill="rgb(255, 255, 255)" style="fill-opacity:1.00" />
<rect height="0.204429" width="25.000000" x="475.000000" y="439.386509" fill="rgb(255, 165, 0)" style="fill-opacity:0.00" />
<rect height="0.613287" width="6.250000" x="493.750000" y="439.386509" fill="rgb(255, 165, 0)" style="fill-opacity:0.00" />
<!-- End 'G' -->
<!-- Begin 'A' -->
<polygon points=" 450.000000, 440.000000, 471.000000, 439.999796, 479.000000, 439.999796, 500.000000, 440.000000, 492.500000, 440.000000, 486.250000, 439.999949, 463.750000, 439.999949, 457.500000, 440.000000" fill="rgb(178, 34, 34)" style="fill-opacity:0.00" />
<!-- End 'A' -->
<!-- Begin 'G' -->
<ellipse cx="535.000000" cy="59.842467" rx="25.000000" ry="49.842467" fill="rgb(255, 165, 0)" style="fill-opacity:0.02" />
<ellipse cx="535.000000" cy="59.842467" rx="16.666667" ry="33.228311" fill="rgb(255, 255, 255)" style="fill-opacity:1.00" />
<rect height="49.842467" width="25.000000" x="535.000000" y="34.921234" fill="rgb(255, 255, 255)" style="fill-opacity:1.00" />
<rect height="12.460617" width="25.000000" x="535.000000" y="72.303084" fill="rgb(255, 165, 0)" style="fill-opacity:0.02" />
<rect height="37.381850" width="6.250000" x="553.750000" y="72.303084" fill="rgb(255, 165, 0)" style="fill-opacity:0.02" />
<!-- End 'G' -->
<!-- Begin 'C' -->
<ellipse cx="535.000000" cy="109.820955" rx="25.000000" ry="0.136021" fill="rgb(0, 0, 128)" style="fill-opacity:0.02" />
<ellipse cx="535.000000" cy="109.820955" rx="16.666667" ry="0.090680" fill="rgb(255, 255, 255)" style="fill-opacity:1.00" />
<rect height="0.136021" width="25.000000" x="535.000000" y="109.752944" fill="rgb(255, 255, 255)" style="fill-opacity:1.00" />
<!-- End 'C' -->
<!-- Begin 'A' -->
<polygon points=" 510.000000, 109.998426, 531.000000, 109.956975, 539.000000, 109.956975, 560.000000, 109.998426, 552.500000, 109.998426, 546.250000, 109.988063, 523.750000, 109.988063, 517.500000, 109.998426" fill="rgb(178, 34, 34)" style="fill-opacity:0.02" />
<!-- End 'A' -->
<!-- Begin 'T' -->
<rect height="0.000252" width="50.000000" x="510.000000" y="109.998426" fill="rgb(0, 100, 0)" style="fill-opacity:0.02" />
<rect height="0.001574" width="10.000000" x="530.000000" y="109.998426" fill="rgb(0, 100, 0)" style="fill-opacity:0.02" />
<!-- End 'T' -->
<!-- Begin 'C' -->
<ellipse cx="535.000000" cy="164.216815" rx="25.000000" ry="44.216815" fill="rgb(0, 0, 128)" style="fill-opacity:0.07" />
<ellipse cx="535.000000" cy="164.216815" rx="16.666667" ry="29.477877" fill="rgb(255, 255, 255)" style="fill-opacity:1.00" />
<rect height="44.216815" width="25.000000" x="535.000000" y="142.108408" fill="rgb(255, 255, 255)" style="fill-opacity:1.00" />
<!-- End 'C' -->
<!-- Begin 'G' -->
<ellipse cx="535.000000" cy="212.885555" rx="25.000000" ry="4.451925" fill="rgb(255, 165, 0)" style="fill-opacity:0.07" />
<ellipse cx="535.000000" cy="212.885555" rx="16.666667" ry="2.967950" fill="rgb(255, 255, 255)" style="fill-opacity:1.00" />
<rect height="4.451925" width="25.000000" x="535.000000" y="210.659593" fill="rgb(255, 255, 255)" style="fill-opacity:1.00" />
<rect height="1.112981" width="25.000000" x="535.000000" y="213.998537" fill="rgb(255, 165, 0)" style="fill-opacity:0.07" />
<rect height="3.338943" width="6.250000" x="553.750000" y="213.998537" fill="rgb(255, 165, 0)" style="fill-opacity:0.07" />
<!-- End 'G' -->
<!-- Begin 'T' -->
<rect height="0.424945" width="50.000000" x="510.000000" y="217.337480" fill="rgb(0, 100, 0)" style="fill-opacity:0.07" />
<rect height="2.655908" width="10.000000" x="530.000000" y="217.337480" fill="rgb(0, 100, 0)" style="fill-opacity:0.07" />
<!-- End 'T' -->
<!-- Begin 'A' -->
<polygon points=" 510.000000, 220.000000, 531.000000, 219.993388, 539.000000, 219.993388, 560.000000, 220.000000, 552.500000, 220.000000, 546.250000, 219.998347, 523.750000, 219.998347, 517.500000, 220.000000" fill="rgb(178, 34, 34)" style="fill-opacity:0.07" />
<!-- End 'A' -->
<!-- Begin 'G' -->
<ellipse cx="535.000000" cy="279.617810" rx="25.000000" ry="49.617810" fill="rgb(255, 165, 0)" style="fill-opacity:0.00" />
<ellipse cx="535.000000" cy="279.617810" rx="16.666667" ry="33.078540" fill="rgb(255, 255, 255)" style="fill-opacity:1.00" />
<rect height="49.617810" width="25.000000" x="535.000000" y="254.808905" fill="rgb(255, 255, 255)" style="fill-opacity:1.00" />
<rect height="12.404452" width="25.000000" x="535.000000" y="292.022262" fill="rgb(255, 165, 0)" style="fill-opacity:0.00" />
<rect height="37.213357" width="6.250000" x="553.750000" y="292.022262" fill="rgb(255, 165, 0)" style="fill-opacity:0.00" />
<!-- End 'G' -->
<!-- Begin 'C' -->
<ellipse cx="535.000000" cy="329.520895" rx="25.000000" ry="0.285275" fill="rgb(0, 0, 128)" style="fill-opacity:0.00" />
<ellipse cx="535.000000" cy="329.520895" rx="16.666667" ry="0.190184" fill="rgb(255, 255, 255)" style="fill-opacity:1.00" />
<rect height="0.285275" width="25.000000" x="535.000000" y="329.378257" fill="rgb(255, 255, 255)" style="fill-opacity:1.00" />
<!-- End 'C' -->
<!-- Begin 'T' -->
<rect height="0.026898" width="50.000000" x="510.000000" y="329.806170" fill="rgb(0, 100, 0)" style="fill-opacity:0.00" />
<rect height="0.168110" width="10.000000" x="530.000000" y="329.806170" fill="rgb(0, 100, 0)" style="fill-opacity:0.00" />
<!-- End 'T' -->
<!-- Begin 'A' -->
<polygon points=" 510.000000, 330.000000, 531.000000, 329.974280, 539.000000, 329.974280, 560.000000, 330.000000, 552.500000, 330.000000, 546.250000, 329.993570, 523.750000, 329.993570, 517.500000, 330.000000" fill="rgb(178, 34, 34)" style="fill-opacity:0.00" />
<!-- End 'A' -->
<!-- Begin 'G' -->
<ellipse cx="535.000000" cy="388.748242" rx="25.000000" ry="48.748242" fill="rgb(255, 165, 0)" style="fill-opacity:0.91" />
<ellipse cx="535.000000" cy="388.748242" rx="16.666667" ry="32.498828" fill="rgb(255, 255, 255)" style="fill-opacity:1.00" />
<rect height="48.748242" width="25.000000" x="535.000000" y="364.374121" fill="rgb(255, 255, 255)" style="fill-opacity:1.00" />
<rect height="12.187060" width="25.000000" x="535.000000" y="400.935302" fill="rgb(255, 165, 0)" style="fill-opacity:0.91" />
<rect height="36.561181" width="6.250000" x="553.750000" y="400.935302" fill="rgb(255, 165, 0)" style="fill-opacity:0.91" />
<!-- End 'G' -->
<!-- Begin 'C' -->
<ellipse cx="535.000000" cy="438.580132" rx="25.000000" ry="1.083648" fill="rgb(0, 0, 128)" style="fill-opacity:0.91" />
<ellipse cx="535.000000" cy="438.580132" rx="16.666667" ry="0.722432" fill="rgb(255, 255, 255)" style="fill-opacity:1.00" />
<rect height="1.083648" width="25.000000" x="535.000000" y="438.038308" fill="rgb(255, 255, 255)" style="fill-opacity:1.00" />
<!-- End 'C' -->
<!-- Begin 'T' -->
<rect height="0.040736" width="50.000000" x="510.000000" y="439.663781" fill="rgb(0, 100, 0)" style="fill-opacity:0.91" />
<rect height="0.254601" width="10.000000" x="530.000000" y="439.663781" fill="rgb(0, 100, 0)" style="fill-opacity:0.91" />
<!-- End 'T' -->
<!-- Begin 'A' -->
<polygon points=" 510.000000, 440.000000, 531.000000, 439.918381, 539.000000, 439.918381, 560.000000, 440.000000, 552.500000, 440.000000, 546.250000, 439.979595, 523.750000, 439.979595, 517.500000, 440.000000" fill="rgb(178, 34, 34)" style="fill-opacity:0.91" />
<!-- End 'A' -->
<!-- Begin 'T' -->
<rect height="10.813918" width="50.000000" x="570.000000" y="10.000000" fill="rgb(0, 100, 0)" style="fill-opacity:0.00" />
<rect height="67.586986" width="10.000000" x="590.000000" y="10.000000" fill="rgb(0, 100, 0)" style="fill-opacity:0.00" />
<!-- End 'T' -->
<!-- Begin 'A' -->
<polygon points=" 570.000000, 108.756729, 591.000000, 77.586986, 599.000000, 77.586986, 620.000000, 108.756729, 612.500000, 108.756729, 606.250000, 100.964293, 583.750000, 100.964293, 577.500000, 108.756729" fill="rgb(178, 34, 34)" style="fill-opacity:0.00" />
<polygon points=" 595.000000, 83.820935, 587.000000, 95.288832, 602.000000, 95.288832" fill="rgb(255, 255, 255)" style="fill-opacity:1.00" />
<!-- End 'A' -->
<!-- Begin 'G' -->
<ellipse cx="595.000000" cy="109.295116" rx="25.000000" ry="0.538387" fill="rgb(255, 165, 0)" style="fill-opacity:0.00" />
<ellipse cx="595.000000" cy="109.295116" rx="16.666667" ry="0.358924" fill="rgb(255, 255, 255)" style="fill-opacity:1.00" />
<rect height="0.538387" width="25.000000" x="595.000000" y="109.025923" fill="rgb(255, 255, 255)" style="fill-opacity:1.00" />
<rect height="0.134597" width="25.000000" x="595.000000" y="109.429713" fill="rgb(255, 165, 0)" style="fill-opacity:0.00" />
<rect height="0.403790" width="6.250000" x="613.750000" y="109.429713" fill="rgb(255, 165, 0)" style="fill-opacity:0.00" />
<!-- End 'G' -->
<!-- Begin 'C' -->
<ellipse cx="595.000000" cy="109.916751" rx="25.000000" ry="0.083249" fill="rgb(0, 0, 128)" style="fill-opacity:0.00" />
<ellipse cx="595.000000" cy="109.916751" rx="16.666667" ry="0.055499" fill="rgb(255, 255, 255)" style="fill-opacity:1.00" />
<rect height="0.083249" width="25.000000" x="595.000000" y="109.875127" fill="rgb(255, 255, 255)" style="fill-opacity:1.00" />
<!-- End 'C' -->
<!-- Begin 'A' -->
<polygon points=" 570.000000, 219.532981, 591.000000, 120.000000, 599.000000, 120.000000, 620.000000, 219.532981, 612.500000, 219.532981, 606.250000, 194.649736, 583.750000, 194.649736, 577.500000, 219.532981" fill="rgb(178, 34, 34)" style="fill-opacity:0.09" />
<polygon points=" 595.000000, 139.906596, 587.000000, 178.719789, 602.000000, 178.719789" fill="rgb(255, 255, 255)" style="fill-opacity:1.00" />
<!-- End 'A' -->
<!-- Begin 'T' -->
<rect height="0.063127" width="50.000000" x="570.000000" y="219.532981" fill="rgb(0, 100, 0)" style="fill-opacity:0.09" />
<rect height="0.394543" width="10.000000" x="590.000000" y="219.532981" fill="rgb(0, 100, 0)" style="fill-opacity:0.09" />
<!-- End 'T' -->
<!-- Begin 'C' -->
<ellipse cx="595.000000" cy="219.958807" rx="25.000000" ry="0.031283" fill="rgb(0, 0, 128)" style="fill-opacity:0.09" />
<ellipse cx="595.000000" cy="219.958807" rx="16.666667" ry="0.020855" fill="rgb(255, 255, 255)" style="fill-opacity:1.00" />
<rect height="0.031283" width="25.000000" x="595.000000" y="219.943165" fill="rgb(255, 255, 255)" style="fill-opacity:1.00" />
<!-- End 'C' -->
<!-- Begin 'G' -->
<ellipse cx="595.000000" cy="219.995045" rx="25.000000" ry="0.004955" fill="rgb(255, 165, 0)" style="fill-opacity:0.09" />
<ellipse cx="595.000000" cy="219.995045" rx="16.666667" ry="0.003303" fill="rgb(255, 255, 255)" style="fill-opacity:1.00" />
<rect height="0.004955" width="25.000000" x="595.000000" y="219.992568" fill="rgb(255, 255, 255)" style="fill-opacity:1.00" />
<rect height="0.001239" width="25.000000" x="595.000000" y="219.996284" fill="rgb(255, 165, 0)" style="fill-opacity:0.09" />
<rect height="0.003716" width="6.250000" x="613.750000" y="219.996284" fill="rgb(255, 165, 0)" style="fill-opacity:0.09" />
<!-- End 'G' -->
<!-- Begin 'A' -->
<polygon points=" 570.000000, 325.117801, 591.000000, 230.000000, 599.000000, 230.000000, 620.000000, 325.117801, 612.500000, 325.117801, 606.250000, 301.338351, 583.750000, 301.338351, 577.500000, 325.117801" fill="rgb(178, 34, 34)" style="fill-opacity:0.91" />
<polygon points=" 595.000000, 249.023560, 587.000000, 286.070681, 602.000000, 286.070681" fill="rgb(255, 255, 255)" style="fill-opacity:1.00" />
<!-- End 'A' -->
<!-- Begin 'T' -->
<rect height="0.416047" width="50.000000" x="570.000000" y="325.117801" fill="rgb(0, 100, 0)" style="fill-opacity:0.91" />
<rect height="2.600295" width="10.000000" x="590.000000" y="325.117801" fill="rgb(0, 100, 0)" style="fill-opacity:0.91" />
<!-- End 'T' -->
<!-- Begin 'G' -->
<ellipse cx="595.000000" cy="328.586210" rx="25.000000" ry="0.868114" fill="rgb(255, 165, 0)" style="fill-opacity:0.91" />
<ellipse cx="595.000000" cy="328.586210" rx="16.666667" ry="0.578743" fill="rgb(255, 255, 255)" style="fill-opacity:1.00" />
<rect height="0.868114" width="25.000000" x="595.000000" y="328.152153" fill="rgb(255, 255, 255)" style="fill-opacity:1.00" />
<rect height="0.217029" width="25.000000" x="595.000000" y="328.803239" fill="rgb(255, 165, 0)" style="fill-opacity:0.91" />
<rect height="0.651086" width="6.250000" x="613.750000" y="328.803239" fill="rgb(255, 165, 0)" style="fill-opacity:0.91" />
<!-- End 'G' -->
<!-- Begin 'C' -->
<ellipse cx="595.000000" cy="329.727162" rx="25.000000" ry="0.272838" fill="rgb(0, 0, 128)" style="fill-opacity:0.91" />
<ellipse cx="595.000000" cy="329.727162" rx="16.666667" ry="0.181892" fill="rgb(255, 255, 255)" style="fill-opacity:1.00" />
<rect height="0.272838" width="25.000000" x="595.000000" y="329.590743" fill="rgb(255, 255, 255)" style="fill-opacity:1.00" />
<!-- End 'C' -->
<!-- Begin 'A' -->
<polygon points=" 570.000000, 437.084946, 591.000000, 340.000000, 599.000000, 340.000000, 620.000000, 437.084946, 612.500000, 437.084946, 606.250000, 412.813709, 583.750000, 412.813709, 577.500000, 437.084946" fill="rgb(178, 34, 34)" style="fill-opacity:0.00" />
<polygon points=" 595.000000, 359.416989, 587.000000, 397.250967, 602.000000, 397.250967" fill="rgb(255, 255, 255)" style="fill-opacity:1.00" />
<!-- End 'A' -->
<!-- Begin 'T' -->
<rect height="0.256948" width="50.000000" x="570.000000" y="437.084946" fill="rgb(0, 100, 0)" style="fill-opacity:0.00" />
<rect height="1.605922" width="10.000000" x="590.000000" y="437.084946" fill="rgb(0, 100, 0)" style="fill-opacity:0.00" />
<!-- End 'T' -->
<!-- Begin 'C' -->
<ellipse cx="595.000000" cy="439.328963" rx="25.000000" ry="0.638095" fill="rgb(0, 0, 128)" style="fill-opacity:0.00" />
<ellipse cx="595.000000" cy="439.328963" rx="16.666667" ry="0.425397" fill="rgb(255, 255, 255)" style="fill-opacity:1.00" />
<rect height="0.638095" width="25.000000" x="595.000000" y="439.009916" fill="rgb(255, 255, 255)" style="fill-opacity:1.00" />
<!-- End 'C' -->
<!-- Begin 'G' -->
<ellipse cx="595.000000" cy="439.983529" rx="25.000000" ry="0.016471" fill="rgb(255, 165, 0)" style="fill-opacity:0.00" />
<ellipse cx="595.000000" cy="439.983529" rx="16.666667" ry="0.010980" fill="rgb(255, 255, 255)" style="fill-opacity:1.00" />
<rect height="0.016471" width="25.000000" x="595.000000" y="439.975294" fill="rgb(255, 255, 255)" style="fill-opacity:1.00" />
<rect height="0.004118" width="25.000000" x="595.000000" y="439.987647" fill="rgb(255, 165, 0)" style="fill-opacity:0.00" />
<rect height="0.012353" width="6.250000" x="613.750000" y="439.987647" fill="rgb(255, 165, 0)" style="fill-opacity:0.00" />
<!-- End 'G' -->
<!-- Begin 'T' -->
<rect height="9.704021" width="50.000000" x="630.000000" y="10.000000" fill="rgb(0, 100, 0)" style="fill-opacity:0.95" />
<rect height="60.650130" width="10.000000" x="650.000000" y="10.000000" fill="rgb(0, 100, 0)" style="fill-opacity:0.95" />
<!-- End 'T' -->
<!-- Begin 'C' -->
<ellipse cx="655.000000" cy="86.376255" rx="25.000000" ry="15.726125" fill="rgb(0, 0, 128)" style="fill-opacity:0.95" />
<ellipse cx="655.000000" cy="86.376255" rx="16.666667" ry="10.484083" fill="rgb(255, 255, 255)" style="fill-opacity:1.00" />
<rect height="15.726125" width="25.000000" x="655.000000" y="78.513192" fill="rgb(255, 255, 255)" style="fill-opacity:1.00" />
<!-- End 'C' -->
<!-- Begin 'G' -->
<ellipse cx="655.000000" cy="105.871756" rx="25.000000" ry="3.769376" fill="rgb(255, 165, 0)" style="fill-opacity:0.95" />
<ellipse cx="655.000000" cy="105.871756" rx="16.666667" ry="2.512918" fill="rgb(255, 255, 255)" style="fill-opacity:1.00" />
<rect height="3.769376" width="25.000000" x="655.000000" y="103.987068" fill="rgb(255, 255, 255)" style="fill-opacity:1.00" />
<rect height="0.942344" width="25.000000" x="655.000000" y="106.814100" fill="rgb(255, 165, 0)" style="fill-opacity:0.95" />
<rect height="2.827032" width="6.250000" x="673.750000" y="106.814100" fill="rgb(255, 165, 0)" style="fill-opacity:0.95" />
<!-- End 'G' -->
<!-- Begin 'A' -->
<polygon points=" 630.000000, 110.000000, 651.000000, 109.641132, 659.000000, 109.641132, 680.000000, 110.000000, 672.500000, 110.000000, 666.250000, 109.910283, 643.750000, 109.910283, 637.500000, 110.000000" fill="rgb(178, 34, 34)" style="fill-opacity:0.95" />
<!-- End 'A' -->
<!-- Begin 'T' -->
<rect height="9.954731" width="50.000000" x="630.000000" y="120.000000" fill="rgb(0, 100, 0)" style="fill-opacity:0.01" />
<rect height="62.217070" width="10.000000" x="650.000000" y="120.000000" fill="rgb(0, 100, 0)" style="fill-opacity:0.01" />
<!-- End 'T' -->
<!-- Begin 'C' -->
<ellipse cx="655.000000" cy="196.755007" rx="25.000000" ry="14.537937" fill="rgb(0, 0, 128)" style="fill-opacity:0.01" />
<ellipse cx="655.000000" cy="196.755007" rx="16.666667" ry="9.691958" fill="rgb(255, 255, 255)" style="fill-opacity:1.00" />
<rect height="14.537937" width="25.000000" x="655.000000" y="189.486038" fill="rgb(255, 255, 255)" style="fill-opacity:1.00" />
<!-- End 'C' -->
<!-- Begin 'G' -->
<ellipse cx="655.000000" cy="215.051128" rx="25.000000" ry="3.758184" fill="rgb(255, 165, 0)" style="fill-opacity:0.01" />
<ellipse cx="655.000000" cy="215.051128" rx="16.666667" ry="2.505456" fill="rgb(255, 255, 255)" style="fill-opacity:1.00" />
<rect height="3.758184" width="25.000000" x="655.000000" y="213.172036" fill="rgb(255, 255, 255)" style="fill-opacity:1.00" />
<rect height="0.939546" width="25.000000" x="655.000000" y="215.990674" fill="rgb(255, 165, 0)" style="fill-opacity:0.01" />
<rect height="2.818638" width="6.250000" x="673.750000" y="215.990674" fill="rgb(255, 165, 0)" style="fill-opacity:0.01" />
<!-- End 'G' -->
<!-- Begin 'A' -->
<polygon points=" 630.000000, 220.000000, 651.000000, 218.809311, 659.000000, 218.809311, 680.000000, 220.000000, 672.500000, 220.000000, 666.250000, 219.702328, 643.750000, 219.702328, 637.500000, 220.000000" fill="rgb(178, 34, 34)" style="fill-opacity:0.01" />
<!-- End 'A' -->
<!-- Begin 'T' -->
<rect height="7.531308" width="50.000000" x="630.000000" y="230.000000" fill="rgb(0, 100, 0)" style="fill-opacity:0.02" />
<rect height="47.070676" width="10.000000" x="650.000000" y="230.000000" fill="rgb(0, 100, 0)" style="fill-opacity:0.02" />
<!-- End 'T' -->
<!-- Begin 'C' -->
<ellipse cx="655.000000" cy="292.668832" rx="25.000000" ry="15.598157" fill="rgb(0, 0, 128)" style="fill-opacity:0.02" />
<ellipse cx="655.000000" cy="292.668832" rx="16.666667" ry="10.398771" fill="rgb(255, 255, 255)" style="fill-opacity:1.00" />
<rect height="15.598157" width="25.000000" x="655.000000" y="284.869754" fill="rgb(255, 255, 255)" style="fill-opacity:1.00" />
<!-- End 'C' -->
<!-- Begin 'G' -->
<ellipse cx="655.000000" cy="318.517714" rx="25.000000" ry="10.250724" fill="rgb(255, 165, 0)" style="fill-opacity:0.02" />
<ellipse cx="655.000000" cy="318.517714" rx="16.666667" ry="6.833816" fill="rgb(255, 255, 255)" style="fill-opacity:1.00" />
<rect height="10.250724" width="25.000000" x="655.000000" y="313.392351" fill="rgb(255, 255, 255)" style="fill-opacity:1.00" />
<rect height="2.562681" width="25.000000" x="655.000000" y="321.080395" fill="rgb(255, 165, 0)" style="fill-opacity:0.02" />
<rect height="7.688043" width="6.250000" x="673.750000" y="321.080395" fill="rgb(255, 165, 0)" style="fill-opacity:0.02" />
<!-- End 'G' -->
<!-- Begin 'A' -->
<polygon points=" 630.000000, 330.000000, 651.000000, 328.768438, 659.000000, 328.768438, 680.000000, 330.000000, 672.500000, 330.000000, 666.250000, 329.692109, 643.750000, 329.692109, 637.500000, 330.000000" fill="rgb(178, 34, 34)" style="fill-opacity:0.02" />
<!-- End 'A' -->
<!-- Begin 'T' -->
<rect height="12.381803" width="50.000000" x="630.000000" y="340.000000" fill="rgb(0, 100, 0)" style="fill-opacity:0.02" />
<rect height="77.386268" width="10.000000" x="650.000000" y="340.000000" fill="rgb(0, 100, 0)" style="fill-opacity:0.02" />
<!-- End 'T' -->
<!-- Begin 'C' -->
<ellipse cx="655.000000" cy="425.724929" rx="25.000000" ry="8.338661" fill="rgb(0, 0, 128)" style="fill-opacity:0.02" />
<ellipse cx="655.000000" cy="425.724929" rx="16.666667" ry="5.559107" fill="rgb(255, 255, 255)" style="fill-opacity:1.00" />
<rect height="8.338661" width="25.000000" x="655.000000" y="421.555599" fill="rgb(255, 255, 255)" style="fill-opacity:1.00" />
<!-- End 'C' -->
<!-- Begin 'G' -->
<ellipse cx="655.000000" cy="436.482578" rx="25.000000" ry="2.418988" fill="rgb(255, 165, 0)" style="fill-opacity:0.02" />
<ellipse cx="655.000000" cy="436.482578" rx="16.666667" ry="1.612659" fill="rgb(255, 255, 255)" style="fill-opacity:1.00" />
<rect height="2.418988" width="25.000000" x="655.000000" y="435.273084" fill="rgb(255, 255, 255)" style="fill-opacity:1.00" />
<rect height="0.604747" width="25.000000" x="655.000000" y="437.087326" fill="rgb(255, 165, 0)" style="fill-opacity:0.02" />
<rect height="1.814241" width="6.250000" x="673.750000" y="437.087326" fill="rgb(255, 165, 0)" style="fill-opacity:0.02" />
<!-- End 'G' -->
<!-- Begin 'A' -->
<polygon points=" 630.000000, 440.000000, 651.000000, 438.901567, 659.000000, 438.901567, 680.000000, 440.000000, 672.500000, 440.000000, 666.250000, 439.725392, 643.750000, 439.725392, 637.500000, 440.000000" fill="rgb(178, 34, 34)" style="fill-opacity:0.02" />
<!-- End 'A' -->
<text x="370.000000" y="495">
IC = 12.44
</text>

</svg>
