<?xml version="1.0" encoding="UTF-8" standalone="yes"?>
                 <!DOCTYPE svg PUBLIC "-//W3C//DTD SVG 1.0//EN" "http://www.w3.org/TR/2001/REC-SVG-20010904/DTD/svg10.dtd">
                 <svg height="170" width="960" xmlns="http://www.w3.org/2000/svg" xmlns:xlink="http://www.w3.org/1999/xlink">
                 <line x1="85" y1="120" x2="927" y2="120" style="stroke:rgb(99,99,99);stroke-width:2" />
<rect height="7.000000" width="2.000000" x="85.000000" y="120.000000" fill="rgb(0, 0, 0)" style="fill-opacity:1.00" />
<text x="107.000000" y="140">
1
</text>
<rect height="7.000000" width="2.000000" x="145.000000" y="120.000000" fill="rgb(0, 0, 0)" style="fill-opacity:1.00" />
<text x="167.000000" y="140">
2
</text>
<rect height="7.000000" width="2.000000" x="205.000000" y="120.000000" fill="rgb(0, 0, 0)" style="fill-opacity:1.00" />
<text x="227.000000" y="140">
3
</text>
<rect height="7.000000" width="2.000000" x="265.000000" y="120.000000" fill="rgb(0, 0, 0)" style="fill-opacity:1.00" />
<text x="287.000000" y="140">
4
</text>
<rect height="7.000000" width="2.000000" x="325.000000" y="120.000000" fill="rgb(0, 0, 0)" style="fill-opacity:1.00" />
<text x="347.000000" y="140">
5
</text>
<rect height="7.000000" width="2.000000" x="385.000000" y="120.000000" fill="rgb(0, 0, 0)" style="fill-opacity:1.00" />
<text x="407.000000" y="140">
6
</text>
<rect height="7.000000" width="2.000000" x="445.000000" y="120.000000" fill="rgb(0, 0, 0)" style="fill-opacity:1.00" />
<text x="467.000000" y="140">
7
</text>
<rect height="7.000000" width="2.000000" x="505.000000" y="120.000000" fill="rgb(0, 0, 0)" style="fill-opacity:1.00" />
<text x="527.000000" y="140">
8
</text>
<rect height="7.000000" width="2.000000" x="565.000000" y="120.000000" fill="rgb(0, 0, 0)" style="fill-opacity:1.00" />
<text x="587.000000" y="140">
9
</text>
<rect height="7.000000" width="2.000000" x="625.000000" y="120.000000" fill="rgb(0, 0, 0)" style="fill-opacity:1.00" />
<text x="647.000000" y="140">
10
</text>
<rect height="7.000000" width="2.000000" x="685.000000" y="120.000000" fill="rgb(0, 0, 0)" style="fill-opacity:1.00" />
<text x="707.000000" y="140">
11
</text>
<rect height="7.000000" width="2.000000" x="745.000000" y="120.000000" fill="rgb(0, 0, 0)" style="fill-opacity:1.00" />
<text x="767.000000" y="140">
12
</text>
<rect height="7.000000" width="2.000000" x="805.000000" y="120.000000" fill="rgb(0, 0, 0)" style="fill-opacity:1.00" />
<text x="827.000000" y="140">
13
</text>
<rect height="7.000000" width="2.000000" x="865.000000" y="120.000000" fill="rgb(0, 0, 0)" style="fill-opacity:1.00" />
<text x="887.000000" y="140">
14
</text>
<rect height="7.000000" width="2.000000" x="925.000000" y="120.000000" fill="rgb(0, 0, 0)" style="fill-opacity:1.00" />
<line x1="80" y1="112" x2="80" y2="10" style="stroke:rgb(99,99,99);stroke-width:2" />
<rect height="2.000000" width="7.000000" x="73.000000" y="110.000000" fill="rgb(0, 0, 0)" style="fill-opacity:1.00" />
<text x="63" y="115">
0
</text>
<rect height="2.000000" width="7.000000" x="73.000000" y="60.000000" fill="rgb(0, 0, 0)" style="fill-opacity:1.00" />
<text x="63" y="65">
1
</text>
<rect height="2.000000" width="7.000000" x="73.000000" y="10.000000" fill="rgb(0, 0, 0)" style="fill-opacity:1.00" />
<text x="63" y="15">
2
</text>
<text x="50" y="65"
transform="rotate(-90, 50, 70)">
bits
</text>
<!-- Begin 'T' -->
<rect height="0.002164" width="50.000000" x="90.000000" y="109.948868" fill="rgb(0, 100, 0)" style="fill-opacity:1.00" />
<rect height="0.013524" width="10.000000" x="110.000000" y="109.948868" fill="rgb(0, 100, 0)" style="fill-opacity:1.00" />
<!-- End 'T' -->
<!-- Begin 'A' -->
<polygon points=" 90.000000, 109.975125, 111.000000, 109.962391, 119.000000, 109.962391, 140.000000, 109.975125, 132.500000, 109.975125, 126.250000, 109.971942, 103.750000, 109.971942, 97.500000, 109.975125" fill="rgb(178, 34, 34)" style="fill-opacity:1.00" />
<!-- End 'A' -->
<!-- Begin 'G' -->
<ellipse cx="115.000000" cy="109.981477" rx="25.000000" ry="0.006351" fill="rgb(255, 165, 0)" style="fill-opacity:1.00" />
<ellipse cx="115.000000" cy="109.981477" rx="16.666667" ry="0.004234" fill="rgb(255, 255, 255)" style="fill-opacity:1.00" />
<rect height="0.006351" width="25.000000" x="115.000000" y="109.978301" fill="rgb(255, 255, 255)" style="fill-opacity:1.00" />
<rect height="0.001588" width="25.000000" x="115.000000" y="109.983064" fill="rgb(255, 165, 0)" style="fill-opacity:1.00" />
<rect height="0.004764" width="6.250000" x="133.750000" y="109.983064" fill="rgb(255, 165, 0)" style="fill-opacity:1.00" />
<!-- End 'G' -->
<!-- Begin 'C' -->
<ellipse cx="115.000000" cy="109.993914" rx="25.000000" ry="0.006086" fill="rgb(0, 0, 128)" style="fill-opacity:1.00" />
<ellipse cx="115.000000" cy="109.993914" rx="16.666667" ry="0.004057" fill="rgb(255, 255, 255)" style="fill-opacity:1.00" />
<rect height="0.006086" width="25.000000" x="115.000000" y="109.990871" fill="rgb(255, 255, 255)" style="fill-opacity:1.00" />
<!-- End 'C' -->
<!-- Begin 'A' -->
<polygon points=" 150.000000, 109.211202, 171.000000, 108.836816, 179.000000, 108.836816, 200.000000, 109.211202, 192.500000, 109.211202, 186.250000, 109.117606, 163.750000, 109.117606, 157.500000, 109.211202" fill="rgb(178, 34, 34)" style="fill-opacity:1.00" />
<!-- End 'A' -->
<!-- Begin 'T' -->
<rect height="0.047823" width="50.000000" x="150.000000" y="109.211202" fill="rgb(0, 100, 0)" style="fill-opacity:1.00" />
<rect height="0.298894" width="10.000000" x="170.000000" y="109.211202" fill="rgb(0, 100, 0)" style="fill-opacity:1.00" />
<!-- End 'T' -->
<!-- Begin 'G' -->
<ellipse cx="175.000000" cy="109.632649" rx="25.000000" ry="0.122553" fill="rgb(255, 165, 0)" style="fill-opacity:1.00" />
<ellipse cx="175.000000" cy="109.632649" rx="16.666667" ry="0.081702" fill="rgb(255, 255, 255)" style="fill-opacity:1.00" />
<rect height="0.122553" width="25.000000" x="175.000000" y="109.571373" fill="rgb(255, 255, 255)" style="fill-opacity:1.00" />
<rect height="0.030638" width="25.000000" x="175.000000" y="109.663287" fill="rgb(255, 165, 0)" style="fill-opacity:1.00" />
<rect height="0.091914" width="6.250000" x="193.750000" y="109.663287" fill="rgb(255, 165, 0)" style="fill-opacity:1.00" />
<!-- End 'G' -->
<!-- Begin 'C' -->
<ellipse cx="175.000000" cy="109.877601" rx="25.000000" ry="0.122399" fill="rgb(0, 0, 128)" style="fill-opacity:1.00" />
<ellipse cx="175.000000" cy="109.877601" rx="16.666667" ry="0.081599" fill="rgb(255, 255, 255)" style="fill-opacity:1.00" />
<rect height="0.122399" width="25.000000" x="175.000000" y="109.816401" fill="rgb(255, 255, 255)" style="fill-opacity:1.00" />
<!-- End 'C' -->
<!-- Begin 'T' -->
<rect height="0.919830" width="50.000000" x="210.000000" y="98.618702" fill="rgb(0, 100, 0)" style="fill-opacity:1.00" />
<rect height="5.748936" width="10.000000" x="230.000000" y="98.618702" fill="rgb(0, 100, 0)" style="fill-opacity:1.00" />
<!-- End 'T' -->
<!-- Begin 'A' -->
<polygon points=" 210.000000, 106.738410, 231.000000, 104.367638, 239.000000, 104.367638, 260.000000, 106.738410, 252.500000, 106.738410, 246.250000, 106.145717, 223.750000, 106.145717, 217.500000, 106.738410" fill="rgb(178, 34, 34)" style="fill-opacity:1.00" />
<!-- End 'A' -->
<!-- Begin 'G' -->
<ellipse cx="235.000000" cy="107.564594" rx="25.000000" ry="0.826184" fill="rgb(255, 165, 0)" style="fill-opacity:1.00" />
<ellipse cx="235.000000" cy="107.564594" rx="16.666667" ry="0.550789" fill="rgb(255, 255, 255)" style="fill-opacity:1.00" />
<rect height="0.826184" width="25.000000" x="235.000000" y="107.151502" fill="rgb(255, 255, 255)" style="fill-opacity:1.00" />
<rect height="0.206546" width="25.000000" x="235.000000" y="107.771140" fill="rgb(255, 165, 0)" style="fill-opacity:1.00" />
<rect height="0.619638" width="6.250000" x="253.750000" y="107.771140" fill="rgb(255, 165, 0)" style="fill-opacity:1.00" />
<!-- End 'G' -->
<!-- Begin 'C' -->
<ellipse cx="235.000000" cy="109.195389" rx="25.000000" ry="0.804611" fill="rgb(0, 0, 128)" style="fill-opacity:1.00" />
<ellipse cx="235.000000" cy="109.195389" rx="16.666667" ry="0.536407" fill="rgb(255, 255, 255)" style="fill-opacity:1.00" />
<rect height="0.804611" width="25.000000" x="235.000000" y="108.793084" fill="rgb(255, 255, 255)" style="fill-opacity:1.00" />
<!-- End 'C' -->
<!-- Begin 'G' -->
<ellipse cx="295.000000" cy="96.459674" rx="25.000000" ry="4.857301" fill="rgb(255, 165, 0)" style="fill-opacity:1.00" />
<ellipse cx="295.000000" cy="96.459674" rx="16.666667" ry="3.238201" fill="rgb(255, 255, 255)" style="fill-opacity:1.00" />
<rect height="4.857301" width="25.000000" x="295.000000" y="94.031024" fill="rgb(255, 255, 255)" style="fill-opacity:1.00" />
<rect height="1.214325" width="25.000000" x="295.000000" y="97.673999" fill="rgb(255, 165, 0)" style="fill-opacity:1.00" />
<rect height="3.642976" width="6.250000" x="313.750000" y="97.673999" fill="rgb(255, 165, 0)" style="fill-opacity:1.00" />
<!-- End 'G' -->
<!-- Begin 'A' -->
<polygon points=" 270.000000, 106.617367, 291.000000, 101.316975, 299.000000, 101.316975, 320.000000, 106.617367, 312.500000, 106.617367, 306.250000, 105.292269, 283.750000, 105.292269, 277.500000, 106.617367" fill="rgb(178, 34, 34)" style="fill-opacity:1.00" />
<!-- End 'A' -->
<!-- Begin 'T' -->
<rect height="0.321751" width="50.000000" x="270.000000" y="106.617367" fill="rgb(0, 100, 0)" style="fill-opacity:1.00" />
<rect height="2.010941" width="10.000000" x="290.000000" y="106.617367" fill="rgb(0, 100, 0)" style="fill-opacity:1.00" />
<!-- End 'T' -->
<!-- Begin 'C' -->
<ellipse cx="295.000000" cy="109.314154" rx="25.000000" ry="0.685846" fill="rgb(0, 0, 128)" style="fill-opacity:1.00" />
<ellipse cx="295.000000" cy="109.314154" rx="16.666667" ry="0.457230" fill="rgb(255, 255, 255)" style="fill-opacity:1.00" />
<rect height="0.685846" width="25.000000" x="295.000000" y="108.971231" fill="rgb(255, 255, 255)" style="fill-opacity:1.00" />
<!-- End 'C' -->
<!-- Begin 'T' -->
<rect height="2.545486" width="50.000000" x="330.000000" y="83.547992" fill="rgb(0, 100, 0)" style="fill-opacity:1.00" />
<rect height="15.909287" width="10.000000" x="350.000000" y="83.547992" fill="rgb(0, 100, 0)" style="fill-opacity:1.00" />
<!-- End 'T' -->
<!-- Begin 'A' -->
<polygon points=" 330.000000, 105.497170, 351.000000, 99.457279, 359.000000, 99.457279, 380.000000, 105.497170, 372.500000, 105.497170, 366.250000, 103.987198, 343.750000, 103.987198, 337.500000, 105.497170" fill="rgb(178, 34, 34)" style="fill-opacity:1.00" />
<!-- End 'A' -->
<!-- Begin 'G' -->
<ellipse cx="355.000000" cy="107.385843" rx="25.000000" ry="1.888672" fill="rgb(255, 165, 0)" style="fill-opacity:1.00" />
<ellipse cx="355.000000" cy="107.385843" rx="16.666667" ry="1.259115" fill="rgb(255, 255, 255)" style="fill-opacity:1.00" />
<rect height="1.888672" width="25.000000" x="355.000000" y="106.441507" fill="rgb(255, 255, 255)" style="fill-opacity:1.00" />
<rect height="0.472168" width="25.000000" x="355.000000" y="107.858011" fill="rgb(255, 165, 0)" style="fill-opacity:1.00" />
<rect height="1.416504" width="6.250000" x="373.750000" y="107.858011" fill="rgb(255, 165, 0)" style="fill-opacity:1.00" />
<!-- End 'G' -->
<!-- Begin 'C' -->
<ellipse cx="355.000000" cy="109.637258" rx="25.000000" ry="0.362742" fill="rgb(0, 0, 128)" style="fill-opacity:1.00" />
<ellipse cx="355.000000" cy="109.637258" rx="16.666667" ry="0.241828" fill="rgb(255, 255, 255)" style="fill-opacity:1.00" />
<rect height="0.362742" width="25.000000" x="355.000000" y="109.455886" fill="rgb(255, 255, 255)" style="fill-opacity:1.00" />
<!-- End 'C' -->
<!-- Begin 'A' -->
<polygon points=" 390.000000, 98.654533, 411.000000, 90.342180, 419.000000, 90.342180, 440.000000, 98.654533, 432.500000, 98.654533, 426.250000, 96.576445, 403.750000, 96.576445, 397.500000, 98.654533" fill="rgb(178, 34, 34)" style="fill-opacity:1.00" />
<polygon points=" 415.000000, 92.004651, 407.000000, 94.329592, 422.000000, 94.329592" fill="rgb(255, 255, 255)" style="fill-opacity:1.00" />
<!-- End 'A' -->
<!-- Begin 'T' -->
<rect height="1.250186" width="50.000000" x="390.000000" y="98.654533" fill="rgb(0, 100, 0)" style="fill-opacity:1.00" />
<rect height="7.813660" width="10.000000" x="410.000000" y="98.654533" fill="rgb(0, 100, 0)" style="fill-opacity:1.00" />
<!-- End 'T' -->
<!-- Begin 'C' -->
<ellipse cx="415.000000" cy="107.976351" rx="25.000000" ry="1.508157" fill="rgb(0, 0, 128)" style="fill-opacity:1.00" />
<ellipse cx="415.000000" cy="107.976351" rx="16.666667" ry="1.005438" fill="rgb(255, 255, 255)" style="fill-opacity:1.00" />
<rect height="1.508157" width="25.000000" x="415.000000" y="107.222272" fill="rgb(255, 255, 255)" style="fill-opacity:1.00" />
<!-- End 'C' -->
<!-- Begin 'G' -->
<ellipse cx="415.000000" cy="109.742254" rx="25.000000" ry="0.257746" fill="rgb(255, 165, 0)" style="fill-opacity:1.00" />
<ellipse cx="415.000000" cy="109.742254" rx="16.666667" ry="0.171831" fill="rgb(255, 255, 255)" style="fill-opacity:1.00" />
<rect height="0.257746" width="25.000000" x="415.000000" y="109.613381" fill="rgb(255, 255, 255)" style="fill-opacity:1.00" />
<rect height="0.064436" width="25.000000" x="415.000000" y="109.806691" fill="rgb(255, 165, 0)" style="fill-opacity:1.00" />
<rect height="0.193309" width="6.250000" x="433.750000" y="109.806691" fill="rgb(255, 165, 0)" style="fill-opacity:1.00" />
<!-- End 'G' -->
<!-- Begin 'A' -->
<polygon points=" 450.000000, 100.703660, 471.000000, 92.304807, 479.000000, 92.304807, 500.000000, 100.703660, 492.500000, 100.703660, 486.250000, 98.603947, 463.750000, 98.603947, 457.500000, 100.703660" fill="rgb(178, 34, 34)" style="fill-opacity:1.00" />
<polygon points=" 475.000000, 93.984577, 467.000000, 96.344119, 482.000000, 96.344119" fill="rgb(255, 255, 255)" style="fill-opacity:1.00" />
<!-- End 'A' -->
<!-- Begin 'T' -->
<rect height="0.949774" width="50.000000" x="450.000000" y="100.703660" fill="rgb(0, 100, 0)" style="fill-opacity:1.00" />
<rect height="5.936087" width="10.000000" x="470.000000" y="100.703660" fill="rgb(0, 100, 0)" style="fill-opacity:1.00" />
<!-- End 'T' -->
<!-- Begin 'G' -->
<ellipse cx="475.000000" cy="107.910760" rx="25.000000" ry="1.271014" fill="rgb(255, 165, 0)" style="fill-opacity:1.00" />
<ellipse cx="475.000000" cy="107.910760" rx="16.666667" ry="0.847342" fill="rgb(255, 255, 255)" style="fill-opacity:1.00" />
<rect height="1.271014" width="25.000000" x="475.000000" y="107.275254" fill="rgb(255, 255, 255)" style="fill-opacity:1.00" />
<rect height="0.317753" width="25.000000" x="475.000000" y="108.228514" fill="rgb(255, 165, 0)" style="fill-opacity:1.00" />
<rect height="0.953260" width="6.250000" x="493.750000" y="108.228514" fill="rgb(255, 165, 0)" style="fill-opacity:1.00" />
<!-- End 'G' -->
<!-- Begin 'C' -->
<ellipse cx="475.000000" cy="109.590887" rx="25.000000" ry="0.409113" fill="rgb(0, 0, 128)" style="fill-opacity:1.00" />
<ellipse cx="475.000000" cy="109.590887" rx="16.666667" ry="0.272742" fill="rgb(255, 255, 255)" style="fill-opacity:1.00" />
<rect height="0.409113" width="25.000000" x="475.000000" y="109.386330" fill="rgb(255, 255, 255)" style="fill-opacity:1.00" />
<!-- End 'C' -->
<!-- Begin 'A' -->
<polygon points=" 510.000000, 98.662295, 531.000000, 76.977672, 539.000000, 76.977672, 560.000000, 98.662295, 552.500000, 98.662295, 546.250000, 93.241139, 523.750000, 93.241139, 517.500000, 98.662295" fill="rgb(178, 34, 34)" style="fill-opacity:1.00" />
<polygon points=" 535.000000, 81.314597, 527.000000, 88.988446, 542.000000, 88.988446" fill="rgb(255, 255, 255)" style="fill-opacity:1.00" />
<!-- End 'A' -->
<!-- Begin 'T' -->
<rect height="1.184654" width="50.000000" x="510.000000" y="98.662295" fill="rgb(0, 100, 0)" style="fill-opacity:1.00" />
<rect height="7.404088" width="10.000000" x="530.000000" y="98.662295" fill="rgb(0, 100, 0)" style="fill-opacity:1.00" />
<!-- End 'T' -->
<!-- Begin 'C' -->
<ellipse cx="535.000000" cy="107.588797" rx="25.000000" ry="1.522414" fill="rgb(0, 0, 128)" style="fill-opacity:1.00" />
<ellipse cx="535.000000" cy="107.588797" rx="16.666667" ry="1.014943" fill="rgb(255, 255, 255)" style="fill-opacity:1.00" />
<rect height="1.522414" width="25.000000" x="535.000000" y="106.827590" fill="rgb(255, 255, 255)" style="fill-opacity:1.00" />
<!-- End 'C' -->
<!-- Begin 'G' -->
<ellipse cx="535.000000" cy="109.555605" rx="25.000000" ry="0.444395" fill="rgb(255, 165, 0)" style="fill-opacity:1.00" />
<ellipse cx="535.000000" cy="109.555605" rx="16.666667" ry="0.296263" fill="rgb(255, 255, 255)" style="fill-opacity:1.00" />
<rect height="0.444395" width="25.000000" x="535.000000" y="109.333408" fill="rgb(255, 255, 255)" style="fill-opacity:1.00" />
<rect height="0.111099" width="25.000000" x="535.000000" y="109.666704" fill="rgb(255, 165, 0)" style="fill-opacity:1.00" />
<rect height="0.333296" width="6.250000" x="553.750000" y="109.666704" fill="rgb(255, 165, 0)" style="fill-opacity:1.00" />
<!-- End 'G' -->
<!-- Begin 'C' -->
<ellipse cx="595.000000" cy="92.471223" rx="25.000000" ry="6.637543" fill="rgb(0, 0, 128)" style="fill-opacity:1.00" />
<ellipse cx="595.000000" cy="92.471223" rx="16.666667" ry="4.425029" fill="rgb(255, 255, 255)" style="fill-opacity:1.00" />
<rect height="6.637543" width="25.000000" x="595.000000" y="89.152451" fill="rgb(255, 255, 255)" style="fill-opacity:1.00" />
<!-- End 'C' -->
<!-- Begin 'T' -->
<rect height="1.225401" width="50.000000" x="570.000000" y="99.108766" fill="rgb(0, 100, 0)" style="fill-opacity:1.00" />
<rect height="7.658759" width="10.000000" x="590.000000" y="99.108766" fill="rgb(0, 100, 0)" style="fill-opacity:1.00" />
<!-- End 'T' -->
<!-- Begin 'A' -->
<polygon points=" 570.000000, 108.766170, 591.000000, 106.767525, 599.000000, 106.767525, 620.000000, 108.766170, 612.500000, 108.766170, 606.250000, 108.266508, 583.750000, 108.266508, 577.500000, 108.766170" fill="rgb(178, 34, 34)" style="fill-opacity:1.00" />
<!-- End 'A' -->
<!-- Begin 'G' -->
<ellipse cx="595.000000" cy="109.383085" rx="25.000000" ry="0.616915" fill="rgb(255, 165, 0)" style="fill-opacity:1.00" />
<ellipse cx="595.000000" cy="109.383085" rx="16.666667" ry="0.411277" fill="rgb(255, 255, 255)" style="fill-opacity:1.00" />
<rect height="0.616915" width="25.000000" x="595.000000" y="109.074627" fill="rgb(255, 255, 255)" style="fill-opacity:1.00" />
<rect height="0.154229" width="25.000000" x="595.000000" y="109.537314" fill="rgb(255, 165, 0)" style="fill-opacity:1.00" />
<rect height="0.462686" width="6.250000" x="613.750000" y="109.537314" fill="rgb(255, 165, 0)" style="fill-opacity:1.00" />
<!-- End 'G' -->
<!-- Begin 'A' -->
<polygon points=" 630.000000, 103.611843, 651.000000, 96.572521, 659.000000, 96.572521, 680.000000, 103.611843, 672.500000, 103.611843, 666.250000, 101.852013, 643.750000, 101.852013, 637.500000, 103.611843" fill="rgb(178, 34, 34)" style="fill-opacity:1.00" />
<!-- End 'A' -->
<!-- Begin 'T' -->
<rect height="0.462145" width="50.000000" x="630.000000" y="103.611843" fill="rgb(0, 100, 0)" style="fill-opacity:1.00" />
<rect height="2.888407" width="10.000000" x="650.000000" y="103.611843" fill="rgb(0, 100, 0)" style="fill-opacity:1.00" />
<!-- End 'T' -->
<!-- Begin 'G' -->
<ellipse cx="655.000000" cy="107.395169" rx="25.000000" ry="0.894919" fill="rgb(255, 165, 0)" style="fill-opacity:1.00" />
<ellipse cx="655.000000" cy="107.395169" rx="16.666667" ry="0.596613" fill="rgb(255, 255, 255)" style="fill-opacity:1.00" />
<rect height="0.894919" width="25.000000" x="655.000000" y="106.947710" fill="rgb(255, 255, 255)" style="fill-opacity:1.00" />
<rect height="0.223730" width="25.000000" x="655.000000" y="107.618899" fill="rgb(255, 165, 0)" style="fill-opacity:1.00" />
<rect height="0.671189" width="6.250000" x="673.750000" y="107.618899" fill="rgb(255, 165, 0)" style="fill-opacity:1.00" />
<!-- End 'G' -->
<!-- Begin 'C' -->
<ellipse cx="655.000000" cy="109.145044" rx="25.000000" ry="0.854956" fill="rgb(0, 0, 128)" style="fill-opacity:1.00" />
<ellipse cx="655.000000" cy="109.145044" rx="16.666667" ry="0.569970" fill="rgb(255, 255, 255)" style="fill-opacity:1.00" />
<rect height="0.854956" width="25.000000" x="655.000000" y="108.717566" fill="rgb(255, 255, 255)" style="fill-opacity:1.00" />
<!-- End 'C' -->
<!-- Begin 'T' -->
<rect height="0.045335" width="50.000000" x="690.000000" y="109.112295" fill="rgb(0, 100, 0)" style="fill-opacity:1.00" />
<rect height="0.283343" width="10.000000" x="710.000000" y="109.112295" fill="rgb(0, 100, 0)" style="fill-opacity:1.00" />
<!-- End 'T' -->
<!-- Begin 'A' -->
<polygon points=" 690.000000, 109.603517, 711.000000, 109.395638, 719.000000, 109.395638, 740.000000, 109.603517, 732.500000, 109.603517, 726.250000, 109.551547, 703.750000, 109.551547, 697.500000, 109.603517" fill="rgb(178, 34, 34)" style="fill-opacity:1.00" />
<!-- End 'A' -->
<!-- Begin 'C' -->
<ellipse cx="715.000000" cy="109.704041" rx="25.000000" ry="0.100524" fill="rgb(0, 0, 128)" style="fill-opacity:1.00" />
<ellipse cx="715.000000" cy="109.704041" rx="16.666667" ry="0.067016" fill="rgb(255, 255, 255)" style="fill-opacity:1.00" />
<rect height="0.100524" width="25.000000" x="715.000000" y="109.653779" fill="rgb(255, 255, 255)" style="fill-opacity:1.00" />
<!-- End 'C' -->
<!-- Begin 'G' -->
<ellipse cx="715.000000" cy="109.902282" rx="25.000000" ry="0.097718" fill="rgb(255, 165, 0)" style="fill-opacity:1.00" />
<ellipse cx="715.000000" cy="109.902282" rx="16.666667" ry="0.065145" fill="rgb(255, 255, 255)" style="fill-opacity:1.00" />
<rect height="0.097718" width="25.000000" x="715.000000" y="109.853424" fill="rgb(255, 255, 255)" style="fill-opacity:1.00" />
<rect height="0.024429" width="25.000000" x="715.000000" y="109.926712" fill="rgb(255, 165, 0)" style="fill-opacity:1.00" />
<rect height="0.073288" width="6.250000" x="733.750000" y="109.926712" fill="rgb(255, 165, 0)" style="fill-opacity:1.00" />
<!-- End 'G' -->
<!-- Begin 'A' -->
<polygon points=" 750.000000, 109.898798, 771.000000, 109.861417, 779.000000, 109.861417, 800.000000, 109.898798, 792.500000, 109.898798, 786.250000, 109.889453, 763.750000, 109.889453, 757.500000, 109.898798" fill="rgb(178, 34, 34)" style="fill-opacity:1.00" />
<!-- End 'A' -->
<!-- Begin 'C' -->
<ellipse cx="775.000000" cy="109.916433" rx="25.000000" ry="0.017635" fill="rgb(0, 0, 128)" style="fill-opacity:1.00" />
<ellipse cx="775.000000" cy="109.916433" rx="16.666667" ry="0.011756" fill="rgb(255, 255, 255)" style="fill-opacity:1.00" />
<rect height="0.017635" width="25.000000" x="775.000000" y="109.907615" fill="rgb(255, 255, 255)" style="fill-opacity:1.00" />
<!-- End 'C' -->
<!-- Begin 'G' -->
<ellipse cx="775.000000" cy="109.951324" rx="25.000000" ry="0.017257" fill="rgb(255, 165, 0)" style="fill-opacity:1.00" />
<ellipse cx="775.000000" cy="109.951324" rx="16.666667" ry="0.011505" fill="rgb(255, 255, 255)" style="fill-opacity:1.00" />
<rect height="0.017257" width="25.000000" x="775.000000" y="109.942696" fill="rgb(255, 255, 255)" style="fill-opacity:1.00" />
<rect height="0.004314" width="25.000000" x="775.000000" y="109.955639" fill="rgb(255, 165, 0)" style="fill-opacity:1.00" />
<rect height="0.012943" width="6.250000" x="793.750000" y="109.955639" fill="rgb(255, 165, 0)" style="fill-opacity:1.00" />
<!-- End 'G' -->
<!-- Begin 'T' -->
<rect height="0.005027" width="50.000000" x="750.000000" y="109.968581" fill="rgb(0, 100, 0)" style="fill-opacity:1.00" />
<rect height="0.031419" width="10.000000" x="770.000000" y="109.968581" fill="rgb(0, 100, 0)" style="fill-opacity:1.00" />
<!-- End 'T' -->
<!-- Begin 'A' -->
<polygon points=" 810.000000, 109.972212, 831.000000, 109.962480, 839.000000, 109.962480, 860.000000, 109.972212, 852.500000, 109.972212, 846.250000, 109.969779, 823.750000, 109.969779, 817.500000, 109.972212" fill="rgb(178, 34, 34)" style="fill-opacity:1.00" />
<!-- End 'A' -->
<!-- Begin 'G' -->
<ellipse cx="835.000000" cy="109.977007" rx="25.000000" ry="0.004795" fill="rgb(255, 165, 0)" style="fill-opacity:1.00" />
<ellipse cx="835.000000" cy="109.977007" rx="16.666667" ry="0.003197" fill="rgb(255, 255, 255)" style="fill-opacity:1.00" />
<rect height="0.004795" width="25.000000" x="835.000000" y="109.974609" fill="rgb(255, 255, 255)" style="fill-opacity:1.00" />
<rect height="0.001199" width="25.000000" x="835.000000" y="109.978206" fill="rgb(255, 165, 0)" style="fill-opacity:1.00" />
<rect height="0.003596" width="6.250000" x="853.750000" y="109.978206" fill="rgb(255, 165, 0)" style="fill-opacity:1.00" />
<!-- End 'G' -->
<!-- Begin 'C' -->
<ellipse cx="835.000000" cy="109.986422" rx="25.000000" ry="0.004620" fill="rgb(0, 0, 128)" style="fill-opacity:1.00" />
<ellipse cx="835.000000" cy="109.986422" rx="16.666667" ry="0.003080" fill="rgb(255, 255, 255)" style="fill-opacity:1.00" />
<rect height="0.004620" width="25.000000" x="835.000000" y="109.984112" fill="rgb(255, 255, 255)" style="fill-opacity:1.00" />
<!-- End 'C' -->
<!-- Begin 'T' -->
<rect height="0.001433" width="50.000000" x="810.000000" y="109.991041" fill="rgb(0, 100, 0)" style="fill-opacity:1.00" />
<rect height="0.008959" width="10.000000" x="830.000000" y="109.991041" fill="rgb(0, 100, 0)" style="fill-opacity:1.00" />
<!-- End 'T' -->
<!-- Begin 'C' -->
<ellipse cx="895.000000" cy="109.839646" rx="25.000000" ry="0.025263" fill="rgb(0, 0, 128)" style="fill-opacity:1.00" />
<ellipse cx="895.000000" cy="109.839646" rx="16.666667" ry="0.016842" fill="rgb(255, 255, 255)" style="fill-opacity:1.00" />
<rect height="0.025263" width="25.000000" x="895.000000" y="109.827015" fill="rgb(255, 255, 255)" style="fill-opacity:1.00" />
<!-- End 'C' -->
<!-- Begin 'A' -->
<polygon points=" 870.000000, 109.913530, 891.000000, 109.864909, 899.000000, 109.864909, 920.000000, 109.913530, 912.500000, 109.913530, 906.250000, 109.901375, 883.750000, 109.901375, 877.500000, 109.913530" fill="rgb(178, 34, 34)" style="fill-opacity:1.00" />
<!-- End 'A' -->
<!-- Begin 'T' -->
<rect height="0.007088" width="50.000000" x="870.000000" y="109.913530" fill="rgb(0, 100, 0)" style="fill-opacity:1.00" />
<rect height="0.044298" width="10.000000" x="890.000000" y="109.913530" fill="rgb(0, 100, 0)" style="fill-opacity:1.00" />
<!-- End 'T' -->
<!-- Begin 'G' -->
<ellipse cx="895.000000" cy="109.978914" rx="25.000000" ry="0.021086" fill="rgb(255, 165, 0)" style="fill-opacity:1.00" />
<ellipse cx="895.000000" cy="109.978914" rx="16.666667" ry="0.014057" fill="rgb(255, 255, 255)" style="fill-opacity:1.00" />
<rect height="0.021086" width="25.000000" x="895.000000" y="109.968371" fill="rgb(255, 255, 255)" style="fill-opacity:1.00" />
<rect height="0.005272" width="25.000000" x="895.000000" y="109.984185" fill="rgb(255, 165, 0)" style="fill-opacity:1.00" />
<rect height="0.015815" width="6.250000" x="913.750000" y="109.984185" fill="rgb(255, 165, 0)" style="fill-opacity:1.00" />
<!-- End 'G' -->
<text x="490.000000" y="165">
IC = 3.33
</text>

</svg>
