<?xml version="1.0" encoding="UTF-8" standalone="yes"?>
                 <!DOCTYPE svg PUBLIC "-//W3C//DTD SVG 1.0//EN" "http://www.w3.org/TR/2001/REC-SVG-20010904/DTD/svg10.dtd">
                 <svg height="500" width="900" xmlns="http://www.w3.org/2000/svg" xmlns:xlink="http://www.w3.org/1999/xlink">
                 <line x1="85" y1="450" x2="867" y2="450" style="stroke:rgb(99,99,99);stroke-width:2" />
<rect height="7.000000" width="2.000000" x="85.000000" y="450.000000" fill="rgb(0, 0, 0)" style="fill-opacity:1.00" />
<text x="107.000000" y="470">
1
</text>
<rect height="7.000000" width="2.000000" x="145.000000" y="450.000000" fill="rgb(0, 0, 0)" style="fill-opacity:1.00" />
<text x="167.000000" y="470">
2
</text>
<rect height="7.000000" width="2.000000" x="205.000000" y="450.000000" fill="rgb(0, 0, 0)" style="fill-opacity:1.00" />
<text x="227.000000" y="470">
3
</text>
<rect height="7.000000" width="2.000000" x="265.000000" y="450.000000" fill="rgb(0, 0, 0)" style="fill-opacity:1.00" />
<text x="287.000000" y="470">
4
</text>
<rect height="7.000000" width="2.000000" x="325.000000" y="450.000000" fill="rgb(0, 0, 0)" style="fill-opacity:1.00" />
<text x="347.000000" y="470">
5
</text>
<rect height="7.000000" width="2.000000" x="385.000000" y="450.000000" fill="rgb(0, 0, 0)" style="fill-opacity:1.00" />
<text x="407.000000" y="470">
6
</text>
<rect height="7.000000" width="2.000000" x="445.000000" y="450.000000" fill="rgb(0, 0, 0)" style="fill-opacity:1.00" />
<text x="467.000000" y="470">
7
</text>
<rect height="7.000000" width="2.000000" x="505.000000" y="450.000000" fill="rgb(0, 0, 0)" style="fill-opacity:1.00" />
<text x="527.000000" y="470">
8
</text>
<rect height="7.000000" width="2.000000" x="565.000000" y="450.000000" fill="rgb(0, 0, 0)" style="fill-opacity:1.00" />
<text x="587.000000" y="470">
9
</text>
<rect height="7.000000" width="2.000000" x="625.000000" y="450.000000" fill="rgb(0, 0, 0)" style="fill-opacity:1.00" />
<text x="647.000000" y="470">
10
</text>
<rect height="7.000000" width="2.000000" x="685.000000" y="450.000000" fill="rgb(0, 0, 0)" style="fill-opacity:1.00" />
<text x="707.000000" y="470">
11
</text>
<rect height="7.000000" width="2.000000" x="745.000000" y="450.000000" fill="rgb(0, 0, 0)" style="fill-opacity:1.00" />
<text x="767.000000" y="470">
12
</text>
<rect height="7.000000" width="2.000000" x="805.000000" y="450.000000" fill="rgb(0, 0, 0)" style="fill-opacity:1.00" />
<text x="827.000000" y="470">
13
</text>
<rect height="7.000000" width="2.000000" x="865.000000" y="450.000000" fill="rgb(0, 0, 0)" style="fill-opacity:1.00" />
<!-- Begin 'A' -->
<polygon points=" 10.000000, 110.000000, 35.200000, 10.000000, 44.800000, 10.000000, 70.000000, 110.000000, 61.000000, 110.000000, 53.500000, 85.000000, 26.500000, 85.000000, 19.000000, 110.000000" fill="rgb(178, 34, 34)" style="fill-opacity:1.00" />
<polygon points=" 40.000000, 30.000000, 30.400000, 69.000000, 48.400000, 69.000000" fill="rgb(255, 255, 255)" style="fill-opacity:1.00" />
<!-- End 'A' -->
<!-- Begin 'C' -->
<ellipse cx="40.000000" cy="170.000000" rx="30.000000" ry="50.000000" fill="rgb(0, 0, 128)" style="fill-opacity:1.00" />
<ellipse cx="40.000000" cy="170.000000" rx="20.000000" ry="33.333333" fill="rgb(255, 255, 255)" style="fill-opacity:1.00" />
<rect height="50.000000" width="30.000000" x="40.000000" y="145.000000" fill="rgb(255, 255, 255)" style="fill-opacity:1.00" />
<!-- End 'C' -->
<!-- Begin 'G' -->
<ellipse cx="40.000000" cy="280.000000" rx="30.000000" ry="50.000000" fill="rgb(255, 165, 0)" style="fill-opacity:1.00" />
<ellipse cx="40.000000" cy="280.000000" rx="20.000000" ry="33.333333" fill="rgb(255, 255, 255)" style="fill-opacity:1.00" />
<rect height="50.000000" width="30.000000" x="40.000000" y="255.000000" fill="rgb(255, 255, 255)" style="fill-opacity:1.00" />
<rect height="12.500000" width="30.000000" x="40.000000" y="292.500000" fill="rgb(255, 165, 0)" style="fill-opacity:1.00" />
<rect height="37.500000" width="7.500000" x="62.500000" y="292.500000" fill="rgb(255, 165, 0)" style="fill-opacity:1.00" />
<!-- End 'G' -->
<!-- Begin 'T' -->
<rect height="16.000000" width="60.000000" x="10.000000" y="340.000000" fill="rgb(0, 100, 0)" style="fill-opacity:1.00" />
<rect height="100.000000" width="12.000000" x="34.000000" y="340.000000" fill="rgb(0, 100, 0)" style="fill-opacity:1.00" />
<!-- End 'T' -->
<!-- Begin 'A' -->
<polygon points=" 90.000000, 41.412847, 111.000000, 10.000000, 119.000000, 10.000000, 140.000000, 41.412847, 132.500000, 41.412847, 126.250000, 33.559636, 103.750000, 33.559636, 97.500000, 41.412847" fill="rgb(178, 34, 34)" style="fill-opacity:0.31" />
<polygon points=" 115.000000, 16.282569, 107.000000, 27.847708, 122.000000, 27.847708" fill="rgb(255, 255, 255)" style="fill-opacity:1.00" />
<!-- End 'A' -->
<!-- Begin 'T' -->
<rect height="4.690540" width="50.000000" x="90.000000" y="41.412847" fill="rgb(0, 100, 0)" style="fill-opacity:0.31" />
<rect height="29.315874" width="10.000000" x="110.000000" y="41.412847" fill="rgb(0, 100, 0)" style="fill-opacity:0.31" />
<!-- End 'T' -->
<!-- Begin 'C' -->
<ellipse cx="115.000000" cy="82.412431" rx="25.000000" ry="11.683709" fill="rgb(0, 0, 128)" style="fill-opacity:0.31" />
<ellipse cx="115.000000" cy="82.412431" rx="16.666667" ry="7.789139" fill="rgb(255, 255, 255)" style="fill-opacity:1.00" />
<rect height="11.683709" width="25.000000" x="115.000000" y="76.570576" fill="rgb(255, 255, 255)" style="fill-opacity:1.00" />
<!-- End 'C' -->
<!-- Begin 'G' -->
<ellipse cx="115.000000" cy="102.048070" rx="25.000000" ry="7.951930" fill="rgb(255, 165, 0)" style="fill-opacity:0.31" />
<ellipse cx="115.000000" cy="102.048070" rx="16.666667" ry="5.301287" fill="rgb(255, 255, 255)" style="fill-opacity:1.00" />
<rect height="7.951930" width="25.000000" x="115.000000" y="98.072104" fill="rgb(255, 255, 255)" style="fill-opacity:1.00" />
<rect height="1.987983" width="25.000000" x="115.000000" y="104.036052" fill="rgb(255, 165, 0)" style="fill-opacity:0.31" />
<rect height="5.963948" width="6.250000" x="133.750000" y="104.036052" fill="rgb(255, 165, 0)" style="fill-opacity:0.31" />
<!-- End 'G' -->
<!-- Begin 'T' -->
<rect height="5.065137" width="50.000000" x="90.000000" y="120.000000" fill="rgb(0, 100, 0)" style="fill-opacity:0.20" />
<rect height="31.657105" width="10.000000" x="110.000000" y="120.000000" fill="rgb(0, 100, 0)" style="fill-opacity:0.20" />
<!-- End 'T' -->
<!-- Begin 'C' -->
<ellipse cx="115.000000" cy="166.588806" rx="25.000000" ry="14.931701" fill="rgb(0, 0, 128)" style="fill-opacity:0.20" />
<ellipse cx="115.000000" cy="166.588806" rx="16.666667" ry="9.954467" fill="rgb(255, 255, 255)" style="fill-opacity:1.00" />
<rect height="14.931701" width="25.000000" x="115.000000" y="159.122955" fill="rgb(255, 255, 255)" style="fill-opacity:1.00" />
<!-- End 'C' -->
<!-- Begin 'A' -->
<polygon points=" 90.000000, 207.709455, 111.000000, 181.520507, 119.000000, 181.520507, 140.000000, 207.709455, 132.500000, 207.709455, 126.250000, 201.162218, 103.750000, 201.162218, 97.500000, 207.709455" fill="rgb(178, 34, 34)" style="fill-opacity:0.20" />
<polygon points=" 115.000000, 186.758297, 107.000000, 196.233876, 122.000000, 196.233876" fill="rgb(255, 255, 255)" style="fill-opacity:1.00" />
<!-- End 'A' -->
<!-- Begin 'G' -->
<ellipse cx="115.000000" cy="213.854727" rx="25.000000" ry="6.145273" fill="rgb(255, 165, 0)" style="fill-opacity:0.20" />
<ellipse cx="115.000000" cy="213.854727" rx="16.666667" ry="4.096848" fill="rgb(255, 255, 255)" style="fill-opacity:1.00" />
<rect height="6.145273" width="25.000000" x="115.000000" y="210.782091" fill="rgb(255, 255, 255)" style="fill-opacity:1.00" />
<rect height="1.536318" width="25.000000" x="115.000000" y="215.391046" fill="rgb(255, 165, 0)" style="fill-opacity:0.20" />
<rect height="4.608954" width="6.250000" x="133.750000" y="215.391046" fill="rgb(255, 165, 0)" style="fill-opacity:0.20" />
<!-- End 'G' -->
<!-- Begin 'A' -->
<polygon points=" 90.000000, 262.058885, 111.000000, 230.000000, 119.000000, 230.000000, 140.000000, 262.058885, 132.500000, 262.058885, 126.250000, 254.044164, 103.750000, 254.044164, 97.500000, 262.058885" fill="rgb(178, 34, 34)" style="fill-opacity:0.20" />
<polygon points=" 115.000000, 236.411777, 107.000000, 248.235331, 122.000000, 248.235331" fill="rgb(255, 255, 255)" style="fill-opacity:1.00" />
<!-- End 'A' -->
<!-- Begin 'T' -->
<rect height="4.979371" width="50.000000" x="90.000000" y="262.058885" fill="rgb(0, 100, 0)" style="fill-opacity:0.20" />
<rect height="31.121069" width="10.000000" x="110.000000" y="262.058885" fill="rgb(0, 100, 0)" style="fill-opacity:0.20" />
<!-- End 'T' -->
<!-- Begin 'C' -->
<ellipse cx="115.000000" cy="304.726203" rx="25.000000" ry="11.546249" fill="rgb(0, 0, 128)" style="fill-opacity:0.20" />
<ellipse cx="115.000000" cy="304.726203" rx="16.666667" ry="7.697499" fill="rgb(255, 255, 255)" style="fill-opacity:1.00" />
<rect height="11.546249" width="25.000000" x="115.000000" y="298.953079" fill="rgb(255, 255, 255)" style="fill-opacity:1.00" />
<!-- End 'C' -->
<!-- Begin 'G' -->
<ellipse cx="115.000000" cy="323.136226" rx="25.000000" ry="6.863774" fill="rgb(255, 165, 0)" style="fill-opacity:0.20" />
<ellipse cx="115.000000" cy="323.136226" rx="16.666667" ry="4.575849" fill="rgb(255, 255, 255)" style="fill-opacity:1.00" />
<rect height="6.863774" width="25.000000" x="115.000000" y="319.704339" fill="rgb(255, 255, 255)" style="fill-opacity:1.00" />
<rect height="1.715944" width="25.000000" x="115.000000" y="324.852169" fill="rgb(255, 165, 0)" style="fill-opacity:0.20" />
<rect height="5.147831" width="6.250000" x="133.750000" y="324.852169" fill="rgb(255, 165, 0)" style="fill-opacity:0.20" />
<!-- End 'G' -->
<!-- Begin 'T' -->
<rect height="5.795703" width="50.000000" x="90.000000" y="340.000000" fill="rgb(0, 100, 0)" style="fill-opacity:0.30" />
<rect height="36.223145" width="10.000000" x="110.000000" y="340.000000" fill="rgb(0, 100, 0)" style="fill-opacity:0.30" />
<!-- End 'T' -->
<!-- Begin 'C' -->
<ellipse cx="115.000000" cy="392.078469" rx="25.000000" ry="15.855325" fill="rgb(0, 0, 128)" style="fill-opacity:0.30" />
<ellipse cx="115.000000" cy="392.078469" rx="16.666667" ry="10.570216" fill="rgb(255, 255, 255)" style="fill-opacity:1.00" />
<rect height="15.855325" width="25.000000" x="115.000000" y="384.150807" fill="rgb(255, 255, 255)" style="fill-opacity:1.00" />
<!-- End 'C' -->
<!-- Begin 'A' -->
<polygon points=" 90.000000, 426.121460, 111.000000, 407.933794, 119.000000, 407.933794, 140.000000, 426.121460, 132.500000, 426.121460, 126.250000, 421.574544, 103.750000, 421.574544, 97.500000, 426.121460" fill="rgb(178, 34, 34)" style="fill-opacity:0.30" />
<polygon points=" 115.000000, 411.571327, 107.000000, 417.846394, 122.000000, 417.846394" fill="rgb(255, 255, 255)" style="fill-opacity:1.00" />
<!-- End 'A' -->
<!-- Begin 'G' -->
<ellipse cx="115.000000" cy="433.060730" rx="25.000000" ry="6.939270" fill="rgb(255, 165, 0)" style="fill-opacity:0.30" />
<ellipse cx="115.000000" cy="433.060730" rx="16.666667" ry="4.626180" fill="rgb(255, 255, 255)" style="fill-opacity:1.00" />
<rect height="6.939270" width="25.000000" x="115.000000" y="429.591095" fill="rgb(255, 255, 255)" style="fill-opacity:1.00" />
<rect height="1.734817" width="25.000000" x="115.000000" y="434.795548" fill="rgb(255, 165, 0)" style="fill-opacity:0.30" />
<rect height="5.204452" width="6.250000" x="133.750000" y="434.795548" fill="rgb(255, 165, 0)" style="fill-opacity:0.30" />
<!-- End 'G' -->
<!-- Begin 'T' -->
<rect height="4.770795" width="50.000000" x="150.000000" y="10.000000" fill="rgb(0, 100, 0)" style="fill-opacity:0.27" />
<rect height="29.817470" width="10.000000" x="170.000000" y="10.000000" fill="rgb(0, 100, 0)" style="fill-opacity:0.27" />
<!-- End 'T' -->
<!-- Begin 'A' -->
<polygon points=" 150.000000, 66.677982, 171.000000, 39.817470, 179.000000, 39.817470, 200.000000, 66.677982, 192.500000, 66.677982, 186.250000, 59.962854, 163.750000, 59.962854, 157.500000, 66.677982" fill="rgb(178, 34, 34)" style="fill-opacity:0.27" />
<polygon points=" 175.000000, 45.189573, 167.000000, 54.933777, 182.000000, 54.933777" fill="rgb(255, 255, 255)" style="fill-opacity:1.00" />
<!-- End 'A' -->
<!-- Begin 'G' -->
<ellipse cx="175.000000" cy="78.483891" rx="25.000000" ry="11.805909" fill="rgb(255, 165, 0)" style="fill-opacity:0.27" />
<ellipse cx="175.000000" cy="78.483891" rx="16.666667" ry="7.870606" fill="rgb(255, 255, 255)" style="fill-opacity:1.00" />
<rect height="11.805909" width="25.000000" x="175.000000" y="72.580937" fill="rgb(255, 255, 255)" style="fill-opacity:1.00" />
<rect height="2.951477" width="25.000000" x="175.000000" y="81.435369" fill="rgb(255, 165, 0)" style="fill-opacity:0.27" />
<rect height="8.854432" width="6.250000" x="193.750000" y="81.435369" fill="rgb(255, 165, 0)" style="fill-opacity:0.27" />
<!-- End 'G' -->
<!-- Begin 'C' -->
<ellipse cx="175.000000" cy="100.144900" rx="25.000000" ry="9.855100" fill="rgb(0, 0, 128)" style="fill-opacity:0.27" />
<ellipse cx="175.000000" cy="100.144900" rx="16.666667" ry="6.570066" fill="rgb(255, 255, 255)" style="fill-opacity:1.00" />
<rect height="9.855100" width="25.000000" x="175.000000" y="95.217350" fill="rgb(255, 255, 255)" style="fill-opacity:1.00" />
<!-- End 'C' -->
<!-- Begin 'T' -->
<rect height="4.672292" width="50.000000" x="150.000000" y="120.000000" fill="rgb(0, 100, 0)" style="fill-opacity:0.27" />
<rect height="29.201822" width="10.000000" x="170.000000" y="120.000000" fill="rgb(0, 100, 0)" style="fill-opacity:0.27" />
<!-- End 'T' -->
<!-- Begin 'A' -->
<polygon points=" 150.000000, 177.454823, 171.000000, 149.201822, 179.000000, 149.201822, 200.000000, 177.454823, 192.500000, 177.454823, 186.250000, 170.391573, 163.750000, 170.391573, 157.500000, 177.454823" fill="rgb(178, 34, 34)" style="fill-opacity:0.27" />
<polygon points=" 175.000000, 154.852422, 167.000000, 165.153622, 182.000000, 165.153622" fill="rgb(255, 255, 255)" style="fill-opacity:1.00" />
<!-- End 'A' -->
<!-- Begin 'G' -->
<ellipse cx="175.000000" cy="191.275172" rx="25.000000" ry="13.820349" fill="rgb(255, 165, 0)" style="fill-opacity:0.27" />
<ellipse cx="175.000000" cy="191.275172" rx="16.666667" ry="9.213566" fill="rgb(255, 255, 255)" style="fill-opacity:1.00" />
<rect height="13.820349" width="25.000000" x="175.000000" y="184.364998" fill="rgb(255, 255, 255)" style="fill-opacity:1.00" />
<rect height="3.455087" width="25.000000" x="175.000000" y="194.730260" fill="rgb(255, 165, 0)" style="fill-opacity:0.27" />
<rect height="10.365262" width="6.250000" x="193.750000" y="194.730260" fill="rgb(255, 165, 0)" style="fill-opacity:0.27" />
<!-- End 'G' -->
<!-- Begin 'C' -->
<ellipse cx="175.000000" cy="212.547761" rx="25.000000" ry="7.452239" fill="rgb(0, 0, 128)" style="fill-opacity:0.27" />
<ellipse cx="175.000000" cy="212.547761" rx="16.666667" ry="4.968159" fill="rgb(255, 255, 255)" style="fill-opacity:1.00" />
<rect height="7.452239" width="25.000000" x="175.000000" y="208.821641" fill="rgb(255, 255, 255)" style="fill-opacity:1.00" />
<!-- End 'C' -->
<!-- Begin 'T' -->
<rect height="5.201833" width="50.000000" x="150.000000" y="230.000000" fill="rgb(0, 100, 0)" style="fill-opacity:0.14" />
<rect height="32.511453" width="10.000000" x="170.000000" y="230.000000" fill="rgb(0, 100, 0)" style="fill-opacity:0.14" />
<!-- End 'T' -->
<!-- Begin 'A' -->
<polygon points=" 150.000000, 291.626570, 171.000000, 262.511453, 179.000000, 262.511453, 200.000000, 291.626570, 192.500000, 291.626570, 186.250000, 284.347791, 163.750000, 284.347791, 157.500000, 291.626570" fill="rgb(178, 34, 34)" style="fill-opacity:0.14" />
<polygon points=" 175.000000, 268.334477, 167.000000, 278.980523, 182.000000, 278.980523" fill="rgb(255, 255, 255)" style="fill-opacity:1.00" />
<!-- End 'A' -->
<!-- Begin 'G' -->
<ellipse cx="175.000000" cy="301.833268" rx="25.000000" ry="10.206698" fill="rgb(255, 165, 0)" style="fill-opacity:0.14" />
<ellipse cx="175.000000" cy="301.833268" rx="16.666667" ry="6.804465" fill="rgb(255, 255, 255)" style="fill-opacity:1.00" />
<rect height="10.206698" width="25.000000" x="175.000000" y="296.729919" fill="rgb(255, 255, 255)" style="fill-opacity:1.00" />
<rect height="2.551675" width="25.000000" x="175.000000" y="304.384942" fill="rgb(255, 165, 0)" style="fill-opacity:0.14" />
<rect height="7.655024" width="6.250000" x="193.750000" y="304.384942" fill="rgb(255, 165, 0)" style="fill-opacity:0.14" />
<!-- End 'G' -->
<!-- Begin 'C' -->
<ellipse cx="175.000000" cy="321.019983" rx="25.000000" ry="8.980017" fill="rgb(0, 0, 128)" style="fill-opacity:0.14" />
<ellipse cx="175.000000" cy="321.019983" rx="16.666667" ry="5.986678" fill="rgb(255, 255, 255)" style="fill-opacity:1.00" />
<rect height="8.980017" width="25.000000" x="175.000000" y="316.529974" fill="rgb(255, 255, 255)" style="fill-opacity:1.00" />
<!-- End 'C' -->
<!-- Begin 'T' -->
<rect height="5.895808" width="50.000000" x="150.000000" y="340.000000" fill="rgb(0, 100, 0)" style="fill-opacity:0.32" />
<rect height="36.848802" width="10.000000" x="170.000000" y="340.000000" fill="rgb(0, 100, 0)" style="fill-opacity:0.32" />
<!-- End 'T' -->
<!-- Begin 'G' -->
<ellipse cx="175.000000" cy="388.937080" rx="25.000000" ry="12.088278" fill="rgb(255, 165, 0)" style="fill-opacity:0.32" />
<ellipse cx="175.000000" cy="388.937080" rx="16.666667" ry="8.058852" fill="rgb(255, 255, 255)" style="fill-opacity:1.00" />
<rect height="12.088278" width="25.000000" x="175.000000" y="382.892941" fill="rgb(255, 255, 255)" style="fill-opacity:1.00" />
<rect height="3.022069" width="25.000000" x="175.000000" y="391.959149" fill="rgb(255, 165, 0)" style="fill-opacity:0.32" />
<rect height="9.066208" width="6.250000" x="193.750000" y="391.959149" fill="rgb(255, 165, 0)" style="fill-opacity:0.32" />
<!-- End 'G' -->
<!-- Begin 'C' -->
<ellipse cx="175.000000" cy="411.122308" rx="25.000000" ry="10.096951" fill="rgb(0, 0, 128)" style="fill-opacity:0.32" />
<ellipse cx="175.000000" cy="411.122308" rx="16.666667" ry="6.731301" fill="rgb(255, 255, 255)" style="fill-opacity:1.00" />
<rect height="10.096951" width="25.000000" x="175.000000" y="406.073833" fill="rgb(255, 255, 255)" style="fill-opacity:1.00" />
<!-- End 'C' -->
<!-- Begin 'A' -->
<polygon points=" 150.000000, 440.000000, 171.000000, 421.219259, 179.000000, 421.219259, 200.000000, 440.000000, 192.500000, 440.000000, 186.250000, 435.304815, 163.750000, 435.304815, 157.500000, 440.000000" fill="rgb(178, 34, 34)" style="fill-opacity:0.32" />
<polygon points=" 175.000000, 424.975408, 167.000000, 431.487704, 182.000000, 431.487704" fill="rgb(255, 255, 255)" style="fill-opacity:1.00" />
<!-- End 'A' -->
<!-- Begin 'T' -->
<rect height="5.567466" width="50.000000" x="210.000000" y="10.000000" fill="rgb(0, 100, 0)" style="fill-opacity:0.25" />
<rect height="34.796661" width="10.000000" x="230.000000" y="10.000000" fill="rgb(0, 100, 0)" style="fill-opacity:0.25" />
<!-- End 'T' -->
<!-- Begin 'A' -->
<polygon points=" 210.000000, 76.799888, 231.000000, 44.796661, 239.000000, 44.796661, 260.000000, 76.799888, 252.500000, 76.799888, 246.250000, 68.799081, 223.750000, 68.799081, 217.500000, 76.799888" fill="rgb(178, 34, 34)" style="fill-opacity:0.25" />
<polygon points=" 235.000000, 51.197307, 227.000000, 62.998597, 242.000000, 62.998597" fill="rgb(255, 255, 255)" style="fill-opacity:1.00" />
<!-- End 'A' -->
<!-- Begin 'C' -->
<ellipse cx="235.000000" cy="85.678921" rx="25.000000" ry="8.879032" fill="rgb(0, 0, 128)" style="fill-opacity:0.25" />
<ellipse cx="235.000000" cy="85.678921" rx="16.666667" ry="5.919355" fill="rgb(255, 255, 255)" style="fill-opacity:1.00" />
<rect height="8.879032" width="25.000000" x="235.000000" y="81.239404" fill="rgb(255, 255, 255)" style="fill-opacity:1.00" />
<!-- End 'C' -->
<!-- Begin 'G' -->
<ellipse cx="235.000000" cy="102.278977" rx="25.000000" ry="7.721023" fill="rgb(255, 165, 0)" style="fill-opacity:0.25" />
<ellipse cx="235.000000" cy="102.278977" rx="16.666667" ry="5.147349" fill="rgb(255, 255, 255)" style="fill-opacity:1.00" />
<rect height="7.721023" width="25.000000" x="235.000000" y="98.418465" fill="rgb(255, 255, 255)" style="fill-opacity:1.00" />
<rect height="1.930256" width="25.000000" x="235.000000" y="104.209232" fill="rgb(255, 165, 0)" style="fill-opacity:0.25" />
<rect height="5.790768" width="6.250000" x="253.750000" y="104.209232" fill="rgb(255, 165, 0)" style="fill-opacity:0.25" />
<!-- End 'G' -->
<!-- Begin 'T' -->
<rect height="5.958731" width="50.000000" x="210.000000" y="120.000000" fill="rgb(0, 100, 0)" style="fill-opacity:0.18" />
<rect height="37.242069" width="10.000000" x="230.000000" y="120.000000" fill="rgb(0, 100, 0)" style="fill-opacity:0.18" />
<!-- End 'T' -->
<!-- Begin 'A' -->
<polygon points=" 210.000000, 194.165264, 231.000000, 157.242069, 239.000000, 157.242069, 260.000000, 194.165264, 252.500000, 194.165264, 246.250000, 184.934465, 223.750000, 184.934465, 217.500000, 194.165264" fill="rgb(178, 34, 34)" style="fill-opacity:0.18" />
<polygon points=" 235.000000, 164.626708, 227.000000, 178.395986, 242.000000, 178.395986" fill="rgb(255, 255, 255)" style="fill-opacity:1.00" />
<!-- End 'A' -->
<!-- Begin 'C' -->
<ellipse cx="235.000000" cy="200.960939" rx="25.000000" ry="6.795675" fill="rgb(0, 0, 128)" style="fill-opacity:0.18" />
<ellipse cx="235.000000" cy="200.960939" rx="16.666667" ry="4.530450" fill="rgb(255, 255, 255)" style="fill-opacity:1.00" />
<rect height="6.795675" width="25.000000" x="235.000000" y="197.563101" fill="rgb(255, 255, 255)" style="fill-opacity:1.00" />
<!-- End 'C' -->
<!-- Begin 'G' -->
<ellipse cx="235.000000" cy="213.878307" rx="25.000000" ry="6.121693" fill="rgb(255, 165, 0)" style="fill-opacity:0.18" />
<ellipse cx="235.000000" cy="213.878307" rx="16.666667" ry="4.081129" fill="rgb(255, 255, 255)" style="fill-opacity:1.00" />
<rect height="6.121693" width="25.000000" x="235.000000" y="210.817460" fill="rgb(255, 255, 255)" style="fill-opacity:1.00" />
<rect height="1.530423" width="25.000000" x="235.000000" y="215.408730" fill="rgb(255, 165, 0)" style="fill-opacity:0.18" />
<rect height="4.591270" width="6.250000" x="253.750000" y="215.408730" fill="rgb(255, 165, 0)" style="fill-opacity:0.18" />
<!-- End 'G' -->
<!-- Begin 'A' -->
<polygon points=" 210.000000, 267.466163, 231.000000, 230.000000, 239.000000, 230.000000, 260.000000, 267.466163, 252.500000, 267.466163, 246.250000, 258.099622, 223.750000, 258.099622, 217.500000, 267.466163" fill="rgb(178, 34, 34)" style="fill-opacity:0.24" />
<polygon points=" 235.000000, 237.493233, 227.000000, 251.479698, 242.000000, 251.479698" fill="rgb(255, 255, 255)" style="fill-opacity:1.00" />
<!-- End 'A' -->
<!-- Begin 'T' -->
<rect height="5.185066" width="50.000000" x="210.000000" y="267.466163" fill="rgb(0, 100, 0)" style="fill-opacity:0.24" />
<rect height="32.406663" width="10.000000" x="230.000000" y="267.466163" fill="rgb(0, 100, 0)" style="fill-opacity:0.24" />
<!-- End 'T' -->
<!-- Begin 'G' -->
<ellipse cx="235.000000" cy="307.410980" rx="25.000000" ry="7.538155" fill="rgb(255, 165, 0)" style="fill-opacity:0.24" />
<ellipse cx="235.000000" cy="307.410980" rx="16.666667" ry="5.025436" fill="rgb(255, 255, 255)" style="fill-opacity:1.00" />
<rect height="7.538155" width="25.000000" x="235.000000" y="303.641903" fill="rgb(255, 255, 255)" style="fill-opacity:1.00" />
<rect height="1.884539" width="25.000000" x="235.000000" y="309.295519" fill="rgb(255, 165, 0)" style="fill-opacity:0.24" />
<rect height="5.653616" width="6.250000" x="253.750000" y="309.295519" fill="rgb(255, 165, 0)" style="fill-opacity:0.24" />
<!-- End 'G' -->
<!-- Begin 'C' -->
<ellipse cx="235.000000" cy="322.474567" rx="25.000000" ry="7.525433" fill="rgb(0, 0, 128)" style="fill-opacity:0.24" />
<ellipse cx="235.000000" cy="322.474567" rx="16.666667" ry="5.016955" fill="rgb(255, 255, 255)" style="fill-opacity:1.00" />
<rect height="7.525433" width="25.000000" x="235.000000" y="318.711851" fill="rgb(255, 255, 255)" style="fill-opacity:1.00" />
<!-- End 'C' -->
<!-- Begin 'T' -->
<rect height="6.410641" width="50.000000" x="210.000000" y="340.000000" fill="rgb(0, 100, 0)" style="fill-opacity:0.32" />
<rect height="40.066504" width="10.000000" x="230.000000" y="340.000000" fill="rgb(0, 100, 0)" style="fill-opacity:0.32" />
<!-- End 'T' -->
<!-- Begin 'A' -->
<polygon points=" 210.000000, 404.238705, 231.000000, 380.066504, 239.000000, 380.066504, 260.000000, 404.238705, 252.500000, 404.238705, 246.250000, 398.195655, 223.750000, 398.195655, 217.500000, 404.238705" fill="rgb(178, 34, 34)" style="fill-opacity:0.32" />
<polygon points=" 235.000000, 384.900944, 227.000000, 393.569825, 242.000000, 393.569825" fill="rgb(255, 255, 255)" style="fill-opacity:1.00" />
<!-- End 'A' -->
<!-- Begin 'C' -->
<ellipse cx="235.000000" cy="414.581928" rx="25.000000" ry="10.343223" fill="rgb(0, 0, 128)" style="fill-opacity:0.32" />
<ellipse cx="235.000000" cy="414.581928" rx="16.666667" ry="6.895482" fill="rgb(255, 255, 255)" style="fill-opacity:1.00" />
<rect height="10.343223" width="25.000000" x="235.000000" y="409.410316" fill="rgb(255, 255, 255)" style="fill-opacity:1.00" />
<!-- End 'C' -->
<!-- Begin 'G' -->
<ellipse cx="235.000000" cy="432.462576" rx="25.000000" ry="7.537424" fill="rgb(255, 165, 0)" style="fill-opacity:0.32" />
<ellipse cx="235.000000" cy="432.462576" rx="16.666667" ry="5.024950" fill="rgb(255, 255, 255)" style="fill-opacity:1.00" />
<rect height="7.537424" width="25.000000" x="235.000000" y="428.693863" fill="rgb(255, 255, 255)" style="fill-opacity:1.00" />
<rect height="1.884356" width="25.000000" x="235.000000" y="434.346932" fill="rgb(255, 165, 0)" style="fill-opacity:0.32" />
<rect height="5.653068" width="6.250000" x="253.750000" y="434.346932" fill="rgb(255, 165, 0)" style="fill-opacity:0.32" />
<!-- End 'G' -->
<!-- Begin 'T' -->
<rect height="6.902882" width="50.000000" x="270.000000" y="10.000000" fill="rgb(0, 100, 0)" style="fill-opacity:0.32" />
<rect height="43.143011" width="10.000000" x="290.000000" y="10.000000" fill="rgb(0, 100, 0)" style="fill-opacity:0.32" />
<!-- End 'T' -->
<!-- Begin 'C' -->
<ellipse cx="295.000000" cy="65.906861" rx="25.000000" ry="12.763850" fill="rgb(0, 0, 128)" style="fill-opacity:0.32" />
<ellipse cx="295.000000" cy="65.906861" rx="16.666667" ry="8.509233" fill="rgb(255, 255, 255)" style="fill-opacity:1.00" />
<rect height="12.763850" width="25.000000" x="295.000000" y="59.524936" fill="rgb(255, 255, 255)" style="fill-opacity:1.00" />
<!-- End 'C' -->
<!-- Begin 'A' -->
<polygon points=" 270.000000, 98.229445, 291.000000, 78.670711, 299.000000, 78.670711, 320.000000, 98.229445, 312.500000, 98.229445, 306.250000, 93.339762, 283.750000, 93.339762, 277.500000, 98.229445" fill="rgb(178, 34, 34)" style="fill-opacity:0.32" />
<polygon points=" 295.000000, 82.582458, 287.000000, 89.405952, 302.000000, 89.405952" fill="rgb(255, 255, 255)" style="fill-opacity:1.00" />
<!-- End 'A' -->
<!-- Begin 'G' -->
<ellipse cx="295.000000" cy="104.114723" rx="25.000000" ry="5.885277" fill="rgb(255, 165, 0)" style="fill-opacity:0.32" />
<ellipse cx="295.000000" cy="104.114723" rx="16.666667" ry="3.923518" fill="rgb(255, 255, 255)" style="fill-opacity:1.00" />
<rect height="5.885277" width="25.000000" x="295.000000" y="101.172084" fill="rgb(255, 255, 255)" style="fill-opacity:1.00" />
<rect height="1.471319" width="25.000000" x="295.000000" y="105.586042" fill="rgb(255, 165, 0)" style="fill-opacity:0.32" />
<rect height="4.413958" width="6.250000" x="313.750000" y="105.586042" fill="rgb(255, 165, 0)" style="fill-opacity:0.32" />
<!-- End 'G' -->
<!-- Begin 'C' -->
<ellipse cx="295.000000" cy="142.305058" rx="25.000000" ry="22.305058" fill="rgb(0, 0, 128)" style="fill-opacity:0.17" />
<ellipse cx="295.000000" cy="142.305058" rx="16.666667" ry="14.870039" fill="rgb(255, 255, 255)" style="fill-opacity:1.00" />
<rect height="22.305058" width="25.000000" x="295.000000" y="131.152529" fill="rgb(255, 255, 255)" style="fill-opacity:1.00" />
<!-- End 'C' -->
<!-- Begin 'T' -->
<rect height="5.064406" width="50.000000" x="270.000000" y="164.610116" fill="rgb(0, 100, 0)" style="fill-opacity:0.17" />
<rect height="31.652540" width="10.000000" x="290.000000" y="164.610116" fill="rgb(0, 100, 0)" style="fill-opacity:0.17" />
<!-- End 'T' -->
<!-- Begin 'A' -->
<polygon points=" 270.000000, 210.646460, 291.000000, 196.262657, 299.000000, 196.262657, 320.000000, 210.646460, 312.500000, 210.646460, 306.250000, 207.050509, 283.750000, 207.050509, 277.500000, 210.646460" fill="rgb(178, 34, 34)" style="fill-opacity:0.17" />
<polygon points=" 295.000000, 199.139417, 287.000000, 203.892939, 302.000000, 203.892939" fill="rgb(255, 255, 255)" style="fill-opacity:1.00" />
<!-- End 'A' -->
<!-- Begin 'G' -->
<ellipse cx="295.000000" cy="215.323230" rx="25.000000" ry="4.676770" fill="rgb(255, 165, 0)" style="fill-opacity:0.17" />
<ellipse cx="295.000000" cy="215.323230" rx="16.666667" ry="3.117847" fill="rgb(255, 255, 255)" style="fill-opacity:1.00" />
<rect height="4.676770" width="25.000000" x="295.000000" y="212.984845" fill="rgb(255, 255, 255)" style="fill-opacity:1.00" />
<rect height="1.169192" width="25.000000" x="295.000000" y="216.492423" fill="rgb(255, 165, 0)" style="fill-opacity:0.17" />
<rect height="3.507577" width="6.250000" x="313.750000" y="216.492423" fill="rgb(255, 165, 0)" style="fill-opacity:0.17" />
<!-- End 'G' -->
<!-- Begin 'T' -->
<rect height="7.141186" width="50.000000" x="270.000000" y="230.000000" fill="rgb(0, 100, 0)" style="fill-opacity:0.15" />
<rect height="44.632411" width="10.000000" x="290.000000" y="230.000000" fill="rgb(0, 100, 0)" style="fill-opacity:0.15" />
<!-- End 'T' -->
<!-- Begin 'C' -->
<ellipse cx="295.000000" cy="290.006851" rx="25.000000" ry="15.374440" fill="rgb(0, 0, 128)" style="fill-opacity:0.15" />
<ellipse cx="295.000000" cy="290.006851" rx="16.666667" ry="10.249627" fill="rgb(255, 255, 255)" style="fill-opacity:1.00" />
<rect height="15.374440" width="25.000000" x="295.000000" y="282.319631" fill="rgb(255, 255, 255)" style="fill-opacity:1.00" />
<!-- End 'C' -->
<!-- Begin 'A' -->
<polygon points=" 270.000000, 323.033822, 291.000000, 305.381292, 299.000000, 305.381292, 320.000000, 323.033822, 312.500000, 323.033822, 306.250000, 318.620690, 283.750000, 318.620690, 277.500000, 323.033822" fill="rgb(178, 34, 34)" style="fill-opacity:0.15" />
<polygon points=" 295.000000, 308.911798, 287.000000, 314.972810, 302.000000, 314.972810" fill="rgb(255, 255, 255)" style="fill-opacity:1.00" />
<!-- End 'A' -->
<!-- Begin 'G' -->
<ellipse cx="295.000000" cy="326.516911" rx="25.000000" ry="3.483089" fill="rgb(255, 165, 0)" style="fill-opacity:0.15" />
<ellipse cx="295.000000" cy="326.516911" rx="16.666667" ry="2.322059" fill="rgb(255, 255, 255)" style="fill-opacity:1.00" />
<rect height="3.483089" width="25.000000" x="295.000000" y="324.775367" fill="rgb(255, 255, 255)" style="fill-opacity:1.00" />
<rect height="0.870772" width="25.000000" x="295.000000" y="327.387683" fill="rgb(255, 165, 0)" style="fill-opacity:0.15" />
<rect height="2.612317" width="6.250000" x="313.750000" y="327.387683" fill="rgb(255, 165, 0)" style="fill-opacity:0.15" />
<!-- End 'G' -->
<!-- Begin 'T' -->
<rect height="6.100769" width="50.000000" x="270.000000" y="340.000000" fill="rgb(0, 100, 0)" style="fill-opacity:0.36" />
<rect height="38.129806" width="10.000000" x="290.000000" y="340.000000" fill="rgb(0, 100, 0)" style="fill-opacity:0.36" />
<!-- End 'T' -->
<!-- Begin 'C' -->
<ellipse cx="295.000000" cy="395.198283" rx="25.000000" ry="17.068477" fill="rgb(0, 0, 128)" style="fill-opacity:0.36" />
<ellipse cx="295.000000" cy="395.198283" rx="16.666667" ry="11.378984" fill="rgb(255, 255, 255)" style="fill-opacity:1.00" />
<rect height="17.068477" width="25.000000" x="295.000000" y="386.664045" fill="rgb(255, 255, 255)" style="fill-opacity:1.00" />
<!-- End 'C' -->
<!-- Begin 'G' -->
<ellipse cx="295.000000" cy="420.605058" rx="25.000000" ry="8.338298" fill="rgb(255, 165, 0)" style="fill-opacity:0.36" />
<ellipse cx="295.000000" cy="420.605058" rx="16.666667" ry="5.558866" fill="rgb(255, 255, 255)" style="fill-opacity:1.00" />
<rect height="8.338298" width="25.000000" x="295.000000" y="416.435909" fill="rgb(255, 255, 255)" style="fill-opacity:1.00" />
<rect height="2.084575" width="25.000000" x="295.000000" y="422.689633" fill="rgb(255, 165, 0)" style="fill-opacity:0.36" />
<rect height="6.253724" width="6.250000" x="313.750000" y="422.689633" fill="rgb(255, 165, 0)" style="fill-opacity:0.36" />
<!-- End 'G' -->
<!-- Begin 'A' -->
<polygon points=" 270.000000, 440.000000, 291.000000, 428.943356, 299.000000, 428.943356, 320.000000, 440.000000, 312.500000, 440.000000, 306.250000, 437.235839, 283.750000, 437.235839, 277.500000, 440.000000" fill="rgb(178, 34, 34)" style="fill-opacity:0.36" />
<polygon points=" 295.000000, 431.154685, 287.000000, 434.577343, 302.000000, 434.577343" fill="rgb(255, 255, 255)" style="fill-opacity:1.00" />
<!-- End 'A' -->
<!-- Begin 'G' -->
<ellipse cx="355.000000" cy="47.466482" rx="25.000000" ry="37.466482" fill="rgb(255, 165, 0)" style="fill-opacity:0.15" />
<ellipse cx="355.000000" cy="47.466482" rx="16.666667" ry="24.977655" fill="rgb(255, 255, 255)" style="fill-opacity:1.00" />
<rect height="37.466482" width="25.000000" x="355.000000" y="28.733241" fill="rgb(255, 255, 255)" style="fill-opacity:1.00" />
<rect height="9.366621" width="25.000000" x="355.000000" y="56.833103" fill="rgb(255, 165, 0)" style="fill-opacity:0.15" />
<rect height="28.099862" width="6.250000" x="373.750000" y="56.833103" fill="rgb(255, 165, 0)" style="fill-opacity:0.15" />
<!-- End 'G' -->
<!-- Begin 'A' -->
<polygon points=" 330.000000, 109.856837, 351.000000, 84.932964, 359.000000, 84.932964, 380.000000, 109.856837, 372.500000, 109.856837, 366.250000, 103.625869, 343.750000, 103.625869, 337.500000, 109.856837" fill="rgb(178, 34, 34)" style="fill-opacity:0.15" />
<polygon points=" 355.000000, 89.917739, 347.000000, 98.887288, 362.000000, 98.887288" fill="rgb(255, 255, 255)" style="fill-opacity:1.00" />
<!-- End 'A' -->
<!-- Begin 'T' -->
<rect height="0.014994" width="50.000000" x="330.000000" y="109.856837" fill="rgb(0, 100, 0)" style="fill-opacity:0.15" />
<rect height="0.093710" width="10.000000" x="350.000000" y="109.856837" fill="rgb(0, 100, 0)" style="fill-opacity:0.15" />
<!-- End 'T' -->
<!-- Begin 'C' -->
<ellipse cx="355.000000" cy="109.975273" rx="25.000000" ry="0.024727" fill="rgb(0, 0, 128)" style="fill-opacity:0.15" />
<ellipse cx="355.000000" cy="109.975273" rx="16.666667" ry="0.016484" fill="rgb(255, 255, 255)" style="fill-opacity:1.00" />
<rect height="0.024727" width="25.000000" x="355.000000" y="109.962910" fill="rgb(255, 255, 255)" style="fill-opacity:1.00" />
<!-- End 'C' -->
<!-- Begin 'G' -->
<ellipse cx="355.000000" cy="149.212572" rx="25.000000" ry="29.212572" fill="rgb(255, 165, 0)" style="fill-opacity:0.33" />
<ellipse cx="355.000000" cy="149.212572" rx="16.666667" ry="19.475048" fill="rgb(255, 255, 255)" style="fill-opacity:1.00" />
<rect height="29.212572" width="25.000000" x="355.000000" y="134.606286" fill="rgb(255, 255, 255)" style="fill-opacity:1.00" />
<rect height="7.303143" width="25.000000" x="355.000000" y="156.515716" fill="rgb(255, 165, 0)" style="fill-opacity:0.33" />
<rect height="21.909429" width="6.250000" x="373.750000" y="156.515716" fill="rgb(255, 165, 0)" style="fill-opacity:0.33" />
<!-- End 'G' -->
<!-- Begin 'A' -->
<polygon points=" 330.000000, 211.346810, 351.000000, 178.425145, 359.000000, 178.425145, 380.000000, 211.346810, 372.500000, 211.346810, 366.250000, 203.116394, 343.750000, 203.116394, 337.500000, 211.346810" fill="rgb(178, 34, 34)" style="fill-opacity:0.33" />
<polygon points=" 355.000000, 185.009478, 347.000000, 197.178144, 362.000000, 197.178144" fill="rgb(255, 255, 255)" style="fill-opacity:1.00" />
<!-- End 'A' -->
<!-- Begin 'T' -->
<rect height="1.338639" width="50.000000" x="330.000000" y="211.346810" fill="rgb(0, 100, 0)" style="fill-opacity:0.33" />
<rect height="8.366491" width="10.000000" x="350.000000" y="211.346810" fill="rgb(0, 100, 0)" style="fill-opacity:0.33" />
<!-- End 'T' -->
<!-- Begin 'C' -->
<ellipse cx="355.000000" cy="219.856651" rx="25.000000" ry="0.143349" fill="rgb(0, 0, 128)" style="fill-opacity:0.33" />
<ellipse cx="355.000000" cy="219.856651" rx="16.666667" ry="0.095566" fill="rgb(255, 255, 255)" style="fill-opacity:1.00" />
<rect height="0.143349" width="25.000000" x="355.000000" y="219.784976" fill="rgb(255, 255, 255)" style="fill-opacity:1.00" />
<!-- End 'C' -->
<!-- Begin 'G' -->
<ellipse cx="355.000000" cy="266.229491" rx="25.000000" ry="36.229491" fill="rgb(255, 165, 0)" style="fill-opacity:0.12" />
<ellipse cx="355.000000" cy="266.229491" rx="16.666667" ry="24.152994" fill="rgb(255, 255, 255)" style="fill-opacity:1.00" />
<rect height="36.229491" width="25.000000" x="355.000000" y="248.114746" fill="rgb(255, 255, 255)" style="fill-opacity:1.00" />
<rect height="9.057373" width="25.000000" x="355.000000" y="275.286864" fill="rgb(255, 165, 0)" style="fill-opacity:0.12" />
<rect height="27.172118" width="6.250000" x="373.750000" y="275.286864" fill="rgb(255, 165, 0)" style="fill-opacity:0.12" />
<!-- End 'G' -->
<!-- Begin 'A' -->
<polygon points=" 330.000000, 329.621963, 351.000000, 302.458983, 359.000000, 302.458983, 380.000000, 329.621963, 372.500000, 329.621963, 366.250000, 322.831218, 343.750000, 322.831218, 337.500000, 329.621963" fill="rgb(178, 34, 34)" style="fill-opacity:0.12" />
<polygon points=" 355.000000, 307.891579, 347.000000, 317.756771, 362.000000, 317.756771" fill="rgb(255, 255, 255)" style="fill-opacity:1.00" />
<!-- End 'A' -->
<!-- Begin 'T' -->
<rect height="0.057982" width="50.000000" x="330.000000" y="329.621963" fill="rgb(0, 100, 0)" style="fill-opacity:0.12" />
<rect height="0.362386" width="10.000000" x="350.000000" y="329.621963" fill="rgb(0, 100, 0)" style="fill-opacity:0.12" />
<!-- End 'T' -->
<!-- Begin 'C' -->
<ellipse cx="355.000000" cy="329.992174" rx="25.000000" ry="0.007826" fill="rgb(0, 0, 128)" style="fill-opacity:0.12" />
<ellipse cx="355.000000" cy="329.992174" rx="16.666667" ry="0.005217" fill="rgb(255, 255, 255)" style="fill-opacity:1.00" />
<rect height="0.007826" width="25.000000" x="355.000000" y="329.988262" fill="rgb(255, 255, 255)" style="fill-opacity:1.00" />
<!-- End 'C' -->
<!-- Begin 'G' -->
<ellipse cx="355.000000" cy="380.121195" rx="25.000000" ry="40.121195" fill="rgb(255, 165, 0)" style="fill-opacity:0.40" />
<ellipse cx="355.000000" cy="380.121195" rx="16.666667" ry="26.747463" fill="rgb(255, 255, 255)" style="fill-opacity:1.00" />
<rect height="40.121195" width="25.000000" x="355.000000" y="360.060598" fill="rgb(255, 255, 255)" style="fill-opacity:1.00" />
<rect height="10.030299" width="25.000000" x="355.000000" y="390.151494" fill="rgb(255, 165, 0)" style="fill-opacity:0.40" />
<rect height="30.090896" width="6.250000" x="373.750000" y="390.151494" fill="rgb(255, 165, 0)" style="fill-opacity:0.40" />
<!-- End 'G' -->
<!-- Begin 'A' -->
<polygon points=" 330.000000, 438.365864, 351.000000, 420.242390, 359.000000, 420.242390, 380.000000, 438.365864, 372.500000, 438.365864, 366.250000, 433.834995, 343.750000, 433.834995, 337.500000, 438.365864" fill="rgb(178, 34, 34)" style="fill-opacity:0.40" />
<polygon points=" 355.000000, 423.867085, 347.000000, 430.116474, 362.000000, 430.116474" fill="rgb(255, 255, 255)" style="fill-opacity:1.00" />
<!-- End 'A' -->
<!-- Begin 'T' -->
<rect height="0.252589" width="50.000000" x="330.000000" y="438.365864" fill="rgb(0, 100, 0)" style="fill-opacity:0.40" />
<rect height="1.578679" width="10.000000" x="350.000000" y="438.365864" fill="rgb(0, 100, 0)" style="fill-opacity:0.40" />
<!-- End 'T' -->
<!-- Begin 'C' -->
<ellipse cx="355.000000" cy="439.972271" rx="25.000000" ry="0.027729" fill="rgb(0, 0, 128)" style="fill-opacity:0.40" />
<ellipse cx="355.000000" cy="439.972271" rx="16.666667" ry="0.018486" fill="rgb(255, 255, 255)" style="fill-opacity:1.00" />
<rect height="0.027729" width="25.000000" x="355.000000" y="439.958407" fill="rgb(255, 255, 255)" style="fill-opacity:1.00" />
<!-- End 'C' -->
<!-- Begin 'C' -->
<ellipse cx="415.000000" cy="58.790467" rx="25.000000" ry="48.790467" fill="rgb(0, 0, 128)" style="fill-opacity:0.25" />
<ellipse cx="415.000000" cy="58.790467" rx="16.666667" ry="32.526978" fill="rgb(255, 255, 255)" style="fill-opacity:1.00" />
<rect height="48.790467" width="25.000000" x="415.000000" y="34.395233" fill="rgb(255, 255, 255)" style="fill-opacity:1.00" />
<!-- End 'C' -->
<!-- Begin 'T' -->
<rect height="0.381969" width="50.000000" x="390.000000" y="107.580934" fill="rgb(0, 100, 0)" style="fill-opacity:0.25" />
<rect height="2.387307" width="10.000000" x="410.000000" y="107.580934" fill="rgb(0, 100, 0)" style="fill-opacity:0.25" />
<!-- End 'T' -->
<!-- Begin 'A' -->
<polygon points=" 390.000000, 109.992320, 411.000000, 109.968240, 419.000000, 109.968240, 440.000000, 109.992320, 432.500000, 109.992320, 426.250000, 109.986300, 403.750000, 109.986300, 397.500000, 109.992320" fill="rgb(178, 34, 34)" style="fill-opacity:0.25" />
<!-- End 'A' -->
<!-- Begin 'G' -->
<ellipse cx="415.000000" cy="109.996160" rx="25.000000" ry="0.003840" fill="rgb(255, 165, 0)" style="fill-opacity:0.25" />
<ellipse cx="415.000000" cy="109.996160" rx="16.666667" ry="0.002560" fill="rgb(255, 255, 255)" style="fill-opacity:1.00" />
<rect height="0.003840" width="25.000000" x="415.000000" y="109.994240" fill="rgb(255, 255, 255)" style="fill-opacity:1.00" />
<rect height="0.000960" width="25.000000" x="415.000000" y="109.997120" fill="rgb(255, 165, 0)" style="fill-opacity:0.25" />
<rect height="0.002880" width="6.250000" x="433.750000" y="109.997120" fill="rgb(255, 165, 0)" style="fill-opacity:0.25" />
<!-- End 'G' -->
<!-- Begin 'T' -->
<rect height="13.986416" width="50.000000" x="390.000000" y="120.000000" fill="rgb(0, 100, 0)" style="fill-opacity:0.00" />
<rect height="87.415102" width="10.000000" x="410.000000" y="120.000000" fill="rgb(0, 100, 0)" style="fill-opacity:0.00" />
<!-- End 'T' -->
<!-- Begin 'C' -->
<ellipse cx="415.000000" cy="212.752976" rx="25.000000" ry="5.337874" fill="rgb(0, 0, 128)" style="fill-opacity:0.00" />
<ellipse cx="415.000000" cy="212.752976" rx="16.666667" ry="3.558583" fill="rgb(255, 255, 255)" style="fill-opacity:1.00" />
<rect height="5.337874" width="25.000000" x="415.000000" y="210.084039" fill="rgb(255, 255, 255)" style="fill-opacity:1.00" />
<!-- End 'C' -->
<!-- Begin 'A' -->
<polygon points=" 390.000000, 219.826486, 411.000000, 218.090850, 419.000000, 218.090850, 440.000000, 219.826486, 432.500000, 219.826486, 426.250000, 219.392577, 403.750000, 219.392577, 397.500000, 219.826486" fill="rgb(178, 34, 34)" style="fill-opacity:0.00" />
<!-- End 'A' -->
<!-- Begin 'G' -->
<ellipse cx="415.000000" cy="219.913243" rx="25.000000" ry="0.086757" fill="rgb(255, 165, 0)" style="fill-opacity:0.00" />
<ellipse cx="415.000000" cy="219.913243" rx="16.666667" ry="0.057838" fill="rgb(255, 255, 255)" style="fill-opacity:1.00" />
<rect height="0.086757" width="25.000000" x="415.000000" y="219.869865" fill="rgb(255, 255, 255)" style="fill-opacity:1.00" />
<rect height="0.021689" width="25.000000" x="415.000000" y="219.934932" fill="rgb(255, 165, 0)" style="fill-opacity:0.00" />
<rect height="0.065068" width="6.250000" x="433.750000" y="219.934932" fill="rgb(255, 165, 0)" style="fill-opacity:0.00" />
<!-- End 'G' -->
<!-- Begin 'T' -->
<rect height="10.367514" width="50.000000" x="390.000000" y="230.000000" fill="rgb(0, 100, 0)" style="fill-opacity:0.71" />
<rect height="64.796965" width="10.000000" x="410.000000" y="230.000000" fill="rgb(0, 100, 0)" style="fill-opacity:0.71" />
<!-- End 'T' -->
<!-- Begin 'C' -->
<ellipse cx="415.000000" cy="308.242004" rx="25.000000" ry="13.445039" fill="rgb(0, 0, 128)" style="fill-opacity:0.71" />
<ellipse cx="415.000000" cy="308.242004" rx="16.666667" ry="8.963359" fill="rgb(255, 255, 255)" style="fill-opacity:1.00" />
<rect height="13.445039" width="25.000000" x="415.000000" y="301.519484" fill="rgb(255, 255, 255)" style="fill-opacity:1.00" />
<!-- End 'C' -->
<!-- Begin 'G' -->
<ellipse cx="415.000000" cy="324.435656" rx="25.000000" ry="2.748613" fill="rgb(255, 165, 0)" style="fill-opacity:0.71" />
<ellipse cx="415.000000" cy="324.435656" rx="16.666667" ry="1.832409" fill="rgb(255, 255, 255)" style="fill-opacity:1.00" />
<rect height="2.748613" width="25.000000" x="415.000000" y="323.061350" fill="rgb(255, 255, 255)" style="fill-opacity:1.00" />
<rect height="0.687153" width="25.000000" x="415.000000" y="325.122810" fill="rgb(255, 165, 0)" style="fill-opacity:0.71" />
<rect height="2.061460" width="6.250000" x="433.750000" y="325.122810" fill="rgb(255, 165, 0)" style="fill-opacity:0.71" />
<!-- End 'G' -->
<!-- Begin 'A' -->
<polygon points=" 390.000000, 330.000000, 411.000000, 327.184270, 419.000000, 327.184270, 440.000000, 330.000000, 432.500000, 330.000000, 426.250000, 329.296067, 403.750000, 329.296067, 397.500000, 330.000000" fill="rgb(178, 34, 34)" style="fill-opacity:0.71" />
<!-- End 'A' -->
<!-- Begin 'C' -->
<ellipse cx="415.000000" cy="389.212794" rx="25.000000" ry="49.212794" fill="rgb(0, 0, 128)" style="fill-opacity:0.03" />
<ellipse cx="415.000000" cy="389.212794" rx="16.666667" ry="32.808529" fill="rgb(255, 255, 255)" style="fill-opacity:1.00" />
<rect height="49.212794" width="25.000000" x="415.000000" y="364.606397" fill="rgb(255, 255, 255)" style="fill-opacity:1.00" />
<!-- End 'C' -->
<!-- Begin 'T' -->
<rect height="0.189284" width="50.000000" x="390.000000" y="438.425587" fill="rgb(0, 100, 0)" style="fill-opacity:0.03" />
<rect height="1.183027" width="10.000000" x="410.000000" y="438.425587" fill="rgb(0, 100, 0)" style="fill-opacity:0.03" />
<!-- End 'T' -->
<!-- Begin 'A' -->
<polygon points=" 390.000000, 439.990263, 411.000000, 439.608614, 419.000000, 439.608614, 440.000000, 439.990263, 432.500000, 439.990263, 426.250000, 439.894850, 403.750000, 439.894850, 397.500000, 439.990263" fill="rgb(178, 34, 34)" style="fill-opacity:0.03" />
<!-- End 'A' -->
<!-- Begin 'G' -->
<ellipse cx="415.000000" cy="439.995131" rx="25.000000" ry="0.004869" fill="rgb(255, 165, 0)" style="fill-opacity:0.03" />
<ellipse cx="415.000000" cy="439.995131" rx="16.666667" ry="0.003246" fill="rgb(255, 255, 255)" style="fill-opacity:1.00" />
<rect height="0.004869" width="25.000000" x="415.000000" y="439.992697" fill="rgb(255, 255, 255)" style="fill-opacity:1.00" />
<rect height="0.001217" width="25.000000" x="415.000000" y="439.996348" fill="rgb(255, 165, 0)" style="fill-opacity:0.03" />
<rect height="0.003652" width="6.250000" x="433.750000" y="439.996348" fill="rgb(255, 165, 0)" style="fill-opacity:0.03" />
<!-- End 'G' -->
<!-- Begin 'C' -->
<ellipse cx="475.000000" cy="59.875895" rx="25.000000" ry="49.875895" fill="rgb(0, 0, 128)" style="fill-opacity:0.02" />
<ellipse cx="475.000000" cy="59.875895" rx="16.666667" ry="33.250597" fill="rgb(255, 255, 255)" style="fill-opacity:1.00" />
<rect height="49.875895" width="25.000000" x="475.000000" y="34.937947" fill="rgb(255, 255, 255)" style="fill-opacity:1.00" />
<!-- End 'C' -->
<!-- Begin 'T' -->
<rect height="0.035546" width="50.000000" x="450.000000" y="109.751790" fill="rgb(0, 100, 0)" style="fill-opacity:0.02" />
<rect height="0.222163" width="10.000000" x="470.000000" y="109.751790" fill="rgb(0, 100, 0)" style="fill-opacity:0.02" />
<!-- End 'T' -->
<!-- Begin 'A' -->
<polygon points=" 450.000000, 109.999365, 471.000000, 109.973953, 479.000000, 109.973953, 500.000000, 109.999365, 492.500000, 109.999365, 486.250000, 109.993012, 463.750000, 109.993012, 457.500000, 109.999365" fill="rgb(178, 34, 34)" style="fill-opacity:0.02" />
<!-- End 'A' -->
<!-- Begin 'G' -->
<ellipse cx="475.000000" cy="109.999683" rx="25.000000" ry="0.000317" fill="rgb(255, 165, 0)" style="fill-opacity:0.02" />
<ellipse cx="475.000000" cy="109.999683" rx="16.666667" ry="0.000212" fill="rgb(255, 255, 255)" style="fill-opacity:1.00" />
<rect height="0.000317" width="25.000000" x="475.000000" y="109.999524" fill="rgb(255, 255, 255)" style="fill-opacity:1.00" />
<rect height="0.000079" width="25.000000" x="475.000000" y="109.999762" fill="rgb(255, 165, 0)" style="fill-opacity:0.02" />
<rect height="0.000238" width="6.250000" x="493.750000" y="109.999762" fill="rgb(255, 165, 0)" style="fill-opacity:0.02" />
<!-- End 'G' -->
<!-- Begin 'C' -->
<ellipse cx="475.000000" cy="169.999927" rx="25.000000" ry="49.999927" fill="rgb(0, 0, 128)" style="fill-opacity:0.47" />
<ellipse cx="475.000000" cy="169.999927" rx="16.666667" ry="33.333285" fill="rgb(255, 255, 255)" style="fill-opacity:1.00" />
<rect height="49.999927" width="25.000000" x="475.000000" y="144.999964" fill="rgb(255, 255, 255)" style="fill-opacity:1.00" />
<!-- End 'C' -->
<!-- Begin 'T' -->
<rect height="0.000014" width="50.000000" x="450.000000" y="219.999855" fill="rgb(0, 100, 0)" style="fill-opacity:0.47" />
<rect height="0.000089" width="10.000000" x="470.000000" y="219.999855" fill="rgb(0, 100, 0)" style="fill-opacity:0.47" />
<!-- End 'T' -->
<!-- Begin 'A' -->
<polygon points=" 450.000000, 220.000000, 471.000000, 219.999944, 479.000000, 219.999944, 500.000000, 220.000000, 492.500000, 220.000000, 486.250000, 219.999986, 463.750000, 219.999986, 457.500000, 220.000000" fill="rgb(178, 34, 34)" style="fill-opacity:0.47" />
<!-- End 'A' -->
<!-- Begin 'G' -->
<ellipse cx="475.000000" cy="220.000000" rx="25.000000" ry="0.000000" fill="rgb(255, 165, 0)" style="fill-opacity:0.47" />
<ellipse cx="475.000000" cy="220.000000" rx="16.666667" ry="0.000000" fill="rgb(255, 255, 255)" style="fill-opacity:1.00" />
<rect height="0.000000" width="25.000000" x="475.000000" y="220.000000" fill="rgb(255, 255, 255)" style="fill-opacity:1.00" />
<rect height="0.000000" width="25.000000" x="475.000000" y="220.000000" fill="rgb(255, 165, 0)" style="fill-opacity:0.47" />
<rect height="0.000000" width="6.250000" x="493.750000" y="220.000000" fill="rgb(255, 165, 0)" style="fill-opacity:0.47" />
<!-- End 'G' -->
<!-- Begin 'C' -->
<ellipse cx="475.000000" cy="257.487732" rx="25.000000" ry="27.487732" fill="rgb(0, 0, 128)" style="fill-opacity:0.04" />
<ellipse cx="475.000000" cy="257.487732" rx="16.666667" ry="18.325155" fill="rgb(255, 255, 255)" style="fill-opacity:1.00" />
<rect height="27.487732" width="25.000000" x="475.000000" y="243.743866" fill="rgb(255, 255, 255)" style="fill-opacity:1.00" />
<!-- End 'C' -->
<!-- Begin 'T' -->
<rect height="6.880554" width="50.000000" x="450.000000" y="284.975464" fill="rgb(0, 100, 0)" style="fill-opacity:0.04" />
<rect height="43.003461" width="10.000000" x="470.000000" y="284.975464" fill="rgb(0, 100, 0)" style="fill-opacity:0.04" />
<!-- End 'T' -->
<!-- Begin 'A' -->
<polygon points=" 450.000000, 329.999972, 471.000000, 327.978925, 479.000000, 327.978925, 500.000000, 329.999972, 492.500000, 329.999972, 486.250000, 329.494710, 463.750000, 329.494710, 457.500000, 329.999972" fill="rgb(178, 34, 34)" style="fill-opacity:0.04" />
<!-- End 'A' -->
<!-- Begin 'G' -->
<ellipse cx="475.000000" cy="329.999986" rx="25.000000" ry="0.000014" fill="rgb(255, 165, 0)" style="fill-opacity:0.04" />
<ellipse cx="475.000000" cy="329.999986" rx="16.666667" ry="0.000009" fill="rgb(255, 255, 255)" style="fill-opacity:1.00" />
<rect height="0.000014" width="25.000000" x="475.000000" y="329.999979" fill="rgb(255, 255, 255)" style="fill-opacity:1.00" />
<rect height="0.000003" width="25.000000" x="475.000000" y="329.999990" fill="rgb(255, 165, 0)" style="fill-opacity:0.04" />
<rect height="0.000010" width="6.250000" x="493.750000" y="329.999990" fill="rgb(255, 165, 0)" style="fill-opacity:0.04" />
<!-- End 'G' -->
<!-- Begin 'C' -->
<ellipse cx="475.000000" cy="389.377684" rx="25.000000" ry="49.377684" fill="rgb(0, 0, 128)" style="fill-opacity:0.47" />
<ellipse cx="475.000000" cy="389.377684" rx="16.666667" ry="32.918456" fill="rgb(255, 255, 255)" style="fill-opacity:1.00" />
<rect height="49.377684" width="25.000000" x="475.000000" y="364.688842" fill="rgb(255, 255, 255)" style="fill-opacity:1.00" />
<!-- End 'C' -->
<!-- Begin 'T' -->
<rect height="0.126185" width="50.000000" x="450.000000" y="438.755368" fill="rgb(0, 100, 0)" style="fill-opacity:0.47" />
<rect height="0.788653" width="10.000000" x="470.000000" y="438.755368" fill="rgb(0, 100, 0)" style="fill-opacity:0.47" />
<!-- End 'T' -->
<!-- Begin 'G' -->
<ellipse cx="475.000000" cy="439.717068" rx="25.000000" ry="0.173046" fill="rgb(255, 165, 0)" style="fill-opacity:0.47" />
<ellipse cx="475.000000" cy="439.717068" rx="16.666667" ry="0.115364" fill="rgb(255, 255, 255)" style="fill-opacity:1.00" />
<rect height="0.173046" width="25.000000" x="475.000000" y="439.630545" fill="rgb(255, 255, 255)" style="fill-opacity:1.00" />
<rect height="0.043262" width="25.000000" x="475.000000" y="439.760329" fill="rgb(255, 165, 0)" style="fill-opacity:0.47" />
<rect height="0.129785" width="6.250000" x="493.750000" y="439.760329" fill="rgb(255, 165, 0)" style="fill-opacity:0.47" />
<!-- End 'G' -->
<!-- Begin 'A' -->
<polygon points=" 450.000000, 440.000000, 471.000000, 439.890114, 479.000000, 439.890114, 500.000000, 440.000000, 492.500000, 440.000000, 486.250000, 439.972528, 463.750000, 439.972528, 457.500000, 440.000000" fill="rgb(178, 34, 34)" style="fill-opacity:0.47" />
<!-- End 'A' -->
<!-- Begin 'G' -->
<ellipse cx="535.000000" cy="58.489612" rx="25.000000" ry="48.489612" fill="rgb(255, 165, 0)" style="fill-opacity:0.00" />
<ellipse cx="535.000000" cy="58.489612" rx="16.666667" ry="32.326408" fill="rgb(255, 255, 255)" style="fill-opacity:1.00" />
<rect height="48.489612" width="25.000000" x="535.000000" y="34.244806" fill="rgb(255, 255, 255)" style="fill-opacity:1.00" />
<rect height="12.122403" width="25.000000" x="535.000000" y="70.612015" fill="rgb(255, 165, 0)" style="fill-opacity:0.00" />
<rect height="36.367209" width="6.250000" x="553.750000" y="70.612015" fill="rgb(255, 165, 0)" style="fill-opacity:0.00" />
<!-- End 'G' -->
<!-- Begin 'T' -->
<rect height="0.306364" width="50.000000" x="510.000000" y="106.979224" fill="rgb(0, 100, 0)" style="fill-opacity:0.00" />
<rect height="1.914775" width="10.000000" x="530.000000" y="106.979224" fill="rgb(0, 100, 0)" style="fill-opacity:0.00" />
<!-- End 'T' -->
<!-- Begin 'A' -->
<polygon points=" 510.000000, 109.976678, 531.000000, 108.893999, 539.000000, 108.893999, 560.000000, 109.976678, 552.500000, 109.976678, 546.250000, 109.706008, 523.750000, 109.706008, 517.500000, 109.976678" fill="rgb(178, 34, 34)" style="fill-opacity:0.00" />
<!-- End 'A' -->
<!-- Begin 'C' -->
<ellipse cx="535.000000" cy="109.988339" rx="25.000000" ry="0.011661" fill="rgb(0, 0, 128)" style="fill-opacity:0.00" />
<ellipse cx="535.000000" cy="109.988339" rx="16.666667" ry="0.007774" fill="rgb(255, 255, 255)" style="fill-opacity:1.00" />
<rect height="0.011661" width="25.000000" x="535.000000" y="109.982508" fill="rgb(255, 255, 255)" style="fill-opacity:1.00" />
<!-- End 'C' -->
<!-- Begin 'G' -->
<ellipse cx="535.000000" cy="169.552670" rx="25.000000" ry="49.552670" fill="rgb(255, 165, 0)" style="fill-opacity:0.98" />
<ellipse cx="535.000000" cy="169.552670" rx="16.666667" ry="33.035113" fill="rgb(255, 255, 255)" style="fill-opacity:1.00" />
<rect height="49.552670" width="25.000000" x="535.000000" y="144.776335" fill="rgb(255, 255, 255)" style="fill-opacity:1.00" />
<rect height="12.388168" width="25.000000" x="535.000000" y="181.940838" fill="rgb(255, 165, 0)" style="fill-opacity:0.98" />
<rect height="37.164503" width="6.250000" x="553.750000" y="181.940838" fill="rgb(255, 165, 0)" style="fill-opacity:0.98" />
<!-- End 'G' -->
<!-- Begin 'A' -->
<polygon points=" 510.000000, 219.812311, 531.000000, 219.105340, 539.000000, 219.105340, 560.000000, 219.812311, 552.500000, 219.812311, 546.250000, 219.635569, 523.750000, 219.635569, 517.500000, 219.812311" fill="rgb(178, 34, 34)" style="fill-opacity:0.98" />
<!-- End 'A' -->
<!-- Begin 'T' -->
<rect height="0.028927" width="50.000000" x="510.000000" y="219.812311" fill="rgb(0, 100, 0)" style="fill-opacity:0.98" />
<rect height="0.180793" width="10.000000" x="530.000000" y="219.812311" fill="rgb(0, 100, 0)" style="fill-opacity:0.98" />
<!-- End 'T' -->
<!-- Begin 'C' -->
<ellipse cx="535.000000" cy="219.996552" rx="25.000000" ry="0.003448" fill="rgb(0, 0, 128)" style="fill-opacity:0.98" />
<ellipse cx="535.000000" cy="219.996552" rx="16.666667" ry="0.002298" fill="rgb(255, 255, 255)" style="fill-opacity:1.00" />
<rect height="0.003448" width="25.000000" x="535.000000" y="219.994829" fill="rgb(255, 255, 255)" style="fill-opacity:1.00" />
<!-- End 'C' -->
<!-- Begin 'G' -->
<ellipse cx="535.000000" cy="279.233429" rx="25.000000" ry="49.233429" fill="rgb(255, 165, 0)" style="fill-opacity:0.00" />
<ellipse cx="535.000000" cy="279.233429" rx="16.666667" ry="32.822286" fill="rgb(255, 255, 255)" style="fill-opacity:1.00" />
<rect height="49.233429" width="25.000000" x="535.000000" y="254.616715" fill="rgb(255, 255, 255)" style="fill-opacity:1.00" />
<rect height="12.308357" width="25.000000" x="535.000000" y="291.541787" fill="rgb(255, 165, 0)" style="fill-opacity:0.00" />
<rect height="36.925072" width="6.250000" x="553.750000" y="291.541787" fill="rgb(255, 165, 0)" style="fill-opacity:0.00" />
<!-- End 'G' -->
<!-- Begin 'T' -->
<rect height="0.239306" width="50.000000" x="510.000000" y="328.466859" fill="rgb(0, 100, 0)" style="fill-opacity:0.00" />
<rect height="1.495660" width="10.000000" x="530.000000" y="328.466859" fill="rgb(0, 100, 0)" style="fill-opacity:0.00" />
<!-- End 'T' -->
<!-- Begin 'A' -->
<polygon points=" 510.000000, 329.999818, 531.000000, 329.962519, 539.000000, 329.962519, 560.000000, 329.999818, 552.500000, 329.999818, 546.250000, 329.990493, 523.750000, 329.990493, 517.500000, 329.999818" fill="rgb(178, 34, 34)" style="fill-opacity:0.00" />
<!-- End 'A' -->
<!-- Begin 'C' -->
<ellipse cx="535.000000" cy="329.999909" rx="25.000000" ry="0.000091" fill="rgb(0, 0, 128)" style="fill-opacity:0.00" />
<ellipse cx="535.000000" cy="329.999909" rx="16.666667" ry="0.000061" fill="rgb(255, 255, 255)" style="fill-opacity:1.00" />
<rect height="0.000091" width="25.000000" x="535.000000" y="329.999864" fill="rgb(255, 255, 255)" style="fill-opacity:1.00" />
<!-- End 'C' -->
<!-- Begin 'G' -->
<ellipse cx="535.000000" cy="389.940086" rx="25.000000" ry="49.940086" fill="rgb(255, 165, 0)" style="fill-opacity:0.02" />
<ellipse cx="535.000000" cy="389.940086" rx="16.666667" ry="33.293391" fill="rgb(255, 255, 255)" style="fill-opacity:1.00" />
<rect height="49.940086" width="25.000000" x="535.000000" y="364.970043" fill="rgb(255, 255, 255)" style="fill-opacity:1.00" />
<rect height="12.485022" width="25.000000" x="535.000000" y="402.425108" fill="rgb(255, 165, 0)" style="fill-opacity:0.02" />
<rect height="37.455065" width="6.250000" x="553.750000" y="402.425108" fill="rgb(255, 165, 0)" style="fill-opacity:0.02" />
<!-- End 'G' -->
<!-- Begin 'T' -->
<rect height="0.016137" width="50.000000" x="510.000000" y="439.880173" fill="rgb(0, 100, 0)" style="fill-opacity:0.02" />
<rect height="0.100855" width="10.000000" x="530.000000" y="439.880173" fill="rgb(0, 100, 0)" style="fill-opacity:0.02" />
<!-- End 'T' -->
<!-- Begin 'A' -->
<polygon points=" 510.000000, 439.999706, 531.000000, 439.981028, 539.000000, 439.981028, 560.000000, 439.999706, 552.500000, 439.999706, 546.250000, 439.995037, 523.750000, 439.995037, 517.500000, 439.999706" fill="rgb(178, 34, 34)" style="fill-opacity:0.02" />
<!-- End 'A' -->
<!-- Begin 'C' -->
<ellipse cx="535.000000" cy="439.999853" rx="25.000000" ry="0.000147" fill="rgb(0, 0, 128)" style="fill-opacity:0.02" />
<ellipse cx="535.000000" cy="439.999853" rx="16.666667" ry="0.000098" fill="rgb(255, 255, 255)" style="fill-opacity:1.00" />
<rect height="0.000147" width="25.000000" x="535.000000" y="439.999780" fill="rgb(255, 255, 255)" style="fill-opacity:1.00" />
<!-- End 'C' -->
<!-- Begin 'C' -->
<ellipse cx="595.000000" cy="55.157506" rx="25.000000" ry="45.157506" fill="rgb(0, 0, 128)" style="fill-opacity:0.01" />
<ellipse cx="595.000000" cy="55.157506" rx="16.666667" ry="30.105004" fill="rgb(255, 255, 255)" style="fill-opacity:1.00" />
<rect height="45.157506" width="25.000000" x="595.000000" y="32.578753" fill="rgb(255, 255, 255)" style="fill-opacity:1.00" />
<!-- End 'C' -->
<!-- Begin 'A' -->
<polygon points=" 570.000000, 107.759937, 591.000000, 100.315013, 599.000000, 100.315013, 620.000000, 107.759937, 612.500000, 107.759937, 606.250000, 105.898706, 583.750000, 105.898706, 577.500000, 107.759937" fill="rgb(178, 34, 34)" style="fill-opacity:0.01" />
<!-- End 'A' -->
<!-- Begin 'G' -->
<ellipse cx="595.000000" cy="108.839079" rx="25.000000" ry="1.079142" fill="rgb(255, 165, 0)" style="fill-opacity:0.01" />
<ellipse cx="595.000000" cy="108.839079" rx="16.666667" ry="0.719428" fill="rgb(255, 255, 255)" style="fill-opacity:1.00" />
<rect height="1.079142" width="25.000000" x="595.000000" y="108.299508" fill="rgb(255, 255, 255)" style="fill-opacity:1.00" />
<rect height="0.269785" width="25.000000" x="595.000000" y="109.108864" fill="rgb(255, 165, 0)" style="fill-opacity:0.01" />
<rect height="0.809356" width="6.250000" x="613.750000" y="109.108864" fill="rgb(255, 165, 0)" style="fill-opacity:0.01" />
<!-- End 'G' -->
<!-- Begin 'T' -->
<rect height="0.013085" width="50.000000" x="570.000000" y="109.918220" fill="rgb(0, 100, 0)" style="fill-opacity:0.01" />
<rect height="0.081780" width="10.000000" x="590.000000" y="109.918220" fill="rgb(0, 100, 0)" style="fill-opacity:0.01" />
<!-- End 'T' -->
<!-- Begin 'A' -->
<polygon points=" 570.000000, 179.239781, 591.000000, 120.000000, 599.000000, 120.000000, 620.000000, 179.239781, 612.500000, 179.239781, 606.250000, 164.429836, 583.750000, 164.429836, 577.500000, 179.239781" fill="rgb(178, 34, 34)" style="fill-opacity:0.00" />
<polygon points=" 595.000000, 131.847956, 587.000000, 154.543869, 602.000000, 154.543869" fill="rgb(255, 255, 255)" style="fill-opacity:1.00" />
<!-- End 'A' -->
<!-- Begin 'G' -->
<ellipse cx="595.000000" cy="198.980600" rx="25.000000" ry="19.740819" fill="rgb(255, 165, 0)" style="fill-opacity:0.00" />
<ellipse cx="595.000000" cy="198.980600" rx="16.666667" ry="13.160546" fill="rgb(255, 255, 255)" style="fill-opacity:1.00" />
<rect height="19.740819" width="25.000000" x="595.000000" y="189.110191" fill="rgb(255, 255, 255)" style="fill-opacity:1.00" />
<rect height="4.935205" width="25.000000" x="595.000000" y="203.915805" fill="rgb(255, 165, 0)" style="fill-opacity:0.00" />
<rect height="14.805614" width="6.250000" x="613.750000" y="203.915805" fill="rgb(255, 165, 0)" style="fill-opacity:0.00" />
<!-- End 'G' -->
<!-- Begin 'T' -->
<rect height="0.195934" width="50.000000" x="570.000000" y="218.721419" fill="rgb(0, 100, 0)" style="fill-opacity:0.00" />
<rect height="1.224588" width="10.000000" x="590.000000" y="218.721419" fill="rgb(0, 100, 0)" style="fill-opacity:0.00" />
<!-- End 'T' -->
<!-- Begin 'C' -->
<ellipse cx="595.000000" cy="219.973004" rx="25.000000" ry="0.026996" fill="rgb(0, 0, 128)" style="fill-opacity:0.00" />
<ellipse cx="595.000000" cy="219.973004" rx="16.666667" ry="0.017998" fill="rgb(255, 255, 255)" style="fill-opacity:1.00" />
<rect height="0.026996" width="25.000000" x="595.000000" y="219.959505" fill="rgb(255, 255, 255)" style="fill-opacity:1.00" />
<!-- End 'C' -->
<!-- Begin 'G' -->
<ellipse cx="595.000000" cy="253.929388" rx="25.000000" ry="23.929388" fill="rgb(255, 165, 0)" style="fill-opacity:0.99" />
<ellipse cx="595.000000" cy="253.929388" rx="16.666667" ry="15.952925" fill="rgb(255, 255, 255)" style="fill-opacity:1.00" />
<rect height="23.929388" width="25.000000" x="595.000000" y="241.964694" fill="rgb(255, 255, 255)" style="fill-opacity:1.00" />
<rect height="5.982347" width="25.000000" x="595.000000" y="259.911735" fill="rgb(255, 165, 0)" style="fill-opacity:0.99" />
<rect height="17.947041" width="6.250000" x="613.750000" y="259.911735" fill="rgb(255, 165, 0)" style="fill-opacity:0.99" />
<!-- End 'G' -->
<!-- Begin 'A' -->
<polygon points=" 570.000000, 325.413329, 591.000000, 277.858776, 599.000000, 277.858776, 620.000000, 325.413329, 612.500000, 325.413329, 606.250000, 313.524691, 583.750000, 313.524691, 577.500000, 325.413329" fill="rgb(178, 34, 34)" style="fill-opacity:0.99" />
<polygon points=" 595.000000, 287.369686, 587.000000, 305.391508, 602.000000, 305.391508" fill="rgb(255, 255, 255)" style="fill-opacity:1.00" />
<!-- End 'A' -->
<!-- Begin 'T' -->
<rect height="0.375059" width="50.000000" x="570.000000" y="325.413329" fill="rgb(0, 100, 0)" style="fill-opacity:0.99" />
<rect height="2.344116" width="10.000000" x="590.000000" y="325.413329" fill="rgb(0, 100, 0)" style="fill-opacity:0.99" />
<!-- End 'T' -->
<!-- Begin 'C' -->
<ellipse cx="595.000000" cy="328.878722" rx="25.000000" ry="1.121278" fill="rgb(0, 0, 128)" style="fill-opacity:0.99" />
<ellipse cx="595.000000" cy="328.878722" rx="16.666667" ry="0.747518" fill="rgb(255, 255, 255)" style="fill-opacity:1.00" />
<rect height="1.121278" width="25.000000" x="595.000000" y="328.318084" fill="rgb(255, 255, 255)" style="fill-opacity:1.00" />
<!-- End 'C' -->
<!-- Begin 'C' -->
<ellipse cx="595.000000" cy="385.118455" rx="25.000000" ry="45.118455" fill="rgb(0, 0, 128)" style="fill-opacity:0.00" />
<ellipse cx="595.000000" cy="385.118455" rx="16.666667" ry="30.078970" fill="rgb(255, 255, 255)" style="fill-opacity:1.00" />
<rect height="45.118455" width="25.000000" x="595.000000" y="362.559228" fill="rgb(255, 255, 255)" style="fill-opacity:1.00" />
<!-- End 'C' -->
<!-- Begin 'A' -->
<polygon points=" 570.000000, 434.876827, 591.000000, 430.236911, 599.000000, 430.236911, 620.000000, 434.876827, 612.500000, 434.876827, 606.250000, 433.716848, 583.750000, 433.716848, 577.500000, 434.876827" fill="rgb(178, 34, 34)" style="fill-opacity:0.00" />
<!-- End 'A' -->
<!-- Begin 'G' -->
<ellipse cx="595.000000" cy="437.036632" rx="25.000000" ry="2.159804" fill="rgb(255, 165, 0)" style="fill-opacity:0.00" />
<ellipse cx="595.000000" cy="437.036632" rx="16.666667" ry="1.439869" fill="rgb(255, 255, 255)" style="fill-opacity:1.00" />
<rect height="2.159804" width="25.000000" x="595.000000" y="435.956730" fill="rgb(255, 255, 255)" style="fill-opacity:1.00" />
<rect height="0.539951" width="25.000000" x="595.000000" y="437.576583" fill="rgb(255, 165, 0)" style="fill-opacity:0.00" />
<rect height="1.619853" width="6.250000" x="613.750000" y="437.576583" fill="rgb(255, 165, 0)" style="fill-opacity:0.00" />
<!-- End 'G' -->
<!-- Begin 'T' -->
<rect height="0.128570" width="50.000000" x="570.000000" y="439.196436" fill="rgb(0, 100, 0)" style="fill-opacity:0.00" />
<rect height="0.803564" width="10.000000" x="590.000000" y="439.196436" fill="rgb(0, 100, 0)" style="fill-opacity:0.00" />
<!-- End 'T' -->
<!-- Begin 'C' -->
<ellipse cx="655.000000" cy="59.037198" rx="25.000000" ry="49.037198" fill="rgb(0, 0, 128)" style="fill-opacity:0.47" />
<ellipse cx="655.000000" cy="59.037198" rx="16.666667" ry="32.691465" fill="rgb(255, 255, 255)" style="fill-opacity:1.00" />
<rect height="49.037198" width="25.000000" x="655.000000" y="34.518599" fill="rgb(255, 255, 255)" style="fill-opacity:1.00" />
<!-- End 'C' -->
<!-- Begin 'T' -->
<rect height="0.307250" width="50.000000" x="630.000000" y="108.074396" fill="rgb(0, 100, 0)" style="fill-opacity:0.47" />
<rect height="1.920316" width="10.000000" x="650.000000" y="108.074396" fill="rgb(0, 100, 0)" style="fill-opacity:0.47" />
<!-- End 'T' -->
<!-- Begin 'A' -->
<polygon points=" 630.000000, 109.997990, 651.000000, 109.994712, 659.000000, 109.994712, 680.000000, 109.997990, 672.500000, 109.997990, 666.250000, 109.997170, 643.750000, 109.997170, 637.500000, 109.997990" fill="rgb(178, 34, 34)" style="fill-opacity:0.47" />
<!-- End 'A' -->
<!-- Begin 'G' -->
<ellipse cx="655.000000" cy="109.998995" rx="25.000000" ry="0.001005" fill="rgb(255, 165, 0)" style="fill-opacity:0.47" />
<ellipse cx="655.000000" cy="109.998995" rx="16.666667" ry="0.000670" fill="rgb(255, 255, 255)" style="fill-opacity:1.00" />
<rect height="0.001005" width="25.000000" x="655.000000" y="109.998492" fill="rgb(255, 255, 255)" style="fill-opacity:1.00" />
<rect height="0.000251" width="25.000000" x="655.000000" y="109.999246" fill="rgb(255, 165, 0)" style="fill-opacity:0.47" />
<rect height="0.000754" width="6.250000" x="673.750000" y="109.999246" fill="rgb(255, 165, 0)" style="fill-opacity:0.47" />
<!-- End 'G' -->
<!-- Begin 'C' -->
<ellipse cx="655.000000" cy="168.331473" rx="25.000000" ry="48.331473" fill="rgb(0, 0, 128)" style="fill-opacity:0.03" />
<ellipse cx="655.000000" cy="168.331473" rx="16.666667" ry="32.220982" fill="rgb(255, 255, 255)" style="fill-opacity:1.00" />
<rect height="48.331473" width="25.000000" x="655.000000" y="144.165736" fill="rgb(255, 255, 255)" style="fill-opacity:1.00" />
<!-- End 'C' -->
<!-- Begin 'T' -->
<rect height="0.529882" width="50.000000" x="630.000000" y="216.662945" fill="rgb(0, 100, 0)" style="fill-opacity:0.03" />
<rect height="3.311761" width="10.000000" x="650.000000" y="216.662945" fill="rgb(0, 100, 0)" style="fill-opacity:0.03" />
<!-- End 'T' -->
<!-- Begin 'A' -->
<polygon points=" 630.000000, 219.999900, 651.000000, 219.974706, 659.000000, 219.974706, 680.000000, 219.999900, 672.500000, 219.999900, 666.250000, 219.993602, 643.750000, 219.993602, 637.500000, 219.999900" fill="rgb(178, 34, 34)" style="fill-opacity:0.03" />
<!-- End 'A' -->
<!-- Begin 'G' -->
<ellipse cx="655.000000" cy="219.999950" rx="25.000000" ry="0.000050" fill="rgb(255, 165, 0)" style="fill-opacity:0.03" />
<ellipse cx="655.000000" cy="219.999950" rx="16.666667" ry="0.000033" fill="rgb(255, 255, 255)" style="fill-opacity:1.00" />
<rect height="0.000050" width="25.000000" x="655.000000" y="219.999925" fill="rgb(255, 255, 255)" style="fill-opacity:1.00" />
<rect height="0.000013" width="25.000000" x="655.000000" y="219.999962" fill="rgb(255, 165, 0)" style="fill-opacity:0.03" />
<rect height="0.000038" width="6.250000" x="673.750000" y="219.999962" fill="rgb(255, 165, 0)" style="fill-opacity:0.03" />
<!-- End 'G' -->
<!-- Begin 'T' -->
<rect height="8.187219" width="50.000000" x="630.000000" y="230.000000" fill="rgb(0, 100, 0)" style="fill-opacity:0.47" />
<rect height="51.170118" width="10.000000" x="650.000000" y="230.000000" fill="rgb(0, 100, 0)" style="fill-opacity:0.47" />
<!-- End 'T' -->
<!-- Begin 'C' -->
<ellipse cx="655.000000" cy="301.811304" rx="25.000000" ry="20.641186" fill="rgb(0, 0, 128)" style="fill-opacity:0.47" />
<ellipse cx="655.000000" cy="301.811304" rx="16.666667" ry="13.760791" fill="rgb(255, 255, 255)" style="fill-opacity:1.00" />
<rect height="20.641186" width="25.000000" x="655.000000" y="291.490711" fill="rgb(255, 255, 255)" style="fill-opacity:1.00" />
<!-- End 'C' -->
<!-- Begin 'A' -->
<polygon points=" 630.000000, 329.355486, 651.000000, 322.452490, 659.000000, 322.452490, 680.000000, 329.355486, 672.500000, 329.355486, 666.250000, 327.629737, 643.750000, 327.629737, 637.500000, 329.355486" fill="rgb(178, 34, 34)" style="fill-opacity:0.47" />
<!-- End 'A' -->
<!-- Begin 'G' -->
<ellipse cx="655.000000" cy="329.677743" rx="25.000000" ry="0.322257" fill="rgb(255, 165, 0)" style="fill-opacity:0.47" />
<ellipse cx="655.000000" cy="329.677743" rx="16.666667" ry="0.214838" fill="rgb(255, 255, 255)" style="fill-opacity:1.00" />
<rect height="0.322257" width="25.000000" x="655.000000" y="329.516614" fill="rgb(255, 255, 255)" style="fill-opacity:1.00" />
<rect height="0.080564" width="25.000000" x="655.000000" y="329.758307" fill="rgb(255, 165, 0)" style="fill-opacity:0.47" />
<rect height="0.241693" width="6.250000" x="673.750000" y="329.758307" fill="rgb(255, 165, 0)" style="fill-opacity:0.47" />
<!-- End 'G' -->
<!-- Begin 'C' -->
<ellipse cx="655.000000" cy="375.984971" rx="25.000000" ry="35.984971" fill="rgb(0, 0, 128)" style="fill-opacity:0.02" />
<ellipse cx="655.000000" cy="375.984971" rx="16.666667" ry="23.989981" fill="rgb(255, 255, 255)" style="fill-opacity:1.00" />
<rect height="35.984971" width="25.000000" x="655.000000" y="357.992486" fill="rgb(255, 255, 255)" style="fill-opacity:1.00" />
<!-- End 'C' -->
<!-- Begin 'T' -->
<rect height="4.448607" width="50.000000" x="630.000000" y="411.969943" fill="rgb(0, 100, 0)" style="fill-opacity:0.02" />
<rect height="27.803793" width="10.000000" x="650.000000" y="411.969943" fill="rgb(0, 100, 0)" style="fill-opacity:0.02" />
<!-- End 'T' -->
<!-- Begin 'A' -->
<polygon points=" 630.000000, 439.947863, 651.000000, 439.773736, 659.000000, 439.773736, 680.000000, 439.947863, 672.500000, 439.947863, 666.250000, 439.904331, 643.750000, 439.904331, 637.500000, 439.947863" fill="rgb(178, 34, 34)" style="fill-opacity:0.02" />
<!-- End 'A' -->
<!-- Begin 'G' -->
<ellipse cx="655.000000" cy="439.973931" rx="25.000000" ry="0.026069" fill="rgb(255, 165, 0)" style="fill-opacity:0.02" />
<ellipse cx="655.000000" cy="439.973931" rx="16.666667" ry="0.017379" fill="rgb(255, 255, 255)" style="fill-opacity:1.00" />
<rect height="0.026069" width="25.000000" x="655.000000" y="439.960897" fill="rgb(255, 255, 255)" style="fill-opacity:1.00" />
<rect height="0.006517" width="25.000000" x="655.000000" y="439.980449" fill="rgb(255, 165, 0)" style="fill-opacity:0.02" />
<rect height="0.019551" width="6.250000" x="673.750000" y="439.980449" fill="rgb(255, 165, 0)" style="fill-opacity:0.02" />
<!-- End 'G' -->
<!-- Begin 'G' -->
<ellipse cx="715.000000" cy="47.705531" rx="25.000000" ry="37.705531" fill="rgb(255, 165, 0)" style="fill-opacity:0.03" />
<ellipse cx="715.000000" cy="47.705531" rx="16.666667" ry="25.137020" fill="rgb(255, 255, 255)" style="fill-opacity:1.00" />
<rect height="37.705531" width="25.000000" x="715.000000" y="28.852765" fill="rgb(255, 255, 255)" style="fill-opacity:1.00" />
<rect height="9.426383" width="25.000000" x="715.000000" y="57.131913" fill="rgb(255, 165, 0)" style="fill-opacity:0.03" />
<rect height="28.279148" width="6.250000" x="733.750000" y="57.131913" fill="rgb(255, 165, 0)" style="fill-opacity:0.03" />
<!-- End 'G' -->
<!-- Begin 'A' -->
<polygon points=" 690.000000, 106.267660, 711.000000, 85.411061, 719.000000, 85.411061, 740.000000, 106.267660, 732.500000, 106.267660, 726.250000, 101.053510, 703.750000, 101.053510, 697.500000, 106.267660" fill="rgb(178, 34, 34)" style="fill-opacity:0.03" />
<polygon points=" 715.000000, 89.582381, 707.000000, 96.925020, 722.000000, 96.925020" fill="rgb(255, 255, 255)" style="fill-opacity:1.00" />
<!-- End 'A' -->
<!-- Begin 'C' -->
<ellipse cx="715.000000" cy="107.890131" rx="25.000000" ry="1.622471" fill="rgb(0, 0, 128)" style="fill-opacity:0.03" />
<ellipse cx="715.000000" cy="107.890131" rx="16.666667" ry="1.081648" fill="rgb(255, 255, 255)" style="fill-opacity:1.00" />
<rect height="1.622471" width="25.000000" x="715.000000" y="107.078895" fill="rgb(255, 255, 255)" style="fill-opacity:1.00" />
<!-- End 'C' -->
<!-- Begin 'T' -->
<rect height="0.077984" width="50.000000" x="690.000000" y="109.512602" fill="rgb(0, 100, 0)" style="fill-opacity:0.03" />
<rect height="0.487398" width="10.000000" x="710.000000" y="109.512602" fill="rgb(0, 100, 0)" style="fill-opacity:0.03" />
<!-- End 'T' -->
<!-- Begin 'A' -->
<polygon points=" 690.000000, 165.444761, 711.000000, 120.000000, 719.000000, 120.000000, 740.000000, 165.444761, 732.500000, 165.444761, 726.250000, 154.083571, 703.750000, 154.083571, 697.500000, 165.444761" fill="rgb(178, 34, 34)" style="fill-opacity:0.70" />
<polygon points=" 715.000000, 129.088952, 707.000000, 146.266857, 722.000000, 146.266857" fill="rgb(255, 255, 255)" style="fill-opacity:1.00" />
<!-- End 'A' -->
<!-- Begin 'G' -->
<ellipse cx="715.000000" cy="178.124729" rx="25.000000" ry="12.679967" fill="rgb(255, 165, 0)" style="fill-opacity:0.70" />
<ellipse cx="715.000000" cy="178.124729" rx="16.666667" ry="8.453312" fill="rgb(255, 255, 255)" style="fill-opacity:1.00" />
<rect height="12.679967" width="25.000000" x="715.000000" y="171.784745" fill="rgb(255, 255, 255)" style="fill-opacity:1.00" />
<rect height="3.169992" width="25.000000" x="715.000000" y="181.294721" fill="rgb(255, 165, 0)" style="fill-opacity:0.70" />
<rect height="9.509976" width="6.250000" x="733.750000" y="181.294721" fill="rgb(255, 165, 0)" style="fill-opacity:0.70" />
<!-- End 'G' -->
<!-- Begin 'T' -->
<rect height="2.467559" width="50.000000" x="690.000000" y="190.804696" fill="rgb(0, 100, 0)" style="fill-opacity:0.70" />
<rect height="15.422242" width="10.000000" x="710.000000" y="190.804696" fill="rgb(0, 100, 0)" style="fill-opacity:0.70" />
<!-- End 'T' -->
<!-- Begin 'C' -->
<ellipse cx="715.000000" cy="213.113469" rx="25.000000" ry="6.886531" fill="rgb(0, 0, 128)" style="fill-opacity:0.70" />
<ellipse cx="715.000000" cy="213.113469" rx="16.666667" ry="4.591021" fill="rgb(255, 255, 255)" style="fill-opacity:1.00" />
<rect height="6.886531" width="25.000000" x="715.000000" y="209.670203" fill="rgb(255, 255, 255)" style="fill-opacity:1.00" />
<!-- End 'C' -->
<!-- Begin 'A' -->
<polygon points=" 690.000000, 292.849778, 711.000000, 230.000000, 719.000000, 230.000000, 740.000000, 292.849778, 732.500000, 292.849778, 726.250000, 277.137333, 703.750000, 277.137333, 697.500000, 292.849778" fill="rgb(178, 34, 34)" style="fill-opacity:0.00" />
<polygon points=" 715.000000, 242.569956, 707.000000, 266.709867, 722.000000, 266.709867" fill="rgb(255, 255, 255)" style="fill-opacity:1.00" />
<!-- End 'A' -->
<!-- Begin 'G' -->
<ellipse cx="715.000000" cy="306.455482" rx="25.000000" ry="13.605704" fill="rgb(255, 165, 0)" style="fill-opacity:0.00" />
<ellipse cx="715.000000" cy="306.455482" rx="16.666667" ry="9.070469" fill="rgb(255, 255, 255)" style="fill-opacity:1.00" />
<rect height="13.605704" width="25.000000" x="715.000000" y="299.652630" fill="rgb(255, 255, 255)" style="fill-opacity:1.00" />
<rect height="3.401426" width="25.000000" x="715.000000" y="309.856908" fill="rgb(255, 165, 0)" style="fill-opacity:0.00" />
<rect height="10.204278" width="6.250000" x="733.750000" y="309.856908" fill="rgb(255, 165, 0)" style="fill-opacity:0.00" />
<!-- End 'G' -->
<!-- Begin 'C' -->
<ellipse cx="715.000000" cy="323.652281" rx="25.000000" ry="3.591095" fill="rgb(0, 0, 128)" style="fill-opacity:0.00" />
<ellipse cx="715.000000" cy="323.652281" rx="16.666667" ry="2.394064" fill="rgb(255, 255, 255)" style="fill-opacity:1.00" />
<rect height="3.591095" width="25.000000" x="715.000000" y="321.856733" fill="rgb(255, 255, 255)" style="fill-opacity:1.00" />
<!-- End 'C' -->
<!-- Begin 'T' -->
<rect height="0.441060" width="50.000000" x="690.000000" y="327.243376" fill="rgb(0, 100, 0)" style="fill-opacity:0.00" />
<rect height="2.756624" width="10.000000" x="710.000000" y="327.243376" fill="rgb(0, 100, 0)" style="fill-opacity:0.00" />
<!-- End 'T' -->
<!-- Begin 'G' -->
<ellipse cx="715.000000" cy="360.966203" rx="25.000000" ry="20.966203" fill="rgb(255, 165, 0)" style="fill-opacity:0.26" />
<ellipse cx="715.000000" cy="360.966203" rx="16.666667" ry="13.977468" fill="rgb(255, 255, 255)" style="fill-opacity:1.00" />
<rect height="20.966203" width="25.000000" x="715.000000" y="350.483101" fill="rgb(255, 255, 255)" style="fill-opacity:1.00" />
<rect height="5.241551" width="25.000000" x="715.000000" y="366.207753" fill="rgb(255, 165, 0)" style="fill-opacity:0.26" />
<rect height="15.724652" width="6.250000" x="733.750000" y="366.207753" fill="rgb(255, 165, 0)" style="fill-opacity:0.26" />
<!-- End 'G' -->
<!-- Begin 'A' -->
<polygon points=" 690.000000, 409.479749, 711.000000, 381.932405, 719.000000, 381.932405, 740.000000, 409.479749, 732.500000, 409.479749, 726.250000, 402.592913, 703.750000, 402.592913, 697.500000, 409.479749" fill="rgb(178, 34, 34)" style="fill-opacity:0.26" />
<polygon points=" 715.000000, 387.441874, 707.000000, 397.460811, 722.000000, 397.460811" fill="rgb(255, 255, 255)" style="fill-opacity:1.00" />
<!-- End 'A' -->
<!-- Begin 'T' -->
<rect height="2.551523" width="50.000000" x="690.000000" y="409.479749" fill="rgb(0, 100, 0)" style="fill-opacity:0.26" />
<rect height="15.947022" width="10.000000" x="710.000000" y="409.479749" fill="rgb(0, 100, 0)" style="fill-opacity:0.26" />
<!-- End 'T' -->
<!-- Begin 'C' -->
<ellipse cx="715.000000" cy="432.713385" rx="25.000000" ry="7.286615" fill="rgb(0, 0, 128)" style="fill-opacity:0.26" />
<ellipse cx="715.000000" cy="432.713385" rx="16.666667" ry="4.857743" fill="rgb(255, 255, 255)" style="fill-opacity:1.00" />
<rect height="7.286615" width="25.000000" x="715.000000" y="429.070078" fill="rgb(255, 255, 255)" style="fill-opacity:1.00" />
<!-- End 'C' -->
<!-- Begin 'T' -->
<rect height="5.537364" width="50.000000" x="750.000000" y="10.000000" fill="rgb(0, 100, 0)" style="fill-opacity:0.40" />
<rect height="34.608528" width="10.000000" x="770.000000" y="10.000000" fill="rgb(0, 100, 0)" style="fill-opacity:0.40" />
<!-- End 'T' -->
<!-- Begin 'A' -->
<polygon points=" 750.000000, 78.151837, 771.000000, 44.608528, 779.000000, 44.608528, 800.000000, 78.151837, 792.500000, 78.151837, 786.250000, 69.766010, 763.750000, 69.766010, 757.500000, 78.151837" fill="rgb(178, 34, 34)" style="fill-opacity:0.40" />
<polygon points=" 775.000000, 51.317190, 767.000000, 63.734513, 782.000000, 63.734513" fill="rgb(255, 255, 255)" style="fill-opacity:1.00" />
<!-- End 'A' -->
<!-- Begin 'C' -->
<ellipse cx="775.000000" cy="87.154435" rx="25.000000" ry="9.002598" fill="rgb(0, 0, 128)" style="fill-opacity:0.40" />
<ellipse cx="775.000000" cy="87.154435" rx="16.666667" ry="6.001732" fill="rgb(255, 255, 255)" style="fill-opacity:1.00" />
<rect height="9.002598" width="25.000000" x="775.000000" y="82.653136" fill="rgb(255, 255, 255)" style="fill-opacity:1.00" />
<!-- End 'C' -->
<!-- Begin 'G' -->
<ellipse cx="775.000000" cy="103.078516" rx="25.000000" ry="6.921484" fill="rgb(255, 165, 0)" style="fill-opacity:0.40" />
<ellipse cx="775.000000" cy="103.078516" rx="16.666667" ry="4.614322" fill="rgb(255, 255, 255)" style="fill-opacity:1.00" />
<rect height="6.921484" width="25.000000" x="775.000000" y="99.617775" fill="rgb(255, 255, 255)" style="fill-opacity:1.00" />
<rect height="1.730371" width="25.000000" x="775.000000" y="104.808887" fill="rgb(255, 165, 0)" style="fill-opacity:0.40" />
<rect height="5.191113" width="6.250000" x="793.750000" y="104.808887" fill="rgb(255, 165, 0)" style="fill-opacity:0.40" />
<!-- End 'G' -->
<!-- Begin 'A' -->
<polygon points=" 750.000000, 170.082922, 771.000000, 120.000000, 779.000000, 120.000000, 800.000000, 170.082922, 792.500000, 170.082922, 786.250000, 157.562191, 763.750000, 157.562191, 757.500000, 170.082922" fill="rgb(178, 34, 34)" style="fill-opacity:0.14" />
<polygon points=" 775.000000, 130.016584, 767.000000, 149.049753, 782.000000, 149.049753" fill="rgb(255, 255, 255)" style="fill-opacity:1.00" />
<!-- End 'A' -->
<!-- Begin 'T' -->
<rect height="4.442897" width="50.000000" x="750.000000" y="170.082922" fill="rgb(0, 100, 0)" style="fill-opacity:0.14" />
<rect height="27.768108" width="10.000000" x="770.000000" y="170.082922" fill="rgb(0, 100, 0)" style="fill-opacity:0.14" />
<!-- End 'T' -->
<!-- Begin 'G' -->
<ellipse cx="775.000000" cy="204.766655" rx="25.000000" ry="6.915626" fill="rgb(255, 165, 0)" style="fill-opacity:0.14" />
<ellipse cx="775.000000" cy="204.766655" rx="16.666667" ry="4.610417" fill="rgb(255, 255, 255)" style="fill-opacity:1.00" />
<rect height="6.915626" width="25.000000" x="775.000000" y="201.308843" fill="rgb(255, 255, 255)" style="fill-opacity:1.00" />
<rect height="1.728906" width="25.000000" x="775.000000" y="206.495562" fill="rgb(255, 165, 0)" style="fill-opacity:0.14" />
<rect height="5.186719" width="6.250000" x="793.750000" y="206.495562" fill="rgb(255, 165, 0)" style="fill-opacity:0.14" />
<!-- End 'G' -->
<!-- Begin 'C' -->
<ellipse cx="775.000000" cy="215.841141" rx="25.000000" ry="4.158859" fill="rgb(0, 0, 128)" style="fill-opacity:0.14" />
<ellipse cx="775.000000" cy="215.841141" rx="16.666667" ry="2.772573" fill="rgb(255, 255, 255)" style="fill-opacity:1.00" />
<rect height="4.158859" width="25.000000" x="775.000000" y="213.761711" fill="rgb(255, 255, 255)" style="fill-opacity:1.00" />
<!-- End 'C' -->
<!-- Begin 'A' -->
<polygon points=" 750.000000, 268.941841, 771.000000, 230.000000, 779.000000, 230.000000, 800.000000, 268.941841, 792.500000, 268.941841, 786.250000, 259.206381, 763.750000, 259.206381, 757.500000, 268.941841" fill="rgb(178, 34, 34)" style="fill-opacity:0.31" />
<polygon points=" 775.000000, 237.788368, 767.000000, 252.365105, 782.000000, 252.365105" fill="rgb(255, 255, 255)" style="fill-opacity:1.00" />
<!-- End 'A' -->
<!-- Begin 'T' -->
<rect height="4.034919" width="50.000000" x="750.000000" y="268.941841" fill="rgb(0, 100, 0)" style="fill-opacity:0.31" />
<rect height="25.218246" width="10.000000" x="770.000000" y="268.941841" fill="rgb(0, 100, 0)" style="fill-opacity:0.31" />
<!-- End 'T' -->
<!-- Begin 'G' -->
<ellipse cx="775.000000" cy="306.041838" rx="25.000000" ry="11.881751" fill="rgb(255, 165, 0)" style="fill-opacity:0.31" />
<ellipse cx="775.000000" cy="306.041838" rx="16.666667" ry="7.921168" fill="rgb(255, 255, 255)" style="fill-opacity:1.00" />
<rect height="11.881751" width="25.000000" x="775.000000" y="300.100962" fill="rgb(255, 255, 255)" style="fill-opacity:1.00" />
<rect height="2.970438" width="25.000000" x="775.000000" y="309.012276" fill="rgb(255, 165, 0)" style="fill-opacity:0.31" />
<rect height="8.911313" width="6.250000" x="793.750000" y="309.012276" fill="rgb(255, 165, 0)" style="fill-opacity:0.31" />
<!-- End 'G' -->
<!-- Begin 'C' -->
<ellipse cx="775.000000" cy="323.961795" rx="25.000000" ry="6.038205" fill="rgb(0, 0, 128)" style="fill-opacity:0.31" />
<ellipse cx="775.000000" cy="323.961795" rx="16.666667" ry="4.025470" fill="rgb(255, 255, 255)" style="fill-opacity:1.00" />
<rect height="6.038205" width="25.000000" x="775.000000" y="320.942692" fill="rgb(255, 255, 255)" style="fill-opacity:1.00" />
<!-- End 'C' -->
<!-- Begin 'T' -->
<rect height="6.290462" width="50.000000" x="750.000000" y="340.000000" fill="rgb(0, 100, 0)" style="fill-opacity:0.15" />
<rect height="39.315390" width="10.000000" x="770.000000" y="340.000000" fill="rgb(0, 100, 0)" style="fill-opacity:0.15" />
<!-- End 'T' -->
<!-- Begin 'A' -->
<polygon points=" 750.000000, 405.616419, 771.000000, 379.315390, 779.000000, 379.315390, 800.000000, 405.616419, 792.500000, 405.616419, 786.250000, 399.041162, 763.750000, 399.041162, 757.500000, 405.616419" fill="rgb(178, 34, 34)" style="fill-opacity:0.15" />
<polygon points=" 775.000000, 384.575596, 767.000000, 394.096007, 782.000000, 394.096007" fill="rgb(255, 255, 255)" style="fill-opacity:1.00" />
<!-- End 'A' -->
<!-- Begin 'C' -->
<ellipse cx="775.000000" cy="414.616239" rx="25.000000" ry="8.999820" fill="rgb(0, 0, 128)" style="fill-opacity:0.15" />
<ellipse cx="775.000000" cy="414.616239" rx="16.666667" ry="5.999880" fill="rgb(255, 255, 255)" style="fill-opacity:1.00" />
<rect height="8.999820" width="25.000000" x="775.000000" y="410.116329" fill="rgb(255, 255, 255)" style="fill-opacity:1.00" />
<!-- End 'C' -->
<!-- Begin 'G' -->
<ellipse cx="775.000000" cy="431.808029" rx="25.000000" ry="8.191971" fill="rgb(255, 165, 0)" style="fill-opacity:0.15" />
<ellipse cx="775.000000" cy="431.808029" rx="16.666667" ry="5.461314" fill="rgb(255, 255, 255)" style="fill-opacity:1.00" />
<rect height="8.191971" width="25.000000" x="775.000000" y="427.712044" fill="rgb(255, 255, 255)" style="fill-opacity:1.00" />
<rect height="2.047993" width="25.000000" x="775.000000" y="433.856022" fill="rgb(255, 165, 0)" style="fill-opacity:0.15" />
<rect height="6.143978" width="6.250000" x="793.750000" y="433.856022" fill="rgb(255, 165, 0)" style="fill-opacity:0.15" />
<!-- End 'G' -->
<!-- Begin 'A' -->
<polygon points=" 810.000000, 45.890697, 831.000000, 10.000000, 839.000000, 10.000000, 860.000000, 45.890697, 852.500000, 45.890697, 846.250000, 36.918022, 823.750000, 36.918022, 817.500000, 45.890697" fill="rgb(178, 34, 34)" style="fill-opacity:0.36" />
<polygon points=" 835.000000, 17.178139, 827.000000, 30.534418, 842.000000, 30.534418" fill="rgb(255, 255, 255)" style="fill-opacity:1.00" />
<!-- End 'A' -->
<!-- Begin 'T' -->
<rect height="3.668080" width="50.000000" x="810.000000" y="45.890697" fill="rgb(0, 100, 0)" style="fill-opacity:0.36" />
<rect height="22.925498" width="10.000000" x="830.000000" y="45.890697" fill="rgb(0, 100, 0)" style="fill-opacity:0.36" />
<!-- End 'T' -->
<!-- Begin 'C' -->
<ellipse cx="835.000000" cy="79.742828" rx="25.000000" ry="10.926634" fill="rgb(0, 0, 128)" style="fill-opacity:0.36" />
<ellipse cx="835.000000" cy="79.742828" rx="16.666667" ry="7.284423" fill="rgb(255, 255, 255)" style="fill-opacity:1.00" />
<rect height="10.926634" width="25.000000" x="835.000000" y="74.279511" fill="rgb(255, 255, 255)" style="fill-opacity:1.00" />
<!-- End 'C' -->
<!-- Begin 'G' -->
<ellipse cx="835.000000" cy="100.334731" rx="25.000000" ry="9.665269" fill="rgb(255, 165, 0)" style="fill-opacity:0.36" />
<ellipse cx="835.000000" cy="100.334731" rx="16.666667" ry="6.443513" fill="rgb(255, 255, 255)" style="fill-opacity:1.00" />
<rect height="9.665269" width="25.000000" x="835.000000" y="95.502097" fill="rgb(255, 255, 255)" style="fill-opacity:1.00" />
<rect height="2.416317" width="25.000000" x="835.000000" y="102.751048" fill="rgb(255, 165, 0)" style="fill-opacity:0.36" />
<rect height="7.248952" width="6.250000" x="853.750000" y="102.751048" fill="rgb(255, 165, 0)" style="fill-opacity:0.36" />
<!-- End 'G' -->
<!-- Begin 'A' -->
<polygon points=" 810.000000, 153.332000, 831.000000, 120.000000, 839.000000, 120.000000, 860.000000, 153.332000, 852.500000, 153.332000, 846.250000, 144.999000, 823.750000, 144.999000, 817.500000, 153.332000" fill="rgb(178, 34, 34)" style="fill-opacity:0.15" />
<polygon points=" 835.000000, 126.666400, 827.000000, 138.999200, 842.000000, 138.999200" fill="rgb(255, 255, 255)" style="fill-opacity:1.00" />
<!-- End 'A' -->
<!-- Begin 'T' -->
<rect height="4.358293" width="50.000000" x="810.000000" y="153.332000" fill="rgb(0, 100, 0)" style="fill-opacity:0.15" />
<rect height="27.239334" width="10.000000" x="830.000000" y="153.332000" fill="rgb(0, 100, 0)" style="fill-opacity:0.15" />
<!-- End 'T' -->
<!-- Begin 'C' -->
<ellipse cx="835.000000" cy="191.470499" rx="25.000000" ry="10.899165" fill="rgb(0, 0, 128)" style="fill-opacity:0.15" />
<ellipse cx="835.000000" cy="191.470499" rx="16.666667" ry="7.266110" fill="rgb(255, 255, 255)" style="fill-opacity:1.00" />
<rect height="10.899165" width="25.000000" x="835.000000" y="186.020916" fill="rgb(255, 255, 255)" style="fill-opacity:1.00" />
<!-- End 'C' -->
<!-- Begin 'G' -->
<ellipse cx="835.000000" cy="211.184832" rx="25.000000" ry="8.815168" fill="rgb(255, 165, 0)" style="fill-opacity:0.15" />
<ellipse cx="835.000000" cy="211.184832" rx="16.666667" ry="5.876779" fill="rgb(255, 255, 255)" style="fill-opacity:1.00" />
<rect height="8.815168" width="25.000000" x="835.000000" y="206.777248" fill="rgb(255, 255, 255)" style="fill-opacity:1.00" />
<rect height="2.203792" width="25.000000" x="835.000000" y="213.388624" fill="rgb(255, 165, 0)" style="fill-opacity:0.15" />
<rect height="6.611376" width="6.250000" x="853.750000" y="213.388624" fill="rgb(255, 165, 0)" style="fill-opacity:0.15" />
<!-- End 'G' -->
<!-- Begin 'A' -->
<polygon points=" 810.000000, 268.009086, 831.000000, 230.000000, 839.000000, 230.000000, 860.000000, 268.009086, 852.500000, 268.009086, 846.250000, 258.506815, 823.750000, 258.506815, 817.500000, 268.009086" fill="rgb(178, 34, 34)" style="fill-opacity:0.17" />
<polygon points=" 835.000000, 237.601817, 827.000000, 251.805452, 842.000000, 251.805452" fill="rgb(255, 255, 255)" style="fill-opacity:1.00" />
<!-- End 'A' -->
<!-- Begin 'T' -->
<rect height="4.045851" width="50.000000" x="810.000000" y="268.009086" fill="rgb(0, 100, 0)" style="fill-opacity:0.17" />
<rect height="25.286569" width="10.000000" x="830.000000" y="268.009086" fill="rgb(0, 100, 0)" style="fill-opacity:0.17" />
<!-- End 'T' -->
<!-- Begin 'C' -->
<ellipse cx="835.000000" cy="303.936398" rx="25.000000" ry="10.640743" fill="rgb(0, 0, 128)" style="fill-opacity:0.17" />
<ellipse cx="835.000000" cy="303.936398" rx="16.666667" ry="7.093829" fill="rgb(255, 255, 255)" style="fill-opacity:1.00" />
<rect height="10.640743" width="25.000000" x="835.000000" y="298.616026" fill="rgb(255, 255, 255)" style="fill-opacity:1.00" />
<!-- End 'C' -->
<!-- Begin 'G' -->
<ellipse cx="835.000000" cy="322.288570" rx="25.000000" ry="7.711430" fill="rgb(255, 165, 0)" style="fill-opacity:0.17" />
<ellipse cx="835.000000" cy="322.288570" rx="16.666667" ry="5.140953" fill="rgb(255, 255, 255)" style="fill-opacity:1.00" />
<rect height="7.711430" width="25.000000" x="835.000000" y="318.432855" fill="rgb(255, 255, 255)" style="fill-opacity:1.00" />
<rect height="1.927857" width="25.000000" x="835.000000" y="324.216428" fill="rgb(255, 165, 0)" style="fill-opacity:0.17" />
<rect height="5.783572" width="6.250000" x="853.750000" y="324.216428" fill="rgb(255, 165, 0)" style="fill-opacity:0.17" />
<!-- End 'G' -->
<!-- Begin 'C' -->
<ellipse cx="835.000000" cy="353.586754" rx="25.000000" ry="13.586754" fill="rgb(0, 0, 128)" style="fill-opacity:0.31" />
<ellipse cx="835.000000" cy="353.586754" rx="16.666667" ry="9.057836" fill="rgb(255, 255, 255)" style="fill-opacity:1.00" />
<rect height="13.586754" width="25.000000" x="835.000000" y="346.793377" fill="rgb(255, 255, 255)" style="fill-opacity:1.00" />
<!-- End 'C' -->
<!-- Begin 'T' -->
<rect height="4.201021" width="50.000000" x="810.000000" y="367.173509" fill="rgb(0, 100, 0)" style="fill-opacity:0.31" />
<rect height="26.256380" width="10.000000" x="830.000000" y="367.173509" fill="rgb(0, 100, 0)" style="fill-opacity:0.31" />
<!-- End 'T' -->
<!-- Begin 'A' -->
<polygon points=" 810.000000, 417.915811, 831.000000, 393.429889, 839.000000, 393.429889, 860.000000, 417.915811, 852.500000, 417.915811, 846.250000, 411.794331, 823.750000, 411.794331, 817.500000, 417.915811" fill="rgb(178, 34, 34)" style="fill-opacity:0.31" />
<polygon points=" 835.000000, 398.327073, 827.000000, 407.121442, 842.000000, 407.121442" fill="rgb(255, 255, 255)" style="fill-opacity:1.00" />
<!-- End 'A' -->
<!-- Begin 'G' -->
<ellipse cx="835.000000" cy="428.957906" rx="25.000000" ry="11.042094" fill="rgb(255, 165, 0)" style="fill-opacity:0.31" />
<ellipse cx="835.000000" cy="428.957906" rx="16.666667" ry="7.361396" fill="rgb(255, 255, 255)" style="fill-opacity:1.00" />
<rect height="11.042094" width="25.000000" x="835.000000" y="423.436858" fill="rgb(255, 255, 255)" style="fill-opacity:1.00" />
<rect height="2.760524" width="25.000000" x="835.000000" y="431.718429" fill="rgb(255, 165, 0)" style="fill-opacity:0.31" />
<rect height="8.281571" width="6.250000" x="853.750000" y="431.718429" fill="rgb(255, 165, 0)" style="fill-opacity:0.31" />
<!-- End 'G' -->
<text x="460.000000" y="495">
IC = 7.65
</text>

</svg>
