<?xml version="1.0" encoding="UTF-8" standalone="yes"?>
                 <!DOCTYPE svg PUBLIC "-//W3C//DTD SVG 1.0//EN" "http://www.w3.org/TR/2001/REC-SVG-20010904/DTD/svg10.dtd">
                 <svg height="500" width="780" xmlns="http://www.w3.org/2000/svg" xmlns:xlink="http://www.w3.org/1999/xlink">
                 <line x1="85" y1="450" x2="747" y2="450" style="stroke:rgb(99,99,99);stroke-width:2" />
<rect height="7.000000" width="2.000000" x="85.000000" y="450.000000" fill="rgb(0, 0, 0)" style="fill-opacity:1.00" />
<text x="107.000000" y="470">
1
</text>
<rect height="7.000000" width="2.000000" x="145.000000" y="450.000000" fill="rgb(0, 0, 0)" style="fill-opacity:1.00" />
<text x="167.000000" y="470">
2
</text>
<rect height="7.000000" width="2.000000" x="205.000000" y="450.000000" fill="rgb(0, 0, 0)" style="fill-opacity:1.00" />
<text x="227.000000" y="470">
3
</text>
<rect height="7.000000" width="2.000000" x="265.000000" y="450.000000" fill="rgb(0, 0, 0)" style="fill-opacity:1.00" />
<text x="287.000000" y="470">
4
</text>
<rect height="7.000000" width="2.000000" x="325.000000" y="450.000000" fill="rgb(0, 0, 0)" style="fill-opacity:1.00" />
<text x="347.000000" y="470">
5
</text>
<rect height="7.000000" width="2.000000" x="385.000000" y="450.000000" fill="rgb(0, 0, 0)" style="fill-opacity:1.00" />
<text x="407.000000" y="470">
6
</text>
<rect height="7.000000" width="2.000000" x="445.000000" y="450.000000" fill="rgb(0, 0, 0)" style="fill-opacity:1.00" />
<text x="467.000000" y="470">
7
</text>
<rect height="7.000000" width="2.000000" x="505.000000" y="450.000000" fill="rgb(0, 0, 0)" style="fill-opacity:1.00" />
<text x="527.000000" y="470">
8
</text>
<rect height="7.000000" width="2.000000" x="565.000000" y="450.000000" fill="rgb(0, 0, 0)" style="fill-opacity:1.00" />
<text x="587.000000" y="470">
9
</text>
<rect height="7.000000" width="2.000000" x="625.000000" y="450.000000" fill="rgb(0, 0, 0)" style="fill-opacity:1.00" />
<text x="647.000000" y="470">
10
</text>
<rect height="7.000000" width="2.000000" x="685.000000" y="450.000000" fill="rgb(0, 0, 0)" style="fill-opacity:1.00" />
<text x="707.000000" y="470">
11
</text>
<rect height="7.000000" width="2.000000" x="745.000000" y="450.000000" fill="rgb(0, 0, 0)" style="fill-opacity:1.00" />
<!-- Begin 'A' -->
<polygon points=" 10.000000, 110.000000, 35.200000, 10.000000, 44.800000, 10.000000, 70.000000, 110.000000, 61.000000, 110.000000, 53.500000, 85.000000, 26.500000, 85.000000, 19.000000, 110.000000" fill="rgb(178, 34, 34)" style="fill-opacity:1.00" />
<polygon points=" 40.000000, 30.000000, 30.400000, 69.000000, 48.400000, 69.000000" fill="rgb(255, 255, 255)" style="fill-opacity:1.00" />
<!-- End 'A' -->
<!-- Begin 'C' -->
<ellipse cx="40.000000" cy="170.000000" rx="30.000000" ry="50.000000" fill="rgb(0, 0, 128)" style="fill-opacity:1.00" />
<ellipse cx="40.000000" cy="170.000000" rx="20.000000" ry="33.333333" fill="rgb(255, 255, 255)" style="fill-opacity:1.00" />
<rect height="50.000000" width="30.000000" x="40.000000" y="145.000000" fill="rgb(255, 255, 255)" style="fill-opacity:1.00" />
<!-- End 'C' -->
<!-- Begin 'G' -->
<ellipse cx="40.000000" cy="280.000000" rx="30.000000" ry="50.000000" fill="rgb(255, 165, 0)" style="fill-opacity:1.00" />
<ellipse cx="40.000000" cy="280.000000" rx="20.000000" ry="33.333333" fill="rgb(255, 255, 255)" style="fill-opacity:1.00" />
<rect height="50.000000" width="30.000000" x="40.000000" y="255.000000" fill="rgb(255, 255, 255)" style="fill-opacity:1.00" />
<rect height="12.500000" width="30.000000" x="40.000000" y="292.500000" fill="rgb(255, 165, 0)" style="fill-opacity:1.00" />
<rect height="37.500000" width="7.500000" x="62.500000" y="292.500000" fill="rgb(255, 165, 0)" style="fill-opacity:1.00" />
<!-- End 'G' -->
<!-- Begin 'T' -->
<rect height="16.000000" width="60.000000" x="10.000000" y="340.000000" fill="rgb(0, 100, 0)" style="fill-opacity:1.00" />
<rect height="100.000000" width="12.000000" x="34.000000" y="340.000000" fill="rgb(0, 100, 0)" style="fill-opacity:1.00" />
<!-- End 'T' -->
<!-- Begin 'A' -->
<polygon points=" 90.000000, 77.562981, 111.000000, 10.000000, 119.000000, 10.000000, 140.000000, 77.562981, 132.500000, 77.562981, 126.250000, 60.672236, 103.750000, 60.672236, 97.500000, 77.562981" fill="rgb(178, 34, 34)" style="fill-opacity:0.25" />
<polygon points=" 115.000000, 23.512596, 107.000000, 49.537789, 122.000000, 49.537789" fill="rgb(255, 255, 255)" style="fill-opacity:1.00" />
<!-- End 'A' -->
<!-- Begin 'G' -->
<ellipse cx="115.000000" cy="89.428273" rx="25.000000" ry="11.865292" fill="rgb(255, 165, 0)" style="fill-opacity:0.25" />
<ellipse cx="115.000000" cy="89.428273" rx="16.666667" ry="7.910194" fill="rgb(255, 255, 255)" style="fill-opacity:1.00" />
<rect height="11.865292" width="25.000000" x="115.000000" y="83.495627" fill="rgb(255, 255, 255)" style="fill-opacity:1.00" />
<rect height="2.966323" width="25.000000" x="115.000000" y="92.394596" fill="rgb(255, 165, 0)" style="fill-opacity:0.25" />
<rect height="8.898969" width="6.250000" x="133.750000" y="92.394596" fill="rgb(255, 165, 0)" style="fill-opacity:0.25" />
<!-- End 'G' -->
<!-- Begin 'C' -->
<ellipse cx="115.000000" cy="105.643519" rx="25.000000" ry="4.349954" fill="rgb(0, 0, 128)" style="fill-opacity:0.25" />
<ellipse cx="115.000000" cy="105.643519" rx="16.666667" ry="2.899970" fill="rgb(255, 255, 255)" style="fill-opacity:1.00" />
<rect height="4.349954" width="25.000000" x="115.000000" y="103.468542" fill="rgb(255, 255, 255)" style="fill-opacity:1.00" />
<!-- End 'C' -->
<!-- Begin 'T' -->
<rect height="0.001044" width="50.000000" x="90.000000" y="109.993473" fill="rgb(0, 100, 0)" style="fill-opacity:0.25" />
<rect height="0.006527" width="10.000000" x="110.000000" y="109.993473" fill="rgb(0, 100, 0)" style="fill-opacity:0.25" />
<!-- End 'T' -->
<!-- Begin 'A' -->
<polygon points=" 90.000000, 187.562981, 111.000000, 120.000000, 119.000000, 120.000000, 140.000000, 187.562981, 132.500000, 187.562981, 126.250000, 170.672236, 103.750000, 170.672236, 97.500000, 187.562981" fill="rgb(178, 34, 34)" style="fill-opacity:0.25" />
<polygon points=" 115.000000, 133.512596, 107.000000, 159.537789, 122.000000, 159.537789" fill="rgb(255, 255, 255)" style="fill-opacity:1.00" />
<!-- End 'A' -->
<!-- Begin 'G' -->
<ellipse cx="115.000000" cy="199.428273" rx="25.000000" ry="11.865292" fill="rgb(255, 165, 0)" style="fill-opacity:0.25" />
<ellipse cx="115.000000" cy="199.428273" rx="16.666667" ry="7.910194" fill="rgb(255, 255, 255)" style="fill-opacity:1.00" />
<rect height="11.865292" width="25.000000" x="115.000000" y="193.495627" fill="rgb(255, 255, 255)" style="fill-opacity:1.00" />
<rect height="2.966323" width="25.000000" x="115.000000" y="202.394596" fill="rgb(255, 165, 0)" style="fill-opacity:0.25" />
<rect height="8.898969" width="6.250000" x="133.750000" y="202.394596" fill="rgb(255, 165, 0)" style="fill-opacity:0.25" />
<!-- End 'G' -->
<!-- Begin 'C' -->
<ellipse cx="115.000000" cy="215.643519" rx="25.000000" ry="4.349954" fill="rgb(0, 0, 128)" style="fill-opacity:0.25" />
<ellipse cx="115.000000" cy="215.643519" rx="16.666667" ry="2.899970" fill="rgb(255, 255, 255)" style="fill-opacity:1.00" />
<rect height="4.349954" width="25.000000" x="115.000000" y="213.468542" fill="rgb(255, 255, 255)" style="fill-opacity:1.00" />
<!-- End 'C' -->
<!-- Begin 'T' -->
<rect height="0.001044" width="50.000000" x="90.000000" y="219.993473" fill="rgb(0, 100, 0)" style="fill-opacity:0.25" />
<rect height="0.006527" width="10.000000" x="110.000000" y="219.993473" fill="rgb(0, 100, 0)" style="fill-opacity:0.25" />
<!-- End 'T' -->
<!-- Begin 'A' -->
<polygon points=" 90.000000, 297.562981, 111.000000, 230.000000, 119.000000, 230.000000, 140.000000, 297.562981, 132.500000, 297.562981, 126.250000, 280.672236, 103.750000, 280.672236, 97.500000, 297.562981" fill="rgb(178, 34, 34)" style="fill-opacity:0.25" />
<polygon points=" 115.000000, 243.512596, 107.000000, 269.537789, 122.000000, 269.537789" fill="rgb(255, 255, 255)" style="fill-opacity:1.00" />
<!-- End 'A' -->
<!-- Begin 'G' -->
<ellipse cx="115.000000" cy="309.428273" rx="25.000000" ry="11.865292" fill="rgb(255, 165, 0)" style="fill-opacity:0.25" />
<ellipse cx="115.000000" cy="309.428273" rx="16.666667" ry="7.910194" fill="rgb(255, 255, 255)" style="fill-opacity:1.00" />
<rect height="11.865292" width="25.000000" x="115.000000" y="303.495627" fill="rgb(255, 255, 255)" style="fill-opacity:1.00" />
<rect height="2.966323" width="25.000000" x="115.000000" y="312.394596" fill="rgb(255, 165, 0)" style="fill-opacity:0.25" />
<rect height="8.898969" width="6.250000" x="133.750000" y="312.394596" fill="rgb(255, 165, 0)" style="fill-opacity:0.25" />
<!-- End 'G' -->
<!-- Begin 'C' -->
<ellipse cx="115.000000" cy="325.643519" rx="25.000000" ry="4.349954" fill="rgb(0, 0, 128)" style="fill-opacity:0.25" />
<ellipse cx="115.000000" cy="325.643519" rx="16.666667" ry="2.899970" fill="rgb(255, 255, 255)" style="fill-opacity:1.00" />
<rect height="4.349954" width="25.000000" x="115.000000" y="323.468542" fill="rgb(255, 255, 255)" style="fill-opacity:1.00" />
<!-- End 'C' -->
<!-- Begin 'T' -->
<rect height="0.001044" width="50.000000" x="90.000000" y="329.993473" fill="rgb(0, 100, 0)" style="fill-opacity:0.25" />
<rect height="0.006527" width="10.000000" x="110.000000" y="329.993473" fill="rgb(0, 100, 0)" style="fill-opacity:0.25" />
<!-- End 'T' -->
<!-- Begin 'A' -->
<polygon points=" 90.000000, 407.562981, 111.000000, 340.000000, 119.000000, 340.000000, 140.000000, 407.562981, 132.500000, 407.562981, 126.250000, 390.672236, 103.750000, 390.672236, 97.500000, 407.562981" fill="rgb(178, 34, 34)" style="fill-opacity:0.25" />
<polygon points=" 115.000000, 353.512596, 107.000000, 379.537789, 122.000000, 379.537789" fill="rgb(255, 255, 255)" style="fill-opacity:1.00" />
<!-- End 'A' -->
<!-- Begin 'G' -->
<ellipse cx="115.000000" cy="419.428273" rx="25.000000" ry="11.865292" fill="rgb(255, 165, 0)" style="fill-opacity:0.25" />
<ellipse cx="115.000000" cy="419.428273" rx="16.666667" ry="7.910194" fill="rgb(255, 255, 255)" style="fill-opacity:1.00" />
<rect height="11.865292" width="25.000000" x="115.000000" y="413.495627" fill="rgb(255, 255, 255)" style="fill-opacity:1.00" />
<rect height="2.966323" width="25.000000" x="115.000000" y="422.394596" fill="rgb(255, 165, 0)" style="fill-opacity:0.25" />
<rect height="8.898969" width="6.250000" x="133.750000" y="422.394596" fill="rgb(255, 165, 0)" style="fill-opacity:0.25" />
<!-- End 'G' -->
<!-- Begin 'C' -->
<ellipse cx="115.000000" cy="435.643519" rx="25.000000" ry="4.349954" fill="rgb(0, 0, 128)" style="fill-opacity:0.25" />
<ellipse cx="115.000000" cy="435.643519" rx="16.666667" ry="2.899970" fill="rgb(255, 255, 255)" style="fill-opacity:1.00" />
<rect height="4.349954" width="25.000000" x="115.000000" y="433.468542" fill="rgb(255, 255, 255)" style="fill-opacity:1.00" />
<!-- End 'C' -->
<!-- Begin 'T' -->
<rect height="0.001044" width="50.000000" x="90.000000" y="439.993473" fill="rgb(0, 100, 0)" style="fill-opacity:0.25" />
<rect height="0.006527" width="10.000000" x="110.000000" y="439.993473" fill="rgb(0, 100, 0)" style="fill-opacity:0.25" />
<!-- End 'T' -->
<!-- Begin 'T' -->
<rect height="15.996867" width="50.000000" x="150.000000" y="10.000000" fill="rgb(0, 100, 0)" style="fill-opacity:0.68" />
<rect height="99.980420" width="10.000000" x="170.000000" y="10.000000" fill="rgb(0, 100, 0)" style="fill-opacity:0.68" />
<!-- End 'T' -->
<!-- Begin 'G' -->
<ellipse cx="175.000000" cy="109.983684" rx="25.000000" ry="0.003263" fill="rgb(255, 165, 0)" style="fill-opacity:0.68" />
<ellipse cx="175.000000" cy="109.983684" rx="16.666667" ry="0.002176" fill="rgb(255, 255, 255)" style="fill-opacity:1.00" />
<rect height="0.003263" width="25.000000" x="175.000000" y="109.982052" fill="rgb(255, 255, 255)" style="fill-opacity:1.00" />
<rect height="0.000816" width="25.000000" x="175.000000" y="109.984499" fill="rgb(255, 165, 0)" style="fill-opacity:0.68" />
<rect height="0.002447" width="6.250000" x="193.750000" y="109.984499" fill="rgb(255, 165, 0)" style="fill-opacity:0.68" />
<!-- End 'G' -->
<!-- Begin 'C' -->
<ellipse cx="175.000000" cy="109.990210" rx="25.000000" ry="0.003263" fill="rgb(0, 0, 128)" style="fill-opacity:0.68" />
<ellipse cx="175.000000" cy="109.990210" rx="16.666667" ry="0.002176" fill="rgb(255, 255, 255)" style="fill-opacity:1.00" />
<rect height="0.003263" width="25.000000" x="175.000000" y="109.988579" fill="rgb(255, 255, 255)" style="fill-opacity:1.00" />
<!-- End 'C' -->
<!-- Begin 'A' -->
<polygon points=" 150.000000, 110.000000, 171.000000, 109.993473, 179.000000, 109.993473, 200.000000, 110.000000, 192.500000, 110.000000, 186.250000, 109.998368, 163.750000, 109.998368, 157.500000, 110.000000" fill="rgb(178, 34, 34)" style="fill-opacity:0.68" />
<!-- End 'A' -->
<!-- Begin 'T' -->
<rect height="15.996867" width="50.000000" x="150.000000" y="120.000000" fill="rgb(0, 100, 0)" style="fill-opacity:0.09" />
<rect height="99.980420" width="10.000000" x="170.000000" y="120.000000" fill="rgb(0, 100, 0)" style="fill-opacity:0.09" />
<!-- End 'T' -->
<!-- Begin 'G' -->
<ellipse cx="175.000000" cy="219.983684" rx="25.000000" ry="0.003263" fill="rgb(255, 165, 0)" style="fill-opacity:0.09" />
<ellipse cx="175.000000" cy="219.983684" rx="16.666667" ry="0.002176" fill="rgb(255, 255, 255)" style="fill-opacity:1.00" />
<rect height="0.003263" width="25.000000" x="175.000000" y="219.982052" fill="rgb(255, 255, 255)" style="fill-opacity:1.00" />
<rect height="0.000816" width="25.000000" x="175.000000" y="219.984499" fill="rgb(255, 165, 0)" style="fill-opacity:0.09" />
<rect height="0.002447" width="6.250000" x="193.750000" y="219.984499" fill="rgb(255, 165, 0)" style="fill-opacity:0.09" />
<!-- End 'G' -->
<!-- Begin 'C' -->
<ellipse cx="175.000000" cy="219.990210" rx="25.000000" ry="0.003263" fill="rgb(0, 0, 128)" style="fill-opacity:0.09" />
<ellipse cx="175.000000" cy="219.990210" rx="16.666667" ry="0.002176" fill="rgb(255, 255, 255)" style="fill-opacity:1.00" />
<rect height="0.003263" width="25.000000" x="175.000000" y="219.988579" fill="rgb(255, 255, 255)" style="fill-opacity:1.00" />
<!-- End 'C' -->
<!-- Begin 'A' -->
<polygon points=" 150.000000, 220.000000, 171.000000, 219.993473, 179.000000, 219.993473, 200.000000, 220.000000, 192.500000, 220.000000, 186.250000, 219.998368, 163.750000, 219.998368, 157.500000, 220.000000" fill="rgb(178, 34, 34)" style="fill-opacity:0.09" />
<!-- End 'A' -->
<!-- Begin 'T' -->
<rect height="15.996867" width="50.000000" x="150.000000" y="230.000000" fill="rgb(0, 100, 0)" style="fill-opacity:0.24" />
<rect height="99.980420" width="10.000000" x="170.000000" y="230.000000" fill="rgb(0, 100, 0)" style="fill-opacity:0.24" />
<!-- End 'T' -->
<!-- Begin 'G' -->
<ellipse cx="175.000000" cy="329.983684" rx="25.000000" ry="0.003263" fill="rgb(255, 165, 0)" style="fill-opacity:0.24" />
<ellipse cx="175.000000" cy="329.983684" rx="16.666667" ry="0.002176" fill="rgb(255, 255, 255)" style="fill-opacity:1.00" />
<rect height="0.003263" width="25.000000" x="175.000000" y="329.982052" fill="rgb(255, 255, 255)" style="fill-opacity:1.00" />
<rect height="0.000816" width="25.000000" x="175.000000" y="329.984499" fill="rgb(255, 165, 0)" style="fill-opacity:0.24" />
<rect height="0.002447" width="6.250000" x="193.750000" y="329.984499" fill="rgb(255, 165, 0)" style="fill-opacity:0.24" />
<!-- End 'G' -->
<!-- Begin 'C' -->
<ellipse cx="175.000000" cy="329.990210" rx="25.000000" ry="0.003263" fill="rgb(0, 0, 128)" style="fill-opacity:0.24" />
<ellipse cx="175.000000" cy="329.990210" rx="16.666667" ry="0.002176" fill="rgb(255, 255, 255)" style="fill-opacity:1.00" />
<rect height="0.003263" width="25.000000" x="175.000000" y="329.988579" fill="rgb(255, 255, 255)" style="fill-opacity:1.00" />
<!-- End 'C' -->
<!-- Begin 'A' -->
<polygon points=" 150.000000, 330.000000, 171.000000, 329.993473, 179.000000, 329.993473, 200.000000, 330.000000, 192.500000, 330.000000, 186.250000, 329.998368, 163.750000, 329.998368, 157.500000, 330.000000" fill="rgb(178, 34, 34)" style="fill-opacity:0.24" />
<!-- End 'A' -->
<!-- Begin 'T' -->
<rect height="15.996867" width="50.000000" x="150.000000" y="340.000000" fill="rgb(0, 100, 0)" style="fill-opacity:0.00" />
<rect height="99.980420" width="10.000000" x="170.000000" y="340.000000" fill="rgb(0, 100, 0)" style="fill-opacity:0.00" />
<!-- End 'T' -->
<!-- Begin 'G' -->
<ellipse cx="175.000000" cy="439.983684" rx="25.000000" ry="0.003263" fill="rgb(255, 165, 0)" style="fill-opacity:0.00" />
<ellipse cx="175.000000" cy="439.983684" rx="16.666667" ry="0.002176" fill="rgb(255, 255, 255)" style="fill-opacity:1.00" />
<rect height="0.003263" width="25.000000" x="175.000000" y="439.982052" fill="rgb(255, 255, 255)" style="fill-opacity:1.00" />
<rect height="0.000816" width="25.000000" x="175.000000" y="439.984499" fill="rgb(255, 165, 0)" style="fill-opacity:0.00" />
<rect height="0.002447" width="6.250000" x="193.750000" y="439.984499" fill="rgb(255, 165, 0)" style="fill-opacity:0.00" />
<!-- End 'G' -->
<!-- Begin 'C' -->
<ellipse cx="175.000000" cy="439.990210" rx="25.000000" ry="0.003263" fill="rgb(0, 0, 128)" style="fill-opacity:0.00" />
<ellipse cx="175.000000" cy="439.990210" rx="16.666667" ry="0.002176" fill="rgb(255, 255, 255)" style="fill-opacity:1.00" />
<rect height="0.003263" width="25.000000" x="175.000000" y="439.988579" fill="rgb(255, 255, 255)" style="fill-opacity:1.00" />
<!-- End 'C' -->
<!-- Begin 'A' -->
<polygon points=" 150.000000, 440.000000, 171.000000, 439.993473, 179.000000, 439.993473, 200.000000, 440.000000, 192.500000, 440.000000, 186.250000, 439.998368, 163.750000, 439.998368, 157.500000, 440.000000" fill="rgb(178, 34, 34)" style="fill-opacity:0.00" />
<!-- End 'A' -->
<!-- Begin 'T' -->
<rect height="15.996867" width="50.000000" x="210.000000" y="10.000000" fill="rgb(0, 100, 0)" style="fill-opacity:0.00" />
<rect height="99.980420" width="10.000000" x="230.000000" y="10.000000" fill="rgb(0, 100, 0)" style="fill-opacity:0.00" />
<!-- End 'T' -->
<!-- Begin 'G' -->
<ellipse cx="235.000000" cy="109.983684" rx="25.000000" ry="0.003263" fill="rgb(255, 165, 0)" style="fill-opacity:0.00" />
<ellipse cx="235.000000" cy="109.983684" rx="16.666667" ry="0.002176" fill="rgb(255, 255, 255)" style="fill-opacity:1.00" />
<rect height="0.003263" width="25.000000" x="235.000000" y="109.982052" fill="rgb(255, 255, 255)" style="fill-opacity:1.00" />
<rect height="0.000816" width="25.000000" x="235.000000" y="109.984499" fill="rgb(255, 165, 0)" style="fill-opacity:0.00" />
<rect height="0.002447" width="6.250000" x="253.750000" y="109.984499" fill="rgb(255, 165, 0)" style="fill-opacity:0.00" />
<!-- End 'G' -->
<!-- Begin 'C' -->
<ellipse cx="235.000000" cy="109.990210" rx="25.000000" ry="0.003263" fill="rgb(0, 0, 128)" style="fill-opacity:0.00" />
<ellipse cx="235.000000" cy="109.990210" rx="16.666667" ry="0.002176" fill="rgb(255, 255, 255)" style="fill-opacity:1.00" />
<rect height="0.003263" width="25.000000" x="235.000000" y="109.988579" fill="rgb(255, 255, 255)" style="fill-opacity:1.00" />
<!-- End 'C' -->
<!-- Begin 'A' -->
<polygon points=" 210.000000, 110.000000, 231.000000, 109.993473, 239.000000, 109.993473, 260.000000, 110.000000, 252.500000, 110.000000, 246.250000, 109.998368, 223.750000, 109.998368, 217.500000, 110.000000" fill="rgb(178, 34, 34)" style="fill-opacity:0.00" />
<!-- End 'A' -->
<!-- Begin 'T' -->
<rect height="15.996867" width="50.000000" x="210.000000" y="120.000000" fill="rgb(0, 100, 0)" style="fill-opacity:0.00" />
<rect height="99.980420" width="10.000000" x="230.000000" y="120.000000" fill="rgb(0, 100, 0)" style="fill-opacity:0.00" />
<!-- End 'T' -->
<!-- Begin 'G' -->
<ellipse cx="235.000000" cy="219.983684" rx="25.000000" ry="0.003263" fill="rgb(255, 165, 0)" style="fill-opacity:0.00" />
<ellipse cx="235.000000" cy="219.983684" rx="16.666667" ry="0.002176" fill="rgb(255, 255, 255)" style="fill-opacity:1.00" />
<rect height="0.003263" width="25.000000" x="235.000000" y="219.982052" fill="rgb(255, 255, 255)" style="fill-opacity:1.00" />
<rect height="0.000816" width="25.000000" x="235.000000" y="219.984499" fill="rgb(255, 165, 0)" style="fill-opacity:0.00" />
<rect height="0.002447" width="6.250000" x="253.750000" y="219.984499" fill="rgb(255, 165, 0)" style="fill-opacity:0.00" />
<!-- End 'G' -->
<!-- Begin 'C' -->
<ellipse cx="235.000000" cy="219.990210" rx="25.000000" ry="0.003263" fill="rgb(0, 0, 128)" style="fill-opacity:0.00" />
<ellipse cx="235.000000" cy="219.990210" rx="16.666667" ry="0.002176" fill="rgb(255, 255, 255)" style="fill-opacity:1.00" />
<rect height="0.003263" width="25.000000" x="235.000000" y="219.988579" fill="rgb(255, 255, 255)" style="fill-opacity:1.00" />
<!-- End 'C' -->
<!-- Begin 'A' -->
<polygon points=" 210.000000, 220.000000, 231.000000, 219.993473, 239.000000, 219.993473, 260.000000, 220.000000, 252.500000, 220.000000, 246.250000, 219.998368, 223.750000, 219.998368, 217.500000, 220.000000" fill="rgb(178, 34, 34)" style="fill-opacity:0.00" />
<!-- End 'A' -->
<!-- Begin 'T' -->
<rect height="15.996867" width="50.000000" x="210.000000" y="230.000000" fill="rgb(0, 100, 0)" style="fill-opacity:0.00" />
<rect height="99.980420" width="10.000000" x="230.000000" y="230.000000" fill="rgb(0, 100, 0)" style="fill-opacity:0.00" />
<!-- End 'T' -->
<!-- Begin 'G' -->
<ellipse cx="235.000000" cy="329.983684" rx="25.000000" ry="0.003263" fill="rgb(255, 165, 0)" style="fill-opacity:0.00" />
<ellipse cx="235.000000" cy="329.983684" rx="16.666667" ry="0.002176" fill="rgb(255, 255, 255)" style="fill-opacity:1.00" />
<rect height="0.003263" width="25.000000" x="235.000000" y="329.982052" fill="rgb(255, 255, 255)" style="fill-opacity:1.00" />
<rect height="0.000816" width="25.000000" x="235.000000" y="329.984499" fill="rgb(255, 165, 0)" style="fill-opacity:0.00" />
<rect height="0.002447" width="6.250000" x="253.750000" y="329.984499" fill="rgb(255, 165, 0)" style="fill-opacity:0.00" />
<!-- End 'G' -->
<!-- Begin 'C' -->
<ellipse cx="235.000000" cy="329.990210" rx="25.000000" ry="0.003263" fill="rgb(0, 0, 128)" style="fill-opacity:0.00" />
<ellipse cx="235.000000" cy="329.990210" rx="16.666667" ry="0.002176" fill="rgb(255, 255, 255)" style="fill-opacity:1.00" />
<rect height="0.003263" width="25.000000" x="235.000000" y="329.988579" fill="rgb(255, 255, 255)" style="fill-opacity:1.00" />
<!-- End 'C' -->
<!-- Begin 'A' -->
<polygon points=" 210.000000, 330.000000, 231.000000, 329.993473, 239.000000, 329.993473, 260.000000, 330.000000, 252.500000, 330.000000, 246.250000, 329.998368, 223.750000, 329.998368, 217.500000, 330.000000" fill="rgb(178, 34, 34)" style="fill-opacity:0.00" />
<!-- End 'A' -->
<!-- Begin 'T' -->
<rect height="15.996867" width="50.000000" x="210.000000" y="340.000000" fill="rgb(0, 100, 0)" style="fill-opacity:1.00" />
<rect height="99.980420" width="10.000000" x="230.000000" y="340.000000" fill="rgb(0, 100, 0)" style="fill-opacity:1.00" />
<!-- End 'T' -->
<!-- Begin 'G' -->
<ellipse cx="235.000000" cy="439.983684" rx="25.000000" ry="0.003263" fill="rgb(255, 165, 0)" style="fill-opacity:1.00" />
<ellipse cx="235.000000" cy="439.983684" rx="16.666667" ry="0.002176" fill="rgb(255, 255, 255)" style="fill-opacity:1.00" />
<rect height="0.003263" width="25.000000" x="235.000000" y="439.982052" fill="rgb(255, 255, 255)" style="fill-opacity:1.00" />
<rect height="0.000816" width="25.000000" x="235.000000" y="439.984499" fill="rgb(255, 165, 0)" style="fill-opacity:1.00" />
<rect height="0.002447" width="6.250000" x="253.750000" y="439.984499" fill="rgb(255, 165, 0)" style="fill-opacity:1.00" />
<!-- End 'G' -->
<!-- Begin 'C' -->
<ellipse cx="235.000000" cy="439.990210" rx="25.000000" ry="0.003263" fill="rgb(0, 0, 128)" style="fill-opacity:1.00" />
<ellipse cx="235.000000" cy="439.990210" rx="16.666667" ry="0.002176" fill="rgb(255, 255, 255)" style="fill-opacity:1.00" />
<rect height="0.003263" width="25.000000" x="235.000000" y="439.988579" fill="rgb(255, 255, 255)" style="fill-opacity:1.00" />
<!-- End 'C' -->
<!-- Begin 'A' -->
<polygon points=" 210.000000, 440.000000, 231.000000, 439.993473, 239.000000, 439.993473, 260.000000, 440.000000, 252.500000, 440.000000, 246.250000, 439.998368, 223.750000, 439.998368, 217.500000, 440.000000" fill="rgb(178, 34, 34)" style="fill-opacity:1.00" />
<!-- End 'A' -->
<!-- Begin 'G' -->
<ellipse cx="295.000000" cy="46.891398" rx="25.000000" ry="36.891398" fill="rgb(255, 165, 0)" style="fill-opacity:0.00" />
<ellipse cx="295.000000" cy="46.891398" rx="16.666667" ry="24.594265" fill="rgb(255, 255, 255)" style="fill-opacity:1.00" />
<rect height="36.891398" width="25.000000" x="295.000000" y="28.445699" fill="rgb(255, 255, 255)" style="fill-opacity:1.00" />
<rect height="9.222849" width="25.000000" x="295.000000" y="56.114247" fill="rgb(255, 165, 0)" style="fill-opacity:0.00" />
<rect height="27.668548" width="6.250000" x="313.750000" y="56.114247" fill="rgb(255, 165, 0)" style="fill-opacity:0.00" />
<!-- End 'G' -->
<!-- Begin 'T' -->
<rect height="3.456468" width="50.000000" x="270.000000" y="83.782796" fill="rgb(0, 100, 0)" style="fill-opacity:0.00" />
<rect height="21.602924" width="10.000000" x="290.000000" y="83.782796" fill="rgb(0, 100, 0)" style="fill-opacity:0.00" />
<!-- End 'T' -->
<!-- Begin 'A' -->
<polygon points=" 270.000000, 109.993473, 291.000000, 105.385720, 299.000000, 105.385720, 320.000000, 109.993473, 312.500000, 109.993473, 306.250000, 108.841535, 283.750000, 108.841535, 277.500000, 109.993473" fill="rgb(178, 34, 34)" style="fill-opacity:0.00" />
<!-- End 'A' -->
<!-- Begin 'C' -->
<ellipse cx="295.000000" cy="109.996737" rx="25.000000" ry="0.003263" fill="rgb(0, 0, 128)" style="fill-opacity:0.00" />
<ellipse cx="295.000000" cy="109.996737" rx="16.666667" ry="0.002176" fill="rgb(255, 255, 255)" style="fill-opacity:1.00" />
<rect height="0.003263" width="25.000000" x="295.000000" y="109.995105" fill="rgb(255, 255, 255)" style="fill-opacity:1.00" />
<!-- End 'C' -->
<!-- Begin 'G' -->
<ellipse cx="295.000000" cy="156.891398" rx="25.000000" ry="36.891398" fill="rgb(255, 165, 0)" style="fill-opacity:0.00" />
<ellipse cx="295.000000" cy="156.891398" rx="16.666667" ry="24.594265" fill="rgb(255, 255, 255)" style="fill-opacity:1.00" />
<rect height="36.891398" width="25.000000" x="295.000000" y="138.445699" fill="rgb(255, 255, 255)" style="fill-opacity:1.00" />
<rect height="9.222849" width="25.000000" x="295.000000" y="166.114247" fill="rgb(255, 165, 0)" style="fill-opacity:0.00" />
<rect height="27.668548" width="6.250000" x="313.750000" y="166.114247" fill="rgb(255, 165, 0)" style="fill-opacity:0.00" />
<!-- End 'G' -->
<!-- Begin 'T' -->
<rect height="3.456468" width="50.000000" x="270.000000" y="193.782796" fill="rgb(0, 100, 0)" style="fill-opacity:0.00" />
<rect height="21.602924" width="10.000000" x="290.000000" y="193.782796" fill="rgb(0, 100, 0)" style="fill-opacity:0.00" />
<!-- End 'T' -->
<!-- Begin 'A' -->
<polygon points=" 270.000000, 219.993473, 291.000000, 215.385720, 299.000000, 215.385720, 320.000000, 219.993473, 312.500000, 219.993473, 306.250000, 218.841535, 283.750000, 218.841535, 277.500000, 219.993473" fill="rgb(178, 34, 34)" style="fill-opacity:0.00" />
<!-- End 'A' -->
<!-- Begin 'C' -->
<ellipse cx="295.000000" cy="219.996737" rx="25.000000" ry="0.003263" fill="rgb(0, 0, 128)" style="fill-opacity:0.00" />
<ellipse cx="295.000000" cy="219.996737" rx="16.666667" ry="0.002176" fill="rgb(255, 255, 255)" style="fill-opacity:1.00" />
<rect height="0.003263" width="25.000000" x="295.000000" y="219.995105" fill="rgb(255, 255, 255)" style="fill-opacity:1.00" />
<!-- End 'C' -->
<!-- Begin 'G' -->
<ellipse cx="295.000000" cy="266.891398" rx="25.000000" ry="36.891398" fill="rgb(255, 165, 0)" style="fill-opacity:0.00" />
<ellipse cx="295.000000" cy="266.891398" rx="16.666667" ry="24.594265" fill="rgb(255, 255, 255)" style="fill-opacity:1.00" />
<rect height="36.891398" width="25.000000" x="295.000000" y="248.445699" fill="rgb(255, 255, 255)" style="fill-opacity:1.00" />
<rect height="9.222849" width="25.000000" x="295.000000" y="276.114247" fill="rgb(255, 165, 0)" style="fill-opacity:0.00" />
<rect height="27.668548" width="6.250000" x="313.750000" y="276.114247" fill="rgb(255, 165, 0)" style="fill-opacity:0.00" />
<!-- End 'G' -->
<!-- Begin 'T' -->
<rect height="3.456468" width="50.000000" x="270.000000" y="303.782796" fill="rgb(0, 100, 0)" style="fill-opacity:0.00" />
<rect height="21.602924" width="10.000000" x="290.000000" y="303.782796" fill="rgb(0, 100, 0)" style="fill-opacity:0.00" />
<!-- End 'T' -->
<!-- Begin 'A' -->
<polygon points=" 270.000000, 329.993473, 291.000000, 325.385720, 299.000000, 325.385720, 320.000000, 329.993473, 312.500000, 329.993473, 306.250000, 328.841535, 283.750000, 328.841535, 277.500000, 329.993473" fill="rgb(178, 34, 34)" style="fill-opacity:0.00" />
<!-- End 'A' -->
<!-- Begin 'C' -->
<ellipse cx="295.000000" cy="329.996737" rx="25.000000" ry="0.003263" fill="rgb(0, 0, 128)" style="fill-opacity:0.00" />
<ellipse cx="295.000000" cy="329.996737" rx="16.666667" ry="0.002176" fill="rgb(255, 255, 255)" style="fill-opacity:1.00" />
<rect height="0.003263" width="25.000000" x="295.000000" y="329.995105" fill="rgb(255, 255, 255)" style="fill-opacity:1.00" />
<!-- End 'C' -->
<!-- Begin 'G' -->
<ellipse cx="295.000000" cy="376.891398" rx="25.000000" ry="36.891398" fill="rgb(255, 165, 0)" style="fill-opacity:1.00" />
<ellipse cx="295.000000" cy="376.891398" rx="16.666667" ry="24.594265" fill="rgb(255, 255, 255)" style="fill-opacity:1.00" />
<rect height="36.891398" width="25.000000" x="295.000000" y="358.445699" fill="rgb(255, 255, 255)" style="fill-opacity:1.00" />
<rect height="9.222849" width="25.000000" x="295.000000" y="386.114247" fill="rgb(255, 165, 0)" style="fill-opacity:1.00" />
<rect height="27.668548" width="6.250000" x="313.750000" y="386.114247" fill="rgb(255, 165, 0)" style="fill-opacity:1.00" />
<!-- End 'G' -->
<!-- Begin 'T' -->
<rect height="3.456468" width="50.000000" x="270.000000" y="413.782796" fill="rgb(0, 100, 0)" style="fill-opacity:1.00" />
<rect height="21.602924" width="10.000000" x="290.000000" y="413.782796" fill="rgb(0, 100, 0)" style="fill-opacity:1.00" />
<!-- End 'T' -->
<!-- Begin 'A' -->
<polygon points=" 270.000000, 439.993473, 291.000000, 435.385720, 299.000000, 435.385720, 320.000000, 439.993473, 312.500000, 439.993473, 306.250000, 438.841535, 283.750000, 438.841535, 277.500000, 439.993473" fill="rgb(178, 34, 34)" style="fill-opacity:1.00" />
<!-- End 'A' -->
<!-- Begin 'C' -->
<ellipse cx="295.000000" cy="439.996737" rx="25.000000" ry="0.003263" fill="rgb(0, 0, 128)" style="fill-opacity:1.00" />
<ellipse cx="295.000000" cy="439.996737" rx="16.666667" ry="0.002176" fill="rgb(255, 255, 255)" style="fill-opacity:1.00" />
<rect height="0.003263" width="25.000000" x="295.000000" y="439.995105" fill="rgb(255, 255, 255)" style="fill-opacity:1.00" />
<!-- End 'C' -->
<!-- Begin 'C' -->
<ellipse cx="355.000000" cy="59.990210" rx="25.000000" ry="49.990210" fill="rgb(0, 0, 128)" style="fill-opacity:0.05" />
<ellipse cx="355.000000" cy="59.990210" rx="16.666667" ry="33.326807" fill="rgb(255, 255, 255)" style="fill-opacity:1.00" />
<rect height="49.990210" width="25.000000" x="355.000000" y="34.995105" fill="rgb(255, 255, 255)" style="fill-opacity:1.00" />
<!-- End 'C' -->
<!-- Begin 'T' -->
<rect height="0.001044" width="50.000000" x="330.000000" y="109.980420" fill="rgb(0, 100, 0)" style="fill-opacity:0.05" />
<rect height="0.006527" width="10.000000" x="350.000000" y="109.980420" fill="rgb(0, 100, 0)" style="fill-opacity:0.05" />
<!-- End 'T' -->
<!-- Begin 'G' -->
<ellipse cx="355.000000" cy="109.990210" rx="25.000000" ry="0.003263" fill="rgb(255, 165, 0)" style="fill-opacity:0.05" />
<ellipse cx="355.000000" cy="109.990210" rx="16.666667" ry="0.002176" fill="rgb(255, 255, 255)" style="fill-opacity:1.00" />
<rect height="0.003263" width="25.000000" x="355.000000" y="109.988579" fill="rgb(255, 255, 255)" style="fill-opacity:1.00" />
<rect height="0.000816" width="25.000000" x="355.000000" y="109.991026" fill="rgb(255, 165, 0)" style="fill-opacity:0.05" />
<rect height="0.002447" width="6.250000" x="373.750000" y="109.991026" fill="rgb(255, 165, 0)" style="fill-opacity:0.05" />
<!-- End 'G' -->
<!-- Begin 'A' -->
<polygon points=" 330.000000, 110.000000, 351.000000, 109.993473, 359.000000, 109.993473, 380.000000, 110.000000, 372.500000, 110.000000, 366.250000, 109.998368, 343.750000, 109.998368, 337.500000, 110.000000" fill="rgb(178, 34, 34)" style="fill-opacity:0.05" />
<!-- End 'A' -->
<!-- Begin 'C' -->
<ellipse cx="355.000000" cy="169.990210" rx="25.000000" ry="49.990210" fill="rgb(0, 0, 128)" style="fill-opacity:0.00" />
<ellipse cx="355.000000" cy="169.990210" rx="16.666667" ry="33.326807" fill="rgb(255, 255, 255)" style="fill-opacity:1.00" />
<rect height="49.990210" width="25.000000" x="355.000000" y="144.995105" fill="rgb(255, 255, 255)" style="fill-opacity:1.00" />
<!-- End 'C' -->
<!-- Begin 'T' -->
<rect height="0.001044" width="50.000000" x="330.000000" y="219.980420" fill="rgb(0, 100, 0)" style="fill-opacity:0.00" />
<rect height="0.006527" width="10.000000" x="350.000000" y="219.980420" fill="rgb(0, 100, 0)" style="fill-opacity:0.00" />
<!-- End 'T' -->
<!-- Begin 'G' -->
<ellipse cx="355.000000" cy="219.990210" rx="25.000000" ry="0.003263" fill="rgb(255, 165, 0)" style="fill-opacity:0.00" />
<ellipse cx="355.000000" cy="219.990210" rx="16.666667" ry="0.002176" fill="rgb(255, 255, 255)" style="fill-opacity:1.00" />
<rect height="0.003263" width="25.000000" x="355.000000" y="219.988579" fill="rgb(255, 255, 255)" style="fill-opacity:1.00" />
<rect height="0.000816" width="25.000000" x="355.000000" y="219.991026" fill="rgb(255, 165, 0)" style="fill-opacity:0.00" />
<rect height="0.002447" width="6.250000" x="373.750000" y="219.991026" fill="rgb(255, 165, 0)" style="fill-opacity:0.00" />
<!-- End 'G' -->
<!-- Begin 'A' -->
<polygon points=" 330.000000, 220.000000, 351.000000, 219.993473, 359.000000, 219.993473, 380.000000, 220.000000, 372.500000, 220.000000, 366.250000, 219.998368, 343.750000, 219.998368, 337.500000, 220.000000" fill="rgb(178, 34, 34)" style="fill-opacity:0.00" />
<!-- End 'A' -->
<!-- Begin 'C' -->
<ellipse cx="355.000000" cy="279.990210" rx="25.000000" ry="49.990210" fill="rgb(0, 0, 128)" style="fill-opacity:0.74" />
<ellipse cx="355.000000" cy="279.990210" rx="16.666667" ry="33.326807" fill="rgb(255, 255, 255)" style="fill-opacity:1.00" />
<rect height="49.990210" width="25.000000" x="355.000000" y="254.995105" fill="rgb(255, 255, 255)" style="fill-opacity:1.00" />
<!-- End 'C' -->
<!-- Begin 'T' -->
<rect height="0.001044" width="50.000000" x="330.000000" y="329.980420" fill="rgb(0, 100, 0)" style="fill-opacity:0.74" />
<rect height="0.006527" width="10.000000" x="350.000000" y="329.980420" fill="rgb(0, 100, 0)" style="fill-opacity:0.74" />
<!-- End 'T' -->
<!-- Begin 'G' -->
<ellipse cx="355.000000" cy="329.990210" rx="25.000000" ry="0.003263" fill="rgb(255, 165, 0)" style="fill-opacity:0.74" />
<ellipse cx="355.000000" cy="329.990210" rx="16.666667" ry="0.002176" fill="rgb(255, 255, 255)" style="fill-opacity:1.00" />
<rect height="0.003263" width="25.000000" x="355.000000" y="329.988579" fill="rgb(255, 255, 255)" style="fill-opacity:1.00" />
<rect height="0.000816" width="25.000000" x="355.000000" y="329.991026" fill="rgb(255, 165, 0)" style="fill-opacity:0.74" />
<rect height="0.002447" width="6.250000" x="373.750000" y="329.991026" fill="rgb(255, 165, 0)" style="fill-opacity:0.74" />
<!-- End 'G' -->
<!-- Begin 'A' -->
<polygon points=" 330.000000, 330.000000, 351.000000, 329.993473, 359.000000, 329.993473, 380.000000, 330.000000, 372.500000, 330.000000, 366.250000, 329.998368, 343.750000, 329.998368, 337.500000, 330.000000" fill="rgb(178, 34, 34)" style="fill-opacity:0.74" />
<!-- End 'A' -->
<!-- Begin 'C' -->
<ellipse cx="355.000000" cy="389.990210" rx="25.000000" ry="49.990210" fill="rgb(0, 0, 128)" style="fill-opacity:0.22" />
<ellipse cx="355.000000" cy="389.990210" rx="16.666667" ry="33.326807" fill="rgb(255, 255, 255)" style="fill-opacity:1.00" />
<rect height="49.990210" width="25.000000" x="355.000000" y="364.995105" fill="rgb(255, 255, 255)" style="fill-opacity:1.00" />
<!-- End 'C' -->
<!-- Begin 'T' -->
<rect height="0.001044" width="50.000000" x="330.000000" y="439.980420" fill="rgb(0, 100, 0)" style="fill-opacity:0.22" />
<rect height="0.006527" width="10.000000" x="350.000000" y="439.980420" fill="rgb(0, 100, 0)" style="fill-opacity:0.22" />
<!-- End 'T' -->
<!-- Begin 'G' -->
<ellipse cx="355.000000" cy="439.990210" rx="25.000000" ry="0.003263" fill="rgb(255, 165, 0)" style="fill-opacity:0.22" />
<ellipse cx="355.000000" cy="439.990210" rx="16.666667" ry="0.002176" fill="rgb(255, 255, 255)" style="fill-opacity:1.00" />
<rect height="0.003263" width="25.000000" x="355.000000" y="439.988579" fill="rgb(255, 255, 255)" style="fill-opacity:1.00" />
<rect height="0.000816" width="25.000000" x="355.000000" y="439.991026" fill="rgb(255, 165, 0)" style="fill-opacity:0.22" />
<rect height="0.002447" width="6.250000" x="373.750000" y="439.991026" fill="rgb(255, 165, 0)" style="fill-opacity:0.22" />
<!-- End 'G' -->
<!-- Begin 'A' -->
<polygon points=" 330.000000, 440.000000, 351.000000, 439.993473, 359.000000, 439.993473, 380.000000, 440.000000, 372.500000, 440.000000, 366.250000, 439.998368, 343.750000, 439.998368, 337.500000, 440.000000" fill="rgb(178, 34, 34)" style="fill-opacity:0.22" />
<!-- End 'A' -->
<!-- Begin 'A' -->
<polygon points=" 390.000000, 88.038115, 411.000000, 10.000000, 419.000000, 10.000000, 440.000000, 88.038115, 432.500000, 88.038115, 426.250000, 68.528586, 403.750000, 68.528586, 397.500000, 88.038115" fill="rgb(178, 34, 34)" style="fill-opacity:0.00" />
<polygon points=" 415.000000, 25.607623, 407.000000, 55.822869, 422.000000, 55.822869" fill="rgb(255, 255, 255)" style="fill-opacity:1.00" />
<!-- End 'A' -->
<!-- Begin 'C' -->
<ellipse cx="415.000000" cy="92.198799" rx="25.000000" ry="4.160684" fill="rgb(0, 0, 128)" style="fill-opacity:0.00" />
<ellipse cx="415.000000" cy="92.198799" rx="16.666667" ry="2.773789" fill="rgb(255, 255, 255)" style="fill-opacity:1.00" />
<rect height="4.160684" width="25.000000" x="415.000000" y="90.118457" fill="rgb(255, 255, 255)" style="fill-opacity:1.00" />
<!-- End 'C' -->
<!-- Begin 'G' -->
<ellipse cx="415.000000" cy="99.841405" rx="25.000000" ry="3.481921" fill="rgb(255, 165, 0)" style="fill-opacity:0.00" />
<ellipse cx="415.000000" cy="99.841405" rx="16.666667" ry="2.321281" fill="rgb(255, 255, 255)" style="fill-opacity:1.00" />
<rect height="3.481921" width="25.000000" x="415.000000" y="98.100444" fill="rgb(255, 255, 255)" style="fill-opacity:1.00" />
<rect height="0.870480" width="25.000000" x="415.000000" y="100.711885" fill="rgb(255, 165, 0)" style="fill-opacity:0.00" />
<rect height="2.611441" width="6.250000" x="433.750000" y="100.711885" fill="rgb(255, 165, 0)" style="fill-opacity:0.00" />
<!-- End 'G' -->
<!-- Begin 'T' -->
<rect height="1.068268" width="50.000000" x="390.000000" y="103.323326" fill="rgb(0, 100, 0)" style="fill-opacity:0.00" />
<rect height="6.676674" width="10.000000" x="410.000000" y="103.323326" fill="rgb(0, 100, 0)" style="fill-opacity:0.00" />
<!-- End 'T' -->
<!-- Begin 'A' -->
<polygon points=" 390.000000, 198.038115, 411.000000, 120.000000, 419.000000, 120.000000, 440.000000, 198.038115, 432.500000, 198.038115, 426.250000, 178.528586, 403.750000, 178.528586, 397.500000, 198.038115" fill="rgb(178, 34, 34)" style="fill-opacity:1.00" />
<polygon points=" 415.000000, 135.607623, 407.000000, 165.822869, 422.000000, 165.822869" fill="rgb(255, 255, 255)" style="fill-opacity:1.00" />
<!-- End 'A' -->
<!-- Begin 'C' -->
<ellipse cx="415.000000" cy="202.198799" rx="25.000000" ry="4.160684" fill="rgb(0, 0, 128)" style="fill-opacity:1.00" />
<ellipse cx="415.000000" cy="202.198799" rx="16.666667" ry="2.773789" fill="rgb(255, 255, 255)" style="fill-opacity:1.00" />
<rect height="4.160684" width="25.000000" x="415.000000" y="200.118457" fill="rgb(255, 255, 255)" style="fill-opacity:1.00" />
<!-- End 'C' -->
<!-- Begin 'G' -->
<ellipse cx="415.000000" cy="209.841405" rx="25.000000" ry="3.481921" fill="rgb(255, 165, 0)" style="fill-opacity:1.00" />
<ellipse cx="415.000000" cy="209.841405" rx="16.666667" ry="2.321281" fill="rgb(255, 255, 255)" style="fill-opacity:1.00" />
<rect height="3.481921" width="25.000000" x="415.000000" y="208.100444" fill="rgb(255, 255, 255)" style="fill-opacity:1.00" />
<rect height="0.870480" width="25.000000" x="415.000000" y="210.711885" fill="rgb(255, 165, 0)" style="fill-opacity:1.00" />
<rect height="2.611441" width="6.250000" x="433.750000" y="210.711885" fill="rgb(255, 165, 0)" style="fill-opacity:1.00" />
<!-- End 'G' -->
<!-- Begin 'T' -->
<rect height="1.068268" width="50.000000" x="390.000000" y="213.323326" fill="rgb(0, 100, 0)" style="fill-opacity:1.00" />
<rect height="6.676674" width="10.000000" x="410.000000" y="213.323326" fill="rgb(0, 100, 0)" style="fill-opacity:1.00" />
<!-- End 'T' -->
<!-- Begin 'A' -->
<polygon points=" 390.000000, 308.038115, 411.000000, 230.000000, 419.000000, 230.000000, 440.000000, 308.038115, 432.500000, 308.038115, 426.250000, 288.528586, 403.750000, 288.528586, 397.500000, 308.038115" fill="rgb(178, 34, 34)" style="fill-opacity:0.00" />
<polygon points=" 415.000000, 245.607623, 407.000000, 275.822869, 422.000000, 275.822869" fill="rgb(255, 255, 255)" style="fill-opacity:1.00" />
<!-- End 'A' -->
<!-- Begin 'C' -->
<ellipse cx="415.000000" cy="312.198799" rx="25.000000" ry="4.160684" fill="rgb(0, 0, 128)" style="fill-opacity:0.00" />
<ellipse cx="415.000000" cy="312.198799" rx="16.666667" ry="2.773789" fill="rgb(255, 255, 255)" style="fill-opacity:1.00" />
<rect height="4.160684" width="25.000000" x="415.000000" y="310.118457" fill="rgb(255, 255, 255)" style="fill-opacity:1.00" />
<!-- End 'C' -->
<!-- Begin 'G' -->
<ellipse cx="415.000000" cy="319.841405" rx="25.000000" ry="3.481921" fill="rgb(255, 165, 0)" style="fill-opacity:0.00" />
<ellipse cx="415.000000" cy="319.841405" rx="16.666667" ry="2.321281" fill="rgb(255, 255, 255)" style="fill-opacity:1.00" />
<rect height="3.481921" width="25.000000" x="415.000000" y="318.100444" fill="rgb(255, 255, 255)" style="fill-opacity:1.00" />
<rect height="0.870480" width="25.000000" x="415.000000" y="320.711885" fill="rgb(255, 165, 0)" style="fill-opacity:0.00" />
<rect height="2.611441" width="6.250000" x="433.750000" y="320.711885" fill="rgb(255, 165, 0)" style="fill-opacity:0.00" />
<!-- End 'G' -->
<!-- Begin 'T' -->
<rect height="1.068268" width="50.000000" x="390.000000" y="323.323326" fill="rgb(0, 100, 0)" style="fill-opacity:0.00" />
<rect height="6.676674" width="10.000000" x="410.000000" y="323.323326" fill="rgb(0, 100, 0)" style="fill-opacity:0.00" />
<!-- End 'T' -->
<!-- Begin 'A' -->
<polygon points=" 390.000000, 418.038115, 411.000000, 340.000000, 419.000000, 340.000000, 440.000000, 418.038115, 432.500000, 418.038115, 426.250000, 398.528586, 403.750000, 398.528586, 397.500000, 418.038115" fill="rgb(178, 34, 34)" style="fill-opacity:0.00" />
<polygon points=" 415.000000, 355.607623, 407.000000, 385.822869, 422.000000, 385.822869" fill="rgb(255, 255, 255)" style="fill-opacity:1.00" />
<!-- End 'A' -->
<!-- Begin 'C' -->
<ellipse cx="415.000000" cy="422.198799" rx="25.000000" ry="4.160684" fill="rgb(0, 0, 128)" style="fill-opacity:0.00" />
<ellipse cx="415.000000" cy="422.198799" rx="16.666667" ry="2.773789" fill="rgb(255, 255, 255)" style="fill-opacity:1.00" />
<rect height="4.160684" width="25.000000" x="415.000000" y="420.118457" fill="rgb(255, 255, 255)" style="fill-opacity:1.00" />
<!-- End 'C' -->
<!-- Begin 'G' -->
<ellipse cx="415.000000" cy="429.841405" rx="25.000000" ry="3.481921" fill="rgb(255, 165, 0)" style="fill-opacity:0.00" />
<ellipse cx="415.000000" cy="429.841405" rx="16.666667" ry="2.321281" fill="rgb(255, 255, 255)" style="fill-opacity:1.00" />
<rect height="3.481921" width="25.000000" x="415.000000" y="428.100444" fill="rgb(255, 255, 255)" style="fill-opacity:1.00" />
<rect height="0.870480" width="25.000000" x="415.000000" y="430.711885" fill="rgb(255, 165, 0)" style="fill-opacity:0.00" />
<rect height="2.611441" width="6.250000" x="433.750000" y="430.711885" fill="rgb(255, 165, 0)" style="fill-opacity:0.00" />
<!-- End 'G' -->
<!-- Begin 'T' -->
<rect height="1.068268" width="50.000000" x="390.000000" y="433.323326" fill="rgb(0, 100, 0)" style="fill-opacity:0.00" />
<rect height="6.676674" width="10.000000" x="410.000000" y="433.323326" fill="rgb(0, 100, 0)" style="fill-opacity:0.00" />
<!-- End 'T' -->
<!-- Begin 'C' -->
<ellipse cx="475.000000" cy="34.980420" rx="25.000000" ry="24.980420" fill="rgb(0, 0, 128)" style="fill-opacity:0.78" />
<ellipse cx="475.000000" cy="34.980420" rx="16.666667" ry="16.653614" fill="rgb(255, 255, 255)" style="fill-opacity:1.00" />
<rect height="24.980420" width="25.000000" x="475.000000" y="22.490210" fill="rgb(255, 255, 255)" style="fill-opacity:1.00" />
<!-- End 'C' -->
<!-- Begin 'T' -->
<rect height="5.226472" width="50.000000" x="450.000000" y="59.960841" fill="rgb(0, 100, 0)" style="fill-opacity:0.78" />
<rect height="32.665448" width="10.000000" x="470.000000" y="59.960841" fill="rgb(0, 100, 0)" style="fill-opacity:0.78" />
<!-- End 'T' -->
<!-- Begin 'A' -->
<polygon points=" 450.000000, 109.993473, 471.000000, 92.626289, 479.000000, 92.626289, 500.000000, 109.993473, 492.500000, 109.993473, 486.250000, 105.651677, 463.750000, 105.651677, 457.500000, 109.993473" fill="rgb(178, 34, 34)" style="fill-opacity:0.78" />
<polygon points=" 475.000000, 96.099726, 467.000000, 102.046600, 482.000000, 102.046600" fill="rgb(255, 255, 255)" style="fill-opacity:1.00" />
<!-- End 'A' -->
<!-- Begin 'G' -->
<ellipse cx="475.000000" cy="109.996737" rx="25.000000" ry="0.003263" fill="rgb(255, 165, 0)" style="fill-opacity:0.78" />
<ellipse cx="475.000000" cy="109.996737" rx="16.666667" ry="0.002176" fill="rgb(255, 255, 255)" style="fill-opacity:1.00" />
<rect height="0.003263" width="25.000000" x="475.000000" y="109.995105" fill="rgb(255, 255, 255)" style="fill-opacity:1.00" />
<rect height="0.000816" width="25.000000" x="475.000000" y="109.997553" fill="rgb(255, 165, 0)" style="fill-opacity:0.78" />
<rect height="0.002447" width="6.250000" x="493.750000" y="109.997553" fill="rgb(255, 165, 0)" style="fill-opacity:0.78" />
<!-- End 'G' -->
<!-- Begin 'C' -->
<ellipse cx="475.000000" cy="144.980420" rx="25.000000" ry="24.980420" fill="rgb(0, 0, 128)" style="fill-opacity:0.08" />
<ellipse cx="475.000000" cy="144.980420" rx="16.666667" ry="16.653614" fill="rgb(255, 255, 255)" style="fill-opacity:1.00" />
<rect height="24.980420" width="25.000000" x="475.000000" y="132.490210" fill="rgb(255, 255, 255)" style="fill-opacity:1.00" />
<!-- End 'C' -->
<!-- Begin 'T' -->
<rect height="5.226472" width="50.000000" x="450.000000" y="169.960841" fill="rgb(0, 100, 0)" style="fill-opacity:0.08" />
<rect height="32.665448" width="10.000000" x="470.000000" y="169.960841" fill="rgb(0, 100, 0)" style="fill-opacity:0.08" />
<!-- End 'T' -->
<!-- Begin 'A' -->
<polygon points=" 450.000000, 219.993473, 471.000000, 202.626289, 479.000000, 202.626289, 500.000000, 219.993473, 492.500000, 219.993473, 486.250000, 215.651677, 463.750000, 215.651677, 457.500000, 219.993473" fill="rgb(178, 34, 34)" style="fill-opacity:0.08" />
<polygon points=" 475.000000, 206.099726, 467.000000, 212.046600, 482.000000, 212.046600" fill="rgb(255, 255, 255)" style="fill-opacity:1.00" />
<!-- End 'A' -->
<!-- Begin 'G' -->
<ellipse cx="475.000000" cy="219.996737" rx="25.000000" ry="0.003263" fill="rgb(255, 165, 0)" style="fill-opacity:0.08" />
<ellipse cx="475.000000" cy="219.996737" rx="16.666667" ry="0.002176" fill="rgb(255, 255, 255)" style="fill-opacity:1.00" />
<rect height="0.003263" width="25.000000" x="475.000000" y="219.995105" fill="rgb(255, 255, 255)" style="fill-opacity:1.00" />
<rect height="0.000816" width="25.000000" x="475.000000" y="219.997553" fill="rgb(255, 165, 0)" style="fill-opacity:0.08" />
<rect height="0.002447" width="6.250000" x="493.750000" y="219.997553" fill="rgb(255, 165, 0)" style="fill-opacity:0.08" />
<!-- End 'G' -->
<!-- Begin 'C' -->
<ellipse cx="475.000000" cy="254.980420" rx="25.000000" ry="24.980420" fill="rgb(0, 0, 128)" style="fill-opacity:0.07" />
<ellipse cx="475.000000" cy="254.980420" rx="16.666667" ry="16.653614" fill="rgb(255, 255, 255)" style="fill-opacity:1.00" />
<rect height="24.980420" width="25.000000" x="475.000000" y="242.490210" fill="rgb(255, 255, 255)" style="fill-opacity:1.00" />
<!-- End 'C' -->
<!-- Begin 'T' -->
<rect height="5.226472" width="50.000000" x="450.000000" y="279.960841" fill="rgb(0, 100, 0)" style="fill-opacity:0.07" />
<rect height="32.665448" width="10.000000" x="470.000000" y="279.960841" fill="rgb(0, 100, 0)" style="fill-opacity:0.07" />
<!-- End 'T' -->
<!-- Begin 'A' -->
<polygon points=" 450.000000, 329.993473, 471.000000, 312.626289, 479.000000, 312.626289, 500.000000, 329.993473, 492.500000, 329.993473, 486.250000, 325.651677, 463.750000, 325.651677, 457.500000, 329.993473" fill="rgb(178, 34, 34)" style="fill-opacity:0.07" />
<polygon points=" 475.000000, 316.099726, 467.000000, 322.046600, 482.000000, 322.046600" fill="rgb(255, 255, 255)" style="fill-opacity:1.00" />
<!-- End 'A' -->
<!-- Begin 'G' -->
<ellipse cx="475.000000" cy="329.996737" rx="25.000000" ry="0.003263" fill="rgb(255, 165, 0)" style="fill-opacity:0.07" />
<ellipse cx="475.000000" cy="329.996737" rx="16.666667" ry="0.002176" fill="rgb(255, 255, 255)" style="fill-opacity:1.00" />
<rect height="0.003263" width="25.000000" x="475.000000" y="329.995105" fill="rgb(255, 255, 255)" style="fill-opacity:1.00" />
<rect height="0.000816" width="25.000000" x="475.000000" y="329.997553" fill="rgb(255, 165, 0)" style="fill-opacity:0.07" />
<rect height="0.002447" width="6.250000" x="493.750000" y="329.997553" fill="rgb(255, 165, 0)" style="fill-opacity:0.07" />
<!-- End 'G' -->
<!-- Begin 'C' -->
<ellipse cx="475.000000" cy="364.980420" rx="25.000000" ry="24.980420" fill="rgb(0, 0, 128)" style="fill-opacity:0.07" />
<ellipse cx="475.000000" cy="364.980420" rx="16.666667" ry="16.653614" fill="rgb(255, 255, 255)" style="fill-opacity:1.00" />
<rect height="24.980420" width="25.000000" x="475.000000" y="352.490210" fill="rgb(255, 255, 255)" style="fill-opacity:1.00" />
<!-- End 'C' -->
<!-- Begin 'T' -->
<rect height="5.226472" width="50.000000" x="450.000000" y="389.960841" fill="rgb(0, 100, 0)" style="fill-opacity:0.07" />
<rect height="32.665448" width="10.000000" x="470.000000" y="389.960841" fill="rgb(0, 100, 0)" style="fill-opacity:0.07" />
<!-- End 'T' -->
<!-- Begin 'A' -->
<polygon points=" 450.000000, 439.993473, 471.000000, 422.626289, 479.000000, 422.626289, 500.000000, 439.993473, 492.500000, 439.993473, 486.250000, 435.651677, 463.750000, 435.651677, 457.500000, 439.993473" fill="rgb(178, 34, 34)" style="fill-opacity:0.07" />
<polygon points=" 475.000000, 426.099726, 467.000000, 432.046600, 482.000000, 432.046600" fill="rgb(255, 255, 255)" style="fill-opacity:1.00" />
<!-- End 'A' -->
<!-- Begin 'G' -->
<ellipse cx="475.000000" cy="439.996737" rx="25.000000" ry="0.003263" fill="rgb(255, 165, 0)" style="fill-opacity:0.07" />
<ellipse cx="475.000000" cy="439.996737" rx="16.666667" ry="0.002176" fill="rgb(255, 255, 255)" style="fill-opacity:1.00" />
<rect height="0.003263" width="25.000000" x="475.000000" y="439.995105" fill="rgb(255, 255, 255)" style="fill-opacity:1.00" />
<rect height="0.000816" width="25.000000" x="475.000000" y="439.997553" fill="rgb(255, 165, 0)" style="fill-opacity:0.07" />
<rect height="0.002447" width="6.250000" x="493.750000" y="439.997553" fill="rgb(255, 165, 0)" style="fill-opacity:0.07" />
<!-- End 'G' -->
<!-- Begin 'A' -->
<polygon points=" 510.000000, 89.800287, 531.000000, 10.000000, 539.000000, 10.000000, 560.000000, 89.800287, 552.500000, 89.800287, 546.250000, 69.850215, 523.750000, 69.850215, 517.500000, 89.800287" fill="rgb(178, 34, 34)" style="fill-opacity:0.17" />
<polygon points=" 535.000000, 25.960057, 527.000000, 56.880172, 542.000000, 56.880172" fill="rgb(255, 255, 255)" style="fill-opacity:1.00" />
<!-- End 'A' -->
<!-- Begin 'C' -->
<ellipse cx="535.000000" cy="99.893617" rx="25.000000" ry="10.093330" fill="rgb(0, 0, 128)" style="fill-opacity:0.17" />
<ellipse cx="535.000000" cy="99.893617" rx="16.666667" ry="6.728887" fill="rgb(255, 255, 255)" style="fill-opacity:1.00" />
<rect height="10.093330" width="25.000000" x="535.000000" y="94.846952" fill="rgb(255, 255, 255)" style="fill-opacity:1.00" />
<!-- End 'C' -->
<!-- Begin 'T' -->
<rect height="0.001044" width="50.000000" x="510.000000" y="109.986947" fill="rgb(0, 100, 0)" style="fill-opacity:0.17" />
<rect height="0.006527" width="10.000000" x="530.000000" y="109.986947" fill="rgb(0, 100, 0)" style="fill-opacity:0.17" />
<!-- End 'T' -->
<!-- Begin 'G' -->
<ellipse cx="535.000000" cy="109.996737" rx="25.000000" ry="0.003263" fill="rgb(255, 165, 0)" style="fill-opacity:0.17" />
<ellipse cx="535.000000" cy="109.996737" rx="16.666667" ry="0.002176" fill="rgb(255, 255, 255)" style="fill-opacity:1.00" />
<rect height="0.003263" width="25.000000" x="535.000000" y="109.995105" fill="rgb(255, 255, 255)" style="fill-opacity:1.00" />
<rect height="0.000816" width="25.000000" x="535.000000" y="109.997553" fill="rgb(255, 165, 0)" style="fill-opacity:0.17" />
<rect height="0.002447" width="6.250000" x="553.750000" y="109.997553" fill="rgb(255, 165, 0)" style="fill-opacity:0.17" />
<!-- End 'G' -->
<!-- Begin 'A' -->
<polygon points=" 510.000000, 199.800287, 531.000000, 120.000000, 539.000000, 120.000000, 560.000000, 199.800287, 552.500000, 199.800287, 546.250000, 179.850215, 523.750000, 179.850215, 517.500000, 199.800287" fill="rgb(178, 34, 34)" style="fill-opacity:0.50" />
<polygon points=" 535.000000, 135.960057, 527.000000, 166.880172, 542.000000, 166.880172" fill="rgb(255, 255, 255)" style="fill-opacity:1.00" />
<!-- End 'A' -->
<!-- Begin 'C' -->
<ellipse cx="535.000000" cy="209.893617" rx="25.000000" ry="10.093330" fill="rgb(0, 0, 128)" style="fill-opacity:0.50" />
<ellipse cx="535.000000" cy="209.893617" rx="16.666667" ry="6.728887" fill="rgb(255, 255, 255)" style="fill-opacity:1.00" />
<rect height="10.093330" width="25.000000" x="535.000000" y="204.846952" fill="rgb(255, 255, 255)" style="fill-opacity:1.00" />
<!-- End 'C' -->
<!-- Begin 'T' -->
<rect height="0.001044" width="50.000000" x="510.000000" y="219.986947" fill="rgb(0, 100, 0)" style="fill-opacity:0.50" />
<rect height="0.006527" width="10.000000" x="530.000000" y="219.986947" fill="rgb(0, 100, 0)" style="fill-opacity:0.50" />
<!-- End 'T' -->
<!-- Begin 'G' -->
<ellipse cx="535.000000" cy="219.996737" rx="25.000000" ry="0.003263" fill="rgb(255, 165, 0)" style="fill-opacity:0.50" />
<ellipse cx="535.000000" cy="219.996737" rx="16.666667" ry="0.002176" fill="rgb(255, 255, 255)" style="fill-opacity:1.00" />
<rect height="0.003263" width="25.000000" x="535.000000" y="219.995105" fill="rgb(255, 255, 255)" style="fill-opacity:1.00" />
<rect height="0.000816" width="25.000000" x="535.000000" y="219.997553" fill="rgb(255, 165, 0)" style="fill-opacity:0.50" />
<rect height="0.002447" width="6.250000" x="553.750000" y="219.997553" fill="rgb(255, 165, 0)" style="fill-opacity:0.50" />
<!-- End 'G' -->
<!-- Begin 'A' -->
<polygon points=" 510.000000, 309.800287, 531.000000, 230.000000, 539.000000, 230.000000, 560.000000, 309.800287, 552.500000, 309.800287, 546.250000, 289.850215, 523.750000, 289.850215, 517.500000, 309.800287" fill="rgb(178, 34, 34)" style="fill-opacity:0.00" />
<polygon points=" 535.000000, 245.960057, 527.000000, 276.880172, 542.000000, 276.880172" fill="rgb(255, 255, 255)" style="fill-opacity:1.00" />
<!-- End 'A' -->
<!-- Begin 'C' -->
<ellipse cx="535.000000" cy="319.893617" rx="25.000000" ry="10.093330" fill="rgb(0, 0, 128)" style="fill-opacity:0.00" />
<ellipse cx="535.000000" cy="319.893617" rx="16.666667" ry="6.728887" fill="rgb(255, 255, 255)" style="fill-opacity:1.00" />
<rect height="10.093330" width="25.000000" x="535.000000" y="314.846952" fill="rgb(255, 255, 255)" style="fill-opacity:1.00" />
<!-- End 'C' -->
<!-- Begin 'T' -->
<rect height="0.001044" width="50.000000" x="510.000000" y="329.986947" fill="rgb(0, 100, 0)" style="fill-opacity:0.00" />
<rect height="0.006527" width="10.000000" x="530.000000" y="329.986947" fill="rgb(0, 100, 0)" style="fill-opacity:0.00" />
<!-- End 'T' -->
<!-- Begin 'G' -->
<ellipse cx="535.000000" cy="329.996737" rx="25.000000" ry="0.003263" fill="rgb(255, 165, 0)" style="fill-opacity:0.00" />
<ellipse cx="535.000000" cy="329.996737" rx="16.666667" ry="0.002176" fill="rgb(255, 255, 255)" style="fill-opacity:1.00" />
<rect height="0.003263" width="25.000000" x="535.000000" y="329.995105" fill="rgb(255, 255, 255)" style="fill-opacity:1.00" />
<rect height="0.000816" width="25.000000" x="535.000000" y="329.997553" fill="rgb(255, 165, 0)" style="fill-opacity:0.00" />
<rect height="0.002447" width="6.250000" x="553.750000" y="329.997553" fill="rgb(255, 165, 0)" style="fill-opacity:0.00" />
<!-- End 'G' -->
<!-- Begin 'A' -->
<polygon points=" 510.000000, 419.800287, 531.000000, 340.000000, 539.000000, 340.000000, 560.000000, 419.800287, 552.500000, 419.800287, 546.250000, 399.850215, 523.750000, 399.850215, 517.500000, 419.800287" fill="rgb(178, 34, 34)" style="fill-opacity:0.33" />
<polygon points=" 535.000000, 355.960057, 527.000000, 386.880172, 542.000000, 386.880172" fill="rgb(255, 255, 255)" style="fill-opacity:1.00" />
<!-- End 'A' -->
<!-- Begin 'C' -->
<ellipse cx="535.000000" cy="429.893617" rx="25.000000" ry="10.093330" fill="rgb(0, 0, 128)" style="fill-opacity:0.33" />
<ellipse cx="535.000000" cy="429.893617" rx="16.666667" ry="6.728887" fill="rgb(255, 255, 255)" style="fill-opacity:1.00" />
<rect height="10.093330" width="25.000000" x="535.000000" y="424.846952" fill="rgb(255, 255, 255)" style="fill-opacity:1.00" />
<!-- End 'C' -->
<!-- Begin 'T' -->
<rect height="0.001044" width="50.000000" x="510.000000" y="439.986947" fill="rgb(0, 100, 0)" style="fill-opacity:0.33" />
<rect height="0.006527" width="10.000000" x="530.000000" y="439.986947" fill="rgb(0, 100, 0)" style="fill-opacity:0.33" />
<!-- End 'T' -->
<!-- Begin 'G' -->
<ellipse cx="535.000000" cy="439.996737" rx="25.000000" ry="0.003263" fill="rgb(255, 165, 0)" style="fill-opacity:0.33" />
<ellipse cx="535.000000" cy="439.996737" rx="16.666667" ry="0.002176" fill="rgb(255, 255, 255)" style="fill-opacity:1.00" />
<rect height="0.003263" width="25.000000" x="535.000000" y="439.995105" fill="rgb(255, 255, 255)" style="fill-opacity:1.00" />
<rect height="0.000816" width="25.000000" x="535.000000" y="439.997553" fill="rgb(255, 165, 0)" style="fill-opacity:0.33" />
<rect height="0.002447" width="6.250000" x="553.750000" y="439.997553" fill="rgb(255, 165, 0)" style="fill-opacity:0.33" />
<!-- End 'G' -->
<!-- Begin 'A' -->
<polygon points=" 570.000000, 109.980420, 591.000000, 10.000000, 599.000000, 10.000000, 620.000000, 109.980420, 612.500000, 109.980420, 606.250000, 84.985315, 583.750000, 84.985315, 577.500000, 109.980420" fill="rgb(178, 34, 34)" style="fill-opacity:0.80" />
<polygon points=" 595.000000, 29.996084, 587.000000, 68.988252, 602.000000, 68.988252" fill="rgb(255, 255, 255)" style="fill-opacity:1.00" />
<!-- End 'A' -->
<!-- Begin 'T' -->
<rect height="0.001044" width="50.000000" x="570.000000" y="109.980420" fill="rgb(0, 100, 0)" style="fill-opacity:0.80" />
<rect height="0.006527" width="10.000000" x="590.000000" y="109.980420" fill="rgb(0, 100, 0)" style="fill-opacity:0.80" />
<!-- End 'T' -->
<!-- Begin 'G' -->
<ellipse cx="595.000000" cy="109.990210" rx="25.000000" ry="0.003263" fill="rgb(255, 165, 0)" style="fill-opacity:0.80" />
<ellipse cx="595.000000" cy="109.990210" rx="16.666667" ry="0.002176" fill="rgb(255, 255, 255)" style="fill-opacity:1.00" />
<rect height="0.003263" width="25.000000" x="595.000000" y="109.988579" fill="rgb(255, 255, 255)" style="fill-opacity:1.00" />
<rect height="0.000816" width="25.000000" x="595.000000" y="109.991026" fill="rgb(255, 165, 0)" style="fill-opacity:0.80" />
<rect height="0.002447" width="6.250000" x="613.750000" y="109.991026" fill="rgb(255, 165, 0)" style="fill-opacity:0.80" />
<!-- End 'G' -->
<!-- Begin 'C' -->
<ellipse cx="595.000000" cy="109.996737" rx="25.000000" ry="0.003263" fill="rgb(0, 0, 128)" style="fill-opacity:0.80" />
<ellipse cx="595.000000" cy="109.996737" rx="16.666667" ry="0.002176" fill="rgb(255, 255, 255)" style="fill-opacity:1.00" />
<rect height="0.003263" width="25.000000" x="595.000000" y="109.995105" fill="rgb(255, 255, 255)" style="fill-opacity:1.00" />
<!-- End 'C' -->
<!-- Begin 'A' -->
<polygon points=" 570.000000, 219.980420, 591.000000, 120.000000, 599.000000, 120.000000, 620.000000, 219.980420, 612.500000, 219.980420, 606.250000, 194.985315, 583.750000, 194.985315, 577.500000, 219.980420" fill="rgb(178, 34, 34)" style="fill-opacity:0.20" />
<polygon points=" 595.000000, 139.996084, 587.000000, 178.988252, 602.000000, 178.988252" fill="rgb(255, 255, 255)" style="fill-opacity:1.00" />
<!-- End 'A' -->
<!-- Begin 'T' -->
<rect height="0.001044" width="50.000000" x="570.000000" y="219.980420" fill="rgb(0, 100, 0)" style="fill-opacity:0.20" />
<rect height="0.006527" width="10.000000" x="590.000000" y="219.980420" fill="rgb(0, 100, 0)" style="fill-opacity:0.20" />
<!-- End 'T' -->
<!-- Begin 'G' -->
<ellipse cx="595.000000" cy="219.990210" rx="25.000000" ry="0.003263" fill="rgb(255, 165, 0)" style="fill-opacity:0.20" />
<ellipse cx="595.000000" cy="219.990210" rx="16.666667" ry="0.002176" fill="rgb(255, 255, 255)" style="fill-opacity:1.00" />
<rect height="0.003263" width="25.000000" x="595.000000" y="219.988579" fill="rgb(255, 255, 255)" style="fill-opacity:1.00" />
<rect height="0.000816" width="25.000000" x="595.000000" y="219.991026" fill="rgb(255, 165, 0)" style="fill-opacity:0.20" />
<rect height="0.002447" width="6.250000" x="613.750000" y="219.991026" fill="rgb(255, 165, 0)" style="fill-opacity:0.20" />
<!-- End 'G' -->
<!-- Begin 'C' -->
<ellipse cx="595.000000" cy="219.996737" rx="25.000000" ry="0.003263" fill="rgb(0, 0, 128)" style="fill-opacity:0.20" />
<ellipse cx="595.000000" cy="219.996737" rx="16.666667" ry="0.002176" fill="rgb(255, 255, 255)" style="fill-opacity:1.00" />
<rect height="0.003263" width="25.000000" x="595.000000" y="219.995105" fill="rgb(255, 255, 255)" style="fill-opacity:1.00" />
<!-- End 'C' -->
<!-- Begin 'A' -->
<polygon points=" 570.000000, 329.980420, 591.000000, 230.000000, 599.000000, 230.000000, 620.000000, 329.980420, 612.500000, 329.980420, 606.250000, 304.985315, 583.750000, 304.985315, 577.500000, 329.980420" fill="rgb(178, 34, 34)" style="fill-opacity:0.00" />
<polygon points=" 595.000000, 249.996084, 587.000000, 288.988252, 602.000000, 288.988252" fill="rgb(255, 255, 255)" style="fill-opacity:1.00" />
<!-- End 'A' -->
<!-- Begin 'T' -->
<rect height="0.001044" width="50.000000" x="570.000000" y="329.980420" fill="rgb(0, 100, 0)" style="fill-opacity:0.00" />
<rect height="0.006527" width="10.000000" x="590.000000" y="329.980420" fill="rgb(0, 100, 0)" style="fill-opacity:0.00" />
<!-- End 'T' -->
<!-- Begin 'G' -->
<ellipse cx="595.000000" cy="329.990210" rx="25.000000" ry="0.003263" fill="rgb(255, 165, 0)" style="fill-opacity:0.00" />
<ellipse cx="595.000000" cy="329.990210" rx="16.666667" ry="0.002176" fill="rgb(255, 255, 255)" style="fill-opacity:1.00" />
<rect height="0.003263" width="25.000000" x="595.000000" y="329.988579" fill="rgb(255, 255, 255)" style="fill-opacity:1.00" />
<rect height="0.000816" width="25.000000" x="595.000000" y="329.991026" fill="rgb(255, 165, 0)" style="fill-opacity:0.00" />
<rect height="0.002447" width="6.250000" x="613.750000" y="329.991026" fill="rgb(255, 165, 0)" style="fill-opacity:0.00" />
<!-- End 'G' -->
<!-- Begin 'C' -->
<ellipse cx="595.000000" cy="329.996737" rx="25.000000" ry="0.003263" fill="rgb(0, 0, 128)" style="fill-opacity:0.00" />
<ellipse cx="595.000000" cy="329.996737" rx="16.666667" ry="0.002176" fill="rgb(255, 255, 255)" style="fill-opacity:1.00" />
<rect height="0.003263" width="25.000000" x="595.000000" y="329.995105" fill="rgb(255, 255, 255)" style="fill-opacity:1.00" />
<!-- End 'C' -->
<!-- Begin 'A' -->
<polygon points=" 570.000000, 439.980420, 591.000000, 340.000000, 599.000000, 340.000000, 620.000000, 439.980420, 612.500000, 439.980420, 606.250000, 414.985315, 583.750000, 414.985315, 577.500000, 439.980420" fill="rgb(178, 34, 34)" style="fill-opacity:0.00" />
<polygon points=" 595.000000, 359.996084, 587.000000, 398.988252, 602.000000, 398.988252" fill="rgb(255, 255, 255)" style="fill-opacity:1.00" />
<!-- End 'A' -->
<!-- Begin 'T' -->
<rect height="0.001044" width="50.000000" x="570.000000" y="439.980420" fill="rgb(0, 100, 0)" style="fill-opacity:0.00" />
<rect height="0.006527" width="10.000000" x="590.000000" y="439.980420" fill="rgb(0, 100, 0)" style="fill-opacity:0.00" />
<!-- End 'T' -->
<!-- Begin 'G' -->
<ellipse cx="595.000000" cy="439.990210" rx="25.000000" ry="0.003263" fill="rgb(255, 165, 0)" style="fill-opacity:0.00" />
<ellipse cx="595.000000" cy="439.990210" rx="16.666667" ry="0.002176" fill="rgb(255, 255, 255)" style="fill-opacity:1.00" />
<rect height="0.003263" width="25.000000" x="595.000000" y="439.988579" fill="rgb(255, 255, 255)" style="fill-opacity:1.00" />
<rect height="0.000816" width="25.000000" x="595.000000" y="439.991026" fill="rgb(255, 165, 0)" style="fill-opacity:0.00" />
<rect height="0.002447" width="6.250000" x="613.750000" y="439.991026" fill="rgb(255, 165, 0)" style="fill-opacity:0.00" />
<!-- End 'G' -->
<!-- Begin 'C' -->
<ellipse cx="595.000000" cy="439.996737" rx="25.000000" ry="0.003263" fill="rgb(0, 0, 128)" style="fill-opacity:0.00" />
<ellipse cx="595.000000" cy="439.996737" rx="16.666667" ry="0.002176" fill="rgb(255, 255, 255)" style="fill-opacity:1.00" />
<rect height="0.003263" width="25.000000" x="595.000000" y="439.995105" fill="rgb(255, 255, 255)" style="fill-opacity:1.00" />
<!-- End 'C' -->
<!-- Begin 'T' -->
<rect height="8.173346" width="50.000000" x="630.000000" y="10.000000" fill="rgb(0, 100, 0)" style="fill-opacity:1.00" />
<rect height="51.083409" width="10.000000" x="650.000000" y="10.000000" fill="rgb(0, 100, 0)" style="fill-opacity:1.00" />
<!-- End 'T' -->
<!-- Begin 'C' -->
<ellipse cx="655.000000" cy="79.648218" rx="25.000000" ry="18.564809" fill="rgb(0, 0, 128)" style="fill-opacity:1.00" />
<ellipse cx="655.000000" cy="79.648218" rx="16.666667" ry="12.376539" fill="rgb(255, 255, 255)" style="fill-opacity:1.00" />
<rect height="18.564809" width="25.000000" x="655.000000" y="70.365814" fill="rgb(255, 255, 255)" style="fill-opacity:1.00" />
<!-- End 'C' -->
<!-- Begin 'G' -->
<ellipse cx="655.000000" cy="104.103250" rx="25.000000" ry="5.890223" fill="rgb(255, 165, 0)" style="fill-opacity:1.00" />
<ellipse cx="655.000000" cy="104.103250" rx="16.666667" ry="3.926815" fill="rgb(255, 255, 255)" style="fill-opacity:1.00" />
<rect height="5.890223" width="25.000000" x="655.000000" y="101.158139" fill="rgb(255, 255, 255)" style="fill-opacity:1.00" />
<rect height="1.472556" width="25.000000" x="655.000000" y="105.575806" fill="rgb(255, 165, 0)" style="fill-opacity:1.00" />
<rect height="4.417667" width="6.250000" x="673.750000" y="105.575806" fill="rgb(255, 165, 0)" style="fill-opacity:1.00" />
<!-- End 'G' -->
<!-- Begin 'A' -->
<polygon points=" 630.000000, 110.000000, 651.000000, 109.993473, 659.000000, 109.993473, 680.000000, 110.000000, 672.500000, 110.000000, 666.250000, 109.998368, 643.750000, 109.998368, 637.500000, 110.000000" fill="rgb(178, 34, 34)" style="fill-opacity:1.00" />
<!-- End 'A' -->
<!-- Begin 'T' -->
<rect height="8.173346" width="50.000000" x="630.000000" y="120.000000" fill="rgb(0, 100, 0)" style="fill-opacity:0.00" />
<rect height="51.083409" width="10.000000" x="650.000000" y="120.000000" fill="rgb(0, 100, 0)" style="fill-opacity:0.00" />
<!-- End 'T' -->
<!-- Begin 'C' -->
<ellipse cx="655.000000" cy="189.648218" rx="25.000000" ry="18.564809" fill="rgb(0, 0, 128)" style="fill-opacity:0.00" />
<ellipse cx="655.000000" cy="189.648218" rx="16.666667" ry="12.376539" fill="rgb(255, 255, 255)" style="fill-opacity:1.00" />
<rect height="18.564809" width="25.000000" x="655.000000" y="180.365814" fill="rgb(255, 255, 255)" style="fill-opacity:1.00" />
<!-- End 'C' -->
<!-- Begin 'G' -->
<ellipse cx="655.000000" cy="214.103250" rx="25.000000" ry="5.890223" fill="rgb(255, 165, 0)" style="fill-opacity:0.00" />
<ellipse cx="655.000000" cy="214.103250" rx="16.666667" ry="3.926815" fill="rgb(255, 255, 255)" style="fill-opacity:1.00" />
<rect height="5.890223" width="25.000000" x="655.000000" y="211.158139" fill="rgb(255, 255, 255)" style="fill-opacity:1.00" />
<rect height="1.472556" width="25.000000" x="655.000000" y="215.575806" fill="rgb(255, 165, 0)" style="fill-opacity:0.00" />
<rect height="4.417667" width="6.250000" x="673.750000" y="215.575806" fill="rgb(255, 165, 0)" style="fill-opacity:0.00" />
<!-- End 'G' -->
<!-- Begin 'A' -->
<polygon points=" 630.000000, 220.000000, 651.000000, 219.993473, 659.000000, 219.993473, 680.000000, 220.000000, 672.500000, 220.000000, 666.250000, 219.998368, 643.750000, 219.998368, 637.500000, 220.000000" fill="rgb(178, 34, 34)" style="fill-opacity:0.00" />
<!-- End 'A' -->
<!-- Begin 'T' -->
<rect height="8.173346" width="50.000000" x="630.000000" y="230.000000" fill="rgb(0, 100, 0)" style="fill-opacity:0.00" />
<rect height="51.083409" width="10.000000" x="650.000000" y="230.000000" fill="rgb(0, 100, 0)" style="fill-opacity:0.00" />
<!-- End 'T' -->
<!-- Begin 'C' -->
<ellipse cx="655.000000" cy="299.648218" rx="25.000000" ry="18.564809" fill="rgb(0, 0, 128)" style="fill-opacity:0.00" />
<ellipse cx="655.000000" cy="299.648218" rx="16.666667" ry="12.376539" fill="rgb(255, 255, 255)" style="fill-opacity:1.00" />
<rect height="18.564809" width="25.000000" x="655.000000" y="290.365814" fill="rgb(255, 255, 255)" style="fill-opacity:1.00" />
<!-- End 'C' -->
<!-- Begin 'G' -->
<ellipse cx="655.000000" cy="324.103250" rx="25.000000" ry="5.890223" fill="rgb(255, 165, 0)" style="fill-opacity:0.00" />
<ellipse cx="655.000000" cy="324.103250" rx="16.666667" ry="3.926815" fill="rgb(255, 255, 255)" style="fill-opacity:1.00" />
<rect height="5.890223" width="25.000000" x="655.000000" y="321.158139" fill="rgb(255, 255, 255)" style="fill-opacity:1.00" />
<rect height="1.472556" width="25.000000" x="655.000000" y="325.575806" fill="rgb(255, 165, 0)" style="fill-opacity:0.00" />
<rect height="4.417667" width="6.250000" x="673.750000" y="325.575806" fill="rgb(255, 165, 0)" style="fill-opacity:0.00" />
<!-- End 'G' -->
<!-- Begin 'A' -->
<polygon points=" 630.000000, 330.000000, 651.000000, 329.993473, 659.000000, 329.993473, 680.000000, 330.000000, 672.500000, 330.000000, 666.250000, 329.998368, 643.750000, 329.998368, 637.500000, 330.000000" fill="rgb(178, 34, 34)" style="fill-opacity:0.00" />
<!-- End 'A' -->
<!-- Begin 'T' -->
<rect height="8.173346" width="50.000000" x="630.000000" y="340.000000" fill="rgb(0, 100, 0)" style="fill-opacity:0.00" />
<rect height="51.083409" width="10.000000" x="650.000000" y="340.000000" fill="rgb(0, 100, 0)" style="fill-opacity:0.00" />
<!-- End 'T' -->
<!-- Begin 'C' -->
<ellipse cx="655.000000" cy="409.648218" rx="25.000000" ry="18.564809" fill="rgb(0, 0, 128)" style="fill-opacity:0.00" />
<ellipse cx="655.000000" cy="409.648218" rx="16.666667" ry="12.376539" fill="rgb(255, 255, 255)" style="fill-opacity:1.00" />
<rect height="18.564809" width="25.000000" x="655.000000" y="400.365814" fill="rgb(255, 255, 255)" style="fill-opacity:1.00" />
<!-- End 'C' -->
<!-- Begin 'G' -->
<ellipse cx="655.000000" cy="434.103250" rx="25.000000" ry="5.890223" fill="rgb(255, 165, 0)" style="fill-opacity:0.00" />
<ellipse cx="655.000000" cy="434.103250" rx="16.666667" ry="3.926815" fill="rgb(255, 255, 255)" style="fill-opacity:1.00" />
<rect height="5.890223" width="25.000000" x="655.000000" y="431.158139" fill="rgb(255, 255, 255)" style="fill-opacity:1.00" />
<rect height="1.472556" width="25.000000" x="655.000000" y="435.575806" fill="rgb(255, 165, 0)" style="fill-opacity:0.00" />
<rect height="4.417667" width="6.250000" x="673.750000" y="435.575806" fill="rgb(255, 165, 0)" style="fill-opacity:0.00" />
<!-- End 'G' -->
<!-- Begin 'A' -->
<polygon points=" 630.000000, 440.000000, 651.000000, 439.993473, 659.000000, 439.993473, 680.000000, 440.000000, 672.500000, 440.000000, 666.250000, 439.998368, 643.750000, 439.998368, 637.500000, 440.000000" fill="rgb(178, 34, 34)" style="fill-opacity:0.00" />
<!-- End 'A' -->
<!-- Begin 'A' -->
<polygon points=" 690.000000, 47.886699, 711.000000, 10.000000, 719.000000, 10.000000, 740.000000, 47.886699, 732.500000, 47.886699, 726.250000, 38.415024, 703.750000, 38.415024, 697.500000, 47.886699" fill="rgb(178, 34, 34)" style="fill-opacity:0.00" />
<polygon points=" 715.000000, 17.577340, 707.000000, 31.732019, 722.000000, 31.732019" fill="rgb(255, 255, 255)" style="fill-opacity:1.00" />
<!-- End 'A' -->
<!-- Begin 'C' -->
<ellipse cx="715.000000" cy="64.085629" rx="25.000000" ry="16.198930" fill="rgb(0, 0, 128)" style="fill-opacity:0.00" />
<ellipse cx="715.000000" cy="64.085629" rx="16.666667" ry="10.799286" fill="rgb(255, 255, 255)" style="fill-opacity:1.00" />
<rect height="16.198930" width="25.000000" x="715.000000" y="55.986164" fill="rgb(255, 255, 255)" style="fill-opacity:1.00" />
<!-- End 'C' -->
<!-- Begin 'T' -->
<rect height="3.824044" width="50.000000" x="690.000000" y="80.284558" fill="rgb(0, 100, 0)" style="fill-opacity:0.00" />
<rect height="23.900274" width="10.000000" x="710.000000" y="80.284558" fill="rgb(0, 100, 0)" style="fill-opacity:0.00" />
<!-- End 'T' -->
<!-- Begin 'G' -->
<ellipse cx="715.000000" cy="107.092416" rx="25.000000" ry="2.907584" fill="rgb(255, 165, 0)" style="fill-opacity:0.00" />
<ellipse cx="715.000000" cy="107.092416" rx="16.666667" ry="1.938389" fill="rgb(255, 255, 255)" style="fill-opacity:1.00" />
<rect height="2.907584" width="25.000000" x="715.000000" y="105.638624" fill="rgb(255, 255, 255)" style="fill-opacity:1.00" />
<rect height="0.726896" width="25.000000" x="715.000000" y="107.819312" fill="rgb(255, 165, 0)" style="fill-opacity:0.00" />
<rect height="2.180688" width="6.250000" x="733.750000" y="107.819312" fill="rgb(255, 165, 0)" style="fill-opacity:0.00" />
<!-- End 'G' -->
<!-- Begin 'A' -->
<polygon points=" 690.000000, 157.886699, 711.000000, 120.000000, 719.000000, 120.000000, 740.000000, 157.886699, 732.500000, 157.886699, 726.250000, 148.415024, 703.750000, 148.415024, 697.500000, 157.886699" fill="rgb(178, 34, 34)" style="fill-opacity:0.37" />
<polygon points=" 715.000000, 127.577340, 707.000000, 141.732019, 722.000000, 141.732019" fill="rgb(255, 255, 255)" style="fill-opacity:1.00" />
<!-- End 'A' -->
<!-- Begin 'C' -->
<ellipse cx="715.000000" cy="174.085629" rx="25.000000" ry="16.198930" fill="rgb(0, 0, 128)" style="fill-opacity:0.37" />
<ellipse cx="715.000000" cy="174.085629" rx="16.666667" ry="10.799286" fill="rgb(255, 255, 255)" style="fill-opacity:1.00" />
<rect height="16.198930" width="25.000000" x="715.000000" y="165.986164" fill="rgb(255, 255, 255)" style="fill-opacity:1.00" />
<!-- End 'C' -->
<!-- Begin 'T' -->
<rect height="3.824044" width="50.000000" x="690.000000" y="190.284558" fill="rgb(0, 100, 0)" style="fill-opacity:0.37" />
<rect height="23.900274" width="10.000000" x="710.000000" y="190.284558" fill="rgb(0, 100, 0)" style="fill-opacity:0.37" />
<!-- End 'T' -->
<!-- Begin 'G' -->
<ellipse cx="715.000000" cy="217.092416" rx="25.000000" ry="2.907584" fill="rgb(255, 165, 0)" style="fill-opacity:0.37" />
<ellipse cx="715.000000" cy="217.092416" rx="16.666667" ry="1.938389" fill="rgb(255, 255, 255)" style="fill-opacity:1.00" />
<rect height="2.907584" width="25.000000" x="715.000000" y="215.638624" fill="rgb(255, 255, 255)" style="fill-opacity:1.00" />
<rect height="0.726896" width="25.000000" x="715.000000" y="217.819312" fill="rgb(255, 165, 0)" style="fill-opacity:0.37" />
<rect height="2.180688" width="6.250000" x="733.750000" y="217.819312" fill="rgb(255, 165, 0)" style="fill-opacity:0.37" />
<!-- End 'G' -->
<!-- Begin 'A' -->
<polygon points=" 690.000000, 267.886699, 711.000000, 230.000000, 719.000000, 230.000000, 740.000000, 267.886699, 732.500000, 267.886699, 726.250000, 258.415024, 703.750000, 258.415024, 697.500000, 267.886699" fill="rgb(178, 34, 34)" style="fill-opacity:0.12" />
<polygon points=" 715.000000, 237.577340, 707.000000, 251.732019, 722.000000, 251.732019" fill="rgb(255, 255, 255)" style="fill-opacity:1.00" />
<!-- End 'A' -->
<!-- Begin 'C' -->
<ellipse cx="715.000000" cy="284.085629" rx="25.000000" ry="16.198930" fill="rgb(0, 0, 128)" style="fill-opacity:0.12" />
<ellipse cx="715.000000" cy="284.085629" rx="16.666667" ry="10.799286" fill="rgb(255, 255, 255)" style="fill-opacity:1.00" />
<rect height="16.198930" width="25.000000" x="715.000000" y="275.986164" fill="rgb(255, 255, 255)" style="fill-opacity:1.00" />
<!-- End 'C' -->
<!-- Begin 'T' -->
<rect height="3.824044" width="50.000000" x="690.000000" y="300.284558" fill="rgb(0, 100, 0)" style="fill-opacity:0.12" />
<rect height="23.900274" width="10.000000" x="710.000000" y="300.284558" fill="rgb(0, 100, 0)" style="fill-opacity:0.12" />
<!-- End 'T' -->
<!-- Begin 'G' -->
<ellipse cx="715.000000" cy="327.092416" rx="25.000000" ry="2.907584" fill="rgb(255, 165, 0)" style="fill-opacity:0.12" />
<ellipse cx="715.000000" cy="327.092416" rx="16.666667" ry="1.938389" fill="rgb(255, 255, 255)" style="fill-opacity:1.00" />
<rect height="2.907584" width="25.000000" x="715.000000" y="325.638624" fill="rgb(255, 255, 255)" style="fill-opacity:1.00" />
<rect height="0.726896" width="25.000000" x="715.000000" y="327.819312" fill="rgb(255, 165, 0)" style="fill-opacity:0.12" />
<rect height="2.180688" width="6.250000" x="733.750000" y="327.819312" fill="rgb(255, 165, 0)" style="fill-opacity:0.12" />
<!-- End 'G' -->
<!-- Begin 'A' -->
<polygon points=" 690.000000, 377.886699, 711.000000, 340.000000, 719.000000, 340.000000, 740.000000, 377.886699, 732.500000, 377.886699, 726.250000, 368.415024, 703.750000, 368.415024, 697.500000, 377.886699" fill="rgb(178, 34, 34)" style="fill-opacity:0.51" />
<polygon points=" 715.000000, 347.577340, 707.000000, 361.732019, 722.000000, 361.732019" fill="rgb(255, 255, 255)" style="fill-opacity:1.00" />
<!-- End 'A' -->
<!-- Begin 'C' -->
<ellipse cx="715.000000" cy="394.085629" rx="25.000000" ry="16.198930" fill="rgb(0, 0, 128)" style="fill-opacity:0.51" />
<ellipse cx="715.000000" cy="394.085629" rx="16.666667" ry="10.799286" fill="rgb(255, 255, 255)" style="fill-opacity:1.00" />
<rect height="16.198930" width="25.000000" x="715.000000" y="385.986164" fill="rgb(255, 255, 255)" style="fill-opacity:1.00" />
<!-- End 'C' -->
<!-- Begin 'T' -->
<rect height="3.824044" width="50.000000" x="690.000000" y="410.284558" fill="rgb(0, 100, 0)" style="fill-opacity:0.51" />
<rect height="23.900274" width="10.000000" x="710.000000" y="410.284558" fill="rgb(0, 100, 0)" style="fill-opacity:0.51" />
<!-- End 'T' -->
<!-- Begin 'G' -->
<ellipse cx="715.000000" cy="437.092416" rx="25.000000" ry="2.907584" fill="rgb(255, 165, 0)" style="fill-opacity:0.51" />
<ellipse cx="715.000000" cy="437.092416" rx="16.666667" ry="1.938389" fill="rgb(255, 255, 255)" style="fill-opacity:1.00" />
<rect height="2.907584" width="25.000000" x="715.000000" y="435.638624" fill="rgb(255, 255, 255)" style="fill-opacity:1.00" />
<rect height="0.726896" width="25.000000" x="715.000000" y="437.819312" fill="rgb(255, 165, 0)" style="fill-opacity:0.51" />
<rect height="2.180688" width="6.250000" x="733.750000" y="437.819312" fill="rgb(255, 165, 0)" style="fill-opacity:0.51" />
<!-- End 'G' -->
<text x="400.000000" y="495">
IC = 13.32
</text>

</svg>
