<?xml version="1.0" encoding="UTF-8" standalone="yes"?>
                 <!DOCTYPE svg PUBLIC "-//W3C//DTD SVG 1.0//EN" "http://www.w3.org/TR/2001/REC-SVG-20010904/DTD/svg10.dtd">
                 <svg height="500" width="720" xmlns="http://www.w3.org/2000/svg" xmlns:xlink="http://www.w3.org/1999/xlink">
                 <line x1="85" y1="450" x2="687" y2="450" style="stroke:rgb(99,99,99);stroke-width:2" />
<rect height="7.000000" width="2.000000" x="85.000000" y="450.000000" fill="rgb(0, 0, 0)" style="fill-opacity:1.00" />
<text x="107.000000" y="470">
1
</text>
<rect height="7.000000" width="2.000000" x="145.000000" y="450.000000" fill="rgb(0, 0, 0)" style="fill-opacity:1.00" />
<text x="167.000000" y="470">
2
</text>
<rect height="7.000000" width="2.000000" x="205.000000" y="450.000000" fill="rgb(0, 0, 0)" style="fill-opacity:1.00" />
<text x="227.000000" y="470">
3
</text>
<rect height="7.000000" width="2.000000" x="265.000000" y="450.000000" fill="rgb(0, 0, 0)" style="fill-opacity:1.00" />
<text x="287.000000" y="470">
4
</text>
<rect height="7.000000" width="2.000000" x="325.000000" y="450.000000" fill="rgb(0, 0, 0)" style="fill-opacity:1.00" />
<text x="347.000000" y="470">
5
</text>
<rect height="7.000000" width="2.000000" x="385.000000" y="450.000000" fill="rgb(0, 0, 0)" style="fill-opacity:1.00" />
<text x="407.000000" y="470">
6
</text>
<rect height="7.000000" width="2.000000" x="445.000000" y="450.000000" fill="rgb(0, 0, 0)" style="fill-opacity:1.00" />
<text x="467.000000" y="470">
7
</text>
<rect height="7.000000" width="2.000000" x="505.000000" y="450.000000" fill="rgb(0, 0, 0)" style="fill-opacity:1.00" />
<text x="527.000000" y="470">
8
</text>
<rect height="7.000000" width="2.000000" x="565.000000" y="450.000000" fill="rgb(0, 0, 0)" style="fill-opacity:1.00" />
<text x="587.000000" y="470">
9
</text>
<rect height="7.000000" width="2.000000" x="625.000000" y="450.000000" fill="rgb(0, 0, 0)" style="fill-opacity:1.00" />
<text x="647.000000" y="470">
10
</text>
<rect height="7.000000" width="2.000000" x="685.000000" y="450.000000" fill="rgb(0, 0, 0)" style="fill-opacity:1.00" />
<!-- Begin 'A' -->
<polygon points=" 10.000000, 110.000000, 35.200000, 10.000000, 44.800000, 10.000000, 70.000000, 110.000000, 61.000000, 110.000000, 53.500000, 85.000000, 26.500000, 85.000000, 19.000000, 110.000000" fill="rgb(178, 34, 34)" style="fill-opacity:1.00" />
<polygon points=" 40.000000, 30.000000, 30.400000, 69.000000, 48.400000, 69.000000" fill="rgb(255, 255, 255)" style="fill-opacity:1.00" />
<!-- End 'A' -->
<!-- Begin 'C' -->
<ellipse cx="40.000000" cy="170.000000" rx="30.000000" ry="50.000000" fill="rgb(0, 0, 128)" style="fill-opacity:1.00" />
<ellipse cx="40.000000" cy="170.000000" rx="20.000000" ry="33.333333" fill="rgb(255, 255, 255)" style="fill-opacity:1.00" />
<rect height="50.000000" width="30.000000" x="40.000000" y="145.000000" fill="rgb(255, 255, 255)" style="fill-opacity:1.00" />
<!-- End 'C' -->
<!-- Begin 'G' -->
<ellipse cx="40.000000" cy="280.000000" rx="30.000000" ry="50.000000" fill="rgb(255, 165, 0)" style="fill-opacity:1.00" />
<ellipse cx="40.000000" cy="280.000000" rx="20.000000" ry="33.333333" fill="rgb(255, 255, 255)" style="fill-opacity:1.00" />
<rect height="50.000000" width="30.000000" x="40.000000" y="255.000000" fill="rgb(255, 255, 255)" style="fill-opacity:1.00" />
<rect height="12.500000" width="30.000000" x="40.000000" y="292.500000" fill="rgb(255, 165, 0)" style="fill-opacity:1.00" />
<rect height="37.500000" width="7.500000" x="62.500000" y="292.500000" fill="rgb(255, 165, 0)" style="fill-opacity:1.00" />
<!-- End 'G' -->
<!-- Begin 'T' -->
<rect height="16.000000" width="60.000000" x="10.000000" y="340.000000" fill="rgb(0, 100, 0)" style="fill-opacity:1.00" />
<rect height="100.000000" width="12.000000" x="34.000000" y="340.000000" fill="rgb(0, 100, 0)" style="fill-opacity:1.00" />
<!-- End 'T' -->
<!-- Begin 'G' -->
<ellipse cx="115.000000" cy="26.081025" rx="25.000000" ry="16.081025" fill="rgb(255, 165, 0)" style="fill-opacity:0.31" />
<ellipse cx="115.000000" cy="26.081025" rx="16.666667" ry="10.720683" fill="rgb(255, 255, 255)" style="fill-opacity:1.00" />
<rect height="16.081025" width="25.000000" x="115.000000" y="18.040512" fill="rgb(255, 255, 255)" style="fill-opacity:1.00" />
<rect height="4.020256" width="25.000000" x="115.000000" y="30.101281" fill="rgb(255, 165, 0)" style="fill-opacity:0.31" />
<rect height="12.060768" width="6.250000" x="133.750000" y="30.101281" fill="rgb(255, 165, 0)" style="fill-opacity:0.31" />
<!-- End 'G' -->
<!-- Begin 'T' -->
<rect height="4.462542" width="50.000000" x="90.000000" y="42.162049" fill="rgb(0, 100, 0)" style="fill-opacity:0.31" />
<rect height="27.890888" width="10.000000" x="110.000000" y="42.162049" fill="rgb(0, 100, 0)" style="fill-opacity:0.31" />
<!-- End 'T' -->
<!-- Begin 'A' -->
<polygon points=" 90.000000, 93.913340, 111.000000, 70.052937, 119.000000, 70.052937, 140.000000, 93.913340, 132.500000, 93.913340, 126.250000, 87.948239, 103.750000, 87.948239, 97.500000, 93.913340" fill="rgb(178, 34, 34)" style="fill-opacity:0.31" />
<polygon points=" 115.000000, 74.825017, 107.000000, 83.369179, 122.000000, 83.369179" fill="rgb(255, 255, 255)" style="fill-opacity:1.00" />
<!-- End 'A' -->
<!-- Begin 'C' -->
<ellipse cx="115.000000" cy="101.956670" rx="25.000000" ry="8.043330" fill="rgb(0, 0, 128)" style="fill-opacity:0.31" />
<ellipse cx="115.000000" cy="101.956670" rx="16.666667" ry="5.362220" fill="rgb(255, 255, 255)" style="fill-opacity:1.00" />
<rect height="8.043330" width="25.000000" x="115.000000" y="97.935005" fill="rgb(255, 255, 255)" style="fill-opacity:1.00" />
<!-- End 'C' -->
<!-- Begin 'A' -->
<polygon points=" 90.000000, 158.195352, 111.000000, 120.000000, 119.000000, 120.000000, 140.000000, 158.195352, 132.500000, 158.195352, 126.250000, 148.646514, 103.750000, 148.646514, 97.500000, 158.195352" fill="rgb(178, 34, 34)" style="fill-opacity:0.20" />
<polygon points=" 115.000000, 127.639070, 107.000000, 141.917211, 122.000000, 141.917211" fill="rgb(255, 255, 255)" style="fill-opacity:1.00" />
<!-- End 'A' -->
<!-- Begin 'G' -->
<ellipse cx="115.000000" cy="173.525281" rx="25.000000" ry="15.329929" fill="rgb(255, 165, 0)" style="fill-opacity:0.20" />
<ellipse cx="115.000000" cy="173.525281" rx="16.666667" ry="10.219953" fill="rgb(255, 255, 255)" style="fill-opacity:1.00" />
<rect height="15.329929" width="25.000000" x="115.000000" y="165.860317" fill="rgb(255, 255, 255)" style="fill-opacity:1.00" />
<rect height="3.832482" width="25.000000" x="115.000000" y="177.357764" fill="rgb(255, 165, 0)" style="fill-opacity:0.20" />
<rect height="11.497447" width="6.250000" x="133.750000" y="177.357764" fill="rgb(255, 165, 0)" style="fill-opacity:0.20" />
<!-- End 'G' -->
<!-- Begin 'T' -->
<rect height="3.032321" width="50.000000" x="90.000000" y="188.855210" fill="rgb(0, 100, 0)" style="fill-opacity:0.20" />
<rect height="18.952007" width="10.000000" x="110.000000" y="188.855210" fill="rgb(0, 100, 0)" style="fill-opacity:0.20" />
<!-- End 'T' -->
<!-- Begin 'C' -->
<ellipse cx="115.000000" cy="213.903609" rx="25.000000" ry="6.096391" fill="rgb(0, 0, 128)" style="fill-opacity:0.20" />
<ellipse cx="115.000000" cy="213.903609" rx="16.666667" ry="4.064261" fill="rgb(255, 255, 255)" style="fill-opacity:1.00" />
<rect height="6.096391" width="25.000000" x="115.000000" y="210.855413" fill="rgb(255, 255, 255)" style="fill-opacity:1.00" />
<!-- End 'C' -->
<!-- Begin 'G' -->
<ellipse cx="115.000000" cy="244.185210" rx="25.000000" ry="14.185210" fill="rgb(255, 165, 0)" style="fill-opacity:0.19" />
<ellipse cx="115.000000" cy="244.185210" rx="16.666667" ry="9.456807" fill="rgb(255, 255, 255)" style="fill-opacity:1.00" />
<rect height="14.185210" width="25.000000" x="115.000000" y="237.092605" fill="rgb(255, 255, 255)" style="fill-opacity:1.00" />
<rect height="3.546303" width="25.000000" x="115.000000" y="247.731513" fill="rgb(255, 165, 0)" style="fill-opacity:0.19" />
<rect height="10.638908" width="6.250000" x="133.750000" y="247.731513" fill="rgb(255, 165, 0)" style="fill-opacity:0.19" />
<!-- End 'G' -->
<!-- Begin 'A' -->
<polygon points=" 90.000000, 286.412992, 111.000000, 258.370421, 119.000000, 258.370421, 140.000000, 286.412992, 132.500000, 286.412992, 126.250000, 279.402349, 103.750000, 279.402349, 97.500000, 286.412992" fill="rgb(178, 34, 34)" style="fill-opacity:0.19" />
<polygon points=" 115.000000, 263.978935, 107.000000, 274.195964, 122.000000, 274.195964" fill="rgb(255, 255, 255)" style="fill-opacity:1.00" />
<!-- End 'A' -->
<!-- Begin 'T' -->
<rect height="4.256057" width="50.000000" x="90.000000" y="286.412992" fill="rgb(0, 100, 0)" style="fill-opacity:0.19" />
<rect height="26.600359" width="10.000000" x="110.000000" y="286.412992" fill="rgb(0, 100, 0)" style="fill-opacity:0.19" />
<!-- End 'T' -->
<!-- Begin 'C' -->
<ellipse cx="115.000000" cy="321.506675" rx="25.000000" ry="8.493325" fill="rgb(0, 0, 128)" style="fill-opacity:0.19" />
<ellipse cx="115.000000" cy="321.506675" rx="16.666667" ry="5.662216" fill="rgb(255, 255, 255)" style="fill-opacity:1.00" />
<rect height="8.493325" width="25.000000" x="115.000000" y="317.260013" fill="rgb(255, 255, 255)" style="fill-opacity:1.00" />
<!-- End 'C' -->
<!-- Begin 'G' -->
<ellipse cx="115.000000" cy="365.482094" rx="25.000000" ry="25.482094" fill="rgb(255, 165, 0)" style="fill-opacity:0.30" />
<ellipse cx="115.000000" cy="365.482094" rx="16.666667" ry="16.988063" fill="rgb(255, 255, 255)" style="fill-opacity:1.00" />
<rect height="25.482094" width="25.000000" x="115.000000" y="352.741047" fill="rgb(255, 255, 255)" style="fill-opacity:1.00" />
<rect height="6.370524" width="25.000000" x="115.000000" y="371.852618" fill="rgb(255, 165, 0)" style="fill-opacity:0.30" />
<rect height="19.111571" width="6.250000" x="133.750000" y="371.852618" fill="rgb(255, 165, 0)" style="fill-opacity:0.30" />
<!-- End 'G' -->
<!-- Begin 'A' -->
<polygon points=" 90.000000, 411.396378, 111.000000, 390.964189, 119.000000, 390.964189, 140.000000, 411.396378, 132.500000, 411.396378, 126.250000, 406.288331, 103.750000, 406.288331, 97.500000, 411.396378" fill="rgb(178, 34, 34)" style="fill-opacity:0.30" />
<polygon points=" 115.000000, 395.050627, 107.000000, 402.223502, 122.000000, 402.223502" fill="rgb(255, 255, 255)" style="fill-opacity:1.00" />
<!-- End 'A' -->
<!-- Begin 'T' -->
<rect height="2.804396" width="50.000000" x="90.000000" y="411.396378" fill="rgb(0, 100, 0)" style="fill-opacity:0.30" />
<rect height="17.527472" width="10.000000" x="110.000000" y="411.396378" fill="rgb(0, 100, 0)" style="fill-opacity:0.30" />
<!-- End 'T' -->
<!-- Begin 'C' -->
<ellipse cx="115.000000" cy="434.461925" rx="25.000000" ry="5.538075" fill="rgb(0, 0, 128)" style="fill-opacity:0.30" />
<ellipse cx="115.000000" cy="434.461925" rx="16.666667" ry="3.692050" fill="rgb(255, 255, 255)" style="fill-opacity:1.00" />
<rect height="5.538075" width="25.000000" x="115.000000" y="431.692888" fill="rgb(255, 255, 255)" style="fill-opacity:1.00" />
<!-- End 'C' -->
<!-- Begin 'A' -->
<polygon points=" 150.000000, 42.872469, 171.000000, 10.000000, 179.000000, 10.000000, 200.000000, 42.872469, 192.500000, 42.872469, 186.250000, 34.654351, 163.750000, 34.654351, 157.500000, 42.872469" fill="rgb(178, 34, 34)" style="fill-opacity:0.27" />
<polygon points=" 175.000000, 16.574494, 167.000000, 28.723481, 182.000000, 28.723481" fill="rgb(255, 255, 255)" style="fill-opacity:1.00" />
<!-- End 'A' -->
<!-- Begin 'T' -->
<rect height="5.069996" width="50.000000" x="150.000000" y="42.872469" fill="rgb(0, 100, 0)" style="fill-opacity:0.27" />
<rect height="31.687477" width="10.000000" x="170.000000" y="42.872469" fill="rgb(0, 100, 0)" style="fill-opacity:0.27" />
<!-- End 'T' -->
<!-- Begin 'G' -->
<ellipse cx="175.000000" cy="86.280249" rx="25.000000" ry="11.720304" fill="rgb(255, 165, 0)" style="fill-opacity:0.27" />
<ellipse cx="175.000000" cy="86.280249" rx="16.666667" ry="7.813536" fill="rgb(255, 255, 255)" style="fill-opacity:1.00" />
<rect height="11.720304" width="25.000000" x="175.000000" y="80.420097" fill="rgb(255, 255, 255)" style="fill-opacity:1.00" />
<rect height="2.930076" width="25.000000" x="175.000000" y="89.210325" fill="rgb(255, 165, 0)" style="fill-opacity:0.27" />
<rect height="8.790228" width="6.250000" x="193.750000" y="89.210325" fill="rgb(255, 165, 0)" style="fill-opacity:0.27" />
<!-- End 'G' -->
<!-- Begin 'C' -->
<ellipse cx="175.000000" cy="104.000277" rx="25.000000" ry="5.999723" fill="rgb(0, 0, 128)" style="fill-opacity:0.27" />
<ellipse cx="175.000000" cy="104.000277" rx="16.666667" ry="3.999816" fill="rgb(255, 255, 255)" style="fill-opacity:1.00" />
<rect height="5.999723" width="25.000000" x="175.000000" y="101.000415" fill="rgb(255, 255, 255)" style="fill-opacity:1.00" />
<!-- End 'C' -->
<!-- Begin 'A' -->
<polygon points=" 150.000000, 162.132380, 171.000000, 120.000000, 179.000000, 120.000000, 200.000000, 162.132380, 192.500000, 162.132380, 186.250000, 151.599285, 163.750000, 151.599285, 157.500000, 162.132380" fill="rgb(178, 34, 34)" style="fill-opacity:0.14" />
<polygon points=" 175.000000, 128.426476, 167.000000, 144.279428, 182.000000, 144.279428" fill="rgb(255, 255, 255)" style="fill-opacity:1.00" />
<!-- End 'A' -->
<!-- Begin 'G' -->
<ellipse cx="175.000000" cy="174.933673" rx="25.000000" ry="12.801294" fill="rgb(255, 165, 0)" style="fill-opacity:0.14" />
<ellipse cx="175.000000" cy="174.933673" rx="16.666667" ry="8.534196" fill="rgb(255, 255, 255)" style="fill-opacity:1.00" />
<rect height="12.801294" width="25.000000" x="175.000000" y="168.533027" fill="rgb(255, 255, 255)" style="fill-opacity:1.00" />
<rect height="3.200323" width="25.000000" x="175.000000" y="178.133997" fill="rgb(255, 165, 0)" style="fill-opacity:0.14" />
<rect height="9.600970" width="6.250000" x="193.750000" y="178.133997" fill="rgb(255, 165, 0)" style="fill-opacity:0.14" />
<!-- End 'G' -->
<!-- Begin 'T' -->
<rect height="3.249226" width="50.000000" x="150.000000" y="187.734967" fill="rgb(0, 100, 0)" style="fill-opacity:0.14" />
<rect height="20.307666" width="10.000000" x="170.000000" y="187.734967" fill="rgb(0, 100, 0)" style="fill-opacity:0.14" />
<!-- End 'T' -->
<!-- Begin 'C' -->
<ellipse cx="175.000000" cy="214.021316" rx="25.000000" ry="5.978684" fill="rgb(0, 0, 128)" style="fill-opacity:0.14" />
<ellipse cx="175.000000" cy="214.021316" rx="16.666667" ry="3.985789" fill="rgb(255, 255, 255)" style="fill-opacity:1.00" />
<rect height="5.978684" width="25.000000" x="175.000000" y="211.031975" fill="rgb(255, 255, 255)" style="fill-opacity:1.00" />
<!-- End 'C' -->
<!-- Begin 'A' -->
<polygon points=" 150.000000, 273.562230, 171.000000, 230.000000, 179.000000, 230.000000, 200.000000, 273.562230, 192.500000, 273.562230, 186.250000, 262.671673, 163.750000, 262.671673, 157.500000, 273.562230" fill="rgb(178, 34, 34)" style="fill-opacity:0.38" />
<polygon points=" 175.000000, 238.712446, 167.000000, 255.137338, 182.000000, 255.137338" fill="rgb(255, 255, 255)" style="fill-opacity:1.00" />
<!-- End 'A' -->
<!-- Begin 'C' -->
<ellipse cx="175.000000" cy="285.953057" rx="25.000000" ry="12.390827" fill="rgb(0, 0, 128)" style="fill-opacity:0.38" />
<ellipse cx="175.000000" cy="285.953057" rx="16.666667" ry="8.260551" fill="rgb(255, 255, 255)" style="fill-opacity:1.00" />
<rect height="12.390827" width="25.000000" x="175.000000" y="279.757644" fill="rgb(255, 255, 255)" style="fill-opacity:1.00" />
<!-- End 'C' -->
<!-- Begin 'T' -->
<rect height="2.549988" width="50.000000" x="150.000000" y="298.343884" fill="rgb(0, 100, 0)" style="fill-opacity:0.38" />
<rect height="15.937424" width="10.000000" x="170.000000" y="298.343884" fill="rgb(0, 100, 0)" style="fill-opacity:0.38" />
<!-- End 'T' -->
<!-- Begin 'G' -->
<ellipse cx="175.000000" cy="322.140654" rx="25.000000" ry="7.859346" fill="rgb(255, 165, 0)" style="fill-opacity:0.38" />
<ellipse cx="175.000000" cy="322.140654" rx="16.666667" ry="5.239564" fill="rgb(255, 255, 255)" style="fill-opacity:1.00" />
<rect height="7.859346" width="25.000000" x="175.000000" y="318.210981" fill="rgb(255, 255, 255)" style="fill-opacity:1.00" />
<rect height="1.964837" width="25.000000" x="175.000000" y="324.105490" fill="rgb(255, 165, 0)" style="fill-opacity:0.38" />
<rect height="5.894510" width="6.250000" x="193.750000" y="324.105490" fill="rgb(255, 165, 0)" style="fill-opacity:0.38" />
<!-- End 'G' -->
<!-- Begin 'G' -->
<ellipse cx="175.000000" cy="356.245995" rx="25.000000" ry="16.245995" fill="rgb(255, 165, 0)" style="fill-opacity:0.22" />
<ellipse cx="175.000000" cy="356.245995" rx="16.666667" ry="10.830663" fill="rgb(255, 255, 255)" style="fill-opacity:1.00" />
<rect height="16.245995" width="25.000000" x="175.000000" y="348.122998" fill="rgb(255, 255, 255)" style="fill-opacity:1.00" />
<rect height="4.061499" width="25.000000" x="175.000000" y="360.307494" fill="rgb(255, 165, 0)" style="fill-opacity:0.22" />
<rect height="12.184496" width="6.250000" x="193.750000" y="360.307494" fill="rgb(255, 165, 0)" style="fill-opacity:0.22" />
<!-- End 'G' -->
<!-- Begin 'A' -->
<polygon points=" 150.000000, 400.545642, 171.000000, 372.491990, 179.000000, 372.491990, 200.000000, 400.545642, 192.500000, 400.545642, 186.250000, 393.532229, 163.750000, 393.532229, 157.500000, 400.545642" fill="rgb(178, 34, 34)" style="fill-opacity:0.22" />
<polygon points=" 175.000000, 378.102721, 167.000000, 388.324181, 182.000000, 388.324181" fill="rgb(255, 255, 255)" style="fill-opacity:1.00" />
<!-- End 'A' -->
<!-- Begin 'C' -->
<ellipse cx="175.000000" cy="411.159908" rx="25.000000" ry="10.614266" fill="rgb(0, 0, 128)" style="fill-opacity:0.22" />
<ellipse cx="175.000000" cy="411.159908" rx="16.666667" ry="7.076177" fill="rgb(255, 255, 255)" style="fill-opacity:1.00" />
<rect height="10.614266" width="25.000000" x="175.000000" y="405.852775" fill="rgb(255, 255, 255)" style="fill-opacity:1.00" />
<!-- End 'C' -->
<!-- Begin 'T' -->
<rect height="2.916132" width="50.000000" x="150.000000" y="421.774174" fill="rgb(0, 100, 0)" style="fill-opacity:0.22" />
<rect height="18.225826" width="10.000000" x="170.000000" y="421.774174" fill="rgb(0, 100, 0)" style="fill-opacity:0.22" />
<!-- End 'T' -->
<!-- Begin 'T' -->
<rect height="12.283214" width="50.000000" x="210.000000" y="10.000000" fill="rgb(0, 100, 0)" style="fill-opacity:0.37" />
<rect height="76.770088" width="10.000000" x="230.000000" y="10.000000" fill="rgb(0, 100, 0)" style="fill-opacity:0.37" />
<!-- End 'T' -->
<!-- Begin 'C' -->
<ellipse cx="235.000000" cy="92.860897" rx="25.000000" ry="6.090809" fill="rgb(0, 0, 128)" style="fill-opacity:0.37" />
<ellipse cx="235.000000" cy="92.860897" rx="16.666667" ry="4.060539" fill="rgb(255, 255, 255)" style="fill-opacity:1.00" />
<rect height="6.090809" width="25.000000" x="235.000000" y="89.815493" fill="rgb(255, 255, 255)" style="fill-opacity:1.00" />
<!-- End 'C' -->
<!-- Begin 'A' -->
<polygon points=" 210.000000, 108.113428, 231.000000, 98.951706, 239.000000, 98.951706, 260.000000, 108.113428, 252.500000, 108.113428, 246.250000, 105.822997, 223.750000, 105.822997, 217.500000, 108.113428" fill="rgb(178, 34, 34)" style="fill-opacity:0.37" />
<polygon points=" 235.000000, 100.784050, 227.000000, 103.448739, 242.000000, 103.448739" fill="rgb(255, 255, 255)" style="fill-opacity:1.00" />
<!-- End 'A' -->
<!-- Begin 'G' -->
<ellipse cx="235.000000" cy="109.056714" rx="25.000000" ry="0.943286" fill="rgb(255, 165, 0)" style="fill-opacity:0.37" />
<ellipse cx="235.000000" cy="109.056714" rx="16.666667" ry="0.628857" fill="rgb(255, 255, 255)" style="fill-opacity:1.00" />
<rect height="0.943286" width="25.000000" x="235.000000" y="108.585071" fill="rgb(255, 255, 255)" style="fill-opacity:1.00" />
<rect height="0.235822" width="25.000000" x="235.000000" y="109.292535" fill="rgb(255, 165, 0)" style="fill-opacity:0.37" />
<rect height="0.707465" width="6.250000" x="253.750000" y="109.292535" fill="rgb(255, 165, 0)" style="fill-opacity:0.37" />
<!-- End 'G' -->
<!-- Begin 'T' -->
<rect height="9.972940" width="50.000000" x="210.000000" y="120.000000" fill="rgb(0, 100, 0)" style="fill-opacity:0.19" />
<rect height="62.330877" width="10.000000" x="230.000000" y="120.000000" fill="rgb(0, 100, 0)" style="fill-opacity:0.19" />
<!-- End 'T' -->
<!-- Begin 'A' -->
<polygon points=" 210.000000, 201.996476, 231.000000, 182.330877, 239.000000, 182.330877, 260.000000, 201.996476, 252.500000, 201.996476, 246.250000, 197.080077, 223.750000, 197.080077, 217.500000, 201.996476" fill="rgb(178, 34, 34)" style="fill-opacity:0.19" />
<polygon points=" 235.000000, 186.263997, 227.000000, 193.130237, 242.000000, 193.130237" fill="rgb(255, 255, 255)" style="fill-opacity:1.00" />
<!-- End 'A' -->
<!-- Begin 'C' -->
<ellipse cx="235.000000" cy="209.551250" rx="25.000000" ry="7.554774" fill="rgb(0, 0, 128)" style="fill-opacity:0.19" />
<ellipse cx="235.000000" cy="209.551250" rx="16.666667" ry="5.036516" fill="rgb(255, 255, 255)" style="fill-opacity:1.00" />
<rect height="7.554774" width="25.000000" x="235.000000" y="205.773863" fill="rgb(255, 255, 255)" style="fill-opacity:1.00" />
<!-- End 'C' -->
<!-- Begin 'G' -->
<ellipse cx="235.000000" cy="218.553012" rx="25.000000" ry="1.446988" fill="rgb(255, 165, 0)" style="fill-opacity:0.19" />
<ellipse cx="235.000000" cy="218.553012" rx="16.666667" ry="0.964659" fill="rgb(255, 255, 255)" style="fill-opacity:1.00" />
<rect height="1.446988" width="25.000000" x="235.000000" y="217.829518" fill="rgb(255, 255, 255)" style="fill-opacity:1.00" />
<rect height="0.361747" width="25.000000" x="235.000000" y="218.914759" fill="rgb(255, 165, 0)" style="fill-opacity:0.19" />
<rect height="1.085241" width="6.250000" x="253.750000" y="218.914759" fill="rgb(255, 165, 0)" style="fill-opacity:0.19" />
<!-- End 'G' -->
<!-- Begin 'T' -->
<rect height="9.912649" width="50.000000" x="210.000000" y="230.000000" fill="rgb(0, 100, 0)" style="fill-opacity:0.23" />
<rect height="61.954058" width="10.000000" x="230.000000" y="230.000000" fill="rgb(0, 100, 0)" style="fill-opacity:0.23" />
<!-- End 'T' -->
<!-- Begin 'C' -->
<ellipse cx="235.000000" cy="303.157621" rx="25.000000" ry="11.203562" fill="rgb(0, 0, 128)" style="fill-opacity:0.23" />
<ellipse cx="235.000000" cy="303.157621" rx="16.666667" ry="7.469042" fill="rgb(255, 255, 255)" style="fill-opacity:1.00" />
<rect height="11.203562" width="25.000000" x="235.000000" y="297.555840" fill="rgb(255, 255, 255)" style="fill-opacity:1.00" />
<!-- End 'C' -->
<!-- Begin 'A' -->
<polygon points=" 210.000000, 328.368180, 231.000000, 314.361183, 239.000000, 314.361183, 260.000000, 328.368180, 252.500000, 328.368180, 246.250000, 324.866431, 223.750000, 324.866431, 217.500000, 328.368180" fill="rgb(178, 34, 34)" style="fill-opacity:0.23" />
<polygon points=" 235.000000, 317.162583, 227.000000, 321.765382, 242.000000, 321.765382" fill="rgb(255, 255, 255)" style="fill-opacity:1.00" />
<!-- End 'A' -->
<!-- Begin 'G' -->
<ellipse cx="235.000000" cy="329.184090" rx="25.000000" ry="0.815910" fill="rgb(255, 165, 0)" style="fill-opacity:0.23" />
<ellipse cx="235.000000" cy="329.184090" rx="16.666667" ry="0.543940" fill="rgb(255, 255, 255)" style="fill-opacity:1.00" />
<rect height="0.815910" width="25.000000" x="235.000000" y="328.776135" fill="rgb(255, 255, 255)" style="fill-opacity:1.00" />
<rect height="0.203977" width="25.000000" x="235.000000" y="329.388068" fill="rgb(255, 165, 0)" style="fill-opacity:0.23" />
<rect height="0.611932" width="6.250000" x="253.750000" y="329.388068" fill="rgb(255, 165, 0)" style="fill-opacity:0.23" />
<!-- End 'G' -->
<!-- Begin 'C' -->
<ellipse cx="235.000000" cy="362.752497" rx="25.000000" ry="22.752497" fill="rgb(0, 0, 128)" style="fill-opacity:0.21" />
<ellipse cx="235.000000" cy="362.752497" rx="16.666667" ry="15.168331" fill="rgb(255, 255, 255)" style="fill-opacity:1.00" />
<rect height="22.752497" width="25.000000" x="235.000000" y="351.376248" fill="rgb(255, 255, 255)" style="fill-opacity:1.00" />
<!-- End 'C' -->
<!-- Begin 'T' -->
<rect height="4.276387" width="50.000000" x="210.000000" y="385.504994" fill="rgb(0, 100, 0)" style="fill-opacity:0.21" />
<rect height="26.727418" width="10.000000" x="230.000000" y="385.504994" fill="rgb(0, 100, 0)" style="fill-opacity:0.21" />
<!-- End 'T' -->
<!-- Begin 'A' -->
<polygon points=" 210.000000, 435.028022, 231.000000, 412.232412, 239.000000, 412.232412, 260.000000, 435.028022, 252.500000, 435.028022, 246.250000, 429.329119, 223.750000, 429.329119, 217.500000, 435.028022" fill="rgb(178, 34, 34)" style="fill-opacity:0.21" />
<polygon points=" 235.000000, 416.791534, 227.000000, 424.909778, 242.000000, 424.909778" fill="rgb(255, 255, 255)" style="fill-opacity:1.00" />
<!-- End 'A' -->
<!-- Begin 'G' -->
<ellipse cx="235.000000" cy="437.514011" rx="25.000000" ry="2.485989" fill="rgb(255, 165, 0)" style="fill-opacity:0.21" />
<ellipse cx="235.000000" cy="437.514011" rx="16.666667" ry="1.657326" fill="rgb(255, 255, 255)" style="fill-opacity:1.00" />
<rect height="2.485989" width="25.000000" x="235.000000" y="436.271016" fill="rgb(255, 255, 255)" style="fill-opacity:1.00" />
<rect height="0.621497" width="25.000000" x="235.000000" y="438.135508" fill="rgb(255, 165, 0)" style="fill-opacity:0.21" />
<rect height="1.864492" width="6.250000" x="253.750000" y="438.135508" fill="rgb(255, 165, 0)" style="fill-opacity:0.21" />
<!-- End 'G' -->
<!-- Begin 'T' -->
<rect height="6.281039" width="50.000000" x="270.000000" y="10.000000" fill="rgb(0, 100, 0)" style="fill-opacity:0.15" />
<rect height="39.256495" width="10.000000" x="290.000000" y="10.000000" fill="rgb(0, 100, 0)" style="fill-opacity:0.15" />
<!-- End 'T' -->
<!-- Begin 'C' -->
<ellipse cx="295.000000" cy="63.948669" rx="25.000000" ry="14.692174" fill="rgb(0, 0, 128)" style="fill-opacity:0.15" />
<ellipse cx="295.000000" cy="63.948669" rx="16.666667" ry="9.794783" fill="rgb(255, 255, 255)" style="fill-opacity:1.00" />
<rect height="14.692174" width="25.000000" x="295.000000" y="56.602582" fill="rgb(255, 255, 255)" style="fill-opacity:1.00" />
<!-- End 'C' -->
<!-- Begin 'G' -->
<ellipse cx="295.000000" cy="86.848855" rx="25.000000" ry="8.208013" fill="rgb(255, 165, 0)" style="fill-opacity:0.15" />
<ellipse cx="295.000000" cy="86.848855" rx="16.666667" ry="5.472008" fill="rgb(255, 255, 255)" style="fill-opacity:1.00" />
<rect height="8.208013" width="25.000000" x="295.000000" y="82.744849" fill="rgb(255, 255, 255)" style="fill-opacity:1.00" />
<rect height="2.052003" width="25.000000" x="295.000000" y="88.900858" fill="rgb(255, 165, 0)" style="fill-opacity:0.15" />
<rect height="6.156010" width="6.250000" x="313.750000" y="88.900858" fill="rgb(255, 165, 0)" style="fill-opacity:0.15" />
<!-- End 'G' -->
<!-- Begin 'A' -->
<polygon points=" 270.000000, 110.000000, 291.000000, 95.056868, 299.000000, 95.056868, 320.000000, 110.000000, 312.500000, 110.000000, 306.250000, 106.264217, 283.750000, 106.264217, 277.500000, 110.000000" fill="rgb(178, 34, 34)" style="fill-opacity:0.15" />
<polygon points=" 295.000000, 98.045494, 287.000000, 103.022747, 302.000000, 103.022747" fill="rgb(255, 255, 255)" style="fill-opacity:1.00" />
<!-- End 'A' -->
<!-- Begin 'A' -->
<polygon points=" 270.000000, 159.346330, 291.000000, 120.000000, 299.000000, 120.000000, 320.000000, 159.346330, 312.500000, 159.346330, 306.250000, 149.509748, 283.750000, 149.509748, 277.500000, 159.346330" fill="rgb(178, 34, 34)" style="fill-opacity:0.22" />
<polygon points=" 295.000000, 127.869266, 287.000000, 142.607798, 302.000000, 142.607798" fill="rgb(255, 255, 255)" style="fill-opacity:1.00" />
<!-- End 'A' -->
<!-- Begin 'C' -->
<ellipse cx="295.000000" cy="172.478178" rx="25.000000" ry="13.131848" fill="rgb(0, 0, 128)" style="fill-opacity:0.22" />
<ellipse cx="295.000000" cy="172.478178" rx="16.666667" ry="8.754565" fill="rgb(255, 255, 255)" style="fill-opacity:1.00" />
<rect height="13.131848" width="25.000000" x="295.000000" y="165.912254" fill="rgb(255, 255, 255)" style="fill-opacity:1.00" />
<!-- End 'C' -->
<!-- Begin 'G' -->
<ellipse cx="295.000000" cy="195.281437" rx="25.000000" ry="9.671411" fill="rgb(255, 165, 0)" style="fill-opacity:0.22" />
<ellipse cx="295.000000" cy="195.281437" rx="16.666667" ry="6.447607" fill="rgb(255, 255, 255)" style="fill-opacity:1.00" />
<rect height="9.671411" width="25.000000" x="295.000000" y="190.445732" fill="rgb(255, 255, 255)" style="fill-opacity:1.00" />
<rect height="2.417853" width="25.000000" x="295.000000" y="197.699290" fill="rgb(255, 165, 0)" style="fill-opacity:0.22" />
<rect height="7.253558" width="6.250000" x="313.750000" y="197.699290" fill="rgb(255, 165, 0)" style="fill-opacity:0.22" />
<!-- End 'G' -->
<!-- Begin 'T' -->
<rect height="2.407544" width="50.000000" x="270.000000" y="204.952848" fill="rgb(0, 100, 0)" style="fill-opacity:0.22" />
<rect height="15.047152" width="10.000000" x="290.000000" y="204.952848" fill="rgb(0, 100, 0)" style="fill-opacity:0.22" />
<!-- End 'T' -->
<!-- Begin 'T' -->
<rect height="11.091176" width="50.000000" x="270.000000" y="230.000000" fill="rgb(0, 100, 0)" style="fill-opacity:0.03" />
<rect height="69.319848" width="10.000000" x="290.000000" y="230.000000" fill="rgb(0, 100, 0)" style="fill-opacity:0.03" />
<!-- End 'T' -->
<!-- Begin 'G' -->
<ellipse cx="295.000000" cy="311.175165" rx="25.000000" ry="11.855317" fill="rgb(255, 165, 0)" style="fill-opacity:0.03" />
<ellipse cx="295.000000" cy="311.175165" rx="16.666667" ry="7.903545" fill="rgb(255, 255, 255)" style="fill-opacity:1.00" />
<rect height="11.855317" width="25.000000" x="295.000000" y="305.247506" fill="rgb(255, 255, 255)" style="fill-opacity:1.00" />
<rect height="2.963829" width="25.000000" x="295.000000" y="314.138994" fill="rgb(255, 165, 0)" style="fill-opacity:0.03" />
<rect height="8.891488" width="6.250000" x="313.750000" y="314.138994" fill="rgb(255, 165, 0)" style="fill-opacity:0.03" />
<!-- End 'G' -->
<!-- Begin 'C' -->
<ellipse cx="295.000000" cy="326.295675" rx="25.000000" ry="3.265192" fill="rgb(0, 0, 128)" style="fill-opacity:0.03" />
<ellipse cx="295.000000" cy="326.295675" rx="16.666667" ry="2.176795" fill="rgb(255, 255, 255)" style="fill-opacity:1.00" />
<rect height="3.265192" width="25.000000" x="295.000000" y="324.663079" fill="rgb(255, 255, 255)" style="fill-opacity:1.00" />
<!-- End 'C' -->
<!-- Begin 'A' -->
<polygon points=" 270.000000, 330.000000, 291.000000, 329.560866, 299.000000, 329.560866, 320.000000, 330.000000, 312.500000, 330.000000, 306.250000, 329.890217, 283.750000, 329.890217, 277.500000, 330.000000" fill="rgb(178, 34, 34)" style="fill-opacity:0.03" />
<!-- End 'A' -->
<!-- Begin 'G' -->
<ellipse cx="295.000000" cy="376.869282" rx="25.000000" ry="36.869282" fill="rgb(255, 165, 0)" style="fill-opacity:0.60" />
<ellipse cx="295.000000" cy="376.869282" rx="16.666667" ry="24.579521" fill="rgb(255, 255, 255)" style="fill-opacity:1.00" />
<rect height="36.869282" width="25.000000" x="295.000000" y="358.434641" fill="rgb(255, 255, 255)" style="fill-opacity:1.00" />
<rect height="9.217321" width="25.000000" x="295.000000" y="386.086603" fill="rgb(255, 165, 0)" style="fill-opacity:0.60" />
<rect height="27.651962" width="6.250000" x="313.750000" y="386.086603" fill="rgb(255, 165, 0)" style="fill-opacity:0.60" />
<!-- End 'G' -->
<!-- Begin 'T' -->
<rect height="2.946944" width="50.000000" x="270.000000" y="413.738564" fill="rgb(0, 100, 0)" style="fill-opacity:0.60" />
<rect height="18.418402" width="10.000000" x="290.000000" y="413.738564" fill="rgb(0, 100, 0)" style="fill-opacity:0.60" />
<!-- End 'T' -->
<!-- Begin 'A' -->
<polygon points=" 270.000000, 436.886934, 291.000000, 432.156966, 299.000000, 432.156966, 320.000000, 436.886934, 312.500000, 436.886934, 306.250000, 435.704442, 283.750000, 435.704442, 277.500000, 436.886934" fill="rgb(178, 34, 34)" style="fill-opacity:0.60" />
<!-- End 'A' -->
<!-- Begin 'C' -->
<ellipse cx="295.000000" cy="438.443467" rx="25.000000" ry="1.556533" fill="rgb(0, 0, 128)" style="fill-opacity:0.60" />
<ellipse cx="295.000000" cy="438.443467" rx="16.666667" ry="1.037689" fill="rgb(255, 255, 255)" style="fill-opacity:1.00" />
<rect height="1.556533" width="25.000000" x="295.000000" y="437.665200" fill="rgb(255, 255, 255)" style="fill-opacity:1.00" />
<!-- End 'C' -->
<!-- Begin 'T' -->
<rect height="7.971095" width="50.000000" x="330.000000" y="10.000000" fill="rgb(0, 100, 0)" style="fill-opacity:0.14" />
<rect height="49.819346" width="10.000000" x="350.000000" y="10.000000" fill="rgb(0, 100, 0)" style="fill-opacity:0.14" />
<!-- End 'T' -->
<!-- Begin 'A' -->
<polygon points=" 330.000000, 100.547338, 351.000000, 59.819346, 359.000000, 59.819346, 380.000000, 100.547338, 372.500000, 100.547338, 366.250000, 90.365340, 343.750000, 90.365340, 337.500000, 100.547338" fill="rgb(178, 34, 34)" style="fill-opacity:0.14" />
<polygon points=" 355.000000, 67.964944, 347.000000, 83.256141, 362.000000, 83.256141" fill="rgb(255, 255, 255)" style="fill-opacity:1.00" />
<!-- End 'A' -->
<!-- Begin 'C' -->
<ellipse cx="355.000000" cy="105.255874" rx="25.000000" ry="4.708537" fill="rgb(0, 0, 128)" style="fill-opacity:0.14" />
<ellipse cx="355.000000" cy="105.255874" rx="16.666667" ry="3.139024" fill="rgb(255, 255, 255)" style="fill-opacity:1.00" />
<rect height="4.708537" width="25.000000" x="355.000000" y="102.901606" fill="rgb(255, 255, 255)" style="fill-opacity:1.00" />
<!-- End 'C' -->
<!-- Begin 'G' -->
<ellipse cx="355.000000" cy="109.982205" rx="25.000000" ry="0.017795" fill="rgb(255, 165, 0)" style="fill-opacity:0.14" />
<ellipse cx="355.000000" cy="109.982205" rx="16.666667" ry="0.011863" fill="rgb(255, 255, 255)" style="fill-opacity:1.00" />
<rect height="0.017795" width="25.000000" x="355.000000" y="109.973308" fill="rgb(255, 255, 255)" style="fill-opacity:1.00" />
<rect height="0.004449" width="25.000000" x="355.000000" y="109.986654" fill="rgb(255, 165, 0)" style="fill-opacity:0.14" />
<rect height="0.013346" width="6.250000" x="373.750000" y="109.986654" fill="rgb(255, 165, 0)" style="fill-opacity:0.14" />
<!-- End 'G' -->
<!-- Begin 'A' -->
<polygon points=" 330.000000, 214.992521, 351.000000, 120.000000, 359.000000, 120.000000, 380.000000, 214.992521, 372.500000, 214.992521, 366.250000, 191.244391, 343.750000, 191.244391, 337.500000, 214.992521" fill="rgb(178, 34, 34)" style="fill-opacity:0.12" />
<polygon points=" 355.000000, 138.998504, 347.000000, 175.995513, 362.000000, 175.995513" fill="rgb(255, 255, 255)" style="fill-opacity:1.00" />
<!-- End 'A' -->
<!-- Begin 'T' -->
<rect height="0.740947" width="50.000000" x="330.000000" y="214.992521" fill="rgb(0, 100, 0)" style="fill-opacity:0.12" />
<rect height="4.630919" width="10.000000" x="350.000000" y="214.992521" fill="rgb(0, 100, 0)" style="fill-opacity:0.12" />
<!-- End 'T' -->
<!-- Begin 'G' -->
<ellipse cx="355.000000" cy="219.811639" rx="25.000000" ry="0.188198" fill="rgb(255, 165, 0)" style="fill-opacity:0.12" />
<ellipse cx="355.000000" cy="219.811639" rx="16.666667" ry="0.125465" fill="rgb(255, 255, 255)" style="fill-opacity:1.00" />
<rect height="0.188198" width="25.000000" x="355.000000" y="219.717540" fill="rgb(255, 255, 255)" style="fill-opacity:1.00" />
<rect height="0.047050" width="25.000000" x="355.000000" y="219.858688" fill="rgb(255, 165, 0)" style="fill-opacity:0.12" />
<rect height="0.141149" width="6.250000" x="373.750000" y="219.858688" fill="rgb(255, 165, 0)" style="fill-opacity:0.12" />
<!-- End 'G' -->
<!-- Begin 'C' -->
<ellipse cx="355.000000" cy="219.999918" rx="25.000000" ry="0.000082" fill="rgb(0, 0, 128)" style="fill-opacity:0.12" />
<ellipse cx="355.000000" cy="219.999918" rx="16.666667" ry="0.000054" fill="rgb(255, 255, 255)" style="fill-opacity:1.00" />
<rect height="0.000082" width="25.000000" x="355.000000" y="219.999877" fill="rgb(255, 255, 255)" style="fill-opacity:1.00" />
<!-- End 'C' -->
<!-- Begin 'A' -->
<polygon points=" 330.000000, 320.708996, 351.000000, 230.000000, 359.000000, 230.000000, 380.000000, 320.708996, 372.500000, 320.708996, 366.250000, 298.031747, 343.750000, 298.031747, 337.500000, 320.708996" fill="rgb(178, 34, 34)" style="fill-opacity:0.52" />
<polygon points=" 355.000000, 248.141799, 347.000000, 283.425397, 362.000000, 283.425397" fill="rgb(255, 255, 255)" style="fill-opacity:1.00" />
<!-- End 'A' -->
<!-- Begin 'T' -->
<rect height="0.741304" width="50.000000" x="330.000000" y="320.708996" fill="rgb(0, 100, 0)" style="fill-opacity:0.52" />
<rect height="4.633152" width="10.000000" x="350.000000" y="320.708996" fill="rgb(0, 100, 0)" style="fill-opacity:0.52" />
<!-- End 'T' -->
<!-- Begin 'G' -->
<ellipse cx="355.000000" cy="326.957733" rx="25.000000" ry="1.615585" fill="rgb(255, 165, 0)" style="fill-opacity:0.52" />
<ellipse cx="355.000000" cy="326.957733" rx="16.666667" ry="1.077057" fill="rgb(255, 255, 255)" style="fill-opacity:1.00" />
<rect height="1.615585" width="25.000000" x="355.000000" y="326.149940" fill="rgb(255, 255, 255)" style="fill-opacity:1.00" />
<rect height="0.403896" width="25.000000" x="355.000000" y="327.361629" fill="rgb(255, 165, 0)" style="fill-opacity:0.52" />
<rect height="1.211689" width="6.250000" x="373.750000" y="327.361629" fill="rgb(255, 165, 0)" style="fill-opacity:0.52" />
<!-- End 'G' -->
<!-- Begin 'C' -->
<ellipse cx="355.000000" cy="329.286659" rx="25.000000" ry="0.713341" fill="rgb(0, 0, 128)" style="fill-opacity:0.52" />
<ellipse cx="355.000000" cy="329.286659" rx="16.666667" ry="0.475561" fill="rgb(255, 255, 255)" style="fill-opacity:1.00" />
<rect height="0.713341" width="25.000000" x="355.000000" y="328.929989" fill="rgb(255, 255, 255)" style="fill-opacity:1.00" />
<!-- End 'C' -->
<!-- Begin 'A' -->
<polygon points=" 330.000000, 417.215989, 351.000000, 340.000000, 359.000000, 340.000000, 380.000000, 417.215989, 372.500000, 417.215989, 366.250000, 397.911992, 343.750000, 397.911992, 337.500000, 417.215989" fill="rgb(178, 34, 34)" style="fill-opacity:0.22" />
<polygon points=" 355.000000, 355.443198, 347.000000, 385.329593, 362.000000, 385.329593" fill="rgb(255, 255, 255)" style="fill-opacity:1.00" />
<!-- End 'A' -->
<!-- Begin 'G' -->
<ellipse cx="355.000000" cy="423.448691" rx="25.000000" ry="6.232702" fill="rgb(255, 165, 0)" style="fill-opacity:0.22" />
<ellipse cx="355.000000" cy="423.448691" rx="16.666667" ry="4.155135" fill="rgb(255, 255, 255)" style="fill-opacity:1.00" />
<rect height="6.232702" width="25.000000" x="355.000000" y="420.332340" fill="rgb(255, 255, 255)" style="fill-opacity:1.00" />
<rect height="1.558176" width="25.000000" x="355.000000" y="425.006866" fill="rgb(255, 165, 0)" style="fill-opacity:0.22" />
<rect height="4.674527" width="6.250000" x="373.750000" y="425.006866" fill="rgb(255, 165, 0)" style="fill-opacity:0.22" />
<!-- End 'G' -->
<!-- Begin 'T' -->
<rect height="1.201367" width="50.000000" x="330.000000" y="429.681393" fill="rgb(0, 100, 0)" style="fill-opacity:0.22" />
<rect height="7.508546" width="10.000000" x="350.000000" y="429.681393" fill="rgb(0, 100, 0)" style="fill-opacity:0.22" />
<!-- End 'T' -->
<!-- Begin 'C' -->
<ellipse cx="355.000000" cy="438.594969" rx="25.000000" ry="1.405031" fill="rgb(0, 0, 128)" style="fill-opacity:0.22" />
<ellipse cx="355.000000" cy="438.594969" rx="16.666667" ry="0.936687" fill="rgb(255, 255, 255)" style="fill-opacity:1.00" />
<rect height="1.405031" width="25.000000" x="355.000000" y="437.892454" fill="rgb(255, 255, 255)" style="fill-opacity:1.00" />
<!-- End 'C' -->
<!-- Begin 'C' -->
<ellipse cx="415.000000" cy="45.306695" rx="25.000000" ry="35.306695" fill="rgb(0, 0, 128)" style="fill-opacity:0.81" />
<ellipse cx="415.000000" cy="45.306695" rx="16.666667" ry="23.537797" fill="rgb(255, 255, 255)" style="fill-opacity:1.00" />
<rect height="35.306695" width="25.000000" x="415.000000" y="27.653348" fill="rgb(255, 255, 255)" style="fill-opacity:1.00" />
<!-- End 'C' -->
<!-- Begin 'T' -->
<rect height="3.963034" width="50.000000" x="390.000000" y="80.613391" fill="rgb(0, 100, 0)" style="fill-opacity:0.81" />
<rect height="24.768961" width="10.000000" x="410.000000" y="80.613391" fill="rgb(0, 100, 0)" style="fill-opacity:0.81" />
<!-- End 'T' -->
<!-- Begin 'G' -->
<ellipse cx="415.000000" cy="107.014820" rx="25.000000" ry="1.632469" fill="rgb(255, 165, 0)" style="fill-opacity:0.81" />
<ellipse cx="415.000000" cy="107.014820" rx="16.666667" ry="1.088312" fill="rgb(255, 255, 255)" style="fill-opacity:1.00" />
<rect height="1.632469" width="25.000000" x="415.000000" y="106.198586" fill="rgb(255, 255, 255)" style="fill-opacity:1.00" />
<rect height="0.408117" width="25.000000" x="415.000000" y="107.422938" fill="rgb(255, 165, 0)" style="fill-opacity:0.81" />
<rect height="1.224351" width="6.250000" x="433.750000" y="107.422938" fill="rgb(255, 165, 0)" style="fill-opacity:0.81" />
<!-- End 'G' -->
<!-- Begin 'A' -->
<polygon points=" 390.000000, 110.000000, 411.000000, 108.647289, 419.000000, 108.647289, 440.000000, 110.000000, 432.500000, 110.000000, 426.250000, 109.661822, 403.750000, 109.661822, 397.500000, 110.000000" fill="rgb(178, 34, 34)" style="fill-opacity:0.81" />
<!-- End 'A' -->
<!-- Begin 'C' -->
<ellipse cx="415.000000" cy="169.990950" rx="25.000000" ry="49.990950" fill="rgb(0, 0, 128)" style="fill-opacity:0.03" />
<ellipse cx="415.000000" cy="169.990950" rx="16.666667" ry="33.327300" fill="rgb(255, 255, 255)" style="fill-opacity:1.00" />
<rect height="49.990950" width="25.000000" x="415.000000" y="144.995475" fill="rgb(255, 255, 255)" style="fill-opacity:1.00" />
<!-- End 'C' -->
<!-- Begin 'T' -->
<rect height="0.002873" width="50.000000" x="390.000000" y="219.981900" fill="rgb(0, 100, 0)" style="fill-opacity:0.03" />
<rect height="0.017957" width="10.000000" x="410.000000" y="219.981900" fill="rgb(0, 100, 0)" style="fill-opacity:0.03" />
<!-- End 'T' -->
<!-- Begin 'G' -->
<ellipse cx="415.000000" cy="219.999908" rx="25.000000" ry="0.000050" fill="rgb(255, 165, 0)" style="fill-opacity:0.03" />
<ellipse cx="415.000000" cy="219.999908" rx="16.666667" ry="0.000034" fill="rgb(255, 255, 255)" style="fill-opacity:1.00" />
<rect height="0.000050" width="25.000000" x="415.000000" y="219.999883" fill="rgb(255, 255, 255)" style="fill-opacity:1.00" />
<rect height="0.000013" width="25.000000" x="415.000000" y="219.999921" fill="rgb(255, 165, 0)" style="fill-opacity:0.03" />
<rect height="0.000038" width="6.250000" x="433.750000" y="219.999921" fill="rgb(255, 165, 0)" style="fill-opacity:0.03" />
<!-- End 'G' -->
<!-- Begin 'A' -->
<polygon points=" 390.000000, 220.000000, 411.000000, 219.999958, 419.000000, 219.999958, 440.000000, 220.000000, 432.500000, 220.000000, 426.250000, 219.999990, 403.750000, 219.999990, 397.500000, 220.000000" fill="rgb(178, 34, 34)" style="fill-opacity:0.03" />
<!-- End 'A' -->
<!-- Begin 'C' -->
<ellipse cx="415.000000" cy="273.486876" rx="25.000000" ry="43.486876" fill="rgb(0, 0, 128)" style="fill-opacity:0.04" />
<ellipse cx="415.000000" cy="273.486876" rx="16.666667" ry="28.991250" fill="rgb(255, 255, 255)" style="fill-opacity:1.00" />
<rect height="43.486876" width="25.000000" x="415.000000" y="251.743438" fill="rgb(255, 255, 255)" style="fill-opacity:1.00" />
<!-- End 'C' -->
<!-- Begin 'T' -->
<rect height="2.064393" width="50.000000" x="390.000000" y="316.973751" fill="rgb(0, 100, 0)" style="fill-opacity:0.04" />
<rect height="12.902456" width="10.000000" x="410.000000" y="316.973751" fill="rgb(0, 100, 0)" style="fill-opacity:0.04" />
<!-- End 'T' -->
<!-- Begin 'A' -->
<polygon points=" 390.000000, 329.999012, 411.000000, 329.876207, 419.000000, 329.876207, 440.000000, 329.999012, 432.500000, 329.999012, 426.250000, 329.968311, 403.750000, 329.968311, 397.500000, 329.999012" fill="rgb(178, 34, 34)" style="fill-opacity:0.04" />
<!-- End 'A' -->
<!-- Begin 'G' -->
<ellipse cx="415.000000" cy="329.999506" rx="25.000000" ry="0.000494" fill="rgb(255, 165, 0)" style="fill-opacity:0.04" />
<ellipse cx="415.000000" cy="329.999506" rx="16.666667" ry="0.000329" fill="rgb(255, 255, 255)" style="fill-opacity:1.00" />
<rect height="0.000494" width="25.000000" x="415.000000" y="329.999259" fill="rgb(255, 255, 255)" style="fill-opacity:1.00" />
<rect height="0.000123" width="25.000000" x="415.000000" y="329.999630" fill="rgb(255, 165, 0)" style="fill-opacity:0.04" />
<rect height="0.000370" width="6.250000" x="433.750000" y="329.999630" fill="rgb(255, 165, 0)" style="fill-opacity:0.04" />
<!-- End 'G' -->
<!-- Begin 'C' -->
<ellipse cx="415.000000" cy="389.257275" rx="25.000000" ry="49.257275" fill="rgb(0, 0, 128)" style="fill-opacity:0.12" />
<ellipse cx="415.000000" cy="389.257275" rx="16.666667" ry="32.838183" fill="rgb(255, 255, 255)" style="fill-opacity:1.00" />
<rect height="49.257275" width="25.000000" x="415.000000" y="364.628638" fill="rgb(255, 255, 255)" style="fill-opacity:1.00" />
<!-- End 'C' -->
<!-- Begin 'T' -->
<rect height="0.235547" width="50.000000" x="390.000000" y="438.514550" fill="rgb(0, 100, 0)" style="fill-opacity:0.12" />
<rect height="1.472171" width="10.000000" x="410.000000" y="438.514550" fill="rgb(0, 100, 0)" style="fill-opacity:0.12" />
<!-- End 'T' -->
<!-- Begin 'G' -->
<ellipse cx="415.000000" cy="439.993128" rx="25.000000" ry="0.006407" fill="rgb(255, 165, 0)" style="fill-opacity:0.12" />
<ellipse cx="415.000000" cy="439.993128" rx="16.666667" ry="0.004271" fill="rgb(255, 255, 255)" style="fill-opacity:1.00" />
<rect height="0.006407" width="25.000000" x="415.000000" y="439.989925" fill="rgb(255, 255, 255)" style="fill-opacity:1.00" />
<rect height="0.001602" width="25.000000" x="415.000000" y="439.994730" fill="rgb(255, 165, 0)" style="fill-opacity:0.12" />
<rect height="0.004805" width="6.250000" x="433.750000" y="439.994730" fill="rgb(255, 165, 0)" style="fill-opacity:0.12" />
<!-- End 'G' -->
<!-- Begin 'A' -->
<polygon points=" 390.000000, 440.000000, 411.000000, 439.999535, 419.000000, 439.999535, 440.000000, 440.000000, 432.500000, 440.000000, 426.250000, 439.999884, 403.750000, 439.999884, 397.500000, 440.000000" fill="rgb(178, 34, 34)" style="fill-opacity:0.12" />
<!-- End 'A' -->
<!-- Begin 'G' -->
<ellipse cx="475.000000" cy="59.994712" rx="25.000000" ry="49.994712" fill="rgb(255, 165, 0)" style="fill-opacity:0.01" />
<ellipse cx="475.000000" cy="59.994712" rx="16.666667" ry="33.329808" fill="rgb(255, 255, 255)" style="fill-opacity:1.00" />
<rect height="49.994712" width="25.000000" x="475.000000" y="34.997356" fill="rgb(255, 255, 255)" style="fill-opacity:1.00" />
<rect height="12.498678" width="25.000000" x="475.000000" y="72.493390" fill="rgb(255, 165, 0)" style="fill-opacity:0.01" />
<rect height="37.496034" width="6.250000" x="493.750000" y="72.493390" fill="rgb(255, 165, 0)" style="fill-opacity:0.01" />
<!-- End 'G' -->
<!-- Begin 'A' -->
<polygon points=" 450.000000, 109.999978, 471.000000, 109.989424, 479.000000, 109.989424, 500.000000, 109.999978, 492.500000, 109.999978, 486.250000, 109.997340, 463.750000, 109.997340, 457.500000, 109.999978" fill="rgb(178, 34, 34)" style="fill-opacity:0.01" />
<!-- End 'A' -->
<!-- Begin 'C' -->
<ellipse cx="475.000000" cy="109.999987" rx="25.000000" ry="0.000009" fill="rgb(0, 0, 128)" style="fill-opacity:0.01" />
<ellipse cx="475.000000" cy="109.999987" rx="16.666667" ry="0.000006" fill="rgb(255, 255, 255)" style="fill-opacity:1.00" />
<rect height="0.000009" width="25.000000" x="475.000000" y="109.999983" fill="rgb(255, 255, 255)" style="fill-opacity:1.00" />
<!-- End 'C' -->
<!-- Begin 'T' -->
<rect height="0.000001" width="50.000000" x="450.000000" y="109.999996" fill="rgb(0, 100, 0)" style="fill-opacity:0.01" />
<rect height="0.000004" width="10.000000" x="470.000000" y="109.999996" fill="rgb(0, 100, 0)" style="fill-opacity:0.01" />
<!-- End 'T' -->
<!-- Begin 'G' -->
<ellipse cx="475.000000" cy="157.468052" rx="25.000000" ry="37.468052" fill="rgb(255, 165, 0)" style="fill-opacity:0.75" />
<ellipse cx="475.000000" cy="157.468052" rx="16.666667" ry="24.978702" fill="rgb(255, 255, 255)" style="fill-opacity:1.00" />
<rect height="37.468052" width="25.000000" x="475.000000" y="138.734026" fill="rgb(255, 255, 255)" style="fill-opacity:1.00" />
<rect height="9.367013" width="25.000000" x="475.000000" y="166.835065" fill="rgb(255, 165, 0)" style="fill-opacity:0.75" />
<rect height="28.101039" width="6.250000" x="493.750000" y="166.835065" fill="rgb(255, 165, 0)" style="fill-opacity:0.75" />
<!-- End 'G' -->
<!-- Begin 'A' -->
<polygon points=" 450.000000, 216.933803, 471.000000, 194.936105, 479.000000, 194.936105, 500.000000, 216.933803, 492.500000, 216.933803, 486.250000, 211.434378, 463.750000, 211.434378, 457.500000, 216.933803" fill="rgb(178, 34, 34)" style="fill-opacity:0.75" />
<polygon points=" 475.000000, 199.335644, 467.000000, 207.134724, 482.000000, 207.134724" fill="rgb(255, 255, 255)" style="fill-opacity:1.00" />
<!-- End 'A' -->
<!-- Begin 'C' -->
<ellipse cx="475.000000" cy="217.962692" rx="25.000000" ry="1.028889" fill="rgb(0, 0, 128)" style="fill-opacity:0.75" />
<ellipse cx="475.000000" cy="217.962692" rx="16.666667" ry="0.685926" fill="rgb(255, 255, 255)" style="fill-opacity:1.00" />
<rect height="1.028889" width="25.000000" x="475.000000" y="217.448248" fill="rgb(255, 255, 255)" style="fill-opacity:1.00" />
<!-- End 'C' -->
<!-- Begin 'T' -->
<rect height="0.161347" width="50.000000" x="450.000000" y="218.991582" fill="rgb(0, 100, 0)" style="fill-opacity:0.75" />
<rect height="1.008418" width="10.000000" x="470.000000" y="218.991582" fill="rgb(0, 100, 0)" style="fill-opacity:0.75" />
<!-- End 'T' -->
<!-- Begin 'G' -->
<ellipse cx="475.000000" cy="261.377922" rx="25.000000" ry="31.377922" fill="rgb(255, 165, 0)" style="fill-opacity:0.03" />
<ellipse cx="475.000000" cy="261.377922" rx="16.666667" ry="20.918615" fill="rgb(255, 255, 255)" style="fill-opacity:1.00" />
<rect height="31.377922" width="25.000000" x="475.000000" y="245.688961" fill="rgb(255, 255, 255)" style="fill-opacity:1.00" />
<rect height="7.844480" width="25.000000" x="475.000000" y="269.222402" fill="rgb(255, 165, 0)" style="fill-opacity:0.03" />
<rect height="23.533441" width="6.250000" x="493.750000" y="269.222402" fill="rgb(255, 165, 0)" style="fill-opacity:0.03" />
<!-- End 'G' -->
<!-- Begin 'A' -->
<polygon points=" 450.000000, 319.144985, 471.000000, 292.755844, 479.000000, 292.755844, 500.000000, 319.144985, 492.500000, 319.144985, 486.250000, 312.547700, 463.750000, 312.547700, 457.500000, 319.144985" fill="rgb(178, 34, 34)" style="fill-opacity:0.03" />
<polygon points=" 475.000000, 298.033672, 467.000000, 307.589329, 482.000000, 307.589329" fill="rgb(255, 255, 255)" style="fill-opacity:1.00" />
<!-- End 'A' -->
<!-- Begin 'C' -->
<ellipse cx="475.000000" cy="324.572301" rx="25.000000" ry="5.427316" fill="rgb(0, 0, 128)" style="fill-opacity:0.03" />
<ellipse cx="475.000000" cy="324.572301" rx="16.666667" ry="3.618210" fill="rgb(255, 255, 255)" style="fill-opacity:1.00" />
<rect height="5.427316" width="25.000000" x="475.000000" y="321.858643" fill="rgb(255, 255, 255)" style="fill-opacity:1.00" />
<!-- End 'C' -->
<!-- Begin 'T' -->
<rect height="0.000061" width="50.000000" x="450.000000" y="329.999616" fill="rgb(0, 100, 0)" style="fill-opacity:0.03" />
<rect height="0.000384" width="10.000000" x="470.000000" y="329.999616" fill="rgb(0, 100, 0)" style="fill-opacity:0.03" />
<!-- End 'T' -->
<!-- Begin 'G' -->
<ellipse cx="475.000000" cy="384.273116" rx="25.000000" ry="44.273116" fill="rgb(255, 165, 0)" style="fill-opacity:0.21" />
<ellipse cx="475.000000" cy="384.273116" rx="16.666667" ry="29.515410" fill="rgb(255, 255, 255)" style="fill-opacity:1.00" />
<rect height="44.273116" width="25.000000" x="475.000000" y="362.136558" fill="rgb(255, 255, 255)" style="fill-opacity:1.00" />
<rect height="11.068279" width="25.000000" x="475.000000" y="395.341395" fill="rgb(255, 165, 0)" style="fill-opacity:0.21" />
<rect height="33.204837" width="6.250000" x="493.750000" y="395.341395" fill="rgb(255, 165, 0)" style="fill-opacity:0.21" />
<!-- End 'G' -->
<!-- Begin 'A' -->
<polygon points=" 450.000000, 436.021292, 471.000000, 428.546231, 479.000000, 428.546231, 500.000000, 436.021292, 492.500000, 436.021292, 486.250000, 434.152527, 463.750000, 434.152527, 457.500000, 436.021292" fill="rgb(178, 34, 34)" style="fill-opacity:0.21" />
<!-- End 'A' -->
<!-- Begin 'C' -->
<ellipse cx="475.000000" cy="438.000628" rx="25.000000" ry="1.979336" fill="rgb(0, 0, 128)" style="fill-opacity:0.21" />
<ellipse cx="475.000000" cy="438.000628" rx="16.666667" ry="1.319558" fill="rgb(255, 255, 255)" style="fill-opacity:1.00" />
<rect height="1.979336" width="25.000000" x="475.000000" y="437.010960" fill="rgb(255, 255, 255)" style="fill-opacity:1.00" />
<!-- End 'C' -->
<!-- Begin 'T' -->
<rect height="0.003206" width="50.000000" x="450.000000" y="439.979964" fill="rgb(0, 100, 0)" style="fill-opacity:0.21" />
<rect height="0.020036" width="10.000000" x="470.000000" y="439.979964" fill="rgb(0, 100, 0)" style="fill-opacity:0.21" />
<!-- End 'T' -->
<!-- Begin 'T' -->
<rect height="15.969387" width="50.000000" x="510.000000" y="10.000000" fill="rgb(0, 100, 0)" style="fill-opacity:0.19" />
<rect height="99.808670" width="10.000000" x="530.000000" y="10.000000" fill="rgb(0, 100, 0)" style="fill-opacity:0.19" />
<!-- End 'T' -->
<!-- Begin 'C' -->
<ellipse cx="535.000000" cy="109.872715" rx="25.000000" ry="0.064045" fill="rgb(0, 0, 128)" style="fill-opacity:0.19" />
<ellipse cx="535.000000" cy="109.872715" rx="16.666667" ry="0.042697" fill="rgb(255, 255, 255)" style="fill-opacity:1.00" />
<rect height="0.064045" width="25.000000" x="535.000000" y="109.840692" fill="rgb(255, 255, 255)" style="fill-opacity:1.00" />
<!-- End 'C' -->
<!-- Begin 'A' -->
<polygon points=" 510.000000, 109.999135, 531.000000, 109.936760, 539.000000, 109.936760, 560.000000, 109.999135, 552.500000, 109.999135, 546.250000, 109.983541, 523.750000, 109.983541, 517.500000, 109.999135" fill="rgb(178, 34, 34)" style="fill-opacity:0.19" />
<!-- End 'A' -->
<!-- Begin 'G' -->
<ellipse cx="535.000000" cy="109.999567" rx="25.000000" ry="0.000433" fill="rgb(255, 165, 0)" style="fill-opacity:0.19" />
<ellipse cx="535.000000" cy="109.999567" rx="16.666667" ry="0.000288" fill="rgb(255, 255, 255)" style="fill-opacity:1.00" />
<rect height="0.000433" width="25.000000" x="535.000000" y="109.999351" fill="rgb(255, 255, 255)" style="fill-opacity:1.00" />
<rect height="0.000108" width="25.000000" x="535.000000" y="109.999676" fill="rgb(255, 165, 0)" style="fill-opacity:0.19" />
<rect height="0.000324" width="6.250000" x="553.750000" y="109.999676" fill="rgb(255, 165, 0)" style="fill-opacity:0.19" />
<!-- End 'G' -->
<!-- Begin 'T' -->
<rect height="15.932749" width="50.000000" x="510.000000" y="120.000000" fill="rgb(0, 100, 0)" style="fill-opacity:0.03" />
<rect height="99.579678" width="10.000000" x="530.000000" y="120.000000" fill="rgb(0, 100, 0)" style="fill-opacity:0.03" />
<!-- End 'T' -->
<!-- Begin 'A' -->
<polygon points=" 510.000000, 219.990736, 531.000000, 219.579678, 539.000000, 219.579678, 560.000000, 219.990736, 552.500000, 219.990736, 546.250000, 219.887972, 523.750000, 219.887972, 517.500000, 219.990736" fill="rgb(178, 34, 34)" style="fill-opacity:0.03" />
<!-- End 'A' -->
<!-- Begin 'G' -->
<ellipse cx="535.000000" cy="219.993835" rx="25.000000" ry="0.003099" fill="rgb(255, 165, 0)" style="fill-opacity:0.03" />
<ellipse cx="535.000000" cy="219.993835" rx="16.666667" ry="0.002066" fill="rgb(255, 255, 255)" style="fill-opacity:1.00" />
<rect height="0.003099" width="25.000000" x="535.000000" y="219.992286" fill="rgb(255, 255, 255)" style="fill-opacity:1.00" />
<rect height="0.000775" width="25.000000" x="535.000000" y="219.994610" fill="rgb(255, 165, 0)" style="fill-opacity:0.03" />
<rect height="0.002324" width="6.250000" x="553.750000" y="219.994610" fill="rgb(255, 165, 0)" style="fill-opacity:0.03" />
<!-- End 'G' -->
<!-- Begin 'C' -->
<ellipse cx="535.000000" cy="219.998467" rx="25.000000" ry="0.001533" fill="rgb(0, 0, 128)" style="fill-opacity:0.03" />
<ellipse cx="535.000000" cy="219.998467" rx="16.666667" ry="0.001022" fill="rgb(255, 255, 255)" style="fill-opacity:1.00" />
<rect height="0.001533" width="25.000000" x="535.000000" y="219.997700" fill="rgb(255, 255, 255)" style="fill-opacity:1.00" />
<!-- End 'C' -->
<!-- Begin 'T' -->
<rect height="11.729772" width="50.000000" x="510.000000" y="230.000000" fill="rgb(0, 100, 0)" style="fill-opacity:0.78" />
<rect height="73.311075" width="10.000000" x="530.000000" y="230.000000" fill="rgb(0, 100, 0)" style="fill-opacity:0.78" />
<!-- End 'T' -->
<!-- Begin 'A' -->
<polygon points=" 510.000000, 318.319488, 531.000000, 303.311075, 539.000000, 303.311075, 560.000000, 318.319488, 552.500000, 318.319488, 546.250000, 314.567385, 523.750000, 314.567385, 517.500000, 318.319488" fill="rgb(178, 34, 34)" style="fill-opacity:0.78" />
<polygon points=" 535.000000, 306.312758, 527.000000, 311.316123, 542.000000, 311.316123" fill="rgb(255, 255, 255)" style="fill-opacity:1.00" />
<!-- End 'A' -->
<!-- Begin 'C' -->
<ellipse cx="535.000000" cy="321.393651" rx="25.000000" ry="3.074162" fill="rgb(0, 0, 128)" style="fill-opacity:0.78" />
<ellipse cx="535.000000" cy="321.393651" rx="16.666667" ry="2.049442" fill="rgb(255, 255, 255)" style="fill-opacity:1.00" />
<rect height="3.074162" width="25.000000" x="535.000000" y="319.856570" fill="rgb(255, 255, 255)" style="fill-opacity:1.00" />
<!-- End 'C' -->
<!-- Begin 'G' -->
<ellipse cx="535.000000" cy="327.233907" rx="25.000000" ry="2.766093" fill="rgb(255, 165, 0)" style="fill-opacity:0.78" />
<ellipse cx="535.000000" cy="327.233907" rx="16.666667" ry="1.844062" fill="rgb(255, 255, 255)" style="fill-opacity:1.00" />
<rect height="2.766093" width="25.000000" x="535.000000" y="325.850860" fill="rgb(255, 255, 255)" style="fill-opacity:1.00" />
<rect height="0.691523" width="25.000000" x="535.000000" y="327.925430" fill="rgb(255, 165, 0)" style="fill-opacity:0.78" />
<rect height="2.074570" width="6.250000" x="553.750000" y="327.925430" fill="rgb(255, 165, 0)" style="fill-opacity:0.78" />
<!-- End 'G' -->
<!-- Begin 'T' -->
<rect height="15.968077" width="50.000000" x="510.000000" y="340.000000" fill="rgb(0, 100, 0)" style="fill-opacity:0.01" />
<rect height="99.800481" width="10.000000" x="530.000000" y="340.000000" fill="rgb(0, 100, 0)" style="fill-opacity:0.01" />
<!-- End 'T' -->
<!-- Begin 'C' -->
<ellipse cx="535.000000" cy="439.894854" rx="25.000000" ry="0.094373" fill="rgb(0, 0, 128)" style="fill-opacity:0.01" />
<ellipse cx="535.000000" cy="439.894854" rx="16.666667" ry="0.062915" fill="rgb(255, 255, 255)" style="fill-opacity:1.00" />
<rect height="0.094373" width="25.000000" x="535.000000" y="439.847667" fill="rgb(255, 255, 255)" style="fill-opacity:1.00" />
<!-- End 'C' -->
<!-- Begin 'G' -->
<ellipse cx="535.000000" cy="439.993295" rx="25.000000" ry="0.004069" fill="rgb(255, 165, 0)" style="fill-opacity:0.01" />
<ellipse cx="535.000000" cy="439.993295" rx="16.666667" ry="0.002712" fill="rgb(255, 255, 255)" style="fill-opacity:1.00" />
<rect height="0.004069" width="25.000000" x="535.000000" y="439.991261" fill="rgb(255, 255, 255)" style="fill-opacity:1.00" />
<rect height="0.001017" width="25.000000" x="535.000000" y="439.994312" fill="rgb(255, 165, 0)" style="fill-opacity:0.01" />
<rect height="0.003051" width="6.250000" x="553.750000" y="439.994312" fill="rgb(255, 165, 0)" style="fill-opacity:0.01" />
<!-- End 'G' -->
<!-- Begin 'A' -->
<polygon points=" 510.000000, 440.000000, 531.000000, 439.997364, 539.000000, 439.997364, 560.000000, 440.000000, 552.500000, 440.000000, 546.250000, 439.999341, 523.750000, 439.999341, 517.500000, 440.000000" fill="rgb(178, 34, 34)" style="fill-opacity:0.01" />
<!-- End 'A' -->
<!-- Begin 'T' -->
<rect height="8.597674" width="50.000000" x="570.000000" y="10.000000" fill="rgb(0, 100, 0)" style="fill-opacity:0.12" />
<rect height="53.735464" width="10.000000" x="590.000000" y="10.000000" fill="rgb(0, 100, 0)" style="fill-opacity:0.12" />
<!-- End 'T' -->
<!-- Begin 'C' -->
<ellipse cx="595.000000" cy="73.251702" rx="25.000000" ry="9.516238" fill="rgb(0, 0, 128)" style="fill-opacity:0.12" />
<ellipse cx="595.000000" cy="73.251702" rx="16.666667" ry="6.344158" fill="rgb(255, 255, 255)" style="fill-opacity:1.00" />
<rect height="9.516238" width="25.000000" x="595.000000" y="68.493583" fill="rgb(255, 255, 255)" style="fill-opacity:1.00" />
<!-- End 'C' -->
<!-- Begin 'A' -->
<polygon points=" 570.000000, 101.614239, 591.000000, 82.767940, 599.000000, 82.767940, 620.000000, 101.614239, 612.500000, 101.614239, 606.250000, 96.902665, 583.750000, 96.902665, 577.500000, 101.614239" fill="rgb(178, 34, 34)" style="fill-opacity:0.12" />
<polygon points=" 595.000000, 86.537200, 587.000000, 93.075720, 602.000000, 93.075720" fill="rgb(255, 255, 255)" style="fill-opacity:1.00" />
<!-- End 'A' -->
<!-- Begin 'G' -->
<ellipse cx="595.000000" cy="105.807120" rx="25.000000" ry="4.192880" fill="rgb(255, 165, 0)" style="fill-opacity:0.12" />
<ellipse cx="595.000000" cy="105.807120" rx="16.666667" ry="2.795254" fill="rgb(255, 255, 255)" style="fill-opacity:1.00" />
<rect height="4.192880" width="25.000000" x="595.000000" y="103.710680" fill="rgb(255, 255, 255)" style="fill-opacity:1.00" />
<rect height="1.048220" width="25.000000" x="595.000000" y="106.855340" fill="rgb(255, 165, 0)" style="fill-opacity:0.12" />
<rect height="3.144660" width="6.250000" x="613.750000" y="106.855340" fill="rgb(255, 165, 0)" style="fill-opacity:0.12" />
<!-- End 'G' -->
<!-- Begin 'A' -->
<polygon points=" 570.000000, 175.501997, 591.000000, 120.000000, 599.000000, 120.000000, 620.000000, 175.501997, 612.500000, 175.501997, 606.250000, 161.626498, 583.750000, 161.626498, 577.500000, 175.501997" fill="rgb(178, 34, 34)" style="fill-opacity:0.05" />
<polygon points=" 595.000000, 131.100399, 587.000000, 152.301198, 602.000000, 152.301198" fill="rgb(255, 255, 255)" style="fill-opacity:1.00" />
<!-- End 'A' -->
<!-- Begin 'C' -->
<ellipse cx="595.000000" cy="188.337714" rx="25.000000" ry="12.835717" fill="rgb(0, 0, 128)" style="fill-opacity:0.05" />
<ellipse cx="595.000000" cy="188.337714" rx="16.666667" ry="8.557145" fill="rgb(255, 255, 255)" style="fill-opacity:1.00" />
<rect height="12.835717" width="25.000000" x="595.000000" y="181.919856" fill="rgb(255, 255, 255)" style="fill-opacity:1.00" />
<!-- End 'C' -->
<!-- Begin 'T' -->
<rect height="1.657368" width="50.000000" x="570.000000" y="201.173431" fill="rgb(0, 100, 0)" style="fill-opacity:0.05" />
<rect height="10.358549" width="10.000000" x="590.000000" y="201.173431" fill="rgb(0, 100, 0)" style="fill-opacity:0.05" />
<!-- End 'T' -->
<!-- Begin 'G' -->
<ellipse cx="595.000000" cy="215.765990" rx="25.000000" ry="4.234010" fill="rgb(255, 165, 0)" style="fill-opacity:0.05" />
<ellipse cx="595.000000" cy="215.765990" rx="16.666667" ry="2.822673" fill="rgb(255, 255, 255)" style="fill-opacity:1.00" />
<rect height="4.234010" width="25.000000" x="595.000000" y="213.648985" fill="rgb(255, 255, 255)" style="fill-opacity:1.00" />
<rect height="1.058502" width="25.000000" x="595.000000" y="216.824493" fill="rgb(255, 165, 0)" style="fill-opacity:0.05" />
<rect height="3.175507" width="6.250000" x="613.750000" y="216.824493" fill="rgb(255, 165, 0)" style="fill-opacity:0.05" />
<!-- End 'G' -->
<!-- Begin 'T' -->
<rect height="7.742651" width="50.000000" x="570.000000" y="230.000000" fill="rgb(0, 100, 0)" style="fill-opacity:0.04" />
<rect height="48.391569" width="10.000000" x="590.000000" y="230.000000" fill="rgb(0, 100, 0)" style="fill-opacity:0.04" />
<!-- End 'T' -->
<!-- Begin 'A' -->
<polygon points=" 570.000000, 313.066316, 591.000000, 278.391569, 599.000000, 278.391569, 620.000000, 313.066316, 612.500000, 313.066316, 606.250000, 304.397629, 583.750000, 304.397629, 577.500000, 313.066316" fill="rgb(178, 34, 34)" style="fill-opacity:0.04" />
<polygon points=" 595.000000, 285.326518, 587.000000, 298.196417, 602.000000, 298.196417" fill="rgb(255, 255, 255)" style="fill-opacity:1.00" />
<!-- End 'A' -->
<!-- Begin 'C' -->
<ellipse cx="595.000000" cy="320.624134" rx="25.000000" ry="7.557818" fill="rgb(0, 0, 128)" style="fill-opacity:0.04" />
<ellipse cx="595.000000" cy="320.624134" rx="16.666667" ry="5.038545" fill="rgb(255, 255, 255)" style="fill-opacity:1.00" />
<rect height="7.557818" width="25.000000" x="595.000000" y="316.845225" fill="rgb(255, 255, 255)" style="fill-opacity:1.00" />
<!-- End 'C' -->
<!-- Begin 'G' -->
<ellipse cx="595.000000" cy="329.090976" rx="25.000000" ry="0.909024" fill="rgb(255, 165, 0)" style="fill-opacity:0.04" />
<ellipse cx="595.000000" cy="329.090976" rx="16.666667" ry="0.606016" fill="rgb(255, 255, 255)" style="fill-opacity:1.00" />
<rect height="0.909024" width="25.000000" x="595.000000" y="328.636464" fill="rgb(255, 255, 255)" style="fill-opacity:1.00" />
<rect height="0.227256" width="25.000000" x="595.000000" y="329.318232" fill="rgb(255, 165, 0)" style="fill-opacity:0.04" />
<rect height="0.681768" width="6.250000" x="613.750000" y="329.318232" fill="rgb(255, 165, 0)" style="fill-opacity:0.04" />
<!-- End 'G' -->
<!-- Begin 'C' -->
<ellipse cx="595.000000" cy="367.921743" rx="25.000000" ry="27.921743" fill="rgb(0, 0, 128)" style="fill-opacity:0.79" />
<ellipse cx="595.000000" cy="367.921743" rx="16.666667" ry="18.614495" fill="rgb(255, 255, 255)" style="fill-opacity:1.00" />
<rect height="27.921743" width="25.000000" x="595.000000" y="353.960871" fill="rgb(255, 255, 255)" style="fill-opacity:1.00" />
<!-- End 'C' -->
<!-- Begin 'A' -->
<polygon points=" 570.000000, 416.874764, 591.000000, 395.843486, 599.000000, 395.843486, 620.000000, 416.874764, 612.500000, 416.874764, 606.250000, 411.616944, 583.750000, 411.616944, 577.500000, 416.874764" fill="rgb(178, 34, 34)" style="fill-opacity:0.79" />
<polygon points=" 595.000000, 400.049741, 587.000000, 407.462253, 602.000000, 407.462253" fill="rgb(255, 255, 255)" style="fill-opacity:1.00" />
<!-- End 'A' -->
<!-- Begin 'G' -->
<ellipse cx="595.000000" cy="424.745066" rx="25.000000" ry="7.870302" fill="rgb(255, 165, 0)" style="fill-opacity:0.79" />
<ellipse cx="595.000000" cy="424.745066" rx="16.666667" ry="5.246868" fill="rgb(255, 255, 255)" style="fill-opacity:1.00" />
<rect height="7.870302" width="25.000000" x="595.000000" y="420.809915" fill="rgb(255, 255, 255)" style="fill-opacity:1.00" />
<rect height="1.967575" width="25.000000" x="595.000000" y="426.712641" fill="rgb(255, 165, 0)" style="fill-opacity:0.79" />
<rect height="5.902726" width="6.250000" x="613.750000" y="426.712641" fill="rgb(255, 165, 0)" style="fill-opacity:0.79" />
<!-- End 'G' -->
<!-- Begin 'T' -->
<rect height="1.181541" width="50.000000" x="570.000000" y="432.615368" fill="rgb(0, 100, 0)" style="fill-opacity:0.79" />
<rect height="7.384632" width="10.000000" x="590.000000" y="432.615368" fill="rgb(0, 100, 0)" style="fill-opacity:0.79" />
<!-- End 'T' -->
<!-- Begin 'A' -->
<polygon points=" 630.000000, 58.122303, 651.000000, 10.000000, 659.000000, 10.000000, 680.000000, 58.122303, 672.500000, 58.122303, 666.250000, 46.091727, 643.750000, 46.091727, 637.500000, 58.122303" fill="rgb(178, 34, 34)" style="fill-opacity:0.23" />
<polygon points=" 655.000000, 19.624461, 647.000000, 37.873382, 662.000000, 37.873382" fill="rgb(255, 255, 255)" style="fill-opacity:1.00" />
<!-- End 'A' -->
<!-- Begin 'T' -->
<rect height="4.227953" width="50.000000" x="630.000000" y="58.122303" fill="rgb(0, 100, 0)" style="fill-opacity:0.23" />
<rect height="26.424706" width="10.000000" x="650.000000" y="58.122303" fill="rgb(0, 100, 0)" style="fill-opacity:0.23" />
<!-- End 'T' -->
<!-- Begin 'G' -->
<ellipse cx="655.000000" cy="92.994699" rx="25.000000" ry="8.447691" fill="rgb(255, 165, 0)" style="fill-opacity:0.23" />
<ellipse cx="655.000000" cy="92.994699" rx="16.666667" ry="5.631794" fill="rgb(255, 255, 255)" style="fill-opacity:1.00" />
<rect height="8.447691" width="25.000000" x="655.000000" y="88.770854" fill="rgb(255, 255, 255)" style="fill-opacity:1.00" />
<rect height="2.111923" width="25.000000" x="655.000000" y="95.106622" fill="rgb(255, 165, 0)" style="fill-opacity:0.23" />
<rect height="6.335768" width="6.250000" x="673.750000" y="95.106622" fill="rgb(255, 165, 0)" style="fill-opacity:0.23" />
<!-- End 'G' -->
<!-- Begin 'C' -->
<ellipse cx="655.000000" cy="105.721195" rx="25.000000" ry="4.278805" fill="rgb(0, 0, 128)" style="fill-opacity:0.23" />
<ellipse cx="655.000000" cy="105.721195" rx="16.666667" ry="2.852537" fill="rgb(255, 255, 255)" style="fill-opacity:1.00" />
<rect height="4.278805" width="25.000000" x="655.000000" y="103.581792" fill="rgb(255, 255, 255)" style="fill-opacity:1.00" />
<!-- End 'C' -->
<!-- Begin 'A' -->
<polygon points=" 630.000000, 206.535594, 651.000000, 120.000000, 659.000000, 120.000000, 680.000000, 206.535594, 672.500000, 206.535594, 666.250000, 184.901695, 643.750000, 184.901695, 637.500000, 206.535594" fill="rgb(178, 34, 34)" style="fill-opacity:0.48" />
<polygon points=" 655.000000, 137.307119, 647.000000, 170.921356, 662.000000, 170.921356" fill="rgb(255, 255, 255)" style="fill-opacity:1.00" />
<!-- End 'A' -->
<!-- Begin 'G' -->
<ellipse cx="655.000000" cy="210.165175" rx="25.000000" ry="3.629582" fill="rgb(255, 165, 0)" style="fill-opacity:0.48" />
<ellipse cx="655.000000" cy="210.165175" rx="16.666667" ry="2.419721" fill="rgb(255, 255, 255)" style="fill-opacity:1.00" />
<rect height="3.629582" width="25.000000" x="655.000000" y="208.350385" fill="rgb(255, 255, 255)" style="fill-opacity:1.00" />
<rect height="0.907395" width="25.000000" x="655.000000" y="211.072571" fill="rgb(255, 165, 0)" style="fill-opacity:0.48" />
<rect height="2.722186" width="6.250000" x="673.750000" y="211.072571" fill="rgb(255, 165, 0)" style="fill-opacity:0.48" />
<!-- End 'G' -->
<!-- Begin 'T' -->
<rect height="0.754696" width="50.000000" x="630.000000" y="213.794757" fill="rgb(0, 100, 0)" style="fill-opacity:0.48" />
<rect height="4.716849" width="10.000000" x="650.000000" y="213.794757" fill="rgb(0, 100, 0)" style="fill-opacity:0.48" />
<!-- End 'T' -->
<!-- Begin 'C' -->
<ellipse cx="655.000000" cy="219.255803" rx="25.000000" ry="0.744197" fill="rgb(0, 0, 128)" style="fill-opacity:0.48" />
<ellipse cx="655.000000" cy="219.255803" rx="16.666667" ry="0.496131" fill="rgb(255, 255, 255)" style="fill-opacity:1.00" />
<rect height="0.744197" width="25.000000" x="655.000000" y="218.883704" fill="rgb(255, 255, 255)" style="fill-opacity:1.00" />
<!-- End 'C' -->
<!-- Begin 'G' -->
<ellipse cx="655.000000" cy="251.236498" rx="25.000000" ry="21.236498" fill="rgb(255, 165, 0)" style="fill-opacity:0.14" />
<ellipse cx="655.000000" cy="251.236498" rx="16.666667" ry="14.157665" fill="rgb(255, 255, 255)" style="fill-opacity:1.00" />
<rect height="21.236498" width="25.000000" x="655.000000" y="240.618249" fill="rgb(255, 255, 255)" style="fill-opacity:1.00" />
<rect height="5.309125" width="25.000000" x="655.000000" y="256.545623" fill="rgb(255, 165, 0)" style="fill-opacity:0.14" />
<rect height="15.927374" width="6.250000" x="673.750000" y="256.545623" fill="rgb(255, 165, 0)" style="fill-opacity:0.14" />
<!-- End 'G' -->
<!-- Begin 'T' -->
<rect height="5.823381" width="50.000000" x="630.000000" y="272.472996" fill="rgb(0, 100, 0)" style="fill-opacity:0.14" />
<rect height="36.396134" width="10.000000" x="650.000000" y="272.472996" fill="rgb(0, 100, 0)" style="fill-opacity:0.14" />
<!-- End 'T' -->
<!-- Begin 'A' -->
<polygon points=" 630.000000, 325.887917, 651.000000, 308.869130, 659.000000, 308.869130, 680.000000, 325.887917, 672.500000, 325.887917, 666.250000, 321.633220, 643.750000, 321.633220, 637.500000, 325.887917" fill="rgb(178, 34, 34)" style="fill-opacity:0.14" />
<polygon points=" 655.000000, 312.272887, 647.000000, 318.080402, 662.000000, 318.080402" fill="rgb(255, 255, 255)" style="fill-opacity:1.00" />
<!-- End 'A' -->
<!-- Begin 'C' -->
<ellipse cx="655.000000" cy="327.943959" rx="25.000000" ry="2.056041" fill="rgb(0, 0, 128)" style="fill-opacity:0.14" />
<ellipse cx="655.000000" cy="327.943959" rx="16.666667" ry="1.370694" fill="rgb(255, 255, 255)" style="fill-opacity:1.00" />
<rect height="2.056041" width="25.000000" x="655.000000" y="326.915938" fill="rgb(255, 255, 255)" style="fill-opacity:1.00" />
<!-- End 'C' -->
<!-- Begin 'G' -->
<ellipse cx="655.000000" cy="368.499951" rx="25.000000" ry="28.499951" fill="rgb(255, 165, 0)" style="fill-opacity:0.15" />
<ellipse cx="655.000000" cy="368.499951" rx="16.666667" ry="18.999967" fill="rgb(255, 255, 255)" style="fill-opacity:1.00" />
<rect height="28.499951" width="25.000000" x="655.000000" y="354.249975" fill="rgb(255, 255, 255)" style="fill-opacity:1.00" />
<rect height="7.124988" width="25.000000" x="655.000000" y="375.624939" fill="rgb(255, 165, 0)" style="fill-opacity:0.15" />
<rect height="21.374963" width="6.250000" x="673.750000" y="375.624939" fill="rgb(255, 165, 0)" style="fill-opacity:0.15" />
<!-- End 'G' -->
<!-- Begin 'A' -->
<polygon points=" 630.000000, 417.541688, 651.000000, 396.999902, 659.000000, 396.999902, 680.000000, 417.541688, 672.500000, 417.541688, 666.250000, 412.406242, 643.750000, 412.406242, 637.500000, 417.541688" fill="rgb(178, 34, 34)" style="fill-opacity:0.15" />
<polygon points=" 655.000000, 401.108259, 647.000000, 408.324974, 662.000000, 408.324974" fill="rgb(255, 255, 255)" style="fill-opacity:1.00" />
<!-- End 'A' -->
<!-- Begin 'T' -->
<rect height="2.756605" width="50.000000" x="630.000000" y="417.541688" fill="rgb(0, 100, 0)" style="fill-opacity:0.15" />
<rect height="17.228783" width="10.000000" x="650.000000" y="417.541688" fill="rgb(0, 100, 0)" style="fill-opacity:0.15" />
<!-- End 'T' -->
<!-- Begin 'C' -->
<ellipse cx="655.000000" cy="437.385235" rx="25.000000" ry="2.614765" fill="rgb(0, 0, 128)" style="fill-opacity:0.15" />
<ellipse cx="655.000000" cy="437.385235" rx="16.666667" ry="1.743176" fill="rgb(255, 255, 255)" style="fill-opacity:1.00" />
<rect height="2.614765" width="25.000000" x="655.000000" y="436.077853" fill="rgb(255, 255, 255)" style="fill-opacity:1.00" />
<!-- End 'C' -->
<text x="370.000000" y="495">
IC = 5.69
</text>

</svg>
